\relax 
\@writefile{toc}{\contentsline {section}{\numberline {1}VMs Placement Problem Formulation}{1}}
\citation{Gil:02}
\@writefile{toc}{\contentsline {section}{\numberline {2}Previous work}{4}}
\newlabel{previous work}{{2}{4}}
\bibstyle{abbrv}
\bibdata{simple}
\@writefile{toc}{\contentsline {paragraph}{Outline}{6}}
\@writefile{toc}{\contentsline {section}{\numberline {3}Results}{6}}
\newlabel{results}{{3}{6}}
\@writefile{toc}{\contentsline {section}{\numberline {4}Conclusions}{6}}
\newlabel{conclusions}{{4}{6}}
