5700000000,6000000000,209193844,0,567917,0.0001717,0.09399,0.1011,0.0004559,0.0008583,0.09399,2.861e-06,0.0001698,0.02631,0.0001431,2.246,0.00693,0,1,0
6000000000,6300000000,209193844,0,567917,0.0001698,0.09399,0.1011,0.0004568,0.0008593,0.09399,2.861e-06,0.0001698,0.004807,0.0001431,2.37,0.007373,0,1,0
6300000000,6600000000,209193844,0,567917,0.0001545,0.09399,0.1011,0.0004568,0.0008602,0.09399,1.907e-06,0.0001698,0.003967,7.153e-05,3.436,0.01286,0,1,0
6600000000,6900000000,209193844,0,567917,0.0001583,0.09399,0.1011,0.0004578,0.0008602,0.09399,2.861e-06,0.0001698,0.003712,0.0002146,3.058,0.01107,0,1,0
6900000000,7200000000,209193844,0,567917,0.0001736,0.09399,0.1011,0.0004578,0.0008612,0.09399,2.861e-06,0.0001698,0.006592,0.0004282,3.127,0.01178,0,1,0
7200000000,7500000000,209193844,0,567917,0.0001612,0.09399,0.1011,0.0004587,0.0008612,0.09399,2.861e-06,0.0001698,0.003689,0.0001431,4.902,0.02089,0,1,0
7500000000,7800000000,209193844,0,567917,0.0001593,0.09399,0.1011,0.0004587,0.0008621,0.09399,1.907e-06,0.0001698,0.003624,7.153e-05,4.647,0.01971,0,1,0
7800000000,8100000000,209193844,0,567917,0.0001745,0.09399,0.1011,0.0004597,0.0008621,0.09399,4.768e-06,0.0001698,0.004616,0.0009995,4.632,0.01942,0,1,0
8100000000,8400000000,209193844,0,567917,0.000165,0.09399,0.1011,0.0004597,0.0008631,0.09399,4.768e-06,0.0001698,0.007072,0.0005713,3.359,0.01285,0,1,0
8400000000,8700000000,209193844,0,567917,0.0002193,0.09399,0.1011,0.0004597,0.0008621,0.09399,2.861e-06,0.0001698,0.009521,0.0002861,1.841,0.005337,0,1,0
8700000000,9000000000,209193844,0,567917,0.0001717,0.09399,0.1011,0.0004597,0.0008621,0.09399,1.907e-06,0.0001698,0.007256,7.153e-05,5.754,0.0245,0,1,0
9000000000,9300000000,209193844,0,567917,0.0001783,0.09399,0.1011,0.0004597,0.0008631,0.09399,2.861e-06,0.0001698,0.007027,0.0001431,3.43,0.01307,0,1,0
9300000000,9600000000,209193844,0,567917,0.0001936,0.09399,0.1011,0.0004606,0.0008631,0.09399,2.861e-06,0.0001698,0.005989,0.0001431,2.894,0.01014,0,1,0
9600000000,9900000000,209193844,0,567917,0.0001717,0.09399,0.1011,0.0004606,0.000864,0.09399,1.907e-06,0.0001698,0.006561,0.0001431,6.008,0.02525,0,1,0
9900000000,10200000000,209193844,0,567917,0.0002069,0.09399,0.1011,0.0004616,0.000864,0.09399,2.861e-06,0.0001698,0.01117,0.0002861,3.13,0.01137,0,1,0
10200000000,10500000000,209193844,0,567917,0.0001764,0.09399,0.1011,0.0004616,0.000865,0.09399,2.861e-06,0.0001698,0.006798,0.0001431,4.035,0.01607,0,1,0
10500000000,10800000000,209193844,0,567917,0.0001831,0.09399,0.1011,0.0004625,0.000865,0.09399,1.907e-06,0.0001698,0.006775,7.153e-05,3.809,0.01429,0,1,0
10800000000,11100000000,209193844,0,567917,0.0001659,0.09399,0.1011,0.0004625,0.0008659,0.09399,2.861e-06,0.0001698,0.003876,0.0001431,4.413,0.01793,0,1,0
11100000000,11400000000,209193844,0,567917,0.0001726,0.09399,0.1011,0.0004549,0.0008574,0.09399,1.907e-06,0.0001698,0.01344,7.153e-05,3.066,0.01131,0,1,0
11400000000,11700000000,209193844,0,567917,0.0002022,0.09399,0.1011,0.0004444,0.0008478,0.09399,1.907e-06,0.0001698,0.006172,0.0001431,2.804,0.009361,0,1,0
11700000000,12000000000,209193844,0,567917,0.0001822,0.09399,0.1011,0.0004454,0.0008478,0.09399,2.861e-06,0.0001698,0.006195,7.153e-05,3.344,0.01217,0,1,0
12000000000,12300000000,209193844,0,567917,0.0001764,0.09399,0.1011,0.0004463,0.0008488,0.09399,5.722e-06,0.0001698,0.004135,0.0009289,4.373,0.01754,0,1,0
12300000000,12600000000,209193844,0,567917,0.000185,0.09399,0.1011,0.0004463,0.0008497,0.09399,1.907e-06,0.0001698,0.01323,7.153e-05,5.77,0.02367,0,1,0
12600000000,12900000000,209193844,0,567917,0.0002108,0.09399,0.1011,0.0004473,0.0008497,0.09399,2.861e-06,0.0001698,0.04333,0.0001431,3.559,0.01303,0,1,0
12900000000,13200000000,209193844,0,567917,0.0001736,0.09399,0.1011,0.0004473,0.0008507,0.09399,1.907e-06,0.0001698,0.006622,7.153e-05,3.572,0.01289,0,1,0
13200000000,13500000000,209193844,0,567917,0.0001688,0.09399,0.1011,0.0004482,0.0008507,0.09399,2.861e-06,0.0001698,0.004814,0.0001431,3.047,0.01089,0,1,0
13500000000,13800000000,209193844,0,567917,0.0001869,0.09399,0.1011,0.0004492,0.0008516,0.09399,1.907e-06,0.0001698,0.01096,7.153e-05,3.864,0.01449,0,1,0
13800000000,14100000000,209193844,0,567917,0.000186,0.09399,0.1011,0.0004473,0.0008507,0.09399,2.861e-06,0.0001698,0.004227,0.0001431,3.496,0.01306,0,1,0
14100000000,14400000000,209193844,0,567917,0.0002079,0.09399,0.1011,0.0004482,0.0008507,0.09399,2.861e-06,0.0001698,0.009949,0.0002146,3.315,0.01167,0,1,0
14400000000,14700000000,209193844,0,567917,0.0001955,0.09399,0.1011,0.0004492,0.0008516,0.09399,2.861e-06,0.0001698,0.04767,0.0001431,2.497,0.008184,0,1,0
14700000000,15000000000,209193844,0,567917,0.000206,0.09399,0.1011,0.0004492,0.0008526,0.09399,1.907e-06,0.0001698,0.05145,7.153e-05,3.478,0.01289,0,1,0
15000000000,15300000000,209193844,0,567917,0.0001698,0.09399,0.1011,0.0004501,0.0008526,0.09399,1.907e-06,0.0001698,0.007011,0.0001431,5.919,0.02676,0,1,0
15300000000,15600000000,209193844,0,567917,0.0002022,0.09399,0.1011,0.0004511,0.0008535,0.09399,2.861e-06,0.0001698,0.00573,0.0003567,4.515,0.01857,0,1,0
15600000000,15900000000,209193844,0,567917,0.0001707,0.09399,0.1011,0.0004511,0.0008545,0.09399,2.861e-06,0.0001698,0.004028,0.0001431,3.704,0.01451,0,1,0
15900000000,16200000000,209193844,0,567917,0.0001926,0.09399,0.1011,0.000452,0.0008554,0.09399,1.907e-06,0.0001698,0.004776,7.153e-05,3.927,0.01583,0,1,0
16200000000,16500000000,209193844,0,567917,0.0002699,0.09399,0.1011,0.000453,0.0008554,0.09399,2.861e-06,0.0001698,0.008896,0.0001431,3.546,0.01337,0,1,0
16500000000,16800000000,209193844,0,567917,0.0002127,0.09399,0.1011,0.0004539,0.0008564,0.09399,2.861e-06,0.0001698,0.01248,0.0001431,3.921,0.01532,0,1,0
16800000000,17100000000,209193844,0,567917,0.0001945,0.09399,0.1011,0.0004549,0.0008574,0.09399,2.861e-06,0.0001698,0.004707,0.0002146,4.011,0.01604,0,1,0
17100000000,17400000000,209193844,0,567917,0.0001993,0.09399,0.1011,0.0004559,0.0008583,0.09399,1.907e-06,0.0001698,0.02029,7.153e-05,3.695,0.01416,0,1,0
17400000000,17700000000,209193844,0,567917,0.0002241,0.09399,0.1011,0.0004559,0.0008593,0.09399,2.861e-06,0.0001698,0.004784,0.0003567,4.207,0.01674,0,1,0
17700000000,18000000000,209193844,0,567917,0.000246,0.09399,0.1011,0.0004568,0.0008602,0.09399,3.815e-06,0.0001698,0.04541,0.0004997,2.919,0.0101,0,1,0
18000000000,18300000000,209193844,0,567917,0.0002117,0.09399,0.1011,0.0004578,0.0008602,0.09399,2.861e-06,0.0001698,0.003929,0.0002146,3.652,0.01381,0,1,0
18300000000,18600000000,209193844,0,567917,0.0002146,0.09399,0.1011,0.0004587,0.0008612,0.09399,6.676e-06,0.0001698,0.004272,0.001499,3.652,0.01312,0,1,0
18600000000,18900000000,209193844,0,567917,0.0002127,0.09399,0.1011,0.0004597,0.0008621,0.09399,2.861e-06,0.0001698,0.01106,0.0001431,3.026,0.01036,0,1,0
18900000000,19200000000,209193844,0,567917,0.0002432,0.09399,0.1011,0.0004606,0.0008631,0.09399,2.861e-06,0.0001698,0.02509,0.0002861,1.882,0.005196,0,1,0
19200000000,19500000000,209193844,0,567917,0.0002222,0.09399,0.1011,0.0004616,0.000864,0.09399,2.861e-06,0.0001698,0.00679,0.0002146,2.419,0.007912,0,1,0
19500000000,19800000000,209193844,0,567917,0.0002766,0.09399,0.1011,0.0004625,0.000865,0.09399,2.861e-06,0.0001698,0.008011,0.0002861,2.935,0.0115,0,1,0
19800000000,20100000000,209193844,0,567917,0.0001965,0.09399,0.1011,0.0004635,0.0008659,0.09399,1.907e-06,0.0001698,0.004784,0.0001431,4.431,0.01851,0,1,0
20100000000,20400000000,209193844,0,567917,0.0001955,0.09399,0.1011,0.0004644,0.0008669,0.09399,1.907e-06,0.0001698,0.006187,7.153e-05,4.272,0.01783,0,1,0
20400000000,20700000000,209193844,0,567917,0.0002279,0.09399,0.1011,0.0004587,0.0008612,0.09399,4.768e-06,0.0001698,0.009644,0.0007858,3.345,0.0124,0,1,0
20700000000,21000000000,209193844,0,567917,0.0002327,0.09399,0.1011,0.0004387,0.0008421,0.09399,1.907e-06,0.0001698,0.007233,7.153e-05,2.873,0.009925,0,1,0
21000000000,21300000000,209193844,0,567917,0.0002565,0.09399,0.1011,0.0004396,0.000843,0.09399,3.815e-06,0.0001698,0.005447,0.0004997,2.284,0.006882,0,1,0
21300000000,21600000000,209193844,0,567917,0.0002327,0.09399,0.1011,0.0004396,0.0008421,0.09399,3.815e-06,0.0001698,0.009949,0.0003567,2.544,0.00841,0,1,0
21600000000,21900000000,209193844,0,567917,0.00035,0.09399,0.1011,0.0004396,0.0008421,0.09399,3.815e-06,0.0001698,0.01785,0.0006428,2.079,0.005941,0,1,0
21900000000,22200000000,209193844,0,567917,0.0002604,0.09399,0.1011,0.0004396,0.0008421,0.09399,2.861e-06,0.0001698,0.00473,7.153e-05,2.686,0.008803,0,1,0
22200000000,22500000000,209193844,0,567917,0.0002689,0.09399,0.1011,0.0004396,0.0008421,0.09399,3.815e-06,0.0001698,0.01083,0.0004282,2.954,0.009919,0,1,0
22500000000,22800000000,209193844,0,567917,0.0002575,0.09399,0.1011,0.0004358,0.0008383,0.09399,1.907e-06,0.0001698,0.03961,7.153e-05,3.387,0.01251,0,1,0
22800000000,23100000000,209193844,0,567917,0.0002031,0.09399,0.1011,0.0004368,0.0008392,0.09399,2.861e-06,0.0001698,0.006805,0.0002146,2.971,0.01026,0,1,0
23100000000,23400000000,209193844,0,567917,0.0002117,0.09399,0.1011,0.0004377,0.0008402,0.09399,1.907e-06,0.0001698,0.005264,7.153e-05,3.717,0.01448,0,1,0
23400000000,23700000000,209193844,0,567917,0.0002279,0.09399,0.1011,0.0004387,0.0008411,0.09399,2.861e-06,0.0001698,0.005585,0.0001431,3.308,0.0122,0,1,0
23700000000,24000000000,209193844,0,567917,0.0002451,0.09399,0.1011,0.0004396,0.0008421,0.09399,2.861e-06,0.0001698,0.005676,0.0002861,3.606,0.01379,0,1,0
24000000000,24300000000,209193844,0,567917,0.0002346,0.09399,0.1011,0.0004406,0.000843,0.09399,2.861e-06,0.0001698,0.007126,0.0001431,3.859,0.01537,0,1,0
24300000000,24600000000,209193844,0,567917,0.0002613,0.09399,0.1011,0.0004416,0.000844,0.09399,1.907e-06,0.0001698,0.006607,7.153e-05,2.778,0.009725,0,1,0
24600000000,24900000000,209193844,0,567917,0.0002098,0.09399,0.1011,0.0004425,0.000845,0.09399,2.861e-06,0.0001698,0.004532,0.0002861,4.348,0.01793,0,1,0
24900000000,25200000000,209193844,0,567917,0.0002432,0.09399,0.1011,0.0004435,0.0008459,0.09399,1.907e-06,0.0001698,0.005623,7.153e-05,2.491,0.008272,0,1,0
25200000000,25500000000,209193844,0,567917,0.0002337,0.09399,0.1011,0.0004444,0.0008469,0.09399,1.907e-06,0.0001698,0.004395,0.0001431,3.493,0.01254,0,1,0
25500000000,25800000000,209193844,0,567917,0.0002708,0.09399,0.1011,0.0004454,0.0008488,0.09399,1.907e-06,0.0001698,0.01077,7.153e-05,2.812,0.009343,0,1,0
25800000000,26100000000,209193844,0,567917,0.0002356,0.09399,0.1011,0.0004463,0.0008497,0.09399,6.676e-06,0.0001698,0.004555,0.001286,3.315,0.01164,0,1,0
26100000000,26400000000,209193844,0,567917,0.0002279,0.09399,0.1011,0.0004473,0.0008507,0.09399,1.907e-06,0.0001698,0.01129,7.153e-05,4.151,0.0157,0,1,0
26400000000,26700000000,209193844,0,567917,0.0002031,0.09399,0.1011,0.0004482,0.0008516,0.09399,2.861e-06,0.0001698,0.005562,0.0001431,3.862,0.01459,0,1,0
26700000000,27000000000,209193844,0,567917,0.000268,0.09399,0.1011,0.0004492,0.0008526,0.09399,1.907e-06,0.0001698,0.01828,7.153e-05,2.847,0.009457,0,1,0
27000000000,27300000000,209193844,0,567917,0.0002441,0.09399,0.1011,0.0004501,0.0008535,0.09399,2.861e-06,0.0001698,0.009583,0.0001431,2.341,0.006811,0,1,0
27300000000,27600000000,209193844,0,567917,0.0002384,0.09399,0.1011,0.0004511,0.0008535,0.09399,4.768e-06,0.0001698,0.01135,0.0004997,3.442,0.01188,0,1,0
27600000000,27900000000,209193844,0,567917,0.0002613,0.09399,0.1011,0.000452,0.0008554,0.09399,2.861e-06,0.0001698,0.009216,0.0001431,2.581,0.008146,0,1,0
27900000000,28200000000,209193844,0,567917,0.0002508,0.09399,0.1011,0.000453,0.0008564,0.09399,2.861e-06,0.0001698,0.01128,0.0002861,2.849,0.009394,0,1,0
28200000000,28500000000,209193844,0,567917,0.000288,0.09399,0.1011,0.0004539,0.0008574,0.09399,8.583e-06,0.0001698,0.009216,0.001572,2.608,0.008104,0,1,0
28500000000,28800000000,209193844,0,567917,0.0002375,0.09399,0.1011,0.0004501,0.0008535,0.09399,1.907e-06,0.0001698,0.01299,7.153e-05,5.134,0.02063,0,1,0
28800000000,29100000000,209193844,0,567917,0.0002518,0.09399,0.1011,0.0004463,0.0008488,0.09399,4.768e-06,0.0001698,0.007309,0.0005713,2.763,0.009501,0,1,0
29100000000,29400000000,209193844,0,567917,0.0002384,0.09399,0.1011,0.0004473,0.0008497,0.09399,1.907e-06,0.0001698,0.008575,7.153e-05,3.79,0.01371,0,1,0
29400000000,29700000000,209193844,0,567917,0.0002327,0.09399,0.1011,0.0004482,0.0008516,0.09399,6.676e-06,0.0001698,0.01271,0.001143,4.013,0.01505,0,1,0
29700000000,30000000000,209193844,0,567917,0.0002298,0.09399,0.1011,0.0004492,0.0008526,0.09399,1.907e-06,0.0001698,0.005753,7.153e-05,2.82,0.009536,0,1,0
30000000000,30300000000,209193844,0,567917,0.0002289,0.09399,0.1011,0.0004473,0.0008507,0.09399,2.861e-06,0.0001698,0.005333,0.0001431,4.031,0.01513,0,1,0
30300000000,30600000000,209193844,0,567917,0.0002451,0.09399,0.1011,0.0004454,0.0008478,0.09399,1.907e-06,0.0001698,0.004898,7.153e-05,2.726,0.008718,0,1,0
30600000000,30900000000,209193844,0,567917,0.0002527,0.09399,0.1011,0.0004463,0.0008488,0.09399,4.768e-06,0.0001698,0.02774,0.0004282,2.693,0.008911,0,1,0
30900000000,31200000000,209193844,0,567917,0.0002422,0.09399,0.1011,0.0004473,0.0008497,0.09399,1.907e-06,0.0001698,0.01112,7.153e-05,4.693,0.01909,0,1,0
31200000000,31500000000,209193844,0,567917,0.0002241,0.09399,0.1011,0.0004482,0.0008507,0.09399,3.815e-06,0.0001698,0.005814,0.0003567,4.069,0.01567,0,1,0
31500000000,31800000000,209193844,0,567917,0.0002708,0.09399,0.1011,0.0004492,0.0008516,0.09399,1.907e-06,0.0001698,0.007462,7.153e-05,3.128,0.0107,0,1,0
31800000000,32100000000,209193844,0,567917,0.0002232,0.09399,0.1011,0.0004501,0.0008526,0.09399,1.144e-05,0.0001698,0.03705,0.001143,4.307,0.01683,0,1,0
32100000000,32400000000,209193844,0,567917,0.0002565,0.09399,0.1011,0.0004511,0.0008535,0.09399,1.907e-06,0.0001698,0.005653,7.153e-05,3.052,0.009901,0,1,0
32400000000,32700000000,209193844,0,567917,0.000205,0.09399,0.1011,0.0004501,0.0008526,0.09399,2.861e-06,0.0001698,0.0112,0.0001431,4.43,0.01636,0,1,0
32700000000,33000000000,209193844,0,567917,0.0003004,0.09399,0.1011,0.0004473,0.0008497,0.09399,1.907e-06,0.0001698,0.01791,7.153e-05,2.378,0.006941,0,1,0
33000000000,33300000000,209193844,0,567917,0.0002356,0.09399,0.1011,0.0004473,0.0008507,0.09399,3.815e-06,0.0001698,0.005371,0.0002146,4.186,0.01617,0,1,0
33300000000,33600000000,209193844,0,567917,0.0002279,0.09399,0.1011,0.0004482,0.0008516,0.09399,1.907e-06,0.0001698,0.01135,7.153e-05,3.475,0.0126,0,1,0
33600000000,33900000000,209193844,0,567917,0.000246,0.09399,0.1011,0.0004473,0.0008497,0.09399,2.861e-06,0.0001698,0.007385,0.0001431,2.979,0.009787,0,1,0
33900000000,34200000000,209193844,0,567917,0.0002203,0.09399,0.1011,0.0004463,0.0008497,0.09399,3.815e-06,0.0001698,0.005692,0.0004997,3.378,0.01195,0,1,0
34200000000,34500000000,209193844,0,567917,0.0002317,0.09399,0.1011,0.0004473,0.0008497,0.09399,2.861e-06,0.0001698,0.005096,0.0001431,3.922,0.01513,0,1,0
34500000000,34800000000,209193844,0,567917,0.0001869,0.09399,0.1011,0.0004482,0.0008507,0.09399,1.907e-06,0.0001698,0.005142,7.153e-05,3.033,0.01084,0,1,0
34800000000,35100000000,209193844,0,567917,0.0001984,0.09399,0.1011,0.0004492,0.0008516,0.09399,7.629e-06,0.0001698,0.01256,0.001572,3.726,0.01479,0,1,0
35100000000,35400000000,209193844,0,567917,0.0002327,0.09399,0.1011,0.0004492,0.0008526,0.09399,1.907e-06,0.0001698,0.01321,7.153e-05,3.086,0.01143,0,1,0
35400000000,35700000000,209193844,0,567917,0.0001984,0.09399,0.1011,0.0004501,0.0008535,0.09399,3.815e-06,0.0001698,0.005547,0.0003567,3.557,0.01382,0,1,0
35700000000,36000000000,209193844,0,567917,0.0002089,0.09399,0.1011,0.0004463,0.0008488,0.09399,1.907e-06,0.0001698,0.008606,7.153e-05,3.415,0.01224,0,1,0
36000000000,36300000000,209193844,0,567917,0.0001965,0.09399,0.1011,0.0004425,0.000845,0.09399,2.861e-06,0.0001698,0.00647,0.0001431,3.801,0.01448,0,1,0
36300000000,36600000000,209193844,0,567917,0.0002165,0.09399,0.1011,0.0004425,0.0008459,0.09399,3.815e-06,0.0001698,0.005692,0.0005713,2.295,0.007048,0,1,0
36600000000,36900000000,209193844,0,567917,0.0002041,0.09399,0.1011,0.0004435,0.0008469,0.09399,2.861e-06,0.0001698,0.007797,0.0002146,3.527,0.01322,0,1,0
36900000000,37200000000,209193844,0,567917,0.0002346,0.09399,0.1011,0.0004444,0.0008469,0.09399,3.815e-06,0.0001698,0.009613,0.0002861,2.699,0.00885,0,1,0
37200000000,37500000000,209193844,0,567917,0.0002365,0.09399,0.1011,0.0004454,0.0008478,0.09399,7.629e-06,0.0001698,0.004883,0.0009995,3.931,0.01508,0,1,0
37500000000,37800000000,209193844,0,567917,0.0001926,0.09399,0.1011,0.0004463,0.0008488,0.09399,2.861e-06,0.0001698,0.004539,0.0002146,2.971,0.01037,0,1,0
37800000000,38100000000,209193844,0,567917,0.0002117,0.09399,0.1011,0.0004463,0.0008497,0.09399,2.861e-06,0.0001698,0.004166,0.0001431,3.432,0.01266,0,1,0
38100000000,38400000000,209193844,0,567917,0.000205,0.09399,0.1011,0.0004454,0.0008488,0.09399,2.861e-06,0.0001698,0.01277,0.0003567,3.373,0.01242,0,1,0
38400000000,38700000000,209193844,0,567917,0.0002661,0.09399,0.1011,0.0004406,0.000843,0.09399,2.861e-06,0.0001698,0.005615,0.0001431,2.721,0.00913,0,1,0
38700000000,39000000000,209193844,0,567917,0.0002174,0.09399,0.1011,0.0004377,0.0008411,0.09399,1.907e-06,0.0001698,0.0311,7.153e-05,3.589,0.01279,0,1,0
39000000000,39300000000,209193844,0,567917,0.0002699,0.09399,0.1011,0.0004387,0.0008411,0.09399,2.861e-06,0.0001698,0.01305,0.0001431,2.921,0.009399,0,1,0
39300000000,39600000000,209193844,0,567917,0.000248,0.09399,0.1011,0.0004377,0.0008402,0.09399,1.907e-06,0.0001698,0.006279,7.153e-05,2.298,0.00679,0,1,0
39600000000,39900000000,209193844,0,567917,0.0002232,0.09399,0.1011,0.0004387,0.0008411,0.09399,2.861e-06,0.0001698,0.007874,0.0001431,2.106,0.005769,0,1,0
39900000000,40200000000,209193844,0,567917,0.0002203,0.09399,0.1011,0.0004387,0.0008421,0.09399,2.861e-06,0.0001698,0.007011,7.153e-05,3.35,0.01152,0,1,0
40200000000,40500000000,209193844,0,567917,0.0002165,0.09399,0.1011,0.0004396,0.000843,0.09399,1.907e-06,0.0001698,0.005676,0.0001431,3.599,0.01335,0,1,0
40500000000,40800000000,209193844,0,567917,0.0002222,0.09399,0.1011,0.0004406,0.000843,0.09399,1.907e-06,0.0001698,0.005844,7.153e-05,2.926,0.009873,0,1,0
51000000000,51300000000,209193844,0,567917,0.0002165,0.09399,0.1011,0.0004606,0.0008631,0.09399,4.768e-06,0.0001698,0.007393,0.0006428,3.507,0.0122,0,1,0
51300000000,51600000000,209193844,0,567917,0.0002623,0.09399,0.1011,0.0004606,0.0008631,0.09399,6.676e-06,0.0001698,0.01169,0.001215,1.8,0.004318,0,1,0
51600000000,51900000000,209193844,0,567917,0.0002069,0.09399,0.1011,0.0004606,0.000864,0.09399,2.861e-06,0.0001698,0.004471,0.0001431,3.292,0.01203,0,1,0
51900000000,52200000000,209193844,0,567917,0.0002279,0.09399,0.1011,0.0004616,0.000865,0.09399,1.907e-06,0.0001698,0.005768,7.153e-05,2.732,0.008587,0,1,0
52200000000,52500000000,209193844,0,567917,0.0002441,0.09399,0.1011,0.0004625,0.000865,0.09399,4.768e-06,0.0001698,0.00589,0.0001431,2.157,0.00628,0,1,0
52500000000,52800000000,209193844,0,567917,0.0002346,0.09399,0.1011,0.0004635,0.0008659,0.09399,1.907e-06,0.0001698,0.00547,7.153e-05,3.344,0.01168,0,1,0
52800000000,53100000000,209193844,0,567917,0.0002079,0.09399,0.1011,0.0004644,0.0008669,0.09399,2.861e-06,0.0001698,0.01089,0.0002146,4.208,0.01547,0,1,0
53100000000,53400000000,209193844,0,567917,0.0002098,0.09399,0.1011,0.0004644,0.0008678,0.09399,6.676e-06,0.0001698,0.004501,0.001499,2.958,0.0102,0,1,0
53400000000,53700000000,209193844,0,567917,0.0002518,0.09399,0.1011,0.0004654,0.0008688,0.09399,2.861e-06,0.0001698,0.01231,0.0002146,2.747,0.00907,0,1,0
53700000000,54000000000,209193844,0,567917,0.0002184,0.09399,0.1011,0.0004644,0.0008669,0.09399,1.907e-06,0.0001698,0.005356,7.153e-05,2.84,0.009426,0,1,0
54000000000,54300000000,209193844,0,567917,0.0002432,0.09399,0.1011,0.0004654,0.0008678,0.09399,2.861e-06,0.0001698,0.03857,0.0002146,2.091,0.006183,0,1,0
54300000000,54600000000,209193844,0,567917,0.0001869,0.09399,0.1011,0.0004663,0.0008688,0.09399,1.907e-06,0.0001698,0.004227,7.153e-05,2.807,0.009974,0,1,0
54600000000,54900000000,209193844,0,567917,0.0002003,0.09399,0.1011,0.0004673,0.0008698,0.09399,4.768e-06,0.0001698,0.01031,0.0005713,3.345,0.01235,0,1,0
54900000000,55200000000,209193844,0,567917,0.0002193,0.09399,0.1011,0.0004673,0.0008707,0.09399,1.907e-06,0.0001698,0.01164,7.153e-05,2.77,0.009106,0,1,0
55200000000,55500000000,209193844,0,567917,0.0002346,0.09399,0.1011,0.0004683,0.0008707,0.09399,2.861e-06,0.0001698,0.00692,0.0002146,2.786,0.00897,0,1,0
55500000000,55800000000,209193844,0,567917,0.0002127,0.09399,0.1011,0.0004692,0.0008717,0.09399,1.907e-06,0.0001698,0.005066,0.0001431,2.765,0.009087,0,1,0
55800000000,56100000000,209193844,0,567917,0.0002632,0.09399,0.1011,0.0004702,0.0008726,0.09399,2.861e-06,0.0001698,0.0127,0.0001431,2.507,0.007953,0,1,0
56100000000,56400000000,209193844,0,567917,0.0002565,0.09399,0.1011,0.0004711,0.0008736,0.09399,1.907e-06,0.0001698,0.01105,0.0001431,2.39,0.007338,0,1,0
56400000000,56700000000,209193844,0,567917,0.0002708,0.09399,0.1011,0.0004721,0.0008745,0.09399,1.907e-06,0.0001698,0.008926,0.0001431,2.476,0.008035,0,1,0
56700000000,57000000000,209193844,0,567917,0.0002117,0.09399,0.1011,0.000473,0.0008755,0.09399,1.907e-06,0.0001698,0.00724,7.153e-05,3.642,0.01378,0,1,0
57000000000,57300000000,209193844,0,567917,0.0002079,0.09399,0.1011,0.000474,0.0008764,0.09399,2.861e-06,0.0001698,0.004265,0.0002146,2.743,0.009409,0,1,0
57300000000,57600000000,209193844,0,567917,0.0003414,0.09399,0.1011,0.0004654,0.0008678,0.09399,3.815e-06,0.0001698,0.05133,0.0004997,1.716,0.004242,0,1,0
57600000000,57900000000,209193844,0,567917,0.0002451,0.09399,0.1011,0.0004578,0.0008612,0.09399,6.676e-06,0.0001698,0.009384,0.001499,3.446,0.01261,0,1,0
57900000000,58200000000,209193844,0,567917,0.0002499,0.09399,0.1011,0.0004568,0.0008593,0.09399,2.861e-06,0.0001698,0.005623,7.153e-05,2.903,0.009911,0,1,0
58200000000,58500000000,209193844,0,567917,0.0002956,0.09399,0.1011,0.0004559,0.0008593,0.09399,2.861e-06,0.0001698,0.007607,0.0001431,2.694,0.008777,0,1,0
58500000000,58800000000,209193844,0,567917,0.0002079,0.09399,0.1011,0.0004568,0.0008593,0.09399,1.907e-06,0.0001698,0.004478,0.0001431,2.775,0.009195,0,1,0
58800000000,59100000000,209193844,0,567917,0.0002365,0.09399,0.1011,0.0004568,0.0008602,0.09399,2.861e-06,0.0001698,0.005203,0.0001431,3.344,0.0122,0,1,0
59100000000,59400000000,209193844,0,567917,0.000227,0.09399,0.1011,0.0004568,0.0008602,0.09399,8.583e-06,0.0001698,0.00943,0.001858,1.98,0.005523,0,1,0
59400000000,59700000000,209193844,0,567917,0.0004025,0.09399,0.1011,0.0004663,0.0008831,0.09424,0.0001774,0.0001698,0.01712,0.0285,3.924,0.01371,0,1,0
59700000000,60000000000,209193844,0,567917,0.0003271,0.09412,0.1011,0.0005207,0.001032,0.09424,1.144e-05,0.0001698,0.01033,0.001858,4.219,0.0171,0,1,0
60000000000,60300000000,209193844,0,567917,0.0002728,0.09412,0.1011,0.0005217,0.001032,0.09412,4.768e-06,0.0001698,0.004303,0.0004997,5.107,0.02142,0,1,0
60300000000,60600000000,209193844,0,567917,0.0003033,0.09412,0.1011,0.0005207,0.001032,0.09412,5.722e-06,0.0001698,0.0116,0.0007143,3.448,0.01383,0,1,0
60600000000,60900000000,209193844,0,567917,0.0003386,0.09412,0.1011,0.0005102,0.001022,0.09412,8.583e-06,0.0001698,0.01001,0.001499,3.413,0.01277,0,1,0
70800000000,71100000000,209193844,0,567917,0.0002842,0.09399,0.1011,0.0004568,0.0008593,0.09399,2.861e-06,0.0001698,0.009796,0.0001431,3.198,0.01114,0,1,0
71100000000,71400000000,209193844,0,567917,0.0003185,0.09399,0.1011,0.0004578,0.0008602,0.09399,7.629e-06,0.0001698,0.006744,0.001499,4.083,0.01509,0,1,0
71400000000,71700000000,209193844,0,567917,0.0002708,0.09399,0.1011,0.0004587,0.0008612,0.09399,2.861e-06,0.0001698,0.006111,0.0001431,3.339,0.01194,0,1,0
71700000000,72000000000,209193844,0,567917,0.0002289,0.09399,0.1011,0.0004597,0.0008621,0.09399,1.907e-06,0.0001698,0.005928,7.153e-05,3.202,0.01121,0,1,0
72000000000,72300000000,209193844,0,567917,0.0002794,0.09399,0.1011,0.0004587,0.0008612,0.09399,5.722e-06,0.0001698,0.01375,0.0009995,3.396,0.01196,0,1,0
72300000000,72600000000,209193844,0,567917,0.0002308,0.09399,0.1011,0.0004597,0.0008621,0.09399,1.907e-06,0.0001698,0.004547,7.153e-05,2.319,0.006938,0,1,0
72600000000,72900000000,209193844,0,567917,0.0002356,0.09399,0.1011,0.0004606,0.0008631,0.09399,7.629e-06,0.0001698,0.02121,0.001499,2.38,0.007142,0,1,0
72900000000,73200000000,209193844,0,567917,0.0002308,0.09399,0.1011,0.0004616,0.000864,0.09399,1.907e-06,0.0001698,0.005775,7.153e-05,3.841,0.01415,0,1,0
73200000000,73500000000,209193844,0,567917,0.0002861,0.09399,0.1011,0.0004616,0.000864,0.09399,5.722e-06,0.0001698,0.005356,0.0007143,2.694,0.008707,0,1,0
73500000000,73800000000,209193844,0,567917,0.0002804,0.09399,0.1011,0.0004635,0.0008659,0.09399,1.431e-05,0.0001698,0.005562,0.001858,2.185,0.006103,0,1,0
73800000000,74100000000,209193844,0,567917,0.0002832,0.09399,0.1011,0.0004644,0.0008669,0.09399,3.815e-06,0.0001698,0.0125,0.0003567,3.074,0.01036,0,1,0
74100000000,74400000000,209193844,0,567917,0.0002737,0.09399,0.1011,0.0004644,0.0008669,0.09399,2.861e-06,0.0001698,0.007889,0.0002146,2.644,0.008391,0,1,0
74400000000,74700000000,209193844,0,567917,0.0002966,0.09399,0.1011,0.0004644,0.0008669,0.09399,3.815e-06,0.0001698,0.0128,0.0004282,2.326,0.006957,0,1,0
74700000000,75000000000,209193844,0,567917,0.0002947,0.09399,0.1011,0.0004635,0.0008659,0.09399,5.722e-06,0.0001698,0.0163,0.001143,2.451,0.007172,0,1,0
75000000000,75300000000,209193844,0,567917,0.0002632,0.09399,0.1011,0.0004644,0.0008669,0.09399,1.907e-06,0.0001698,0.009949,0.0001431,3.561,0.01274,0,1,0
75300000000,75600000000,209193844,0,567917,0.0002737,0.09399,0.1011,0.0004635,0.0008659,0.09399,2.861e-06,0.0001698,0.008667,0.0002146,2.232,0.006534,0,1,0
75600000000,75900000000,209193844,0,567917,0.0002565,0.09399,0.1011,0.0004635,0.0008669,0.09399,3.815e-06,0.0001698,0.01239,0.0004997,3.275,0.0117,0,1,0
75900000000,76200000000,209193844,0,567917,0.0002604,0.09399,0.1011,0.0004625,0.0008659,0.09399,3.815e-06,0.0001698,0.01276,0.0005713,2.836,0.009251,0,1,0
76200000000,76500000000,209193844,0,567917,0.0002384,0.09399,0.1011,0.0004625,0.000865,0.09399,9.537e-06,0.0001698,0.004501,0.001143,3.954,0.01465,0,1,0
76500000000,76800000000,209193844,0,567917,0.0002775,0.09399,0.1011,0.0004597,0.0008621,0.09399,2.861e-06,0.0001698,0.0075,0.0002146,3.708,0.01276,0,1,0
76800000000,77100000000,209193844,0,567917,0.0002813,0.09399,0.1011,0.0004587,0.0008612,0.09399,2.861e-06,0.0001698,0.009155,0.0001431,3.689,0.01291,0,1,0
77100000000,77400000000,209193844,0,567917,0.0002584,0.09399,0.1011,0.0004587,0.0008612,0.09399,1.907e-06,0.0001698,0.004791,7.153e-05,2.648,0.008435,0,1,0
77400000000,77700000000,209193844,0,567917,0.000248,0.09399,0.1011,0.0004587,0.0008621,0.09399,6.676e-06,0.0001698,0.004929,0.0007858,2.934,0.009812,0,1,0
77700000000,78000000000,209193844,0,567917,0.0002928,0.09399,0.1011,0.0004587,0.0008612,0.09399,2.861e-06,0.0001698,0.01363,0.0002146,3.462,0.01226,0,1,0
78000000000,78300000000,209193844,0,567917,0.0002642,0.09399,0.1011,0.0004578,0.0008602,0.09399,2.861e-06,0.0001698,0.01834,0.0001431,3.837,0.01429,0,1,0
78300000000,78600000000,209193844,0,567917,0.000247,0.09399,0.1011,0.0004568,0.0008602,0.09399,1.907e-06,0.0001698,0.008896,7.153e-05,3.953,0.01457,0,1,0
78600000000,78900000000,209193844,0,567917,0.000248,0.09399,0.1011,0.0004578,0.0008602,0.09399,3.815e-06,0.0001698,0.006622,0.0004282,3.89,0.01416,0,1,0
78900000000,79200000000,209193844,0,567917,0.0002489,0.09399,0.1011,0.0004568,0.0008593,0.09399,2.861e-06,0.0001698,0.005249,0.0004282,2.967,0.00978,0,1,0
79200000000,79500000000,209193844,0,567917,0.0002413,0.09399,0.1011,0.0004559,0.0008583,0.09399,2.861e-06,0.0001698,0.01067,0.0002146,3.572,0.01264,0,1,0
79500000000,79800000000,209193844,0,567917,0.0003176,0.09399,0.1011,0.0004568,0.0008593,0.09399,5.722e-06,0.0001698,0.01013,0.0009995,1.88,0.005054,0,1,0
79800000000,80100000000,209193844,0,567917,0.0002813,0.09399,0.1011,0.0004578,0.0008602,0.09399,5.722e-06,0.0001698,0.01852,0.001143,2.053,0.005864,0,1,0
80100000000,80400000000,209193844,0,567917,0.0002527,0.09399,0.1011,0.0004587,0.0008612,0.09399,2.861e-06,0.0001698,0.008972,0.0001431,3.925,0.01473,0,1,0
80400000000,80700000000,209193844,0,567917,0.0002928,0.09399,0.1011,0.0004587,0.0008621,0.09399,5.722e-06,0.0001698,0.01131,0.0007858,2.34,0.006913,0,1,0
80700000000,81000000000,209193844,0,567917,0.0002298,0.09399,0.1011,0.0004578,0.0008602,0.09399,2.861e-06,0.0001698,0.002106,0.0002146,2.927,0.01001,0,1,0
85800000000,86100000000,209193844,0,567917,0.0002308,0.09399,0.1011,0.0004435,0.0008459,0.09399,2.861e-06,0.0001698,0.007462,0.0002146,2.855,0.009178,0,1,0
86100000000,86400000000,209193844,0,567917,0.0002279,0.09399,0.1011,0.0004444,0.0008459,0.09399,1.907e-06,0.0001698,0.004921,7.153e-05,3.192,0.01095,0,1,0
86400000000,86700000000,209193844,0,567917,0.0002193,0.09399,0.1011,0.0004444,0.0008469,0.09399,3.815e-06,0.0001698,0.007797,0.0004282,3.24,0.01142,0,1,0
86700000000,87000000000,209193844,0,567917,0.0001974,0.09399,0.1011,0.0004444,0.0008469,0.09399,1.907e-06,0.0001698,0.004005,7.153e-05,3.425,0.01231,0,1,0
87000000000,87300000000,209193844,0,567917,0.0002069,0.09399,0.1011,0.0004368,0.0008383,0.09399,2.861e-06,0.0001698,0.005745,0.0001431,3.987,0.01486,0,1,0
87300000000,87600000000,209193844,0,567917,0.000226,0.09399,0.1011,0.0004368,0.0008383,0.09399,2.861e-06,0.0001698,0.01813,0.0003567,3.696,0.01394,0,1,0
87600000000,87900000000,209193844,0,567917,0.0002012,0.09399,0.1011,0.0004377,0.0008392,0.09399,2.861e-06,0.0001698,0.004074,0.0001431,3.029,0.01037,0,1,0
87900000000,88200000000,209193844,0,567917,0.0001993,0.09399,0.1011,0.0004387,0.0008402,0.09399,1.907e-06,0.0001698,0.004387,0.0001431,3.456,0.01238,0,1,0
88200000000,88500000000,209193844,0,567917,0.000267,0.09399,0.1011,0.0004387,0.0008402,0.09399,2.861e-06,0.0001698,0.01498,0.0001431,4.127,0.01547,0,1,0
88500000000,88800000000,209193844,0,567917,0.0002584,0.09399,0.1011,0.0004396,0.0008411,0.09399,6.676e-06,0.0001698,0.0437,0.001072,2.813,0.009188,0,1,0
88800000000,89100000000,209193844,0,567917,0.0002222,0.09399,0.1011,0.0004396,0.0008411,0.09399,4.768e-06,0.0001698,0.008347,0.0006428,4.009,0.01623,0,1,0
89100000000,89400000000,209193844,0,567917,0.0001726,0.09399,0.1011,0.0004396,0.0008411,0.09399,6.676e-06,0.0001698,0.005676,0.0006428,3.591,0.01408,0,1,0
89400000000,89700000000,209193844,0,567917,0.0002031,0.09399,0.1011,0.0004406,0.0008421,0.09399,2.861e-06,0.0001698,0.008881,0.0001431,3.039,0.01094,0,1,0
89700000000,90000000000,209193844,0,567917,0.000206,0.09399,0.1011,0.0004387,0.0008402,0.09399,3.815e-06,0.0001698,0.006042,0.0003567,4.066,0.01574,0,1,0
90000000000,90300000000,209193844,0,567917,0.0001802,0.09399,0.1011,0.0004349,0.0008364,0.09399,4.768e-06,0.0001698,0.004166,0.0008574,3.433,0.01224,0,1,0
90300000000,90600000000,209193844,0,567917,0.0001879,0.09399,0.1011,0.0004358,0.0008373,0.09399,2.861e-06,0.0001698,0.01103,0.0002861,4.6,0.01825,0,1,0
90600000000,90900000000,209193844,0,567917,0.0001945,0.09399,0.1011,0.0004358,0.0008383,0.09399,4.768e-06,0.0001698,0.007637,0.0004997,2.583,0.008353,0,1,0
101100000000,101400000000,209193844,0,567917,0.000165,0.09399,0.1011,0.0004463,0.0008478,0.09399,2.861e-06,0.0001698,0.005417,0.0002861,3.899,0.0156,0,1,0
101400000000,101700000000,209193844,0,567917,0.0001717,0.09399,0.1011,0.0004463,0.0008478,0.09399,2.861e-06,0.0001698,0.006203,0.0001431,2.428,0.008723,0,1,0
101700000000,102000000000,209193844,0,567917,0.0001783,0.09399,0.1011,0.0004473,0.0008488,0.09399,1.907e-06,0.0001698,0.008972,7.153e-05,3.361,0.01303,0,1,0
102000000000,102300000000,209193844,0,567917,0.0001879,0.09399,0.1011,0.0004473,0.0008488,0.09399,1.907e-06,0.0001698,0.00618,0.0001431,2.706,0.009055,0,1,0
102300000000,102600000000,209193844,0,567917,0.0001898,0.09399,0.1011,0.0004482,0.0008497,0.09399,2.861e-06,0.0001698,0.003735,0.0002146,2.645,0.009209,0,1,0
102600000000,102900000000,209193844,0,567917,0.0002012,0.09399,0.1011,0.0004425,0.000845,0.09399,3.815e-06,0.0001698,0.01007,0.0003567,2.973,0.01012,0,1,0
102900000000,103200000000,209193844,0,567917,0.000185,0.09399,0.1011,0.0004435,0.000845,0.09399,2.861e-06,0.0001698,0.006241,0.0001431,3.512,0.01315,0,1,0
103200000000,103500000000,209193844,0,567917,0.0002108,0.09399,0.1011,0.0004444,0.0008459,0.09399,2.861e-06,0.0001698,0.0047,0.0001431,3.391,0.01206,0,1,0
103500000000,103800000000,209193844,0,567917,0.0002041,0.09399,0.1011,0.0004444,0.0008469,0.09399,1.907e-06,0.0001707,0.003834,7.153e-05,2.969,0.009883,0,1,0
103800000000,104100000000,209193844,0,567917,0.0002241,0.09399,0.1011,0.0004454,0.0008469,0.09399,2.861e-06,0.0001707,0.006325,0.0001431,2.893,0.01056,0,1,0
104100000000,104400000000,209193844,0,567917,0.0002241,0.09399,0.1011,0.0004463,0.0008478,0.09399,3.815e-06,0.0001707,0.003605,0.0004997,2.334,0.007457,0,1,0
104400000000,104700000000,209193844,0,567917,0.0002174,0.09399,0.1011,0.0004473,0.0008488,0.09399,3.815e-06,0.0001707,0.004494,0.0004282,3.098,0.0112,0,1,0
104700000000,105000000000,209193844,0,567917,0.0002365,0.09399,0.1011,0.0004482,0.0008497,0.09399,2.861e-06,0.0001707,0.004272,0.0002861,3.221,0.01191,0,1,0
105000000000,105300000000,209193844,0,567917,0.0002518,0.09399,0.1011,0.0004492,0.0008507,0.09399,2.861e-06,0.0001707,0.02148,0.0001431,3.189,0.01208,0,1,0
105300000000,105600000000,209193844,0,567917,0.0002346,0.09399,0.1011,0.0004501,0.0008516,0.09399,1.907e-06,0.0001707,0.005142,7.153e-05,4.315,0.01706,0,1,0
105600000000,105900000000,209193844,0,567917,0.0002041,0.09399,0.1011,0.0004511,0.0008526,0.09399,2.861e-06,0.0001707,0.004532,0.0001431,4.292,0.01783,0,1,0
105900000000,106200000000,209193844,0,567917,0.0003262,0.09399,0.1011,0.000452,0.0008535,0.09399,3.815e-06,0.0001707,0.01971,0.0005713,1.614,0.003953,0,1,0
106200000000,106500000000,209193844,0,567917,0.0002489,0.09399,0.1011,0.000453,0.0008545,0.09399,2.861e-06,0.0001707,0.005638,0.0001431,2.783,0.00965,0,1,0
106500000000,106800000000,209193844,0,567917,0.0002947,0.09399,0.1011,0.0004539,0.0008554,0.09399,1.907e-06,0.0001707,0.02914,7.153e-05,1.778,0.004484,0,1,0
106800000000,107100000000,209193844,0,567917,0.0002747,0.09399,0.1011,0.0004387,0.0008402,0.09399,3.815e-06,0.0001707,0.006447,0.0003567,3.378,0.01251,0,1,0
107100000000,107400000000,209193844,0,567917,0.0002327,0.09399,0.1011,0.0004387,0.0008402,0.09399,1.907e-06,0.0001707,0.005829,7.153e-05,2.943,0.01063,0,1,0
107400000000,107700000000,209193844,0,567917,0.0002537,0.09399,0.1011,0.0004396,0.0008411,0.09399,2.861e-06,0.0001707,0.006027,0.0003567,3.281,0.01203,0,1,0
107700000000,108000000000,209193844,0,567917,0.0003023,0.09399,0.1011,0.0004416,0.000843,0.09399,1.907e-06,0.0001707,0.006241,7.153e-05,2.542,0.008146,0,1,0
108000000000,108300000000,209193844,0,567917,0.0002947,0.09399,0.1011,0.0004425,0.000844,0.09399,2.861e-06,0.0001707,0.02264,0.0002146,2.08,0.006141,0,1,0
108300000000,108600000000,209193844,0,567917,0.0002785,0.09399,0.1011,0.0004444,0.0008459,0.09399,1.907e-06,0.0001707,0.01099,7.153e-05,3.29,0.01284,0,1,0
108600000000,108900000000,209193844,0,567917,0.0002851,0.09399,0.1011,0.0004454,0.0008469,0.09399,2.861e-06,0.0001707,0.008835,0.0001431,3.034,0.01111,0,1,0
108900000000,109200000000,209193844,0,567917,0.0003443,0.09399,0.1011,0.0004463,0.0008478,0.09399,1.907e-06,0.0001707,0.0191,7.153e-05,3.05,0.01121,0,1,0
109200000000,109500000000,209193844,0,567917,0.0002842,0.09399,0.1011,0.0004463,0.0008478,0.09399,2.861e-06,0.0001707,0.004723,0.0002146,2.701,0.009677,0,1,0
109500000000,109800000000,209193844,0,567917,0.0002785,0.09399,0.1011,0.000432,0.0008335,0.09399,2.861e-06,0.0001707,0.01321,0.0001431,2.709,0.009171,0,1,0
109800000000,110100000000,209193844,0,567917,0.0003157,0.09399,0.1011,0.000433,0.0008354,0.09399,1.907e-06,0.0001707,0.005562,0.0001431,3.093,0.01081,0,1,0
110100000000,110400000000,209193844,0,567917,0.0002804,0.09399,0.1011,0.0004349,0.0008364,0.09399,3.815e-06,0.0001707,0.01227,0.0004997,3.718,0.01404,0,1,0
110400000000,110700000000,209193844,0,567917,0.0004044,0.09399,0.1011,0.0004358,0.0008373,0.09399,2.861e-06,0.0001707,0.01913,0.0001431,2.795,0.01,0,1,0
110700000000,111000000000,209193844,0,567917,0.0002699,0.09399,0.1011,0.0004368,0.0008383,0.09399,2.861e-06,0.0001707,0.007362,0.0001431,3.052,0.01071,0,1,0
116100000000,116400000000,209193844,0,567917,0.0002537,0.09399,0.1011,0.0004578,0.0008593,0.09399,1.907e-06,0.0001707,0.00428,7.153e-05,2.699,0.008371,0,1,0
116400000000,116700000000,209193844,0,567917,0.0003128,0.09399,0.1011,0.0004587,0.0008602,0.09399,2.861e-06,0.0001707,0.01003,0.0001431,3.232,0.011,0,1,0
116700000000,117000000000,209193844,0,567917,0.0002756,0.09399,0.1011,0.0004597,0.0008621,0.09399,1.907e-06,0.0001707,0.004547,7.153e-05,2.235,0.006209,0,1,0
117000000000,117300000000,209193844,0,567917,0.0002575,0.09399,0.1011,0.0004616,0.0008631,0.09399,3.815e-06,0.0001707,0.006096,0.0004997,2.964,0.01009,0,1,0
117300000000,117600000000,209193844,0,567917,0.0003061,0.09399,0.1011,0.0004625,0.000864,0.09399,2.861e-06,0.0001707,0.00737,0.0001431,4.164,0.016,0,1,0
117600000000,117900000000,209193844,0,567917,0.0002871,0.09399,0.1011,0.0004635,0.000865,0.09399,2.861e-06,0.0001707,0.02771,0.0001431,3.449,0.01165,0,1,0
117900000000,118200000000,209193844,0,567917,0.0003138,0.09399,0.1011,0.0004654,0.0008669,0.09399,1.907e-06,0.0001707,0.02649,7.153e-05,3.077,0.011,0,1,0
118200000000,118500000000,209193844,0,567917,0.0002632,0.09399,0.1011,0.0004663,0.0008678,0.09399,2.861e-06,0.0001707,0.006378,0.0001431,2.563,0.008262,0,1,0
118500000000,118800000000,209193844,0,567917,0.0003414,0.09399,0.1011,0.0004673,0.0008688,0.09399,1.907e-06,0.0001707,0.009583,7.153e-05,1.968,0.005131,0,1,0
118800000000,119100000000,209193844,0,567917,0.0002937,0.09399,0.1011,0.0004683,0.0008698,0.09399,2.861e-06,0.0001707,0.03864,0.0001431,1.745,0.004583,0,1,0
119100000000,119400000000,209193844,0,567917,0.0002861,0.09399,0.1011,0.0004692,0.0008717,0.09399,1.907e-06,0.0001707,0.008087,7.153e-05,2.973,0.01009,0,1,0
119400000000,119700000000,209193844,0,567917,0.0002356,0.09399,0.1011,0.0004702,0.0008726,0.09399,2.861e-06,0.0001707,0.005394,0.0001431,3.168,0.01138,0,1,0
119700000000,120000000000,209193844,0,567917,0.000248,0.09399,0.1011,0.0004702,0.0008717,0.09399,1.907e-06,0.0001707,0.005157,7.153e-05,2.986,0.0105,0,1,0
120000000000,120300000000,209193844,0,567917,0.0002499,0.09399,0.1011,0.0004587,0.0008602,0.09399,2.861e-06,0.0001707,0.0123,0.0001431,2.206,0.006523,0,1,0
120300000000,120600000000,209193844,0,567917,0.0003099,0.09399,0.1011,0.0004597,0.0008621,0.09399,1.907e-06,0.0001707,0.01736,7.153e-05,2.063,0.006333,0,1,0
120600000000,120900000000,209193844,0,567917,0.0003262,0.09399,0.1011,0.000452,0.0008535,0.09399,2.861e-06,0.0001707,0.02924,0.0002146,2.811,0.009355,0,1,0
126000000000,126300000000,209193844,0,567917,0.0002747,0.09399,0.1011,0.0004578,0.0008593,0.09399,2.861e-06,0.0001707,0.01018,0.0001431,2.463,0.008187,0,1,0
126300000000,126600000000,209193844,0,567917,0.0002909,0.09399,0.1011,0.0004568,0.0008583,0.09399,8.583e-06,0.0001707,0.01317,0.001785,3.292,0.01207,0,1,0
126600000000,126900000000,209193844,0,567917,0.000267,0.09399,0.1011,0.0004358,0.0008373,0.09399,2.861e-06,0.0001707,0.007111,0.0001431,2.102,0.00584,0,1,0
126900000000,127200000000,209193844,0,567917,0.0002661,0.09399,0.1011,0.0004368,0.0008383,0.09399,1.907e-06,0.0001707,0.004944,0.0001431,3.543,0.01263,0,1,0
127200000000,127500000000,209193844,0,567917,0.0003033,0.09399,0.1011,0.0004377,0.0008392,0.09399,2.861e-06,0.0001707,0.01587,0.0002146,2.077,0.005693,0,1,0
127500000000,127800000000,209193844,0,567917,0.0003061,0.09399,0.1011,0.0004387,0.0008411,0.09399,1.907e-06,0.0001707,0.01968,7.153e-05,2.726,0.009099,0,1,0
127800000000,128100000000,209193844,0,567917,0.0003319,0.09399,0.1011,0.0004406,0.0008421,0.09399,3.815e-06,0.0001707,0.01935,0.0004282,2.585,0.007979,0,1,0
128100000000,128400000000,209193844,0,567917,0.0002642,0.09399,0.1011,0.0004416,0.000843,0.09399,6.676e-06,0.0001707,0.01085,0.001429,3.062,0.01068,0,1,0
128400000000,128700000000,209193844,0,567917,0.0002804,0.09399,0.1011,0.0004425,0.000844,0.09399,3.815e-06,0.0001707,0.0105,0.0001431,2.796,0.009365,0,1,0
128700000000,129000000000,209193844,0,567917,0.0003014,0.09399,0.1011,0.0004435,0.000845,0.09399,1.907e-06,0.0001707,0.01007,7.153e-05,3.307,0.01178,0,1,0
129000000000,129300000000,209193844,0,567917,0.0002756,0.09399,0.1011,0.0004444,0.0008459,0.09399,1.049e-05,0.0001707,0.01241,0.002571,1.962,0.005457,0,1,0
129300000000,129600000000,209193844,0,567917,0.0002346,0.09399,0.1011,0.0004454,0.0008469,0.09399,2.861e-06,0.0001707,0.00444,0.0001431,3.128,0.01171,0,1,0
129600000000,129900000000,209193844,0,567917,0.0002613,0.09399,0.1011,0.0004463,0.0008478,0.09399,3.815e-06,0.0001707,0.005539,0.0002861,2.206,0.007207,0,1,0
129900000000,130200000000,209193844,0,567917,0.0002518,0.09399,0.1011,0.0004473,0.0008497,0.09399,2.861e-06,0.0001707,0.005737,0.0002861,2.937,0.009972,0,1,0
130200000000,130500000000,209193844,0,567917,0.0002613,0.09399,0.1011,0.0004482,0.0008507,0.09399,2.861e-06,0.0001707,0.02972,0.0001431,3.033,0.01031,0,1,0
130500000000,130800000000,209193844,0,567917,0.0003052,0.09399,0.1011,0.0004501,0.0008516,0.09399,4.768e-06,0.0001707,0.01369,0.0009289,3.782,0.01382,0,1,0
130800000000,131100000000,209193844,0,567917,0.0002832,0.09399,0.1011,0.0004511,0.0008526,0.09399,1.907e-06,0.0001707,0.004349,0.0001431,2.414,0.007238,0,1,0
141000000000,141300000000,209193844,0,567917,0.0002527,0.09399,0.1011,0.0004492,0.0008516,0.09399,4.768e-06,0.0001707,0.005653,0.0009289,2.948,0.01047,0,1,0
141300000000,141600000000,209193844,0,567917,0.0002289,0.09399,0.1011,0.0004501,0.0008526,0.09399,1.907e-06,0.0001707,0.0139,7.153e-05,3.541,0.01269,0,1,0
141600000000,141900000000,209193844,0,567917,0.0003405,0.09399,0.1011,0.0004511,0.0008526,0.09399,2.861e-06,0.0001707,0.01917,0.0001431,2.666,0.008405,0,1,0
141900000000,142200000000,209193844,0,567917,0.0002365,0.09399,0.1011,0.000452,0.0008535,0.09399,1.907e-06,0.0001707,0.008408,7.153e-05,2.383,0.007575,0,1,0
142200000000,142500000000,209193844,0,567917,0.000206,0.09399,0.1011,0.000453,0.0008545,0.09399,1.907e-06,0.0001707,0.00589,0.0001431,3.255,0.01242,0,1,0
142500000000,142800000000,209193844,0,567917,0.000267,0.09399,0.1011,0.0004539,0.0008554,0.09399,1.907e-06,0.0001707,0.03015,7.153e-05,2.854,0.01015,0,1,0
142800000000,143100000000,209193844,0,567917,0.0002117,0.09399,0.1011,0.0004549,0.0008564,0.09399,2.861e-06,0.0001707,0.00499,0.0001431,3.86,0.01432,0,1,0
143100000000,143400000000,209193844,0,567917,0.0002337,0.09399,0.1011,0.0004559,0.0008574,0.09399,3.815e-06,0.0001707,0.01393,0.0005713,3.047,0.01083,0,1,0
143400000000,143700000000,209193844,0,567917,0.0002604,0.09399,0.1011,0.0004501,0.0008526,0.09399,3.815e-06,0.0001707,0.009247,0.0001431,2.697,0.009169,0,1,0
143700000000,144000000000,209193844,0,567917,0.0002193,0.09399,0.1011,0.0004473,0.0008497,0.09399,1.907e-06,0.0001707,0.00399,0.0002146,3.174,0.01147,0,1,0
144000000000,144300000000,209193844,0,567917,0.000288,0.09399,0.1011,0.0004482,0.0008507,0.09399,2.861e-06,0.0001707,0.009445,0.0001431,2.307,0.00768,0,1,0
144300000000,144600000000,209193844,0,567917,0.000227,0.09399,0.1011,0.0004492,0.0008516,0.09399,2.861e-06,0.0001707,0.006622,0.0002146,2.342,0.007466,0,1,0
144600000000,144900000000,209193844,0,567917,0.0002127,0.09399,0.1011,0.0004501,0.0008516,0.09399,2.861e-06,0.0001707,0.004875,0.0001431,2.271,0.007276,0,1,0
144900000000,145200000000,209193844,0,567917,0.0002518,0.09399,0.1011,0.0004511,0.0008526,0.09399,1.907e-06,0.0001707,0.006523,7.153e-05,3.407,0.01333,0,1,0
145200000000,145500000000,209193844,0,567917,0.0002985,0.09399,0.1011,0.000452,0.0008535,0.09399,1.907e-06,0.0001707,0.008514,0.0001431,2.293,0.007563,0,1,0
145500000000,145800000000,209193844,0,567917,0.0002556,0.09399,0.1011,0.0002909,0.0006924,0.09399,6.676e-06,0.0001707,0.01227,0.0007143,4.884,0.02109,0,1,0
145800000000,146100000000,209193844,0,567917,0.0005341,0.09412,0.1011,0.0001936,0.0006266,0.09424,0.0001364,0.0001707,0.03485,0.02365,1.484,0.003443,0,1,0
151200000000,151500000000,209193844,0,567917,0.0003052,0.09399,0.1011,0.0001554,0.0005569,0.09399,2.861e-06,0.0001707,0.02057,0.0001431,2.497,0.00824,0,1,0
151500000000,151800000000,209193844,0,567917,0.0002785,0.09399,0.1011,0.0001564,0.0005579,0.09399,3.815e-06,0.0001707,0.006088,0.0004997,3.011,0.0104,0,1,0
151800000000,152100000000,209193844,0,567917,0.0002356,0.09399,0.1011,0.0001574,0.0005589,0.09399,2.861e-06,0.0001707,0.01175,0.0001431,2.827,0.009445,0,1,0
152100000000,152400000000,209193844,0,567917,0.0002966,0.09399,0.1011,0.0001583,0.0005598,0.09399,2.861e-06,0.0001707,0.01105,7.153e-05,2.676,0.008445,0,1,0
152400000000,152700000000,209193844,0,567917,0.0002756,0.09399,0.1011,0.0001593,0.0005608,0.09399,2.861e-06,0.0001707,0.013,0.0002146,3.385,0.01158,0,1,0
152700000000,153000000000,209193844,0,567917,0.0002546,0.09399,0.1011,0.0001602,0.0005617,0.09399,1.907e-06,0.0001707,0.005051,7.153e-05,4.013,0.01513,0,1,0
153000000000,153300000000,209193844,0,567917,0.0002489,0.09399,0.1011,0.0001612,0.0005617,0.09399,3.815e-06,0.0001707,0.005692,0.0002861,3.854,0.01376,0,1,0
153300000000,153600000000,209193844,0,567917,0.0002775,0.09399,0.1011,0.0001621,0.0005627,0.09399,2.861e-06,0.0001707,0.01688,0.0002146,2.23,0.00636,0,1,0
153600000000,153900000000,209193844,0,567917,0.0002756,0.09399,0.1011,0.0001631,0.0005636,0.09399,2.861e-06,0.0001707,0.008682,0.0001431,2.532,0.007829,0,1,0
153900000000,154200000000,209193844,0,567917,0.0002489,0.09399,0.1011,0.000164,0.0005646,0.09399,1.907e-06,0.0001707,0.01099,7.153e-05,3.284,0.01166,0,1,0
154200000000,154500000000,209193844,0,567917,0.0002241,0.09399,0.1011,0.000165,0.0005655,0.09399,2.861e-06,0.0001707,0.004936,0.0001431,3.125,0.01101,0,1,0
154500000000,154800000000,209193844,0,567917,0.0003586,0.09399,0.1011,0.000165,0.0005665,0.09399,1.907e-06,0.0001707,0.05255,7.153e-05,1.555,0.003648,0,1,0
154800000000,155100000000,209193844,0,567917,0.0002174,0.09399,0.1011,0.0001659,0.0005674,0.09399,2.861e-06,0.0001707,0.01477,0.0001431,2.967,0.01086,0,1,0
155100000000,155400000000,209193844,0,567917,0.0002117,0.09399,0.1011,0.0001669,0.0005684,0.09399,1.907e-06,0.0001707,0.01535,7.153e-05,2.465,0.00855,0,1,0
155400000000,155700000000,209193844,0,567917,0.0002213,0.09399,0.1011,0.0001678,0.0005684,0.09399,2.861e-06,0.0001707,0.04755,0.0001431,3.66,0.01462,0,1,0
155700000000,156000000000,209193844,0,567917,0.0002346,0.09399,0.1011,0.0001678,0.0005693,0.09399,1.907e-06,0.0001707,0.005882,7.153e-05,2.266,0.006319,0,1,0
161100000000,161400000000,209193844,0,567917,0.0002069,0.09399,0.1011,0.0001841,0.0005856,0.09399,1.907e-06,0.0001707,0.004524,7.153e-05,3.257,0.01154,0,1,0
161400000000,161700000000,209193844,0,567917,0.0002451,0.09399,0.1011,0.000185,0.0005856,0.09399,2.861e-06,0.0001707,0.01279,0.0001431,3.005,0.01071,0,1,0
161700000000,162000000000,209193844,0,567917,0.0003004,0.09399,0.1011,0.000186,0.0005865,0.09399,4.768e-06,0.0001707,0.05707,0.0007143,2.455,0.008048,0,1,0
162000000000,162300000000,209193844,0,567917,0.0002508,0.09399,0.1011,0.000186,0.0005875,0.09399,2.861e-06,0.0001707,0.01033,0.0001431,2.536,0.008224,0,1,0
162300000000,162600000000,209193844,0,567917,0.0002108,0.09399,0.1011,0.0001869,0.0005884,0.09399,1.907e-06,0.0001707,0.004639,7.153e-05,3.472,0.01285,0,1,0
162600000000,162900000000,209193844,0,567917,0.0002356,0.09399,0.1011,0.0001879,0.0005894,0.09399,2.861e-06,0.0001707,0.003643,0.0001431,3.23,0.01121,0,1,0
162900000000,163200000000,209193844,0,567917,0.0002623,0.09399,0.1011,0.0001888,0.0005903,0.09399,1.907e-06,0.0001707,0.01067,7.153e-05,2.446,0.007464,0,1,0
163200000000,163500000000,209193844,0,567917,0.0002508,0.09399,0.1011,0.0001898,0.0005903,0.09399,2.861e-06,0.0001707,0.005836,0.0002146,3,0.01016,0,1,0
163500000000,163800000000,209193844,0,567917,0.0002337,0.09399,0.1011,0.0001907,0.0005913,0.09399,1.907e-06,0.0001707,0.006256,7.153e-05,2.913,0.01028,0,1,0
163800000000,164100000000,209193844,0,567917,0.0002918,0.09399,0.1011,0.0001841,0.0005846,0.09399,2.861e-06,0.0001707,0.01109,0.0001431,3.493,0.0129,0,1,0
164100000000,164400000000,209193844,0,567917,0.0002279,0.09399,0.1011,0.0001841,0.0005856,0.09399,3.815e-06,0.0001707,0.006348,0.0004997,3.455,0.01284,0,1,0
164400000000,164700000000,209193844,0,567917,0.0002441,0.09399,0.1011,0.000185,0.0005865,0.09399,2.861e-06,0.0001707,0.0159,0.0001431,3.106,0.01117,0,1,0
164700000000,165000000000,209193844,0,567917,0.0002041,0.09399,0.1011,0.000186,0.0005865,0.09399,1.907e-06,0.0001707,0.00676,7.153e-05,3.825,0.01457,0,1,0
165000000000,165300000000,209193844,0,567917,0.0002155,0.09399,0.1011,0.0001869,0.0005875,0.09399,2.861e-06,0.0001707,0.009048,0.0002146,3.187,0.01142,0,1,0
165300000000,165600000000,209193844,0,567917,0.0002117,0.09399,0.1011,0.0001869,0.0005884,0.09399,1.907e-06,0.0001707,0.005821,7.153e-05,3.216,0.01165,0,1,0
165600000000,165900000000,209193844,0,567917,0.0002384,0.09399,0.1011,0.0001879,0.0005894,0.09399,1.907e-06,0.0001707,0.00779,0.0001431,2.747,0.008766,0,1,0
165900000000,166200000000,209193844,0,567917,0.0002213,0.09399,0.1011,0.0001888,0.0005894,0.09399,1.717e-05,0.0001707,0.006409,0.002857,2.051,0.005702,0,1,0
166200000000,166500000000,209193844,0,567917,0.0002394,0.09399,0.1011,0.0001888,0.0005903,0.09399,3.815e-06,0.0001707,0.02057,0.0004282,2.661,0.008608,0,1,0
166500000000,166800000000,209193844,0,567917,0.0001993,0.09399,0.1011,0.0001898,0.0005913,0.09399,2.861e-06,0.0001707,0.005951,0.0001431,2.942,0.009921,0,1,0
166800000000,167100000000,209193844,0,567917,0.0002079,0.09399,0.1011,0.0001869,0.0005875,0.09399,2.861e-06,0.0001707,0.009659,0.0001431,2.537,0.007969,0,1,0
167100000000,167400000000,209193844,0,567917,0.0001926,0.09399,0.1011,0.0001812,0.0005827,0.09399,1.907e-06,0.0001707,0.008118,7.153e-05,3.236,0.01099,0,1,0
167400000000,167700000000,209193844,0,567917,0.0001945,0.09399,0.1011,0.0001822,0.0005827,0.09399,1.335e-05,0.0001707,0.01056,0.001642,3.034,0.01082,0,1,0
167700000000,168000000000,209193844,0,567917,0.0005245,0.09412,0.1011,0.0002022,0.0006371,0.09424,0.0001421,0.0001707,0.05597,0.021,6.59,0.02817,0,1,0
168000000000,168300000000,209193844,0,567917,0.0002422,0.09412,0.1011,0.0002441,0.0007524,0.09424,5.722e-06,0.0001707,0.01166,0.0002861,4.685,0.019,0,1,0
168300000000,168600000000,209193844,0,567917,0.0002403,0.09412,0.1011,0.0002441,0.0007534,0.09412,9.537e-06,0.0001707,0.005249,0.001715,4.038,0.01609,0,1,0
168600000000,168900000000,209193844,0,567917,0.0002651,0.09412,0.1011,0.0002441,0.0007544,0.09412,4.768e-06,0.0001707,0.01537,0.0002146,5.14,0.02152,0,1,0
168900000000,169200000000,209193844,0,567917,0.0002413,0.09412,0.1011,0.0002451,0.0007544,0.09412,1.526e-05,0.0001707,0.005348,0.001499,5.894,0.0256,0,1,0
169200000000,169500000000,209193844,0,567917,0.0002317,0.09399,0.1011,0.0002069,0.000618,0.09436,1.049e-05,0.0001707,0.008392,0.002144,3.111,0.0108,0,1,0
169500000000,169800000000,209193844,0,567917,0.0002069,0.09399,0.1011,0.000186,0.0005875,0.09399,2.861e-06,0.0001707,0.00882,0.0001431,2.5,0.008514,0,1,0
169800000000,170100000000,209193844,0,567917,0.0002251,0.09399,0.1011,0.000186,0.0005875,0.09399,2.861e-06,0.0001707,0.00428,0.0001431,2.715,0.009352,0,1,0
170100000000,170400000000,209193844,0,567917,0.0002117,0.09399,0.1011,0.0001802,0.0005817,0.09399,1.907e-06,0.0001707,0.01254,7.153e-05,2.32,0.007167,0,1,0
170400000000,170700000000,209193844,0,567917,0.000205,0.09399,0.1011,0.0001812,0.0005817,0.09399,2.861e-06,0.0001707,0.01173,0.0001431,2.191,0.006472,0,1,0
170700000000,171000000000,209193844,0,567917,0.0002422,0.09399,0.1011,0.0001822,0.0005827,0.09399,1.907e-06,0.0001707,0.01099,7.153e-05,2.643,0.008917,0,1,0
171000000000,171300000000,209193844,0,567917,0.0001926,0.09399,0.1011,0.0001822,0.0005836,0.09399,2.861e-06,0.0001707,0.004326,0.0001431,3.202,0.0117,0,1,0
171300000000,171600000000,209193844,0,567917,0.0002155,0.09399,0.1011,0.0001831,0.0005836,0.09399,2.861e-06,0.0001707,0.006737,0.0001431,2.697,0.00872,0,1,0
171600000000,171900000000,209193844,0,567917,0.000186,0.09399,0.1011,0.0001812,0.0005827,0.09399,3.815e-06,0.0001707,0.007195,0.0004282,4.224,0.01629,0,1,0
171900000000,172200000000,209193844,0,567917,0.0002184,0.09399,0.1011,0.0001822,0.0005827,0.09399,1.907e-06,0.0001707,0.02292,7.153e-05,3.942,0.01522,0,1,0
172200000000,172500000000,209193844,0,567917,0.0002851,0.09399,0.1011,0.0001812,0.0005817,0.09399,3.815e-06,0.0001707,0.01399,0.0003567,1.636,0.003716,0,1,0
172500000000,172800000000,209193844,0,567917,0.0001974,0.09399,0.1011,0.0001822,0.0005827,0.09399,1.907e-06,0.0001707,0.004631,7.153e-05,5.859,0.02423,0,1,0
172800000000,173100000000,209193844,0,567917,0.0002203,0.09399,0.1011,0.0001822,0.0005836,0.09399,2.861e-06,0.0001707,0.004967,0.0001431,3.771,0.01451,0,1,0
173100000000,173400000000,209193844,0,567917,0.0002308,0.09399,0.1011,0.0001831,0.0005836,0.09399,3.815e-06,0.0001707,0.008438,0.0005713,3.883,0.01513,0,1,0
173400000000,173700000000,209193844,0,567917,0.0002079,0.09399,0.1011,0.0001831,0.0005846,0.09399,1.907e-06,0.0001707,0.004951,0.0001431,2.335,0.006598,0,1,0
173700000000,174000000000,209193844,0,567917,0.000206,0.09399,0.1011,0.0001841,0.0005846,0.09399,1.907e-06,0.0001707,0.004478,7.153e-05,4.387,0.01739,0,1,0
174000000000,174300000000,209193844,0,567917,0.000185,0.09399,0.1011,0.000185,0.0005856,0.09399,4.768e-06,0.0001707,0.009949,0.0007143,3.178,0.01151,0,1,0
174300000000,174600000000,209193844,0,567917,0.000227,0.09399,0.1011,0.000185,0.0005865,0.09399,1.907e-06,0.0001707,0.0107,7.153e-05,1.726,0.004375,0,1,0
174600000000,174900000000,209193844,0,567917,0.0001993,0.09399,0.1011,0.000186,0.0005865,0.09399,2.861e-06,0.0001707,0.004646,0.0001431,4.482,0.01734,0,1,0
174900000000,175200000000,209193844,0,567917,0.0002203,0.09399,0.1011,0.000186,0.0005865,0.09399,1.907e-06,0.0001707,0.007828,7.153e-05,2.93,0.00997,0,1,0
175200000000,175500000000,209193844,0,567917,0.000206,0.09399,0.1011,0.000185,0.0005865,0.09399,3.815e-06,0.0001707,0.0155,0.0003567,2.799,0.009512,0,1,0
175500000000,175800000000,209193844,0,567917,0.0001926,0.09399,0.1011,0.0001841,0.0005856,0.09399,4.768e-06,0.0001707,0.008774,0.0007858,4.09,0.01546,0,1,0
175800000000,176100000000,209193844,0,567917,0.0002069,0.09399,0.1011,0.000185,0.0005856,0.09399,3.815e-06,0.0001707,0.006004,0.0002861,2.986,0.009933,0,1,0
186300000000,186600000000,209193844,0,567917,0.0001898,0.09399,0.1011,0.0001993,0.0006008,0.09399,2.861e-06,0.0001707,0.01132,7.153e-05,2.875,0.01046,0,1,0
186600000000,186900000000,209193844,0,567917,0.000186,0.09399,0.1011,0.0002003,0.0006008,0.09399,2.861e-06,0.0001707,0.004257,0.0001431,3.544,0.01341,0,1,0
186900000000,187200000000,209193844,0,567917,0.0001793,0.09399,0.1011,0.0002003,0.0006018,0.09399,2.861e-06,0.0001707,0.00853,0.0001431,3.486,0.0134,0,1,0
187200000000,187500000000,209193844,0,567917,0.0002069,0.09399,0.1011,0.0002012,0.0006027,0.09399,2.861e-06,0.0001707,0.006104,0.0001431,2.411,0.008078,0,1,0
187500000000,187800000000,209193844,0,567917,0.0001974,0.09399,0.1011,0.0002022,0.0006027,0.09399,4.768e-06,0.0001707,0.0191,0.0008574,2.216,0.007486,0,1,0
187800000000,188100000000,209193844,0,567917,0.000227,0.09399,0.1011,0.0002022,0.0006037,0.09399,3.815e-06,0.0001707,0.02545,0.0005713,3.736,0.0142,0,1,0
188100000000,188400000000,209193844,0,567917,0.0001688,0.09399,0.1011,0.0002031,0.0006037,0.09399,1.907e-06,0.0001707,0.003597,7.153e-05,2.826,0.009582,0,1,0
188400000000,188700000000,209193844,0,567917,0.0002146,0.09399,0.1011,0.0002031,0.0006046,0.09399,2.861e-06,0.0001707,0.005859,0.0002861,3.081,0.01143,0,1,0
188700000000,189000000000,209193844,0,567917,0.0002108,0.09399,0.1011,0.0002041,0.0006046,0.09399,2.861e-06,0.0001707,0.006622,7.153e-05,2.712,0.009853,0,1,0
189000000000,189300000000,209193844,0,567917,0.0002108,0.09399,0.1011,0.0002041,0.0006056,0.09399,1.907e-06,0.0001707,0.01331,0.0001431,3.124,0.01145,0,1,0
189300000000,189600000000,209193844,0,567917,0.0002108,0.09399,0.1011,0.000205,0.0006065,0.09399,1.907e-06,0.0001707,0.01237,7.153e-05,2.364,0.007218,0,1,0
189600000000,189900000000,209193844,0,567917,0.0002565,0.09399,0.1011,0.000206,0.0006065,0.09399,2.861e-06,0.0001707,0.009796,0.0001431,2.902,0.009745,0,1,0
189900000000,190200000000,209193844,0,567917,0.0002184,0.09399,0.1011,0.000206,0.0006075,0.09399,1.907e-06,0.0001707,0.008728,7.153e-05,2.371,0.007453,0,1,0
190200000000,190500000000,209193844,0,567917,0.0002117,0.09399,0.1011,0.000206,0.0006065,0.09399,2.861e-06,0.0001707,0.004829,0.0003567,2.811,0.009823,0,1,0
190500000000,190800000000,209193844,0,567917,0.0001869,0.09399,0.1011,0.000206,0.0006065,0.09399,8.583e-06,0.0001707,0.01274,0.001858,3.984,0.01592,0,1,0
190800000000,191100000000,209193844,0,567917,0.0001945,0.09399,0.1011,0.000206,0.0006075,0.09399,1.907e-06,0.0001707,0.01183,0.0002146,4.64,0.01934,0,1,0
191100000000,191400000000,209193844,0,567917,0.0001955,0.09399,0.1011,0.0002069,0.0006084,0.09399,1.907e-06,0.0001707,0.01469,0.0001431,4.03,0.01716,0,1,0
191400000000,191700000000,209193844,0,567917,0.0001888,0.09399,0.1011,0.0002079,0.0006084,0.09399,2.861e-06,0.0001707,0.004951,0.0002861,2.969,0.0111,0,1,0
191700000000,192000000000,209193844,0,567917,0.0002174,0.09399,0.1011,0.0002079,0.0006084,0.09399,2.861e-06,0.0001707,0.006767,7.153e-05,3.157,0.01136,0,1,0
192000000000,192300000000,209193844,0,567917,0.0001917,0.09399,0.1011,0.0002079,0.0006084,0.09399,2.861e-06,0.0001707,0.008347,0.0001431,3.195,0.01119,0,1,0
192300000000,192600000000,209193844,0,567917,0.0002117,0.09399,0.1011,0.0002079,0.0006094,0.09399,1.907e-06,0.0001707,0.004379,7.153e-05,2.415,0.007685,0,1,0
192600000000,192900000000,209193844,0,567917,0.0002537,0.09399,0.1011,0.0002089,0.0006104,0.09399,2.861e-06,0.0001707,0.008423,0.0001431,2.455,0.007367,0,1,0
192900000000,193200000000,209193844,0,567917,0.0002184,0.09399,0.1011,0.0002098,0.0006104,0.09399,5.722e-06,0.0001707,0.005051,0.001072,3.275,0.01125,0,1,0
193200000000,193500000000,209193844,0,567917,0.000248,0.09399,0.1011,0.0002098,0.0006113,0.09399,2.861e-06,0.0001707,0.0145,0.0001431,2.223,0.006572,0,1,0
193500000000,193800000000,209193844,0,567917,0.000226,0.09399,0.1011,0.0002098,0.0006113,0.09399,2.861e-06,0.0001707,0.009628,0.0001431,2.575,0.007975,0,1,0
193800000000,194100000000,209193844,0,567917,0.0001917,0.09399,0.1011,0.0002098,0.0006104,0.09399,2.861e-06,0.0001707,0.004234,0.0001431,4.292,0.017,0,1,0
194100000000,194400000000,209193844,0,567917,0.0001984,0.09399,0.1011,0.0002098,0.0006113,0.09399,3.815e-06,0.0001707,0.009247,0.0006428,2.579,0.008456,0,1,0
194400000000,194700000000,209193844,0,567917,0.0001917,0.09399,0.1011,0.0002108,0.0006113,0.09399,4.768e-06,0.0001707,0.003929,0.0006428,3.818,0.01482,0,1,0
194700000000,195000000000,209193844,0,567917,0.0002022,0.09399,0.1011,0.0002117,0.0006123,0.09399,1.907e-06,0.0001707,0.005852,7.153e-05,2.94,0.01025,0,1,0
195000000000,195300000000,209193844,0,567917,0.0001898,0.09399,0.1011,0.0002117,0.0006132,0.09399,7.629e-06,0.0001707,0.009003,0.001642,2.603,0.008466,0,1,0
195300000000,195600000000,209193844,0,567917,0.0004187,0.09399,0.1011,0.0002127,0.0006132,0.09399,3.815e-06,0.0001707,0.04822,0.0004997,3.407,0.01288,0,1,0
195600000000,195900000000,209193844,0,567917,0.000247,0.09399,0.1011,0.0002136,0.0006142,0.09399,2.861e-06,0.0001707,0.008484,0.0003567,2.722,0.008989,0,1,0
195900000000,196200000000,209193844,0,567917,0.0001955,0.09399,0.1011,0.0002136,0.0006151,0.09399,3.815e-06,0.0001707,0.006065,0.0002861,2.828,0.009521,0,1,0
201300000000,201600000000,209193844,0,567917,0.0001774,0.09399,0.1011,0.0002222,0.0006237,0.09399,4.768e-06,0.0001707,0.005287,0.0004997,4.123,0.01691,0,1,0
201600000000,201900000000,209193844,0,567917,0.0002251,0.09399,0.1011,0.0002232,0.0006247,0.09399,2.861e-06,0.0001707,0.006981,0.0001431,3.029,0.01067,0,1,0
201900000000,202200000000,209193844,0,567917,0.0001822,0.09399,0.1011,0.0002241,0.0006247,0.09399,1.907e-06,0.0001707,0.003658,7.153e-05,3.796,0.01494,0,1,0
202200000000,202500000000,209193844,0,567917,0.0002127,0.09399,0.1011,0.0002241,0.0006256,0.09399,6.676e-06,0.0001707,0.01892,0.001072,3.114,0.01118,0,1,0
202500000000,202800000000,209193844,0,567917,0.0002365,0.09399,0.1011,0.0002213,0.0006227,0.09399,1.907e-06,0.0001707,0.01151,7.153e-05,3.235,0.01122,0,1,0
202800000000,203100000000,209193844,0,567917,0.0001717,0.09399,0.1011,0.0002213,0.0006227,0.09399,2.861e-06,0.0001707,0.00795,0.0001431,3.505,0.01323,0,1,0
203100000000,203400000000,209193844,0,567917,0.0002346,0.09399,0.1011,0.0002222,0.0006237,0.09399,3.815e-06,0.0001707,0.009064,7.153e-05,3.053,0.01051,0,1,0
203400000000,203700000000,209193844,0,567917,0.000206,0.09399,0.1011,0.0002232,0.0006237,0.09399,3.815e-06,0.0001707,0.03064,0.0004997,3.275,0.0113,0,1,0
203700000000,204000000000,209193844,0,567917,0.0002022,0.09399,0.1011,0.0002241,0.0006247,0.09399,2.861e-06,0.0001707,0.008209,7.153e-05,3.666,0.01304,0,1,0
204000000000,204300000000,209193844,0,567917,0.0001793,0.09399,0.1011,0.0002241,0.0006256,0.09399,2.861e-06,0.0001707,0.01299,0.0001431,3.505,0.01331,0,1,0
204300000000,204600000000,209193844,0,567917,0.0001917,0.09399,0.1011,0.0002251,0.0006256,0.09399,1.907e-06,0.0001707,0.007843,7.153e-05,3.879,0.01453,0,1,0
204600000000,204900000000,209193844,0,567917,0.0002174,0.09399,0.1011,0.0002251,0.0006266,0.09399,2.861e-06,0.0001707,0.007301,0.0001431,4.194,0.01658,0,1,0
204900000000,205200000000,209193844,0,567917,0.0001898,0.09399,0.1011,0.000226,0.0006275,0.09399,1.907e-06,0.0001707,0.004265,7.153e-05,4.625,0.01751,0,1,0
205200000000,205500000000,209193844,0,567917,0.0001926,0.09399,0.1011,0.000227,0.0006275,0.09399,4.768e-06,0.0001707,0.004478,0.0008574,3.115,0.01102,0,1,0
205500000000,205800000000,209193844,0,567917,0.0001717,0.09399,0.1011,0.000227,0.0006285,0.09399,1.907e-06,0.0001707,0.004463,0.0001431,4.33,0.01669,0,1,0
205800000000,206100000000,209193844,0,567917,0.0001974,0.09399,0.1011,0.0002279,0.0006285,0.09399,3.815e-06,0.0001707,0.006706,0.0004282,3.121,0.01125,0,1,0
206100000000,206400000000,209193844,0,567917,0.000185,0.09399,0.1011,0.0002279,0.0006294,0.09399,1.907e-06,0.0001707,0.009735,7.153e-05,4.404,0.01762,0,1,0
206400000000,206700000000,209193844,0,567917,0.0002108,0.09399,0.1011,0.0002289,0.0006304,0.09399,3.815e-06,0.0001707,0.006165,0.0003567,3.418,0.01238,0,1,0
206700000000,207000000000,209193844,0,567917,0.0002117,0.09399,0.1011,0.0002279,0.0006285,0.09399,3.815e-06,0.0001707,0.01176,0.0005713,2.849,0.01,0,1,0
207000000000,207300000000,209193844,0,567917,0.0002069,0.09399,0.1011,0.0002279,0.0006294,0.09399,6.676e-06,0.0001707,0.004257,0.0009289,3.356,0.01235,0,1,0
207300000000,207600000000,209193844,0,567917,0.0002375,0.09399,0.1011,0.0002289,0.0006304,0.09399,1.907e-06,0.0001707,0.009033,7.153e-05,2.962,0.01078,0,1,0
207600000000,207900000000,209193844,0,567917,0.0002031,0.09399,0.1011,0.0002298,0.0006304,0.09399,2.861e-06,0.0001707,0.009201,0.0001431,2.936,0.01041,0,1,0
207900000000,208200000000,209193844,0,567917,0.0001907,0.09399,0.1011,0.0002298,0.0006313,0.09399,1.907e-06,0.0001707,0.007599,7.153e-05,4.835,0.01968,0,1,0
208200000000,208500000000,209193844,0,567917,0.0001831,0.09399,0.1011,0.0002308,0.0006323,0.09399,5.722e-06,0.0001707,0.004631,0.001143,2.882,0.0101,0,1,0
208500000000,208800000000,209193844,0,567917,0.0001907,0.09399,0.1011,0.0002317,0.0006323,0.09399,1.907e-06,0.0001707,0.004601,7.153e-05,4.383,0.01734,0,1,0
208800000000,209100000000,209193844,0,567917,0.0001802,0.09399,0.1011,0.0002317,0.0006332,0.09399,4.768e-06,0.0001707,0.004433,0.0007143,4.085,0.01614,0,1,0
209100000000,209400000000,209193844,0,567917,0.0001974,0.09399,0.1011,0.0002327,0.0006332,0.09399,2.861e-06,0.0001707,0.006119,7.153e-05,4.232,0.01632,0,1,0
209400000000,209700000000,209193844,0,567917,0.0001802,0.09399,0.1011,0.0002327,0.0006342,0.09399,1.907e-06,0.0001707,0.004021,0.0001431,4.03,0.01576,0,1,0
209700000000,210000000000,209193844,0,567917,0.0001764,0.09399,0.1011,0.0002337,0.0006351,0.09399,2.861e-06,0.0001707,0.004181,0.0003567,4.289,0.0171,0,1,0
210000000000,210300000000,209193844,0,567917,0.0002203,0.09399,0.1011,0.0002346,0.0006351,0.09399,4.768e-06,0.0001707,0.004761,0.0004997,4.047,0.01576,0,1,0
210300000000,210600000000,209193844,0,567917,0.0001879,0.09399,0.1011,0.0002346,0.0006361,0.09399,1.907e-06,0.0001707,0.007812,0.0001431,3.65,0.01364,0,1,0
210600000000,210900000000,209193844,0,567917,0.0002403,0.09399,0.1011,0.0002356,0.0006361,0.09399,2.861e-06,0.0001707,0.01349,0.0002146,3.439,0.01276,0,1,0
210900000000,211200000000,209193844,0,567917,0.000205,0.09399,0.1011,0.0002356,0.0006371,0.09399,2.861e-06,0.0001707,0.009003,0.0001431,3.18,0.01139,0,1,0
211200000000,211500000000,209193844,0,567917,0.0002117,0.09399,0.1011,0.0002365,0.000638,0.09399,2.861e-06,0.0001707,0.02026,0.0001431,3.219,0.0118,0,1,0
211500000000,211800000000,209193844,0,567917,0.0002317,0.09399,0.1011,0.0002375,0.000638,0.09399,2.861e-06,0.0001707,0.009186,0.0002861,3.209,0.01175,0,1,0
211800000000,212100000000,209193844,0,567917,0.000186,0.09399,0.1011,0.0002375,0.000639,0.09399,2.861e-06,0.0001707,0.004906,0.0001431,3.444,0.01261,0,1,0
212100000000,212400000000,209193844,0,567917,0.000206,0.09399,0.1011,0.0002384,0.0006399,0.09399,2.861e-06,0.0001707,0.02411,0.0001431,3.804,0.0143,0,1,0
212400000000,212700000000,209193844,0,567917,0.000185,0.09399,0.1011,0.0002394,0.0006399,0.09399,5.722e-06,0.0001707,0.004463,0.0009995,3.55,0.01294,0,1,0
212700000000,213000000000,209193844,0,567917,0.0002098,0.09399,0.1011,0.0002394,0.0006409,0.09399,7.629e-06,0.0001707,0.005257,0.001642,4.159,0.01672,0,1,0
213000000000,213300000000,209193844,0,567917,0.000206,0.09399,0.1011,0.0002403,0.0006418,0.09399,2.861e-06,0.0001707,0.007469,0.0002861,4.16,0.01705,0,1,0
213300000000,213600000000,209193844,0,567917,0.0001764,0.09399,0.1011,0.0002413,0.0006418,0.09399,1.907e-06,0.0001707,0.005516,7.153e-05,3.385,0.01258,0,1,0
213600000000,213900000000,209193844,0,567917,0.0001774,0.09399,0.1011,0.0002413,0.0006428,0.09399,2.861e-06,0.0001707,0.004143,0.0001431,3.724,0.01495,0,1,0
213900000000,214200000000,209193844,0,567917,0.0001688,0.09399,0.1011,0.0002422,0.0006428,0.09399,3.815e-06,0.0001707,0.004234,0.0004282,3.364,0.01256,0,1,0
214200000000,214500000000,209193844,0,567917,0.0001869,0.09399,0.1011,0.0002432,0.0006437,0.09399,2.861e-06,0.0001707,0.004715,0.0002146,2.76,0.009804,0,1,0
214500000000,214800000000,209193844,0,567917,0.0002012,0.09399,0.1011,0.0002432,0.0006447,0.09399,2.861e-06,0.0001707,0.01767,0.0001431,2.535,0.008516,0,1,0
214800000000,215100000000,209193844,0,567917,0.0002298,0.09399,0.1011,0.0002441,0.0006447,0.09399,2.861e-06,0.0001707,0.009857,0.0001431,4.245,0.01685,0,1,0
215100000000,215400000000,209193844,0,567917,0.0002003,0.09399,0.1011,0.0002451,0.0006456,0.09399,2.861e-06,0.0001707,0.008286,7.153e-05,2.879,0.009959,0,1,0
215400000000,215700000000,209193844,0,567917,0.0002575,0.09399,0.1011,0.0002451,0.0006466,0.09399,2.861e-06,0.0001707,0.009033,0.0001431,2.702,0.009271,0,1,0
215700000000,216000000000,209193844,0,567917,0.0001945,0.09399,0.1011,0.000246,0.0006475,0.09399,1.907e-06,0.0001707,0.004738,7.153e-05,3.729,0.01459,0,1,0
216000000000,216300000000,209193844,0,567917,0.0002098,0.09399,0.1011,0.0002451,0.0006456,0.09399,3.815e-06,0.0001707,0.004242,0.0005713,2.939,0.01026,0,1,0
221100000000,221400000000,209193844,0,567917,0.0002012,0.09399,0.1011,0.0002432,0.0006437,0.09399,1.907e-06,0.0001707,0.04016,7.153e-05,2.496,0.008208,0,1,0
221400000000,221700000000,209193844,0,567917,0.0002098,0.09399,0.1011,0.0002432,0.0006447,0.09399,2.861e-06,0.0001707,0.01382,0.0003567,3.385,0.01253,0,1,0
221700000000,222000000000,209193844,0,567917,0.0001945,0.09399,0.1011,0.0002441,0.0006456,0.09399,2.861e-06,0.0001707,0.03857,0.0001431,5.312,0.02221,0,1,0
222000000000,222300000000,209193844,0,567917,0.0002165,0.09399,0.1011,0.0002451,0.0006456,0.09399,2.861e-06,0.0001707,0.006927,0.0002861,3.576,0.01325,0,1,0
222300000000,222600000000,209193844,0,567917,0.0002441,0.09399,0.1011,0.0002451,0.0006466,0.09399,1.907e-06,0.0001707,0.01282,7.153e-05,2.367,0.007639,0,1,0
222600000000,222900000000,209193844,0,567917,0.0002031,0.09399,0.1011,0.000246,0.0006475,0.09399,2.861e-06,0.0001707,0.004669,0.0001431,4.779,0.01958,0,1,0
222900000000,223200000000,209193844,0,567917,0.0002584,0.09399,0.1011,0.000247,0.0006475,0.09399,1.907e-06,0.0001707,0.008896,7.153e-05,1.95,0.005398,0,1,0
223200000000,223500000000,209193844,0,567917,0.0001917,0.09399,0.1011,0.000247,0.0006485,0.09399,7.629e-06,0.0001707,0.01001,0.001499,3.987,0.01587,0,1,0
223500000000,223800000000,209193844,0,567917,0.0002518,0.09399,0.1011,0.0002441,0.0006447,0.09399,2.861e-06,0.0001707,0.009552,7.153e-05,2.638,0.008793,0,1,0
223800000000,224100000000,209193844,0,567917,0.0002966,0.09399,0.1011,0.0002413,0.0006418,0.09399,2.861e-06,0.0001707,0.0365,0.0001431,2.599,0.0081,0,1,0
224100000000,224400000000,209193844,0,567917,0.000227,0.09399,0.1011,0.0002422,0.0006428,0.09399,2.861e-06,0.0001707,0.009949,0.0002146,3.057,0.01061,0,1,0
224400000000,224700000000,209193844,0,567917,0.0002403,0.09399,0.1011,0.0002422,0.0006437,0.09399,4.768e-06,0.0001707,0.004868,0.0004997,2.437,0.007712,0,1,0
224700000000,225000000000,209193844,0,567917,0.0002394,0.09399,0.1011,0.0002432,0.0006447,0.09399,1.907e-06,0.0001707,0.01199,7.153e-05,2.847,0.009592,0,1,0
225000000000,225300000000,209193844,0,567917,0.0002642,0.09399,0.1011,0.0002441,0.0006456,0.09399,2.861e-06,0.0001707,0.01068,0.0001431,3.704,0.01394,0,1,0
225300000000,225600000000,209193844,0,567917,0.0002117,0.09399,0.1011,0.0002451,0.0006456,0.09399,1.907e-06,0.0001707,0.004311,7.153e-05,3.477,0.01247,0,1,0
225600000000,225900000000,209193844,0,567917,0.0002689,0.09399,0.1011,0.000246,0.0006466,0.09399,2.861e-06,0.0001707,0.01904,0.0001431,2.005,0.005405,0,1,0
225900000000,226200000000,209193844,0,567917,0.0002966,0.09399,0.1011,0.000246,0.0006475,0.09399,2.861e-06,0.0001707,0.01929,0.0001431,3.401,0.01249,0,1,0
226200000000,226500000000,209193844,0,567917,0.000206,0.09399,0.1011,0.000247,0.0006475,0.09399,3.815e-06,0.0001707,0.00705,0.0005713,2.81,0.009441,0,1,0
226500000000,226800000000,209193844,0,567917,0.0002403,0.09399,0.1011,0.000247,0.0006485,0.09399,1.907e-06,0.0001707,0.008331,7.153e-05,4.132,0.0158,0,1,0
226800000000,227100000000,209193844,0,567917,0.000226,0.09399,0.1011,0.000248,0.0006495,0.09399,2.861e-06,0.0001707,0.004959,0.0001431,2.632,0.008746,0,1,0
227100000000,227400000000,209193844,0,567917,0.0001898,0.09399,0.1011,0.0002489,0.0006495,0.09399,2.861e-06,0.0001707,0.004585,0.0001431,3.644,0.01391,0,1,0
227400000000,227700000000,209193844,0,567917,0.0002069,0.09399,0.1011,0.0002489,0.0006504,0.09399,3.815e-06,0.0001707,0.006622,0.0003567,2.586,0.008486,0,1,0
227700000000,228000000000,209193844,0,567917,0.0001812,0.09399,0.1011,0.0002499,0.0006504,0.09399,2.861e-06,0.0001707,0.009613,7.153e-05,3.324,0.01192,0,1,0
228000000000,228300000000,209193844,0,567917,0.0002022,0.09399,0.1011,0.0002508,0.0006514,0.09399,4.768e-06,0.0001707,0.006126,0.0005713,3.033,0.01056,0,1,0
228300000000,228600000000,209193844,0,567917,0.0001898,0.09399,0.1011,0.0002508,0.0006523,0.09399,2.861e-06,0.0001707,0.003639,0.0004997,2.923,0.01036,0,1,0
228600000000,228900000000,209193844,0,567917,0.000185,0.09399,0.1011,0.0002518,0.0006523,0.09399,2.861e-06,0.0001707,0.005203,0.0002146,4.399,0.01845,0,1,0
228900000000,229200000000,209193844,0,567917,0.0001926,0.09399,0.1011,0.0002518,0.0006533,0.09399,1.907e-06,0.0001707,0.006264,7.153e-05,3.97,0.01579,0,1,0
229200000000,229500000000,209193844,0,567917,0.0002041,0.09399,0.1011,0.0002527,0.0006542,0.09399,2.861e-06,0.0001707,0.005836,0.0001431,3.153,0.01138,0,1,0
229500000000,229800000000,209193844,0,567917,0.0002689,0.09399,0.1011,0.0002537,0.0006542,0.09399,2.861e-06,0.0001707,0.01071,0.0002861,2.706,0.009252,0,1,0
229800000000,230100000000,209193844,0,567917,0.0002041,0.09399,0.1011,0.0002546,0.0006552,0.09399,2.861e-06,0.0001707,0.003944,0.0001431,2.884,0.01029,0,1,0
230100000000,230400000000,209193844,0,567917,0.0002737,0.09399,0.1011,0.0002546,0.0006561,0.09399,1.907e-06,0.0001707,0.01895,7.153e-05,3.123,0.01133,0,1,0
230400000000,230700000000,209193844,0,567917,0.0001802,0.09399,0.1011,0.0002556,0.0006561,0.09399,2.861e-06,0.0001707,0.005165,0.0001431,2.651,0.009382,0,1,0
230700000000,231000000000,209193844,0,567917,0.0002441,0.09399,0.1011,0.0002556,0.0006571,0.09399,2.861e-06,0.0001707,0.01987,0.0002146,3.153,0.01191,0,1,0
231000000000,231300000000,209193844,0,567917,0.0002108,0.09399,0.1011,0.0002565,0.000658,0.09399,2.861e-06,0.0001707,0.005028,0.0002146,2.522,0.008559,0,1,0
231300000000,231600000000,209193844,0,567917,0.0002327,0.09399,0.1011,0.0002575,0.000658,0.09399,1.907e-06,0.0001707,0.01666,7.153e-05,2.877,0.01043,0,1,0
231600000000,231900000000,209193844,0,567917,0.0002375,0.09399,0.1011,0.0002575,0.000659,0.09399,2.861e-06,0.0001707,0.009613,0.0002146,1.894,0.005516,0,1,0
231900000000,232200000000,209193844,0,567917,0.0002365,0.09399,0.1011,0.0002584,0.0006599,0.09399,4.768e-06,0.0001707,0.008743,0.0007858,3.437,0.01259,0,1,0
232200000000,232500000000,209193844,0,567917,0.0002327,0.09399,0.1011,0.0002594,0.0006599,0.09399,2.861e-06,0.0001707,0.007568,0.0002861,2.923,0.01013,0,1,0
232500000000,232800000000,209193844,0,567917,0.0002098,0.09399,0.1011,0.0002604,0.0006609,0.09399,2.861e-06,0.0001707,0.004898,7.153e-05,3.456,0.01298,0,1,0
232800000000,233100000000,209193844,0,567917,0.0002365,0.09399,0.1011,0.0002604,0.0006618,0.09399,2.861e-06,0.0001707,0.01231,0.0001431,3.211,0.01158,0,1,0
233100000000,233400000000,209193844,0,567917,0.0002127,0.09399,0.1011,0.0002613,0.0006618,0.09399,4.768e-06,0.0001707,0.006805,0.0007858,2.498,0.008271,0,1,0
233400000000,233700000000,209193844,0,567917,0.000164,0.09399,0.1011,0.0002613,0.0006628,0.09399,2.861e-06,0.0001707,0.00441,0.0001431,2.962,0.01081,0,1,0
233700000000,234000000000,209193844,0,567917,0.0002003,0.09399,0.1011,0.0002623,0.0006638,0.09399,2.861e-06,0.0001707,0.006042,7.153e-05,3.385,0.01303,0,1,0
234000000000,234300000000,209193844,0,567917,0.0001993,0.09399,0.1011,0.0002632,0.0006638,0.09399,2.861e-06,0.0001707,0.003658,0.0001431,2.966,0.01054,0,1,0
234300000000,234600000000,209193844,0,567917,0.0001631,0.09399,0.1011,0.0002632,0.0006647,0.09399,7.629e-06,0.0001707,0.003857,0.001715,4.31,0.01771,0,1,0
234600000000,234900000000,209193844,0,567917,0.0002174,0.09399,0.1011,0.0002623,0.0006628,0.09399,2.861e-06,0.0001707,0.01898,0.0001431,3.142,0.01156,0,1,0
234900000000,235200000000,209193844,0,567917,0.0002022,0.09399,0.1011,0.0002613,0.0006628,0.09399,1.907e-06,0.0001707,0.004005,7.153e-05,4.163,0.01657,0,1,0
235200000000,235500000000,209193844,0,567917,0.0001993,0.09399,0.1011,0.0002623,0.0006628,0.09399,3.815e-06,0.0001707,0.004982,0.0002146,2.897,0.01008,0,1,0
235500000000,235800000000,209193844,0,567917,0.000268,0.09399,0.1011,0.0002632,0.0006638,0.09399,1.907e-06,0.0001707,0.007393,7.153e-05,3.472,0.01312,0,1,0
235800000000,236100000000,209193844,0,567917,0.0001869,0.09399,0.1011,0.0002632,0.0006647,0.09399,2.861e-06,0.0001707,0.005295,0.0001431,3.06,0.01102,0,1,0
236100000000,236400000000,209193844,0,567917,0.0001936,0.09399,0.1011,0.0002642,0.0006647,0.09399,1.907e-06,0.0001707,0.004387,7.153e-05,4.065,0.01624,0,1,0
241200000000,241500000000,209193844,0,567917,0.0002184,0.09399,0.1011,0.0002556,0.0006561,0.09399,2.861e-06,0.0001707,0.005943,0.0001431,2.52,0.008276,0,1,0
241500000000,241800000000,209193844,0,567917,0.0002031,0.09399,0.1011,0.0002565,0.0006571,0.09399,1.907e-06,0.0001707,0.005966,7.153e-05,3.923,0.01477,0,1,0
241800000000,242100000000,209193844,0,567917,0.0002041,0.09399,0.1011,0.0002565,0.000658,0.09399,2.861e-06,0.0001707,0.01234,0.0001431,4.92,0.0202,0,1,0
242100000000,242400000000,209193844,0,567917,0.0002575,0.09399,0.1011,0.0002575,0.000658,0.09399,1.907e-06,0.0001707,0.02014,7.153e-05,3.233,0.01197,0,1,0
242400000000,242700000000,209193844,0,567917,0.0002022,0.09399,0.1011,0.0002584,0.000659,0.09399,2.861e-06,0.0001707,0.004272,0.0001431,3.097,0.01077,0,1,0
242700000000,243000000000,209193844,0,567917,0.0002213,0.09399,0.1011,0.0002584,0.0006599,0.09399,3.815e-06,0.0001707,0.007622,0.0006428,3.471,0.01253,0,1,0
243000000000,243300000000,209193844,0,567917,0.0002127,0.09399,0.1011,0.0002594,0.0006599,0.09399,2.861e-06,0.0001707,0.006783,0.0001431,3.556,0.01284,0,1,0
243300000000,243600000000,209193844,0,567917,0.0002174,0.09399,0.1011,0.0002594,0.0006599,0.09399,1.907e-06,0.0001707,0.008041,7.153e-05,4.067,0.01549,0,1,0
243600000000,243900000000,209193844,0,567917,0.0002003,0.09399,0.1011,0.0002584,0.0006599,0.09399,2.861e-06,0.0001707,0.004486,0.0001431,3.28,0.01108,0,1,0
243900000000,244200000000,209193844,0,567917,0.0002317,0.09399,0.1011,0.0002594,0.0006599,0.09399,3.815e-06,0.0001707,0.004951,0.0004997,4.072,0.01477,0,1,0
244200000000,244500000000,209193844,0,567917,0.0002041,0.09399,0.1011,0.0002604,0.0006609,0.09399,4.768e-06,0.0001707,0.007996,0.0007143,4.467,0.01739,0,1,0
244500000000,244800000000,209193844,0,567917,0.0002222,0.09399,0.1011,0.0002584,0.0006599,0.09399,2.861e-06,0.0001707,0.005333,0.0001431,3.131,0.01082,0,1,0
244800000000,245100000000,209193844,0,567917,0.0002718,0.09399,0.1011,0.0002537,0.0006542,0.09399,2.861e-06,0.0001707,0.007439,0.0002861,3.284,0.01125,0,1,0
245100000000,245400000000,209193844,0,567917,0.0002556,0.09399,0.1011,0.0002546,0.0006552,0.09399,1.907e-06,0.0001707,0.007812,7.153e-05,2.797,0.009116,0,1,0
245400000000,245700000000,209193844,0,567917,0.0002031,0.09399,0.1011,0.0002546,0.0006561,0.09399,3.815e-06,0.0001707,0.005432,0.0002861,3.087,0.01017,0,1,0
245700000000,246000000000,209193844,0,567917,0.0002718,0.09399,0.1011,0.0002556,0.0006561,0.09399,4.768e-06,0.0001707,0.01033,0.0001783,3.055,0.01028,0,1,0
246000000000,246300000000,209193844,0,567917,0.0002909,0.09399,0.1011,0.0002565,0.0006571,0.09399,1.907e-06,0.0001707,0.04419,0.0001431,2.751,0.008693,0,1,0
251400000000,251700000000,209193844,0,567917,0.0002232,0.09399,0.1011,0.000268,0.0006695,0.09399,2.861e-06,0.0001707,0.005226,0.0001431,3.532,0.01257,0,1,0
251700000000,252000000000,209193844,0,567917,0.000205,0.09399,0.1011,0.0002689,0.0006695,0.09399,2.861e-06,0.0001707,0.007805,0.0001431,2.911,0.00997,0,1,0
252000000000,252300000000,209193844,0,567917,0.0002117,0.09399,0.1011,0.0002699,0.0006704,0.09399,3.815e-06,0.0001707,0.004974,0.0007143,2.742,0.009268,0,1,0
252300000000,252600000000,209193844,0,567917,0.0002089,0.09399,0.1011,0.0002699,0.0006714,0.09399,1.907e-06,0.0001707,0.005821,7.153e-05,3.162,0.01131,0,1,0
252600000000,252900000000,209193844,0,567917,0.0002203,0.09399,0.1011,0.0002708,0.0006714,0.09399,4.768e-06,0.0001707,0.01877,0.0006428,2.637,0.009366,0,1,0
252900000000,253200000000,209193844,0,567917,0.0001869,0.09399,0.1011,0.0002718,0.0006723,0.09399,2.861e-06,0.0001707,0.01274,0.0002146,3.754,0.01474,0,1,0
253200000000,253500000000,209193844,0,567917,0.0002203,0.09399,0.1011,0.0002718,0.0006733,0.09399,2.861e-06,0.0001707,0.008514,0.0001431,2.468,0.008406,0,1,0
253500000000,253800000000,209193844,0,567917,0.0002508,0.09399,0.1011,0.0002728,0.0006733,0.09399,1.907e-06,0.0001707,0.007324,7.153e-05,3.277,0.01218,0,1,0
253800000000,254100000000,209193844,0,567917,0.0001802,0.09399,0.1011,0.0002737,0.0006742,0.09399,4.768e-06,0.0001707,0.006119,0.0007143,3.698,0.0145,0,1,0
254100000000,254400000000,209193844,0,567917,0.0001955,0.09399,0.1011,0.0002747,0.0006752,0.09399,3.815e-06,0.0001707,0.01294,0.0004282,2.76,0.00975,0,1,0
254400000000,254700000000,209193844,0,567917,0.0005331,0.09412,0.1011,0.0002966,0.0007353,0.09424,0.000145,0.0001707,0.06018,0.01492,4.344,0.01754,0,1,0
254700000000,255000000000,209193844,0,567917,0.000227,0.09412,0.1011,0.0003357,0.000845,0.09424,8.583e-06,0.0001707,0.005051,0.001715,5.153,0.02222,0,1,0
255000000000,255300000000,209193844,0,567917,0.0002346,0.09412,0.1011,0.0003366,0.000845,0.09412,4.768e-06,0.0001707,0.006866,0.0001431,5.333,0.02369,0,1,0
255300000000,255600000000,209193844,0,567917,0.0002375,0.09412,0.1011,0.0003271,0.0008354,0.09412,4.768e-06,0.0001707,0.005592,0.0004282,4.713,0.02016,0,1,0
255600000000,255900000000,209193844,0,567917,0.0002995,0.09412,0.1011,0.0003004,0.0008078,0.09412,6.676e-06,0.0001707,0.006096,0.0006428,5.59,0.02325,0,1,0
255900000000,256200000000,209193844,0,567917,0.0002737,0.09412,0.1011,0.0003014,0.0008087,0.09412,2.861e-06,0.0001707,0.01724,0.0002861,5.511,0.02255,0,1,0
256200000000,256500000000,209193844,0,567917,0.0002747,0.09412,0.1011,0.0003023,0.0008097,0.09412,3.815e-06,0.0001707,0.007614,0.0001431,4.935,0.01997,0,1,0
256500000000,256800000000,209193844,0,567917,0.0002632,0.09412,0.1011,0.0003033,0.0008106,0.09412,2.861e-06,0.0001707,0.007072,0.0001431,5.863,0.02574,0,1,0
256800000000,257100000000,209193844,0,567917,0.0002089,0.09399,0.1011,0.0002937,0.0007057,0.09424,5.722e-06,0.0001707,0.01219,0.0004282,3.137,0.0114,0,1,0
257100000000,257400000000,209193844,0,567917,0.0002117,0.09399,0.1011,0.0002451,0.0006437,0.09399,2.861e-06,0.0001707,0.005241,0.0001431,3.167,0.01074,0,1,0
257400000000,257700000000,209193844,0,567917,0.0002089,0.09399,0.1011,0.0002451,0.0006437,0.09399,2.861e-06,0.0001707,0.01006,0.0001431,4.863,0.01912,0,1,0
257700000000,258000000000,209193844,0,567917,0.0001812,0.09399,0.1011,0.000246,0.0006447,0.09399,2.861e-06,0.0001707,0.006172,7.153e-05,3.647,0.01315,0,1,0
258000000000,258300000000,209193844,0,567917,0.0002365,0.09399,0.1011,0.000246,0.0006447,0.09399,2.861e-06,0.0001707,0.01045,0.0001431,2.42,0.007392,0,1,0
258300000000,258600000000,209193844,0,567917,0.0002117,0.09399,0.1011,0.000247,0.0006456,0.09399,1.907e-06,0.0001707,0.00769,7.153e-05,3.242,0.0119,0,1,0
258600000000,258900000000,209193844,0,567917,0.0002317,0.09399,0.1011,0.000248,0.0006466,0.09399,2.861e-06,0.0001707,0.008621,0.0001431,2.193,0.00702,0,1,0
258900000000,259200000000,209193844,0,567917,0.0001993,0.09399,0.1011,0.000248,0.0006466,0.09399,2.861e-06,0.0001707,0.00914,7.153e-05,2.773,0.009805,0,1,0
259200000000,259500000000,209193844,0,567917,0.0002527,0.09399,0.1011,0.0002489,0.0006475,0.09399,2.861e-06,0.0001707,0.01929,0.0001431,2.478,0.008484,0,1,0
259500000000,259800000000,209193844,0,567917,0.0001955,0.09399,0.1011,0.0002489,0.0006475,0.09399,1.907e-06,0.0001707,0.007111,7.153e-05,2.89,0.009961,0,1,0
259800000000,260100000000,209193844,0,567917,0.0002213,0.09399,0.1011,0.0002499,0.0006485,0.09399,2.861e-06,0.0001707,0.0307,0.0001431,3.873,0.01421,0,1,0
260100000000,260400000000,209193844,0,567917,0.000206,0.09399,0.1011,0.0002499,0.0006485,0.09399,1.907e-06,0.0001707,0.008072,7.153e-05,3.564,0.01249,0,1,0
260400000000,260700000000,209193844,0,567917,0.0002413,0.09399,0.1011,0.0002508,0.0006495,0.09399,2.861e-06,0.0001707,0.01277,0.0001431,3.353,0.01164,0,1,0
260700000000,261000000000,209193844,0,567917,0.000205,0.09399,0.1011,0.0002508,0.0006495,0.09399,1.907e-06,0.0001707,0.006332,7.153e-05,3.869,0.0138,0,1,0
261000000000,261300000000,209193844,0,567917,0.0002174,0.09399,0.1011,0.0002518,0.0006504,0.09399,2.861e-06,0.0001707,0.01143,0.0002861,2.568,0.00777,0,1,0
261300000000,261600000000,209193844,0,567917,0.000186,0.09399,0.1011,0.0002518,0.0006504,0.09399,1.907e-06,0.0001707,0.004852,7.153e-05,3.582,0.01296,0,1,0
261600000000,261900000000,209193844,0,567917,0.0001698,0.09399,0.1011,0.0002527,0.0006514,0.09399,2.861e-06,0.0001707,0.009415,0.0001431,2.929,0.01064,0,1,0
261900000000,262200000000,209193844,0,567917,0.0001831,0.09399,0.1011,0.0002527,0.0006514,0.09399,1.907e-06,0.0001707,0.004906,7.153e-05,3.756,0.01432,0,1,0
262200000000,262500000000,209193844,0,567917,0.0001936,0.09399,0.1011,0.0002499,0.0006485,0.09399,2.861e-06,0.0001707,0.01315,0.0001431,2.228,0.00681,0,1,0
262500000000,262800000000,209193844,0,567917,0.0001926,0.09399,0.1011,0.0002499,0.0006485,0.09399,2.861e-06,0.0001707,0.01016,0.0001431,2.619,0.009003,0,1,0
262800000000,263100000000,209193844,0,567917,0.0001564,0.09399,0.1011,0.0002575,0.0006561,0.09399,1.24e-05,0.0001707,0.007027,0.002998,2.875,0.01081,0,1,0
263100000000,263400000000,209193844,0,567917,0.0001955,0.09399,0.1011,0.0002604,0.000659,0.09399,1.907e-06,0.0001707,0.008881,7.153e-05,2.772,0.01011,0,1,0
263400000000,263700000000,209193844,0,567917,0.0002022,0.09399,0.1011,0.0002613,0.0006599,0.09399,2.861e-06,0.0001707,0.006775,0.0001431,2.841,0.01038,0,1,0
263700000000,264000000000,209193844,0,567917,0.0001793,0.09399,0.1011,0.0002613,0.0006609,0.09399,4.768e-06,0.0001707,0.00359,0.0006428,3.125,0.01221,0,1,0
264000000000,264300000000,209193844,0,567917,0.0002308,0.09399,0.1011,0.0002584,0.0006571,0.09399,3.815e-06,0.0001707,0.008179,0.0004997,4.017,0.01476,0,1,0
264300000000,264600000000,209193844,0,567917,0.0001888,0.09399,0.1011,0.0002565,0.0006552,0.09399,1.907e-06,0.0001707,0.01221,7.153e-05,2.742,0.009177,0,1,0
264600000000,264900000000,209193844,0,567917,0.0001726,0.09399,0.1011,0.0002565,0.0006561,0.09399,1.907e-06,0.0001707,0.007057,0.0001431,3.416,0.01237,0,1,0
264900000000,265200000000,209193844,0,567917,0.0001736,0.09399,0.1011,0.0002575,0.0006561,0.09399,2.861e-06,0.0001707,0.003944,0.0002146,2.6,0.0093,0,1,0
265200000000,265500000000,209193844,0,567917,0.0001831,0.09399,0.1011,0.0002575,0.0006571,0.09399,5.722e-06,0.0001707,0.01337,0.001143,2.831,0.01031,0,1,0
265500000000,265800000000,209193844,0,567917,0.000206,0.09399,0.1011,0.0002584,0.0006571,0.09399,1.907e-06,0.0001707,0.006958,0.0001431,2.899,0.01023,0,1,0
265800000000,266100000000,209193844,0,567917,0.0002098,0.09399,0.1011,0.0002584,0.000658,0.09399,2.861e-06,0.0001707,0.0107,0.0001431,3.277,0.01232,0,1,0
266100000000,266400000000,209193844,0,567917,0.0001802,0.09399,0.1011,0.0002604,0.000659,0.09399,1.431e-05,0.0001707,0.005028,0.003643,2.135,0.006438,0,1,0
266400000000,266700000000,209193844,0,567917,0.000185,0.09399,0.1011,0.000268,0.0006676,0.09399,6.676e-06,0.0001707,0.005302,0.001143,2.231,0.007227,0,1,0
266700000000,267000000000,209193844,0,567917,0.0001554,0.09399,0.1011,0.0002689,0.0006685,0.09399,1.907e-06,0.0001707,0.003742,7.153e-05,3.182,0.01216,0,1,0
267000000000,267300000000,209193844,0,567917,0.0001659,0.09399,0.1011,0.0002689,0.0006685,0.09399,5.722e-06,0.0001707,0.005783,0.001072,3.414,0.01337,0,1,0
267300000000,267600000000,209193844,0,567917,0.0001678,0.09399,0.1011,0.0002699,0.0006695,0.09399,7.629e-06,0.0001707,0.00399,0.0007143,3.216,0.01238,0,1,0
267600000000,267900000000,209193844,0,567917,0.0001869,0.09399,0.1011,0.0002699,0.0006695,0.09399,2.861e-06,0.0001707,0.008453,0.0001431,4.163,0.01695,0,1,0
267900000000,268200000000,209193844,0,567917,0.0002356,0.09399,0.1011,0.0002699,0.0006704,0.09399,4.768e-06,0.0001707,0.0401,0.0007143,4.331,0.01572,0,1,0
268200000000,268500000000,209193844,0,567917,0.0002432,0.09399,0.1011,0.0002708,0.0006704,0.09399,2.861e-06,0.0001707,0.005844,0.0002146,2.962,0.009345,0,1,0
268500000000,268800000000,209193844,0,567917,0.0001926,0.09399,0.1011,0.0002718,0.0006714,0.09399,1.907e-06,0.0001707,0.005341,7.153e-05,3.072,0.00991,0,1,0
268800000000,269100000000,209193844,0,567917,0.0002022,0.09399,0.1011,0.0002718,0.0006714,0.09399,1.144e-05,0.0001707,0.009369,0.001286,5.345,0.02112,0,1,0
269100000000,269400000000,209193844,0,567917,0.0001707,0.09399,0.1011,0.0002718,0.0006723,0.09399,2.861e-06,0.0001717,0.004028,0.0002861,3.495,0.014,0,1,0
269400000000,269700000000,209193844,0,567917,0.0001774,0.09399,0.1011,0.0002728,0.0006723,0.09399,4.768e-06,0.0001717,0.007874,0.0003567,2.849,0.01083,0,1,0
269700000000,270000000000,209193844,0,567917,0.000164,0.09399,0.1011,0.0002737,0.0006733,0.09399,1.907e-06,0.0001717,0.008041,7.153e-05,2.542,0.009068,0,1,0
270000000000,270300000000,209193844,0,567917,0.0001898,0.09399,0.1011,0.0002737,0.0006733,0.09399,4.768e-06,0.0001717,0.01132,0.0004282,1.536,0.003875,0,1,0
270300000000,270600000000,209193844,0,567917,0.0001726,0.09399,0.1011,0.0002737,0.0006742,0.09399,9.537e-06,0.0001717,0.009659,0.00243,2.852,0.01055,0,1,0
270600000000,270900000000,209193844,0,567917,0.0001698,0.09399,0.1011,0.0002747,0.0006742,0.09399,3.815e-06,0.0001717,0.006172,0.0004282,2.235,0.006817,0,1,0
270900000000,271200000000,209193844,0,567917,0.0001698,0.09399,0.1011,0.0002747,0.0006742,0.09399,1.907e-06,0.0001717,0.007347,7.153e-05,2.811,0.01094,0,1,0
271200000000,271500000000,209193844,0,567917,0.0001478,0.09399,0.1011,0.0002756,0.0006752,0.09399,3.815e-06,0.0001717,0.003681,0.0005713,2.607,0.008959,0,1,0
281400000000,281700000000,209193844,0,567917,0.0001717,0.09399,0.1011,0.0002785,0.0006781,0.09399,1.907e-06,0.0001717,0.01335,0.0001431,2.628,0.009406,0,1,0
281700000000,282000000000,209193844,0,567917,0.0001841,0.09399,0.1011,0.0002794,0.000679,0.09399,5.722e-06,0.0001717,0.004257,0.0009995,3.09,0.01182,0,1,0
282000000000,282300000000,209193844,0,567917,0.0001793,0.09399,0.1011,0.0002785,0.0006781,0.09399,2.861e-06,0.0001717,0.004135,0.0001431,3.918,0.01567,0,1,0
282300000000,282600000000,209193844,0,567917,0.0001774,0.09399,0.1011,0.0002785,0.0006781,0.09399,1.907e-06,0.0001717,0.003616,7.153e-05,3.646,0.01463,0,1,0
282600000000,282900000000,209193844,0,567917,0.0001669,0.09399,0.1011,0.0002785,0.0006781,0.09399,2.861e-06,0.0001717,0.003429,0.0001431,3.441,0.01347,0,1,0
282900000000,283200000000,209193844,0,567917,0.0001984,0.09399,0.1011,0.0002794,0.000679,0.09399,6.676e-06,0.0001717,0.01015,0.001499,3.061,0.01184,0,1,0
283200000000,283500000000,209193844,0,567917,0.0001822,0.09399,0.1011,0.0002794,0.000679,0.09399,8.583e-06,0.0001717,0.008072,0.001999,3.172,0.01207,0,1,0
283500000000,283800000000,209193844,0,567917,0.0001564,0.09399,0.1011,0.0002804,0.00068,0.09399,2.861e-06,0.0001717,0.003906,0.0002146,4.214,0.01778,0,1,0
283800000000,284100000000,209193844,0,567917,0.0001898,0.09399,0.1011,0.0002785,0.0006781,0.09399,2.861e-06,0.0001717,0.007812,0.0001431,2.621,0.009237,0,1,0
284100000000,284400000000,209193844,0,567917,0.0001669,0.09387,0.1011,0.0002775,0.0006771,0.09399,1.907e-06,0.0001717,0.003605,7.153e-05,3.235,0.01241,0,1,0
284400000000,284700000000,209193844,0,567917,0.0001688,0.09387,0.1011,0.0002775,0.0006781,0.09399,3.815e-06,0.0001717,0.006813,0.0004997,3.314,0.01313,0,1,0
284700000000,285000000000,209193844,0,567917,0.000164,0.09387,0.1011,0.0002785,0.0006781,0.09399,2.861e-06,0.0001717,0.004333,0.0001431,5.867,0.02672,0,1,0
285000000000,285300000000,209193844,0,567917,0.0001764,0.09399,0.1011,0.0002785,0.000679,0.09399,2.861e-06,0.0001717,0.009918,0.0001431,3.161,0.01167,0,1,0
285300000000,285600000000,209193844,0,567917,0.0001678,0.09387,0.1011,0.0002794,0.000679,0.09399,1.907e-06,0.0001717,0.01054,7.153e-05,2.392,0.007807,0,1,0
285600000000,285900000000,209193844,0,567917,0.0001764,0.09387,0.1011,0.0002804,0.00068,0.09399,2.861e-06,0.0001717,0.007767,0.0003567,3.349,0.01296,0,1,0
285900000000,286200000000,209193844,0,567917,0.0001574,0.09387,0.1011,0.0002804,0.00068,0.09399,1.907e-06,0.0001717,0.00676,7.153e-05,2.95,0.0108,0,1,0
286200000000,286500000000,209193844,0,567917,0.0001783,0.09387,0.1011,0.0002813,0.0006809,0.09399,2.861e-06,0.0001717,0.007118,0.0003567,2.766,0.01008,0,1,0
286500000000,286800000000,209193844,0,567917,0.000185,0.09387,0.1011,0.0002813,0.0006809,0.09399,1.907e-06,0.0001717,0.005791,7.153e-05,3.439,0.01413,0,1,0
286800000000,287100000000,209193844,0,567917,0.0001488,0.09387,0.1011,0.0002823,0.0006819,0.09399,2.861e-06,0.0001717,0.005928,0.0001431,5.864,0.02733,0,1,0
287100000000,287400000000,209193844,0,567917,0.0001755,0.09387,0.1011,0.0002823,0.0006819,0.09399,3.815e-06,0.0001717,0.006401,0.0005713,3.725,0.01525,0,1,0
287400000000,287700000000,209193844,0,567917,0.0001736,0.09399,0.1011,0.0002832,0.0006828,0.09399,8.583e-06,0.0001717,0.006668,0.001858,2.807,0.01007,0,1,0
287700000000,288000000000,209193844,0,567917,0.000165,0.09387,0.1011,0.0002832,0.0006828,0.09399,1.907e-06,0.0001717,0.004349,7.153e-05,2.719,0.0101,0,1,0
288000000000,288300000000,209193844,0,567917,0.0001726,0.09387,0.1011,0.0002842,0.0006838,0.09399,1.907e-06,0.0001717,0.003902,0.0001431,4.555,0.01945,0,1,0
288300000000,288600000000,209193844,0,567917,0.0001802,0.09387,0.1011,0.0002842,0.0006847,0.09399,1.907e-06,0.0001717,0.0037,7.153e-05,3.831,0.01597,0,1,0
288600000000,288900000000,209193844,0,567917,0.0001593,0.09387,0.1011,0.0002851,0.0006847,0.09399,2.861e-06,0.0001717,0.003777,0.0001431,4.832,0.02113,0,1,0
288900000000,289200000000,209193844,0,567917,0.0001726,0.09387,0.1011,0.0002861,0.0006857,0.09399,1.907e-06,0.0001717,0.006905,7.153e-05,4.172,0.01788,0,1,0
289200000000,289500000000,209193844,0,567917,0.0002174,0.09387,0.1011,0.0002861,0.0006857,0.09399,4.768e-06,0.0001717,0.0567,0.0005713,3.877,0.01624,0,1,0
289500000000,289800000000,209193844,0,567917,0.0001717,0.09387,0.1011,0.0002871,0.0006866,0.09399,4.768e-06,0.0001717,0.01071,0.0009289,4.967,0.02253,0,1,0
289800000000,290100000000,209193844,0,567917,0.0002098,0.09387,0.1011,0.0002871,0.0006866,0.09399,2.861e-06,0.0001717,0.008591,0.0001431,2.155,0.0068,0,1,0
290100000000,290400000000,209193844,0,567917,0.0001984,0.09387,0.1011,0.000288,0.0006876,0.09399,1.907e-06,0.0001717,0.008652,7.153e-05,2.743,0.009509,0,1,0
290400000000,290700000000,209193844,0,567917,0.0001917,0.09387,0.1011,0.000288,0.0006886,0.09399,2.861e-06,0.0001717,0.006996,0.0001431,3.256,0.01194,0,1,0
290700000000,291000000000,209193844,0,567917,0.0001993,0.09387,0.1011,0.000289,0.0006886,0.09399,4.768e-06,0.0001717,0.006706,0.0008574,2.117,0.006276,0,1,0
291000000000,291300000000,209193844,0,567917,0.0001955,0.09387,0.1011,0.0002899,0.0006895,0.09399,2.861e-06,0.0001717,0.005455,0.0002146,2.563,0.008858,0,1,0
291300000000,291600000000,209193844,0,567917,0.000185,0.09387,0.1011,0.0002899,0.0006895,0.09399,1.907e-06,0.0001717,0.01201,7.153e-05,3.508,0.01427,0,1,0
291600000000,291900000000,209193844,0,567917,0.0001993,0.09387,0.1011,0.0002909,0.0006905,0.09399,2.861e-06,0.0001717,0.0166,0.0001431,3.84,0.01599,0,1,0
291900000000,292200000000,209193844,0,567917,0.0001564,0.09387,0.1011,0.0002918,0.0006914,0.09399,2.861e-06,0.0001717,0.01129,0.0002861,4.218,0.01759,0,1,0
292200000000,292500000000,209193844,0,567917,0.0001831,0.09387,0.1011,0.0002918,0.0006914,0.09399,6.676e-06,0.0001717,0.009583,0.001286,4.007,0.01639,0,1,0
292500000000,292800000000,209193844,0,567917,0.0001764,0.09387,0.1011,0.0002928,0.0006924,0.09399,2.861e-06,0.0001717,0.005432,7.153e-05,2.938,0.01113,0,1,0
292800000000,293100000000,209193844,0,567917,0.0001726,0.09387,0.1011,0.0002928,0.0006924,0.09387,5.722e-06,0.0001717,0.006302,0.001072,2.835,0.01048,0,1,0
293100000000,293400000000,209193844,0,567917,0.0001822,0.09387,0.1011,0.0002937,0.0006933,0.09399,1.907e-06,0.0001717,0.008118,0.0001431,3.542,0.01398,0,1,0
293400000000,293700000000,209193844,0,567917,0.000164,0.09387,0.1011,0.0002937,0.0006943,0.09387,2.861e-06,0.0001717,0.004204,0.0002861,2.857,0.01042,0,1,0
293700000000,294000000000,209193844,0,567917,0.0001659,0.09387,0.1011,0.0002947,0.0006943,0.09399,1.907e-06,0.0001717,0.01562,7.153e-05,4.027,0.01657,0,1,0
294000000000,294300000000,209193844,0,567917,0.0001678,0.09387,0.1011,0.0002947,0.0006952,0.09399,2.861e-06,0.0001717,0.009781,0.0001431,3.186,0.01185,0,1,0
294300000000,294600000000,209193844,0,567917,0.0001621,0.09387,0.1011,0.0002918,0.0006914,0.09399,1.907e-06,0.0001717,0.004112,7.153e-05,4.667,0.02073,0,1,0
294600000000,294900000000,209193844,0,567917,0.000165,0.09387,0.1011,0.0002823,0.0006828,0.09399,2.861e-06,0.0001717,0.009201,0.0001431,3.371,0.01349,0,1,0
294900000000,295200000000,209193844,0,567917,0.0001593,0.09387,0.1011,0.0002832,0.0006828,0.09399,2.861e-06,0.0001717,0.007202,0.0004282,3.429,0.01348,0,1,0
295200000000,295500000000,209193844,0,567917,0.0001612,0.09387,0.1011,0.0002832,0.0006838,0.09399,2.861e-06,0.0001717,0.003967,0.0001431,3.17,0.0126,0,1,0
295500000000,295800000000,209193844,0,567917,0.0001507,0.09387,0.1011,0.0002842,0.0006838,0.09387,2.861e-06,0.0001717,0.003944,0.0001431,3.914,0.01675,0,1,0
295800000000,296100000000,209193844,0,567917,0.0001516,0.09387,0.1011,0.0002842,0.0006847,0.09387,2.861e-06,0.0001717,0.00457,0.0001431,4.796,0.02154,0,1,0
296100000000,296400000000,209193844,0,567917,0.0001488,0.09387,0.1011,0.0002851,0.0006847,0.09387,1.907e-06,0.0001717,0.004372,7.153e-05,3.58,0.01423,0,1,0
296400000000,296700000000,209193844,0,567917,0.0001621,0.09387,0.1011,0.0002851,0.0006857,0.09387,2.861e-06,0.0001717,0.004471,0.0001431,3.67,0.01459,0,1,0
296700000000,297000000000,209193844,0,567917,0.0001993,0.09387,0.1011,0.0002861,0.0006857,0.09387,4.768e-06,0.0001717,0.005577,0.0007143,2.643,0.00879,0,1,0
297000000000,297300000000,209193844,0,567917,0.000164,0.09387,0.1011,0.0002871,0.0006866,0.09387,2.861e-06,0.0001717,0.004272,0.0001431,2.843,0.01023,0,1,0
297300000000,297600000000,209193844,0,567917,0.0001793,0.09387,0.1011,0.0002871,0.0006866,0.09399,3.815e-06,0.0001717,0.004517,0.0005713,2.64,0.009232,0,1,0
297600000000,297900000000,209193844,0,567917,0.0002003,0.09387,0.1011,0.000288,0.0006876,0.09399,3.815e-06,0.0001717,0.006691,0.0004282,4.906,0.02113,0,1,0
297900000000,298200000000,209193844,0,567917,0.0001822,0.09387,0.1011,0.0002823,0.0006819,0.09399,1.907e-06,0.0001717,0.005501,7.153e-05,3.35,0.01212,0,1,0
298200000000,298500000000,209193844,0,567917,0.0001678,0.09387,0.1011,0.0002813,0.0006809,0.09399,3.815e-06,0.0001717,0.006889,0.0002146,5.414,0.02354,0,1,0
298500000000,298800000000,209193844,0,567917,0.0001965,0.09387,0.1011,0.0002823,0.0006809,0.09399,2.861e-06,0.0001717,0.007042,0.0001431,3.723,0.01455,0,1,0
298800000000,299100000000,209193844,0,567917,0.0001583,0.09387,0.1011,0.0002823,0.0006819,0.09387,1.907e-06,0.0001717,0.0065,0.0001431,3.546,0.01347,0,1,0
299100000000,299400000000,209193844,0,567917,0.0001793,0.09387,0.1011,0.0002832,0.0006819,0.09399,1.907e-06,0.0001717,0.01167,7.153e-05,4.177,0.01764,0,1,0
299400000000,299700000000,209193844,0,567917,0.0001745,0.09387,0.1011,0.0002832,0.0006828,0.09387,2.861e-06,0.0001717,0.005325,0.0001431,3.31,0.01213,0,1,0
299700000000,300000000000,209193844,0,567917,0.0001812,0.09387,0.1011,0.0002842,0.0006828,0.09387,1.907e-06,0.0001717,0.004341,0.0001431,3.309,0.01248,0,1,0
