5700000000,6000000000,2916102644,0,225807313,0.000102,0.0002842,0.003872,0.0001411,0.0003691,0.000288,0,0,0.0005932,0,5.799,0.02613,0,0,5.436e-05
6000000000,6300000000,2916102644,0,225807313,0.0001059,0.000288,0.003872,0.0001411,0.0003691,0.000289,9.537e-07,0,0.0004673,7.153e-05,5.007,0.02176,0,0,5.054e-05
6300000000,6600000000,2916102644,0,225807313,0.0001049,0.0002842,0.003872,0.0001411,0.0003691,0.000289,0,0,0.0003977,7.153e-05,5.302,0.02288,0,0,4.482e-05
6600000000,6900000000,2916102644,0,225807313,9.632e-05,0.0002871,0.003872,0.0001411,0.0003691,0.000289,0,0,0.0005569,7.153e-05,5.636,0.02546,0,0,4.387e-05
6900000000,7200000000,2916102644,0,225807313,9.632e-05,0.000289,0.003872,0.0001411,0.0003691,0.0003004,0,0,0.0004444,0,4.82,0.02072,0,0,4.482e-05
7200000000,7500000000,2916102644,0,225807313,9.823e-05,0.0002899,0.003872,0.0001411,0.0003691,0.0002975,9.537e-07,0,0.0004005,7.153e-05,4.486,0.01858,0,0,3.624e-05
7500000000,7800000000,2916102644,0,225807313,9.537e-05,0.0002842,0.003872,0.0001411,0.00037,0.000289,0,0,0.000473,0,4.634,0.0197,0,0,9.823e-05
7800000000,8100000000,2916102644,0,225807313,9.537e-05,0.0002851,0.003872,0.0001411,0.00037,0.000289,0,0,0.0004892,7.153e-05,4.553,0.0192,0,0,2.956e-05
8100000000,8400000000,2916102644,0,225807313,9.251e-05,0.0002842,0.003872,0.0001411,0.00037,0.000289,0,0,0.001337,0,4.53,0.01884,0,0,3.052e-05
8400000000,8700000000,2916102644,0,225807313,9.727e-05,0.0002851,0.003872,0.0001411,0.00037,0.0002899,0,0,0.0003967,7.153e-05,4.637,0.01972,0,0,7.915e-05
8700000000,9000000000,2916102644,0,225807313,9.632e-05,0.0002842,0.003872,0.0001411,0.00037,0.000288,0,0,0.0004435,0,4.844,0.02074,0,0,3.624e-05
9000000000,9300000000,2916102644,0,225807313,9.441e-05,0.0002851,0.003872,0.0001411,0.00037,0.000289,0,0,0.0005856,7.153e-05,5.844,0.02653,0,0,4.864e-05
9300000000,9600000000,2916102644,0,225807313,9.441e-05,0.0002851,0.003872,0.0001411,0.00037,0.000288,0,0,0.0004311,7.153e-05,4.969,0.02152,0,0,4.768e-05
9600000000,9900000000,2916102644,0,225807313,9.441e-05,0.0002861,0.003872,0.0001411,0.00037,0.000289,0,0,0.0004292,7.153e-05,4.654,0.01981,0,0,6.485e-05
9900000000,10200000000,2916102644,0,225807313,9.251e-05,0.0002842,0.003872,0.0001411,0.00037,0.000289,0,0,0.0004969,0,4.401,0.01831,0,0,4.673e-05
10200000000,10500000000,2916102644,0,225807313,9.537e-05,0.0002861,0.003872,0.0001411,0.00037,0.0002909,0,0,0.0004978,7.153e-05,4.593,0.01954,0,0,8.488e-05
10500000000,10800000000,2916102644,0,225807313,9.537e-05,0.0002842,0.003872,0.0001411,0.00037,0.0002899,0,0,0.0005035,0,4.744,0.02022,0,0,8.965e-05
10800000000,11100000000,2916102644,0,225807313,9.727e-05,0.0002851,0.003872,0.0001411,0.00037,0.000289,0,0,0.0008535,7.153e-05,4.947,0.02113,0,0,0.0001135
11100000000,11400000000,2916102644,0,225807313,8.583e-05,0.0002842,0.003872,0.0001411,0.00037,0.000288,0,0,0.001532,0,3.829,0.0157,0,0,3.338e-05
11400000000,11700000000,2916102644,0,225807313,8.774e-05,0.0002842,0.003872,0.0001411,0.00037,0.000288,0,0,0.000638,7.153e-05,3.826,0.0153,0,0,3.91e-05
11700000000,12000000000,2916102644,0,225807313,8.583e-05,0.0002823,0.003872,0.0001411,0.00037,0.0002871,0,0,0.003139,0,4.049,0.01691,0,0,3.242e-05
12000000000,12300000000,2916102644,0,225807313,8.583e-05,0.0002842,0.003872,0.0001411,0.00037,0.000288,0,0,0.0004835,7.153e-05,4.25,0.01807,0,0,2.575e-05
12300000000,12600000000,2916102644,0,225807313,8.869e-05,0.0002832,0.003872,0.0001411,0.00037,0.0002861,0,0,0.0005331,0,4.593,0.01992,0,0,5.913e-05
12600000000,12900000000,2916102644,0,225807313,8.583e-05,0.0002842,0.003872,0.0001411,0.00037,0.000288,0,0,0.0003395,7.153e-05,4.545,0.01928,0,0,3.529e-05
12900000000,13200000000,2916102644,0,225807313,8.202e-05,0.0002871,0.003872,0.0001411,0.00037,0.0002995,0,0,0.0003815,0,4.769,0.02132,0,0,4.101e-05
13200000000,13500000000,2916102644,0,225807313,8.583e-05,0.0002842,0.003872,0.0001411,0.00037,0.000288,0,0,0.0004034,7.153e-05,4.212,0.01793,0,0,8.011e-05
13500000000,13800000000,2916102644,0,225807313,8.678e-05,0.0002823,0.003872,0.0001411,0.00037,0.0002871,0,0,0.000433,0,4.214,0.01766,0,0,0.0001478
13800000000,14100000000,2916102644,0,225807313,8.583e-05,0.0002851,0.003872,0.0001411,0.00037,0.0002909,9.537e-07,0,0.0007029,7.153e-05,4.266,0.01811,0,0,0.0007029
14100000000,14400000000,2916102644,0,225807313,8.297e-05,0.0002832,0.003872,0.0001411,0.00037,0.0002909,0,0,0.0004921,0,4.775,0.02088,0,0,0.0001726
14400000000,14700000000,2916102644,0,225807313,8.583e-05,0.0002842,0.003872,0.0001411,0.00037,0.000288,0,0,0.0004969,7.153e-05,4.047,0.01713,0,0,3.91e-05
14700000000,15000000000,2916102644,0,225807313,8.392e-05,0.0002823,0.003872,0.0001411,0.00037,0.0002871,0,0,0.0005522,0,4.078,0.01656,0,0,2.575e-05
15000000000,15300000000,2916102644,0,225807313,8.869e-05,0.0002842,0.003872,0.0001411,0.00037,0.000288,0,0,0.0004568,7.153e-05,4.145,0.0172,0,0,4.005e-05
15300000000,15600000000,2916102644,0,225807313,8.965e-05,0.0002832,0.003872,0.0001411,0.00037,0.000288,0,0,0.0003738,0,4.171,0.01711,0,0,3.815e-05
15600000000,15900000000,2916102644,0,225807313,8.583e-05,0.0002851,0.003872,0.0001411,0.00037,0.0002975,0,0,0.0003948,7.153e-05,4.074,0.01674,0,0,4.196e-05
15900000000,16200000000,2916102644,0,225807313,8.774e-05,0.000288,0.003872,0.0001411,0.00037,0.0002956,0,0,0.000536,7.153e-05,4.538,0.01905,0,0,3.719e-05
16200000000,16500000000,2916102644,0,225807313,8.678e-05,0.000289,0.003872,0.0001411,0.00037,0.0002947,2.861e-06,0,0.000535,0.0002146,4.373,0.01886,0,0,4.959e-05
16500000000,16800000000,2916102644,0,225807313,8.774e-05,0.0002842,0.003872,0.0001411,0.00037,0.000288,9.537e-07,0,0.0003881,7.153e-05,4.773,0.02084,0,0,0.0002289
16800000000,17100000000,2916102644,0,225807313,8.488e-05,0.0002861,0.003872,0.0001411,0.00037,0.0002985,9.537e-07,0,0.0004625,7.153e-05,4.338,0.01818,0,0,0.0001841
17100000000,17400000000,2916102644,0,225807313,8.011e-05,0.0002871,0.003872,0.0001411,0.00037,0.0002947,9.537e-07,0,0.0007811,0.0001431,4.111,0.01718,0,0,5.15e-05
17400000000,17700000000,2916102644,0,225807313,8.011e-05,0.0002842,0.003872,0.0001411,0.00037,0.0002871,9.537e-07,0,0.0003347,7.153e-05,4.318,0.01853,0,0,1.717e-05
17700000000,18000000000,2916102644,0,225807313,8.392e-05,0.000289,0.003872,0.0001411,0.00037,0.0003033,0,0,0.0006342,7.153e-05,4.056,0.0167,0,0,2.956e-05
18000000000,18300000000,2916102644,0,225807313,8.678e-05,0.0002947,0.003872,0.0001411,0.00037,0.0003033,4.768e-06,0,0.0004826,0.0005713,4.211,0.01754,0,0,0.0001154
18300000000,18600000000,2916102644,0,225807313,8.488e-05,0.0002851,0.003872,0.0001411,0.00037,0.000289,0,0,0.0006027,7.153e-05,3.851,0.0152,0,0,1.431e-05
18600000000,18900000000,2916102644,0,225807313,8.106e-05,0.0002842,0.003872,0.0001411,0.00037,0.000289,9.537e-07,0,0.0005713,7.153e-05,3.636,0.01413,0,0,3.147e-05
18900000000,19200000000,2916102644,0,225807313,7.915e-05,0.0002813,0.003872,0.0001411,0.00037,0.0002861,0,0,0.0004091,7.153e-05,4.164,0.01792,0,0,4.673e-05
19200000000,19500000000,2916102644,0,225807313,8.202e-05,0.0002842,0.003872,0.0001411,0.00037,0.0002861,9.537e-07,0,0.0003614,7.153e-05,4.491,0.01911,0,0,2.861e-05
19500000000,19800000000,2916102644,0,225807313,9.06e-05,0.0002871,0.003872,0.0001411,0.00037,0.0002909,9.537e-07,0,0.0004339,7.153e-05,4.374,0.01813,0,0,3.91e-05
19800000000,20100000000,2916102644,0,225807313,8.678e-05,0.0002842,0.003872,0.0001411,0.00037,0.0002851,9.537e-07,0,0.000453,7.153e-05,4.027,0.0164,0,0,5.722e-05
20100000000,20400000000,2916102644,0,225807313,8.488e-05,0.0002823,0.003872,0.0001411,0.00037,0.0002842,0,0,0.0004082,7.153e-05,4.844,0.02111,0,0,4.864e-05
20400000000,20700000000,2916102644,0,225807313,8.583e-05,0.0002813,0.003872,0.0001411,0.00037,0.0002851,0,0,0.0003691,7.153e-05,4.474,0.01885,0,0,4.864e-05
20700000000,21000000000,2916102644,0,225807313,8.488e-05,0.0002813,0.003872,0.0001411,0.00037,0.0002842,0,0,0.0003729,7.153e-05,4.054,0.01645,0,0,2.098e-05
21000000000,21300000000,2916102644,0,225807313,8.106e-05,0.0002813,0.003872,0.0001411,0.00037,0.0002851,0,0,0.0003586,7.153e-05,3.542,0.01365,0,0,4.101e-05
21300000000,21600000000,2916102644,0,225807313,8.011e-05,0.0002794,0.003872,0.0001411,0.00037,0.0002851,0,0,0.000351,0,4.112,0.01679,0,0,0.0002213
21600000000,21900000000,2916102644,0,225807313,8.011e-05,0.0002823,0.003872,0.0001411,0.00037,0.000289,9.537e-07,0,0.0003729,7.153e-05,3.772,0.01484,0,0,3.433e-05
21900000000,22200000000,2916102644,0,225807313,8.011e-05,0.0002813,0.003872,0.0001411,0.00037,0.000288,0,0,0.0003757,0,3.555,0.01348,0,0,3.433e-05
22200000000,22500000000,2916102644,0,225807313,8.297e-05,0.0002813,0.003872,0.0001411,0.00037,0.0002861,0,0,0.0007677,7.153e-05,3.73,0.01464,0,0,4.387e-05
22500000000,22800000000,2916102644,0,225807313,8.011e-05,0.0002804,0.003872,0.0001411,0.00037,0.0002851,0,0,0.0003862,0,3.728,0.01466,0,0,0.0001154
22800000000,23100000000,2916102644,0,225807313,7.82e-05,0.0002813,0.003872,0.0001411,0.00037,0.0002851,0,0,0.0003977,7.153e-05,4.044,0.01644,0,0,5.054e-05
23100000000,23400000000,2916102644,0,225807313,8.011e-05,0.0002804,0.003872,0.0001411,0.00037,0.0002832,0,0,0.0003195,0,4.13,0.01714,0,0,2.098e-05
23400000000,23700000000,2916102644,0,225807313,8.011e-05,0.0002813,0.003872,0.0001411,0.00037,0.0002851,0,0,0.0004625,7.153e-05,4.079,0.01695,0,0,1.812e-05
23700000000,24000000000,2916102644,0,225807313,7.82e-05,0.0002851,0.003872,0.0001411,0.00037,0.0002966,0,0,0.0006542,0,4.019,0.01686,0,0,1.907e-05
24000000000,24300000000,2916102644,0,225807313,8.106e-05,0.0002842,0.003872,0.0001411,0.00037,0.0002851,1.907e-06,0,0.0007801,0.0005713,3.998,0.01612,0,0,0.0003128
24300000000,24600000000,2916102644,0,225807313,7.629e-05,0.0002794,0.003872,0.0001411,0.00037,0.0002842,0,0,0.0005541,0,3.128,0.0112,0,0,2.861e-05
24600000000,24900000000,2916102644,0,225807313,7.629e-05,0.0002813,0.003872,0.0001411,0.00037,0.0002851,0,0,0.0005064,7.153e-05,3.321,0.01235,0,0,2.289e-05
24900000000,25200000000,2916102644,0,225807313,7.439e-05,0.0002794,0.003872,0.0001411,0.00037,0.0002842,0,0,0.0005074,0,3.679,0.01429,0,0,0.0001173
25200000000,25500000000,2916102644,0,225807313,8.011e-05,0.0002813,0.003872,0.0001421,0.00037,0.0002851,0,0,0.0003786,7.153e-05,3.591,0.01403,0,0,4.578e-05
25500000000,25800000000,2916102644,0,225807313,7.725e-05,0.0002861,0.003872,0.0001421,0.00037,0.0002937,9.537e-07,0,0.0005093,7.153e-05,2.985,0.01117,0,0,4.196e-05
25800000000,26100000000,2916102644,0,225807313,7.82e-05,0.0002851,0.003872,0.0001421,0.00037,0.000289,9.537e-07,0,0.0004091,7.153e-05,3.61,0.01374,0,0,6.008e-05
26100000000,26400000000,2916102644,0,225807313,7.82e-05,0.0002871,0.003872,0.0001421,0.00037,0.0002909,1.907e-06,0,0.0005322,7.153e-05,2.87,0.009654,0,0,2.956e-05
26400000000,26700000000,2916102644,0,225807313,7.915e-05,0.0002899,0.003872,0.0001421,0.00037,0.0002975,1.907e-06,0,0.000349,0.0003567,3.129,0.01114,0,0,2.193e-05
26700000000,27000000000,2916102644,0,225807313,7.439e-05,0.0002832,0.003872,0.0001421,0.00037,0.0002966,0,0,0.000536,7.153e-05,3.41,0.01284,0,0,1.717e-05
27000000000,27300000000,2916102644,0,225807313,7.629e-05,0.0002832,0.003872,0.0001421,0.00037,0.0002871,9.537e-07,0,0.0003881,7.153e-05,3.029,0.01049,0,0,2.766e-05
27300000000,27600000000,2916102644,0,225807313,7.534e-05,0.0002794,0.003872,0.0001421,0.00037,0.0002823,0,0,0.0003214,0,2.853,0.009569,0,0,2.766e-05
27600000000,27900000000,2916102644,0,225807313,8.011e-05,0.0002832,0.003872,0.0001421,0.00037,0.0002851,9.537e-07,0,0.0008335,7.153e-05,3.182,0.01135,0,0,4.864e-05
27900000000,28200000000,2916102644,0,225807313,7.343e-05,0.0002794,0.003872,0.0001421,0.00037,0.0002842,0,0,0.0002937,0,3.504,0.0136,0,0,2.861e-05
28200000000,28500000000,2916102644,0,225807313,7.915e-05,0.0002813,0.003872,0.0001421,0.00037,0.0002851,0,0,0.0004978,7.153e-05,3.446,0.01304,0,0,1.717e-05
28500000000,28800000000,2916102644,0,225807313,0.000103,0.0002842,0.003872,0.0001421,0.00037,0.0003004,0,0,0.0005207,0,4.763,0.01861,0,0,6.866e-05
28800000000,29100000000,2916102644,0,225807313,0.000104,0.0002851,0.003872,0.0001421,0.00037,0.0002928,2.861e-06,0,0.0005045,0.0008574,4.135,0.0155,0,0,5.245e-05
29100000000,29400000000,2916102644,0,225807313,0.0001011,0.0002794,0.003872,0.0001421,0.000371,0.0002842,0,0,0.0004902,0,4.005,0.01484,0,0,7.915e-05
29400000000,29700000000,2916102644,0,225807313,9.823e-05,0.0002804,0.003872,0.0001421,0.000371,0.0002851,0,0,0.0004787,7.153e-05,4.293,0.01658,0,0,0.000329
29700000000,30000000000,2916102644,0,225807313,0.000102,0.0002794,0.003872,0.0001421,0.000371,0.0002842,0,0,0.0004797,0,4.531,0.01723,0,0,0.0001011
30000000000,30300000000,2916102644,0,225807313,0.0001001,0.0002804,0.003872,0.0001421,0.000371,0.0002842,0,0,0.0005903,7.153e-05,3.993,0.01476,0,0,7.725e-05
30300000000,30600000000,2916102644,0,225807313,0.000103,0.0002804,0.003872,0.0001421,0.000371,0.0002832,0,0,0.0004225,7.153e-05,4.108,0.01551,0,0,0.0001135
30600000000,30900000000,2916102644,0,225807313,8.869e-05,0.0002842,0.003872,0.0001421,0.000371,0.0002975,9.537e-07,0,0.000391,7.153e-05,4.163,0.01655,0,0,3.529e-05
30900000000,31200000000,2916102644,0,225807313,7.915e-05,0.0002899,0.003872,0.0001421,0.000371,0.0002928,1.907e-06,0,0.0003672,7.153e-05,2.854,0.009609,0,0,3.338e-05
31200000000,31500000000,2916102644,0,225807313,7.725e-05,0.0002842,0.003872,0.0001421,0.000371,0.000289,9.537e-07,0,0.0003319,7.153e-05,3.199,0.01156,0,0,3.433e-05
31500000000,31800000000,2916102644,0,225807313,7.629e-05,0.0002813,0.003872,0.0001421,0.000371,0.0002871,0,0,0.0003433,7.153e-05,3.364,0.01257,0,0,5.436e-05
31800000000,32100000000,2916102644,0,225807313,8.106e-05,0.0002899,0.003872,0.0001421,0.000371,0.0002966,1.907e-06,0,0.0003948,7.153e-05,3.59,0.01381,0,0,4.005e-05
32100000000,32400000000,2916102644,0,225807313,7.534e-05,0.0002861,0.003872,0.0001421,0.000371,0.0002937,1.907e-06,0,0.0003891,7.153e-05,3.18,0.01142,0,0,2.48e-05
32400000000,32700000000,2916102644,0,225807313,7.725e-05,0.0002851,0.003872,0.0001421,0.000371,0.0002937,3.815e-06,0,0.0004139,0.0008574,3.508,0.01337,0,0,6.866e-05
32700000000,33000000000,2916102644,0,225807313,7.725e-05,0.0002871,0.003872,0.0001421,0.000371,0.0002937,9.537e-07,0,0.0003328,7.153e-05,3.594,0.01395,0,0,2.67e-05
33000000000,33300000000,2916102644,0,225807313,8.488e-05,0.0002851,0.003872,0.0001421,0.000371,0.0002899,9.537e-07,0,0.0004616,7.153e-05,3.627,0.01393,0,0,2.575e-05
33300000000,33600000000,2916102644,0,225807313,7.343e-05,0.0002823,0.003872,0.0001421,0.000371,0.0002861,0,0,0.0002995,7.153e-05,3.431,0.01286,0,0,2.575e-05
33600000000,33900000000,2916102644,0,225807313,7.439e-05,0.0002832,0.003872,0.0001421,0.000371,0.0002861,9.537e-07,0,0.0004864,7.153e-05,3.53,0.01353,0,0,5.722e-05
33900000000,34200000000,2916102644,0,225807313,7.725e-05,0.0002842,0.003872,0.0001421,0.000371,0.000289,9.537e-07,0,0.0004187,7.153e-05,3.357,0.01228,0,0,7.153e-05
34200000000,34500000000,2916102644,0,225807313,7.629e-05,0.000288,0.003872,0.0001421,0.000371,0.0002928,1.907e-06,0,0.0006533,7.153e-05,3.494,0.01338,0,0,1.526e-05
34500000000,34800000000,2916102644,0,225807313,7.248e-05,0.000289,0.003872,0.0001421,0.000371,0.0003014,9.537e-07,0,0.0003824,7.153e-05,3.099,0.01102,0,0,1.717e-05
34800000000,35100000000,2916102644,0,225807313,7.534e-05,0.0002823,0.003872,0.0001421,0.000371,0.000288,9.537e-07,0,0.002285,7.153e-05,2.981,0.01046,0,0,0.0002203
35100000000,35400000000,2916102644,0,225807313,7.343e-05,0.0002813,0.003872,0.0001421,0.000371,0.000288,0,0,0.0004101,7.153e-05,3.557,0.01376,0,0,5.245e-05
35400000000,35700000000,2916102644,0,225807313,7.343e-05,0.0002823,0.003872,0.0001421,0.000371,0.000288,9.537e-07,0,0.0003376,7.153e-05,3.788,0.0155,0,0,4.196e-05
35700000000,36000000000,2916102644,0,225807313,7.534e-05,0.0002804,0.003872,0.0001421,0.000371,0.000288,0,0,0.0004101,0,3.331,0.01227,0,0,2.67e-05
36000000000,36300000000,2916102644,0,225807313,7.439e-05,0.0002813,0.003872,0.0001421,0.000371,0.0002851,0,0,0.0003891,7.153e-05,3.671,0.01428,0,0,5.913e-05
36300000000,36600000000,2916102644,0,225807313,7.153e-05,0.0002794,0.003872,0.0001421,0.000371,0.0002842,0,0,0.0003929,0,3.678,0.01471,0,0,0.0001688
36600000000,36900000000,2916102644,0,225807313,7.534e-05,0.0002813,0.003872,0.0001421,0.000371,0.0002861,9.537e-07,0,0.0003548,7.153e-05,3.83,0.01539,0,0,3.147e-05
36900000000,37200000000,2916102644,0,225807313,7.915e-05,0.0002813,0.003872,0.0001421,0.000371,0.0002871,0,0,0.0003672,7.153e-05,3.991,0.01569,0,0,5.245e-05
37200000000,37500000000,2916102644,0,225807313,7.439e-05,0.0002832,0.003872,0.0001421,0.000371,0.0002937,0,0,0.0004148,7.153e-05,3.529,0.01339,0,0,6.485e-05
37500000000,37800000000,2916102644,0,225807313,7.343e-05,0.0002804,0.003872,0.0001421,0.000371,0.0002918,0,0,0.0004091,0,3.65,0.01412,0,0,3.147e-05
37800000000,38100000000,2916102644,0,225807313,7.725e-05,0.0002813,0.003872,0.0001421,0.000371,0.0002851,0,0,0.0004053,7.153e-05,3.181,0.01134,0,0,3.242e-05
38100000000,38400000000,2916102644,0,225807313,7.534e-05,0.0002794,0.003872,0.0001421,0.000371,0.0002832,0,0,0.0004196,0,3.433,0.0128,0,0,5.531e-05
38400000000,38700000000,2916102644,0,225807313,7.629e-05,0.0002813,0.003872,0.0001421,0.000371,0.0002851,0,0,0.0004807,7.153e-05,3.398,0.01277,0,0,0.0001354
38700000000,39000000000,2916102644,0,225807313,7.915e-05,0.0002794,0.003872,0.0001421,0.000371,0.0002842,0,0,0.0004082,0,3.869,0.01529,0,0,3.242e-05
39000000000,39300000000,2916102644,0,225807313,7.629e-05,0.0002823,0.003872,0.0001421,0.000371,0.0003014,0,0,0.0004148,7.153e-05,3.195,0.01155,0,0,7.248e-05
39900000000,40200000000,2916102644,0,905600,0.0001335,0.000308,0.003849,2.193e-05,0.000246,0.0003119,0,0,0.0005217,7.153e-05,27.19,0.1335,0,0,0.0002394
40200000000,40500000000,2916102644,0,905600,0.0001736,0.0003166,0.003849,2.384e-05,0.0002499,0.0003319,1.144e-05,0,0.008591,0.002857,11.14,0.05081,0,0,0.0004215
40500000000,40800000000,2916102644,0,905600,0.0001583,0.0003071,0.003849,2.48e-05,0.0002508,0.0003071,0,0,0.0005236,0,8.548,0.03782,0,0,4.959e-05
51000000000,51300000000,2916102644,0,318350724,0.0001316,0.0003166,0.003876,0.0003967,0.0006142,0.0003195,9.537e-07,0,0.0007391,0.0001431,5.434,0.02095,0,0,0.0001526
51300000000,51600000000,2916102644,0,318350724,0.000124,0.0003157,0.003876,0.0003967,0.0006142,0.0003195,0,0,0.0008478,0,6.107,0.02356,0,0,8.202e-05
52200000000,52500000000,2916102644,0,225807313,0.000165,0.0002747,0.003872,4.768e-05,0.0002728,0.0002937,1.812e-05,0,0.01587,0.004784,14.02,0.07048,0,0,0.0002241
52500000000,52800000000,2916102644,0,225807313,0.0001478,0.000267,0.003872,5.054e-05,0.0002766,0.0002785,0,0,0.0008087,0,9.971,0.04901,0,0,8.106e-05
52800000000,53100000000,2916102644,0,225807313,0.0001526,0.0002699,0.003872,5.054e-05,0.0002775,0.0002747,9.537e-07,0,0.0008802,0.0001431,9.047,0.04332,0,0,0.0001154
53100000000,53400000000,2916102644,0,225807313,0.0001469,0.0002689,0.003872,4.959e-05,0.0002775,0.0002785,0,0,0.0009031,0,9.511,0.04551,0,0,4.959e-05
53400000000,53700000000,2916102644,0,225807313,0.000123,0.0002775,0.003872,4.959e-05,0.0002775,0.0002823,7.629e-06,0,0.0009937,0.0008574,9.501,0.04626,0,0,0.0003576
53700000000,54000000000,2916102644,0,225807313,9.251e-05,0.0002718,0.003872,4.959e-05,0.0002775,0.0002785,0,0,0.0006418,7.153e-05,7.364,0.0343,0,0,0.0005465
54000000000,54300000000,2916102644,0,225807313,9.441e-05,0.0002699,0.003872,4.959e-05,0.0002775,0.0002737,0,0,0.0007391,7.153e-05,7.518,0.03503,0,0,4.005e-05
54300000000,54600000000,2916102644,0,225807313,9.346e-05,0.000268,0.003872,4.959e-05,0.0002775,0.0002718,0,0,0.0009537,0,7.494,0.03484,0,0,7.248e-05
54600000000,54900000000,2916102644,0,225807313,9.346e-05,0.0002689,0.003872,4.959e-05,0.0002775,0.0002728,0,0,0.0006771,7.153e-05,7.862,0.03719,0,0,4.005e-05
54900000000,55200000000,2916102644,0,225807313,9.537e-05,0.000268,0.003872,4.959e-05,0.0002775,0.0002718,0,0,0.0007181,0,7.005,0.03258,0,0,0.0005875
55200000000,55500000000,2916102644,0,225807313,9.632e-05,0.0002689,0.003872,4.959e-05,0.0002775,0.0002728,0,0,0.0008535,7.153e-05,6.94,0.03171,0,0,8.106e-05
55500000000,55800000000,2916102644,0,225807313,9.537e-05,0.0002708,0.003872,4.959e-05,0.0002775,0.0002785,0,0,0.0006895,7.153e-05,7.607,0.0356,0,0,3.529e-05
55800000000,56100000000,2916102644,0,225807313,9.918e-05,0.0002785,0.003872,4.959e-05,0.0002775,0.0002823,1.049e-05,0,0.0006542,0.001642,4.809,0.02104,0,0,7.153e-05
56100000000,56400000000,2916102644,0,225807313,9.537e-05,0.0002756,0.003872,4.959e-05,0.0002775,0.0002909,9.537e-07,0,0.0008078,0.0001431,7.782,0.0366,0,0,5.436e-05
56400000000,56700000000,2916102644,0,225807313,9.727e-05,0.0002699,0.003872,4.959e-05,0.0002775,0.0002756,0,0,0.001003,7.153e-05,8.322,0.04018,0,0,4.005e-05
56700000000,57000000000,2916102644,0,225807313,9.823e-05,0.0002718,0.003872,4.959e-05,0.0002775,0.0002813,9.537e-07,0,0.0005074,7.153e-05,8.039,0.03813,0,0,4.768e-05
57000000000,57300000000,2916102644,0,225807313,9.632e-05,0.0002737,0.003872,4.959e-05,0.0002775,0.0002766,9.537e-07,0,0.0003939,7.153e-05,7.883,0.03693,0,0,0.0001326
57300000000,57600000000,2916102644,0,225807313,9.441e-05,0.0002689,0.003872,4.959e-05,0.0002775,0.0002728,0,0,0.0008516,7.153e-05,8.346,0.03963,0,0,0.0001249
57600000000,57900000000,2916102644,0,225807313,9.537e-05,0.0002699,0.003872,4.959e-05,0.0002775,0.0002728,0,0,0.0009394,7.153e-05,7.592,0.03572,0,0,3.147e-05
57900000000,58200000000,2916102644,0,225807313,9.537e-05,0.000267,0.003872,4.959e-05,0.0002775,0.0002708,0,0,0.0004358,0,7.479,0.03532,0,0,5.817e-05
58200000000,58500000000,2916102644,0,225807313,9.727e-05,0.0002689,0.003872,4.959e-05,0.0002775,0.0002747,0,0,0.000598,7.153e-05,7.387,0.03498,0,0,4.101e-05
58500000000,58800000000,2916102644,0,225807313,9.823e-05,0.0002661,0.003872,4.959e-05,0.0002775,0.0002699,0,0,0.0003386,0,8.059,0.03767,0,0,0.0001078
58800000000,59100000000,2916102644,0,225807313,9.823e-05,0.0002689,0.003872,4.959e-05,0.0002775,0.0002766,0,0,0.0003939,7.153e-05,9.204,0.04356,0,0,6.866e-05
59100000000,59400000000,2916102644,0,225807313,9.537e-05,0.000267,0.003872,4.959e-05,0.0002775,0.0002728,0,0,0.0004406,0,8.217,0.03867,0,0,6.199e-05
59400000000,59700000000,2916102644,0,225807313,9.727e-05,0.0002689,0.003872,4.959e-05,0.0002775,0.0002756,0,0,0.0004272,7.153e-05,7.964,0.0371,0,0,0.0001869
59700000000,60000000000,2916102644,0,225807313,9.823e-05,0.000268,0.003872,4.959e-05,0.0002775,0.0002737,0,0,0.000391,7.153e-05,8.21,0.03885,0,0,5.436e-05
60000000000,60300000000,2916102644,0,225807313,9.823e-05,0.000268,0.003872,4.959e-05,0.0002775,0.0002718,0,0,0.0004778,7.153e-05,7.095,0.03297,0,0,2.861e-05
60300000000,60600000000,2916102644,0,225807313,9.918e-05,0.0002661,0.003872,4.959e-05,0.0002775,0.0002699,0,0,0.0003748,0,7.681,0.03554,0,0,5.436e-05
60600000000,60900000000,2916102644,0,225807313,9.918e-05,0.0002699,0.003872,4.959e-05,0.0002775,0.0002861,0,0,0.000493,7.153e-05,6.731,0.03083,0,0,3.147e-05
70800000000,71100000000,2916102644,0,225807313,9.823e-05,0.000267,0.003872,5.054e-05,0.0002794,0.0002708,0,0,0.000452,7.153e-05,6.439,0.02889,0,0,9.441e-05
71100000000,71400000000,2916102644,0,225807313,9.537e-05,0.0002632,0.003872,5.054e-05,0.0002794,0.0002651,0,0,0.0003948,0,6.004,0.02684,0,0,0.0001249
71400000000,71700000000,2916102644,0,225807313,9.727e-05,0.000267,0.003872,5.054e-05,0.0002794,0.0002832,0,0,0.0004549,7.153e-05,6.946,0.03193,0,0,3.91e-05
71700000000,72000000000,2916102644,0,225807313,9.918e-05,0.0002718,0.003872,5.054e-05,0.0002794,0.0002813,9.537e-07,0,0.0004997,7.153e-05,6.322,0.02864,0,0,4.768e-05
72000000000,72300000000,2916102644,0,225807313,9.823e-05,0.0002699,0.003872,5.054e-05,0.0002794,0.0002747,9.537e-07,0,0.0005102,7.153e-05,7.006,0.03178,0,0,6.39e-05
72300000000,72600000000,2916102644,0,225807313,9.632e-05,0.0002651,0.003872,5.054e-05,0.0002794,0.0002699,0,0,0.0004826,7.153e-05,6.788,0.03145,0,0,0.0001001
72600000000,72900000000,2916102644,0,225807313,9.823e-05,0.0002651,0.003872,5.054e-05,0.0002794,0.000268,0,0,0.0004654,7.153e-05,7.04,0.03205,0,0,4.959e-05
72900000000,73200000000,2916102644,0,225807313,9.823e-05,0.0002699,0.003872,5.054e-05,0.0002794,0.0002766,9.537e-07,0,0.000474,7.153e-05,6.631,0.02942,0,0,6.104e-05
73200000000,73500000000,2916102644,0,225807313,0.0001001,0.0002708,0.003872,5.15e-05,0.0002794,0.0002804,7.629e-06,0,0.0005274,0.001928,6.37,0.02868,0,0,0.0001478
73500000000,73800000000,2916102644,0,225807313,0.0001001,0.0002708,0.003872,5.15e-05,0.0002794,0.0002766,9.537e-07,0,0.0007915,7.153e-05,6.413,0.02869,0,0,4.387e-05
73800000000,74100000000,2916102644,0,225807313,9.727e-05,0.000267,0.003872,5.15e-05,0.0002794,0.0002708,9.537e-07,0,0.000535,7.153e-05,6.323,0.02838,0,0,6.771e-05
74100000000,74400000000,2916102644,0,225807313,9.918e-05,0.0002642,0.003872,5.15e-05,0.0002794,0.0002661,1.907e-06,0,0.0006771,0.0006428,6.842,0.03109,0,0,0.0001554
74400000000,74700000000,2916102644,0,225807313,9.918e-05,0.0002642,0.003872,5.15e-05,0.0002794,0.0002699,0,0,0.0006418,7.153e-05,7.368,0.03364,0,0,7.534e-05
74700000000,75000000000,2916102644,0,225807313,9.727e-05,0.0002632,0.003872,5.15e-05,0.0002794,0.000268,0,0,0.0006523,7.153e-05,7.65,0.03543,0,0,5.817e-05
75000000000,75300000000,2916102644,0,225807313,9.918e-05,0.0002642,0.003872,5.15e-05,0.0002794,0.000267,0,0,0.000721,7.153e-05,7.213,0.03309,0,0,7.439e-05
75300000000,75600000000,2916102644,0,225807313,9.727e-05,0.0002623,0.003872,5.15e-05,0.0002794,0.0002661,0,0,0.0008364,0,6.529,0.02906,0,0,3.815e-05
75600000000,75900000000,2916102644,0,225807313,9.632e-05,0.0002651,0.003872,5.15e-05,0.0002794,0.000267,0,0,0.0006723,7.153e-05,8.115,0.03782,0,0,7.057e-05
75900000000,76200000000,2916102644,0,225807313,9.632e-05,0.0002623,0.003872,5.15e-05,0.0002794,0.0002661,0,0,0.0005941,0,7.064,0.03232,0,0,0.0005131
76200000000,76500000000,2916102644,0,225807313,9.823e-05,0.0002632,0.003872,5.15e-05,0.0002794,0.000267,0,0,0.0009041,7.153e-05,7.02,0.03199,0,0,9.918e-05
76500000000,76800000000,2916102644,0,225807313,9.632e-05,0.0002623,0.003872,5.15e-05,0.0002794,0.0002661,0,0,0.0007448,0,6.943,0.03156,0,0,6.771e-05
76800000000,77100000000,2916102644,0,225807313,9.918e-05,0.0002632,0.003872,5.15e-05,0.0002794,0.000268,0,0,0.0009089,7.153e-05,6.491,0.02878,0,0,0.0005341
77100000000,77400000000,2916102644,0,225807313,9.727e-05,0.0002623,0.003872,5.15e-05,0.0002794,0.000267,0,0,0.0006828,0,7.063,0.03199,0,0,5.722e-05
77400000000,77700000000,2916102644,0,225807313,9.823e-05,0.0002661,0.003872,5.15e-05,0.0002794,0.0002718,0,0,0.0009689,7.153e-05,6.558,0.02928,0,0,0.0005474
77700000000,78000000000,2916102644,0,225807313,0.0001011,0.0002737,0.003872,5.15e-05,0.0002794,0.0002909,1.907e-06,0,0.0006762,0.0003567,6.986,0.03123,0,0,3.815e-05
78000000000,78300000000,2916102644,0,225807313,9.918e-05,0.0002661,0.003872,5.15e-05,0.0002794,0.000268,0,0,0.0006561,7.153e-05,6.603,0.02964,0,0,8.965e-05
78300000000,78600000000,2916102644,0,225807313,9.823e-05,0.0002642,0.003872,5.15e-05,0.0002794,0.0002661,0,0,0.0006142,7.153e-05,8.132,0.03794,0,0,5.245e-05
78600000000,78900000000,2916102644,0,225807313,0.0001001,0.0002642,0.003872,5.15e-05,0.0002794,0.0002708,0,0,0.0005341,7.153e-05,6.576,0.02935,0,0,4.864e-05
78900000000,79200000000,2916102644,0,225807313,9.727e-05,0.0002632,0.003872,5.15e-05,0.0002794,0.0002689,0,0,0.0003595,7.153e-05,7.531,0.03494,0,0,6.676e-05
79200000000,79500000000,2916102644,0,225807313,9.632e-05,0.0002632,0.003872,5.15e-05,0.0002794,0.000267,0,0,0.0004768,7.153e-05,8.092,0.03789,0,0,4.673e-05
79500000000,79800000000,2916102644,0,225807313,9.632e-05,0.0002613,0.003872,5.15e-05,0.0002794,0.0002661,0,0,0.0003519,0,7.232,0.03289,0,0,6.104e-05
79800000000,80100000000,2916102644,0,225807313,9.632e-05,0.0002651,0.003872,5.15e-05,0.0002794,0.0002689,0,0,0.002445,7.153e-05,7.334,0.0338,0,0,3.529e-05
80100000000,80400000000,2916102644,0,225807313,9.537e-05,0.0002623,0.003872,5.15e-05,0.0002794,0.0002661,0,0,0.0003824,0,8.504,0.03993,0,0,4.196e-05
80400000000,80700000000,2916102644,0,225807313,0.000102,0.0002651,0.003872,5.15e-05,0.0002794,0.0002718,0,0,0.0004616,7.153e-05,6.141,0.02775,0,0,0.0001297
80700000000,81000000000,2916102644,0,225807313,0.0001049,0.0002718,0.003872,5.15e-05,0.0002794,0.0002747,2.861e-06,0,0.0004463,0.0006428,4.543,0.01859,0,0,4.959e-05
85800000000,86100000000,2916102644,0,225807313,0.000104,0.0002632,0.003872,5.15e-05,0.0002794,0.000267,0,0,0.0005865,7.153e-05,9.978,0.04672,0,0,7.534e-05
86100000000,86400000000,2916102644,0,225807313,0.0001049,0.0002613,0.003872,5.15e-05,0.0002794,0.0002651,0,0,0.000596,0,9.284,0.04262,0,0,6.485e-05
86400000000,86700000000,2916102644,0,225807313,0.0001049,0.0002632,0.003872,5.15e-05,0.0002794,0.000267,0,0,0.0004454,7.153e-05,7.793,0.03543,0,0,4.292e-05
86700000000,87000000000,2916102644,0,225807313,0.000104,0.0002651,0.003872,5.15e-05,0.0002794,0.0002728,0,0,0.000639,7.153e-05,9.156,0.0419,0,0,6.866e-05
87000000000,87300000000,2916102644,0,225807313,0.0001049,0.000267,0.003872,5.15e-05,0.0002794,0.0002718,9.537e-07,0,0.0007458,7.153e-05,8.909,0.04019,0,0,7.248e-05
87300000000,87600000000,2916102644,0,225807313,0.0001049,0.0002632,0.003872,5.15e-05,0.0002794,0.0002699,0,0,0.0004559,7.153e-05,9.483,0.04365,0,0,3.91e-05
87600000000,87900000000,2916102644,0,225807313,0.0001078,0.0002661,0.003872,5.15e-05,0.0002804,0.000268,0,0,0.0006866,7.153e-05,9.858,0.04545,0,0,3.719e-05
87900000000,88200000000,2916102644,0,225807313,0.0001068,0.0002623,0.003872,5.15e-05,0.0002804,0.000267,0,0,0.0007267,0,9.049,0.04144,0,0,8.965e-05
88200000000,88500000000,2916102644,0,225807313,0.0001059,0.0002651,0.003872,5.15e-05,0.0002804,0.0002804,0,0,0.0007038,7.153e-05,9.764,0.04475,0,0,6.58e-05
88500000000,88800000000,2916102644,0,225807313,0.0001078,0.000267,0.003872,5.15e-05,0.0002804,0.0002804,0,0,0.0006371,0,9.748,0.04407,0,0,0.0001564
88800000000,89100000000,2916102644,0,225807313,0.0001078,0.0002642,0.003872,5.15e-05,0.0002804,0.000268,0,0,0.0006351,7.153e-05,8.881,0.04086,0,0,0.0003643
89100000000,89400000000,2916102644,0,225807313,0.0001049,0.0002623,0.003872,5.15e-05,0.0002804,0.0002642,0,0,0.0005856,0,9.226,0.04279,0,0,8.202e-05
89400000000,89700000000,2916102644,0,225807313,0.0001059,0.0002642,0.003872,5.15e-05,0.0002804,0.0002689,0,0,0.0007763,7.153e-05,8.536,0.03849,0,0,0.0002384
89700000000,90000000000,2916102644,0,225807313,0.0001068,0.0002632,0.003872,5.15e-05,0.0002804,0.000268,0,0,0.001013,7.153e-05,8.148,0.0369,0,0,9.537e-05
90000000000,90300000000,2916102644,0,225807313,0.0001097,0.0002642,0.003872,5.15e-05,0.0002804,0.000267,0,0,0.001139,7.153e-05,8.486,0.03777,0,0,5.627e-05
90300000000,90600000000,2916102644,0,225807313,0.0001059,0.0002623,0.003872,5.15e-05,0.0002804,0.0002661,0,0,0.0009346,0,8.635,0.03941,0,0,0.0001125
90600000000,90900000000,2916102644,0,225807313,0.0001097,0.0002632,0.003872,5.15e-05,0.0002804,0.000267,0,0,0.001284,7.153e-05,9.685,0.04455,0,0,6.866e-05
101100000000,101400000000,2916102644,0,225807313,9.537e-05,0.0002623,0.003872,5.341e-05,0.0002813,0.0002661,0,0,0.0004921,7.153e-05,7.947,0.03761,0,0,4.578e-05
101400000000,101700000000,2916102644,0,225807313,0.0001001,0.0002632,0.003872,5.341e-05,0.0002813,0.0002651,3.815e-06,0,0.00112,0.0009289,7.962,0.03766,0,0,6.866e-05
101700000000,102000000000,2916102644,0,225807313,9.632e-05,0.0002604,0.003872,5.341e-05,0.0002813,0.0002642,0,0,0.0008144,7.153e-05,8.4,0.03984,0,0,9.632e-05
102000000000,102300000000,2916102644,0,225807313,9.727e-05,0.0002642,0.003872,5.341e-05,0.0002813,0.0002699,9.537e-07,0,0.0005312,0.0003567,7.994,0.03758,0,0,7.82e-05
102300000000,102600000000,2916102644,0,225807313,9.441e-05,0.0002604,0.003872,5.341e-05,0.0002813,0.0002642,0,0,0.0009518,0,6.963,0.03182,0,0,6.008e-05
102600000000,102900000000,2916102644,0,225807313,9.537e-05,0.0002613,0.003872,5.341e-05,0.0002813,0.0002651,0,0,0.001076,7.153e-05,7.997,0.03786,0,0,8.011e-05
102900000000,103200000000,2916102644,0,225807313,9.441e-05,0.0002613,0.003872,5.436e-05,0.0002813,0.0002642,0,0,0.001005,7.153e-05,8.147,0.03858,0,0,4.864e-05
103200000000,103500000000,2916102644,0,225807313,9.632e-05,0.0002613,0.003872,5.436e-05,0.0002813,0.0002651,0,0,0.0009298,7.153e-05,8.79,0.04211,0,0,8.583e-05
103500000000,103800000000,2916102644,0,225807313,9.441e-05,0.0002604,0.003872,5.436e-05,0.0002813,0.0002613,0,0,0.0007811,0,6.688,0.03128,0,0,4.196e-05
103800000000,104100000000,2916102644,0,225807313,9.727e-05,0.0002661,0.003872,5.436e-05,0.0002813,0.0002823,0,0,0.0008297,7.153e-05,7.282,0.03355,0,0,5.15e-05
104100000000,104400000000,2916102644,0,225807313,0.0001078,0.0002613,0.003872,5.436e-05,0.0002813,0.0002747,0,0,0.0006618,0,8.976,0.03883,0,0,8.583e-05
104400000000,104700000000,2916102644,0,225807313,0.0001183,0.0002623,0.003872,5.436e-05,0.0002813,0.0002651,0,0,0.0007963,7.153e-05,10.48,0.04381,0,0,7.153e-05
104700000000,105000000000,2916102644,0,225807313,0.0001163,0.0002604,0.003872,5.436e-05,0.0002813,0.0002651,0,0,0.0012,0,9.47,0.03855,0,0,9.632e-05
105000000000,105300000000,2916102644,0,225807313,0.0001059,0.0002632,0.003872,5.436e-05,0.0002823,0.000267,2.861e-06,0,0.0005379,0.0006428,9.657,0.04417,0,0,7.153e-05
105300000000,105600000000,2916102644,0,225807313,9.346e-05,0.0002604,0.003872,5.436e-05,0.0002823,0.0002642,0,0,0.001087,0,8.098,0.03751,0,0,0.0001688
105600000000,105900000000,2916102644,0,225807313,9.632e-05,0.0002613,0.003872,5.436e-05,0.0002823,0.0002651,0,0,0.001204,7.153e-05,7.898,0.03677,0,0,0.0001316
105900000000,106200000000,2916102644,0,225807313,8.965e-05,0.0002604,0.003872,5.436e-05,0.0002823,0.0002642,0,0,0.000659,0,7.282,0.03428,0,0,5.627e-05
106200000000,106500000000,2916102644,0,225807313,8.392e-05,0.0002632,0.003872,5.436e-05,0.0002823,0.0002661,9.537e-07,0,0.0006437,7.153e-05,6.823,0.03287,0,0,1.812e-05
106500000000,106800000000,2916102644,0,225807313,0.0001087,0.0002594,0.003872,5.531e-05,0.0002823,0.0002632,0,0,0.0007553,0,8.59,0.03734,0,0,3.719e-05
106800000000,107100000000,2916102644,0,225807313,9.155e-05,0.0002613,0.003872,5.531e-05,0.0002823,0.0002642,0,0,0.0009766,7.153e-05,7.419,0.03403,0,0,6.39e-05
107100000000,107400000000,2916102644,0,225807313,8.774e-05,0.0002594,0.003872,5.531e-05,0.0002823,0.0002613,0,0,0.0009193,0,6.308,0.02817,0,0,5.245e-05
107400000000,107700000000,2916102644,0,225807313,8.011e-05,0.0002613,0.003872,5.531e-05,0.0002823,0.0002642,0,0,0.0008993,7.153e-05,6.604,0.03201,0,0,0.0003605
107700000000,108000000000,2916102644,0,225807313,8.106e-05,0.0002594,0.003872,5.531e-05,0.0002823,0.0002623,0,0,0.001154,7.153e-05,5.578,0.02571,0,0,4.101e-05
108000000000,108300000000,2916102644,0,225807313,0.0001173,0.0002699,0.003872,5.531e-05,0.0002823,0.0002737,2.861e-06,0,0.0009804,0.0004282,7.982,0.03381,0,0,0.0001154
108300000000,108600000000,2916102644,0,225807313,0.0001287,0.0002632,0.003872,5.531e-05,0.0002823,0.000268,9.537e-07,0,0.0007734,7.153e-05,13.6,0.05581,0,0,8.965e-05
108600000000,108900000000,2916102644,0,225807313,9.251e-05,0.0002623,0.003872,5.531e-05,0.0002823,0.000268,9.537e-07,0,0.0007782,7.153e-05,8.982,0.04118,0,0,0.000103
108900000000,109200000000,2916102644,0,225807313,8.392e-05,0.000267,0.003872,5.531e-05,0.0002823,0.0002718,9.537e-07,0,0.0007334,7.153e-05,5.796,0.02731,0,0,5.054e-05
109200000000,109500000000,2916102644,0,225807313,8.202e-05,0.0002642,0.003872,5.531e-05,0.0002823,0.000268,9.537e-07,0,0.001417,7.153e-05,5.735,0.02673,0,0,0.0001698
109500000000,109800000000,2916102644,0,225807313,8.011e-05,0.0002613,0.003872,5.531e-05,0.0002823,0.000267,1.907e-06,0,0.0007257,0.0003567,5.746,0.02651,0,0,7.725e-05
109800000000,110100000000,2916102644,0,225807313,8.869e-05,0.0002689,0.003872,5.531e-05,0.0002823,0.0002899,1.907e-06,0,0.001215,7.153e-05,7.254,0.03507,0,0,6.485e-05
110100000000,110400000000,2916102644,0,225807313,7.915e-05,0.0002661,0.003872,5.531e-05,0.0002823,0.000288,9.537e-07,0,0.0008268,7.153e-05,6.514,0.03067,0,0,4.005e-05
110400000000,110700000000,2916102644,0,225807313,8.202e-05,0.0002623,0.003872,5.531e-05,0.0002823,0.0002642,9.537e-07,0,0.0008135,7.153e-05,5.575,0.02572,0,0,2.193e-05
110700000000,111000000000,2916102644,0,225807313,8.297e-05,0.0002604,0.003872,5.531e-05,0.0002823,0.0002632,0,0,0.0004473,7.153e-05,5.778,0.02589,0,0,3.719e-05
116100000000,116400000000,2916102644,0,225807313,7.534e-05,0.0002584,0.003872,5.531e-05,0.0002823,0.0002623,0,0,0.0009346,0,5.175,0.02376,0,0,2.289e-05
116400000000,116700000000,2916102644,0,225807313,7.82e-05,0.0002642,0.003872,5.531e-05,0.0002823,0.0002718,9.537e-07,0,0.001984,7.153e-05,5.713,0.02655,0,0,3.147e-05
116700000000,117000000000,2916102644,0,225807313,8.011e-05,0.0002651,0.003872,5.531e-05,0.0002823,0.0002689,1.907e-06,0,0.0008831,0.0002861,5.136,0.02262,0,0,6.676e-05
117000000000,117300000000,2916102644,0,225807313,8.678e-05,0.0002623,0.003872,5.531e-05,0.0002823,0.0002661,9.537e-07,0,0.001076,0.0001431,5.773,0.02567,0,0,6.39e-05
117300000000,117600000000,2916102644,0,225807313,8.202e-05,0.0002594,0.003872,5.531e-05,0.0002832,0.0002661,0,0,0.00112,7.153e-05,6.046,0.02742,0,0,2.861e-05
117600000000,117900000000,2916102644,0,225807313,7.439e-05,0.0002613,0.003872,5.531e-05,0.0002832,0.0002651,9.537e-07,0,0.0007105,7.153e-05,5.145,0.02306,0,0,0.0001116
117900000000,118200000000,2916102644,0,225807313,7.725e-05,0.0002584,0.003872,5.531e-05,0.0002832,0.0002613,0,0,0.0007448,0,5.791,0.0266,0,0,5.913e-05
118200000000,118500000000,2916102644,0,225807313,7.725e-05,0.0002604,0.003872,5.531e-05,0.0002832,0.0002642,0,0,0.0009708,7.153e-05,5.786,0.026,0,0,3.91e-05
118500000000,118800000000,2916102644,0,225807313,7.82e-05,0.0002604,0.003872,5.531e-05,0.0002832,0.0002632,0,0,0.0007343,7.153e-05,5.776,0.02679,0,0,1.907e-05
118800000000,119100000000,2916102644,0,225807313,7.915e-05,0.0002604,0.003872,5.531e-05,0.0002832,0.0002642,0,0,0.0009317,7.153e-05,6.212,0.02941,0,0,4.387e-05
119100000000,119400000000,2916102644,0,225807313,8.011e-05,0.0002594,0.003872,5.531e-05,0.0002832,0.0002642,0,0,0.001057,0,5.699,0.02631,0,0,0.0005445
119400000000,119700000000,2916102644,0,225807313,8.106e-05,0.0002613,0.003872,5.531e-05,0.0002832,0.0002708,0,0,0.001211,7.153e-05,6.413,0.03075,0,0,0.000102
119700000000,120000000000,2916102644,0,225807313,8.202e-05,0.0002642,0.003872,5.531e-05,0.0002832,0.0002718,9.537e-07,0,0.001162,7.153e-05,5.84,0.02672,0,0,8.202e-05
120000000000,120300000000,2916102644,0,225807313,8.011e-05,0.0002623,0.003872,5.531e-05,0.0002832,0.0002642,9.537e-07,0,0.000864,7.153e-05,6.161,0.02853,0,0,6.294e-05
120300000000,120600000000,2916102644,0,225807313,7.248e-05,0.0002604,0.003872,5.531e-05,0.0002832,0.0002632,0,0,0.0007877,7.153e-05,5.277,0.02303,0,0,0.0002251
120600000000,120900000000,2916102644,0,225807313,8.297e-05,0.0002613,0.003872,5.531e-05,0.0002832,0.0002804,0,0,0.001068,7.153e-05,6.437,0.02981,0,0,6.962e-05
126000000000,126300000000,2916102644,0,225807313,7.82e-05,0.0002613,0.003872,5.627e-05,0.0002832,0.0002642,0,0,0.0008287,7.153e-05,5.365,0.02427,0,0,6.104e-05
126300000000,126600000000,2916102644,0,225807313,7.725e-05,0.0002584,0.003872,5.627e-05,0.0002832,0.0002642,0,0,0.0008783,0,5.114,0.02273,0,0,3.052e-05
126600000000,126900000000,2916102644,0,225807313,8.106e-05,0.0002604,0.003872,5.627e-05,0.0002832,0.0002642,0,0,0.0005465,7.153e-05,5.347,0.02338,0,0,0.0003481
127500000000,127800000000,2916102644,0,2851850,0.000144,0.0002451,0.003876,0.0001278,0.0003433,0.0002584,9.537e-07,0,0.005463,7.153e-05,14.32,0.07182,0,0,0.0004101
127800000000,128100000000,2916102644,0,2851850,0.0001478,0.0002403,0.003876,0.0001268,0.0003433,0.0002489,0,0,0.0006466,0,9.848,0.04638,0,0,0.0003481
128100000000,128400000000,2916102644,0,2851850,0.0001411,0.0002432,0.003876,0.0001268,0.0003433,0.000248,9.537e-07,0,0.0008545,7.153e-05,9.053,0.04296,0,0,6.771e-05
128400000000,128700000000,2916102644,0,2851850,0.0001431,0.0002394,0.003876,0.0001268,0.0003433,0.0002422,0,0,0.001051,0,8.977,0.04281,0,0,0.0001936
128700000000,129000000000,2916102644,0,2851850,0.0001173,0.0002432,0.003876,0.0001268,0.0003433,0.0002499,2.861e-06,0,0.001171,0.0001431,8.017,0.03784,0,0,0.0003405
129000000000,129300000000,2916102644,0,2851850,8.869e-05,0.0002403,0.003876,0.0001268,0.0003433,0.0002451,0,0,0.0009937,0,6.753,0.03078,0,0,8.106e-05
129300000000,129600000000,2916102644,0,2851850,9.727e-05,0.0002441,0.003876,0.0001268,0.0003433,0.000246,9.537e-07,0,0.0009079,7.153e-05,6.895,0.03026,0,0,0.0001822
129600000000,129900000000,2916102644,0,2851850,9.537e-05,0.000246,0.003876,0.0001268,0.0003443,0.0002518,9.537e-07,0,0.0008535,7.153e-05,7.132,0.03177,0,0,0.0001545
129900000000,130200000000,2916102644,0,2851850,9.251e-05,0.0002489,0.003876,0.0001268,0.0003443,0.0002556,1.907e-06,0,0.000988,7.153e-05,6.054,0.02734,0,0,0.0004978
130200000000,130500000000,2916102644,0,2851850,9.251e-05,0.0002451,0.003876,0.0001268,0.0003443,0.0002489,9.537e-07,0,0.0008659,7.153e-05,6.67,0.03005,0,0,0.0003033
130500000000,130800000000,2916102644,0,2851850,8.965e-05,0.0002441,0.003876,0.0001268,0.0003443,0.0002489,9.537e-07,0,0.000864,7.153e-05,6.525,0.0296,0,0,3.433e-05
130800000000,131100000000,2916102644,0,2851850,9.632e-05,0.0002403,0.003876,0.0001268,0.0003443,0.0002432,0,0,0.001019,0,6.776,0.02955,0,0,8.774e-05
144000000000,144300000000,2916102644,0,51182158,0.0001478,0.0002661,0.00388,0.0001297,0.0003557,0.0002708,1.907e-06,0,0.000783,7.153e-05,24.96,0.1271,0,0,9.155e-05
144300000000,144600000000,2916102644,0,51182158,0.0001888,0.0002737,0.00388,0.0001287,0.0003567,0.0002871,4.768e-06,0,0.002411,0.0004997,11.78,0.05551,0,0,6.771e-05
144600000000,144900000000,2916102644,0,51182158,0.000165,0.0002613,0.00388,0.0001287,0.0003567,0.0002632,0,0,0.00108,7.153e-05,10.54,0.04908,0,0,3.91e-05
144900000000,145200000000,2916102644,0,51182158,0.0001688,0.0002632,0.00388,0.0001287,0.0003567,0.000268,2.861e-06,0,0.0007401,0.0007143,10.01,0.04406,0,0,0.0003233
145200000000,145500000000,2916102644,0,51182158,0.0001612,0.0002594,0.00388,0.0001287,0.0003567,0.0002594,0,0,0.000618,0,10.57,0.04902,0,0,0.0005426
145500000000,145800000000,2916102644,0,51182158,0.0001202,0.0002718,0.00388,0.0001287,0.0003576,0.0002804,3.815e-06,0,0.0007048,0.0001431,5.609,0.02379,0,0,6.771e-05
145800000000,146100000000,2916102644,0,51182158,9.823e-05,0.0002718,0.00388,0.0001287,0.0003576,0.000288,9.537e-07,0,0.0004463,7.153e-05,7.459,0.03269,0,0,0.0001173
151200000000,151500000000,2916102644,0,51182158,0.0001106,0.0002594,0.00388,0.0001297,0.0003576,0.0002594,0,0,0.0006371,0,7.307,0.02926,0,0,6.294e-05
151500000000,151800000000,2916102644,0,51182158,0.0001125,0.0002613,0.00388,0.0001297,0.0003576,0.0002642,0,0,0.0007782,7.153e-05,8.294,0.03351,0,0,0.0001192
151800000000,152100000000,2916102644,0,51182158,0.0001097,0.0002584,0.00388,0.0001297,0.0003576,0.0002594,0,0,0.0004921,0,8.633,0.03554,0,0,6.199e-05
152100000000,152400000000,2916102644,0,51182158,0.0001087,0.0002613,0.00388,0.0001297,0.0003576,0.0002642,0,0,0.0004921,7.153e-05,7.885,0.0329,0,0,5.913e-05
152400000000,152700000000,2916102644,0,51182158,0.0001068,0.0002594,0.00388,0.0001297,0.0003576,0.0002632,0,0,0.0004911,7.153e-05,7.837,0.0341,0,0,6.866e-05
152700000000,153000000000,2916102644,0,51182158,0.0001087,0.0002623,0.00388,0.0001297,0.0003576,0.0002642,0,0,0.0005617,7.153e-05,6.681,0.02828,0,0,3.433e-05
153900000000,154200000000,2916102644,0,1269401,0.000165,0.0002632,0.00388,9.537e-06,0.0002251,0.0002842,2.861e-06,0,0.005936,0.0007858,8.267,0.03782,0,0,4.196e-05
154200000000,154500000000,2916102644,0,1269401,0.0001612,0.0002689,0.00388,9.537e-06,0.000227,0.0002842,9.537e-07,0,0.0006628,7.153e-05,7.223,0.03114,0,0,7.725e-05
154500000000,154800000000,2916102644,0,1269401,0.0001698,0.0002651,0.00388,9.537e-06,0.000227,0.0002737,0,0,0.0007153,0.0001431,8.316,0.03545,0,0,0.0001783
154800000000,155100000000,2916102644,0,1269401,0.0001774,0.0002708,0.00388,9.537e-06,0.000227,0.0002794,9.537e-07,0,0.0006361,7.153e-05,8.198,0.03482,0,0,0.0001535
155100000000,155400000000,2916102644,0,1269401,0.0001535,0.000268,0.00388,9.537e-06,0.000227,0.0002747,4.768e-06,0,0.0006924,0.0003567,8.812,0.03772,0,0,6.294e-05
155400000000,155700000000,2916102644,0,1269401,0.0001097,0.0002661,0.00388,9.537e-06,0.000227,0.0002728,0,0,0.0005865,7.153e-05,6.808,0.0279,0,0,7.439e-05
155700000000,156000000000,2916102644,0,1269401,0.0001116,0.0002632,0.00388,9.537e-06,0.000227,0.000267,0,0,0.0004272,7.153e-05,6.782,0.02818,0,0,5.054e-05
161100000000,161400000000,2916102644,0,1269401,0.0001144,0.0002632,0.00388,1.049e-05,0.000227,0.0002661,0,0,0.0004454,7.153e-05,8.603,0.03593,0,0,3.815e-05
161400000000,161700000000,2916102644,0,1269401,0.0001116,0.0002623,0.00388,1.049e-05,0.000227,0.0002661,0,0,0.0003014,0,7.92,0.03327,0,0,0.0002089
161700000000,162000000000,2916102644,0,1269401,0.0001154,0.0002642,0.00388,1.049e-05,0.000227,0.000267,0,0,0.0007486,0.0001431,8.185,0.03455,0,0,8.583e-05
162000000000,162300000000,2916102644,0,1269401,0.0001163,0.0002689,0.00388,1.049e-05,0.000227,0.0002756,9.537e-07,0,0.000597,7.153e-05,4.915,0.01964,0,0,6.771e-05
162300000000,162600000000,2916102644,0,1269401,0.0001154,0.0002689,0.00388,1.049e-05,0.000227,0.0002804,1.907e-06,0,0.002422,0.0004282,8.256,0.03573,0,0,7.057e-05
162600000000,162900000000,2916102644,0,1269401,0.0001116,0.0002708,0.00388,1.049e-05,0.000227,0.0002775,9.537e-07,0,0.0006161,7.153e-05,5.352,0.0209,0,0,0.0001431
162900000000,163200000000,2916102644,0,1269401,0.0001078,0.000267,0.00388,1.049e-05,0.000227,0.0002699,0,0,0.0006132,0.0001431,6.829,0.02905,0,0,0.0001183
163200000000,163500000000,2916102644,0,1269401,0.0001049,0.0002642,0.00388,1.049e-05,0.000227,0.000267,0,0,0.0008192,7.153e-05,7.614,0.03263,0,0,0.0001059
163500000000,163800000000,2916102644,0,1269401,0.0001116,0.0002632,0.00388,1.049e-05,0.000227,0.000268,0,0,0.0005741,7.153e-05,7.417,0.03151,0,0,6.294e-05
163800000000,164100000000,2916102644,0,1269401,0.0001135,0.0002642,0.00388,1.049e-05,0.000227,0.000268,0,0,0.0005589,7.153e-05,7.879,0.03299,0,0,6.866e-05
164100000000,164400000000,2916102644,0,1269401,0.0001135,0.0002642,0.00388,1.049e-05,0.0002279,0.000268,0,0,0.0005531,7.153e-05,6.769,0.02937,0,0,6.294e-05
164400000000,164700000000,2916102644,0,1269401,0.0001116,0.0002632,0.00388,1.049e-05,0.0002279,0.000268,0,0,0.0004969,0,6.992,0.0305,0,0,8.011e-05
164700000000,165000000000,2916102644,0,1269401,0.0001192,0.0002642,0.00388,1.049e-05,0.0002279,0.000268,0,0,0.0004501,7.153e-05,8.058,0.03417,0,0,8.011e-05
165000000000,165300000000,2916102644,0,1269401,0.0001125,0.0002642,0.00388,1.049e-05,0.0002279,0.000268,0,0,0.001879,0,7.822,0.03271,0,0,7.534e-05
165300000000,165600000000,2916102644,0,1269401,0.0001163,0.0002661,0.00388,1.049e-05,0.0002279,0.000268,0,0,0.001471,0.0001431,7.814,0.0326,0,0,0.0002069
165600000000,165900000000,2916102644,0,1269401,0.0001154,0.0002718,0.00388,1.049e-05,0.0002279,0.0002737,9.537e-07,0,0.001028,0.0001431,5.103,0.02045,0,0,5.627e-05
165900000000,166200000000,2916102644,0,1269401,0.0001125,0.000268,0.00388,1.049e-05,0.0002279,0.0002718,9.537e-07,0,0.0006866,0.0001431,7.527,0.03156,0,0,0.0001831
166200000000,166500000000,2916102644,0,1269401,0.0001192,0.0002661,0.00388,1.049e-05,0.0002279,0.0002718,9.537e-07,0,0.0006247,0.0002861,9.276,0.04044,0,0,6.58e-05
166500000000,166800000000,2916102644,0,1269401,0.0001183,0.0002651,0.00388,1.049e-05,0.0002279,0.000268,0,0,0.0004921,7.153e-05,8.236,0.03531,0,0,1.144e-05
166800000000,167100000000,2916102644,0,1269401,0.0001163,0.0002651,0.00388,1.049e-05,0.0002279,0.000268,0,0,0.0007391,7.153e-05,8.109,0.03525,0,0,8.869e-05
167100000000,167400000000,2916102644,0,1269401,0.0001202,0.0002642,0.00388,1.049e-05,0.0002279,0.000268,0,0,0.001028,7.153e-05,8.319,0.03545,0,0,4.101e-05
167400000000,167700000000,2916102644,0,1269401,0.0001173,0.0002651,0.00388,1.049e-05,0.0002279,0.000268,0,0,0.001276,7.153e-05,8.216,0.03472,0,0,4.673e-05
167700000000,168000000000,2916102644,0,1269401,0.0001163,0.0002651,0.00388,1.049e-05,0.0002279,0.0002708,0,0,0.000886,0.0001431,7.541,0.03186,0,0,4.101e-05
168000000000,168300000000,2916102644,0,1269401,0.0001154,0.0002651,0.00388,1.049e-05,0.0002279,0.0002718,9.537e-07,0,0.0008011,0.0003567,8.231,0.03528,0,0,5.15e-05
168300000000,168600000000,2916102644,0,1269401,0.0001116,0.0002642,0.00388,1.049e-05,0.0002279,0.000268,0,0,0.0006266,7.153e-05,7.498,0.0318,0,0,0.0001259
168600000000,168900000000,2916102644,0,1269401,0.0001125,0.0002689,0.00388,1.049e-05,0.0002279,0.0002728,9.537e-07,0,0.0004816,0.0001431,7.812,0.03364,0,0,0.0001297
168900000000,169200000000,2916102644,0,1269401,0.0001135,0.0002661,0.00388,1.049e-05,0.0002279,0.0002708,2.861e-06,0,0.0005493,0.0006428,7.711,0.03242,0,0,7.725e-05
169200000000,169500000000,2916102644,0,1269401,0.0001087,0.0002642,0.00388,1.049e-05,0.0002279,0.0002708,0,0,0.0005159,0,7.468,0.03173,0,0,7.057e-05
169500000000,169800000000,2916102644,0,1269401,0.0001183,0.0002651,0.00388,1.049e-05,0.0002279,0.000268,9.537e-07,0,0.0004368,0.0001431,7.666,0.03202,0,0,0.0001364
169800000000,170100000000,2916102644,0,1269401,0.0001144,0.0002699,0.00388,1.049e-05,0.0002279,0.0002747,9.537e-07,0,0.0004711,7.153e-05,5.202,0.02061,0,0,6.104e-05
170100000000,170400000000,2916102644,0,1269401,0.0001154,0.000267,0.00388,1.049e-05,0.0002279,0.0002718,9.537e-07,0,0.001205,0.0001431,7.47,0.03048,0,0,3.624e-05
170400000000,170700000000,2916102644,0,1269401,0.0001125,0.0002689,0.00388,1.049e-05,0.0002279,0.0002728,9.537e-07,0,0.0006628,7.153e-05,8.53,0.03667,0,0,0.0001135
170700000000,171000000000,2916102644,0,1269401,0.0001173,0.000267,0.00388,1.049e-05,0.0002279,0.0002708,9.537e-07,0,0.0006418,0.0001431,7.232,0.03013,0,0,8.774e-05
171000000000,171300000000,2916102644,0,1269401,0.0001173,0.0002651,0.00388,1.049e-05,0.0002279,0.0002699,1.907e-06,0,0.001453,0.0001431,7.657,0.03223,0,0,4.005e-05
171300000000,171600000000,2916102644,0,1269401,0.0001163,0.000267,0.00388,1.049e-05,0.0002279,0.0002708,1.907e-06,0,0.0005922,0.0001431,8.903,0.03978,0,0,8.678e-05
171600000000,171900000000,2916102644,0,1269401,0.0001163,0.0002632,0.00388,1.049e-05,0.0002279,0.000268,0,0,0.0007133,7.153e-05,7.797,0.03303,0,0,2.48e-05
171900000000,172200000000,2916102644,0,1269401,0.0001202,0.0002651,0.00388,1.049e-05,0.0002279,0.000268,0,0,0.0007076,7.153e-05,8.578,0.03769,0,0,9.727e-05
172200000000,172500000000,2916102644,0,1269401,0.0001173,0.0002632,0.00388,1.049e-05,0.0002279,0.000268,0,0,0.0006552,0,8.063,0.03483,0,0,0.0001106
172500000000,172800000000,2916102644,0,1269401,0.0001163,0.0002632,0.00388,1.049e-05,0.0002279,0.000268,0,0,0.0006142,7.153e-05,7.548,0.03275,0,0,6.676e-05
172800000000,173100000000,2916102644,0,1269401,0.0001221,0.0002632,0.00388,1.049e-05,0.0002279,0.000268,0,0,0.0005178,0,8.039,0.03416,0,0,4.005e-05
173100000000,173400000000,2916102644,0,1269401,0.0001183,0.0002661,0.00388,1.049e-05,0.0002279,0.0002689,9.537e-07,0,0.0005064,0.0001431,8.283,0.03545,0,0,3.433e-05
173400000000,173700000000,2916102644,0,1269401,0.0001163,0.0002632,0.00388,1.049e-05,0.0002279,0.000268,0,0,0.0004473,0,8.09,0.03345,0,0,7.248e-05
173700000000,174000000000,2916102644,0,1269401,0.0001125,0.0002632,0.00388,1.049e-05,0.0002279,0.000267,0,0,0.0006332,7.153e-05,7.349,0.03084,0,0,9.918e-05
174000000000,174300000000,2916102644,0,1269401,0.0001163,0.0002632,0.00388,1.049e-05,0.0002279,0.000267,9.537e-07,0,0.0009956,0.0002146,8.238,0.03387,0,0,9.823e-05
174300000000,174600000000,2916102644,0,1269401,0.0001297,0.0002642,0.00388,1.049e-05,0.0002279,0.000267,0,0,0.0005693,7.153e-05,8.5,0.03624,0,0,0.0001049
174600000000,174900000000,2916102644,0,1269401,0.000124,0.0002632,0.00388,1.049e-05,0.0002279,0.000267,0,0,0.000597,0,7.728,0.0324,0,0,6.866e-05
174900000000,175200000000,2916102644,0,1269401,0.0001287,0.0002699,0.00388,1.049e-05,0.0002279,0.0002766,9.537e-07,0,0.0007086,0.0001431,8.401,0.0363,0,0,0.000495
175200000000,175500000000,2916102644,0,1269401,0.0001202,0.0002699,0.00388,1.049e-05,0.0002279,0.0002737,9.537e-07,0,0.0006676,7.153e-05,8.342,0.03548,0,0,7.915e-05
175500000000,175800000000,2916102644,0,1269401,0.0001192,0.000267,0.00388,1.049e-05,0.0002279,0.0002699,9.537e-07,0,0.0007181,0.0001431,7.796,0.03232,0,0,7.439e-05
175800000000,176100000000,2916102644,0,1269401,0.000124,0.0002689,0.00388,1.049e-05,0.0002279,0.0002766,9.537e-07,0,0.001049,7.153e-05,8.43,0.03479,0,0,7.057e-05
186300000000,186600000000,2916102644,0,1269401,0.0001154,0.0002632,0.00388,1.144e-05,0.0002289,0.000267,0,0,0.0005856,7.153e-05,7.413,0.03156,0,0,6.58e-05
186600000000,186900000000,2916102644,0,1269401,0.0001116,0.0002651,0.00388,1.144e-05,0.0002289,0.000268,0,0,0.0006714,7.153e-05,8.133,0.03492,0,0,6.771e-05
186900000000,187200000000,2916102644,0,1269401,0.0001154,0.0002632,0.00388,1.144e-05,0.0002289,0.000267,0,0,0.0008669,7.153e-05,8.964,0.03913,0,0,0.0001059
187200000000,187500000000,2916102644,0,1269401,0.0001173,0.0002632,0.00388,1.144e-05,0.0002289,0.000267,0,0,0.0007143,0,8.908,0.03857,0,0,3.338e-05
187500000000,187800000000,2916102644,0,1269401,0.0001087,0.000267,0.00388,1.144e-05,0.0002289,0.0002737,9.537e-07,0,0.000906,0.0002861,5.044,0.02077,0,0,5.341e-05
187800000000,188100000000,2916102644,0,1269401,0.0001049,0.0002661,0.00388,1.144e-05,0.0002289,0.0002708,0,0,0.0006647,7.153e-05,8.113,0.0364,0,0,3.719e-05
188100000000,188400000000,2916102644,0,1269401,0.000103,0.0002642,0.00388,1.144e-05,0.0002289,0.0002689,0,0,0.0005474,7.153e-05,7.645,0.03362,0,0,0.0001554
188400000000,188700000000,2916102644,0,1269401,0.0001078,0.0002642,0.00388,1.144e-05,0.0002289,0.0002699,0,0,0.0005579,7.153e-05,6.859,0.02874,0,0,6.008e-05
188700000000,189000000000,2916102644,0,1269401,0.0001068,0.0002632,0.00388,1.144e-05,0.0002289,0.000267,0,0,0.0005398,7.153e-05,8.31,0.03679,0,0,4.864e-05
189000000000,189300000000,2916102644,0,1269401,0.0001059,0.0002642,0.00388,1.144e-05,0.0002289,0.000268,0,0,0.0006113,7.153e-05,7.646,0.03327,0,0,4.196e-05
189300000000,189600000000,2916102644,0,1269401,0.0001059,0.0002632,0.00388,1.144e-05,0.0002289,0.000267,0,0,0.0004854,7.153e-05,7.245,0.03119,0,0,7.915e-05
189600000000,189900000000,2916102644,0,1269401,0.0001059,0.0002642,0.00388,1.144e-05,0.0002289,0.000267,0,0,0.0004721,7.153e-05,7.539,0.03309,0,0,0.0001011
189900000000,190200000000,2916102644,0,1269401,0.0001078,0.0002632,0.00388,1.144e-05,0.0002289,0.000267,0,0,0.0005569,7.153e-05,7.711,0.03393,0,0,0.0002193
190200000000,190500000000,2916102644,0,1269401,0.0001059,0.0002651,0.00388,1.144e-05,0.0002289,0.000267,0,0,0.0004711,7.153e-05,8.505,0.03819,0,0,4.959e-05
190500000000,190800000000,2916102644,0,1269401,0.0001116,0.0002632,0.00388,1.144e-05,0.0002289,0.000267,0,0,0.000556,7.153e-05,7.79,0.03327,0,0,6.771e-05
190800000000,191100000000,2916102644,0,1269401,0.0001116,0.0002632,0.00388,1.144e-05,0.0002289,0.000267,0,0,0.0005608,0,8.011,0.03458,0,0,5.245e-05
191100000000,191400000000,2916102644,0,1269401,0.0001116,0.0002632,0.00388,1.144e-05,0.0002289,0.0002689,0,0,0.0005827,7.153e-05,8.15,0.03488,0,0,8.297e-05
191400000000,191700000000,2916102644,0,1269401,0.0001106,0.0002632,0.00388,1.144e-05,0.0002289,0.0002689,0,0,0.0004692,0,7.251,0.03079,0,0,0.0001097
191700000000,192000000000,2916102644,0,1269401,0.0001087,0.0002632,0.00388,1.144e-05,0.0002289,0.000267,0,0,0.0005684,1.907e-06,7.338,0.03116,0,0,4.292e-05
192000000000,192300000000,2916102644,0,1269401,0.0001106,0.0002623,0.00388,1.144e-05,0.0002289,0.000267,0,0,0.0005407,0,7.911,0.03332,0,0,7.057e-05
192300000000,192600000000,2916102644,0,1269401,0.0001135,0.0002632,0.00388,1.144e-05,0.0002289,0.000267,0,0,0.001034,7.153e-05,7.69,0.03223,0,0,6.008e-05
192600000000,192900000000,2916102644,0,1269401,0.0001106,0.0002623,0.00388,1.144e-05,0.0002289,0.000267,0,0,0.0006742,0,8.769,0.03831,0,0,0.0004148
192900000000,193200000000,2916102644,0,1269401,0.0001106,0.0002651,0.00388,1.144e-05,0.0002289,0.000267,0,0,0.000638,0.0001431,7.849,0.03379,0,0,9.346e-05
193200000000,193500000000,2916102644,0,1269401,0.0001173,0.0002651,0.00388,1.144e-05,0.0002289,0.0002747,0,0,0.0008373,7.153e-05,7.653,0.03205,0,0,5.913e-05
193500000000,193800000000,2916102644,0,1269401,0.0001135,0.0002699,0.00388,1.144e-05,0.0002289,0.0002747,4.768e-06,0,0.000843,0.0004282,5.356,0.02151,0,0,8.965e-05
193800000000,194100000000,2916102644,0,1269401,0.0001106,0.0002651,0.00388,1.144e-05,0.0002289,0.0002708,0,0,0.0008497,7.153e-05,7.861,0.03399,0,0,8.202e-05
194100000000,194400000000,2916102644,0,1269401,0.0001087,0.0002632,0.00388,1.144e-05,0.0002289,0.000267,0,0,0.0006266,7.153e-05,7.698,0.03259,0,0,4.196e-05
194400000000,194700000000,2916102644,0,1269401,0.0001144,0.0002642,0.00388,1.144e-05,0.0002289,0.0002689,0,0,0.0009012,7.153e-05,8.449,0.03548,0,0,5.245e-05
194700000000,195000000000,2916102644,0,1269401,0.0001144,0.0002632,0.00388,1.144e-05,0.0002289,0.000267,0,0,0.0007343,7.153e-05,7.603,0.03149,0,0,8.297e-05
195000000000,195300000000,2916102644,0,1269401,0.0001125,0.000268,0.00388,1.144e-05,0.0002289,0.0002718,1.907e-06,0,0.0006046,0.0003567,7.591,0.03192,0,0,5.245e-05
195300000000,195600000000,2916102644,0,1269401,0.0001068,0.0002699,0.00388,1.144e-05,0.0002289,0.0002718,9.537e-07,0,0.0007915,0.0001431,8.46,0.03635,0,0,7.915e-05
195600000000,195900000000,2916102644,0,1269401,0.0001068,0.0002661,0.00388,1.144e-05,0.0002289,0.0002708,0,0,0.0005426,7.153e-05,7.394,0.03153,0,0,5.245e-05
195900000000,196200000000,2916102644,0,1269401,0.0001068,0.0002642,0.00388,1.144e-05,0.0002289,0.0002708,0,0,0.0004826,0.0001431,7.414,0.03141,0,0,0.0001421
201300000000,201600000000,2916102644,0,1269401,0.0001087,0.0002623,0.00388,1.24e-05,0.0002298,0.000267,0,0,0.0004644,7.153e-05,7.722,0.03303,0,0,0.0001307
201600000000,201900000000,2916102644,0,1269401,0.0001163,0.0002632,0.00388,1.24e-05,0.0002298,0.0002689,0,0,0.0006056,7.153e-05,7.475,0.03091,0,0,6.199e-05
201900000000,202200000000,2916102644,0,1269401,0.0001163,0.0002728,0.00388,1.24e-05,0.0002298,0.0002766,9.537e-07,0,0.001163,0.0001431,5.563,0.0221,0,0,7.248e-05
202200000000,202500000000,2916102644,0,1269401,0.0001183,0.0002661,0.00388,1.24e-05,0.0002298,0.0002718,0,0,0.0007467,7.153e-05,8.267,0.03462,0,0,9.251e-05
202500000000,202800000000,2916102644,0,1269401,0.0001221,0.0002632,0.00388,1.24e-05,0.0002298,0.0002728,0,0,0.0007763,0.0001431,8.216,0.0337,0,0,0.0001068
202800000000,203100000000,2916102644,0,1269401,0.0001202,0.0002718,0.00388,1.24e-05,0.0002298,0.0002756,1.907e-06,0,0.0005875,0.0001431,5.39,0.02128,0,0,0.0001373
203100000000,203400000000,2916102644,0,1269401,0.0001326,0.0002708,0.00388,1.24e-05,0.0002298,0.0002756,1.907e-06,0,0.0008698,0.0002861,9.056,0.03832,0,0,5.913e-05
203400000000,203700000000,2916102644,0,1269401,0.0001268,0.0002689,0.00388,1.24e-05,0.0002298,0.0002718,0,0,0.0005312,7.153e-05,5.318,0.02135,0,0,4.005e-05
203700000000,204000000000,2916102644,0,1269401,0.0001259,0.0002661,0.00388,1.24e-05,0.0002298,0.0002708,9.537e-07,0,0.0006361,0.0001431,8.138,0.03496,0,0,0.0002251
204000000000,204300000000,2916102644,0,1269401,0.0001135,0.0002651,0.00388,1.24e-05,0.0002298,0.0002689,2.861e-06,0,0.0005779,0.0004282,7.467,0.03182,0,0,7.725e-05
204300000000,204600000000,2916102644,0,1269401,0.0001135,0.0002642,0.00388,1.24e-05,0.0002298,0.0002689,1.907e-06,0,0.0007448,0.0004997,7.474,0.03189,0,0,9.441e-05
204600000000,204900000000,2916102644,0,1269401,0.0001106,0.0002651,0.00388,1.24e-05,0.0002298,0.0002689,0,0,0.0004778,7.153e-05,7.043,0.03106,0,0,0.0002947
204900000000,205200000000,2916102644,0,1269401,0.0001135,0.0002632,0.00388,1.24e-05,0.0002298,0.000267,0,0,0.0005283,7.153e-05,7.472,0.03291,0,0,6.294e-05
205200000000,205500000000,2916102644,0,1269401,0.0001116,0.0002632,0.00388,1.24e-05,0.0002298,0.000267,0,0,0.0006104,0,6.942,0.0306,0,0,6.866e-05
205500000000,205800000000,2916102644,0,1269401,0.0001135,0.0002632,0.00388,1.24e-05,0.0002298,0.000267,0,0,0.0005846,7.153e-05,7.124,0.03128,0,0,0.0001268
205800000000,206100000000,2916102644,0,1269401,0.0001144,0.0002642,0.00388,1.24e-05,0.0002298,0.000268,0,0,0.0005636,7.153e-05,7.465,0.03318,0,0,8.392e-05
207000000000,207300000000,2916102644,0,351598898,0.0001793,0.0003023,0.00388,0.000144,0.0003691,0.0003176,2.861e-06,0,0.00573,0.0007143,21.96,0.1103,0,0,0.000308
207300000000,207600000000,2916102644,0,351598898,0.0001736,0.0002966,0.00388,0.0001431,0.0003691,0.0003109,0,0,0.0009394,0,13.47,0.06278,0,0,0.0001144
207600000000,207900000000,2916102644,0,351598898,0.0001764,0.0002995,0.00388,0.0001431,0.0003691,0.0003023,9.537e-07,0,0.0005865,7.153e-05,14.06,0.06523,0,0,0.000432
207900000000,208200000000,2916102644,0,351598898,0.0001831,0.0002928,0.00388,0.0001392,0.0003662,0.0002995,0,0,0.0008698,0,12.87,0.05937,0,0,0.0002747
208200000000,208500000000,2916102644,0,351598898,0.0001507,0.0002947,0.00388,0.0001373,0.0003633,0.0003042,7.629e-06,0,0.001186,0.001215,11.84,0.05494,0,0,0.0005655
208500000000,208800000000,2916102644,0,351598898,0.0001144,0.0002928,0.00388,0.0001373,0.0003643,0.0003004,0,0,0.0007629,7.153e-05,8.198,0.03646,0,0,0.0001402
208800000000,209100000000,2916102644,0,351598898,0.0001106,0.0002909,0.00388,0.0001373,0.0003643,0.0002947,0,0,0.000596,7.153e-05,8.357,0.03768,0,0,6.962e-05
209100000000,209400000000,2916102644,0,351598898,0.0001049,0.0002899,0.00388,0.0001373,0.0003643,0.0002937,0,0,0.0004234,0,8.05,0.03763,0,0,6.199e-05
209400000000,209700000000,2916102644,0,351598898,0.0001078,0.000288,0.003868,0.0001955,0.0004225,0.0002975,0,0,0.0004053,7.153e-05,9.125,0.04296,0,0,5.436e-05
209700000000,210000000000,2916102644,0,351598898,0.0001087,0.0002708,0.00388,0.0002518,0.0004778,0.0002747,0,0,0.0004683,0,9.256,0.044,0,0,5.722e-05
210000000000,210300000000,2916102644,0,351598898,0.0001087,0.0002718,0.00388,0.0002518,0.0004778,0.0002756,0,0,0.0006332,7.153e-05,10.23,0.04685,0,0,8.202e-05
210300000000,210600000000,2916102644,0,351598898,0.0001192,0.0002775,0.00388,0.0001831,0.0004101,0.000289,9.537e-07,0,0.0003185,0.0002861,8.003,0.03036,0,0,5.15e-05
210600000000,210900000000,2916102644,0,351598898,0.0001202,0.0002728,0.00388,0.0001354,0.0003624,0.0002785,0,0,0.0003605,7.153e-05,7.665,0.02861,0,0,0.0001497
210900000000,211200000000,2916102644,0,351598898,0.0001192,0.0002708,0.00388,0.0001354,0.0003624,0.0002775,0,0,0.000494,0,7.353,0.02749,0,0,5.627e-05
211200000000,211500000000,2916102644,0,351598898,0.0001202,0.0002794,0.00388,0.0001354,0.0003624,0.000288,2.861e-06,0,0.0005827,7.153e-05,5.635,0.02122,0,0,0.0001135
211500000000,211800000000,2916102644,0,351598898,0.0001307,0.0002775,0.00388,0.0001354,0.0003624,0.0002909,8.583e-06,0,0.0003996,0.0009995,5.775,0.02299,0,0,0.0002041
211800000000,212100000000,2916102644,0,351598898,0.000123,0.0002689,0.00388,0.0001354,0.0003624,0.0002737,9.537e-07,0,0.0004759,7.153e-05,10.1,0.04441,0,0,9.346e-05
212100000000,212400000000,2916102644,0,351598898,0.0001259,0.0002651,0.00388,0.0001354,0.0003624,0.000268,0,0,0.0004683,7.153e-05,9.01,0.03817,0,0,6.104e-05
212400000000,212700000000,2916102644,0,351598898,0.0001144,0.0002642,0.00388,0.0001354,0.0003624,0.000268,0,0,0.0004148,7.153e-05,7.845,0.03395,0,0,8.392e-05
212700000000,213000000000,2916102644,0,351598898,0.0001144,0.0002623,0.00388,0.0001354,0.0003624,0.000267,0,0,0.0003967,0,7.715,0.0332,0,0,4.005e-05
213000000000,213300000000,2916102644,0,351598898,0.0001097,0.0002651,0.00388,0.0001354,0.0003624,0.0002699,3.815e-06,0,0.0003967,0.0007858,7.863,0.03396,0,0,9.823e-05
213300000000,213600000000,2916102644,0,351598898,9.918e-05,0.0002632,0.00388,0.0001354,0.0003624,0.0002689,0,0,0.0006618,0,7.447,0.03189,0,0,1.335e-05
213600000000,213900000000,2916102644,0,351598898,9.632e-05,0.0002632,0.00388,0.0001354,0.0003624,0.000267,0,0,0.0006895,7.153e-05,8.145,0.0369,0,0,0.0001993
213900000000,214200000000,2916102644,0,351598898,9.632e-05,0.0002613,0.00388,0.0001354,0.0003624,0.0002651,0,0,0.0006943,0,8.482,0.03886,0,0,8.488e-05
214200000000,214500000000,2916102644,0,351598898,9.251e-05,0.0002632,0.00388,0.0001354,0.0003624,0.0002689,9.537e-07,0,0.0007143,0.0001431,8.307,0.03796,0,0,0.0002422
214500000000,214800000000,2916102644,0,351598898,9.537e-05,0.0002623,0.00388,0.0001354,0.0003624,0.000268,0,0,0.0007534,7.153e-05,8.659,0.0397,0,0,0.0007534
214800000000,215100000000,2916102644,0,351598898,9.251e-05,0.0002623,0.00388,0.0001354,0.0003624,0.0002651,0,0,0.0007372,7.153e-05,7.138,0.03195,0,0,4.482e-05
215100000000,215400000000,2916102644,0,351598898,9.632e-05,0.0002661,0.00388,0.0001354,0.0003624,0.0002699,9.537e-07,0,0.0007238,7.153e-05,7.911,0.03634,0,0,4.768e-05
215400000000,215700000000,2916102644,0,351598898,9.441e-05,0.0002708,0.00388,0.0001354,0.0003624,0.0002832,9.537e-07,0,0.0007172,7.153e-05,8.053,0.0364,0,0,5.054e-05
215700000000,216000000000,2916102644,0,351598898,9.727e-05,0.0002623,0.00388,0.0001354,0.0003624,0.000267,0,0,0.0009212,7.153e-05,9.573,0.0437,0,0,5.245e-05
216000000000,216300000000,2916102644,0,351598898,9.918e-05,0.0002604,0.00388,0.0001354,0.0003624,0.0002642,0,0,0.0007401,7.153e-05,8.175,0.03568,0,0,4.959e-05
221100000000,221400000000,2916102644,0,351598898,0.0001106,0.0002642,0.00386,0.0001354,0.0003624,0.0002737,0,0,0.001287,0,20.76,0.1011,0,0,5.341e-05
221400000000,221700000000,2916102644,0,351598898,0.000103,0.0002728,0.00388,0.0001345,0.0003614,0.0002785,0,0,0.0005522,7.153e-05,14.67,0.07153,0,0,0.0001354
221700000000,222000000000,2916102644,0,351598898,0.000102,0.0002718,0.00388,0.0001345,0.0003614,0.0002747,9.537e-07,0,0.000495,0.0001431,15.48,0.0771,0,0,0.0001936
222000000000,222300000000,2916102644,0,351598898,0.0001078,0.0002718,0.00388,0.0001345,0.0003614,0.0002756,0,0,0.0007105,7.153e-05,13.38,0.06515,0,0,0.0001659
222300000000,222600000000,2916102644,0,351598898,0.0001106,0.0002699,0.00388,0.0001345,0.0003614,0.0002728,0,0,0.0006266,0,11.59,0.05545,0,0,7.057e-05
222600000000,222900000000,2916102644,0,351598898,0.0001068,0.0002708,0.00388,0.0001345,0.0003614,0.0002756,0,0,0.0003548,7.153e-05,12.26,0.05989,0,0,5.436e-05
222900000000,223200000000,2916102644,0,351598898,0.0001059,0.0002699,0.00388,0.0001345,0.0003614,0.0002737,0,0,0.0004053,0,10.55,0.05055,0,0,6.39e-05
223200000000,223500000000,2916102644,0,351598898,0.0001068,0.0002708,0.00388,0.0001345,0.0003614,0.0002747,0,0,0.0004101,7.153e-05,12.91,0.06318,0,0,0.0001545
223500000000,223800000000,2916102644,0,351598898,0.0001125,0.0002689,0.00388,0.0001345,0.0003614,0.0002737,0,0,0.0004578,0,22.26,0.1113,0,0,6.485e-05
223800000000,224100000000,2916102644,0,351598898,0.0001163,0.0002708,0.00388,0.0001345,0.0003614,0.0002747,1.907e-06,0,0.0006332,0.0004997,13.16,0.06211,0,0,0.0001726
224100000000,224400000000,2916102644,0,351598898,0.0001135,0.0002718,0.00388,0.0001345,0.0003614,0.0002766,0,0,0.001047,0,12.54,0.06014,0,0,4.959e-05
224400000000,224700000000,2916102644,0,351598898,0.0001116,0.0002785,0.00388,0.0001345,0.0003614,0.0002832,5.722e-06,0,0.002308,0.0007858,6.087,0.0265,0,0,0.0003262
224700000000,225000000000,2916102644,0,351598898,0.0001125,0.0002775,0.00388,0.0001345,0.0003614,0.0002832,2.861e-06,0,0.0007381,0.0004282,10.61,0.04986,0,0,5.245e-05
225000000000,225300000000,2916102644,0,351598898,0.0001097,0.0002785,0.00388,0.0001354,0.0003614,0.0002842,3.815e-06,0,0.0007324,0.0006428,5.913,0.02627,0,0,3.815e-05
225300000000,225600000000,2916102644,0,351598898,0.0001125,0.0002737,0.00388,0.0001354,0.0003614,0.0002823,1.907e-06,0,0.0004549,0.0002146,12.72,0.06064,0,0,8.488e-05
225600000000,225900000000,2916102644,0,351598898,0.0001144,0.0002718,0.00388,0.0001354,0.0003614,0.0002737,0,0,0.0005503,7.153e-05,11.17,0.05221,0,0,0.0001526
225900000000,226200000000,2916102644,0,351598898,0.0001116,0.0002699,0.00388,0.0001354,0.0003614,0.0002737,0,0,0.0008144,7.153e-05,11.14,0.05189,0,0,4.387e-05
226200000000,226500000000,2916102644,0,351598898,0.0001163,0.0002766,0.00388,0.0001354,0.0003614,0.0002851,2.861e-06,0,0.0006313,0.0003567,6.051,0.02651,0,0,6.58e-05
226500000000,226800000000,2916102644,0,351598898,0.000124,0.0002804,0.00388,0.0001354,0.0003614,0.0002871,1.907e-06,0,0.0007238,0.0001431,9.012,0.04048,0,0,7.439e-05
226800000000,227100000000,2916102644,0,351598898,0.0001268,0.0002737,0.00388,0.0001354,0.0003614,0.0002775,9.537e-07,0,0.0006599,0.0001431,12.54,0.05966,0,0,7.629e-05
227100000000,227400000000,2916102644,0,351598898,0.0001316,0.0002747,0.00388,0.0001354,0.0003614,0.0002794,1.907e-06,0,0.0006676,0.0002146,12.67,0.05902,0,0,6.008e-05
227400000000,227700000000,2916102644,0,351598898,0.0001326,0.0002718,0.00388,0.0001354,0.0003614,0.0002766,0,0,0.0008287,7.153e-05,12.91,0.05921,0,0,0.0001211
227700000000,228000000000,2916102644,0,351598898,0.0001373,0.0002689,0.00388,0.0001354,0.0003614,0.0002718,0,0,0.001053,7.153e-05,10.94,0.04998,0,0,0.0001268
228000000000,228300000000,2916102644,0,351598898,0.0001335,0.0002699,0.00388,0.0001354,0.0003614,0.0002737,2.861e-06,0,0.0006895,0.0006428,11.13,0.0505,0,0,0.0001249
228300000000,228600000000,2916102644,0,351598898,0.0001221,0.0002689,0.00388,0.0001354,0.0003614,0.0002737,0,0,0.0006905,0,9.802,0.04383,0,0,8.583e-05
228600000000,228900000000,2916102644,0,351598898,0.0001202,0.0002708,0.00388,0.0001354,0.0003614,0.0002728,9.537e-07,0,0.0004663,7.153e-05,9.157,0.04115,0,0,0.0001097
228900000000,229200000000,2916102644,0,351598898,0.0001259,0.000267,0.00388,0.0001354,0.0003614,0.0002699,0,0,0.0005465,0,11.25,0.05135,0,0,0.0001125
229200000000,229500000000,2916102644,0,351598898,0.0001183,0.0002689,0.00388,0.0001354,0.0003614,0.0002728,0,0,0.0005245,7.153e-05,10.23,0.0479,0,0,0.0003242
229500000000,229800000000,2916102644,0,351598898,0.0001135,0.000267,0.00388,0.0001354,0.0003614,0.0002708,0,0,0.0005989,0,10.12,0.04848,0,0,0.0001307
229800000000,230100000000,2916102644,0,351598898,0.0001078,0.0002689,0.00388,0.0001354,0.0003614,0.0002756,2.861e-06,0,0.00107,0.0008574,11.7,0.05787,0,0,0.0007248
230100000000,230400000000,2916102644,0,351598898,0.0001106,0.000268,0.00388,0.0001354,0.0003614,0.0002747,0,0,0.001385,0,11.02,0.05362,0,0,5.436e-05
230400000000,230700000000,2916102644,0,351598898,0.0001221,0.0002689,0.00388,0.0001354,0.0003614,0.0002728,0,0,0.0007887,7.153e-05,9.959,0.04151,0,0,0.0005531
230700000000,231000000000,2916102644,0,351598898,0.000123,0.000267,0.00388,0.0001354,0.0003614,0.0002708,0,0,0.0008526,0,9.371,0.03759,0,0,0.000124
231000000000,231300000000,2916102644,0,351598898,0.000123,0.0002699,0.00388,0.0001354,0.0003614,0.0002813,9.537e-07,0,0.0008907,0.0001431,9.977,0.04057,0,0,0.0005751
231300000000,231600000000,2916102644,0,351598898,0.0001221,0.0002718,0.00388,0.0001354,0.0003614,0.0002794,1.907e-06,0,0.0008974,0.0002146,10.9,0.04447,0,0,7.248e-05
231600000000,231900000000,2916102644,0,351598898,0.000124,0.0002699,0.00388,0.0001354,0.0003624,0.0002756,9.537e-07,0,0.001013,7.153e-05,9.955,0.04065,0,0,8.678e-05
231900000000,232200000000,2916102644,0,351598898,0.0001316,0.0002708,0.00388,0.0001354,0.0003624,0.0002832,0,0,0.001139,0,10.07,0.04118,0,0,0.0001173
232200000000,232500000000,2916102644,0,351598898,0.0001287,0.000268,0.00388,0.0001354,0.0003624,0.0002728,0,0,0.0006247,7.153e-05,11.02,0.04516,0,0,0.0005054
232500000000,232800000000,2916102644,0,351598898,0.000124,0.0002632,0.00388,0.0001354,0.0003624,0.0002661,0,0,0.0006733,0,11.04,0.04895,0,0,5.722e-05
232800000000,233100000000,2916102644,0,351598898,0.0001163,0.0002651,0.00388,0.0001354,0.0003624,0.0002689,1.907e-06,0,0.0006819,0.0006428,11.34,0.05127,0,0,9.06e-05
233100000000,233400000000,2916102644,0,351598898,0.0001163,0.0002632,0.00388,0.0001354,0.0003624,0.0002661,0,0,0.000658,7.153e-05,9.935,0.04348,0,0,7.82e-05
233400000000,233700000000,2916102644,0,351598898,0.0001202,0.0002642,0.00388,0.0001354,0.0003624,0.000267,1.907e-06,0,0.0006514,0.0006428,9.088,0.03851,0,0,0.000185
233700000000,234000000000,2916102644,0,351598898,0.0001106,0.0002632,0.00388,0.0001354,0.0003624,0.0002661,0,0,0.000742,7.153e-05,9.255,0.04021,0,0,9.251e-05
234000000000,234300000000,2916102644,0,351598898,0.0001078,0.0002632,0.00388,0.0001354,0.0003624,0.000267,0,0,0.0007267,7.153e-05,8.064,0.03426,0,0,6.008e-05
234300000000,234600000000,2916102644,0,351598898,0.0001059,0.0002613,0.00388,0.0001354,0.0003624,0.0002651,0,0,0.0005541,0,8.516,0.03709,0,0,3.433e-05
234600000000,234900000000,2916102644,0,351598898,0.0001049,0.0002632,0.00388,0.0001354,0.0003624,0.0002661,0,0,0.0004692,7.153e-05,9.017,0.03985,0,0,6.485e-05
234900000000,235200000000,2916102644,0,351598898,0.0001049,0.0002613,0.00388,0.0001354,0.0003624,0.0002651,0,0,0.0005951,0,8.753,0.03816,0,0,0.0001278
235200000000,235500000000,2916102644,0,351598898,0.0001049,0.0002632,0.00388,0.0001354,0.0003624,0.0002689,1.907e-06,0,0.001188,0.0004282,9.741,0.04337,0,0,5.15e-05
235500000000,235800000000,2916102644,0,351598898,0.0001087,0.0002604,0.00388,0.0001354,0.0003624,0.0002651,0,0,0.0005083,0,8.762,0.03736,0,0,5.341e-05
235800000000,236100000000,2916102644,0,351598898,0.0001125,0.0002651,0.00388,0.0001354,0.0003624,0.0002775,9.537e-07,0,0.0007324,7.153e-05,7.923,0.03321,0,0,6.676e-05
236100000000,236400000000,2916102644,0,351598898,0.0001068,0.000268,0.00388,0.0001354,0.0003624,0.0002737,1.907e-06,0,0.000761,7.153e-05,8.968,0.03862,0,0,3.433e-05
241200000000,241500000000,2916102644,0,351598898,0.0001049,0.0002613,0.00388,0.0001354,0.0003624,0.000267,9.537e-07,0,0.001171,0.0002146,9.615,0.04342,0,0,7.248e-05
241500000000,241800000000,2916102644,0,351598898,0.0001087,0.0002604,0.00388,0.0001354,0.0003624,0.0002699,0,0,0.001234,0,9.736,0.04273,0,0,6.962e-05
241800000000,242100000000,2916102644,0,351598898,0.000104,0.0002689,0.00388,0.0001354,0.0003624,0.0002728,1.907e-06,0,0.001259,7.153e-05,9.142,0.04086,0,0,4.768e-05
242100000000,242400000000,2916102644,0,351598898,0.0001049,0.0002623,0.00388,0.0001354,0.0003624,0.000267,0,0,0.0003777,7.153e-05,8.661,0.03831,0,0,0.0001774
242400000000,242700000000,2916102644,0,351598898,0.0001068,0.000268,0.00388,0.0001354,0.0003624,0.0002871,9.537e-07,0,0.000391,7.153e-05,6.057,0.02524,0,0,9.918e-05
242700000000,243000000000,2916102644,0,351598898,0.000104,0.000268,0.00388,0.0001354,0.0003624,0.0002842,9.537e-07,0,0.0003986,0.0002146,9.045,0.03981,0,0,0.0001192
243000000000,243300000000,2916102644,0,351598898,0.000104,0.0002642,0.00388,0.0001354,0.0003624,0.000268,9.537e-07,0,0.0004568,7.153e-05,9.637,0.04306,0,0,6.58e-05
243300000000,243600000000,2916102644,0,351598898,0.0001011,0.0002604,0.00388,0.0001354,0.0003624,0.0002642,0,0,0.001387,0,7.642,0.03325,0,0,6.39e-05
243600000000,243900000000,2916102644,0,351598898,0.0001078,0.0002623,0.00388,0.0001354,0.0003624,0.0002651,9.537e-07,0,0.001362,7.153e-05,9.035,0.03967,0,0,3.815e-05
243900000000,244200000000,2916102644,0,351598898,0.0001106,0.0002604,0.00388,0.0001354,0.0003624,0.0002642,0,0,0.00145,0,10.21,0.04562,0,0,4.673e-05
244200000000,244500000000,2916102644,0,351598898,0.0001125,0.0002623,0.00388,0.0001354,0.0003624,0.000268,9.537e-07,0,0.001127,7.153e-05,10.71,0.04826,0,0,8.488e-05
244500000000,244800000000,2916102644,0,351598898,0.0001135,0.0002604,0.00388,0.0001354,0.0003624,0.000267,0,0,0.001532,0,10.35,0.04554,0,0,0.0001326
244800000000,245100000000,2916102644,0,351598898,0.0001106,0.0002613,0.00388,0.0001354,0.0003624,0.0002651,0,0,0.001427,7.153e-05,8.779,0.03868,0,0,7.534e-05
245100000000,245400000000,2916102644,0,351598898,0.0001144,0.0002594,0.00388,0.0001354,0.0003624,0.0002632,0,0,0.001675,0,9.308,0.04101,0,0,6.58e-05
245400000000,245700000000,2916102644,0,351598898,0.0001106,0.0002613,0.00388,0.0001354,0.0003624,0.0002651,0,0,0.0009117,7.153e-05,9.921,0.04417,0,0,4.768e-05
245700000000,246000000000,2916102644,0,351598898,0.0001106,0.0002594,0.00388,0.0001354,0.0003624,0.0002632,0,0,0.000679,0,9.705,0.04266,0,0,3.433e-05
246000000000,246300000000,2916102644,0,351598898,0.0001087,0.0002623,0.00388,0.0001354,0.0003624,0.000268,9.537e-07,0,0.0007591,7.153e-05,8.073,0.03466,0,0,0.0001812
251400000000,251700000000,2916102644,0,351598898,0.0001173,0.0002604,0.00388,0.0001364,0.0003624,0.0002651,9.537e-07,0,0.0008078,7.153e-05,8.782,0.0387,0,0,5.627e-05
251700000000,252000000000,2916102644,0,351598898,0.0001116,0.0002604,0.00388,0.0001364,0.0003624,0.0002651,0,0,0.001068,7.153e-05,7.246,0.03258,0,0,0.0001326
252000000000,252300000000,2916102644,0,351598898,0.000104,0.0002604,0.00388,0.0001364,0.0003624,0.0002642,0,0,0.000967,7.153e-05,8.504,0.03935,0,0,4.578e-05
252300000000,252600000000,2916102644,0,351598898,0.0001011,0.0002584,0.00388,0.0001364,0.0003633,0.0002632,0,0,0.001501,0,8.37,0.0392,0,0,0.000104
252600000000,252900000000,2916102644,0,351598898,9.346e-05,0.0002613,0.00388,0.0001364,0.0003633,0.000267,0,0,0.0007315,7.153e-05,8.439,0.04069,0,0,0.0005503
252900000000,253200000000,2916102644,0,351598898,9.441e-05,0.0002632,0.00388,0.0001364,0.0003633,0.000268,9.537e-07,0,0.0007505,7.153e-05,5.46,0.02491,0,0,7.534e-05
253200000000,253500000000,2916102644,0,351598898,0.000102,0.0002718,0.00388,0.0001364,0.0003633,0.0002832,2.861e-06,0,0.0008154,0.0004282,8.375,0.03856,0,0,0.0001087
253500000000,253800000000,2916102644,0,351598898,9.727e-05,0.0002623,0.00388,0.0001364,0.0003633,0.0002756,1.907e-06,0,0.0008345,0.0002861,8.198,0.03772,0,0,6.008e-05
253800000000,254100000000,2916102644,0,351598898,9.537e-05,0.0002613,0.00388,0.0001364,0.0003633,0.0002661,0,0,0.0006504,7.153e-05,8.078,0.03717,0,0,0.0002022
254100000000,254400000000,2916102644,0,351598898,9.632e-05,0.0002594,0.00388,0.0001364,0.0003633,0.0002623,0,0,0.0007868,7.153e-05,7.679,0.03475,0,0,6.008e-05
254400000000,254700000000,2916102644,0,351598898,9.727e-05,0.0002594,0.00388,0.0001364,0.0003633,0.0002632,0,0,0.001013,7.153e-05,8.628,0.03871,0,0,0.000144
254700000000,255000000000,2916102644,0,351598898,9.537e-05,0.0002594,0.00388,0.0001364,0.0003633,0.0002623,0,0,0.00116,7.153e-05,8.012,0.03602,0,0,6.39e-05
255000000000,255300000000,2916102644,0,351598898,9.441e-05,0.0002604,0.00388,0.0001364,0.0003633,0.0002642,0,0,0.001328,7.153e-05,7.607,0.034,0,0,3.529e-05
255300000000,255600000000,2916102644,0,351598898,9.537e-05,0.0002584,0.00388,0.0001364,0.0003633,0.0002632,0,0,0.001314,7.153e-05,7.867,0.03614,0,0,5.245e-05
255600000000,255900000000,2916102644,0,351598898,0.0001049,0.000268,0.00388,0.0001364,0.0003633,0.0002737,1.907e-06,0,0.00141,7.153e-05,5.81,0.02497,0,0,0.000145
255900000000,256200000000,2916102644,0,351598898,0.0001068,0.0002632,0.00388,0.0001364,0.0003633,0.000267,9.537e-07,0,0.001421,7.153e-05,9.468,0.04243,0,0,7.82e-05
256200000000,256500000000,2916102644,0,351598898,0.000102,0.0002623,0.00388,0.0001364,0.0003633,0.000267,9.537e-07,0,0.0009384,7.153e-05,7.878,0.03476,0,0,9.155e-05
256500000000,256800000000,2916102644,0,351598898,9.918e-05,0.0002594,0.00388,0.0001364,0.0003633,0.0002642,0,0,0.0006742,0,9.072,0.04167,0,0,6.58e-05
256800000000,257100000000,2916102644,0,351598898,0.000102,0.0002623,0.00388,0.0001364,0.0003633,0.000268,9.537e-07,0,0.0007076,7.153e-05,8.497,0.03859,0,0,6.008e-05
257100000000,257400000000,2916102644,0,351598898,0.000102,0.0002594,0.00388,0.0001364,0.0003633,0.0002632,0,0,0.0006733,0,9.296,0.04229,0,0,0.000145
257400000000,257700000000,2916102644,0,351598898,0.0001011,0.0002604,0.00388,0.0001364,0.0003633,0.0002642,0,0,0.0006723,7.153e-05,8.407,0.0374,0,0,0.0001087
257700000000,258000000000,2916102644,0,351598898,0.0001068,0.0002584,0.00388,0.0001364,0.0003633,0.0002623,0,0,0.000679,0,8.173,0.03631,0,0,8.678e-05
258000000000,258300000000,2916102644,0,351598898,0.0001049,0.0002623,0.00388,0.0001364,0.0003633,0.0002651,9.537e-07,0,0.0006428,7.153e-05,8.687,0.03897,0,0,0.0004082
258300000000,258600000000,2916102644,0,351598898,0.0001097,0.0002642,0.00388,0.0001364,0.0003633,0.0002747,0,0,0.0009975,0,8.408,0.03638,0,0,5.817e-05
259200000000,259500000000,2916102644,0,2098371268,0.0001535,0.0002937,0.00388,0.0001421,0.00037,0.0002995,9.537e-07,0,0.0005617,0.0001431,5.954,0.02449,0,0,9.727e-05
259500000000,259800000000,2916102644,0,2098371268,0.0001545,0.0002947,0.00388,0.0001421,0.00037,0.0003052,9.537e-07,0,0.0004683,7.153e-05,8.514,0.03596,0,0,0.0001087
259800000000,260100000000,2916102644,0,2098371268,0.0001554,0.0002909,0.00388,0.0001421,0.00037,0.0003023,9.537e-07,0,0.0006428,0.0001431,8.671,0.03723,0,0,6.199e-05
260100000000,260400000000,2916102644,0,2098371268,0.0001554,0.0002794,0.00388,0.0001421,0.00037,0.0002871,0,0,0.0006008,0,9.314,0.04061,0,0,9.632e-05
260400000000,260700000000,2916102644,0,2098371268,0.000123,0.0002861,0.00388,0.0001421,0.00037,0.0002937,3.815e-06,0,0.0008421,0.0002861,9.121,0.03897,0,0,5.15e-05
260700000000,261000000000,2916102644,0,2098371268,0.0001001,0.0002775,0.00388,0.0001421,0.000371,0.0002794,0,0,0.0003529,0,6.648,0.02699,0,0,7.82e-05
261000000000,261300000000,2916102644,0,2098371268,0.0001001,0.0002794,0.00388,0.0001421,0.000371,0.0002823,0,0,0.0003366,7.153e-05,6.49,0.02715,0,0,4.673e-05
261300000000,261600000000,2916102644,0,2098371268,9.632e-05,0.0002785,0.00388,0.0001421,0.000371,0.0002813,0,0,0.0002174,7.153e-05,6.518,0.02759,0,0,3.624e-05
261600000000,261900000000,2916102644,0,2098371268,9.537e-05,0.0002775,0.00388,0.0001421,0.000371,0.0002813,0,0,0.000515,7.153e-05,6.653,0.02781,0,0,0.0001583
261900000000,262200000000,2916102644,0,2098371268,0.0001001,0.0002785,0.00388,0.0001421,0.000371,0.000289,9.537e-07,0,0.0004721,7.153e-05,4.363,0.01662,0,0,6.39e-05
262200000000,262500000000,2916102644,0,2098371268,0.0001001,0.0002832,0.00388,0.0001421,0.000371,0.0002851,1.907e-06,0,0.0004311,0.0001431,7.13,0.03009,0,0,0.0003347
262500000000,262800000000,2916102644,0,2098371268,9.823e-05,0.0002766,0.00388,0.0001421,0.000371,0.0002794,0,0,0.0004482,7.153e-05,6.801,0.02992,0,0,4.196e-05
262800000000,263100000000,2916102644,0,2098371268,0.0001011,0.0002813,0.00388,0.0001421,0.000371,0.0002899,1.907e-06,0,0.0004787,0.0001431,6.903,0.02949,0,0,4.578e-05
263100000000,263400000000,2916102644,0,2098371268,0.0001001,0.0002785,0.00388,0.0001421,0.000371,0.0002842,9.537e-07,0,0.0002556,7.153e-05,6.023,0.02438,0,0,8.583e-05
263400000000,263700000000,2916102644,0,2098371268,9.823e-05,0.0002766,0.00388,0.0001421,0.000371,0.0002813,9.537e-07,0,0.0004215,0.0001431,6.793,0.02826,0,0,4.959e-05
263700000000,264000000000,2916102644,0,2098371268,0.0001011,0.0002718,0.00388,0.0001421,0.000371,0.0002775,0,0,0.0004215,0,6.675,0.02772,0,0,4.196e-05
264000000000,264300000000,2916102644,0,2098371268,0.0001068,0.0002756,0.00388,0.0001421,0.000371,0.0002766,9.537e-07,0,0.0004091,0.0001431,7.318,0.03082,0,0,8.488e-05
264300000000,264600000000,2916102644,0,2098371268,9.823e-05,0.0002708,0.00388,0.0001421,0.000371,0.0002718,0,0,0.0005426,0,7.033,0.02983,0,0,4.387e-05
264600000000,264900000000,2916102644,0,2098371268,9.918e-05,0.0002737,0.00388,0.0001421,0.000371,0.0002766,1.907e-06,0,0.0006056,0.0006428,6.584,0.02686,0,0,4.196e-05
264900000000,265200000000,2916102644,0,2098371268,9.823e-05,0.0002728,0.00388,0.0001421,0.000371,0.0002766,0,0,0.0005226,0,6.594,0.02773,0,0,3.338e-05
265200000000,265500000000,2916102644,0,2098371268,9.918e-05,0.0002813,0.00388,0.0001421,0.000371,0.0002956,1.907e-06,0,0.00037,0.0001431,7.054,0.02985,0,0,3.91e-05
265500000000,265800000000,2916102644,0,2098371268,9.823e-05,0.0002747,0.00388,0.0001421,0.000371,0.0002861,0,0,0.0004511,7.153e-05,6.704,0.02824,0,0,6.771e-05
265800000000,266100000000,2916102644,0,2098371268,0.0001049,0.0002794,0.00388,0.0001421,0.000371,0.0002871,1.907e-06,0,0.0005016,0.0001431,5.238,0.02119,0,0,0.000102
266100000000,266400000000,2916102644,0,2098371268,0.0001011,0.0002794,0.00388,0.0001421,0.000371,0.0002832,9.537e-07,0,0.0004997,7.153e-05,6.379,0.02674,0,0,5.436e-05
266400000000,266700000000,2916102644,0,2098371268,9.727e-05,0.0002785,0.00388,0.0001421,0.000371,0.0002813,1.907e-06,0,0.0003929,0.0001431,6.158,0.02535,0,0,5.245e-05
266700000000,267000000000,2916102644,0,2098371268,9.727e-05,0.0002728,0.00388,0.0001421,0.000371,0.0002766,0,0,0.0003729,7.153e-05,6.267,0.02624,0,0,5.436e-05
267000000000,267300000000,2916102644,0,2098371268,9.823e-05,0.0002785,0.00388,0.0001421,0.000371,0.0002842,2.861e-06,0,0.0004435,0.0004282,6.921,0.02932,0,0,0.0001059
267300000000,267600000000,2916102644,0,2098371268,9.918e-05,0.0002728,0.00388,0.0001421,0.000371,0.0002756,0,0,0.0004263,7.153e-05,5.895,0.02391,0,0,8.678e-05
267600000000,267900000000,2916102644,0,2098371268,9.823e-05,0.0002737,0.00388,0.0001421,0.000371,0.0002785,9.537e-07,0,0.000412,0.0001431,6.211,0.02561,0,0,5.817e-05
267900000000,268200000000,2916102644,0,2098371268,9.727e-05,0.0002699,0.00388,0.0001421,0.000371,0.0002708,0,0,0.001669,0,6.796,0.02849,0,0,8.488e-05
268200000000,268500000000,2916102644,0,2098371268,9.632e-05,0.0002737,0.00388,0.0001421,0.000371,0.0002747,9.537e-07,0,0.0003824,0.0001431,6.425,0.02671,0,0,6.39e-05
268500000000,268800000000,2916102644,0,2098371268,9.727e-05,0.0002689,0.00388,0.0001421,0.000371,0.0002699,0,0,0.0004492,0,7.205,0.03105,0,0,9.155e-05
268800000000,269100000000,2916102644,0,2098371268,9.632e-05,0.0002708,0.00388,0.0001421,0.000371,0.0002747,0,0,0.0003805,7.153e-05,6.529,0.02707,0,0,8.869e-05
269100000000,269400000000,2916102644,0,2098371268,9.346e-05,0.0002699,0.00388,0.0001421,0.000371,0.0002728,0,0,0.0003185,7.153e-05,6.671,0.02849,0,0,5.341e-05
269400000000,269700000000,2916102644,0,2098371268,9.632e-05,0.0002699,0.00388,0.0001421,0.000371,0.0002737,0,0,0.0004826,7.153e-05,6.627,0.02817,0,0,7.153e-05
269700000000,270000000000,2916102644,0,2098371268,9.727e-05,0.0002689,0.00388,0.0001421,0.000371,0.0002747,0,0,0.0003805,0,6.055,0.02502,0,0,7.439e-05
270000000000,270300000000,2916102644,0,2098371268,9.632e-05,0.0002747,0.00388,0.0001421,0.000371,0.0002766,1.907e-06,0,0.0004654,0.0001431,6.421,0.02691,0,0,6.104e-05
270300000000,270600000000,2916102644,0,2098371268,9.537e-05,0.0002756,0.00388,0.0001421,0.000371,0.000289,0,0,0.00037,7.153e-05,6.647,0.02802,0,0,6.962e-05
270600000000,270900000000,2916102644,0,2098371268,9.537e-05,0.0002737,0.00388,0.0001421,0.000371,0.0002861,0,0,0.0003138,7.153e-05,7.264,0.03105,0,0,5.436e-05
270900000000,271200000000,2916102644,0,2098371268,9.823e-05,0.0002699,0.00388,0.0001421,0.000371,0.0002785,0,0,0.0003805,7.153e-05,5.95,0.02451,0,0,0.0001163
271200000000,271500000000,2916102644,0,2098371268,9.727e-05,0.0002699,0.00388,0.0001421,0.000371,0.0002728,0,0,0.0004225,7.153e-05,7.052,0.03016,0,0,8.106e-05
281400000000,281700000000,2916102644,0,2098371268,8.774e-05,0.0002699,0.00388,0.0001431,0.000371,0.0002813,0,0,0.0006914,7.153e-05,5.006,0.02055,0,0,0.0005856
281700000000,282000000000,2916102644,0,2098371268,8.965e-05,0.000268,0.00388,0.0001431,0.000371,0.0002794,0,0,0.0008755,7.153e-05,5.862,0.02445,0,0,4.578e-05
282000000000,282300000000,2916102644,0,2098371268,9.06e-05,0.000267,0.00388,0.0001431,0.000371,0.0002699,0,0,0.0008726,7.153e-05,5.345,0.0222,0,0,0.0005636
282300000000,282600000000,2916102644,0,2098371268,9.346e-05,0.0002642,0.00388,0.0001431,0.000371,0.0002661,0,0,0.000906,0,5.801,0.02474,0,0,3.338e-05
282600000000,282900000000,2916102644,0,2098371268,9.823e-05,0.000267,0.00388,0.0001431,0.000371,0.0002699,0,0,0.0007019,7.153e-05,5.936,0.02441,0,0,5.15e-05
282900000000,283200000000,2916102644,0,2098371268,9.537e-05,0.0002642,0.00388,0.0001431,0.000371,0.0002651,0,0,0.0007629,0,6.334,0.02638,0,0,3.338e-05
283200000000,283500000000,2916102644,0,2098371268,9.727e-05,0.000267,0.00388,0.0001431,0.000371,0.0002699,0,0,0.0008459,7.153e-05,6.168,0.02493,0,0,0.0005865
283500000000,283800000000,2916102644,0,2098371268,8.965e-05,0.0002642,0.00388,0.0001431,0.000371,0.0002661,0,0,0.0007744,0,5.59,0.02383,0,0,5.245e-05
283800000000,284100000000,2916102644,0,2098371268,8.869e-05,0.000268,0.00388,0.0001431,0.000371,0.0002728,0,0,0.0007734,0.0001431,5.213,0.02148,0,0,0.0005016
284100000000,284400000000,2916102644,0,2098371268,9.251e-05,0.0002642,0.00388,0.0001431,0.000371,0.0002661,0,0,0.0007687,0,6.014,0.02608,0,0,4.673e-05
284400000000,284700000000,2916102644,0,2098371268,9.06e-05,0.000267,0.00388,0.0001431,0.000371,0.0002699,0,0,0.0006723,7.153e-05,5.545,0.02327,0,0,0.0001221
284700000000,285000000000,2916102644,0,2098371268,9.346e-05,0.0002642,0.00388,0.0001431,0.000371,0.0002651,0,0,0.0007181,0,5.509,0.02222,0,0,5.531e-05
285000000000,285300000000,2916102644,0,2098371268,0.000102,0.0002661,0.00388,0.0001431,0.000371,0.0002699,0,0,0.01201,7.153e-05,6.105,0.02488,0,0,8.297e-05
285300000000,285600000000,2916102644,0,2098371268,9.823e-05,0.0002642,0.00388,0.0001431,0.000371,0.0002651,0,0,0.000926,0,5.874,0.02322,0,0,4.387e-05
285600000000,285900000000,2916102644,0,2098371268,9.823e-05,0.0002661,0.00388,0.0001431,0.000371,0.0002699,0,0,0.0006495,7.153e-05,6.027,0.02438,0,0,4.959e-05
285900000000,286200000000,2916102644,0,2098371268,9.918e-05,0.0002642,0.00388,0.0001431,0.000371,0.0002651,0,0,0.0007067,0,5.693,0.02233,0,0,7.915e-05
286200000000,286500000000,2916102644,0,2098371268,9.727e-05,0.0002699,0.00388,0.0001431,0.000371,0.0002785,9.537e-07,0,0.0006714,0.0001431,5.996,0.02444,0,0,0.0004425
286500000000,286800000000,2916102644,0,2098371268,9.346e-05,0.0002689,0.00388,0.0001431,0.000371,0.0002728,9.537e-07,0,0.0007181,7.153e-05,5.692,0.02317,0,0,4.196e-05
286800000000,287100000000,2916102644,0,2098371268,9.06e-05,0.0002689,0.00388,0.0001431,0.0003719,0.0002832,0,0,0.0005579,0.0001431,5.961,0.0251,0,0,3.815e-05
287100000000,287400000000,2916102644,0,2098371268,9.155e-05,0.0002699,0.00388,0.0001431,0.0003719,0.0002823,0,0,0.0006943,7.153e-05,5.348,0.02179,0,0,7.343e-05
287400000000,287700000000,2916102644,0,2098371268,8.965e-05,0.0002699,0.00388,0.0001431,0.0003719,0.0002766,0,0,0.000576,7.153e-05,5.517,0.02279,0,0,4.578e-05
287700000000,288000000000,2916102644,0,2098371268,9.537e-05,0.0002651,0.00388,0.0001431,0.0003719,0.0002689,0,0,0.0004387,7.153e-05,5.63,0.02319,0,0,6.485e-05
288000000000,288300000000,2916102644,0,2098371268,9.727e-05,0.000267,0.00388,0.0001431,0.0003719,0.0002699,0,0,0.0004244,7.153e-05,5.989,0.02509,0,0,5.722e-05
288300000000,288600000000,2916102644,0,2098371268,8.869e-05,0.0002642,0.00388,0.0001431,0.0003719,0.0002651,0,0,0.0006266,0,6.737,0.03095,0,0,8.297e-05
288600000000,288900000000,2916102644,0,2098371268,8.869e-05,0.0002661,0.00388,0.0001431,0.0003719,0.0002699,0,0,0.0004282,7.153e-05,6.964,0.03194,0,0,5.722e-05
288900000000,289200000000,2916102644,0,2098371268,9.346e-05,0.0002699,0.00388,0.0001431,0.0003719,0.0002747,9.537e-07,0,0.0004807,7.153e-05,5.992,0.02621,0,0,4.196e-05
289200000000,289500000000,2916102644,0,2098371268,9.06e-05,0.0002718,0.00388,0.0001431,0.0003719,0.0002747,1.907e-06,0,0.0003395,0.0001431,6.683,0.03044,0,0,6.39e-05
289500000000,289800000000,2916102644,0,2098371268,9.823e-05,0.000267,0.00388,0.0001431,0.0003719,0.0002699,0,0,0.0004721,7.153e-05,6.571,0.02944,0,0,5.245e-05
289800000000,290100000000,2916102644,0,2098371268,0.000104,0.000267,0.00388,0.0001431,0.0003719,0.0002699,0,0,0.0005035,7.153e-05,7.086,0.03095,0,0,6.676e-05
290100000000,290400000000,2916102644,0,2098371268,9.823e-05,0.0002661,0.00388,0.0001431,0.0003719,0.000268,0,0,0.0005169,7.153e-05,5.602,0.02307,0,0,0.0003014
290400000000,290700000000,2916102644,0,2098371268,9.441e-05,0.0002661,0.00388,0.0001431,0.0003719,0.0002699,9.537e-07,0,0.0004349,0.0001431,5.31,0.02158,0,0,8.202e-05
290700000000,291000000000,2916102644,0,2098371268,9.537e-05,0.0002642,0.00388,0.0001431,0.0003719,0.0002651,0,0,0.0005102,0,5.304,0.02203,0,0,4.768e-05
291000000000,291300000000,2916102644,0,2098371268,9.155e-05,0.000267,0.00388,0.0001431,0.0003719,0.0002728,9.537e-07,0,0.0004826,0.0001431,5.394,0.02272,0,0,8.869e-05
291300000000,291600000000,2916102644,0,2098371268,8.965e-05,0.0002632,0.00388,0.0001431,0.0003719,0.0002651,0,0,0.0003405,0,5.435,0.0228,0,0,3.338e-05
291600000000,291900000000,2916102644,0,2098371268,9.251e-05,0.0002651,0.00388,0.0001431,0.0003719,0.0002689,0,0,0.0004549,7.153e-05,5.666,0.02424,0,0,0.000185
291900000000,292200000000,2916102644,0,2098371268,9.727e-05,0.0002661,0.00388,0.0001431,0.0003719,0.0002804,0,0,0.0006266,0,5.109,0.02087,0,0,7.153e-05
292200000000,292500000000,2916102644,0,2098371268,9.441e-05,0.000268,0.00388,0.0001431,0.0003719,0.0002804,0,0,0.0003033,7.153e-05,5.282,0.02205,0,0,7.057e-05
292500000000,292800000000,2916102644,0,2098371268,9.441e-05,0.0002718,0.00388,0.0001431,0.0003719,0.0002766,9.537e-07,0,0.0004778,7.153e-05,4.973,0.02039,0,0,3.052e-05
292800000000,293100000000,2916102644,0,2098371268,9.537e-05,0.0002689,0.00388,0.0001431,0.0003719,0.0002728,9.537e-07,0,0.0007458,0.0001431,5.77,0.02425,0,0,0.000309
293100000000,293400000000,2916102644,0,2098371268,9.918e-05,0.0002651,0.00388,0.0001431,0.0003719,0.000268,0,0,0.0003977,7.153e-05,6.113,0.02575,0,0,3.147e-05
293400000000,293700000000,2916102644,0,2098371268,9.06e-05,0.0002651,0.00388,0.0001431,0.0003719,0.0002689,9.537e-07,0,0.0003281,0.0001431,5.891,0.02494,0,0,2.861e-05
293700000000,294000000000,2916102644,0,2098371268,9.06e-05,0.0002651,0.00388,0.0001431,0.0003719,0.000267,9.537e-07,0,0.0003986,0.0002146,5.721,0.02405,0,0,7.725e-05
294000000000,294300000000,2916102644,0,2098371268,9.155e-05,0.0002651,0.00388,0.0001431,0.0003719,0.000268,2.861e-06,0,0.0005159,0.0008574,5.771,0.02455,0,0,5.054e-05
294300000000,294600000000,2916102644,0,2098371268,9.155e-05,0.0002632,0.00388,0.0001431,0.0003719,0.0002642,0,0,0.0002937,0,5.697,0.02341,0,0,3.433e-05
294600000000,294900000000,2916102644,0,2098371268,9.06e-05,0.0002661,0.00388,0.0001431,0.0003719,0.0002718,9.537e-07,0,0.0003614,0.0001431,6.485,0.02754,0,0,5.341e-05
294900000000,295200000000,2916102644,0,2098371268,9.155e-05,0.0002632,0.00388,0.0001431,0.0003719,0.000268,0,0,0.0004549,0,5.863,0.02497,0,0,4.673e-05
295200000000,295500000000,2916102644,0,2098371268,8.774e-05,0.0002651,0.00388,0.0001431,0.0003719,0.0002689,0,0,0.0003939,7.153e-05,6.066,0.0257,0,0,3.433e-05
295500000000,295800000000,2916102644,0,2098371268,9.06e-05,0.0002632,0.00388,0.0001431,0.0003719,0.0002642,0,0,0.0003777,0,5.119,0.0208,0,0,3.242e-05
295800000000,296100000000,2916102644,0,2098371268,8.678e-05,0.0002651,0.00388,0.0001431,0.0003719,0.0002689,0,0,0.0002975,7.153e-05,5.165,0.02125,0,0,3.338e-05
296100000000,296400000000,2916102644,0,2098371268,9.06e-05,0.0002632,0.00388,0.0001431,0.0003719,0.0002642,0,0,0.0004129,0,6.548,0.02921,0,0,3.433e-05
296400000000,296700000000,2916102644,0,2098371268,9.155e-05,0.0002651,0.00388,0.0001431,0.0003719,0.000268,0,0,0.0002928,7.153e-05,6.523,0.0284,0,0,5.531e-05
296700000000,297000000000,2916102644,0,2098371268,9.155e-05,0.0002642,0.00388,0.0001431,0.0003719,0.000267,0,0,0.0004501,7.153e-05,6.625,0.02927,0,0,5.054e-05
297000000000,297300000000,2916102644,0,2098371268,9.06e-05,0.000267,0.00388,0.0001431,0.0003719,0.0002699,0,0,0.000349,7.153e-05,7.881,0.03517,0,0,8.392e-05
297300000000,297600000000,2916102644,0,2098371268,9.155e-05,0.0002623,0.00388,0.0001431,0.0003719,0.0002632,0,0,0.000309,0,8.009,0.03629,0,0,0.0001497
297600000000,297900000000,2916102644,0,2098371268,9.346e-05,0.0002651,0.00388,0.0001431,0.0003719,0.000268,0,0,0.0003767,7.153e-05,7.615,0.03445,0,0,6.39e-05
297900000000,298200000000,2916102644,0,2098371268,9.727e-05,0.000268,0.00388,0.0001431,0.0003719,0.0002794,0,0,0.0007114,0,7.05,0.0308,0,0,7.534e-05
298200000000,298500000000,2916102644,0,2098371268,9.632e-05,0.0002689,0.00388,0.0001431,0.0003719,0.0002756,0,0,0.0007172,7.153e-05,7.621,0.03324,0,0,0.0002165
298500000000,298800000000,2916102644,0,2098371268,9.823e-05,0.0002623,0.00388,0.0001431,0.0003719,0.0002642,0,0,0.0006294,0,7.591,0.0339,0,0,5.913e-05
298800000000,299100000000,2916102644,0,2098371268,9.537e-05,0.0002699,0.00388,0.0001431,0.0003719,0.0002756,1.907e-06,0,0.0004683,0.0002861,6.475,0.02849,0,0,7.725e-05
299100000000,299400000000,2916102644,0,2098371268,9.251e-05,0.0002651,0.00388,0.0001431,0.0003719,0.000268,0,0,0.0004444,7.153e-05,6.272,0.02747,0,0,5.245e-05
299400000000,299700000000,2916102644,0,2098371268,9.346e-05,0.0002661,0.00388,0.0001431,0.0003719,0.0002699,9.537e-07,0,0.0003414,0.0001431,6.89,0.03071,0,0,8.583e-05
299700000000,300000000000,2916102644,0,2098371268,9.251e-05,0.0002623,0.00388,0.0001431,0.0003719,0.0002642,0,0,0.0004187,0,6.809,0.02989,0,0,3.719e-05
