5700000000,6000000000,3007227894,0,463440447,0.0136,0.01648,0.01791,0.001045,0.001122,0.01666,0.0001125,9.632e-05,0.0589,0.003716,4.606,0.01717,0,1,0
6000000000,6300000000,3007227894,0,463440447,0.01451,0.01651,0.01846,0.001137,0.001209,0.0166,0.0001163,9.632e-05,0.07471,0.003784,4.74,0.01756,0,1,0
6300000000,6600000000,3007227894,0,463440447,0.01418,0.01651,0.01868,0.001143,0.001215,0.01657,0.0001068,9.632e-05,0.07703,0.003216,4.582,0.01666,0,1,0
6600000000,6900000000,3007227894,0,463440447,0.01488,0.01651,0.01846,0.001143,0.001213,0.0166,0.0001373,9.632e-05,0.02975,0.004715,4.534,0.01649,0,1,0
6900000000,7200000000,3007227894,0,463440447,0.01515,0.01651,0.01846,0.001139,0.001211,0.01666,0.000164,9.632e-05,0.0575,0.006859,4.549,0.01665,0,1,0
7200000000,7500000000,3007227894,0,463440447,0.01491,0.01651,0.01846,0.001144,0.001217,0.01663,0.0001774,9.632e-05,0.06445,0.006783,4.82,0.01786,0,1,0
7500000000,7800000000,3007227894,0,463440447,0.01517,0.01651,0.01822,0.001135,0.001205,0.0166,0.0001822,9.632e-05,0.03577,0.007935,5.213,0.01975,0,1,0
7800000000,8100000000,3007227894,0,463440447,0.01547,0.01651,0.01822,0.001127,0.001198,0.01663,0.0002375,9.632e-05,0.0769,0.01279,5.352,0.02118,0,1,0
8100000000,8400000000,3007227894,0,463440447,0.01575,0.01651,0.01828,0.001131,0.001202,0.01666,0.0001335,9.632e-05,0.3022,0.005783,5.115,0.01997,0,1,0
8400000000,8700000000,3007227894,0,463440447,0.01501,0.01651,0.01868,0.001143,0.001215,0.01657,0.0001211,9.632e-05,0.07019,0.003929,5.35,0.02133,0,1,0
8700000000,9000000000,3007227894,0,463440447,0.01549,0.01651,0.01834,0.001141,0.001213,0.01657,0.0001307,9.632e-05,0.03491,0.004646,4.95,0.01885,0,1,0
9000000000,9300000000,3007227894,0,463440447,0.01495,0.01651,0.01797,0.0008297,0.0009003,0.01657,0.0001154,9.632e-05,0.02814,0.003502,5.162,0.01942,0,1,0
9300000000,9600000000,3007227894,0,463440447,0.01575,0.01651,0.01807,0.001055,0.001127,0.01663,0.0002222,9.632e-05,0.3491,0.01436,5.008,0.01858,0,1,0
9600000000,9900000000,3007227894,0,463440447,0.01514,0.01654,0.0184,0.0009995,0.001078,0.01663,0.0002556,9.632e-05,0.03162,0.0162,5.165,0.01958,0,1,0
9900000000,10200000000,3007227894,0,463440447,0.01465,0.01648,0.01752,0.0008841,0.0009613,0.01654,0.0001097,9.632e-05,0.03015,0.003502,4.914,0.01847,0,1,0
10200000000,10500000000,3007227894,0,463440447,0.01443,0.01651,0.01849,0.001131,0.001204,0.01657,0.0001125,9.632e-05,0.04016,0.003571,4.842,0.01813,0,1,0
10500000000,10800000000,3007227894,0,463440447,0.01411,0.01651,0.01843,0.001135,0.001205,0.01654,0.0001297,9.632e-05,0.06104,0.007286,4.77,0.01776,0,1,0
10800000000,11100000000,3007227894,0,463440447,0.01248,0.01648,0.01837,0.001133,0.001204,0.01654,0.0001087,9.727e-05,0.09167,0.004074,5.044,0.01932,0,1,0
11100000000,11400000000,3007227894,0,463440447,0.009354,0.01645,0.0184,0.00115,0.001221,0.01654,9.346e-05,9.632e-05,0.034,0.004425,4.998,0.01919,0,1,0
11400000000,11700000000,3007227894,0,463440447,0.003284,0.01633,0.01755,0.0007019,0.0007753,0.01639,6.485e-05,9.727e-05,0.03412,0.005783,7.157,0.03051,0,1,0
11700000000,12000000000,3007227894,0,463440447,0.003613,0.01633,0.01746,0.0007238,0.0007973,0.01642,4.959e-05,9.727e-05,0.05762,0.001072,6.937,0.02907,0,1,0
12000000000,12300000000,3007227894,0,463440447,0.003414,0.01633,0.01746,0.000803,0.0008774,0.01639,4.959e-05,9.727e-05,0.01515,0.001143,6.553,0.0277,0,1,0
12300000000,12600000000,3007227894,0,463440447,0.001965,0.0163,0.01746,0.0008392,0.0009127,0.0163,4.101e-05,9.727e-05,0.01572,0.0009289,7.806,0.03325,0,1,0
12600000000,12900000000,3007227894,0,463440447,0.001957,0.0163,0.01746,0.000845,0.0009193,0.0163,4.578e-05,9.727e-05,0.01035,0.001858,12.98,0.05805,0,1,0
12900000000,13200000000,3007227894,0,463440447,0.001408,0.0163,0.01746,0.0008516,0.000926,0.0163,3.91e-05,9.727e-05,0.013,0.001215,11.52,0.05216,0,1,0
13200000000,13500000000,3007227894,0,463440447,0.002239,0.0163,0.01746,0.0008631,0.0009365,0.0163,4.196e-05,9.727e-05,0.01469,0.0007143,9.049,0.03868,0,1,0
13500000000,13800000000,3007227894,0,463440447,0.002232,0.0163,0.01746,0.0001364,0.0002108,0.0163,5.531e-05,9.727e-05,0.01122,0.003143,8.602,0.03639,0,1,0
13800000000,14100000000,3007227894,0,463440447,0.002201,0.0163,0.01746,0.0001669,0.0002422,0.0163,5.15e-05,9.727e-05,0.009521,0.001358,8.873,0.03826,0,1,0
14100000000,14400000000,3007227894,0,463440447,0.002098,0.0163,0.01746,0.0002012,0.0002766,0.0163,5.627e-05,9.632e-05,0.01093,0.002285,9.411,0.04189,0,1,0
14400000000,14700000000,3007227894,0,463440447,0.001953,0.0163,0.01746,0.0002365,0.0003119,0.0163,4.673e-05,9.537e-05,0.01332,0.001499,7.809,0.03405,0,1,0
14700000000,15000000000,3007227894,0,463440447,0.001722,0.0163,0.01746,0.0002604,0.0003357,0.0163,4.482e-05,9.632e-05,0.01031,0.001143,8.073,0.03573,0,1,0
15000000000,15300000000,3007227894,0,463440447,0.0016,0.0163,0.01746,0.0002804,0.0003557,0.0163,5.436e-05,9.632e-05,0.009186,0.003216,8.217,0.0364,0,1,0
15300000000,15600000000,3007227894,0,463440447,0.001791,0.0163,0.01746,0.0002985,0.0003738,0.0163,5.054e-05,9.632e-05,0.01427,0.001785,9.688,0.04355,0,1,0
15600000000,15900000000,3007227894,0,463440447,0.001747,0.0163,0.01746,0.0003157,0.000391,0.0163,4.101e-05,9.632e-05,0.02103,0.0006428,9.339,0.04145,0,1,0
15900000000,16200000000,3007227894,0,463440447,0.00169,0.0163,0.01746,0.0003357,0.0004101,0.0163,4.673e-05,9.632e-05,0.01358,0.001429,8.21,0.03626,0,1,0
16200000000,16500000000,3007227894,0,463440447,0.001692,0.01627,0.01746,0.0003538,0.0004292,0.0163,4.673e-05,9.632e-05,0.008575,0.001072,9.432,0.04152,0,1,0
16500000000,16800000000,3007227894,0,463440447,0.001596,0.01627,0.01746,0.000371,0.0004454,0.0163,4.578e-05,9.632e-05,0.009735,0.002285,9.977,0.04438,0,1,0
16800000000,17100000000,3007227894,0,463440447,0.002319,0.0163,0.01746,0.0003977,0.000473,0.0163,4.578e-05,9.632e-05,0.01372,0.001143,7.103,0.02965,0,1,0
17100000000,17400000000,3007227894,0,463440447,0.001938,0.0163,0.01746,0.0004301,0.0005045,0.0163,4.482e-05,9.632e-05,0.06274,0.0007858,7.728,0.03294,0,1,0
17400000000,17700000000,3007227894,0,463440447,0.001898,0.0163,0.01746,0.0004597,0.0005341,0.0163,4.578e-05,9.632e-05,0.009491,0.0009995,7.908,0.03342,0,1,0
17700000000,18000000000,3007227894,0,463440447,0.001987,0.0163,0.01746,0.0004902,0.0005646,0.0163,4.768e-05,9.632e-05,0.01764,0.001358,7.24,0.03033,0,1,0
18000000000,18300000000,3007227894,0,463440447,0.001976,0.0163,0.01746,0.0005245,0.0005989,0.0163,4.768e-05,9.632e-05,0.01158,0.001999,7.014,0.02958,0,1,0
18300000000,18600000000,3007227894,0,463440447,0.001684,0.0163,0.01746,0.000556,0.0006313,0.0163,4.387e-05,9.632e-05,0.02567,0.001215,5.498,0.02184,0,1,0
18600000000,18900000000,3007227894,0,463440447,0.001589,0.0163,0.01746,0.0005789,0.0006533,0.0163,4.387e-05,9.632e-05,0.009583,0.0007143,7.065,0.03055,0,1,0
18900000000,19200000000,3007227894,0,463440447,0.001534,0.01627,0.01746,0.000598,0.0006723,0.0163,4.292e-05,9.632e-05,0.01013,0.0008574,7.657,0.03338,0,1,0
19200000000,19500000000,3007227894,0,463440447,0.002079,0.0163,0.01746,0.000638,0.0007286,0.01636,0.0001259,9.632e-05,0.03174,0.02094,6.743,0.0279,0,1,0
19500000000,19800000000,3007227894,0,463440447,0.00176,0.0163,0.01746,0.0006695,0.0007696,0.0163,4.292e-05,9.727e-05,0.009186,0.0009995,8.662,0.0369,0,1,0
19800000000,20100000000,3007227894,0,463440447,0.001686,0.0163,0.01746,0.0006886,0.0007887,0.0163,4.768e-05,9.727e-05,0.01115,0.001429,6.06,0.02446,0,1,0
20100000000,20400000000,3007227894,0,463440447,0.001595,0.0163,0.01746,0.0007076,0.0008087,0.01633,4.482e-05,9.727e-05,0.01682,0.0009995,8.473,0.03662,0,1,0
20400000000,20700000000,3007227894,0,463440447,0.001503,0.0163,0.01746,0.0007229,0.000824,0.0163,4.768e-05,9.727e-05,0.01057,0.001072,9.843,0.04567,0,1,0
20700000000,21000000000,3007227894,0,463440447,0.001442,0.0163,0.01746,0.0007305,0.0008316,0.0163,4.673e-05,9.727e-05,0.01122,0.001499,9.179,0.04122,0,1,0
21000000000,21300000000,3007227894,0,463440447,0.001476,0.0163,0.01746,0.0007381,0.0008392,0.0163,4.196e-05,9.727e-05,0.01279,0.0009995,9.144,0.04037,0,1,0
21300000000,21600000000,3007227894,0,463440447,0.001719,0.0163,0.01746,0.0007496,0.0008507,0.0163,4.768e-05,9.727e-05,0.01259,0.001429,7.874,0.03452,0,1,0
21600000000,21900000000,3007227894,0,463440447,0.002903,0.01633,0.01746,0.0008144,0.0009155,0.01633,6.104e-05,9.727e-05,0.01199,0.002357,5.265,0.02113,0,1,0
21900000000,22200000000,3007227894,0,463440447,0.002907,0.01633,0.01746,0.0009136,0.001017,0.01633,7.248e-05,9.727e-05,0.01767,0.007568,5.459,0.02259,0,1,0
22200000000,22500000000,3007227894,0,463440447,0.002712,0.01633,0.01746,0.001003,0.001106,0.01633,7.248e-05,9.632e-05,0.01334,0.003071,6.273,0.02645,0,1,0
22500000000,22800000000,3007227894,0,463440447,0.002918,0.0163,0.01746,0.001066,0.001169,0.01633,5.531e-05,9.632e-05,0.01657,0.001072,6.034,0.025,0,1,0
22800000000,23100000000,3007227894,0,463440447,0.002804,0.01633,0.01785,0.001139,0.001242,0.01639,5.817e-05,9.727e-05,0.01828,0.001785,5.17,0.021,0,1,0
23100000000,23400000000,3007227894,0,463440447,0.002865,0.01633,0.01773,0.0009193,0.001024,0.01639,0.000103,9.727e-05,0.01366,0.003857,5.098,0.0206,0,1,0
23400000000,23700000000,3007227894,0,463440447,0.002449,0.0163,0.01746,0.0004492,0.0005579,0.01633,9.537e-05,9.727e-05,0.01169,0.003216,5.687,0.02337,0,1,0
23700000000,24000000000,3007227894,0,463440447,0.002888,0.0163,0.01746,0.0005293,0.000638,0.01633,9.251e-05,9.727e-05,0.01813,0.005569,5.287,0.02164,0,1,0
24000000000,24300000000,3007227894,0,463440447,0.005066,0.01633,0.01746,0.0006447,0.0007534,0.01636,6.294e-05,9.632e-05,0.06897,0.001642,5.4,0.02127,0,1,0
24300000000,24600000000,3007227894,0,463440447,0.00518,0.01633,0.01746,0.0008097,0.0009184,0.01636,6.294e-05,9.632e-05,0.06134,0.001785,5.656,0.02246,0,1,0
24600000000,24900000000,3007227894,0,463440447,0.005325,0.01633,0.01746,0.0009785,0.001087,0.01636,7.343e-05,9.632e-05,0.06543,0.001999,5.416,0.02142,0,1,0
24900000000,25200000000,3007227894,0,463440447,0.004837,0.01636,0.01767,0.001087,0.001196,0.01639,6.58e-05,9.727e-05,0.0274,0.001499,5.457,0.02186,0,1,0
25200000000,25500000000,3007227894,0,463440447,0.004929,0.01636,0.01813,0.001131,0.00124,0.01642,6.104e-05,9.727e-05,0.02463,0.001358,5.521,0.02211,0,1,0
25500000000,25800000000,3007227894,0,463440447,0.004448,0.01633,0.01797,0.001005,0.001114,0.01639,5.913e-05,9.632e-05,0.01761,0.001572,4.921,0.01917,0,1,0
25800000000,26100000000,3007227894,0,463440447,0.004669,0.01633,0.01746,0.0006342,0.0007429,0.01636,6.676e-05,9.632e-05,0.05878,0.002785,5.306,0.02134,0,1,0
26100000000,26400000000,3007227894,0,463440447,0.004761,0.01633,0.01746,0.0007839,0.0008926,0.01633,5.817e-05,9.632e-05,0.01599,0.001358,5.235,0.02066,0,1,0
26400000000,26700000000,3007227894,0,463440447,0.004883,0.01633,0.01746,0.0009356,0.001045,0.01636,5.627e-05,9.727e-05,0.01764,0.001215,5.053,0.01962,0,1,0
26700000000,27000000000,3007227894,0,463440447,0.004639,0.01633,0.0177,0.00108,0.001188,0.01636,5.817e-05,9.727e-05,0.02136,0.001072,5.225,0.02056,0,1,0
27000000000,27300000000,3007227894,0,463440447,0.004539,0.01633,0.0181,0.001122,0.00123,0.01639,6.104e-05,9.727e-05,0.04327,0.001429,5.157,0.02034,0,1,0
27300000000,27600000000,3007227894,0,463440447,0.004532,0.01633,0.01785,0.001122,0.00123,0.01636,6.676e-05,9.632e-05,0.02505,0.002785,5.07,0.01942,0,1,0
27600000000,27900000000,3007227894,0,463440447,0.005547,0.01633,0.01758,0.0006952,0.000803,0.01639,6.58e-05,9.632e-05,0.02133,0.002285,4.925,0.0186,0,1,0
27900000000,28200000000,3007227894,0,463440447,0.005249,0.01633,0.01746,0.000701,0.0008087,0.01633,6.58e-05,9.727e-05,0.02902,0.003071,6.063,0.02422,0,1,0
28200000000,28500000000,3007227894,0,463440447,0.005341,0.01633,0.01746,0.000864,0.0009718,0.01636,6.104e-05,9.727e-05,0.02188,0.001143,5.733,0.02285,0,1,0
28500000000,28800000000,3007227894,0,463440447,0.005432,0.01633,0.01746,0.001015,0.001122,0.01636,7.82e-05,9.727e-05,0.07031,0.003571,5.329,0.02088,0,1,0
28800000000,29100000000,3007227894,0,463440447,0.005142,0.01633,0.01746,0.0003662,0.0004721,0.01636,6.866e-05,9.632e-05,0.01785,0.003357,6.326,0.02584,0,1,0
29100000000,29400000000,3007227894,0,463440447,0.004868,0.01633,0.01746,0.0004902,0.000596,0.01636,6.199e-05,9.632e-05,0.05457,0.001999,5.976,0.02404,0,1,0
29400000000,29700000000,3007227894,0,463440447,0.005066,0.01633,0.01746,0.0006371,0.0007439,0.01636,8.202e-05,9.727e-05,0.06274,0.008575,5.767,0.02303,0,1,0
29700000000,30000000000,3007227894,0,463440447,0.004654,0.01633,0.01746,0.0006981,0.0008059,0.01636,5.627e-05,9.727e-05,0.02216,0.001715,5.479,0.02236,0,1,0
30000000000,30300000000,3007227894,0,463440447,0.004898,0.01633,0.01746,0.0008383,0.000946,0.01636,6.294e-05,9.727e-05,0.06012,0.002644,5.681,0.02311,0,1,0
30300000000,30600000000,3007227894,0,463440447,0.005142,0.01633,0.01746,0.0009785,0.001085,0.01636,5.436e-05,9.727e-05,0.05841,0.001215,5.898,0.02393,0,1,0
30600000000,30900000000,3007227894,0,463440447,0.004921,0.01636,0.01773,0.001106,0.001213,0.01654,5.531e-05,9.632e-05,0.01932,0.001286,6.239,0.02545,0,1,0
30900000000,31200000000,3007227894,0,463440447,0.004837,0.01639,0.01794,0.001131,0.001234,0.01654,6.962e-05,9.632e-05,0.04028,0.004715,5.56,0.02205,0,1,0
31200000000,31500000000,3007227894,0,463440447,0.005089,0.01636,0.0177,0.001131,0.00123,0.01654,9.823e-05,9.727e-05,0.01755,0.009354,5.983,0.02475,0,1,0
31500000000,31800000000,3007227894,0,463440447,0.004761,0.01639,0.01794,0.001133,0.001232,0.01654,5.531e-05,9.727e-05,0.07935,0.001358,5.533,0.02205,0,1,0
31800000000,32100000000,3007227894,0,463440447,0.004456,0.01636,0.01819,0.001143,0.001242,0.01654,9.346e-05,9.823e-05,0.02142,0.006714,4.775,0.01892,0,1,0
32100000000,32400000000,3007227894,0,463440447,0.004204,0.01633,0.01801,0.001095,0.001194,0.01639,6.104e-05,9.632e-05,0.01764,0.002071,4.934,0.02013,0,1,0
32400000000,32700000000,3007227894,0,463440447,0.004921,0.01633,0.01746,0.0007248,0.0008249,0.01633,0.0001001,9.632e-05,0.02542,0.002785,6.011,0.02487,0,1,0
32700000000,33000000000,3007227894,0,463440447,0.005066,0.01633,0.01746,0.0003023,0.0004015,0.01636,0.0001402,9.632e-05,0.02261,0.006355,4.762,0.01819,0,1,0
33000000000,33300000000,3007227894,0,463440447,0.004951,0.01633,0.01746,0.000453,0.0005531,0.01633,5.245e-05,9.632e-05,0.07483,0.001215,4.481,0.01765,0,1,0
33300000000,33600000000,3007227894,0,463440447,0.005028,0.01633,0.01746,0.0006104,0.0007105,0.01633,7.057e-05,9.727e-05,0.06726,0.004646,5.274,0.02084,0,1,0
33600000000,33900000000,3007227894,0,463440447,0.004639,0.01633,0.01746,0.0007601,0.0008593,0.01636,6.676e-05,9.632e-05,0.0231,0.003571,5.296,0.02122,0,1,0
33900000000,34200000000,3007227894,0,463440447,0.003719,0.0163,0.01746,0.000864,0.0009632,0.0163,5.054e-05,9.537e-05,0.05286,0.001143,6.615,0.0278,0,1,0
34200000000,34500000000,3007227894,0,463440447,0.003464,0.0163,0.01746,0.0009384,0.001038,0.01633,4.673e-05,9.632e-05,0.06299,0.001072,6.529,0.02692,0,1,0
34500000000,34800000000,3007227894,0,463440447,0.00341,0.0163,0.01746,0.0009718,0.001072,0.0163,4.959e-05,9.632e-05,0.01212,0.001072,6.714,0.02727,0,1,0
34800000000,35100000000,3007227894,0,463440447,0.004181,0.0163,0.01746,0.001057,0.001156,0.01633,6.294e-05,9.632e-05,0.01479,0.003429,6.48,0.02613,0,1,0
35100000000,35400000000,3007227894,0,463440447,0.00375,0.0163,0.01749,0.001122,0.001221,0.01648,4.768e-05,9.632e-05,0.01485,0.001215,6.318,0.02565,0,1,0
35400000000,35700000000,3007227894,0,463440447,0.003567,0.01633,0.01804,0.00116,0.001245,0.01648,4.959e-05,9.727e-05,0.01981,0.0009289,6.395,0.02671,0,1,0
35700000000,36000000000,3007227894,0,463440447,0.00211,0.0163,0.01758,0.001169,0.001247,0.01639,5.341e-05,9.537e-05,0.01416,0.002571,7.424,0.03159,0,1,0
36000000000,36300000000,3007227894,0,463440447,0.001801,0.0163,0.01758,0.001171,0.001249,0.01639,4.005e-05,9.441e-05,0.01007,0.0007858,7.598,0.03293,0,1,0
36300000000,36600000000,3007227894,0,463440447,0.001749,0.01627,0.01746,0.001171,0.001249,0.0163,4.292e-05,9.537e-05,0.01147,0.0009289,7.443,0.03204,0,1,0
36600000000,36900000000,3007227894,0,463440447,0.001776,0.01627,0.01746,0.0004225,0.0005007,0.0163,4.482e-05,9.537e-05,0.01001,0.0009289,9.329,0.04099,0,1,0
36900000000,37200000000,3007227894,0,463440447,0.001698,0.01627,0.01746,0.000433,0.0005112,0.0163,4.005e-05,9.537e-05,0.01057,0.0007143,9.535,0.04279,0,1,0
37200000000,37500000000,3007227894,0,463440447,0.001703,0.01627,0.01746,0.000452,0.0005302,0.01627,4.196e-05,9.537e-05,0.01006,0.0006428,8.548,0.03732,0,1,0
37500000000,37800000000,3007227894,0,463440447,0.001694,0.01627,0.01746,0.000473,0.0005512,0.01627,5.245e-05,9.537e-05,0.009521,0.002499,8.498,0.03673,0,1,0
37800000000,38100000000,3007227894,0,463440447,0.001575,0.01627,0.01746,0.000493,0.0005713,0.01627,4.578e-05,9.537e-05,0.007996,0.001429,9.013,0.04001,0,1,0
38100000000,38400000000,3007227894,0,463440447,0.001703,0.01627,0.01746,0.0005093,0.0005875,0.01627,5.341e-05,9.537e-05,0.008881,0.002357,8.977,0.03939,0,1,0
38400000000,38700000000,3007227894,0,463440447,0.002312,0.01627,0.01746,0.0005398,0.000618,0.0163,5.913e-05,9.537e-05,0.01776,0.003216,5.964,0.02461,0,1,0
38700000000,39000000000,3007227894,0,463440447,0.006195,0.0163,0.01746,0.0005999,0.0006781,0.01639,9.537e-05,9.441e-05,0.05524,0.003502,4.898,0.01889,0,1,0
39000000000,39300000000,3007227894,0,463440447,0.008011,0.01636,0.01746,0.0008764,0.0009604,0.01639,0.0001574,9.441e-05,0.1504,0.006432,5.687,0.02174,0,1,0
39300000000,39600000000,3007227894,0,463440447,0.007729,0.01645,0.01746,0.001099,0.001184,0.01654,5.15e-05,9.441e-05,0.04218,0.003357,5.491,0.02162,0,1,0
39600000000,39900000000,3007227894,0,463440447,0.007469,0.01645,0.0181,0.001162,0.001247,0.01675,0.0001469,9.537e-05,0.04449,0.007996,5.824,0.02329,0,1,0
39900000000,40200000000,3007227894,0,463440447,0.005943,0.01636,0.01746,0.0006142,0.0007105,0.01642,0.0001431,9.441e-05,0.03821,0.01578,5.169,0.01936,0,1,0
40200000000,40500000000,3007227894,0,463440447,0.00631,0.01636,0.01746,0.0007763,0.0008869,0.01657,7.343e-05,9.346e-05,0.06677,0.004501,4.834,0.01647,0,1,0
40500000000,40800000000,3007227894,0,463440447,0.004288,0.01636,0.01746,0.0005751,0.0006866,0.01654,5.245e-05,9.441e-05,0.03943,0.001072,6.723,0.02704,0,1,0
51000000000,51300000000,3007227894,0,463440447,0.007599,0.01128,0.01219,0.0003929,0.0005064,0.01137,0.0001059,3.433e-05,0.07544,0.006073,5.637,0.02098,0,1,0
51300000000,51600000000,3007227894,0,463440447,0.006149,0.01128,0.01212,0.0004044,0.000515,0.01135,8.488e-05,3.529e-05,0.08972,0.002285,5.184,0.01899,0,1,0
51600000000,51900000000,3007227894,0,463440447,0.006691,0.01128,0.01186,0.0003881,0.000495,0.01135,7.439e-05,3.529e-05,0.1046,0.001999,4.88,0.01762,0,1,0
51900000000,52200000000,3007227894,0,463440447,0.00724,0.01131,0.01199,0.0003901,0.0004959,0.0114,0.0001402,3.624e-05,0.1555,0.006859,5.062,0.01818,0,1,0
52200000000,52500000000,3007227894,0,463440447,0.007141,0.01138,0.01236,0.0003948,0.0004988,0.0116,7.725e-05,3.624e-05,0.07666,0.001999,5.208,0.0192,0,1,0
52500000000,52800000000,3007227894,0,463440447,0.006248,0.01154,0.013,0.0004139,0.0005188,0.01163,8.583e-05,3.719e-05,0.06421,0.007286,4.848,0.0177,0,1,0
52800000000,53100000000,3007227894,0,463440447,0.007256,0.01131,0.01161,0.0002413,0.0003471,0.01134,0.0001507,3.719e-05,0.07129,0.01164,5.288,0.0191,0,1,0
53100000000,53400000000,3007227894,0,463440447,0.006927,0.01129,0.0117,0.0003405,0.0004473,0.01135,6.771e-05,3.815e-05,0.09204,0.001715,5.284,0.01938,0,1,0
53400000000,53700000000,3007227894,0,463440447,0.006783,0.01134,0.01241,0.0003548,0.0004606,0.01152,8.488e-05,3.815e-05,0.1117,0.005783,5.812,0.0229,0,1,0
53700000000,54000000000,3007227894,0,463440447,0.006607,0.01134,0.01212,0.0003395,0.0004444,0.01149,0.0001097,3.91e-05,0.05841,0.005142,4.698,0.01684,0,1,0
54000000000,54300000000,3007227894,0,463440447,0.007111,0.01131,0.01161,0.000309,0.000412,0.01132,9.441e-05,3.91e-05,0.1069,0.006783,5.47,0.01953,0,1,0
54300000000,54600000000,3007227894,0,463440447,0.006264,0.01132,0.01175,0.0003347,0.0004368,0.01137,8.678e-05,4.005e-05,0.05286,0.003571,5.509,0.02013,0,1,0
54600000000,54900000000,3007227894,0,463440447,0.005943,0.01135,0.01248,0.0003386,0.0004396,0.01149,9.823e-05,4.005e-05,0.06689,0.007996,5.574,0.02103,0,1,0
54900000000,55200000000,3007227894,0,463440447,0.006447,0.01137,0.01225,0.0003223,0.0004234,0.01149,9.06e-05,4.101e-05,0.1016,0.004143,5.152,0.01855,0,1,0
55200000000,55500000000,3007227894,0,463440447,0.006248,0.01138,0.01236,0.0003204,0.0004206,0.01151,7.057e-05,4.101e-05,0.04834,0.001858,4.961,0.01779,0,1,0
55500000000,55800000000,3007227894,0,463440447,0.0065,0.01141,0.01239,0.0003233,0.0004225,0.01151,0.0001078,4.196e-05,0.1031,0.005859,5.13,0.01858,0,1,0
55800000000,56100000000,3007227894,0,463440447,0.006096,0.01138,0.01198,0.0003099,0.000411,0.01151,8.583e-05,4.292e-05,0.08118,0.003071,5.447,0.02025,0,1,0
56100000000,56400000000,3007227894,0,463440447,0.005539,0.01138,0.01212,0.0002947,0.0003958,0.01178,9.823e-05,4.292e-05,0.05103,0.008499,4.909,0.01758,0,1,0
56400000000,56700000000,3007227894,0,463440447,0.006447,0.01141,0.01222,0.0002623,0.0003643,0.01169,9.346e-05,4.387e-05,0.09558,0.007286,5.137,0.0186,0,1,0
56700000000,57000000000,3007227894,0,463440447,0.006065,0.0114,0.01195,0.0002718,0.0003757,0.01149,0.0001602,4.387e-05,0.06616,0.01164,4.912,0.01769,0,1,0
57000000000,57300000000,3007227894,0,463440447,0.00631,0.0114,0.01199,0.000289,0.0003948,0.01152,8.488e-05,4.482e-05,0.07166,0.005714,4.317,0.0147,0,1,0
57300000000,57600000000,3007227894,0,463440447,0.006485,0.0114,0.0121,0.0002766,0.0003805,0.01149,7.725e-05,4.482e-05,0.08386,0.002644,4.809,0.01706,0,1,0
57600000000,57900000000,3007227894,0,463440447,0.006203,0.01149,0.01314,0.0003166,0.0004177,0.01154,0.0001354,4.578e-05,0.05353,0.008636,4.498,0.01539,0,1,0
57900000000,58200000000,3007227894,0,463440447,0.00676,0.01152,0.01343,0.0004044,0.0005083,0.01155,0.0001297,4.578e-05,0.09741,0.007782,4.907,0.01745,0,1,0
58200000000,58500000000,3007227894,0,463440447,0.0065,0.01152,0.01343,0.0004873,0.0005922,0.01155,9.251e-05,4.673e-05,0.05768,0.006142,4.904,0.01713,0,1,0
58500000000,58800000000,3007227894,0,463440447,0.006454,0.01152,0.01343,0.0005493,0.0006542,0.01157,0.0001011,4.673e-05,0.05994,0.006569,5.373,0.01945,0,1,0
58800000000,59100000000,3007227894,0,463440447,0.006783,0.01147,0.01288,0.00033,0.0004349,0.01152,0.0001278,4.768e-05,0.04993,0.007217,5.549,0.02071,0,1,0
59100000000,59400000000,3007227894,0,463440447,0.006508,0.01152,0.01343,0.0003328,0.0004377,0.01154,9.918e-05,4.768e-05,0.09656,0.004929,4.78,0.01675,0,1,0
59400000000,59700000000,3007227894,0,463440447,0.006241,0.01147,0.01285,0.0003004,0.0004025,0.01158,0.000104,4.864e-05,0.08679,0.004425,5.396,0.01947,0,1,0
59700000000,60000000000,3007227894,0,463440447,0.006645,0.01152,0.01343,0.0003471,0.0004482,0.01154,7.82e-05,4.959e-05,0.09229,0.002357,4.906,0.01734,0,1,0
60000000000,60300000000,3007227894,0,463440447,0.007446,0.01154,0.01343,0.0004854,0.0005875,0.01157,0.0001421,4.959e-05,0.1104,0.0155,4.53,0.01557,0,1,0
60300000000,60600000000,3007227894,0,463440447,0.006416,0.01154,0.01343,0.0006943,0.0008001,0.01157,7.057e-05,5.054e-05,0.04639,0.001999,5.221,0.01936,0,1,0
60600000000,60900000000,3007227894,0,463440447,0.005623,0.01149,0.01291,0.0005465,0.0006523,0.01154,8.202e-05,5.054e-05,0.05121,0.005714,5.26,0.01952,0,1,0
70800000000,71100000000,3007227894,0,463440447,0.007812,0.01183,0.01343,0.001074,0.001181,0.01186,6.962e-05,6.962e-05,0.05487,0.002213,5.089,0.01853,0,1,0
71100000000,71400000000,3007227894,0,463440447,0.008102,0.01186,0.01343,0.001373,0.00148,0.01189,0.0001316,7.057e-05,0.05139,0.01093,5.188,0.01918,0,1,0
71400000000,71700000000,3007227894,0,463440447,0.007423,0.01186,0.01369,0.001394,0.001503,0.01192,9.537e-05,7.057e-05,0.05536,0.004929,4.996,0.018,0,1,0
71700000000,72000000000,3007227894,0,463440447,0.008224,0.01183,0.01344,0.001009,0.001116,0.01187,0.0001793,7.153e-05,0.1016,0.01007,4.894,0.01724,0,1,0
72000000000,72300000000,3007227894,0,463440447,0.007904,0.01184,0.01344,0.001213,0.001308,0.01189,0.000186,7.248e-05,0.3159,0.002571,5.214,0.01929,0,1,0
72300000000,72600000000,3007227894,0,463440447,0.007843,0.01184,0.01344,0.001381,0.00149,0.0119,0.000226,7.343e-05,0.04889,0.01901,5.188,0.01881,0,1,0
72600000000,72900000000,3007227894,0,463440447,0.007614,0.01186,0.01344,0.0005894,0.000701,0.01187,0.0001011,7.343e-05,0.08191,0.003857,4.943,0.01766,0,1,0
72900000000,73200000000,3007227894,0,463440447,0.00695,0.01184,0.01344,0.000659,0.0007725,0.01187,0.0001106,7.439e-05,0.04803,0.002499,5.467,0.0206,0,1,0
73200000000,73500000000,3007227894,0,463440447,0.008408,0.01187,0.01344,0.0009146,0.001028,0.01189,9.155e-05,7.439e-05,0.1042,0.002716,5.367,0.01985,0,1,0
73500000000,73800000000,3007227894,0,463440447,0.009262,0.0119,0.01344,0.001238,0.00135,0.01195,0.0001087,7.534e-05,0.06848,0.003929,5.106,0.01816,0,1,0
73800000000,74100000000,3007227894,0,463440447,0.0075,0.01187,0.01344,0.0007381,0.0008526,0.01192,0.000102,7.629e-05,0.0647,0.005569,5,0.01811,0,1,0
74100000000,74400000000,3007227894,0,463440447,0.00779,0.01187,0.01344,0.0006552,0.0007706,0.01192,9.06e-05,7.725e-05,0.08704,0.003716,4.798,0.01723,0,1,0
74400000000,74700000000,3007227894,0,463440447,0.007507,0.0119,0.01344,0.0004892,0.0006056,0.01193,7.725e-05,7.725e-05,0.08276,0.002499,4.896,0.01754,0,1,0
74700000000,75000000000,3007227894,0,463440447,0.006966,0.01187,0.01344,0.0007238,0.0008402,0.01189,8.488e-05,7.82e-05,0.04584,0.003857,5.074,0.01867,0,1,0
75000000000,75300000000,3007227894,0,463440447,0.007713,0.01189,0.01344,0.0009699,0.001085,0.01192,9.918e-05,7.915e-05,0.05951,0.004288,5.548,0.02093,0,1,0
75300000000,75600000000,3007227894,0,463440447,0.008484,0.0119,0.01344,0.0008097,0.000926,0.01192,8.774e-05,7.915e-05,0.05469,0.003998,5.212,0.01931,0,1,0
75600000000,75900000000,3007227894,0,463440447,0.008972,0.01192,0.01344,0.00068,0.0007954,0.01196,0.000102,8.011e-05,0.06738,0.002499,4.935,0.01752,0,1,0
75900000000,76200000000,3007227894,0,463440447,0.007477,0.0119,0.01344,0.0008478,0.0009632,0.01192,8.106e-05,8.106e-05,0.05188,0.001928,5.359,0.02012,0,1,0
76200000000,76500000000,3007227894,0,463440447,0.007492,0.01192,0.01344,0.000412,0.0005274,0.01195,0.0001116,8.106e-05,0.07532,0.003071,5.185,0.01866,0,1,0
76500000000,76800000000,3007227894,0,463440447,0.009186,0.01199,0.01352,0.000618,0.0007334,0.01225,0.0001144,8.202e-05,0.06995,0.005074,5.122,0.01887,0,1,0
76800000000,77100000000,3007227894,0,463440447,0.008926,0.01207,0.01357,0.0007801,0.0008945,0.0121,0.0001097,8.297e-05,0.08057,0.006569,5.025,0.01739,0,1,0
77100000000,77400000000,3007227894,0,463440447,0.008041,0.01205,0.01357,0.0004663,0.0005808,0.01208,9.346e-05,8.297e-05,0.05524,0.002716,5.136,0.01875,0,1,0
77400000000,77700000000,3007227894,0,463440447,0.007271,0.01205,0.01357,0.0007248,0.0008392,0.01208,9.155e-05,8.392e-05,0.1053,0.003071,5.132,0.01905,0,1,0
77700000000,78000000000,3007227894,0,463440447,0.008087,0.01208,0.01357,0.000988,0.001102,0.01212,9.823e-05,8.488e-05,0.06799,0.004501,4.992,0.01827,0,1,0
78000000000,78300000000,3007227894,0,463440447,0.008774,0.01212,0.01357,0.00132,0.001436,0.01215,8.488e-05,8.583e-05,0.0885,0.002213,5.003,0.0177,0,1,0
78300000000,78600000000,3007227894,0,463440447,0.008774,0.01215,0.01433,0.001383,0.001497,0.01221,0.0001125,8.583e-05,0.07593,0.00457,5.141,0.01874,0,1,0
78600000000,78900000000,3007227894,0,463440447,0.008621,0.01213,0.01355,0.0008688,0.0009842,0.01216,0.0001011,8.678e-05,0.09912,0.004784,5.519,0.02089,0,1,0
78900000000,79200000000,3007227894,0,463440447,0.009232,0.01218,0.01355,0.0004883,0.0006046,0.01221,0.0001183,8.774e-05,0.05438,0.006073,3.991,0.01413,0,1,0
79200000000,79500000000,3007227894,0,463440447,0.009995,0.01219,0.01355,0.0007515,0.0008688,0.01222,0.0001068,8.869e-05,0.07312,0.003357,5.244,0.02009,0,1,0
79500000000,79800000000,3007227894,0,463440447,0.009094,0.01219,0.01355,0.001078,0.001194,0.01222,7.915e-05,8.965e-05,0.07373,0.002571,5.381,0.02051,0,1,0
79800000000,80100000000,3007227894,0,463440447,0.009964,0.01227,0.01407,0.00135,0.001469,0.01234,9.06e-05,8.965e-05,0.09204,0.003998,5.692,0.02253,0,1,0
80100000000,80400000000,3007227894,0,463440447,0.009262,0.01225,0.01381,0.00103,0.001148,0.0123,8.392e-05,9.06e-05,0.05389,0.001928,5.742,0.02235,0,1,0
80400000000,80700000000,3007227894,0,463440447,0.009766,0.01225,0.01355,0.001041,0.00116,0.0123,8.011e-05,9.155e-05,0.06775,0.003357,5.789,0.02259,0,1,0
80700000000,81000000000,3007227894,0,463440447,0.008759,0.0123,0.01407,0.001329,0.001448,0.01242,0.000103,9.251e-05,0.08362,0.0075,5.259,0.02029,0,1,0
85800000000,86100000000,3007227894,0,463440447,0.01816,0.01277,0.01411,0.0009279,0.001049,0.01302,0.0006886,0.0001001,0.07996,0.01971,5.252,0.0197,0,1,0
86100000000,86400000000,3007227894,0,463440447,0.02371,0.01305,0.01398,0.0006971,0.0008307,0.01321,0.0003605,0.000103,0.1455,0.01372,4.354,0.01537,0,1,0
86400000000,86700000000,3007227894,0,463440447,0.02426,0.01305,0.01479,0.0007925,0.0009222,0.01315,0.0003633,0.000104,0.1174,0.01172,5.006,0.01817,0,1,0
86700000000,87000000000,3007227894,0,463440447,0.01454,0.01302,0.01445,0.0007877,0.0008993,0.01341,0.0002308,0.000104,0.07629,0.007004,5.048,0.01841,0,1,0
87000000000,87300000000,3007227894,0,463440447,0.01102,0.01295,0.01453,0.0007753,0.0008793,0.01341,0.0003929,0.000104,0.09204,0.01428,5.371,0.02041,0,1,0
87300000000,87600000000,3007227894,0,463440447,0.0135,0.01292,0.01381,0.000494,0.0006027,0.01314,0.0002165,0.000104,0.08008,0.01221,5.503,0.02054,0,1,0
87600000000,87900000000,3007227894,0,463440447,0.02432,0.01364,0.01523,0.0009918,0.001101,0.01414,5.531e-05,0.000103,0.0658,0.001286,5.308,0.01898,0,1,0
87900000000,88200000000,3007227894,0,463440447,0.02448,0.01361,0.01515,0.001392,0.001493,0.01421,0.001041,0.000104,0.2627,0.02292,4.616,0.01661,0,1,0
88200000000,88500000000,3007227894,0,463440447,0.01978,0.01317,0.01468,0.000742,0.0008469,0.01341,0.0003633,0.000104,0.1029,0.007935,5.129,0.01937,0,1,0
88500000000,88800000000,3007227894,0,463440447,0.02176,0.01314,0.01468,0.0007267,0.0008297,0.01337,0.0003834,0.000104,0.06995,0.01407,5.041,0.01884,0,1,0
88800000000,89100000000,3007227894,0,463440447,0.02301,0.01321,0.0148,0.0007,0.0008011,0.01338,0.0003424,0.000104,0.07666,0.013,5.135,0.01879,0,1,0
89100000000,89400000000,3007227894,0,463440447,0.02286,0.01315,0.01422,0.0005894,0.0006933,0.01328,0.0002995,0.000104,0.04926,0.01244,4.918,0.01828,0,1,0
89400000000,89700000000,3007227894,0,463440447,0.009705,0.01303,0.01381,0.0006132,0.000721,0.01321,0.000164,0.0001049,0.08557,0.007935,5.274,0.02008,0,1,0
89700000000,90000000000,3007227894,0,463440447,0.004578,0.01292,0.01401,0.0006466,0.0007572,0.013,0.0001049,0.0001049,0.03491,0.01257,7.394,0.03013,0,1,0
90000000000,90300000000,3007227894,0,463440447,0.004417,0.01292,0.01384,0.0006447,0.0007544,0.01302,0.0002642,0.0001049,0.03619,0.013,6.799,0.02695,0,1,0
90300000000,90600000000,3007227894,0,463440447,0.004341,0.01294,0.01408,0.0006227,0.0007343,0.01302,0.0001078,0.000104,0.0658,0.0075,4.526,0.01641,0,1,0
90600000000,90900000000,3007227894,0,463440447,0.004372,0.01291,0.01357,0.000227,0.0003567,0.01294,0.0001593,0.000104,0.04462,0.01093,6.703,0.02705,0,1,0
101100000000,101400000000,3007227894,0,463440447,0.004189,0.0132,0.01439,0.0004511,0.0005636,0.01328,7.534e-05,0.000104,0.04395,0.003502,4.678,0.01638,0,1,0
101400000000,101700000000,3007227894,0,463440447,0.003407,0.0132,0.01392,0.0004406,0.0005512,0.01328,8.297e-05,0.000104,0.04169,0.004715,5.723,0.02209,0,1,0
101700000000,102000000000,3007227894,0,463440447,0.004166,0.01317,0.01357,0.0002184,0.0003262,0.0132,0.0001001,0.000104,0.04913,0.008148,5.277,0.01944,0,1,0
102000000000,102300000000,3007227894,0,463440447,0.003723,0.01317,0.01358,0.0002966,0.0004053,0.01318,6.866e-05,0.0001049,0.04077,0.002571,5.26,0.01952,0,1,0
102300000000,102600000000,3007227894,0,463440447,0.003597,0.01315,0.0137,0.0003958,0.0005045,0.01324,6.199e-05,0.0001049,0.03662,0.001715,5.999,0.02335,0,1,0
102600000000,102900000000,3007227894,0,463440447,0.003674,0.01318,0.01434,0.0004263,0.0005322,0.01328,7.248e-05,0.0001049,0.03674,0.003857,5.963,0.02318,0,1,0
102900000000,103200000000,3007227894,0,463440447,0.003445,0.01318,0.01396,0.0004215,0.0005274,0.01324,9.823e-05,0.0001049,0.04236,0.004501,5.464,0.02065,0,1,0
103200000000,103500000000,3007227894,0,463440447,0.004425,0.0132,0.01422,0.0004292,0.000536,0.01329,7.439e-05,0.000104,0.04181,0.004356,5.249,0.01969,0,1,0
103500000000,103800000000,3007227894,0,463440447,0.004463,0.01318,0.0137,0.0003223,0.0004301,0.01321,0.0001011,0.000104,0.0365,0.005074,6.154,0.02417,0,1,0
103800000000,104100000000,3007227894,0,463440447,0.004585,0.01318,0.01357,0.000206,0.0003128,0.0132,9.441e-05,0.0001049,0.08875,0.005287,3.547,0.0124,0,1,0
104100000000,104400000000,3007227894,0,463440447,0.004738,0.01321,0.01366,0.0003357,0.0004435,0.01324,7.629e-05,0.0001049,0.07568,0.003784,5.98,0.02356,0,1,0
104400000000,104700000000,3007227894,0,463440447,0.004089,0.01323,0.01413,0.0003891,0.000493,0.01332,6.104e-05,0.0001049,0.03595,0.002499,5.974,0.02379,0,1,0
104700000000,105000000000,3007227894,0,463440447,0.004074,0.01323,0.01395,0.0003862,0.0004911,0.01331,0.0001049,0.0001049,0.04321,0.006287,6.092,0.0238,0,1,0
105000000000,105300000000,3007227894,0,463440447,0.004028,0.01324,0.01395,0.0003891,0.000493,0.01334,6.58e-05,0.0001049,0.05518,0.001429,6.187,0.02454,0,1,0
105300000000,105600000000,3007227894,0,463440447,0.004425,0.01329,0.01427,0.0003948,0.0004988,0.01346,9.632e-05,0.000104,0.05298,0.007858,6.006,0.02368,0,1,0
105600000000,105900000000,3007227894,0,463440447,0.004066,0.01326,0.01407,0.0003195,0.0004244,0.01343,0.0001383,0.000104,0.04242,0.005859,5.835,0.0226,0,1,0
105900000000,106200000000,3007227894,0,463440447,0.003704,0.0132,0.01357,0.0001841,0.000288,0.01323,7.153e-05,0.0001049,0.1418,0.002857,4.801,0.01647,0,1,0
106200000000,106500000000,3007227894,0,463440447,0.003719,0.0132,0.01357,0.0002918,0.0003958,0.01323,6.39e-05,0.0001049,0.05127,0.001499,5.664,0.02187,0,1,0
106500000000,106800000000,3007227894,0,463440447,0.003864,0.01326,0.01424,0.0003748,0.0004807,0.01341,7.915e-05,0.0001049,0.05554,0.004288,6.004,0.02377,0,1,0
106800000000,107100000000,3007227894,0,463440447,0.003727,0.01326,0.01433,0.0003595,0.0004768,0.01332,0.000102,0.0001059,0.05768,0.006432,5.486,0.02068,0,1,0
107100000000,107400000000,3007227894,0,463440447,0.003826,0.01326,0.01437,0.0003624,0.0004683,0.01332,5.913e-05,0.000104,0.04926,0.001215,5.438,0.02153,0,1,0
107400000000,107700000000,3007227894,0,463440447,0.003899,0.01326,0.01418,0.0003557,0.0004597,0.01334,8.965e-05,0.000104,0.04291,0.005928,6.049,0.0259,0,1,0
107700000000,108000000000,3007227894,0,463440447,0.00386,0.01328,0.01408,0.0002375,0.0003414,0.01335,7.82e-05,0.0001049,0.05389,0.002571,4.584,0.01777,0,1,0
108000000000,108300000000,3007227894,0,463440447,0.003414,0.01323,0.01357,0.0002508,0.0003548,0.01329,7.534e-05,0.0001049,0.04633,0.005287,4.162,0.01542,0,1,0
108300000000,108600000000,3007227894,0,463440447,0.003029,0.01326,0.0137,0.0003433,0.0004463,0.01329,9.823e-05,0.0001049,0.04181,0.007286,5.863,0.02482,0,1,0
108600000000,108900000000,3007227894,0,463440447,0.002842,0.01323,0.01411,0.0003548,0.0004568,0.01334,6.39e-05,0.0001049,0.0387,0.003216,6.154,0.02664,0,1,0
108900000000,109200000000,3007227894,0,463440447,0.003048,0.01326,0.01404,0.0003405,0.0004511,0.01334,7.725e-05,0.0001059,0.03528,0.002857,5.096,0.01905,0,1,0
109200000000,109500000000,3007227894,0,463440447,0.003857,0.01331,0.01422,0.0003204,0.0004492,0.01337,0.0001001,0.0001049,0.04431,0.003502,4.892,0.017,0,1,0
109500000000,109800000000,3007227894,0,463440447,0.002979,0.01328,0.01404,0.0003376,0.0004396,0.01337,0.000102,0.000104,0.0321,0.005074,4.999,0.01807,0,1,0
109800000000,110100000000,3007227894,0,463440447,0.003643,0.01326,0.01382,0.0003376,0.0004463,0.01331,0.0001144,0.000104,0.1272,0.001785,5.23,0.01957,0,1,0
110100000000,110400000000,3007227894,0,463440447,0.003742,0.01324,0.01382,0.0002069,0.0003166,0.01329,8.678e-05,0.0001049,0.0636,0.003216,6.018,0.02591,0,1,0
110400000000,110700000000,3007227894,0,463440447,0.005203,0.01329,0.01382,0.000289,0.0003977,0.01335,9.06e-05,0.0001049,0.09412,0.003502,4.683,0.01855,0,1,0
110700000000,111000000000,3007227894,0,463440447,0.004913,0.01331,0.01439,0.0003185,0.0004282,0.01335,0.000123,0.0001059,0.06909,0.005142,5.195,0.0216,0,1,0
116100000000,116400000000,3007227894,0,463440447,0.005173,0.01349,0.01552,0.0009594,0.001068,0.01353,7.343e-05,0.0001059,0.03973,0.001785,4.532,0.01635,0,1,0
116400000000,116700000000,3007227894,0,463440447,0.00531,0.0135,0.01552,0.0004387,0.0005474,0.01353,9.727e-05,0.0001049,0.04163,0.006783,5.191,0.01958,0,1,0
116700000000,117000000000,3007227894,0,463440447,0.004105,0.0135,0.01552,0.0005636,0.0006733,0.01353,7.725e-05,0.000104,0.04303,0.003284,5.302,0.02131,0,1,0
117000000000,117300000000,3007227894,0,463440447,0.005173,0.0135,0.0155,0.0003605,0.0004711,0.01353,6.199e-05,0.0001049,0.04364,0.001785,5.116,0.02128,0,1,0
117300000000,117600000000,3007227894,0,463440447,0.005142,0.01352,0.0155,0.0005226,0.0006332,0.01353,6.866e-05,0.0001049,0.04218,0.001785,5.295,0.02233,0,1,0
117600000000,117900000000,3007227894,0,463440447,0.005318,0.01353,0.0155,0.0006924,0.000803,0.01357,6.676e-05,0.0001059,0.06207,0.002857,4.788,0.01933,0,1,0
117900000000,118200000000,3007227894,0,463440447,0.005722,0.01353,0.0155,0.0008869,0.0009975,0.01357,7.439e-05,0.0001049,0.04095,0.002644,4.736,0.01868,0,1,0
118200000000,118500000000,3007227894,0,463440447,0.005684,0.01355,0.0155,0.001106,0.001217,0.01358,6.199e-05,0.0001049,0.04572,0.001928,4.452,0.01753,0,1,0
118500000000,118800000000,3007227894,0,463440447,0.005852,0.01357,0.0155,0.001318,0.001429,0.01361,8.488e-05,0.0001049,0.04376,0.004288,4.367,0.01624,0,1,0
118800000000,119100000000,3007227894,0,463440447,0.005745,0.01358,0.0155,0.0008354,0.000946,0.01361,0.0001106,0.0001049,0.05414,0.004143,4.804,0.01774,0,1,0
119100000000,119400000000,3007227894,0,463440447,0.005302,0.01358,0.0155,0.0004349,0.0005465,0.0136,8.202e-05,0.000104,0.03967,0.002499,4.62,0.01665,0,1,0
119400000000,119700000000,3007227894,0,463440447,0.005241,0.01357,0.0155,0.0006304,0.000742,0.01358,8.202e-05,0.000104,0.05176,0.002213,4.654,0.01597,0,1,0
119700000000,120000000000,3007227894,0,463440447,0.005531,0.01357,0.0155,0.0007925,0.0009031,0.01361,9.537e-05,0.0001049,0.03973,0.005501,4.782,0.01702,0,1,0
120000000000,120300000000,3007227894,0,463440447,0.006096,0.0136,0.0155,0.0008535,0.0009651,0.01363,8.011e-05,0.0001049,0.04614,0.002716,5.399,0.01994,0,1,0
120300000000,120600000000,3007227894,0,463440447,0.005966,0.0136,0.0155,0.0004034,0.000515,0.01363,8.202e-05,0.0001049,0.04407,0.003216,5.665,0.02182,0,1,0
120600000000,120900000000,3007227894,0,463440447,0.005402,0.0136,0.0155,0.0005846,0.0006971,0.01363,0.0001192,0.000104,0.1234,0.008636,5.125,0.01921,0,1,0
126000000000,126300000000,3007227894,0,463440447,0.005577,0.01367,0.01552,0.0007505,0.0008678,0.0137,7.057e-05,0.000103,0.03839,0.002499,5.536,0.02012,0,1,0
126300000000,126600000000,3007227894,0,463440447,0.004906,0.01369,0.01552,0.000946,0.001062,0.01373,7.82e-05,0.000103,0.03467,0.005432,5.055,0.01847,0,1,0
126600000000,126900000000,3007227894,0,463440447,0.005409,0.01369,0.01552,0.001137,0.001255,0.01372,0.0001135,0.000103,0.08728,0.004143,5.048,0.01817,0,1,0
126900000000,127200000000,3007227894,0,463440447,0.006012,0.01372,0.01552,0.001293,0.00141,0.01373,0.0001135,0.000102,0.04083,0.005646,5.06,0.01803,0,1,0
127200000000,127500000000,3007227894,0,463440447,0.005951,0.01372,0.01552,0.00148,0.001598,0.01376,7.629e-05,0.000103,0.04315,0.00243,5.077,0.01736,0,1,0
127500000000,127800000000,3007227894,0,463440447,0.005569,0.0137,0.01552,0.001524,0.001642,0.01372,9.918e-05,0.000103,0.23,0.003784,6.225,0.02314,0,1,0
127800000000,128100000000,3007227894,0,463440447,0.005692,0.01372,0.01552,0.001074,0.001192,0.01373,0.0001068,0.000104,0.0614,0.002071,6.198,0.02319,0,1,0
128100000000,128400000000,3007227894,0,463440447,0.005615,0.01372,0.01552,0.001247,0.001364,0.01375,0.0001583,0.000104,0.04553,0.003857,5.557,0.01987,0,1,0
128400000000,128700000000,3007227894,0,463440447,0.005615,0.01372,0.01552,0.001036,0.001154,0.01375,9.537e-05,0.000103,0.04266,0.003784,5.462,0.01932,0,1,0
128700000000,129000000000,3007227894,0,463440447,0.005234,0.01372,0.01552,0.0008039,0.0009212,0.01373,6.294e-05,0.000102,0.04663,0.001928,5.899,0.02166,0,1,0
129000000000,129300000000,3007227894,0,463440447,0.005173,0.01373,0.01552,0.0009785,0.001095,0.01376,8.011e-05,0.000103,0.1003,0.003643,5.386,0.02025,0,1,0
129300000000,129600000000,3007227894,0,463440447,0.00518,0.01375,0.01552,0.001154,0.001272,0.01378,7.915e-05,0.000103,0.05542,0.002144,5.325,0.01982,0,1,0
129600000000,129900000000,3007227894,0,463440447,0.006454,0.01375,0.01552,0.001362,0.00148,0.01379,9.155e-05,0.000104,0.05585,0.002716,5.25,0.01842,0,1,0
129900000000,130200000000,3007227894,0,463440447,0.008072,0.01381,0.01552,0.0009956,0.001114,0.01385,8.965e-05,0.000103,0.06067,0.002716,5.95,0.02128,0,1,0
130200000000,130500000000,3007227894,0,463440447,0.005455,0.01376,0.01552,0.001011,0.001129,0.01378,8.202e-05,0.000103,0.05121,0.003857,5.019,0.01813,0,1,0
130500000000,130800000000,3007227894,0,463440447,0.004974,0.01376,0.01552,0.001198,0.001316,0.01381,8.583e-05,0.000104,0.03918,0.004715,5.047,0.01786,0,1,0
130800000000,131100000000,3007227894,0,463440447,0.005615,0.01376,0.01552,0.001369,0.001488,0.01381,9.155e-05,0.000103,0.04791,0.003571,6.132,0.02276,0,1,0
141000000000,141300000000,3007227894,0,463440447,0.003815,0.0139,0.0159,0.001604,0.001722,0.01398,6.199e-05,9.441e-05,0.04333,0.001715,6.174,0.02323,0,1,0
141300000000,141600000000,3007227894,0,463440447,0.003662,0.0139,0.01578,0.001181,0.001299,0.01399,8.392e-05,9.441e-05,0.1055,0.001286,6.001,0.0231,0,1,0
141600000000,141900000000,3007227894,0,463440447,0.003494,0.0139,0.01552,0.0009241,0.001043,0.01392,7.153e-05,9.537e-05,0.04034,0.003429,6.083,0.02375,0,1,0
141900000000,142200000000,3007227894,0,463440447,0.003716,0.01392,0.01552,0.001026,0.001144,0.01393,6.008e-05,9.537e-05,0.03748,0.002213,5.878,0.02255,0,1,0
142200000000,142500000000,3007227894,0,463440447,0.003841,0.01392,0.01552,0.001137,0.001255,0.01393,5.817e-05,9.537e-05,0.04431,0.001429,6.793,0.02742,0,1,0
142500000000,142800000000,3007227894,0,463440447,0.003857,0.01392,0.01552,0.00124,0.001358,0.01393,5.817e-05,9.537e-05,0.03998,0.001499,6.364,0.02598,0,1,0
142800000000,143100000000,3007227894,0,463440447,0.004814,0.01393,0.01552,0.001348,0.001467,0.01393,5.722e-05,9.632e-05,0.03986,0.001429,6.362,0.02583,0,1,0
143100000000,143400000000,3007227894,0,463440447,0.004395,0.01393,0.01552,0.001482,0.0016,0.01396,7.153e-05,9.441e-05,0.03876,0.003429,6.389,0.02639,0,1,0
143400000000,143700000000,3007227894,0,463440447,0.004189,0.01395,0.0162,0.001562,0.00168,0.01399,7.439e-05,9.441e-05,0.0426,0.004143,6.382,0.02569,0,1,0
143700000000,144000000000,3007227894,0,463440447,0.00457,0.01395,0.01599,0.001329,0.001448,0.01401,6.485e-05,9.537e-05,0.03998,0.002285,6.238,0.0245,0,1,0
144000000000,144300000000,3007227894,0,463440447,0.004494,0.01395,0.01552,0.0008965,0.001015,0.01396,6.676e-05,9.537e-05,0.04572,0.002357,6.76,0.02782,0,1,0
144300000000,144600000000,3007227894,0,463440447,0.004074,0.01396,0.01552,0.001019,0.001135,0.01396,5.913e-05,9.537e-05,0.03937,0.001785,6.076,0.02378,0,1,0
144600000000,144900000000,3007227894,0,463440447,0.004013,0.01395,0.01552,0.001137,0.001253,0.01396,7.82e-05,9.632e-05,0.04285,0.001572,5.618,0.02152,0,1,0
144900000000,145200000000,3007227894,0,463440447,0.003983,0.01395,0.01552,0.001253,0.001369,0.01396,0.0001097,9.632e-05,0.0481,0.002571,6.438,0.0255,0,1,0
145200000000,145500000000,3007227894,0,463440447,0.004044,0.01395,0.01552,0.001358,0.001476,0.01396,6.39e-05,9.441e-05,0.04553,0.001928,6.505,0.02637,0,1,0
145500000000,145800000000,3007227894,0,463440447,0.004265,0.01396,0.01552,0.001123,0.001242,0.01398,7.248e-05,9.441e-05,0.05536,0.003643,6.634,0.02659,0,1,0
145800000000,146100000000,3007227894,0,463440447,0.004295,0.01396,0.01552,0.0006666,0.0007839,0.01396,7.82e-05,9.537e-05,0.04675,0.002357,6.881,0.02759,0,1,0
151200000000,151500000000,3007227894,0,463440447,0.002182,0.01399,0.01552,0.0007524,0.0008698,0.01401,5.722e-05,9.537e-05,0.04218,0.002499,8.534,0.03817,0,1,0
151500000000,151800000000,3007227894,0,463440447,0.002129,0.01401,0.01552,0.0007648,0.0008821,0.01402,5.341e-05,9.537e-05,0.01886,0.001785,8.343,0.03717,0,1,0
151800000000,152100000000,3007227894,0,463440447,0.002033,0.01401,0.01552,0.0007763,0.0008936,0.01402,5.913e-05,9.537e-05,0.01312,0.003216,6.566,0.02753,0,1,0
152100000000,152400000000,3007227894,0,463440447,0.001886,0.01401,0.01552,0.0007858,0.0009031,0.01402,5.817e-05,9.537e-05,0.009598,0.001572,8.201,0.03619,0,1,0
152400000000,152700000000,3007227894,0,463440447,0.001844,0.01401,0.01552,0.0007963,0.0009136,0.01402,4.959e-05,9.537e-05,0.01099,0.001858,5.762,0.02388,0,1,0
152700000000,153000000000,3007227894,0,463440447,0.002087,0.01401,0.01552,0.000802,0.0009193,0.01402,6.39e-05,9.537e-05,0.01227,0.002857,9.824,0.04335,0,1,0
153000000000,153300000000,3007227894,0,463440447,0.00222,0.01401,0.01552,0.0008135,0.0009308,0.01402,5.054e-05,9.537e-05,0.01128,0.002144,9.67,0.04281,0,1,0
153300000000,153600000000,3007227894,0,463440447,0.00219,0.01401,0.01552,0.0008221,0.0009403,0.01402,6.104e-05,9.537e-05,0.01282,0.002144,8.379,0.03581,0,1,0
153600000000,153900000000,3007227894,0,463440447,0.002201,0.01402,0.01552,0.0008354,0.0009537,0.01404,4.578e-05,9.537e-05,0.01167,0.001429,7.925,0.03425,0,1,0
153900000000,154200000000,3007227894,0,463440447,0.002426,0.01402,0.01552,0.0008554,0.0009727,0.01404,4.768e-05,9.537e-05,0.01488,0.001143,8.05,0.03495,0,1,0
154200000000,154500000000,3007227894,0,463440447,0.002285,0.01402,0.01553,0.0008793,0.0009975,0.01404,6.485e-05,9.537e-05,0.01277,0.003429,8.393,0.03666,0,1,0
154500000000,154800000000,3007227894,0,463440447,0.003315,0.01402,0.01552,0.0008965,0.001015,0.01404,8.488e-05,9.537e-05,0.02405,0.003284,7.159,0.03069,0,1,0
154800000000,155100000000,3007227894,0,463440447,0.002823,0.01402,0.01552,0.0009251,0.001043,0.01404,5.341e-05,9.537e-05,0.01353,0.001572,8.835,0.03831,0,1,0
155100000000,155400000000,3007227894,0,463440447,0.002621,0.01402,0.01552,0.0009546,0.001072,0.01404,5.15e-05,9.632e-05,0.0132,0.001072,8.265,0.03643,0,1,0
155400000000,155700000000,3007227894,0,463440447,0.002392,0.01401,0.01553,0.0009804,0.001099,0.01404,5.245e-05,9.632e-05,0.01353,0.001215,8.3,0.03667,0,1,0
155700000000,156000000000,3007227894,0,463440447,0.002483,0.01401,0.01553,0.001009,0.001125,0.01402,4.959e-05,9.632e-05,0.06482,0.001358,6.155,0.02504,0,1,0
161100000000,161400000000,3007227894,0,463440447,0.001972,0.01404,0.01553,0.0007057,0.000824,0.01407,4.578e-05,9.537e-05,0.01987,0.001072,10.35,0.04615,0,1,0
161400000000,161700000000,3007227894,0,463440447,0.002003,0.01405,0.01553,0.0007114,0.0008297,0.01407,4.482e-05,9.537e-05,0.01462,0.0009289,10.32,0.04572,0,1,0
161700000000,162000000000,3007227894,0,463440447,0.002487,0.01405,0.01553,0.000721,0.0008392,0.01407,5.722e-05,9.537e-05,0.0177,0.002285,2.874,0.009533,0,1,0
162000000000,162300000000,3007227894,0,463440447,0.002254,0.01405,0.01552,0.0007334,0.0008526,0.01408,4.768e-05,9.537e-05,0.01703,0.0008574,10.12,0.04487,0,1,0
162300000000,162600000000,3007227894,0,463440447,0.002186,0.01405,0.01552,0.0007448,0.000864,0.01407,5.054e-05,9.537e-05,0.01077,0.001358,9.728,0.04267,0,1,0
162600000000,162900000000,3007227894,0,463440447,0.002216,0.01405,0.01553,0.0007563,0.0008755,0.01408,5.054e-05,9.537e-05,0.02658,0.0009289,9.691,0.04242,0,1,0
162900000000,163200000000,3007227894,0,463440447,0.002182,0.01405,0.01553,0.0007706,0.0008898,0.01407,5.817e-05,9.537e-05,0.0118,0.001858,9.038,0.03935,0,1,0
163200000000,163500000000,3007227894,0,463440447,0.002125,0.01405,0.01553,0.0007849,0.0009041,0.01407,4.864e-05,9.537e-05,0.01147,0.001358,8.855,0.03844,0,1,0
163500000000,163800000000,3007227894,0,463440447,0.002186,0.01405,0.01553,0.0007982,0.0009165,0.01408,4.482e-05,9.537e-05,0.01523,0.0007858,7.076,0.02949,0,1,0
163800000000,164100000000,3007227894,0,463440447,0.002079,0.01405,0.01553,0.0008097,0.0009289,0.01407,4.864e-05,9.537e-05,0.01135,0.001072,10.73,0.048,0,1,0
164100000000,164400000000,3007227894,0,463440447,0.002155,0.01405,0.01553,0.000824,0.0009422,0.01407,5.15e-05,9.537e-05,0.01192,0.001715,9.455,0.0415,0,1,0
164400000000,164700000000,3007227894,0,463440447,0.002163,0.01407,0.01553,0.0008373,0.0009556,0.01408,5.245e-05,9.537e-05,0.01424,0.001715,9.505,0.04127,0,1,0
164700000000,165000000000,3007227894,0,463440447,0.002468,0.01407,0.01552,0.0008535,0.0009718,0.01407,4.387e-05,9.537e-05,0.01398,0.0009995,8.949,0.0375,0,1,0
165000000000,165300000000,3007227894,0,463440447,0.002266,0.01407,0.01552,0.0008755,0.0009956,0.01407,5.913e-05,9.537e-05,0.01085,0.002285,9.34,0.0408,0,1,0
165300000000,165600000000,3007227894,0,463440447,0.00251,0.0141,0.01552,0.0008955,0.001015,0.0141,5.627e-05,9.537e-05,0.02197,0.003216,4.511,0.01693,0,1,0
165600000000,165900000000,3007227894,0,463440447,0.002274,0.0141,0.01552,0.0009174,0.001036,0.01411,4.673e-05,9.537e-05,0.008621,0.001785,8.481,0.0367,0,1,0
165900000000,166200000000,3007227894,0,463440447,0.002037,0.01411,0.01552,0.0009346,0.001055,0.01413,4.673e-05,9.537e-05,0.009888,0.002144,9.642,0.04172,0,1,0
166200000000,166500000000,3007227894,0,463440447,0.001783,0.0141,0.01553,0.0009422,0.00106,0.0141,4.292e-05,9.537e-05,0.008453,0.001499,9.747,0.04325,0,1,0
166500000000,166800000000,3007227894,0,463440447,0.001831,0.0141,0.01553,0.000947,0.001066,0.0141,4.292e-05,9.632e-05,0.02615,0.001572,10.71,0.0473,0,1,0
166800000000,167100000000,3007227894,0,463440447,0.00182,0.0141,0.01553,0.0009508,0.00107,0.01411,4.578e-05,9.632e-05,0.05743,0.001358,7.777,0.03225,0,1,0
167100000000,167400000000,3007227894,0,463440447,0.001787,0.0141,0.01553,0.0009546,0.001074,0.0141,3.815e-05,9.632e-05,0.01079,0.0009995,11.08,0.04957,0,1,0
167400000000,167700000000,3007227894,0,463440447,0.00182,0.01411,0.01553,0.0009594,0.001078,0.01411,4.387e-05,9.632e-05,0.00779,0.001429,10.57,0.04723,0,1,0
167700000000,168000000000,3007227894,0,463440447,0.001884,0.01411,0.01553,0.0009642,0.001083,0.01413,5.245e-05,9.632e-05,0.009705,0.002285,10.6,0.04745,0,1,0
168000000000,168300000000,3007227894,0,463440447,0.003151,0.01411,0.01552,0.0009995,0.001118,0.01413,5.627e-05,9.632e-05,0.02396,0.001642,7.763,0.0323,0,1,0
168300000000,168600000000,3007227894,0,463440447,0.00238,0.01413,0.01553,0.00103,0.001148,0.01414,6.104e-05,9.632e-05,0.01122,0.003143,8.838,0.03766,0,1,0
168600000000,168900000000,3007227894,0,463440447,0.00248,0.01411,0.01553,0.001059,0.001177,0.01414,5.15e-05,9.632e-05,0.01135,0.00243,8.654,0.0371,0,1,0
168900000000,169200000000,3007227894,0,463440447,0.002861,0.01421,0.01553,0.001089,0.001207,0.01424,5.245e-05,9.632e-05,0.04016,0.001858,6.129,0.02536,0,1,0
169200000000,169500000000,3007227894,0,463440447,0.002487,0.01424,0.01552,0.00111,0.00123,0.01425,5.054e-05,9.632e-05,0.009644,0.001499,5.839,0.02378,0,1,0
169500000000,169800000000,3007227894,0,463440447,0.002422,0.01424,0.01553,0.001125,0.001245,0.01425,5.436e-05,9.632e-05,0.01086,0.001429,8.614,0.03674,0,1,0
169800000000,170100000000,3007227894,0,463440447,0.002377,0.01424,0.01553,0.001139,0.001259,0.01425,4.768e-05,9.632e-05,0.01222,0.001072,9.774,0.04257,0,1,0
170100000000,170400000000,3007227894,0,463440447,0.002628,0.01424,0.01553,0.001146,0.001265,0.01425,5.054e-05,9.632e-05,0.01016,0.001286,8.955,0.03759,0,1,0
170400000000,170700000000,3007227894,0,463440447,0.01288,0.0144,0.01614,0.00104,0.00116,0.01459,0.0001011,9.632e-05,0.03204,0.003929,5.572,0.02171,0,1,0
170700000000,171000000000,3007227894,0,463440447,0.01291,0.01443,0.01552,0.0008678,0.0009861,0.01448,9.918e-05,9.632e-05,0.03302,0.004074,5.412,0.02145,0,1,0
171000000000,171300000000,3007227894,0,463440447,0.01302,0.01454,0.01663,0.001099,0.001219,0.01466,0.0001078,9.537e-05,0.03778,0.003857,5.409,0.02098,0,1,0
171300000000,171600000000,3007227894,0,463440447,0.01311,0.01456,0.01572,0.0007992,0.0009184,0.01462,0.0001411,9.632e-05,0.04596,0.009567,4.451,0.01669,0,1,0
171600000000,171900000000,3007227894,0,463440447,0.01187,0.01453,0.01552,0.0003843,0.0005026,0.01456,9.727e-05,9.537e-05,0.08118,0.002998,5.406,0.02145,0,1,0
171900000000,172200000000,3007227894,0,463440447,0.01344,0.01456,0.01552,0.0007553,0.0008736,0.01462,0.0001154,9.537e-05,0.07629,0.004211,5.515,0.022,0,1,0
172200000000,172500000000,3007227894,0,463440447,0.01297,0.01459,0.01552,0.0004616,0.0005789,0.01465,0.0001202,9.632e-05,0.09119,0.006287,5.726,0.02294,0,1,0
172500000000,172800000000,3007227894,0,463440447,0.01326,0.01463,0.01578,0.0008049,0.0009222,0.01469,0.0001535,9.537e-05,0.04102,0.01129,5.162,0.02017,0,1,0
172800000000,173100000000,3007227894,0,463440447,0.01283,0.01465,0.01552,0.0005779,0.0006962,0.01466,0.0001278,9.632e-05,0.05536,0.003998,5.397,0.02225,0,1,0
173100000000,173400000000,3007227894,0,463440447,0.01289,0.01463,0.01566,0.0005808,0.000699,0.01472,9.823e-05,9.537e-05,0.06134,0.00293,5.574,0.02262,0,1,0
173400000000,173700000000,3007227894,0,463440447,0.01323,0.01465,0.01552,0.0007067,0.0008249,0.01469,0.0001316,9.632e-05,0.03036,0.006645,5.526,0.02202,0,1,0
173700000000,174000000000,3007227894,0,463440447,0.01294,0.01474,0.01672,0.0009518,0.00107,0.01483,0.0001154,9.537e-05,0.0304,0.003357,5.436,0.02156,0,1,0
174000000000,174300000000,3007227894,0,463440447,0.01355,0.01476,0.01663,0.0009356,0.001053,0.01485,0.0001116,9.632e-05,0.09094,0.003071,5.38,0.0213,0,1,0
174300000000,174600000000,3007227894,0,463440447,0.01265,0.01476,0.01651,0.000927,0.00104,0.01485,9.918e-05,9.632e-05,0.03448,0.003502,5.142,0.01982,0,1,0
174600000000,174900000000,3007227894,0,463440447,0.01357,0.01477,0.01663,0.000927,0.00103,0.01485,0.0001259,9.632e-05,0.03088,0.004288,5.883,0.02355,0,1,0
174900000000,175200000000,3007227894,0,463440447,0.01291,0.01472,0.01669,0.0009289,0.001026,0.01483,0.0001287,9.632e-05,0.05914,0.005142,5.428,0.02159,0,1,0
175200000000,175500000000,3007227894,0,463440447,0.01372,0.01477,0.01608,0.0005989,0.0006981,0.01485,0.0002155,9.632e-05,0.05853,0.02258,5.715,0.02271,0,1,0
175500000000,175800000000,3007227894,0,463440447,0.01509,0.01472,0.01552,0.0006447,0.0007467,0.01477,0.0001383,9.632e-05,0.03253,0.003857,6.172,0.02487,0,1,0
175800000000,176100000000,3007227894,0,463440447,0.01523,0.01474,0.01552,0.0004911,0.0005932,0.01479,0.0001564,9.632e-05,0.06458,0.005928,5.795,0.02336,0,1,0
186300000000,186600000000,3007227894,0,463440447,0.01277,0.01509,0.01654,0.0005865,0.0006886,0.01518,0.000206,9.727e-05,0.02722,0.007355,5.487,0.02235,0,1,0
186600000000,186900000000,3007227894,0,463440447,0.01288,0.01511,0.01663,0.0005779,0.00068,0.01527,0.0002117,9.727e-05,0.04913,0.007141,5.664,0.02261,0,1,0
186900000000,187200000000,3007227894,0,463440447,0.01306,0.01512,0.01633,0.0005236,0.0006199,0.01527,0.0002022,9.727e-05,0.0564,0.00914,5.331,0.02067,0,1,0
187200000000,187500000000,3007227894,0,463440447,0.01216,0.01514,0.01648,0.0005531,0.0006504,0.01526,0.0001507,9.727e-05,0.03735,0.005501,5.139,0.01976,0,1,0
187500000000,187800000000,3007227894,0,463440447,0.01257,0.01514,0.01672,0.0005531,0.0006495,0.0152,0.0001183,9.727e-05,0.03424,0.004646,5.053,0.01892,0,1,0
187800000000,188100000000,3007227894,0,463440447,0.01244,0.01517,0.01654,0.000555,0.0006351,0.01527,0.0002394,9.727e-05,0.07788,0.02557,4.67,0.01737,0,1,0
188100000000,188400000000,3007227894,0,463440447,0.01208,0.01515,0.01666,0.0005274,0.0006256,0.01526,0.0001183,9.727e-05,0.07068,0.005501,5.016,0.01887,0,1,0
188400000000,188700000000,3007227894,0,463440447,0.01166,0.01517,0.01678,0.0005312,0.0006208,0.01523,0.000165,9.727e-05,0.0874,0.009933,4.709,0.01759,0,1,0
188700000000,189000000000,3007227894,0,463440447,0.0119,0.01515,0.01654,0.0005369,0.000617,0.0152,0.0001526,9.727e-05,0.03931,0.008713,4.769,0.01757,0,1,0
189000000000,189300000000,3007227894,0,463440447,0.01173,0.01517,0.01666,0.0005245,0.0006084,0.01524,0.0001163,9.727e-05,0.03067,0.007141,5.039,0.01887,0,1,0
189300000000,189600000000,3007227894,0,463440447,0.01146,0.01515,0.01617,0.0003662,0.0004807,0.01523,0.0001297,9.727e-05,0.0264,0.006569,4.738,0.01744,0,1,0
189600000000,189900000000,3007227894,0,463440447,0.01035,0.01514,0.01566,0.0004005,0.0004807,0.0152,9.441e-05,9.727e-05,0.03729,0.003143,4.868,0.01812,0,1,0
189900000000,190200000000,3007227894,0,463440447,0.005257,0.01508,0.01566,0.0004539,0.0005264,0.01515,0.0001402,9.727e-05,0.01776,0.01178,5.747,0.02301,0,1,0
190200000000,190500000000,3007227894,0,463440447,0.004402,0.01508,0.01599,0.0004959,0.0005751,0.01517,0.0001116,9.727e-05,0.01581,0.01743,5.914,0.02375,0,1,0
190500000000,190800000000,3007227894,0,463440447,0.003696,0.01505,0.01566,0.0004683,0.0005655,0.01512,6.58e-05,9.823e-05,0.01414,0.002785,6.286,0.02627,0,1,0
190800000000,191100000000,3007227894,0,463440447,0.004013,0.01505,0.01562,0.0003691,0.0004663,0.01511,7.057e-05,9.823e-05,0.01555,0.004784,6.333,0.02637,0,1,0
191100000000,191400000000,3007227894,0,463440447,0.004219,0.01505,0.01552,0.0003109,0.0004101,0.01506,8.202e-05,9.823e-05,0.03381,0.003716,6.098,0.02551,0,1,0
191400000000,191700000000,3007227894,0,463440447,0.004066,0.01505,0.01552,0.0004044,0.0005035,0.01505,5.436e-05,9.727e-05,0.01596,0.001429,5.632,0.02293,0,1,0
191700000000,192000000000,3007227894,0,463440447,0.004768,0.01505,0.01562,0.0004625,0.0005608,0.01514,8.488e-05,9.727e-05,0.06409,0.004501,6.983,0.02908,0,1,0
192000000000,192300000000,3007227894,0,463440447,0.004562,0.01505,0.01552,0.0004635,0.0005627,0.01508,9.918e-05,9.727e-05,0.01445,0.005432,7.197,0.0302,0,1,0
192300000000,192600000000,3007227894,0,463440447,0.004425,0.01505,0.01578,0.0004692,0.0005665,0.01514,7.057e-05,9.727e-05,0.01546,0.001429,7.314,0.031,0,1,0
192600000000,192900000000,3007227894,0,463440447,0.004379,0.01505,0.01552,0.0004148,0.0005093,0.01505,6.008e-05,9.727e-05,0.02264,0.001215,6.387,0.02657,0,1,0
192900000000,193200000000,3007227894,0,463440447,0.004349,0.01506,0.01578,0.0004644,0.0005598,0.01518,8.297e-05,9.727e-05,0.01855,0.004715,7.566,0.03214,0,1,0
193200000000,193500000000,3007227894,0,463440447,0.004158,0.01505,0.01578,0.0004635,0.0005589,0.01506,9.251e-05,9.823e-05,0.01434,0.004929,7.736,0.03313,0,1,0
193500000000,193800000000,3007227894,0,463440447,0.003944,0.01506,0.01578,0.000206,0.0003004,0.01515,6.866e-05,9.823e-05,0.01672,0.004784,7.55,0.03265,0,1,0
193800000000,194100000000,3007227894,0,463440447,0.004059,0.01506,0.01552,0.0002012,0.0002956,0.01508,7.057e-05,9.823e-05,0.01593,0.005501,7.405,0.03217,0,1,0
194100000000,194400000000,3007227894,0,463440447,0.004105,0.01511,0.01552,0.0002832,0.0003796,0.01514,9.06e-05,9.823e-05,0.02274,0.01215,7.436,0.03245,0,1,0
194400000000,194700000000,3007227894,0,463440447,0.00399,0.01512,0.01552,0.0003653,0.0004683,0.01514,7.057e-05,9.727e-05,0.01515,0.005287,7.006,0.0291,0,1,0
194700000000,195000000000,3007227894,0,463440447,0.003784,0.01512,0.0159,0.000391,0.0004921,0.01515,6.199e-05,9.727e-05,0.02173,0.004074,7.272,0.0304,0,1,0
195000000000,195300000000,3007227894,0,463440447,0.003689,0.01511,0.01566,0.0003405,0.0004416,0.01514,5.436e-05,9.727e-05,0.01752,0.002213,7.248,0.03037,0,1,0
195300000000,195600000000,3007227894,0,463440447,0.002338,0.01511,0.01553,0.0002813,0.0003824,0.01512,4.482e-05,9.727e-05,0.01012,0.001215,8.741,0.03757,0,1,0
195600000000,195900000000,3007227894,0,463440447,0.001911,0.01509,0.01553,0.0002861,0.0003872,0.01511,4.673e-05,9.727e-05,0.008606,0.001143,9.124,0.03864,0,1,0
195900000000,196200000000,3007227894,0,463440447,0.001528,0.01509,0.01553,0.0002928,0.0003948,0.01511,3.624e-05,9.727e-05,0.009537,0.0009289,8.323,0.03554,0,1,0
201300000000,201600000000,3007227894,0,463440447,0.005188,0.0153,0.01627,0.0002785,0.0003729,0.01538,8.202e-05,9.823e-05,0.07617,0.004288,5.121,0.02032,0,1,0
201600000000,201900000000,3007227894,0,463440447,0.004684,0.01529,0.01581,0.0002346,0.000329,0.01537,9.441e-05,9.727e-05,0.0267,0.005501,4.908,0.01918,0,1,0
201900000000,202200000000,3007227894,0,463440447,0.004715,0.01527,0.01552,0.0002337,0.00033,0.01529,7.153e-05,9.727e-05,0.01804,0.003216,5.366,0.02158,0,1,0
202200000000,202500000000,3007227894,0,463440447,0.004845,0.01529,0.01617,0.0002594,0.0003548,0.01535,0.0001001,9.823e-05,0.04895,0.01279,5.348,0.02148,0,1,0
202500000000,202800000000,3007227894,0,463440447,0.005638,0.0153,0.01584,0.000247,0.0003386,0.01535,0.0001202,9.823e-05,0.04419,0.01807,5.996,0.02467,0,1,0
202800000000,203100000000,3007227894,0,463440447,0.005409,0.01534,0.01617,0.0002289,0.0003414,0.01541,0.0002766,9.823e-05,0.02103,0.00914,5.723,0.02285,0,1,0
203100000000,203400000000,3007227894,0,463440447,0.004387,0.0153,0.01617,0.000248,0.0003529,0.01535,8.392e-05,9.727e-05,0.05518,0.005646,5.162,0.02027,0,1,0
203400000000,203700000000,3007227894,0,463440447,0.004349,0.0153,0.01593,0.0002222,0.0003271,0.01534,7.248e-05,9.727e-05,0.06396,0.00457,5.291,0.02136,0,1,0
203700000000,204000000000,3007227894,0,463440447,0.004303,0.01537,0.01678,0.0002584,0.0003586,0.01541,5.627e-05,9.727e-05,0.02469,0.001358,4.722,0.01865,0,1,0
204000000000,204300000000,3007227894,0,463440447,0.004211,0.01537,0.017,0.0002775,0.0003748,0.01541,6.39e-05,9.823e-05,0.08521,0.001858,4.889,0.01901,0,1,0
204300000000,204600000000,3007227894,0,463440447,0.004601,0.01538,0.01718,0.000288,0.0003843,0.01541,8.392e-05,9.823e-05,0.01743,0.005287,5.244,0.02128,0,1,0
204600000000,204900000000,3007227894,0,463440447,0.004753,0.0154,0.01736,0.0003643,0.0004578,0.01541,6.294e-05,9.823e-05,0.01691,0.001499,5.666,0.02385,0,1,0
204900000000,205200000000,3007227894,0,463440447,0.004402,0.0154,0.0174,0.000452,0.0005436,0.01541,7.248e-05,9.632e-05,0.02341,0.004784,4.233,0.01671,0,1,0
205200000000,205500000000,3007227894,0,463440447,0.004662,0.0154,0.0174,0.0005569,0.0006485,0.01543,6.199e-05,9.727e-05,0.02048,0.002716,5.243,0.02153,0,1,0
205500000000,205800000000,3007227894,0,463440447,0.00473,0.0154,0.01736,0.0006771,0.0007687,0.01543,7.153e-05,9.632e-05,0.02502,0.005287,5.186,0.02107,0,1,0
205800000000,206100000000,3007227894,0,463440447,0.004738,0.0154,0.0174,0.0007839,0.0008755,0.01543,6.676e-05,9.632e-05,0.01797,0.003502,5.624,0.02313,0,1,0
206100000000,206400000000,3007227894,0,463440447,0.004936,0.01541,0.0174,0.0009184,0.001011,0.01544,7.439e-05,9.632e-05,0.06995,0.004211,5.283,0.02144,0,1,0
206400000000,206700000000,3007227894,0,463440447,0.00499,0.0154,0.0174,0.0009785,0.00107,0.01543,5.913e-05,9.727e-05,0.02386,0.001999,5.428,0.02202,0,1,0
206700000000,207000000000,3007227894,0,463440447,0.005417,0.01538,0.01727,0.0007191,0.0008087,0.0154,5.817e-05,9.727e-05,0.0282,0.001286,6.168,0.02541,0,1,0
207000000000,207300000000,3007227894,0,463440447,0.004539,0.01535,0.01556,0.0001554,0.0002346,0.0154,9.251e-05,9.727e-05,0.02893,0.009216,4.29,0.01694,0,1,0
207300000000,207600000000,3007227894,0,463440447,0.004234,0.0154,0.01736,0.0002546,0.0003357,0.01541,8.583e-05,9.823e-05,0.01855,0.004356,5.601,0.02493,0,1,0
207600000000,207900000000,3007227894,0,463440447,0.005249,0.01538,0.01645,0.000247,0.0003214,0.01543,7.534e-05,9.727e-05,0.02444,0.004929,5.161,0.02237,0,1,0
207900000000,208200000000,3007227894,0,463440447,0.00473,0.01541,0.01749,0.000349,0.0004244,0.01546,7.057e-05,9.632e-05,0.03845,0.003716,5.459,0.02381,0,1,0
208200000000,208500000000,3007227894,0,463440447,0.003494,0.01537,0.01657,0.0002918,0.0003633,0.01543,5.245e-05,9.727e-05,0.01154,0.001499,5.358,0.02354,0,1,0
208500000000,208800000000,3007227894,0,463440447,0.002964,0.01535,0.01593,0.0002251,0.0002966,0.01541,8.583e-05,9.537e-05,0.01678,0.004646,5.719,0.02531,0,1,0
208800000000,209100000000,3007227894,0,463440447,0.003353,0.01538,0.01685,0.0002508,0.0003223,0.01541,6.104e-05,9.537e-05,0.01794,0.004997,5.235,0.02204,0,1,0
209100000000,209400000000,3007227894,0,463440447,0.003323,0.0154,0.01709,0.000246,0.0003281,0.01541,7.153e-05,9.537e-05,0.02222,0.005287,6.54,0.02671,0,1,0
209400000000,209700000000,3007227894,0,463440447,0.00359,0.0154,0.01721,0.0002403,0.0003214,0.01541,6.676e-05,9.537e-05,0.01572,0.005432,7.263,0.0291,0,1,0
209700000000,210000000000,3007227894,0,463440447,0.003345,0.01541,0.01749,0.0003061,0.0003872,0.01543,6.676e-05,9.537e-05,0.01218,0.003929,7.111,0.02857,0,1,0
210000000000,210300000000,3007227894,0,463440447,0.003357,0.0154,0.01749,0.0003738,0.0004549,0.01543,5.341e-05,9.537e-05,0.01512,0.001358,7.751,0.03116,0,1,0
210300000000,210600000000,3007227894,0,463440447,0.002068,0.01535,0.01614,0.0002213,0.0003004,0.01541,4.578e-05,9.441e-05,0.0162,0.001286,8.458,0.03469,0,1,0
210600000000,210900000000,3007227894,0,463440447,0.001925,0.01534,0.01555,0.0001469,0.000226,0.01535,7.725e-05,9.441e-05,0.01212,0.01135,8.828,0.03695,0,1,0
210900000000,211200000000,3007227894,0,463440447,0.002041,0.01534,0.01555,8.297e-05,0.000164,0.01537,6.008e-05,9.441e-05,0.01797,0.003284,8.837,0.03753,0,1,0
211200000000,211500000000,3007227894,0,463440447,0.002453,0.01534,0.01553,0.000103,0.0001841,0.01537,4.864e-05,9.441e-05,0.01094,0.001358,8.435,0.0353,0,1,0
211500000000,211800000000,3007227894,0,463440447,0.003815,0.01537,0.01566,0.000123,0.0002041,0.01546,6.771e-05,9.441e-05,0.03857,0.007072,6.658,0.02608,0,1,0
211800000000,212100000000,3007227894,0,463440447,0.006264,0.01546,0.01749,0.0003242,0.0004072,0.01549,0.0002718,9.441e-05,0.04303,0.01758,5.022,0.01818,0,1,0
212100000000,212400000000,3007227894,0,463440447,0.005981,0.01546,0.01749,0.0005512,0.0006495,0.01553,0.0001707,9.537e-05,0.04578,0.02301,5.653,0.02172,0,1,0
212400000000,212700000000,3007227894,0,463440447,0.007011,0.01544,0.01749,0.0006847,0.0007801,0.0155,0.0001631,9.537e-05,0.03992,0.02072,4.871,0.01806,0,1,0
212700000000,213000000000,3007227894,0,463440447,0.004166,0.01544,0.01749,0.0008268,0.0009251,0.0155,5.436e-05,9.441e-05,0.03729,0.001286,6.605,0.02633,0,1,0
213000000000,213300000000,3007227894,0,463440447,0.00647,0.01566,0.01694,0.0002537,0.0003424,0.01599,0.0001707,9.441e-05,0.08252,0.01321,5.752,0.02128,0,1,0
213300000000,213600000000,3007227894,0,463440447,0.005318,0.01555,0.01749,0.0004215,0.0005178,0.01562,6.008e-05,9.537e-05,0.06018,0.001785,6.12,0.02361,0,1,0
213600000000,213900000000,3007227894,0,463440447,0.006668,0.01556,0.01749,0.0006495,0.0007458,0.01559,8.011e-05,9.537e-05,0.09338,0.005356,4.982,0.01698,0,1,0
213900000000,214200000000,3007227894,0,463440447,0.006584,0.01556,0.01749,0.0007896,0.0008869,0.01559,7.439e-05,9.441e-05,0.04974,0.001785,5.044,0.01792,0,1,0
214200000000,214500000000,3007227894,0,463440447,0.006676,0.01556,0.01749,0.0003338,0.0004311,0.01558,6.39e-05,9.441e-05,0.07678,0.002716,5.177,0.01851,0,1,0
214500000000,214800000000,3007227894,0,463440447,0.007088,0.01559,0.01746,0.0005674,0.0006647,0.01561,6.294e-05,9.537e-05,0.04767,0.002071,5.318,0.01937,0,1,0
214800000000,215100000000,3007227894,0,463440447,0.007408,0.01562,0.01746,0.0008078,0.000905,0.01566,7.82e-05,9.537e-05,0.09607,0.003784,5.192,0.01886,0,1,0
215100000000,215400000000,3007227894,0,463440447,0.007561,0.01566,0.01746,0.0006876,0.000782,0.01569,0.0001898,9.441e-05,0.06238,0.006432,4.867,0.01708,0,1,0
215400000000,215700000000,3007227894,0,463440447,0.0075,0.01566,0.01746,0.0006104,0.0007086,0.01569,8.583e-05,9.537e-05,0.05548,0.005356,4.78,0.01644,0,1,0
215700000000,216000000000,3007227894,0,463440447,0.007698,0.01566,0.01746,0.0008669,0.000967,0.01569,8.583e-05,9.537e-05,0.07947,0.003643,4.673,0.01618,0,1,0
216000000000,216300000000,3007227894,0,463440447,0.007454,0.01569,0.01746,0.001143,0.001244,0.01572,8.392e-05,9.441e-05,0.0589,0.003643,4.387,0.01433,0,1,0
221100000000,221400000000,3007227894,0,463440447,0.006584,0.01572,0.01746,0.001144,0.001255,0.01575,7.153e-05,9.537e-05,0.05109,0.001928,5.714,0.02134,0,1,0
221400000000,221700000000,3007227894,0,463440447,0.007584,0.01575,0.01746,0.0009956,0.001106,0.01578,8.202e-05,9.537e-05,0.04736,0.002998,5.369,0.01993,0,1,0
221700000000,222000000000,3007227894,0,463440447,0.006165,0.01575,0.01746,0.0007153,0.0008268,0.01578,7.248e-05,9.441e-05,0.05011,0.001999,5.205,0.01908,0,1,0
222000000000,222300000000,3007227894,0,463440447,0.008118,0.01575,0.01746,0.0006914,0.000803,0.01578,8.869e-05,9.537e-05,0.08765,0.006142,4.987,0.01794,0,1,0
222300000000,222600000000,3007227894,0,463440447,0.007889,0.01578,0.01746,0.0009699,0.001081,0.01581,0.0001297,9.537e-05,0.1139,0.006569,5.104,0.01789,0,1,0
222600000000,222900000000,3007227894,0,463440447,0.006821,0.01575,0.01746,0.00123,0.001343,0.01578,0.0001383,9.441e-05,0.109,0.006218,5.42,0.01992,0,1,0
222900000000,223200000000,3007227894,0,463440447,0.007011,0.01575,0.01746,0.0009727,0.001085,0.01578,7.439e-05,9.537e-05,0.07458,0.002285,5.282,0.01935,0,1,0
223200000000,223500000000,3007227894,0,463440447,0.006332,0.01575,0.01746,0.0008698,0.0009804,0.01578,0.0002899,9.537e-05,0.05957,0.01706,4.677,0.01652,0,1,0
223500000000,223800000000,3007227894,0,463440447,0.006531,0.01578,0.01746,0.00106,0.001173,0.01581,0.000124,9.441e-05,0.04962,0.007431,4.768,0.01674,0,1,0
223800000000,224100000000,3007227894,0,463440447,0.006744,0.01578,0.01746,0.0008554,0.000967,0.01581,6.294e-05,9.537e-05,0.08691,0.002071,4.963,0.01798,0,1,0
224100000000,224400000000,3007227894,0,463440447,0.007141,0.01578,0.01746,0.0008221,0.0009346,0.01581,7.915e-05,9.537e-05,0.06067,0.003716,5.399,0.02014,0,1,0
224400000000,224700000000,3007227894,0,463440447,0.007263,0.01578,0.01746,0.001068,0.001179,0.01581,9.823e-05,9.537e-05,0.09436,0.00457,5.243,0.0192,0,1,0
224700000000,225000000000,3007227894,0,463440447,0.007492,0.01581,0.01746,0.001335,0.001448,0.01584,8.202e-05,9.537e-05,0.05499,0.004074,5.087,0.01859,0,1,0
225000000000,225300000000,3007227894,0,463440447,0.00721,0.01581,0.01746,0.001005,0.001122,0.01587,0.0001116,9.537e-05,0.05035,0.007645,4.254,0.01495,0,1,0
225300000000,225600000000,3007227894,0,463440447,0.006851,0.01581,0.01746,0.001045,0.001163,0.01584,9.346e-05,9.537e-05,0.05359,0.004143,5.454,0.02009,0,1,0
225600000000,225900000000,3007227894,0,463440447,0.0075,0.01584,0.01746,0.001173,0.001291,0.01584,0.000104,9.537e-05,0.103,0.003998,5.289,0.01889,0,1,0
225900000000,226200000000,3007227894,0,463440447,0.008057,0.01581,0.01746,0.0007515,0.0008688,0.01584,0.0001144,9.537e-05,0.05151,0.003857,5.545,0.02063,0,1,0
226200000000,226500000000,3007227894,0,463440447,0.007278,0.01584,0.01746,0.0009937,0.001112,0.01584,0.0001001,9.537e-05,0.05377,0.003784,5.484,0.02037,0,1,0
226500000000,226800000000,3007227894,0,463440447,0.007149,0.01584,0.01746,0.001244,0.001362,0.01587,0.000102,9.441e-05,0.0531,0.004143,5.578,0.02089,0,1,0
226800000000,227100000000,3007227894,0,463440447,0.007301,0.0159,0.01746,0.0006981,0.0008163,0.0159,7.629e-05,9.537e-05,0.1021,0.002571,5.223,0.01893,0,1,0
227100000000,227400000000,3007227894,0,463440447,0.007065,0.0159,0.01746,0.0009222,0.00104,0.01596,6.962e-05,9.632e-05,0.1234,0.001928,5.123,0.01846,0,1,0
227400000000,227700000000,3007227894,0,463440447,0.005852,0.0159,0.01746,0.001129,0.001247,0.01593,7.057e-05,9.441e-05,0.04633,0.001715,5.298,0.01998,0,1,0
227700000000,228000000000,3007227894,0,463440447,0.006821,0.01593,0.01746,0.001328,0.001446,0.01593,8.869e-05,9.537e-05,0.1239,0.003357,5.034,0.01785,0,1,0
228000000000,228300000000,3007227894,0,463440447,0.006638,0.01593,0.01764,0.001484,0.0016,0.01593,8.583e-05,9.537e-05,0.05579,0.002144,4.872,0.01698,0,1,0
228300000000,228600000000,3007227894,0,463440447,0.006706,0.01596,0.01746,0.0008926,0.001011,0.01599,9.155e-05,9.537e-05,0.05591,0.002071,5.441,0.01995,0,1,0
228600000000,228900000000,3007227894,0,463440447,0.006882,0.01596,0.01746,0.001123,0.001242,0.01599,8.011e-05,9.441e-05,0.06946,0.003357,4.738,0.01656,0,1,0
228900000000,229200000000,3007227894,0,463440447,0.006607,0.01596,0.01746,0.0006971,0.0008154,0.01599,9.918e-05,9.537e-05,0.09143,0.003284,5.462,0.02027,0,1,0
229200000000,229500000000,3007227894,0,463440447,0.007378,0.01599,0.01746,0.0007715,0.0008888,0.01602,0.000246,9.632e-05,0.0697,0.0135,5.228,0.01902,0,1,0
229500000000,229800000000,3007227894,0,463440447,0.007347,0.01599,0.01746,0.001007,0.001125,0.01599,7.629e-05,9.441e-05,0.05835,0.002144,5.336,0.01981,0,1,0
229800000000,230100000000,3007227894,0,463440447,0.00692,0.01599,0.01746,0.001261,0.001379,0.01599,7.725e-05,9.537e-05,0.05737,0.001999,5.423,0.02033,0,1,0
230100000000,230400000000,3007227894,0,463440447,0.007439,0.01599,0.01746,0.0009375,0.001057,0.01602,8.965e-05,9.632e-05,0.05725,0.00293,5.064,0.0178,0,1,0
230400000000,230700000000,3007227894,0,463440447,0.006981,0.01599,0.01746,0.001045,0.001163,0.01602,7.915e-05,9.537e-05,0.05609,0.001928,5.129,0.01868,0,1,0
230700000000,231000000000,3007227894,0,463440447,0.007164,0.01599,0.01746,0.0009413,0.00106,0.01602,7.725e-05,9.537e-05,0.04449,0.003429,4.191,0.0147,0,1,0
231000000000,231300000000,3007227894,0,463440447,0.007042,0.01599,0.01746,0.0007172,0.0008354,0.01602,7.725e-05,9.537e-05,0.07507,0.003143,5.615,0.02156,0,1,0
231300000000,231600000000,3007227894,0,463440447,0.007553,0.01602,0.01746,0.0009289,0.001047,0.01605,7.248e-05,9.537e-05,0.06372,0.002071,5.556,0.02081,0,1,0
231600000000,231900000000,3007227894,0,463440447,0.007965,0.01602,0.01746,0.001171,0.001289,0.01605,8.297e-05,9.537e-05,0.1031,0.003998,5.835,0.0221,0,1,0
231900000000,232200000000,3007227894,0,463440447,0.007004,0.01602,0.01746,0.001003,0.001122,0.01605,0.0001135,9.537e-05,0.0647,0.006645,5.76,0.02166,0,1,0
232200000000,232500000000,3007227894,0,463440447,0.006226,0.01602,0.01746,0.000843,0.0009613,0.01602,8.392e-05,9.632e-05,0.04333,0.002571,5.188,0.01896,0,1,0
232500000000,232800000000,3007227894,0,463440447,0.006126,0.01602,0.01746,0.001078,0.001196,0.01605,8.965e-05,9.537e-05,0.04858,0.003716,4.914,0.01739,0,1,0
232800000000,233100000000,3007227894,0,463440447,0.006447,0.01602,0.01746,0.001307,0.001425,0.01605,7.248e-05,9.537e-05,0.04993,0.002213,5.564,0.02087,0,1,0
233100000000,233400000000,3007227894,0,463440447,0.005295,0.01602,0.01746,0.0007191,0.0008373,0.01602,6.771e-05,9.537e-05,0.1208,0.002285,5.517,0.02064,0,1,0
233400000000,233700000000,3007227894,0,463440447,0.005219,0.01599,0.01746,0.0008545,0.0009727,0.01602,6.58e-05,9.632e-05,0.04468,0.001715,6.023,0.02284,0,1,0
233700000000,234000000000,3007227894,0,463440447,0.005272,0.01602,0.01746,0.001017,0.001135,0.01602,7.248e-05,9.537e-05,0.04596,0.002144,5.708,0.02149,0,1,0
234000000000,234300000000,3007227894,0,463440447,0.004768,0.01602,0.01746,0.001184,0.001303,0.01602,6.58e-05,9.537e-05,0.05316,0.002857,5.074,0.01795,0,1,0
234300000000,234600000000,3007227894,0,463440447,0.00621,0.01602,0.01746,0.001232,0.00135,0.01605,6.58e-05,9.537e-05,0.05988,0.001715,4.997,0.01761,0,1,0
234600000000,234900000000,3007227894,0,463440447,0.007111,0.01605,0.01746,0.0007734,0.0008926,0.01608,7.915e-05,9.632e-05,0.0603,0.00293,5.48,0.02014,0,1,0
234900000000,235200000000,3007227894,0,463440447,0.007858,0.01608,0.01746,0.001036,0.001154,0.01611,9.251e-05,9.537e-05,0.1014,0.003502,4.817,0.01694,0,1,0
235200000000,235500000000,3007227894,0,463440447,0.006866,0.01602,0.01746,0.001272,0.001392,0.01611,9.346e-05,9.537e-05,0.08704,0.003284,4.879,0.01715,0,1,0
235800000000,236100000000,3007227894,0,463440447,0.01172,0.009628,0.01108,0.0002298,0.0003576,0.01053,0.0005064,2.384e-05,0.207,0.02377,2.241,0.005244,0,1,0
236100000000,236400000000,3007227894,0,463440447,0.009125,0.01077,0.01155,0.0002975,0.0004063,0.01117,9.918e-05,2.48e-05,0.1006,0.005859,2.429,0.006233,0,1,0
241200000000,241500000000,3007227894,0,463440447,0.008179,0.01169,0.01349,0.0009785,0.001091,0.01173,8.392e-05,3.242e-05,0.09204,0.002785,5.175,0.01812,0,1,0
241500000000,241800000000,3007227894,0,463440447,0.00824,0.0117,0.01349,0.0005465,0.000659,0.01173,7.343e-05,3.242e-05,0.0545,0.002357,4.858,0.01622,0,1,0
241800000000,242100000000,3007227894,0,463440447,0.008835,0.01172,0.01349,0.0008335,0.0009451,0.01173,9.155e-05,3.338e-05,0.1095,0.004288,4.771,0.01612,0,1,0
242100000000,242400000000,3007227894,0,463440447,0.008789,0.01183,0.01349,0.0005989,0.0007114,0.0119,9.346e-05,3.433e-05,0.09534,0.003929,5.233,0.01808,0,1,0
242400000000,242700000000,3007227894,0,463440447,0.008362,0.01184,0.01349,0.0006018,0.0007133,0.01189,0.000104,3.529e-05,0.08667,0.003929,4.645,0.0156,0,1,0
242700000000,243000000000,3007227894,0,463440447,0.007172,0.01184,0.01349,0.000843,0.0009537,0.01187,6.485e-05,3.529e-05,0.06494,0.001928,5.203,0.01834,0,1,0
243000000000,243300000000,3007227894,0,463440447,0.00795,0.01184,0.01349,0.00107,0.001183,0.01187,7.629e-05,3.624e-05,0.05487,0.002785,5.177,0.01827,0,1,0
243300000000,243600000000,3007227894,0,463440447,0.007874,0.01187,0.01349,0.0007744,0.0008869,0.0119,0.0001383,3.719e-05,0.0495,0.01457,4.974,0.0176,0,1,0
243600000000,243900000000,3007227894,0,463440447,0.01039,0.01187,0.01347,0.0006924,0.000802,0.0119,0.0001717,3.719e-05,0.05804,0.004784,5.767,0.02151,0,1,0
243900000000,244200000000,3007227894,0,463440447,0.01071,0.0119,0.01355,0.0005693,0.0006809,0.01193,0.0001593,3.815e-05,0.08228,0.0065,5.125,0.01858,0,1,0
244200000000,244500000000,3007227894,0,463440447,0.01031,0.0119,0.01357,0.0005836,0.0006933,0.01193,0.0001249,3.91e-05,0.09583,0.004501,5.903,0.02253,0,1,0
244500000000,244800000000,3007227894,0,463440447,0.009323,0.0119,0.01357,0.000761,0.0008698,0.01195,0.0001278,4.005e-05,0.09851,0.003784,5.191,0.01902,0,1,0
244800000000,245100000000,3007227894,0,463440447,0.008469,0.01193,0.01357,0.0004015,0.0005112,0.01198,9.727e-05,4.005e-05,0.05408,0.008286,5.246,0.01849,0,1,0
245100000000,245400000000,3007227894,0,463440447,0.008514,0.01193,0.01357,0.0006342,0.0007439,0.01196,0.0001068,4.101e-05,0.09937,0.004929,5.628,0.02017,0,1,0
245400000000,245700000000,3007227894,0,463440447,0.008148,0.01195,0.01357,0.0009108,0.00102,0.01198,8.106e-05,4.196e-05,0.07056,0.002213,5.344,0.01888,0,1,0
245700000000,246000000000,3007227894,0,463440447,0.00853,0.01196,0.01357,0.001188,0.001297,0.01199,9.155e-05,4.196e-05,0.08435,0.003429,5.317,0.01904,0,1,0
246000000000,246300000000,3007227894,0,463440447,0.007874,0.01196,0.01357,0.001444,0.001554,0.01199,7.057e-05,4.292e-05,0.09094,0.002571,4.858,0.01708,0,1,0
251400000000,251700000000,3007227894,0,463440447,0.004921,0.0121,0.01407,0.001381,0.001493,0.01221,6.008e-05,5.436e-05,0.04535,0.001858,5.184,0.01827,0,1,0
251700000000,252000000000,3007227894,0,463440447,0.004684,0.01207,0.01357,0.0003643,0.0004787,0.01208,7.915e-05,5.436e-05,0.04834,0.004143,5.477,0.02028,0,1,0
252000000000,252300000000,3007227894,0,463440447,0.005539,0.01208,0.01357,0.0005102,0.0006247,0.0121,6.962e-05,5.436e-05,0.04926,0.00243,6.128,0.02271,0,1,0
252300000000,252600000000,3007227894,0,463440447,0.004738,0.01205,0.01357,0.000638,0.0007524,0.01208,6.199e-05,5.531e-05,0.04163,0.002071,6.345,0.02441,0,1,0
252600000000,252900000000,3007227894,0,463440447,0.004494,0.01205,0.01357,0.0007629,0.0008774,0.01207,6.294e-05,5.531e-05,0.04224,0.001999,6.416,0.02566,0,1,0
252900000000,253200000000,3007227894,0,463440447,0.004494,0.01207,0.01357,0.0008841,0.0009995,0.0121,6.104e-05,5.627e-05,0.04626,0.001715,6.713,0.02738,0,1,0
253200000000,253500000000,3007227894,0,463440447,0.004257,0.01207,0.01357,0.0006237,0.0007381,0.0121,6.676e-05,5.627e-05,0.05756,0.002998,6.83,0.0275,0,1,0
253500000000,253800000000,3007227894,0,463440447,0.004402,0.0121,0.01357,0.0003271,0.0004406,0.01212,8.965e-05,5.627e-05,0.07178,0.004143,5.54,0.0201,0,1,0
253800000000,254100000000,3007227894,0,463440447,0.004868,0.01212,0.01357,0.000474,0.0005875,0.01215,7.629e-05,5.627e-05,0.04108,0.003784,4.815,0.0166,0,1,0
254100000000,254400000000,3007227894,0,463440447,0.004303,0.0121,0.01357,0.000617,0.0007315,0.01213,7.248e-05,5.722e-05,0.04742,0.003643,6.077,0.02289,0,1,0
254400000000,254700000000,3007227894,0,463440447,0.005157,0.0121,0.01357,0.0007505,0.000864,0.01213,0.0001059,5.722e-05,0.04681,0.004288,6.375,0.02438,0,1,0
254700000000,255000000000,3007227894,0,463440447,0.004402,0.01212,0.01357,0.0008888,0.001003,0.01213,6.39e-05,5.817e-05,0.05963,0.001785,6.384,0.02447,0,1,0
255000000000,255300000000,3007227894,0,463440447,0.003998,0.01212,0.01357,0.0005236,0.000638,0.01215,6.008e-05,5.817e-05,0.04535,0.001785,5.693,0.02142,0,1,0
255300000000,255600000000,3007227894,0,463440447,0.003689,0.01213,0.01357,0.0003214,0.0004349,0.01216,6.485e-05,5.817e-05,0.03815,0.002144,5.498,0.02069,0,1,0
255600000000,255900000000,3007227894,0,463440447,0.004425,0.01212,0.01357,0.0003624,0.0004759,0.01213,5.627e-05,5.817e-05,0.04816,0.001785,6.298,0.02495,0,1,0
255900000000,256200000000,3007227894,0,463440447,0.004601,0.01213,0.01357,0.0003624,0.0004759,0.01216,0.000103,5.913e-05,0.04797,0.007286,7.044,0.02875,0,1,0
256200000000,256500000000,3007227894,0,463440447,0.004707,0.01216,0.01357,0.0003977,0.0005102,0.01218,0.000102,5.913e-05,0.05933,0.004784,3.747,0.01295,0,1,0
256500000000,256800000000,3007227894,0,463440447,0.005096,0.01215,0.01357,0.0004959,0.0006027,0.01218,0.0001078,5.913e-05,0.101,0.006783,6.583,0.02655,0,1,0
256800000000,257100000000,3007227894,0,463440447,0.005035,0.01215,0.01357,0.0005941,0.0007067,0.01219,0.0001183,6.008e-05,0.04498,0.005142,6.702,0.02684,0,1,0
257100000000,257400000000,3007227894,0,463440447,0.004951,0.01216,0.01357,0.000701,0.0008135,0.01219,0.0001078,6.008e-05,0.04974,0.005714,5.66,0.0213,0,1,0
257400000000,257700000000,3007227894,0,463440447,0.004608,0.01215,0.01357,0.0007935,0.0009069,0.01218,8.106e-05,6.008e-05,0.0556,0.004425,5.598,0.02089,0,1,0
257700000000,258000000000,3007227894,0,463440447,0.004295,0.01216,0.01357,0.0009298,0.001041,0.01218,9.727e-05,6.104e-05,0.04498,0.005783,6.143,0.02392,0,1,0
258000000000,258300000000,3007227894,0,463440447,0.007248,0.01221,0.01357,0.001099,0.001213,0.01231,0.0001307,6.104e-05,0.09521,0.006287,5.313,0.01982,0,1,0
258300000000,258600000000,3007227894,0,463440447,0.007317,0.01224,0.01355,0.001333,0.001448,0.01233,8.678e-05,6.199e-05,0.0495,0.004425,5.172,0.01901,0,1,0
258600000000,258900000000,3007227894,0,463440447,0.009811,0.0123,0.01379,0.0009699,0.001081,0.01251,9.727e-05,6.199e-05,0.04565,0.004929,4.915,0.01801,0,1,0
258900000000,259200000000,3007227894,0,463440447,0.0105,0.01224,0.01355,0.0007143,0.0008268,0.01248,9.727e-05,6.294e-05,0.09583,0.005074,5.554,0.02139,0,1,0
259200000000,259500000000,3007227894,0,463440447,0.01859,0.01251,0.01367,0.0008583,0.0009708,0.01274,0.0001688,6.485e-05,0.06738,0.007355,4.7,0.01724,0,1,0
259500000000,259800000000,3007227894,0,463440447,0.02365,0.01262,0.01407,0.001081,0.001194,0.01279,0.0001822,6.58e-05,0.0741,0.007431,4.912,0.01818,0,1,0
259800000000,260100000000,3007227894,0,463440447,0.01051,0.01253,0.01407,0.0009861,0.001099,0.01277,0.0001106,6.771e-05,0.04327,0.004715,5.177,0.01929,0,1,0
260100000000,260400000000,3007227894,0,463440447,0.004181,0.01237,0.01355,0.0002594,0.0003719,0.01239,6.866e-05,6.866e-05,0.02817,0.002785,8.46,0.03583,0,1,0
260400000000,260700000000,3007227894,0,463440447,0.02087,0.01259,0.01355,0.0006447,0.0007563,0.01279,0.0001822,6.962e-05,0.06812,0.007355,5.091,0.01933,0,1,0
260700000000,261000000000,3007227894,0,463440447,0.02335,0.01274,0.01387,0.0008268,0.0009384,0.01289,0.0002003,7.153e-05,0.07678,0.007072,4.882,0.01792,0,1,0
261000000000,261300000000,3007227894,0,463440447,0.02313,0.01274,0.01361,0.0006647,0.0007753,0.01286,0.0001726,7.439e-05,0.06079,0.0075,4.81,0.01737,0,1,0
261300000000,261600000000,3007227894,0,463440447,0.02319,0.01277,0.01355,0.0007401,0.0008478,0.01282,0.0001926,7.725e-05,0.1102,0.007004,4.997,0.01821,0,1,0
261600000000,261900000000,3007227894,0,463440447,0.01859,0.01271,0.01431,0.001019,0.001125,0.01291,0.0002031,7.915e-05,0.05988,0.01028,4.813,0.0174,0,1,0
261900000000,262200000000,3007227894,0,463440447,0.02463,0.01283,0.01439,0.001013,0.00112,0.013,0.0002308,8.106e-05,0.0741,0.008072,4.784,0.01748,0,1,0
262200000000,262500000000,3007227894,0,463440447,0.02173,0.01285,0.01376,0.0006924,0.0007973,0.01308,0.0002747,8.392e-05,0.07117,0.0105,4.491,0.01742,0,1,0
262500000000,262800000000,3007227894,0,463440447,0.01402,0.01286,0.01459,0.0009165,0.001019,0.01309,0.0001869,8.583e-05,0.06873,0.01071,4.629,0.01837,0,1,0
262800000000,263100000000,3007227894,0,463440447,0.003895,0.01256,0.01355,0.0003309,0.0004368,0.01259,0.0001011,8.678e-05,0.03333,0.01385,6.713,0.02874,0,1,0
263100000000,263400000000,3007227894,0,463440447,0.004211,0.01256,0.01355,0.0004091,0.0005169,0.01257,8.392e-05,8.678e-05,0.03674,0.005432,5.738,0.02232,0,1,0
263400000000,263700000000,3007227894,0,463440447,0.003689,0.01254,0.01357,0.0004864,0.0005941,0.01257,8.965e-05,8.678e-05,0.03979,0.003429,5.298,0.01984,0,1,0
263700000000,264000000000,3007227894,0,463440447,0.003834,0.01256,0.01357,0.0005875,0.0006952,0.01257,6.58e-05,8.774e-05,0.05298,0.002144,6.256,0.02487,0,1,0
264000000000,264300000000,3007227894,0,463440447,0.00362,0.01256,0.01357,0.0007019,0.0008106,0.01259,6.771e-05,8.774e-05,0.04199,0.002998,5.902,0.02238,0,1,0
264300000000,264600000000,3007227894,0,463440447,0.004105,0.01256,0.01357,0.000802,0.0009117,0.01257,5.817e-05,8.774e-05,0.04333,0.001499,5.75,0.02154,0,1,0
264600000000,264900000000,3007227894,0,463440447,0.003967,0.01254,0.01357,0.0002451,0.0003538,0.01257,6.294e-05,8.869e-05,0.06726,0.001999,6.701,0.02679,0,1,0
264900000000,265200000000,3007227894,0,463440447,0.003998,0.01254,0.01357,0.0002489,0.0003567,0.01257,6.199e-05,8.869e-05,0.04584,0.001785,5.577,0.02065,0,1,0
265200000000,265500000000,3007227894,0,463440447,0.00531,0.01256,0.01357,0.0003424,0.0004511,0.01259,6.962e-05,8.869e-05,0.06024,0.002213,6.15,0.02296,0,1,0
265500000000,265800000000,3007227894,0,463440447,0.004272,0.01256,0.01357,0.0004807,0.0005894,0.01257,6.771e-05,8.965e-05,0.04645,0.001715,6.708,0.02552,0,1,0
265800000000,266100000000,3007227894,0,463440447,0.004623,0.01257,0.01357,0.0006008,0.0007095,0.0126,7.725e-05,8.965e-05,0.05334,0.003071,6.194,0.02334,0,1,0
266100000000,266400000000,3007227894,0,463440447,0.004051,0.01256,0.01357,0.0007172,0.0008259,0.01257,6.199e-05,8.965e-05,0.09277,0.001858,6.451,0.02407,0,1,0
266400000000,266700000000,3007227894,0,463440447,0.004356,0.01257,0.01357,0.0008297,0.0009384,0.01259,6.104e-05,8.965e-05,0.08081,0.001858,6.481,0.02448,0,1,0
266700000000,267000000000,3007227894,0,463440447,0.004623,0.01259,0.0137,0.0008669,0.0009756,0.01262,7.915e-05,9.06e-05,0.05627,0.002571,5.737,0.02178,0,1,0
267000000000,267300000000,3007227894,0,463440447,0.004425,0.01259,0.01357,0.0003653,0.000474,0.01262,6.962e-05,9.06e-05,0.0448,0.003502,5.283,0.01934,0,1,0
267300000000,267600000000,3007227894,0,463440447,0.004089,0.01259,0.01357,0.0004864,0.000596,0.01262,5.913e-05,9.155e-05,0.04407,0.001999,6.278,0.02459,0,1,0
267600000000,267900000000,3007227894,0,463440447,0.004349,0.01259,0.01357,0.0005798,0.0006895,0.01263,7.153e-05,9.155e-05,0.06995,0.003998,5.303,0.01946,0,1,0
267900000000,268200000000,3007227894,0,463440447,0.004585,0.0126,0.01357,0.0007296,0.0008392,0.01263,7.343e-05,9.155e-05,0.03815,0.002357,6.047,0.02306,0,1,0
268200000000,268500000000,3007227894,0,463440447,0.004341,0.01262,0.01357,0.0008659,0.0009756,0.01263,6.771e-05,9.251e-05,0.04938,0.001785,5.489,0.02072,0,1,0
268500000000,268800000000,3007227894,0,463440447,0.004562,0.01265,0.01422,0.0009499,0.001059,0.01283,8.011e-05,9.251e-05,0.04382,0.002716,5.386,0.0202,0,1,0
268800000000,269100000000,3007227894,0,463440447,0.004066,0.01263,0.0143,0.0009499,0.001059,0.0127,6.199e-05,9.251e-05,0.1144,0.001785,5.703,0.02194,0,1,0
269100000000,269400000000,3007227894,0,463440447,0.004463,0.01263,0.01395,0.0009298,0.00104,0.0127,7.915e-05,9.346e-05,0.04865,0.003502,5.3,0.02001,0,1,0
269400000000,269700000000,3007227894,0,463440447,0.004105,0.01265,0.01393,0.0008535,0.0009632,0.01285,6.199e-05,9.346e-05,0.08362,0.001715,6.068,0.02379,0,1,0
269700000000,270000000000,3007227894,0,463440447,0.00425,0.01263,0.01357,0.0005589,0.0006685,0.01266,7.248e-05,9.346e-05,0.08875,0.002644,5.638,0.02168,0,1,0
270000000000,270300000000,3007227894,0,463440447,0.00399,0.01263,0.01357,0.0006895,0.0008001,0.01265,6.104e-05,9.441e-05,0.03687,0.001785,5.022,0.01853,0,1,0
270300000000,270600000000,3007227894,0,463440447,0.003891,0.01263,0.01357,0.000803,0.0009127,0.01265,7.439e-05,9.441e-05,0.03876,0.002857,5.629,0.02156,0,1,0
270600000000,270900000000,3007227894,0,463440447,0.003922,0.01266,0.01407,0.0008307,0.0009403,0.01274,6.58e-05,9.441e-05,0.04089,0.00243,5.254,0.0195,0,1,0
270900000000,271200000000,3007227894,0,463440447,0.004013,0.01265,0.01357,0.000349,0.0004587,0.01266,8.011e-05,9.537e-05,0.09778,0.003571,5.407,0.02034,0,1,0
271200000000,271500000000,3007227894,0,463440447,0.004128,0.01266,0.01357,0.0004892,0.0005989,0.0127,6.104e-05,9.537e-05,0.03546,0.002071,5.081,0.01855,0,1,0
281400000000,281700000000,3007227894,0,463440447,0.003441,0.01291,0.01416,0.0006447,0.0007534,0.01297,6.866e-05,0.0001059,0.03375,0.004929,5.811,0.02186,0,1,0
281700000000,282000000000,3007227894,0,463440447,0.003807,0.01289,0.01357,0.0005369,0.0006447,0.01292,6.676e-05,0.0001059,0.03979,0.002571,5.523,0.02032,0,1,0
282000000000,282300000000,3007227894,0,463440447,0.004021,0.01292,0.01399,0.0006428,0.0007496,0.01297,6.199e-05,0.0001049,0.04639,0.00243,5.455,0.0201,0,1,0
282300000000,282600000000,3007227894,0,463440447,0.00428,0.01294,0.01436,0.0006571,0.0007629,0.01297,6.676e-05,0.0001049,0.06787,0.001928,5.202,0.01841,0,1,0
282600000000,282900000000,3007227894,0,463440447,0.004112,0.01294,0.01402,0.0006304,0.0007381,0.01299,7.915e-05,0.0001049,0.09351,0.003571,4.973,0.01703,0,1,0
282900000000,283200000000,3007227894,0,463440447,0.004601,0.01292,0.01357,0.0003147,0.0004215,0.01295,6.199e-05,0.0001059,0.03687,0.002144,4.952,0.01797,0,1,0
283200000000,283500000000,3007227894,0,463440447,0.006065,0.01297,0.01357,0.0004978,0.0006046,0.013,6.676e-05,0.0001059,0.04688,0.002213,4.702,0.01708,0,1,0
283500000000,283800000000,3007227894,0,463440447,0.005692,0.01299,0.01421,0.000618,0.0007248,0.01305,6.771e-05,0.0001049,0.04346,0.001928,5.007,0.01809,0,1,0
283800000000,284100000000,3007227894,0,463440447,0.005821,0.01303,0.01433,0.0005989,0.0007057,0.01309,6.485e-05,0.0001049,0.07092,0.002499,3.583,0.01165,0,1,0
284100000000,284400000000,3007227894,0,463440447,0.005699,0.013,0.01382,0.0005836,0.0006895,0.01308,6.39e-05,0.0001059,0.0437,0.001999,4.9,0.01722,0,1,0
284400000000,284700000000,3007227894,0,463440447,0.006241,0.01306,0.01431,0.000577,0.0006828,0.01314,0.0001154,0.0001059,0.08484,0.01007,4.953,0.01811,0,1,0
284700000000,285000000000,3007227894,0,463440447,0.006058,0.01308,0.01396,0.0005341,0.0006409,0.01315,0.0001087,0.0001049,0.04358,0.01021,4.35,0.01566,0,1,0
285000000000,285300000000,3007227894,0,463440447,0.005989,0.01308,0.01421,0.000494,0.0006027,0.01314,6.58e-05,0.0001049,0.04572,0.002571,5.362,0.02071,0,1,0
285300000000,285600000000,3007227894,0,463440447,0.00618,0.01308,0.01357,0.0003176,0.0004263,0.01309,9.823e-05,0.0001059,0.03888,0.00457,4.909,0.0181,0,1,0
285600000000,285900000000,3007227894,0,463440447,0.006104,0.01308,0.01382,0.0004911,0.0005989,0.01311,8.965e-05,0.0001059,0.03577,0.003502,4.445,0.01584,0,1,0
285900000000,286200000000,3007227894,0,463440447,0.006683,0.01311,0.01433,0.0005226,0.0006294,0.01315,9.823e-05,0.0001049,0.0918,0.007355,4.892,0.01825,0,1,0
286200000000,286500000000,3007227894,0,463440447,0.007729,0.01314,0.01421,0.0004301,0.0005369,0.01323,9.06e-05,0.0001059,0.04315,0.006218,4.94,0.01926,0,1,0
286500000000,286800000000,3007227894,0,463440447,0.006699,0.01314,0.01363,0.0003872,0.000495,0.01318,7.534e-05,0.0001059,0.0874,0.001999,5.474,0.02212,0,1,0
286800000000,287100000000,3007227894,0,463440447,0.00766,0.01315,0.01427,0.0004721,0.000576,0.0132,6.771e-05,0.0001049,0.08215,0.00243,5.62,0.02223,0,1,0
287100000000,287400000000,3007227894,0,463440447,0.007393,0.01318,0.01419,0.0004215,0.0005264,0.01331,0.0001364,0.0001059,0.04822,0.01244,5.365,0.02113,0,1,0
287400000000,287700000000,3007227894,0,463440447,0.00724,0.01317,0.01357,0.0003071,0.0004129,0.01321,7.343e-05,0.0001059,0.04889,0.002644,4.925,0.01918,0,1,0
287700000000,288000000000,3007227894,0,463440447,0.007507,0.0132,0.01407,0.0004416,0.0005465,0.01328,8.488e-05,0.0001049,0.04254,0.002716,5.195,0.02002,0,1,0
288000000000,288300000000,3007227894,0,463440447,0.007271,0.0132,0.01447,0.0004425,0.0005474,0.01326,0.0001545,0.0001059,0.04224,0.01271,5.384,0.02063,0,1,0
288300000000,288600000000,3007227894,0,463440447,0.006302,0.01318,0.01369,0.000268,0.0003719,0.01323,7.82e-05,0.0001059,0.06171,0.002213,5.106,0.02057,0,1,0
288600000000,288900000000,3007227894,0,463440447,0.005829,0.01317,0.01396,0.0004187,0.0005226,0.01321,0.0001097,0.0001049,0.02914,0.01335,5.275,0.0227,0,1,0
288900000000,289200000000,3007227894,0,463440447,0.006195,0.0132,0.01448,0.0004044,0.0005064,0.01326,9.823e-05,0.0001059,0.07886,0.007141,4.497,0.01814,0,1,0
289200000000,289500000000,3007227894,0,463440447,0.006027,0.01323,0.01454,0.0004053,0.0005083,0.01328,8.583e-05,0.0001059,0.06274,0.004784,5.051,0.02135,0,1,0
289500000000,289800000000,3007227894,0,463440447,0.006157,0.01321,0.01436,0.0004025,0.0005045,0.01328,9.06e-05,0.0001059,0.05023,0.004288,5.148,0.02205,0,1,0
289800000000,290100000000,3007227894,0,463440447,0.006363,0.01324,0.0144,0.0003967,0.0004978,0.01329,0.000103,0.0001049,0.03992,0.006073,4.325,0.01713,0,1,0
290100000000,290400000000,3007227894,0,463440447,0.00618,0.01324,0.01414,0.0003843,0.0004845,0.01329,7.534e-05,0.0001059,0.03821,0.002285,4.658,0.01808,0,1,0
290400000000,290700000000,3007227894,0,463440447,0.006287,0.01326,0.01447,0.0003767,0.0004787,0.01329,0.0001488,0.0001059,0.04279,0.01764,4.63,0.01718,0,1,0
290700000000,291000000000,3007227894,0,463440447,0.006561,0.01328,0.01428,0.00037,0.000473,0.01334,0.0001259,0.0001049,0.04547,0.01057,5.116,0.01953,0,1,0
291000000000,291300000000,3007227894,0,463440447,0.006714,0.01326,0.01414,0.0003681,0.0004711,0.01329,8.202e-05,0.0001059,0.03522,0.004143,4.844,0.01837,0,1,0
291300000000,291600000000,3007227894,0,463440447,0.006157,0.01328,0.01447,0.0003605,0.0004635,0.01335,0.0001402,0.0001059,0.05225,0.01143,4.849,0.01842,0,1,0
291600000000,291900000000,3007227894,0,463440447,0.006165,0.01326,0.01404,0.0003481,0.0004501,0.01332,8.297e-05,0.0001049,0.08081,0.005569,4.395,0.01631,0,1,0
291900000000,292200000000,3007227894,0,463440447,0.006584,0.01329,0.01436,0.0003395,0.0004406,0.01334,9.346e-05,0.0001049,0.05585,0.00457,4.856,0.01857,0,1,0
292200000000,292500000000,3007227894,0,463440447,0.006187,0.01329,0.01436,0.0003366,0.0004358,0.01334,8.106e-05,0.0001059,0.0473,0.003716,5.158,0.01996,0,1,0
292500000000,292800000000,3007227894,0,463440447,0.006348,0.01331,0.01447,0.0003376,0.0004349,0.01337,0.0001068,0.0001059,0.03674,0.00972,4.697,0.01757,0,1,0
292800000000,293100000000,3007227894,0,463440447,0.006432,0.01328,0.01369,0.0002232,0.0003185,0.01331,8.488e-05,0.0001049,0.05701,0.002144,5.176,0.02004,0,1,0
293100000000,293400000000,3007227894,0,463440447,0.00679,0.01332,0.01451,0.0003128,0.0004082,0.01341,0.0001135,0.0001059,0.04352,0.01007,4.853,0.01797,0,1,0
293400000000,293700000000,3007227894,0,463440447,0.005676,0.01332,0.0143,0.0003109,0.0004063,0.01341,9.346e-05,0.0001059,0.04517,0.005714,5.096,0.01947,0,1,0
293700000000,294000000000,3007227894,0,463440447,0.005867,0.01334,0.0146,0.0003042,0.0004005,0.0134,0.0001326,0.0001049,0.03369,0.005569,4.443,0.01629,0,1,0
294000000000,294300000000,3007227894,0,463440447,0.007072,0.01334,0.01408,0.0002785,0.0003767,0.01338,0.000102,0.0001059,0.04187,0.003502,4.981,0.01863,0,1,0
294300000000,294600000000,3007227894,0,463440447,0.005348,0.01331,0.01382,0.0002899,0.0003881,0.0134,9.441e-05,0.0001059,0.04492,0.0065,5.535,0.02126,0,1,0
294600000000,294900000000,3007227894,0,463440447,0.004959,0.01332,0.01421,0.0002737,0.0003719,0.01337,8.297e-05,0.0001049,0.02914,0.003929,4.902,0.01795,0,1,0
294900000000,295200000000,3007227894,0,463440447,0.005249,0.01335,0.01408,0.0002823,0.00037,0.01343,0.0004463,0.000104,0.04309,0.02814,5.645,0.02243,0,1,0
295200000000,295500000000,3007227894,0,463440447,0.005547,0.01337,0.01416,0.0002651,0.0003643,0.01346,0.000124,0.000104,0.04218,0.006783,4.941,0.01853,0,1,0
295500000000,295800000000,3007227894,0,463440447,0.005051,0.01334,0.01402,0.0002642,0.0003633,0.0134,8.011e-05,0.0001049,0.09277,0.00293,4.932,0.01818,0,1,0
295800000000,296100000000,3007227894,0,463440447,0.004898,0.01332,0.01408,0.0002642,0.0003624,0.01338,0.000104,0.000104,0.04474,0.009567,4.779,0.01788,0,1,0
296100000000,296400000000,3007227894,0,463440447,0.005615,0.01341,0.0148,0.0002756,0.0003786,0.0135,0.0001011,0.000104,0.03967,0.005501,6.195,0.02432,0,1,0
296400000000,296700000000,3007227894,0,463440447,0.005508,0.01346,0.01538,0.000289,0.0003862,0.01349,7.915e-05,0.000104,0.04407,0.002644,6,0.02288,0,1,0
296700000000,297000000000,3007227894,0,463440447,0.005341,0.01347,0.01538,0.0002241,0.0003214,0.0135,8.774e-05,0.0001049,0.0426,0.004074,6.636,0.02635,0,1,0
297000000000,297300000000,3007227894,0,463440447,0.005074,0.01349,0.01538,0.0003128,0.000412,0.0135,9.823e-05,0.0001049,0.07385,0.008209,4.905,0.01784,0,1,0
297300000000,297600000000,3007227894,0,463440447,0.004425,0.01347,0.01538,0.0004673,0.0005665,0.01349,7.725e-05,0.000103,0.03601,0.002071,5.826,0.02203,0,1,0
297600000000,297900000000,3007227894,0,463440447,0.005493,0.01349,0.01538,0.0006256,0.0007267,0.01352,7.057e-05,0.000104,0.0495,0.002499,6.79,0.02645,0,1,0
297900000000,298200000000,3007227894,0,463440447,0.005348,0.01347,0.01538,0.000782,0.0008841,0.0135,7.248e-05,0.000104,0.04175,0.002213,6.173,0.02386,0,1,0
298200000000,298500000000,3007227894,0,463440447,0.005058,0.01341,0.01476,0.0002737,0.0003738,0.01347,7.057e-05,0.0001049,0.04822,0.00243,6.473,0.02502,0,1,0
298500000000,298800000000,3007227894,0,463440447,0.005051,0.01335,0.01358,0.0001345,0.0002337,0.01337,0.0001383,0.000104,0.05109,0.0075,6.841,0.0275,0,1,0
298800000000,299100000000,3007227894,0,463440447,0.004601,0.01337,0.01385,0.0002213,0.0003204,0.01343,8.583e-05,0.000103,0.03839,0.002644,5.27,0.01931,0,1,0
299100000000,299400000000,3007227894,0,463440447,0.00378,0.01338,0.01382,0.0001917,0.0002909,0.01343,6.58e-05,0.000103,0.03424,0.001858,4.923,0.01737,0,1,0
299400000000,299700000000,3007227894,0,463440447,0.003757,0.01337,0.01421,0.0002232,0.0003223,0.01341,8.297e-05,0.000103,0.03827,0.004143,4.794,0.01696,0,1,0
299700000000,300000000000,3007227894,0,463440447,0.003296,0.01335,0.01396,0.0002174,0.0003157,0.0134,8.869e-05,0.000104,0.07312,0.004425,5.134,0.01868,0,1,0
