5700000000,6000000000,3086091356,0,3214823166,0.02826,0.01694,0.02524,0.001884,0.002056,0.01752,4.196e-05,1.049e-05,0.2139,0.003784,1.337,0.002064,0,0,0.0001717
6000000000,6300000000,3086091356,0,3214823166,0.02939,0.01727,0.02524,0.00189,0.002064,0.01749,3.242e-05,1.049e-05,0.2568,0.002857,1.396,0.002382,0,0,6.866e-05
6300000000,6600000000,3086091356,0,3214823166,0.02951,0.01697,0.02524,0.001896,0.002068,0.01733,7.439e-05,1.049e-05,0.2388,0.002998,1.365,0.00206,0,0,0.0001574
6600000000,6900000000,3086091356,0,3214823166,0.0289,0.01694,0.02524,0.001902,0.002075,0.01712,2.766e-05,1.049e-05,0.2419,0.002785,1.134,0.001415,0,0,0.08093
6900000000,7200000000,3086091356,0,3214823166,0.03033,0.01733,0.02524,0.001909,0.002083,0.01794,3.624e-05,1.049e-05,0.2378,0.002285,1.431,0.001935,0,0,0.001303
7200000000,7500000000,3086091356,0,3214823166,0.02872,0.01697,0.02524,0.001915,0.002087,0.0173,4.005e-05,1.049e-05,0.2451,0.001572,0.9928,0.0009697,0,0,0.07471
7500000000,7800000000,3086091356,0,3214823166,0.0275,0.01697,0.02524,0.001921,0.002094,0.01715,2.956e-05,1.049e-05,0.2356,0.001215,1.286,0.002059,0,0,0.000104
7800000000,8100000000,3086091356,0,3214823166,0.02811,0.01721,0.02524,0.001921,0.002094,0.01736,2.861e-05,1.049e-05,0.2261,0.002213,0.9874,0.0009751,0,0,0.0002728
8100000000,8400000000,3086091356,0,3214823166,0.02841,0.01694,0.02524,0.001921,0.002094,0.01727,4.292e-05,1.049e-05,0.2419,0.003857,0.989,0.0009503,0,0,0.0002556
8400000000,8700000000,3086091356,0,3214823166,0.02841,0.01691,0.02524,0.001926,0.002098,0.01703,3.529e-05,1.049e-05,0.2427,0.001072,1.374,0.002212,0,0,0.0001297
8700000000,9000000000,3086091356,0,3214823166,0.03223,0.01715,0.02524,0.001934,0.002106,0.01785,0.0002203,1.049e-05,0.2451,0.007858,1.293,0.001515,0,0,0.0002337
9000000000,9300000000,3086091356,0,3214823166,0.02917,0.01721,0.02524,0.001942,0.002113,0.01736,5.054e-05,1.144e-05,0.2375,0.002857,1.047,0.001138,0,0,0.07532
9300000000,9600000000,3086091356,0,3214823166,0.02835,0.01703,0.02524,0.001947,0.002121,0.0173,3.242e-05,1.144e-05,0.2488,0.002998,1.054,0.001192,0,0,0.02258
9600000000,9900000000,3086091356,0,3214823166,0.02869,0.01691,0.02524,0.001953,0.002125,0.01706,4.005e-05,1.144e-05,0.2407,0.002857,1.317,0.002113,0,0,0.0001354
9900000000,10200000000,3086091356,0,3214823166,0.02924,0.01721,0.02524,0.001961,0.002132,0.01736,3.91e-05,1.144e-05,0.239,0.002998,1.35,0.002236,0,0,0.2219
10200000000,10500000000,3086091356,0,3214823166,0.02927,0.01694,0.02524,0.001965,0.002136,0.01727,5.627e-05,1.144e-05,0.2427,0.00293,1.345,0.002001,0,0,0.000144
10500000000,10800000000,3086091356,0,3214823166,0.02966,0.01703,0.02524,0.001972,0.002144,0.01758,3.91e-05,1.144e-05,0.2441,0.001572,1.364,0.001625,0,0,0.0001068
10800000000,11100000000,3086091356,0,3214823166,0.02948,0.01718,0.02524,0.00198,0.002151,0.0174,2.766e-05,1.144e-05,0.2495,0.001858,1.042,0.001027,0,0,0.1034
11100000000,11400000000,3086091356,0,3214823166,0.02869,0.01694,0.02524,0.001984,0.002155,0.01727,5.245e-05,1.144e-05,0.2346,0.004425,1.051,0.001063,0,0,0.0001259
11400000000,11700000000,3086091356,0,3214823166,0.02924,0.01691,0.02524,0.001987,0.002163,0.01703,4.387e-05,1.144e-05,0.2539,0.003071,1.356,0.002069,0,0,0.1382
11700000000,12000000000,3086091356,0,3214823166,0.02902,0.01721,0.02524,0.001995,0.002167,0.01736,3.529e-05,1.144e-05,0.25,0.002644,1.367,0.002185,0,0,0.0002298
12000000000,12300000000,3086091356,0,3214823166,0.02887,0.01697,0.02524,0.002003,0.002174,0.01727,2.956e-05,1.144e-05,0.2524,0.002857,1.331,0.002078,0,0,0.0002642
12600000000,12900000000,3086091356,0,3214823166,0.02896,0.01721,0.02524,0.002007,0.002178,0.01736,4.959e-05,1.144e-05,0.2463,0.002857,1.174,0.00156,0,0,0.0004511
13200000000,13500000000,3086091356,0,3214823166,0.02927,0.01691,0.02524,0.00201,0.002182,0.01703,2.48e-05,1.144e-05,0.2495,0.001785,1.299,0.001933,0,0,0.0002184
13500000000,13800000000,3086091356,0,3214823166,0.02951,0.01721,0.02524,0.00201,0.002186,0.01736,3.815e-05,1.144e-05,0.311,0.00293,1.367,0.002268,0,0,0.0003262
13800000000,14100000000,3086091356,0,3214823166,0.02863,0.01694,0.02524,0.002018,0.00219,0.0173,3.719e-05,1.144e-05,0.2524,0.00293,1.348,0.002141,0,0,0.0002565
14100000000,14400000000,3086091356,0,3214823166,0.03024,0.01703,0.02524,0.002022,0.002193,0.0177,4.673e-05,1.144e-05,0.2554,0.003071,1.39,0.001486,0,0,0.000165
14400000000,14700000000,3086091356,0,3214823166,0.02917,0.01691,0.02524,0.002022,0.002193,0.01703,4.482e-05,1.144e-05,0.2544,0.002857,1.299,0.001972,0,0,0.03174
14700000000,15000000000,3086091356,0,3214823166,0.0293,0.01718,0.02524,0.002029,0.002201,0.01736,4.196e-05,1.144e-05,0.251,0.00293,1.377,0.002296,0,0,0.02466
15000000000,15300000000,3086091356,0,3214823166,0.02875,0.01694,0.02524,0.002033,0.002205,0.01727,4.768e-05,1.144e-05,0.2534,0.00293,1.3,0.002034,0,0,0.0001621
15600000000,15900000000,3086091356,0,3214823166,0.02866,0.01718,0.02524,0.002045,0.00222,0.01746,4.482e-05,1.144e-05,0.3174,0.00293,0.9855,0.0009436,0,0,0.001167
16200000000,16500000000,3086091356,0,3214823166,0.02866,0.01691,0.02524,0.00206,0.002232,0.01703,3.91e-05,1.144e-05,0.252,0.00293,1.079,0.001149,0,0,0.0001678
16500000000,16800000000,3086091356,0,3214823166,0.02829,0.01721,0.02524,0.002068,0.002239,0.0174,2.193e-05,1.144e-05,0.25,0.001785,1.412,0.002351,0,0,0.000145
16800000000,17100000000,3086091356,0,3214823166,0.0282,0.01697,0.02524,0.002071,0.002247,0.01736,4.196e-05,1.144e-05,0.2483,0.002857,1.03,0.0011,0,0,0.000248
17100000000,17400000000,3086091356,0,3214823166,0.02692,0.01697,0.02524,0.002068,0.002239,0.01715,3.242e-05,1.144e-05,0.252,0.00293,1.192,0.001694,0,0,0.1323
17400000000,17700000000,3086091356,0,3214823166,0.02908,0.01718,0.02524,0.002075,0.002247,0.01746,3.815e-05,1.144e-05,0.2549,0.001928,1.088,0.001237,0,0,0.0001469
17700000000,18000000000,3086091356,0,3214823166,0.02887,0.017,0.02524,0.002079,0.002251,0.01736,3.242e-05,1.144e-05,0.2593,0.002644,1.235,0.00137,0,0,0.02069
18000000000,18300000000,3086091356,0,3214823166,0.02902,0.01691,0.02524,0.002087,0.002258,0.01712,5.341e-05,1.144e-05,0.3115,0.002857,1.179,0.001401,0,0,0.003181
18300000000,18600000000,3086091356,0,3214823166,0.02762,0.01718,0.02524,0.002083,0.002254,0.0174,4.387e-05,1.144e-05,0.2534,0.003143,0.984,0.001001,0,0,0.07117
18600000000,18900000000,3086091356,0,3214823166,0.02792,0.017,0.02524,0.002071,0.002243,0.01727,5.817e-05,1.144e-05,0.2554,0.002998,1.016,0.001092,0,0,0.09363
18900000000,19200000000,3086091356,0,3214823166,0.02811,0.01691,0.02524,0.002071,0.002243,0.01703,5.15e-05,1.144e-05,0.2563,0.00293,1.265,0.001892,0,0,0.000164
19200000000,19500000000,3086091356,0,3214823166,0.02969,0.01718,0.02524,0.002064,0.002235,0.01749,4.101e-05,1.144e-05,0.2549,0.00293,1.122,0.001437,0,0,0.0001287
19500000000,19800000000,3086091356,0,3214823166,0.03271,0.01712,0.02524,0.002029,0.002205,0.01767,6.771e-05,1.144e-05,0.313,0.00293,1.321,0.00148,0,0,0.0002871
19800000000,20100000000,3086091356,0,3214823166,0.02951,0.01697,0.02524,0.002022,0.002197,0.01715,4.864e-05,1.144e-05,0.2563,0.002998,1.07,0.001195,0,0,0.004227
20100000000,20400000000,3086091356,0,3214823166,0.02774,0.01727,0.02524,0.002022,0.002193,0.01755,3.338e-05,1.144e-05,0.25,0.002998,1.383,0.002371,0,0,0.1304
20400000000,20700000000,3086091356,0,3214823166,0.02771,0.01697,0.02524,0.002026,0.002197,0.01736,2.766e-05,1.144e-05,0.3198,0.001642,1.025,0.001215,0,0,0.0002794
20700000000,21000000000,3086091356,0,3214823166,0.0282,0.01721,0.02524,0.002018,0.00219,0.01752,4.101e-05,1.144e-05,0.2534,0.00293,1.418,0.002471,0,0,0.0001955
21000000000,21300000000,3086091356,0,3214823166,0.02887,0.017,0.02524,0.002022,0.002193,0.0173,1.526e-05,1.144e-05,0.2563,0.0004997,1.313,0.002126,0,0,0.0001507
21300000000,21600000000,3086091356,0,3214823166,0.02951,0.017,0.02524,0.002026,0.002201,0.01752,5.722e-05,1.144e-05,0.2549,0.00293,1.236,0.001352,0,0,0.0001907
21900000000,22200000000,3086091356,0,3214823166,0.0278,0.01718,0.02524,0.002041,0.002213,0.01749,4.864e-05,1.144e-05,0.2549,0.00293,0.9855,0.0009855,0,0,0.0001364
22200000000,22500000000,3086091356,0,3214823166,0.02823,0.017,0.02524,0.002045,0.002216,0.0173,5.722e-05,1.144e-05,0.2554,0.00293,1.009,0.001002,0,0,0.01746
22500000000,22800000000,3086091356,0,3214823166,0.02863,0.01691,0.02524,0.002052,0.002224,0.01709,4.196e-05,1.144e-05,0.2603,0.00293,1.318,0.002006,0,0,0.0002584
22800000000,23100000000,3086091356,0,3214823166,0.02835,0.01721,0.02524,0.002056,0.002228,0.01752,4.196e-05,1.144e-05,0.2588,0.002857,1.391,0.002291,0,0,0.0002441
23100000000,23400000000,3086091356,0,3214823166,0.03271,0.01712,0.02524,0.002068,0.002239,0.01755,7.248e-05,1.144e-05,0.313,0.003071,1.176,0.001163,0,0,0.000577
23400000000,23700000000,3086091356,0,3214823166,0.0293,0.01694,0.02524,0.002071,0.002243,0.01715,3.719e-05,1.144e-05,0.2554,0.002144,1.177,0.001508,0,0,0.08325
23700000000,24000000000,3086091356,0,3214823166,0.02933,0.01721,0.02524,0.002079,0.002251,0.01746,3.91e-05,1.144e-05,0.2559,0.00293,1.494,0.002523,0,0,0.01654
24300000000,24600000000,3086091356,0,3214823166,0.02991,0.01718,0.02524,0.00209,0.002262,0.01736,3.052e-05,1.144e-05,0.2549,0.00293,1.04,0.001021,0,0,0.0002556
24600000000,24900000000,3086091356,0,3214823166,0.02991,0.017,0.02524,0.002098,0.00227,0.01733,2.384e-05,1.144e-05,0.2539,0.001499,1.014,0.0009387,0,0,0.02521
24900000000,25200000000,3086091356,0,3214823166,0.03058,0.017,0.02524,0.002102,0.002274,0.01761,6.58e-05,1.24e-05,0.2549,0.00293,1.111,0.001053,0,0,0.0002556
25200000000,25500000000,3086091356,0,3214823166,0.02957,0.01721,0.02524,0.00211,0.002281,0.0174,3.338e-05,1.24e-05,0.2578,0.001715,1.101,0.001307,0,0,0.0001354
25500000000,25800000000,3086091356,0,3214823166,0.02936,0.01709,0.02524,0.002117,0.002289,0.0174,2.956e-05,1.24e-05,0.2534,0.003357,1.366,0.002165,0,0,0.0002518
25800000000,26100000000,3086091356,0,3214823166,0.03,0.01694,0.02524,0.002121,0.002293,0.01712,4.768e-05,1.24e-05,0.2573,0.002857,1.354,0.002105,0,0,0.003204
26400000000,26700000000,3086091356,0,3214823166,0.02988,0.017,0.02524,0.002132,0.002308,0.01733,4.959e-05,1.24e-05,0.2554,0.002998,1.384,0.002235,0,0,0.0002127
26700000000,27000000000,3086091356,0,3214823166,0.03418,0.01712,0.02524,0.00214,0.002316,0.01761,0.0001678,1.24e-05,0.2632,0.003643,1.281,0.001408,0,0,0.1406
27000000000,27300000000,3086091356,0,3214823166,0.03085,0.01718,0.02524,0.002148,0.002319,0.0174,5.913e-05,1.24e-05,0.2554,0.002857,1.527,0.002617,0,0,0.0004797
27300000000,27600000000,3086091356,0,3214823166,0.02991,0.017,0.02524,0.002136,0.002308,0.01733,8.297e-05,1.24e-05,0.2588,0.00293,1.422,0.002253,0,0,0.0002003
27600000000,27900000000,3086091356,0,3214823166,0.02985,0.01694,0.02524,0.002136,0.002308,0.01706,3.242e-05,1.24e-05,0.2554,0.001999,1.374,0.002167,0,0,0.0001755
27900000000,28200000000,3086091356,0,3214823166,0.03036,0.01718,0.02524,0.002144,0.002316,0.01736,4.768e-05,1.24e-05,0.3135,0.00293,1.507,0.002598,0,0,0.0813
28200000000,28500000000,3086091356,0,3214823166,0.03015,0.017,0.02524,0.002148,0.002323,0.0173,5.722e-05,1.24e-05,0.2549,0.002998,1.404,0.002291,0,0,0.01276
28500000000,28800000000,3086091356,0,3214823166,0.03091,0.01697,0.02524,0.002144,0.002316,0.01736,4.768e-05,1.24e-05,0.2573,0.002571,1.184,0.001255,0,0,0.000145
28800000000,29100000000,3086091356,0,3214823166,0.03149,0.01718,0.02524,0.002125,0.002296,0.01736,5.341e-05,1.24e-05,0.2534,0.002857,1.169,0.00145,0,0,0.0002785
29100000000,29400000000,3086091356,0,3214823166,0.03104,0.017,0.02524,0.00211,0.002281,0.01733,5.817e-05,1.24e-05,0.2544,0.00293,1.052,0.0009916,0,0,0.06934
29400000000,29700000000,3086091356,0,3214823166,0.03067,0.01718,0.02524,0.002102,0.002274,0.01736,3.624e-05,1.24e-05,0.2563,0.003284,1.107,0.001102,0,0,0.03064
29700000000,30000000000,3086091356,0,3214823166,0.03058,0.017,0.02524,0.00211,0.002281,0.01736,4.768e-05,1.24e-05,0.2568,0.003716,1.08,0.001014,0,0,0.0002861
30000000000,30300000000,3086091356,0,3214823166,0.03091,0.01691,0.02524,0.00211,0.002281,0.01703,5.913e-05,1.24e-05,0.2549,0.00293,1.072,0.0009738,0,0,0.07202
30600000000,30900000000,3086091356,0,3214823166,0.0307,0.017,0.02524,0.002106,0.002277,0.01733,6.58e-05,1.24e-05,0.2812,0.00293,1.53,0.002556,0,0,0.0002689
30900000000,31200000000,3086091356,0,3214823166,0.03085,0.01694,0.02524,0.00211,0.002285,0.01706,5.913e-05,1.24e-05,0.2676,0.00293,1.028,0.001051,0,0,0.0001984
31500000000,31800000000,3086091356,0,3214823166,0.03018,0.01703,0.02524,0.002125,0.002296,0.0174,5.341e-05,1.24e-05,0.2554,0.00293,1.169,0.001369,0,0,0.06799
31800000000,32100000000,3086091356,0,3214823166,0.03043,0.01694,0.02524,0.002129,0.0023,0.01706,3.242e-05,1.24e-05,0.2583,0.001928,1.017,0.0009822,0,0,0.07166
32100000000,32400000000,3086091356,0,3214823166,0.03082,0.01724,0.02524,0.002136,0.002308,0.01776,3.624e-05,1.24e-05,0.2588,0.00293,1.179,0.001215,0,0,0.0002308
32400000000,32700000000,3086091356,0,3214823166,0.0307,0.017,0.02524,0.002125,0.0023,0.01733,4.005e-05,1.24e-05,0.2568,0.004211,1.49,0.002521,0,0,0.252
32700000000,33000000000,3086091356,0,3214823166,0.03012,0.01694,0.02524,0.002071,0.002243,0.01706,6.58e-05,1.24e-05,0.2559,0.004929,1.372,0.002168,0,0,0.252
33000000000,33300000000,3086091356,0,3214823166,0.02966,0.01718,0.02524,0.002075,0.002247,0.01752,7.343e-05,1.24e-05,0.3154,0.007286,1.151,0.001412,0,0,0.0002222
33300000000,33600000000,3086091356,0,3214823166,0.02942,0.017,0.02524,0.002071,0.002243,0.01733,2.956e-05,1.24e-05,0.2856,0.001429,1.238,0.001708,0,0,0.1343
33600000000,33900000000,3086091356,0,3214823166,0.02887,0.01694,0.02524,0.002071,0.002243,0.01706,2.48e-05,1.24e-05,0.2593,0.0009995,1.024,0.001048,0,0,0.0002003
34200000000,34500000000,3086091356,0,3214823166,0.02988,0.01712,0.02524,0.002087,0.002262,0.01736,4.673e-05,1.24e-05,0.2593,0.003143,1.239,0.00164,0,0,0.06824
34500000000,34800000000,3086091356,0,3214823166,0.02924,0.01709,0.02524,0.002094,0.002266,0.01721,6.104e-05,1.24e-05,0.2578,0.003998,1.377,0.002216,0,0,0.0001144
34800000000,35100000000,3086091356,0,3214823166,0.02963,0.01727,0.02524,0.002102,0.002274,0.01758,4.768e-05,1.24e-05,0.2578,0.002998,1.307,0.001828,0,0,0.0003452
35100000000,35400000000,3086091356,0,3214823166,0.03,0.01712,0.02524,0.002094,0.002266,0.01743,3.529e-05,1.24e-05,0.2573,0.00293,1.349,0.002124,0,0,0.0003214
36300000000,36600000000,3086091356,0,3214823166,0.03082,0.01694,0.02524,0.00211,0.002281,0.01706,5.531e-05,1.24e-05,0.2529,0.00293,1.413,0.002279,0,0,0.0001554
36600000000,36900000000,3086091356,0,3214823166,0.03113,0.01721,0.02524,0.00211,0.002281,0.01749,8.202e-05,1.24e-05,0.2559,0.002998,1.432,0.002378,0,0,0.0001497
36900000000,37200000000,3086091356,0,3214823166,0.03049,0.01706,0.02524,0.002113,0.002285,0.01736,5.436e-05,1.24e-05,0.2544,0.001785,1.44,0.002259,0,0,0.0003443
38100000000,38400000000,3086091356,0,3214823166,0.03012,0.01715,0.02524,0.002136,0.002308,0.01736,7.915e-05,1.24e-05,0.2568,0.005714,1.437,0.002395,0,0,0.1296
38400000000,38700000000,3086091356,0,3214823166,0.02948,0.01706,0.02524,0.00214,0.002316,0.01733,4.292e-05,1.24e-05,0.2573,0.002857,1.176,0.00147,0,0,0.0002203
38700000000,39000000000,3086091356,0,3214823166,0.02994,0.01697,0.02524,0.002117,0.002293,0.01715,3.91e-05,1.24e-05,0.2578,0.00243,1.049,0.001098,0,0,0.0002546
39000000000,39300000000,3086091356,0,3214823166,0.03073,0.017,0.02524,0.002098,0.00227,0.01715,6.485e-05,1.24e-05,0.2559,0.00293,1.094,0.001261,0,0,0.0001726
39300000000,39600000000,3086091356,0,3214823166,0.03217,0.0173,0.02524,0.002068,0.002239,0.01782,6.294e-05,1.24e-05,0.313,0.003502,1.292,0.001662,0,0,0.000536
39600000000,39900000000,3086091356,0,3214823166,0.02988,0.01706,0.02524,0.002033,0.002209,0.0174,2.48e-05,1.24e-05,0.2588,0.001286,1.039,0.001066,0,0,0.25
39900000000,40200000000,3086091356,0,3214823166,0.02893,0.01703,0.02524,0.002033,0.002205,0.01718,3.242e-05,1.24e-05,0.2563,0.00243,1.127,0.001465,0,0,0.0001316
40200000000,40500000000,3086091356,0,3214823166,0.02838,0.01715,0.02524,0.002029,0.002201,0.01736,4.101e-05,1.335e-05,0.2617,0.002857,1.385,0.002377,0,0,0.06519
40500000000,40800000000,3086091356,0,3214823166,0.02841,0.01703,0.02524,0.002037,0.002209,0.01733,3.91e-05,1.335e-05,0.2603,0.002716,1.315,0.002113,0,0,8.011e-05
51000000000,51300000000,3086091356,0,3214823166,0.02863,0.01691,0.02524,0.001904,0.002075,0.01703,4.768e-05,1.335e-05,0.249,0.00293,1.115,0.001607,0,0,0.0002251
51300000000,51600000000,3086091356,0,3214823166,0.02802,0.01712,0.02524,0.001902,0.002071,0.01736,8.202e-05,1.335e-05,0.251,0.00293,1.449,0.002542,0,0,0.0005522
51600000000,51900000000,3086091356,0,3214823166,0.02762,0.01706,0.02524,0.001896,0.002068,0.01736,3.719e-05,1.335e-05,0.251,0.002857,0.99,0.0009547,0,0,0.0003366
51900000000,52200000000,3086091356,0,3214823166,0.03174,0.01706,0.02524,0.001829,0.002003,0.01758,8.583e-05,1.335e-05,0.2515,0.00293,1.148,0.001579,0,0,0.009369
52200000000,52500000000,3086091356,0,3214823166,0.02902,0.01715,0.02524,0.00182,0.001991,0.01736,5.436e-05,1.335e-05,0.2498,0.003143,1.451,0.002665,0,0,0.03625
52500000000,52800000000,3086091356,0,3214823166,0.02908,0.01709,0.02524,0.001799,0.001972,0.01743,6.676e-05,1.335e-05,0.2495,0.002998,1.426,0.00237,0,0,0.1282
52800000000,53100000000,3086091356,0,3214823166,0.02896,0.01694,0.02524,0.001791,0.001961,0.01706,3.433e-05,1.335e-05,0.2505,0.00293,1.386,0.002259,0,0,0.0481
53100000000,53400000000,3086091356,0,3214823166,0.02939,0.01715,0.02524,0.001797,0.001968,0.0174,3.815e-05,1.335e-05,0.2505,0.002857,1.42,0.002506,0,0,0.0001287
53400000000,53700000000,3086091356,0,3214823166,0.0289,0.01706,0.02524,0.001802,0.001976,0.01736,4.768e-05,1.335e-05,0.249,0.002857,1.026,0.001098,0,0,0.1255
53700000000,54000000000,3086091356,0,3214823166,0.03113,0.017,0.02524,0.001799,0.001972,0.01749,5.913e-05,1.335e-05,0.2476,0.003071,1.382,0.002268,0,0,0.06714
54000000000,54300000000,3086091356,0,3214823166,0.03052,0.01694,0.02524,0.001793,0.001965,0.01706,4.578e-05,1.335e-05,0.2478,0.001999,1.158,0.001555,0,0,0.0002146
54300000000,54600000000,3086091356,0,3214823166,0.02942,0.01712,0.02524,0.001797,0.001968,0.01749,2.861e-05,1.335e-05,0.3032,0.001429,1.011,0.001028,0,0,0.1252
54600000000,54900000000,3086091356,0,3214823166,0.02902,0.01706,0.02524,0.001802,0.001976,0.01733,4.292e-05,1.335e-05,0.2495,0.002285,1.14,0.001478,0,0,0.003807
54900000000,55200000000,3086091356,0,3214823166,0.02859,0.01691,0.02524,0.001808,0.00198,0.01703,3.815e-05,1.335e-05,0.2495,0.003857,1.033,0.001033,0,0,0.000206
55200000000,55500000000,3086091356,0,3214823166,0.02948,0.01709,0.02524,0.001814,0.001987,0.01733,4.768e-05,1.335e-05,0.252,0.00293,1.057,0.00123,0,0,0.0002384
55500000000,55800000000,3086091356,0,3214823166,0.03253,0.01718,0.02524,0.001823,0.001995,0.01779,0.0001173,1.335e-05,0.2524,0.005783,1.04,0.001093,0,0,0.0004396
55800000000,56100000000,3086091356,0,3214823166,0.02893,0.01691,0.02524,0.001829,0.002003,0.01706,4.292e-05,1.335e-05,0.25,0.002857,1.044,0.001191,0,0,0.0003519
56700000000,57000000000,3086091356,0,3214823166,0.02969,0.01712,0.02524,0.001842,0.002014,0.01736,4.196e-05,1.431e-05,0.293,0.002357,1.033,0.001055,0,0,0.0003376
57000000000,57300000000,3086091356,0,3214823166,0.02872,0.01703,0.02524,0.001848,0.002022,0.01733,4.578e-05,1.431e-05,0.249,0.002857,1.007,0.0009994,0,0,0.000205
57300000000,57600000000,3086091356,0,3214823166,0.02954,0.017,0.02524,0.001854,0.002026,0.01752,3.147e-05,1.431e-05,0.249,0.00243,1.009,0.0009895,0,0,0.0001631
57600000000,57900000000,3086091356,0,3214823166,0.02844,0.01688,0.02524,0.00186,0.002033,0.01703,4.101e-05,1.431e-05,0.2444,0.002857,0.9993,0.0009907,0,0,0.0001354
57900000000,58200000000,3086091356,0,3214823166,0.02838,0.01712,0.02524,0.001867,0.002041,0.01736,3.91e-05,1.431e-05,0.3091,0.00293,1.017,0.001017,0,0,0.2454
58200000000,58500000000,3086091356,0,3214823166,0.02924,0.01703,0.02524,0.001873,0.002045,0.01733,5.054e-05,1.431e-05,0.2488,0.002857,1.011,0.001009,0,0,0.0002565
58500000000,58800000000,3086091356,0,3214823166,0.02899,0.01691,0.02524,0.001879,0.002052,0.01703,5.722e-05,1.431e-05,0.248,0.002144,1.02,0.001061,0,0,0.0002489
58800000000,59100000000,3086091356,0,3214823166,0.02823,0.01691,0.02524,0.001881,0.002052,0.01703,6.199e-05,1.431e-05,0.2498,0.003784,1.003,0.0009944,0,0,0.2451
59100000000,59400000000,3086091356,0,3214823166,0.03247,0.01724,0.02524,0.001884,0.002056,0.01779,0.0001221,1.431e-05,0.3379,0.002998,1.383,0.00237,0,0,0.02289
59400000000,59700000000,3086091356,0,3214823166,0.02948,0.01706,0.02524,0.001892,0.002064,0.01736,3.147e-05,1.431e-05,0.3091,0.002716,1.393,0.002205,0,0,0.0003071
59700000000,60000000000,3086091356,0,3214823166,0.02911,0.01691,0.02524,0.001898,0.002068,0.01706,4.101e-05,1.431e-05,0.2983,0.00293,1.364,0.002159,0,0,0.0001936
60000000000,60300000000,3086091356,0,3214823166,0.02991,0.01697,0.02524,0.001902,0.002075,0.01718,3.433e-05,1.431e-05,0.2454,0.002144,1.187,0.001499,0,0,0.0003624
60300000000,60600000000,3086091356,0,3214823166,0.01736,0.0166,0.02429,0.001905,0.002079,0.01721,1.812e-05,1.431e-05,0.2456,0.0006428,1.203,0.001502,0,0,0.0003233
60600000000,60900000000,3086091356,0,3214823166,0.021,0.01663,0.02429,0.001917,0.002087,0.01715,3.338e-05,1.431e-05,0.2622,0.00293,1.324,0.001881,0,0,0.0005474
70800000000,71100000000,3086091356,0,3214823166,0.02835,0.01691,0.02524,0.002071,0.002243,0.01706,3.719e-05,1.431e-05,0.3008,0.002857,1.444,0.002711,0,0,0.0002031
71100000000,71400000000,3086091356,0,3214823166,0.02911,0.01709,0.02524,0.002075,0.002247,0.0174,5.913e-05,1.431e-05,0.2444,0.00293,1.064,0.00137,0,0,0.0003633
71400000000,71700000000,3086091356,0,3214823166,0.02859,0.01709,0.02524,0.002071,0.002243,0.01736,3.815e-05,1.431e-05,0.2449,0.00293,0.9885,0.00112,0,0,0.003426
71700000000,72000000000,3086091356,0,3214823166,0.0296,0.01709,0.02524,0.002075,0.002247,0.01767,4.196e-05,1.526e-05,0.2488,0.003143,1.043,0.001318,0,0,0.0002308
72000000000,72300000000,3086091356,0,3214823166,0.02939,0.01712,0.02524,0.002071,0.002247,0.01743,3.338e-05,1.526e-05,0.2461,0.002857,1.497,0.002817,0,0,0.0001879
72300000000,72600000000,3086091356,0,3214823166,0.02893,0.01709,0.02524,0.002079,0.002251,0.01736,5.722e-05,1.526e-05,0.2458,0.00293,1.409,0.002499,0,0,0.0001621
72600000000,72900000000,3086091356,0,3214823166,0.02905,0.01691,0.02524,0.002083,0.002254,0.01703,3.815e-05,1.526e-05,0.2471,0.002857,1.435,0.002622,0,0,0.0002241
72900000000,73200000000,3086091356,0,3214823166,0.02921,0.01709,0.02524,0.00209,0.002262,0.0174,3.529e-05,1.526e-05,0.2456,0.001928,1.418,0.002537,0,0,0.0002842
73800000000,74100000000,3086091356,0,3214823166,0.02969,0.01712,0.02524,0.00211,0.002281,0.01749,3.433e-05,1.526e-05,0.2483,0.001928,1.494,0.002731,0,0,9.823e-05
74100000000,74400000000,3086091356,0,3214823166,0.02844,0.01709,0.02524,0.002117,0.002289,0.01736,4.292e-05,1.526e-05,0.2483,0.002998,1.5,0.002699,0,0,0.0002737
74400000000,74700000000,3086091356,0,3214823166,0.0285,0.01694,0.02524,0.002121,0.002293,0.01706,4.387e-05,1.526e-05,0.2439,0.002857,1.472,0.002613,0,0,0.0002003
74700000000,75000000000,3086091356,0,3214823166,0.02817,0.01694,0.02524,0.002106,0.002277,0.01709,4.482e-05,1.526e-05,0.2478,0.00293,1.393,0.002343,0,0,0.0001373
75000000000,75300000000,3086091356,0,3214823166,0.02856,0.01709,0.02524,0.00211,0.002281,0.0174,3.052e-05,1.526e-05,0.2539,0.001999,1.517,0.00286,0,0,0.01837
75300000000,75600000000,3086091356,0,3214823166,0.02905,0.01721,0.02524,0.002117,0.002289,0.01801,4.101e-05,1.526e-05,0.2476,0.003284,1.009,0.001123,0,0,0.127
75600000000,75900000000,3086091356,0,3214823166,0.02878,0.01691,0.02524,0.002121,0.002293,0.01706,4.578e-05,1.526e-05,0.2588,0.002857,0.9901,0.001067,0,0,0.01154
75900000000,76200000000,3086091356,0,3214823166,0.0289,0.01691,0.02524,0.002125,0.002296,0.01706,5.15e-05,1.526e-05,0.2468,0.00293,1.472,0.002757,0,0,0.0003281
76200000000,76500000000,3086091356,0,3214823166,0.02911,0.01709,0.02524,0.002129,0.0023,0.0174,1.907e-05,1.526e-05,0.2473,0.001572,1.492,0.002948,0,0,0.01471
76500000000,76800000000,3086091356,0,3214823166,0.02902,0.01709,0.02524,0.002136,0.002308,0.01736,1.907e-05,1.526e-05,0.2417,0.001143,1.543,0.003069,0,0,0.0001898
76800000000,77100000000,3086091356,0,3214823166,0.02924,0.01691,0.02524,0.002144,0.002316,0.01706,3.242e-05,1.526e-05,0.2454,0.002357,1.2,0.001823,0,0,0.2454
77100000000,77400000000,3086091356,0,3214823166,0.03265,0.01724,0.02524,0.002151,0.002323,0.01764,0.0001011,1.526e-05,0.2449,0.005432,1.055,0.001281,0,0,0.0001698
77400000000,77700000000,3086091356,0,3214823166,0.02835,0.01709,0.02524,0.002159,0.002331,0.01743,2.956e-05,1.526e-05,0.2437,0.001572,1.231,0.001903,0,0,0.0003662
77700000000,78000000000,3086091356,0,3214823166,0.02878,0.01691,0.02524,0.002163,0.002335,0.01703,4.005e-05,1.526e-05,0.2454,0.00293,1.032,0.001252,0,0,0.0004063
78000000000,78300000000,3086091356,0,3214823166,0.02841,0.01691,0.02524,0.002171,0.002342,0.01703,2.861e-05,1.526e-05,0.2451,0.002071,0.9799,0.001095,0,0,0.07532
78300000000,78600000000,3086091356,0,3214823166,0.02911,0.01709,0.02524,0.002174,0.002346,0.01749,5.722e-05,1.526e-05,0.2451,0.003429,1.025,0.001254,0,0,0.03125
78600000000,78900000000,3086091356,0,3214823166,0.02902,0.01709,0.02524,0.002167,0.002338,0.01736,2.67e-05,1.526e-05,0.2458,0.001572,1.002,0.001166,0,0,0.0001593
78900000000,79200000000,3086091356,0,3214823166,0.02994,0.017,0.02524,0.002159,0.002335,0.01752,4.387e-05,1.526e-05,0.2468,0.002644,1.007,0.001184,0,0,0.1331
79200000000,79500000000,3086091356,0,3214823166,0.02911,0.01694,0.02524,0.002167,0.002338,0.01706,3.719e-05,1.526e-05,0.2471,0.00293,1.042,0.001257,0,0,0.0001841
79500000000,79800000000,3086091356,0,3214823166,0.02924,0.01709,0.02524,0.002171,0.002346,0.0174,5.15e-05,1.526e-05,0.2463,0.003502,1.497,0.002901,0,0,0.01993
79800000000,80100000000,3086091356,0,3214823166,0.02924,0.01712,0.02524,0.002178,0.00235,0.0174,4.005e-05,1.526e-05,0.2344,0.00293,1.464,0.002753,0,0,0.07349
80100000000,80400000000,3086091356,0,3214823166,0.02859,0.01694,0.02524,0.002186,0.002357,0.01706,5.15e-05,1.526e-05,0.24,0.00293,1.095,0.001487,0,0,0.0001192
80400000000,80700000000,3086091356,0,3214823166,0.02908,0.01709,0.02524,0.00219,0.002361,0.01749,4.768e-05,1.526e-05,0.2402,0.00243,0.9902,0.001149,0,0,0.09631
80700000000,81000000000,3086091356,0,3214823166,0.02597,0.01715,0.02509,0.00219,0.002361,0.01758,0.0001106,1.526e-05,0.2473,0.005569,1.283,0.001734,0,0,0.2231
85800000000,86100000000,3086091356,0,3214823166,0.02805,0.01715,0.02524,0.002224,0.002396,0.01758,3.242e-05,1.526e-05,0.2427,0.002571,1.463,0.002592,0,0,0.0003042
86100000000,86400000000,3086091356,0,3214823166,0.02911,0.01724,0.02524,0.002178,0.002354,0.01785,5.15e-05,1.526e-05,0.2549,0.00293,1.498,0.002543,0,0,0.0003786
86400000000,86700000000,3086091356,0,3214823166,0.02719,0.01706,0.02524,0.002159,0.002331,0.01721,4.578e-05,1.526e-05,0.2349,0.003571,1.519,0.00253,0,0,0.0003395
86700000000,87000000000,3086091356,0,3214823166,0.02707,0.01715,0.02524,0.002159,0.002331,0.01755,6.199e-05,1.526e-05,0.3237,0.004425,1.499,0.002876,0,0,0.0002909
87000000000,87300000000,3086091356,0,3214823166,0.02716,0.01718,0.02524,0.002167,0.002338,0.0174,6.866e-05,1.526e-05,0.2393,0.002857,1.484,0.002812,0,0,0.02707
87300000000,87600000000,3086091356,0,3214823166,0.02667,0.01694,0.02524,0.002174,0.002346,0.01709,6.58e-05,1.526e-05,0.2329,0.003143,1.176,0.001605,0,0,0.03351
87600000000,87900000000,3086091356,0,3214823166,0.02728,0.01709,0.02524,0.002171,0.002342,0.0174,5.722e-05,1.621e-05,0.311,0.002857,1.009,0.001066,0,0,0.06287
87900000000,88200000000,3086091356,0,3214823166,0.0318,0.0173,0.02524,0.002167,0.002338,0.01791,0.000102,1.621e-05,0.2366,0.002998,1.341,0.001987,0,0,0.0002193
88200000000,88500000000,3086091356,0,3214823166,0.02814,0.01706,0.02524,0.002171,0.002342,0.01721,7.915e-05,1.621e-05,0.2334,0.002857,1.52,0.002876,0,0,0.2212
88500000000,88800000000,3086091356,0,3214823166,0.02933,0.01712,0.02524,0.002174,0.00235,0.01743,6.39e-05,1.621e-05,0.2964,0.003357,1.664,0.003618,0,0,0.0001907
88800000000,89100000000,3086091356,0,3214823166,0.02905,0.01715,0.02524,0.002178,0.002354,0.0174,2.193e-05,1.621e-05,0.2444,0.0007858,1.066,0.001327,0,0,0.0002069
89100000000,89400000000,3086091356,0,3214823166,0.02948,0.01697,0.02524,0.002186,0.002357,0.01709,3.147e-05,1.621e-05,0.2485,0.00243,1.224,0.001908,0,0,0.08057
89400000000,89700000000,3086091356,0,3214823166,0.02982,0.01712,0.02524,0.002182,0.002354,0.01746,5.627e-05,1.621e-05,0.2356,0.002998,1.032,0.001214,0,0,0.0003147
89700000000,90000000000,3086091356,0,3214823166,0.03168,0.01736,0.02524,0.002186,0.002357,0.01807,6.771e-05,1.621e-05,0.2375,0.003357,1.142,0.001437,0,0,0.0002356
90000000000,90300000000,3086091356,0,3214823166,0.02994,0.01712,0.02524,0.002178,0.00235,0.01721,5.341e-05,1.621e-05,0.2346,0.00293,1.523,0.002733,0,0,0.0003128
90300000000,90600000000,3086091356,0,3214823166,0.02722,0.017,0.02524,0.002159,0.002335,0.01721,4.387e-05,1.621e-05,0.2354,0.00293,1.181,0.001673,0,0,0.0001507
90600000000,90900000000,3086091356,0,3214823166,0.02924,0.01718,0.02524,0.002151,0.002323,0.01752,8.488e-05,1.621e-05,0.2373,0.002857,1.223,0.00192,0,0,0.0003986
101100000000,101400000000,3086091356,0,284794223,0.02658,0.01642,0.02335,0.0001507,0.0004663,0.01678,7.439e-05,0,0.3042,0.002857,1.371,0.002108,0,0,0.000248
101400000000,101700000000,3086091356,0,284794223,0.02621,0.01642,0.02341,0.0001564,0.000473,0.01727,4.292e-05,0,0.2959,0.002857,1.359,0.002123,0,0,0.0001431
101700000000,102000000000,3086091356,0,284794223,0.02631,0.01703,0.02527,0.0001745,0.0004902,0.01724,5.341e-05,0,0.2993,0.002857,1.34,0.002053,0,0,0.06274
102000000000,102300000000,3086091356,0,284794223,0.02707,0.01657,0.02377,0.0001841,0.0004997,0.01709,5.15e-05,0,0.3008,0.002857,1.321,0.001987,0,0,0.0002718
102300000000,102600000000,3086091356,0,284794223,0.02567,0.01639,0.02332,0.0001774,0.000493,0.0166,6.104e-05,0,0.2822,0.002857,1.342,0.002045,0,0,0.0001402
102600000000,102900000000,3086091356,0,284794223,0.02585,0.01639,0.02332,0.0001822,0.0004978,0.0166,2.956e-05,9.537e-07,0.3062,0.002357,1.342,0.002128,0,0,5.341e-05
102900000000,103200000000,3086091356,0,284794223,0.02557,0.01639,0.02332,0.0001869,0.0005035,0.01657,3.719e-05,9.537e-07,0.2988,0.002071,1.327,0.002077,0,0,0.0001965
103200000000,103500000000,3086091356,0,284794223,0.02612,0.01642,0.02332,0.0001926,0.0005093,0.01666,4.005e-05,9.537e-07,0.2866,0.002785,1.323,0.002063,0,0,0.0002451
103500000000,103800000000,3086091356,0,284794223,0.0289,0.01657,0.02341,0.0001984,0.000514,0.01752,5.627e-05,9.537e-07,0.2949,0.001429,1.329,0.002138,0,0,0.0002117
103800000000,104100000000,3086091356,0,284794223,0.02805,0.01733,0.02524,0.0002079,0.0005236,0.01773,5.531e-05,9.537e-07,0.2939,0.002857,1.342,0.002053,0,0,0.06641
104100000000,104400000000,3086091356,0,284794223,0.02667,0.01654,0.02341,0.0002146,0.0005312,0.01694,5.341e-05,9.537e-07,0.2983,0.002857,1.307,0.002012,0,0,0.0003004
104400000000,104700000000,3086091356,0,284794223,0.02652,0.01654,0.02341,0.0002213,0.0005369,0.01743,4.387e-05,9.537e-07,0.3018,0.002644,1.296,0.002013,0,0,0.000205
104700000000,105000000000,3086091356,0,284794223,0.02661,0.01706,0.02524,0.0002403,0.000556,0.01746,3.624e-05,9.537e-07,0.3008,0.001642,1.34,0.002116,0,0,0.0002689
105000000000,105300000000,3086091356,0,284794223,0.02637,0.01648,0.02335,0.000246,0.0005627,0.01678,4.196e-05,9.537e-07,0.2925,0.001715,1.336,0.002148,0,0,0.007133
105300000000,105600000000,3086091356,0,284794223,0.02649,0.01648,0.02341,0.000247,0.0005636,0.0174,2.861e-05,9.537e-07,0.2988,0.001358,1.315,0.002064,0,0,9.251e-05
105600000000,105900000000,3086091356,0,284794223,0.02734,0.01715,0.02527,0.0002575,0.0005732,0.01758,5.436e-05,9.537e-07,0.3052,0.00243,1.337,0.002108,0,0,0.07434
105900000000,106200000000,3086091356,0,284794223,0.02649,0.01651,0.02338,0.0002584,0.0005751,0.01688,4.578e-05,9.537e-07,0.3145,0.002213,1.33,0.002104,0,0,0.07227
106200000000,106500000000,3086091356,0,284794223,0.02637,0.01642,0.02332,0.0002594,0.0005751,0.01669,5.15e-05,9.537e-07,0.291,0.00293,1.32,0.002065,0,0,0.07166
106500000000,106800000000,3086091356,0,284794223,0.02649,0.01645,0.02341,0.0002651,0.0005808,0.01733,3.624e-05,9.537e-07,0.2954,0.001785,1.299,0.002056,0,0,0.0001984
107400000000,107700000000,3086091356,0,1094186,0.02411,0.01733,0.02499,0.0002966,0.0005407,0.01758,3.338e-05,0,0.2739,0.001286,0.9225,0.0008375,0,0,0.0001802
108000000000,108300000000,3086091356,0,1094186,0.02386,0.01688,0.0246,0.0002842,0.0005226,0.01746,5.913e-05,0,0.2529,0.002857,0.9373,0.0008925,0,0,0.05334
108300000000,108600000000,3086091356,0,1094186,0.02423,0.01657,0.02316,0.0002337,0.0004578,0.01675,5.245e-05,0,0.3013,0.003643,0.9477,0.0008922,0,0,9.155e-05
108600000000,108900000000,3086091356,0,1094186,0.0239,0.01721,0.02502,0.0002403,0.0004644,0.01752,3.624e-05,0,0.2661,0.001143,0.9328,0.0008765,0,0,0.0001984
108900000000,109200000000,3086091356,0,1094186,0.02487,0.01694,0.02463,0.0002518,0.0004768,0.01733,7.248e-05,0,0.3184,0.003429,0.9363,0.0009042,0,0,5.054e-05
109200000000,109500000000,3086091356,0,1094186,0.02368,0.01669,0.02374,0.0002613,0.0004864,0.01706,2.48e-05,0,0.3042,0.0007858,0.931,0.0008922,0,0,0.2314
109500000000,109800000000,3086091356,0,1094186,0.02448,0.01733,0.02502,0.0002518,0.0004768,0.0177,3.433e-05,0,0.3062,0.001143,0.947,0.0008684,0,0,0.0002117
109800000000,110100000000,3086091356,0,1094186,0.02386,0.01685,0.02432,0.0001822,0.0004082,0.01746,6.294e-05,0,0.2632,0.003071,0.9424,0.0009158,0,0,0.0001173
110100000000,110400000000,3086091356,0,1094186,0.02383,0.0166,0.02325,0.0001888,0.0004139,0.01678,6.199e-05,0,0.2583,0.002857,0.9419,0.000893,0,0,0.0001211
110400000000,110700000000,3086091356,0,1094186,0.02383,0.0166,0.02325,0.0001936,0.0004187,0.01678,5.531e-05,0,0.2578,0.00293,0.9456,0.0008923,0,0,0.0002337
110700000000,111000000000,3086091356,0,1094186,0.02759,0.01678,0.02411,0.0002127,0.0004387,0.01727,0.000104,0,0.3174,0.006142,1.042,0.001071,0,0,0.004372
116100000000,116400000000,3086091356,0,1094186,0.02606,0.01669,0.02371,0.0003166,0.0005417,0.01706,4.196e-05,9.537e-07,0.2969,0.00293,0.9848,0.000942,0,0,8.202e-05
116400000000,116700000000,3086091356,0,1094186,0.02435,0.0166,0.02325,0.0003109,0.000536,0.01678,2.766e-05,9.537e-07,0.2583,0.0009289,0.9874,0.0009463,0,0,0.1274
116700000000,117000000000,3086091356,0,1094186,0.02466,0.01721,0.0249,0.0003319,0.0005579,0.01758,2.956e-05,9.537e-07,0.2617,0.002285,0.9808,0.0009291,0,0,0.0001554
117000000000,117300000000,3086091356,0,1094186,0.02426,0.01672,0.02371,0.0003281,0.0005531,0.01736,3.815e-05,9.537e-07,0.2603,0.001999,0.9842,0.0009539,0,0,0.06567
117300000000,117600000000,3086091356,0,1094186,0.02463,0.0166,0.02325,0.00033,0.000555,0.01678,4.673e-05,9.537e-07,0.2646,0.001999,0.9859,0.0009425,0,0,0.0001631
117600000000,117900000000,3086091356,0,1094186,0.02472,0.01721,0.0249,0.000351,0.000576,0.01755,3.147e-05,9.537e-07,0.2617,0.001143,0.987,0.0009317,0,0,0.2295
117900000000,118200000000,3086091356,0,1094186,0.02789,0.01694,0.0249,0.0003462,0.0005722,0.01733,7.629e-05,9.537e-07,0.3057,0.002857,1.066,0.001083,0,0,0.06372
118200000000,118500000000,3086091356,0,1094186,0.02441,0.01669,0.02356,0.000351,0.000576,0.01694,1.907e-05,9.537e-07,0.2617,0.0005713,0.9925,0.0009534,0,0,0.0001669
118500000000,118800000000,3086091356,0,1094186,0.02463,0.01718,0.0249,0.0003681,0.0005932,0.01752,3.433e-05,9.537e-07,0.2637,0.001143,0.9876,0.0009451,0,0,0.0001879
118800000000,119100000000,3086091356,0,1094186,0.02451,0.01675,0.0239,0.0003681,0.0005932,0.0174,3.815e-05,9.537e-07,0.2681,0.001572,0.9939,0.0009598,0,0,7.725e-05
119100000000,119400000000,3086091356,0,1094186,0.02466,0.0166,0.02325,0.0003691,0.0005951,0.01678,5.15e-05,9.537e-07,0.2627,0.002571,0.9972,0.0009559,0,0,0.0007381
119400000000,119700000000,3086091356,0,1094186,0.02454,0.01718,0.0249,0.0003891,0.0006142,0.01755,5.245e-05,9.537e-07,0.2666,0.002213,0.9921,0.0009558,0,0,0.0001221
119700000000,120000000000,3086091356,0,1094186,0.02524,0.01685,0.02435,0.0003891,0.0006142,0.01736,6.771e-05,9.537e-07,0.3027,0.002857,0.9828,0.0009551,0,0,0.06384
120000000000,120300000000,3086091356,0,1094186,0.02438,0.01657,0.02325,0.0003176,0.0005312,0.01678,9.727e-05,9.537e-07,0.2603,0.00293,0.9907,0.0009584,0,0,0.0001154
120300000000,120600000000,3086091356,0,1094186,0.02505,0.01712,0.0249,0.0003262,0.0005398,0.01736,5.913e-05,9.537e-07,0.2646,0.002857,1.004,0.0009688,0,0,0.0002394
120600000000,120900000000,3086091356,0,1094186,0.02426,0.01675,0.0239,0.0003242,0.0005388,0.01736,0.0001402,9.537e-07,0.2646,0.002998,0.9832,0.0009553,0,0,0.0001764
126300000000,126600000000,3086091356,0,6566561,0.04602,0.01721,0.02524,0.0001192,0.0004272,0.01761,4.482e-05,0,0.2812,0.002998,1.458,0.002023,0,0,0.0006323
126600000000,126900000000,3086091356,0,6566561,0.02673,0.01688,0.02463,0.000124,0.000433,0.01721,4.292e-05,0,0.2515,0.00293,1.444,0.002276,0,0,0.06287
127500000000,127800000000,3086091356,0,4304785289,0.05469,0.01758,0.02512,0.0002165,0.0005388,0.01794,5.436e-05,0,0.3042,0.002571,1.131,0.0008216,0,0,0.05829
127800000000,128100000000,3086091356,0,4304785289,0.02621,0.0174,0.02515,0.0001993,0.0005226,0.01785,2.861e-05,0,0.2041,0.0009289,1.196,0.001495,0,0,0.000452
128400000000,128700000000,3086091356,0,4304785289,0.02533,0.01651,0.02332,0.0002012,0.0005245,0.01675,3.433e-05,0,0.3022,0.001143,1.138,0.00136,0,0,0.06287
128700000000,129000000000,3086091356,0,4304785289,0.01825,0.01605,0.02328,0.000206,0.0005302,0.01663,2.575e-05,0,0.2087,0.0009289,1.204,0.001643,0,0,0.01256
129000000000,129300000000,3086091356,0,4304785289,0.02557,0.01663,0.02377,0.0002098,0.0005341,0.01743,4.768e-05,0,0.207,0.001572,1.015,0.001051,0,0,0.06628
129300000000,129600000000,3086091356,0,4304785289,0.02621,0.01706,0.02493,0.0002165,0.0005407,0.01736,2.956e-05,0,0.2056,0.0009289,1.007,0.001126,0,0,0.06299
129600000000,129900000000,3086091356,0,4304785289,0.02502,0.01672,0.02377,0.0002222,0.0005465,0.01746,3.338e-05,0,0.2061,0.001572,0.9933,0.001117,0,0,0.0001535
129900000000,130200000000,3086091356,0,4304785289,0.02606,0.01703,0.02493,0.0002279,0.0005522,0.0173,3.052e-05,0,0.2046,0.001358,1.026,0.001187,0,0,0.0001316
130200000000,130500000000,3086091356,0,4304785289,0.02579,0.01651,0.02328,0.000226,0.0005503,0.01669,4.292e-05,0,0.2026,0.002785,1.116,0.00131,0,0,0.0001802
130500000000,130800000000,3086091356,0,4304785289,0.02554,0.01654,0.02328,0.0002317,0.000556,0.01669,4.005e-05,0,0.2043,0.001572,1.111,0.00135,0,0,0.06372
141000000000,141300000000,3086091356,0,908323,0.03,0.01688,0.02493,0.0002851,0.000495,0.01712,5.913e-05,0,0.2397,0.002857,1.214,0.00133,0,0,0.07703
141300000000,141600000000,3086091356,0,908323,0.02939,0.01685,0.02493,0.0002909,0.0005007,0.017,6.008e-05,0,0.3628,0.002857,1.2,0.001314,0,0,0.1885
141600000000,141900000000,3086091356,0,908323,0.02972,0.01697,0.02493,0.0002956,0.0005045,0.01758,4.482e-05,0,0.3657,0.002144,1.191,0.001275,0,0,0.0002108
141900000000,142200000000,3086091356,0,908323,0.02975,0.01736,0.02493,0.0002975,0.0005074,0.01761,3.433e-05,9.537e-07,0.2524,0.002571,1.222,0.001407,0,0,0.0001965
142200000000,142500000000,3086091356,0,908323,0.03235,0.01691,0.02493,0.0003033,0.0005131,0.01724,6.866e-05,9.537e-07,0.2441,0.002571,1.308,0.001519,0,0,0.0001612
142500000000,142800000000,3086091356,0,908323,0.03082,0.01694,0.02493,0.0003119,0.0005217,0.01752,2.766e-05,9.537e-07,0.2415,0.0008574,1.22,0.001394,0,0,0.0002375
142800000000,143100000000,3086091356,0,908323,0.03015,0.01657,0.02328,0.0003176,0.0005274,0.01675,2.861e-05,9.537e-07,0.2466,0.001429,1.199,0.001373,0,0,0.0001822
143100000000,143400000000,3086091356,0,908323,0.02957,0.01672,0.02365,0.0003233,0.0005331,0.01755,5.341e-05,9.537e-07,0.2454,0.002857,1.16,0.001303,0,0,0.0003548
143400000000,143700000000,3086091356,0,908323,0.02948,0.01712,0.02502,0.000329,0.0005388,0.01736,3.338e-05,9.537e-07,0.2429,0.002857,1.184,0.001392,0,0,0.0002356
143700000000,144000000000,3086091356,0,908323,0.02875,0.0166,0.02328,0.0003347,0.0005436,0.01678,3.624e-05,9.537e-07,0.3647,0.002857,1.157,0.001276,0,0,0.002064
144000000000,144300000000,3086091356,0,908323,0.02924,0.0166,0.02328,0.0003395,0.0005493,0.01675,4.292e-05,9.537e-07,0.2454,0.001215,1.171,0.00131,0,0,0.06323
144300000000,144600000000,3086091356,0,908323,0.03018,0.01678,0.02399,0.0003462,0.0005598,0.01755,3.242e-05,9.537e-07,0.2393,0.001215,1.167,0.001299,0,0,0.0002689
144600000000,144900000000,3086091356,0,908323,0.02994,0.01672,0.02365,0.000351,0.0005646,0.01758,6.008e-05,9.537e-07,0.2429,0.002857,1.165,0.00132,0,0,0.0009356
144900000000,145200000000,3086091356,0,908323,0.02979,0.01718,0.02521,0.0003672,0.0005856,0.0174,3.242e-05,9.537e-07,0.2456,0.001215,1.205,0.001379,0,0,0.0006456
145200000000,145500000000,3086091356,0,908323,0.02917,0.01657,0.02328,0.0003633,0.0005722,0.01682,4.196e-05,9.537e-07,0.2437,0.002857,1.177,0.001358,0,0,0.1899
145500000000,145800000000,3086091356,0,908323,0.02914,0.01654,0.02328,0.0003681,0.0005779,0.01678,2.289e-05,9.537e-07,0.2412,0.0006428,1.178,0.001346,0,0,0.07703
145800000000,146100000000,3086091356,0,908323,0.03198,0.01657,0.02347,0.0003738,0.0005836,0.01697,5.436e-05,9.537e-07,0.2424,0.001572,1.291,0.001526,0,0,0.0001917
151200000000,151500000000,3086091356,0,908323,0.0293,0.01718,0.02524,0.000474,0.0006828,0.0174,4.101e-05,9.537e-07,0.3638,0.002285,1.121,0.001252,0,0,0.0004406
151500000000,151800000000,3086091356,0,908323,0.03,0.01678,0.02393,0.0004797,0.0006886,0.01736,5.913e-05,9.537e-07,0.2739,0.002857,1.175,0.00138,0,0,0.06799
151800000000,152100000000,3086091356,0,908323,0.02884,0.01663,0.02328,0.0004807,0.0006895,0.01678,3.052e-05,9.537e-07,0.2407,0.001143,1.169,0.001341,0,0,0.0002909
152100000000,152400000000,3086091356,0,908323,0.02875,0.01669,0.02359,0.0004864,0.0006981,0.01752,2.67e-05,9.537e-07,0.2368,0.001215,1.115,0.001202,0,0,8.488e-05
152400000000,152700000000,3086091356,0,908323,0.03073,0.01721,0.02524,0.0005064,0.0007172,0.01743,1.526e-05,9.537e-07,0.2671,0.001858,1.159,0.001252,0,0,0.0002089
152700000000,153000000000,3086091356,0,908323,0.03052,0.01663,0.02344,0.0005007,0.0007095,0.01691,1.526e-05,9.537e-07,0.6865,0.0002861,1.149,0.001182,0,0,0.0001249
153000000000,153300000000,3086091356,0,908323,0.03223,0.01663,0.02365,0.0004988,0.0007076,0.01703,4.578e-05,9.537e-07,0.2429,0.002644,1.264,0.001507,0,0,0.0002747
153300000000,153600000000,3086091356,0,908323,0.02997,0.01678,0.02396,0.0005112,0.00072,0.01733,3.529e-05,9.537e-07,0.4502,0.003071,1.183,0.001323,0,0,0.0001469
153600000000,153900000000,3086091356,0,908323,0.02994,0.01666,0.02347,0.0005054,0.0007143,0.01743,2.193e-05,9.537e-07,0.2432,0.0007143,1.168,0.001295,0,0,0.0002947
153900000000,154200000000,3086091356,0,908323,0.02664,0.01709,0.0249,0.0005255,0.0007353,0.0174,2.098e-05,9.537e-07,0.2441,0.0005713,1.13,0.001266,0,0,0.0001936
154200000000,154500000000,3086091356,0,908323,0.008057,0.01569,0.02332,0.0005169,0.0007267,0.01617,1.907e-05,9.537e-07,0.09351,0.0006428,2.316,0.006823,0,0,0.0001211
154500000000,154800000000,3086091356,0,908323,0.02155,0.01624,0.02332,0.0005226,0.0007324,0.01675,3.242e-05,9.537e-07,0.252,0.001215,1.152,0.001505,0,0,0.004372
154800000000,155100000000,3086091356,0,908323,0.02451,0.01648,0.02332,0.0005283,0.0007381,0.01675,2.766e-05,9.537e-07,0.2366,0.001429,1.117,0.0014,0,0,0.05359
155100000000,155400000000,3086091356,0,908323,0.03076,0.01721,0.02521,0.000536,0.0007458,0.01782,2.766e-05,9.537e-07,0.3047,0.001358,1.19,0.001632,0,0,0.0005407
155400000000,155700000000,3086091356,0,908323,0.02924,0.01669,0.02347,0.0005388,0.0007486,0.01697,1.812e-05,9.537e-07,0.2395,0.0003567,1.197,0.00162,0,0,0.0002728
155700000000,156000000000,3086091356,0,908323,0.02954,0.01669,0.02347,0.0005436,0.0007524,0.01752,2.956e-05,9.537e-07,0.2642,0.002785,1.174,0.001545,0,0,0.0001411
161100000000,161400000000,3086091356,0,908323,0.0307,0.01672,0.02347,0.0006342,0.0008593,0.01752,2.193e-05,1.907e-06,0.2246,0.0007143,1.169,0.001212,0,0,0.0001278
161400000000,161700000000,3086091356,0,908323,0.03098,0.01721,0.02512,0.0006371,0.0008688,0.01746,2.956e-05,1.907e-06,0.2278,0.001572,1.171,0.001213,0,0,0.1931
161700000000,162000000000,3086091356,0,908323,0.03049,0.01675,0.02377,0.0006514,0.000864,0.017,2.193e-05,1.907e-06,0.3496,0.0007143,1.184,0.001266,0,0,0.0001907
162000000000,162300000000,3086091356,0,908323,0.03043,0.01672,0.02344,0.000658,0.0008669,0.01694,2.67e-05,1.907e-06,0.6475,0.0007143,1.181,0.001366,0,0,0.000185
162300000000,162600000000,3086091356,0,908323,0.03131,0.01675,0.02383,0.0006475,0.0008564,0.01746,4.292e-05,1.907e-06,0.2234,0.002857,1.244,0.001463,0,0,0.001017
162600000000,162900000000,3086091356,0,908323,0.03021,0.01718,0.02524,0.0006542,0.0008631,0.01736,4.005e-05,1.907e-06,0.2288,0.002857,1.282,0.001547,0,0,0.0001945
162900000000,163200000000,3086091356,0,908323,0.03,0.01666,0.02344,0.0006599,0.0008688,0.01694,3.242e-05,1.907e-06,0.2332,0.001785,1.253,0.001477,0,0,0.005676
163200000000,163500000000,3086091356,0,908323,0.03058,0.01663,0.02332,0.0006657,0.0008745,0.01678,3.242e-05,1.907e-06,0.2209,0.002857,1.275,0.001523,0,0,0.0009937
163500000000,163800000000,3086091356,0,908323,0.03052,0.01669,0.0235,0.0006733,0.0008821,0.0174,4.101e-05,1.907e-06,0.2212,0.00293,1.272,0.001475,0,0,0.0001726
163800000000,164100000000,3086091356,0,908323,0.03351,0.01724,0.02524,0.0006962,0.000905,0.01755,8.488e-05,1.907e-06,0.2778,0.002998,1.379,0.00161,0,0,0.06738
164100000000,164400000000,3086091356,0,908323,0.03079,0.01691,0.02441,0.000701,0.0009108,0.01743,4.959e-05,1.907e-06,0.2222,0.00293,1.224,0.001479,0,0,0.06122
164400000000,164700000000,3086091356,0,908323,0.0303,0.01669,0.02332,0.0007067,0.0009155,0.01685,2.193e-05,1.907e-06,0.2202,0.0009289,1.228,0.001444,0,0,0.0001869
164700000000,165000000000,3086091356,0,908323,0.02988,0.01675,0.02386,0.0007114,0.0009222,0.017,2.67e-05,1.907e-06,0.2185,0.0009289,1.252,0.001481,0,0,0.0001793
165000000000,165300000000,3086091356,0,908323,0.03036,0.01675,0.02362,0.0007181,0.000927,0.01749,1.907e-05,1.907e-06,0.217,0.0007143,1.229,0.001455,0,0,0.0001554
165300000000,165600000000,3086091356,0,908323,0.0304,0.01724,0.02524,0.0007248,0.0009336,0.01752,2.48e-05,1.907e-06,0.2163,0.002785,1.175,0.001302,0,0,0.0001602
165600000000,165900000000,3086091356,0,908323,0.0303,0.01678,0.02417,0.0007305,0.0009394,0.01721,3.052e-05,1.907e-06,0.2268,0.001642,1.142,0.001244,0,0,0.0001507
165900000000,166200000000,3086091356,0,908323,0.03143,0.01685,0.02405,0.0007343,0.0009432,0.01755,3.719e-05,1.907e-06,0.2195,0.001715,1.156,0.001278,0,0,0.0002127
166200000000,166500000000,3086091356,0,908323,0.03067,0.01715,0.02524,0.000741,0.0009508,0.01736,3.624e-05,1.907e-06,0.231,0.002857,1.27,0.001474,0,0,0.04803
166500000000,166800000000,3086091356,0,908323,0.03085,0.01678,0.02383,0.0007486,0.0009575,0.01749,2.098e-05,1.907e-06,0.2188,0.0007143,1.273,0.001563,0,0,0.0001812
166800000000,167100000000,3086091356,0,908323,0.03079,0.01721,0.02524,0.0007639,0.0009727,0.01736,3.624e-05,1.907e-06,0.2136,0.001999,1.251,0.001558,0,0,0.0001841
167100000000,167400000000,3086091356,0,908323,0.03122,0.01678,0.02368,0.0007629,0.0009718,0.01715,3.91e-05,1.907e-06,0.2136,0.002213,1.272,0.001584,0,0,0.0002108
167400000000,167700000000,3086091356,0,908323,0.03363,0.01682,0.02368,0.0007687,0.0009785,0.01736,6.866e-05,1.907e-06,0.2344,0.001999,1.308,0.001681,0,0,0.0001621
167700000000,168000000000,3086091356,0,908323,0.03192,0.01733,0.02524,0.0007896,0.0009995,0.01779,3.91e-05,1.907e-06,0.2119,0.00293,1.31,0.001672,0,0,0.0003376
168000000000,168300000000,3086091356,0,908323,0.03079,0.01682,0.02368,0.0007849,0.0009937,0.01712,2.003e-05,1.907e-06,0.2126,0.0007858,1.247,0.001528,0,0,0.06616
168300000000,168600000000,3086091356,0,908323,0.0307,0.01678,0.02344,0.0007887,0.0009975,0.01746,3.242e-05,1.907e-06,0.239,0.001072,1.255,0.001519,0,0,0.06396
168600000000,168900000000,3086091356,0,908323,0.03018,0.01746,0.02505,0.000803,0.001011,0.0177,2.48e-05,1.907e-06,0.2085,0.0009289,1.245,0.001517,0,0,0.0002279
168900000000,169200000000,3086091356,0,908323,0.03061,0.017,0.02512,0.0008087,0.001019,0.01736,2.289e-05,1.907e-06,0.2126,0.001286,1.161,0.001351,0,0,0.0007153
169200000000,169500000000,3086091356,0,908323,0.03094,0.01697,0.02512,0.0008144,0.001024,0.01736,2.289e-05,1.907e-06,0.2117,0.0008574,1.236,0.001454,0,0,0.0001898
169500000000,169800000000,3086091356,0,908323,0.03168,0.01752,0.02512,0.0008211,0.00103,0.01794,3.052e-05,1.907e-06,0.2068,0.001358,1.245,0.0015,0,0,0.08374
169800000000,170100000000,3086091356,0,908323,0.03088,0.017,0.02512,0.0008211,0.00103,0.01733,2.193e-05,1.907e-06,0.2068,0.0006428,1.32,0.001616,0,0,9.632e-05
170100000000,170400000000,3086091356,0,908323,0.03055,0.01697,0.02512,0.0008183,0.001028,0.01733,3.529e-05,1.907e-06,0.2288,0.002144,1.252,0.001574,0,0,0.0001259
170700000000,171000000000,3086091356,0,908323,0.03046,0.01688,0.0242,0.0008259,0.001036,0.01721,2.766e-05,1.907e-06,0.2234,0.0009995,1.234,0.00156,0,0,0.0008936
171000000000,171300000000,3086091356,0,908323,0.03461,0.01682,0.02368,0.0008326,0.001041,0.01718,6.008e-05,1.907e-06,0.2283,0.00243,1.348,0.001809,0,0,0.1262
171300000000,171600000000,3086091356,0,908323,0.03339,0.01727,0.02524,0.0008411,0.001051,0.01773,2.956e-05,1.907e-06,0.238,0.001215,1.214,0.001513,0,0,0.127
171600000000,171900000000,3086091356,0,908323,0.0318,0.01678,0.02368,0.0008478,0.001057,0.01715,2.384e-05,1.907e-06,0.2295,0.001429,1.17,0.001389,0,0,0.06195
171900000000,172200000000,3086091356,0,908323,0.03064,0.01672,0.02341,0.0008535,0.001062,0.01709,2.67e-05,1.907e-06,0.228,0.0008574,1.132,0.0013,0,0,0.0002155
172200000000,172500000000,3086091356,0,908323,0.03,0.01718,0.02524,0.0008602,0.00107,0.01736,3.815e-05,1.907e-06,0.2129,0.002716,1.126,0.001262,0,0,0.07593
172500000000,172800000000,3086091356,0,908323,0.03024,0.01678,0.02374,0.0008669,0.001076,0.01715,3.052e-05,1.907e-06,0.2422,0.002857,1.136,0.001264,0,0,0.000226
172800000000,173100000000,3086091356,0,908323,0.03043,0.01724,0.02521,0.0008764,0.001089,0.01746,3.052e-05,2.861e-06,0.2131,0.001858,1.137,0.001278,0,0,0.07776
173100000000,173400000000,3086091356,0,908323,0.03076,0.01685,0.02432,0.0008869,0.001097,0.01721,3.242e-05,2.861e-06,0.2419,0.001858,1.129,0.001307,0,0,0.0002613
173400000000,173700000000,3086091356,0,908323,0.02972,0.01672,0.02338,0.0008879,0.001097,0.017,2.48e-05,2.861e-06,0.2126,0.001429,1.222,0.001451,0,0,0.0007772
173700000000,174000000000,3086091356,0,908323,0.02975,0.01721,0.02524,0.0008955,0.001104,0.0174,2.289e-05,2.861e-06,0.2129,0.0009289,1.221,0.001445,0,0,0.0001307
174000000000,174300000000,3086091356,0,908323,0.03036,0.01675,0.02368,0.0009012,0.00111,0.01712,3.052e-05,2.861e-06,0.2239,0.002285,1.324,0.001557,0,0,0.001156
174300000000,174600000000,3086091356,0,908323,0.03018,0.01672,0.02335,0.0009079,0.001118,0.017,2.289e-05,2.861e-06,0.3257,0.001572,1.237,0.001477,0,0,0.003071
174600000000,174900000000,3086091356,0,908323,0.03314,0.01727,0.02524,0.0009298,0.001139,0.01758,5.913e-05,2.861e-06,0.2578,0.002144,1.324,0.00162,0,0,0.0001345
174900000000,175200000000,3086091356,0,908323,0.03143,0.01697,0.02524,0.0009346,0.001144,0.01733,4.673e-05,2.861e-06,0.2539,0.002785,1.175,0.001337,0,0,0.0001822
175200000000,175500000000,3086091356,0,908323,0.02985,0.01685,0.02505,0.0009317,0.001148,0.01706,2.956e-05,2.861e-06,0.3237,0.001358,1.196,0.001435,0,0,0.001925
175500000000,175800000000,3086091356,0,908323,0.03043,0.01721,0.02524,0.0009365,0.001146,0.01752,3.147e-05,2.861e-06,0.2317,0.001499,1.144,0.001339,0,0,0.0001631
175800000000,176100000000,3086091356,0,908323,0.03122,0.01678,0.02365,0.0009432,0.001152,0.01715,4.387e-05,2.861e-06,0.3286,0.002857,1.19,0.001414,0,0,0.0001526
187200000000,187500000000,3086091356,0,642075268,0.026,0.01709,0.02509,0.0001307,0.0004463,0.0174,2.575e-05,0,0.2866,0.0009289,1.027,0.001151,0,0,0.0001917
187500000000,187800000000,3086091356,0,642075268,0.02609,0.01657,0.02332,0.0001221,0.0004377,0.01675,5.054e-05,0,0.2861,0.00293,1.025,0.00114,0,0,0.0001602
187800000000,188100000000,3086091356,0,642075268,0.02618,0.01675,0.02371,0.0001297,0.0004454,0.01764,3.815e-05,0,0.2915,0.00293,1.026,0.001117,0,0,0.0004101
188100000000,188400000000,3086091356,0,642075268,0.02768,0.01724,0.02524,0.000144,0.0004597,0.01761,2.193e-05,0,0.29,0.0007143,1.116,0.001009,0,0,0.1244
188400000000,188700000000,3086091356,0,642075268,0.02814,0.01678,0.02396,0.0001535,0.0004692,0.0174,4.387e-05,0,0.2949,0.00293,1.112,0.001011,0,0,0.0001621
188700000000,189000000000,3086091356,0,642075268,0.02676,0.01678,0.02371,0.0001583,0.000474,0.01749,4.387e-05,0,0.2832,0.001999,1.078,0.0009749,0,0,0.0004368
189000000000,189300000000,3086091356,0,642075268,0.02551,0.01712,0.02515,0.0001736,0.0004902,0.0174,3.242e-05,0,0.3003,0.002285,1.102,0.001013,0,0,0.0003271
189300000000,189600000000,3086091356,0,642075268,0.0217,0.01633,0.02332,0.0001631,0.0004797,0.01672,3.052e-05,0,0.3047,0.001928,1.147,0.001149,0,0,0.001255
189600000000,189900000000,3086091356,0,642075268,0.02618,0.01654,0.02332,0.000164,0.0004797,0.01672,3.242e-05,9.537e-07,0.2979,0.001572,1.124,0.001024,0,0,0.1246
189900000000,190200000000,3086091356,0,642075268,0.03,0.01672,0.02371,0.0001698,0.0004854,0.01764,5.817e-05,9.537e-07,0.3438,0.003502,1.131,0.001114,0,0,0.0002289
190200000000,190500000000,3086091356,0,642075268,0.02756,0.01749,0.02524,0.0001793,0.000495,0.01813,4.005e-05,9.537e-07,0.3081,0.002071,1.096,0.001051,0,0,0.06348
190500000000,190800000000,3086091356,0,642075268,0.02649,0.01663,0.02362,0.000186,0.0005016,0.01712,2.861e-05,9.537e-07,0.3037,0.001143,1.079,0.001022,0,0,0.0209
190800000000,191100000000,3086091356,0,642075268,0.02618,0.0166,0.02332,0.0001917,0.0005074,0.01682,2.48e-05,9.537e-07,0.3101,0.001072,1.099,0.001004,0,0,6.294e-05
191100000000,191400000000,3086091356,0,642075268,0.02673,0.01669,0.02368,0.0001993,0.0005159,0.01749,5.436e-05,9.537e-07,0.3105,0.005074,1.07,0.001002,0,0,0.0001488
191400000000,191700000000,3086091356,0,642075268,0.02618,0.01715,0.02521,0.0002089,0.0005245,0.0174,3.815e-05,9.537e-07,0.3135,0.00243,1.075,0.001015,0,0,0.000145
191700000000,192000000000,3086091356,0,642075268,0.02682,0.0166,0.02344,0.0002098,0.0005255,0.01688,1.335e-05,9.537e-07,0.3076,0.001143,1.087,0.001031,0,0,0.001713
192000000000,192300000000,3086091356,0,642075268,0.02774,0.01675,0.02405,0.0002193,0.000536,0.01743,1.717e-05,9.537e-07,0.5479,0.0003567,1.082,0.001049,0,0,0.0003347
192300000000,192600000000,3086091356,0,642075268,0.02722,0.01718,0.02521,0.000227,0.0005436,0.01743,1.812e-05,9.537e-07,0.3047,0.0007143,1.095,0.00104,0,0,0.002251
192600000000,192900000000,3086091356,0,642075268,0.02701,0.01669,0.02362,0.0002308,0.0005474,0.01733,2.384e-05,9.537e-07,0.3003,0.0007143,1.116,0.00107,0,0,0.0003395
192900000000,193200000000,3086091356,0,642075268,0.02747,0.01712,0.02521,0.0002403,0.0005569,0.01733,5.15e-05,9.537e-07,0.3022,0.002644,1.146,0.00105,0,0,0.0001621
193200000000,193500000000,3086091356,0,642075268,0.02628,0.0166,0.02332,0.0002422,0.0005589,0.01685,2.575e-05,9.537e-07,0.313,0.001286,1.095,0.001053,0,0,0.06348
193500000000,193800000000,3086091356,0,642075268,0.02768,0.01666,0.02371,0.0002518,0.0005674,0.01755,4.673e-05,9.537e-07,0.5557,0.002213,1.074,0.001125,0,0,0.1195
193800000000,194100000000,3086091356,0,642075268,0.026,0.01736,0.02524,0.0002718,0.0005884,0.01785,2.575e-05,9.537e-07,0.313,0.001286,1.011,0.001005,0,0,0.06396
194100000000,194400000000,3086091356,0,642075268,0.02472,0.01663,0.02347,0.0002651,0.0005817,0.01703,2.48e-05,9.537e-07,0.3086,0.001143,1.002,0.001001,0,0,0.000104
194400000000,194700000000,3086091356,0,642075268,0.0249,0.01657,0.02332,0.0002699,0.0005856,0.01675,4.196e-05,9.537e-07,0.311,0.003429,1.008,0.0009868,0,0,0.07532
194700000000,195000000000,3086091356,0,642075268,0.0249,0.01666,0.02353,0.0002756,0.0005913,0.01733,4.959e-05,9.537e-07,0.3535,0.00293,1.007,0.0009848,0,0,0.06409
195000000000,195300000000,3086091356,0,642075268,0.02475,0.01712,0.02524,0.0002813,0.000598,0.0173,2.861e-05,9.537e-07,0.3604,0.001499,0.9971,0.0009714,0,0,0.000123
195300000000,195600000000,3086091356,0,642075268,0.02457,0.01669,0.02359,0.000289,0.0006056,0.01736,8.965e-05,9.537e-07,0.3066,0.003357,0.9878,0.0009752,0,0,0.0001507
195600000000,195900000000,3086091356,0,642075268,0.02533,0.01721,0.02524,0.0002956,0.0006113,0.01776,3.719e-05,9.537e-07,0.3047,0.001642,0.9923,0.0009723,0,0,9.632e-05
195900000000,196200000000,3086091356,0,642075268,0.02554,0.0166,0.02341,0.0003014,0.000618,0.01685,4.864e-05,9.537e-07,0.3013,0.00293,1.024,0.0009943,0,0,0.1049
201300000000,201600000000,3086091356,0,642075268,0.02707,0.01718,0.02524,0.0004377,0.0007553,0.0174,3.433e-05,9.537e-07,0.2876,0.001858,1.118,0.001138,0,0,0.0658
201600000000,201900000000,3086091356,0,642075268,0.0278,0.01675,0.02365,0.0004272,0.0007448,0.01746,4.292e-05,9.537e-07,0.2998,0.002285,1.186,0.001175,0,0,0.0005512
201900000000,202200000000,3086091356,0,642075268,0.02805,0.01721,0.02524,0.000433,0.0007505,0.01743,2.67e-05,9.537e-07,0.2964,0.0009995,1.162,0.001114,0,0,0.1267
202200000000,202500000000,3086091356,0,642075268,0.02713,0.01675,0.02365,0.0004377,0.0007553,0.017,5.245e-05,9.537e-07,0.2944,0.002285,1.13,0.001122,0,0,0.0001125
202500000000,202800000000,3086091356,0,642075268,0.02878,0.01672,0.02332,0.000433,0.0007505,0.01688,4.959e-05,9.537e-07,0.2925,0.002716,1.164,0.001189,0,0,0.04315
202800000000,203100000000,3086091356,0,642075268,0.03043,0.01685,0.02411,0.0004406,0.0007591,0.01752,4.768e-05,9.537e-07,0.2842,0.003643,1.217,0.001188,0,0,0.06885
203100000000,203400000000,3086091356,0,642075268,0.02747,0.01712,0.02521,0.0004578,0.0007763,0.01736,3.91e-05,9.537e-07,0.2896,0.002857,1.137,0.001154,0,0,0.0002699
203400000000,203700000000,3086091356,0,642075268,0.02646,0.01663,0.02332,0.000453,0.0007706,0.01685,4.387e-05,9.537e-07,0.2837,0.002644,1.118,0.001145,0,0,0.0001087
203700000000,204000000000,3086091356,0,642075268,0.02701,0.01669,0.02353,0.0004578,0.0007753,0.01749,2.766e-05,9.537e-07,0.2856,0.0009995,1.114,0.001158,0,0,0.0001068
204600000000,204900000000,3086091356,0,642075268,0.02673,0.01691,0.02423,0.0004683,0.0007858,0.01752,4.482e-05,9.537e-07,0.2671,0.002857,1.062,0.001109,0,0,0.1255
204900000000,205200000000,3086091356,0,642075268,0.02588,0.01724,0.02524,0.0004749,0.0007925,0.01746,5.054e-05,1.907e-06,0.2739,0.00293,1.062,0.001126,0,0,0.0002279
205200000000,205500000000,3086091356,0,642075268,0.02521,0.01675,0.02365,0.0004807,0.0007992,0.017,4.387e-05,1.907e-06,0.2607,0.00293,1.061,0.0011,0,0,0.000226
205500000000,205800000000,3086091356,0,642075268,0.02548,0.01669,0.02353,0.0004883,0.0008068,0.01746,3.529e-05,1.907e-06,0.2642,0.001499,1.052,0.001082,0,0,0.0647
205800000000,206100000000,3086091356,0,642075268,0.02542,0.01715,0.02524,0.0004988,0.0008163,0.01733,4.482e-05,1.907e-06,0.2759,0.001858,1.088,0.001102,0,0,0.00415
206100000000,206400000000,3086091356,0,642075268,0.02563,0.01672,0.02362,0.0004997,0.0008173,0.01703,3.719e-05,1.907e-06,0.2681,0.001286,1.054,0.00109,0,0,0.0001068
206400000000,206700000000,3086091356,0,642075268,0.02646,0.01688,0.02408,0.0005054,0.000823,0.01752,3.147e-05,1.907e-06,0.2676,0.001072,1.058,0.0011,0,0,0.06897
206700000000,207000000000,3086091356,0,642075268,0.02661,0.01721,0.02518,0.0005074,0.0008249,0.0174,5.054e-05,1.907e-06,0.2671,0.00293,1.103,0.001178,0,0,0.06519
207000000000,207300000000,3086091356,0,642075268,0.02542,0.01675,0.02365,0.0005121,0.0008307,0.01709,5.054e-05,1.907e-06,0.2681,0.001858,1.088,0.001156,0,0,0.0001936
207300000000,207600000000,3086091356,0,642075268,0.0257,0.01678,0.0235,0.0005178,0.0008364,0.01755,4.673e-05,1.907e-06,0.269,0.001286,1.086,0.001136,0,0,0.06024
207600000000,207900000000,3086091356,0,642075268,0.02545,0.01727,0.02515,0.0005245,0.000843,0.01746,5.436e-05,1.907e-06,0.269,0.001572,1.094,0.001167,0,0,0.04541
207900000000,208200000000,3086091356,0,642075268,0.02817,0.01688,0.02441,0.0005312,0.0008488,0.01718,9.441e-05,1.907e-06,0.2681,0.003216,1.136,0.001214,0,0,0.1267
208200000000,208500000000,3086091356,0,642075268,0.02673,0.01697,0.02521,0.0005398,0.0008574,0.01743,4.864e-05,1.907e-06,0.2617,0.003071,1.086,0.001138,0,0,0.1277
208500000000,208800000000,3086091356,0,642075268,0.02475,0.01721,0.02521,0.0005465,0.000864,0.0174,2.861e-05,1.907e-06,0.2593,0.001215,1.039,0.001156,0,0,0.0002699
208800000000,209100000000,3086091356,0,642075268,0.02444,0.01675,0.02383,0.0005531,0.0008707,0.01712,2.098e-05,1.907e-06,0.2559,0.001072,1.036,0.001161,0,0,0.005341
209100000000,209400000000,3086091356,0,642075268,0.02484,0.01672,0.02347,0.0005589,0.0008764,0.01743,3.815e-05,1.907e-06,0.2539,0.002785,1.016,0.001113,0,0,0.0001307
209400000000,209700000000,3086091356,0,642075268,0.02463,0.01721,0.02521,0.0005646,0.0008831,0.0174,4.005e-05,1.907e-06,0.2559,0.002857,1.02,0.001118,0,0,0.001213
209700000000,210000000000,3086091356,0,642075268,0.02472,0.01678,0.02405,0.0005713,0.0008888,0.01712,2.575e-05,1.907e-06,0.2529,0.0009289,1.019,0.001122,0,0,9.06e-05
210000000000,210300000000,3086091356,0,642075268,0.02557,0.017,0.02521,0.000577,0.0008955,0.01746,3.052e-05,1.907e-06,0.2871,0.001286,1.036,0.001147,0,0,0.0003252
210300000000,210600000000,3086091356,0,642075268,0.02509,0.01724,0.02521,0.0005846,0.0009031,0.01743,2.48e-05,1.907e-06,0.2603,0.0008574,1.055,0.00114,0,0,0.0001898
210600000000,210900000000,3086091356,0,642075268,0.02734,0.01685,0.0246,0.0005922,0.0009108,0.01718,3.815e-05,1.907e-06,0.2622,0.002857,1.151,0.001146,0,0,0.001328
210900000000,211200000000,3086091356,0,642075268,0.02768,0.01675,0.02344,0.000598,0.0009165,0.01736,2.48e-05,1.907e-06,0.2817,0.001143,1.167,0.00119,0,0,0.0001507
211200000000,211500000000,3086091356,0,642075268,0.02771,0.01712,0.02524,0.0006218,0.0009394,0.0173,3.815e-05,1.907e-06,0.2744,0.00293,1.187,0.001196,0,0,0.05164
211500000000,211800000000,3086091356,0,642075268,0.03049,0.01682,0.02402,0.0006151,0.0009336,0.01712,0.0001116,1.907e-06,0.2632,0.002998,1.222,0.001283,0,0,0.07361
211800000000,212100000000,3086091356,0,642075268,0.02948,0.017,0.02499,0.0006256,0.0009441,0.01758,4.387e-05,1.907e-06,0.2671,0.00293,1.173,0.001206,0,0,0.0004387
212100000000,212400000000,3086091356,0,642075268,0.02936,0.0173,0.02521,0.0006371,0.0009546,0.01755,4.482e-05,1.907e-06,0.269,0.002144,1.171,0.00125,0,0,0.0002708
212400000000,212700000000,3086091356,0,642075268,0.02927,0.01672,0.02365,0.0006332,0.0009518,0.01709,3.624e-05,1.907e-06,0.2681,0.00243,1.201,0.001278,0,0,0.0002127
212700000000,213000000000,3086091356,0,642075268,0.02994,0.01672,0.02344,0.0006371,0.0009556,0.01746,3.624e-05,1.907e-06,0.3228,0.00293,1.214,0.001221,0,0,0.0697
215100000000,215400000000,3086091356,0,82789743,0.02893,0.01688,0.02463,0.0002508,0.0004435,0.01767,3.338e-05,0,0.3306,0.001143,1.425,0.002255,0,0,0.000536
215400000000,215700000000,3086091356,0,82789743,0.02893,0.01724,0.02518,0.0002556,0.0004492,0.01761,4.578e-05,0,0.3325,0.00293,1.419,0.002247,0,0,0.0002308
215700000000,216000000000,3086091356,0,82789743,0.02719,0.01666,0.02359,0.0002584,0.000453,0.01691,6.199e-05,0,0.3486,0.00243,1.376,0.002221,0,0,0.06445
216000000000,216300000000,3086091356,0,82789743,0.02774,0.01694,0.02396,0.0002651,0.0004578,0.01788,5.341e-05,0,0.3022,0.00293,1.342,0.002155,0,0,0.0002298
221100000000,221400000000,3086091356,0,294871453,0.02591,0.01678,0.02411,0.0002966,0.0004902,0.01727,4.673e-05,0,0.3267,0.001358,1.229,0.001659,0,0,0.0001888
221400000000,221700000000,3086091356,0,294871453,0.02957,0.01688,0.02502,0.0003204,0.000515,0.0173,0.0001249,0,0.3262,0.003784,1.141,0.001357,0,0,0.03137
221700000000,222000000000,3086091356,0,294871453,0.02579,0.01736,0.02512,0.0003328,0.0005274,0.0177,3.624e-05,0,0.3208,0.001572,1.213,0.001528,0,0,0.0003004
222000000000,222300000000,3086091356,0,294871453,0.02606,0.01672,0.02362,0.0003252,0.0005198,0.01727,2.193e-05,0,0.3184,0.0009995,1.276,0.001871,0,0,0.0008907
222300000000,222600000000,3086091356,0,294871453,0.02582,0.01663,0.02325,0.0003109,0.0005054,0.01682,4.387e-05,0,0.3232,0.001572,1.228,0.001612,0,0,0.0001469
222600000000,222900000000,3086091356,0,294871453,0.02597,0.01724,0.02515,0.0003281,0.0005226,0.01758,4.101e-05,0,0.3213,0.001785,1.111,0.001297,0,0,0.1274
222900000000,223200000000,3086091356,0,294871453,0.02603,0.01669,0.02362,0.0003214,0.0005159,0.01715,5.436e-05,0,0.3218,0.00293,1.068,0.001212,0,0,0.1252
223200000000,223500000000,3086091356,0,294871453,0.02744,0.01672,0.02377,0.0003242,0.0005188,0.0173,3.815e-05,0,0.3174,0.001572,1.305,0.001768,0,0,0.125
223500000000,223800000000,3086091356,0,294871453,0.02594,0.0173,0.02518,0.0003519,0.0005465,0.01767,3.815e-05,0,0.3193,0.002213,1.201,0.001463,0,0,0.0001631
223800000000,224100000000,3086091356,0,294871453,0.02625,0.01672,0.02365,0.0003548,0.0005493,0.01721,4.196e-05,0,0.3164,0.001785,1.289,0.001848,0,0,0.06934
224100000000,224400000000,3086091356,0,294871453,0.02603,0.01663,0.02325,0.0003595,0.0005541,0.01678,3.624e-05,0,0.3198,0.00293,1.239,0.001675,0,0,0.0697
224400000000,224700000000,3086091356,0,294871453,0.02615,0.01727,0.02518,0.0003843,0.0005789,0.01761,4.196e-05,9.537e-07,0.3613,0.001715,1.238,0.001604,0,0,0.1272
224700000000,225000000000,3086091356,0,294871453,0.02679,0.01685,0.02499,0.0003595,0.0005541,0.01736,4.101e-05,9.537e-07,0.3179,0.001572,1.259,0.001744,0,0,0.0002232
225000000000,225300000000,3086091356,0,294871453,0.02805,0.01682,0.02435,0.0003633,0.0005579,0.0173,0.0001144,9.537e-07,0.3174,0.004211,1.307,0.001759,0,0,0.0002728
225300000000,225600000000,3086091356,0,294871453,0.02573,0.01666,0.02341,0.0003757,0.0005713,0.01691,4.005e-05,9.537e-07,0.3179,0.001143,1.256,0.00173,0,0,0.0004921
225900000000,226200000000,3086091356,0,294871453,0.02625,0.01678,0.02417,0.0003948,0.0005894,0.01755,3.433e-05,9.537e-07,0.3179,0.001143,1.267,0.001758,0,0,0.0001564
226500000000,226800000000,3086091356,0,294871453,0.02634,0.01733,0.02505,0.0004005,0.0005951,0.01764,4.101e-05,9.537e-07,0.3193,0.001572,1.246,0.00171,0,0,0.0003023
226800000000,227100000000,3086091356,0,294871453,0.02725,0.01688,0.02454,0.000411,0.0006056,0.01749,4.864e-05,9.537e-07,0.3213,0.003071,1.282,0.001842,0,0,0.0001402
227100000000,227400000000,3086091356,0,294871453,0.02594,0.01657,0.02325,0.000412,0.0006065,0.01678,3.433e-05,9.537e-07,0.3252,0.003429,1.091,0.001247,0,0,0.001101
227400000000,227700000000,3086091356,0,294871453,0.02655,0.01721,0.02515,0.0004206,0.0006151,0.01752,4.482e-05,9.537e-07,0.3198,0.002644,1.085,0.001271,0,0,0.000164
227700000000,228000000000,3086091356,0,294871453,0.02606,0.01669,0.02377,0.0004253,0.0006199,0.01733,4.673e-05,9.537e-07,0.3223,0.002571,1.085,0.001161,0,0,0.0008669
228000000000,228300000000,3086091356,0,294871453,0.0257,0.01657,0.02325,0.0004282,0.0006227,0.01672,2.67e-05,9.537e-07,0.3257,0.002144,1.099,0.001273,0,0,0.3257
228300000000,228600000000,3086091356,0,294871453,0.02667,0.01715,0.02509,0.0004225,0.000617,0.01736,4.673e-05,9.537e-07,0.3203,0.001715,1.142,0.001344,0,0,0.1265
228600000000,228900000000,3086091356,0,294871453,0.02856,0.01694,0.0246,0.0004358,0.0006304,0.01758,8.678e-05,9.537e-07,0.3271,0.004211,1.297,0.001643,0,0,0.0002203
228900000000,229200000000,3086091356,0,294871453,0.02542,0.01672,0.02362,0.0003777,0.0005732,0.01697,3.719e-05,9.537e-07,0.3232,0.001215,1.198,0.001548,0,0,0.0002003
229200000000,229500000000,3086091356,0,294871453,0.02505,0.01666,0.02325,0.00037,0.0005655,0.01685,3.815e-05,9.537e-07,0.3208,0.001499,1.132,0.001471,0,0,0.0741
229500000000,229800000000,3086091356,0,294871453,0.02484,0.01666,0.02325,0.0003729,0.0005684,0.01685,4.959e-05,9.537e-07,0.3389,0.003643,1.036,0.001205,0,0,0.0002222
229800000000,230100000000,3086091356,0,294871453,0.02509,0.01718,0.02512,0.0003862,0.0005808,0.01755,3.529e-05,9.537e-07,0.3501,0.002144,1.123,0.001476,0,0,9.632e-05
230100000000,230400000000,3086091356,0,294871453,0.02499,0.01675,0.0238,0.0003872,0.0005817,0.01736,3.242e-05,9.537e-07,0.3203,0.001999,1.106,0.00137,0,0,0.003056
230400000000,230700000000,3086091356,0,294871453,0.02594,0.01675,0.0238,0.0003977,0.0005922,0.01736,4.482e-05,9.537e-07,0.3262,0.00293,1.053,0.001231,0,0,0.0004501
231300000000,231600000000,3086091356,0,294871453,0.02484,0.01666,0.02356,0.0004253,0.0006208,0.01697,4.482e-05,9.537e-07,0.3403,0.00293,1.045,0.001207,0,0,0.0001688
232200000000,232500000000,3086091356,0,294871453,0.02734,0.01691,0.02505,0.0004549,0.0006504,0.0173,7.343e-05,9.537e-07,0.3247,0.002785,1.214,0.001595,0,0,0.06787
232500000000,232800000000,3086091356,0,294871453,0.02512,0.01733,0.02505,0.0004387,0.0006332,0.01767,2.861e-05,9.537e-07,0.374,0.001215,1.206,0.001679,0,0,0.08337
232800000000,233100000000,3086091356,0,294871453,0.02496,0.01685,0.02417,0.0004425,0.000638,0.01749,3.242e-05,9.537e-07,0.3257,0.001286,1.248,0.0018,0,0,0.0002518
233100000000,233400000000,3086091356,0,294871453,0.02472,0.01666,0.02325,0.0004482,0.0006428,0.01682,4.292e-05,9.537e-07,0.3345,0.002213,1.187,0.001558,0,0,0.0001698
233400000000,233700000000,3086091356,0,294871453,0.02521,0.01721,0.02505,0.0004644,0.0006599,0.01749,4.768e-05,9.537e-07,0.3203,0.001999,1.217,0.00176,0,0,0.06445
233700000000,234000000000,3086091356,0,294871453,0.02481,0.01675,0.0238,0.0004559,0.0006514,0.01736,3.242e-05,9.537e-07,0.3193,0.002571,1.043,0.001228,0,0,0.0002384
234000000000,234300000000,3086091356,0,294871453,0.02603,0.01666,0.02359,0.0004568,0.0006523,0.017,3.91e-05,9.537e-07,0.3232,0.002357,1.002,0.001105,0,0,0.1255
234300000000,234600000000,3086091356,0,294871453,0.02524,0.01721,0.02502,0.0004654,0.0006599,0.01755,5.054e-05,9.537e-07,0.3228,0.002857,1.025,0.001155,0,0,0.0001116
234600000000,234900000000,3086091356,0,294871453,0.02512,0.01675,0.0238,0.0004702,0.0006647,0.01736,5.913e-05,9.537e-07,0.3228,0.00293,1.028,0.001176,0,0,0.000206
234900000000,235200000000,3086091356,0,294871453,0.02512,0.0166,0.02325,0.0004749,0.0006704,0.01678,3.815e-05,9.537e-07,0.332,0.002857,1.042,0.001169,0,0,0.06995
235200000000,235500000000,3086091356,0,294871453,0.02515,0.0166,0.02325,0.0004807,0.0006762,0.01678,4.196e-05,9.537e-07,0.3242,0.002071,1.005,0.001111,0,0,8.392e-05
235500000000,235800000000,3086091356,0,294871453,0.02591,0.01721,0.02487,0.0004883,0.0006828,0.01755,3.91e-05,9.537e-07,0.3228,0.001072,1.015,0.001133,0,0,0.0006132
235800000000,236100000000,3086091356,0,294871453,0.02756,0.01703,0.02509,0.0004969,0.0006924,0.01758,0.0001478,9.537e-07,0.3335,0.002998,1.152,0.001447,0,0,0.000885
236100000000,236400000000,3086091356,0,294871453,0.02484,0.01694,0.02509,0.0005169,0.0007124,0.01712,4.101e-05,9.537e-07,0.3262,0.002857,1.168,0.001546,0,0,0.009811
241200000000,241500000000,3086091356,0,294871453,0.02557,0.0174,0.02496,0.0006142,0.0008097,0.01801,7.057e-05,1.907e-06,0.3291,0.002571,1.075,0.001355,0,0,0.0005045
241500000000,241800000000,3086091356,0,294871453,0.02432,0.017,0.02515,0.0006208,0.0008163,0.01755,5.341e-05,1.907e-06,0.3311,0.002857,1.183,0.001543,0,0,0.0001907
241800000000,242100000000,3086091356,0,294871453,0.02426,0.01685,0.02512,0.0006266,0.0008221,0.01703,3.91e-05,1.907e-06,0.3306,0.001642,1.216,0.001689,0,0,0.06262
242100000000,242400000000,3086091356,0,294871453,0.02448,0.0173,0.02515,0.0006285,0.000824,0.01767,4.864e-05,1.907e-06,0.3291,0.002499,1.045,0.001211,0,0,8.869e-05
242400000000,242700000000,3086091356,0,294871453,0.02451,0.01691,0.02478,0.0006285,0.000824,0.01749,3.338e-05,1.907e-06,0.3271,0.00243,1.031,0.001209,0,0,0.06836
242700000000,243000000000,3086091356,0,294871453,0.02469,0.01669,0.02325,0.0006323,0.0008278,0.01685,7.725e-05,1.907e-06,0.3291,0.002716,1.033,0.001173,0,0,0.0004921
243000000000,243300000000,3086091356,0,294871453,0.02753,0.0174,0.02509,0.0006418,0.0008373,0.01794,8.488e-05,1.907e-06,0.3262,0.00293,1.129,0.001408,0,0,0.2983
243300000000,243600000000,3086091356,0,294871453,0.02481,0.017,0.02512,0.0006485,0.000844,0.01749,5.054e-05,1.907e-06,0.3286,0.00293,1.263,0.001827,0,0,0.0002289
243600000000,243900000000,3086091356,0,294871453,0.02524,0.01672,0.02356,0.000453,0.0006485,0.01691,4.387e-05,1.907e-06,0.3188,0.001858,1.262,0.001823,0,0,0.0001163
243900000000,244200000000,3086091356,0,294871453,0.02563,0.01672,0.02325,0.000329,0.0005245,0.01688,3.338e-05,1.907e-06,0.3257,0.001429,1.248,0.001794,0,0,0.0001278
244200000000,244500000000,3086091356,0,294871453,0.02612,0.01718,0.02493,0.0003481,0.0005436,0.01749,3.815e-05,1.907e-06,0.3325,0.002857,1.266,0.001914,0,0,0.000186
244500000000,244800000000,3086091356,0,294871453,0.02512,0.01688,0.0242,0.000349,0.0005445,0.0174,3.338e-05,1.907e-06,0.3276,0.00293,1.082,0.001345,0,0,0.000227
244800000000,245100000000,3086091356,0,294871453,0.0257,0.01675,0.0238,0.0003519,0.0005474,0.01706,4.482e-05,1.907e-06,0.3198,0.002998,1.009,0.001136,0,0,0.0001497
245700000000,246000000000,3086091356,0,294871453,0.02417,0.01688,0.02509,0.0003777,0.0005732,0.01706,3.052e-05,1.907e-06,0.313,0.002285,1.205,0.001649,0,0,0.0007343
246000000000,246300000000,3086091356,0,294871453,0.02533,0.0173,0.02509,0.0003719,0.0005674,0.01755,1.907e-05,1.907e-06,0.3218,0.0009289,1.236,0.001813,0,0,0.000411
251400000000,251700000000,3086091356,0,294871453,0.02576,0.01685,0.02502,0.000493,0.0006895,0.01703,3.338e-05,1.907e-06,0.3022,0.001785,1.039,0.001163,0,0,0.0001612
251700000000,252000000000,3086091356,0,294871453,0.02554,0.01685,0.02502,0.0004988,0.0006943,0.01703,4.673e-05,1.907e-06,0.2983,0.002071,1.049,0.001191,0,0,0.06482
252000000000,252300000000,3086091356,0,294871453,0.02792,0.0173,0.02502,0.0005054,0.000701,0.01788,3.91e-05,1.907e-06,0.3408,0.001572,1.151,0.00136,0,0,0.127
252300000000,252600000000,3086091356,0,294871453,0.02643,0.01697,0.0249,0.0005121,0.0007076,0.01749,2.289e-05,1.907e-06,0.3364,0.001072,1.154,0.001374,0,0,0.0002813
252600000000,252900000000,3086091356,0,294871453,0.02676,0.01672,0.02325,0.0005121,0.0007076,0.01688,3.529e-05,1.907e-06,0.2891,0.001715,1.316,0.001832,0,0,0.0002146
252900000000,253200000000,3086091356,0,294871453,0.02667,0.01712,0.02487,0.0005178,0.0007143,0.01752,2.956e-05,1.907e-06,0.2891,0.001072,1.113,0.001231,0,0,0.07227
253200000000,253500000000,3086091356,0,294871453,0.02753,0.01685,0.0242,0.0005264,0.0007219,0.01733,4.768e-05,1.907e-06,0.8389,0.002499,1.131,0.001216,0,0,0.0002146
253500000000,253800000000,3086091356,0,294871453,0.02811,0.01672,0.02341,0.0005293,0.0007257,0.01697,5.054e-05,1.907e-06,0.2842,0.002857,1.167,0.001201,0,0,0.0001612
253800000000,254100000000,3086091356,0,294871453,0.0307,0.01691,0.02518,0.0005369,0.0007324,0.01715,5.913e-05,1.907e-06,0.2959,0.00293,1.454,0.001945,0,0,0.07239
254100000000,254400000000,3086091356,0,294871453,0.02792,0.01727,0.02505,0.0005579,0.0007534,0.01767,4.387e-05,1.907e-06,0.2852,0.002857,1.303,0.001793,0,0,0.0002489
254400000000,254700000000,3086091356,0,294871453,0.02725,0.01703,0.02509,0.0005608,0.0007563,0.01752,2.48e-05,1.907e-06,0.252,0.002785,1.422,0.001918,0,0,0.0002909
254700000000,255000000000,3086091356,0,294871453,0.0264,0.01688,0.02512,0.000556,0.0007515,0.01706,3.815e-05,1.907e-06,0.2578,0.00293,1.272,0.00168,0,0,0.0002003
255000000000,255300000000,3086091356,0,294871453,0.0274,0.01688,0.02515,0.0005617,0.0007572,0.01706,3.338e-05,2.861e-06,0.2729,0.00293,1.211,0.001571,0,0,0.0001678
255300000000,255600000000,3086091356,0,294871453,0.02661,0.01688,0.02515,0.0005674,0.0007629,0.01706,2.48e-05,2.861e-06,0.2803,0.001499,1.09,0.001194,0,0,0.002857
255600000000,255900000000,3086091356,0,294871453,0.02872,0.01736,0.02518,0.0005732,0.0007687,0.01804,4.387e-05,2.861e-06,0.3022,0.002857,1.15,0.00138,0,0,0.07397
255900000000,256200000000,3086091356,0,294871453,0.02695,0.01703,0.02518,0.0005789,0.0007744,0.01755,2.003e-05,2.861e-06,0.2695,0.0004997,1.131,0.001333,0,0,0.0004721
256200000000,256500000000,3086091356,0,294871453,0.02606,0.01675,0.02402,0.0005846,0.0007801,0.01703,4.005e-05,2.861e-06,0.2607,0.002857,1.137,0.001319,0,0,0.003231
256500000000,256800000000,3086091356,0,294871453,0.02576,0.01675,0.02393,0.0005932,0.0007887,0.017,4.005e-05,2.861e-06,0.2292,0.002857,1.165,0.001407,0,0,0.004112
257400000000,257700000000,3086091356,0,294871453,0.02866,0.01697,0.02512,0.0006113,0.0008068,0.01724,7.057e-05,2.861e-06,0.2646,0.00293,1.358,0.00192,0,0,0.07361
257700000000,258000000000,3086091356,0,294871453,0.02551,0.01718,0.02518,0.000618,0.0008144,0.01761,2.766e-05,2.861e-06,0.2161,0.001286,1.204,0.001565,0,0,0.000247
258300000000,258600000000,3086091356,0,294871453,0.026,0.01669,0.02325,0.0006304,0.0008268,0.01688,4.959e-05,2.861e-06,0.2378,0.002857,1.22,0.001615,0,0,0.000803
258600000000,258900000000,3086091356,0,294871453,0.02573,0.01709,0.02475,0.0006371,0.0008326,0.01761,4.482e-05,2.861e-06,0.2312,0.00293,1.228,0.001598,0,0,0.0001345
259200000000,259500000000,3086091356,0,294871453,0.02771,0.01682,0.02432,0.0006561,0.0008526,0.01709,2.289e-05,2.861e-06,0.2642,0.0008574,1.364,0.00186,0,0,0.0001307
259500000000,259800000000,3086091356,0,294871453,0.02734,0.01718,0.02478,0.0006552,0.0008516,0.01758,3.91e-05,2.861e-06,0.2253,0.002716,1.303,0.001637,0,0,0.0002728
259800000000,260100000000,3086091356,0,294871453,0.0285,0.01694,0.02512,0.0006618,0.0008583,0.01743,3.815e-05,2.861e-06,0.2534,0.001572,1.424,0.001955,0,0,0.0001774
260100000000,260400000000,3086091356,0,294871453,0.02731,0.01678,0.02466,0.0006676,0.0008631,0.01694,2.193e-05,2.861e-06,0.2642,0.0006428,1.319,0.001673,0,0,0.0001822
260400000000,260700000000,3086091356,0,294871453,0.02725,0.01675,0.02444,0.0006809,0.0008764,0.01694,2.384e-05,2.861e-06,0.2415,0.0006428,1.236,0.001393,0,0,0.0002718
260700000000,261000000000,3086091356,0,294871453,0.02756,0.01715,0.02512,0.0006971,0.0008926,0.01758,2.289e-05,2.861e-06,0.2141,0.0005713,1.106,0.001163,0,0,0.0001574
261000000000,261300000000,3086091356,0,294871453,0.02899,0.01715,0.02518,0.0007057,0.0009022,0.01761,0.0001707,2.861e-06,0.2515,0.004425,1.305,0.001626,0,0,0.06177
261300000000,261600000000,3086091356,0,294871453,0.02591,0.01688,0.02518,0.0007124,0.0009089,0.01706,3.147e-05,2.861e-06,0.2131,0.001642,1.064,0.001152,0,0,0.0001869
261600000000,261900000000,3086091356,0,294871453,0.02661,0.01712,0.02518,0.0007191,0.0009146,0.01749,2.098e-05,2.861e-06,0.2139,0.0009995,1.068,0.001102,0,0,0.0001812
261900000000,262200000000,3086091356,0,294871453,0.026,0.01691,0.02441,0.0007191,0.0009146,0.01736,2.575e-05,2.861e-06,0.2161,0.002857,1.074,0.001142,0,0,0.0002031
262200000000,262500000000,3086091356,0,294871453,0.02615,0.01672,0.02325,0.0007133,0.0009098,0.01688,2.575e-05,2.861e-06,0.2173,0.00293,1.063,0.001122,0,0,0.0001764
262500000000,262800000000,3086091356,0,294871453,0.02615,0.01709,0.02478,0.000721,0.0009165,0.01749,2.289e-05,2.861e-06,0.2388,0.0007858,1.065,0.001117,0,0,0.0001621
262800000000,263100000000,3086091356,0,294871453,0.02814,0.01697,0.02518,0.0007238,0.0009203,0.01733,3.242e-05,2.861e-06,0.2214,0.00243,1.059,0.001108,0,0,0.07153
263100000000,263400000000,3086091356,0,294871453,0.02747,0.01678,0.02475,0.0007362,0.0009327,0.01694,3.529e-05,2.861e-06,0.2185,0.002857,1.107,0.001149,0,0,9.823e-05
263400000000,263700000000,3086091356,0,294871453,0.02771,0.01682,0.02472,0.0007381,0.0009336,0.01706,2.289e-05,2.861e-06,0.2231,0.0008574,1.289,0.001717,0,0,0.0006037
263700000000,264000000000,3086091356,0,294871453,0.02734,0.01675,0.02344,0.0007381,0.0009336,0.01694,2.193e-05,2.861e-06,0.217,0.0008574,1.24,0.001511,0,0,0.03229
264000000000,264300000000,3086091356,0,294871453,0.02728,0.01672,0.02325,0.0007439,0.0009394,0.01688,3.91e-05,2.861e-06,0.217,0.002716,1.12,0.001214,0,0,0.07019
264300000000,264600000000,3086091356,0,294871453,0.0282,0.01706,0.02478,0.0007496,0.0009451,0.01736,2.956e-05,2.861e-06,0.3472,0.001143,1.278,0.001641,0,0,0.0006132
264600000000,264900000000,3086091356,0,294871453,0.03009,0.01712,0.02518,0.0007563,0.0009518,0.01758,5.627e-05,2.861e-06,0.2559,0.002998,1.343,0.001744,0,0,0.1304
264900000000,265200000000,3086091356,0,294871453,0.02652,0.01685,0.02518,0.0007629,0.0009584,0.01706,2.384e-05,2.861e-06,0.2166,0.0007858,1.057,0.001128,0,0,0.0001974
265200000000,265500000000,3086091356,0,294871453,0.02579,0.01715,0.02521,0.0007715,0.000967,0.01743,2.384e-05,2.861e-06,0.3594,0.002357,1.076,0.001211,0,0,0.07227
265500000000,265800000000,3086091356,0,294871453,0.02597,0.01691,0.02441,0.0007744,0.0009699,0.01736,1.717e-05,2.861e-06,0.218,0.0005713,1.206,0.001604,0,0,0.000164
265800000000,266100000000,3086091356,0,294871453,0.02573,0.01678,0.02466,0.0007896,0.0009861,0.01703,4.768e-05,2.861e-06,0.2161,0.00293,1.144,0.001431,0,0,0.0002937
266100000000,266400000000,3086091356,0,294871453,0.02567,0.01685,0.0239,0.0007868,0.0009823,0.01715,3.052e-05,2.861e-06,0.2163,0.00293,1.072,0.001243,0,0,0.0002155
266400000000,266700000000,3086091356,0,294871453,0.02731,0.01736,0.02493,0.0007925,0.000988,0.01791,2.384e-05,2.861e-06,0.2168,0.001858,1.13,0.001364,0,0,0.07178
266700000000,267000000000,3086091356,0,294871453,0.02551,0.01691,0.02457,0.0007992,0.0009937,0.01736,2.384e-05,2.861e-06,0.2422,0.002571,1.217,0.001622,0,0,0.0002089
267000000000,267300000000,3086091356,0,294871453,0.02524,0.01678,0.02429,0.0008068,0.001001,0.017,2.48e-05,2.861e-06,0.2383,0.0009289,1.123,0.001412,0,0,0.0001431
267300000000,267600000000,3086091356,0,294871453,0.02603,0.01706,0.02509,0.0008249,0.00102,0.01736,2.575e-05,2.861e-06,0.2209,0.001215,1.195,0.001595,0,0,0.0002356
267600000000,267900000000,3086091356,0,294871453,0.02615,0.01703,0.02505,0.0008316,0.001026,0.01736,1.717e-05,2.861e-06,0.2168,0.0006428,1.256,0.001768,0,0,0.07117
267900000000,268200000000,3086091356,0,294871453,0.02679,0.01703,0.02487,0.000824,0.00102,0.01721,2.384e-05,2.861e-06,0.2141,0.001499,1.215,0.00161,0,0,0.0006714
268200000000,268500000000,3086091356,0,294871453,0.02905,0.01752,0.02487,0.0008297,0.001026,0.01797,8.297e-05,2.861e-06,0.2222,0.003857,1.308,0.001734,0,0,0.02078
268500000000,268800000000,3086091356,0,294871453,0.02539,0.01718,0.0249,0.0008373,0.001034,0.01767,2.384e-05,2.861e-06,0.2112,0.002285,1.026,0.001112,0,0,0.0005503
268800000000,269100000000,3086091356,0,294871453,0.02585,0.017,0.0249,0.000843,0.00104,0.01718,1.717e-05,2.861e-06,0.2112,0.0006428,1.13,0.001425,0,0,0.07593
269100000000,269400000000,3086091356,0,294871453,0.02582,0.01697,0.0249,0.0008488,0.001043,0.01715,4.101e-05,2.861e-06,0.2151,0.00293,1.154,0.001446,0,0,0.003513
269400000000,269700000000,3086091356,0,294871453,0.02573,0.01697,0.0249,0.0008545,0.001049,0.01712,3.052e-05,2.861e-06,0.2102,0.001642,1.017,0.00108,0,0,0.07166
269700000000,270000000000,3086091356,0,294871453,0.0257,0.01697,0.0249,0.0008593,0.001055,0.01715,4.292e-05,2.861e-06,0.2122,0.00293,1.032,0.001113,0,0,0.001057
270000000000,270300000000,3086091356,0,294871453,0.02759,0.0173,0.0249,0.0008659,0.001062,0.01782,4.005e-05,2.861e-06,0.2427,0.003071,1.043,0.001153,0,0,0.06799
270300000000,270600000000,3086091356,0,294871453,0.02603,0.01712,0.0249,0.0008726,0.001068,0.01755,1.907e-05,3.815e-06,0.2368,0.0008574,1.157,0.001427,0,0,0.0001678
270600000000,270900000000,3086091356,0,294871453,0.02579,0.01697,0.0249,0.0008783,0.001074,0.01715,2.67e-05,3.815e-06,0.2114,0.00293,1.012,0.00107,0,0,0.0002537
270900000000,271200000000,3086091356,0,294871453,0.02576,0.01697,0.0249,0.0008841,0.00108,0.01715,2.766e-05,3.815e-06,0.2122,0.00293,1.038,0.001135,0,0,0.06274
271200000000,271500000000,3086091356,0,294871453,0.02625,0.01724,0.0249,0.0008907,0.001087,0.01755,2.956e-05,3.815e-06,0.2229,0.002785,1.237,0.001706,0,0,0.07349
281400000000,281700000000,3086091356,0,294871453,0.02701,0.01688,0.02521,0.001072,0.001268,0.01706,3.433e-05,3.815e-06,0.2078,0.002144,1.24,0.001643,0,0,0.00186
281700000000,282000000000,3086091356,0,294871453,0.02682,0.01682,0.02515,0.001078,0.001274,0.01697,2.67e-05,3.815e-06,0.2053,0.002644,1.268,0.001658,0,0,0.1704
282000000000,282300000000,3086091356,0,294871453,0.02658,0.01682,0.02515,0.001083,0.00128,0.01697,3.242e-05,3.815e-06,0.2048,0.002071,1.161,0.001427,0,0,0.0002069
282300000000,282600000000,3086091356,0,294871453,0.02719,0.01712,0.02521,0.001089,0.001286,0.01755,3.052e-05,3.815e-06,0.2061,0.002499,1.055,0.001117,0,0,0.0001316
282600000000,282900000000,3086091356,0,294871453,0.03021,0.01721,0.02518,0.001099,0.001295,0.01773,5.245e-05,3.815e-06,0.2578,0.001999,1.187,0.001349,0,0,0.1814
282900000000,283200000000,3086091356,0,294871453,0.02661,0.01685,0.02521,0.001104,0.001301,0.01706,2.289e-05,3.815e-06,0.2124,0.002213,1.07,0.001124,0,0,0.07104
283200000000,283500000000,3086091356,0,294871453,0.02673,0.01682,0.02518,0.00111,0.001307,0.017,1.907e-05,3.815e-06,0.2063,0.0006428,1.056,0.001123,0,0,0.0003757
283500000000,283800000000,3086091356,0,294871453,0.02661,0.01715,0.02518,0.001118,0.001312,0.01758,1.717e-05,3.815e-06,0.2043,0.0004997,1.184,0.001471,0,0,0.02676
283800000000,284100000000,3086091356,0,294871453,0.02673,0.017,0.02518,0.001123,0.00132,0.0174,2.67e-05,3.815e-06,0.2131,0.002571,1.26,0.001738,0,0,9.346e-05
284100000000,284400000000,3086091356,0,294871453,0.02649,0.01678,0.0249,0.001133,0.001328,0.01697,3.719e-05,3.815e-06,0.2048,0.00243,1.108,0.001235,0,0,0.06665
284400000000,284700000000,3086091356,0,294871453,0.02838,0.01718,0.02512,0.001146,0.001343,0.01797,5.341e-05,3.815e-06,0.2087,0.002998,1.135,0.00122,0,0,0.0002422
284700000000,285000000000,3086091356,0,294871453,0.02655,0.017,0.02521,0.001152,0.001348,0.01736,2.766e-05,3.815e-06,0.2078,0.002857,1.07,0.001146,0,0,0.07471
285000000000,285300000000,3086091356,0,294871453,0.02704,0.01688,0.02521,0.001158,0.001354,0.01703,2.956e-05,3.815e-06,0.2029,0.00293,1.163,0.001455,0,0,0.0002146
285300000000,285600000000,3086091356,0,294871453,0.02667,0.01685,0.02521,0.001163,0.001358,0.017,1.717e-05,3.815e-06,0.2463,0.0005713,1.255,0.001703,0,0,0.0003004
285600000000,285900000000,3086091356,0,294871453,0.02722,0.01715,0.02521,0.001169,0.001366,0.01755,3.242e-05,3.815e-06,0.2432,0.00293,1.177,0.001457,0,0,8.202e-05
285900000000,286200000000,3086091356,0,294871453,0.02692,0.01703,0.02521,0.001162,0.001358,0.01736,1.717e-05,4.768e-06,0.3262,0.0004997,1.255,0.001628,0,0,0.0002213
286200000000,286500000000,3086091356,0,294871453,0.03006,0.01706,0.02518,0.001167,0.001362,0.01773,6.962e-05,4.768e-06,0.2178,0.003716,1.254,0.001424,0,0,0.0001583
286500000000,286800000000,3086091356,0,294871453,0.02646,0.01688,0.02521,0.001173,0.001368,0.01703,4.005e-05,4.768e-06,0.2087,0.00293,1.233,0.0016,0,0,0.0002222
286800000000,287100000000,3086091356,0,294871453,0.02698,0.01706,0.02521,0.001179,0.001375,0.0174,4.482e-05,4.768e-06,0.2278,0.00293,1.249,0.001682,0,0,0.0002441
287100000000,287400000000,3086091356,0,294871453,0.02762,0.017,0.02518,0.001184,0.001381,0.01736,5.15e-05,4.768e-06,0.2051,0.003284,1.157,0.001376,0,0,0.0002832
287400000000,287700000000,3086091356,0,294871453,0.02713,0.01685,0.02518,0.00119,0.001387,0.017,3.719e-05,4.768e-06,0.2012,0.002071,1.284,0.001885,0,0,0.01712
287700000000,288000000000,3086091356,0,294871453,0.0275,0.01706,0.02518,0.001163,0.001358,0.01736,2.67e-05,4.768e-06,0.231,0.001715,1.254,0.001663,0,0,0.07568
288000000000,288300000000,3086091356,0,294871453,0.02814,0.01709,0.02521,0.001154,0.00135,0.01746,2.48e-05,4.768e-06,0.2393,0.001215,1.257,0.001467,0,0,0.03186
288300000000,288600000000,3086091356,0,294871453,0.02692,0.01685,0.02521,0.00116,0.001356,0.01703,2.193e-05,4.768e-06,0.241,0.001215,1.182,0.001508,0,0,0.0002756
288600000000,288900000000,3086091356,0,294871453,0.02716,0.01706,0.02521,0.001165,0.001362,0.01733,3.624e-05,4.768e-06,0.2036,0.002998,1.036,0.001189,0,0,0.0002499
288900000000,289200000000,3086091356,0,294871453,0.02658,0.017,0.02521,0.001171,0.001368,0.01733,1.812e-05,4.768e-06,0.2026,0.0005713,1.073,0.001236,0,0,0.0001688
289200000000,289500000000,3086091356,0,294871453,0.02713,0.01685,0.02521,0.001177,0.001373,0.017,1.812e-05,4.768e-06,0.2048,0.0006428,1.109,0.001114,0,0,0.0002031
289500000000,289800000000,3086091356,0,294871453,0.02713,0.01685,0.02521,0.001183,0.001379,0.017,3.052e-05,4.768e-06,0.2007,0.001429,1.074,0.001129,0,0,0.06372
289800000000,290100000000,3086091356,0,294871453,0.03137,0.0173,0.02518,0.001192,0.001387,0.01804,5.436e-05,4.768e-06,0.2065,0.003716,1.385,0.001606,0,0,0.07178
290100000000,290400000000,3086091356,0,294871453,0.02704,0.01709,0.02518,0.001196,0.001392,0.01752,2.67e-05,4.768e-06,0.198,0.002357,1.276,0.001685,0,0,0.0006533
290400000000,290700000000,3086091356,0,294871453,0.02692,0.01688,0.02521,0.001194,0.00139,0.01706,1.907e-05,4.768e-06,0.1965,0.0006428,1.112,0.001283,0,0,7.629e-05
290700000000,291000000000,3086091356,0,294871453,0.02655,0.01685,0.02521,0.0012,0.001396,0.01703,2.193e-05,4.768e-06,0.1985,0.0005713,1.086,0.001205,0,0,0.0001507
291000000000,291300000000,3086091356,0,294871453,0.02753,0.01706,0.02518,0.001207,0.001402,0.01736,5.054e-05,4.768e-06,0.1982,0.00293,1.061,0.001178,0,0,0.1323
291300000000,291600000000,3086091356,0,294871453,0.0267,0.017,0.02518,0.001213,0.00141,0.01733,3.529e-05,4.768e-06,0.1995,0.002857,1.098,0.00117,0,0,0.000205
291600000000,291900000000,3086091356,0,294871453,0.02814,0.017,0.02518,0.001217,0.001413,0.01761,3.815e-05,4.768e-06,0.1992,0.002571,1.141,0.00126,0,0,9.727e-05
291900000000,292200000000,3086091356,0,294871453,0.02707,0.01706,0.02518,0.001221,0.001415,0.01749,1.907e-05,4.768e-06,0.2336,0.0004997,1.342,0.001707,0,0,0.0001707
292200000000,292500000000,3086091356,0,294871453,0.02695,0.017,0.02518,0.001226,0.001423,0.01733,2.003e-05,4.768e-06,0.1987,0.001499,1.279,0.001765,0,0,6.866e-05
292500000000,292800000000,3086091356,0,294871453,0.02646,0.01685,0.02521,0.001232,0.001427,0.017,4.673e-05,4.768e-06,0.1958,0.00293,1.085,0.00118,0,0,9.823e-05
292800000000,293100000000,3086091356,0,294871453,0.0275,0.01706,0.02518,0.001234,0.001431,0.01749,3.433e-05,4.768e-06,0.1956,0.002285,1.067,0.001146,0,0,0.0002031
293100000000,293400000000,3086091356,0,294871453,0.02747,0.017,0.02518,0.001234,0.001431,0.01733,5.722e-05,4.768e-06,0.1951,0.00293,1.101,0.001214,0,0,0.0001593
293400000000,293700000000,3086091356,0,294871453,0.03094,0.01709,0.02518,0.001234,0.001431,0.0177,5.531e-05,4.768e-06,0.2549,0.002144,1.231,0.001339,0,0,0.03009
293700000000,294000000000,3086091356,0,294871453,0.02655,0.01688,0.02518,0.001236,0.001432,0.01706,1.717e-05,4.768e-06,0.1948,0.0007143,1.24,0.001596,0,0,0.0002909
294000000000,294300000000,3086091356,0,294871453,0.0274,0.01709,0.02518,0.00123,0.001427,0.01749,4.864e-05,4.768e-06,0.2024,0.002998,1.205,0.001512,0,0,0.01436
294300000000,294600000000,3086091356,0,294871453,0.02682,0.01706,0.02518,0.001232,0.001427,0.01746,2.193e-05,4.768e-06,0.1953,0.001358,1.252,0.001641,0,0,6.485e-05
294600000000,294900000000,3086091356,0,294871453,0.02658,0.01685,0.02518,0.001236,0.001431,0.017,2.67e-05,4.768e-06,0.196,0.00293,1.129,0.001328,0,0,0.06897
294900000000,295200000000,3086091356,0,294871453,0.02664,0.01685,0.02521,0.001242,0.001436,0.017,4.673e-05,4.768e-06,0.1963,0.002857,1.19,0.001492,0,0,0.002254
295200000000,295500000000,3086091356,0,294871453,0.02835,0.01697,0.02521,0.001247,0.001442,0.01764,3.719e-05,4.768e-06,0.197,0.002357,1.219,0.001397,0,0,0.0003757
295500000000,295800000000,3086091356,0,294871453,0.02695,0.01706,0.02518,0.00124,0.001436,0.01752,2.48e-05,4.768e-06,0.1987,0.001715,1.146,0.001367,0,0,0.0001049
295800000000,296100000000,3086091356,0,294871453,0.02692,0.017,0.02518,0.00124,0.001434,0.01733,2.956e-05,4.768e-06,0.197,0.00293,1.12,0.001309,0,0,9.727e-05
296100000000,296400000000,3086091356,0,294871453,0.02768,0.01685,0.02521,0.001238,0.001434,0.017,2.193e-05,4.768e-06,0.2515,0.001358,1.066,0.001101,0,0,9.632e-05
296400000000,296700000000,3086091356,0,294871453,0.0274,0.01706,0.02518,0.001238,0.001432,0.01752,3.529e-05,4.768e-06,0.2034,0.001429,1.067,0.00117,0,0,0.0001335
296700000000,297000000000,3086091356,0,294871453,0.02734,0.017,0.02518,0.001244,0.00144,0.01733,2.67e-05,4.768e-06,0.2017,0.001785,1.101,0.001214,0,0,0.07288
297000000000,297300000000,3086091356,0,294871453,0.03058,0.017,0.02518,0.001251,0.001448,0.01752,4.387e-05,4.768e-06,0.2021,0.003357,1.269,0.00146,0,0,0.06665
297300000000,297600000000,3086091356,0,294871453,0.02725,0.01709,0.02518,0.001259,0.001453,0.01752,2.098e-05,4.768e-06,0.3267,0.002144,1.289,0.001576,0,0,0.073
297600000000,297900000000,3086091356,0,294871453,0.02673,0.017,0.02518,0.001265,0.001461,0.01733,1.812e-05,4.768e-06,0.2383,0.0007858,1.289,0.001833,0,0,6.294e-05
297900000000,298200000000,3086091356,0,294871453,0.02759,0.01685,0.02518,0.001268,0.001465,0.017,2.289e-05,4.768e-06,0.2073,0.0005713,1.146,0.001421,0,0,0.06201
298200000000,298500000000,3086091356,0,294871453,0.02734,0.01688,0.02518,0.00127,0.001467,0.01706,2.003e-05,4.768e-06,0.2,0.001642,1.248,0.001614,0,0,0.07446
298500000000,298800000000,3086091356,0,294871453,0.02777,0.01718,0.02518,0.001263,0.001457,0.01761,2.48e-05,4.768e-06,0.2009,0.002857,1.289,0.001646,0,0,0.08728
298800000000,299100000000,3086091356,0,294871453,0.02863,0.01718,0.02518,0.001247,0.001444,0.01758,2.766e-05,4.768e-06,0.2827,0.001429,1.25,0.001524,0,0,0.0001917
299100000000,299400000000,3086091356,0,294871453,0.02792,0.01688,0.02518,0.001234,0.001429,0.01703,2.575e-05,4.768e-06,0.2043,0.001215,1.127,0.001236,0,0,8.297e-05
299400000000,299700000000,3086091356,0,294871453,0.02774,0.01706,0.02521,0.001234,0.001431,0.01755,4.578e-05,4.768e-06,0.2021,0.00293,1.1,0.001194,0,0,0.000124
299700000000,300000000000,3086091356,0,294871453,0.02759,0.01709,0.02518,0.00124,0.001436,0.01746,4.196e-05,4.768e-06,0.2046,0.00293,1.241,0.001629,0,0,0.0003242
