5700000000,6000000000,331416465,0,539158843,0.06824,0.01627,0.02066,0.005272,0.005501,0.01663,0.0004654,9.06e-05,0.1555,0.02051,3.806,0.009136,0,1,0
6000000000,6300000000,331416465,0,539158843,0.06592,0.01617,0.02051,0.00518,0.005409,0.01651,0.0005398,9.06e-05,0.1658,0.01736,4.347,0.01142,0,1,0
6300000000,6600000000,331416465,0,539158843,0.06641,0.01624,0.02094,0.002163,0.002396,0.01697,0.0005455,9.155e-05,0.1643,0.01651,3.712,0.008803,0,1,0
6600000000,6900000000,331416465,0,539158843,0.06995,0.01627,0.0206,0.004059,0.004295,0.01663,0.0005836,9.06e-05,0.1731,0.02063,4.379,0.01139,0,1,0
6900000000,7200000000,331416465,0,539158843,0.0719,0.01654,0.02118,0.004494,0.00473,0.01755,0.0005589,9.06e-05,0.1777,0.02164,3.822,0.009393,0,1,0
7200000000,7500000000,331416465,0,539158843,0.06836,0.0162,0.02066,0.004738,0.004974,0.01666,0.000515,9.06e-05,0.1741,0.01865,4.366,0.01148,0,1,0
7500000000,7800000000,331416465,0,539158843,0.06763,0.01608,0.02066,0.004723,0.004951,0.01657,0.0005426,9.06e-05,0.144,0.02322,3.782,0.009166,0,1,0
7800000000,8100000000,331416465,0,539158843,0.06909,0.0162,0.02072,0.004776,0.005013,0.01688,0.0005722,9.06e-05,0.1741,0.02377,4.279,0.01132,0,1,0
8100000000,8400000000,331416465,0,539158843,0.06799,0.0163,0.0209,0.004471,0.0047,0.01697,0.0005274,9.155e-05,0.1909,0.01749,3.757,0.009137,0,1,0
8400000000,8700000000,331416465,0,539158843,0.06531,0.01633,0.02087,0.004776,0.005005,0.01724,0.0005474,9.155e-05,0.1746,0.0195,4.223,0.0109,0,1,0
8700000000,9000000000,331416465,0,539158843,0.06555,0.0162,0.02087,0.004128,0.004364,0.01663,0.0005541,9.155e-05,0.1687,0.02008,3.643,0.008832,0,1,0
9000000000,9300000000,331416465,0,539158843,0.06567,0.01608,0.0206,0.003132,0.003365,0.01709,0.0004873,9.155e-05,0.1843,0.01651,4.206,0.01103,0,1,0
9300000000,9600000000,331416465,0,539158843,0.06445,0.0162,0.02057,0.002575,0.002808,0.01727,0.000535,9.251e-05,0.2017,0.02185,3.642,0.008888,0,1,0
9600000000,9900000000,331416465,0,539158843,0.06604,0.01639,0.02075,0.002129,0.002365,0.01724,0.0004997,9.155e-05,0.1826,0.02328,4.181,0.01077,0,1,0
9900000000,10200000000,331416465,0,539158843,0.07043,0.01611,0.0206,0.00322,0.003452,0.01654,0.0005207,9.155e-05,0.1704,0.01871,3.831,0.00946,0,1,0
10200000000,10500000000,331416465,0,539158843,0.06763,0.01599,0.02045,0.00346,0.003696,0.0166,0.0004663,9.155e-05,0.1777,0.02078,3.784,0.00989,0,1,0
10500000000,10800000000,331416465,0,539158843,0.07776,0.0162,0.0206,0.004066,0.004303,0.01682,0.0004959,9.251e-05,0.2495,0.01636,4.078,0.01051,0,1,0
10800000000,11100000000,331416465,0,539158843,0.06921,0.01599,0.02042,0.005112,0.005348,0.01669,0.0005226,9.251e-05,0.1917,0.02014,4.548,0.01235,0,1,0
11100000000,11400000000,331416465,0,539158843,0.06628,0.01624,0.02118,0.003513,0.003746,0.01712,0.0005121,9.251e-05,0.2036,0.01901,3.64,0.0087,0,1,0
11400000000,11700000000,331416465,0,539158843,0.0675,0.01605,0.02081,0.001789,0.002026,0.01672,0.0004425,9.346e-05,0.1501,0.01913,4.383,0.01196,0,1,0
11700000000,12000000000,331416465,0,539158843,0.07019,0.01602,0.0206,0.003151,0.003387,0.01678,0.0004759,9.251e-05,0.1655,0.0145,3.897,0.009853,0,1,0
12000000000,12300000000,331416465,0,539158843,0.07471,0.01624,0.02066,0.003433,0.00367,0.01675,0.0005035,9.251e-05,0.1697,0.01807,4.625,0.01265,0,1,0
12300000000,12600000000,331416465,0,539158843,0.07935,0.01617,0.02109,0.003418,0.003654,0.01682,0.0004616,9.251e-05,0.1924,0.01721,4.176,0.0107,0,1,0
12600000000,12900000000,331416465,0,539158843,0.07129,0.01602,0.02057,0.001896,0.002132,0.01672,0.0006247,9.155e-05,0.186,0.02228,4.737,0.01269,0,1,0
12900000000,13200000000,331416465,0,539158843,0.06873,0.01608,0.02078,0.002316,0.002552,0.01678,0.0004988,8.297e-05,0.1826,0.01816,3.993,0.01013,0,1,0
13200000000,13500000000,331416465,0,539158843,0.06458,0.01587,0.02054,0.004723,0.004959,0.0162,0.0003977,8.392e-05,0.1912,0.01271,4.519,0.01221,0,1,0
13500000000,13800000000,331416465,0,539158843,0.06409,0.0159,0.02036,0.005104,0.005341,0.01636,0.0005007,8.392e-05,0.1533,0.01965,3.768,0.00922,0,1,0
13800000000,14100000000,331416465,0,539158843,0.06384,0.01605,0.02069,0.003483,0.003719,0.01654,0.0005131,8.297e-05,0.2842,0.02136,4.102,0.01079,0,1,0
14100000000,14400000000,331416465,0,539158843,0.06323,0.01611,0.02054,0.004036,0.004272,0.01669,0.0004807,8.392e-05,0.2229,0.0177,3.257,0.007678,0,1,0
14400000000,14700000000,331416465,0,539158843,0.0603,0.01593,0.02039,0.004265,0.004501,0.01624,0.0005054,8.392e-05,0.1572,0.02036,4.125,0.01107,0,1,0
14700000000,15000000000,331416465,0,539158843,0.05762,0.01602,0.02072,0.004608,0.004845,0.01691,0.0004683,8.392e-05,0.2373,0.02216,3.476,0.008395,0,1,0
15000000000,15300000000,331416465,0,539158843,0.06421,0.01575,0.02051,0.003876,0.004112,0.01611,0.0004778,8.392e-05,0.1636,0.01663,4.295,0.01166,0,1,0
15300000000,15600000000,331416465,0,539158843,0.06689,0.0159,0.02072,0.005333,0.005569,0.01642,0.0005064,8.392e-05,0.188,0.01801,3.789,0.00945,0,1,0
15600000000,15900000000,331416465,0,539158843,0.06158,0.01596,0.02054,0.004951,0.005188,0.01624,0.0005112,8.488e-05,0.1772,0.02029,4.113,0.01082,0,1,0
15900000000,16200000000,331416465,0,539158843,0.06372,0.01602,0.02057,0.003109,0.003345,0.01669,0.0004807,8.488e-05,0.1362,0.01749,3.676,0.008941,0,1,0
16200000000,16500000000,331416465,0,539158843,0.06433,0.01599,0.02066,0.004028,0.004265,0.01645,0.0004997,8.488e-05,0.1646,0.01901,4.38,0.01181,0,1,0
16500000000,16800000000,331416465,0,539158843,0.06897,0.01608,0.02066,0.005409,0.005646,0.01648,0.0005665,8.392e-05,0.1726,0.01993,3.793,0.009575,0,1,0
16800000000,17100000000,331416465,0,539158843,0.06555,0.01608,0.02054,0.005318,0.005554,0.01663,0.0004768,8.488e-05,0.1672,0.01566,4.247,0.01166,0,1,0
17100000000,17400000000,331416465,0,539158843,0.06384,0.01617,0.02063,0.003563,0.003799,0.01675,0.0004635,8.488e-05,0.2114,0.02036,3.829,0.009537,0,1,0
17400000000,17700000000,331416465,0,539158843,0.06128,0.01602,0.02066,0.004501,0.004738,0.01657,0.0004416,8.488e-05,0.1826,0.01785,4.104,0.011,0,1,0
17700000000,18000000000,331416465,0,539158843,0.06885,0.01605,0.02081,0.005051,0.005287,0.017,0.0004883,8.488e-05,0.2085,0.01913,4.097,0.01073,0,1,0
18000000000,18300000000,331416465,0,539158843,0.06592,0.01602,0.02078,0.001402,0.001638,0.017,0.0004435,8.488e-05,0.1526,0.01678,4.074,0.01101,0,1,0
18300000000,18600000000,331416465,0,539158843,0.06995,0.01599,0.02051,0.002758,0.002995,0.01639,0.0005198,8.583e-05,0.1885,0.0228,3.887,0.01037,0,1,0
18600000000,18900000000,331416465,0,539158843,0.06567,0.01596,0.02039,0.003952,0.004189,0.0163,0.0004292,8.488e-05,0.2073,0.01672,4.196,0.0112,0,1,0
18900000000,19200000000,331416465,0,539158843,0.06787,0.01611,0.02106,0.004791,0.005028,0.0166,0.0004854,8.488e-05,0.2578,0.01791,3.902,0.009858,0,1,0
19200000000,19500000000,331416465,0,539158843,0.07507,0.01608,0.02066,0.004913,0.005142,0.01648,0.000433,8.488e-05,0.1731,0.01749,4.658,0.01352,0,1,0
19500000000,19800000000,331416465,0,539158843,0.06909,0.01608,0.02072,0.005287,0.005524,0.01666,0.0005102,8.583e-05,0.166,0.01849,3.793,0.00973,0,1,0
19800000000,20100000000,331416465,0,539158843,0.0686,0.01608,0.02054,0.003304,0.003536,0.01666,0.0005369,8.583e-05,0.2021,0.01721,4.308,0.01204,0,1,0
20100000000,20400000000,331416465,0,539158843,0.06799,0.01608,0.02075,0.002857,0.003094,0.0166,0.0004692,8.583e-05,0.179,0.021,3.809,0.009921,0,1,0
20400000000,20700000000,331416465,0,539158843,0.06946,0.0159,0.02072,0.003029,0.003265,0.01651,0.0004606,8.583e-05,0.1941,0.01614,4.523,0.01261,0,1,0
20700000000,21000000000,331416465,0,539158843,0.0647,0.01605,0.02057,0.002899,0.003136,0.01645,0.0004473,8.583e-05,0.1985,0.0195,3.803,0.01014,0,1,0
21000000000,21300000000,331416465,0,539158843,0.06653,0.01605,0.02051,0.004967,0.005203,0.01669,0.0004816,8.678e-05,0.2207,0.01865,4.379,0.01195,0,1,0
21300000000,21600000000,331416465,0,539158843,0.06287,0.01599,0.02054,0.004395,0.004631,0.0166,0.0005045,8.583e-05,0.1655,0.01935,3.643,0.008945,0,1,0
21600000000,21900000000,331416465,0,539158843,0.05841,0.01602,0.02072,0.00412,0.004356,0.01678,0.0004253,8.678e-05,0.1384,0.01822,4.056,0.01081,0,1,0
21900000000,22200000000,331416465,0,539158843,0.0578,0.01584,0.02051,0.004616,0.004852,0.0163,0.0004854,8.678e-05,0.1222,0.02014,3.558,0.008672,0,1,0
22200000000,22500000000,331416465,0,539158843,0.0592,0.01575,0.02042,0.004265,0.004501,0.01633,0.0005083,8.678e-05,0.2009,0.017,4.174,0.01144,0,1,0
22500000000,22800000000,331416465,0,539158843,0.05609,0.01572,0.02029,0.004021,0.004257,0.0162,0.0004349,8.678e-05,0.1616,0.02014,3.599,0.009097,0,1,0
22800000000,23100000000,331416465,0,539158843,0.05487,0.01584,0.02026,0.004791,0.005028,0.0162,0.0004025,8.678e-05,0.1597,0.01822,4.097,0.01115,0,1,0
23100000000,23400000000,331416465,0,539158843,0.05621,0.01593,0.02069,0.004532,0.004768,0.01672,0.0004702,8.678e-05,0.1519,0.02121,3.418,0.008338,0,1,0
23400000000,23700000000,331416465,0,539158843,0.05591,0.01584,0.02057,0.003853,0.004089,0.01627,0.0004292,8.774e-05,0.2175,0.01521,3.996,0.01068,0,1,0
23700000000,24000000000,331416465,0,539158843,0.06531,0.01587,0.02039,0.00544,0.005676,0.01614,0.0004663,8.774e-05,0.1819,0.015,3.825,0.009802,0,1,0
24000000000,24300000000,331416465,0,539158843,0.05811,0.01581,0.02032,0.004822,0.005058,0.01614,0.0004168,8.774e-05,0.1602,0.0155,4.211,0.01194,0,1,0
24300000000,24600000000,331416465,0,539158843,0.05646,0.0159,0.02063,0.004387,0.004623,0.0163,0.0004282,8.774e-05,0.1523,0.01521,3.506,0.008718,0,1,0
24600000000,24900000000,331416465,0,539158843,0.05328,0.01584,0.02048,0.004501,0.004738,0.01611,0.0004244,8.774e-05,0.1448,0.022,3.995,0.01041,0,1,0
24900000000,25200000000,331416465,0,539158843,0.05511,0.01584,0.02032,0.004822,0.005058,0.01636,0.0004597,8.774e-05,0.1357,0.01865,3.413,0.008095,0,1,0
25200000000,25500000000,331416465,0,539158843,0.05829,0.01575,0.02026,0.004814,0.005051,0.01617,0.0003357,8.774e-05,0.1553,0.01364,4.255,0.01146,0,1,0
25500000000,25800000000,331416465,0,539158843,0.06177,0.01578,0.0206,0.002811,0.003044,0.01654,0.000392,8.774e-05,0.1943,0.01715,3.737,0.009288,0,1,0
25800000000,26100000000,331416465,0,539158843,0.06604,0.01587,0.02063,0.002632,0.002869,0.01694,0.0003834,8.869e-05,0.1853,0.017,4.499,0.01268,0,1,0
26100000000,26400000000,331416465,0,539158843,0.06543,0.01566,0.02042,0.003014,0.00325,0.01633,0.0004253,8.869e-05,0.248,0.01436,3.848,0.009737,0,1,0
26400000000,26700000000,331416465,0,539158843,0.06555,0.01566,0.02032,0.004547,0.004784,0.01608,0.0004358,8.774e-05,0.2058,0.01614,4.593,0.01286,0,1,0
26700000000,27000000000,331416465,0,539158843,0.06628,0.01566,0.02026,0.003899,0.004135,0.01605,0.0004034,8.869e-05,0.1621,0.01529,3.844,0.009701,0,1,0
27000000000,27300000000,331416465,0,539158843,0.05945,0.01584,0.02084,0.003574,0.003811,0.01636,0.0005322,8.869e-05,0.252,0.01514,4.238,0.011,0,1,0
27300000000,27600000000,331416465,0,539158843,0.05676,0.01596,0.02069,0.003914,0.004143,0.01691,0.0004091,8.869e-05,0.1641,0.01514,3.473,0.008507,0,1,0
27600000000,27900000000,331416465,0,539158843,0.05963,0.01569,0.02048,0.003311,0.003548,0.01605,0.000371,8.869e-05,0.165,0.01572,4.354,0.01208,0,1,0
27900000000,28200000000,331416465,0,539158843,0.05829,0.01566,0.02075,0.002464,0.002701,0.01663,0.0004292,8.869e-05,0.1729,0.01801,3.637,0.009342,0,1,0
28200000000,28500000000,331416465,0,539158843,0.05365,0.01566,0.02057,0.001297,0.001532,0.01654,0.0003681,8.869e-05,0.1863,0.01521,4.319,0.01248,0,1,0
28500000000,28800000000,331416465,0,539158843,0.05829,0.01578,0.02066,0.00317,0.003403,0.01654,0.0004015,8.965e-05,0.1431,0.01422,3.746,0.009708,0,1,0
28800000000,29100000000,331416465,0,539158843,0.05615,0.01575,0.02069,0.004501,0.00473,0.0166,0.0003834,8.965e-05,0.2095,0.01587,4.18,0.01184,0,1,0
29100000000,29400000000,331416465,0,539158843,0.05585,0.01575,0.02087,0.002075,0.002308,0.01682,0.0003614,8.965e-05,0.1533,0.0135,3.658,0.00943,0,1,0
29400000000,29700000000,331416465,0,539158843,0.05603,0.01584,0.02072,0.00359,0.003822,0.01654,0.0003748,8.965e-05,0.1619,0.01457,4.345,0.01272,0,1,0
29700000000,30000000000,331416465,0,539158843,0.05896,0.01562,0.02051,0.001856,0.00209,0.01599,0.0004101,8.965e-05,0.1455,0.01529,3.647,0.009686,0,1,0
30000000000,30300000000,331416465,0,539158843,0.0589,0.01572,0.02042,0.003078,0.003315,0.01593,0.000432,8.965e-05,0.187,0.01721,4.214,0.01205,0,1,0
30300000000,30600000000,331416465,0,539158843,0.05542,0.01587,0.02078,0.002678,0.002914,0.01688,0.0004168,8.965e-05,0.1436,0.01443,3.715,0.009627,0,1,0
30600000000,30900000000,331416465,0,539158843,0.05542,0.01578,0.02057,0.0033,0.003536,0.01627,0.000493,8.869e-05,0.1443,0.0401,4.147,0.01187,0,1,0
30900000000,31200000000,331416465,0,539158843,0.05817,0.01569,0.02042,0.003807,0.004044,0.01639,0.0004692,8.297e-05,0.1348,0.02115,3.565,0.0093,0,1,0
31200000000,31500000000,331416465,0,539158843,0.0545,0.01562,0.02036,0.002663,0.002899,0.01602,0.0003309,8.297e-05,0.1614,0.01657,4.219,0.01189,0,1,0
31500000000,31800000000,331416465,0,539158843,0.05627,0.01578,0.02045,0.002693,0.002926,0.01639,0.0003824,8.297e-05,0.1389,0.01614,3.535,0.009206,0,1,0
31800000000,32100000000,331416465,0,539158843,0.05664,0.01599,0.02072,0.0033,0.003536,0.01657,0.0003614,8.297e-05,0.1404,0.01422,4.084,0.01121,0,1,0
32100000000,32400000000,331416465,0,539158843,0.05804,0.01569,0.02048,0.003052,0.003288,0.01624,0.0003881,8.297e-05,0.1519,0.01422,3.732,0.009794,0,1,0
32400000000,32700000000,331416465,0,539158843,0.05719,0.01566,0.02039,0.003685,0.003922,0.0162,0.0003576,8.297e-05,0.1482,0.01436,4.242,0.01201,0,1,0
32700000000,33000000000,331416465,0,539158843,0.06006,0.01569,0.02029,0.00399,0.004219,0.01614,0.0003977,8.297e-05,0.2014,0.01556,3.673,0.009425,0,1,0
33000000000,33300000000,331416465,0,539158843,0.05859,0.01578,0.02057,0.004341,0.004578,0.01624,0.000452,8.392e-05,0.1453,0.01401,4.277,0.01226,0,1,0
33300000000,33600000000,331416465,0,539158843,0.05798,0.01572,0.0206,0.004005,0.004242,0.01639,0.0003967,8.297e-05,0.1438,0.0155,3.663,0.009668,0,1,0
33600000000,33900000000,331416465,0,539158843,0.05566,0.01566,0.02045,0.003399,0.003635,0.01605,0.0003653,8.392e-05,0.1479,0.01492,4.12,0.01176,0,1,0
33900000000,34200000000,331416465,0,539158843,0.05823,0.01566,0.02036,0.002689,0.002926,0.01605,0.0004082,8.392e-05,0.1526,0.01401,3.704,0.009779,0,1,0
34200000000,34500000000,331416465,0,539158843,0.05768,0.01575,0.02029,0.004692,0.004929,0.0162,0.0003901,8.392e-05,0.1562,0.01993,4.276,0.01257,0,1,0
34500000000,34800000000,331416465,0,539158843,0.05774,0.01575,0.02023,0.004211,0.004448,0.01624,0.0004129,8.392e-05,0.1531,0.02036,3.586,0.009675,0,1,0
34800000000,35100000000,331416465,0,539158843,0.06085,0.01581,0.02057,0.002983,0.00322,0.0166,0.0003958,8.392e-05,0.1443,0.0163,4.327,0.01231,0,1,0
35100000000,35400000000,331416465,0,539158843,0.05774,0.01587,0.02063,0.002907,0.003143,0.01663,0.0004492,8.392e-05,0.1743,0.02249,3.573,0.009195,0,1,0
35400000000,35700000000,331416465,0,539158843,0.05414,0.01566,0.02045,0.001738,0.001972,0.01605,0.0003529,8.392e-05,0.1545,0.02008,3.921,0.0111,0,1,0
35700000000,36000000000,331416465,0,539158843,0.05542,0.01569,0.02036,0.002518,0.002754,0.01605,0.0004587,8.392e-05,0.1426,0.01566,3.487,0.009078,0,1,0
36000000000,36300000000,331416465,0,539158843,0.05542,0.01584,0.02026,0.004883,0.005119,0.01627,0.0004311,8.488e-05,0.1689,0.01715,3.978,0.01142,0,1,0
36300000000,36600000000,331416465,0,539158843,0.05634,0.01569,0.0202,0.00486,0.005089,0.0162,0.0004025,8.488e-05,0.1477,0.02151,3.528,0.009177,0,1,0
36600000000,36900000000,331416465,0,539158843,0.05829,0.01578,0.02032,0.00486,0.005096,0.01642,0.0004368,8.488e-05,0.1467,0.01715,4.164,0.01186,0,1,0
36900000000,37200000000,331416465,0,539158843,0.06012,0.0159,0.0206,0.004166,0.004402,0.01639,0.000452,8.488e-05,0.1711,0.01837,3.514,0.009094,0,1,0
37200000000,37500000000,331416465,0,539158843,0.0658,0.01602,0.0206,0.003757,0.003998,0.01678,0.0004082,8.488e-05,0.1702,0.01436,4.189,0.01241,0,1,0
37500000000,37800000000,331416465,0,539158843,0.06433,0.01587,0.02063,0.002644,0.00288,0.01642,0.0004702,8.488e-05,0.22,0.01837,3.651,0.009187,0,1,0
37800000000,38100000000,331416465,0,539158843,0.05688,0.01596,0.0206,0.004639,0.004875,0.01675,0.0004482,8.583e-05,0.1575,0.01543,4.032,0.01138,0,1,0
38100000000,38400000000,331416465,0,539158843,0.0578,0.01562,0.02063,0.002899,0.003132,0.01608,0.0004015,8.583e-05,0.1665,0.0135,3.543,0.009301,0,1,0
38400000000,38700000000,331416465,0,539158843,0.06158,0.01556,0.02048,0.002224,0.00246,0.01602,0.0004253,8.583e-05,0.1514,0.0177,4.133,0.01173,0,1,0
38700000000,39000000000,331416465,0,539158843,0.06506,0.01572,0.02036,0.003025,0.003262,0.0162,0.0004568,8.488e-05,0.1682,0.01736,3.797,0.009969,0,1,0
39000000000,39300000000,331416465,0,539158843,0.06653,0.01581,0.02026,0.004974,0.005211,0.01614,0.0004549,8.488e-05,0.1956,0.01608,4.34,0.01236,0,1,0
39300000000,39600000000,331416465,0,539158843,0.06726,0.0159,0.02051,0.004173,0.00441,0.01682,0.0004444,8.583e-05,0.1826,0.01743,3.596,0.009407,0,1,0
39600000000,39900000000,331416465,0,539158843,0.06714,0.01587,0.02066,0.003635,0.003872,0.01654,0.0004568,8.678e-05,0.166,0.01556,4.276,0.01219,0,1,0
39900000000,40200000000,331416465,0,539158843,0.06409,0.01587,0.02048,0.004341,0.004578,0.01636,0.0004005,8.583e-05,0.1836,0.01672,3.66,0.009576,0,1,0
40200000000,40500000000,331416465,0,539158843,0.06604,0.01584,0.02045,0.004318,0.004555,0.0166,0.0004225,8.678e-05,0.1909,0.01064,4.382,0.01261,0,1,0
40500000000,40800000000,331416465,0,539158843,0.0658,0.01593,0.02072,0.005249,0.005486,0.01654,0.0004005,8.678e-05,0.1619,0.017,3.705,0.009954,0,1,0
51000000000,51300000000,331416465,0,539158843,0.08093,0.01645,0.02112,0.003002,0.003235,0.01755,0.0006733,9.06e-05,0.2188,0.01892,4.205,0.01134,0,1,0
51300000000,51600000000,331416465,0,539158843,0.08203,0.01633,0.021,0.004601,0.004837,0.01721,0.0005121,9.06e-05,0.1851,0.01314,3.834,0.009683,0,1,0
51600000000,51900000000,331416465,0,539158843,0.08289,0.01657,0.02103,0.004959,0.005188,0.01736,0.0006618,9.155e-05,0.1929,0.0249,4.279,0.01188,0,1,0
51900000000,52200000000,331416465,0,539158843,0.08423,0.01651,0.02188,0.005898,0.006126,0.01709,0.0005445,9.155e-05,0.1765,0.01923,3.86,0.01041,0,1,0
52200000000,52500000000,331416465,0,539158843,0.08997,0.01614,0.02109,0.002354,0.00259,0.01724,0.0007038,9.155e-05,0.2166,0.02328,4.358,0.01209,0,1,0
52500000000,52800000000,331416465,0,539158843,0.09106,0.01688,0.0213,0.003498,0.003735,0.01794,0.0005827,9.251e-05,0.2017,0.02307,3.96,0.01052,0,1,0
52800000000,53100000000,331416465,0,539158843,0.09155,0.01648,0.02106,0.003075,0.003307,0.01697,0.000658,9.155e-05,0.1948,0.02029,4.381,0.01237,0,1,0
53100000000,53400000000,331416465,0,539158843,0.08887,0.01675,0.02167,0.003929,0.004166,0.01727,0.0006409,9.251e-05,0.2146,0.02216,3.957,0.01035,0,1,0
53400000000,53700000000,331416465,0,539158843,0.08984,0.01682,0.02197,0.00362,0.003857,0.01804,0.0005684,9.251e-05,0.198,0.01764,4.259,0.01164,0,1,0
53700000000,54000000000,331416465,0,539158843,0.09497,0.01663,0.02094,0.002731,0.002968,0.01743,0.0007124,9.251e-05,0.3452,0.02127,4.025,0.01079,0,1,0
54000000000,54300000000,331416465,0,539158843,0.09424,0.01636,0.02106,0.002312,0.002548,0.01715,0.000618,9.251e-05,0.2039,0.02243,4.535,0.01291,0,1,0
54300000000,54600000000,331416465,0,539158843,0.09473,0.01627,0.02078,0.002331,0.002567,0.01709,0.0006409,9.346e-05,0.1919,0.02063,4.092,0.01097,0,1,0
54600000000,54900000000,331416465,0,539158843,0.08948,0.01666,0.02155,0.00428,0.004517,0.01715,0.0006723,9.346e-05,0.269,0.01892,4.227,0.01163,0,1,0
54900000000,55200000000,331416465,0,539158843,0.09192,0.01672,0.02109,0.003227,0.003464,0.01782,0.0007429,9.346e-05,0.1941,0.02844,3.776,0.009583,0,1,0
55200000000,55500000000,331416465,0,539158843,0.08887,0.01685,0.02081,0.0033,0.003536,0.01804,0.0006208,9.346e-05,0.2129,0.02115,4.117,0.01055,0,1,0
55500000000,55800000000,331416465,0,539158843,0.08813,0.01672,0.02078,0.003078,0.003311,0.01749,0.0008011,9.441e-05,0.1863,0.02158,3.639,0.008625,0,1,0
55800000000,56100000000,331416465,0,539158843,0.08875,0.01688,0.02097,0.002872,0.003105,0.01773,0.0008144,9.251e-05,0.1931,0.0481,4.041,0.01007,0,1,0
56100000000,56400000000,331416465,0,539158843,0.08875,0.01682,0.02106,0.00346,0.003693,0.01758,0.0007458,8.488e-05,0.1912,0.02194,3.675,0.008737,0,1,0
56400000000,56700000000,331416465,0,539158843,0.09302,0.0173,0.02133,0.004593,0.004829,0.01923,0.0006514,8.488e-05,0.2173,0.02451,3.989,0.01001,0,1,0
56700000000,57000000000,331416465,0,539158843,0.08862,0.01721,0.021,0.003407,0.003643,0.01877,0.0005903,8.488e-05,0.1873,0.01865,3.638,0.008654,0,1,0
57000000000,57300000000,331416465,0,539158843,0.09021,0.01688,0.02084,0.003998,0.004227,0.01746,0.0007629,8.488e-05,0.1904,0.0202,4.043,0.01009,0,1,0
57300000000,57600000000,331416465,0,539158843,0.08936,0.01657,0.02127,0.003071,0.003304,0.01718,0.0006084,8.488e-05,0.187,0.01978,3.738,0.009228,0,1,0
57600000000,57900000000,331416465,0,539158843,0.08508,0.01678,0.0209,0.003487,0.003719,0.01733,0.0007038,8.488e-05,0.1794,0.02036,4.155,0.01144,0,1,0
57900000000,58200000000,331416465,0,539158843,0.08984,0.01639,0.02084,0.002869,0.003101,0.01746,0.0007076,8.488e-05,0.2896,0.01929,3.873,0.009939,0,1,0
58200000000,58500000000,331416465,0,539158843,0.09106,0.01694,0.02127,0.004684,0.004913,0.0181,0.0007133,8.583e-05,0.2053,0.02151,4.232,0.01123,0,1,0
58500000000,58800000000,331416465,0,539158843,0.08948,0.01706,0.021,0.004517,0.004753,0.01816,0.0007133,8.583e-05,0.1965,0.01828,3.866,0.009749,0,1,0
58800000000,59100000000,331416465,0,539158843,0.09106,0.01682,0.02078,0.003716,0.003952,0.01797,0.0006838,8.583e-05,0.2109,0.0202,4.365,0.01189,0,1,0
59100000000,59400000000,331416465,0,539158843,0.099,0.01682,0.02106,0.003891,0.004128,0.01724,0.0007858,8.583e-05,0.1909,0.02127,4.118,0.01075,0,1,0
59400000000,59700000000,331416465,0,539158843,0.1017,0.01672,0.02106,0.002914,0.003147,0.0174,0.0006351,8.583e-05,0.2454,0.0162,4.576,0.01307,0,1,0
59700000000,60000000000,331416465,0,539158843,0.1001,0.01648,0.02106,0.001888,0.002121,0.01746,0.000638,8.583e-05,0.1946,0.01721,4.17,0.01114,0,1,0
60000000000,60300000000,331416465,0,539158843,0.09485,0.0166,0.0209,0.003284,0.003517,0.01703,0.0007143,8.583e-05,0.1965,0.01978,4.488,0.01282,0,1,0
60300000000,60600000000,331416465,0,539158843,0.09351,0.01657,0.02155,0.002857,0.003094,0.0177,0.0007477,8.678e-05,0.2168,0.01993,4,0.01046,0,1,0
60600000000,60900000000,331416465,0,539158843,0.09338,0.01663,0.02078,0.002995,0.003231,0.0173,0.0007381,8.678e-05,0.239,0.02429,4.523,0.01274,0,1,0
70800000000,71100000000,331416465,0,539158843,0.09961,0.01721,0.02106,0.004913,0.00515,0.01807,0.0006866,8.297e-05,0.2078,0.02206,4.415,0.01295,0,1,0
71100000000,71400000000,331416465,0,539158843,0.09753,0.01688,0.02094,0.00304,0.003277,0.01779,0.0007391,8.392e-05,0.2427,0.02463,4.387,0.01262,0,1,0
71400000000,71700000000,331416465,0,539158843,0.1014,0.0174,0.021,0.004295,0.004524,0.01852,0.0007391,8.297e-05,0.2195,0.01935,4.564,0.01314,0,1,0
71700000000,72000000000,331416465,0,539158843,0.09949,0.01709,0.02097,0.002682,0.002918,0.01807,0.000742,8.392e-05,0.2229,0.01886,4.106,0.01142,0,1,0
72000000000,72300000000,331416465,0,539158843,0.09436,0.01691,0.02087,0.002937,0.003174,0.01791,0.0006294,8.392e-05,0.2041,0.01401,4.921,0.01463,0,1,0
72300000000,72600000000,331416465,0,539158843,0.09326,0.01694,0.021,0.002758,0.002995,0.01788,0.0006685,8.392e-05,0.2166,0.02399,4.483,0.01316,0,1,0
72600000000,72900000000,331416465,0,539158843,0.09338,0.01697,0.02118,0.002686,0.002918,0.0181,0.0007257,8.488e-05,0.2214,0.0228,4.59,0.01326,0,1,0
72900000000,73200000000,331416465,0,539158843,0.09692,0.01663,0.0209,0.002064,0.0023,0.01749,0.0006886,8.488e-05,0.2598,0.01521,4.119,0.01143,0,1,0
73200000000,73500000000,331416465,0,539158843,0.0918,0.01669,0.021,0.004013,0.00425,0.01715,0.0007019,8.392e-05,0.1978,0.01935,4.408,0.01285,0,1,0
73500000000,73800000000,331416465,0,539158843,0.099,0.01703,0.02106,0.004051,0.004288,0.01761,0.0007143,8.488e-05,0.2322,0.0235,4.235,0.01173,0,1,0
73800000000,74100000000,331416465,0,539158843,0.09497,0.01669,0.02097,0.004829,0.005066,0.01721,0.0007153,8.488e-05,0.2319,0.02301,4.521,0.01252,0,1,0
74100000000,74400000000,331416465,0,539158843,0.09961,0.0166,0.02081,0.004272,0.004509,0.01721,0.0007696,8.488e-05,0.2798,0.01907,4.213,0.01126,0,1,0
74400000000,74700000000,331416465,0,539158843,0.09448,0.01666,0.02094,0.004204,0.004433,0.01715,0.0007448,8.583e-05,0.3003,0.01642,4.845,0.01414,0,1,0
74700000000,75000000000,331416465,0,539158843,0.09778,0.01697,0.02139,0.005074,0.00531,0.01804,0.0007477,8.583e-05,0.2068,0.02371,4.06,0.01106,0,1,0
75000000000,75300000000,331416465,0,539158843,0.09387,0.01688,0.02078,0.00489,0.005127,0.01773,0.0007162,8.583e-05,0.2349,0.01807,4.628,0.01332,0,1,0
75300000000,75600000000,331416465,0,539158843,0.0929,0.01691,0.021,0.004799,0.005035,0.01785,0.0006533,8.583e-05,0.2112,0.01801,3.871,0.01063,0,1,0
75600000000,75900000000,331416465,0,539158843,0.09363,0.01675,0.02139,0.004227,0.004463,0.0174,0.0007029,8.583e-05,0.2092,0.01865,4.412,0.01254,0,1,0
75900000000,76200000000,331416465,0,539158843,0.0957,0.01721,0.02237,0.00457,0.004807,0.01804,0.0007877,8.583e-05,0.2209,0.02243,4.067,0.01093,0,1,0
76200000000,76500000000,331416465,0,539158843,0.0946,0.01678,0.02127,0.003002,0.003235,0.01767,0.0007734,8.583e-05,0.24,0.0177,4.211,0.01162,0,1,0
76500000000,76800000000,331416465,0,539158843,0.08801,0.01682,0.02097,0.00288,0.003117,0.01767,0.000659,8.678e-05,0.2261,0.01694,3.977,0.01038,0,1,0
76800000000,77100000000,331416465,0,539158843,0.0813,0.01666,0.02103,0.00293,0.003162,0.01767,0.0006075,8.678e-05,0.3218,0.01721,4.394,0.01201,0,1,0
77100000000,77400000000,331416465,0,539158843,0.08557,0.01666,0.02118,0.003433,0.003666,0.01736,0.0007553,8.678e-05,0.1982,0.01642,4.142,0.0105,0,1,0
77400000000,77700000000,331416465,0,539158843,0.08423,0.01645,0.02078,0.002987,0.003223,0.01709,0.0006924,8.678e-05,0.1931,0.02063,4.572,0.01237,0,1,0
77700000000,78000000000,331416465,0,539158843,0.08374,0.01678,0.02094,0.003067,0.003304,0.01764,0.0006037,8.774e-05,0.1919,0.01727,4.134,0.01065,0,1,0
78000000000,78300000000,331416465,0,539158843,0.08643,0.01651,0.02075,0.002628,0.002865,0.01764,0.0007,8.774e-05,0.2148,0.0177,4.852,0.0144,0,1,0
78300000000,78600000000,331416465,0,539158843,0.0957,0.01685,0.021,0.003361,0.003597,0.01749,0.000659,8.774e-05,0.2131,0.01743,4.618,0.01335,0,1,0
78600000000,78900000000,331416465,0,539158843,0.08838,0.01675,0.02084,0.002823,0.003059,0.01749,0.0006123,8.774e-05,0.2021,0.02185,4.878,0.01448,0,1,0
78900000000,79200000000,331416465,0,539158843,0.08948,0.0166,0.02072,0.002769,0.003006,0.01749,0.0006914,8.774e-05,0.2612,0.01843,4.093,0.01113,0,1,0
79200000000,79500000000,331416465,0,539158843,0.08984,0.01657,0.02127,0.002563,0.0028,0.01773,0.0007391,8.774e-05,0.2185,0.01706,4.448,0.01296,0,1,0
79500000000,79800000000,331416465,0,539158843,0.08557,0.01675,0.02094,0.003387,0.003624,0.01746,0.0006313,8.869e-05,0.2593,0.01816,4.138,0.01147,0,1,0
79800000000,80100000000,331416465,0,539158843,0.08276,0.01666,0.02081,0.004578,0.004814,0.01712,0.0006495,8.869e-05,0.1716,0.0267,4.68,0.01404,0,1,0
80100000000,80400000000,331416465,0,539158843,0.08252,0.0166,0.021,0.002941,0.003178,0.0173,0.0006437,8.869e-05,0.1694,0.02222,3.841,0.01059,0,1,0
80400000000,80700000000,331416465,0,539158843,0.08093,0.01657,0.0209,0.004295,0.004532,0.0174,0.0006046,8.869e-05,0.1748,0.02014,4.769,0.01458,0,1,0
80700000000,81000000000,331416465,0,539158843,0.08289,0.0166,0.02109,0.0047,0.004936,0.01703,0.0006742,8.869e-05,0.2249,0.01736,4.114,0.0117,0,1,0
85800000000,86100000000,331416465,0,539158843,0.08875,0.017,0.021,0.002415,0.002655,0.01819,0.0006924,9.155e-05,0.2295,0.01843,4.603,0.01235,0,1,0
86100000000,86400000000,331416465,0,539158843,0.08472,0.0166,0.02167,0.002277,0.002514,0.01733,0.0006018,9.155e-05,0.2068,0.01414,4.329,0.01168,0,1,0
86400000000,86700000000,331416465,0,539158843,0.08228,0.01651,0.02115,0.001957,0.002193,0.0173,0.0004892,9.155e-05,0.1982,0.01608,4.739,0.01344,0,1,0
86700000000,87000000000,331416465,0,539158843,0.08203,0.01663,0.02084,0.002136,0.002373,0.01776,0.0006714,9.155e-05,0.2134,0.01706,4.668,0.01286,0,1,0
87000000000,87300000000,331416465,0,539158843,0.07739,0.0166,0.021,0.002541,0.002781,0.01752,0.0007057,9.251e-05,0.2051,0.01849,5.007,0.0145,0,1,0
87300000000,87600000000,331416465,0,539158843,0.07556,0.01642,0.02087,0.003254,0.00349,0.01712,0.0005684,9.155e-05,0.1658,0.01566,4.716,0.01351,0,1,0
87600000000,87900000000,331416465,0,539158843,0.07251,0.0163,0.0209,0.002365,0.002602,0.01727,0.0005627,9.251e-05,0.1494,0.01663,4.916,0.01417,0,1,0
87900000000,88200000000,331416465,0,539158843,0.07642,0.0163,0.02084,0.002136,0.002373,0.01694,0.0005817,9.251e-05,0.1533,0.01721,4.634,0.01317,0,1,0
88200000000,88500000000,331416465,0,539158843,0.07764,0.01639,0.02084,0.002541,0.002777,0.01703,0.0006371,9.251e-05,0.1653,0.01749,5.158,0.01577,0,1,0
88500000000,88800000000,331416465,0,539158843,0.08313,0.01636,0.02075,0.002857,0.003098,0.01669,0.0005369,9.251e-05,0.1624,0.01865,4.155,0.01139,0,1,0
88800000000,89100000000,331416465,0,539158843,0.08118,0.01633,0.02081,0.003269,0.00351,0.01697,0.0005779,9.251e-05,0.2974,0.01372,5.129,0.01524,0,1,0
89100000000,89400000000,331416465,0,539158843,0.08533,0.01648,0.02109,0.002831,0.003078,0.01703,0.0005808,9.251e-05,0.1865,0.01443,4.516,0.01236,0,1,0
89400000000,89700000000,331416465,0,539158843,0.0769,0.01651,0.02078,0.003574,0.003819,0.01694,0.0006018,9.251e-05,0.1689,0.01657,5.029,0.01516,0,1,0
89700000000,90000000000,331416465,0,539158843,0.08545,0.01657,0.0217,0.00486,0.005104,0.01694,0.0005646,9.251e-05,0.1619,0.01721,4.779,0.01367,0,1,0
90000000000,90300000000,331416465,0,539158843,0.08105,0.01651,0.02094,0.003658,0.003902,0.01733,0.0005751,9.251e-05,0.3267,0.01672,5.236,0.01556,0,1,0
90300000000,90600000000,331416465,0,539158843,0.07605,0.01614,0.02072,0.002659,0.002899,0.01691,0.0006046,9.346e-05,0.1438,0.01749,4.688,0.01329,0,1,0
90600000000,90900000000,331416465,0,539158843,0.08154,0.01666,0.02151,0.002808,0.003048,0.0173,0.0006485,9.346e-05,0.1726,0.01929,4.605,0.01267,0,1,0
101100000000,101400000000,331416465,0,539158843,0.06494,0.01605,0.0209,0.001354,0.001595,0.01706,0.000515,8.774e-05,0.2017,0.01923,4.187,0.01152,0,1,0
101400000000,101700000000,331416465,0,539158843,0.06445,0.01596,0.02081,0.001257,0.001497,0.01669,0.0005264,8.774e-05,0.186,0.01837,3.651,0.0096,0,1,0
101700000000,102000000000,331416465,0,539158843,0.07825,0.01639,0.02081,0.002586,0.002827,0.01715,0.0005007,8.774e-05,0.1909,0.01443,4.031,0.01074,0,1,0
102000000000,102300000000,331416465,0,539158843,0.07544,0.01624,0.02084,0.002193,0.002434,0.01697,0.0004549,8.774e-05,0.1807,0.01471,4.855,0.0142,0,1,0
102300000000,102600000000,331416465,0,539158843,0.07202,0.01624,0.02081,0.002022,0.002262,0.0166,0.0004673,8.774e-05,0.2402,0.01614,3.971,0.01054,0,1,0
102600000000,102900000000,331416465,0,539158843,0.07092,0.0163,0.02075,0.003056,0.003296,0.017,0.0005388,8.774e-05,0.1995,0.01987,4.449,0.01232,0,1,0
102900000000,103200000000,331416465,0,539158843,0.06714,0.01624,0.02191,0.005142,0.005379,0.01694,0.0004759,8.774e-05,0.1877,0.01385,3.943,0.01041,0,1,0
103200000000,103500000000,331416465,0,539158843,0.06146,0.01611,0.02054,0.00243,0.00267,0.01654,0.0005159,8.774e-05,0.1519,0.01736,4.387,0.01181,0,1,0
103500000000,103800000000,331416465,0,539158843,0.0611,0.01624,0.02069,0.002438,0.002678,0.01666,0.0004663,8.774e-05,0.1807,0.01678,4.301,0.01126,0,1,0
103800000000,104100000000,331416465,0,539158843,0.06958,0.0163,0.02066,0.002277,0.002518,0.01694,0.0005274,8.774e-05,0.1997,0.0177,4.532,0.01308,0,1,0
104100000000,104400000000,331416465,0,539158843,0.07031,0.01605,0.02057,0.001925,0.002163,0.01651,0.000494,8.869e-05,0.1782,0.01987,4.247,0.01184,0,1,0
104400000000,104700000000,331416465,0,539158843,0.06738,0.01599,0.02072,0.002377,0.002617,0.01678,0.0004988,8.774e-05,0.3394,0.02185,4.534,0.0134,0,1,0
104700000000,105000000000,331416465,0,539158843,0.06848,0.01608,0.02084,0.001947,0.00219,0.01663,0.000432,8.869e-05,0.2498,0.0188,4.204,0.01119,0,1,0
105000000000,105300000000,331416465,0,539158843,0.07263,0.01611,0.0206,0.002869,0.003109,0.0166,0.0004826,8.869e-05,0.1936,0.01642,4.726,0.0133,0,1,0
105300000000,105600000000,331416465,0,539158843,0.07349,0.01614,0.02072,0.00325,0.00349,0.01682,0.0004959,8.869e-05,0.1531,0.01385,4.148,0.01104,0,1,0
105600000000,105900000000,331416465,0,539158843,0.07495,0.01624,0.02072,0.003498,0.003738,0.01715,0.0004549,8.869e-05,0.2078,0.01865,5.205,0.01529,0,1,0
105900000000,106200000000,331416465,0,539158843,0.07104,0.01608,0.02066,0.003357,0.003597,0.01703,0.0004578,8.869e-05,0.2083,0.01791,4.094,0.0113,0,1,0
106200000000,106500000000,331416465,0,539158843,0.0708,0.01602,0.02066,0.004601,0.004845,0.01645,0.0004673,8.869e-05,0.1924,0.0195,4.661,0.01334,0,1,0
106500000000,106800000000,331416465,0,539158843,0.06641,0.01614,0.02069,0.004974,0.005219,0.01697,0.0004196,8.965e-05,0.2053,0.0162,4.275,0.01146,0,1,0
106800000000,107100000000,331416465,0,539158843,0.06323,0.01611,0.0206,0.003967,0.004211,0.01718,0.0004683,8.869e-05,0.1946,0.01901,4.137,0.01067,0,1,0
107100000000,107400000000,331416465,0,539158843,0.06787,0.0162,0.02069,0.002346,0.002586,0.01755,0.0004845,8.965e-05,0.1821,0.01749,3.806,0.009176,0,1,0
107400000000,107700000000,331416465,0,539158843,0.06616,0.01614,0.02066,0.002174,0.002415,0.01736,0.0004978,8.965e-05,0.1521,0.01971,4.475,0.01229,0,1,0
107700000000,108000000000,331416465,0,539158843,0.0647,0.0162,0.02075,0.002987,0.003227,0.01694,0.0005178,8.965e-05,0.1736,0.01901,3.763,0.00933,0,1,0
108000000000,108300000000,331416465,0,539158843,0.0589,0.01599,0.0206,0.002197,0.002438,0.01678,0.0004644,8.965e-05,0.1572,0.017,4.312,0.01212,0,1,0
108300000000,108600000000,331416465,0,539158843,0.06067,0.01593,0.02042,0.003853,0.004089,0.01636,0.0004225,8.965e-05,0.144,0.01685,4.078,0.01087,0,1,0
108600000000,108900000000,331416465,0,539158843,0.06287,0.01605,0.02069,0.002449,0.002689,0.01697,0.0004578,8.965e-05,0.1389,0.01764,4.878,0.01509,0,1,0
108900000000,109200000000,331416465,0,539158843,0.06232,0.01602,0.02075,0.00243,0.00267,0.01666,0.0004168,8.965e-05,0.1846,0.01521,4.054,0.01132,0,1,0
109200000000,109500000000,331416465,0,539158843,0.06207,0.01584,0.0206,0.003223,0.003464,0.01627,0.0004759,8.965e-05,0.25,0.01535,4.568,0.01306,0,1,0
109500000000,109800000000,331416465,0,539158843,0.06873,0.0159,0.02103,0.003071,0.003311,0.01645,0.0004416,9.06e-05,0.2656,0.01636,4.031,0.01048,0,1,0
109800000000,110100000000,331416465,0,539158843,0.06396,0.01584,0.0206,0.002197,0.002438,0.01648,0.0004044,9.06e-05,0.199,0.01378,3.771,0.009895,0,1,0
110100000000,110400000000,331416465,0,539158843,0.0625,0.01599,0.02066,0.003418,0.003658,0.01666,0.000453,9.06e-05,0.1912,0.01828,4.265,0.01183,0,1,0
110400000000,110700000000,331416465,0,539158843,0.06073,0.01593,0.02054,0.00359,0.00383,0.0166,0.0004015,9.06e-05,0.1682,0.01587,4.811,0.01437,0,1,0
110700000000,111000000000,331416465,0,539158843,0.05823,0.01575,0.02039,0.003647,0.003887,0.01599,0.0004511,9.06e-05,0.1748,0.01816,3.806,0.01029,0,1,0
116100000000,116400000000,331416465,0,539158843,0.05988,0.01611,0.02051,0.004364,0.004608,0.0166,0.0004454,9.251e-05,0.2063,0.01672,3.932,0.01027,0,1,0
116400000000,116700000000,331416465,0,539158843,0.05847,0.01611,0.02063,0.002426,0.002674,0.01721,0.0003872,9.346e-05,0.1714,0.01199,4.379,0.01234,0,1,0
116700000000,117000000000,331416465,0,539158843,0.05927,0.01627,0.02066,0.003811,0.004066,0.01718,0.0004301,9.251e-05,0.1536,0.01721,3.8,0.009857,0,1,0
117000000000,117300000000,331416465,0,539158843,0.05933,0.01617,0.0206,0.004044,0.004288,0.01688,0.000617,9.06e-05,0.1687,0.03363,3.66,0.009803,0,1,0
117300000000,117600000000,331416465,0,539158843,0.0614,0.0162,0.0209,0.002529,0.002769,0.01678,0.0005713,8.297e-05,0.1921,0.02487,3.819,0.01012,0,1,0
117600000000,117900000000,331416465,0,539158843,0.06171,0.01617,0.02078,0.002899,0.003139,0.01727,0.0003996,8.297e-05,0.177,0.01436,4.689,0.01375,0,1,0
117900000000,118200000000,331416465,0,539158843,0.06079,0.01602,0.02054,0.004173,0.00441,0.01645,0.000433,8.392e-05,0.1543,0.01486,3.814,0.01001,0,1,0
118200000000,118500000000,331416465,0,539158843,0.05713,0.01596,0.02042,0.003922,0.004166,0.01636,0.0004807,8.392e-05,0.1838,0.0145,4.698,0.0135,0,1,0
118500000000,118800000000,331416465,0,539158843,0.0542,0.01602,0.02051,0.002956,0.003197,0.01688,0.0003862,8.392e-05,0.1604,0.01428,4.138,0.01156,0,1,0
118800000000,119100000000,331416465,0,539158843,0.05267,0.01578,0.02057,0.002888,0.003128,0.0163,0.0003986,8.392e-05,0.1426,0.01593,4.468,0.01302,0,1,0
119100000000,119400000000,331416465,0,539158843,0.0564,0.01584,0.02039,0.00259,0.002831,0.01624,0.0004377,8.392e-05,0.1743,0.01556,3.595,0.00891,0,1,0
119400000000,119700000000,331416465,0,539158843,0.05664,0.01572,0.02063,0.002113,0.002354,0.0163,0.0004387,8.392e-05,0.1948,0.01572,4.489,0.01264,0,1,0
119700000000,120000000000,331416465,0,539158843,0.06763,0.01581,0.02051,0.002224,0.002464,0.01642,0.0004301,8.392e-05,0.1931,0.01401,3.894,0.01019,0,1,0
120000000000,120300000000,331416465,0,539158843,0.06183,0.01605,0.02081,0.003124,0.003365,0.01654,0.0004683,8.392e-05,0.238,0.01508,4.65,0.01315,0,1,0
120300000000,120600000000,331416465,0,539158843,0.06012,0.01593,0.02057,0.001415,0.001656,0.01654,0.0004263,8.488e-05,0.2444,0.01228,3.755,0.009975,0,1,0
120600000000,120900000000,331416465,0,539158843,0.06409,0.01624,0.02084,0.002197,0.002438,0.01727,0.0005798,8.392e-05,0.2063,0.01657,4.339,0.01219,0,1,0
126000000000,126300000000,331416465,0,539158843,0.05878,0.01587,0.02054,0.002052,0.002293,0.01642,0.0004387,8.678e-05,0.1313,0.01599,4.456,0.01315,0,1,0
126300000000,126600000000,331416465,0,539158843,0.06116,0.01596,0.02039,0.00259,0.002831,0.01627,0.0004721,8.678e-05,0.2078,0.01685,3.653,0.009793,0,1,0
126600000000,126900000000,331416465,0,539158843,0.06311,0.0159,0.02078,0.002735,0.002979,0.01675,0.0005159,8.678e-05,0.1609,0.01913,4.277,0.01212,0,1,0
126900000000,127200000000,331416465,0,539158843,0.06323,0.01596,0.02048,0.004524,0.004761,0.01627,0.0004816,8.678e-05,0.1458,0.02029,3.85,0.01025,0,1,0
127200000000,127500000000,331416465,0,539158843,0.06348,0.0159,0.02036,0.004044,0.00428,0.01617,0.0004892,8.678e-05,0.1609,0.01749,4.421,0.01218,0,1,0
127500000000,127800000000,331416465,0,539158843,0.06287,0.0159,0.02026,0.003372,0.003613,0.01627,0.0004253,8.774e-05,0.1804,0.01614,4.141,0.01134,0,1,0
127800000000,128100000000,331416465,0,539158843,0.06555,0.01602,0.02057,0.004173,0.004417,0.01645,0.0004644,8.774e-05,0.1526,0.01743,4.281,0.01185,0,1,0
128100000000,128400000000,331416465,0,539158843,0.06482,0.01587,0.02051,0.003349,0.00359,0.01645,0.0004702,8.774e-05,0.2068,0.01694,3.906,0.009999,0,1,0
128400000000,128700000000,331416465,0,539158843,0.06384,0.0159,0.02036,0.004173,0.00441,0.01627,0.0004339,8.678e-05,0.1997,0.01608,4.253,0.0117,0,1,0
128700000000,129000000000,331416465,0,539158843,0.06921,0.01587,0.02066,0.004173,0.00441,0.0163,0.0004606,8.678e-05,0.1926,0.01465,4.061,0.01042,0,1,0
129000000000,129300000000,331416465,0,539158843,0.07019,0.01599,0.02048,0.004471,0.004707,0.01636,0.000515,8.678e-05,0.1514,0.02243,4.684,0.0128,0,1,0
129300000000,129600000000,331416465,0,539158843,0.06616,0.01599,0.0206,0.003273,0.003513,0.01642,0.0004921,8.678e-05,0.1995,0.0163,3.968,0.01072,0,1,0
129600000000,129900000000,331416465,0,539158843,0.06079,0.01605,0.02054,0.002598,0.002838,0.01639,0.0004597,8.678e-05,0.1619,0.01764,4.562,0.01338,0,1,0
129900000000,130200000000,331416465,0,539158843,0.06177,0.01614,0.02069,0.003872,0.004112,0.01675,0.0004435,8.774e-05,0.175,0.01727,3.886,0.01042,0,1,0
130200000000,130500000000,331416465,0,539158843,0.06738,0.01596,0.02048,0.004372,0.004608,0.01636,0.0005255,8.774e-05,0.1389,0.02179,4.536,0.01291,0,1,0
130500000000,130800000000,331416465,0,539158843,0.06958,0.01602,0.02057,0.004578,0.004822,0.01636,0.000452,8.774e-05,0.1511,0.01965,3.971,0.01044,0,1,0
130800000000,131100000000,331416465,0,539158843,0.06494,0.01593,0.02045,0.00259,0.002831,0.01627,0.0004816,8.774e-05,0.1731,0.02164,4.451,0.01283,0,1,0
141000000000,141300000000,331416465,0,539158843,0.08704,0.01694,0.02124,0.003677,0.003922,0.01761,0.0007191,9.346e-05,0.1748,0.02029,4.269,0.01181,0,1,0
141300000000,141600000000,331416465,0,539158843,0.08508,0.01678,0.0213,0.00388,0.00412,0.01715,0.0006733,9.441e-05,0.1968,0.01843,3.793,0.009768,0,1,0
141600000000,141900000000,331416465,0,539158843,0.08801,0.01715,0.02133,0.003536,0.003777,0.01813,0.000679,9.441e-05,0.1868,0.02063,4.138,0.01143,0,1,0
141900000000,142200000000,331416465,0,539158843,0.09167,0.01678,0.02118,0.003857,0.004097,0.01755,0.0006466,9.441e-05,0.1885,0.01907,4.055,0.01103,0,1,0
142200000000,142500000000,331416465,0,539158843,0.09045,0.01703,0.02185,0.005157,0.005402,0.01752,0.0007935,9.251e-05,0.2102,0.03583,4.19,0.01153,0,1,0
142500000000,142800000000,331416465,0,539158843,0.09082,0.01749,0.02203,0.005753,0.005997,0.01825,0.0004902,8.488e-05,0.21,0.02008,3.947,0.01043,0,1,0
142800000000,143100000000,331416465,0,539158843,0.09021,0.01682,0.02112,0.003307,0.003548,0.01794,0.0006742,8.488e-05,0.2139,0.0242,4.277,0.01171,0,1,0
143100000000,143400000000,331416465,0,539158843,0.08813,0.01669,0.02087,0.00359,0.00383,0.01724,0.0006514,8.488e-05,0.2122,0.02216,3.696,0.009594,0,1,0
143400000000,143700000000,331416465,0,539158843,0.08801,0.01685,0.02097,0.003654,0.003895,0.01773,0.0007105,8.583e-05,0.2026,0.02371,4.21,0.01163,0,1,0
143700000000,144000000000,331416465,0,539158843,0.08972,0.01712,0.02133,0.003502,0.003742,0.01852,0.0006456,8.583e-05,0.1885,0.02301,3.704,0.009663,0,1,0
144000000000,144300000000,331416465,0,539158843,0.09326,0.01733,0.02124,0.0047,0.004936,0.01877,0.0008011,8.583e-05,0.1978,0.02765,4.071,0.0109,0,1,0
144300000000,144600000000,331416465,0,539158843,0.09204,0.01678,0.02106,0.003662,0.003902,0.01733,0.0006561,8.583e-05,0.1843,0.02014,3.892,0.01016,0,1,0
144600000000,144900000000,331416465,0,539158843,0.08923,0.01669,0.02109,0.002392,0.002632,0.01721,0.0006161,8.678e-05,0.1992,0.01785,4.205,0.01158,0,1,0
144900000000,145200000000,331416465,0,539158843,0.08887,0.01715,0.02127,0.003784,0.004021,0.01819,0.0007095,8.678e-05,0.2151,0.01849,3.947,0.01069,0,1,0
145200000000,145500000000,331416465,0,539158843,0.08899,0.01752,0.02164,0.003841,0.004082,0.01886,0.0004911,8.678e-05,0.1836,0.01923,4.031,0.01106,0,1,0
145500000000,145800000000,331416465,0,539158843,0.08984,0.01706,0.02219,0.005814,0.006058,0.01761,0.0002642,8.678e-05,0.1909,0.01357,4.056,0.01101,0,1,0
145800000000,146100000000,331416465,0,539158843,0.0896,0.01675,0.02121,0.004799,0.005035,0.01743,0.0005484,8.774e-05,0.187,0.01913,4.212,0.01141,0,1,0
151200000000,151500000000,331416465,0,539158843,0.08752,0.01682,0.02121,0.00264,0.00288,0.01791,0.0007324,9.06e-05,0.2168,0.02377,4.239,0.01171,0,1,0
151500000000,151800000000,331416465,0,539158843,0.08984,0.01724,0.02136,0.003441,0.003681,0.01813,0.0006723,9.06e-05,0.1982,0.02286,3.802,0.009883,0,1,0
151800000000,152100000000,331416465,0,539158843,0.08716,0.01685,0.02133,0.003838,0.004074,0.01743,0.0007572,9.06e-05,0.2048,0.02686,4.196,0.01139,0,1,0
152100000000,152400000000,331416465,0,539158843,0.08484,0.01672,0.02094,0.003609,0.003849,0.0173,0.0007362,9.155e-05,0.1831,0.01901,4.147,0.0113,0,1,0
152400000000,152700000000,331416465,0,539158843,0.08777,0.01694,0.02148,0.002769,0.00301,0.01804,0.0007801,9.155e-05,0.2588,0.02563,4.322,0.01199,0,1,0
152700000000,153000000000,331416465,0,539158843,0.08752,0.01666,0.02118,0.003452,0.003693,0.01715,0.0006943,9.155e-05,0.2056,0.01663,3.979,0.01062,0,1,0
153000000000,153300000000,331416465,0,539158843,0.09045,0.01678,0.02094,0.002949,0.003189,0.01724,0.0006618,9.251e-05,0.2166,0.02084,4.376,0.0123,0,1,0
153300000000,153600000000,331416465,0,539158843,0.09375,0.0166,0.02078,0.003513,0.003757,0.01733,0.0006819,9.251e-05,0.1824,0.01727,3.965,0.01061,0,1,0
153600000000,153900000000,331416465,0,539158843,0.09167,0.01691,0.021,0.002747,0.002987,0.01776,0.0007086,9.251e-05,0.2175,0.02179,4.583,0.01294,0,1,0
153900000000,154200000000,331416465,0,539158843,0.08459,0.01682,0.021,0.002815,0.003056,0.01779,0.0008154,9.251e-05,0.2202,0.02734,4.195,0.01164,0,1,0
154200000000,154500000000,331416465,0,539158843,0.08496,0.01678,0.02087,0.003605,0.003845,0.01724,0.0006571,9.346e-05,0.1755,0.01944,4.337,0.012,0,1,0
154500000000,154800000000,331416465,0,539158843,0.08582,0.01675,0.02078,0.003235,0.003475,0.01736,0.0007191,9.346e-05,0.2031,0.0177,3.939,0.01033,0,1,0
154800000000,155100000000,331416465,0,539158843,0.08557,0.01685,0.021,0.003803,0.004044,0.01736,0.0006227,9.346e-05,0.1785,0.01743,4.255,0.01162,0,1,0
155100000000,155400000000,331416465,0,539158843,0.09155,0.01715,0.02142,0.004875,0.005112,0.01776,0.000742,9.346e-05,0.2007,0.01572,3.867,0.01037,0,1,0
155400000000,155700000000,331416465,0,539158843,0.08789,0.01694,0.02151,0.004539,0.004776,0.01849,0.0008478,9.346e-05,0.2444,0.02042,4.367,0.01244,0,1,0
155700000000,156000000000,331416465,0,539158843,0.09106,0.01721,0.02176,0.005142,0.005386,0.01804,0.00072,9.346e-05,0.2275,0.017,3.878,0.01006,0,1,0
161100000000,161400000000,331416465,0,539158843,0.09094,0.01712,0.02206,0.004509,0.004753,0.01846,0.0007067,8.678e-05,0.2112,0.01913,4.325,0.01157,0,1,0
161400000000,161700000000,331416465,0,539158843,0.08679,0.01697,0.02219,0.005409,0.005653,0.01752,0.0006113,8.678e-05,0.1875,0.01614,4.761,0.01329,0,1,0
161700000000,162000000000,331416465,0,539158843,0.08984,0.01721,0.02219,0.003426,0.003666,0.01807,0.0007429,8.678e-05,0.1931,0.02179,3.953,0.01031,0,1,0
162000000000,162300000000,331416465,0,539158843,0.0835,0.01697,0.02225,0.005836,0.006081,0.01743,0.0005493,8.678e-05,0.2153,0.0202,4.578,0.01322,0,1,0
162300000000,162600000000,331416465,0,539158843,0.0874,0.01709,0.02216,0.005913,0.006157,0.01782,0.0007029,8.774e-05,0.2041,0.02771,4.093,0.01112,0,1,0
162600000000,162900000000,331416465,0,539158843,0.08496,0.01709,0.02209,0.006371,0.006607,0.01764,0.0007744,8.774e-05,0.1733,0.021,4.451,0.01243,0,1,0
162900000000,163200000000,331416465,0,539158843,0.09521,0.01712,0.02203,0.005699,0.005936,0.01752,0.0006456,8.774e-05,0.251,0.01913,4.362,0.01182,0,1,0
163200000000,163500000000,331416465,0,539158843,0.09375,0.01721,0.022,0.006462,0.006706,0.01807,0.0008116,8.774e-05,0.2395,0.02493,4.749,0.01335,0,1,0
163500000000,163800000000,331416465,0,539158843,0.0929,0.017,0.022,0.00621,0.006447,0.01758,0.0007324,8.774e-05,0.2004,0.02414,4.262,0.01147,0,1,0
163800000000,164100000000,331416465,0,539158843,0.09229,0.01703,0.0213,0.004745,0.00499,0.01761,0.0006342,8.869e-05,0.2336,0.02441,4.513,0.0114,0,1,0
164100000000,164400000000,331416465,0,539158843,0.08435,0.017,0.02115,0.003857,0.004097,0.01797,0.0007257,8.869e-05,0.1899,0.02399,4.394,0.01142,0,1,0
164400000000,164700000000,331416465,0,539158843,0.08142,0.01691,0.021,0.003628,0.003868,0.01755,0.0007477,8.869e-05,0.1606,0.0202,4.349,0.01182,0,1,0
164700000000,165000000000,331416465,0,539158843,0.08203,0.01654,0.02087,0.004059,0.004303,0.01718,0.0006275,8.869e-05,0.2161,0.02292,4.087,0.01061,0,1,0
165000000000,165300000000,331416465,0,539158843,0.08508,0.01736,0.02139,0.004395,0.004639,0.02045,0.0006809,8.869e-05,0.2285,0.02286,4.259,0.01129,0,1,0
165300000000,165600000000,331416465,0,539158843,0.08337,0.01788,0.02136,0.003448,0.003689,0.01984,0.0007372,8.869e-05,0.2444,0.02292,3.713,0.009571,0,1,0
165600000000,165900000000,331416465,0,539158843,0.09082,0.01715,0.02115,0.003983,0.004227,0.01843,0.0006695,8.869e-05,0.208,0.02771,4.51,0.01237,0,1,0
165900000000,166200000000,331416465,0,539158843,0.08948,0.01663,0.021,0.00296,0.003201,0.01736,0.0007277,8.965e-05,0.22,0.02365,4.362,0.0118,0,1,0
166200000000,166500000000,331416465,0,539158843,0.09106,0.01697,0.0209,0.001961,0.002201,0.01846,0.0006838,8.965e-05,0.1985,0.01636,4.394,0.01187,0,1,0
166500000000,166800000000,331416465,0,539158843,0.08716,0.0173,0.02139,0.003689,0.003929,0.01837,0.0006857,8.965e-05,0.1787,0.02429,3.941,0.01013,0,1,0
166800000000,167100000000,331416465,0,539158843,0.08447,0.01685,0.02145,0.00304,0.003281,0.01776,0.0005035,8.965e-05,0.2439,0.02072,4.122,0.01103,0,1,0
167100000000,167400000000,331416465,0,539158843,0.08325,0.01669,0.02097,0.002716,0.002956,0.01776,0.0007105,9.06e-05,0.1895,0.02042,3.87,0.01017,0,1,0
167400000000,167700000000,331416465,0,539158843,0.07935,0.0166,0.02087,0.002625,0.002869,0.01712,0.0005884,9.06e-05,0.2129,0.01944,4.327,0.01237,0,1,0
167700000000,168000000000,331416465,0,539158843,0.0752,0.01648,0.02072,0.00351,0.00375,0.01758,0.0006199,9.06e-05,0.1484,0.0202,3.831,0.01033,0,1,0
168000000000,168300000000,331416465,0,539158843,0.07605,0.01709,0.02133,0.004089,0.004333,0.01794,0.0006552,9.06e-05,0.1663,0.02115,4.293,0.01195,0,1,0
168300000000,168600000000,331416465,0,539158843,0.07788,0.01718,0.02167,0.004639,0.004875,0.01785,0.0005951,9.06e-05,0.1956,0.01828,4.026,0.01088,0,1,0
168600000000,168900000000,331416465,0,539158843,0.07727,0.01666,0.02145,0.002949,0.003189,0.0174,0.000535,9.06e-05,0.1704,0.02222,4.626,0.01301,0,1,0
168900000000,169200000000,331416465,0,539158843,0.07629,0.01648,0.02081,0.001728,0.001968,0.01743,0.0005951,9.06e-05,0.2002,0.02036,3.923,0.01052,0,1,0
169200000000,169500000000,331416465,0,539158843,0.07275,0.01663,0.02094,0.003067,0.003311,0.01715,0.0006332,9.06e-05,0.2053,0.02036,4.362,0.0121,0,1,0
169500000000,169800000000,331416465,0,539158843,0.07593,0.01663,0.02127,0.004913,0.00515,0.01691,0.0006838,9.155e-05,0.2009,0.02271,3.941,0.01051,0,1,0
169800000000,170100000000,331416465,0,539158843,0.07874,0.01663,0.02121,0.003159,0.003418,0.01715,0.0006256,9.155e-05,0.1797,0.0195,4.386,0.01191,0,1,0
170100000000,170400000000,331416465,0,539158843,0.08008,0.01657,0.02075,0.001999,0.002247,0.01743,0.0005808,9.155e-05,0.1794,0.01727,3.919,0.01042,0,1,0
170400000000,170700000000,331416465,0,539158843,0.07275,0.01645,0.02087,0.002216,0.002457,0.01709,0.0005655,9.155e-05,0.1667,0.01965,4.208,0.01152,0,1,0
170700000000,171000000000,331416465,0,539158843,0.07361,0.01657,0.02081,0.003654,0.003899,0.01712,0.000658,9.155e-05,0.1843,0.02322,3.874,0.01013,0,1,0
171000000000,171300000000,331416465,0,539158843,0.07117,0.01657,0.02094,0.002914,0.003155,0.01712,0.0005713,9.155e-05,0.1812,0.02823,4.262,0.01169,0,1,0
171300000000,171600000000,331416465,0,539158843,0.07214,0.01675,0.02106,0.003143,0.003384,0.01761,0.0005732,9.251e-05,0.1941,0.02893,3.779,0.009569,0,1,0
171600000000,171900000000,331416465,0,539158843,0.06995,0.01654,0.02097,0.004082,0.004326,0.01706,0.0005732,9.251e-05,0.1865,0.01987,4.594,0.01271,0,1,0
171900000000,172200000000,331416465,0,539158843,0.07214,0.01651,0.02084,0.003189,0.003429,0.01736,0.0006075,9.251e-05,0.1772,0.02271,4.35,0.0117,0,1,0
172200000000,172500000000,331416465,0,539158843,0.06836,0.01648,0.0209,0.003475,0.003719,0.01712,0.0005875,9.251e-05,0.1763,0.02509,4.625,0.01292,0,1,0
172500000000,172800000000,331416465,0,539158843,0.07092,0.01648,0.02081,0.003761,0.004005,0.01773,0.0006056,9.251e-05,0.1694,0.02036,3.974,0.01029,0,1,0
172800000000,173100000000,331416465,0,539158843,0.07263,0.01617,0.02066,0.003185,0.003426,0.0166,0.0005436,9.251e-05,0.1826,0.01907,4.759,0.01316,0,1,0
173100000000,173400000000,331416465,0,539158843,0.07251,0.0166,0.02072,0.003395,0.003639,0.01761,0.000577,9.251e-05,0.2207,0.0228,3.968,0.01036,0,1,0
173400000000,173700000000,331416465,0,539158843,0.07166,0.01648,0.0213,0.003582,0.003822,0.01703,0.0004625,9.251e-05,0.1697,0.01944,4.703,0.01295,0,1,0
173700000000,174000000000,331416465,0,539158843,0.06921,0.0163,0.02084,0.004059,0.004303,0.01712,0.0005398,9.346e-05,0.1787,0.02106,3.662,0.009446,0,1,0
174000000000,174300000000,331416465,0,539158843,0.06934,0.01642,0.021,0.004883,0.005127,0.01697,0.0005817,9.346e-05,0.2061,0.02429,4.505,0.01227,0,1,0
174300000000,174600000000,331416465,0,539158843,0.0686,0.0166,0.02106,0.005302,0.005547,0.01736,0.0005512,9.346e-05,0.1726,0.01801,4.419,0.01203,0,1,0
174600000000,174900000000,331416465,0,539158843,0.07031,0.01657,0.02097,0.003742,0.003983,0.01709,0.0006218,9.251e-05,0.2021,0.02692,4.732,0.01326,0,1,0
174900000000,175200000000,331416465,0,539158843,0.07458,0.01639,0.02097,0.002083,0.002323,0.01685,0.0005875,8.392e-05,0.1882,0.02185,4.139,0.01087,0,1,0
175200000000,175500000000,331416465,0,539158843,0.07117,0.01657,0.02097,0.002327,0.002571,0.01715,0.0005512,8.392e-05,0.2646,0.02106,4.715,0.01315,0,1,0
175500000000,175800000000,331416465,0,539158843,0.08215,0.01627,0.02106,0.001408,0.001652,0.01724,0.0005312,8.392e-05,0.2124,0.02051,4.274,0.01185,0,1,0
175800000000,176100000000,331416465,0,539158843,0.07776,0.01651,0.02112,0.002167,0.002411,0.01733,0.0005236,8.392e-05,0.1597,0.01599,4.985,0.0153,0,1,0
186300000000,186600000000,331416465,0,539158843,0.05981,0.01608,0.02097,0.003342,0.003582,0.01669,0.0004444,8.774e-05,0.1907,0.01286,3.823,0.01019,0,1,0
186600000000,186900000000,331416465,0,539158843,0.05817,0.01602,0.02054,0.004913,0.00515,0.01627,0.0004778,8.869e-05,0.1682,0.02042,4.563,0.01325,0,1,0
186900000000,187200000000,331416465,0,539158843,0.06055,0.01617,0.02078,0.004524,0.004768,0.01666,0.0005102,8.869e-05,0.1628,0.01956,3.769,0.01007,0,1,0
187200000000,187500000000,331416465,0,539158843,0.06018,0.01605,0.02069,0.00486,0.005096,0.01663,0.0004225,8.869e-05,0.1809,0.01663,4.392,0.01235,0,1,0
187500000000,187800000000,331416465,0,539158843,0.06073,0.0162,0.02087,0.005196,0.00544,0.01691,0.0004826,8.869e-05,0.1431,0.01599,3.93,0.01053,0,1,0
187800000000,188100000000,331416465,0,539158843,0.06396,0.01639,0.02087,0.004135,0.004379,0.01736,0.0005226,8.869e-05,0.1733,0.022,4.767,0.01333,0,1,0
188100000000,188400000000,331416465,0,539158843,0.06433,0.01639,0.02075,0.003845,0.004089,0.01733,0.0005703,8.869e-05,0.2148,0.0195,4.363,0.01173,0,1,0
188400000000,188700000000,331416465,0,539158843,0.05762,0.01608,0.02066,0.002678,0.002918,0.01672,0.0005064,8.869e-05,0.1611,0.02164,4.731,0.01349,0,1,0
188700000000,189000000000,331416465,0,539158843,0.06171,0.01627,0.02072,0.003311,0.003551,0.01691,0.0005035,8.869e-05,0.1224,0.02142,4.172,0.01134,0,1,0
189000000000,189300000000,331416465,0,539158843,0.05786,0.01617,0.0206,0.003574,0.003815,0.01654,0.0004616,8.869e-05,0.1448,0.02063,4.798,0.01365,0,1,0
189300000000,189600000000,331416465,0,539158843,0.05719,0.01611,0.02057,0.004051,0.004295,0.0166,0.0004606,8.965e-05,0.1313,0.01736,4.411,0.01243,0,1,0
189600000000,189900000000,331416465,0,539158843,0.05383,0.01599,0.02042,0.00457,0.004807,0.01645,0.0004463,8.965e-05,0.1289,0.01785,4.806,0.01423,0,1,0
189900000000,190200000000,331416465,0,539158843,0.05731,0.01608,0.0206,0.00499,0.005234,0.01648,0.0005035,8.965e-05,0.1455,0.021,4.066,0.01088,0,1,0
190200000000,190500000000,331416465,0,539158843,0.06207,0.01605,0.02069,0.003418,0.003658,0.01703,0.0004292,8.965e-05,0.1707,0.01457,4.455,0.01247,0,1,0
190500000000,190800000000,331416465,0,539158843,0.06372,0.01611,0.02048,0.004639,0.004883,0.01654,0.0004072,8.965e-05,0.1394,0.01901,3.832,0.009763,0,1,0
190800000000,191100000000,331416465,0,539158843,0.0636,0.01611,0.02057,0.004669,0.004913,0.01685,0.0004587,8.965e-05,0.2151,0.01901,4.445,0.01235,0,1,0
191100000000,191400000000,331416465,0,539158843,0.05884,0.01602,0.02063,0.001879,0.002121,0.01672,0.0005093,8.965e-05,0.2034,0.02029,4.394,0.01236,0,1,0
191400000000,191700000000,331416465,0,539158843,0.05884,0.01617,0.02075,0.002048,0.002289,0.01669,0.0004635,8.965e-05,0.1306,0.01642,4.491,0.01277,0,1,0
191700000000,192000000000,331416465,0,539158843,0.05432,0.01605,0.0206,0.003109,0.003353,0.01691,0.0003757,8.965e-05,0.1638,0.01721,4.348,0.01251,0,1,0
192000000000,192300000000,331416465,0,539158843,0.05597,0.01617,0.02075,0.003139,0.003384,0.017,0.0004559,8.965e-05,0.1509,0.02301,4.168,0.0116,0,1,0
192300000000,192600000000,331416465,0,539158843,0.06213,0.01636,0.02078,0.003456,0.0037,0.01709,0.0004721,8.965e-05,0.2573,0.01685,4.011,0.01063,0,1,0
192600000000,192900000000,331416465,0,539158843,0.05786,0.01602,0.02063,0.002258,0.002499,0.01663,0.0003986,8.965e-05,0.1565,0.01706,4.53,0.01284,0,1,0
192900000000,193200000000,331416465,0,539158843,0.05884,0.01617,0.02072,0.002316,0.00256,0.017,0.0004749,9.06e-05,0.1428,0.02228,3.955,0.01073,0,1,0
193200000000,193500000000,331416465,0,539158843,0.05487,0.01596,0.02051,0.003792,0.004028,0.01651,0.0003967,9.06e-05,0.1826,0.01822,3.643,0.01013,0,1,0
193500000000,193800000000,331416465,0,539158843,0.05603,0.01624,0.02078,0.004395,0.004639,0.01682,0.0004053,9.06e-05,0.1399,0.0163,3.915,0.01056,0,1,0
193800000000,194100000000,331416465,0,539158843,0.05542,0.01605,0.02066,0.004028,0.004272,0.01675,0.0004187,9.06e-05,0.1538,0.01886,4.23,0.01206,0,1,0
194100000000,194400000000,331416465,0,539158843,0.05774,0.01593,0.0206,0.004257,0.004494,0.01633,0.0004559,9.06e-05,0.1721,0.01743,3.956,0.01049,0,1,0
194400000000,194700000000,331416465,0,539158843,0.05389,0.01587,0.02045,0.004875,0.005112,0.01636,0.0003862,9.06e-05,0.1738,0.01944,4.374,0.01238,0,1,0
194700000000,195000000000,331416465,0,539158843,0.05719,0.01611,0.0206,0.004974,0.005219,0.01678,0.0003901,9.06e-05,0.1626,0.01694,3.936,0.01026,0,1,0
195000000000,195300000000,331416465,0,539158843,0.05493,0.01596,0.02057,0.00544,0.005676,0.01642,0.0004473,9.06e-05,0.1516,0.0162,4.686,0.01376,0,1,0
195300000000,195600000000,331416465,0,539158843,0.05261,0.01605,0.02072,0.00428,0.004517,0.01669,0.0004225,9.06e-05,0.1592,0.01993,4.321,0.0122,0,1,0
195600000000,195900000000,331416465,0,539158843,0.05078,0.01596,0.02057,0.003471,0.003712,0.01648,0.0004091,9.155e-05,0.1536,0.01694,4.256,0.01215,0,1,0
195900000000,196200000000,331416465,0,539158843,0.0542,0.01602,0.02075,0.004646,0.004883,0.01645,0.0004005,9.155e-05,0.1421,0.01414,3.796,0.01029,0,1,0
201300000000,201600000000,331416465,0,539158843,0.05151,0.01608,0.02084,0.005112,0.005356,0.01697,0.0004292,8.297e-05,0.1431,0.01843,3.751,0.01075,0,1,0
201600000000,201900000000,331416465,0,539158843,0.05182,0.01596,0.02057,0.005104,0.005341,0.01645,0.0003719,8.297e-05,0.1282,0.01566,4.046,0.01186,0,1,0
201900000000,202200000000,331416465,0,539158843,0.05151,0.01617,0.02081,0.004822,0.005058,0.01691,0.000473,8.297e-05,0.1277,0.01822,3.64,0.01022,0,1,0
202200000000,202500000000,331416465,0,539158843,0.05225,0.01593,0.02054,0.004341,0.004578,0.01639,0.0004168,8.297e-05,0.2417,0.01901,4.478,0.01377,0,1,0
202500000000,202800000000,331416465,0,539158843,0.05804,0.01575,0.02039,0.003723,0.003967,0.01617,0.0004587,8.392e-05,0.1643,0.01721,3.913,0.0108,0,1,0
202800000000,203100000000,331416465,0,539158843,0.05188,0.01581,0.02032,0.004356,0.004601,0.01614,0.000391,8.392e-05,0.1335,0.017,4.743,0.01454,0,1,0
203100000000,203400000000,331416465,0,539158843,0.052,0.01593,0.02075,0.003784,0.004028,0.01678,0.0004234,8.392e-05,0.1396,0.01529,3.904,0.011,0,1,0
203400000000,203700000000,331416465,0,539158843,0.04712,0.01569,0.02054,0.00388,0.00412,0.01624,0.0003891,8.297e-05,0.1284,0.01758,4.594,0.01403,0,1,0
203700000000,204000000000,331416465,0,539158843,0.05011,0.01581,0.02042,0.004326,0.004562,0.01611,0.0003996,8.297e-05,0.1348,0.01479,4.1,0.01165,0,1,0
204000000000,204300000000,331416465,0,539158843,0.04596,0.01552,0.02036,0.003929,0.004173,0.01584,0.0003605,8.297e-05,0.1365,0.01721,4.86,0.0147,0,1,0
204300000000,204600000000,331416465,0,539158843,0.047,0.01544,0.02032,0.001898,0.00214,0.01581,0.0003519,8.297e-05,0.1926,0.01779,3.984,0.01087,0,1,0
204600000000,204900000000,331416465,0,539158843,0.04535,0.01552,0.02029,0.002483,0.002724,0.01581,0.000412,8.297e-05,0.1167,0.01758,5.448,0.01755,0,1,0
204900000000,205200000000,331416465,0,539158843,0.04456,0.01552,0.02032,0.002983,0.003223,0.01581,0.0003872,8.297e-05,0.1185,0.02051,4.264,0.01247,0,1,0
205200000000,205500000000,331416465,0,539158843,0.04407,0.01546,0.02029,0.003117,0.003357,0.01575,0.0003939,8.392e-05,0.1462,0.01715,5.123,0.01593,0,1,0
205500000000,205800000000,331416465,0,539158843,0.04602,0.01566,0.02029,0.002182,0.002422,0.01599,0.0003376,8.297e-05,0.134,0.0135,4.284,0.01235,0,1,0
205800000000,206100000000,331416465,0,539158843,0.04657,0.01566,0.02029,0.004005,0.00425,0.0159,0.000392,8.392e-05,0.1292,0.01428,5.462,0.01713,0,1,0
206100000000,206400000000,331416465,0,539158843,0.04645,0.01561,0.02026,0.004272,0.004517,0.01581,0.0003891,8.297e-05,0.1304,0.01843,4.14,0.01192,0,1,0
206400000000,206700000000,331416465,0,539158843,0.04694,0.01558,0.02029,0.002937,0.003181,0.01578,0.0004234,8.392e-05,0.1609,0.01514,5.575,0.01769,0,1,0
206700000000,207000000000,331416465,0,539158843,0.04755,0.01544,0.02029,0.002708,0.002953,0.01587,0.0003357,8.392e-05,0.1274,0.01157,4.834,0.01506,0,1,0
207000000000,207300000000,331416465,0,539158843,0.04907,0.01546,0.02029,0.003174,0.003418,0.01587,0.0003405,8.392e-05,0.1162,0.01279,4.906,0.01468,0,1,0
207300000000,207600000000,331416465,0,539158843,0.0509,0.01556,0.02026,0.004616,0.00486,0.01587,0.0003862,8.392e-05,0.1792,0.01443,4.876,0.01494,0,1,0
207600000000,207900000000,331416465,0,539158843,0.05103,0.01566,0.02026,0.004921,0.005165,0.0159,0.0003805,8.392e-05,0.1241,0.01199,5.384,0.01775,0,1,0
207900000000,208200000000,331416465,0,539158843,0.05273,0.01566,0.02023,0.005386,0.00563,0.0159,0.0004148,8.392e-05,0.136,0.01608,4.435,0.01346,0,1,0
208200000000,208500000000,331416465,0,539158843,0.05219,0.01566,0.02023,0.005363,0.005608,0.01593,0.0003881,8.392e-05,0.1438,0.01343,5.073,0.01593,0,1,0
208500000000,208800000000,331416465,0,539158843,0.05127,0.01575,0.02026,0.003841,0.004082,0.01617,0.0004349,8.392e-05,0.1279,0.01215,4.284,0.01194,0,1,0
208800000000,209100000000,331416465,0,539158843,0.0506,0.01575,0.02026,0.003613,0.003853,0.01608,0.0004406,8.392e-05,0.2141,0.01828,4.666,0.01398,0,1,0
209100000000,209400000000,331416465,0,539158843,0.05487,0.01581,0.02023,0.003464,0.003704,0.01642,0.0004482,8.392e-05,0.1865,0.01791,3.622,0.009778,0,1,0
209400000000,209700000000,331416465,0,539158843,0.05627,0.01587,0.02023,0.004707,0.004944,0.01611,0.000412,8.392e-05,0.1514,0.01422,5.097,0.01518,0,1,0
209700000000,210000000000,331416465,0,539158843,0.05597,0.01572,0.02026,0.002777,0.003017,0.01605,0.0003586,8.392e-05,0.1375,0.0188,4.225,0.01185,0,1,0
210000000000,210300000000,331416465,0,539158843,0.0545,0.01578,0.02026,0.00235,0.00259,0.01599,0.0004063,8.392e-05,0.1667,0.01843,5.226,0.01608,0,1,0
210300000000,210600000000,331416465,0,539158843,0.05072,0.01584,0.02026,0.004181,0.004425,0.01605,0.0004549,8.392e-05,0.1118,0.01727,4.976,0.01528,0,1,0
210600000000,210900000000,331416465,0,539158843,0.05457,0.01584,0.02026,0.003719,0.00396,0.0162,0.0004005,8.392e-05,0.124,0.01721,5.164,0.0161,0,1,0
210900000000,211200000000,331416465,0,539158843,0.05511,0.01587,0.02026,0.003681,0.003922,0.0162,0.0004234,8.392e-05,0.1282,0.01543,5.382,0.01731,0,1,0
211200000000,211500000000,331416465,0,539158843,0.05963,0.0159,0.0202,0.005211,0.005455,0.01614,0.0004816,8.488e-05,0.1694,0.02008,5.542,0.01747,0,1,0
211500000000,211800000000,331416465,0,539158843,0.05975,0.01587,0.02063,0.005165,0.005409,0.01639,0.0004158,8.488e-05,0.1292,0.01715,4.424,0.0126,0,1,0
211800000000,212100000000,331416465,0,539158843,0.05951,0.01562,0.02051,0.004211,0.004456,0.01599,0.0003338,8.488e-05,0.1943,0.01566,5.355,0.01678,0,1,0
212100000000,212400000000,331416465,0,539158843,0.06396,0.01566,0.02036,0.004326,0.00457,0.01608,0.0004797,8.488e-05,0.2007,0.02051,4.368,0.01214,0,1,0
212400000000,212700000000,331416465,0,539158843,0.0556,0.01569,0.02032,0.002316,0.00256,0.01611,0.000412,8.488e-05,0.1873,0.017,4.459,0.01311,0,1,0
212700000000,213000000000,331416465,0,539158843,0.05359,0.01581,0.02032,0.001915,0.002155,0.01608,0.000432,8.488e-05,0.137,0.01865,4.725,0.01386,0,1,0
213000000000,213300000000,331416465,0,539158843,0.05591,0.01578,0.02029,0.003014,0.003258,0.01614,0.0004435,8.488e-05,0.1492,0.01678,4.434,0.01279,0,1,0
213300000000,213600000000,331416465,0,539158843,0.05377,0.01584,0.02063,0.004349,0.004593,0.0162,0.0004063,8.488e-05,0.1154,0.01743,4.608,0.01358,0,1,0
213600000000,213900000000,331416465,0,539158843,0.05151,0.01596,0.0206,0.00489,0.005127,0.01724,0.0004044,8.488e-05,0.1355,0.01465,4.935,0.01505,0,1,0
213900000000,214200000000,331416465,0,539158843,0.05347,0.01581,0.02045,0.004196,0.00444,0.01611,0.0004244,8.488e-05,0.1509,0.0195,4.016,0.01099,0,1,0
214200000000,214500000000,331416465,0,539158843,0.05341,0.01581,0.02039,0.002892,0.003136,0.0162,0.0004206,8.488e-05,0.1714,0.01779,4.332,0.01222,0,1,0
214500000000,214800000000,331416465,0,539158843,0.05469,0.01584,0.02057,0.002613,0.002857,0.01691,0.0004892,8.583e-05,0.1445,0.01935,4.434,0.01285,0,1,0
214800000000,215100000000,331416465,0,539158843,0.0509,0.01575,0.02066,0.003258,0.003502,0.01611,0.0004215,8.583e-05,0.1497,0.01651,4.907,0.01504,0,1,0
215100000000,215400000000,331416465,0,539158843,0.05249,0.01581,0.02045,0.003624,0.003864,0.01627,0.0004339,8.583e-05,0.1205,0.01486,3.743,0.01015,0,1,0
215400000000,215700000000,331416465,0,539158843,0.05328,0.01581,0.02032,0.005318,0.005562,0.01611,0.0004177,8.583e-05,0.1794,0.02078,4.195,0.01194,0,1,0
215700000000,216000000000,331416465,0,539158843,0.0542,0.01578,0.02029,0.00338,0.003624,0.01599,0.0004425,8.583e-05,0.1433,0.01929,3.946,0.01099,0,1,0
216000000000,216300000000,331416465,0,539158843,0.05505,0.01566,0.02026,0.001511,0.001753,0.01611,0.0004063,8.583e-05,0.1277,0.01987,4.495,0.01335,0,1,0
221100000000,221400000000,331416465,0,539158843,0.06836,0.01611,0.02084,0.003235,0.003479,0.01709,0.0005817,8.774e-05,0.2549,0.01816,4.155,0.01162,0,1,0
221400000000,221700000000,331416465,0,539158843,0.06555,0.0162,0.02066,0.002789,0.003033,0.01718,0.0005074,8.774e-05,0.1768,0.01816,4.674,0.01366,0,1,0
221700000000,222000000000,331416465,0,539158843,0.07214,0.01627,0.02072,0.003422,0.003666,0.01682,0.0005322,8.774e-05,0.1951,0.01736,4.274,0.01192,0,1,0
222000000000,222300000000,331416465,0,539158843,0.07178,0.01636,0.02145,0.005692,0.005928,0.017,0.000473,8.774e-05,0.1792,0.013,4.454,0.01278,0,1,0
222300000000,222600000000,331416465,0,539158843,0.07068,0.01633,0.02081,0.004318,0.004562,0.01694,0.0005007,8.869e-05,0.2251,0.01378,3.855,0.01025,0,1,0
222600000000,222900000000,331416465,0,539158843,0.07092,0.01627,0.02081,0.002602,0.002842,0.01685,0.0005445,8.869e-05,0.2229,0.02014,4.364,0.01232,0,1,0
222900000000,223200000000,331416465,0,539158843,0.06775,0.01639,0.02109,0.003967,0.004211,0.01706,0.0005789,8.869e-05,0.1641,0.01743,4.32,0.01232,0,1,0
223200000000,223500000000,331416465,0,539158843,0.07385,0.01651,0.02155,0.005188,0.005432,0.0173,0.0005569,8.869e-05,0.1836,0.02029,4.258,0.012,0,1,0
223500000000,223800000000,331416465,0,539158843,0.07605,0.0166,0.02194,0.005463,0.005707,0.01712,0.0005703,8.869e-05,0.1902,0.01721,4.274,0.01191,0,1,0
223800000000,224100000000,331416465,0,539158843,0.08154,0.01657,0.02228,0.005989,0.006233,0.01727,0.0006056,8.869e-05,0.1689,0.02158,4.784,0.01397,0,1,0
224100000000,224400000000,331416465,0,539158843,0.07715,0.01685,0.02219,0.003483,0.003727,0.01773,0.000535,8.965e-05,0.1777,0.02036,4.45,0.01328,0,1,0
224400000000,224700000000,331416465,0,539158843,0.07605,0.01678,0.02209,0.00346,0.003704,0.01767,0.0005875,8.965e-05,0.1711,0.02042,4.207,0.01223,0,1,0
224700000000,225000000000,331416465,0,539158843,0.07861,0.01675,0.02182,0.004074,0.004318,0.01764,0.0005798,8.965e-05,0.1697,0.0275,4.173,0.01208,0,1,0
225000000000,225300000000,331416465,0,539158843,0.07629,0.01675,0.02222,0.003677,0.003922,0.01773,0.0005808,8.965e-05,0.1738,0.01599,4.253,0.01241,0,1,0
225300000000,225600000000,331416465,0,539158843,0.08362,0.01675,0.02209,0.006439,0.006683,0.01736,0.000617,8.965e-05,0.1875,0.01779,3.981,0.01089,0,1,0
225600000000,225900000000,331416465,0,539158843,0.08765,0.01663,0.02164,0.002449,0.002693,0.01743,0.0006399,9.06e-05,0.2661,0.02014,4.257,0.01139,0,1,0
225900000000,226200000000,331416465,0,539158843,0.08325,0.01678,0.02087,0.004051,0.004295,0.01746,0.0005503,9.06e-05,0.2041,0.02121,3.855,0.01011,0,1,0
226200000000,226500000000,331416465,0,539158843,0.08386,0.01666,0.02127,0.004044,0.004288,0.01733,0.0006199,9.06e-05,0.2681,0.02335,4.215,0.01155,0,1,0
226500000000,226800000000,331416465,0,539158843,0.08228,0.01654,0.02115,0.003006,0.00325,0.01736,0.0005932,9.06e-05,0.2002,0.02292,4.261,0.01175,0,1,0
226800000000,227100000000,331416465,0,539158843,0.08765,0.01678,0.02121,0.004532,0.004776,0.01761,0.0006304,9.06e-05,0.2144,0.02121,4.213,0.01157,0,1,0
227100000000,227400000000,331416465,0,539158843,0.08911,0.01675,0.021,0.004723,0.004959,0.01736,0.0006514,9.155e-05,0.2114,0.02356,4.009,0.01058,0,1,0
227400000000,227700000000,331416465,0,539158843,0.0885,0.01669,0.02094,0.004333,0.00457,0.0173,0.0006638,9.155e-05,0.179,0.02115,4.411,0.01252,0,1,0
227700000000,228000000000,331416465,0,539158843,0.08948,0.01666,0.02133,0.004204,0.004448,0.01727,0.0005846,9.155e-05,0.208,0.01657,4.024,0.01089,0,1,0
228000000000,228300000000,331416465,0,539158843,0.0918,0.01672,0.0217,0.003159,0.003399,0.0174,0.0006762,9.155e-05,0.2253,0.02014,4.552,0.01308,0,1,0
228300000000,228600000000,331416465,0,539158843,0.08264,0.01678,0.02118,0.002998,0.003239,0.01779,0.0005665,9.155e-05,0.166,0.02127,3.734,0.009999,0,1,0
228600000000,228900000000,331416465,0,539158843,0.08667,0.01663,0.02124,0.003128,0.003368,0.01715,0.0005674,9.155e-05,0.2239,0.02029,4.101,0.01122,0,1,0
228900000000,229200000000,331416465,0,539158843,0.08838,0.01663,0.02112,0.002869,0.003109,0.01761,0.0006723,9.251e-05,0.1902,0.02243,4.071,0.01097,0,1,0
229200000000,229500000000,331416465,0,539158843,0.08972,0.01703,0.02133,0.004646,0.00489,0.01785,0.0006943,9.251e-05,0.1848,0.02893,4.274,0.01131,0,1,0
229500000000,229800000000,331416465,0,539158843,0.08496,0.01685,0.02103,0.002674,0.002914,0.01779,0.0005274,9.251e-05,0.1831,0.02151,3.975,0.01046,0,1,0
229800000000,230100000000,331416465,0,539158843,0.08447,0.01682,0.02087,0.00246,0.002705,0.01797,0.0007181,9.251e-05,0.2285,0.02271,4.097,0.01061,0,1,0
230100000000,230400000000,331416465,0,539158843,0.07971,0.01678,0.02109,0.004387,0.004631,0.01764,0.000598,9.251e-05,0.1655,0.01801,3.914,0.0105,0,1,0
230400000000,230700000000,331416465,0,539158843,0.07959,0.01636,0.02078,0.002571,0.002811,0.01721,0.0006628,9.346e-05,0.2085,0.02228,4.082,0.01091,0,1,0
230700000000,231000000000,331416465,0,539158843,0.08044,0.01666,0.02103,0.003025,0.003269,0.0177,0.0005989,9.346e-05,0.1965,0.02542,4.034,0.01056,0,1,0
231000000000,231300000000,331416465,0,539158843,0.08008,0.01672,0.02097,0.002213,0.002457,0.01791,0.000597,9.346e-05,0.2087,0.01901,4.165,0.01137,0,1,0
231300000000,231600000000,331416465,0,539158843,0.08289,0.0166,0.02081,0.003384,0.003624,0.0174,0.0006628,9.346e-05,0.189,0.02078,3.987,0.01058,0,1,0
231600000000,231900000000,331416465,0,539158843,0.08423,0.01636,0.02075,0.003899,0.004135,0.01685,0.0005903,9.346e-05,0.1963,0.022,4.401,0.0121,0,1,0
231900000000,232200000000,331416465,0,539158843,0.08826,0.01694,0.02185,0.004372,0.004616,0.01797,0.0006771,9.441e-05,0.2102,0.02777,4.043,0.01096,0,1,0
232200000000,232500000000,331416465,0,539158843,0.08643,0.01688,0.02097,0.004097,0.004341,0.01761,0.0007048,9.251e-05,0.2043,0.03027,4.224,0.01183,0,1,0
232500000000,232800000000,331416465,0,539158843,0.08716,0.01675,0.02106,0.003899,0.004143,0.01746,0.0006762,8.488e-05,0.2222,0.02142,3.924,0.01034,0,1,0
232800000000,233100000000,331416465,0,539158843,0.08765,0.01654,0.02097,0.004074,0.004311,0.01755,0.000617,8.488e-05,0.2837,0.02173,4.171,0.01146,0,1,0
233100000000,233400000000,331416465,0,539158843,0.08582,0.01688,0.02097,0.004494,0.004738,0.01749,0.0007143,8.488e-05,0.1853,0.02014,3.822,0.01004,0,1,0
233400000000,233700000000,331416465,0,539158843,0.0918,0.0166,0.02087,0.004349,0.004593,0.01743,0.0006161,8.488e-05,0.1902,0.01944,4.265,0.01159,0,1,0
233700000000,234000000000,331416465,0,539158843,0.0885,0.01663,0.021,0.003017,0.003258,0.01736,0.0006857,8.488e-05,0.2102,0.0253,4.026,0.01062,0,1,0
234000000000,234300000000,331416465,0,539158843,0.08484,0.01666,0.02112,0.002491,0.002731,0.01721,0.0006647,8.488e-05,0.1699,0.02301,4.166,0.01121,0,1,0
234300000000,234600000000,331416465,0,539158843,0.08569,0.01669,0.02081,0.003513,0.003754,0.0174,0.0006981,8.583e-05,0.2463,0.02301,4.086,0.01116,0,1,0
234600000000,234900000000,331416465,0,539158843,0.08447,0.01688,0.02097,0.00251,0.002754,0.01761,0.0007133,8.583e-05,0.2622,0.02051,4.318,0.01186,0,1,0
234900000000,235200000000,331416465,0,539158843,0.08545,0.01663,0.02097,0.002682,0.002922,0.01727,0.0007372,8.583e-05,0.1951,0.02237,3.925,0.01028,0,1,0
235200000000,235500000000,331416465,0,539158843,0.08325,0.017,0.02112,0.002377,0.002621,0.01828,0.0005779,8.678e-05,0.23,0.01935,3.945,0.01059,0,1,0
235500000000,235800000000,331416465,0,539158843,0.08411,0.01682,0.02072,0.003387,0.003632,0.01718,0.0006552,8.678e-05,0.1787,0.02921,4.144,0.01123,0,1,0
235800000000,236100000000,331416465,0,539158843,0.08704,0.01691,0.02081,0.003716,0.00396,0.01773,0.0006962,8.678e-05,0.179,0.02441,4.027,0.01073,0,1,0
236100000000,236400000000,331416465,0,539158843,0.0874,0.01685,0.02115,0.004303,0.004547,0.01746,0.0006628,8.678e-05,0.2351,0.02258,3.834,0.01003,0,1,0
241200000000,241500000000,331416465,0,539158843,0.08337,0.01666,0.02094,0.002934,0.003174,0.017,0.0006218,8.965e-05,0.2126,0.01971,4.099,0.01104,0,1,0
241500000000,241800000000,331416465,0,539158843,0.08691,0.01663,0.0213,0.002857,0.003098,0.01736,0.000536,8.965e-05,0.2324,0.0155,3.974,0.01062,0,1,0
241800000000,242100000000,331416465,0,539158843,0.08948,0.017,0.02115,0.003742,0.003983,0.01764,0.0006485,8.965e-05,0.1887,0.02115,4.184,0.01134,0,1,0
242100000000,242400000000,331416465,0,539158843,0.08899,0.01672,0.02115,0.003677,0.003922,0.01718,0.0007038,8.965e-05,0.2307,0.01913,4.099,0.011,0,1,0
242400000000,242700000000,331416465,0,539158843,0.08777,0.01666,0.02109,0.003502,0.003742,0.01721,0.0006027,8.965e-05,0.2322,0.01636,4.496,0.01263,0,1,0
242700000000,243000000000,331416465,0,539158843,0.08484,0.0166,0.02136,0.005112,0.005356,0.017,0.0007124,9.06e-05,0.1802,0.02036,4.102,0.01112,0,1,0
243000000000,243300000000,331416465,0,539158843,0.08398,0.01691,0.02228,0.004234,0.004471,0.01797,0.000555,9.06e-05,0.2161,0.02551,4.433,0.01214,0,1,0
243300000000,243600000000,331416465,0,539158843,0.08105,0.01678,0.02231,0.005981,0.006226,0.0173,0.0005999,9.06e-05,0.2632,0.01572,3.887,0.01048,0,1,0
243600000000,243900000000,331416465,0,539158843,0.08044,0.01682,0.02219,0.006248,0.006493,0.01776,0.0005503,9.06e-05,0.1963,0.01828,4.698,0.01412,0,1,0
243900000000,244200000000,331416465,0,539158843,0.07825,0.01685,0.022,0.004547,0.004791,0.01755,0.0006208,9.06e-05,0.196,0.02237,4.127,0.01164,0,1,0
244200000000,244500000000,331416465,0,539158843,0.07922,0.01657,0.02133,0.002548,0.002789,0.017,0.000576,9.06e-05,0.207,0.01923,4.473,0.01307,0,1,0
244500000000,244800000000,331416465,0,539158843,0.07837,0.0166,0.02121,0.002522,0.002766,0.01706,0.0006218,9.06e-05,0.1855,0.01801,4.245,0.0123,0,1,0
244800000000,245100000000,331416465,0,539158843,0.07861,0.01685,0.0217,0.004936,0.005173,0.01764,0.0005589,9.155e-05,0.2246,0.0202,4.441,0.013,0,1,0
245100000000,245400000000,331416465,0,539158843,0.07898,0.01709,0.02167,0.004082,0.004326,0.01822,0.0005636,9.155e-05,0.2422,0.01993,4.111,0.0108,0,1,0
245400000000,245700000000,331416465,0,539158843,0.07898,0.01675,0.02072,0.004311,0.004547,0.0174,0.000617,9.155e-05,0.1812,0.02292,4.116,0.01107,0,1,0
245700000000,246000000000,331416465,0,539158843,0.07471,0.01675,0.0213,0.003967,0.004204,0.0174,0.0004654,9.155e-05,0.2021,0.01892,4.006,0.01026,0,1,0
246000000000,246300000000,331416465,0,539158843,0.07422,0.01688,0.02179,0.00502,0.005257,0.01736,0.0004807,9.155e-05,0.1787,0.01791,3.986,0.009906,0,1,0
251400000000,251700000000,331416465,0,539158843,0.0675,0.01642,0.021,0.002399,0.00264,0.01694,0.0004845,8.392e-05,0.1646,0.02029,4.112,0.01168,0,1,0
251700000000,252000000000,331416465,0,539158843,0.06812,0.01633,0.02087,0.003864,0.004105,0.01703,0.0005054,8.392e-05,0.1392,0.02014,3.893,0.01088,0,1,0
252000000000,252300000000,331416465,0,539158843,0.06738,0.01636,0.02109,0.003777,0.004021,0.01691,0.0004969,8.488e-05,0.1572,0.01678,4.107,0.01177,0,1,0
252300000000,252600000000,331416465,0,539158843,0.06665,0.01627,0.0206,0.00322,0.00346,0.01669,0.0004873,8.488e-05,0.1763,0.01636,3.777,0.01048,0,1,0
252600000000,252900000000,331416465,0,539158843,0.06885,0.01639,0.02087,0.003479,0.003719,0.01675,0.0005074,8.488e-05,0.2124,0.01871,4.056,0.0118,0,1,0
252900000000,253200000000,331416465,0,539158843,0.06592,0.0163,0.02078,0.004784,0.005028,0.01672,0.0005064,8.488e-05,0.187,0.02216,3.718,0.01038,0,1,0
253200000000,253500000000,331416465,0,539158843,0.06628,0.01624,0.02081,0.004784,0.00502,0.01669,0.0005703,8.488e-05,0.1487,0.01721,4.05,0.01184,0,1,0
253500000000,253800000000,331416465,0,539158843,0.06531,0.01651,0.02084,0.004723,0.004967,0.01724,0.0004644,8.583e-05,0.1953,0.01843,3.919,0.01135,0,1,0
253800000000,254100000000,331416465,0,539158843,0.06006,0.01654,0.021,0.005005,0.005241,0.017,0.0005703,8.583e-05,0.1831,0.01791,4.069,0.01207,0,1,0
254100000000,254400000000,331416465,0,539158843,0.06262,0.01642,0.0209,0.003571,0.003811,0.01675,0.0005608,8.583e-05,0.1614,0.02451,3.717,0.009504,0,1,0
254400000000,254700000000,331416465,0,539158843,0.06531,0.01633,0.02084,0.003468,0.003712,0.01694,0.0005322,8.583e-05,0.1726,0.01993,3.984,0.01042,0,1,0
254700000000,255000000000,331416465,0,539158843,0.06445,0.01651,0.02103,0.003277,0.003521,0.01706,0.0005875,8.583e-05,0.1433,0.02173,3.752,0.009386,0,1,0
255000000000,255300000000,331416465,0,539158843,0.06458,0.01651,0.021,0.003098,0.003342,0.01697,0.0005627,8.583e-05,0.2095,0.02573,3.699,0.009188,0,1,0
255300000000,255600000000,331416465,0,539158843,0.06763,0.01642,0.02081,0.003483,0.003723,0.01688,0.0005703,8.678e-05,0.2056,0.02658,3.822,0.009989,0,1,0
255600000000,255900000000,331416465,0,539158843,0.07373,0.01648,0.02097,0.004494,0.00473,0.01715,0.0004683,8.583e-05,0.1865,0.01593,4.361,0.01256,0,1,0
255900000000,256200000000,331416465,0,539158843,0.07239,0.01645,0.02115,0.004066,0.004311,0.01727,0.0004282,8.583e-05,0.186,0.01401,4.249,0.01189,0,1,0
256200000000,256500000000,331416465,0,539158843,0.06848,0.01639,0.02087,0.005127,0.005371,0.01706,0.0004807,8.678e-05,0.2173,0.02408,4.432,0.01275,0,1,0
256500000000,256800000000,331416465,0,539158843,0.06348,0.01657,0.02151,0.004517,0.004761,0.01715,0.0005035,8.678e-05,0.1689,0.01566,4.367,0.01244,0,1,0
256800000000,257100000000,331416465,0,539158843,0.06482,0.0163,0.0206,0.004936,0.005173,0.01669,0.000493,8.678e-05,0.1687,0.01572,4.451,0.0127,0,1,0
257100000000,257400000000,331416465,0,539158843,0.06555,0.0162,0.02066,0.003887,0.004128,0.01666,0.0004749,8.678e-05,0.1572,0.01521,4.081,0.01134,0,1,0
257400000000,257700000000,331416465,0,539158843,0.06665,0.01633,0.02087,0.004364,0.004608,0.017,0.0005493,8.678e-05,0.1707,0.02194,4.519,0.01348,0,1,0
257700000000,258000000000,331416465,0,539158843,0.06177,0.01617,0.0206,0.004395,0.004639,0.01663,0.0004368,8.678e-05,0.1433,0.01822,3.963,0.01075,0,1,0
258000000000,258300000000,331416465,0,539158843,0.06287,0.0162,0.02084,0.003426,0.003666,0.01672,0.0005589,8.678e-05,0.1934,0.01907,4.201,0.0116,0,1,0
258300000000,258600000000,331416465,0,539158843,0.06287,0.01611,0.02078,0.004974,0.005219,0.01651,0.0004625,8.678e-05,0.1841,0.01457,3.91,0.01068,0,1,0
258600000000,258900000000,331416465,0,539158843,0.06738,0.0162,0.02066,0.004112,0.004349,0.01749,0.0004683,8.774e-05,0.2393,0.01807,4.471,0.01325,0,1,0
258900000000,259200000000,331416465,0,539158843,0.06055,0.01611,0.02063,0.004623,0.00486,0.01685,0.0004721,8.774e-05,0.1628,0.01736,4.585,0.01403,0,1,0
259200000000,259500000000,331416465,0,539158843,0.05835,0.01593,0.02054,0.00351,0.00375,0.0163,0.0004463,8.774e-05,0.1606,0.01886,4.486,0.01348,0,1,0
259500000000,259800000000,331416465,0,539158843,0.05927,0.01602,0.0206,0.004623,0.004868,0.01672,0.0004282,8.774e-05,0.1555,0.01987,4.649,0.01434,0,1,0
259800000000,260100000000,331416465,0,539158843,0.06335,0.01602,0.0206,0.005119,0.005363,0.01666,0.0004282,8.774e-05,0.1824,0.01508,4.775,0.01488,0,1,0
260100000000,260400000000,331416465,0,539158843,0.06177,0.01599,0.02048,0.005295,0.005539,0.01645,0.0004635,8.774e-05,0.1812,0.01801,4.077,0.0116,0,1,0
260400000000,260700000000,331416465,0,539158843,0.05658,0.01596,0.0206,0.002449,0.002689,0.01697,0.0004358,8.774e-05,0.2214,0.01736,4.429,0.01352,0,1,0
260700000000,261000000000,331416465,0,539158843,0.0528,0.01599,0.02066,0.002506,0.00275,0.01663,0.0004883,8.869e-05,0.1296,0.017,3.566,0.009498,0,1,0
261000000000,261300000000,331416465,0,539158843,0.05829,0.01584,0.02054,0.002003,0.002247,0.01617,0.0004549,8.774e-05,0.1738,0.01694,4.054,0.01161,0,1,0
261300000000,261600000000,331416465,0,539158843,0.06323,0.01587,0.02039,0.002861,0.003101,0.01617,0.0004578,8.869e-05,0.198,0.02106,4.623,0.01387,0,1,0
261600000000,261900000000,331416465,0,539158843,0.06299,0.01593,0.02045,0.001822,0.002064,0.01648,0.0004854,8.869e-05,0.1704,0.0177,4.706,0.01467,0,1,0
261900000000,262200000000,331416465,0,539158843,0.05469,0.01602,0.02078,0.002354,0.002594,0.01642,0.0004625,8.869e-05,0.1382,0.01694,4.147,0.01128,0,1,0
262200000000,262500000000,331416465,0,539158843,0.05774,0.01587,0.02057,0.003693,0.003937,0.0163,0.0004158,8.869e-05,0.1519,0.01566,4.699,0.01387,0,1,0
262500000000,262800000000,331416465,0,539158843,0.05701,0.01602,0.02066,0.003929,0.004173,0.01651,0.0004854,8.869e-05,0.1907,0.01593,3.722,0.009327,0,1,0
262800000000,263100000000,331416465,0,539158843,0.05701,0.01599,0.0206,0.004745,0.00499,0.0163,0.0004959,8.869e-05,0.1509,0.02078,4.243,0.01116,0,1,0
263100000000,263400000000,331416465,0,539158843,0.05646,0.01581,0.02051,0.004906,0.00515,0.01617,0.0004597,8.869e-05,0.1848,0.01807,3.84,0.009916,0,1,0
263400000000,263700000000,331416465,0,539158843,0.06433,0.01584,0.02045,0.003582,0.003822,0.01636,0.0004683,8.869e-05,0.1753,0.01422,4.127,0.01115,0,1,0
263700000000,264000000000,331416465,0,539158843,0.05585,0.01596,0.02072,0.003803,0.004044,0.01654,0.0004168,8.869e-05,0.251,0.01572,4.384,0.01223,0,1,0
264000000000,264300000000,331416465,0,539158843,0.05511,0.01569,0.0206,0.002209,0.002453,0.01605,0.0004549,8.869e-05,0.1555,0.01749,4.622,0.01279,0,1,0
264300000000,264600000000,331416465,0,539158843,0.05609,0.0159,0.02051,0.002438,0.002682,0.01654,0.0004368,8.965e-05,0.136,0.017,4.579,0.01382,0,1,0
264600000000,264900000000,331416465,0,539158843,0.05139,0.01575,0.02048,0.001467,0.001711,0.01614,0.000412,8.965e-05,0.1316,0.01807,4.007,0.01107,0,1,0
264900000000,265200000000,331416465,0,539158843,0.05884,0.01581,0.02042,0.00169,0.001932,0.01627,0.0004539,8.965e-05,0.1814,0.01816,3.952,0.01149,0,1,0
265200000000,265500000000,331416465,0,539158843,0.06195,0.01578,0.02039,0.00396,0.004204,0.01611,0.0004559,8.965e-05,0.2783,0.01849,4.756,0.01527,0,1,0
265500000000,265800000000,331416465,0,539158843,0.06506,0.01578,0.02039,0.004814,0.005058,0.01624,0.0004702,8.965e-05,0.1863,0.0177,4.267,0.01262,0,1,0
265800000000,266100000000,331416465,0,539158843,0.06519,0.01578,0.02039,0.004646,0.00489,0.01617,0.0004377,8.965e-05,0.2175,0.01743,4.608,0.01387,0,1,0
266100000000,266400000000,331416465,0,539158843,0.06433,0.01602,0.02072,0.004791,0.005035,0.01697,0.0004253,8.965e-05,0.1692,0.02121,4.298,0.01262,0,1,0
266400000000,266700000000,331416465,0,539158843,0.06189,0.01587,0.02054,0.004768,0.005005,0.0166,0.0003967,8.965e-05,0.168,0.01529,4.24,0.01269,0,1,0
266700000000,267000000000,331416465,0,539158843,0.05896,0.0159,0.02048,0.004349,0.004593,0.01669,0.0004148,8.965e-05,0.1711,0.01535,4.555,0.01411,0,1,0
267000000000,267300000000,331416465,0,539158843,0.05798,0.01608,0.02081,0.00375,0.00399,0.01703,0.0004635,9.06e-05,0.2095,0.01929,4.974,0.0152,0,1,0
267300000000,267600000000,331416465,0,539158843,0.05829,0.01575,0.02063,0.002884,0.003128,0.01663,0.0004444,8.965e-05,0.1987,0.02042,4.288,0.01223,0,1,0
267600000000,267900000000,331416465,0,539158843,0.05872,0.01593,0.02054,0.003658,0.003899,0.01624,0.0005312,9.06e-05,0.1562,0.01816,4.588,0.01376,0,1,0
267900000000,268200000000,331416465,0,539158843,0.06824,0.01599,0.02057,0.003292,0.003536,0.01663,0.0004406,9.06e-05,0.176,0.01807,4.047,0.01093,0,1,0
268200000000,268500000000,331416465,0,539158843,0.06995,0.0162,0.02069,0.004745,0.00499,0.01678,0.0005665,9.06e-05,0.1763,0.01816,4.173,0.01139,0,1,0
268500000000,268800000000,331416465,0,539158843,0.06494,0.01648,0.02078,0.00425,0.004494,0.01703,0.0006113,9.06e-05,0.1653,0.0267,3.909,0.009879,0,1,0
268800000000,269100000000,331416465,0,539158843,0.0647,0.01666,0.021,0.003185,0.003429,0.01733,0.0005598,9.06e-05,0.1663,0.01999,4.356,0.01182,0,1,0
269100000000,269400000000,331416465,0,539158843,0.06628,0.01669,0.02115,0.004288,0.004524,0.01752,0.0005846,9.155e-05,0.1423,0.02335,3.941,0.01019,0,1,0
269400000000,269700000000,331416465,0,539158843,0.06763,0.01657,0.02112,0.00301,0.003254,0.01776,0.000638,9.155e-05,0.2466,0.02371,3.83,0.009868,0,1,0
269700000000,270000000000,331416465,0,539158843,0.06519,0.01761,0.02155,0.004173,0.004417,0.01926,0.0004978,9.155e-05,0.2061,0.02151,3.925,0.01044,0,1,0
270000000000,270300000000,331416465,0,539158843,0.0697,0.01624,0.02078,0.003899,0.004143,0.01688,0.0006323,9.155e-05,0.1526,0.02057,4.445,0.01245,0,1,0
270300000000,270600000000,331416465,0,539158843,0.0658,0.0163,0.02078,0.004852,0.005096,0.01709,0.0006046,9.155e-05,0.2212,0.02151,3.917,0.01048,0,1,0
270600000000,270900000000,331416465,0,539158843,0.06726,0.01633,0.02072,0.004715,0.004959,0.01697,0.0006113,9.155e-05,0.1853,0.02264,4.255,0.01198,0,1,0
270900000000,271200000000,331416465,0,539158843,0.06616,0.0163,0.0206,0.004295,0.004539,0.01669,0.0005016,9.155e-05,0.1934,0.02164,4.419,0.01259,0,1,0
271200000000,271500000000,331416465,0,539158843,0.06323,0.0162,0.02063,0.002632,0.002876,0.01682,0.0005417,9.155e-05,0.166,0.02164,4.477,0.0129,0,1,0
281400000000,281700000000,331416465,0,539158843,0.05963,0.01608,0.02057,0.00502,0.005264,0.01669,0.0004969,8.488e-05,0.1907,0.015,3.742,0.01034,0,1,0
281700000000,282000000000,331416465,0,539158843,0.06567,0.01605,0.02045,0.005539,0.005783,0.01636,0.0005426,8.488e-05,0.2822,0.01521,4.273,0.01181,0,1,0
282000000000,282300000000,331416465,0,539158843,0.06012,0.01599,0.02081,0.003498,0.003742,0.01651,0.0004826,8.583e-05,0.1467,0.01764,5.176,0.01537,0,1,0
282300000000,282600000000,331416465,0,539158843,0.0592,0.01596,0.02029,0.004639,0.004883,0.0162,0.0005064,8.583e-05,0.1475,0.01578,4.152,0.01166,0,1,0
282600000000,282900000000,331416465,0,539158843,0.05511,0.01584,0.02023,0.005333,0.005577,0.01605,0.00035,8.583e-05,0.1379,0.01372,4.408,0.01274,0,1,0
282900000000,283200000000,331416465,0,539158843,0.05579,0.01596,0.02081,0.003197,0.003437,0.01642,0.0004387,8.583e-05,0.1829,0.01321,3.975,0.01094,0,1,0
283200000000,283500000000,331416465,0,539158843,0.05408,0.01593,0.02042,0.005226,0.005463,0.01636,0.0004559,8.583e-05,0.1538,0.01816,4.783,0.01445,0,1,0
283500000000,283800000000,331416465,0,539158843,0.05585,0.0159,0.02051,0.00486,0.005104,0.01651,0.0004463,8.583e-05,0.2039,0.01779,3.884,0.01076,0,1,0
283800000000,284100000000,331416465,0,539158843,0.0592,0.01587,0.02048,0.00351,0.003754,0.01617,0.0003681,8.583e-05,0.1511,0.0155,4.507,0.01342,0,1,0
284100000000,284400000000,331416465,0,539158843,0.06677,0.01593,0.02032,0.004578,0.004822,0.0162,0.0005016,8.583e-05,0.1567,0.01901,4.056,0.01122,0,1,0
284400000000,284700000000,331416465,0,539158843,0.06299,0.01605,0.02057,0.004288,0.004524,0.0166,0.000433,8.678e-05,0.1611,0.02121,4.693,0.01379,0,1,0
284700000000,285000000000,331416465,0,539158843,0.0611,0.01596,0.02066,0.003704,0.003944,0.01666,0.0004654,8.583e-05,0.2148,0.01727,4.002,0.01097,0,1,0
285000000000,285300000000,331416465,0,539158843,0.05774,0.01596,0.02054,0.003853,0.004097,0.01639,0.0004673,8.583e-05,0.2017,0.01479,4.316,0.01228,0,1,0
285300000000,285600000000,331416465,0,539158843,0.05017,0.01608,0.02081,0.003368,0.003609,0.017,0.0004444,8.678e-05,0.145,0.02194,4.091,0.01161,0,1,0
285600000000,285900000000,331416465,0,539158843,0.0531,0.01605,0.02063,0.004028,0.004265,0.01697,0.0005064,8.678e-05,0.147,0.01743,4.274,0.01219,0,1,0
285900000000,286200000000,331416465,0,539158843,0.05475,0.01581,0.02042,0.002697,0.002941,0.01639,0.0004797,8.678e-05,0.1672,0.01785,3.773,0.01001,0,1,0
286200000000,286500000000,331416465,0,539158843,0.05414,0.01593,0.02072,0.003006,0.003246,0.01636,0.0004349,8.678e-05,0.1418,0.01849,4.213,0.01226,0,1,0
286500000000,286800000000,331416465,0,539158843,0.05457,0.01587,0.02048,0.005188,0.005424,0.01614,0.000494,8.678e-05,0.1472,0.02063,3.891,0.01077,0,1,0
286800000000,287100000000,331416465,0,539158843,0.05469,0.0159,0.02039,0.003464,0.003708,0.01688,0.0004816,8.774e-05,0.1506,0.02036,4.348,0.01275,0,1,0
287100000000,287400000000,331416465,0,539158843,0.05286,0.01596,0.02032,0.003712,0.003952,0.01642,0.0004349,8.678e-05,0.1667,0.02008,3.94,0.01125,0,1,0
287400000000,287700000000,331416465,0,539158843,0.05859,0.01596,0.02054,0.00444,0.004684,0.01642,0.0004692,8.678e-05,0.1604,0.0202,4.4,0.01289,0,1,0
287700000000,288000000000,331416465,0,539158843,0.06195,0.01584,0.02063,0.004631,0.004875,0.0162,0.0004635,8.774e-05,0.1714,0.01791,4.402,0.01279,0,1,0
288000000000,288300000000,331416465,0,539158843,0.0611,0.01581,0.02045,0.002644,0.002888,0.01645,0.0003881,8.774e-05,0.3281,0.01685,4.483,0.01325,0,1,0
288300000000,288600000000,331416465,0,539158843,0.05664,0.01587,0.02036,0.004555,0.004799,0.0162,0.0004425,8.774e-05,0.1238,0.01663,4.011,0.01142,0,1,0
288600000000,288900000000,331416465,0,539158843,0.05359,0.01587,0.0206,0.004593,0.004837,0.0163,0.0004911,8.774e-05,0.1572,0.01727,4.592,0.01411,0,1,0
288900000000,289200000000,331416465,0,539158843,0.05713,0.01596,0.02066,0.004639,0.004883,0.017,0.0004721,8.774e-05,0.1526,0.01929,3.899,0.01075,0,1,0
289200000000,289500000000,331416465,0,539158843,0.05127,0.01584,0.02045,0.003872,0.004112,0.01642,0.0004358,8.774e-05,0.1348,0.02094,3.672,0.01092,0,1,0
289500000000,289800000000,331416465,0,539158843,0.05377,0.0159,0.02063,0.004677,0.004921,0.01642,0.0004635,8.774e-05,0.1338,0.02094,4.043,0.01189,0,1,0
289800000000,290100000000,331416465,0,539158843,0.05896,0.01602,0.02075,0.003254,0.003498,0.01709,0.0004578,8.774e-05,0.1589,0.02515,4.436,0.01311,0,1,0
290100000000,290400000000,331416465,0,539158843,0.06232,0.01593,0.02063,0.004036,0.00428,0.01633,0.0004463,8.297e-05,0.1843,0.01886,4.132,0.01157,0,1,0
290400000000,290700000000,331416465,0,539158843,0.05945,0.01584,0.02042,0.005249,0.005493,0.01624,0.0004234,8.297e-05,0.1636,0.01837,4.329,0.0126,0,1,0
290700000000,291000000000,331416465,0,539158843,0.05878,0.01581,0.02032,0.004295,0.004539,0.01633,0.0004387,8.297e-05,0.1738,0.01923,3.751,0.01009,0,1,0
291000000000,291300000000,331416465,0,539158843,0.05731,0.01593,0.02042,0.003075,0.003319,0.01685,0.0004578,8.297e-05,0.1606,0.015,3.967,0.01134,0,1,0
291300000000,291600000000,331416465,0,539158843,0.05701,0.01599,0.02069,0.002834,0.003078,0.01654,0.0003986,8.297e-05,0.1702,0.0155,3.684,0.01019,0,1,0
291600000000,291900000000,331416465,0,539158843,0.05505,0.01599,0.0206,0.002872,0.003117,0.01654,0.0004845,8.392e-05,0.1404,0.02216,3.879,0.01101,0,1,0
291900000000,292200000000,331416465,0,539158843,0.06134,0.01596,0.0206,0.003479,0.003719,0.01706,0.0005159,8.392e-05,0.1953,0.02307,3.728,0.0103,0,1,0
292200000000,292500000000,331416465,0,539158843,0.06201,0.01593,0.0206,0.00349,0.003735,0.01672,0.0004473,8.392e-05,0.1423,0.01721,4.264,0.01241,0,1,0
292500000000,292800000000,331416465,0,539158843,0.05591,0.01584,0.02039,0.004036,0.00428,0.01648,0.0004883,8.392e-05,0.1763,0.01758,3.723,0.0105,0,1,0
292800000000,293100000000,331416465,0,539158843,0.05316,0.01587,0.02066,0.00428,0.004517,0.01639,0.0003986,8.392e-05,0.179,0.0188,4.251,0.01305,0,1,0
293100000000,293400000000,331416465,0,539158843,0.05548,0.01602,0.02075,0.003551,0.003796,0.01688,0.000473,8.392e-05,0.1467,0.01743,3.572,0.009849,0,1,0
293400000000,293700000000,331416465,0,539158843,0.05304,0.01587,0.02051,0.003342,0.003586,0.01614,0.0004072,8.392e-05,0.1904,0.01566,4.014,0.0119,0,1,0
293700000000,294000000000,331416465,0,539158843,0.05951,0.01596,0.02069,0.004837,0.005081,0.01633,0.000474,8.392e-05,0.1565,0.01791,3.676,0.009995,0,1,0
294000000000,294300000000,331416465,0,539158843,0.0556,0.0159,0.02051,0.004684,0.004929,0.01627,0.0004749,8.392e-05,0.2261,0.02142,4.201,0.0123,0,1,0
294300000000,294600000000,331416465,0,539158843,0.05524,0.0159,0.02072,0.001995,0.002239,0.01657,0.0004025,8.488e-05,0.1438,0.01566,4.029,0.01188,0,1,0
294600000000,294900000000,331416465,0,539158843,0.05341,0.0159,0.02057,0.002815,0.003059,0.01672,0.0005045,8.392e-05,0.1655,0.01849,4.08,0.01219,0,1,0
294900000000,295200000000,331416465,0,539158843,0.05396,0.0159,0.02045,0.003639,0.003883,0.01657,0.0005255,8.488e-05,0.1475,0.01685,3.853,0.01128,0,1,0
295200000000,295500000000,331416465,0,539158843,0.05328,0.01593,0.02032,0.005318,0.005554,0.01636,0.0004377,8.488e-05,0.1504,0.01779,4.1,0.01236,0,1,0
295500000000,295800000000,331416465,0,539158843,0.05316,0.01596,0.0206,0.003384,0.003628,0.01624,0.0004406,8.488e-05,0.1514,0.0202,3.898,0.01156,0,1,0
295800000000,296100000000,331416465,0,539158843,0.05414,0.01599,0.02048,0.004738,0.004982,0.01648,0.0005264,8.488e-05,0.1357,0.02142,4.12,0.01237,0,1,0
296100000000,296400000000,331416465,0,539158843,0.06055,0.01599,0.02069,0.003983,0.004227,0.01648,0.0004787,8.488e-05,0.1792,0.01907,3.75,0.01042,0,1,0
296400000000,296700000000,331416465,0,539158843,0.06433,0.01605,0.02069,0.002769,0.00301,0.01678,0.0004539,8.488e-05,0.1858,0.01608,4.555,0.01369,0,1,0
296700000000,297000000000,331416465,0,539158843,0.06445,0.01605,0.0206,0.002373,0.002617,0.01666,0.0004625,8.488e-05,0.1709,0.01372,3.925,0.01099,0,1,0
297000000000,297300000000,331416465,0,539158843,0.06519,0.01617,0.02072,0.003242,0.003487,0.01694,0.0004444,8.488e-05,0.2036,0.02115,4.083,0.01169,0,1,0
297300000000,297600000000,331416465,0,539158843,0.06714,0.01602,0.02045,0.005257,0.005501,0.01651,0.0004683,8.583e-05,0.1963,0.0162,3.819,0.0103,0,1,0
297600000000,297900000000,331416465,0,539158843,0.0647,0.01639,0.02176,0.00515,0.005394,0.01715,0.000495,8.583e-05,0.1604,0.01385,4.544,0.01361,0,1,0
297900000000,298200000000,331416465,0,539158843,0.0636,0.01614,0.02213,0.005737,0.005981,0.01678,0.0004387,8.583e-05,0.1453,0.01385,3.737,0.0103,0,1,0
298200000000,298500000000,331416465,0,539158843,0.05804,0.01605,0.02048,0.004074,0.004318,0.01645,0.0004511,8.583e-05,0.2019,0.02014,4.138,0.0122,0,1,0
298500000000,298800000000,331416465,0,539158843,0.06134,0.01596,0.02078,0.005264,0.005508,0.01636,0.0004282,8.583e-05,0.1667,0.01414,3.845,0.01078,0,1,0
298800000000,299100000000,331416465,0,539158843,0.06482,0.01593,0.02051,0.003284,0.003525,0.0163,0.0004759,8.583e-05,0.1587,0.01357,4.145,0.01188,0,1,0
299100000000,299400000000,331416465,0,539158843,0.06171,0.01593,0.02036,0.001829,0.002071,0.01627,0.0004702,8.583e-05,0.1445,0.01672,3.685,0.009693,0,1,0
299400000000,299700000000,331416465,0,539158843,0.06299,0.01599,0.02057,0.002026,0.00227,0.01666,0.0004339,8.583e-05,0.2083,0.01614,4.07,0.01142,0,1,0
299700000000,300000000000,331416465,0,539158843,0.07019,0.01593,0.0206,0.003361,0.003605,0.01627,0.0005445,8.678e-05,0.2297,0.01364,4.377,0.01199,0,1,0
