5700000000,6000000000,3418390,0,564444639,0.003418,0.1188,0.1241,0.0007324,0.005165,0.1188,8.583e-06,0.0002689,0.03064,0.001072,2.31,0.008187,0,1,0
6000000000,6300000000,3418390,0,564444639,0.00333,0.1187,0.1241,0.0007687,0.005203,0.1188,4.768e-06,0.0002689,0.02481,0.0007858,2.281,0.007981,0,1,0
6300000000,6600000000,3418390,0,564444639,0.003254,0.1187,0.1241,0.0008059,0.005241,0.1188,8.583e-06,0.0002689,0.01321,0.001642,2.328,0.008299,0,1,0
6600000000,6900000000,3418390,0,564444639,0.003452,0.1187,0.1241,0.0008421,0.005272,0.1188,6.676e-06,0.0002689,0.02811,0.0008574,2.311,0.008464,0,1,0
6900000000,7200000000,3418390,0,564444639,0.003357,0.1187,0.1241,0.0008783,0.00531,0.1188,3.815e-06,0.0002689,0.01166,0.0004282,2.278,0.0081,0,1,0
7200000000,7500000000,3418390,0,564444639,0.00333,0.1187,0.1241,0.0009146,0.005348,0.1188,1.049e-05,0.000268,0.01993,0.001286,2.201,0.007638,0,1,0
7500000000,7800000000,3418390,0,564444639,0.003204,0.1187,0.1241,0.0009508,0.005386,0.1188,1.335e-05,0.000268,0.01743,0.001715,2.268,0.008,0,1,0
7800000000,8100000000,3418390,0,564444639,0.003204,0.1187,0.1241,0.0009861,0.005417,0.1188,1.431e-05,0.000268,0.01289,0.002998,2.31,0.008322,0,1,0
8100000000,8400000000,3418390,0,564444639,0.003132,0.1187,0.1241,0.001022,0.005455,0.1188,1.049e-05,0.000268,0.01506,0.002213,2.196,0.007672,0,1,0
8400000000,8700000000,3418390,0,564444639,0.003117,0.1188,0.1241,0.001057,0.005486,0.1188,4.768e-06,0.000268,0.01953,0.0009995,2.092,0.007101,0,1,0
8700000000,9000000000,3418390,0,564444639,0.003052,0.1187,0.1241,0.0008917,0.005325,0.1188,8.583e-06,0.000268,0.01268,0.001143,2.392,0.008692,0,1,0
9000000000,9300000000,3418390,0,564444639,0.00309,0.1187,0.1241,0.000371,0.004807,0.1188,7.629e-06,0.000268,0.01126,0.001499,2.135,0.007338,0,1,0
9300000000,9600000000,3418390,0,564444639,0.003304,0.1187,0.1241,0.0004044,0.004837,0.1188,2.861e-06,0.000268,0.01675,0.0002861,2.339,0.008209,0,1,0
9600000000,9900000000,3418390,0,564444639,0.003105,0.1187,0.1241,0.0004387,0.004875,0.1188,2.861e-06,0.000268,0.0173,0.0001431,2.122,0.007265,0,1,0
9900000000,10200000000,3418390,0,564444639,0.003086,0.1187,0.1241,0.0004711,0.004906,0.1188,3.815e-06,0.000268,0.01749,0.0005713,2.227,0.007638,0,1,0
10200000000,10500000000,3418390,0,564444639,0.003033,0.1187,0.1241,0.0005045,0.004936,0.1188,1.907e-06,0.000268,0.01064,0.0001431,2.256,0.008083,0,1,0
10500000000,10800000000,3418390,0,564444639,0.002995,0.1187,0.1241,0.0005369,0.004967,0.1188,4.768e-06,0.0002689,0.01715,0.0009289,2.258,0.007896,0,1,0
10800000000,11100000000,3418390,0,564444639,0.002926,0.1187,0.1241,0.0005684,0.005005,0.1188,4.768e-06,0.0002689,0.01562,0.0009289,2.29,0.008176,0,1,0
11100000000,11400000000,3418390,0,564444639,0.003017,0.1187,0.1241,0.0005999,0.005035,0.1188,2.861e-06,0.0002689,0.02893,0.0002861,2.227,0.007782,0,1,0
11400000000,11700000000,3418390,0,564444639,0.002987,0.1187,0.1241,0.0006323,0.005066,0.1188,2.861e-06,0.0002689,0.01434,0.0002146,2.21,0.007778,0,1,0
11700000000,12000000000,3418390,0,564444639,0.002865,0.1187,0.1241,0.0006485,0.005081,0.1188,1.049e-05,0.0002689,0.01782,0.002499,2.283,0.008133,0,1,0
12000000000,12300000000,3418390,0,564444639,0.003082,0.1187,0.1241,0.0006447,0.005081,0.1188,4.768e-06,0.0002689,0.01685,0.0007858,2.471,0.009115,0,1,0
12300000000,12600000000,3418390,0,564444639,0.003014,0.1187,0.1241,0.0006647,0.005096,0.1188,1.907e-06,0.0002689,0.01466,0.0002146,2.32,0.008161,0,1,0
12600000000,12900000000,3418390,0,564444639,0.003017,0.1187,0.1241,0.0006962,0.005127,0.1188,4.768e-06,0.0002689,0.01518,0.0009289,2.423,0.008845,0,1,0
12900000000,13200000000,3418390,0,564444639,0.002995,0.1187,0.1241,0.0007286,0.005165,0.1188,6.676e-06,0.0002689,0.0148,0.0007143,2.328,0.008287,0,1,0
13200000000,13500000000,3418390,0,564444639,0.002979,0.1187,0.1241,0.0007601,0.005196,0.1188,4.768e-06,0.0002689,0.01895,0.0005713,2.171,0.007458,0,1,0
13500000000,13800000000,3418390,0,564444639,0.002918,0.1187,0.1241,0.0007906,0.005226,0.1188,2.861e-06,0.0002689,0.01083,0.0002146,2.14,0.007336,0,1,0
13800000000,14100000000,3418390,0,564444639,0.003025,0.1187,0.1241,0.0008221,0.005257,0.1188,4.768e-06,0.0002689,0.01421,0.0005713,2.287,0.007969,0,1,0
14100000000,14400000000,3418390,0,564444639,0.002953,0.1187,0.1241,0.0008526,0.005287,0.1188,1.621e-05,0.000268,0.01311,0.002213,2.237,0.007777,0,1,0
14400000000,14700000000,3418390,0,564444639,0.003048,0.1187,0.1241,0.0008707,0.005302,0.1188,1.24e-05,0.000268,0.01146,0.001072,2.311,0.008196,0,1,0
14700000000,15000000000,3418390,0,564444639,0.002785,0.1187,0.1241,0.0008831,0.005318,0.1188,3.815e-06,0.000268,0.01035,0.0002861,2.279,0.008004,0,1,0
15000000000,15300000000,3418390,0,564444639,0.002815,0.1187,0.1241,0.0002594,0.004692,0.1188,1.24e-05,0.000268,0.01923,0.002285,2.383,0.008635,0,1,0
15300000000,15600000000,3418390,0,564444639,0.002903,0.1187,0.1241,0.0002537,0.004684,0.1188,5.722e-06,0.000268,0.01405,0.0008574,2.43,0.008648,0,1,0
15600000000,15900000000,3418390,0,564444639,0.002674,0.1187,0.1241,0.0002823,0.004715,0.1188,8.583e-06,0.000268,0.0184,0.001572,2.263,0.007964,0,1,0
15900000000,16200000000,3418390,0,564444639,0.00288,0.1187,0.1241,0.0003109,0.004745,0.1188,4.768e-06,0.000268,0.00943,0.0005713,2.512,0.008988,0,1,0
16200000000,16500000000,3418390,0,564444639,0.002869,0.1187,0.1241,0.0003414,0.004776,0.1188,7.629e-06,0.000268,0.01114,0.001286,2.262,0.007899,0,1,0
16500000000,16800000000,3418390,0,564444639,0.002995,0.1188,0.1241,0.0003719,0.004807,0.1188,4.768e-06,0.000268,0.0401,0.0002861,2.194,0.00747,0,1,0
16800000000,17100000000,3418390,0,564444639,0.003113,0.1188,0.1241,0.0004025,0.004837,0.1188,7.629e-06,0.000268,0.02524,0.001286,2.37,0.008312,0,1,0
17100000000,17400000000,3418390,0,564444639,0.003407,0.1187,0.1241,0.0004349,0.004868,0.1188,4.768e-06,0.000268,0.04547,0.0004997,2.344,0.008117,0,1,0
17400000000,17700000000,3418390,0,564444639,0.003456,0.1187,0.1241,0.0004673,0.004898,0.1188,2.861e-06,0.000268,0.01442,0.0001431,2.569,0.009038,0,1,0
17700000000,18000000000,3418390,0,564444639,0.003242,0.1188,0.1241,0.0004997,0.004936,0.1188,5.722e-06,0.000268,0.02087,0.0006428,2.38,0.008219,0,1,0
18000000000,18300000000,3418390,0,564444639,0.003078,0.1188,0.1241,0.0005331,0.004967,0.1188,5.722e-06,0.0002689,0.01233,0.0007143,2.244,0.00799,0,1,0
18300000000,18600000000,3418390,0,564444639,0.003056,0.1188,0.1241,0.0005665,0.004997,0.1188,4.768e-06,0.0002689,0.01207,0.0003567,2.351,0.008335,0,1,0
18600000000,18900000000,3418390,0,564444639,0.002842,0.1187,0.1241,0.0005989,0.005035,0.1188,4.768e-06,0.0002689,0.009995,0.0007858,2.198,0.007705,0,1,0
18900000000,19200000000,3418390,0,564444639,0.002918,0.1187,0.1241,0.0006294,0.005066,0.1188,3.815e-06,0.0002689,0.02475,0.0004997,2.22,0.007648,0,1,0
19200000000,19500000000,3418390,0,564444639,0.002892,0.1188,0.1241,0.000659,0.005089,0.1188,3.815e-06,0.0002689,0.0101,0.0003567,2.194,0.00767,0,1,0
19500000000,19800000000,3418390,0,564444639,0.003181,0.1188,0.1241,0.0006895,0.005119,0.1188,3.815e-06,0.0002689,0.0116,0.0002146,2.381,0.008352,0,1,0
19800000000,20100000000,3418390,0,564444639,0.003052,0.1188,0.1241,0.00072,0.00515,0.1188,3.815e-06,0.0002689,0.01584,0.0001431,2.365,0.008338,0,1,0
20100000000,20400000000,3418390,0,564444639,0.002979,0.1188,0.1241,0.0007505,0.00518,0.1188,4.768e-06,0.0002689,0.01535,0.0004997,2.305,0.008177,0,1,0
20400000000,20700000000,3418390,0,564444639,0.003036,0.1188,0.1241,0.0007811,0.005219,0.1188,1.24e-05,0.0002689,0.01338,0.00293,2.319,0.007967,0,1,0
20700000000,21000000000,3418390,0,564444639,0.00288,0.1188,0.1241,0.0008125,0.005249,0.1188,8.583e-06,0.0002689,0.02869,0.0009995,2.22,0.007685,0,1,0
21000000000,21300000000,3418390,0,564444639,0.003063,0.1188,0.1241,0.000843,0.00528,0.1188,7.629e-06,0.0002689,0.01657,0.001072,2.273,0.008081,0,1,0
21300000000,21600000000,3418390,0,564444639,0.002846,0.1188,0.1241,0.0008726,0.00531,0.1188,4.768e-06,0.0002689,0.01651,0.0005713,2.255,0.007837,0,1,0
21600000000,21900000000,3418390,0,564444639,0.002846,0.1188,0.1243,0.0009031,0.005333,0.1188,7.629e-06,0.0002689,0.009506,0.0009995,2.339,0.008455,0,1,0
21900000000,22200000000,3418390,0,564444639,0.002842,0.1188,0.1243,0.0009336,0.005363,0.1188,6.676e-06,0.000268,0.009415,0.001215,2.305,0.008244,0,1,0
22200000000,22500000000,3418390,0,564444639,0.002838,0.1188,0.1243,0.0009642,0.005394,0.1188,7.629e-06,0.000268,0.01706,0.0007143,2.212,0.007734,0,1,0
22500000000,22800000000,3418390,0,564444639,0.002934,0.1188,0.1243,0.0009937,0.005424,0.1188,6.676e-06,0.000268,0.02054,0.001215,2.181,0.007308,0,1,0
22800000000,23100000000,3418390,0,564444639,0.002998,0.1188,0.1241,0.0005589,0.00499,0.1188,8.583e-06,0.000268,0.01295,0.001215,2.312,0.008216,0,1,0
23100000000,23400000000,3418390,0,564444639,0.002892,0.1188,0.1241,0.0002737,0.004707,0.1188,3.815e-06,0.000268,0.01031,0.0002146,2.24,0.00797,0,1,0
23400000000,23700000000,3418390,0,564444639,0.00288,0.1188,0.1241,0.0002947,0.00473,0.1188,1.621e-05,0.000268,0.0177,0.002499,2.186,0.007725,0,1,0
23700000000,24000000000,3418390,0,564444639,0.002964,0.1188,0.1241,0.0003061,0.004738,0.1188,2.861e-06,0.000268,0.01433,0.0002146,2.297,0.008115,0,1,0
24000000000,24300000000,3418390,0,564444639,0.003017,0.1188,0.1241,0.0003281,0.004761,0.1188,5.722e-06,0.000268,0.02933,0.0008574,2.378,0.008537,0,1,0
24300000000,24600000000,3418390,0,564444639,0.002953,0.1187,0.1241,0.0003376,0.004768,0.1188,4.768e-06,0.000268,0.01596,0.0007143,2.345,0.008323,0,1,0
24600000000,24900000000,3418390,0,564444639,0.002728,0.1187,0.1241,0.0003662,0.004799,0.1188,4.768e-06,0.000268,0.01419,0.0006428,2.193,0.007677,0,1,0
24900000000,25200000000,3418390,0,564444639,0.002773,0.1187,0.1241,0.0003958,0.004829,0.1188,7.629e-06,0.000268,0.01247,0.001358,2.129,0.007322,0,1,0
25200000000,25500000000,3418390,0,564444639,0.002804,0.1187,0.1241,0.0004253,0.00486,0.1188,6.676e-06,0.000268,0.01614,0.001358,2.132,0.00745,0,1,0
25500000000,25800000000,3418390,0,564444639,0.002796,0.1187,0.1241,0.000452,0.004883,0.1188,1.049e-05,0.000268,0.01543,0.002571,2.241,0.007889,0,1,0
25800000000,26100000000,3418390,0,564444639,0.002945,0.1187,0.1241,0.0004539,0.00489,0.1188,5.722e-06,0.0002689,0.02008,0.0005713,2.162,0.00745,0,1,0
26100000000,26400000000,3418390,0,564444639,0.002861,0.1187,0.1241,0.0004559,0.00489,0.1188,6.676e-06,0.0002689,0.0159,0.0009995,2.283,0.008011,0,1,0
26400000000,26700000000,3418390,0,564444639,0.002987,0.1187,0.1241,0.0004635,0.004898,0.1188,7.629e-06,0.0002689,0.0177,0.001429,2.306,0.008116,0,1,0
26700000000,27000000000,3418390,0,564444639,0.002789,0.1187,0.1241,0.0004892,0.004921,0.1188,3.815e-06,0.0002689,0.01172,0.0003567,2.405,0.008685,0,1,0
27000000000,27300000000,3418390,0,564444639,0.002811,0.1187,0.1241,0.0005188,0.004951,0.1188,7.629e-06,0.0002689,0.01254,0.001143,2.311,0.00828,0,1,0
27300000000,27600000000,3418390,0,564444639,0.002876,0.1187,0.1241,0.0005484,0.004982,0.1188,9.537e-06,0.0002689,0.01158,0.001358,2.243,0.007859,0,1,0
27600000000,27900000000,3418390,0,564444639,0.002785,0.1187,0.1241,0.000577,0.005013,0.1188,3.815e-06,0.0002689,0.01073,0.0001431,2.252,0.007973,0,1,0
27900000000,28200000000,3418390,0,564444639,0.002819,0.1187,0.1241,0.0005989,0.005035,0.1187,3.815e-06,0.0002689,0.02664,0.0002146,2.205,0.00767,0,1,0
28200000000,28500000000,3418390,0,564444639,0.002872,0.1187,0.1241,0.000598,0.005028,0.1188,2.861e-06,0.0002689,0.01154,0.0001431,2.173,0.007574,0,1,0
28500000000,28800000000,3418390,0,564444639,0.002892,0.1187,0.1241,0.000598,0.005035,0.1188,6.676e-06,0.0002689,0.04578,0.0007858,2.074,0.006905,0,1,0
28800000000,29100000000,3418390,0,564444639,0.002869,0.1187,0.1241,0.000597,0.005028,0.1188,6.676e-06,0.0002689,0.01025,0.0009289,2.146,0.007231,0,1,0
29100000000,29400000000,3418390,0,564444639,0.002831,0.1187,0.1241,0.000598,0.005028,0.1188,2.861e-06,0.0002689,0.01584,0.0002146,2.239,0.007681,0,1,0
29400000000,29700000000,3418390,0,564444639,0.003048,0.1187,0.1241,0.0006094,0.005043,0.1188,5.722e-06,0.0002689,0.02719,0.0004997,2.135,0.007248,0,1,0
29700000000,30000000000,3418390,0,564444639,0.002529,0.1187,0.1241,0.0006151,0.005051,0.1188,6.676e-06,0.000268,0.01315,0.0007858,2.331,0.008393,0,1,0
30000000000,30300000000,3418390,0,564444639,0.002556,0.1187,0.1241,0.0006409,0.005074,0.1187,8.583e-06,0.000268,0.0119,0.001286,2.346,0.00842,0,1,0
30300000000,30600000000,3418390,0,564444639,0.002491,0.1187,0.1241,0.0006676,0.005104,0.1188,4.768e-06,0.000268,0.01828,0.0009289,2.337,0.008397,0,1,0
30600000000,30900000000,3418390,0,564444639,0.002586,0.1187,0.1241,0.0006933,0.005127,0.1188,2.861e-06,0.000268,0.007996,0.0001431,2.336,0.008529,0,1,0
30900000000,31200000000,3418390,0,564444639,0.002991,0.1187,0.1241,0.0007219,0.005157,0.1188,1.907e-06,0.000268,0.02213,0.0002146,2.425,0.008511,0,1,0
31200000000,31500000000,3418390,0,564444639,0.002964,0.1187,0.1241,0.0007524,0.005188,0.1188,2.861e-06,0.000268,0.03174,0.0001431,2.188,0.007603,0,1,0
31500000000,31800000000,3418390,0,564444639,0.002903,0.1187,0.1241,0.000639,0.005074,0.1188,1.335e-05,0.000268,0.01501,0.00243,2.214,0.00755,0,1,0
31800000000,32100000000,3418390,0,564444639,0.002899,0.1187,0.1241,0.0003309,0.004761,0.1188,2.861e-06,0.000268,0.01299,0.0001431,2.312,0.008115,0,1,0
32100000000,32400000000,3418390,0,564444639,0.003151,0.1187,0.1241,0.0003624,0.004799,0.1188,7.629e-06,0.000268,0.02719,0.001358,2.343,0.008105,0,1,0
32400000000,32700000000,3418390,0,564444639,0.003098,0.1187,0.1241,0.0003948,0.004829,0.1188,8.583e-06,0.000268,0.01886,0.001785,2.315,0.00817,0,1,0
32700000000,33000000000,3418390,0,564444639,0.002914,0.1187,0.1241,0.0004148,0.004852,0.1188,5.722e-06,0.000268,0.01013,0.0007143,2.305,0.00806,0,1,0
33000000000,33300000000,3418390,0,564444639,0.003063,0.1187,0.1241,0.0004463,0.004883,0.1188,4.768e-06,0.000268,0.01923,0.0004997,2.329,0.008171,0,1,0
33300000000,33600000000,3418390,0,564444639,0.003162,0.1187,0.1241,0.0004778,0.004913,0.1188,5.722e-06,0.000268,0.02567,0.001143,2.353,0.008165,0,1,0
33600000000,33900000000,3418390,0,564444639,0.002964,0.1187,0.1241,0.0005054,0.004936,0.1188,2.861e-06,0.0002689,0.01892,0.0001431,2.338,0.0083,0,1,0
33900000000,34200000000,3418390,0,564444639,0.002846,0.1187,0.1241,0.000493,0.004929,0.1188,5.722e-06,0.0002689,0.01508,0.0007858,2.32,0.008219,0,1,0
34200000000,34500000000,3418390,0,564444639,0.002907,0.1187,0.1241,0.0004988,0.004929,0.1188,1.335e-05,0.0002689,0.01498,0.001642,2.189,0.007463,0,1,0
34500000000,34800000000,3418390,0,564444639,0.002964,0.1187,0.1241,0.0005226,0.004959,0.1188,3.815e-06,0.0002689,0.009613,0.0002861,2.343,0.008067,0,1,0
34800000000,35100000000,3418390,0,564444639,0.002903,0.1187,0.1241,0.0005312,0.004967,0.1188,5.722e-06,0.0002689,0.01624,0.0008574,2.171,0.007438,0,1,0
35100000000,35400000000,3418390,0,564444639,0.002796,0.1187,0.1241,0.0005493,0.004982,0.1188,2.861e-06,0.0002689,0.009888,0.0002861,2.402,0.008475,0,1,0
35400000000,35700000000,3418390,0,564444639,0.002724,0.1187,0.1241,0.0005789,0.005013,0.1188,3.815e-06,0.0002689,0.009628,0.0001431,2.297,0.00812,0,1,0
35700000000,36000000000,3418390,0,564444639,0.002728,0.1187,0.1241,0.0006084,0.005043,0.1188,7.629e-06,0.0002689,0.008865,0.001429,2.142,0.007306,0,1,0
36000000000,36300000000,3418390,0,564444639,0.002735,0.1188,0.1241,0.0006371,0.005074,0.1188,5.722e-06,0.0002689,0.01776,0.0009289,2.171,0.007485,0,1,0
36300000000,36600000000,3418390,0,564444639,0.002682,0.1187,0.1241,0.0006666,0.005096,0.1188,1.717e-05,0.0002689,0.01103,0.003857,2.321,0.008227,0,1,0
36600000000,36900000000,3418390,0,564444639,0.002575,0.1188,0.1241,0.0006943,0.005127,0.1188,3.815e-06,0.0002689,0.008102,0.0003567,2.235,0.007844,0,1,0
36900000000,37200000000,3418390,0,564444639,0.002651,0.1187,0.1241,0.0007133,0.00515,0.1188,5.722e-06,0.0002689,0.03079,0.0007858,2.333,0.008413,0,1,0
37200000000,37500000000,3418390,0,564444639,0.002716,0.1187,0.1241,0.0007048,0.005135,0.1188,8.583e-06,0.0002689,0.02118,0.001642,2.506,0.009087,0,1,0
37500000000,37800000000,3418390,0,564444639,0.002735,0.1188,0.1241,0.0007267,0.005157,0.1188,8.583e-06,0.000268,0.01057,0.001572,2.626,0.009385,0,1,0
37800000000,38100000000,3418390,0,564444639,0.002731,0.1187,0.1241,0.0007477,0.00518,0.1188,5.722e-06,0.000268,0.01038,0.0005713,2.404,0.008593,0,1,0
38100000000,38400000000,3418390,0,564444639,0.002544,0.1187,0.1241,0.0007381,0.005173,0.1188,1.621e-05,0.000268,0.01466,0.002998,2.304,0.008146,0,1,0
38400000000,38700000000,3418390,0,564444639,0.002686,0.1188,0.1241,0.0003691,0.004799,0.1188,3.815e-06,0.000268,0.009857,0.0002146,2.334,0.008235,0,1,0
38700000000,39000000000,3418390,0,564444639,0.002663,0.1188,0.1241,0.0002165,0.004646,0.1188,5.722e-06,0.000268,0.009888,0.0006428,2.351,0.008265,0,1,0
39000000000,39300000000,3418390,0,564444639,0.002628,0.1188,0.1241,0.000226,0.004662,0.1188,6.676e-06,0.000268,0.0163,0.0008574,2.48,0.009029,0,1,0
39300000000,39600000000,3418390,0,564444639,0.002686,0.1187,0.1241,0.0002499,0.004684,0.1188,5.722e-06,0.000268,0.00882,0.0007143,2.337,0.008262,0,1,0
39600000000,39900000000,3418390,0,564444639,0.002895,0.1188,0.1241,0.0002508,0.004684,0.1188,4.768e-06,0.000268,0.01666,0.0006428,2.48,0.008492,0,1,0
39900000000,40200000000,3418390,0,564444639,0.002708,0.1188,0.1241,0.0002661,0.0047,0.1188,5.722e-06,0.000268,0.01332,0.0007858,2.588,0.009194,0,1,0
40200000000,40500000000,3418390,0,564444639,0.002548,0.1188,0.1241,0.0002928,0.004723,0.1188,4.768e-06,0.000268,0.008728,0.0004282,2.257,0.007941,0,1,0
40500000000,40800000000,3418390,0,564444639,0.002438,0.1188,0.1241,0.0003185,0.004753,0.1188,4.768e-06,0.000268,0.01291,0.0006428,2.33,0.008333,0,1,0
51000000000,51300000000,3418390,0,564444639,0.003323,0.1187,0.1241,0.000494,0.004929,0.1188,3.815e-06,0.0002689,0.01685,0.0002861,2.388,0.008263,0,1,0
51300000000,51600000000,3418390,0,564444639,0.003368,0.1187,0.1241,0.0005264,0.004959,0.1188,1.335e-05,0.0002689,0.01329,0.002998,2.555,0.008918,0,1,0
51600000000,51900000000,3418390,0,564444639,0.00322,0.1187,0.1241,0.0005484,0.004982,0.1188,2.861e-06,0.0002689,0.0202,0.0001431,2.442,0.008521,0,1,0
51900000000,52200000000,3418390,0,564444639,0.003185,0.1187,0.1241,0.0005522,0.004982,0.1188,3.815e-06,0.0002689,0.01009,0.0004997,2.272,0.007755,0,1,0
52200000000,52500000000,3418390,0,564444639,0.003197,0.1187,0.1241,0.0005569,0.00499,0.1188,3.815e-06,0.0002689,0.01343,0.0002861,2.522,0.008979,0,1,0
52500000000,52800000000,3418390,0,564444639,0.003078,0.1187,0.1241,0.0005608,0.004997,0.1188,6.676e-06,0.0002689,0.01959,0.0007858,2.382,0.008231,0,1,0
52800000000,53100000000,3418390,0,564444639,0.003136,0.1187,0.1241,0.0005875,0.00502,0.1188,1.907e-06,0.0002689,0.01421,0.0001431,2.412,0.008384,0,1,0
53100000000,53400000000,3418390,0,564444639,0.003159,0.1187,0.1241,0.000618,0.005051,0.1188,5.722e-06,0.0002689,0.01593,0.0009289,2.521,0.008958,0,1,0
53400000000,53700000000,3418390,0,564444639,0.003391,0.1187,0.1241,0.0006495,0.005081,0.1188,5.722e-06,0.0002689,0.01575,0.0009289,2.518,0.008929,0,1,0
53700000000,54000000000,3418390,0,564444639,0.003208,0.1187,0.1241,0.0006685,0.005104,0.1188,1.049e-05,0.000268,0.01408,0.002213,2.341,0.00791,0,1,0
54000000000,54300000000,3418390,0,564444639,0.003139,0.1188,0.1241,0.0006618,0.005096,0.1188,4.768e-06,0.000268,0.02994,0.0005713,2.393,0.008326,0,1,0
54300000000,54600000000,3418390,0,564444639,0.00325,0.1188,0.1241,0.0006418,0.005074,0.1188,4.768e-06,0.000268,0.01682,0.0003567,2.443,0.008505,0,1,0
54600000000,54900000000,3418390,0,564444639,0.003319,0.1187,0.1241,0.000659,0.005089,0.1188,3.815e-06,0.000268,0.01401,0.0002146,2.408,0.008422,0,1,0
54900000000,55200000000,3418390,0,564444639,0.003212,0.1187,0.1241,0.0006905,0.005127,0.1188,5.722e-06,0.000268,0.01505,0.0005713,2.5,0.008861,0,1,0
55200000000,55500000000,3418390,0,564444639,0.003105,0.1187,0.1241,0.0007219,0.005157,0.1188,4.768e-06,0.000268,0.01218,0.0005713,2.467,0.008805,0,1,0
55500000000,55800000000,3418390,0,564444639,0.003109,0.1187,0.1241,0.0007505,0.00518,0.1188,6.676e-06,0.000268,0.01755,0.001215,2.293,0.007699,0,1,0
55800000000,56100000000,3418390,0,564444639,0.003132,0.1187,0.1241,0.0007534,0.005188,0.1188,3.815e-06,0.000268,0.01314,0.0002861,2.286,0.00793,0,1,0
56100000000,56400000000,3418390,0,564444639,0.003113,0.1188,0.1241,0.0007162,0.00515,0.1188,3.815e-06,0.000268,0.01031,0.0002861,2.339,0.008137,0,1,0
56400000000,56700000000,3418390,0,564444639,0.001698,0.1187,0.1241,0.0003805,0.004814,0.1188,2.861e-06,0.000268,0.01208,0.0002146,2.295,0.008296,0,1,0
56700000000,57000000000,3418390,0,564444639,0.0007744,0.1187,0.1241,0.000391,0.004822,0.1187,6.676e-06,0.000268,0.03143,0.0007143,2.266,0.008033,0,1,0
57000000000,57300000000,3418390,0,564444639,0.0007,0.1187,0.1241,0.0003834,0.004814,0.1187,5.722e-06,0.000268,0.01321,0.0008574,2.544,0.009769,0,1,0
57300000000,57600000000,3418390,0,564444639,0.0006971,0.1187,0.1241,0.0003805,0.004814,0.1187,4.768e-06,0.000268,0.02017,0.0006428,2.451,0.009028,0,1,0
57600000000,57900000000,3418390,0,564444639,0.001999,0.1187,0.1241,0.0003853,0.004822,0.1188,6.676e-06,0.000268,0.01118,0.001143,2.365,0.008509,0,1,0
57900000000,58200000000,3418390,0,564444639,0.003094,0.1188,0.1241,0.0004034,0.004837,0.1188,4.768e-06,0.000268,0.05121,0.0004282,2.413,0.008479,0,1,0
58200000000,58500000000,3418390,0,564444639,0.003189,0.1188,0.1241,0.0004263,0.00486,0.1188,4.768e-06,0.000268,0.01706,0.0006428,2.398,0.008415,0,1,0
58500000000,58800000000,3418390,0,564444639,0.00115,0.1187,0.1241,0.0004501,0.004883,0.1188,5.722e-06,0.0002689,0.01633,0.0009995,2.555,0.00952,0,1,0
58800000000,59100000000,3418390,0,564444639,0.0007563,0.1187,0.1241,0.0004568,0.00489,0.1187,1.907e-06,0.0002689,0.007919,0.0001431,2.286,0.008029,0,1,0
59100000000,59400000000,3418390,0,564444639,0.0007982,0.1187,0.1241,0.0004625,0.004898,0.1188,1.907e-05,0.0002689,0.007034,0.002499,2.129,0.007336,0,1,0
59400000000,59700000000,3418390,0,564444639,0.002655,0.1188,0.1241,0.0004816,0.004929,0.119,0.000185,0.0002689,0.04742,0.03265,2.933,0.01156,0,1,0
59700000000,60000000000,3418390,0,564444639,0.00317,0.1189,0.1241,0.0005674,0.005112,0.119,1.24e-05,0.0002689,0.01138,0.001358,2.567,0.009381,0,1,0
60000000000,60300000000,3418390,0,564444639,0.00317,0.1189,0.1241,0.000598,0.005142,0.1189,4.768e-06,0.0002689,0.01488,0.0002861,2.555,0.009409,0,1,0
60300000000,60600000000,3418390,0,564444639,0.003094,0.1189,0.1241,0.0006256,0.005165,0.1189,4.768e-06,0.0002689,0.02423,0.0003567,2.535,0.009326,0,1,0
60600000000,60900000000,3418390,0,564444639,0.00312,0.1189,0.1241,0.0006561,0.005196,0.1189,7.629e-06,0.0002689,0.02338,0.001143,2.63,0.009952,0,1,0
70800000000,71100000000,3418390,0,564444639,0.002922,0.1187,0.1241,0.000802,0.005234,0.1188,2.861e-06,0.0002689,0.01378,0.0001431,2.487,0.008677,0,1,0
71100000000,71400000000,3418390,0,564444639,0.003029,0.1187,0.1241,0.0008144,0.005249,0.1188,5.722e-06,0.000268,0.01263,0.0004282,2.474,0.008732,0,1,0
71400000000,71700000000,3418390,0,564444639,0.002972,0.1187,0.1241,0.0008364,0.005272,0.1188,5.722e-06,0.000268,0.02155,0.0004282,2.421,0.008624,0,1,0
71700000000,72000000000,3418390,0,564444639,0.002964,0.1188,0.1241,0.0008469,0.00528,0.1188,8.583e-06,0.000268,0.01216,0.001715,2.434,0.008664,0,1,0
72000000000,72300000000,3418390,0,564444639,0.003014,0.1188,0.1241,0.0004091,0.004845,0.1188,1.24e-05,0.000268,0.01558,0.001642,2.419,0.008613,0,1,0
72300000000,72600000000,3418390,0,564444639,0.003109,0.1187,0.1241,0.0002403,0.004677,0.1188,5.722e-06,0.000268,0.01411,0.0004282,2.436,0.008599,0,1,0
72600000000,72900000000,3418390,0,564444639,0.003132,0.1187,0.1241,0.0002584,0.004692,0.1188,5.722e-06,0.000268,0.011,0.0002861,2.454,0.008849,0,1,0
72900000000,73200000000,3418390,0,564444639,0.003162,0.1187,0.1241,0.0002766,0.004707,0.1188,2.861e-06,0.000268,0.01144,0.0002146,2.402,0.008532,0,1,0
73200000000,73500000000,3418390,0,564444639,0.003117,0.1188,0.1241,0.000308,0.004738,0.1188,3.815e-06,0.000268,0.01242,0.0002146,2.623,0.009349,0,1,0
73500000000,73800000000,3418390,0,564444639,0.00341,0.1188,0.1241,0.0003347,0.004768,0.1188,3.815e-06,0.000268,0.01947,0.0002146,2.618,0.009276,0,1,0
73800000000,74100000000,3418390,0,564444639,0.002983,0.1187,0.1241,0.0003328,0.004768,0.1188,4.768e-06,0.000268,0.01382,0.0002861,2.44,0.008536,0,1,0
74100000000,74400000000,3418390,0,564444639,0.003067,0.1187,0.1241,0.000351,0.004784,0.1188,4.768e-06,0.000268,0.0114,0.0007143,2.382,0.008218,0,1,0
74400000000,74700000000,3418390,0,564444639,0.003098,0.1188,0.1241,0.0003548,0.004791,0.1188,3.815e-06,0.000268,0.02368,0.0001431,2.298,0.007803,0,1,0
74700000000,75000000000,3418390,0,564444639,0.002949,0.1188,0.1241,0.0003614,0.004791,0.1188,4.768e-06,0.000268,0.01341,0.0004282,2.555,0.009259,0,1,0
75000000000,75300000000,3418390,0,564444639,0.002934,0.1187,0.1241,0.000391,0.004822,0.1188,2.861e-06,0.0002689,0.01532,0.0001431,2.457,0.00891,0,1,0
75300000000,75600000000,3418390,0,564444639,0.002953,0.1187,0.1241,0.0004215,0.004852,0.1188,3.815e-06,0.0002689,0.01425,0.0002146,2.394,0.008597,0,1,0
75600000000,75900000000,3418390,0,564444639,0.003475,0.1188,0.1241,0.0004549,0.00489,0.1188,3.815e-06,0.0002689,0.03644,0.0002146,2.476,0.008862,0,1,0
75900000000,76200000000,3418390,0,564444639,0.003151,0.1188,0.1241,0.0004539,0.00489,0.1188,4.768e-06,0.0002689,0.009583,0.0003567,2.519,0.00921,0,1,0
76200000000,76500000000,3418390,0,564444639,0.002518,0.1188,0.1241,0.000453,0.004883,0.1188,3.815e-06,0.0002689,0.0137,0.0003567,2.432,0.008941,0,1,0
76500000000,76800000000,3418390,0,564444639,0.002228,0.1187,0.1241,0.0004578,0.00489,0.1188,3.815e-06,0.0002689,0.0217,0.0004282,2.469,0.009222,0,1,0
76800000000,77100000000,3418390,0,564444639,0.002274,0.1187,0.1241,0.0004797,0.004913,0.1188,2.861e-06,0.0002689,0.01096,0.0001431,2.383,0.008656,0,1,0
77100000000,77400000000,3418390,0,564444639,0.002254,0.1187,0.1241,0.0005035,0.004936,0.1188,5.722e-06,0.0002689,0.01611,0.0007858,2.625,0.009762,0,1,0
77400000000,77700000000,3418390,0,564444639,0.001863,0.1187,0.1241,0.0005236,0.004959,0.1188,3.815e-06,0.0002689,0.01451,0.0004997,2.452,0.008926,0,1,0
77700000000,78000000000,3418390,0,564444639,0.001856,0.1187,0.1241,0.0005283,0.004959,0.1188,6.676e-06,0.0002689,0.01164,0.001143,2.504,0.008982,0,1,0
78000000000,78300000000,3418390,0,564444639,0.001884,0.1187,0.1241,0.0005198,0.004951,0.1188,7.629e-06,0.0002689,0.017,0.001286,2.545,0.009401,0,1,0
78300000000,78600000000,3418390,0,564444639,0.001961,0.1187,0.1241,0.0005074,0.004944,0.1188,9.537e-06,0.0002689,0.007698,0.001642,2.402,0.008572,0,1,0
78600000000,78900000000,3418390,0,564444639,0.001925,0.1187,0.1241,0.0005188,0.004951,0.1188,7.629e-06,0.0002689,0.008316,0.001286,2.537,0.009233,0,1,0
78900000000,79200000000,3418390,0,564444639,0.001925,0.1187,0.1241,0.0005379,0.004974,0.1188,6.676e-06,0.0002689,0.02179,0.001215,2.346,0.008514,0,1,0
79200000000,79500000000,3418390,0,564444639,0.001932,0.1187,0.1241,0.000556,0.00499,0.1188,2.861e-06,0.0002689,0.01291,0.0001431,2.539,0.009494,0,1,0
79500000000,79800000000,3418390,0,564444639,0.002052,0.1187,0.1241,0.0005751,0.005005,0.1188,4.768e-06,0.0002689,0.01596,0.0009289,2.403,0.008586,0,1,0
79800000000,80100000000,3418390,0,564444639,0.002186,0.1187,0.1241,0.0005951,0.005028,0.1188,2.861e-06,0.000268,0.02881,0.0001431,2.32,0.008338,0,1,0
80100000000,80400000000,3418390,0,564444639,0.002243,0.1187,0.1241,0.000618,0.005051,0.1188,5.722e-06,0.000268,0.01192,0.0009995,2.538,0.009476,0,1,0
80400000000,80700000000,3418390,0,564444639,0.002235,0.1187,0.1241,0.0006399,0.005074,0.1188,7.629e-06,0.000268,0.01111,0.0008574,2.409,0.008824,0,1,0
80700000000,81000000000,3418390,0,564444639,0.0023,0.1187,0.1241,0.0003185,0.004753,0.1188,4.768e-06,0.000268,0.01059,0.0007858,2.534,0.00937,0,1,0
85800000000,86100000000,3418390,0,564444639,0.002697,0.1187,0.1241,0.0004845,0.004921,0.1188,6.676e-06,0.0002689,0.01364,0.0009995,2.323,0.008348,0,1,0
86100000000,86400000000,3418390,0,564444639,0.002663,0.1187,0.1241,0.0005121,0.004944,0.1188,6.676e-06,0.0002689,0.01366,0.001358,2.185,0.007639,0,1,0
86400000000,86700000000,3418390,0,564444639,0.002785,0.1187,0.1241,0.0005398,0.004974,0.1188,2.861e-06,0.0002689,0.01205,0.0001431,2.403,0.008735,0,1,0
86700000000,87000000000,3418390,0,564444639,0.002724,0.1187,0.1241,0.0005655,0.004997,0.1188,3.815e-06,0.0002689,0.009628,0.0003567,2.348,0.00843,0,1,0
87000000000,87300000000,3418390,0,564444639,0.002792,0.1187,0.1241,0.000555,0.00499,0.1188,6.676e-06,0.0002689,0.01279,0.001286,2.368,0.008651,0,1,0
87300000000,87600000000,3418390,0,564444639,0.002907,0.1187,0.1241,0.0005827,0.005013,0.1188,6.676e-06,0.0002689,0.01532,0.0009995,2.491,0.009181,0,1,0
87600000000,87900000000,3418390,0,564444639,0.002621,0.1187,0.1241,0.0005865,0.00502,0.1188,6.676e-06,0.0002689,0.0126,0.0008574,2.343,0.008422,0,1,0
87900000000,88200000000,3418390,0,564444639,0.00264,0.1187,0.1241,0.000596,0.005028,0.1188,2.861e-06,0.0002689,0.02682,0.0002146,2.275,0.008197,0,1,0
88200000000,88500000000,3418390,0,564444639,0.002468,0.1187,0.1241,0.0006199,0.005051,0.1188,3.815e-06,0.0002689,0.01076,0.0002861,2.336,0.008429,0,1,0
88500000000,88800000000,3418390,0,564444639,0.002495,0.1187,0.1241,0.0006456,0.005081,0.1188,3.815e-06,0.0002689,0.01039,0.0002146,2.428,0.008894,0,1,0
88800000000,89100000000,3418390,0,564444639,0.003017,0.1187,0.1241,0.0006657,0.005096,0.1188,5.722e-06,0.0002689,0.01566,0.0009289,2.335,0.008264,0,1,0
89100000000,89400000000,3418390,0,564444639,0.003124,0.1187,0.1241,0.0006618,0.005096,0.1188,6.676e-06,0.000268,0.0343,0.0009289,2.301,0.00812,0,1,0
89400000000,89700000000,3418390,0,564444639,0.00275,0.1187,0.1241,0.0006914,0.005127,0.1188,1.049e-05,0.000268,0.01311,0.001715,2.396,0.008871,0,1,0
89700000000,90000000000,3418390,0,564444639,0.001837,0.1187,0.1241,0.0006752,0.005112,0.1188,2.861e-06,0.000268,0.01518,0.0002146,2.35,0.008649,0,1,0
90000000000,90300000000,3418390,0,564444639,0.001654,0.1187,0.1241,0.0006447,0.005081,0.1187,2.861e-06,0.000268,0.01575,0.0001431,2.374,0.008683,0,1,0
90300000000,90600000000,3418390,0,564444639,0.001711,0.1187,0.1241,0.0002251,0.004662,0.1187,3.815e-06,0.000268,0.01212,0.0003567,2.273,0.008095,0,1,0
90600000000,90900000000,3418390,0,564444639,0.001825,0.1187,0.1241,0.0002337,0.004669,0.1188,6.676e-06,0.000268,0.01279,0.0005713,2.328,0.008529,0,1,0
101100000000,101400000000,3418390,0,564444639,0.002422,0.1187,0.1241,0.0002613,0.004692,0.1187,3.815e-06,0.000268,0.02264,0.0002861,2.326,0.008431,0,1,0
101400000000,101700000000,3418390,0,564444639,0.002369,0.1187,0.1241,0.0002708,0.004707,0.1188,7.629e-06,0.000268,0.0145,0.001572,2.35,0.008528,0,1,0
101700000000,102000000000,3418390,0,564444639,0.002403,0.1187,0.1241,0.0002794,0.004715,0.1187,9.537e-06,0.000268,0.01155,0.001358,2.424,0.008592,0,1,0
102000000000,102300000000,3418390,0,564444639,0.002441,0.1187,0.1241,0.0002918,0.004723,0.1187,5.722e-06,0.000268,0.01001,0.0006428,2.44,0.008652,0,1,0
102300000000,102600000000,3418390,0,564444639,0.00248,0.1187,0.1241,0.000308,0.004738,0.1187,8.583e-06,0.000268,0.01131,0.001715,2.435,0.008792,0,1,0
102600000000,102900000000,3418390,0,564444639,0.002342,0.1187,0.1241,0.000309,0.004745,0.1187,3.815e-06,0.000268,0.03827,0.0003567,2.437,0.008824,0,1,0
102900000000,103200000000,3418390,0,564444639,0.002316,0.1187,0.1241,0.0003128,0.004745,0.1187,5.722e-06,0.000268,0.01675,0.0007858,2.358,0.008294,0,1,0
103200000000,103500000000,3418390,0,564444639,0.002369,0.1187,0.1241,0.0003309,0.004768,0.1188,3.815e-06,0.000268,0.02847,0.0001431,2.406,0.008707,0,1,0
103500000000,103800000000,3418390,0,564444639,0.002323,0.1187,0.1241,0.0003548,0.004791,0.1188,3.815e-06,0.000268,0.01031,0.0002861,2.257,0.00791,0,1,0
103800000000,104100000000,3418390,0,564444639,0.002335,0.1187,0.1241,0.0003777,0.004814,0.1188,6.676e-06,0.0002689,0.01051,0.001286,2.38,0.00848,0,1,0
104100000000,104400000000,3418390,0,564444639,0.002445,0.1187,0.1241,0.0004015,0.004837,0.1188,1.24e-05,0.0002689,0.01569,0.002213,2.549,0.009028,0,1,0
104400000000,104700000000,3418390,0,564444639,0.002331,0.1187,0.1241,0.0004244,0.00486,0.1188,3.815e-06,0.0002689,0.01199,0.0002146,2.376,0.008608,0,1,0
104700000000,105000000000,3418390,0,564444639,0.002392,0.1187,0.1241,0.0004139,0.004845,0.1188,4.768e-06,0.0002689,0.015,0.0004282,2.362,0.008501,0,1,0
105000000000,105300000000,3418390,0,564444639,0.002697,0.1187,0.1241,0.0004196,0.004852,0.1187,4.768e-06,0.0002689,0.01822,0.0002861,2.382,0.008466,0,1,0
105300000000,105600000000,3418390,0,564444639,0.002689,0.1187,0.1241,0.0004292,0.00486,0.1188,8.583e-06,0.0002689,0.01183,0.001286,2.273,0.007846,0,1,0
105600000000,105900000000,3418390,0,564444639,0.002686,0.1187,0.1241,0.0004244,0.00486,0.1188,4.768e-06,0.0002689,0.01276,0.0006428,2.224,0.00762,0,1,0
105900000000,106200000000,3418390,0,564444639,0.002468,0.1187,0.1241,0.0004463,0.004883,0.1187,5.722e-06,0.0002689,0.01105,0.0009289,2.259,0.007842,0,1,0
106200000000,106500000000,3418390,0,564444639,0.002419,0.1187,0.1241,0.0004654,0.004898,0.1188,3.815e-06,0.0002689,0.01181,0.0001431,2.349,0.008564,0,1,0
106500000000,106800000000,3418390,0,564444639,0.002422,0.1187,0.1241,0.0004587,0.00489,0.1187,3.815e-06,0.0002689,0.01639,0.0002146,2.336,0.00834,0,1,0
106800000000,107100000000,3418390,0,564444639,0.002434,0.1187,0.1241,0.0004826,0.004913,0.1188,3.815e-06,0.0002689,0.01636,0.0001431,2.173,0.007527,0,1,0
107100000000,107400000000,3418390,0,564444639,0.002647,0.1187,0.1241,0.0005026,0.004936,0.1188,3.815e-06,0.0002689,0.0163,0.0002146,2.283,0.008093,0,1,0
107400000000,107700000000,3418390,0,564444639,0.00259,0.1187,0.1241,0.0005074,0.004944,0.1188,3.815e-06,0.0002689,0.01956,0.0001431,2.198,0.007533,0,1,0
107700000000,108000000000,3418390,0,564444639,0.002644,0.1187,0.1241,0.0005264,0.004959,0.1188,6.676e-06,0.0002689,0.01309,0.001072,2.247,0.007834,0,1,0
108000000000,108300000000,3418390,0,564444639,0.002625,0.1187,0.1241,0.0005484,0.004982,0.1188,8.583e-06,0.0002689,0.02982,0.001715,2.117,0.007175,0,1,0
108300000000,108600000000,3418390,0,564444639,0.00272,0.1187,0.1241,0.0005512,0.004982,0.1188,1.431e-05,0.0002689,0.0112,0.00293,2.203,0.00758,0,1,0
108600000000,108900000000,3418390,0,564444639,0.002613,0.1187,0.1241,0.0005579,0.00499,0.1188,1.526e-05,0.000268,0.01398,0.00293,2.329,0.008195,0,1,0
108900000000,109200000000,3418390,0,564444639,0.002663,0.1187,0.1241,0.0005455,0.004982,0.1188,1.144e-05,0.000268,0.03036,0.002357,2.334,0.008168,0,1,0
109200000000,109500000000,3418390,0,564444639,0.002495,0.1187,0.1241,0.0005617,0.004997,0.1188,2.384e-05,0.000268,0.01904,0.002998,2.206,0.007746,0,1,0
109500000000,109800000000,3418390,0,564444639,0.002495,0.1187,0.1241,0.0005865,0.00502,0.1188,5.722e-06,0.000268,0.01465,0.001072,2.225,0.007731,0,1,0
109800000000,110100000000,3418390,0,564444639,0.002686,0.1187,0.1241,0.0006123,0.005043,0.1188,2.861e-06,0.000268,0.0267,0.0003567,2.244,0.007785,0,1,0
110100000000,110400000000,3418390,0,564444639,0.002621,0.1187,0.1241,0.0006104,0.005043,0.1188,3.815e-06,0.000268,0.01015,0.0002146,2.302,0.008043,0,1,0
110400000000,110700000000,3418390,0,564444639,0.002472,0.1187,0.1241,0.0003891,0.004822,0.1188,9.537e-07,0.000268,0.01323,0.0001431,2.238,0.007804,0,1,0
110700000000,111000000000,3418390,0,564444639,0.002457,0.1187,0.1241,0.0002785,0.004715,0.1188,6.676e-06,0.000268,0.02386,0.001143,2.097,0.007075,0,1,0
116100000000,116400000000,3418390,0,564444639,0.00264,0.1188,0.1241,0.0004988,0.004929,0.1188,3.815e-06,0.0002689,0.03741,0.0006428,2.235,0.007595,0,1,0
116400000000,116700000000,3418390,0,564444639,0.002483,0.1188,0.1241,0.000514,0.004944,0.1188,2.861e-06,0.0002689,0.0162,0.0002146,2.211,0.007751,0,1,0
116700000000,117000000000,3418390,0,564444639,0.002499,0.1188,0.1241,0.000536,0.004967,0.1188,2.861e-06,0.0002689,0.01015,0.0004282,2.187,0.007657,0,1,0
117000000000,117300000000,3418390,0,564444639,0.002552,0.1188,0.1241,0.0005608,0.004997,0.1188,3.815e-06,0.0002689,0.01466,0.0003567,2.219,0.007797,0,1,0
117300000000,117600000000,3418390,0,564444639,0.002628,0.1188,0.1241,0.0005865,0.00502,0.1188,3.815e-06,0.0002689,0.01521,0.0002146,2.36,0.008281,0,1,0
117600000000,117900000000,3418390,0,564444639,0.002666,0.1188,0.1241,0.0006113,0.005043,0.1188,1.907e-06,0.0002689,0.0206,0.0001431,2.266,0.007951,0,1,0
117900000000,118200000000,3418390,0,564444639,0.002583,0.1187,0.1241,0.0006227,0.005058,0.1188,1.907e-06,0.0002689,0.04218,0.0002146,2.138,0.00718,0,1,0
118200000000,118500000000,3418390,0,564444639,0.002525,0.1187,0.1241,0.0006475,0.005081,0.1188,5.722e-06,0.000268,0.009476,0.0008574,2.241,0.007696,0,1,0
118500000000,118800000000,3418390,0,564444639,0.002708,0.1187,0.1241,0.0006733,0.005104,0.1188,5.722e-06,0.000268,0.01158,0.0009289,2.365,0.008273,0,1,0
118800000000,119100000000,3418390,0,564444639,0.002632,0.1187,0.1241,0.0002546,0.004684,0.1188,3.815e-06,0.000268,0.01862,0.0004997,2.011,0.006488,0,1,0
119100000000,119400000000,3418390,0,564444639,0.002686,0.1187,0.1241,0.0002241,0.004654,0.1188,9.537e-06,0.000268,0.02985,0.001286,2.253,0.007644,0,1,0
119400000000,119700000000,3418390,0,564444639,0.002804,0.1187,0.1241,0.0002508,0.004684,0.1188,3.815e-06,0.000268,0.01877,0.0003567,2.324,0.00805,0,1,0
119700000000,120000000000,3418390,0,564444639,0.002823,0.1187,0.1241,0.0002747,0.004707,0.1188,5.722e-06,0.000268,0.02026,0.001072,2.378,0.008532,0,1,0
120000000000,120300000000,3418390,0,564444639,0.002865,0.1187,0.1241,0.0002708,0.004707,0.1188,4.768e-06,0.000268,0.01488,0.0004997,2.343,0.008088,0,1,0
120300000000,120600000000,3418390,0,564444639,0.002731,0.1187,0.1241,0.0002947,0.00473,0.1188,7.629e-06,0.000268,0.01471,0.001499,2.296,0.008034,0,1,0
120600000000,120900000000,3418390,0,564444639,0.002655,0.1187,0.1241,0.0003214,0.004753,0.1188,6.676e-06,0.000268,0.01131,0.001072,2.338,0.00841,0,1,0
126000000000,126300000000,3418390,0,564444639,0.002701,0.1187,0.1241,0.0006781,0.005112,0.1188,7.629e-06,0.0002689,0.01581,0.0009289,2.177,0.00758,0,1,0
126300000000,126600000000,3418390,0,564444639,0.002605,0.1187,0.1241,0.0007057,0.005142,0.1188,5.722e-06,0.0002689,0.01494,0.0006428,2.396,0.008754,0,1,0
126600000000,126900000000,3418390,0,564444639,0.002502,0.1187,0.1241,0.0007324,0.005165,0.1188,2.861e-06,0.0002689,0.01505,0.0001431,2.291,0.008177,0,1,0
126900000000,127200000000,3418390,0,564444639,0.002415,0.1187,0.1241,0.0007334,0.005165,0.1188,7.629e-06,0.000268,0.01367,0.001215,2.341,0.008306,0,1,0
127200000000,127500000000,3418390,0,564444639,0.00246,0.1187,0.1241,0.000721,0.005157,0.1187,6.676e-06,0.000268,0.01859,0.001072,2.369,0.008524,0,1,0
127500000000,127800000000,3418390,0,564444639,0.002445,0.1187,0.1241,0.0007133,0.00515,0.1188,1.907e-05,0.000268,0.01733,0.004074,2.258,0.007997,0,1,0
127800000000,128100000000,3418390,0,564444639,0.002552,0.1187,0.1241,0.0007124,0.005142,0.1187,6.676e-06,0.000268,0.01402,0.0007143,2.117,0.007356,0,1,0
128100000000,128400000000,3418390,0,564444639,0.002422,0.1187,0.1241,0.0007277,0.005165,0.1188,7.629e-06,0.000268,0.01155,0.001358,2.216,0.007849,0,1,0
128400000000,128700000000,3418390,0,564444639,0.002426,0.1187,0.1241,0.0007534,0.005188,0.1188,2.861e-06,0.000268,0.008972,0.0002146,2.217,0.007825,0,1,0
128700000000,129000000000,3418390,0,564444639,0.002537,0.1187,0.1241,0.0007782,0.005211,0.1188,2.861e-06,0.000268,0.01984,0.0002146,2.249,0.007916,0,1,0
129000000000,129300000000,3418390,0,564444639,0.00248,0.1187,0.1241,0.0007877,0.005219,0.1188,2.861e-06,0.000268,0.0123,0.0001431,2.097,0.007172,0,1,0
129300000000,129600000000,3418390,0,564444639,0.002419,0.1187,0.1241,0.0005236,0.004959,0.1188,4.768e-06,0.000268,0.01572,0.0008574,2.238,0.007775,0,1,0
129600000000,129900000000,3418390,0,564444639,0.00256,0.1187,0.1241,0.0002899,0.004723,0.1188,4.768e-06,0.000268,0.02216,0.0004997,2.271,0.008095,0,1,0
129900000000,130200000000,3418390,0,564444639,0.002407,0.1188,0.1241,0.0003157,0.004745,0.1188,2.861e-06,0.000268,0.01207,0.0002146,2.105,0.007311,0,1,0
130200000000,130500000000,3418390,0,564444639,0.00264,0.1188,0.1241,0.0003176,0.004753,0.1188,8.583e-06,0.000268,0.02344,0.001858,2.291,0.007975,0,1,0
130500000000,130800000000,3418390,0,564444639,0.00267,0.1187,0.1241,0.0003424,0.004776,0.1188,3.815e-06,0.000268,0.009567,0.0002146,2.279,0.007975,0,1,0
130800000000,131100000000,3418390,0,564444639,0.002701,0.1187,0.1241,0.0003557,0.004791,0.1188,6.676e-06,0.000268,0.0271,0.001072,2.213,0.007569,0,1,0
141000000000,141300000000,3418390,0,564444639,0.003193,0.1187,0.1241,0.0004654,0.004898,0.1188,4.768e-06,0.0002689,0.01009,0.0003567,2.224,0.007759,0,1,0
141300000000,141600000000,3418390,0,564444639,0.003242,0.1187,0.1241,0.0004969,0.004929,0.1188,9.537e-06,0.0002689,0.011,0.001358,2.437,0.008665,0,1,0
141600000000,141900000000,3418390,0,564444639,0.003143,0.1187,0.1241,0.0005283,0.004959,0.1188,3.815e-06,0.0002689,0.01614,0.0004997,2.234,0.007771,0,1,0
141900000000,142200000000,3418390,0,564444639,0.003136,0.1187,0.1241,0.0005589,0.00499,0.1188,2.861e-06,0.0002689,0.01953,0.0002146,2.26,0.007863,0,1,0
142200000000,142500000000,3418390,0,564444639,0.003101,0.1187,0.1241,0.0005884,0.00502,0.1188,7.629e-06,0.0002689,0.01205,0.001358,2.229,0.007639,0,1,0
142500000000,142800000000,3418390,0,564444639,0.003208,0.1187,0.1241,0.000617,0.005051,0.1188,3.815e-06,0.0002689,0.02509,0.0003567,2.147,0.007093,0,1,0
142800000000,143100000000,3418390,0,564444639,0.003208,0.1187,0.1241,0.0006475,0.005081,0.1187,8.583e-06,0.0002689,0.01172,0.001286,2.337,0.008228,0,1,0
143100000000,143400000000,3418390,0,564444639,0.003098,0.1187,0.1241,0.0006638,0.005096,0.1187,2.861e-06,0.0002689,0.01773,0.0002146,2.281,0.007795,0,1,0
143400000000,143700000000,3418390,0,564444639,0.003044,0.1187,0.1241,0.0006609,0.005096,0.1187,3.815e-06,0.000268,0.01974,0.0002146,2.265,0.007874,0,1,0
143700000000,144000000000,3418390,0,564444639,0.003002,0.1187,0.1241,0.0006905,0.005127,0.1188,6.676e-06,0.000268,0.01477,0.001072,2.328,0.00814,0,1,0
144000000000,144300000000,3418390,0,564444639,0.003162,0.1187,0.1241,0.0003481,0.004784,0.1188,8.583e-06,0.000268,0.01852,0.001928,2.184,0.007418,0,1,0
144300000000,144600000000,3418390,0,564444639,0.003155,0.1187,0.1241,0.0002117,0.004646,0.1188,4.768e-06,0.000268,0.02032,0.0008574,2.223,0.007332,0,1,0
144600000000,144900000000,3418390,0,564444639,0.003159,0.1187,0.1241,0.0002413,0.004677,0.1188,6.676e-06,0.000268,0.01218,0.001286,2.371,0.008389,0,1,0
144900000000,145200000000,3418390,0,564444639,0.003117,0.1187,0.1241,0.0002718,0.004707,0.1188,4.768e-06,0.000268,0.02322,0.0009289,2.312,0.008088,0,1,0
145200000000,145500000000,3418390,0,564444639,0.003201,0.1187,0.1241,0.0003014,0.004738,0.1188,2.861e-06,0.000268,0.01085,0.0001431,2.216,0.007646,0,1,0
145500000000,145800000000,3418390,0,564444639,0.003178,0.1188,0.1241,0.0003319,0.004768,0.1188,2.67e-05,0.000268,0.01917,0.006287,2.506,0.008786,0,1,0
145800000000,146100000000,3418390,0,564444639,0.003613,0.1188,0.1241,0.0003872,0.004852,0.1191,0.0003443,0.000268,0.07971,0.03632,3.183,0.01277,0,1,0
151200000000,151500000000,3418390,0,564444639,0.002262,0.1187,0.1241,0.0007286,0.005165,0.1188,4.768e-06,0.0002689,0.01454,0.0008574,2.383,0.008146,0,1,0
151500000000,151800000000,3418390,0,564444639,0.002167,0.1187,0.1241,0.0007172,0.005157,0.1188,3.815e-06,0.0002689,0.01387,0.0002861,2.417,0.00823,0,1,0
151800000000,152100000000,3418390,0,564444639,0.002121,0.1187,0.1241,0.000679,0.005119,0.1187,5.722e-06,0.000268,0.008957,0.0008574,2.512,0.009081,0,1,0
152100000000,152400000000,3418390,0,564444639,0.002174,0.1187,0.1241,0.0006771,0.005119,0.1188,7.629e-06,0.000268,0.01186,0.001143,2.423,0.008495,0,1,0
152400000000,152700000000,3418390,0,564444639,0.002064,0.1187,0.1241,0.0006895,0.005127,0.1188,2.861e-06,0.000268,0.01405,0.0001431,2.36,0.008323,0,1,0
152700000000,153000000000,3418390,0,564444639,0.002045,0.1187,0.1241,0.0007086,0.00515,0.1188,3.815e-06,0.000268,0.01201,0.0004997,2.361,0.007984,0,1,0
153000000000,153300000000,3418390,0,564444639,0.002132,0.1187,0.1241,0.000411,0.004852,0.1188,3.815e-06,0.000268,0.01019,0.0003567,2.355,0.008172,0,1,0
153300000000,153600000000,3418390,0,564444639,0.002132,0.1187,0.1241,0.0002346,0.004677,0.1188,1.907e-06,0.000268,0.01265,0.0002146,2.44,0.008265,0,1,0
153600000000,153900000000,3418390,0,564444639,0.002018,0.1187,0.1241,0.0002518,0.004692,0.1188,2.861e-06,0.000268,0.01395,0.0001431,2.428,0.008527,0,1,0
153900000000,154200000000,3418390,0,564444639,0.002068,0.1187,0.1241,0.0002699,0.004707,0.1188,3.815e-06,0.000268,0.01039,0.0006428,2.326,0.007821,0,1,0
154200000000,154500000000,3418390,0,564444639,0.0009184,0.1187,0.1241,0.0002832,0.004723,0.1188,2.861e-06,0.000268,0.01454,0.0002861,2.341,0.008254,0,1,0
154500000000,154800000000,3418390,0,564444639,0.0008345,0.1187,0.1241,0.000289,0.00473,0.1188,1.907e-06,0.000268,0.006607,0.0002146,2.342,0.007931,0,1,0
154800000000,155100000000,3418390,0,564444639,0.0008307,0.1187,0.1241,0.0002947,0.004738,0.1187,2.861e-06,0.000268,0.01196,0.0002146,2.433,0.00871,0,1,0
155100000000,155400000000,3418390,0,564444639,0.0008631,0.1187,0.1241,0.0002995,0.004738,0.1187,2.861e-06,0.000268,0.0242,0.0004282,2.44,0.008585,0,1,0
155400000000,155700000000,3418390,0,564444639,0.0008478,0.1187,0.1241,0.0003052,0.004745,0.1187,2.861e-06,0.000268,0.02487,0.0001431,2.285,0.007931,0,1,0
155700000000,156000000000,3418390,0,564444639,0.0008154,0.1187,0.1241,0.0003099,0.004753,0.1187,3.815e-06,0.000268,0.008865,0.0004282,2.3,0.007902,0,1,0
161100000000,161400000000,3418390,0,564444639,0.001778,0.1187,0.1241,0.000433,0.004875,0.1187,1.907e-06,0.0002689,0.01889,0.0002861,2.437,0.008456,0,1,0
161400000000,161700000000,3418390,0,564444639,0.001791,0.1187,0.1241,0.0004473,0.00489,0.1187,3.815e-06,0.0002689,0.01697,0.0002146,2.548,0.009314,0,1,0
161700000000,162000000000,3418390,0,564444639,0.001705,0.1187,0.1241,0.0004625,0.004906,0.1187,4.768e-06,0.0002689,0.01691,0.0007143,2.505,0.008861,0,1,0
162000000000,162300000000,3418390,0,564444639,0.00165,0.1187,0.1241,0.0004549,0.004898,0.1187,6.676e-06,0.0002689,0.01506,0.001358,2.34,0.008426,0,1,0
162300000000,162600000000,3418390,0,564444639,0.001711,0.1187,0.1241,0.0004578,0.004898,0.1187,5.722e-06,0.0002689,0.01454,0.001143,2.315,0.008137,0,1,0
162600000000,162900000000,3418390,0,564444639,0.001835,0.1187,0.1241,0.000474,0.004913,0.1187,5.722e-06,0.0002689,0.02829,0.0009995,2.352,0.008492,0,1,0
162900000000,163200000000,3418390,0,564444639,0.001772,0.1187,0.1241,0.0004902,0.004929,0.1187,6.676e-06,0.0002689,0.01524,0.0008574,2.339,0.00808,0,1,0
163200000000,163500000000,3418390,0,564444639,0.001919,0.1187,0.1241,0.0004807,0.004921,0.1187,7.629e-06,0.0002689,0.01085,0.001715,2.435,0.008646,0,1,0
163500000000,163800000000,3418390,0,564444639,0.001854,0.1187,0.1241,0.0004644,0.004906,0.1187,3.815e-06,0.0002689,0.0184,0.0006428,2.33,0.007916,0,1,0
163800000000,164100000000,3418390,0,564444639,0.001904,0.1187,0.1241,0.0004683,0.004906,0.1187,1.907e-06,0.0002689,0.03229,0.0002146,2.19,0.007494,0,1,0
164100000000,164400000000,3418390,0,564444639,0.001865,0.1187,0.1241,0.0004663,0.004906,0.1187,3.815e-06,0.0002689,0.01248,0.0002146,2.357,0.008317,0,1,0
164400000000,164700000000,3418390,0,564444639,0.001822,0.1187,0.1241,0.0004654,0.004906,0.1187,2.861e-06,0.0002689,0.01122,0.0002146,2.404,0.008604,0,1,0
164700000000,165000000000,3418390,0,564444639,0.001976,0.1187,0.1241,0.0004692,0.004906,0.1187,3.815e-06,0.0002689,0.01105,0.0004282,2.496,0.008757,0,1,0
165000000000,165300000000,3418390,0,564444639,0.00193,0.1187,0.1241,0.0004854,0.004929,0.1187,1.907e-06,0.0002689,0.01085,0.0001431,2.441,0.008864,0,1,0
165300000000,165600000000,3418390,0,564444639,0.002018,0.1187,0.1241,0.0005035,0.004944,0.1188,2.861e-06,0.0002689,0.01341,0.0002146,2.317,0.00779,0,1,0
165600000000,165900000000,3418390,0,564444639,0.002144,0.1187,0.1241,0.0005207,0.004959,0.1187,1.907e-06,0.0002689,0.05133,0.0001431,2.319,0.007874,0,1,0
165900000000,166200000000,3418390,0,564444639,0.002132,0.1187,0.1241,0.0004959,0.004936,0.1188,2.956e-05,0.0002689,0.01904,0.007713,2.439,0.008274,0,1,0
166200000000,166500000000,3418390,0,564444639,0.002254,0.1187,0.1241,0.0005112,0.004951,0.1188,2.861e-06,0.0002689,0.01068,0.0002146,2.5,0.008628,0,1,0
166500000000,166800000000,3418390,0,564444639,0.001554,0.1187,0.1241,0.0005293,0.004974,0.1187,6.676e-06,0.0002689,0.008942,0.001642,2.595,0.00901,0,1,0
166800000000,167100000000,3418390,0,564444639,0.0007687,0.1187,0.1241,0.0005369,0.004982,0.1187,6.676e-06,0.0002689,0.01018,0.001642,2.312,0.00809,0,1,0
167100000000,167400000000,3418390,0,564444639,0.0007849,0.1187,0.1241,0.0005417,0.004982,0.1187,6.676e-06,0.0002689,0.01137,0.001072,2.437,0.008685,0,1,0
167400000000,167700000000,3418390,0,564444639,0.0008116,0.1187,0.1241,0.0005474,0.00499,0.1188,2.67e-05,0.0002689,0.01581,0.00457,2.169,0.007463,0,1,0
167700000000,168000000000,3418390,0,564444639,0.00102,0.1188,0.1241,0.0005722,0.005051,0.119,0.0001841,0.0002689,0.04187,0.02158,3.978,0.01698,0,1,0
168000000000,168300000000,3418390,0,564444639,0.0008936,0.1189,0.1241,0.0006199,0.005173,0.119,3.815e-06,0.0002689,0.008591,0.0002861,3.566,0.01449,0,1,0
168300000000,168600000000,3418390,0,564444639,0.0008354,0.1188,0.1241,0.0006247,0.005173,0.1189,8.583e-06,0.0002689,0.009537,0.001143,3.127,0.01193,0,1,0
168600000000,168900000000,3418390,0,564444639,0.0008879,0.1188,0.1241,0.0006294,0.00518,0.1189,7.629e-06,0.0002689,0.0184,0.001358,3.383,0.01356,0,1,0
168900000000,169200000000,3418390,0,564444639,0.0008364,0.1188,0.1241,0.0006342,0.005188,0.1189,1.144e-05,0.0002689,0.01187,0.002071,2.998,0.01143,0,1,0
169200000000,169500000000,3418390,0,564444639,0.0007982,0.1188,0.1241,0.0007381,0.005188,0.119,5.722e-06,0.0002689,0.01453,0.001072,2.207,0.00751,0,1,0
169500000000,169800000000,3418390,0,564444639,0.0007648,0.1187,0.1241,0.0007524,0.005196,0.1187,5.722e-06,0.0002699,0.007545,0.001143,2.162,0.006973,0,1,0
169800000000,170100000000,3418390,0,564444639,0.0008316,0.1187,0.1241,0.0007572,0.005196,0.1188,1.049e-05,0.0002699,0.006432,0.001785,2.196,0.007526,0,1,0
170100000000,170400000000,3418390,0,564444639,0.0007992,0.1187,0.1241,0.0007191,0.005157,0.1187,2.861e-06,0.0002699,0.007797,0.0005713,2.313,0.007812,0,1,0
170400000000,170700000000,3418390,0,564444639,0.0008078,0.1187,0.1241,0.0007172,0.005157,0.1187,6.676e-06,0.000268,0.02289,0.001572,2.141,0.007301,0,1,0
170700000000,171000000000,3418390,0,564444639,0.000761,0.1187,0.1241,0.0007124,0.00515,0.1187,1.907e-06,0.000268,0.01001,0.0002146,2.249,0.007711,0,1,0
171000000000,171300000000,3418390,0,564444639,0.0007935,0.1187,0.1241,0.0007143,0.005157,0.1187,5.722e-06,0.000268,0.0209,0.0008574,2.331,0.008368,0,1,0
171300000000,171600000000,3418390,0,564444639,0.0007544,0.1187,0.1241,0.0005808,0.00502,0.1187,6.676e-06,0.000268,0.007904,0.001143,2.23,0.007583,0,1,0
171600000000,171900000000,3418390,0,564444639,0.000782,0.1187,0.1241,0.0005512,0.00499,0.1188,2.861e-06,0.000268,0.01291,0.0004997,2.184,0.007723,0,1,0
171900000000,172200000000,3418390,0,564444639,0.0007772,0.1187,0.1241,0.000556,0.004997,0.1187,5.722e-06,0.000268,0.009369,0.0009289,2.209,0.0075,0,1,0
172200000000,172500000000,3418390,0,564444639,0.0008116,0.1187,0.1241,0.0005617,0.005005,0.1187,1.907e-06,0.000268,0.01587,0.0002146,2.126,0.007401,0,1,0
172500000000,172800000000,3418390,0,564444639,0.0008192,0.1187,0.1241,0.0005665,0.005005,0.1187,2.861e-06,0.000268,0.01712,0.0004997,2.161,0.007336,0,1,0
172800000000,173100000000,3418390,0,564444639,0.0007849,0.1187,0.1241,0.0005713,0.005013,0.1188,1.907e-06,0.000268,0.004982,0.0001431,1.952,0.006371,0,1,0
173100000000,173400000000,3418390,0,564444639,0.000803,0.1187,0.1241,0.000577,0.00502,0.1188,2.861e-06,0.000268,0.01244,0.0004282,2.217,0.007537,0,1,0
173400000000,173700000000,3418390,0,564444639,0.0008183,0.1187,0.1241,0.0005817,0.00502,0.1188,2.861e-06,0.000268,0.007652,0.0004997,2.033,0.006689,0,1,0
173700000000,174000000000,3418390,0,564444639,0.0008154,0.1187,0.1241,0.0005865,0.005028,0.1187,2.861e-06,0.000268,0.008774,0.0003567,2.322,0.008024,0,1,0
174000000000,174300000000,3418390,0,564444639,0.0007515,0.1187,0.1241,0.0005922,0.005035,0.1187,1.907e-06,0.000268,0.007858,0.0001431,2.302,0.008033,0,1,0
174300000000,174600000000,3418390,0,564444639,0.0007629,0.1187,0.1241,0.0005713,0.005013,0.1187,2.861e-06,0.000268,0.009201,0.0004997,2.403,0.008529,0,1,0
174600000000,174900000000,3418390,0,564444639,0.0007706,0.1187,0.1241,0.0005589,0.004997,0.1187,1.907e-06,0.000268,0.008835,0.0002861,2.293,0.008088,0,1,0
174900000000,175200000000,3418390,0,564444639,0.0007687,0.1187,0.1241,0.0005579,0.004997,0.1188,1.907e-06,0.000268,0.02078,0.0002146,2.465,0.008846,0,1,0
175200000000,175500000000,3418390,0,564444639,0.0008297,0.1187,0.1241,0.0002832,0.004723,0.1187,1.907e-06,0.000268,0.02481,0.0001431,2.558,0.009221,0,1,0
175500000000,175800000000,3418390,0,564444639,0.0007811,0.1187,0.1241,0.0002317,0.004669,0.1187,1.907e-06,0.000268,0.006111,0.0002861,2.121,0.006948,0,1,0
175800000000,176100000000,3418390,0,564444639,0.0007515,0.1187,0.1241,0.0002356,0.004677,0.1187,2.861e-06,0.000268,0.01794,0.0002146,2.29,0.008137,0,1,0
186300000000,186600000000,3418390,0,564444639,0.0007467,0.1187,0.1241,0.0003157,0.004753,0.1187,1.907e-06,0.000268,0.009949,0.0002146,2.019,0.006878,0,1,0
186600000000,186900000000,3418390,0,564444639,0.0007687,0.1187,0.1241,0.0003204,0.004761,0.1187,5.722e-06,0.000268,0.01183,0.001215,2.228,0.007899,0,1,0
186900000000,187200000000,3418390,0,564444639,0.0007544,0.1187,0.1241,0.0003262,0.004768,0.1187,3.815e-06,0.000268,0.02139,0.0008574,2.089,0.00715,0,1,0
187200000000,187500000000,3418390,0,564444639,0.0007496,0.1187,0.1241,0.0003309,0.004768,0.1187,4.768e-06,0.000268,0.008469,0.0009995,2.21,0.007762,0,1,0
187500000000,187800000000,3418390,0,564444639,0.0007792,0.1187,0.1241,0.0003223,0.004761,0.1187,1.907e-06,0.000268,0.01488,0.0002861,1.979,0.006763,0,1,0
187800000000,188100000000,3418390,0,564444639,0.0007696,0.1187,0.1241,0.0003147,0.004753,0.1187,3.815e-06,0.000268,0.01537,0.0005713,2.166,0.007639,0,1,0
188100000000,188400000000,3418390,0,564444639,0.0007515,0.1187,0.1241,0.0003195,0.004761,0.1187,4.768e-06,0.000268,0.006142,0.001286,2.042,0.007089,0,1,0
188400000000,188700000000,3418390,0,564444639,0.0007868,0.1187,0.1241,0.0003252,0.004768,0.1187,5.722e-06,0.000268,0.007339,0.001286,2.1,0.007159,0,1,0
188700000000,189000000000,3418390,0,564444639,0.0007782,0.1187,0.1241,0.0003109,0.004753,0.1187,2.861e-06,0.000268,0.01543,0.0004282,2.141,0.006884,0,1,0
189000000000,189300000000,3418390,0,564444639,0.0007296,0.1187,0.1241,0.0003147,0.004753,0.1187,5.722e-06,0.000268,0.006622,0.001429,2.339,0.008644,0,1,0
189300000000,189600000000,3418390,0,564444639,0.0007887,0.1187,0.1241,0.0003195,0.004761,0.1187,5.722e-06,0.000268,0.01425,0.001072,2.222,0.007919,0,1,0
189600000000,189900000000,3418390,0,564444639,0.0008421,0.1187,0.1241,0.0003252,0.004768,0.1187,1.907e-06,0.000268,0.01137,0.0001431,2.265,0.00834,0,1,0
189900000000,190200000000,3418390,0,564444639,0.0008526,0.1187,0.1241,0.0003195,0.004761,0.1187,2.861e-06,0.000268,0.006958,0.0003567,2.05,0.006847,0,1,0
190200000000,190500000000,3418390,0,564444639,0.0009346,0.1187,0.1241,0.0003042,0.004745,0.1187,3.815e-06,0.000268,0.01056,0.0009289,2.108,0.006951,0,1,0
190500000000,190800000000,3418390,0,564444639,0.0008497,0.1187,0.1241,0.0003061,0.004745,0.1187,5.722e-06,0.000268,0.007469,0.001358,2.097,0.006876,0,1,0
190800000000,191100000000,3418390,0,564444639,0.0008554,0.1187,0.1241,0.0003119,0.004753,0.1187,5.722e-06,0.000268,0.006599,0.0008574,2.137,0.007329,0,1,0
191100000000,191400000000,3418390,0,564444639,0.0008202,0.1187,0.1241,0.0003176,0.004761,0.1187,1.907e-06,0.000268,0.01476,0.0003567,2.106,0.007164,0,1,0
191400000000,191700000000,3418390,0,564444639,0.0008259,0.1187,0.1241,0.0003176,0.004761,0.1187,1.24e-05,0.000268,0.01761,0.002213,2.201,0.007766,0,1,0
191700000000,192000000000,3418390,0,564444639,0.000824,0.1187,0.1241,0.0003023,0.004745,0.1187,8.583e-06,0.000268,0.01018,0.001928,2.415,0.00842,0,1,0
192000000000,192300000000,3418390,0,564444639,0.0008516,0.1187,0.1241,0.000308,0.004745,0.1187,1.907e-06,0.000268,0.0136,0.0002146,2.278,0.007893,0,1,0
192300000000,192600000000,3418390,0,564444639,0.0008631,0.1187,0.1241,0.0003138,0.004753,0.1187,2.861e-06,0.000268,0.009201,0.0003567,2.224,0.007422,0,1,0
192600000000,192900000000,3418390,0,564444639,0.0007792,0.1187,0.1241,0.0003195,0.004761,0.1187,9.537e-07,0.000268,0.01215,0.0001431,2.311,0.008295,0,1,0
192900000000,193200000000,3418390,0,564444639,0.0007877,0.1187,0.1241,0.0003157,0.004753,0.1187,2.861e-06,0.000268,0.007347,0.0002146,2.244,0.008216,0,1,0
193200000000,193500000000,3418390,0,564444639,0.0008249,0.1187,0.1241,0.000308,0.004745,0.1187,2.861e-06,0.0002689,0.0116,0.0006428,2.318,0.008625,0,1,0
193500000000,193800000000,3418390,0,564444639,0.0007715,0.1187,0.1241,0.0003128,0.004753,0.1187,4.768e-06,0.0002689,0.01016,0.0007858,2.499,0.009397,0,1,0
193800000000,194100000000,3418390,0,564444639,0.000761,0.1187,0.1241,0.0003185,0.004761,0.1187,5.722e-06,0.0002689,0.009232,0.001286,2.152,0.00757,0,1,0
194100000000,194400000000,3418390,0,564444639,0.0007601,0.1187,0.1241,0.0003233,0.004761,0.1187,1.907e-06,0.0002689,0.008362,0.0003567,2.383,0.008787,0,1,0
194400000000,194700000000,3418390,0,564444639,0.0007906,0.1187,0.1241,0.000329,0.004768,0.1187,7.629e-06,0.0002689,0.009201,0.001072,2.444,0.008884,0,1,0
194700000000,195000000000,3418390,0,564444639,0.0007792,0.1187,0.1241,0.0003338,0.004776,0.1187,4.768e-06,0.0002689,0.007919,0.0007858,2.583,0.009125,0,1,0
195000000000,195300000000,3418390,0,564444639,0.000844,0.1187,0.1241,0.0003395,0.004784,0.1187,1.907e-06,0.0002689,0.009979,0.0003567,2.36,0.008807,0,1,0
195300000000,195600000000,3418390,0,564444639,0.0007648,0.1187,0.1241,0.000329,0.004768,0.1187,3.815e-06,0.0002689,0.01054,0.0007858,2.085,0.007021,0,1,0
195600000000,195900000000,3418390,0,564444639,0.0008545,0.1187,0.1241,0.000308,0.004745,0.1187,3.815e-06,0.0002689,0.01158,0.0005713,2.259,0.007937,0,1,0
195900000000,196200000000,3418390,0,564444639,0.0008383,0.1187,0.1241,0.0003033,0.004745,0.1188,2.861e-06,0.0002689,0.02414,0.0004997,2.641,0.009589,0,1,0
201300000000,201600000000,3418390,0,564444639,0.0008335,0.1187,0.1241,0.0003281,0.004768,0.1187,6.676e-06,0.0002689,0.009811,0.001358,2.136,0.006979,0,1,0
201600000000,201900000000,3418390,0,564444639,0.0008049,0.1187,0.1241,0.0003328,0.004776,0.1187,2.861e-06,0.0002689,0.01041,0.0004282,2.488,0.009254,0,1,0
201900000000,202200000000,3418390,0,564444639,0.0008583,0.1187,0.1241,0.0003386,0.004776,0.1187,8.583e-06,0.0002689,0.009018,0.001785,2.385,0.008433,0,1,0
202200000000,202500000000,3418390,0,564444639,0.0008268,0.1187,0.1241,0.0003443,0.004784,0.1187,9.537e-07,0.0002689,0.02188,0.0001431,2.206,0.007724,0,1,0
202500000000,202800000000,3418390,0,564444639,0.0008154,0.1187,0.1241,0.000349,0.004791,0.1187,4.768e-06,0.0002689,0.01068,0.0006428,2.196,0.007272,0,1,0
202800000000,203100000000,3418390,0,564444639,0.0008965,0.1187,0.1241,0.00035,0.004791,0.1187,3.815e-06,0.0002689,0.008957,0.0006428,2.345,0.008268,0,1,0
203100000000,203400000000,3418390,0,564444639,0.0008268,0.1187,0.1241,0.0003328,0.004776,0.1187,6.676e-06,0.0002689,0.01099,0.001572,2.464,0.0087,0,1,0
203400000000,203700000000,3418390,0,564444639,0.000762,0.1187,0.1241,0.00033,0.004768,0.1187,5.722e-06,0.0002689,0.0121,0.001499,2.401,0.008665,0,1,0
203700000000,204000000000,3418390,0,564444639,0.0008621,0.1187,0.1241,0.0003357,0.004776,0.1187,5.722e-06,0.0002689,0.0112,0.001215,2.015,0.006301,0,1,0
204000000000,204300000000,3418390,0,564444639,0.0007639,0.1187,0.1241,0.0003405,0.004784,0.1187,3.815e-06,0.0002689,0.01001,0.0007858,2.26,0.007868,0,1,0
204300000000,204600000000,3418390,0,564444639,0.0008097,0.1187,0.1241,0.0003462,0.004784,0.1187,1.907e-06,0.0002689,0.008209,0.0002146,2.353,0.008335,0,1,0
204600000000,204900000000,3418390,0,564444639,0.0007629,0.1187,0.1241,0.000351,0.004791,0.1187,3.815e-06,0.0002689,0.009201,0.0008574,2.371,0.008611,0,1,0
204900000000,205200000000,3418390,0,564444639,0.0007629,0.1187,0.1241,0.0003557,0.004799,0.1188,2.861e-06,0.0002689,0.03766,0.0006428,2.247,0.007911,0,1,0
205200000000,205500000000,3418390,0,564444639,0.0007601,0.1187,0.1241,0.0003614,0.004799,0.1187,3.815e-06,0.0002689,0.01651,0.0007143,2.331,0.008519,0,1,0
205500000000,205800000000,3418390,0,564444639,0.0007553,0.1187,0.1241,0.0003672,0.004807,0.1187,4.768e-06,0.0002689,0.01654,0.001143,2.308,0.008494,0,1,0
205800000000,206100000000,3418390,0,564444639,0.0007753,0.1187,0.1241,0.0003719,0.004814,0.1187,5.722e-06,0.0002689,0.01308,0.0007143,2.157,0.007534,0,1,0
206100000000,206400000000,3418390,0,564444639,0.000802,0.1187,0.1241,0.0003529,0.004791,0.1187,6.676e-06,0.0002689,0.006851,0.001715,2.172,0.007595,0,1,0
206400000000,206700000000,3418390,0,564444639,0.0007458,0.1187,0.1241,0.0003471,0.004791,0.1187,5.722e-06,0.0002689,0.009125,0.0009289,2.187,0.007692,0,1,0
206700000000,207000000000,3418390,0,564444639,0.0006962,0.1187,0.1241,0.00035,0.004791,0.1187,4.768e-06,0.0002689,0.005051,0.001286,2.552,0.009603,0,1,0
207000000000,207300000000,3418390,0,564444639,0.0007515,0.1187,0.1241,0.0003548,0.004791,0.1187,9.537e-07,0.0002689,0.01028,0.0001431,2.177,0.00765,0,1,0
207300000000,207600000000,3418390,0,564444639,0.000699,0.1187,0.1241,0.0003595,0.004799,0.1187,2.861e-06,0.0002689,0.01187,0.0005713,2.441,0.008936,0,1,0
207600000000,207900000000,3418390,0,564444639,0.0007401,0.1187,0.1241,0.0003643,0.004807,0.1187,9.537e-06,0.0002689,0.00795,0.001429,2.234,0.007933,0,1,0
207900000000,208200000000,3418390,0,564444639,0.0007248,0.1187,0.1241,0.0003557,0.004799,0.1187,6.676e-06,0.0002689,0.01575,0.001286,2.287,0.008214,0,1,0
208200000000,208500000000,3418390,0,564444639,0.0007582,0.1187,0.1241,0.0003548,0.004799,0.1187,1.907e-06,0.0002689,0.01073,0.0003567,2.234,0.008016,0,1,0
208500000000,208800000000,3418390,0,564444639,0.0007067,0.1187,0.1241,0.0003595,0.004799,0.1187,5.722e-06,0.0002689,0.01213,0.001429,2.295,0.008167,0,1,0
208800000000,209100000000,3418390,0,564444639,0.0006876,0.1187,0.1241,0.0003643,0.004807,0.1187,6.676e-06,0.0002689,0.005486,0.001215,2.347,0.008544,0,1,0
209100000000,209400000000,3418390,0,564444639,0.0007133,0.1187,0.1241,0.00037,0.004814,0.1187,5.722e-06,0.0002689,0.01555,0.0009289,2.366,0.008552,0,1,0
209400000000,209700000000,3418390,0,564444639,0.0007191,0.1187,0.1241,0.0003757,0.004814,0.1187,3.815e-06,0.0002689,0.01457,0.0007143,2.442,0.009261,0,1,0
209700000000,210000000000,3418390,0,564444639,0.0006733,0.1187,0.1241,0.0003662,0.004807,0.1187,1.621e-05,0.0002689,0.01001,0.004425,2.638,0.01007,0,1,0
210000000000,210300000000,3418390,0,564444639,0.0007191,0.1187,0.1241,0.0003595,0.004799,0.1187,1.049e-05,0.0002689,0.01703,0.001785,2.411,0.009066,0,1,0
210300000000,210600000000,3418390,0,564444639,0.0007191,0.1187,0.1241,0.0003643,0.004807,0.1187,3.815e-06,0.0002689,0.01045,0.0007143,2.284,0.007803,0,1,0
210600000000,210900000000,3418390,0,564444639,0.0007143,0.1187,0.1241,0.0003691,0.004814,0.1187,1.907e-06,0.0002689,0.007423,0.0001431,2.566,0.009477,0,1,0
210900000000,211200000000,3418390,0,564444639,0.0006924,0.1187,0.1241,0.0003729,0.004814,0.1187,6.676e-06,0.0002689,0.008118,0.001429,2.305,0.008185,0,1,0
211200000000,211500000000,3418390,0,564444639,0.00068,0.1187,0.1241,0.0003595,0.004799,0.1187,4.768e-06,0.0002689,0.006668,0.001215,2.211,0.00774,0,1,0
211500000000,211800000000,3418390,0,564444639,0.0007057,0.1187,0.1241,0.0003586,0.004799,0.1187,3.815e-06,0.0002689,0.01663,0.0007858,2.185,0.007172,0,1,0
211800000000,212100000000,3418390,0,564444639,0.0006647,0.1187,0.1241,0.0003633,0.004807,0.1187,3.815e-06,0.0002689,0.009705,0.0007143,2.527,0.009479,0,1,0
212100000000,212400000000,3418390,0,564444639,0.0007048,0.1187,0.1241,0.0003681,0.004807,0.1187,7.629e-06,0.0002689,0.007507,0.001358,2.519,0.009229,0,1,0
212400000000,212700000000,3418390,0,564444639,0.0006752,0.1187,0.1241,0.0003729,0.004814,0.1187,3.815e-06,0.0002689,0.01259,0.0007858,2.253,0.008051,0,1,0
212700000000,213000000000,3418390,0,564444639,0.0006342,0.1187,0.1241,0.0003767,0.004822,0.1187,7.629e-06,0.0002689,0.007751,0.001286,2.148,0.00766,0,1,0
213000000000,213300000000,3418390,0,564444639,0.0007353,0.1187,0.1241,0.0003815,0.004822,0.1187,2.861e-06,0.0002689,0.01996,0.0004282,2.424,0.009034,0,1,0
213300000000,213600000000,3418390,0,564444639,0.0006685,0.1187,0.1241,0.0003805,0.004822,0.1187,1.907e-06,0.0002689,0.009598,0.0002146,2.284,0.007678,0,1,0
213600000000,213900000000,3418390,0,564444639,0.0006514,0.1187,0.1241,0.0003719,0.004814,0.1187,8.583e-06,0.0002689,0.01395,0.001999,2.25,0.007942,0,1,0
213900000000,214200000000,3418390,0,564444639,0.0006208,0.1187,0.1241,0.0003757,0.004822,0.1187,5.722e-06,0.0002689,0.006393,0.001358,2.352,0.008375,0,1,0
214200000000,214500000000,3418390,0,564444639,0.0006351,0.1187,0.1241,0.0003805,0.004822,0.1187,5.722e-06,0.0002689,0.03204,0.0009289,2.311,0.008661,0,1,0
214500000000,214800000000,3418390,0,564444639,0.0006571,0.1187,0.1241,0.0003843,0.004829,0.1187,1.907e-06,0.0002689,0.01639,0.0002146,2.214,0.007535,0,1,0
214800000000,215100000000,3418390,0,564444639,0.0006037,0.1187,0.1241,0.0003891,0.004829,0.1187,6.676e-06,0.0002689,0.006989,0.001072,2.217,0.007916,0,1,0
215100000000,215400000000,3418390,0,564444639,0.000618,0.1187,0.1241,0.0003929,0.004837,0.1187,1.907e-06,0.0002689,0.02713,0.0002146,2.321,0.008487,0,1,0
215400000000,215700000000,3418390,0,564444639,0.0006418,0.1187,0.1241,0.0003948,0.004837,0.1187,1.907e-06,0.0002689,0.007889,0.0004282,2.076,0.007163,0,1,0
215700000000,216000000000,3418390,0,564444639,0.0006313,0.1187,0.1241,0.0003719,0.004814,0.1187,2.861e-06,0.0002689,0.01518,0.0004997,2.319,0.008152,0,1,0
216000000000,216300000000,3418390,0,564444639,0.000659,0.1187,0.1241,0.0003748,0.004814,0.1187,1.907e-06,0.0002689,0.008087,0.0001431,2.197,0.007758,0,1,0
221100000000,221400000000,3418390,0,564444639,0.0006752,0.1187,0.1241,0.0004215,0.00486,0.1187,1.907e-06,0.000268,0.008835,0.0003567,2.336,0.008182,0,1,0
221400000000,221700000000,3418390,0,564444639,0.0006676,0.1187,0.1241,0.0002708,0.004715,0.1187,4.768e-06,0.000268,0.006577,0.0008574,2.467,0.009146,0,1,0
221700000000,222000000000,3418390,0,564444639,0.0007401,0.1187,0.1241,0.0002127,0.004654,0.1187,3.815e-06,0.000268,0.008301,0.0007858,2.381,0.008162,0,1,0
222000000000,222300000000,3418390,0,564444639,0.0006924,0.1187,0.1241,0.0002174,0.004662,0.1187,4.768e-06,0.000268,0.02145,0.0008574,2.24,0.007868,0,1,0
222300000000,222600000000,3418390,0,564444639,0.0006542,0.1187,0.1241,0.0002222,0.004662,0.1187,2.861e-06,0.000268,0.005379,0.0004997,2.445,0.008789,0,1,0
222600000000,222900000000,3418390,0,564444639,0.0006466,0.1187,0.1241,0.000226,0.004669,0.1187,9.537e-07,0.000268,0.0112,0.0001431,2.201,0.007886,0,1,0
222900000000,223200000000,3418390,0,564444639,0.0006628,0.1187,0.1241,0.0002308,0.004669,0.1187,1.907e-06,0.000268,0.0155,0.0002146,2.539,0.008946,0,1,0
223200000000,223500000000,3418390,0,564444639,0.0006819,0.1187,0.1241,0.0002356,0.004677,0.1187,5.722e-06,0.000268,0.01318,0.0009289,2.477,0.009196,0,1,0
223500000000,223800000000,3418390,0,564444639,0.0006838,0.1187,0.1241,0.0002394,0.004684,0.1187,3.815e-06,0.000268,0.01791,0.0007858,2.407,0.008663,0,1,0
223800000000,224100000000,3418390,0,564444639,0.0007219,0.1187,0.1241,0.0002441,0.004684,0.1187,1.907e-06,0.000268,0.01079,0.0001431,2.609,0.009385,0,1,0
224100000000,224400000000,3418390,0,564444639,0.0007238,0.1187,0.1241,0.0002489,0.004692,0.1187,9.537e-06,0.000268,0.0127,0.001928,2.653,0.009519,0,1,0
224400000000,224700000000,3418390,0,564444639,0.0006542,0.1187,0.1241,0.0002537,0.004692,0.1187,3.815e-06,0.000268,0.01111,0.0007858,2.35,0.008562,0,1,0
224700000000,225000000000,3418390,0,564444639,0.0008068,0.1187,0.1241,0.0002632,0.004707,0.1187,2.575e-05,0.000268,0.006279,0.005646,2.29,0.007961,0,1,0
225000000000,225300000000,3418390,0,564444639,0.0008488,0.1187,0.1241,0.0002708,0.004715,0.1187,2.861e-06,0.000268,0.009384,0.0002146,2.195,0.007423,0,1,0
225300000000,225600000000,3418390,0,564444639,0.0009279,0.1187,0.1241,0.0002718,0.004715,0.1187,2.861e-06,0.000268,0.01283,0.0004997,2.424,0.008127,0,1,0
225600000000,225900000000,3418390,0,564444639,0.0008116,0.1187,0.1241,0.0002699,0.004715,0.1187,3.815e-06,0.000268,0.009705,0.0006428,2.728,0.01027,0,1,0
225900000000,226200000000,3418390,0,564444639,0.0008221,0.1187,0.1241,0.0002756,0.004723,0.1187,4.768e-06,0.000268,0.01274,0.0008574,2.721,0.009549,0,1,0
226200000000,226500000000,3418390,0,564444639,0.0007505,0.1187,0.1241,0.0002804,0.004723,0.1187,1.907e-06,0.000268,0.01248,0.0002861,2.814,0.01044,0,1,0
226500000000,226800000000,3418390,0,564444639,0.000741,0.1187,0.1241,0.0002851,0.00473,0.1187,2.861e-06,0.000268,0.01057,0.0007143,2.167,0.007005,0,1,0
226800000000,227100000000,3418390,0,564444639,0.0007715,0.1187,0.1241,0.0002899,0.00473,0.1187,5.722e-06,0.000268,0.01096,0.001215,2.448,0.008756,0,1,0
227100000000,227400000000,3418390,0,564444639,0.0007391,0.1187,0.1241,0.0002947,0.004738,0.1188,5.722e-06,0.000268,0.00827,0.001286,2.339,0.008083,0,1,0
227400000000,227700000000,3418390,0,564444639,0.0007181,0.1187,0.1241,0.0002995,0.004745,0.1187,5.722e-06,0.000268,0.008743,0.0007143,2.65,0.009706,0,1,0
227700000000,228000000000,3418390,0,564444639,0.0007153,0.1187,0.1241,0.0003042,0.004745,0.1187,6.676e-06,0.000268,0.008286,0.001215,2.647,0.009521,0,1,0
228000000000,228300000000,3418390,0,564444639,0.0007238,0.1187,0.1241,0.0002947,0.004738,0.1187,5.722e-06,0.000268,0.007729,0.0006428,2.436,0.008558,0,1,0
228300000000,228600000000,3418390,0,564444639,0.0007181,0.1187,0.1241,0.0002861,0.00473,0.1187,1.907e-06,0.000268,0.006561,0.0002146,2.59,0.009288,0,1,0
228600000000,228900000000,3418390,0,564444639,0.0007267,0.1187,0.1241,0.0002871,0.00473,0.1187,3.815e-06,0.000268,0.009476,0.0004997,2.704,0.009999,0,1,0
228900000000,229200000000,3418390,0,564444639,0.0007267,0.1187,0.1241,0.0002918,0.004738,0.1187,9.537e-07,0.000268,0.008499,0.0001431,2.49,0.008838,0,1,0
229200000000,229500000000,3418390,0,564444639,0.0007467,0.1187,0.1241,0.0002966,0.004738,0.1187,2.861e-06,0.000268,0.007843,0.0004997,2.51,0.009175,0,1,0
229500000000,229800000000,3418390,0,564444639,0.0007706,0.1187,0.1241,0.0003014,0.004745,0.1187,5.722e-06,0.000268,0.01067,0.001358,2.39,0.008343,0,1,0
229800000000,230100000000,3418390,0,564444639,0.0008078,0.1187,0.1241,0.0003061,0.004753,0.1187,1.049e-05,0.000268,0.0159,0.001785,2.493,0.009001,0,1,0
230100000000,230400000000,3418390,0,564444639,0.0007668,0.1187,0.1241,0.0003109,0.004753,0.1187,2.861e-06,0.000268,0.01617,0.0003567,2.765,0.0101,0,1,0
230400000000,230700000000,3418390,0,564444639,0.0007858,0.1187,0.1241,0.0003157,0.004761,0.1187,1.907e-06,0.000268,0.008575,0.0001431,2.188,0.007452,0,1,0
230700000000,231000000000,3418390,0,564444639,0.0007238,0.1187,0.1241,0.0003214,0.004761,0.1187,2.861e-06,0.000268,0.009201,0.0004282,2.431,0.008724,0,1,0
231000000000,231300000000,3418390,0,564444639,0.0007696,0.1187,0.1241,0.0003223,0.004768,0.1187,1.907e-06,0.000268,0.01266,0.0002146,2.471,0.008986,0,1,0
231300000000,231600000000,3418390,0,564444639,0.000802,0.1187,0.1241,0.0003061,0.004745,0.1187,1.907e-06,0.000268,0.008347,0.0002146,2.499,0.008628,0,1,0
231600000000,231900000000,3418390,0,564444639,0.0007811,0.1187,0.1241,0.0003099,0.004753,0.1187,5.722e-06,0.000268,0.008652,0.0009289,2.531,0.008963,0,1,0
231900000000,232200000000,3418390,0,564444639,0.000742,0.1187,0.1241,0.0003147,0.004761,0.1187,9.537e-07,0.000268,0.02188,0.0001431,2.7,0.009793,0,1,0
232200000000,232500000000,3418390,0,564444639,0.0007343,0.1187,0.1241,0.0003157,0.004761,0.1187,2.861e-06,0.000268,0.0155,0.0003567,2.23,0.007488,0,1,0
232500000000,232800000000,3418390,0,564444639,0.0007725,0.1187,0.1241,0.0003033,0.004745,0.1187,1.907e-06,0.000268,0.01486,0.0002146,2.381,0.007899,0,1,0
232800000000,233100000000,3418390,0,564444639,0.0007305,0.1187,0.1241,0.000308,0.004753,0.1188,1.907e-06,0.000268,0.01544,0.0002146,2.263,0.007636,0,1,0
233100000000,233400000000,3418390,0,564444639,0.0007896,0.1187,0.1241,0.0003128,0.004753,0.1187,5.722e-06,0.000268,0.02097,0.001286,2.629,0.008878,0,1,0
233400000000,233700000000,3418390,0,564444639,0.0007114,0.1187,0.1241,0.0003176,0.004761,0.1187,1.907e-06,0.000268,0.008377,0.0001431,2.552,0.009128,0,1,0
233700000000,234000000000,3418390,0,564444639,0.0007076,0.1187,0.1241,0.0003223,0.004768,0.1187,6.676e-06,0.000268,0.0174,0.0009995,2.248,0.007561,0,1,0
234000000000,234300000000,3418390,0,564444639,0.0007,0.1187,0.1241,0.0003271,0.004768,0.1187,1.907e-06,0.000268,0.006264,0.0001431,2.215,0.007503,0,1,0
234300000000,234600000000,3418390,0,564444639,0.0007343,0.1187,0.1241,0.0003128,0.004753,0.1187,6.676e-06,0.000268,0.01051,0.001072,2.531,0.008591,0,1,0
234600000000,234900000000,3418390,0,564444639,0.0007391,0.1187,0.1241,0.0003176,0.004761,0.1187,9.537e-07,0.000268,0.01033,0.0001431,2.365,0.008294,0,1,0
234900000000,235200000000,3418390,0,564444639,0.0007448,0.1187,0.1241,0.0003223,0.004768,0.1187,2.861e-06,0.000268,0.0121,0.0004282,2.57,0.008802,0,1,0
235200000000,235500000000,3418390,0,564444639,0.0007057,0.1187,0.1241,0.0003052,0.004745,0.1187,9.537e-07,0.000268,0.01451,0.0001431,2.594,0.009333,0,1,0
235500000000,235800000000,3418390,0,564444639,0.0007191,0.1187,0.1241,0.000309,0.004753,0.1187,1.907e-06,0.000268,0.01706,0.0002146,2.78,0.009945,0,1,0
235800000000,236100000000,3418390,0,564444639,0.0007286,0.1187,0.1241,0.0003138,0.004753,0.1187,1.907e-06,0.000268,0.008514,0.0002861,2.332,0.007809,0,1,0
236100000000,236400000000,3418390,0,564444639,0.0007305,0.1187,0.1241,0.0003185,0.004761,0.1187,1.907e-06,0.000268,0.008789,0.0002146,2.501,0.008768,0,1,0
241200000000,241500000000,3418390,0,564444639,0.0007019,0.1187,0.1241,0.0003347,0.004776,0.1187,9.537e-07,0.000268,0.008209,0.0001431,2.432,0.008955,0,1,0
241500000000,241800000000,3418390,0,564444639,0.0006952,0.1187,0.1241,0.0003395,0.004784,0.1187,1.907e-06,0.0002689,0.01268,0.0002146,2.566,0.009156,0,1,0
241800000000,242100000000,3418390,0,564444639,0.0006828,0.1187,0.1241,0.0003433,0.004784,0.1187,2.861e-06,0.0002689,0.01033,0.0004282,2.454,0.008437,0,1,0
242100000000,242400000000,3418390,0,564444639,0.0007057,0.1187,0.1241,0.0003471,0.004791,0.1187,1.907e-06,0.0002689,0.006691,0.0002146,2.523,0.008787,0,1,0
242400000000,242700000000,3418390,0,564444639,0.000679,0.1187,0.1241,0.0003443,0.004784,0.1187,1.907e-06,0.0002689,0.008194,0.0002146,2.633,0.009581,0,1,0
242700000000,243000000000,3418390,0,564444639,0.0006742,0.1187,0.1241,0.0003481,0.004791,0.1187,1.907e-06,0.0002689,0.01102,0.0002146,2.184,0.00695,0,1,0
243000000000,243300000000,3418390,0,564444639,0.0006571,0.1187,0.1241,0.0003519,0.004791,0.1187,4.768e-06,0.0002689,0.01602,0.0009289,2.522,0.00931,0,1,0
243300000000,243600000000,3418390,0,564444639,0.0006504,0.1187,0.1241,0.0003557,0.004799,0.1187,1.907e-06,0.0002689,0.007118,0.0004282,2.464,0.008406,0,1,0
243600000000,243900000000,3418390,0,564444639,0.0006666,0.1187,0.1241,0.0003605,0.004799,0.1187,4.768e-06,0.0002689,0.01219,0.0009289,2.09,0.007056,0,1,0
243900000000,244200000000,3418390,0,564444639,0.0006495,0.1187,0.1241,0.0003643,0.004807,0.1187,1.907e-06,0.0002689,0.01877,0.0002861,2.511,0.00889,0,1,0
244200000000,244500000000,3418390,0,564444639,0.0007191,0.1187,0.1241,0.0003681,0.004807,0.1187,2.861e-06,0.0002689,0.02017,0.0001431,2.291,0.007779,0,1,0
244500000000,244800000000,3418390,0,564444639,0.000639,0.1187,0.1241,0.0003729,0.004814,0.1187,4.768e-06,0.0002689,0.01904,0.0009995,2.382,0.007748,0,1,0
244800000000,245100000000,3418390,0,564444639,0.0007401,0.1187,0.1241,0.0003643,0.004807,0.1187,1.907e-06,0.0002689,0.00972,0.0001431,2.424,0.008511,0,1,0
245100000000,245400000000,3418390,0,564444639,0.0006685,0.1187,0.1241,0.0003529,0.004791,0.1187,1.907e-06,0.0002689,0.01225,0.0002146,2.534,0.008613,0,1,0
245400000000,245700000000,3418390,0,564444639,0.0006266,0.1187,0.1241,0.0003576,0.004799,0.1187,1.907e-06,0.0002689,0.008148,0.0003567,2.496,0.009017,0,1,0
245700000000,246000000000,3418390,0,564444639,0.0006466,0.1187,0.1241,0.0003614,0.004807,0.1187,1.907e-06,0.0002689,0.01015,0.0002146,2.705,0.009536,0,1,0
246000000000,246300000000,3418390,0,564444639,0.0006399,0.1187,0.1241,0.0003653,0.004807,0.1187,2.861e-06,0.0002689,0.008408,0.0005713,2.278,0.007945,0,1,0
251400000000,251700000000,3418390,0,564444639,0.0006857,0.1187,0.1241,0.0003977,0.004837,0.1187,1.907e-06,0.0002689,0.006142,0.0001431,2.208,0.007422,0,1,0
251700000000,252000000000,3418390,0,564444639,0.000699,0.1187,0.1241,0.0003929,0.004837,0.1187,1.907e-06,0.0002689,0.009491,0.0004282,2.168,0.007072,0,1,0
252000000000,252300000000,3418390,0,564444639,0.0006914,0.1187,0.1241,0.0003719,0.004814,0.1187,1.24e-05,0.0002689,0.01443,0.00243,2.502,0.009159,0,1,0
252300000000,252600000000,3418390,0,564444639,0.0006742,0.1187,0.1241,0.0003643,0.004807,0.1187,9.537e-07,0.0002689,0.008682,0.0001431,2.213,0.007263,0,1,0
252600000000,252900000000,3418390,0,564444639,0.0006895,0.1187,0.1241,0.0003633,0.004807,0.1187,3.815e-06,0.0002689,0.008148,0.0007143,2.306,0.008055,0,1,0
252900000000,253200000000,3418390,0,564444639,0.0007277,0.1187,0.1241,0.0003672,0.004807,0.1187,5.722e-06,0.0002689,0.0181,0.0008574,2.231,0.00731,0,1,0
253200000000,253500000000,3418390,0,564444639,0.0007448,0.1187,0.1241,0.0003719,0.004814,0.1187,1.907e-06,0.0002689,0.01569,0.0002861,1.935,0.005838,0,1,0
253500000000,253800000000,3418390,0,564444639,0.0007515,0.1187,0.1241,0.0003757,0.004822,0.1187,3.815e-06,0.0002689,0.00885,0.0006428,2.346,0.007924,0,1,0
253800000000,254100000000,3418390,0,564444639,0.0007858,0.1187,0.1241,0.0003805,0.004822,0.1187,1.335e-05,0.0002689,0.01837,0.002071,2.228,0.007536,0,1,0
254100000000,254400000000,3418390,0,564444639,0.0007029,0.1187,0.1241,0.0003853,0.004829,0.1188,1.526e-05,0.0002689,0.01262,0.003071,2.301,0.008022,0,1,0
254400000000,254700000000,3418390,0,564444639,0.001066,0.1188,0.1241,0.000412,0.00489,0.119,0.0001659,0.0002689,0.07849,0.03015,4.974,0.02212,0,1,0
254700000000,255000000000,3418390,0,564444639,0.0007792,0.1189,0.1241,0.0004597,0.005013,0.119,4.768e-06,0.0002689,0.01295,0.0008574,2.879,0.01091,0,1,0
255000000000,255300000000,3418390,0,564444639,0.0007687,0.1189,0.1241,0.0004435,0.004997,0.1189,2.861e-06,0.0002689,0.006683,0.0002861,3.522,0.01457,0,1,0
255300000000,255600000000,3418390,0,564444639,0.0008297,0.1189,0.1241,0.0004444,0.004997,0.1189,8.583e-06,0.0002689,0.01509,0.001286,2.911,0.01131,0,1,0
255600000000,255900000000,3418390,0,564444639,0.0007629,0.1189,0.1241,0.0004501,0.004997,0.1189,1.335e-05,0.0002689,0.02405,0.001429,3.303,0.01378,0,1,0
255900000000,256200000000,3418390,0,564444639,0.0007515,0.1189,0.1241,0.0004539,0.005005,0.1189,7.629e-06,0.0002689,0.02927,0.001215,3.429,0.01361,0,1,0
256200000000,256500000000,3418390,0,564444639,0.0007238,0.1188,0.1241,0.0004587,0.005013,0.1189,6.676e-06,0.0002689,0.01169,0.001429,3.19,0.01307,0,1,0
256500000000,256800000000,3418390,0,564444639,0.0007324,0.1188,0.1241,0.0004625,0.005013,0.1188,4.768e-06,0.0002689,0.01299,0.001072,3.264,0.01321,0,1,0
256800000000,257100000000,3418390,0,564444639,0.0006819,0.1188,0.1241,0.0004625,0.004913,0.119,5.722e-06,0.0002689,0.01187,0.0009289,2.278,0.008084,0,1,0
257100000000,257400000000,3418390,0,564444639,0.0007,0.1187,0.1241,0.0003862,0.004829,0.1187,4.768e-06,0.0002689,0.008301,0.0009995,2.356,0.008133,0,1,0
257400000000,257700000000,3418390,0,564444639,0.0006819,0.1187,0.1241,0.0003901,0.004829,0.1187,1.907e-06,0.0002689,0.01216,0.0001431,2.25,0.007746,0,1,0
257700000000,258000000000,3418390,0,564444639,0.0006876,0.1187,0.1241,0.0003948,0.004837,0.1187,1.907e-06,0.0002689,0.01688,0.0002861,2.022,0.006711,0,1,0
258000000000,258300000000,3418390,0,564444639,0.0006857,0.1187,0.1241,0.0003986,0.004837,0.1187,6.676e-06,0.0002689,0.00737,0.001143,2.469,0.009039,0,1,0
258300000000,258600000000,3418390,0,564444639,0.0006886,0.1187,0.1241,0.0003939,0.004837,0.1187,3.815e-06,0.0002689,0.02206,0.0007858,2.251,0.007412,0,1,0
258600000000,258900000000,3418390,0,564444639,0.0006609,0.1187,0.1241,0.0003958,0.004837,0.1187,1.907e-06,0.0002689,0.009644,0.0001431,2.169,0.007433,0,1,0
258900000000,259200000000,3418390,0,564444639,0.0007105,0.1187,0.1241,0.0004005,0.004845,0.1187,5.722e-06,0.0002689,0.01231,0.001286,2.37,0.007896,0,1,0
259200000000,259500000000,3418390,0,564444639,0.0007153,0.1187,0.1241,0.0004044,0.004845,0.1187,9.537e-07,0.0002689,0.008911,0.0001431,2.323,0.007935,0,1,0
259500000000,259800000000,3418390,0,564444639,0.0007324,0.1187,0.1241,0.0004091,0.004852,0.1187,1.907e-06,0.0002689,0.04761,0.0002146,2.271,0.007396,0,1,0
259800000000,260100000000,3418390,0,564444639,0.0006905,0.1187,0.1241,0.0004139,0.004852,0.1187,9.537e-07,0.0002689,0.007065,0.0001431,2.163,0.007408,0,1,0
260100000000,260400000000,3418390,0,564444639,0.00068,0.1187,0.1241,0.0004177,0.00486,0.1187,1.907e-06,0.0002689,0.007965,0.0002146,2.395,0.008322,0,1,0
260400000000,260700000000,3418390,0,564444639,0.0006847,0.1187,0.1241,0.0004225,0.004868,0.1187,2.861e-06,0.0002689,0.01518,0.0004997,2.48,0.008595,0,1,0
260700000000,261000000000,3418390,0,564444639,0.0007238,0.1187,0.1241,0.0004177,0.00486,0.1187,8.583e-06,0.0002689,0.009277,0.001858,2.277,0.007505,0,1,0
261000000000,261300000000,3418390,0,564444639,0.0007019,0.1187,0.1241,0.0004044,0.004845,0.1187,4.768e-06,0.0002689,0.02258,0.0009995,2.302,0.007946,0,1,0
261300000000,261600000000,3418390,0,564444639,0.0007076,0.1187,0.1241,0.0004044,0.004845,0.1187,1.907e-06,0.0002689,0.01064,0.0001431,2.401,0.007832,0,1,0
261600000000,261900000000,3418390,0,564444639,0.0006895,0.1187,0.1241,0.0004082,0.004852,0.1187,4.768e-06,0.0002689,0.01114,0.0009289,2.324,0.007928,0,1,0
261900000000,262200000000,3418390,0,564444639,0.0007334,0.1187,0.1241,0.0004129,0.004852,0.1187,1.907e-06,0.0002689,0.006279,0.0002146,2.401,0.008034,0,1,0
262200000000,262500000000,3418390,0,564444639,0.0007267,0.1187,0.1241,0.0004177,0.00486,0.1187,9.537e-07,0.0002689,0.00798,0.0001431,2.353,0.008234,0,1,0
262500000000,262800000000,3418390,0,564444639,0.0007029,0.1187,0.1241,0.0004225,0.004868,0.1188,1.907e-06,0.0002689,0.0163,0.0002861,2.941,0.01081,0,1,0
262800000000,263100000000,3418390,0,564444639,0.0007524,0.1187,0.1241,0.0004263,0.004868,0.1187,1.907e-06,0.0002689,0.009811,0.0001431,2.293,0.007646,0,1,0
263100000000,263400000000,3418390,0,564444639,0.0006857,0.1187,0.1241,0.0004311,0.004875,0.1187,6.676e-06,0.0002689,0.009384,0.001572,2.215,0.007158,0,1,0
263400000000,263700000000,3418390,0,564444639,0.0006723,0.1187,0.1241,0.0004301,0.004875,0.1187,1.907e-06,0.0002689,0.005432,0.0001431,2.295,0.007833,0,1,0
263700000000,264000000000,3418390,0,564444639,0.0007391,0.1187,0.1241,0.0004215,0.00486,0.1187,1.907e-06,0.0002689,0.009262,0.0002146,2.564,0.008752,0,1,0
264000000000,264300000000,3418390,0,564444639,0.0007973,0.1187,0.1241,0.0004263,0.004868,0.1187,1.907e-06,0.0002689,0.01178,0.0001431,2.273,0.007737,0,1,0
264300000000,264600000000,3418390,0,564444639,0.0007019,0.1187,0.1241,0.0004215,0.004868,0.1187,7.629e-06,0.0002689,0.006294,0.001928,2.298,0.007707,0,1,0
264600000000,264900000000,3418390,0,564444639,0.0006933,0.1187,0.1241,0.0004177,0.00486,0.1187,1.907e-06,0.0002689,0.005676,0.0001431,2.314,0.007978,0,1,0
264900000000,265200000000,3418390,0,564444639,0.0007353,0.1187,0.1241,0.0004225,0.004868,0.1187,4.768e-06,0.0002689,0.00737,0.0006428,2.307,0.007864,0,1,0
265200000000,265500000000,3418390,0,564444639,0.0007744,0.1187,0.1241,0.0004263,0.004868,0.1187,5.722e-06,0.0002689,0.01581,0.001072,2.36,0.007899,0,1,0
265500000000,265800000000,3418390,0,564444639,0.0007181,0.1187,0.1241,0.0004311,0.004875,0.1187,4.768e-06,0.0002689,0.005867,0.0008574,2.457,0.008431,0,1,0
265800000000,266100000000,3418390,0,564444639,0.0008163,0.1187,0.1241,0.0004206,0.00486,0.1187,6.676e-06,0.0002689,0.006546,0.001429,2.302,0.007796,0,1,0
266100000000,266400000000,3418390,0,564444639,0.0007925,0.1187,0.1241,0.0004253,0.004868,0.1187,6.676e-06,0.0002689,0.01968,0.001499,2.463,0.008297,0,1,0
266400000000,266700000000,3418390,0,564444639,0.0007858,0.1187,0.1241,0.0004301,0.004875,0.1187,1.907e-06,0.0002689,0.0173,0.0001431,2.332,0.008122,0,1,0
266700000000,267000000000,3418390,0,564444639,0.0007229,0.1187,0.1241,0.0004349,0.004875,0.1187,1.907e-06,0.0002689,0.0143,0.0002146,2.395,0.008064,0,1,0
267000000000,267300000000,3418390,0,564444639,0.0006895,0.1187,0.1241,0.0004396,0.004883,0.1187,1.907e-06,0.0002689,0.005295,0.0001431,2.373,0.008574,0,1,0
267300000000,267600000000,3418390,0,564444639,0.0007343,0.1187,0.1241,0.0004444,0.004883,0.1187,3.815e-06,0.0002689,0.01416,0.0009995,2.394,0.008112,0,1,0
267600000000,267900000000,3418390,0,564444639,0.0007648,0.1187,0.1241,0.0004482,0.00489,0.1187,3.815e-06,0.0002689,0.009247,0.0008574,2.424,0.008695,0,1,0
267900000000,268200000000,3418390,0,564444639,0.0007696,0.1187,0.1241,0.000453,0.004898,0.1187,1.907e-06,0.0002689,0.00882,0.0002146,2.486,0.00848,0,1,0
268200000000,268500000000,3418390,0,564444639,0.000761,0.1187,0.1241,0.0004578,0.004898,0.1187,3.815e-06,0.0002689,0.01004,0.0007143,2.203,0.007342,0,1,0
268500000000,268800000000,3418390,0,564444639,0.0007162,0.1187,0.1241,0.0004625,0.004906,0.1187,9.537e-07,0.0002689,0.007095,0.0001431,2.489,0.008406,0,1,0
268800000000,269100000000,3418390,0,564444639,0.0007906,0.1187,0.1241,0.0004616,0.004906,0.1188,3.815e-06,0.0002699,0.009979,0.0007143,2.133,0.007089,0,1,0
269100000000,269400000000,3418390,0,564444639,0.0007229,0.1187,0.1241,0.0004463,0.00489,0.1187,2.861e-06,0.0002699,0.006561,0.0004997,2.416,0.008466,0,1,0
269400000000,269700000000,3418390,0,564444639,0.0007229,0.1187,0.1241,0.0004396,0.004883,0.1187,3.815e-06,0.0002699,0.01624,0.0006428,2.216,0.00747,0,1,0
269700000000,270000000000,3418390,0,564444639,0.0007877,0.1187,0.1241,0.0004406,0.004883,0.1187,3.815e-06,0.0002689,0.008911,0.0006428,2.144,0.007176,0,1,0
270000000000,270300000000,3418390,0,564444639,0.0007353,0.1187,0.1241,0.0004454,0.00489,0.1187,1.907e-06,0.000268,0.005241,0.0002146,2.228,0.007561,0,1,0
270300000000,270600000000,3418390,0,564444639,0.0007181,0.1187,0.1241,0.0004501,0.00489,0.1187,3.815e-06,0.000268,0.01819,0.0007858,2.56,0.00953,0,1,0
270600000000,270900000000,3418390,0,564444639,0.0006409,0.1187,0.1241,0.0004549,0.004898,0.1187,1.907e-06,0.000268,0.006935,0.0002146,2.392,0.008729,0,1,0
270900000000,271200000000,3418390,0,564444639,0.0006561,0.1187,0.1241,0.0004587,0.004898,0.1187,1.907e-06,0.000268,0.02612,0.0002146,2.61,0.009486,0,1,0
271200000000,271500000000,3418390,0,564444639,0.0006294,0.1187,0.1241,0.0004625,0.004906,0.1187,1.907e-06,0.000268,0.00914,0.0002861,2.289,0.007995,0,1,0
281400000000,281700000000,3418390,0,564444639,0.0006132,0.1187,0.1241,0.0002661,0.004707,0.1187,8.583e-06,0.000268,0.005371,0.001215,2.424,0.00919,0,1,0
281700000000,282000000000,3418390,0,564444639,0.0005741,0.1187,0.1241,0.0002527,0.004692,0.1187,2.861e-06,0.000268,0.007736,0.0002146,2.365,0.00893,0,1,0
282000000000,282300000000,3418390,0,564444639,0.0005636,0.1187,0.1241,0.0002499,0.004692,0.1187,5.722e-06,0.000268,0.008881,0.0009995,2.724,0.01103,0,1,0
282300000000,282600000000,3418390,0,564444639,0.0005684,0.1187,0.1241,0.000248,0.004692,0.1188,1.907e-06,0.000268,0.02371,0.0001431,2.449,0.009478,0,1,0
282600000000,282900000000,3418390,0,564444639,0.0005817,0.1187,0.1241,0.0002527,0.004692,0.1187,2.861e-06,0.000268,0.006828,0.0001431,2.197,0.008131,0,1,0
282900000000,283200000000,3418390,0,564444639,0.0005684,0.1187,0.1241,0.0002508,0.004692,0.1187,2.861e-06,0.000268,0.007652,0.0003567,2.292,0.008333,0,1,0
283200000000,283500000000,3418390,0,564444639,0.0005693,0.1187,0.1241,0.0002556,0.0047,0.1187,7.629e-06,0.000268,0.006706,0.001642,2.397,0.009289,0,1,0
283500000000,283800000000,3418390,0,564444639,0.0006485,0.1187,0.1241,0.0002594,0.0047,0.1187,8.583e-06,0.000268,0.01117,0.001999,2.126,0.007637,0,1,0
283800000000,284100000000,3418390,0,564444639,0.0006447,0.1187,0.1241,0.0002642,0.004707,0.1187,6.676e-06,0.000268,0.0101,0.0007143,2.071,0.007252,0,1,0
284100000000,284400000000,3418390,0,564444639,0.0006123,0.1187,0.1241,0.0002689,0.004707,0.1187,9.537e-06,0.000268,0.005928,0.001928,2.039,0.007172,0,1,0
284400000000,284700000000,3418390,0,564444639,0.0006943,0.1187,0.1241,0.0002728,0.004715,0.1187,7.629e-06,0.000268,0.01959,0.001572,2.112,0.007373,0,1,0
284700000000,285000000000,3418390,0,564444639,0.0006075,0.1187,0.1241,0.0002775,0.004723,0.1187,7.629e-06,0.000268,0.01935,0.001499,2.06,0.007226,0,1,0
285000000000,285300000000,3418390,0,564444639,0.0006132,0.1187,0.1241,0.0002823,0.004723,0.1187,3.815e-06,0.000268,0.01079,0.0003567,2.518,0.009837,0,1,0
285300000000,285600000000,3418390,0,564444639,0.0005751,0.1187,0.1241,0.0002832,0.004723,0.1187,2.861e-06,0.000268,0.0118,0.0002146,2.171,0.007784,0,1,0
285600000000,285900000000,3418390,0,564444639,0.0005569,0.1187,0.1241,0.0002661,0.004707,0.1187,5.722e-06,0.000268,0.004753,0.0009995,2.216,0.008165,0,1,0
285900000000,286200000000,3418390,0,564444639,0.0005131,0.1187,0.1241,0.0002699,0.004715,0.1187,1.907e-06,0.000268,0.004883,0.0001431,2.422,0.009207,0,1,0
286200000000,286500000000,3418390,0,564444639,0.0005579,0.1187,0.1241,0.0002737,0.004715,0.1187,6.676e-06,0.000268,0.008881,0.0007858,1.847,0.006277,0,1,0
286500000000,286800000000,3418390,0,564444639,0.0005512,0.1187,0.1241,0.0002775,0.004723,0.1187,6.676e-06,0.000268,0.005577,0.0009995,1.992,0.006758,0,1,0
286800000000,287100000000,3418390,0,564444639,0.000535,0.1187,0.1241,0.0002813,0.004723,0.1187,6.676e-06,0.000268,0.008759,0.001143,2.29,0.008576,0,1,0
287100000000,287400000000,3418390,0,564444639,0.0005741,0.1187,0.1241,0.0002737,0.004715,0.1187,5.722e-06,0.000268,0.009445,0.001143,2.103,0.007338,0,1,0
287400000000,287700000000,3418390,0,564444639,0.0005465,0.1187,0.1241,0.0002689,0.004707,0.1187,4.768e-06,0.000268,0.00769,0.0008574,2.372,0.0092,0,1,0
287700000000,288000000000,3418390,0,564444639,0.0005369,0.1187,0.1241,0.000267,0.004707,0.1187,6.676e-06,0.000268,0.006599,0.001286,2.155,0.007725,0,1,0
288000000000,288300000000,3418390,0,564444639,0.0005579,0.1187,0.1241,0.0002565,0.0047,0.1187,6.676e-06,0.000268,0.01341,0.001286,2.139,0.007613,0,1,0
288300000000,288600000000,3418390,0,564444639,0.0005798,0.1187,0.1241,0.0002537,0.0047,0.1187,1.907e-06,0.000268,0.01323,0.0001431,2.324,0.008756,0,1,0
288600000000,288900000000,3418390,0,564444639,0.0006256,0.1187,0.1241,0.0002584,0.0047,0.1187,8.583e-06,0.000268,0.005524,0.001715,1.752,0.005354,0,1,0
288900000000,289200000000,3418390,0,564444639,0.0005445,0.1187,0.1241,0.0002623,0.004707,0.1187,5.722e-06,0.000268,0.006729,0.001072,2.635,0.01017,0,1,0
289200000000,289500000000,3418390,0,564444639,0.0005636,0.1187,0.1241,0.000267,0.004707,0.1187,6.676e-06,0.000268,0.007812,0.0008574,2.258,0.008357,0,1,0
289500000000,289800000000,3418390,0,564444639,0.0005589,0.1187,0.1241,0.0002708,0.004715,0.1187,4.768e-06,0.000268,0.02216,0.0009289,1.906,0.006333,0,1,0
289800000000,290100000000,3418390,0,564444639,0.000596,0.1187,0.1241,0.0002747,0.004715,0.1187,6.676e-06,0.000268,0.007812,0.001215,2.142,0.007719,0,1,0
290100000000,290400000000,3418390,0,564444639,0.000596,0.1187,0.1241,0.0002785,0.004723,0.1188,8.583e-06,0.000268,0.01761,0.001642,2.149,0.007505,0,1,0
290400000000,290700000000,3418390,0,564444639,0.0006132,0.1187,0.1241,0.0002785,0.004723,0.1187,8.583e-06,0.000268,0.01286,0.001499,2.307,0.008324,0,1,0
290700000000,291000000000,3418390,0,564444639,0.0005951,0.1187,0.1241,0.0002594,0.0047,0.1187,5.722e-06,0.000268,0.00528,0.0008574,2.419,0.009077,0,1,0
291000000000,291300000000,3418390,0,564444639,0.0006371,0.1187,0.1241,0.0002537,0.004692,0.1187,4.768e-06,0.000268,0.0105,0.0006428,2.13,0.007533,0,1,0
291300000000,291600000000,3418390,0,564444639,0.0006142,0.1187,0.1241,0.0002527,0.004692,0.1187,7.629e-06,0.000268,0.005127,0.001642,2.091,0.007115,0,1,0
291600000000,291900000000,3418390,0,564444639,0.000659,0.1187,0.1241,0.0002565,0.0047,0.1187,2.861e-06,0.000268,0.008011,0.0001431,2.172,0.007894,0,1,0
291900000000,292200000000,3418390,0,564444639,0.0006371,0.1187,0.1241,0.0002613,0.0047,0.1187,3.815e-06,0.000268,0.01172,0.0003567,2.018,0.006741,0,1,0
292200000000,292500000000,3418390,0,564444639,0.0005779,0.1187,0.1241,0.0002632,0.004707,0.1187,3.815e-06,0.000268,0.006157,0.0004282,2.283,0.008575,0,1,0
292500000000,292800000000,3418390,0,564444639,0.0005026,0.1187,0.1241,0.0002594,0.0047,0.1187,1.907e-06,0.000268,0.004509,0.0001431,2.122,0.007405,0,1,0
292800000000,293100000000,3418390,0,564444639,0.0004911,0.1187,0.1241,0.0002556,0.0047,0.1187,4.768e-06,0.000268,0.006447,0.0007858,2.269,0.008464,0,1,0
293100000000,293400000000,3418390,0,564444639,0.0004711,0.1187,0.1241,0.0002546,0.0047,0.1187,3.815e-06,0.000268,0.01035,0.0004282,2.31,0.008665,0,1,0
293400000000,293700000000,3418390,0,564444639,0.0005016,0.1187,0.1241,0.0002575,0.0047,0.1187,6.676e-06,0.000268,0.006912,0.001215,1.91,0.0064,0,1,0
293700000000,294000000000,3418390,0,564444639,0.0005074,0.1187,0.1241,0.0002604,0.0047,0.1187,4.768e-06,0.000268,0.01001,0.0007143,2.378,0.008934,0,1,0
294000000000,294300000000,3418390,0,564444639,0.0005255,0.1187,0.1241,0.0002642,0.004707,0.1187,5.722e-06,0.000268,0.01129,0.0009995,2.195,0.008172,0,1,0
294300000000,294600000000,3418390,0,564444639,0.0005407,0.1187,0.1241,0.000268,0.004707,0.1187,2.861e-06,0.000268,0.01067,0.0002146,2.081,0.007291,0,1,0
294600000000,294900000000,3418390,0,564444639,0.0005102,0.1187,0.1241,0.0002708,0.004715,0.1187,2.861e-06,0.000268,0.007965,0.0002146,2.231,0.008355,0,1,0
294900000000,295200000000,3418390,0,564444639,0.0004473,0.1187,0.1241,0.0002747,0.004715,0.1187,1.431e-05,0.000268,0.004799,0.002285,2.412,0.009231,0,1,0
295200000000,295500000000,3418390,0,564444639,0.000495,0.1187,0.1241,0.0002775,0.004723,0.1187,5.722e-06,0.000268,0.01488,0.0006428,2.082,0.0073,0,1,0
295500000000,295800000000,3418390,0,564444639,0.0005217,0.1187,0.1241,0.0002813,0.004723,0.1187,2.861e-06,0.000268,0.01375,0.0002146,2.116,0.007138,0,1,0
295800000000,296100000000,3418390,0,564444639,0.0005226,0.1187,0.1241,0.0002851,0.00473,0.1187,1.049e-05,0.000268,0.006203,0.001358,2.323,0.00832,0,1,0
296100000000,296400000000,3418390,0,564444639,0.0004845,0.1187,0.1241,0.000288,0.00473,0.1187,2.861e-06,0.000268,0.007248,0.0002146,2.393,0.008804,0,1,0
296400000000,296700000000,3418390,0,564444639,0.0005484,0.1187,0.1241,0.0002918,0.00473,0.1187,5.722e-06,0.000268,0.01186,0.001072,2.429,0.009079,0,1,0
296700000000,297000000000,3418390,0,564444639,0.0004969,0.1187,0.1241,0.0002947,0.004738,0.1187,5.722e-06,0.000268,0.007828,0.001072,2.411,0.008451,0,1,0
297000000000,297300000000,3418390,0,564444639,0.0005074,0.1187,0.1241,0.0002985,0.004738,0.1187,3.815e-06,0.0002689,0.006371,0.0004997,2.621,0.009854,0,1,0
297300000000,297600000000,3418390,0,564444639,0.000536,0.1187,0.1241,0.0003014,0.004745,0.1187,4.768e-06,0.0002689,0.008896,0.0005713,2.507,0.009342,0,1,0
297600000000,297900000000,3418390,0,564444639,0.0005178,0.1187,0.1241,0.0003052,0.004745,0.1187,3.815e-06,0.0002689,0.01306,0.0002861,2.278,0.00829,0,1,0
297900000000,298200000000,3418390,0,564444639,0.0004749,0.1187,0.1241,0.0002985,0.004738,0.1187,2.861e-06,0.0002689,0.01202,0.0001431,2.596,0.00982,0,1,0
298200000000,298500000000,3418390,0,564444639,0.0004902,0.1187,0.1241,0.0002995,0.004738,0.1187,5.722e-06,0.0002689,0.007027,0.0009995,2.268,0.008101,0,1,0
298500000000,298800000000,3418390,0,564444639,0.000556,0.1187,0.1241,0.0003023,0.004745,0.1187,3.815e-06,0.0002689,0.009369,0.0004997,2.267,0.007929,0,1,0
298800000000,299100000000,3418390,0,564444639,0.0005064,0.1187,0.1241,0.0002928,0.004738,0.1187,6.676e-06,0.0002689,0.009033,0.0006428,2.169,0.007245,0,1,0
299100000000,299400000000,3418390,0,564444639,0.000453,0.1187,0.1241,0.0002937,0.004738,0.1187,3.815e-06,0.0002689,0.007774,0.0003567,2.476,0.00941,0,1,0
299400000000,299700000000,3418390,0,564444639,0.0004854,0.1187,0.1241,0.0002966,0.004738,0.1187,3.815e-06,0.0002689,0.0217,0.0005713,1.93,0.006278,0,1,0
299700000000,300000000000,3418390,0,564444639,0.0004892,0.1187,0.1241,0.0002995,0.004745,0.1187,5.722e-06,0.0002689,0.006615,0.0009995,2.861,0.01121,0,1,0
