5700000000,6000000000,3418427,0,1439356567,0.0008736,0.08093,0.09119,0.0009718,0.001419,0.08093,6.676e-06,0.000205,0.01303,0.0009995,3.486,0.01265,0,1,0
6000000000,6300000000,3418427,0,1439356567,0.001173,0.08093,0.09119,0.0009785,0.001425,0.08093,3.815e-06,0.000205,0.07605,0.0002861,3.129,0.01082,0,1,0
6300000000,6600000000,3418427,0,1439356567,0.001263,0.08093,0.09119,0.000988,0.001434,0.08093,6.676e-06,0.000205,0.00856,0.001429,3.451,0.01237,0,1,0
6600000000,6900000000,3418427,0,1439356567,0.0009842,0.08093,0.09119,0.0009975,0.001444,0.08093,2.861e-06,0.000205,0.01587,0.0003567,3.44,0.01216,0,1,0
6900000000,7200000000,3418427,0,1439356567,0.00116,0.08093,0.09119,0.001005,0.001451,0.08093,1.907e-06,0.000205,0.01234,0.0001431,3.558,0.01304,0,1,0
7200000000,7500000000,3418427,0,1439356567,0.001242,0.08093,0.09119,0.001015,0.001461,0.08093,5.722e-06,0.000205,0.0112,0.0009289,3.292,0.01155,0,1,0
7500000000,7800000000,3418427,0,1439356567,0.001057,0.08093,0.09119,0.001022,0.001469,0.08093,3.815e-06,0.000205,0.01791,0.0007143,3.431,0.01244,0,1,0
7800000000,8100000000,3418427,0,1439356567,0.001635,0.08093,0.09119,0.001032,0.001478,0.08093,1.526e-05,0.000205,0.01527,0.002716,2.851,0.009261,0,1,0
8100000000,8400000000,3418427,0,1439356567,0.001612,0.08093,0.09119,0.001041,0.001488,0.08093,1.907e-06,0.000205,0.01418,0.0001431,3.074,0.01025,0,1,0
8400000000,8700000000,3418427,0,1439356567,0.001118,0.08093,0.09119,0.001051,0.001499,0.08093,3.815e-06,0.000205,0.009552,0.0004282,3.112,0.01064,0,1,0
8700000000,9000000000,3418427,0,1439356567,0.001637,0.08093,0.09119,0.00106,0.001507,0.08093,6.676e-06,0.000205,0.008316,0.0008574,3.323,0.01155,0,1,0
9000000000,9300000000,3418427,0,1439356567,0.001822,0.08093,0.09119,0.001074,0.00152,0.08093,3.815e-06,0.000205,0.0303,0.0002861,3.077,0.01042,0,1,0
9300000000,9600000000,3418427,0,1439356567,0.001333,0.08093,0.09119,0.001083,0.001532,0.08093,2.861e-06,0.000205,0.01015,0.0002146,3.385,0.01194,0,1,0
9600000000,9900000000,3418427,0,1439356567,0.001343,0.08093,0.09119,0.001095,0.001541,0.08093,3.815e-06,0.000205,0.0103,0.0002861,3.307,0.01161,0,1,0
9900000000,10200000000,3418427,0,1439356567,0.001305,0.08093,0.09119,0.001104,0.001553,0.08093,2.861e-06,0.000205,0.009583,0.0002146,3.385,0.01197,0,1,0
10200000000,10500000000,3418427,0,1439356567,0.001335,0.08093,0.09119,0.001116,0.001562,0.08093,3.815e-06,0.000205,0.008606,0.0002861,3.365,0.01186,0,1,0
10500000000,10800000000,3418427,0,1439356567,0.001263,0.08093,0.09119,0.001125,0.001572,0.08093,2.861e-06,0.000205,0.006134,0.0002861,3.808,0.01401,0,1,0
10800000000,11100000000,3418427,0,1439356567,0.001516,0.08093,0.09119,0.001137,0.001583,0.08093,3.815e-06,0.000205,0.01743,0.0004282,3.222,0.01108,0,1,0
11100000000,11400000000,3418427,0,1439356567,0.0009584,0.08093,0.09119,0.001146,0.001593,0.08093,2.861e-06,0.000205,0.008957,0.0001431,3.886,0.01455,0,1,0
11400000000,11700000000,3418427,0,1439356567,0.001442,0.08093,0.09119,0.001156,0.001602,0.08093,8.583e-06,0.000205,0.02408,0.001072,3.093,0.01057,0,1,0
11700000000,12000000000,3418427,0,1439356567,0.001312,0.08093,0.09119,0.001165,0.001612,0.08093,3.815e-06,0.000205,0.01289,0.0002861,3.684,0.01339,0,1,0
12000000000,12300000000,3418427,0,1439356567,0.001339,0.08093,0.09119,0.001175,0.001621,0.08093,2.861e-06,0.000205,0.04468,0.0002861,3.297,0.01141,0,1,0
12300000000,12600000000,3418427,0,1439356567,0.001413,0.08093,0.09119,0.001184,0.001631,0.08093,1.907e-06,0.000205,0.01602,0.0001431,3.413,0.01191,0,1,0
12600000000,12900000000,3418427,0,1439356567,0.001591,0.08093,0.09119,0.00119,0.001638,0.08093,2.861e-06,0.000205,0.008591,0.0002861,3.134,0.01062,0,1,0
12900000000,13200000000,3418427,0,1439356567,0.001015,0.08093,0.09119,0.001202,0.001648,0.08093,1.907e-06,0.000205,0.02692,7.153e-05,3.648,0.01334,0,1,0
13200000000,13500000000,3418427,0,1439356567,0.001448,0.08093,0.09119,0.001209,0.001656,0.08093,3.815e-06,0.000205,0.01164,0.0002861,3.222,0.01091,0,1,0
13500000000,13800000000,3418427,0,1439356567,0.001877,0.08093,0.09119,0.001223,0.001669,0.08093,2.861e-06,0.000205,0.0275,0.0002861,3.26,0.01116,0,1,0
13800000000,14100000000,3418427,0,1439356567,0.001062,0.08093,0.09119,0.001228,0.001675,0.08093,5.722e-06,0.000205,0.017,0.0006428,3.396,0.01206,0,1,0
14100000000,14400000000,3418427,0,1439356567,0.001326,0.08093,0.09119,0.00123,0.001678,0.08093,3.815e-06,0.000205,0.009033,0.0004997,3.462,0.01232,0,1,0
14400000000,14700000000,3418427,0,1439356567,0.001301,0.08093,0.09119,0.00124,0.001686,0.08093,4.768e-06,0.000205,0.01593,0.0007143,3.344,0.01179,0,1,0
14700000000,15000000000,3418427,0,1439356567,0.001108,0.08093,0.09119,0.001247,0.001694,0.08093,3.815e-06,0.000205,0.007767,0.0004282,3.627,0.0133,0,1,0
15000000000,15300000000,3418427,0,1439356567,0.001518,0.08093,0.09119,0.001257,0.001703,0.08093,5.722e-06,0.000205,0.01974,0.0008574,2.944,0.009836,0,1,0
15300000000,15600000000,3418427,0,1439356567,0.001406,0.08093,0.09119,0.001266,0.001713,0.08093,2.861e-06,0.000205,0.008987,0.0001431,3.57,0.01272,0,1,0
15600000000,15900000000,3418427,0,1439356567,0.001091,0.08093,0.09119,0.001276,0.001724,0.08093,4.768e-06,0.000205,0.02859,0.0005713,3.471,0.01253,0,1,0
15900000000,16200000000,3418427,0,1439356567,0.001371,0.08093,0.09119,0.001286,0.001732,0.08093,3.815e-06,0.000206,0.02887,0.0005713,3.287,0.01147,0,1,0
16200000000,16500000000,3418427,0,1439356567,0.001451,0.08093,0.09119,0.001295,0.001741,0.08093,2.861e-06,0.000206,0.01219,0.0002861,3.226,0.01115,0,1,0
16500000000,16800000000,3418427,0,1439356567,0.001083,0.08093,0.09119,0.001307,0.001753,0.08093,4.768e-06,0.000206,0.01474,0.0007143,3.662,0.01335,0,1,0
16800000000,17100000000,3418427,0,1439356567,0.001423,0.08093,0.09119,0.001314,0.00176,0.08093,2.861e-06,0.000206,0.01469,0.0002861,3.111,0.01059,0,1,0
17100000000,17400000000,3418427,0,1439356567,0.001852,0.08093,0.09119,0.001326,0.001772,0.08093,2.861e-06,0.000206,0.05054,0.0001431,2.625,0.008274,0,1,0
17400000000,17700000000,3418427,0,1439356567,0.001179,0.08093,0.09119,0.001335,0.001781,0.08093,4.768e-06,0.000206,0.009674,0.0007143,2.913,0.009836,0,1,0
17700000000,18000000000,3418427,0,1439356567,0.001314,0.08093,0.09119,0.001343,0.001789,0.08093,2.861e-06,0.000206,0.04956,0.0001431,3.718,0.01357,0,1,0
18000000000,18300000000,3418427,0,1439356567,0.001326,0.08093,0.09119,0.001352,0.001801,0.08093,2.861e-06,0.000206,0.01183,0.0002861,3.39,0.01196,0,1,0
18300000000,18600000000,3418427,0,1439356567,0.0009823,0.08093,0.09119,0.001362,0.001808,0.08093,3.815e-06,0.000206,0.01064,0.0002861,3.789,0.01401,0,1,0
18600000000,18900000000,3418427,0,1439356567,0.001688,0.08093,0.09119,0.001371,0.001818,0.08093,4.768e-06,0.000206,0.01053,0.0004282,2.841,0.009319,0,1,0
18900000000,19200000000,3418427,0,1439356567,0.001396,0.08093,0.09119,0.001383,0.001829,0.08093,2.861e-06,0.000206,0.01445,0.0002146,3.337,0.01173,0,1,0
19200000000,19500000000,3418427,0,1439356567,0.001242,0.08093,0.09119,0.001369,0.001816,0.08093,5.722e-06,0.000206,0.008469,0.0007143,2.979,0.01016,0,1,0
19500000000,19800000000,3418427,0,1439356567,0.001644,0.08093,0.09119,0.001364,0.00181,0.08093,5.722e-06,0.000206,0.01237,0.001215,2.954,0.009823,0,1,0
19800000000,20100000000,3418427,0,1439356567,0.00181,0.08093,0.09119,0.001375,0.001822,0.08093,4.768e-06,0.000206,0.01013,0.0005713,2.929,0.009664,0,1,0
20100000000,20400000000,3418427,0,1439356567,0.001509,0.08093,0.09119,0.001389,0.001835,0.08093,4.768e-06,0.000206,0.01123,0.0008574,3.355,0.01161,0,1,0
20400000000,20700000000,3418427,0,1439356567,0.001312,0.08093,0.09119,0.001398,0.001844,0.08093,2.861e-06,0.000206,0.01608,0.0002861,3.208,0.01135,0,1,0
20700000000,21000000000,3418427,0,1439356567,0.001232,0.08093,0.09119,0.00141,0.001856,0.08093,1.907e-06,0.000206,0.009003,7.153e-05,3.634,0.01363,0,1,0
21000000000,21300000000,3418427,0,1439356567,0.001034,0.08093,0.09119,0.001419,0.001865,0.08093,2.861e-06,0.000206,0.007561,0.0002861,3.423,0.01223,0,1,0
21300000000,21600000000,3418427,0,1439356567,0.001047,0.08093,0.09119,0.001425,0.001871,0.08093,2.861e-06,0.000206,0.01302,0.0003567,3.692,0.01351,0,1,0
21600000000,21900000000,3418427,0,1439356567,0.001211,0.08093,0.09119,0.001434,0.001881,0.08093,2.861e-06,0.000206,0.007027,0.0002861,3.393,0.01204,0,1,0
21900000000,22200000000,3418427,0,1439356567,0.001106,0.08093,0.09119,0.001442,0.001888,0.08093,1.907e-06,0.000206,0.01614,0.0001431,3.661,0.01327,0,1,0
22200000000,22500000000,3418427,0,1439356567,0.00124,0.08093,0.09119,0.001451,0.001898,0.08093,6.676e-06,0.000206,0.008163,0.001072,3.139,0.01087,0,1,0
22500000000,22800000000,3418427,0,1439356567,0.001221,0.08093,0.09119,0.001446,0.001892,0.08093,3.815e-06,0.000206,0.008209,0.0007143,3.341,0.01191,0,1,0
22800000000,23100000000,3418427,0,1439356567,0.001266,0.08093,0.09119,0.001451,0.001898,0.08093,2.861e-06,0.000206,0.01883,0.0002861,2.868,0.009491,0,1,0
23100000000,23400000000,3418427,0,1439356567,0.001394,0.08093,0.09119,0.001461,0.001907,0.08093,3.815e-06,0.000206,0.03632,0.0004282,3.294,0.01153,0,1,0
23400000000,23700000000,3418427,0,1439356567,0.001381,0.08093,0.09119,0.001471,0.001917,0.08093,2.861e-06,0.000206,0.01074,0.0003567,3.064,0.01041,0,1,0
23700000000,24000000000,3418427,0,1439356567,0.001438,0.08093,0.09119,0.00148,0.001926,0.08093,4.768e-06,0.000206,0.03192,0.0004997,3.013,0.01028,0,1,0
24000000000,24300000000,3418427,0,1439356567,0.001312,0.08093,0.09119,0.00149,0.001936,0.08093,6.676e-06,0.000206,0.01453,0.0007143,3.076,0.01023,0,1,0
24300000000,24600000000,3418427,0,1439356567,0.001415,0.08093,0.09119,0.001497,0.001944,0.08093,1.907e-06,0.000206,0.009201,7.153e-05,3.299,0.01158,0,1,0
24600000000,24900000000,3418427,0,1439356567,0.001162,0.08093,0.09119,0.001507,0.001953,0.08093,3.815e-06,0.000206,0.02518,0.0004282,3.145,0.01089,0,1,0
24900000000,25200000000,3418427,0,1439356567,0.001522,0.08093,0.09119,0.001516,0.001961,0.08093,3.815e-06,0.000206,0.0159,0.0004282,3.033,0.01044,0,1,0
25200000000,25500000000,3418427,0,1439356567,0.001223,0.08093,0.09119,0.001526,0.001972,0.08093,4.768e-06,0.000206,0.007713,0.0009289,3.133,0.01077,0,1,0
25500000000,25800000000,3418427,0,1439356567,0.001162,0.08093,0.09119,0.001532,0.001976,0.08093,7.629e-06,0.000206,0.01256,0.001715,3.41,0.01221,0,1,0
25800000000,26100000000,3418427,0,1439356567,0.001312,0.08093,0.09119,0.001528,0.001972,0.08093,2.861e-06,0.000206,0.01437,0.0002861,3.212,0.01115,0,1,0
26100000000,26400000000,3418427,0,1439356567,0.001265,0.08093,0.09119,0.001537,0.001984,0.08093,2.861e-06,0.000205,0.01506,0.0002146,3.425,0.01227,0,1,0
26400000000,26700000000,3418427,0,1439356567,0.001282,0.08093,0.09119,0.001545,0.001991,0.08093,3.815e-06,0.0002041,0.0152,0.0003567,3.152,0.01083,0,1,0
26700000000,27000000000,3418427,0,1439356567,0.001392,0.08093,0.09119,0.001554,0.002003,0.08093,7.629e-06,0.0002041,0.02316,0.0009289,3.404,0.01202,0,1,0
27000000000,27300000000,3418427,0,1439356567,0.001535,0.08093,0.09119,0.001566,0.00201,0.08093,3.815e-06,0.0002041,0.01396,0.0002861,2.993,0.01011,0,1,0
27300000000,27600000000,3418427,0,1439356567,0.001429,0.08093,0.09119,0.001575,0.002022,0.08093,3.815e-06,0.0002041,0.01039,0.0003567,3.209,0.01131,0,1,0
27600000000,27900000000,3418427,0,1439356567,0.00153,0.08093,0.09119,0.001465,0.001911,0.08093,3.815e-06,0.0002041,0.008133,0.0004282,3.042,0.01038,0,1,0
27900000000,28200000000,3418427,0,1439356567,0.001545,0.08093,0.09119,0.0009165,0.001362,0.08093,2.861e-06,0.000205,0.01447,0.0001431,3.062,0.01045,0,1,0
28200000000,28500000000,3418427,0,1439356567,0.001472,0.08093,0.09119,0.000927,0.001373,0.08093,2.861e-06,0.000205,0.007935,0.0002861,2.868,0.009513,0,1,0
28500000000,28800000000,3418427,0,1439356567,0.001652,0.08093,0.09119,0.0009384,0.001385,0.08093,2.861e-06,0.000205,0.01669,0.0001431,3.243,0.01097,0,1,0
28800000000,29100000000,3418427,0,1439356567,0.001633,0.08093,0.09119,0.0009499,0.001396,0.08093,5.722e-06,0.000205,0.01117,0.0007858,2.967,0.009751,0,1,0
29100000000,29400000000,3418427,0,1439356567,0.001579,0.08093,0.09119,0.0009613,0.001408,0.08093,4.768e-06,0.000205,0.02661,0.0004997,3.053,0.01041,0,1,0
29400000000,29700000000,3418427,0,1439356567,0.00156,0.08093,0.09119,0.0009727,0.001419,0.08093,5.722e-06,0.000205,0.01187,0.0006428,2.856,0.009426,0,1,0
29700000000,30000000000,3418427,0,1439356567,0.001436,0.08093,0.09119,0.0009823,0.001429,0.08093,2.861e-06,0.000205,0.01016,0.0002146,3.328,0.01167,0,1,0
30000000000,30300000000,3418427,0,1439356567,0.001564,0.08093,0.09119,0.0009937,0.00144,0.08093,2.861e-06,0.000205,0.09326,0.0002861,3.003,0.01009,0,1,0
30300000000,30600000000,3418427,0,1439356567,0.001471,0.08093,0.09119,0.001003,0.00145,0.08093,1.907e-06,0.000205,0.0106,0.0001431,3.288,0.01149,0,1,0
30600000000,30900000000,3418427,0,1439356567,0.001457,0.08093,0.09119,0.001015,0.001461,0.08093,5.722e-06,0.000205,0.0181,0.0009289,2.914,0.009805,0,1,0
30900000000,31200000000,3418427,0,1439356567,0.001339,0.08093,0.09119,0.001024,0.001471,0.08093,2.861e-06,0.000205,0.02216,0.0001431,3.294,0.01172,0,1,0
31200000000,31500000000,3418427,0,1439356567,0.001511,0.08093,0.09119,0.001034,0.00148,0.08093,3.815e-06,0.000205,0.03784,0.0002861,2.971,0.009932,0,1,0
31500000000,31800000000,3418427,0,1439356567,0.001343,0.08093,0.09119,0.001043,0.00149,0.08093,2.861e-06,0.000205,0.01283,0.0001431,3.308,0.01172,0,1,0
31800000000,32100000000,3418427,0,1439356567,0.001429,0.08093,0.09119,0.001053,0.001499,0.08093,2.861e-06,0.000205,0.06995,0.0002861,3.104,0.01068,0,1,0
32100000000,32400000000,3418427,0,1439356567,0.001375,0.08093,0.09119,0.001062,0.001509,0.08093,2.861e-06,0.000205,0.02521,0.0001431,3.222,0.01149,0,1,0
32400000000,32700000000,3418427,0,1439356567,0.001499,0.08093,0.09119,0.001068,0.001514,0.08093,2.861e-06,0.000205,0.009186,0.0002861,2.986,0.0101,0,1,0
32700000000,33000000000,3418427,0,1439356567,0.001345,0.08093,0.09119,0.001066,0.001513,0.08093,2.861e-06,0.000205,0.01067,0.0003567,3.395,0.01188,0,1,0
33000000000,33300000000,3418427,0,1439356567,0.001474,0.08093,0.09119,0.001076,0.001522,0.08093,3.815e-06,0.000205,0.009567,0.0004282,2.935,0.01019,0,1,0
33300000000,33600000000,3418427,0,1439356567,0.00141,0.08093,0.09119,0.001083,0.00153,0.08093,5.722e-06,0.000205,0.01749,0.0007143,3.115,0.01085,0,1,0
33600000000,33900000000,3418427,0,1439356567,0.001425,0.08093,0.09119,0.001091,0.001537,0.08093,2.861e-06,0.000205,0.01118,0.0002861,3.048,0.01031,0,1,0
33900000000,34200000000,3418427,0,1439356567,0.001398,0.08093,0.09119,0.001095,0.001541,0.08093,8.583e-06,0.000205,0.01118,0.0009995,3.263,0.01156,0,1,0
34200000000,34500000000,3418427,0,1439356567,0.00149,0.08093,0.09119,0.001104,0.001551,0.08093,4.768e-06,0.000205,0.0166,0.0006428,2.905,0.009645,0,1,0
34500000000,34800000000,3418427,0,1439356567,0.00136,0.08093,0.09119,0.001104,0.001551,0.08093,1.907e-06,0.000205,0.008118,7.153e-05,3.323,0.01168,0,1,0
34800000000,35100000000,3418427,0,1439356567,0.001486,0.08093,0.09119,0.001112,0.001558,0.08093,3.815e-06,0.000205,0.01718,0.0005713,3.065,0.01019,0,1,0
35100000000,35400000000,3418427,0,1439356567,0.001421,0.08093,0.09119,0.001122,0.001568,0.08093,2.861e-06,0.000205,0.01367,0.0004282,3.294,0.01159,0,1,0
35400000000,35700000000,3418427,0,1439356567,0.001389,0.08093,0.09119,0.001131,0.001577,0.08093,5.722e-06,0.000205,0.01141,0.0007143,2.873,0.009538,0,1,0
35700000000,36000000000,3418427,0,1439356567,0.001421,0.08093,0.09119,0.001141,0.001587,0.08093,2.861e-06,0.000205,0.04645,0.0001431,3.092,0.01082,0,1,0
36000000000,36300000000,3418427,0,1439356567,0.001286,0.08093,0.09119,0.001152,0.001598,0.08093,5.722e-06,0.000205,0.01399,0.0008574,2.997,0.01037,0,1,0
36300000000,36600000000,3418427,0,1439356567,0.001493,0.08093,0.09119,0.001162,0.001608,0.08093,2.861e-06,0.000205,0.06616,0.0001431,2.777,0.009096,0,1,0
36600000000,36900000000,3418427,0,1439356567,0.001495,0.08093,0.09119,0.001171,0.001617,0.08093,5.722e-06,0.000205,0.01207,0.0006428,2.972,0.009611,0,1,0
36900000000,37200000000,3418427,0,1439356567,0.001476,0.08093,0.09119,0.001181,0.001627,0.08093,1.907e-06,0.000205,0.01433,0.0001431,3.342,0.01144,0,1,0
37200000000,37500000000,3418427,0,1439356567,0.001366,0.08093,0.09119,0.001175,0.001621,0.08093,3.815e-06,0.000205,0.05157,0.0004282,2.552,0.007925,0,1,0
37500000000,37800000000,3418427,0,1439356567,0.001286,0.08093,0.09119,0.001167,0.001614,0.08093,2.861e-06,0.000205,0.02646,0.0002146,3.307,0.01168,0,1,0
37800000000,38100000000,3418427,0,1439356567,0.001303,0.08093,0.09119,0.001171,0.001617,0.08093,2.861e-06,0.000205,0.01007,0.0002861,3.089,0.01083,0,1,0
38100000000,38400000000,3418427,0,1439356567,0.001251,0.08093,0.09119,0.001175,0.001621,0.08093,2.861e-06,0.000205,0.01413,0.0003567,3.298,0.01183,0,1,0
38400000000,38700000000,3418427,0,1439356567,0.001221,0.08093,0.09119,0.001177,0.001625,0.08093,3.815e-06,0.000205,0.01384,0.0006428,3.166,0.01091,0,1,0
38700000000,39000000000,3418427,0,1439356567,0.001171,0.08093,0.09119,0.001173,0.001619,0.08093,2.861e-06,0.000205,0.009949,0.0002146,3.742,0.01349,0,1,0
39000000000,39300000000,3418427,0,1439356567,0.001236,0.08093,0.09119,0.001181,0.001627,0.08093,9.537e-06,0.000205,0.02322,0.001215,3.29,0.01142,0,1,0
39300000000,39600000000,3418427,0,1439356567,0.001062,0.08093,0.09119,0.001188,0.001635,0.08093,2.861e-06,0.000205,0.02255,0.0001431,3.639,0.013,0,1,0
39600000000,39900000000,3418427,0,1439356567,0.001202,0.08093,0.09119,0.001194,0.00164,0.08093,2.861e-06,0.000205,0.01245,0.0002861,2.84,0.009647,0,1,0
39900000000,40200000000,3418427,0,1439356567,0.001139,0.08093,0.09119,0.001183,0.001629,0.08093,3.815e-06,0.000205,0.01196,0.0004282,3.377,0.01199,0,1,0
40200000000,40500000000,3418427,0,1439356567,0.001154,0.08093,0.09119,0.001183,0.001629,0.08093,2.861e-06,0.000205,0.06616,0.0002861,2.551,0.00836,0,1,0
40500000000,40800000000,3418427,0,1439356567,0.001154,0.08093,0.09119,0.00119,0.001637,0.08093,3.815e-06,0.000206,0.02838,0.0002861,3.413,0.01258,0,1,0
51000000000,51300000000,3418427,0,1439356567,0.001286,0.08093,0.09119,0.001266,0.001713,0.08093,4.768e-06,0.000206,0.02405,0.0006428,2.628,0.008523,0,1,0
51300000000,51600000000,3418427,0,1439356567,0.001308,0.08093,0.09119,0.00127,0.001717,0.08093,1.907e-06,0.000206,0.02115,7.153e-05,2.992,0.009949,0,1,0
51600000000,51900000000,3418427,0,1439356567,0.001047,0.08093,0.09119,0.001268,0.001715,0.08093,2.861e-06,0.000206,0.01617,0.0002861,3.261,0.0114,0,1,0
51900000000,52200000000,3418427,0,1439356567,0.001066,0.08093,0.09119,0.001266,0.001713,0.08093,1.431e-05,0.000206,0.01027,0.002716,3.673,0.0136,0,1,0
52200000000,52500000000,3418427,0,1439356567,0.001217,0.08093,0.09119,0.001268,0.001717,0.08093,4.768e-06,0.000205,0.01509,0.0009995,3.379,0.01155,0,1,0
52500000000,52800000000,3418427,0,1439356567,0.00104,0.08093,0.09119,0.001268,0.001715,0.08093,3.815e-06,0.0002041,0.01274,0.0006428,3.794,0.01371,0,1,0
52800000000,53100000000,3418427,0,1439356567,0.001106,0.08093,0.09119,0.001268,0.001715,0.08093,6.676e-06,0.0002041,0.03638,0.0009289,3.416,0.01208,0,1,0
53100000000,53400000000,3418427,0,1439356567,0.001072,0.08093,0.09119,0.001266,0.001713,0.08093,1.907e-06,0.0002041,0.02316,0.0002146,3.575,0.01293,0,1,0
53400000000,53700000000,3418427,0,1439356567,0.001118,0.08093,0.09119,0.001268,0.001717,0.08093,5.722e-06,0.0002041,0.01871,0.0007858,3.261,0.01124,0,1,0
53700000000,54000000000,3418427,0,1439356567,0.0009289,0.08093,0.09119,0.001268,0.001715,0.08093,2.861e-06,0.0002041,0.009918,0.0001431,3.854,0.01451,0,1,0
54000000000,54300000000,3418427,0,1439356567,0.000988,0.08093,0.09119,0.001268,0.001717,0.08093,2.861e-06,0.0002041,0.01877,0.0002861,3.281,0.01137,0,1,0
54300000000,54600000000,3418427,0,1439356567,0.0009937,0.08093,0.09119,0.001268,0.001715,0.08093,3.815e-06,0.0002041,0.009857,0.0002146,3.731,0.01375,0,1,0
54600000000,54900000000,3418427,0,1439356567,0.001087,0.08093,0.09119,0.00127,0.001717,0.08093,3.815e-06,0.0002041,0.01572,0.0004282,3.297,0.01158,0,1,0
54900000000,55200000000,3418427,0,1439356567,0.001005,0.08093,0.09119,0.001266,0.001715,0.08093,3.815e-06,0.000205,0.01512,0.0005713,3.802,0.01399,0,1,0
55200000000,55500000000,3418427,0,1439356567,0.0009718,0.08093,0.09119,0.00127,0.001719,0.08093,5.722e-06,0.000205,0.007683,0.0007858,3.37,0.01192,0,1,0
55500000000,55800000000,3418427,0,1439356567,0.000988,0.08093,0.09119,0.00111,0.001556,0.08093,1.907e-06,0.000205,0.01202,7.153e-05,3.675,0.01348,0,1,0
55800000000,56100000000,3418427,0,1439356567,0.0009508,0.08093,0.09119,0.000927,0.001373,0.08093,5.722e-06,0.000205,0.01929,0.0009995,3.186,0.01149,0,1,0
56100000000,56400000000,3418427,0,1439356567,0.0009346,0.08093,0.09119,0.0009336,0.001381,0.08093,2.861e-06,0.000205,0.007492,0.0001431,3.364,0.01228,0,1,0
56400000000,56700000000,3418427,0,1439356567,0.0004854,0.08093,0.09119,0.0009384,0.001385,0.08093,2.861e-06,0.000205,0.007523,0.0002861,4.16,0.01651,0,1,0
56700000000,57000000000,3418427,0,1439356567,0.0002565,0.08093,0.09119,0.0009403,0.001387,0.08093,3.815e-06,0.000205,0.006386,0.0003567,7.465,0.03341,0,1,0
57000000000,57300000000,3418427,0,1439356567,0.0002613,0.08093,0.09119,0.0009403,0.001387,0.08093,5.722e-06,0.000205,0.006836,0.001143,5.671,0.02435,0,1,0
57300000000,57600000000,3418427,0,1439356567,0.0002298,0.08093,0.09119,0.0009413,0.001389,0.08093,2.861e-06,0.000205,0.003643,0.0002861,8.301,0.03802,0,1,0
57600000000,57900000000,3418427,0,1439356567,0.0006189,0.08093,0.09119,0.0009422,0.001389,0.08093,3.815e-06,0.000205,0.008514,0.0004997,3.861,0.01502,0,1,0
57900000000,58200000000,3418427,0,1439356567,0.0009298,0.08093,0.09119,0.000947,0.001394,0.08093,1.907e-06,0.000205,0.0108,0.0001431,3.531,0.01306,0,1,0
58200000000,58500000000,3418427,0,1439356567,0.001015,0.08093,0.09119,0.0009537,0.0014,0.08093,5.722e-06,0.000205,0.01562,0.0007143,3.224,0.01134,0,1,0
58500000000,58800000000,3418427,0,1439356567,0.0003834,0.08093,0.09119,0.0009575,0.001404,0.08093,1.907e-06,0.000205,0.08862,7.153e-05,5.575,0.02347,0,1,0
58800000000,59100000000,3418427,0,1439356567,0.0002165,0.08093,0.09119,0.0009584,0.001406,0.08093,6.676e-06,0.000205,0.002991,0.0009289,7.749,0.03416,0,1,0
59100000000,59400000000,3418427,0,1439356567,0.0002413,0.08093,0.09119,0.0009594,0.001406,0.08093,1.24e-05,0.000205,0.004372,0.002857,7.417,0.03319,0,1,0
59400000000,59700000000,3418427,0,1439356567,0.001228,0.08093,0.09119,0.0009689,0.001431,0.08118,0.000145,0.000205,0.07141,0.04083,2.166,0.006418,0,1,0
59700000000,60000000000,3418427,0,1439356567,0.0009756,0.08118,0.09119,0.001005,0.00156,0.08118,5.722e-06,0.000205,0.01544,0.0003567,2.906,0.009489,0,1,0
60000000000,60300000000,3418427,0,1439356567,0.0009356,0.08118,0.09119,0.001009,0.001562,0.08118,8.583e-06,0.000205,0.01721,0.001215,3.814,0.01373,0,1,0
60300000000,60600000000,3418427,0,1439356567,0.000967,0.08118,0.09119,0.001013,0.001568,0.08118,2.861e-06,0.000205,0.01358,0.0002146,3.576,0.01278,0,1,0
60600000000,60900000000,3418427,0,1439356567,0.000926,0.08118,0.09119,0.001019,0.001574,0.08118,4.768e-06,0.000205,0.05011,0.0006428,3.939,0.01477,0,1,0
70800000000,71100000000,3418427,0,1439356567,0.001072,0.08093,0.09119,0.001013,0.001459,0.08093,4.768e-06,0.000205,0.02136,0.0005713,3.164,0.01126,0,1,0
71100000000,71400000000,3418427,0,1439356567,0.0009031,0.08093,0.09119,0.001015,0.001461,0.08093,2.861e-06,0.000205,0.01265,0.0002146,3.818,0.01451,0,1,0
71400000000,71700000000,3418427,0,1439356567,0.0007696,0.08093,0.09119,0.001015,0.001461,0.08093,4.768e-06,0.000205,0.01408,0.0007858,3.774,0.01437,0,1,0
71700000000,72000000000,3418427,0,1439356567,0.0008373,0.08093,0.09119,0.001015,0.001461,0.08093,4.768e-06,0.000205,0.01245,0.0004997,3.829,0.01468,0,1,0
72000000000,72300000000,3418427,0,1439356567,0.000845,0.08093,0.09119,0.001017,0.001463,0.08093,3.815e-06,0.000205,0.01489,0.0002861,3.374,0.01238,0,1,0
72300000000,72600000000,3418427,0,1439356567,0.0008984,0.08093,0.09119,0.001019,0.001465,0.08093,3.815e-06,0.000205,0.04974,0.0003567,3.909,0.01471,0,1,0
72600000000,72900000000,3418427,0,1439356567,0.0007906,0.08093,0.09119,0.001019,0.001465,0.08093,3.815e-06,0.000205,0.01343,0.0004997,3.621,0.01338,0,1,0
72900000000,73200000000,3418427,0,1439356567,0.0007782,0.08093,0.09119,0.00102,0.001467,0.08093,1.907e-06,0.000205,0.007812,0.0001431,3.902,0.01484,0,1,0
73200000000,73500000000,3418427,0,1439356567,0.000823,0.08093,0.09119,0.001022,0.001469,0.08093,4.768e-06,0.000205,0.009567,0.0005713,3.347,0.01222,0,1,0
73500000000,73800000000,3418427,0,1439356567,0.0008411,0.08093,0.09119,0.001024,0.001471,0.08093,4.768e-06,0.000205,0.007271,0.0007143,3.824,0.01449,0,1,0
73800000000,74100000000,3418427,0,1439356567,0.000885,0.08093,0.09119,0.001022,0.001469,0.08093,2.861e-06,0.000205,0.009003,0.0004282,3.498,0.01281,0,1,0
74100000000,74400000000,3418427,0,1439356567,0.0009336,0.08093,0.09119,0.001024,0.001471,0.08093,1.907e-06,0.000205,0.007965,0.0002146,3.632,0.0138,0,1,0
74400000000,74700000000,3418427,0,1439356567,0.001045,0.08093,0.09119,0.001026,0.001472,0.08093,8.583e-06,0.000205,0.03754,0.001928,3.169,0.01118,0,1,0
74700000000,75000000000,3418427,0,1439356567,0.001036,0.08093,0.09119,0.001032,0.001478,0.08093,2.861e-06,0.000205,0.04211,0.0001431,3.19,0.01139,0,1,0
75000000000,75300000000,3418427,0,1439356567,0.0009394,0.08093,0.09119,0.00104,0.001486,0.08093,2.861e-06,0.000205,0.008423,0.0002861,3.196,0.01143,0,1,0
75300000000,75600000000,3418427,0,1439356567,0.0009251,0.08093,0.09119,0.001045,0.001492,0.08093,1.907e-06,0.000205,0.008163,7.153e-05,3.641,0.0136,0,1,0
75600000000,75900000000,3418427,0,1439356567,0.0009289,0.08093,0.09119,0.001047,0.001493,0.08093,3.815e-06,0.000205,0.01018,0.0004997,3.332,0.01201,0,1,0
75900000000,76200000000,3418427,0,1439356567,0.0008774,0.08093,0.09119,0.001045,0.001492,0.08093,2.861e-06,0.000205,0.03076,0.0001431,3.53,0.01323,0,1,0
76200000000,76500000000,3418427,0,1439356567,0.0008631,0.08093,0.09119,0.001047,0.001493,0.08093,2.861e-06,0.000205,0.01387,0.0002861,3.304,0.0122,0,1,0
76500000000,76800000000,3418427,0,1439356567,0.0008078,0.08093,0.09119,0.001049,0.001495,0.08093,1.907e-06,0.000205,0.007278,7.153e-05,3.804,0.01452,0,1,0
76800000000,77100000000,3418427,0,1439356567,0.0007801,0.08093,0.09119,0.001055,0.001501,0.08093,2.861e-06,0.000205,0.007202,0.0002861,3.589,0.01324,0,1,0
77100000000,77400000000,3418427,0,1439356567,0.0007563,0.08093,0.09119,0.001059,0.001505,0.08093,2.861e-06,0.000205,0.009369,0.0001431,4,0.01557,0,1,0
77400000000,77700000000,3418427,0,1439356567,0.0007248,0.08093,0.09119,0.001059,0.001505,0.08093,3.815e-06,0.000205,0.008881,0.0002861,3.749,0.014,0,1,0
77700000000,78000000000,3418427,0,1439356567,0.0007153,0.08093,0.09119,0.001055,0.001501,0.08093,1.907e-06,0.000205,0.008606,0.0001431,4.213,0.0165,0,1,0
78000000000,78300000000,3418427,0,1439356567,0.0006962,0.08093,0.09119,0.001053,0.001499,0.08093,4.768e-06,0.000206,0.02029,0.0007858,3.664,0.01372,0,1,0
78300000000,78600000000,3418427,0,1439356567,0.000762,0.08093,0.09119,0.001053,0.001499,0.08093,5.722e-06,0.000206,0.02393,0.001072,4.192,0.01638,0,1,0
78600000000,78900000000,3418427,0,1439356567,0.0007563,0.08093,0.09119,0.001053,0.001499,0.08093,2.861e-06,0.000206,0.0199,0.0002861,3.608,0.01323,0,1,0
78900000000,79200000000,3418427,0,1439356567,0.0006723,0.08093,0.09119,0.001053,0.001499,0.08093,1.907e-06,0.000206,0.01279,7.153e-05,4.209,0.01669,0,1,0
79200000000,79500000000,3418427,0,1439356567,0.0007,0.08093,0.09119,0.001051,0.001499,0.08093,3.815e-06,0.000206,0.01566,0.0003567,3.75,0.01407,0,1,0
79500000000,79800000000,3418427,0,1439356567,0.0007029,0.08093,0.09119,0.001051,0.001497,0.08093,2.861e-06,0.000206,0.01718,0.0002146,4.254,0.01668,0,1,0
79800000000,80100000000,3418427,0,1439356567,0.0007181,0.08093,0.09119,0.001051,0.001497,0.08093,4.768e-06,0.000206,0.01321,0.0008574,3.665,0.01391,0,1,0
80100000000,80400000000,3418427,0,1439356567,0.0007095,0.08093,0.09119,0.001051,0.001497,0.08093,3.815e-06,0.000206,0.006378,0.0005713,4.049,0.01575,0,1,0
80400000000,80700000000,3418427,0,1439356567,0.0007057,0.08093,0.09119,0.001049,0.001495,0.08093,3.815e-06,0.000206,0.00943,0.0004997,3.66,0.01404,0,1,0
80700000000,81000000000,3418427,0,1439356567,0.0006838,0.08093,0.09119,0.001053,0.001499,0.08093,3.815e-06,0.000206,0.007378,0.0005713,4.309,0.01718,0,1,0
85800000000,86100000000,3418427,0,1439356567,0.0009613,0.08093,0.09119,0.001078,0.001524,0.08093,2.861e-06,0.000206,0.01379,0.0002861,3.592,0.01291,0,1,0
86100000000,86400000000,3418427,0,1439356567,0.000947,0.08093,0.09119,0.001074,0.00152,0.08093,1.907e-06,0.000206,0.01166,7.153e-05,3.669,0.01312,0,1,0
86400000000,86700000000,3418427,0,1439356567,0.001005,0.08093,0.09119,0.001074,0.00152,0.08093,3.815e-06,0.000206,0.008423,0.0002861,3.381,0.01202,0,1,0
86700000000,87000000000,3418427,0,1439356567,0.001081,0.08093,0.09119,0.001081,0.001528,0.08093,5.722e-06,0.000206,0.03473,0.001072,3.381,0.01229,0,1,0
87000000000,87300000000,3418427,0,1439356567,0.001263,0.08093,0.09119,0.001081,0.001528,0.08093,5.722e-06,0.000206,0.01569,0.0006428,2.688,0.008709,0,1,0
87300000000,87600000000,3418427,0,1439356567,0.000639,0.08093,0.09119,0.001081,0.001528,0.08093,3.815e-06,0.000206,0.006325,0.0003567,3.985,0.0153,0,1,0
87600000000,87900000000,3418427,0,1439356567,0.000598,0.08093,0.09119,0.001083,0.00153,0.08093,4.768e-06,0.000206,0.0127,0.0005713,3.452,0.01265,0,1,0
87900000000,88200000000,3418427,0,1439356567,0.0007372,0.08093,0.09119,0.001083,0.00153,0.08093,1.907e-06,0.000206,0.01561,0.0001431,3.6,0.01327,0,1,0
88200000000,88500000000,3418427,0,1439356567,0.0007181,0.08093,0.09119,0.001083,0.00153,0.08093,2.861e-06,0.000206,0.009521,0.0002861,3.357,0.01198,0,1,0
88500000000,88800000000,3418427,0,1439356567,0.0006065,0.08093,0.09119,0.001083,0.001532,0.08093,2.861e-06,0.000206,0.03687,0.0002861,4.113,0.01588,0,1,0
88800000000,89100000000,3418427,0,1439356567,0.0005426,0.08093,0.09119,0.001083,0.00153,0.08093,3.815e-06,0.000206,0.01251,0.0007143,3.652,0.01334,0,1,0
89100000000,89400000000,3418427,0,1439356567,0.0005102,0.08093,0.09119,0.001083,0.00153,0.08093,4.768e-06,0.000206,0.0139,0.0004997,4.618,0.01866,0,1,0
89400000000,89700000000,3418427,0,1439356567,0.0006437,0.08093,0.09119,0.001083,0.00153,0.08093,3.815e-06,0.000206,0.01624,0.0002861,3.414,0.01266,0,1,0
89700000000,90000000000,3418427,0,1439356567,0.0004911,0.08093,0.09119,0.001083,0.001532,0.08093,1.907e-06,0.000206,0.02133,7.153e-05,4.529,0.01839,0,1,0
90000000000,90300000000,3418427,0,1439356567,0.000433,0.08093,0.09119,0.001081,0.001528,0.08093,3.815e-06,0.000206,0.006737,0.0002861,4.199,0.01649,0,1,0
90300000000,90600000000,3418427,0,1439356567,0.000412,0.08093,0.09119,0.00108,0.001526,0.08093,2.861e-06,0.000206,0.005722,0.0002861,4.655,0.01933,0,1,0
90600000000,90900000000,3418427,0,1439356567,0.0008039,0.08093,0.09119,0.00108,0.001526,0.08093,2.861e-06,0.000206,0.01527,0.0003567,3.005,0.01057,0,1,0
101100000000,101400000000,3418427,0,1439356567,0.0005007,0.08093,0.09119,0.001074,0.00152,0.08093,4.768e-06,0.000206,0.004555,0.0007143,4.759,0.01997,0,1,0
101400000000,101700000000,3418427,0,1439356567,0.0006952,0.08093,0.09119,0.001074,0.00152,0.08093,4.768e-06,0.000206,0.01694,0.0005713,3.218,0.01185,0,1,0
101700000000,102000000000,3418427,0,1439356567,0.0004663,0.08093,0.09119,0.001076,0.001522,0.08093,4.768e-06,0.000206,0.008774,0.0004997,4.676,0.01922,0,1,0
102000000000,102300000000,3418427,0,1439356567,0.0003824,0.08093,0.09119,0.001076,0.001522,0.08093,2.861e-06,0.000206,0.02365,0.0002861,4.554,0.01845,0,1,0
102300000000,102600000000,3418427,0,1439356567,0.0004129,0.08093,0.09119,0.001072,0.001518,0.08093,2.861e-06,0.000206,0.00502,0.0002146,5.048,0.0212,0,1,0
102600000000,102900000000,3418427,0,1439356567,0.0004454,0.08093,0.09119,0.001072,0.001518,0.08093,5.722e-06,0.000206,0.00795,0.0007858,3.879,0.01529,0,1,0
102900000000,103200000000,3418427,0,1439356567,0.0004244,0.08093,0.09119,0.001074,0.00152,0.08093,1.907e-06,0.000206,0.004158,7.153e-05,5.061,0.02142,0,1,0
103200000000,103500000000,3418427,0,1439356567,0.0005894,0.08093,0.09119,0.001076,0.001522,0.08093,2.861e-06,0.000206,0.02835,0.0002861,3.364,0.01257,0,1,0
103500000000,103800000000,3418427,0,1439356567,0.0009604,0.08093,0.09119,0.001078,0.001526,0.08093,1.907e-06,0.000206,0.03577,7.153e-05,2.646,0.009158,0,1,0
103800000000,104100000000,3418427,0,1439356567,0.0006905,0.08093,0.09119,0.001081,0.001528,0.08093,4.768e-06,0.000206,0.0127,0.0005713,2.778,0.009661,0,1,0
104100000000,104400000000,3418427,0,1439356567,0.0009508,0.08093,0.09119,0.001085,0.001532,0.08093,1.907e-06,0.000206,0.006271,7.153e-05,3.681,0.01417,0,1,0
104400000000,104700000000,3418427,0,1439356567,0.001089,0.08093,0.09119,0.001093,0.001541,0.08093,4.768e-06,0.000206,0.008423,0.0007143,3.256,0.01189,0,1,0
104700000000,105000000000,3418427,0,1439356567,0.0009575,0.08093,0.09119,0.001101,0.001547,0.08093,1.907e-06,0.000205,0.01015,7.153e-05,3.446,0.01279,0,1,0
105000000000,105300000000,3418427,0,1439356567,0.001587,0.08093,0.09119,0.001108,0.001554,0.08093,7.629e-06,0.0002041,0.0148,0.001358,2.685,0.008902,0,1,0
105300000000,105600000000,3418427,0,1439356567,0.001253,0.08093,0.09119,0.001118,0.001564,0.08093,2.861e-06,0.0002041,0.006027,0.0002146,3.187,0.0115,0,1,0
105600000000,105900000000,3418427,0,1439356567,0.0009174,0.08093,0.09119,0.001125,0.001572,0.08093,2.861e-06,0.0002041,0.009216,0.0002861,3.384,0.01244,0,1,0
105900000000,106200000000,3418427,0,1439356567,0.0007505,0.08093,0.09119,0.001131,0.001577,0.08093,3.815e-06,0.0002041,0.008163,0.0004997,3.775,0.01444,0,1,0
106200000000,106500000000,3418427,0,1439356567,0.000782,0.08093,0.09119,0.001135,0.001581,0.08093,8.583e-06,0.0002041,0.006104,0.001143,3.636,0.01404,0,1,0
106500000000,106800000000,3418427,0,1439356567,0.0007353,0.08093,0.09119,0.001036,0.001482,0.08093,2.861e-06,0.0002041,0.005264,0.0001431,4.159,0.01677,0,1,0
106800000000,107100000000,3418427,0,1439356567,0.0007114,0.08093,0.09119,0.0008945,0.001341,0.08093,2.861e-06,0.000205,0.0114,0.0002861,3.749,0.01466,0,1,0
107100000000,107400000000,3418427,0,1439356567,0.0007629,0.08093,0.09119,0.0008993,0.001347,0.08093,3.815e-06,0.000205,0.00663,0.0006428,3.934,0.01537,0,1,0
107400000000,107700000000,3418427,0,1439356567,0.0007095,0.08093,0.09119,0.0009041,0.00135,0.08093,5.722e-06,0.000205,0.02359,0.0009289,3.209,0.01202,0,1,0
107700000000,108000000000,3418427,0,1439356567,0.001022,0.08093,0.09119,0.0009089,0.001356,0.08093,2.861e-06,0.000205,0.03802,0.0001431,3.33,0.01226,0,1,0
108000000000,108300000000,3418427,0,1439356567,0.001022,0.08093,0.09119,0.0009174,0.001364,0.08093,3.815e-06,0.000205,0.01294,0.0003567,3.242,0.01208,0,1,0
108300000000,108600000000,3418427,0,1439356567,0.001049,0.08093,0.09119,0.000926,0.001371,0.08093,1.907e-06,0.000205,0.007065,0.0001431,3.476,0.0132,0,1,0
108600000000,108900000000,3418427,0,1439356567,0.001116,0.08093,0.09119,0.0009346,0.001381,0.08093,2.861e-06,0.000205,0.02036,0.0002861,3.278,0.01215,0,1,0
108900000000,109200000000,3418427,0,1439356567,0.001036,0.08093,0.09119,0.0009432,0.00139,0.08093,2.861e-06,0.000205,0.01047,0.0002146,3.542,0.01346,0,1,0
109200000000,109500000000,3418427,0,1439356567,0.0008631,0.08093,0.09119,0.0009508,0.001398,0.08093,2.861e-06,0.000205,0.01523,0.0002861,3.257,0.01202,0,1,0
109500000000,109800000000,3418427,0,1439356567,0.001167,0.08093,0.09119,0.0009575,0.001404,0.08093,6.676e-06,0.000205,0.01469,0.0009995,3.177,0.01174,0,1,0
109800000000,110100000000,3418427,0,1439356567,0.00107,0.08093,0.09119,0.0009651,0.001411,0.08093,2.861e-06,0.000205,0.01855,0.0002861,2.979,0.01041,0,1,0
110100000000,110400000000,3418427,0,1439356567,0.001135,0.08093,0.09119,0.0009737,0.001419,0.08093,2.861e-06,0.000205,0.01077,0.0001431,3.184,0.01165,0,1,0
110400000000,110700000000,3418427,0,1439356567,0.001234,0.08093,0.09119,0.0009823,0.001429,0.08093,2.861e-06,0.000205,0.04315,0.0002861,3.087,0.01087,0,1,0
110700000000,111000000000,3418427,0,1439356567,0.001116,0.08093,0.09119,0.0009918,0.001438,0.08093,1.907e-06,0.000205,0.02881,7.153e-05,3.439,0.01306,0,1,0
116100000000,116400000000,3418427,0,1439356567,0.001289,0.08093,0.09119,0.001143,0.001589,0.08093,3.815e-06,0.000205,0.01904,0.0003567,3.027,0.01067,0,1,0
116400000000,116700000000,3418427,0,1439356567,0.001383,0.08093,0.09119,0.001139,0.001585,0.08093,2.861e-06,0.000205,0.01233,0.0003567,2.903,0.009876,0,1,0
116700000000,117000000000,3418427,0,1439356567,0.001322,0.08093,0.09119,0.001139,0.001585,0.08093,1.907e-06,0.000205,0.01152,0.0001431,3.338,0.01195,0,1,0
117000000000,117300000000,3418427,0,1439356567,0.001322,0.08093,0.09119,0.001133,0.001581,0.08093,4.768e-06,0.000205,0.01639,0.0006428,3.017,0.01047,0,1,0
117300000000,117600000000,3418427,0,1439356567,0.00141,0.08093,0.09119,0.001141,0.001589,0.08093,3.815e-06,0.000205,0.01009,0.0003567,3.061,0.01055,0,1,0
117600000000,117900000000,3418427,0,1439356567,0.001385,0.08093,0.09119,0.00115,0.001596,0.08093,3.815e-06,0.000205,0.01375,0.0002861,2.908,0.01005,0,1,0
117900000000,118200000000,3418427,0,1439356567,0.001234,0.08093,0.09119,0.001148,0.001595,0.08093,1.907e-06,0.000205,0.0139,0.0001431,3.325,0.01221,0,1,0
118200000000,118500000000,3418427,0,1439356567,0.001415,0.08093,0.09119,0.001156,0.001602,0.08093,4.768e-06,0.000205,0.03656,0.0005713,2.877,0.009903,0,1,0
118500000000,118800000000,3418427,0,1439356567,0.001348,0.08093,0.09119,0.001152,0.0016,0.08093,6.676e-06,0.000205,0.01471,0.001286,3.145,0.01103,0,1,0
118800000000,119100000000,3418427,0,1439356567,0.001286,0.08093,0.09119,0.001144,0.001591,0.08093,5.722e-06,0.000205,0.02112,0.0007858,2.961,0.01024,0,1,0
119100000000,119400000000,3418427,0,1439356567,0.001274,0.08093,0.09119,0.001144,0.001593,0.08093,3.815e-06,0.000205,0.02386,0.0005713,2.65,0.008975,0,1,0
119400000000,119700000000,3418427,0,1439356567,0.001358,0.08093,0.09119,0.001146,0.001593,0.08093,3.815e-06,0.000205,0.02332,0.0002861,2.882,0.01003,0,1,0
119700000000,120000000000,3418427,0,1439356567,0.001255,0.08093,0.09119,0.001154,0.001602,0.08093,3.815e-06,0.000205,0.007965,0.0003567,3.136,0.01123,0,1,0
120000000000,120300000000,3418427,0,1439356567,0.001266,0.08093,0.09119,0.001152,0.0016,0.08093,3.815e-06,0.000205,0.02087,0.0002861,3.142,0.011,0,1,0
120300000000,120600000000,3418427,0,1439356567,0.001335,0.08093,0.09119,0.00115,0.001596,0.08093,6.676e-06,0.000205,0.01978,0.001143,3.049,0.01112,0,1,0
120600000000,120900000000,3418427,0,1439356567,0.001228,0.08093,0.09119,0.00115,0.001596,0.08093,3.815e-06,0.000206,0.0307,0.0004282,2.99,0.01063,0,1,0
126000000000,126300000000,3418427,0,1439356567,0.001045,0.08093,0.09119,0.001221,0.001667,0.08093,3.815e-06,0.000206,0.01105,0.0002861,3.336,0.01182,0,1,0
126300000000,126600000000,3418427,0,1439356567,0.001059,0.08093,0.09119,0.001211,0.001657,0.08093,2.861e-06,0.000206,0.01082,0.0001431,3.347,0.01175,0,1,0
126600000000,126900000000,3418427,0,1439356567,0.001074,0.08093,0.09119,0.001213,0.001661,0.08093,2.861e-06,0.000206,0.01216,0.0002861,3.145,0.01091,0,1,0
126900000000,127200000000,3418427,0,1439356567,0.001015,0.08093,0.09119,0.001221,0.001667,0.08093,2.861e-06,0.000206,0.01904,0.0002861,3.566,0.01336,0,1,0
127200000000,127500000000,3418427,0,1439356567,0.001011,0.08093,0.09119,0.001228,0.001675,0.08093,5.722e-06,0.000206,0.03149,0.0006428,3.006,0.01078,0,1,0
127500000000,127800000000,3418427,0,1439356567,0.000968,0.08093,0.09119,0.00123,0.001678,0.08093,4.768e-06,0.000206,0.01575,0.0006428,3.325,0.01238,0,1,0
127800000000,128100000000,3418427,0,1439356567,0.001038,0.08093,0.09119,0.00123,0.001677,0.08093,3.815e-06,0.000206,0.009064,0.0003567,3.039,0.01103,0,1,0
128100000000,128400000000,3418427,0,1439356567,0.0009899,0.08093,0.09119,0.001236,0.001684,0.08093,2.861e-06,0.000206,0.006493,0.0002146,3.562,0.01365,0,1,0
128400000000,128700000000,3418427,0,1439356567,0.001028,0.08093,0.09119,0.001236,0.001682,0.08093,3.815e-06,0.000206,0.01306,0.0002861,2.863,0.009784,0,1,0
128700000000,129000000000,3418427,0,1439356567,0.001059,0.08093,0.09119,0.00123,0.001678,0.08093,2.861e-06,0.000206,0.01935,0.0001431,3.318,0.01233,0,1,0
129000000000,129300000000,3418427,0,1439356567,0.000886,0.08093,0.09119,0.001238,0.001684,0.08093,2.861e-06,0.000206,0.007355,0.0002861,3.252,0.01221,0,1,0
129300000000,129600000000,3418427,0,1439356567,0.001007,0.08093,0.09119,0.001244,0.001692,0.08093,3.815e-06,0.000206,0.008896,0.0004282,3.382,0.01299,0,1,0
129600000000,129900000000,3418427,0,1439356567,0.001032,0.08093,0.09119,0.001251,0.001698,0.08093,3.815e-06,0.000206,0.02197,0.0004997,3.255,0.01209,0,1,0
129900000000,130200000000,3418427,0,1439356567,0.001091,0.08093,0.09119,0.001245,0.001692,0.08093,2.861e-06,0.000206,0.01242,0.0001431,3.331,0.01199,0,1,0
130200000000,130500000000,3418427,0,1439356567,0.001274,0.08093,0.09119,0.001245,0.001692,0.08093,3.815e-06,0.000206,0.01305,0.0007143,2.989,0.01022,0,1,0
130500000000,130800000000,3418427,0,1439356567,0.00119,0.08093,0.09119,0.001255,0.001701,0.08093,9.537e-06,0.000206,0.008621,0.002071,3.326,0.01176,0,1,0
130800000000,131100000000,3418427,0,1439356567,0.001198,0.08093,0.09119,0.001265,0.001711,0.08093,3.815e-06,0.000206,0.01566,0.0004997,2.994,0.01043,0,1,0
141000000000,141300000000,3418427,0,1439356567,0.001026,0.08093,0.09119,0.0009861,0.001434,0.08093,5.722e-06,0.000205,0.01073,0.0007858,3.088,0.01084,0,1,0
141300000000,141600000000,3418427,0,1439356567,0.0009317,0.08093,0.09119,0.0009861,0.001432,0.08093,1.907e-06,0.000205,0.01996,7.153e-05,3.281,0.01207,0,1,0
141600000000,141900000000,3418427,0,1439356567,0.0009222,0.08093,0.09119,0.000988,0.001434,0.08093,4.768e-06,0.000205,0.04114,0.0007143,3.174,0.0114,0,1,0
141900000000,142200000000,3418427,0,1439356567,0.0008945,0.08093,0.09119,0.0009918,0.00144,0.08093,1.907e-06,0.000205,0.01045,7.153e-05,3.814,0.01461,0,1,0
142200000000,142500000000,3418427,0,1439356567,0.0009623,0.08093,0.09119,0.0009975,0.001444,0.08093,5.722e-06,0.000205,0.02017,0.0009289,3.433,0.01247,0,1,0
142500000000,142800000000,3418427,0,1439356567,0.0009489,0.08093,0.09119,0.0009937,0.001442,0.08093,3.815e-06,0.000205,0.006981,0.0004282,3.604,0.01337,0,1,0
142800000000,143100000000,3418427,0,1439356567,0.000926,0.08093,0.09119,0.0009937,0.001442,0.08093,5.722e-06,0.000205,0.04755,0.0009995,3.422,0.01225,0,1,0
143100000000,143400000000,3418427,0,1439356567,0.0009184,0.08093,0.09119,0.0009937,0.001442,0.08093,3.815e-06,0.000205,0.01329,0.0004997,3.639,0.01331,0,1,0
143400000000,143700000000,3418427,0,1439356567,0.0008602,0.08093,0.09119,0.0009937,0.001442,0.08093,6.676e-06,0.000205,0.008743,0.001358,3.429,0.01262,0,1,0
143700000000,144000000000,3418427,0,1439356567,0.0009527,0.08093,0.09119,0.0009975,0.001446,0.08093,2.861e-06,0.000205,0.00882,0.0002861,3.294,0.01197,0,1,0
144000000000,144300000000,3418427,0,1439356567,0.0008936,0.08093,0.09119,0.0009975,0.001444,0.08093,2.861e-06,0.000205,0.04205,0.0002499,3.553,0.01282,0,1,0
144300000000,144600000000,3418427,0,1439356567,0.0008879,0.08093,0.09119,0.0009956,0.001444,0.08093,3.815e-06,0.000205,0.01172,0.0002384,3.45,0.0126,0,1,0
144600000000,144900000000,3418427,0,1439356567,0.0009165,0.08093,0.09119,0.0009975,0.001446,0.08093,4.768e-06,0.000205,0.01877,0.0007858,3.211,0.01157,0,1,0
144900000000,145200000000,3418427,0,1439356567,0.000782,0.08093,0.09119,0.0009995,0.001446,0.08093,2.861e-06,0.000205,0.007996,0.0001431,4.102,0.01572,0,1,0
145200000000,145500000000,3418427,0,1439356567,0.0007915,0.08093,0.09119,0.0009975,0.001446,0.08093,6.676e-06,0.000205,0.007469,0.0009289,3.806,0.0142,0,1,0
145500000000,145800000000,3418427,0,1439356567,0.0008717,0.08093,0.09119,0.0009995,0.001448,0.08093,1.431e-05,0.000205,0.04846,0.003429,3.726,0.01394,0,1,0
145800000000,146100000000,3418427,0,1439356567,0.001003,0.08093,0.09119,0.001017,0.001495,0.08118,0.000165,0.000205,0.02887,0.03949,5.323,0.0224,0,1,0
151200000000,151500000000,3418427,0,1439356567,0.0008183,0.08093,0.09119,0.001003,0.001451,0.08093,2.861e-06,0.000205,0.01407,0.0002861,3.616,0.01326,0,1,0
151500000000,151800000000,3418427,0,1439356567,0.0008497,0.08093,0.09119,0.001003,0.001451,0.08093,2.861e-06,0.000205,0.01517,7.343e-05,3.977,0.0153,0,1,0
151800000000,152100000000,3418427,0,1439356567,0.0008554,0.08093,0.09119,0.001003,0.001451,0.08093,3.815e-06,0.000205,0.05035,0.0002861,3.546,0.0131,0,1,0
152100000000,152400000000,3418427,0,1439356567,0.0009279,0.08093,0.09119,0.001001,0.00145,0.08093,3.815e-06,0.000205,0.01321,0.0002861,3.521,0.01279,0,1,0
152400000000,152700000000,3418427,0,1439356567,0.0008259,0.08093,0.09119,0.001007,0.001453,0.08093,3.815e-06,0.000205,0.01581,0.0003567,3.611,0.013,0,1,0
152700000000,153000000000,3418427,0,1439356567,0.000824,0.08093,0.09119,0.001009,0.001457,0.08093,2.861e-06,0.000205,0.02948,0.0001431,3.758,0.01378,0,1,0
153000000000,153300000000,3418427,0,1439356567,0.0007906,0.08093,0.09119,0.001007,0.001455,0.08093,3.815e-06,0.000205,0.00779,0.0002861,3.819,0.01404,0,1,0
153300000000,153600000000,3418427,0,1439356567,0.0007925,0.08093,0.09119,0.001001,0.001448,0.08093,2.861e-06,0.000205,0.00708,0.0001431,4.277,0.01644,0,1,0
153600000000,153900000000,3418427,0,1439356567,0.0008516,0.08093,0.09119,0.001001,0.001448,0.08093,2.861e-06,0.000205,0.01003,0.0002861,3.585,0.01302,0,1,0
153900000000,154200000000,3418427,0,1439356567,0.0008364,0.08093,0.09119,0.001005,0.001451,0.08093,2.861e-06,0.000205,0.009766,0.0001431,3.907,0.01471,0,1,0
154200000000,154500000000,3418427,0,1439356567,0.0002689,0.08093,0.09119,0.001001,0.00145,0.08093,2.861e-06,0.000205,0.004333,0.0002861,5.646,0.02367,0,1,0
154500000000,154800000000,3418427,0,1439356567,0.0002432,0.08093,0.09119,0.001003,0.00145,0.08093,1.907e-06,0.000205,0.01205,7.153e-05,7.402,0.03255,0,1,0
154800000000,155100000000,3418427,0,1439356567,0.000268,0.08093,0.09119,0.001003,0.00145,0.08093,2.861e-06,0.000205,0.01038,0.0002861,5.488,0.0227,0,1,0
155100000000,155400000000,3418427,0,1439356567,0.0002499,0.08093,0.09119,0.001003,0.001451,0.08093,2.861e-06,0.000205,0.008575,0.0002146,7.829,0.0345,0,1,0
155400000000,155700000000,3418427,0,1439356567,0.0002384,0.08093,0.09119,0.001005,0.001451,0.08093,6.676e-06,0.000205,0.006805,0.001429,6.772,0.0289,0,1,0
155700000000,156000000000,3418427,0,1439356567,0.0002613,0.08093,0.09119,0.001005,0.001451,0.08093,1.907e-06,0.000205,0.007195,7.153e-05,6.649,0.02926,0,1,0
161100000000,161400000000,3418427,0,1439356567,0.0006742,0.08093,0.09119,0.001011,0.001457,0.08093,2.861e-06,0.000205,0.009171,0.0002861,4.102,0.01559,0,1,0
161400000000,161700000000,3418427,0,1439356567,0.0007267,0.08093,0.09119,0.001013,0.001459,0.08093,7.629e-06,0.000206,0.01892,0.0009289,3.697,0.01355,0,1,0
161700000000,162000000000,3418427,0,1439356567,0.0006962,0.08093,0.09119,0.001011,0.001459,0.08093,1.907e-06,0.000206,0.0127,0.0001431,4.033,0.01505,0,1,0
162000000000,162300000000,3418427,0,1439356567,0.0006294,0.08093,0.09119,0.001013,0.001459,0.08093,2.861e-06,0.000206,0.02036,0.0002861,4.017,0.01511,0,1,0
162300000000,162600000000,3418427,0,1439356567,0.0005465,0.08093,0.09119,0.001011,0.001459,0.08093,2.861e-06,0.000206,0.01175,0.0002146,4.672,0.01833,0,1,0
162600000000,162900000000,3418427,0,1439356567,0.0006161,0.08093,0.09119,0.001013,0.001461,0.08093,3.815e-06,0.000206,0.007568,0.0002861,3.865,0.01433,0,1,0
162900000000,163200000000,3418427,0,1439356567,0.0005808,0.08093,0.09119,0.001009,0.001457,0.08093,1.907e-06,0.000206,0.008789,7.153e-05,4.885,0.01941,0,1,0
163200000000,163500000000,3418427,0,1439356567,0.0006065,0.08093,0.09119,0.001011,0.001459,0.08093,2.861e-06,0.000206,0.006874,0.0002861,3.642,0.01349,0,1,0
163500000000,163800000000,3418427,0,1439356567,0.0006704,0.08093,0.09119,0.001013,0.001459,0.08093,2.861e-06,0.000206,0.02704,7.153e-05,3.631,0.01346,0,1,0
163800000000,164100000000,3418427,0,1439356567,0.0005827,0.08093,0.09119,0.001013,0.001461,0.08093,3.815e-06,0.000206,0.01073,0.0004997,4.018,0.0151,0,1,0
164100000000,164400000000,3418427,0,1439356567,0.000638,0.08093,0.09119,0.001013,0.001461,0.08093,2.861e-06,0.000206,0.008179,0.0001431,4.175,0.01573,0,1,0
164400000000,164700000000,3418427,0,1439356567,0.0005922,0.08093,0.09119,0.001013,0.001461,0.08093,5.722e-06,0.000206,0.009521,0.001072,4.025,0.01538,0,1,0
164700000000,165000000000,3418427,0,1439356567,0.0006275,0.08093,0.09119,0.001015,0.001463,0.08093,2.861e-06,0.000206,0.008789,0.0002861,4.245,0.01671,0,1,0
165000000000,165300000000,3418427,0,1439356567,0.0005579,0.08093,0.09119,0.001015,0.001463,0.08093,2.861e-06,0.000206,0.02402,0.0002861,3.711,0.01402,0,1,0
165300000000,165600000000,3418427,0,1439356567,0.0005493,0.08093,0.09119,0.001015,0.001463,0.08093,1.907e-06,0.000206,0.006531,7.153e-05,4.405,0.01746,0,1,0
165600000000,165900000000,3418427,0,1439356567,0.0005827,0.08093,0.09119,0.001017,0.001463,0.08093,2.861e-06,0.000206,0.01219,0.0004282,3.881,0.01488,0,1,0
165900000000,166200000000,3418427,0,1439356567,0.0005865,0.08093,0.09119,0.001015,0.001463,0.08093,4.768e-06,0.000206,0.02295,0.0006428,4.266,0.0165,0,1,0
166200000000,166500000000,3418427,0,1439356567,0.0005112,0.08093,0.09119,0.001015,0.001463,0.08093,6.676e-06,0.000206,0.008057,0.001072,4.105,0.01592,0,1,0
166500000000,166800000000,3418427,0,1439356567,0.0004225,0.08093,0.09119,0.001015,0.001463,0.08093,5.722e-06,0.000206,0.005699,0.0006428,4.923,0.01981,0,1,0
166800000000,167100000000,3418427,0,1439356567,0.0002155,0.08093,0.09119,0.001017,0.001463,0.08093,3.815e-06,0.000206,0.009293,0.0003567,6.459,0.02799,0,1,0
167100000000,167400000000,3418427,0,1439356567,0.0002346,0.08093,0.09119,0.001017,0.001465,0.08093,1.907e-06,0.000206,0.006424,7.153e-05,8.259,0.03621,0,1,0
167400000000,167700000000,3418427,0,1439356567,0.0002031,0.08093,0.09119,0.001017,0.001465,0.08093,1.049e-05,0.000206,0.01051,0.00243,7.276,0.03218,0,1,0
167700000000,168000000000,3418427,0,1439356567,0.0004358,0.08093,0.09119,0.001038,0.001518,0.08118,0.0001593,0.000206,0.02982,0.02994,5.965,0.02591,0,1,0
168000000000,168300000000,3418427,0,1439356567,0.0002794,0.08118,0.09119,0.00108,0.001635,0.08118,6.676e-06,0.000206,0.009247,0.0004282,8.318,0.03749,0,1,0
168300000000,168600000000,3418427,0,1439356567,0.0002756,0.08118,0.09119,0.00108,0.001635,0.08118,1.717e-05,0.000206,0.0101,0.002716,10.55,0.04912,0,1,0
168600000000,168900000000,3418427,0,1439356567,0.0003109,0.08118,0.09119,0.00108,0.001635,0.08118,5.722e-06,0.000206,0.01025,0.0004997,7.13,0.03199,0,1,0
168900000000,169200000000,3418427,0,1439356567,0.0002623,0.08118,0.09119,0.001076,0.001633,0.08118,7.629e-06,0.000206,0.005348,0.001143,7.188,0.03211,0,1,0
169200000000,169500000000,3418427,0,1439356567,0.0002184,0.08093,0.09119,0.001175,0.001633,0.08118,5.722e-06,0.000206,0.01408,0.0005713,6.239,0.02759,0,1,0
169500000000,169800000000,3418427,0,1439356567,0.0002604,0.08093,0.09119,0.001186,0.001633,0.08093,2.861e-06,0.000206,0.01527,0.0001431,8.93,0.04129,0,1,0
169800000000,170100000000,3418427,0,1439356567,0.000227,0.08093,0.09119,0.001165,0.001612,0.08093,4.768e-06,0.000206,0.02017,0.0004997,5.712,0.02451,0,1,0
170100000000,170400000000,3418427,0,1439356567,0.0002365,0.08093,0.09119,0.001017,0.001463,0.08093,2.861e-06,0.000206,0.008896,0.0002146,7.139,0.03153,0,1,0
170400000000,170700000000,3418427,0,1439356567,0.0002184,0.08093,0.09119,0.001017,0.001463,0.08093,3.815e-06,0.000206,0.008652,0.0003567,6.27,0.02817,0,1,0
170700000000,171000000000,3418427,0,1439356567,0.0002213,0.08093,0.09119,0.001017,0.001465,0.08093,2.861e-06,0.000206,0.007195,0.0003567,7.256,0.03263,0,1,0
171000000000,171300000000,3418427,0,1439356567,0.0001974,0.08093,0.09119,0.001017,0.001465,0.08093,3.815e-06,0.000206,0.006081,0.0004997,7.061,0.03182,0,1,0
171300000000,171600000000,3418427,0,1439356567,0.000186,0.08093,0.09119,0.001017,0.001465,0.08093,3.815e-06,0.000206,0.003819,0.0007143,8.994,0.04091,0,1,0
171600000000,171900000000,3418427,0,1439356567,0.0002413,0.08093,0.09119,0.001019,0.001465,0.08093,2.861e-06,0.000206,0.007294,0.0002861,5.988,0.0265,0,1,0
171900000000,172200000000,3418427,0,1439356567,0.000247,0.08093,0.09119,0.001019,0.001465,0.08093,4.768e-06,0.000206,0.01268,0.0007858,6.032,0.02674,0,1,0
172200000000,172500000000,3418427,0,1439356567,0.0002041,0.08093,0.09119,0.001019,0.001467,0.08093,3.815e-06,0.000206,0.007309,0.0003567,6.521,0.0283,0,1,0
172500000000,172800000000,3418427,0,1439356567,0.0001869,0.08093,0.09119,0.001019,0.001467,0.08093,1.907e-06,0.000206,0.004402,7.153e-05,9.917,0.04606,0,1,0
172800000000,173100000000,3418427,0,1439356567,0.0001936,0.08093,0.09119,0.001019,0.001467,0.08093,5.722e-06,0.000206,0.01524,0.0008574,7.488,0.03377,0,1,0
173100000000,173400000000,3418427,0,1439356567,0.0002651,0.08093,0.09119,0.00102,0.001467,0.08093,2.861e-06,0.000206,0.04376,0.0001431,7.258,0.03213,0,1,0
173400000000,173700000000,3418427,0,1439356567,0.0002451,0.08093,0.09119,0.00102,0.001467,0.08093,3.815e-06,0.000206,0.0121,0.0005713,7.187,0.03218,0,1,0
173700000000,174000000000,3418427,0,1439356567,0.0002069,0.08093,0.09119,0.00102,0.001469,0.08093,3.815e-06,0.000206,0.004456,0.0004282,7.9,0.03618,0,1,0
174000000000,174300000000,3418427,0,1439356567,0.0002708,0.08093,0.09119,0.00102,0.001469,0.08093,5.722e-06,0.000206,0.005989,0.0008574,5.845,0.02584,0,1,0
174300000000,174600000000,3418427,0,1439356567,0.0002012,0.08093,0.09119,0.001022,0.001469,0.08093,3.815e-06,0.000206,0.003193,0.0002861,8.215,0.0381,0,1,0
174600000000,174900000000,3418427,0,1439356567,0.000185,0.08093,0.09119,0.001022,0.001469,0.08093,6.676e-06,0.000206,0.004364,0.001286,7.977,0.03715,0,1,0
174900000000,175200000000,3418427,0,1439356567,0.0001917,0.08093,0.09119,0.001022,0.001469,0.08093,1.907e-06,0.000206,0.002861,0.0001431,8.503,0.03965,0,1,0
175200000000,175500000000,3418427,0,1439356567,0.000206,0.08093,0.09119,0.001022,0.001471,0.08093,2.861e-06,0.000206,0.007324,0.0002861,6.999,0.03127,0,1,0
175500000000,175800000000,3418427,0,1439356567,0.0002203,0.08093,0.09119,0.001022,0.001469,0.08093,1.907e-06,0.000206,0.002689,7.153e-05,7.538,0.03235,0,1,0
175800000000,176100000000,3418427,0,1439356567,0.0002022,0.08093,0.09119,0.00102,0.001469,0.08093,2.861e-06,0.000206,0.00602,0.0002861,7.898,0.03403,0,1,0
186300000000,186600000000,3418427,0,1439356567,0.0002089,0.08093,0.09119,0.001026,0.001472,0.08093,2.861e-06,0.000206,0.004456,0.0001431,8.01,0.0368,0,1,0
186600000000,186900000000,3418427,0,1439356567,0.0001907,0.08093,0.09119,0.001022,0.001471,0.08093,3.815e-06,0.000206,0.002754,0.0002861,8.499,0.03909,0,1,0
186900000000,187200000000,3418427,0,1439356567,0.0002022,0.08093,0.09119,0.001022,0.001471,0.08093,1.907e-06,0.000206,0.005989,7.153e-05,8.016,0.03612,0,1,0
187200000000,187500000000,3418427,0,1439356567,0.0001965,0.08093,0.09119,0.001022,0.001471,0.08093,5.722e-06,0.000206,0.003201,0.0007143,6.696,0.03,0,1,0
187500000000,187800000000,3418427,0,1439356567,0.000226,0.08093,0.09119,0.001024,0.001471,0.08093,5.722e-06,0.000206,0.007317,0.0008574,7.925,0.03633,0,1,0
187800000000,188100000000,3418427,0,1439356567,0.0001936,0.08093,0.09119,0.001024,0.001471,0.08093,2.861e-06,0.000206,0.002926,0.0002861,6.445,0.02918,0,1,0
188100000000,188400000000,3418427,0,1439356567,0.0001888,0.08093,0.09119,0.001024,0.001472,0.08093,2.861e-06,0.000206,0.002346,0.0002146,8.142,0.03832,0,1,0
188400000000,188700000000,3418427,0,1439356567,0.0001783,0.08093,0.09119,0.001024,0.001472,0.08093,3.815e-06,0.000206,0.002472,0.0004997,9.411,0.04496,0,1,0
188700000000,189000000000,3418427,0,1439356567,0.0002584,0.08093,0.09119,0.001024,0.001472,0.08093,2.861e-06,0.000206,0.03168,0.0002146,5.334,0.02367,0,1,0
189000000000,189300000000,3418427,0,1439356567,0.0001841,0.08093,0.09119,0.001026,0.001472,0.08093,4.768e-06,0.000206,0.002247,0.0009289,5.682,0.02571,0,1,0
189300000000,189600000000,3418427,0,1439356567,0.000247,0.08093,0.09119,0.001026,0.001472,0.08093,1.907e-06,0.000206,0.05188,7.153e-05,7.784,0.03603,0,1,0
189600000000,189900000000,3418427,0,1439356567,0.0001993,0.08093,0.09119,0.001026,0.001472,0.08093,2.861e-06,0.000206,0.004105,0.0003567,7.546,0.03491,0,1,0
189900000000,190200000000,3418427,0,1439356567,0.000226,0.08093,0.09119,0.001026,0.001474,0.08093,2.861e-06,0.000206,0.006927,0.0002146,7.063,0.03234,0,1,0
190200000000,190500000000,3418427,0,1439356567,0.0001974,0.08093,0.09119,0.001026,0.001474,0.08093,2.861e-06,0.000206,0.003613,0.0002861,6.169,0.02785,0,1,0
190500000000,190800000000,3418427,0,1439356567,0.0002241,0.08093,0.09119,0.001026,0.001474,0.08093,1.907e-06,0.000206,0.02097,7.153e-05,6.778,0.03087,0,1,0
190800000000,191100000000,3418427,0,1439356567,0.0001993,0.08093,0.09119,0.001028,0.001474,0.08093,2.861e-06,0.000206,0.005104,0.0002861,9,0.04183,0,1,0
191100000000,191400000000,3418427,0,1439356567,0.0001831,0.08093,0.09119,0.001028,0.001474,0.08093,2.861e-06,0.000206,0.004341,0.0002861,8.754,0.04083,0,1,0
191400000000,191700000000,3418427,0,1439356567,0.0001926,0.08093,0.09119,0.001028,0.001474,0.08093,2.861e-06,0.000206,0.005852,0.0002861,6.496,0.02989,0,1,0
191700000000,192000000000,3418427,0,1439356567,0.0001783,0.08093,0.09119,0.001024,0.001472,0.08093,2.861e-06,0.000206,0.005554,0.0001431,8.682,0.04098,0,1,0
192000000000,192300000000,3418427,0,1439356567,0.0001783,0.08093,0.09119,0.001019,0.001467,0.08093,2.861e-06,0.000206,0.007164,0.0002861,7.312,0.03425,0,1,0
192300000000,192600000000,3418427,0,1439356567,0.0002251,0.08093,0.09119,0.001019,0.001467,0.08093,1.907e-06,0.000206,0.009598,7.153e-05,6.122,0.02791,0,1,0
192600000000,192900000000,3418427,0,1439356567,0.0001888,0.08093,0.09119,0.00102,0.001467,0.08093,3.815e-06,0.000206,0.003555,0.0002861,7.368,0.03387,0,1,0
192900000000,193200000000,3418427,0,1439356567,0.0002108,0.08093,0.09119,0.00102,0.001467,0.08093,1.907e-06,0.000206,0.02338,7.153e-05,9.519,0.04407,0,1,0
193200000000,193500000000,3418427,0,1439356567,0.0002108,0.08093,0.09119,0.00102,0.001467,0.08093,3.815e-06,0.000206,0.004044,0.0004997,6.714,0.0292,0,1,0
193500000000,193800000000,3418427,0,1439356567,0.0001926,0.08093,0.09119,0.00102,0.001469,0.08093,2.861e-06,0.000206,0.002594,0.0002861,9.658,0.04467,0,1,0
193800000000,194100000000,3418427,0,1439356567,0.0002499,0.08093,0.09119,0.00102,0.001469,0.08093,2.861e-06,0.000206,0.01097,0.0002861,5.512,0.02336,0,1,0
194100000000,194400000000,3418427,0,1439356567,0.0002165,0.08093,0.09119,0.00102,0.001469,0.08093,5.722e-06,0.000206,0.00547,0.0004997,8.113,0.0364,0,1,0
194400000000,194700000000,3418427,0,1439356567,0.0001907,0.08093,0.09119,0.001022,0.001469,0.08093,4.768e-06,0.000206,0.004395,0.0007143,7.998,0.03604,0,1,0
194700000000,195000000000,3418427,0,1439356567,0.0001965,0.08093,0.09119,0.001022,0.001469,0.08093,2.861e-06,0.000206,0.00275,0.0002146,7.943,0.03689,0,1,0
195000000000,195300000000,3418427,0,1439356567,0.000185,0.08093,0.09119,0.001022,0.001469,0.08093,2.861e-06,0.000206,0.002895,0.0002861,6.325,0.0292,0,1,0
195300000000,195600000000,3418427,0,1439356567,0.0001869,0.08093,0.09119,0.001022,0.001471,0.08093,2.861e-06,0.000206,0.00885,0.0001431,8.018,0.0379,0,1,0
195600000000,195900000000,3418427,0,1439356567,0.0002117,0.08093,0.09119,0.001022,0.001471,0.08093,4.768e-06,0.000206,0.006012,0.0004997,5.606,0.02529,0,1,0
195900000000,196200000000,3418427,0,1439356567,0.0001755,0.08093,0.09119,0.001022,0.001471,0.08093,1.907e-06,0.000206,0.004463,7.153e-05,7.816,0.03675,0,1,0
201300000000,201600000000,3418427,0,1439356567,0.000247,0.08093,0.09119,0.001032,0.001478,0.08093,1.907e-06,0.000206,0.00486,7.153e-05,6.645,0.03034,0,1,0
201600000000,201900000000,3418427,0,1439356567,0.0002279,0.08093,0.09119,0.00103,0.001478,0.08093,2.861e-06,0.000206,0.003521,0.0002861,6.421,0.02871,0,1,0
201900000000,202200000000,3418427,0,1439356567,0.0002651,0.08093,0.09119,0.00103,0.001478,0.08093,1.907e-06,0.000206,0.01071,7.153e-05,6.352,0.02825,0,1,0
202200000000,202500000000,3418427,0,1439356567,0.0003262,0.08093,0.09119,0.00103,0.001478,0.08093,4.768e-06,0.000206,0.05609,0.0007143,5.172,0.0217,0,1,0
202500000000,202800000000,3418427,0,1439356567,0.0003157,0.08093,0.09119,0.001028,0.001474,0.08093,5.722e-06,0.000206,0.01303,0.0009289,6.247,0.02601,0,1,0
202800000000,203100000000,3418427,0,1439356567,0.0002584,0.08093,0.09119,0.001028,0.001476,0.08093,2.861e-06,0.000206,0.01788,0.0003567,5.629,0.02379,0,1,0
203100000000,203400000000,3418427,0,1439356567,0.0002518,0.08093,0.09119,0.001028,0.001476,0.08093,4.768e-06,0.000206,0.009155,0.0005713,6.679,0.02895,0,1,0
203400000000,203700000000,3418427,0,1439356567,0.0002356,0.08093,0.09119,0.00103,0.001476,0.08093,2.861e-06,0.000206,0.004158,0.0002861,5.634,0.02451,0,1,0
203700000000,204000000000,3418427,0,1439356567,0.0002642,0.08093,0.09119,0.00103,0.001476,0.08093,1.907e-06,0.000206,0.004959,7.153e-05,6.497,0.02888,0,1,0
204000000000,204300000000,3418427,0,1439356567,0.0002661,0.08093,0.09119,0.00103,0.001478,0.08093,2.861e-06,0.000206,0.006775,0.0002861,5.276,0.0232,0,1,0
204300000000,204600000000,3418427,0,1439356567,0.0002604,0.08093,0.09119,0.001032,0.001478,0.08093,1.907e-06,0.000206,0.009766,7.153e-05,5.924,0.02654,0,1,0
204600000000,204900000000,3418427,0,1439356567,0.0002966,0.08093,0.09119,0.001032,0.001478,0.08093,2.861e-06,0.000206,0.01086,0.0002861,3.628,0.01515,0,1,0
204900000000,205200000000,3418427,0,1439356567,0.0002623,0.08093,0.09119,0.001032,0.00148,0.08093,5.722e-06,0.000206,0.01938,0.001072,6.411,0.02966,0,1,0
205200000000,205500000000,3418427,0,1439356567,0.0002909,0.08093,0.09119,0.001034,0.00148,0.08093,2.861e-06,0.000206,0.0108,0.0002861,4.502,0.01919,0,1,0
205500000000,205800000000,3418427,0,1439356567,0.0002899,0.08093,0.09119,0.001034,0.001482,0.08093,1.907e-06,0.000206,0.05017,0.0001431,5.517,0.02473,0,1,0
205800000000,206100000000,3418427,0,1439356567,0.000289,0.08093,0.09119,0.001034,0.001482,0.08093,3.815e-06,0.000206,0.00415,0.0004997,4.569,0.01915,0,1,0
206100000000,206400000000,3418427,0,1439356567,0.000267,0.08093,0.09119,0.001036,0.001482,0.08093,4.768e-06,0.000206,0.006981,0.0005713,6.28,0.02801,0,1,0
206400000000,206700000000,3418427,0,1439356567,0.0002546,0.08093,0.09119,0.001032,0.00148,0.08093,2.861e-06,0.000206,0.004471,0.0002861,5.003,0.02283,0,1,0
206700000000,207000000000,3418427,0,1439356567,0.0002499,0.08093,0.09119,0.00103,0.001476,0.08093,2.861e-06,0.000206,0.005569,0.0002861,5.868,0.02807,0,1,0
207000000000,207300000000,3418427,0,1439356567,0.0003061,0.08093,0.09119,0.00103,0.001476,0.08093,6.676e-06,0.000206,0.01508,0.001286,4.549,0.02067,0,1,0
207300000000,207600000000,3418427,0,1439356567,0.0002756,0.08093,0.09119,0.00103,0.001478,0.08093,1.907e-06,0.000206,0.00515,7.153e-05,5.795,0.02774,0,1,0
207600000000,207900000000,3418427,0,1439356567,0.0003128,0.08093,0.09119,0.001032,0.001478,0.08093,3.815e-06,0.000206,0.008133,0.0003567,4.217,0.01868,0,1,0
207900000000,208200000000,3418427,0,1439356567,0.0002909,0.08093,0.09119,0.001034,0.00148,0.08093,1.907e-06,0.000206,0.007111,7.153e-05,4.948,0.02272,0,1,0
208200000000,208500000000,3418427,0,1439356567,0.0003004,0.08093,0.09119,0.001034,0.00148,0.08093,3.815e-06,0.000206,0.004395,0.0006428,4.796,0.02112,0,1,0
208500000000,208800000000,3418427,0,1439356567,0.0002689,0.08093,0.09119,0.001034,0.001482,0.08093,2.861e-06,0.000206,0.005966,0.0001431,5.646,0.02547,0,1,0
208800000000,209100000000,3418427,0,1439356567,0.0003328,0.08093,0.09119,0.001036,0.001482,0.08093,3.815e-06,0.000206,0.01344,0.0004282,3.508,0.01406,0,1,0
209100000000,209400000000,3418427,0,1439356567,0.0003099,0.08093,0.09119,0.001038,0.001484,0.08093,5.722e-06,0.000206,0.009003,0.0008574,5.835,0.02623,0,1,0
209400000000,209700000000,3418427,0,1439356567,0.00037,0.08093,0.09119,0.001034,0.00148,0.08093,3.815e-06,0.000206,0.0112,0.0004282,5.099,0.02038,0,1,0
209700000000,210000000000,3418427,0,1439356567,0.0003119,0.08093,0.09119,0.001034,0.001482,0.08093,2.861e-06,0.000206,0.02142,0.0001431,6.158,0.02524,0,1,0
210000000000,210300000000,3418427,0,1439356567,0.0002632,0.08093,0.09119,0.001036,0.001482,0.08093,5.722e-06,0.000206,0.005272,0.0005713,5.792,0.02412,0,1,0
210300000000,210600000000,3418427,0,1439356567,0.0002832,0.08093,0.09119,0.001036,0.001484,0.08093,4.768e-06,0.000206,0.005943,0.0007858,6.454,0.02711,0,1,0
210600000000,210900000000,3418427,0,1439356567,0.0002546,0.08093,0.09119,0.001036,0.001484,0.08093,7.629e-06,0.000206,0.005005,0.001499,5.727,0.02437,0,1,0
210900000000,211200000000,3418427,0,1439356567,0.0002947,0.08093,0.09119,0.001038,0.001484,0.08093,4.768e-06,0.000206,0.01306,0.0004282,6.198,0.02656,0,1,0
211200000000,211500000000,3418427,0,1439356567,0.0002766,0.08093,0.09119,0.001038,0.001484,0.08093,4.768e-06,0.000206,0.00317,0.0004997,5.317,0.02232,0,1,0
211500000000,211800000000,3418427,0,1439356567,0.0002832,0.08093,0.09119,0.001036,0.001484,0.08093,1.907e-06,0.000206,0.004944,7.153e-05,5.613,0.02404,0,1,0
211800000000,212100000000,3418427,0,1439356567,0.0002728,0.08093,0.09119,0.001038,0.001484,0.08093,3.815e-06,0.000206,0.003777,0.0005713,4.978,0.02093,0,1,0
212100000000,212400000000,3418427,0,1439356567,0.0003147,0.08093,0.09119,0.001028,0.001476,0.08093,4.768e-06,0.000206,0.01205,0.0005713,5.304,0.02184,0,1,0
212400000000,212700000000,3418427,0,1439356567,0.000268,0.08093,0.09119,0.001028,0.001474,0.08093,2.861e-06,0.000206,0.00589,0.0002861,5.918,0.02511,0,1,0
212700000000,213000000000,3418427,0,1439356567,0.0002508,0.08093,0.09119,0.001028,0.001474,0.08093,1.907e-06,0.000206,0.00285,7.153e-05,7.722,0.03376,0,1,0
213000000000,213300000000,3418427,0,1439356567,0.0002975,0.08093,0.09119,0.001028,0.001476,0.08093,3.815e-06,0.000206,0.009872,0.0004997,5.713,0.02349,0,1,0
213300000000,213600000000,3418427,0,1439356567,0.0002794,0.08093,0.09119,0.00103,0.001476,0.08093,1.907e-06,0.000206,0.01381,0.0001431,6.458,0.02814,0,1,0
213600000000,213900000000,3418427,0,1439356567,0.000248,0.08093,0.09119,0.00103,0.001478,0.08093,4.768e-06,0.000206,0.003895,0.0008602,5.981,0.02573,0,1,0
213900000000,214200000000,3418427,0,1439356567,0.0002899,0.08093,0.09119,0.00103,0.001478,0.08093,2.861e-06,0.000206,0.009583,0.0001431,5.789,0.02507,0,1,0
214200000000,214500000000,3418427,0,1439356567,0.0002718,0.08093,0.09119,0.001032,0.001478,0.08093,5.722e-06,0.000206,0.003944,0.0007858,5.283,0.02277,0,1,0
214500000000,214800000000,3418427,0,1439356567,0.0002527,0.08093,0.09119,0.001032,0.00148,0.08093,1.907e-06,0.000206,0.003468,7.153e-05,6.479,0.02869,0,1,0
214800000000,215100000000,3418427,0,1439356567,0.0003414,0.08093,0.09119,0.001034,0.00148,0.08093,3.815e-06,0.000206,0.01816,0.0005713,3.501,0.01389,0,1,0
215100000000,215400000000,3418427,0,1439356567,0.0002518,0.08093,0.09119,0.001034,0.001482,0.08093,1.907e-06,0.000206,0.003304,7.153e-05,6.627,0.03019,0,1,0
215400000000,215700000000,3418427,0,1439356567,0.0002718,0.08093,0.09119,0.001034,0.001482,0.08093,2.861e-06,0.000206,0.02185,0.0002861,4.594,0.0196,0,1,0
215700000000,216000000000,3418427,0,1439356567,0.0002747,0.08093,0.09119,0.001036,0.001482,0.08093,3.815e-06,0.000206,0.009705,0.0002861,5.496,0.02386,0,1,0
216000000000,216300000000,3418427,0,1439356567,0.0002604,0.08093,0.09119,0.001036,0.001482,0.08093,2.861e-06,0.000206,0.005173,0.0004282,5.364,0.02267,0,1,0
221100000000,221400000000,3418427,0,1439356567,0.0002756,0.08081,0.09119,0.00104,0.001486,0.08093,2.861e-06,0.000206,0.006737,0.0002146,6.22,0.02729,0,1,0
221400000000,221700000000,3418427,0,1439356567,0.0002995,0.08081,0.09119,0.00104,0.001488,0.08093,1.907e-06,0.000206,0.01488,0.0002861,5.71,0.02343,0,1,0
221700000000,222000000000,3418427,0,1439356567,0.0002747,0.08081,0.09119,0.00104,0.001488,0.08081,2.861e-06,0.000206,0.005249,0.0002146,7.044,0.03029,0,1,0
222000000000,222300000000,3418427,0,1439356567,0.0002689,0.08081,0.09119,0.001041,0.001488,0.08093,2.861e-06,0.000206,0.003155,0.0002861,5.737,0.02301,0,1,0
222300000000,222600000000,3418427,0,1439356567,0.0002899,0.08081,0.09119,0.00104,0.001488,0.08093,1.907e-06,0.000206,0.01413,7.153e-05,6.179,0.02747,0,1,0
222600000000,222900000000,3418427,0,1439356567,0.0002384,0.08081,0.09119,0.001041,0.001488,0.08081,4.768e-06,0.000206,0.007149,0.0008574,6.183,0.02749,0,1,0
222900000000,223200000000,3418427,0,1439356567,0.000289,0.08081,0.09119,0.001041,0.001488,0.08093,1.907e-06,0.000206,0.01318,0.0001431,6.064,0.0267,0,1,0
223200000000,223500000000,3418427,0,1439356567,0.0002413,0.08081,0.09119,0.001041,0.00149,0.08081,2.861e-06,0.000206,0.004265,0.0002861,5.924,0.02575,0,1,0
223500000000,223800000000,3418427,0,1439356567,0.0003071,0.08081,0.09119,0.001043,0.00149,0.08093,1.907e-06,0.000206,0.01498,7.153e-05,5.555,0.02338,0,1,0
223800000000,224100000000,3418427,0,1439356567,0.0003233,0.08081,0.09119,0.001043,0.001492,0.08093,2.861e-06,0.000206,0.01108,0.0002861,4.897,0.01996,0,1,0
224100000000,224400000000,3418427,0,1439356567,0.0002556,0.08081,0.09119,0.001043,0.001492,0.08081,1.907e-06,0.000206,0.005051,7.153e-05,7.325,0.0313,0,1,0
224400000000,224700000000,3418427,0,1439356567,0.000268,0.08081,0.09119,0.001045,0.001492,0.08081,2.861e-06,0.000206,0.00499,0.0002861,6.357,0.0266,0,1,0
224700000000,225000000000,3418427,0,1439356567,0.000267,0.08081,0.09119,0.001045,0.001492,0.08081,3.815e-06,0.000206,0.006432,0.0004282,6.425,0.02811,0,1,0
225000000000,225300000000,3418427,0,1439356567,0.0002985,0.08081,0.09119,0.001041,0.001488,0.08093,5.722e-06,0.000206,0.007187,0.0009289,5.005,0.02129,0,1,0
225300000000,225600000000,3418427,0,1439356567,0.0002584,0.08081,0.09119,0.001041,0.001488,0.08081,3.815e-06,0.000206,0.007668,0.0004282,6.19,0.02745,0,1,0
225600000000,225900000000,3418427,0,1439356567,0.0003481,0.08081,0.09119,0.001041,0.00149,0.08081,8.583e-06,0.000206,0.01562,0.001358,5.871,0.02224,0,1,0
225900000000,226200000000,3418427,0,1439356567,0.0002604,0.08081,0.09119,0.001043,0.00149,0.08081,5.722e-06,0.000206,0.003307,0.0007143,6.693,0.02896,0,1,0
226200000000,226500000000,3418427,0,1439356567,0.0002155,0.08081,0.09119,0.001043,0.00149,0.08081,5.722e-06,0.000206,0.002956,0.0008574,6.679,0.02988,0,1,0
226500000000,226800000000,3418427,0,1439356567,0.0003052,0.08081,0.09119,0.001043,0.00149,0.08081,3.815e-06,0.000206,0.02713,0.0005713,5.826,0.02567,0,1,0
226800000000,227100000000,3418427,0,1439356567,0.0002422,0.08081,0.09119,0.001043,0.00149,0.08081,2.861e-06,0.000206,0.006569,0.0002861,6,0.02618,0,1,0
227100000000,227400000000,3418427,0,1439356567,0.0003128,0.08081,0.09119,0.001043,0.00149,0.08081,1.907e-06,0.000206,0.02158,7.153e-05,6.21,0.02537,0,1,0
227400000000,227700000000,3418427,0,1439356567,0.0002651,0.08081,0.09119,0.001043,0.001492,0.08093,3.815e-06,0.000206,0.01776,0.0002861,6.319,0.02635,0,1,0
227700000000,228000000000,3418427,0,1439356567,0.0002327,0.08081,0.09119,0.001043,0.001492,0.08081,1.907e-06,0.000206,0.004547,0.0001431,7.087,0.03256,0,1,0
228000000000,228300000000,3418427,0,1439356567,0.0002327,0.08081,0.09119,0.001045,0.001492,0.08081,3.815e-06,0.000206,0.004784,0.0004997,5.744,0.02543,0,1,0
228300000000,228600000000,3418427,0,1439356567,0.0002365,0.08081,0.09119,0.001043,0.00149,0.08081,3.815e-06,0.000206,0.005211,0.0004282,6.375,0.02838,0,1,0
228600000000,228900000000,3418427,0,1439356567,0.0002146,0.08081,0.09119,0.001041,0.00149,0.08081,2.861e-06,0.000206,0.007553,0.0003567,6.408,0.02862,0,1,0
228900000000,229200000000,3418427,0,1439356567,0.0002298,0.08081,0.09119,0.001041,0.00149,0.08081,2.861e-06,0.000206,0.006126,0.0001431,7.625,0.03412,0,1,0
229200000000,229500000000,3418427,0,1439356567,0.0003014,0.08081,0.09119,0.001043,0.00149,0.08081,3.815e-06,0.000206,0.007385,0.0004282,4.966,0.02047,0,1,0
229500000000,229800000000,3418427,0,1439356567,0.0003109,0.08081,0.09119,0.001043,0.00149,0.08081,1.907e-06,0.000206,0.008682,0.0001431,5.726,0.02441,0,1,0
229800000000,230100000000,3418427,0,1439356567,0.0002832,0.08081,0.09119,0.001043,0.001492,0.08081,3.815e-06,0.000206,0.01024,0.0005713,5.564,0.02367,0,1,0
230100000000,230400000000,3418427,0,1439356567,0.0002556,0.08081,0.09119,0.001043,0.00149,0.08093,1.907e-06,0.000206,0.03094,7.153e-05,6.927,0.03047,0,1,0
230400000000,230700000000,3418427,0,1439356567,0.0002251,0.08081,0.09119,0.001043,0.00149,0.08081,3.815e-06,0.000206,0.00275,0.0004997,6.118,0.02675,0,1,0
230700000000,231000000000,3418427,0,1439356567,0.0002279,0.08081,0.09119,0.001041,0.00149,0.08081,2.861e-06,0.000206,0.002834,0.0002146,7.489,0.03384,0,1,0
231000000000,231300000000,3418427,0,1439356567,0.0002403,0.08081,0.09119,0.00104,0.001488,0.08081,3.815e-06,0.000206,0.003136,0.0002861,5.564,0.02408,0,1,0
231300000000,231600000000,3418427,0,1439356567,0.0002213,0.08081,0.09119,0.001041,0.001488,0.08081,2.861e-06,0.000206,0.005165,0.0002146,7.372,0.03324,0,1,0
231600000000,231900000000,3418427,0,1439356567,0.0003376,0.08081,0.09119,0.001041,0.00149,0.08081,3.815e-06,0.000206,0.01494,0.0004282,5.357,0.02241,0,1,0
231900000000,232200000000,3418427,0,1439356567,0.0003166,0.08081,0.09119,0.001041,0.00149,0.08081,1.907e-06,0.000206,0.01224,7.153e-05,5.512,0.02356,0,1,0
232200000000,232500000000,3418427,0,1439356567,0.000227,0.08081,0.09119,0.001043,0.00149,0.08081,2.861e-06,0.000206,0.005692,0.0002861,5.687,0.02469,0,1,0
232500000000,232800000000,3418427,0,1439356567,0.0002537,0.08081,0.09119,0.001043,0.00149,0.08081,3.815e-06,0.000206,0.01065,0.0002861,6.919,0.03052,0,1,0
232800000000,233100000000,3418427,0,1439356567,0.0002728,0.08081,0.09119,0.001041,0.00149,0.08081,4.768e-06,0.000206,0.005508,0.0007143,5.321,0.02231,0,1,0
233100000000,233400000000,3418427,0,1439356567,0.0002337,0.08081,0.09119,0.001041,0.00149,0.08081,2.861e-06,0.000206,0.002956,0.0002861,7.224,0.03222,0,1,0
233400000000,233700000000,3418427,0,1439356567,0.0002499,0.08081,0.09119,0.001043,0.00149,0.08081,4.768e-06,0.000206,0.004646,0.0007143,5.851,0.02515,0,1,0
233700000000,234000000000,3418427,0,1439356567,0.0002527,0.08081,0.09119,0.001043,0.00149,0.08081,2.861e-06,0.000206,0.02313,0.0002146,7.451,0.03244,0,1,0
234000000000,234300000000,3418427,0,1439356567,0.0002527,0.08081,0.09119,0.001043,0.001492,0.08081,4.768e-06,0.000206,0.006889,0.0009289,5.915,0.02491,0,1,0
234300000000,234600000000,3418427,0,1439356567,0.0003395,0.08081,0.09119,0.001043,0.001492,0.08081,2.861e-06,0.000206,0.03943,0.0002146,6.051,0.02591,0,1,0
234600000000,234900000000,3418427,0,1439356567,0.0003233,0.08081,0.09119,0.001045,0.001492,0.08093,3.815e-06,0.000206,0.0199,0.0003567,5.198,0.02155,0,1,0
234900000000,235200000000,3418427,0,1439356567,0.0002213,0.08081,0.09119,0.001045,0.001492,0.08081,1.907e-06,0.000206,0.005753,7.153e-05,7.437,0.03331,0,1,0
235200000000,235500000000,3418427,0,1439356567,0.000226,0.08081,0.09119,0.001045,0.001493,0.08081,5.722e-06,0.000206,0.005051,0.0007143,5.801,0.02492,0,1,0
235500000000,235800000000,3418427,0,1439356567,0.0002394,0.08081,0.09119,0.001045,0.001493,0.08081,2.861e-06,0.000206,0.00618,0.0002861,7.336,0.03314,0,1,0
235800000000,236100000000,3418427,0,1439356567,0.000247,0.08081,0.09119,0.001043,0.00149,0.08081,3.815e-06,0.000206,0.00304,0.0004282,6.712,0.02929,0,1,0
236100000000,236400000000,3418427,0,1439356567,0.000248,0.08081,0.09119,0.001043,0.00149,0.08081,4.768e-06,0.000206,0.007248,0.0009289,7.056,0.03068,0,1,0
241200000000,241500000000,3418427,0,1439356567,0.0002279,0.08081,0.09119,0.001041,0.00149,0.08081,3.815e-06,0.000206,0.004898,0.0004282,5.846,0.02588,0,1,0
241500000000,241800000000,3418427,0,1439356567,0.000289,0.08081,0.09119,0.001043,0.00149,0.08081,2.861e-06,0.000206,0.0564,0.0002861,6.19,0.02734,0,1,0
241800000000,242100000000,3418427,0,1439356567,0.0002613,0.08081,0.09119,0.001043,0.00149,0.08081,3.815e-06,0.000206,0.01317,0.0002861,4.959,0.02065,0,1,0
242100000000,242400000000,3418427,0,1439356567,0.0002337,0.08081,0.09119,0.001043,0.001492,0.08081,1.907e-06,0.000206,0.006096,7.153e-05,7.026,0.03175,0,1,0
242400000000,242700000000,3418427,0,1439356567,0.0002737,0.08081,0.09119,0.001043,0.001492,0.08081,3.815e-06,0.000206,0.01675,0.0002861,6.431,0.02757,0,1,0
242700000000,243000000000,3418427,0,1439356567,0.0002413,0.08081,0.09119,0.001045,0.001492,0.08081,1.907e-06,0.000206,0.004639,7.153e-05,7.261,0.03208,0,1,0
243000000000,243300000000,3418427,0,1439356567,0.0002251,0.08081,0.09119,0.001045,0.001493,0.08081,3.815e-06,0.000206,0.004723,0.0002861,6.145,0.027,0,1,0
243300000000,243600000000,3418427,0,1439356567,0.0002632,0.08081,0.09119,0.001045,0.001493,0.08081,2.861e-06,0.000206,0.03918,0.0002861,7.137,0.03194,0,1,0
243600000000,243900000000,3418427,0,1439356567,0.0002213,0.08081,0.09119,0.001047,0.001493,0.08081,3.815e-06,0.000206,0.002293,0.0004997,6.094,0.02689,0,1,0
243900000000,244200000000,3418427,0,1439356567,0.0002203,0.08081,0.09119,0.001047,0.001493,0.08081,1.907e-06,0.000206,0.006058,7.153e-05,6.517,0.02894,0,1,0
244200000000,244500000000,3418427,0,1439356567,0.0002451,0.08081,0.09119,0.001047,0.001495,0.08081,2.861e-06,0.000206,0.02481,0.0002861,5.76,0.02472,0,1,0
244500000000,244800000000,3418427,0,1439356567,0.0002317,0.08081,0.09119,0.001047,0.001495,0.08081,3.815e-06,0.000206,0.007996,0.0007143,6.853,0.03072,0,1,0
244800000000,245100000000,3418427,0,1439356567,0.0002403,0.08081,0.09119,0.001049,0.001495,0.08081,7.629e-06,0.000206,0.009308,0.001499,5.46,0.02361,0,1,0
245100000000,245400000000,3418427,0,1439356567,0.000246,0.08081,0.09119,0.001049,0.001495,0.08081,1.907e-06,0.000206,0.00531,0.0001431,5.825,0.02582,0,1,0
245400000000,245700000000,3418427,0,1439356567,0.000227,0.08081,0.09119,0.001049,0.001497,0.08081,2.861e-06,0.000206,0.003281,0.0003567,5.451,0.02342,0,1,0
245700000000,246000000000,3418427,0,1439356567,0.0002165,0.08081,0.09119,0.001049,0.001497,0.08081,3.815e-06,0.000206,0.00362,0.0004282,7.622,0.03516,0,1,0
246000000000,246300000000,3418427,0,1439356567,0.000227,0.08081,0.09119,0.001049,0.001495,0.08081,3.815e-06,0.000206,0.004539,0.0004997,5.038,0.02173,0,1,0
251400000000,251700000000,3418427,0,1439356567,0.0002127,0.08081,0.09119,0.001051,0.001499,0.08081,3.815e-06,0.000206,0.00528,0.0002861,7.742,0.03462,0,1,0
251700000000,252000000000,3418427,0,1439356567,0.0002747,0.08081,0.09119,0.001051,0.001499,0.08081,1.907e-06,0.000206,0.03546,7.153e-05,6.819,0.03058,0,1,0
252000000000,252300000000,3418427,0,1439356567,0.0001917,0.08081,0.09119,0.001051,0.001499,0.08081,2.861e-06,0.000206,0.001965,0.0002861,7.549,0.03437,0,1,0
252300000000,252600000000,3418427,0,1439356567,0.0002222,0.08081,0.09119,0.001053,0.001499,0.08081,2.861e-06,0.000206,0.00515,0.0001431,7.374,0.03461,0,1,0
252600000000,252900000000,3418427,0,1439356567,0.0002403,0.08081,0.09119,0.001053,0.001499,0.08081,2.861e-06,0.000206,0.005989,0.0002861,5.59,0.02498,0,1,0
252900000000,253200000000,3418427,0,1439356567,0.0002575,0.08081,0.09119,0.001053,0.001499,0.08081,2.861e-06,0.000206,0.01596,0.0002146,7.005,0.03301,0,1,0
253200000000,253500000000,3418427,0,1439356567,0.0002584,0.08081,0.09119,0.001051,0.001499,0.08081,2.861e-06,0.000206,0.006233,0.0003567,4.968,0.02225,0,1,0
253500000000,253800000000,3418427,0,1439356567,0.0002193,0.08081,0.09119,0.001051,0.001499,0.08081,1.907e-06,0.000206,0.004448,0.0001431,6.817,0.03185,0,1,0
253800000000,254100000000,3418427,0,1439356567,0.0002108,0.08081,0.09119,0.001045,0.001493,0.08081,4.768e-06,0.000206,0.004692,0.0005713,6.885,0.03236,0,1,0
254100000000,254400000000,3418427,0,1439356567,0.0001974,0.08081,0.09119,0.001045,0.001492,0.08081,9.537e-06,0.000206,0.004402,0.002071,7.833,0.03756,0,1,0
254400000000,254700000000,3418427,0,1439356567,0.0007544,0.08093,0.09119,0.001068,0.001553,0.08105,0.0001469,0.000206,0.04376,0.03,2.018,0.006117,0,1,0
254700000000,255000000000,3418427,0,1439356567,0.0002565,0.08105,0.09119,0.001104,0.001659,0.08105,6.676e-06,0.000206,0.005173,0.0004997,5.58,0.02441,0,1,0
255000000000,255300000000,3418427,0,1439356567,0.0002546,0.08105,0.09119,0.001095,0.00165,0.08105,3.815e-06,0.000206,0.004181,0.0003567,6.716,0.02937,0,1,0
255300000000,255600000000,3418427,0,1439356567,0.0002708,0.08105,0.09119,0.001093,0.00165,0.08105,3.815e-06,0.000206,0.006798,0.0002146,5.744,0.02471,0,1,0
255600000000,255900000000,3418427,0,1439356567,0.0002661,0.08105,0.09119,0.001095,0.00165,0.08105,8.583e-06,0.000206,0.01457,0.001429,5.846,0.02565,0,1,0
255900000000,256200000000,3418427,0,1439356567,0.0002756,0.08105,0.09119,0.001095,0.001652,0.08105,3.815e-06,0.000206,0.007843,0.0004282,8.214,0.03751,0,1,0
256200000000,256500000000,3418427,0,1439356567,0.0002985,0.08105,0.09119,0.001095,0.001652,0.08105,1.144e-05,0.000206,0.01373,0.002213,5.546,0.02397,0,1,0
256500000000,256800000000,3418427,0,1439356567,0.0002604,0.08105,0.09119,0.001097,0.001652,0.08105,4.768e-06,0.000206,0.004829,0.0007858,6.991,0.03145,0,1,0
256800000000,257100000000,3418427,0,1439356567,0.000226,0.08093,0.09119,0.001192,0.001652,0.08105,4.768e-06,0.000206,0.009018,0.0004997,6.01,0.02703,0,1,0
257100000000,257400000000,3418427,0,1439356567,0.0001945,0.08081,0.09119,0.001043,0.001492,0.08081,2.861e-06,0.000206,0.003212,0.0001431,8.506,0.039,0,1,0
257400000000,257700000000,3418427,0,1439356567,0.0001888,0.08081,0.09119,0.001038,0.001484,0.08081,3.815e-06,0.000206,0.003071,0.0004282,7.477,0.03386,0,1,0
257700000000,258000000000,3418427,0,1439356567,0.0001917,0.08081,0.09119,0.001038,0.001484,0.08081,1.907e-06,0.000206,0.002377,7.153e-05,8.043,0.0378,0,1,0
258000000000,258300000000,3418427,0,1439356567,0.0002003,0.08081,0.09119,0.001038,0.001486,0.08081,5.722e-06,0.000206,0.007774,0.001072,6.442,0.02953,0,1,0
258300000000,258600000000,3418427,0,1439356567,0.0001907,0.08081,0.09119,0.001038,0.001486,0.08081,2.861e-06,0.000206,0.005638,0.0001431,9.262,0.04373,0,1,0
258600000000,258900000000,3418427,0,1439356567,0.0001945,0.08081,0.09119,0.00104,0.001486,0.08081,4.768e-06,0.000206,0.01013,0.0007143,8.201,0.03904,0,1,0
258900000000,259200000000,3418427,0,1439356567,0.0001869,0.08081,0.09119,0.00104,0.001486,0.08081,1.907e-06,0.000206,0.003036,7.153e-05,8.44,0.04003,0,1,0
259200000000,259500000000,3418427,0,1439356567,0.0002174,0.08081,0.09119,0.00104,0.001486,0.08081,2.861e-06,0.000206,0.04376,0.0002861,7.993,0.03658,0,1,0
259500000000,259800000000,3418427,0,1439356567,0.0001926,0.08081,0.09119,0.00104,0.001488,0.08081,2.861e-06,0.000206,0.006256,0.0001431,7.927,0.03756,0,1,0
259800000000,260100000000,3418427,0,1439356567,0.0001984,0.08081,0.09119,0.00104,0.001488,0.08081,2.861e-06,0.000206,0.004631,0.0002861,6.668,0.03004,0,1,0
260100000000,260400000000,3418427,0,1439356567,0.000186,0.08081,0.09119,0.00104,0.001488,0.08081,1.907e-06,0.000206,0.002453,7.153e-05,9.894,0.048,0,1,0
260400000000,260700000000,3418427,0,1439356567,0.0001879,0.08081,0.09119,0.001041,0.001488,0.08081,3.815e-06,0.000206,0.004631,0.0003567,7.793,0.03631,0,1,0
260700000000,261000000000,3418427,0,1439356567,0.0002041,0.08081,0.09119,0.001041,0.001488,0.08081,2.861e-06,0.000206,0.01651,0.0002861,8.71,0.04148,0,1,0
261000000000,261300000000,3418427,0,1439356567,0.0001802,0.08081,0.09119,0.001041,0.001488,0.08081,2.861e-06,0.000206,0.002613,0.0002861,7.733,0.03593,0,1,0
261300000000,261600000000,3418427,0,1439356567,0.0001898,0.08081,0.09119,0.001041,0.001488,0.08081,1.907e-06,0.000206,0.003899,7.153e-05,11.24,0.05379,0,1,0
261600000000,261900000000,3418427,0,1439356567,0.0002041,0.08081,0.09119,0.001041,0.00149,0.08081,2.861e-06,0.000206,0.003315,0.0002861,7.202,0.03351,0,1,0
261900000000,262200000000,3418427,0,1439356567,0.0001974,0.08081,0.09119,0.001041,0.00149,0.08081,2.861e-06,0.000206,0.01953,0.0002861,8.739,0.04092,0,1,0
262200000000,262500000000,3418427,0,1439356567,0.0002146,0.08081,0.09119,0.001043,0.00149,0.08081,2.861e-06,0.000206,0.01059,0.0003567,8.768,0.04063,0,1,0
262500000000,262800000000,3418427,0,1439356567,0.0001984,0.08081,0.09119,0.001043,0.00149,0.08081,4.768e-06,0.000206,0.02957,0.0009995,9.272,0.0441,0,1,0
262800000000,263100000000,3418427,0,1439356567,0.0001955,0.08081,0.09119,0.001043,0.00149,0.08081,2.861e-06,0.000206,0.004799,0.0002861,8.389,0.0385,0,1,0
263100000000,263400000000,3418427,0,1439356567,0.0002165,0.08081,0.09119,0.001043,0.001492,0.08081,1.907e-06,0.000206,0.006905,7.153e-05,8.498,0.03907,0,1,0
263400000000,263700000000,3418427,0,1439356567,0.0001955,0.08081,0.09119,0.001043,0.001492,0.08081,2.861e-06,0.000206,0.007317,0.0002861,8.096,0.03746,0,1,0
263700000000,264000000000,3418427,0,1439356567,0.0002375,0.08081,0.09119,0.001045,0.001492,0.08081,1.907e-06,0.000206,0.009399,7.153e-05,7.573,0.03442,0,1,0
264000000000,264300000000,3418427,0,1439356567,0.0001993,0.08081,0.09119,0.001045,0.001492,0.08081,2.861e-06,0.000206,0.003944,0.0002861,8.693,0.04133,0,1,0
264300000000,264600000000,3418427,0,1439356567,0.0001841,0.08081,0.09119,0.001045,0.001492,0.08081,1.907e-06,0.000206,0.004539,7.153e-05,10.13,0.04786,0,1,0
264600000000,264900000000,3418427,0,1439356567,0.0002098,0.08081,0.09119,0.001045,0.001493,0.08081,2.861e-06,0.000206,0.006012,0.0004282,7.432,0.03402,0,1,0
264900000000,265200000000,3418427,0,1439356567,0.0001802,0.08081,0.09119,0.001045,0.001493,0.08081,1.907e-06,0.000206,0.003136,7.153e-05,9.138,0.044,0,1,0
265200000000,265500000000,3418427,0,1439356567,0.0001783,0.08081,0.09119,0.001045,0.001493,0.08081,5.722e-06,0.000206,0.004807,0.001072,8.849,0.04165,0,1,0
265500000000,265800000000,3418427,0,1439356567,0.0001945,0.08081,0.09119,0.001045,0.001493,0.08081,2.861e-06,0.000206,0.003513,0.0004282,8.729,0.04092,0,1,0
265800000000,266100000000,3418427,0,1439356567,0.0001965,0.08081,0.09119,0.001047,0.001493,0.08081,2.861e-06,0.000206,0.004601,0.0002861,6.021,0.02715,0,1,0
266100000000,266400000000,3418427,0,1439356567,0.0001812,0.08081,0.09119,0.001047,0.001493,0.08081,2.861e-06,0.000206,0.004478,0.0001431,9.896,0.04709,0,1,0
266400000000,266700000000,3418427,0,1439356567,0.000185,0.08081,0.09119,0.001047,0.001493,0.08081,2.861e-06,0.000206,0.005562,0.0003567,6.905,0.03211,0,1,0
266700000000,267000000000,3418427,0,1439356567,0.0001974,0.08081,0.09119,0.001047,0.001495,0.08081,2.861e-06,0.000206,0.003349,0.0001431,8.436,0.03991,0,1,0
267000000000,267300000000,3418427,0,1439356567,0.0001793,0.08081,0.09119,0.001047,0.001495,0.08081,2.861e-06,0.000206,0.003967,0.0003567,7.726,0.03618,0,1,0
267300000000,267600000000,3418427,0,1439356567,0.000206,0.08081,0.09119,0.001049,0.001495,0.08081,2.861e-06,0.000206,0.00972,0.0001431,7.816,0.03623,0,1,0
267600000000,267900000000,3418427,0,1439356567,0.0002155,0.08081,0.09119,0.001049,0.001495,0.08081,2.861e-06,0.000206,0.004532,0.0002861,6.06,0.02775,0,1,0
267900000000,268200000000,3418427,0,1439356567,0.0001812,0.08081,0.09119,0.001049,0.001495,0.08081,1.907e-06,0.000206,0.006355,7.153e-05,8.867,0.04156,0,1,0
268200000000,268500000000,3418427,0,1439356567,0.0001993,0.08081,0.09119,0.001049,0.001497,0.08081,2.861e-06,0.000206,0.004662,0.0002861,6.923,0.03169,0,1,0
268500000000,268800000000,3418427,0,1439356567,0.0001898,0.08081,0.09119,0.001049,0.001497,0.08081,1.907e-06,0.000206,0.005379,7.153e-05,8.32,0.03881,0,1,0
268800000000,269100000000,3418427,0,1439356567,0.0002089,0.08081,0.09119,0.001049,0.001497,0.08081,2.861e-06,0.000206,0.005051,0.0002861,6.263,0.02812,0,1,0
269100000000,269400000000,3418427,0,1439356567,0.0001926,0.08081,0.09119,0.001051,0.001497,0.08081,4.768e-06,0.000206,0.003998,0.0007143,8.013,0.03756,0,1,0
269400000000,269700000000,3418427,0,1439356567,0.0002117,0.08081,0.09119,0.001047,0.001493,0.08081,2.861e-06,0.000206,0.01019,0.0003567,7.064,0.03231,0,1,0
269700000000,270000000000,3418427,0,1439356567,0.000186,0.08081,0.09119,0.001045,0.001492,0.08081,4.768e-06,0.000206,0.002357,0.0004997,10.18,0.04858,0,1,0
270000000000,270300000000,3418427,0,1439356567,0.0001802,0.08081,0.09119,0.001045,0.001493,0.08081,2.861e-06,0.000206,0.003124,0.0002861,8.184,0.03814,0,1,0
270300000000,270600000000,3418427,0,1439356567,0.0002041,0.08081,0.09119,0.001045,0.001493,0.08081,2.861e-06,0.000206,0.00396,0.0001431,8.967,0.04176,0,1,0
270600000000,270900000000,3418427,0,1439356567,0.0001888,0.08081,0.09119,0.001045,0.001493,0.08081,3.815e-06,0.000206,0.00349,0.0004282,6.954,0.03145,0,1,0
270900000000,271200000000,3418427,0,1439356567,0.0001888,0.08081,0.09119,0.001047,0.001493,0.08081,2.861e-06,0.000206,0.003201,0.0002146,9.647,0.04506,0,1,0
271200000000,271500000000,3418427,0,1439356567,0.0001755,0.08081,0.09119,0.001047,0.001493,0.08081,2.861e-06,0.000206,0.002609,0.0002861,8.8,0.04103,0,1,0
281400000000,281700000000,3418427,0,1439356567,0.0002165,0.08081,0.09119,0.001053,0.001499,0.08081,2.861e-06,0.000206,0.002991,0.0002861,6.153,0.02825,0,1,0
281700000000,282000000000,3418427,0,1439356567,0.0001917,0.08081,0.09119,0.001053,0.001499,0.08081,2.861e-06,0.000206,0.01259,0.0002146,7.756,0.03642,0,1,0
282000000000,282300000000,3418427,0,1439356567,0.0002251,0.08081,0.09119,0.001051,0.001497,0.08081,4.768e-06,0.000206,0.006996,0.0007858,8.055,0.03711,0,1,0
282300000000,282600000000,3418427,0,1439356567,0.0001879,0.08081,0.09119,0.001051,0.001497,0.08081,2.861e-06,0.000206,0.007454,0.0002861,8.806,0.04129,0,1,0
282600000000,282900000000,3418427,0,1439356567,0.0001993,0.08081,0.09119,0.001051,0.001499,0.08081,2.861e-06,0.000206,0.004219,0.0002861,6.614,0.02989,0,1,0
282900000000,283200000000,3418427,0,1439356567,0.000186,0.08081,0.09119,0.001051,0.001499,0.08081,2.861e-06,0.000206,0.004326,0.0001431,8.734,0.04117,0,1,0
283200000000,283500000000,3418427,0,1439356567,0.0001974,0.08081,0.09119,0.001051,0.001499,0.08081,2.861e-06,0.000206,0.004005,0.0003567,6.746,0.03119,0,1,0
283500000000,283800000000,3418427,0,1439356567,0.0001764,0.08081,0.09119,0.001051,0.001497,0.08081,2.861e-06,0.000206,0.004868,0.0002146,9.635,0.04606,0,1,0
283800000000,284100000000,3418427,0,1439356567,0.0002108,0.08081,0.09119,0.001051,0.001497,0.08081,3.815e-06,0.000206,0.01024,0.0004997,5.938,0.02696,0,1,0
284100000000,284400000000,3418427,0,1439356567,0.0001917,0.08081,0.09119,0.001051,0.001499,0.08081,1.907e-06,0.000206,0.006371,7.153e-05,9.457,0.04529,0,1,0
284400000000,284700000000,3418427,0,1439356567,0.0001917,0.08081,0.09119,0.001051,0.001499,0.08081,2.861e-06,0.000206,0.004951,0.0002861,6.753,0.03084,0,1,0
284700000000,285000000000,3418427,0,1439356567,0.0001755,0.08081,0.09119,0.001051,0.001499,0.08081,4.768e-06,0.000206,0.003376,0.0005713,9.618,0.04615,0,1,0
285000000000,285300000000,3418427,0,1439356567,0.0001802,0.08081,0.09119,0.001053,0.001499,0.08081,2.861e-06,0.000206,0.002926,0.0002861,7.083,0.03325,0,1,0
285300000000,285600000000,3418427,0,1439356567,0.0001926,0.08081,0.09119,0.001053,0.001499,0.08081,1.907e-06,0.000206,0.004135,7.153e-05,8.726,0.04212,0,1,0
285600000000,285900000000,3418427,0,1439356567,0.0002451,0.08081,0.09119,0.001053,0.001499,0.08081,2.861e-06,0.000206,0.05078,0.0002861,4.391,0.01914,0,1,0
285900000000,286200000000,3418427,0,1439356567,0.000205,0.08081,0.09119,0.001051,0.001499,0.08081,2.861e-06,0.000206,0.01003,0.0002146,7.91,0.03708,0,1,0
286200000000,286500000000,3418427,0,1439356567,0.0002012,0.08081,0.09119,0.001051,0.001499,0.08081,3.815e-06,0.000206,0.005028,0.0004997,6.792,0.03149,0,1,0
286500000000,286800000000,3418427,0,1439356567,0.000205,0.08081,0.09119,0.001053,0.001499,0.08081,2.861e-06,0.000206,0.002892,0.0002146,8.144,0.0382,0,1,0
286800000000,287100000000,3418427,0,1439356567,0.0002413,0.08081,0.09119,0.001053,0.001499,0.08081,4.768e-06,0.000206,0.01013,0.0008574,5.871,0.02645,0,1,0
287100000000,287400000000,3418427,0,1439356567,0.0002861,0.08081,0.09119,0.001053,0.001501,0.08081,1.907e-06,0.000206,0.0154,7.153e-05,7.232,0.03262,0,1,0
287400000000,287700000000,3418427,0,1439356567,0.0002337,0.08081,0.09119,0.001053,0.001501,0.08081,5.722e-06,0.000206,0.005661,0.0008574,5.322,0.02359,0,1,0
287700000000,288000000000,3418427,0,1439356567,0.0002298,0.08081,0.09119,0.001053,0.001499,0.08081,2.861e-06,0.000206,0.004356,0.0002146,6.711,0.03107,0,1,0
288000000000,288300000000,3418427,0,1439356567,0.0002575,0.08081,0.09119,0.001053,0.001501,0.08081,4.768e-06,0.000206,0.007965,0.0007143,5.378,0.02383,0,1,0
288300000000,288600000000,3418427,0,1439356567,0.0002728,0.08081,0.09119,0.001055,0.001501,0.08081,1.907e-06,0.000206,0.006973,0.0001431,5.624,0.02517,0,1,0
288600000000,288900000000,3418427,0,1439356567,0.0002136,0.08081,0.09119,0.001055,0.001501,0.08081,2.861e-06,0.000206,0.002987,0.0003567,6.217,0.02848,0,1,0
288900000000,289200000000,3418427,0,1439356567,0.0002365,0.08081,0.09119,0.001053,0.001499,0.08081,1.907e-06,0.000206,0.008286,7.153e-05,7.135,0.03323,0,1,0
289200000000,289500000000,3418427,0,1439356567,0.0002956,0.08081,0.09119,0.001051,0.001499,0.08081,3.815e-06,0.000206,0.008392,0.0003567,4.953,0.02148,0,1,0
289500000000,289800000000,3418427,0,1439356567,0.0002632,0.08081,0.09119,0.001053,0.001499,0.08081,2.861e-06,0.000206,0.003975,0.0003567,6.847,0.03108,0,1,0
289800000000,290100000000,3418427,0,1439356567,0.0002689,0.08081,0.09119,0.001053,0.001501,0.08081,2.861e-06,0.000206,0.003281,0.0002861,5.285,0.02329,0,1,0
290100000000,290400000000,3418427,0,1439356567,0.0002556,0.08081,0.09119,0.001049,0.001497,0.08081,2.861e-06,0.000206,0.003334,0.0002146,7.368,0.03401,0,1,0
290400000000,290700000000,3418427,0,1439356567,0.0002651,0.08081,0.09119,0.001051,0.001497,0.08081,2.861e-06,0.000206,0.004646,0.0002861,5.598,0.02489,0,1,0
290700000000,291000000000,3418427,0,1439356567,0.0003023,0.08081,0.09119,0.001051,0.001499,0.08081,4.768e-06,0.000206,0.01917,0.0007143,6.644,0.0303,0,1,0
291000000000,291300000000,3418427,0,1439356567,0.0002928,0.08081,0.09119,0.001053,0.001499,0.08081,5.722e-06,0.000206,0.03073,0.0009995,5.823,0.02492,0,1,0
291300000000,291600000000,3418427,0,1439356567,0.000246,0.08081,0.09119,0.001053,0.001499,0.08081,1.907e-06,0.000206,0.005753,7.153e-05,6.959,0.03189,0,1,0
291600000000,291900000000,3418427,0,1439356567,0.0002508,0.08081,0.09119,0.001053,0.001501,0.08081,3.815e-06,0.000206,0.004272,0.0002861,5.455,0.02421,0,1,0
291900000000,292200000000,3418427,0,1439356567,0.000248,0.08081,0.09119,0.001053,0.001501,0.08081,1.907e-06,0.000206,0.004219,7.153e-05,6.945,0.03134,0,1,0
292200000000,292500000000,3418427,0,1439356567,0.0002851,0.08081,0.09119,0.001055,0.001501,0.08081,2.861e-06,0.000206,0.006836,0.0002861,4.871,0.02065,0,1,0
292500000000,292800000000,3418427,0,1439356567,0.0002575,0.08081,0.09119,0.001055,0.001503,0.08081,1.907e-06,0.000206,0.00795,7.153e-05,6.885,0.0318,0,1,0
292800000000,293100000000,3418427,0,1439356567,0.0002775,0.08081,0.09119,0.001055,0.001501,0.08081,3.815e-06,0.000206,0.0123,0.0003567,5.793,0.02593,0,1,0
293100000000,293400000000,3418427,0,1439356567,0.0002766,0.08081,0.09119,0.001055,0.001503,0.08081,1.907e-06,0.000206,0.0117,7.153e-05,6.313,0.02889,0,1,0
293400000000,293700000000,3418427,0,1439356567,0.0002899,0.08081,0.09119,0.001055,0.001503,0.08081,2.861e-06,0.000206,0.008453,0.0002861,5.369,0.02336,0,1,0
293700000000,294000000000,3418427,0,1439356567,0.000248,0.08081,0.09119,0.001055,0.001501,0.08081,2.861e-06,0.000206,0.006432,0.0003567,6.849,0.03143,0,1,0
294000000000,294300000000,3418427,0,1439356567,0.0003328,0.08081,0.09119,0.001055,0.001501,0.08081,3.815e-06,0.000206,0.02005,0.0004997,4.604,0.01962,0,1,0
294300000000,294600000000,3418427,0,1439356567,0.0002747,0.08081,0.09119,0.001053,0.001501,0.08081,2.861e-06,0.000206,0.0056,0.0004282,6.612,0.02978,0,1,0
294600000000,294900000000,3418427,0,1439356567,0.0002689,0.08081,0.09119,0.001053,0.001501,0.08081,3.815e-06,0.000206,0.007088,0.0007143,5.572,0.02423,0,1,0
294900000000,295200000000,3418427,0,1439356567,0.000247,0.08081,0.09119,0.001055,0.001501,0.08081,1.907e-06,0.000206,0.004425,7.153e-05,7.17,0.03218,0,1,0
295200000000,295500000000,3418427,0,1439356567,0.0002689,0.08081,0.09119,0.001053,0.001499,0.08081,3.815e-06,0.000206,0.007004,0.0004997,5.376,0.02322,0,1,0
295500000000,295800000000,3418427,0,1439356567,0.0003138,0.08081,0.09119,0.001049,0.001497,0.08081,4.768e-06,0.000206,0.01535,0.0008574,5.833,0.0256,0,1,0
295800000000,296100000000,3418427,0,1439356567,0.0002918,0.08081,0.09119,0.001051,0.001497,0.08081,2.861e-06,0.000206,0.01682,0.0002861,4.73,0.02005,0,1,0
296100000000,296400000000,3418427,0,1439356567,0.0002651,0.08081,0.09119,0.001051,0.001499,0.08081,1.907e-06,0.000206,0.00544,0.0001431,6.494,0.02905,0,1,0
296400000000,296700000000,3418427,0,1439356567,0.000289,0.08081,0.09119,0.001053,0.001499,0.08081,5.722e-06,0.000206,0.06079,0.0007858,5.768,0.02517,0,1,0
296700000000,297000000000,3418427,0,1439356567,0.0002651,0.08081,0.09119,0.001053,0.001499,0.08081,1.907e-06,0.000206,0.006592,7.153e-05,6.814,0.03021,0,1,0
297000000000,297300000000,3418427,0,1439356567,0.0002327,0.08081,0.09119,0.001053,0.001501,0.08081,3.815e-06,0.000206,0.005074,0.0003567,6.275,0.02798,0,1,0
297300000000,297600000000,3418427,0,1439356567,0.0002365,0.08081,0.09119,0.001055,0.001501,0.08081,1.907e-06,0.000206,0.004486,0.0002146,7.392,0.03364,0,1,0
297600000000,297900000000,3418427,0,1439356567,0.0002394,0.08081,0.09119,0.001055,0.001501,0.08081,4.768e-06,0.000206,0.004539,0.0007143,6.073,0.02642,0,1,0
297900000000,298200000000,3418427,0,1439356567,0.0002289,0.08081,0.09119,0.001055,0.001503,0.08081,6.676e-06,0.000206,0.006264,0.001143,7.975,0.03658,0,1,0
298200000000,298500000000,3418427,0,1439356567,0.0002604,0.08081,0.09119,0.001057,0.001503,0.08081,2.861e-06,0.000206,0.007187,0.0002861,6.374,0.02805,0,1,0
298500000000,298800000000,3418427,0,1439356567,0.0002728,0.08081,0.09119,0.001055,0.001503,0.08081,1.907e-06,0.000206,0.0564,7.153e-05,7.174,0.0329,0,1,0
298800000000,299100000000,3418427,0,1439356567,0.0002556,0.08081,0.09119,0.001055,0.001503,0.08081,2.861e-06,0.000206,0.005333,0.0002861,6.074,0.02614,0,1,0
299100000000,299400000000,3418427,0,1439356567,0.0002689,0.08081,0.09119,0.001057,0.001503,0.08081,2.861e-06,0.000206,0.004372,0.0001431,5.978,0.02692,0,1,0
299400000000,299700000000,3418427,0,1439356567,0.0002546,0.08081,0.09119,0.001057,0.001503,0.08081,4.768e-06,0.000206,0.00975,0.0008574,5.995,0.02615,0,1,0
299700000000,300000000000,3418427,0,1439356567,0.0002937,0.08081,0.09119,0.001055,0.001501,0.08081,1.907e-06,0.000206,0.01056,7.153e-05,6.554,0.02915,0,1,0
