5700000000,6000000000,3608394906,0,75,0.004211,0.01907,0.02716,0.001202,0.001394,0.01962,4.768e-06,3.242e-05,0.07568,7.153e-05,1.784,0.003413,0,0,0.0004015
6000000000,6300000000,3608394906,0,75,0.003605,0.01907,0.02716,0.001204,0.001396,0.01935,4.768e-06,3.242e-05,0.06824,7.153e-05,1.892,0.003701,0,0,0.0141
6300000000,6600000000,3608394906,0,75,0.004227,0.01913,0.02716,0.001207,0.001398,0.01926,5.245e-05,3.242e-05,0.07007,0.001499,1.961,0.003235,0,0,0.00399
6600000000,6900000000,3608394906,0,75,0.003262,0.01904,0.02716,0.001209,0.001402,0.01913,4.768e-06,3.242e-05,0.06494,7.153e-05,1.847,0.003482,0,0,0.0007792
6900000000,7200000000,3608394906,0,75,0.003582,0.0191,0.02716,0.001213,0.001404,0.01938,4.768e-06,3.242e-05,0.06592,0.0002146,1.87,0.003674,0,0,0.0005598
7200000000,7500000000,3608394906,0,75,0.0033,0.01907,0.02716,0.001215,0.001406,0.01923,4.768e-06,3.242e-05,0.06012,7.153e-05,1.842,0.003501,0,0,0.05933
7500000000,7800000000,3608394906,0,75,0.004326,0.0191,0.02716,0.001217,0.001408,0.01974,4.768e-06,3.242e-05,0.06616,7.153e-05,1.833,0.003484,0,0,0.003792
7800000000,8100000000,3608394906,0,75,0.003498,0.01907,0.02716,0.001219,0.00141,0.01941,5.722e-06,3.242e-05,0.06274,0.0001431,1.834,0.003652,0,0,0.008347
8100000000,8400000000,3608394906,0,75,0.003197,0.01907,0.02716,0.001223,0.001413,0.01923,5.722e-06,3.242e-05,0.06641,0.0001431,1.792,0.00342,0,0,0.0002069
8400000000,8700000000,3608394906,0,75,0.003151,0.01895,0.02716,0.001223,0.001415,0.01904,4.768e-06,3.242e-05,0.06616,7.153e-05,1.789,0.003406,0,0,0.0002346
8700000000,9000000000,3608394906,0,75,0.003441,0.01904,0.02716,0.001226,0.001417,0.01938,4.768e-06,3.242e-05,0.06592,0.0002146,1.818,0.003519,0,0,0.0005674
9000000000,9300000000,3608394906,0,75,0.003204,0.01904,0.02716,0.001228,0.001419,0.01923,4.768e-06,3.242e-05,0.06787,7.153e-05,1.772,0.003421,0,0,0.000432
9300000000,9600000000,3608394906,0,75,0.00425,0.01907,0.02716,0.00123,0.001421,0.01974,4.768e-06,3.242e-05,0.06641,7.153e-05,1.777,0.003425,0,0,0.0002861
9600000000,9900000000,3608394906,0,75,0.003452,0.01904,0.02716,0.001232,0.001423,0.01941,3.815e-06,3.242e-05,0.06677,7.153e-05,1.837,0.00357,0,0,0.0004282
9900000000,10200000000,3608394906,0,75,0.004036,0.0191,0.02716,0.00123,0.001421,0.01929,7.629e-06,3.242e-05,0.07642,0.0002146,1.835,0.003108,0,0,0.04388
10200000000,10500000000,3608394906,0,75,0.003185,0.01901,0.02713,0.001204,0.001396,0.01907,4.768e-06,3.242e-05,0.06775,7.153e-05,1.805,0.003434,0,0,0.0002174
10500000000,10800000000,3608394906,0,75,0.003487,0.01907,0.02716,0.001207,0.001398,0.01938,4.768e-06,3.242e-05,0.06982,7.153e-05,1.874,0.003655,0,0,0.0002537
10800000000,11100000000,3608394906,0,75,0.003201,0.0191,0.02716,0.001209,0.001402,0.01926,4.768e-06,3.242e-05,0.06665,0.0001431,1.843,0.003593,0,0,0.0006084
11100000000,11400000000,3608394906,0,75,0.00428,0.0191,0.02716,0.001211,0.001404,0.01978,4.768e-06,3.242e-05,0.06689,7.153e-05,1.816,0.003481,0,0,0.003231
11400000000,11700000000,3608394906,0,75,0.003445,0.01907,0.02716,0.001213,0.001406,0.01938,5.722e-06,3.242e-05,0.06494,0.0001431,1.531,0.002555,0,0,0.0006371
11700000000,12000000000,3608394906,0,75,0.003136,0.0191,0.02716,0.001213,0.001404,0.01926,4.768e-06,3.242e-05,0.06628,7.153e-05,1.823,0.003615,0,0,0.0001564
12000000000,12300000000,3608394906,0,75,0.003132,0.01898,0.02716,0.001215,0.001406,0.01907,4.768e-06,3.242e-05,0.06726,0.0001431,1.77,0.003284,0,0,0.005188
12300000000,12600000000,3608394906,0,75,0.003109,0.01898,0.02716,0.001217,0.001408,0.01907,1.144e-05,3.242e-05,0.06714,0.0003567,1.778,0.003366,0,0,0.005989
12600000000,12900000000,3608394906,0,75,0.003372,0.01907,0.02716,0.001219,0.00141,0.01935,5.722e-06,3.242e-05,0.06543,0.0001431,1.491,0.002431,0,0,0.0528
12900000000,13200000000,3608394906,0,75,0.004189,0.0192,0.02716,0.001221,0.001413,0.01984,4.768e-06,3.242e-05,0.06812,0.0001431,1.784,0.003438,0,0,0.003338
13200000000,13500000000,3608394906,0,75,0.003353,0.01904,0.02716,0.001223,0.001415,0.01932,4.768e-06,3.242e-05,0.06299,0.0001431,1.472,0.002359,0,0,0.00666
13500000000,13800000000,3608394906,0,75,0.003876,0.0191,0.02716,0.001226,0.001417,0.01929,1.049e-05,3.242e-05,0.07019,0.0002861,1.781,0.003109,0,0,0.001141
13800000000,14100000000,3608394906,0,75,0.003056,0.01901,0.02716,0.001228,0.001421,0.01907,3.815e-06,3.242e-05,0.06482,0.0001431,1.707,0.003171,0,0,0.0001297
14100000000,14400000000,3608394906,0,75,0.003071,0.01901,0.02716,0.00123,0.001423,0.0191,4.768e-06,3.242e-05,0.06012,0.0001431,1.712,0.003186,0,0,0.0001678
14400000000,14700000000,3608394906,0,75,0.003307,0.0191,0.02716,0.001217,0.001408,0.01941,4.768e-06,3.242e-05,0.06372,0.0002146,1.478,0.002429,0,0,0.000618
14700000000,15000000000,3608394906,0,75,0.004105,0.01923,0.02713,0.001209,0.0014,0.01987,4.768e-06,3.242e-05,0.07227,0.0001431,1.793,0.003546,0,0,0.002697
15000000000,15300000000,3608394906,0,75,0.003025,0.01901,0.02716,0.001209,0.001402,0.0191,4.768e-06,3.242e-05,0.06445,0.0001431,1.698,0.003107,0,0,0.0001974
15300000000,15600000000,3608394906,0,75,0.003311,0.0191,0.02716,0.001213,0.001404,0.01944,4.768e-06,3.242e-05,0.06421,7.153e-05,1.472,0.002366,0,0,0.0008917
15600000000,15900000000,3608394906,0,75,0.003067,0.01913,0.02716,0.001215,0.001408,0.01929,5.722e-06,3.242e-05,0.06122,0.0003567,1.742,0.003329,0,0,0.000639
15900000000,16200000000,3608394906,0,75,0.003052,0.01901,0.02716,0.001217,0.001408,0.01907,5.722e-06,3.242e-05,0.06506,0.0002861,1.693,0.003145,0,0,0.0002327
16200000000,16500000000,3608394906,0,75,0.003326,0.01907,0.02716,0.001219,0.001411,0.01947,4.768e-06,3.242e-05,0.06628,7.153e-05,1.487,0.002423,0,0,0.0005188
16500000000,16800000000,3608394906,0,75,0.00412,0.01923,0.02716,0.001223,0.001413,0.01993,4.768e-06,3.242e-05,0.0802,0.0001431,1.711,0.003205,0,0,0.0001564
16800000000,17100000000,3608394906,0,75,0.003036,0.01898,0.02716,0.001225,0.001415,0.01907,4.768e-06,3.242e-05,0.07007,0.0001431,1.713,0.003185,0,0,0.02768
17100000000,17400000000,3608394906,0,75,0.00415,0.0191,0.02716,0.001226,0.001417,0.01968,1.144e-05,3.242e-05,0.09229,0.0002861,1.766,0.002978,0,0,0.008392
17400000000,17700000000,3608394906,0,75,0.00304,0.01913,0.02716,0.00123,0.001421,0.01932,4.768e-06,3.242e-05,0.06445,7.153e-05,1.718,0.003153,0,0,0.008759
17700000000,18000000000,3608394906,0,75,0.003021,0.01901,0.02716,0.001232,0.001423,0.0191,4.768e-06,3.242e-05,0.06592,0.0002861,1.709,0.003121,0,0,0.0003786
18000000000,18300000000,3608394906,0,75,0.003296,0.01907,0.02716,0.001234,0.001425,0.01947,4.768e-06,3.242e-05,0.1228,7.153e-05,1.673,0.003088,0,0,0.0002508
18300000000,18600000000,3608394906,0,75,0.004097,0.01923,0.02716,0.001236,0.001429,0.01984,5.722e-06,3.242e-05,0.07349,0.0001431,1.689,0.003103,0,0,0.000392
18600000000,18900000000,3608394906,0,75,0.003014,0.01898,0.02716,0.001238,0.001431,0.01907,4.768e-06,3.242e-05,0.06421,0.0001431,1.701,0.003122,0,0,0.0001144
18900000000,19200000000,3608394906,0,75,0.003273,0.01907,0.02716,0.001242,0.001432,0.01941,4.768e-06,3.242e-05,0.06665,7.153e-05,1.677,0.00311,0,0,0.0004301
19200000000,19500000000,3608394906,0,75,0.003059,0.0191,0.02716,0.001244,0.001434,0.01926,6.676e-06,3.242e-05,0.0647,0.0003567,1.671,0.003056,0,0,0.0001898
19500000000,19800000000,3608394906,0,75,0.003014,0.01898,0.02716,0.001245,0.001436,0.01907,4.768e-06,3.242e-05,0.06543,0.0001431,1.695,0.003121,0,0,0.0006151
19800000000,20100000000,3608394906,0,75,0.003281,0.01907,0.02716,0.001247,0.001438,0.01938,4.768e-06,3.242e-05,0.06604,7.153e-05,1.662,0.003085,0,0,0.000432
20100000000,20400000000,3608394906,0,75,0.004082,0.01923,0.02716,0.001251,0.001442,0.01993,4.768e-06,3.242e-05,0.07117,0.0001431,1.682,0.003116,0,0,0.001457
20400000000,20700000000,3608394906,0,75,0.002975,0.01898,0.02716,0.001253,0.001444,0.01907,4.768e-06,3.242e-05,0.06067,7.153e-05,1.644,0.00303,0,0,0.0003176
20700000000,21000000000,3608394906,0,75,0.004066,0.01907,0.02716,0.001255,0.001446,0.01953,1.812e-05,3.242e-05,0.07397,0.002857,1.708,0.002889,0,0,0.0002041
21000000000,21300000000,3608394906,0,75,0.003006,0.01907,0.02716,0.001257,0.00145,0.01926,4.768e-06,3.242e-05,0.06519,7.153e-05,1.668,0.003128,0,0,0.000288
21300000000,21600000000,3608394906,0,75,0.002995,0.01895,0.02716,0.001259,0.00145,0.01904,5.722e-06,3.242e-05,0.06641,0.0001431,1.672,0.00316,0,0,0.0003204
21600000000,21900000000,3608394906,0,75,0.002983,0.01895,0.02716,0.001259,0.001451,0.01904,4.768e-06,3.242e-05,0.06195,7.153e-05,1.671,0.003089,0,0,0.007141
21900000000,22200000000,3608394906,0,75,0.004333,0.01913,0.02716,0.001263,0.001453,0.01956,5.722e-06,3.242e-05,0.07458,7.153e-05,1.718,0.003201,0,0,0.0003672
22200000000,22500000000,3608394906,0,75,0.00301,0.01907,0.02716,0.001265,0.001455,0.01923,4.768e-06,3.242e-05,0.0658,0.0001431,1.675,0.003098,0,0,0.0009403
22500000000,22800000000,3608394906,0,75,0.003265,0.01904,0.02716,0.001266,0.001459,0.01944,5.722e-06,3.242e-05,0.06195,7.153e-05,1.691,0.003159,0,0,0.000268
22800000000,23100000000,3608394906,0,75,0.003014,0.0191,0.02716,0.00127,0.001461,0.01926,4.768e-06,3.242e-05,0.06567,0.0001431,1.672,0.003113,0,0,0.0003223
23100000000,23400000000,3608394906,0,75,0.002983,0.01895,0.02716,0.00127,0.001463,0.01904,5.722e-06,3.242e-05,0.0647,0.0002146,1.666,0.003087,0,0,0.0004044
23400000000,23700000000,3608394906,0,75,0.003254,0.01904,0.02716,0.001274,0.001465,0.01947,5.722e-06,3.242e-05,0.06494,0.0001431,1.664,0.003062,0,0,0.0002165
23700000000,24000000000,3608394906,0,75,0.004074,0.01923,0.02716,0.001276,0.001469,0.01971,4.768e-06,3.242e-05,0.08765,7.153e-05,1.675,0.003193,0,0,0.003143
24000000000,24300000000,3608394906,0,75,0.002964,0.01895,0.02716,0.001278,0.001471,0.01904,4.768e-06,3.242e-05,0.06134,0.0001431,1.64,0.003043,0,0,0.0001755
24300000000,24600000000,3608394906,0,75,0.004036,0.01904,0.02716,0.00128,0.001472,0.01947,1.621e-05,3.242e-05,0.07593,0.0005713,1.686,0.002929,0,0,0.0001755
24600000000,24900000000,3608394906,0,75,0.002991,0.0191,0.02716,0.001284,0.001476,0.01926,4.768e-06,3.242e-05,0.06128,0.0001431,1.682,0.003111,0,0,0.004272
24900000000,25200000000,3608394906,0,75,0.002972,0.01898,0.02716,0.001286,0.001478,0.01904,4.768e-06,3.242e-05,0.06445,7.153e-05,1.658,0.003078,0,0,0.000248
25200000000,25500000000,3608394906,0,75,0.003227,0.01904,0.02716,0.001287,0.00148,0.01938,3.815e-06,3.242e-05,0.0647,7.153e-05,1.648,0.003084,0,0,0.009644
25500000000,25800000000,3608394906,0,75,0.004066,0.0192,0.02716,0.001291,0.001482,0.01974,6.676e-06,3.242e-05,0.06799,0.0002146,1.505,0.002664,0,0,0.0001087
25800000000,26100000000,3608394906,0,75,0.003033,0.01898,0.02716,0.001293,0.001484,0.01904,4.768e-06,3.242e-05,0.06433,0.0001431,1.694,0.003129,0,0,0.0001526
26100000000,26400000000,3608394906,0,75,0.00351,0.01904,0.02716,0.001295,0.001486,0.01935,4.768e-06,3.242e-05,0.06714,7.153e-05,1.791,0.003425,0,0,0.006996
26400000000,26700000000,3608394906,0,75,0.003311,0.0191,0.02716,0.001297,0.00149,0.01923,4.768e-06,3.242e-05,0.07715,7.153e-05,1.847,0.003464,0,0,0.0001497
26700000000,27000000000,3608394906,0,75,0.003555,0.01901,0.02716,0.001299,0.001492,0.01935,5.722e-06,3.242e-05,0.06726,0.0002861,1.801,0.00332,0,0,0.0003052
27000000000,27300000000,3608394906,0,75,0.003296,0.0191,0.02716,0.001303,0.001493,0.01923,9.537e-06,3.242e-05,0.06274,0.0005713,1.866,0.003534,0,0,0.009048
27300000000,27600000000,3608394906,0,75,0.004517,0.01907,0.02716,0.001305,0.001495,0.01953,4.768e-06,3.242e-05,0.09619,7.153e-05,1.871,0.003338,0,0,0.01015
27600000000,27900000000,3608394906,0,75,0.003685,0.01904,0.02716,0.001307,0.001497,0.01947,3.815e-06,3.242e-05,0.07629,7.153e-05,1.878,0.003304,0,0,0.003529
27900000000,28200000000,3608394906,0,75,0.004288,0.01917,0.02716,0.00131,0.001501,0.01944,1.24e-05,3.242e-05,0.07507,0.0003567,1.941,0.003196,0,0,0.0002012
28200000000,28500000000,3608394906,0,75,0.003365,0.01904,0.02716,0.001312,0.001503,0.01917,4.768e-06,3.242e-05,0.06714,7.153e-05,1.867,0.003257,0,0,0.01169
28500000000,28800000000,3608394906,0,75,0.003929,0.0191,0.02716,0.001308,0.001499,0.01944,6.676e-06,3.242e-05,0.06567,0.0001431,1.985,0.003602,0,0,0.0003605
28800000000,29100000000,3608394906,0,75,0.003548,0.0191,0.02713,0.001266,0.001457,0.01926,4.768e-06,3.242e-05,0.07117,7.153e-05,1.957,0.003518,0,0,0.0003767
29100000000,29400000000,3608394906,0,75,0.004684,0.0191,0.02713,0.001268,0.001459,0.01981,4.768e-06,3.242e-05,0.07227,0.0002146,1.93,0.003432,0,0,0.0003061
29400000000,29700000000,3608394906,0,75,0.00386,0.01904,0.02716,0.00127,0.001461,0.01947,4.768e-06,3.242e-05,0.07056,7.153e-05,1.958,0.003522,0,0,0.01237
29700000000,30000000000,3608394906,0,75,0.003551,0.01913,0.02716,0.001274,0.001465,0.01926,4.768e-06,3.242e-05,0.07446,7.153e-05,1.981,0.003584,0,0,0.0003786
30000000000,30300000000,3608394906,0,75,0.003891,0.01904,0.02716,0.001276,0.001467,0.01944,4.768e-06,3.242e-05,0.07471,7.153e-05,1.998,0.003523,0,0,0.01118
30300000000,30600000000,3608394906,0,75,0.003498,0.0191,0.02716,0.001276,0.001467,0.01926,4.768e-06,3.242e-05,0.06934,7.153e-05,1.941,0.003477,0,0,0.001598
30600000000,30900000000,3608394906,0,75,0.003403,0.01895,0.02716,0.001274,0.001467,0.01904,5.722e-06,3.242e-05,0.06311,0.0001431,1.887,0.003366,0,0,0.0003128
30900000000,31200000000,3608394906,0,75,0.00576,0.01917,0.02716,0.001274,0.001467,0.01984,4.768e-06,3.242e-05,0.07153,7.153e-05,1.711,0.002882,0,0,0.001337
31200000000,31500000000,3608394906,0,75,0.003429,0.0191,0.02716,0.001268,0.001459,0.01926,4.768e-06,3.242e-05,0.06958,0.0001431,1.935,0.003413,0,0,0.06714
31500000000,31800000000,3608394906,0,75,0.004509,0.01901,0.02713,0.001268,0.001459,0.01929,1.526e-05,3.242e-05,0.111,0.0009995,2.047,0.003274,0,0,0.0002394
31800000000,32100000000,3608394906,0,75,0.00378,0.01907,0.02716,0.00127,0.001463,0.01944,4.768e-06,3.242e-05,0.07227,0.0002146,1.923,0.003403,0,0,0.0002909
32100000000,32400000000,3608394906,0,75,0.003445,0.01913,0.02716,0.001274,0.001465,0.01929,4.768e-06,3.242e-05,0.06885,0.0001431,1.921,0.003453,0,0,0.0003119
32400000000,32700000000,3608394906,0,75,0.003334,0.01898,0.02716,0.001266,0.001457,0.01907,2.193e-05,3.242e-05,0.06812,0.0007143,1.887,0.003412,0,0,0.02386
32700000000,33000000000,3608394906,0,75,0.004906,0.01913,0.02713,0.001232,0.001425,0.01962,4.768e-06,3.242e-05,0.07471,0.0001431,1.909,0.003608,0,0,0.0004635
33000000000,33300000000,3608394906,0,75,0.003483,0.01917,0.02713,0.001192,0.001385,0.01929,3.815e-06,3.242e-05,0.06299,0.0001431,1.92,0.003661,0,0,0.004211
33300000000,33600000000,3608394906,0,75,0.00322,0.01898,0.02713,0.001154,0.001347,0.01907,4.768e-06,3.242e-05,0.0658,0.0001431,1.803,0.003484,0,0,0.001415
33600000000,33900000000,3608394906,0,75,0.00362,0.01904,0.02713,0.001154,0.001347,0.01938,4.768e-06,3.242e-05,0.06299,0.0001431,1.865,0.00356,0,0,0.0002995
33900000000,34200000000,3608394906,0,75,0.003311,0.0191,0.02713,0.001158,0.001348,0.01926,5.722e-06,3.242e-05,0.06555,0.0001431,1.885,0.003596,0,0,0.001295
34200000000,34500000000,3608394906,0,75,0.003319,0.01895,0.02716,0.00116,0.00135,0.01904,4.768e-06,3.242e-05,0.06641,0.0001431,1.667,0.002992,0,0,0.01572
34500000000,34800000000,3608394906,0,75,0.004791,0.01913,0.02713,0.001162,0.001352,0.01981,5.722e-06,3.242e-05,0.0708,0.0001431,1.866,0.003532,0,0,0.003422
34800000000,35100000000,3608394906,0,75,0.003338,0.0191,0.02713,0.001165,0.001356,0.01926,5.722e-06,3.242e-05,0.06689,0.0002861,1.886,0.00365,0,0,0.0004959
35100000000,35400000000,3608394906,0,75,0.004242,0.01901,0.02713,0.001167,0.001358,0.01926,9.537e-06,3.242e-05,0.1129,0.0002861,1.879,0.003423,0,0,0.02213
35400000000,35700000000,3608394906,0,75,0.003586,0.0191,0.02713,0.001169,0.00136,0.01944,4.768e-06,3.242e-05,0.06763,7.153e-05,1.826,0.003434,0,0,0.000227
35700000000,36000000000,3608394906,0,75,0.003304,0.01917,0.02713,0.001173,0.001364,0.01932,4.768e-06,3.242e-05,0.06726,0.0001431,1.863,0.003619,0,0,0.001717
36000000000,36300000000,3608394906,0,75,0.003239,0.01901,0.02713,0.001173,0.001366,0.0191,4.768e-06,3.242e-05,0.06677,7.153e-05,1.629,0.002962,0,0,0.001543
36300000000,36600000000,3608394906,0,75,0.004784,0.01917,0.02713,0.001177,0.001368,0.01971,4.768e-06,3.242e-05,0.07104,7.153e-05,1.867,0.003628,0,0,0.000371
36600000000,36900000000,3608394906,0,75,0.003334,0.01913,0.02713,0.001179,0.001371,0.01923,4.768e-06,3.242e-05,0.06555,7.153e-05,1.879,0.003651,0,0,0.0002766
36900000000,37200000000,3608394906,0,75,0.003078,0.01898,0.02716,0.001181,0.001373,0.01907,4.768e-06,3.242e-05,0.06702,0.0001431,1.772,0.003277,0,0,0.000802
37200000000,37500000000,3608394906,0,75,0.003227,0.01901,0.02716,0.001183,0.001375,0.01938,5.722e-06,3.242e-05,0.0647,0.0003567,1.662,0.003127,0,0,0.0004463
37500000000,37800000000,3608394906,0,75,0.003212,0.01913,0.02713,0.001169,0.001362,0.01926,4.768e-06,3.242e-05,0.06897,0.0001431,1.758,0.003407,0,0,0.001301
37800000000,38100000000,3608394906,0,75,0.003101,0.01898,0.02716,0.001146,0.001337,0.01907,5.722e-06,3.242e-05,0.06628,0.0001431,1.732,0.00322,0,0,0.0004253
38100000000,38400000000,3608394906,0,75,0.004463,0.01913,0.02713,0.001148,0.001339,0.01953,7.629e-06,3.242e-05,0.07825,0.0002146,1.732,0.003269,0,0,0.000123
38400000000,38700000000,3608394906,0,75,0.003098,0.01913,0.02713,0.001152,0.001343,0.01926,2.003e-05,3.242e-05,0.06653,0.0002146,1.6,0.002954,0,0,0.0002155
38700000000,39000000000,3608394906,0,75,0.004173,0.01904,0.02713,0.001137,0.001328,0.01929,2.575e-05,3.242e-05,0.07751,0.002644,1.852,0.003532,0,0,0.001823
39000000000,39300000000,3608394906,0,75,0.003593,0.0191,0.02713,0.001125,0.001316,0.01944,4.768e-06,3.242e-05,0.06567,0.0001431,1.864,0.003682,0,0,0.0004187
39300000000,39600000000,3608394906,0,75,0.003433,0.01913,0.02713,0.00112,0.00131,0.01926,1.049e-05,3.242e-05,0.06787,0.0002146,1.882,0.003709,0,0,0.001095
39600000000,39900000000,3608394906,0,75,0.00333,0.01898,0.02713,0.001118,0.001307,0.01907,9.537e-06,3.242e-05,0.06262,0.0002146,1.684,0.003028,0,0,0.0009727
39900000000,40200000000,3608394906,0,75,0.004768,0.01913,0.02713,0.001116,0.001307,0.01956,9.537e-06,3.242e-05,0.08057,0.0002861,1.863,0.003604,0,0,0.0002651
40200000000,40500000000,3608394906,0,75,0.003292,0.01917,0.02713,0.001118,0.001307,0.01929,4.768e-06,3.242e-05,0.0658,0.0001431,1.792,0.003448,0,0,0.000309
40500000000,40800000000,3608394906,0,75,0.00322,0.01901,0.02716,0.00112,0.001308,0.01907,4.768e-06,3.242e-05,0.06519,7.153e-05,1.748,0.003257,0,0,0.007874
51000000000,51300000000,3608394906,0,75,0.003349,0.01901,0.02713,0.001085,0.001276,0.0191,5.722e-06,3.338e-05,0.06506,0.0001431,1.865,0.003711,0,0,0.0002375
51300000000,51600000000,3608394906,0,75,0.003712,0.01907,0.02713,0.001083,0.001274,0.01944,4.768e-06,3.338e-05,0.06372,0.0001431,1.716,0.003124,0,0,0.0003138
51600000000,51900000000,3608394906,0,75,0.003483,0.0192,0.02713,0.001085,0.001276,0.01932,4.768e-06,3.338e-05,0.06824,0.0001431,1.856,0.003639,0,0,0.00157
51900000000,52200000000,3608394906,0,75,0.003605,0.01904,0.02713,0.001083,0.001274,0.01941,5.722e-06,3.338e-05,0.06665,0.0001431,1.655,0.00301,0,0,0.004433
52200000000,52500000000,3608394906,0,75,0.003395,0.01917,0.02713,0.001085,0.001276,0.01929,5.722e-06,3.338e-05,0.06226,0.0001431,1.872,0.003828,0,0,0.0006676
52500000000,52800000000,3608394906,0,75,0.004601,0.01907,0.02713,0.001085,0.001276,0.01959,5.722e-06,3.338e-05,0.07861,0.0001431,1.636,0.003037,0,0,0.001102
52800000000,53100000000,3608394906,0,75,0.003403,0.01904,0.02716,0.001087,0.001278,0.0191,5.722e-06,3.338e-05,0.06775,0.0001431,1.846,0.003635,0,0,0.0003386
53100000000,53400000000,3608394906,0,75,0.004578,0.0191,0.02713,0.001087,0.001278,0.01953,1.24e-05,3.338e-05,0.07556,0.0002861,1.647,0.003028,0,0,0.0008183
53400000000,53700000000,3608394906,0,75,0.003422,0.0192,0.02713,0.001091,0.00128,0.01932,4.768e-06,3.338e-05,0.06909,0.0001431,1.888,0.003842,0,0,0.0003977
53700000000,54000000000,3608394906,0,75,0.003399,0.01901,0.02713,0.001093,0.001282,0.0191,7.629e-06,3.338e-05,0.06812,0.0002861,1.651,0.003016,0,0,0.001162
54000000000,54300000000,3608394906,0,75,0.003681,0.01904,0.02713,0.001093,0.001284,0.0195,5.722e-06,3.338e-05,0.06262,0.0001431,1.865,0.003601,0,0,0.0008955
54300000000,54600000000,3608394906,0,75,0.004707,0.01926,0.02713,0.001097,0.001287,0.01981,4.768e-06,3.338e-05,0.08533,7.153e-05,1.917,0.003853,0,0,0.0004244
54600000000,54900000000,3608394906,0,75,0.003403,0.01904,0.02713,0.001099,0.001289,0.0191,5.722e-06,3.338e-05,0.06848,0.0002146,1.85,0.003581,0,0,0.0008383
54900000000,55200000000,3608394906,0,75,0.003761,0.01907,0.02713,0.001097,0.001287,0.01944,6.676e-06,3.338e-05,0.07214,0.0002146,1.908,0.003697,0,0,0.002205
55200000000,55500000000,3608394906,0,75,0.003494,0.01917,0.02713,0.001072,0.001261,0.01929,4.768e-06,3.338e-05,0.08936,0.0001431,1.73,0.003289,0,0,0.0006332
55500000000,55800000000,3608394906,0,75,0.003414,0.01898,0.02713,0.001074,0.001263,0.01907,4.768e-06,3.338e-05,0.06897,0.0001431,1.828,0.003501,0,0,0.0002947
55800000000,56100000000,3608394906,0,75,0.003422,0.01898,0.02716,0.001074,0.001265,0.01907,4.768e-06,3.338e-05,0.06171,0.0001431,1.859,0.00359,0,0,0.0003281
56100000000,56400000000,3608394906,0,75,0.004639,0.0191,0.02713,0.001078,0.001266,0.01974,5.722e-06,3.338e-05,0.09875,0.0001431,1.875,0.00364,0,0,0.0006218
56400000000,56700000000,3608394906,0,75,0.003437,0.01898,0.02716,0.001078,0.001268,0.01907,4.768e-06,3.338e-05,0.06506,0.0001431,1.83,0.003461,0,0,0.0008364
56700000000,57000000000,3608394906,0,75,0.004646,0.01907,0.02713,0.001076,0.001266,0.01947,9.537e-06,3.338e-05,0.07666,0.0002861,1.84,0.003512,0,0,0.000351
57000000000,57300000000,3608394906,0,75,0.003468,0.0192,0.02713,0.00108,0.00127,0.01929,9.537e-06,3.338e-05,0.06799,0.0007143,1.902,0.003778,0,0,0.0002327
57300000000,57600000000,3608394906,0,75,0.003407,0.01901,0.02713,0.001081,0.001272,0.01907,5.722e-06,3.338e-05,0.06494,0.0002861,1.667,0.003033,0,0,0.00128
57600000000,57900000000,3608394906,0,75,0.00367,0.01904,0.02713,0.001081,0.001272,0.01947,4.768e-06,3.338e-05,0.0686,0.0002146,1.822,0.003515,0,0,0.0005407
57900000000,58200000000,3608394906,0,75,0.004707,0.01932,0.02713,0.001085,0.001276,0.01999,4.768e-06,3.338e-05,0.06946,7.153e-05,1.696,0.003229,0,0,0.0121
58200000000,58500000000,3608394906,0,75,0.003441,0.01901,0.02713,0.001085,0.001276,0.0191,4.768e-06,3.338e-05,0.06836,0.0001431,1.88,0.003606,0,0,0.0008535
58500000000,58800000000,3608394906,0,75,0.003433,0.01901,0.02713,0.001085,0.001276,0.0191,5.722e-06,3.338e-05,0.06885,0.0001431,1.863,0.003615,0,0,0.005669
58800000000,59100000000,3608394906,0,75,0.003696,0.01904,0.02713,0.001083,0.001272,0.01944,3.815e-06,3.338e-05,0.06287,0.0001431,1.865,0.003587,0,0,0.0001583
59100000000,59400000000,3608394906,0,75,0.003525,0.0192,0.02713,0.001083,0.001274,0.01929,5.722e-06,3.338e-05,0.0697,0.0001431,1.913,0.003859,0,0,0.000535
59400000000,59700000000,3608394906,0,75,0.003448,0.01901,0.02713,0.001083,0.001274,0.01907,4.768e-06,3.338e-05,0.06824,0.0001431,1.679,0.003062,0,0,0.004333
59700000000,60000000000,3608394906,0,75,0.004692,0.01913,0.02713,0.001085,0.001276,0.01978,5.722e-06,3.338e-05,0.08679,0.0002861,1.856,0.003575,0,0,0.0001574
60000000000,60300000000,3608394906,0,75,0.003731,0.01904,0.02713,0.001087,0.001278,0.01947,1.049e-05,3.338e-05,0.07178,0.001785,1.862,0.003614,0,0,0.0002136
60300000000,60600000000,3608394906,0,75,0.00444,0.01923,0.02713,0.001091,0.00128,0.01947,1.144e-05,3.338e-05,0.06995,0.0004282,1.922,0.003869,0,0,0.0005226
60600000000,60900000000,3608394906,0,75,0.003452,0.01907,0.02713,0.001093,0.001284,0.01917,5.722e-06,3.338e-05,0.06897,0.0002861,1.86,0.003596,0,0,0.000329
70800000000,71100000000,3608394906,0,75,0.003677,0.01901,0.02716,0.001163,0.001354,0.01944,1.144e-05,3.338e-05,0.06812,0.0004997,1.894,0.003717,0,0,0.01212
71100000000,71400000000,3608394906,0,75,0.004433,0.01923,0.02716,0.001125,0.001316,0.01947,1.526e-05,3.338e-05,0.07092,0.001072,1.936,0.003922,0,0,0.0005541
71400000000,71700000000,3608394906,0,75,0.003426,0.01907,0.02716,0.001127,0.001316,0.01917,6.676e-06,3.338e-05,0.06885,0.0002146,1.862,0.00362,0,0,0.0004444
71700000000,72000000000,3608394906,0,75,0.003426,0.01904,0.02716,0.001129,0.001318,0.01913,5.722e-06,3.338e-05,0.0675,7.153e-05,1.648,0.003009,0,0,0.0001431
72000000000,72300000000,3608394906,0,75,0.003708,0.01904,0.02716,0.001129,0.00132,0.01941,5.722e-06,3.338e-05,0.06812,0.0002861,1.878,0.003603,0,0,0.001057
72300000000,72600000000,3608394906,0,75,0.0047,0.01932,0.02716,0.001133,0.001324,0.01993,5.722e-06,3.338e-05,0.1233,0.0001431,1.927,0.003927,0,0,0.0006514
72600000000,72900000000,3608394906,0,75,0.003418,0.01901,0.02716,0.001135,0.001326,0.0191,7.629e-06,3.338e-05,0.06592,0.0004282,1.869,0.003621,0,0,0.0003414
72900000000,73200000000,3608394906,0,75,0.003792,0.01901,0.02716,0.001129,0.00132,0.01941,6.676e-06,3.338e-05,0.06689,0.0007143,1.724,0.003158,0,0,0.0002098
73200000000,73500000000,3608394906,0,75,0.003536,0.0192,0.02713,0.001074,0.001265,0.01929,8.583e-06,3.338e-05,0.06165,0.0004282,1.914,0.003811,0,0,0.01131
73500000000,73800000000,3608394906,0,75,0.003433,0.01901,0.02713,0.001074,0.001265,0.0191,9.537e-06,3.338e-05,0.06592,0.0002861,1.856,0.003671,0,0,0.0005016
73800000000,74100000000,3608394906,0,75,0.0037,0.01901,0.02713,0.001076,0.001266,0.01944,7.629e-06,3.338e-05,0.06653,0.0004997,1.77,0.003307,0,0,0.02621
74100000000,74400000000,3608394906,0,75,0.004715,0.01932,0.02713,0.00108,0.00127,0.02002,8.583e-06,3.338e-05,0.1189,0.0002146,1.951,0.003958,0,0,0.0007915
74400000000,74700000000,3608394906,0,75,0.003441,0.01901,0.02713,0.001081,0.001272,0.0191,7.629e-06,3.338e-05,0.06958,0.0001431,1.869,0.00363,0,0,0.001163
74700000000,75000000000,3608394906,0,75,0.004654,0.01907,0.02713,0.001083,0.001272,0.01947,8.583e-06,3.338e-05,0.07068,0.0002146,1.87,0.003629,0,0,0.0002871
75000000000,75300000000,3608394906,0,75,0.003372,0.0192,0.02713,0.001057,0.001247,0.01935,5.722e-06,3.338e-05,0.06787,0.0001431,1.929,0.003891,0,0,0.0005016
75300000000,75600000000,3608394906,0,75,0.003632,0.01901,0.02713,0.001057,0.001247,0.01913,4.768e-06,3.338e-05,0.06958,0.0001431,1.886,0.003685,0,0,0.06244
75600000000,75900000000,3608394906,0,75,0.003452,0.01898,0.02713,0.001059,0.001249,0.01907,4.768e-06,3.338e-05,0.06812,0.0002146,1.859,0.003643,0,0,0.0004435
75900000000,76200000000,3608394906,0,75,0.005005,0.0191,0.02713,0.00106,0.001251,0.01962,4.768e-06,3.338e-05,0.0675,0.0001431,1.888,0.003659,0,0,0.0003233
76200000000,76500000000,3608394906,0,75,0.003601,0.0192,0.02713,0.001055,0.001245,0.01941,4.768e-06,3.338e-05,0.1025,0.0001431,1.737,0.003218,0,0,0.001198
76500000000,76800000000,3608394906,0,75,0.003513,0.01901,0.02713,0.001057,0.001247,0.01913,4.768e-06,3.338e-05,0.06958,0.0001431,1.903,0.003677,0,0,0.002285
76800000000,77100000000,3608394906,0,75,0.003525,0.01901,0.02713,0.001059,0.001247,0.01907,4.768e-06,3.338e-05,0.06934,0.0001431,1.749,0.003227,0,0,0.0002575
77100000000,77400000000,3608394906,0,75,0.003754,0.01901,0.02713,0.00106,0.001249,0.01947,5.722e-06,3.338e-05,0.06909,0.0002146,1.695,0.003066,0,0,0.007439
77400000000,77700000000,3608394906,0,75,0.003529,0.0192,0.02713,0.001059,0.001249,0.01944,4.768e-06,3.338e-05,0.06934,0.0002146,1.599,0.002711,0,0,0.003315
77700000000,78000000000,3608394906,0,75,0.00473,0.01913,0.02713,0.001057,0.001247,0.01974,5.722e-06,3.338e-05,0.08752,0.0001431,1.941,0.003856,0,0,0.000329
78000000000,78300000000,3608394906,0,75,0.003471,0.01901,0.02713,0.001053,0.001242,0.0191,6.676e-06,3.338e-05,0.06628,0.0005713,1.692,0.003072,0,0,0.006989
78300000000,78600000000,3608394906,0,75,0.004723,0.01904,0.02713,0.001043,0.001234,0.01941,2.861e-05,3.338e-05,0.07068,0.002285,1.862,0.003631,0,0,0.003002
78600000000,78900000000,3608394906,0,75,0.003387,0.0192,0.02713,0.00102,0.001211,0.01938,5.722e-06,3.338e-05,0.06445,0.0002146,1.59,0.002804,0,0,0.0003586
78900000000,79200000000,3608394906,0,75,0.003391,0.01898,0.02713,0.001024,0.001213,0.0191,6.676e-06,3.338e-05,0.06775,0.0004997,1.694,0.003303,0,0,0.0002842
79200000000,79500000000,3608394906,0,75,0.003536,0.01898,0.02713,0.001024,0.001215,0.01907,5.722e-06,3.338e-05,0.06921,0.0003567,1.854,0.003683,0,0,0.0002432
79500000000,79800000000,3608394906,0,75,0.004845,0.01932,0.02713,0.001005,0.001196,0.01993,6.676e-06,3.338e-05,0.06885,0.0003567,1.632,0.002783,0,0,0.001017
79800000000,80100000000,3608394906,0,75,0.003483,0.01898,0.02713,0.001001,0.00119,0.01917,5.722e-06,3.338e-05,0.06274,0.0002146,1.94,0.003919,0,0,0.0003252
80100000000,80400000000,3608394906,0,75,0.003441,0.01898,0.02713,0.0009995,0.00119,0.01907,7.629e-06,3.338e-05,0.06262,0.0004282,1.76,0.003328,0,0,0.0008307
80400000000,80700000000,3608394906,0,75,0.003777,0.0192,0.02713,0.001001,0.001192,0.01938,5.722e-06,3.338e-05,0.06848,0.0001431,1.621,0.002801,0,0,0.03009
80700000000,81000000000,3608394906,0,75,0.003464,0.01901,0.02713,0.001003,0.001194,0.01917,4.768e-06,3.338e-05,0.06689,0.0001431,1.933,0.003883,0,0,0.0003881
85800000000,86100000000,3608394906,0,75,0.003525,0.01917,0.02716,0.001005,0.001196,0.01944,1.335e-05,3.338e-05,0.06836,0.0002146,1.852,0.003576,0,0,0.0003338
86100000000,86400000000,3608394906,0,75,0.003128,0.01898,0.02713,0.001005,0.001196,0.0192,8.583e-06,3.338e-05,0.06616,0.0002861,1.756,0.003344,0,0,0.0002708
86400000000,86700000000,3608394906,0,75,0.003128,0.01898,0.02713,0.001007,0.001196,0.01907,5.722e-06,3.338e-05,0.06177,0.0002146,1.741,0.00328,0,0,0.003136
86700000000,87000000000,3608394906,0,75,0.004684,0.01932,0.02716,0.001009,0.0012,0.02005,6.676e-06,3.338e-05,0.1011,0.0002861,1.794,0.003504,0,0,0.0002823
87000000000,87300000000,3608394906,0,75,0.003452,0.01901,0.02713,0.001007,0.001196,0.01929,5.722e-06,3.338e-05,0.06738,0.0001431,1.924,0.003614,0,0,0.0006819
87300000000,87600000000,3608394906,0,75,0.00346,0.01901,0.02713,0.001009,0.0012,0.0191,6.676e-06,3.338e-05,0.0697,0.0002146,1.92,0.003625,0,0,0.0002489
87600000000,87900000000,3608394906,0,75,0.003662,0.01917,0.02716,0.001007,0.001198,0.01941,8.583e-06,3.338e-05,0.06677,0.0002861,1.922,0.003766,0,0,0.0003481
87900000000,88200000000,3608394906,0,75,0.003361,0.01898,0.02713,0.001005,0.001196,0.01926,9.537e-06,3.338e-05,0.06812,0.0001431,1.879,0.003538,0,0,0.004311
88200000000,88500000000,3608394906,0,75,0.003296,0.01898,0.02713,0.001007,0.001198,0.01907,6.676e-06,3.338e-05,0.06763,0.0001431,1.776,0.003354,0,0,0.01149
88500000000,88800000000,3608394906,0,75,0.004753,0.01932,0.02713,0.0009995,0.00119,0.0199,2.193e-05,3.338e-05,0.1095,0.0007858,1.91,0.003951,0,0,0.0003729
88800000000,89100000000,3608394906,0,75,0.003235,0.01904,0.02713,0.0009956,0.001184,0.01929,6.676e-06,3.338e-05,0.06421,0.0002146,1.798,0.003631,0,0,0.0002089
89100000000,89400000000,3608394906,0,75,0.004196,0.01904,0.02713,0.0009975,0.001186,0.01932,1.144e-05,3.338e-05,0.07349,0.0002146,1.839,0.00373,0,0,0.0005875
89400000000,89700000000,3608394906,0,75,0.003456,0.0192,0.02713,0.0009995,0.00119,0.0195,1.431e-05,3.338e-05,0.06274,0.002285,1.702,0.003413,0,0,0.0004177
89700000000,90000000000,3608394906,0,75,0.00333,0.01901,0.02713,0.0009995,0.00119,0.01926,8.583e-06,3.338e-05,0.08215,0.0002146,1.86,0.003629,0,0,0.0004091
90000000000,90300000000,3608394906,0,75,0.003288,0.01898,0.02713,0.0009956,0.001186,0.01907,5.722e-06,3.338e-05,0.06702,0.0001431,1.803,0.003342,0,0,0.0008993
90300000000,90600000000,3608394906,0,75,0.004349,0.01913,0.02713,0.0009975,0.001188,0.01984,7.629e-06,3.338e-05,0.1129,0.0002861,1.791,0.00334,0,0,0.0004854
90600000000,90900000000,3608394906,0,75,0.003601,0.0192,0.02713,0.001001,0.001192,0.01947,6.676e-06,3.338e-05,0.1226,0.0003567,1.699,0.003031,0,0,0.00112
101100000000,101400000000,3608394906,0,75,0.004166,0.01917,0.02716,0.0001345,0.0003242,0.01971,6.676e-06,3.433e-05,0.07886,0.0001431,1.303,0.001754,0,0,0.0003691
101400000000,101700000000,3608394906,0,75,0.002998,0.01898,0.02716,0.0001345,0.0003242,0.01907,6.676e-06,3.433e-05,0.06433,0.0002861,1.713,0.003505,0,0,0.0006037
101700000000,102000000000,3608394906,0,75,0.003349,0.01917,0.02716,0.0001354,0.0003262,0.01944,6.676e-06,3.433e-05,0.06592,0.0001431,1.797,0.003761,0,0,0.0006742
102000000000,102300000000,3608394906,0,75,0.003075,0.01901,0.02716,0.0001354,0.0003262,0.01926,4.768e-06,3.433e-05,0.06244,7.153e-05,1.555,0.002974,0,0,0.007843
102300000000,102600000000,3608394906,0,75,0.003006,0.01898,0.02716,0.0001373,0.0003281,0.01907,7.629e-06,3.433e-05,0.06445,0.0005713,1.72,0.003532,0,0,0.0003748
102600000000,102900000000,3608394906,0,75,0.002995,0.01898,0.02716,0.0001392,0.000329,0.01907,6.676e-06,3.433e-05,0.06604,0.0001431,1.699,0.003432,0,0,0.0004025
102900000000,103200000000,3608394906,0,75,0.004105,0.01913,0.02716,0.0001411,0.0003319,0.01984,5.722e-06,3.433e-05,0.06946,7.153e-05,1.28,0.001729,0,0,0.008499
103200000000,103500000000,3608394906,0,75,0.003002,0.01901,0.02716,0.0001411,0.0003319,0.0191,8.583e-06,3.433e-05,0.06506,0.0001431,1.688,0.003431,0,0,0.04706
103500000000,103800000000,3608394906,0,75,0.003857,0.01904,0.02716,0.0001421,0.0003328,0.01929,1.335e-05,3.433e-05,0.08936,0.0006428,1.741,0.003476,0,0,0.004547
103800000000,104100000000,3608394906,0,75,0.003304,0.01917,0.02716,0.0001459,0.0003366,0.0195,5.722e-06,3.433e-05,0.07056,7.153e-05,1.655,0.003315,0,0,0.0256
104100000000,104400000000,3608394906,0,75,0.003056,0.01901,0.02716,0.0001478,0.0003386,0.01926,5.722e-06,3.433e-05,0.06219,0.0001431,1.718,0.003461,0,0,0.0001459
104400000000,104700000000,3608394906,0,75,0.002991,0.01898,0.02716,0.0001497,0.0003395,0.01907,4.768e-06,3.433e-05,0.06311,7.153e-05,1.509,0.002932,0,0,0.000596
104700000000,105000000000,3608394906,0,75,0.004425,0.01935,0.02716,0.0001431,0.0003328,0.0202,6.676e-06,3.433e-05,0.07349,0.0001431,1.298,0.001684,0,0,0.0003338
105000000000,105300000000,3608394906,0,75,0.00304,0.01904,0.02716,0.0001421,0.0003319,0.01929,5.722e-06,3.433e-05,0.06134,0.0002146,1.696,0.003334,0,0,0.00946
105300000000,105600000000,3608394906,0,75,0.003006,0.01901,0.02716,0.0001392,0.000329,0.0191,3.815e-06,3.433e-05,0.0636,0.0001431,1.643,0.003255,0,0,0.001127
105600000000,105900000000,3608394906,0,75,0.003292,0.0192,0.02716,0.0001402,0.00033,0.01947,4.768e-06,3.433e-05,0.06506,7.153e-05,1.707,0.003495,0,0,0.0004339
105900000000,106200000000,3608394906,0,75,0.003017,0.01904,0.02716,0.0001421,0.0003319,0.01929,5.722e-06,3.433e-05,0.06421,0.0001431,1.694,0.003352,0,0,0.007454
106200000000,106500000000,3608394906,0,75,0.002857,0.01901,0.02716,0.000144,0.0003338,0.0191,4.768e-06,3.433e-05,0.06555,7.153e-05,1.697,0.003305,0,0,0.0002966
106500000000,106800000000,3608394906,0,75,0.003777,0.01917,0.02716,0.0001459,0.0003357,0.01993,1.144e-05,3.433e-05,0.07422,0.001215,1.287,0.001706,0,0,0.0002613
106800000000,107100000000,3608394906,0,75,0.002884,0.0192,0.02716,0.0001478,0.0003376,0.01944,6.676e-06,3.433e-05,0.06409,0.0001431,1.532,0.00292,0,0,0.0004892
107100000000,107400000000,3608394906,0,75,0.003342,0.01907,0.02716,0.0001478,0.0003376,0.01929,1.431e-05,3.433e-05,0.06104,0.0006428,1.681,0.003267,0,0,0.006592
107400000000,107700000000,3608394906,0,75,0.002605,0.01904,0.02716,0.0001497,0.0003395,0.01917,5.722e-06,3.433e-05,0.06519,0.0001431,1.689,0.003281,0,0,0.000494
107700000000,108000000000,3608394906,0,75,0.002869,0.0192,0.02716,0.0001526,0.0003424,0.01941,4.768e-06,3.433e-05,0.06458,0.0001431,1.714,0.003438,0,0,0.001125
108000000000,108300000000,3608394906,0,75,0.002609,0.01904,0.02716,0.0001545,0.0003443,0.01929,5.722e-06,3.433e-05,0.06555,7.153e-05,1.647,0.003218,0,0,0.0002546
108300000000,108600000000,3608394906,0,75,0.003582,0.01907,0.02716,0.0001564,0.0003462,0.01947,6.676e-06,3.433e-05,0.06201,0.0001431,1.294,0.001745,0,0,0.008362
108600000000,108900000000,3608394906,0,75,0.002907,0.01917,0.02716,0.0001459,0.0003357,0.01941,7.629e-06,3.433e-05,0.06232,0.0001431,1.624,0.003273,0,0,0.0008736
108900000000,109200000000,3608394906,0,75,0.002609,0.01904,0.02716,0.0001354,0.0003252,0.01926,6.676e-06,3.433e-05,0.06482,0.0004282,1.544,0.002935,0,0,0.0001621
109200000000,109500000000,3608394906,0,75,0.002598,0.01898,0.02716,0.0001364,0.0003262,0.01907,4.768e-06,3.433e-05,0.06433,0.0001431,1.698,0.003381,0,0,0.0001631
109500000000,109800000000,3608394906,0,75,0.002872,0.01913,0.02713,0.0001392,0.000329,0.01935,5.722e-06,3.433e-05,0.06506,0.0001431,1.713,0.00351,0,0,0.0001669
109800000000,110100000000,3608394906,0,75,0.002605,0.01898,0.02716,0.0001411,0.0003319,0.01917,4.768e-06,3.433e-05,0.06506,0.0002146,1.49,0.002745,0,0,0.06506
110100000000,110400000000,3608394906,0,75,0.003513,0.01904,0.02716,0.000144,0.0003338,0.01962,5.722e-06,3.433e-05,0.1348,0.0001431,1.216,0.00157,0,0,0.0001831
110400000000,110700000000,3608394906,0,75,0.002575,0.01898,0.02716,0.000145,0.0003357,0.01907,4.768e-06,3.433e-05,0.06372,0.0001431,1.605,0.003057,0,0,0.0001726
110700000000,111000000000,3608394906,0,75,0.00333,0.01901,0.02716,0.0001469,0.0003366,0.0192,1.049e-05,3.433e-05,0.06873,0.0003567,1.59,0.00297,0,0,0.001478
116100000000,116400000000,3608394906,0,75,0.002621,0.01901,0.02716,0.000165,0.0003548,0.0191,5.722e-06,3.433e-05,0.06494,0.0001431,1.651,0.003209,0,0,0.0001726
116400000000,116700000000,3608394906,0,75,0.002895,0.01917,0.02716,0.0001678,0.0003576,0.01944,5.722e-06,3.433e-05,0.06506,0.0001431,1.447,0.002381,0,0,0.0001955
116700000000,117000000000,3608394906,0,75,0.002617,0.01904,0.02716,0.0001698,0.0003595,0.01926,5.722e-06,3.433e-05,0.06299,0.0001431,1.715,0.003449,0,0,0.0002089
117000000000,117300000000,3608394906,0,75,0.002689,0.01898,0.02716,0.0001707,0.0003605,0.01907,3.815e-06,3.433e-05,0.06543,7.153e-05,1.695,0.003237,0,0,0.002735
117300000000,117600000000,3608394906,0,75,0.004524,0.01913,0.02716,0.0001717,0.0003614,0.01974,5.722e-06,3.433e-05,0.08838,0.0002861,1.297,0.001626,0,0,0.0004559
117600000000,117900000000,3608394906,0,75,0.003139,0.01917,0.02716,0.0001717,0.0003614,0.01944,4.768e-06,3.433e-05,0.06702,0.0002146,1.525,0.002539,0,0,0.0006447
117900000000,118200000000,3608394906,0,75,0.003613,0.01907,0.02716,0.0001659,0.0003567,0.01929,1.049e-05,3.433e-05,0.07019,0.0004282,1.841,0.003658,0,0,0.0002317
118200000000,118500000000,3608394906,0,75,0.002724,0.01907,0.02716,0.0001612,0.000351,0.01917,5.722e-06,3.433e-05,0.06641,0.0001431,1.629,0.003079,0,0,0.0001755
118500000000,118800000000,3608394906,0,75,0.003109,0.01917,0.02716,0.000164,0.0003548,0.01944,5.722e-06,3.433e-05,0.06641,0.0002146,1.504,0.00253,0,0,0.002468
118800000000,119100000000,3608394906,0,75,0.002838,0.01901,0.02716,0.0001659,0.0003557,0.01926,5.722e-06,3.433e-05,0.05414,0.0001431,1.853,0.003603,0,0,0.007462
119100000000,119400000000,3608394906,0,75,0.003738,0.01907,0.02716,0.0001678,0.0003586,0.01953,5.722e-06,3.433e-05,0.07227,0.0001431,1.281,0.001678,0,0,0.009918
119400000000,119700000000,3608394906,0,75,0.00304,0.01917,0.02716,0.0001698,0.0003595,0.01941,4.768e-06,3.433e-05,0.07141,0.0001431,1.491,0.002579,0,0,0.0005245
119700000000,120000000000,3608394906,0,75,0.002811,0.01904,0.02716,0.0001707,0.0003614,0.01926,7.629e-06,3.433e-05,0.06726,0.0002146,1.865,0.003588,0,0,0.0003042
120000000000,120300000000,3608394906,0,75,0.002834,0.01901,0.02716,0.0001593,0.000349,0.0191,6.676e-06,3.433e-05,0.06714,0.0002146,1.805,0.003495,0,0,0.0006189
120300000000,120600000000,3608394906,0,75,0.003216,0.01913,0.02713,0.0001621,0.0003519,0.01941,5.722e-06,3.433e-05,0.06604,7.153e-05,1.532,0.002562,0,0,0.00106
120600000000,120900000000,3608394906,0,75,0.002762,0.01901,0.02716,0.000164,0.0003538,0.01926,6.676e-06,3.433e-05,0.06024,7.153e-05,1.78,0.003692,0,0,0.001221
126000000000,126300000000,3608394906,0,75,0.003006,0.01917,0.02716,0.000186,0.0003757,0.01947,1.907e-05,3.433e-05,0.06885,0.002571,1.734,0.003348,0,0,0.0007696
126300000000,126600000000,3608394906,0,75,0.003746,0.0192,0.02716,0.0001879,0.0003786,0.01993,4.768e-06,3.433e-05,0.07336,7.153e-05,1.692,0.003233,0,0,0.000495
126600000000,126900000000,3608394906,0,75,0.002682,0.01901,0.02716,0.0001898,0.0003796,0.0191,4.768e-06,3.433e-05,0.06567,7.153e-05,1.664,0.003086,0,0,0.003551
126900000000,127200000000,3608394906,0,75,0.002979,0.01913,0.02716,0.0001936,0.0003834,0.01944,9.537e-06,3.433e-05,0.06775,0.0001431,1.771,0.003427,0,0,0.0001602
127200000000,127500000000,3608394906,0,75,0.002712,0.01904,0.02716,0.0001955,0.0003853,0.01926,5.722e-06,3.433e-05,0.0658,0.0001431,1.718,0.00324,0,0,0.003651
127500000000,127800000000,3608394906,0,75,0.002686,0.01898,0.02716,0.0001965,0.0003872,0.01907,5.722e-06,3.433e-05,0.0675,7.153e-05,1.701,0.003158,0,0,0.0002146
127800000000,128100000000,3608394906,0,75,0.002689,0.01898,0.02716,0.0001984,0.0003881,0.01907,4.768e-06,3.433e-05,0.06799,7.153e-05,1.701,0.003232,0,0,0.01122
128100000000,128400000000,3608394906,0,75,0.004082,0.0192,0.02716,0.0002022,0.000392,0.01968,5.722e-06,3.433e-05,0.0658,0.0001431,1.685,0.003241,0,0,0.0001135
128400000000,128700000000,3608394906,0,75,0.002544,0.01904,0.02716,0.0002041,0.0003939,0.01926,4.768e-06,3.433e-05,0.06567,7.153e-05,1.675,0.003085,0,0,0.007103
128700000000,129000000000,3608394906,0,75,0.003651,0.01901,0.02716,0.000206,0.0003958,0.01923,1.049e-05,3.433e-05,0.06738,0.0003567,1.74,0.003273,0,0,0.003639
129000000000,129300000000,3608394906,0,75,0.002903,0.01917,0.02716,0.0002079,0.0003977,0.01941,5.722e-06,3.433e-05,0.06458,0.0002146,1.675,0.003189,0,0,0.003582
129300000000,129600000000,3608394906,0,75,0.002743,0.01901,0.02716,0.0002079,0.0003977,0.01926,9.537e-06,3.433e-05,0.06421,0.0002146,1.74,0.003331,0,0,0.002705
129600000000,129900000000,3608394906,0,75,0.002811,0.01898,0.02716,0.0001984,0.0003881,0.01907,3.815e-06,3.433e-05,0.06195,7.153e-05,1.798,0.003418,0,0,0.0006828
129900000000,130200000000,3608394906,0,75,0.004219,0.0192,0.02716,0.0002022,0.000392,0.01956,7.629e-06,3.433e-05,0.1162,0.0002861,1.84,0.00364,0,0,0.0002565
130200000000,130500000000,3608394906,0,75,0.002865,0.01904,0.02716,0.0002041,0.0003939,0.01926,4.768e-06,3.433e-05,0.06189,7.153e-05,1.816,0.003489,0,0,0.01727
130500000000,130800000000,3608394906,0,75,0.002911,0.01898,0.02716,0.0002012,0.000392,0.01907,4.768e-06,3.433e-05,0.06787,7.153e-05,1.859,0.003521,0,0,0.0003538
130800000000,131100000000,3608394906,0,75,0.003273,0.01913,0.02716,0.0002012,0.000391,0.01938,5.722e-06,3.433e-05,0.06763,0.0002861,1.93,0.003742,0,0,0.001005
141000000000,141300000000,3608394906,0,75,0.002842,0.01904,0.02716,0.0002375,0.0004272,0.01926,4.768e-06,3.529e-05,0.06714,7.153e-05,1.763,0.003288,0,0,0.0001736
141300000000,141600000000,3608394906,0,75,0.002819,0.01898,0.02716,0.0002394,0.0004292,0.01907,8.583e-06,3.529e-05,0.06543,0.0007858,1.763,0.003271,0,0,0.005859
141600000000,141900000000,3608394906,0,75,0.003117,0.0191,0.02716,0.0002413,0.000432,0.01938,5.722e-06,3.529e-05,0.06677,7.153e-05,1.791,0.003421,0,0,0.0004206
141900000000,142200000000,3608394906,0,75,0.002846,0.01904,0.02716,0.0002441,0.0004339,0.01926,5.722e-06,3.529e-05,0.06616,0.0001431,1.784,0.003341,0,0,0.0003176
142200000000,142500000000,3608394906,0,75,0.002831,0.01898,0.02716,0.000246,0.0004358,0.01907,5.722e-06,3.529e-05,0.06677,0.0002146,1.769,0.003278,0,0,0.0003204
142500000000,142800000000,3608394906,0,75,0.003914,0.01904,0.02716,0.000248,0.0004377,0.01953,5.722e-06,3.529e-05,0.07349,7.153e-05,1.768,0.003336,0,0,0.0003605
142800000000,143100000000,3608394906,0,75,0.002846,0.01898,0.02716,0.0002499,0.0004396,0.01907,6.676e-06,3.529e-05,0.06433,0.0005713,1.763,0.003277,0,0,0.06433
143100000000,143400000000,3608394906,0,75,0.004005,0.01917,0.02716,0.0002527,0.0004425,0.01941,9.537e-06,3.529e-05,0.07227,0.0002146,1.804,0.003496,0,0,0.0002527
143400000000,143700000000,3608394906,0,75,0.002857,0.01913,0.02716,0.0002556,0.0004454,0.01935,5.722e-06,3.529e-05,0.06836,7.153e-05,1.781,0.003369,0,0,0.003349
143700000000,144000000000,3608394906,0,75,0.002808,0.01904,0.02716,0.0002575,0.0004473,0.01913,4.768e-06,3.529e-05,0.06555,7.153e-05,1.794,0.003327,0,0,0.009399
144000000000,144300000000,3608394906,0,75,0.002796,0.01904,0.02716,0.0002584,0.0004492,0.01913,1.431e-05,3.529e-05,0.06055,0.002571,1.789,0.003307,0,0,0.0001955
144300000000,144600000000,3608394906,0,75,0.003902,0.01913,0.02716,0.0002604,0.0004511,0.01971,6.676e-06,3.529e-05,0.06726,0.0002861,1.768,0.003314,0,0,0.0002604
144600000000,144900000000,3608394906,0,75,0.002804,0.01904,0.02716,0.0002623,0.000452,0.01913,6.676e-06,3.529e-05,0.06122,0.0004282,1.764,0.003316,0,0,0.0005226
144900000000,145200000000,3608394906,0,75,0.003113,0.01913,0.02716,0.0002651,0.0004549,0.01941,4.768e-06,3.529e-05,0.0675,0.0001431,1.812,0.003494,0,0,0.000597
145200000000,145500000000,3608394906,0,75,0.002819,0.01904,0.02716,0.000268,0.0004578,0.01926,4.768e-06,3.529e-05,0.06787,0.0001431,1.764,0.003296,0,0,0.0003929
145500000000,145800000000,3608394906,0,75,0.002838,0.01895,0.02716,0.0002689,0.0004587,0.01907,5.722e-06,3.529e-05,0.06653,0.0001431,1.775,0.003363,0,0,0.0003881
145800000000,146100000000,3608394906,0,75,0.002831,0.01895,0.02716,0.0002708,0.0004606,0.01904,4.768e-06,3.529e-05,0.06909,0.0001431,1.786,0.003392,0,0,0.0003242
151200000000,151500000000,3608394906,0,75,0.003128,0.01917,0.02716,0.0002842,0.000474,0.01947,4.768e-06,3.529e-05,0.06287,0.0001431,1.807,0.003447,0,0,0.0005398
151500000000,151800000000,3608394906,0,75,0.003883,0.01913,0.02716,0.0002756,0.0004654,0.01981,5.722e-06,3.529e-05,0.0752,0.0001431,1.775,0.003319,0,0,0.0001965
151800000000,152100000000,3608394906,0,75,0.002808,0.01901,0.02716,0.0002756,0.0004654,0.0191,3.815e-06,3.529e-05,0.06348,7.153e-05,1.764,0.0033,0,0,0.00102
152100000000,152400000000,3608394906,0,75,0.002823,0.01901,0.02716,0.0002775,0.0004673,0.0191,5.722e-06,3.529e-05,0.06348,7.153e-05,1.774,0.003298,0,0,0.0001907
152400000000,152700000000,3608394906,0,75,0.003098,0.01913,0.02716,0.0002794,0.0004702,0.01947,1.812e-05,3.529e-05,0.06873,0.0005713,1.825,0.003494,0,0,0.0002804
152700000000,153000000000,3608394906,0,75,0.002819,0.01907,0.02716,0.0002823,0.0004721,0.01926,1.717e-05,3.529e-05,0.06836,0.0004997,1.821,0.003474,0,0,0.0001011
153000000000,153300000000,3608394906,0,75,0.002785,0.01901,0.02716,0.0002842,0.000474,0.0191,2.193e-05,3.529e-05,0.0647,0.0007143,1.802,0.003361,0,0,0.0002298
153300000000,153600000000,3608394906,0,75,0.003872,0.0191,0.02716,0.0002842,0.000474,0.01965,1.621e-05,3.529e-05,0.07129,0.0006428,1.827,0.003504,0,0,0.006866
153600000000,153900000000,3608394906,0,75,0.003113,0.01913,0.02716,0.0002823,0.0004721,0.01938,8.583e-06,3.529e-05,0.06348,0.0001431,1.739,0.003199,0,0,0.0002556
153900000000,154200000000,3608394906,0,75,0.003689,0.0191,0.02716,0.0002804,0.0004702,0.01926,1.717e-05,3.529e-05,0.06384,0.0003567,1.859,0.003678,0,0,0.0001011
154200000000,154500000000,3608394906,0,75,0.0028,0.01907,0.02716,0.0002823,0.0004721,0.01917,1.24e-05,3.529e-05,0.06714,0.0004997,1.821,0.00344,0,0,0.0003834
154500000000,154800000000,3608394906,0,75,0.002819,0.01907,0.02716,0.0002842,0.000474,0.01917,9.537e-06,3.529e-05,0.06799,0.001143,1.769,0.003345,0,0,0.0004873
154800000000,155100000000,3608394906,0,75,0.003139,0.01917,0.02716,0.0002861,0.0004759,0.01944,6.676e-06,3.529e-05,0.06921,0.0003567,1.57,0.002497,0,0,0.003143
155100000000,155400000000,3608394906,0,75,0.003937,0.0192,0.02716,0.0002861,0.0004759,0.01987,1.24e-05,3.529e-05,0.07764,0.0004997,1.88,0.003689,0,0,0.0002031
155400000000,155700000000,3608394906,0,75,0.002838,0.01901,0.02716,0.000288,0.0004778,0.01913,3.815e-06,3.529e-05,0.06665,0.0001431,1.798,0.003303,0,0,0.0001621
155700000000,156000000000,3608394906,0,75,0.002838,0.01901,0.02716,0.0002899,0.0004797,0.0191,4.768e-06,3.529e-05,0.06726,7.153e-05,1.778,0.00329,0,0,0.0004654
161100000000,161400000000,3608394906,0,75,0.003597,0.01904,0.02716,0.0003271,0.0005169,0.01926,1.24e-05,3.529e-05,0.08191,0.0009289,1.762,0.00333,0,0,0.0003185
161400000000,161700000000,3608394906,0,75,0.003124,0.01913,0.02716,0.0003271,0.0005169,0.01953,5.722e-06,3.529e-05,0.09827,0.0002146,1.792,0.003389,0,0,0.0004959
161700000000,162000000000,3608394906,0,75,0.002819,0.01907,0.02716,0.000329,0.0005188,0.01926,3.815e-06,3.529e-05,0.06433,7.153e-05,1.767,0.003286,0,0,0.0002871
162000000000,162300000000,3608394906,0,75,0.002796,0.01898,0.02716,0.00033,0.0005198,0.01907,4.768e-06,3.529e-05,0.06738,0.0001431,1.752,0.003251,0,0,0.0004768
162300000000,162600000000,3608394906,0,75,0.003826,0.01904,0.02716,0.0003319,0.0005217,0.01956,4.768e-06,3.529e-05,0.073,0.0002146,1.762,0.003274,0,0,0.0002003
162600000000,162900000000,3608394906,0,75,0.003109,0.0191,0.02716,0.0003347,0.0005245,0.01944,5.722e-06,3.529e-05,0.06653,0.0003567,1.777,0.00335,0,0,0.0002241
162900000000,163200000000,3608394906,0,75,0.002827,0.01907,0.02716,0.0003376,0.0005274,0.01926,4.768e-06,3.529e-05,0.06097,7.153e-05,1.762,0.00333,0,0,0.000597
163200000000,163500000000,3608394906,0,75,0.002785,0.01895,0.02716,0.0003395,0.0005293,0.01907,4.768e-06,3.529e-05,0.06506,0.0001431,1.57,0.00275,0,0,0.0001602
163500000000,163800000000,3608394906,0,75,0.002808,0.01895,0.02716,0.0003405,0.0005302,0.01907,4.768e-06,3.529e-05,0.06079,7.153e-05,1.761,0.003232,0,0,0.0001917
163800000000,164100000000,3608394906,0,75,0.003071,0.01907,0.02716,0.0003433,0.0005331,0.01938,4.768e-06,3.529e-05,0.06787,7.153e-05,1.767,0.003354,0,0,0.003239
164100000000,164400000000,3608394906,0,75,0.003838,0.01917,0.02716,0.0003462,0.000536,0.01981,1.049e-05,3.529e-05,0.07373,0.001785,1.761,0.00327,0,0,0.00378
164400000000,164700000000,3608394906,0,75,0.002796,0.01898,0.02716,0.0003481,0.0005379,0.01904,5.722e-06,3.529e-05,0.06934,0.0001431,1.763,0.003247,0,0,0.003792
164700000000,165000000000,3608394906,0,75,0.003628,0.01901,0.02716,0.00035,0.0005398,0.01929,1.24e-05,3.529e-05,0.06775,0.0009995,1.761,0.003287,0,0,0.00209
165000000000,165300000000,3608394906,0,75,0.002785,0.01904,0.02716,0.0003519,0.0005417,0.01917,4.768e-06,3.529e-05,0.05212,0.0001431,1.766,0.003303,0,0,0.0003567
165300000000,165600000000,3608394906,0,75,0.003078,0.01913,0.02716,0.0003548,0.0005445,0.01941,4.768e-06,3.529e-05,0.06384,7.153e-05,1.763,0.003353,0,0,0.001219
165600000000,165900000000,3608394906,0,75,0.002842,0.01907,0.02716,0.0003576,0.0005474,0.01926,4.768e-06,3.529e-05,0.06763,0.0001431,1.772,0.003277,0,0,0.000308
165900000000,166200000000,3608394906,0,75,0.004204,0.0192,0.02716,0.0003605,0.0005503,0.01968,6.676e-06,3.529e-05,0.07812,0.0004997,1.792,0.003431,0,0,0.0002842
166200000000,166500000000,3608394906,0,75,0.002808,0.01907,0.02716,0.0003633,0.0005531,0.01929,5.722e-06,3.529e-05,0.06799,0.0004997,1.73,0.003158,0,0,0.0002432
166500000000,166800000000,3608394906,0,75,0.002796,0.01898,0.02716,0.0003653,0.000555,0.01907,4.768e-06,3.529e-05,0.05975,0.0002146,1.756,0.003261,0,0,0.006012
166800000000,167100000000,3608394906,0,75,0.003082,0.0191,0.02716,0.0003672,0.0005569,0.01938,4.768e-06,3.529e-05,0.06311,7.153e-05,1.802,0.003451,0,0,0.0001698
167100000000,167400000000,3608394906,0,75,0.002811,0.01907,0.02716,0.00037,0.0005598,0.01926,4.768e-06,3.529e-05,0.06689,0.0001431,1.747,0.003287,0,0,0.0002346
167400000000,167700000000,3608394906,0,75,0.002777,0.01898,0.02716,0.0003719,0.0005617,0.01907,4.768e-06,3.529e-05,0.06543,0.0002146,1.752,0.003254,0,0,0.0004549
167700000000,168000000000,3608394906,0,75,0.004105,0.0192,0.02716,0.0003748,0.0005646,0.01965,4.768e-06,3.529e-05,0.07764,7.153e-05,1.776,0.00339,0,0,0.003975
168000000000,168300000000,3608394906,0,75,0.002781,0.01904,0.02716,0.0003777,0.0005674,0.01926,4.768e-06,3.529e-05,0.06,7.153e-05,1.751,0.003261,0,0,0.0001764
168300000000,168600000000,3608394906,0,75,0.003605,0.01901,0.02716,0.0003767,0.0005665,0.01923,1.907e-05,3.529e-05,0.06689,0.0007143,1.74,0.00326,0,0,0.0006094
168600000000,168900000000,3608394906,0,75,0.003078,0.01913,0.02716,0.0003796,0.0005693,0.01941,8.583e-06,3.529e-05,0.06702,0.0009995,1.781,0.003387,0,0,0.0003452
168900000000,169200000000,3608394906,0,75,0.002815,0.01907,0.02716,0.0003834,0.0005732,0.01926,5.722e-06,3.529e-05,0.06799,0.0004282,1.748,0.003277,0,0,0.0006275
169200000000,169500000000,3608394906,0,75,0.002834,0.01898,0.02716,0.0003834,0.0005732,0.01907,4.768e-06,3.529e-05,0.06812,0.0001431,1.803,0.00339,0,0,0.0003405
169500000000,169800000000,3608394906,0,75,0.004089,0.01917,0.02716,0.0003853,0.0005751,0.01956,1.431e-05,3.529e-05,0.07117,0.002857,1.796,0.003497,0,0,0.0006104
169800000000,170100000000,3608394906,0,75,0.002865,0.01907,0.02716,0.0003881,0.0005779,0.01929,8.583e-06,3.529e-05,0.06848,0.0001431,1.793,0.003347,0,0,0.000268
170100000000,170400000000,3608394906,0,75,0.003139,0.0191,0.02716,0.000391,0.0005808,0.01941,6.676e-06,3.529e-05,0.07446,0.0001431,1.829,0.003657,0,0,0.004005
170400000000,170700000000,3608394906,0,75,0.002811,0.01907,0.02716,0.0003929,0.0005836,0.01926,4.768e-06,3.529e-05,0.06433,0.0001431,1.749,0.003377,0,0,0.0005093
170700000000,171000000000,3608394906,0,75,0.002789,0.01898,0.02716,0.0003948,0.0005856,0.01907,4.768e-06,3.529e-05,0.06384,7.153e-05,1.557,0.002741,0,0,0.001038
171000000000,171300000000,3608394906,0,75,0.003044,0.01907,0.02716,0.0003977,0.0005875,0.01941,1.526e-05,3.529e-05,0.06665,0.0004282,1.752,0.003335,0,0,0.0004997
171300000000,171600000000,3608394906,0,75,0.003799,0.01917,0.02716,0.0004015,0.0005913,0.01978,8.583e-06,3.529e-05,0.07617,0.0003567,1.741,0.003271,0,0,0.001291
171600000000,171900000000,3608394906,0,75,0.002743,0.01901,0.02716,0.0004034,0.0005932,0.0191,1.144e-05,3.529e-05,0.06665,0.0002146,1.746,0.003296,0,0,0.0008974
171900000000,172200000000,3608394906,0,75,0.003853,0.01913,0.02716,0.0004063,0.000596,0.01947,3.529e-05,3.529e-05,0.07532,0.0006428,1.853,0.003625,0,0,0.04572
172200000000,172500000000,3608394906,0,75,0.002743,0.01913,0.02716,0.0004091,0.0005989,0.01932,5.722e-06,3.529e-05,0.06689,0.0001431,1.731,0.003264,0,0,0.0005264
172500000000,172800000000,3608394906,0,75,0.00272,0.01901,0.02716,0.000411,0.0006018,0.01913,1.24e-05,3.529e-05,0.06567,0.002285,1.73,0.003236,0,0,0.00135
172800000000,173100000000,3608394906,0,75,0.003017,0.0191,0.02716,0.0004129,0.0006037,0.01947,4.768e-06,3.529e-05,0.0741,7.153e-05,1.788,0.003413,0,0,0.0008717
173100000000,173400000000,3608394906,0,75,0.003757,0.01917,0.02716,0.0004168,0.0006065,0.01974,6.676e-06,3.529e-05,0.06909,0.0006428,1.739,0.003271,0,0,0.003101
173400000000,173700000000,3608394906,0,75,0.00272,0.01901,0.02716,0.0004177,0.0006084,0.01913,3.815e-06,3.529e-05,0.05945,0.0001431,1.747,0.003262,0,0,0.0006857
173700000000,174000000000,3608394906,0,75,0.003025,0.0191,0.02716,0.0004206,0.0006113,0.01953,5.722e-06,3.529e-05,0.06238,0.0002861,1.578,0.002837,0,0,0.0001287
174000000000,174300000000,3608394906,0,75,0.002743,0.0191,0.02716,0.0004234,0.0006132,0.01926,5.722e-06,3.529e-05,0.06433,0.0001431,1.748,0.003293,0,0,0.0002356
174300000000,174600000000,3608394906,0,75,0.00272,0.01898,0.02716,0.0004253,0.0006151,0.0191,4.768e-06,3.529e-05,0.0658,7.153e-05,1.734,0.003231,0,0,0.0001974
174600000000,174900000000,3608394906,0,75,0.003029,0.0191,0.02716,0.0004272,0.000618,0.0195,1.24e-05,3.529e-05,0.06726,0.002357,1.768,0.003399,0,0,0.0005951
174900000000,175200000000,3608394906,0,75,0.003719,0.01923,0.02716,0.0004311,0.0006218,0.01993,6.676e-06,3.529e-05,0.06714,0.0003567,1.737,0.003283,0,0,0.0007935
175200000000,175500000000,3608394906,0,75,0.00267,0.01901,0.02716,0.000433,0.0006227,0.0191,2.384e-05,3.529e-05,0.06677,0.0005713,1.798,0.003467,0,0,0.0003452
175500000000,175800000000,3608394906,0,75,0.003811,0.01913,0.02716,0.0004358,0.0006256,0.0195,2.575e-05,3.529e-05,0.06958,0.001358,1.79,0.003462,0,0,0.0002108
175800000000,176100000000,3608394906,0,75,0.00275,0.01913,0.02716,0.0004387,0.0006285,0.01932,5.722e-06,3.529e-05,0.06628,7.153e-05,1.73,0.003277,0,0,0.0002527
186300000000,186600000000,3608394906,0,75,0.003529,0.01917,0.02716,0.0005236,0.0007133,0.01932,1.144e-05,3.624e-05,0.08545,0.0006428,1.789,0.003482,0,0,0.00033
186600000000,186900000000,3608394906,0,75,0.002712,0.01907,0.02716,0.0005255,0.0007162,0.01917,6.676e-06,3.624e-05,0.06689,0.0001431,1.768,0.003311,0,0,0.0005093
186900000000,187200000000,3608394906,0,75,0.00301,0.0191,0.02716,0.0005283,0.0007181,0.01944,4.768e-06,3.624e-05,0.06653,0.0001431,1.496,0.00241,0,0,0.00346
187200000000,187500000000,3608394906,0,75,0.002728,0.0191,0.02716,0.0005312,0.000721,0.01929,4.768e-06,3.624e-05,0.06909,0.0002146,1.785,0.003485,0,0,0.0004606
187500000000,187800000000,3608394906,0,75,0.003696,0.01917,0.02716,0.0005331,0.0007229,0.01981,4.768e-06,3.624e-05,0.06958,0.0001431,1.732,0.003224,0,0,0.0008659
187800000000,188100000000,3608394906,0,75,0.002991,0.0191,0.02716,0.000535,0.0007248,0.01944,1.049e-05,3.624e-05,0.06689,0.001715,1.489,0.002435,0,0,0.003796
188100000000,188400000000,3608394906,0,75,0.002724,0.01913,0.02716,0.0005388,0.0007286,0.01929,3.815e-06,3.624e-05,0.06592,0.0001431,1.789,0.003459,0,0,0.0001965
188400000000,188700000000,3608394906,0,75,0.002686,0.01901,0.02716,0.0005398,0.0007296,0.0191,4.768e-06,3.624e-05,0.06653,0.0001431,1.702,0.003176,0,0,0.0003576
188700000000,189000000000,3608394906,0,75,0.002666,0.01901,0.02716,0.0005417,0.0007315,0.0191,4.768e-06,3.624e-05,0.0658,0.0001431,1.698,0.00318,0,0,0.0001602
189000000000,189300000000,3608394906,0,75,0.002964,0.01907,0.02716,0.0005436,0.0007334,0.01944,4.768e-06,3.624e-05,0.06219,0.0001431,1.472,0.002371,0,0,0.0002537
189300000000,189600000000,3608394906,0,75,0.003654,0.01926,0.02716,0.0005465,0.0007372,0.01999,6.676e-06,3.624e-05,0.06445,0.0005713,1.754,0.003475,0,0,0.0002098
189600000000,189900000000,3608394906,0,75,0.002678,0.01901,0.02716,0.0005484,0.0007381,0.0191,6.676e-06,3.624e-05,0.06702,0.0004282,1.691,0.003157,0,0,0.0001621
189900000000,190200000000,3608394906,0,75,0.003731,0.01913,0.02716,0.0005503,0.000741,0.01947,1.526e-05,3.624e-05,0.06848,0.0008574,1.379,0.002154,0,0,0.0004816
190200000000,190500000000,3608394906,0,75,0.002697,0.01917,0.02716,0.0005541,0.0007439,0.01935,4.768e-06,3.624e-05,0.0658,0.0001431,1.703,0.003175,0,0,0.02542
190500000000,190800000000,3608394906,0,75,0.002689,0.01901,0.02716,0.000556,0.0007458,0.01913,4.768e-06,3.624e-05,0.06799,0.0001431,1.705,0.003202,0,0,0.0002851
190800000000,191100000000,3608394906,0,75,0.002697,0.01901,0.02716,0.0005579,0.0007477,0.0191,4.768e-06,3.624e-05,0.06311,7.153e-05,1.714,0.003189,0,0,0.0002632
191100000000,191400000000,3608394906,0,75,0.003922,0.0192,0.02716,0.0005598,0.0007505,0.01965,1.526e-05,3.624e-05,0.07324,0.002857,1.726,0.00327,0,0,0.000493
191400000000,191700000000,3608394906,0,75,0.002708,0.01913,0.02716,0.0005627,0.0007524,0.01929,5.722e-06,3.624e-05,0.06653,0.0002146,1.546,0.002758,0,0,0.0006294
191700000000,192000000000,3608394906,0,75,0.002682,0.01901,0.02716,0.0005627,0.0007524,0.0191,6.676e-06,3.624e-05,0.06714,0.0002146,1.731,0.003219,0,0,0.0006924
192000000000,192300000000,3608394906,0,75,0.002964,0.01907,0.02716,0.0005627,0.0007534,0.01944,7.629e-06,3.624e-05,0.1019,0.0008574,1.734,0.003287,0,0,0.001135
192300000000,192600000000,3608394906,0,75,0.002697,0.01913,0.02716,0.0005655,0.0007553,0.01929,4.768e-06,3.624e-05,0.06152,0.0002146,1.722,0.00324,0,0,0.01208
192600000000,192900000000,3608394906,0,75,0.002663,0.01901,0.02716,0.0005674,0.0007572,0.0191,4.768e-06,3.624e-05,0.06665,7.153e-05,1.587,0.002866,0,0,0.0002174
192900000000,193200000000,3608394906,0,75,0.003891,0.0192,0.02716,0.0005703,0.0007601,0.01965,5.722e-06,3.624e-05,0.06604,0.0002146,1.695,0.003198,0,0,0.0001717
193200000000,193500000000,3608394906,0,75,0.002674,0.0191,0.02716,0.0005732,0.0007629,0.01929,4.768e-06,3.624e-05,0.06348,7.153e-05,1.693,0.003207,0,0,0.0001392
193500000000,193800000000,3608394906,0,75,0.003437,0.01904,0.02716,0.0005751,0.0007648,0.01932,1.526e-05,3.624e-05,0.07129,0.001286,1.689,0.003153,0,0,0.003567
193800000000,194100000000,3608394906,0,75,0.002941,0.0191,0.02716,0.000577,0.0007677,0.01944,4.768e-06,3.624e-05,0.06946,7.153e-05,1.62,0.00292,0,0,0.007782
194100000000,194400000000,3608394906,0,75,0.002682,0.0191,0.02716,0.0005808,0.0007706,0.01929,3.815e-06,3.624e-05,0.06445,7.153e-05,1.719,0.003217,0,0,0.0005426
194400000000,194700000000,3608394906,0,75,0.002651,0.01898,0.02716,0.0005817,0.0007725,0.01907,6.676e-06,3.624e-05,0.06628,0.0004997,1.68,0.003166,0,0,0.0002775
194700000000,195000000000,3608394906,0,75,0.003895,0.01913,0.02716,0.0005846,0.0007744,0.0195,1.335e-05,3.624e-05,0.06653,0.002857,1.72,0.003264,0,0,0.01257
195000000000,195300000000,3608394906,0,75,0.002674,0.01913,0.02716,0.0005875,0.0007772,0.01929,4.768e-06,3.624e-05,0.05963,7.153e-05,1.713,0.003246,0,0,0.0004349
195300000000,195600000000,3608394906,0,75,0.002666,0.01901,0.02716,0.0005894,0.0007792,0.01907,4.768e-06,3.624e-05,0.06067,7.153e-05,1.522,0.002693,0,0,0.01305
195600000000,195900000000,3608394906,0,75,0.002918,0.01907,0.02716,0.0005913,0.0007811,0.01938,5.722e-06,3.624e-05,0.06726,0.0002861,1.682,0.00317,0,0,0.001322
195900000000,196200000000,3608394906,0,75,0.002678,0.0191,0.02716,0.0005941,0.0007839,0.01926,4.768e-06,3.624e-05,0.06628,7.153e-05,1.7,0.003213,0,0,0.0002346
201300000000,201600000000,3608394906,0,75,0.002808,0.01913,0.02716,0.0005941,0.0007839,0.01932,6.676e-06,3.624e-05,0.06396,0.0006428,1.773,0.003452,0,0,0.0003633
201600000000,201900000000,3608394906,0,75,0.002739,0.01901,0.02716,0.0005951,0.0007849,0.0191,4.768e-06,3.624e-05,0.06146,7.153e-05,1.53,0.002674,0,0,0.0001774
201900000000,202200000000,3608394906,0,75,0.004051,0.01913,0.02716,0.000598,0.0007877,0.0195,7.629e-06,3.624e-05,0.12,0.0009995,1.728,0.003255,0,0,0.005226
202200000000,202500000000,3608394906,0,75,0.002823,0.01913,0.02716,0.0005999,0.0007906,0.01929,4.768e-06,3.624e-05,0.07031,7.153e-05,1.783,0.003399,0,0,0.002445
202500000000,202800000000,3608394906,0,75,0.002762,0.01898,0.02716,0.0006018,0.0007925,0.0191,4.768e-06,3.624e-05,0.06738,0.0001431,1.552,0.002742,0,0,0.0001822
202800000000,203100000000,3608394906,0,75,0.003105,0.01904,0.02716,0.0005894,0.0007792,0.01941,5.722e-06,3.624e-05,0.06604,0.0003567,1.753,0.00331,0,0,0.005096
203100000000,203400000000,3608394906,0,75,0.002941,0.0191,0.02716,0.0005865,0.0007772,0.01926,3.815e-06,3.624e-05,0.06824,0.0001431,1.84,0.003615,0,0,0.0006866
203400000000,203700000000,3608394906,0,75,0.002892,0.01898,0.02716,0.0005865,0.0007772,0.01907,4.768e-06,3.624e-05,0.07019,0.0001431,1.813,0.003486,0,0,0.0003033
203700000000,204000000000,3608394906,0,75,0.004868,0.0192,0.02716,0.0005856,0.0007753,0.01974,5.722e-06,3.624e-05,0.1289,0.0001431,1.788,0.003487,0,0,0.005119
204000000000,204300000000,3608394906,0,75,0.002777,0.0191,0.02716,0.0005836,0.0007734,0.01926,3.815e-06,3.624e-05,0.09583,0.0001431,1.735,0.003337,0,0,0.0002279
204300000000,204600000000,3608394906,0,75,0.003529,0.01901,0.02716,0.0005627,0.0007524,0.01932,2.384e-05,3.624e-05,0.07117,0.002071,1.735,0.003407,0,0,0.001238
204600000000,204900000000,3608394906,0,75,0.002995,0.0191,0.02716,0.0005541,0.0007448,0.0195,6.676e-06,3.624e-05,0.06763,0.0003567,1.744,0.003503,0,0,0.0003405
204900000000,205200000000,3608394906,0,75,0.00275,0.01917,0.02716,0.000555,0.0007458,0.01932,4.768e-06,3.624e-05,0.06714,0.0001431,1.786,0.003568,0,0,0.0003786
205200000000,205500000000,3608394906,0,75,0.002724,0.01901,0.02716,0.0005569,0.0007477,0.0191,4.768e-06,3.624e-05,0.06061,0.0001431,1.549,0.002778,0,0,0.0004702
205500000000,205800000000,3608394906,0,75,0.004005,0.01917,0.02716,0.0005589,0.0007496,0.01956,4.768e-06,3.624e-05,0.06567,0.0001431,1.732,0.003504,0,0,0.0004034
205800000000,206100000000,3608394906,0,75,0.002777,0.01913,0.02716,0.0005617,0.0007524,0.01929,5.722e-06,3.624e-05,0.06738,7.153e-05,1.739,0.003507,0,0,0.0004911
206100000000,206400000000,3608394906,0,75,0.002739,0.01901,0.02716,0.0005636,0.0007544,0.0191,6.676e-06,3.624e-05,0.06543,0.0002861,1.537,0.002817,0,0,0.003208
206400000000,206700000000,3608394906,0,75,0.003128,0.0191,0.02716,0.0005608,0.0007505,0.0195,2.861e-06,3.624e-05,0.06616,7.153e-05,1.804,0.003571,0,0,0.02029
206700000000,207000000000,3608394906,0,75,0.002796,0.01913,0.02716,0.0005589,0.0007496,0.01929,4.768e-06,3.624e-05,0.06299,7.153e-05,1.806,0.003554,0,0,0.0009155
207000000000,207300000000,3608394906,0,75,0.002766,0.01901,0.02716,0.0005598,0.0007496,0.0191,6.676e-06,3.624e-05,0.0658,0.0008574,1.53,0.002739,0,0,0.006714
207300000000,207600000000,3608394906,0,75,0.004051,0.01917,0.02716,0.000535,0.0007257,0.01953,5.722e-06,3.624e-05,0.06799,0.0001431,1.752,0.00347,0,0,0.0001497
207600000000,207900000000,3608394906,0,75,0.002769,0.01913,0.02716,0.0005217,0.0007124,0.01929,4.768e-06,3.624e-05,0.06494,0.0002146,1.571,0.002898,0,0,0.0001774
207900000000,208200000000,3608394906,0,75,0.003544,0.01904,0.02716,0.0005207,0.0007114,0.01935,1.24e-05,3.624e-05,0.06226,0.0007143,1.748,0.003405,0,0,0.005013
208200000000,208500000000,3608394906,0,75,0.003006,0.01913,0.02716,0.0005207,0.0007114,0.01944,6.676e-06,3.624e-05,0.06616,0.0001431,1.559,0.002881,0,0,0.0007467
208500000000,208800000000,3608394906,0,75,0.002728,0.01917,0.02716,0.0005236,0.0007143,0.01932,6.676e-06,3.624e-05,0.06244,0.0004997,1.757,0.003559,0,0,0.000432
208800000000,209100000000,3608394906,0,75,0.002743,0.01904,0.02716,0.0005236,0.0007143,0.01913,4.768e-06,3.624e-05,0.06714,0.0001431,1.747,0.003458,0,0,0.0003119
209100000000,209400000000,3608394906,0,75,0.004013,0.01917,0.02716,0.0005255,0.0007162,0.01956,5.722e-06,3.624e-05,0.1155,0.0001431,1.585,0.003073,0,0,0.003483
209400000000,209700000000,3608394906,0,75,0.002769,0.01917,0.02716,0.0005283,0.0007191,0.01932,5.722e-06,3.624e-05,0.06677,7.153e-05,1.777,0.00354,0,0,0.0002403
209700000000,210000000000,3608394906,0,75,0.002697,0.01901,0.02716,0.0005236,0.0007143,0.0191,5.722e-06,3.624e-05,0.06689,0.0002146,1.717,0.00344,0,0,0.0003223
210000000000,210300000000,3608394906,0,75,0.002956,0.01907,0.02716,0.0005255,0.0007162,0.01941,4.768e-06,3.624e-05,0.06641,7.153e-05,1.524,0.002878,0,0,0.0002222
210300000000,210600000000,3608394906,0,75,0.00275,0.01917,0.02716,0.0005217,0.0007114,0.01932,1.049e-05,3.624e-05,0.06665,0.0009995,1.737,0.003455,0,0,0.00425
210600000000,210900000000,3608394906,0,75,0.002651,0.01901,0.02716,0.0005217,0.0007124,0.0191,4.768e-06,3.624e-05,0.06604,0.0001431,1.525,0.002917,0,0,0.0003748
210900000000,211200000000,3608394906,0,75,0.003769,0.01917,0.02716,0.0005236,0.0007143,0.01978,1.049e-05,3.624e-05,0.08289,0.001572,1.71,0.003385,0,0,0.001329
211200000000,211500000000,3608394906,0,75,0.002991,0.01907,0.02716,0.0005255,0.0007162,0.01944,4.768e-06,3.624e-05,0.06299,0.0001431,1.553,0.002949,0,0,0.06299
211500000000,211800000000,3608394906,0,75,0.003548,0.0192,0.02716,0.0005274,0.0007181,0.01947,1.621e-05,3.624e-05,0.06531,0.002357,1.731,0.003455,0,0,0.003185
211800000000,212100000000,3608394906,0,75,0.003002,0.0191,0.02716,0.0005283,0.0007191,0.01941,9.537e-06,3.624e-05,0.07715,0.0009289,1.782,0.003728,0,0,0.0003309
212100000000,212400000000,3608394906,0,75,0.002758,0.01917,0.02716,0.0005322,0.0007229,0.01932,6.676e-06,3.624e-05,0.06049,0.0007858,1.75,0.003664,0,0,0.00296
212400000000,212700000000,3608394906,0,75,0.00272,0.01901,0.02716,0.0005341,0.0007238,0.01913,5.722e-06,3.624e-05,0.05695,0.0001431,1.541,0.002878,0,0,0.0008402
212700000000,213000000000,3608394906,0,75,0.004036,0.0192,0.02716,0.000536,0.0007267,0.01971,6.676e-06,3.624e-05,0.08679,7.153e-05,1.767,0.003693,0,0,0.004433
213000000000,213300000000,3608394906,0,75,0.002777,0.01913,0.02713,0.0005398,0.0007296,0.01929,7.629e-06,3.624e-05,0.06628,0.0002146,1.564,0.003009,0,0,0.0005388
213300000000,213600000000,3608394906,0,75,0.002827,0.01901,0.02716,0.0005417,0.0007324,0.0191,2.766e-05,3.624e-05,0.06384,0.001429,1.85,0.003679,0,0,0.0003004
213600000000,213900000000,3608394906,0,75,0.002842,0.01898,0.02716,0.0005436,0.0007334,0.0191,1.431e-05,3.624e-05,0.06287,0.002857,1.595,0.002971,0,0,0.0006485
213900000000,214200000000,3608394906,0,75,0.003006,0.01904,0.02716,0.0005455,0.0007353,0.01944,4.768e-06,3.624e-05,0.06409,0.0001431,1.719,0.003285,0,0,0.0001802
214200000000,214500000000,3608394906,0,75,0.002766,0.01917,0.02716,0.0005484,0.0007381,0.01932,4.768e-06,3.624e-05,0.06628,0.0001431,1.53,0.002716,0,0,0.0005436
214500000000,214800000000,3608394906,0,75,0.004066,0.01913,0.02716,0.0005503,0.000741,0.01968,5.722e-06,3.624e-05,0.09021,0.0001431,1.945,0.003645,0,0,0.0006104
214800000000,215100000000,3608394906,0,75,0.002735,0.0191,0.02716,0.0005541,0.0007439,0.01926,7.629e-06,3.624e-05,0.06616,0.0009995,1.511,0.002712,0,0,0.003426
215100000000,215400000000,3608394906,0,75,0.003777,0.01904,0.02716,0.000556,0.0007458,0.01953,1.335e-05,3.624e-05,0.06885,0.0008574,1.68,0.003166,0,0,0.0003271
215400000000,215700000000,3608394906,0,75,0.002728,0.01917,0.02716,0.0005598,0.0007496,0.01932,4.768e-06,3.624e-05,0.06604,7.153e-05,1.526,0.002728,0,0,0.0007401
215700000000,216000000000,3608394906,0,75,0.002735,0.01901,0.02716,0.0005617,0.0007515,0.0191,4.768e-06,3.624e-05,0.06396,0.0001431,1.723,0.00327,0,0,0.01276
216000000000,216300000000,3608394906,0,75,0.003101,0.01904,0.02716,0.0005636,0.0007534,0.01944,9.537e-06,3.624e-05,0.06085,0.001215,1.69,0.003125,0,0,0.0007563
221100000000,221400000000,3608394906,0,75,0.002819,0.01901,0.02716,0.0005159,0.0007067,0.0191,6.676e-06,3.624e-05,0.06836,0.0003567,1.82,0.003536,0,0,0.00322
221400000000,221700000000,3608394906,0,75,0.003086,0.01907,0.02716,0.0005159,0.0007057,0.01953,7.629e-06,3.624e-05,0.07263,0.0001431,1.782,0.003368,0,0,0.0002918
221700000000,222000000000,3608394906,0,75,0.003891,0.01929,0.02716,0.0005121,0.0007029,0.01987,5.722e-06,3.624e-05,0.06201,0.0001431,1.392,0.001903,0,0,0.0004854
222000000000,222300000000,3608394906,0,75,0.002831,0.01904,0.02716,0.0005102,0.0007,0.01913,5.722e-06,3.624e-05,0.06995,0.0002146,1.791,0.003385,0,0,0.0002556
222300000000,222600000000,3608394906,0,75,0.003906,0.01907,0.02716,0.0005093,0.0007,0.01947,2.48e-05,3.624e-05,0.06824,0.0009995,1.76,0.003447,0,0,0.0003748
222600000000,222900000000,3608394906,0,75,0.002819,0.01917,0.02716,0.0005093,0.000699,0.01932,1.049e-05,3.624e-05,0.06592,0.001286,1.783,0.003597,0,0,0.0002308
222900000000,223200000000,3608394906,0,75,0.00275,0.01901,0.02716,0.0005112,0.000701,0.0191,1.526e-05,3.624e-05,0.06604,0.002857,1.773,0.003466,0,0,0.000453
223200000000,223500000000,3608394906,0,75,0.003082,0.01904,0.02716,0.0005112,0.0007019,0.01944,4.768e-06,3.624e-05,0.06519,0.0001431,1.785,0.003452,0,0,0.0002136
223500000000,223800000000,3608394906,0,75,0.003922,0.01932,0.02716,0.0005093,0.0007,0.01999,6.676e-06,3.624e-05,0.06616,0.0003567,1.335,0.001703,0,0,0.0003967
223800000000,224100000000,3608394906,0,75,0.002819,0.01904,0.02716,0.0005102,0.000701,0.01917,4.768e-06,3.624e-05,0.06171,0.0001431,1.814,0.003458,0,0,0.0003872
224100000000,224400000000,3608394906,0,75,0.003143,0.01907,0.02716,0.0005121,0.0007029,0.01944,4.768e-06,3.624e-05,0.06323,7.153e-05,1.817,0.003542,0,0,0.008606
224400000000,224700000000,3608394906,0,75,0.002907,0.01917,0.02716,0.000514,0.0007048,0.01932,4.768e-06,3.624e-05,0.06067,0.0001431,1.847,0.00363,0,0,0.0002422
224700000000,225000000000,3608394906,0,75,0.002872,0.01901,0.02716,0.000515,0.0007057,0.01913,4.768e-06,3.624e-05,0.06274,0.0001431,1.82,0.003495,0,0,0.004646
225000000000,225300000000,3608394906,0,75,0.002869,0.01901,0.02716,0.0005159,0.0007067,0.01913,4.768e-06,3.624e-05,0.05969,7.153e-05,1.801,0.00348,0,0,0.0001793
225300000000,225600000000,3608394906,0,75,0.004211,0.01913,0.02716,0.0005188,0.0007095,0.01965,6.676e-06,3.624e-05,0.1069,0.0002861,1.361,0.001741,0,0,0.0006523
225600000000,225900000000,3608394906,0,75,0.002941,0.01917,0.02716,0.0005159,0.0007067,0.01929,3.815e-06,3.624e-05,0.06824,7.153e-05,1.852,0.003635,0,0,0.001318
225900000000,226200000000,3608394906,0,75,0.003738,0.01904,0.02713,0.000514,0.0007048,0.01935,1.144e-05,3.624e-05,0.0686,0.0009289,1.823,0.003556,0,0,0.0002337
226200000000,226500000000,3608394906,0,75,0.003193,0.0191,0.02713,0.000515,0.0007057,0.01947,4.768e-06,3.624e-05,0.06873,0.0001431,1.837,0.003567,0,0,0.0004368
226500000000,226800000000,3608394906,0,75,0.003025,0.0192,0.02713,0.0005178,0.0007086,0.01932,5.722e-06,3.624e-05,0.06836,7.153e-05,1.904,0.003905,0,0,0.0002069
226800000000,227100000000,3608394906,0,75,0.003262,0.01901,0.02716,0.0005188,0.0007095,0.0191,3.815e-06,3.624e-05,0.06897,7.153e-05,1.844,0.00374,0,0,0.0003338
227100000000,227400000000,3608394906,0,75,0.004189,0.01913,0.02713,0.0005217,0.0007114,0.01974,4.768e-06,3.624e-05,0.06641,7.153e-05,1.387,0.001838,0,0,0.0002966
227400000000,227700000000,3608394906,0,75,0.00296,0.01917,0.02716,0.0005236,0.0007143,0.01929,4.768e-06,3.624e-05,0.06055,7.153e-05,1.855,0.003731,0,0,0.006317
227700000000,228000000000,3608394906,0,75,0.002918,0.01898,0.02716,0.0005245,0.0007153,0.0191,1.049e-05,3.624e-05,0.0647,0.001858,1.629,0.002863,0,0,0.0002632
228000000000,228300000000,3608394906,0,75,0.002972,0.01898,0.02716,0.0005255,0.0007162,0.0191,4.768e-06,3.624e-05,0.06873,7.153e-05,1.817,0.003469,0,0,0.0003214
228300000000,228600000000,3608394906,0,75,0.003452,0.01901,0.02716,0.0005283,0.0007181,0.01938,6.676e-06,3.624e-05,0.06897,0.0005713,1.957,0.003433,0,0,0.0007992
228600000000,228900000000,3608394906,0,75,0.003647,0.01917,0.02713,0.0005312,0.000721,0.01935,5.722e-06,3.624e-05,0.07117,0.0003567,1.983,0.003707,0,0,0.0003967
228900000000,229200000000,3608394906,0,75,0.003822,0.0191,0.02716,0.0005331,0.0007238,0.01968,5.722e-06,3.624e-05,0.07129,0.0001431,1.419,0.001754,0,0,0.0002041
229200000000,229500000000,3608394906,0,75,0.003155,0.01901,0.02716,0.000535,0.0007248,0.0191,4.768e-06,3.624e-05,0.06946,0.0001431,1.93,0.003512,0,0,0.004158
229500000000,229800000000,3608394906,0,75,0.00425,0.01907,0.02713,0.0005369,0.0007267,0.01944,1.144e-05,3.624e-05,0.07263,0.0005713,1.939,0.003522,0,0,0.001192
229800000000,230100000000,3608394906,0,75,0.003075,0.0192,0.02713,0.0005293,0.00072,0.01932,5.722e-06,3.624e-05,0.06604,0.0002146,2.034,0.003805,0,0,0.0001593
230100000000,230400000000,3608394906,0,75,0.002964,0.01904,0.02716,0.0005236,0.0007143,0.01913,5.722e-06,3.624e-05,0.06799,0.0001431,1.902,0.003507,0,0,0.0003691
230400000000,230700000000,3608394906,0,75,0.00383,0.01907,0.02716,0.0005178,0.0007086,0.01959,5.722e-06,3.624e-05,0.06494,0.0002861,1.87,0.00351,0,0,0.007698
230700000000,231000000000,3608394906,0,75,0.003517,0.01926,0.02713,0.0005188,0.0007095,0.01984,4.768e-06,3.624e-05,0.06873,0.0001431,1.386,0.001763,0,0,0.001257
231000000000,231300000000,3608394906,0,75,0.002907,0.01904,0.02716,0.0005178,0.0007086,0.01913,4.768e-06,3.624e-05,0.06812,0.0001431,1.849,0.003521,0,0,0.0007391
231300000000,231600000000,3608394906,0,75,0.00322,0.01904,0.02716,0.0005207,0.0007105,0.01941,6.676e-06,3.624e-05,0.06848,0.0007143,1.819,0.003468,0,0,0.004875
231600000000,231900000000,3608394906,0,75,0.002995,0.01917,0.02716,0.0005236,0.0007133,0.01929,4.768e-06,3.719e-05,0.07092,0.0002146,1.918,0.00375,0,0,0.0023
231900000000,232200000000,3608394906,0,75,0.002953,0.01901,0.02716,0.0005255,0.0007153,0.0191,4.768e-06,3.719e-05,0.06909,0.0001431,1.853,0.003405,0,0,0.0002365
232200000000,232500000000,3608394906,0,75,0.004089,0.01904,0.02716,0.0005274,0.0007172,0.01968,4.768e-06,3.719e-05,0.1294,0.0002146,1.685,0.002823,0,0,0.007156
232500000000,232800000000,3608394906,0,75,0.003277,0.01923,0.02716,0.0005312,0.000721,0.01974,1.335e-05,3.719e-05,0.06812,0.001642,1.299,0.001562,0,0,0.0003071
232800000000,233100000000,3608394906,0,75,0.002876,0.01901,0.02716,0.0005322,0.0007229,0.0191,4.768e-06,3.719e-05,0.06921,7.153e-05,1.817,0.003454,0,0,0.0002251
233100000000,233400000000,3608394906,0,75,0.004051,0.01907,0.02716,0.0005341,0.0007248,0.01944,1.049e-05,3.719e-05,0.07141,0.0002861,1.823,0.003436,0,0,0.0002184
233400000000,233700000000,3608394906,0,75,0.003014,0.0192,0.02713,0.0005379,0.0007277,0.01929,4.768e-06,3.719e-05,0.06201,0.0001431,1.89,0.003638,0,0,0.00107
233700000000,234000000000,3608394906,0,75,0.002937,0.01901,0.02716,0.0005398,0.0007305,0.01913,5.722e-06,3.719e-05,0.0686,0.0004282,1.873,0.0034,0,0,0.0004787
234000000000,234300000000,3608394906,0,75,0.004303,0.01904,0.02716,0.0005417,0.0007315,0.01974,4.768e-06,3.719e-05,0.07812,7.153e-05,1.871,0.00343,0,0,0.0002022
234300000000,234600000000,3608394906,0,75,0.003242,0.01926,0.02716,0.0005445,0.0007353,0.01968,4.768e-06,3.719e-05,0.073,0.0001431,1.333,0.001646,0,0,0.000514
234600000000,234900000000,3608394906,0,75,0.002987,0.01904,0.02716,0.0005465,0.0007362,0.0191,6.676e-06,3.719e-05,0.06177,0.0003567,1.861,0.00344,0,0,0.01361
234900000000,235200000000,3608394906,0,75,0.003139,0.01904,0.02716,0.0005484,0.0007391,0.01913,6.676e-06,3.719e-05,0.06982,0.0007143,1.998,0.003514,0,0,0.0003653
235200000000,235500000000,3608394906,0,75,0.003494,0.01907,0.02716,0.0005503,0.0007401,0.01947,8.583e-06,3.719e-05,0.06958,0.0007143,2.015,0.003524,0,0,0.0008011
235500000000,235800000000,3608394906,0,75,0.003151,0.01917,0.02716,0.0005531,0.0007429,0.01929,4.768e-06,3.719e-05,0.06824,0.0001431,1.971,0.003759,0,0,0.0006857
235800000000,236100000000,3608394906,0,75,0.004227,0.01901,0.02716,0.000555,0.0007448,0.01974,6.676e-06,3.719e-05,0.06946,0.0005713,1.978,0.00353,0,0,0.0005617
236100000000,236400000000,3608394906,0,75,0.003365,0.01913,0.02716,0.0005569,0.0007477,0.01974,5.722e-06,3.719e-05,0.07043,0.0001431,1.384,0.001769,0,0,0.01111
241200000000,241500000000,3608394906,0,75,0.004204,0.01923,0.02716,0.0005598,0.0007496,0.01965,6.676e-06,3.719e-05,0.08459,0.0003567,2.001,0.003715,0,0,0.0004263
241500000000,241800000000,3608394906,0,75,0.00304,0.0191,0.02716,0.0005617,0.0007515,0.01965,4.768e-06,3.719e-05,0.07043,0.0001431,1.95,0.003447,0,0,0.0003204
241800000000,242100000000,3608394906,0,75,0.003368,0.01901,0.02716,0.0005627,0.0007534,0.01941,6.676e-06,3.719e-05,0.07715,0.0002861,1.879,0.003511,0,0,0.002541
242100000000,242400000000,3608394906,0,75,0.003056,0.0192,0.02716,0.0005665,0.0007563,0.01932,4.768e-06,3.719e-05,0.06372,0.0001431,1.948,0.003682,0,0,0.007919
242400000000,242700000000,3608394906,0,75,0.002949,0.01901,0.02716,0.0005636,0.0007544,0.0191,7.629e-06,3.719e-05,0.07056,0.0006428,1.845,0.003491,0,0,0.000246
242700000000,243000000000,3608394906,0,75,0.003326,0.01904,0.02716,0.0005541,0.0007439,0.01944,5.722e-06,3.719e-05,0.07495,7.153e-05,1.832,0.003414,0,0,0.0004168
243000000000,243300000000,3608394906,0,75,0.003269,0.01923,0.02716,0.0005569,0.0007467,0.0195,5.722e-06,3.719e-05,0.08154,0.0001431,1.877,0.003606,0,0,0.0005198
243300000000,243600000000,3608394906,0,75,0.00386,0.01917,0.02716,0.0005598,0.0007496,0.01965,2.289e-05,3.719e-05,0.07361,0.001572,1.535,0.002341,0,0,0.00367
243600000000,243900000000,3608394906,0,75,0.003006,0.01898,0.02716,0.0005608,0.0007505,0.0191,4.768e-06,3.719e-05,0.07141,0.0001431,1.853,0.003551,0,0,0.0003376
243900000000,244200000000,3608394906,0,75,0.004082,0.01904,0.02716,0.000556,0.0007458,0.01944,1.335e-05,3.719e-05,0.06262,0.0002861,1.86,0.00351,0,0,0.02228
244200000000,244500000000,3608394906,0,75,0.002979,0.01923,0.02713,0.0005255,0.0007162,0.01932,6.676e-06,3.719e-05,0.07153,0.0004997,1.895,0.003799,0,0,0.0005398
244500000000,244800000000,3608394906,0,75,0.002918,0.01901,0.02716,0.0005188,0.0007086,0.01913,6.676e-06,3.719e-05,0.06616,0.0002146,1.844,0.003588,0,0,0.004166
244800000000,245100000000,3608394906,0,75,0.004158,0.01904,0.02716,0.0005188,0.0007095,0.02011,9.537e-06,3.719e-05,0.1196,0.0007858,1.823,0.003488,0,0,0.0003967
245100000000,245400000000,3608394906,0,75,0.00301,0.01935,0.02713,0.0005198,0.0007095,0.02008,6.676e-06,3.719e-05,0.06982,0.0002146,1.857,0.003683,0,0,0.0005064
245400000000,245700000000,3608394906,0,75,0.002941,0.01904,0.02716,0.0005198,0.0007095,0.0192,6.676e-06,3.719e-05,0.06421,0.0002146,1.813,0.003458,0,0,0.0009089
245700000000,246000000000,3608394906,0,75,0.003231,0.01904,0.02716,0.0005198,0.0007105,0.01953,4.768e-06,3.719e-05,0.06189,7.153e-05,1.803,0.003404,0,0,0.0003328
246000000000,246300000000,3608394906,0,75,0.003056,0.0192,0.02716,0.0005226,0.0007133,0.01944,4.768e-06,3.719e-05,0.06897,0.0001431,1.847,0.003632,0,0,0.005417
251400000000,251700000000,3608394906,0,75,0.00301,0.0191,0.02716,0.0005541,0.0007448,0.01923,7.629e-06,3.719e-05,0.06799,0.0004282,1.836,0.003475,0,0,0.01143
251700000000,252000000000,3608394906,0,75,0.003002,0.0191,0.02716,0.0005569,0.0007467,0.0192,8.583e-06,3.719e-05,0.06885,0.0009289,1.841,0.003562,0,0,0.0003471
252000000000,252300000000,3608394906,0,75,0.004387,0.01923,0.02716,0.0005598,0.0007496,0.01993,6.676e-06,3.719e-05,0.06592,0.0002146,1.577,0.002576,0,0,0.0005226
252300000000,252600000000,3608394906,0,75,0.002953,0.01913,0.02716,0.0005617,0.0007515,0.01978,5.722e-06,3.719e-05,0.07056,7.153e-05,1.851,0.003713,0,0,0.0001116
252600000000,252900000000,3608394906,0,75,0.002819,0.01901,0.02716,0.0005627,0.0007524,0.01913,4.768e-06,3.719e-05,0.06775,7.153e-05,1.773,0.003501,0,0,0.0002251
252900000000,253200000000,3608394906,0,75,0.003132,0.0192,0.02716,0.0005598,0.0007496,0.0195,5.722e-06,3.719e-05,0.06702,0.0001431,1.798,0.003566,0,0,0.0006876
253200000000,253500000000,3608394906,0,75,0.002953,0.01904,0.02716,0.0005512,0.000741,0.01917,1.049e-05,3.719e-05,0.07104,0.0007143,1.854,0.003621,0,0,0.001505
253500000000,253800000000,3608394906,0,75,0.002956,0.01901,0.02716,0.0005522,0.0007429,0.0191,1.049e-05,3.719e-05,0.06873,0.0004282,1.822,0.003481,0,0,0.0001736
253800000000,254100000000,3608394906,0,75,0.003883,0.01904,0.02716,0.0005541,0.0007439,0.01956,4.768e-06,3.719e-05,0.0708,7.153e-05,1.779,0.003477,0,0,0.0001945
254100000000,254400000000,3608394906,0,75,0.003132,0.01923,0.02716,0.0005579,0.0007486,0.01978,5.722e-06,3.719e-05,0.1316,0.0001431,1.802,0.00357,0,0,0.0003119
254400000000,254700000000,3608394906,0,75,0.002918,0.01901,0.02716,0.0005598,0.0007496,0.0192,4.768e-06,3.719e-05,0.06824,0.0002861,1.8,0.003411,0,0,6.294e-05
254700000000,255000000000,3608394906,0,75,0.003849,0.01901,0.02716,0.0005617,0.0007515,0.01932,7.629e-06,3.719e-05,0.0885,0.0002861,1.816,0.003415,0,0,0.001057
255000000000,255300000000,3608394906,0,75,0.003006,0.01907,0.02716,0.0005636,0.0007544,0.01917,8.583e-06,3.719e-05,0.07068,0.001143,1.838,0.003405,0,0,0.0005093
255300000000,255600000000,3608394906,0,75,0.002953,0.01907,0.02716,0.0005665,0.0007563,0.01917,8.583e-06,3.719e-05,0.05585,0.0001431,1.872,0.003514,0,0,0.0009556
255600000000,255900000000,3608394906,0,75,0.004112,0.0191,0.02716,0.0005455,0.0007362,0.01974,5.722e-06,3.719e-05,0.07751,0.0002146,1.861,0.003592,0,0,0.0002832
255900000000,256200000000,3608394906,0,75,0.003292,0.01929,0.02716,0.0005293,0.00072,0.0199,6.676e-06,3.719e-05,0.07239,0.0002146,1.897,0.003762,0,0,0.003735
256200000000,256500000000,3608394906,0,75,0.002934,0.01904,0.02716,0.0005312,0.0007219,0.01929,6.676e-06,3.719e-05,0.06848,0.0004282,1.798,0.003351,0,0,0.0001392
256500000000,256800000000,3608394906,0,75,0.002918,0.01901,0.02716,0.0005341,0.0007238,0.01913,8.583e-06,3.719e-05,0.06897,0.0007143,1.803,0.003442,0,0,0.0001297
257700000000,258000000000,3608394906,0,75,0.003193,0.01923,0.02716,0.0005445,0.0007343,0.01962,6.676e-06,3.719e-05,0.06958,0.0001431,1.808,0.003581,0,0,0.001669
258000000000,258300000000,3608394906,0,75,0.00288,0.01901,0.02716,0.0005445,0.0007353,0.01929,9.537e-06,3.719e-05,0.0686,0.0003567,1.775,0.003424,0,0,0.0002956
258300000000,258600000000,3608394906,0,75,0.003647,0.01904,0.02713,0.0005407,0.0007315,0.01932,1.431e-05,3.719e-05,0.07336,0.0007143,1.81,0.003545,0,0,0.0002489
258600000000,258900000000,3608394906,0,75,0.00317,0.0192,0.02713,0.0005312,0.000721,0.01944,4.578e-05,3.719e-05,0.06982,0.002285,1.912,0.003888,0,0,0.0002718
258900000000,259200000000,3608394906,0,75,0.00309,0.01904,0.02713,0.0005207,0.0007105,0.01929,1.812e-05,3.719e-05,0.07056,0.0005713,1.914,0.003873,0,0,0.006607
259200000000,259500000000,3608394906,0,75,0.004227,0.01904,0.02716,0.0005178,0.0007086,0.01953,5.722e-06,3.719e-05,0.0647,0.0007858,1.878,0.003546,0,0,0.0009861
259500000000,259800000000,3608394906,0,75,0.003429,0.01923,0.02716,0.0005217,0.0007114,0.01962,7.629e-06,3.719e-05,0.06848,0.0002861,1.941,0.00395,0,0,0.003048
259800000000,260100000000,3608394906,0,75,0.003075,0.01901,0.02716,0.0005236,0.0007133,0.01926,5.722e-06,3.719e-05,0.0686,0.0002861,1.908,0.003698,0,0,0.06201
260100000000,260400000000,3608394906,0,75,0.00296,0.01898,0.02716,0.0005178,0.0007086,0.0191,6.676e-06,3.719e-05,0.06909,0.0002861,1.849,0.003721,0,0,0.000495
260400000000,260700000000,3608394906,0,75,0.002895,0.01898,0.02716,0.0005169,0.0007076,0.0191,9.537e-06,3.719e-05,0.07117,0.0003567,1.824,0.003741,0,0,0.001926
260700000000,261000000000,3608394906,0,75,0.003231,0.01917,0.02713,0.0005169,0.0007067,0.01938,2.098e-05,3.719e-05,0.06213,0.002644,1.896,0.004006,0,0,0.0005798
261000000000,261300000000,3608394906,0,75,0.00399,0.01904,0.02716,0.0005169,0.0007076,0.0195,1.144e-05,3.719e-05,0.06494,0.001572,1.846,0.003722,0,0,0.0007782
261300000000,261600000000,3608394906,0,75,0.00288,0.01907,0.02716,0.0005178,0.0007076,0.0195,5.722e-06,3.719e-05,0.0625,0.0001431,1.822,0.00372,0,0,0.0003481
261600000000,261900000000,3608394906,0,75,0.003227,0.0192,0.02713,0.0005178,0.0007086,0.01944,6.676e-06,3.719e-05,0.0636,0.0004997,1.896,0.004037,0,0,0.000967
261900000000,262200000000,3608394906,0,75,0.003738,0.01907,0.02713,0.0005188,0.0007086,0.01932,1.812e-05,3.719e-05,0.0708,0.001858,1.836,0.00373,0,0,0.0002346
262200000000,262500000000,3608394906,0,75,0.002895,0.01907,0.02716,0.0005198,0.0007105,0.01917,6.676e-06,3.719e-05,0.06799,0.0006428,1.813,0.003661,0,0,0.0002813
262500000000,262800000000,3608394906,0,75,0.002888,0.01907,0.02716,0.0005207,0.0007114,0.01917,1.24e-05,3.719e-05,0.06555,0.001358,1.82,0.003715,0,0,0.001249
262800000000,263100000000,3608394906,0,75,0.004242,0.01923,0.02713,0.0005236,0.0007143,0.01974,4.768e-06,3.719e-05,0.07568,0.0001431,1.894,0.004015,0,0,0.0007315
263100000000,263400000000,3608394906,0,75,0.002937,0.01913,0.02716,0.0005264,0.0007162,0.01974,4.768e-06,3.719e-05,0.0719,0.0001431,1.837,0.003772,0,0,0.01791
263400000000,263700000000,3608394906,0,75,0.002895,0.01904,0.02716,0.0005274,0.0007181,0.01913,9.537e-06,3.719e-05,0.07117,0.0007143,1.837,0.003732,0,0,0.0002804
263700000000,264000000000,3608394906,0,75,0.002872,0.01904,0.02716,0.0005293,0.00072,0.01913,5.722e-06,3.719e-05,0.06073,0.0002146,1.821,0.003736,0,0,0.000927
264000000000,264300000000,3608394906,0,75,0.002861,0.01904,0.02716,0.0005312,0.0007219,0.01913,4.768e-06,3.719e-05,0.07117,7.153e-05,1.822,0.003718,0,0,0.0003605
264300000000,264600000000,3608394906,0,75,0.003204,0.0192,0.02713,0.0005322,0.0007229,0.01941,7.629e-06,3.719e-05,0.06775,0.0003567,1.877,0.004034,0,0,0.0005255
264600000000,264900000000,3608394906,0,75,0.00386,0.01907,0.02716,0.0005341,0.0007238,0.01968,5.722e-06,3.719e-05,0.0708,0.0001431,1.794,0.003679,0,0,0.003616
264900000000,265200000000,3608394906,0,75,0.002892,0.01907,0.02716,0.000536,0.0007267,0.01959,4.768e-06,3.719e-05,0.07007,0.0001431,1.825,0.00373,0,0,0.0002708
265200000000,265500000000,3608394906,0,75,0.002934,0.01901,0.02716,0.000536,0.0007267,0.0191,7.629e-06,3.719e-05,0.06604,0.0006428,1.84,0.003729,0,0,0.0004301
265500000000,265800000000,3608394906,0,75,0.004028,0.0192,0.02713,0.0005388,0.0007286,0.01944,1.717e-05,3.719e-05,0.0719,0.001358,1.891,0.004009,0,0,0.0004911
265800000000,266100000000,3608394906,0,75,0.002907,0.01907,0.02716,0.0005407,0.0007315,0.01929,7.629e-06,3.719e-05,0.06824,0.0004282,1.807,0.003721,0,0,0.002975
266100000000,266400000000,3608394906,0,75,0.002907,0.01904,0.02716,0.0005426,0.0007334,0.0191,4.768e-06,3.719e-05,0.06958,0.0001431,1.818,0.003618,0,0,0.001476
266400000000,266700000000,3608394906,0,75,0.004173,0.01926,0.02716,0.0005465,0.0007362,0.02008,4.768e-06,3.719e-05,0.07129,0.0001431,1.861,0.003971,0,0,0.01155
266700000000,267000000000,3608394906,0,75,0.002876,0.01913,0.02716,0.0005484,0.0007391,0.01996,4.768e-06,3.719e-05,0.06128,0.0002146,1.82,0.003718,0,0,0.0006084
267000000000,267300000000,3608394906,0,75,0.002865,0.01898,0.02716,0.0005503,0.0007401,0.0191,6.676e-06,3.719e-05,0.06641,0.0003567,1.813,0.003733,0,0,0.0003624
267300000000,267600000000,3608394906,0,75,0.00317,0.01917,0.02716,0.0005531,0.0007439,0.01941,6.676e-06,3.719e-05,0.06946,0.0004282,1.856,0.003986,0,0,0.0003967
267600000000,267900000000,3608394906,0,75,0.002895,0.01901,0.02716,0.000555,0.0007458,0.01926,7.629e-06,3.719e-05,0.06812,0.0002861,1.812,0.003704,0,0,0.0001974
267900000000,268200000000,3608394906,0,75,0.002876,0.01898,0.02716,0.0005569,0.0007467,0.0191,5.722e-06,3.719e-05,0.06763,0.0002146,1.808,0.003677,0,0,0.0003576
268200000000,268500000000,3608394906,0,75,0.004326,0.01923,0.02716,0.0005598,0.0007505,0.01999,4.768e-06,3.719e-05,0.0791,0.0001431,1.917,0.003967,0,0,0.009277
268500000000,268800000000,3608394906,0,75,0.002987,0.01913,0.02716,0.0005627,0.0007524,0.01981,5.722e-06,3.719e-05,0.06531,0.0004282,1.869,0.003691,0,0,0.003944
268800000000,269100000000,3608394906,0,75,0.002972,0.01904,0.02716,0.0005636,0.0007544,0.01913,4.768e-06,3.719e-05,0.06958,0.0001431,1.857,0.003696,0,0,0.0002766
269100000000,269400000000,3608394906,0,75,0.00375,0.01904,0.02716,0.0005655,0.0007563,0.01929,8.583e-06,3.719e-05,0.09875,0.0004282,1.851,0.003693,0,0,0.000391
269400000000,269700000000,3608394906,0,75,0.002945,0.01907,0.02716,0.0005674,0.0007582,0.01917,4.768e-06,3.719e-05,0.05817,0.0001431,1.854,0.003659,0,0,0.001377
269700000000,270000000000,3608394906,0,75,0.002934,0.01907,0.02716,0.0005703,0.0007601,0.01917,5.722e-06,3.719e-05,0.06177,0.0001431,1.863,0.00366,0,0,0.0003834
270000000000,270300000000,3608394906,0,75,0.004295,0.01923,0.02716,0.0005722,0.0007629,0.01999,4.768e-06,3.719e-05,0.07129,0.0001431,1.919,0.00397,0,0,0.0004082
270300000000,270600000000,3608394906,0,75,0.002975,0.01913,0.02716,0.0005741,0.0007648,0.01987,6.676e-06,3.719e-05,0.06787,0.0006428,1.855,0.003692,0,0,0.0003643
270600000000,270900000000,3608394906,0,75,0.002975,0.01901,0.02716,0.0005732,0.0007629,0.0191,4.768e-06,3.719e-05,0.07117,0.0002146,1.863,0.003647,0,0,0.00592
270900000000,271200000000,3608394906,0,75,0.002937,0.01901,0.02716,0.0005751,0.0007648,0.01913,9.537e-06,3.719e-05,0.07007,0.0005713,1.832,0.003612,0,0,0.006332
271200000000,271500000000,3608394906,0,75,0.003296,0.0192,0.02716,0.000577,0.0007677,0.01947,4.768e-06,3.719e-05,0.07214,0.0001431,1.911,0.003939,0,0,0.0007048
281400000000,281700000000,3608394906,0,75,0.002556,0.01904,0.02716,0.0006094,0.0007992,0.01913,1.431e-05,3.815e-05,0.06726,0.001858,1.649,0.003319,0,0,0.001215
281700000000,282000000000,3608394906,0,75,0.002598,0.01904,0.02716,0.0006113,0.000802,0.01913,1.717e-05,3.815e-05,0.06763,0.002285,1.658,0.003354,0,0,0.000288
282000000000,282300000000,3608394906,0,75,0.002544,0.01904,0.02716,0.0006132,0.000803,0.01913,1.144e-05,3.815e-05,0.06348,0.001715,1.639,0.003281,0,0,0.0001783
282300000000,282600000000,3608394906,0,75,0.002842,0.01917,0.02716,0.0006161,0.0008059,0.01941,2.766e-05,3.815e-05,0.06219,0.002571,1.7,0.003511,0,0,0.004021
282600000000,282900000000,3608394906,0,75,0.003532,0.0191,0.02716,0.000618,0.0008078,0.01987,7.629e-06,3.815e-05,0.07642,0.0006428,1.644,0.00327,0,0,0.0002365
282900000000,283200000000,3608394906,0,75,0.002529,0.01907,0.02716,0.0006199,0.0008097,0.01956,2.384e-05,3.815e-05,0.06335,0.00243,1.645,0.003274,0,0,0.0002117
283200000000,283500000000,3608394906,0,75,0.002583,0.01901,0.02716,0.0006218,0.0008116,0.0191,1.144e-05,3.815e-05,0.0675,0.001715,1.644,0.003294,0,0,0.0005388
283500000000,283800000000,3608394906,0,75,0.003563,0.0192,0.02716,0.0006247,0.0008144,0.01941,2.289e-05,3.815e-05,0.07166,0.001999,1.684,0.003463,0,0,0.003273
283800000000,284100000000,3608394906,0,75,0.00259,0.0191,0.02716,0.0006266,0.0008173,0.01935,1.717e-05,3.815e-05,0.06677,0.001928,1.651,0.003334,0,0,0.0004845
284100000000,284400000000,3608394906,0,75,0.002567,0.01907,0.02716,0.0006294,0.0008192,0.01917,9.537e-06,3.815e-05,0.06689,0.001499,1.638,0.003285,0,0,0.0001993
284400000000,284700000000,3608394906,0,75,0.003792,0.01926,0.02716,0.0006313,0.0008211,0.01999,4.768e-06,3.815e-05,0.08362,0.0002146,1.67,0.003463,0,0,0.0003548
284700000000,285000000000,3608394906,0,75,0.002563,0.01913,0.02716,0.0006342,0.000824,0.01974,1.526e-05,3.815e-05,0.06506,0.002857,1.677,0.003349,0,0,0.001579
285000000000,285300000000,3608394906,0,75,0.002552,0.01901,0.02716,0.0006351,0.0008259,0.01913,1.24e-05,3.815e-05,0.06604,0.001286,1.652,0.003283,0,0,0.0009193
285300000000,285600000000,3608394906,0,75,0.002605,0.01901,0.02716,0.000638,0.0008278,0.01913,6.676e-06,3.815e-05,0.06824,0.0007858,1.652,0.003293,0,0,0.0001926
285600000000,285900000000,3608394906,0,75,0.00285,0.01917,0.02716,0.0006399,0.0008307,0.0195,2.67e-05,3.815e-05,0.06665,0.00243,1.664,0.003459,0,0,0.003345
285900000000,286200000000,3608394906,0,75,0.002609,0.01904,0.02716,0.0006428,0.0008326,0.01929,1.144e-05,3.815e-05,0.06311,0.001572,1.62,0.003311,0,0,0.001032
286200000000,286500000000,3608394906,0,75,0.003536,0.01904,0.02716,0.0006437,0.0008345,0.01959,5.722e-06,3.815e-05,0.07019,0.0001431,1.66,0.003387,0,0,0.0004168
286500000000,286800000000,3608394906,0,75,0.002552,0.01904,0.02716,0.0006466,0.0008364,0.01929,3.433e-05,3.815e-05,0.06189,0.002857,1.649,0.003367,0,0,0.000246
286800000000,287100000000,3608394906,0,75,0.002842,0.01917,0.02716,0.0006495,0.0008392,0.01944,1.144e-05,3.815e-05,0.06604,0.001358,1.494,0.002879,0,0,0.0003901
287100000000,287400000000,3608394906,0,75,0.003357,0.01907,0.02716,0.0006514,0.0008411,0.01929,2.575e-05,3.815e-05,0.07104,0.00243,1.683,0.003491,0,0,0.0003824
287400000000,287700000000,3608394906,0,75,0.002609,0.01907,0.02716,0.0006475,0.0008373,0.01917,3.147e-05,3.815e-05,0.06494,0.002857,1.654,0.003392,0,0,0.0003834
287700000000,288000000000,3608394906,0,75,0.002895,0.0192,0.02716,0.0006409,0.0008307,0.01947,2.003e-05,3.815e-05,0.06287,0.002644,1.437,0.002535,0,0,0.005692
288000000000,288300000000,3608394906,0,75,0.003624,0.01913,0.02716,0.0006428,0.0008335,0.01953,1.24e-05,3.815e-05,0.06543,0.001286,1.712,0.003627,0,0,0.0002747
288300000000,288600000000,3608394906,0,75,0.002594,0.01907,0.02716,0.0006447,0.0008354,0.01926,5.722e-06,3.815e-05,0.06848,0.0002861,1.658,0.003417,0,0,0.001171
288600000000,288900000000,3608394906,0,75,0.002876,0.01917,0.02716,0.0006475,0.0008383,0.01941,1.335e-05,3.815e-05,0.06335,0.001642,1.42,0.002539,0,0,0.0006123
288900000000,289200000000,3608394906,0,75,0.002636,0.01901,0.02716,0.0006504,0.0008402,0.01926,4.768e-06,3.815e-05,0.06531,7.153e-05,1.72,0.003634,0,0,0.000185
289200000000,289500000000,3608394906,0,75,0.002602,0.01898,0.02716,0.0006523,0.0008421,0.01907,8.583e-06,3.815e-05,0.06616,0.001143,1.655,0.003437,0,0,0.0003576
289500000000,289800000000,3608394906,0,75,0.002621,0.01898,0.02716,0.0006533,0.000844,0.01907,5.722e-06,3.815e-05,0.06335,0.0002146,1.647,0.003421,0,0,0.00795
289800000000,290100000000,3608394906,0,75,0.004532,0.01923,0.02716,0.0006561,0.0008459,0.02008,5.722e-06,3.815e-05,0.07922,0.0002861,1.419,0.002514,0,0,0.007393
290100000000,290400000000,3608394906,0,75,0.002693,0.01913,0.02716,0.000659,0.0008497,0.01978,9.537e-06,3.815e-05,0.06738,0.001642,1.755,0.003638,0,0,0.01651
290400000000,290700000000,3608394906,0,75,0.002701,0.01901,0.02716,0.0006609,0.0008507,0.0191,9.537e-06,3.815e-05,0.05658,0.0009995,1.692,0.003356,0,0,0.0003443
290700000000,291000000000,3608394906,0,75,0.003448,0.01904,0.02716,0.0006609,0.0008507,0.01926,2.003e-05,3.815e-05,0.07068,0.002071,1.717,0.003396,0,0,0.001276
291000000000,291300000000,3608394906,0,75,0.002911,0.0192,0.02716,0.0006599,0.0008497,0.01947,1.144e-05,3.815e-05,0.06567,0.001928,1.416,0.002522,0,0,0.008743
291300000000,291600000000,3608394906,0,75,0.00272,0.01907,0.02716,0.0006628,0.0008526,0.01929,1.526e-05,3.815e-05,0.06677,0.002499,1.759,0.003659,0,0,0.0002079
291600000000,291900000000,3608394906,0,75,0.003689,0.01907,0.02716,0.0006638,0.0008545,0.01974,2.003e-05,3.815e-05,0.08032,0.002857,1.69,0.003377,0,0,0.0007372
291900000000,292200000000,3608394906,0,75,0.002975,0.0192,0.02716,0.0006666,0.0008564,0.01947,2.003e-05,3.815e-05,0.06787,0.002857,1.433,0.002423,0,0,0.0001383
292200000000,292500000000,3608394906,0,75,0.002728,0.01904,0.02716,0.0006666,0.0008574,0.01926,1.431e-05,3.815e-05,0.06714,0.002998,1.691,0.003449,0,0,0.0004578
292500000000,292800000000,3608394906,0,75,0.002686,0.01898,0.02716,0.0006695,0.0008593,0.0191,3.052e-05,3.815e-05,0.06519,0.002644,1.698,0.003423,0,0,0.002792
292800000000,293100000000,3608394906,0,75,0.002651,0.01898,0.02716,0.0006704,0.0008602,0.0191,1.526e-05,3.815e-05,0.05975,0.001715,1.695,0.003443,0,0,0.0002508
293100000000,293400000000,3608394906,0,75,0.002956,0.01913,0.02716,0.0006733,0.0008631,0.01947,1.431e-05,3.815e-05,0.07336,0.001286,1.709,0.003503,0,0,0.0002956
293400000000,293700000000,3608394906,0,75,0.003757,0.01907,0.02716,0.0006752,0.000865,0.01959,7.629e-06,3.815e-05,0.0686,0.0009289,1.713,0.003471,0,0,0.0006037
293700000000,294000000000,3608394906,0,75,0.002674,0.01901,0.02716,0.0006781,0.0008678,0.01929,1.24e-05,3.815e-05,0.0675,0.0007858,1.706,0.003456,0,0,0.0004044
294000000000,294300000000,3608394906,0,75,0.003029,0.01913,0.02716,0.00068,0.0008698,0.01941,1.431e-05,3.815e-05,0.06982,0.001928,1.732,0.003597,0,0,0.000205
294300000000,294600000000,3608394906,0,75,0.003506,0.01907,0.02716,0.0006828,0.0008726,0.01926,2.384e-05,3.815e-05,0.06897,0.001642,1.711,0.003462,0,0,0.0004025
294600000000,294900000000,3608394906,0,75,0.002655,0.01907,0.02716,0.0006847,0.0008745,0.0192,1.049e-05,3.815e-05,0.06085,0.001499,1.682,0.003368,0,0,0.0002985
294900000000,295200000000,3608394906,0,75,0.002689,0.01904,0.02716,0.0006866,0.0008764,0.01917,2.289e-05,3.815e-05,0.06653,0.002571,1.687,0.003398,0,0,0.0006971
295200000000,295500000000,3608394906,0,75,0.003704,0.0191,0.02716,0.0006886,0.0008783,0.01981,8.583e-06,3.815e-05,0.0675,0.001072,1.714,0.003427,0,0,0.06604
295500000000,295800000000,3608394906,0,75,0.003052,0.0192,0.02716,0.0006914,0.0008812,0.01944,1.144e-05,3.815e-05,0.06592,0.002071,1.77,0.003627,0,0,0.0008488
295800000000,296100000000,3608394906,0,75,0.002731,0.01904,0.02716,0.0006905,0.0008802,0.01929,1.144e-05,3.815e-05,0.06274,0.002071,1.699,0.003473,0,0,0.0007448
296100000000,296400000000,3608394906,0,75,0.002705,0.01901,0.02716,0.0006876,0.0008783,0.0191,1.049e-05,3.815e-05,0.06689,0.0009289,1.707,0.003429,0,0,0.00149
296400000000,296700000000,3608394906,0,75,0.00296,0.01917,0.02716,0.0006905,0.0008802,0.01941,1.144e-05,3.815e-05,0.06799,0.002357,1.727,0.003521,0,0,0.001205
296700000000,297000000000,3608394906,0,75,0.002705,0.01904,0.02716,0.0006924,0.0008821,0.01929,6.676e-06,3.815e-05,0.06299,0.0004997,1.722,0.003465,0,0,0.000185
297000000000,297300000000,3608394906,0,75,0.003719,0.01907,0.02716,0.0006943,0.0008841,0.01987,5.722e-06,3.815e-05,0.1157,0.0003567,1.701,0.003398,0,0,0.01434
297300000000,297600000000,3608394906,0,75,0.003021,0.01923,0.02716,0.0006981,0.0008879,0.01956,1.049e-05,3.815e-05,0.06946,0.001286,1.758,0.003593,0,0,0.0004492
297600000000,297900000000,3608394906,0,75,0.002747,0.01907,0.02716,0.000699,0.0008898,0.01932,8.583e-06,3.815e-05,0.06775,0.001072,1.714,0.003492,0,0,0.001675
297900000000,298200000000,3608394906,0,75,0.003525,0.01907,0.02716,0.0006905,0.0008802,0.01935,1.812e-05,3.815e-05,0.06812,0.002357,1.701,0.003428,0,0,0.0006838
298200000000,298500000000,3608394906,0,75,0.002747,0.0191,0.02716,0.0006886,0.0008783,0.01923,1.144e-05,3.815e-05,0.06232,0.001715,1.704,0.003428,0,0,0.0001793
298500000000,298800000000,3608394906,0,75,0.003002,0.01917,0.02716,0.0006914,0.0008812,0.01947,1.144e-05,3.815e-05,0.0658,0.002071,1.711,0.003512,0,0,0.01544
298800000000,299100000000,3608394906,0,75,0.003738,0.01913,0.02716,0.0006933,0.0008831,0.01974,4.768e-06,3.815e-05,0.07288,7.153e-05,1.711,0.003356,0,0,0.0007553
299100000000,299400000000,3608394906,0,75,0.00272,0.01907,0.02716,0.0006952,0.000885,0.01944,1.526e-05,3.815e-05,0.06079,0.002499,1.691,0.003293,0,0,0.0002546
299400000000,299700000000,3608394906,0,75,0.003006,0.01917,0.02716,0.0006981,0.0008879,0.01944,1.24e-05,3.815e-05,0.06982,0.001215,1.744,0.003535,0,0,0.0004101
299700000000,300000000000,3608394906,0,75,0.002731,0.01907,0.02716,0.000701,0.0008907,0.01929,7.629e-06,3.815e-05,0.06036,0.0005713,1.663,0.003206,0,0,0.0001917
