5700000000,6000000000,3717263313,0,4777372198,0.004707,0.008209,0.01358,0.0009995,0.003666,0.008224,2.67e-05,2.766e-05,0.03137,0.002213,3.094,0.007325,0,1,0
6000000000,6300000000,3717263313,0,4777372198,0.005058,0.008209,0.01358,0.001013,0.003681,0.00824,2.766e-05,2.766e-05,0.02945,0.002357,3.19,0.007884,0,1,0
6300000000,6600000000,3717263313,0,4777372198,0.005188,0.008209,0.01358,0.001028,0.003696,0.008224,2.384e-05,2.766e-05,0.03174,0.001072,2.962,0.006876,0,1,0
6600000000,6900000000,3717263313,0,4777372198,0.004807,0.008194,0.01358,0.00104,0.003708,0.008224,2.193e-05,2.766e-05,0.05853,0.0009995,3.116,0.007698,0,1,0
6900000000,7200000000,3717263313,0,4777372198,0.005089,0.008209,0.01358,0.0007162,0.003384,0.00824,4.292e-05,2.766e-05,0.02814,0.002213,2.952,0.00697,0,1,0
7200000000,7500000000,3717263313,0,4777372198,0.004692,0.008224,0.01358,0.0005808,0.003246,0.008255,2.956e-05,2.766e-05,0.04175,0.001499,3.009,0.007359,0,1,0
7500000000,7800000000,3717263313,0,4777372198,0.004913,0.008209,0.01358,0.000596,0.003262,0.008224,2.098e-05,2.766e-05,0.03357,0.0007143,3.099,0.007774,0,1,0
7800000000,8100000000,3717263313,0,4777372198,0.004654,0.008209,0.01358,0.0006123,0.003277,0.008224,3.529e-05,2.766e-05,0.03485,0.003429,3.169,0.008551,0,1,0
8100000000,8400000000,3717263313,0,4777372198,0.00489,0.008209,0.01358,0.0006275,0.003292,0.008224,1.621e-05,2.766e-05,0.04169,0.0007858,2.884,0.00672,0,1,0
8400000000,8700000000,3717263313,0,4777372198,0.00489,0.008209,0.01358,0.0006418,0.003307,0.008224,2.48e-05,2.766e-05,0.04297,0.002285,3.208,0.008306,0,1,0
8700000000,9000000000,3717263313,0,4777372198,0.005096,0.008209,0.01358,0.0006571,0.003323,0.00827,2.384e-05,2.861e-05,0.05969,0.001499,3.319,0.009036,0,1,0
9000000000,9300000000,3717263313,0,4777372198,0.00499,0.008224,0.01358,0.0006723,0.003338,0.008255,4.768e-05,2.861e-05,0.05103,0.003716,3.032,0.007783,0,1,0
9300000000,9600000000,3717263313,0,4777372198,0.004837,0.008224,0.01358,0.0006876,0.003353,0.008286,3.719e-05,2.861e-05,0.03424,0.002716,3.11,0.007979,0,1,0
9600000000,9900000000,3717263313,0,4777372198,0.004921,0.008224,0.01358,0.0007019,0.003368,0.00824,4.387e-05,2.861e-05,0.03638,0.003284,2.897,0.007805,0,1,0
9900000000,10200000000,3717263313,0,4777372198,0.005188,0.00824,0.01358,0.0007143,0.00338,0.008286,2.575e-05,2.861e-05,0.04889,0.001642,3.103,0.007533,0,1,0
10200000000,10500000000,3717263313,0,4777372198,0.004936,0.00824,0.01358,0.0007267,0.003395,0.00827,2.384e-05,2.861e-05,0.03,0.0004997,2.987,0.007515,0,1,0
10500000000,10800000000,3717263313,0,4777372198,0.004807,0.00824,0.01358,0.0007305,0.003399,0.00827,3.815e-05,2.861e-05,0.04315,0.001429,3.075,0.008414,0,1,0
10800000000,11100000000,3717263313,0,4777372198,0.004929,0.00824,0.01358,0.0007448,0.00341,0.008286,2.861e-05,2.861e-05,0.03113,0.001999,2.738,0.006627,0,1,0
11100000000,11400000000,3717263313,0,4777372198,0.004944,0.008224,0.01358,0.0007591,0.003426,0.008255,2.289e-05,2.861e-05,0.04126,0.0004282,2.821,0.006763,0,1,0
11400000000,11700000000,3717263313,0,4777372198,0.004898,0.00824,0.01358,0.0007668,0.003433,0.008286,3.242e-05,2.861e-05,0.0332,0.001785,2.958,0.007453,0,1,0
11700000000,12000000000,3717263313,0,4777372198,0.005302,0.008224,0.01358,0.0007782,0.003445,0.008286,2.575e-05,2.861e-05,0.1029,0.001928,3.128,0.007589,0,1,0
12000000000,12300000000,3717263313,0,4777372198,0.004936,0.008209,0.01358,0.0007925,0.00346,0.00824,2.575e-05,2.861e-05,0.03931,0.002357,2.641,0.006295,0,1,0
12300000000,12600000000,3717263313,0,4777372198,0.004929,0.008209,0.01358,0.0008078,0.003475,0.008255,2.193e-05,2.861e-05,0.05597,0.001572,2.822,0.007009,0,1,0
12600000000,12900000000,3717263313,0,4777372198,0.004982,0.008224,0.01358,0.0008039,0.003471,0.008286,3.719e-05,2.861e-05,0.04419,0.002644,2.665,0.006321,0,1,0
12900000000,13200000000,3717263313,0,4777372198,0.004921,0.008224,0.01358,0.0008183,0.003483,0.00824,3.052e-05,2.861e-05,0.06311,0.002499,2.962,0.007214,0,1,0
13200000000,13500000000,3717263313,0,4777372198,0.004776,0.008209,0.01358,0.0008287,0.003494,0.00824,2.956e-05,2.861e-05,0.06171,0.001572,2.926,0.007545,0,1,0
13500000000,13800000000,3717263313,0,4777372198,0.004501,0.008209,0.01358,0.000843,0.00351,0.008255,2.289e-05,2.861e-05,0.05554,0.0008574,3.111,0.008199,0,1,0
13800000000,14100000000,3717263313,0,4777372198,0.005089,0.00824,0.01358,0.0008554,0.003521,0.008316,3.147e-05,2.861e-05,0.03839,0.002499,2.885,0.007079,0,1,0
14100000000,14400000000,3717263313,0,4777372198,0.004356,0.00827,0.01358,0.0008688,0.003536,0.008286,2.003e-05,2.861e-05,0.02087,0.0003567,2.99,0.007527,0,1,0
14400000000,14700000000,3717263313,0,4777372198,0.004509,0.00824,0.01358,0.0008812,0.003548,0.00827,2.289e-05,2.861e-05,0.02451,0.0008574,2.979,0.007535,0,1,0
14700000000,15000000000,3717263313,0,4777372198,0.00441,0.008224,0.01358,0.0008955,0.003563,0.00824,2.098e-05,2.861e-05,0.02252,0.001215,2.857,0.006759,0,1,0
15000000000,15300000000,3717263313,0,4777372198,0.004646,0.00824,0.01358,0.0008984,0.003567,0.008286,2.384e-05,2.861e-05,0.03265,0.0009995,3.186,0.007978,0,1,0
15300000000,15600000000,3717263313,0,4777372198,0.004478,0.008224,0.01358,0.0009079,0.003574,0.00824,2.575e-05,2.956e-05,0.03394,0.001572,3.151,0.00777,0,1,0
15600000000,15900000000,3717263313,0,4777372198,0.004738,0.008224,0.01358,0.0009203,0.003586,0.00824,3.147e-05,2.956e-05,0.04443,0.001858,2.794,0.006536,0,1,0
15900000000,16200000000,3717263313,0,4777372198,0.004303,0.008255,0.01358,0.0009289,0.003593,0.00827,3.242e-05,2.956e-05,0.02466,0.001499,3.008,0.007766,0,1,0
16200000000,16500000000,3717263313,0,4777372198,0.004944,0.00824,0.01358,0.0009327,0.003597,0.008255,4.005e-05,2.956e-05,0.03564,0.003071,3.138,0.007447,0,1,0
16500000000,16800000000,3717263313,0,4777372198,0.004997,0.00824,0.01358,0.0009432,0.003609,0.00827,3.719e-05,2.956e-05,0.05292,0.002285,3.186,0.007218,0,1,0
16800000000,17100000000,3717263313,0,4777372198,0.005203,0.00824,0.01358,0.0009575,0.003624,0.008286,3.147e-05,2.956e-05,0.0462,0.002499,3.16,0.007584,0,1,0
17100000000,17400000000,3717263313,0,4777372198,0.004662,0.008224,0.01358,0.0009718,0.003639,0.008255,2.575e-05,2.956e-05,0.0401,0.0008574,3.416,0.008879,0,1,0
17400000000,17700000000,3717263313,0,4777372198,0.004517,0.008179,0.01358,0.0009861,0.003651,0.008209,2.48e-05,2.956e-05,0.04071,0.001928,3.263,0.007533,0,1,0
17700000000,18000000000,3717263313,0,4777372198,0.005669,0.008194,0.01358,0.001001,0.003666,0.008255,2.48e-05,2.956e-05,0.03632,0.001072,3.043,0.006635,0,1,0
18000000000,18300000000,3717263313,0,4777372198,0.006104,0.008209,0.01358,0.001017,0.003681,0.00824,3.529e-05,2.956e-05,0.05511,0.001999,2.801,0.006141,0,1,0
18300000000,18600000000,3717263313,0,4777372198,0.005417,0.008209,0.01358,0.001032,0.0037,0.008255,3.338e-05,2.956e-05,0.03116,0.001785,2.993,0.006636,0,1,0
18600000000,18900000000,3717263313,0,4777372198,0.005341,0.008209,0.01358,0.001045,0.003712,0.00824,3.147e-05,2.956e-05,0.03461,0.001215,2.883,0.006395,0,1,0
18900000000,19200000000,3717263313,0,4777372198,0.00515,0.008209,0.01358,0.001062,0.003727,0.00824,3.147e-05,2.956e-05,0.04846,0.001858,3.018,0.006856,0,1,0
19200000000,19500000000,3717263313,0,4777372198,0.005386,0.008194,0.01358,0.001078,0.003746,0.008224,2.766e-05,2.956e-05,0.02939,0.001429,3.065,0.006614,0,1,0
19500000000,19800000000,3717263313,0,4777372198,0.00544,0.008194,0.01358,0.0007029,0.003368,0.008209,3.338e-05,2.956e-05,0.03168,0.001143,3.047,0.006812,0,1,0
19800000000,20100000000,3717263313,0,4777372198,0.005264,0.008194,0.01358,0.0005836,0.00325,0.008224,3.433e-05,2.956e-05,0.04248,0.002357,2.78,0.005964,0,1,0
20100000000,20400000000,3717263313,0,4777372198,0.006943,0.008301,0.01366,0.0006981,0.003269,0.01236,0.0002031,2.956e-05,0.1365,0.0423,3.005,0.006444,0,1,0
20400000000,20700000000,3717263313,0,4777372198,0.01018,0.01387,0.01889,0.0006666,0.003353,0.01605,4.768e-05,2.956e-05,0.07788,0.003071,2.904,0.00616,0,1,0
20700000000,21000000000,3717263313,0,4777372198,0.004242,0.01294,0.01746,0.0006685,0.003365,0.01297,3.433e-05,2.956e-05,0.03217,0.001928,2.795,0.006435,0,1,0
21000000000,21300000000,3717263313,0,4777372198,0.004547,0.01291,0.01746,0.0006838,0.00338,0.01295,3.052e-05,2.956e-05,0.04321,0.001999,2.836,0.006697,0,1,0
21300000000,21600000000,3717263313,0,4777372198,0.005325,0.01292,0.01746,0.0006981,0.003395,0.01295,4.101e-05,2.956e-05,0.03125,0.003429,2.966,0.00662,0,1,0
21600000000,21900000000,3717263313,0,4777372198,0.005814,0.01291,0.01746,0.0007114,0.003407,0.01297,3.91e-05,3.052e-05,0.0647,0.001928,3.042,0.006352,0,1,0
21900000000,22200000000,3717263313,0,4777372198,0.005936,0.01289,0.01746,0.0007277,0.003426,0.01294,2.575e-05,3.052e-05,0.06812,0.001143,3.015,0.006346,0,1,0
22200000000,22500000000,3717263313,0,4777372198,0.005478,0.01291,0.01746,0.0007429,0.003441,0.01294,4.196e-05,3.052e-05,0.04083,0.002144,2.859,0.00593,0,1,0
22500000000,22800000000,3717263313,0,4777372198,0.006195,0.01289,0.01746,0.0007591,0.003456,0.01294,3.433e-05,3.052e-05,0.04565,0.002285,3.053,0.00697,0,1,0
22800000000,23100000000,3717263313,0,4777372198,0.006226,0.01291,0.01746,0.0007753,0.003471,0.01309,2.48e-05,3.052e-05,0.05554,0.0008574,2.91,0.006255,0,1,0
23100000000,23400000000,3717263313,0,4777372198,0.006691,0.01291,0.01746,0.0007944,0.00349,0.01299,4.673e-05,3.052e-05,0.05853,0.001499,2.893,0.005964,0,1,0
23400000000,23700000000,3717263313,0,4777372198,0.006104,0.01289,0.01746,0.0008154,0.003513,0.01292,3.815e-05,3.052e-05,0.06641,0.002571,3.254,0.007226,0,1,0
23700000000,24000000000,3717263313,0,4777372198,0.005966,0.01288,0.01746,0.0008335,0.003529,0.01291,2.098e-05,3.052e-05,0.02155,0.0007858,3.227,0.007035,0,1,0
24000000000,24300000000,3717263313,0,4777372198,0.006012,0.01288,0.01746,0.0008497,0.003548,0.01292,3.91e-05,3.052e-05,0.03894,0.004074,3.103,0.006648,0,1,0
24300000000,24600000000,3717263313,0,4777372198,0.006088,0.01291,0.01746,0.000864,0.003559,0.01294,2.48e-05,3.052e-05,0.04291,0.001642,3.183,0.007154,0,1,0
24600000000,24900000000,3717263313,0,4777372198,0.006027,0.01288,0.01746,0.0008821,0.003578,0.01292,2.861e-05,3.052e-05,0.03888,0.002716,3.238,0.006866,0,1,0
24900000000,25200000000,3717263313,0,4777372198,0.005928,0.01286,0.01746,0.0008984,0.003593,0.01289,1.812e-05,3.052e-05,0.03864,0.0004282,3.235,0.007296,0,1,0
25200000000,25500000000,3717263313,0,4777372198,0.006096,0.01289,0.01746,0.0009165,0.003613,0.01294,3.91e-05,3.052e-05,0.03619,0.002857,3.268,0.007188,0,1,0
25500000000,25800000000,3717263313,0,4777372198,0.006111,0.01288,0.01746,0.0009346,0.003632,0.01291,2.289e-05,3.052e-05,0.02982,0.0009995,2.989,0.006638,0,1,0
25800000000,26100000000,3717263313,0,4777372198,0.006042,0.01288,0.01746,0.0009499,0.003647,0.01303,2.193e-05,3.052e-05,0.03131,0.001143,3.344,0.007312,0,1,0
26100000000,26400000000,3717263313,0,4777372198,0.006004,0.01286,0.01746,0.0009632,0.003658,0.01288,1.907e-05,3.052e-05,0.02908,0.0003567,3.352,0.007225,0,1,0
26400000000,26700000000,3717263313,0,4777372198,0.005829,0.01286,0.01746,0.0009699,0.003666,0.01294,2.67e-05,3.052e-05,0.07727,0.003284,3.072,0.006571,0,1,0
26700000000,27000000000,3717263313,0,4777372198,0.006248,0.01286,0.01746,0.000988,0.003685,0.01291,2.289e-05,3.052e-05,0.04694,0.001858,3.092,0.006645,0,1,0
27000000000,27300000000,3717263313,0,4777372198,0.005363,0.01288,0.01746,0.001001,0.003696,0.01289,3.242e-05,3.052e-05,0.04718,0.002499,3.191,0.007204,0,1,0
27300000000,27600000000,3717263313,0,4777372198,0.005981,0.01286,0.01746,0.0009995,0.003696,0.01288,2.003e-05,3.147e-05,0.03827,0.001286,3.169,0.00705,0,1,0
27600000000,27900000000,3717263313,0,4777372198,0.005692,0.01286,0.01746,0.001015,0.003712,0.01292,2.193e-05,3.147e-05,0.03314,0.001715,3.019,0.006704,0,1,0
27900000000,28200000000,3717263313,0,4777372198,0.005737,0.01288,0.01746,0.001028,0.003723,0.01289,1.621e-05,3.147e-05,0.0318,0.0005713,3.132,0.006923,0,1,0
28200000000,28500000000,3717263313,0,4777372198,0.005981,0.01289,0.01746,0.001038,0.003735,0.01292,2.861e-05,3.147e-05,0.06885,0.002785,3.058,0.006992,0,1,0
28500000000,28800000000,3717263313,0,4777372198,0.005638,0.01288,0.01746,0.001022,0.003719,0.01289,1.907e-05,3.147e-05,0.04083,0.0009289,3.211,0.007543,0,1,0
28800000000,29100000000,3717263313,0,4777372198,0.005814,0.01286,0.01746,0.001022,0.003719,0.01288,4.101e-05,3.147e-05,0.02267,0.002571,3.317,0.00802,0,1,0
29100000000,29400000000,3717263313,0,4777372198,0.005547,0.01285,0.01746,0.001026,0.003716,0.01288,2.766e-05,3.147e-05,0.03174,0.001499,3.344,0.008076,0,1,0
29400000000,29700000000,3717263313,0,4777372198,0.005997,0.01289,0.01746,0.001034,0.003719,0.01292,3.815e-05,3.147e-05,0.05182,0.00293,3.338,0.007773,0,1,0
29700000000,30000000000,3717263313,0,4777372198,0.005844,0.01288,0.01746,0.001032,0.003716,0.01289,2.48e-05,3.147e-05,0.04181,0.001642,3.3,0.007701,0,1,0
30000000000,30300000000,3717263313,0,4777372198,0.005974,0.01286,0.01746,0.0008945,0.003571,0.01289,2.289e-05,3.147e-05,0.03061,0.001499,3.278,0.007735,0,1,0
30300000000,30600000000,3717263313,0,4777372198,0.006241,0.01288,0.01746,0.0005713,0.003246,0.01289,3.052e-05,3.147e-05,0.03662,0.001499,3.276,0.007614,0,1,0
30600000000,30900000000,3717263313,0,4777372198,0.006371,0.01286,0.01746,0.0005894,0.003265,0.01289,2.48e-05,3.147e-05,0.02991,0.001429,3.241,0.007242,0,1,0
30900000000,31200000000,3717263313,0,4777372198,0.006012,0.01286,0.01746,0.0006075,0.003284,0.01288,2.48e-05,3.147e-05,0.0293,0.001499,3.283,0.007256,0,1,0
31200000000,31500000000,3717263313,0,4777372198,0.006142,0.01286,0.01746,0.0006247,0.0033,0.01289,1.717e-05,3.147e-05,0.03827,0.0009995,3.05,0.006943,0,1,0
31500000000,31800000000,3717263313,0,4777372198,0.006081,0.01286,0.01746,0.0006428,0.003315,0.01289,1.812e-05,3.147e-05,0.03839,0.0005713,2.979,0.006859,0,1,0
31800000000,32100000000,3717263313,0,4777372198,0.006157,0.01285,0.01746,0.0006599,0.00333,0.01288,2.289e-05,3.147e-05,0.05981,0.001499,3.03,0.006888,0,1,0
32100000000,32400000000,3717263313,0,4777372198,0.006279,0.01285,0.01746,0.0006781,0.003349,0.01292,2.575e-05,3.147e-05,0.04712,0.001429,3.209,0.007256,0,1,0
32400000000,32700000000,3717263313,0,4777372198,0.006271,0.01286,0.01746,0.0006952,0.003349,0.01292,2.67e-05,3.147e-05,0.04114,0.001286,2.979,0.006499,0,1,0
32700000000,33000000000,3717263313,0,4777372198,0.006027,0.01283,0.01746,0.0007133,0.003353,0.01286,2.48e-05,3.147e-05,0.0332,0.002144,3.069,0.007292,0,1,0
33000000000,33300000000,3717263313,0,4777372198,0.005867,0.01283,0.01746,0.0007305,0.003361,0.01285,2.575e-05,3.147e-05,0.02621,0.001572,3.148,0.007385,0,1,0
33300000000,33600000000,3717263313,0,4777372198,0.00621,0.01286,0.01746,0.0007486,0.00338,0.01289,2.48e-05,3.242e-05,0.0368,0.001215,3.121,0.007024,0,1,0
33600000000,33900000000,3717263313,0,4777372198,0.005981,0.01288,0.01746,0.0007668,0.003395,0.01289,2.289e-05,3.242e-05,0.02908,0.001286,3.16,0.007067,0,1,0
33900000000,34200000000,3717263313,0,4777372198,0.006401,0.01288,0.01746,0.0007849,0.00341,0.01299,3.433e-05,3.242e-05,0.05475,0.002213,3.094,0.006811,0,1,0
34200000000,34500000000,3717263313,0,4777372198,0.006042,0.01291,0.01746,0.000803,0.003429,0.01294,3.529e-05,3.242e-05,0.06677,0.003429,3.135,0.00677,0,1,0
34500000000,34800000000,3717263313,0,4777372198,0.005905,0.01286,0.01746,0.0008211,0.003445,0.01288,3.242e-05,3.242e-05,0.03876,0.001215,3.033,0.0067,0,1,0
34800000000,35100000000,3717263313,0,4777372198,0.006004,0.01286,0.01746,0.0008383,0.003464,0.01289,2.098e-05,3.242e-05,0.03271,0.0008574,3.063,0.006683,0,1,0
35100000000,35400000000,3717263313,0,4777372198,0.006035,0.01286,0.01746,0.0008554,0.003479,0.01288,3.433e-05,3.242e-05,0.0354,0.002071,3.088,0.00678,0,1,0
35400000000,35700000000,3717263313,0,4777372198,0.006386,0.01286,0.01746,0.0008726,0.003494,0.01288,1.907e-05,3.242e-05,0.03802,0.0009289,3.103,0.006777,0,1,0
35700000000,36000000000,3717263313,0,4777372198,0.006325,0.01286,0.01746,0.0008907,0.003513,0.01286,2.861e-05,3.242e-05,0.03241,0.001928,3.005,0.00648,0,1,0
36000000000,36300000000,3717263313,0,4777372198,0.006081,0.01288,0.01746,0.0009089,0.003529,0.01291,4.196e-05,3.242e-05,0.05414,0.001785,3.17,0.007009,0,1,0
36300000000,36600000000,3717263313,0,4777372198,0.006027,0.01289,0.01746,0.000927,0.003548,0.01291,3.338e-05,3.242e-05,0.0387,0.001858,3.139,0.006947,0,1,0
36600000000,36900000000,3717263313,0,4777372198,0.006142,0.01288,0.01746,0.0009413,0.003559,0.01289,4.005e-05,3.242e-05,0.02982,0.00293,3.369,0.007843,0,1,0
36900000000,37200000000,3717263313,0,4777372198,0.006065,0.01285,0.01746,0.0009556,0.003574,0.01288,3.433e-05,3.242e-05,0.05707,0.002644,2.91,0.00606,0,1,0
37200000000,37500000000,3717263313,0,4777372198,0.006172,0.01283,0.01746,0.0009727,0.00359,0.01285,2.861e-05,3.242e-05,0.04144,0.001286,3.043,0.006435,0,1,0
37500000000,37800000000,3717263313,0,4777372198,0.005714,0.01282,0.01746,0.0009899,0.003609,0.01286,3.815e-05,3.242e-05,0.04755,0.002571,2.867,0.006084,0,1,0
37800000000,38100000000,3717263313,0,4777372198,0.005684,0.01282,0.01746,0.001007,0.003624,0.01283,3.052e-05,3.242e-05,0.03552,0.002144,2.97,0.00645,0,1,0
38100000000,38400000000,3717263313,0,4777372198,0.005875,0.01282,0.01746,0.001017,0.003635,0.01283,3.719e-05,3.242e-05,0.04169,0.002213,2.949,0.006358,0,1,0
38400000000,38700000000,3717263313,0,4777372198,0.005791,0.01282,0.01746,0.00102,0.003639,0.01288,1.717e-05,3.242e-05,0.039,0.0007858,3.029,0.006481,0,1,0
38700000000,39000000000,3717263313,0,4777372198,0.007164,0.01283,0.01746,0.001017,0.003635,0.01299,4.101e-05,3.242e-05,0.06201,0.002285,2.652,0.005693,0,1,0
39000000000,39300000000,3717263313,0,4777372198,0.006027,0.01288,0.01746,0.001017,0.003635,0.01291,4.673e-05,3.242e-05,0.04675,0.003998,3.13,0.007736,0,1,0
39300000000,39600000000,3717263313,0,4777372198,0.006081,0.01286,0.01746,0.00102,0.003639,0.01288,2.956e-05,3.338e-05,0.03284,0.001429,3.048,0.006913,0,1,0
39600000000,39900000000,3717263313,0,4777372198,0.00621,0.01285,0.01746,0.001028,0.003647,0.01291,3.052e-05,3.338e-05,0.04004,0.00293,3.166,0.00714,0,1,0
39900000000,40200000000,3717263313,0,4777372198,0.006203,0.01283,0.01746,0.001022,0.003639,0.01285,5.531e-05,3.338e-05,0.03662,0.00243,3.096,0.007039,0,1,0
40200000000,40500000000,3717263313,0,4777372198,0.007538,0.01283,0.01746,0.001036,0.003654,0.01295,4.482e-05,3.338e-05,0.05566,0.003571,2.926,0.00609,0,1,0
40500000000,40800000000,3717263313,0,4777372198,0.005829,0.01285,0.01746,0.001034,0.003651,0.01288,4.292e-05,3.338e-05,0.03906,0.00243,3.24,0.007505,0,1,0
51000000000,51300000000,3717263313,0,4777372198,0.006119,0.01285,0.01746,0.0009842,0.003571,0.01286,3.052e-05,3.433e-05,0.03992,0.002357,3.006,0.007223,0,1,0
51300000000,51600000000,3717263313,0,4777372198,0.005898,0.01283,0.01746,0.0009975,0.003582,0.01286,4.578e-05,3.433e-05,0.05579,0.00243,3.196,0.007719,0,1,0
51600000000,51900000000,3717263313,0,4777372198,0.006462,0.01283,0.01746,0.001013,0.003597,0.01286,6.199e-05,3.433e-05,0.04584,0.003357,2.778,0.00613,0,1,0
51900000000,52200000000,3717263313,0,4777372198,0.006454,0.01282,0.01746,0.00102,0.003605,0.01289,4.673e-05,3.529e-05,0.0437,0.001572,3.038,0.007255,0,1,0
52200000000,52500000000,3717263313,0,4777372198,0.006424,0.01286,0.01746,0.001005,0.00359,0.01291,5.913e-05,3.529e-05,0.03601,0.001499,2.882,0.006836,0,1,0
52500000000,52800000000,3717263313,0,4777372198,0.006111,0.01283,0.01746,0.001019,0.003601,0.01289,4.101e-05,3.529e-05,0.05096,0.002857,2.988,0.007029,0,1,0
52800000000,53100000000,3717263313,0,4777372198,0.008621,0.01285,0.01746,0.001028,0.003613,0.01303,3.242e-05,3.529e-05,0.06287,0.001358,2.814,0.005677,0,1,0
53100000000,53400000000,3717263313,0,4777372198,0.009064,0.01283,0.01746,0.00104,0.003624,0.01288,7.439e-05,3.529e-05,0.06146,0.001572,2.777,0.005887,0,1,0
53400000000,53700000000,3717263313,0,4777372198,0.00914,0.01285,0.01746,0.001055,0.003639,0.01288,9.537e-05,3.529e-05,0.04169,0.003929,2.879,0.006371,0,1,0
53700000000,54000000000,3717263313,0,4777372198,0.01006,0.01285,0.01746,0.0007143,0.0033,0.01289,7.153e-05,3.529e-05,0.1038,0.003571,2.685,0.005598,0,1,0
54000000000,54300000000,3717263313,0,4777372198,0.009491,0.01286,0.01746,0.0005684,0.003151,0.01308,0.0001106,3.529e-05,0.06158,0.003071,2.646,0.005552,0,1,0
54300000000,54600000000,3717263313,0,4777372198,0.009888,0.01285,0.01746,0.000576,0.003162,0.01311,7.248e-05,3.529e-05,0.1245,0.004501,2.532,0.004943,0,1,0
54600000000,54900000000,3717263313,0,4777372198,0.009003,0.01286,0.01746,0.0005884,0.003174,0.0132,5.15e-05,3.529e-05,0.1277,0.002213,2.713,0.005372,0,1,0
54900000000,55200000000,3717263313,0,4777372198,0.009109,0.01288,0.01746,0.0005989,0.003185,0.01308,6.771e-05,3.529e-05,0.09399,0.002644,2.638,0.005036,0,1,0
55200000000,55500000000,3717263313,0,4777372198,0.009415,0.01286,0.01746,0.0006094,0.003193,0.01292,7.915e-05,3.529e-05,0.08057,0.002144,2.731,0.005293,0,1,0
55500000000,55800000000,3717263313,0,4777372198,0.009064,0.01283,0.01746,0.0006208,0.003204,0.01288,9.346e-05,3.529e-05,0.06628,0.002144,2.563,0.004907,0,1,0
55800000000,56100000000,3717263313,0,4777372198,0.009781,0.01285,0.01746,0.0006323,0.003216,0.01305,8.011e-05,3.529e-05,0.07825,0.002357,2.735,0.005376,0,1,0
56100000000,56400000000,3717263313,0,4777372198,0.009583,0.01285,0.01746,0.0006437,0.003227,0.01289,0.0001078,3.529e-05,0.06812,0.003643,2.757,0.00564,0,1,0
56400000000,56700000000,3717263313,0,4777372198,0.01003,0.01286,0.01746,0.0006533,0.003239,0.01291,0.0001049,3.529e-05,0.06165,0.004074,2.609,0.00514,0,1,0
56700000000,57000000000,3717263313,0,4777372198,0.01015,0.01288,0.01746,0.0006638,0.003246,0.0132,7.534e-05,3.529e-05,0.08508,0.002644,2.664,0.005171,0,1,0
57000000000,57300000000,3717263313,0,4777372198,0.009598,0.01285,0.01746,0.0006752,0.003258,0.01302,6.199e-05,3.529e-05,0.06616,0.002144,2.774,0.005308,0,1,0
57300000000,57600000000,3717263313,0,4777372198,0.01004,0.01285,0.01746,0.0006866,0.003273,0.01291,4.482e-05,3.529e-05,0.06091,0.001215,2.707,0.005341,0,1,0
57600000000,57900000000,3717263313,0,4777372198,0.00946,0.01286,0.01746,0.0006971,0.003281,0.01294,5.245e-05,3.529e-05,0.06409,0.001642,2.556,0.005149,0,1,0
57900000000,58200000000,3717263313,0,4777372198,0.01024,0.01285,0.01746,0.0007038,0.003288,0.01302,7.725e-05,3.624e-05,0.07251,0.001785,2.521,0.004916,0,1,0
58200000000,58500000000,3717263313,0,4777372198,0.01041,0.01286,0.01746,0.0007172,0.0033,0.01292,0.0001106,3.624e-05,0.08252,0.003929,2.664,0.005236,0,1,0
58500000000,58800000000,3717263313,0,4777372198,0.01003,0.01288,0.01746,0.0007267,0.003311,0.01292,6.676e-05,3.624e-05,0.05701,0.003143,2.572,0.005338,0,1,0
58800000000,59100000000,3717263313,0,4777372198,0.01094,0.01286,0.01746,0.0007381,0.003323,0.01312,6.199e-05,3.624e-05,0.2949,0.001999,2.781,0.005738,0,1,0
59100000000,59400000000,3717263313,0,4777372198,0.009277,0.01289,0.01746,0.0007496,0.003334,0.01294,8.965e-05,3.624e-05,0.07275,0.001928,2.639,0.0055,0,1,0
59400000000,59700000000,3717263313,0,4777372198,0.00975,0.01291,0.01746,0.000761,0.003345,0.013,8.583e-05,3.624e-05,0.1279,0.002499,2.81,0.005625,0,1,0
59700000000,60000000000,3717263313,0,4777372198,0.01044,0.01289,0.01746,0.0007677,0.003353,0.01309,7.343e-05,3.624e-05,0.06628,0.002071,2.791,0.005589,0,1,0
60000000000,60300000000,3717263313,0,4777372198,0.009842,0.01289,0.01746,0.0007677,0.003353,0.01294,5.913e-05,3.624e-05,0.07666,0.001572,2.64,0.005372,0,1,0
60300000000,60600000000,3717263313,0,4777372198,0.01045,0.01286,0.01746,0.0007772,0.003361,0.01292,6.866e-05,3.624e-05,0.05725,0.002571,2.754,0.0056,0,1,0
60600000000,60900000000,3717263313,0,4777372198,0.01036,0.01291,0.01746,0.0007877,0.003372,0.01314,6.771e-05,3.624e-05,0.07397,0.001785,2.609,0.00542,0,1,0
70800000000,71100000000,3717263313,0,4777372198,0.008942,0.01289,0.01746,0.0006495,0.003235,0.01295,6.866e-05,3.815e-05,0.04144,0.002998,3.021,0.006581,0,1,0
71100000000,71400000000,3717263313,0,4777372198,0.008926,0.01289,0.01746,0.0006638,0.00325,0.01292,3.815e-05,3.815e-05,0.04718,0.001333,2.863,0.006603,0,1,0
71400000000,71700000000,3717263313,0,4777372198,0.007919,0.01289,0.01746,0.0006723,0.003258,0.01295,6.962e-05,3.815e-05,0.0528,0.003784,2.885,0.00624,0,1,0
71700000000,72000000000,3717263313,0,4777372198,0.008133,0.01288,0.01746,0.0006876,0.003273,0.01295,4.387e-05,3.815e-05,0.09216,0.002857,2.919,0.005981,0,1,0
72000000000,72300000000,3717263313,0,4777372198,0.00827,0.01288,0.01746,0.0007019,0.003288,0.01291,5.341e-05,3.815e-05,0.09363,0.001715,2.852,0.006032,0,1,0
72300000000,72600000000,3717263313,0,4777372198,0.00824,0.01286,0.01746,0.0007162,0.0033,0.01302,4.578e-05,3.815e-05,0.1248,0.001215,2.68,0.005609,0,1,0
72600000000,72900000000,3717263313,0,4777372198,0.008896,0.01288,0.01746,0.0007315,0.003315,0.01303,4.101e-05,3.815e-05,0.05774,0.001858,2.831,0.005702,0,1,0
72900000000,73200000000,3717263313,0,4777372198,0.008133,0.01288,0.01746,0.0007439,0.00333,0.01297,5.531e-05,3.815e-05,0.06946,0.003143,2.763,0.005711,0,1,0
73200000000,73500000000,3717263313,0,4777372198,0.008514,0.01286,0.01746,0.0007582,0.003342,0.01295,3.624e-05,3.815e-05,0.0708,0.0008574,2.816,0.00571,0,1,0
73500000000,73800000000,3717263313,0,4777372198,0.00856,0.01289,0.01746,0.0007725,0.003357,0.01308,3.719e-05,3.815e-05,0.1073,0.001642,2.735,0.005427,0,1,0
73800000000,74100000000,3717263313,0,4777372198,0.009552,0.01288,0.01746,0.0007868,0.003372,0.01291,4.482e-05,3.815e-05,0.05414,0.001072,2.785,0.005738,0,1,0
74100000000,74400000000,3717263313,0,4777372198,0.009659,0.01288,0.01746,0.0007963,0.00338,0.01305,9.918e-05,3.815e-05,0.05322,0.003071,2.851,0.005985,0,1,0
74400000000,74700000000,3717263313,0,4777372198,0.009796,0.01288,0.01746,0.0008001,0.003384,0.01306,7.915e-05,3.815e-05,0.09351,0.004074,2.715,0.005511,0,1,0
74700000000,75000000000,3717263313,0,4777372198,0.009308,0.01291,0.01746,0.0008059,0.003391,0.01321,3.529e-05,3.815e-05,0.0802,0.001358,2.819,0.006036,0,1,0
75000000000,75300000000,3717263313,0,4777372198,0.0101,0.01291,0.01746,0.0008078,0.003391,0.01295,6.771e-05,3.815e-05,0.05969,0.003998,2.897,0.005993,0,1,0
75300000000,75600000000,3717263313,0,4777372198,0.01051,0.01289,0.01746,0.000823,0.003407,0.01312,5.627e-05,3.815e-05,0.1353,0.001999,2.861,0.005672,0,1,0
75600000000,75900000000,3717263313,0,4777372198,0.0103,0.01289,0.01746,0.0008373,0.003422,0.01302,4.768e-05,3.815e-05,0.07141,0.0008574,2.846,0.005653,0,1,0
75900000000,76200000000,3717263313,0,4777372198,0.009964,0.01291,0.01746,0.000845,0.003429,0.01295,6.676e-05,3.91e-05,0.05493,0.003071,2.917,0.006145,0,1,0
76200000000,76500000000,3717263313,0,4777372198,0.009445,0.01288,0.01746,0.0008507,0.003437,0.01305,4.673e-05,3.91e-05,0.06519,0.002499,2.732,0.005497,0,1,0
76500000000,76800000000,3717263313,0,4777372198,0.00946,0.01288,0.01746,0.0008631,0.003448,0.01297,4.196e-05,3.91e-05,0.1172,0.001572,2.838,0.005389,0,1,0
76800000000,77100000000,3717263313,0,4777372198,0.009415,0.01288,0.01746,0.0008755,0.00346,0.01292,4.005e-05,3.91e-05,0.07288,0.001858,2.816,0.00577,0,1,0
77100000000,77400000000,3717263313,0,4777372198,0.009857,0.01286,0.01746,0.0008869,0.003471,0.01297,6.866e-05,3.91e-05,0.07617,0.002499,2.866,0.005579,0,1,0
77400000000,77700000000,3717263313,0,4777372198,0.008408,0.01289,0.01746,0.0008984,0.003483,0.013,4.578e-05,3.91e-05,0.04547,0.001429,2.842,0.00584,0,1,0
77700000000,78000000000,3717263313,0,4777372198,0.007225,0.01289,0.01746,0.0009127,0.003498,0.01302,3.815e-05,3.91e-05,0.05493,0.001429,2.723,0.006252,0,1,0
78000000000,78300000000,3717263313,0,4777372198,0.007378,0.01289,0.01746,0.0009279,0.003513,0.01295,4.673e-05,3.91e-05,0.05261,0.001286,2.768,0.006432,0,1,0
78300000000,78600000000,3717263313,0,4777372198,0.008545,0.01292,0.01746,0.0009413,0.003525,0.01315,4.959e-05,3.91e-05,0.06,0.002144,2.064,0.004877,0,1,0
78600000000,78900000000,3717263313,0,4777372198,0.007858,0.01292,0.01746,0.0009499,0.003536,0.01314,4.864e-05,3.91e-05,0.06482,0.002285,2.047,0.004881,0,1,0
78900000000,79200000000,3717263313,0,4777372198,0.006714,0.01297,0.01746,0.0009623,0.003548,0.0132,7.915e-05,3.91e-05,0.0769,0.00457,2.261,0.005631,0,1,0
79200000000,79500000000,3717263313,0,4777372198,0.00531,0.01295,0.01746,0.0009708,0.003555,0.01312,5.531e-05,3.91e-05,0.03986,0.002357,3.074,0.008343,0,1,0
79500000000,79800000000,3717263313,0,4777372198,0.00676,0.01292,0.01746,0.0009842,0.003567,0.01312,5.531e-05,3.91e-05,0.08325,0.002499,2.075,0.005036,0,1,0
79800000000,80100000000,3717263313,0,4777372198,0.00618,0.01291,0.01746,0.0009918,0.003578,0.01309,3.815e-05,3.91e-05,0.07471,0.0009995,2.361,0.005857,0,1,0
80100000000,80400000000,3717263313,0,4777372198,0.005844,0.01288,0.01746,0.0009937,0.003578,0.01292,5.627e-05,3.91e-05,0.0531,0.002285,2.984,0.007627,0,1,0
80400000000,80700000000,3717263313,0,4777372198,0.005379,0.01285,0.01746,0.0009956,0.003578,0.01288,3.624e-05,3.91e-05,0.04663,0.001715,3.092,0.008684,0,1,0
80700000000,81000000000,3717263313,0,4777372198,0.004845,0.01286,0.01746,0.001005,0.00359,0.01289,5.341e-05,3.91e-05,0.02432,0.002357,2.902,0.007867,0,1,0
85800000000,86100000000,3717263313,0,4777372198,0.005241,0.01289,0.01746,0.0006943,0.003281,0.01292,4.482e-05,4.005e-05,0.04144,0.003143,3.035,0.007421,0,1,0
86100000000,86400000000,3717263313,0,4777372198,0.00518,0.01288,0.01746,0.0007029,0.003288,0.01292,5.341e-05,4.005e-05,0.04913,0.00243,2.988,0.007269,0,1,0
86400000000,86700000000,3717263313,0,4777372198,0.004547,0.01289,0.01746,0.0007133,0.0033,0.01292,2.67e-05,4.005e-05,0.05676,0.0007858,3.196,0.007625,0,1,0
86700000000,87000000000,3717263313,0,4777372198,0.005165,0.01286,0.01746,0.0007143,0.0033,0.01289,4.959e-05,4.005e-05,0.04425,0.002644,3.43,0.008782,0,1,0
87000000000,87300000000,3717263313,0,4777372198,0.005142,0.01288,0.01746,0.0007181,0.003304,0.01289,3.529e-05,4.005e-05,0.03741,0.001999,3.167,0.007853,0,1,0
87300000000,87600000000,3717263313,0,4777372198,0.005219,0.01291,0.01746,0.0007296,0.003315,0.01294,2.289e-05,3.91e-05,0.03943,0.0004997,2.977,0.007472,0,1,0
87600000000,87900000000,3717263313,0,4777372198,0.004814,0.01288,0.01746,0.0007429,0.003326,0.01291,2.956e-05,3.91e-05,0.03717,0.001429,2.84,0.00649,0,1,0
87900000000,88200000000,3717263313,0,4777372198,0.005005,0.01286,0.01746,0.0007534,0.003338,0.01292,3.242e-05,3.91e-05,0.04144,0.001715,3.052,0.006792,0,1,0
88200000000,88500000000,3717263313,0,4777372198,0.005089,0.01288,0.01746,0.0007668,0.003353,0.01294,4.101e-05,3.91e-05,0.05664,0.001999,3.11,0.007475,0,1,0
88500000000,88800000000,3717263313,0,4777372198,0.004601,0.01291,0.01746,0.0007792,0.003365,0.01294,3.91e-05,3.91e-05,0.02789,0.001215,3.162,0.007932,0,1,0
88800000000,89100000000,3717263313,0,4777372198,0.00499,0.01289,0.01746,0.0007925,0.003376,0.01292,5.15e-05,3.91e-05,0.03131,0.003216,2.99,0.007077,0,1,0
89100000000,89400000000,3717263313,0,4777372198,0.005188,0.01288,0.01746,0.0008011,0.003387,0.01291,4.387e-05,3.91e-05,0.04852,0.001928,3.002,0.007149,0,1,0
89400000000,89700000000,3717263313,0,4777372198,0.004921,0.01288,0.01746,0.0008087,0.003391,0.01291,6.294e-05,3.91e-05,0.04285,0.003143,3.08,0.007563,0,1,0
89700000000,90000000000,3717263313,0,4777372198,0.004608,0.01288,0.01746,0.0008173,0.003403,0.01291,3.052e-05,3.91e-05,0.03442,0.0007143,3.016,0.007364,0,1,0
90000000000,90300000000,3717263313,0,4777372198,0.004929,0.01288,0.01746,0.000823,0.003407,0.01291,2.67e-05,3.91e-05,0.03845,0.001358,3.121,0.007764,0,1,0
90300000000,90600000000,3717263313,0,4777372198,0.005104,0.01288,0.01746,0.0008221,0.003407,0.01289,4.005e-05,3.91e-05,0.03723,0.001572,3.233,0.007888,0,1,0
90600000000,90900000000,3717263313,0,4777372198,0.004662,0.01289,0.01746,0.0008345,0.003418,0.01291,3.052e-05,3.91e-05,0.04895,0.001499,3.227,0.007708,0,1,0
101100000000,101400000000,3717263313,0,4777372198,0.006073,0.01289,0.01746,0.000803,0.003387,0.01292,2.575e-05,3.91e-05,0.0376,0.001499,3.238,0.007371,0,1,0
101400000000,101700000000,3717263313,0,4777372198,0.006477,0.01289,0.01746,0.0008125,0.003395,0.01291,2.098e-05,3.91e-05,0.039,0.0007858,2.889,0.006933,0,1,0
101700000000,102000000000,3717263313,0,4777372198,0.006599,0.01288,0.01746,0.0008268,0.00341,0.01289,2.193e-05,3.91e-05,0.0376,0.0009289,3.341,0.008155,0,1,0
102000000000,102300000000,3717263313,0,4777372198,0.006287,0.01288,0.01746,0.000844,0.003429,0.01291,2.289e-05,3.91e-05,0.03406,0.001715,3.223,0.007755,0,1,0
102300000000,102600000000,3717263313,0,4777372198,0.005836,0.01286,0.01746,0.0008545,0.003437,0.01289,3.433e-05,3.91e-05,0.04211,0.001999,3.354,0.008172,0,1,0
102600000000,102900000000,3717263313,0,4777372198,0.006081,0.01288,0.01746,0.000865,0.003448,0.01289,2.48e-05,3.91e-05,0.04114,0.001572,3.212,0.007461,0,1,0
102900000000,103200000000,3717263313,0,4777372198,0.006409,0.01286,0.01746,0.0008736,0.003456,0.01288,1.907e-05,3.91e-05,0.03369,0.0006428,3.08,0.006906,0,1,0
103200000000,103500000000,3717263313,0,4777372198,0.005249,0.01286,0.01746,0.0008831,0.003468,0.01289,2.098e-05,3.91e-05,0.02713,0.0009289,2.95,0.006901,0,1,0
103500000000,103800000000,3717263313,0,4777372198,0.004715,0.01286,0.01746,0.0008955,0.003479,0.01291,3.147e-05,3.91e-05,0.03625,0.002716,3.061,0.00764,0,1,0
103800000000,104100000000,3717263313,0,4777372198,0.004997,0.01289,0.01746,0.0009098,0.003494,0.01292,2.193e-05,3.91e-05,0.03809,0.001572,3.252,0.007678,0,1,0
104100000000,104400000000,3717263313,0,4777372198,0.005684,0.01291,0.01746,0.0009241,0.00351,0.01297,2.48e-05,3.91e-05,0.07336,0.001715,2.987,0.006601,0,1,0
104400000000,104700000000,3717263313,0,4777372198,0.005737,0.01288,0.01746,0.0009403,0.003525,0.01291,2.766e-05,4.005e-05,0.04736,0.001572,2.819,0.006456,0,1,0
104700000000,105000000000,3717263313,0,4777372198,0.005379,0.01289,0.01746,0.0009575,0.00354,0.01292,2.956e-05,4.005e-05,0.04492,0.001999,3.047,0.006898,0,1,0
105000000000,105300000000,3717263313,0,4777372198,0.006653,0.01291,0.01746,0.0009613,0.003544,0.013,2.098e-05,4.005e-05,0.08618,0.001143,2.556,0.005619,0,1,0
105300000000,105600000000,3717263313,0,4777372198,0.005219,0.01288,0.01746,0.0009689,0.003551,0.01289,3.052e-05,4.005e-05,0.0318,0.001715,3.25,0.007764,0,1,0
105600000000,105900000000,3717263313,0,4777372198,0.005325,0.01288,0.01746,0.0009747,0.003559,0.01289,2.193e-05,4.005e-05,0.03192,0.0008574,3.001,0.006849,0,1,0
105900000000,106200000000,3717263313,0,4777372198,0.005394,0.01288,0.01746,0.0009861,0.003571,0.01291,1.907e-05,4.005e-05,0.03357,0.0006428,3.162,0.00696,0,1,0
106200000000,106500000000,3717263313,0,4777372198,0.005531,0.01291,0.01746,0.001003,0.003586,0.01292,1.621e-05,4.005e-05,0.03503,0.0004997,2.716,0.005864,0,1,0
106500000000,106800000000,3717263313,0,4777372198,0.0056,0.01289,0.01746,0.001011,0.003593,0.01292,2.289e-05,4.005e-05,0.03906,0.0007858,2.972,0.006606,0,1,0
106800000000,107100000000,3717263313,0,4777372198,0.004692,0.01289,0.01746,0.00103,0.003616,0.01294,1.812e-05,4.005e-05,0.03741,0.001072,3.267,0.008424,0,1,0
107100000000,107400000000,3717263313,0,4777372198,0.004654,0.01288,0.01746,0.001049,0.003632,0.01292,6.962e-05,4.005e-05,0.04614,0.003643,2.978,0.00731,0,1,0
107400000000,107700000000,3717263313,0,4777372198,0.004845,0.01286,0.01746,0.00106,0.003643,0.01292,3.529e-05,4.005e-05,0.02588,0.001715,2.95,0.007164,0,1,0
107700000000,108000000000,3717263313,0,4777372198,0.005219,0.01286,0.01746,0.0007668,0.003349,0.01292,1.812e-05,4.005e-05,0.08362,0.0007143,3.053,0.006877,0,1,0
108000000000,108300000000,3717263313,0,4777372198,0.005768,0.01286,0.01746,0.0005789,0.003162,0.01288,4.101e-05,3.91e-05,0.04114,0.002144,3.065,0.006679,0,1,0
108300000000,108600000000,3717263313,0,4777372198,0.006004,0.01285,0.01746,0.000597,0.003181,0.01288,3.147e-05,3.91e-05,0.06201,0.002571,2.9,0.006469,0,1,0
108600000000,108900000000,3717263313,0,4777372198,0.006104,0.01288,0.01746,0.0006142,0.003197,0.01294,2.861e-05,3.91e-05,0.04156,0.001572,2.825,0.006092,0,1,0
108900000000,109200000000,3717263313,0,4777372198,0.006165,0.01285,0.01746,0.0006304,0.003216,0.01288,2.193e-05,3.91e-05,0.02902,0.001572,2.95,0.006746,0,1,0
109200000000,109500000000,3717263313,0,4777372198,0.005981,0.01285,0.01746,0.0006466,0.003231,0.01289,2.289e-05,3.91e-05,0.02966,0.001642,3.094,0.007412,0,1,0
109500000000,109800000000,3717263313,0,4777372198,0.005615,0.01285,0.01746,0.0006638,0.003246,0.01286,2.384e-05,3.91e-05,0.03656,0.001429,3.04,0.007109,0,1,0
109800000000,110100000000,3717263313,0,4777372198,0.00573,0.01285,0.01746,0.0006771,0.003262,0.01289,2.766e-05,3.91e-05,0.0509,0.001429,3.009,0.00667,0,1,0
110100000000,110400000000,3717263313,0,4777372198,0.005676,0.01286,0.01746,0.0006914,0.003273,0.01306,2.384e-05,3.91e-05,0.0564,0.001429,3.261,0.007162,0,1,0
110400000000,110700000000,3717263313,0,4777372198,0.005806,0.01286,0.01746,0.0007057,0.003288,0.01289,2.48e-05,3.91e-05,0.02429,0.002285,2.948,0.006605,0,1,0
110700000000,111000000000,3717263313,0,4777372198,0.00631,0.01286,0.01746,0.0007133,0.003296,0.01288,3.529e-05,3.91e-05,0.06409,0.001572,2.745,0.005857,0,1,0
116100000000,116400000000,3717263313,0,4777372198,0.00602,0.01286,0.01746,0.0009365,0.003521,0.01289,3.147e-05,4.005e-05,0.03137,0.0009995,3.012,0.006635,0,1,0
116400000000,116700000000,3717263313,0,4777372198,0.005341,0.01289,0.01746,0.0009441,0.003529,0.01292,3.624e-05,4.005e-05,0.05701,0.001999,3.109,0.00672,0,1,0
116700000000,117000000000,3717263313,0,4777372198,0.005287,0.01288,0.01746,0.0009594,0.003544,0.01289,3.91e-05,4.005e-05,0.04156,0.004715,3.113,0.006821,0,1,0
117000000000,117300000000,3717263313,0,4777372198,0.005959,0.01291,0.01746,0.0009661,0.003548,0.01295,4.387e-05,4.005e-05,0.0575,0.001499,3.043,0.006498,0,1,0
117300000000,117600000000,3717263313,0,4777372198,0.006104,0.01291,0.01746,0.0009785,0.003563,0.01294,5.627e-05,3.91e-05,0.02859,0.004143,3.006,0.006295,0,1,0
117600000000,117900000000,3717263313,0,4777372198,0.00602,0.01292,0.01746,0.0009899,0.003574,0.01294,3.052e-05,3.91e-05,0.03363,0.0008574,2.837,0.006058,0,1,0
117900000000,118200000000,3717263313,0,4777372198,0.006088,0.01291,0.01746,0.0009937,0.003578,0.01294,2.766e-05,3.91e-05,0.05322,0.001928,2.925,0.006118,0,1,0
118200000000,118500000000,3717263313,0,4777372198,0.005867,0.01292,0.01746,0.001011,0.003593,0.01294,3.147e-05,3.91e-05,0.03375,0.002285,2.976,0.0061,0,1,0
118500000000,118800000000,3717263313,0,4777372198,0.006172,0.01292,0.01746,0.001026,0.003609,0.01309,2.48e-05,3.91e-05,0.05457,0.001715,2.805,0.005545,0,1,0
118800000000,119100000000,3717263313,0,4777372198,0.005859,0.01292,0.01746,0.001032,0.003616,0.01297,4.005e-05,3.91e-05,0.05804,0.00293,2.938,0.006154,0,1,0
119100000000,119400000000,3717263313,0,4777372198,0.005989,0.01294,0.01746,0.001038,0.00362,0.01297,4.005e-05,3.91e-05,0.03687,0.002285,3.1,0.006644,0,1,0
119400000000,119700000000,3717263313,0,4777372198,0.005623,0.01295,0.01746,0.000577,0.003159,0.01297,3.719e-05,3.91e-05,0.03662,0.002144,3.035,0.006659,0,1,0
119700000000,120000000000,3717263313,0,4777372198,0.005669,0.01292,0.01746,0.000576,0.003159,0.01294,3.624e-05,3.91e-05,0.03055,0.001429,2.954,0.006156,0,1,0
120000000000,120300000000,3717263313,0,4777372198,0.006279,0.01291,0.01746,0.0005913,0.003174,0.01294,3.719e-05,3.91e-05,0.03699,0.001858,3.116,0.007082,0,1,0
120300000000,120600000000,3717263313,0,4777372198,0.005936,0.01289,0.01746,0.0006075,0.003193,0.01291,1.907e-05,3.91e-05,0.02551,0.0004282,3.057,0.006751,0,1,0
120600000000,120900000000,3717263313,0,4777372198,0.005882,0.01291,0.01746,0.0006237,0.003208,0.01294,2.48e-05,3.91e-05,0.0506,0.0007858,2.976,0.006994,0,1,0
126000000000,126300000000,3717263313,0,4777372198,0.00528,0.01288,0.01746,0.000886,0.003464,0.01289,2.956e-05,4.005e-05,0.02475,0.001499,3.066,0.006793,0,1,0
126300000000,126600000000,3717263313,0,4777372198,0.006126,0.01286,0.01746,0.0008945,0.003471,0.01292,3.529e-05,4.005e-05,0.0484,0.001572,2.817,0.005876,0,1,0
126600000000,126900000000,3717263313,0,4777372198,0.006096,0.01285,0.01746,0.0009079,0.003487,0.01288,2.956e-05,3.91e-05,0.04303,0.001785,3.029,0.006273,0,1,0
126900000000,127200000000,3717263313,0,4777372198,0.006615,0.01286,0.01746,0.0009241,0.003502,0.01289,3.91e-05,3.91e-05,0.0354,0.001858,3.045,0.006538,0,1,0
127200000000,127500000000,3717263313,0,4777372198,0.008392,0.01286,0.01746,0.0009365,0.003513,0.01297,4.005e-05,3.91e-05,0.05023,0.004288,3.054,0.00671,0,1,0
127500000000,127800000000,3717263313,0,4777372198,0.006554,0.01288,0.01746,0.0009565,0.003532,0.01308,4.005e-05,3.91e-05,0.05499,0.002144,2.772,0.00553,0,1,0
127800000000,128100000000,3717263313,0,4777372198,0.005989,0.01288,0.01746,0.0009718,0.003551,0.01289,3.338e-05,3.91e-05,0.04095,0.002857,3.195,0.007333,0,1,0
128100000000,128400000000,3717263313,0,4777372198,0.00602,0.01288,0.01746,0.000988,0.003567,0.01291,4.005e-05,3.91e-05,0.04285,0.003571,2.946,0.006489,0,1,0
128400000000,128700000000,3717263313,0,4777372198,0.00592,0.01289,0.01746,0.001001,0.003578,0.01292,4.005e-05,3.91e-05,0.04767,0.002357,3.151,0.007191,0,1,0
128700000000,129000000000,3717263313,0,4777372198,0.005913,0.01289,0.01746,0.001013,0.00359,0.01294,2.861e-05,3.91e-05,0.02866,0.001642,2.905,0.00668,0,1,0
129000000000,129300000000,3717263313,0,4777372198,0.005882,0.01294,0.01746,0.00102,0.003601,0.01297,3.719e-05,3.91e-05,0.03308,0.003643,3.002,0.006932,0,1,0
129300000000,129600000000,3717263313,0,4777372198,0.006081,0.01291,0.01746,0.001017,0.003593,0.01294,3.719e-05,3.91e-05,0.03259,0.002644,3.235,0.007625,0,1,0
129600000000,129900000000,3717263313,0,4777372198,0.005898,0.01288,0.01746,0.001024,0.003601,0.01289,3.433e-05,3.91e-05,0.04486,0.002071,3.062,0.006961,0,1,0
129900000000,130200000000,3717263313,0,4777372198,0.006027,0.01286,0.01746,0.001038,0.003616,0.01292,2.384e-05,3.91e-05,0.07495,0.001785,3.087,0.006852,0,1,0
130200000000,130500000000,3717263313,0,4777372198,0.005798,0.01289,0.01746,0.001038,0.003616,0.01292,4.005e-05,3.91e-05,0.02805,0.00243,3.065,0.006799,0,1,0
130500000000,130800000000,3717263313,0,4777372198,0.005707,0.01286,0.01746,0.001047,0.003628,0.01288,2.384e-05,3.91e-05,0.04095,0.001499,3.064,0.006872,0,1,0
130800000000,131100000000,3717263313,0,4777372198,0.00589,0.01288,0.01746,0.001057,0.003635,0.01289,2.67e-05,3.91e-05,0.01497,0.001358,3.144,0.007052,0,1,0
141000000000,141300000000,3717263313,0,4777372198,0.009506,0.01295,0.01746,0.0009651,0.00354,0.01299,5.054e-05,3.91e-05,0.05914,0.001999,2.885,0.005855,0,1,0
141300000000,141600000000,3717263313,0,4777372198,0.009689,0.01294,0.01746,0.0009785,0.003555,0.01317,2.956e-05,3.91e-05,0.06714,0.001215,2.739,0.005495,0,1,0
141600000000,141900000000,3717263313,0,4777372198,0.009415,0.01292,0.01746,0.0009785,0.003555,0.01295,5.436e-05,3.91e-05,0.05359,0.003429,2.688,0.005362,0,1,0
141900000000,142200000000,3717263313,0,4777372198,0.008347,0.01292,0.01746,0.000988,0.003563,0.01306,5.15e-05,3.91e-05,0.1013,0.001999,2.768,0.005848,0,1,0
142200000000,142500000000,3717263313,0,4777372198,0.007919,0.01292,0.01746,0.0009956,0.003571,0.01295,4.959e-05,3.91e-05,0.05676,0.002285,2.67,0.005799,0,1,0
142500000000,142800000000,3717263313,0,4777372198,0.009735,0.01292,0.01746,0.0009975,0.003574,0.01305,4.959e-05,3.91e-05,0.05121,0.001785,2.696,0.00562,0,1,0
142800000000,143100000000,3717263313,0,4777372198,0.01021,0.01292,0.01746,0.001001,0.003578,0.01309,4.864e-05,4.005e-05,0.1178,0.001572,2.826,0.006023,0,1,0
143100000000,143400000000,3717263313,0,4777372198,0.008789,0.01291,0.01746,0.001003,0.003578,0.01309,2.766e-05,4.005e-05,0.1404,0.001072,2.802,0.006144,0,1,0
143400000000,143700000000,3717263313,0,4777372198,0.00914,0.01292,0.01746,0.001005,0.003582,0.01318,6.104e-05,4.005e-05,0.0553,0.003429,2.682,0.005795,0,1,0
143700000000,144000000000,3717263313,0,4777372198,0.008728,0.01291,0.01746,0.0009995,0.003571,0.01299,5.15e-05,4.005e-05,0.05267,0.002285,2.643,0.005673,0,1,0
144000000000,144300000000,3717263313,0,4777372198,0.009201,0.01291,0.01746,0.0005646,0.003132,0.0132,3.433e-05,4.005e-05,0.04828,0.001429,2.759,0.00581,0,1,0
144300000000,144600000000,3717263313,0,4777372198,0.01018,0.01292,0.01746,0.0005789,0.003147,0.01309,4.482e-05,4.005e-05,0.06689,0.002357,2.947,0.005768,0,1,0
144600000000,144900000000,3717263313,0,4777372198,0.009506,0.01291,0.01746,0.0005932,0.003159,0.01292,3.624e-05,4.005e-05,0.05182,0.002071,2.886,0.006069,0,1,0
144900000000,145200000000,3717263313,0,4777372198,0.009674,0.01289,0.01746,0.0006065,0.003174,0.01299,4.387e-05,4.005e-05,0.12,0.001928,2.876,0.005893,0,1,0
145200000000,145500000000,3717263313,0,4777372198,0.009857,0.01289,0.01746,0.0006218,0.003189,0.01305,4.005e-05,4.005e-05,0.1046,0.001785,2.962,0.006005,0,1,0
145500000000,145800000000,3717263313,0,4777372198,0.009827,0.01294,0.01746,0.0006371,0.003204,0.01317,4.959e-05,4.005e-05,0.1099,0.002716,2.748,0.005594,0,1,0
145800000000,146100000000,3717263313,0,4777372198,0.01013,0.01294,0.01746,0.0006523,0.00322,0.01323,5.531e-05,4.005e-05,0.06763,0.003643,2.78,0.005874,0,1,0
151200000000,151500000000,3717263313,0,4777372198,0.007515,0.01291,0.01746,0.0008459,0.003407,0.01294,4.578e-05,3.91e-05,0.05762,0.002644,2.725,0.006066,0,1,0
151500000000,151800000000,3717263313,0,4777372198,0.008392,0.01292,0.01746,0.0008564,0.003418,0.01295,5.817e-05,3.91e-05,0.05499,0.002499,2.721,0.005726,0,1,0
151800000000,152100000000,3717263313,0,4777372198,0.008057,0.01291,0.01746,0.0008659,0.003426,0.01295,2.956e-05,3.91e-05,0.1071,0.001286,2.806,0.005721,0,1,0
152100000000,152400000000,3717263313,0,4777372198,0.008377,0.01289,0.01746,0.0008793,0.003441,0.01292,3.815e-05,3.91e-05,0.08215,0.001785,2.64,0.005542,0,1,0
152400000000,152700000000,3717263313,0,4777372198,0.008224,0.01289,0.01746,0.0008869,0.003445,0.01295,4.482e-05,3.91e-05,0.07031,0.001858,2.844,0.005902,0,1,0
152700000000,153000000000,3717263313,0,4777372198,0.008133,0.01289,0.01746,0.0009012,0.00346,0.01295,7.82e-05,3.91e-05,0.039,0.001785,2.775,0.005857,0,1,0
153000000000,153300000000,3717263313,0,4777372198,0.008636,0.01289,0.01746,0.0009003,0.00346,0.01299,4.101e-05,4.005e-05,0.1066,0.00243,2.947,0.006729,0,1,0
153300000000,153600000000,3717263313,0,4777372198,0.008255,0.01288,0.01746,0.0008993,0.00346,0.01292,6.39e-05,4.005e-05,0.09595,0.003143,2.812,0.006216,0,1,0
153600000000,153900000000,3717263313,0,4777372198,0.007767,0.01289,0.01746,0.0009003,0.00346,0.01292,3.338e-05,4.005e-05,0.08411,0.001928,3.039,0.006765,0,1,0
153900000000,154200000000,3717263313,0,4777372198,0.008072,0.01288,0.01746,0.0009136,0.003475,0.01303,4.578e-05,4.005e-05,0.0708,0.002785,2.863,0.00637,0,1,0
154200000000,154500000000,3717263313,0,4777372198,0.008224,0.01292,0.01746,0.000927,0.003487,0.01299,4.768e-05,4.005e-05,0.08813,0.002285,2.83,0.006014,0,1,0
154500000000,154800000000,3717263313,0,4777372198,0.008621,0.01289,0.01746,0.0009413,0.003502,0.01295,4.864e-05,4.005e-05,0.07043,0.002213,2.925,0.005857,0,1,0
154800000000,155100000000,3717263313,0,4777372198,0.008759,0.01291,0.01746,0.0009537,0.003513,0.01303,4.196e-05,4.005e-05,0.0708,0.002998,2.809,0.005826,0,1,0
155100000000,155400000000,3717263313,0,4777372198,0.008865,0.01286,0.01746,0.0009613,0.003521,0.01291,6.58e-05,4.005e-05,0.04779,0.003429,2.668,0.005597,0,1,0
155400000000,155700000000,3717263313,0,4777372198,0.008408,0.01286,0.01746,0.0009785,0.003532,0.01289,6.008e-05,4.005e-05,0.06348,0.001928,2.794,0.006134,0,1,0
155700000000,156000000000,3717263313,0,4777372198,0.009186,0.01285,0.01746,0.000988,0.00354,0.01294,5.722e-05,4.005e-05,0.08618,0.002785,2.799,0.005908,0,1,0
161100000000,161400000000,3717263313,0,4777372198,0.009567,0.01289,0.01746,0.0007706,0.003307,0.01309,4.005e-05,3.91e-05,0.07275,0.003716,2.893,0.006096,0,1,0
161400000000,161700000000,3717263313,0,4777372198,0.009644,0.01289,0.01746,0.0007792,0.003319,0.01308,3.719e-05,3.91e-05,0.1211,0.001858,2.838,0.005782,0,1,0
161700000000,162000000000,3717263313,0,4777372198,0.009964,0.01289,0.01746,0.0007925,0.00333,0.01306,4.578e-05,3.91e-05,0.1211,0.002285,2.834,0.006082,0,1,0
162000000000,162300000000,3717263313,0,4777372198,0.008713,0.01288,0.01746,0.000803,0.003342,0.01294,5.054e-05,3.91e-05,0.1046,0.002644,2.876,0.006244,0,1,0
162300000000,162600000000,3717263313,0,4777372198,0.009811,0.01288,0.01746,0.0008116,0.003349,0.01292,3.052e-05,3.91e-05,0.05377,0.002499,2.893,0.006109,0,1,0
162600000000,162900000000,3717263313,0,4777372198,0.009323,0.01286,0.01746,0.000824,0.003361,0.01295,4.387e-05,3.91e-05,0.06311,0.001715,2.846,0.005889,0,1,0
162900000000,163200000000,3717263313,0,4777372198,0.009079,0.01288,0.01746,0.0008278,0.003368,0.01306,3.815e-05,4.005e-05,0.09045,0.003716,2.656,0.005582,0,1,0
163200000000,163500000000,3717263313,0,4777372198,0.01033,0.01291,0.01746,0.0008345,0.003372,0.01306,3.91e-05,4.005e-05,0.1223,0.003216,2.813,0.005687,0,1,0
163500000000,163800000000,3717263313,0,4777372198,0.008362,0.01291,0.01746,0.000844,0.003384,0.01308,2.766e-05,4.005e-05,0.06396,0.001999,2.921,0.006149,0,1,0
163800000000,164100000000,3717263313,0,4777372198,0.006721,0.01289,0.01746,0.0008554,0.003395,0.01305,4.387e-05,4.005e-05,0.09875,0.001715,2.781,0.006098,0,1,0
164100000000,164400000000,3717263313,0,4777372198,0.005852,0.01288,0.01746,0.0008669,0.003407,0.01291,3.338e-05,4.005e-05,0.04974,0.001928,2.86,0.006619,0,1,0
164400000000,164700000000,3717263313,0,4777372198,0.006195,0.01288,0.01746,0.0008774,0.003418,0.01291,2.67e-05,4.005e-05,0.05182,0.001286,3.074,0.00772,0,1,0
164700000000,165000000000,3717263313,0,4777372198,0.006172,0.01288,0.01746,0.0008821,0.003422,0.01291,3.147e-05,4.005e-05,0.04114,0.002071,2.979,0.007717,0,1,0
165000000000,165300000000,3717263313,0,4777372198,0.005722,0.01289,0.01746,0.0008926,0.003429,0.01292,3.624e-05,4.005e-05,0.02942,0.003071,3.088,0.007315,0,1,0
165300000000,165600000000,3717263313,0,4777372198,0.005753,0.01288,0.01746,0.000906,0.003445,0.01292,2.67e-05,4.005e-05,0.0415,0.001358,2.88,0.007227,0,1,0
165600000000,165900000000,3717263313,0,4777372198,0.00605,0.01288,0.01746,0.0009193,0.003456,0.01291,3.338e-05,4.005e-05,0.03973,0.001999,2.838,0.007035,0,1,0
165900000000,166200000000,3717263313,0,4777372198,0.006332,0.01288,0.01746,0.0009317,0.003471,0.01291,4.387e-05,4.005e-05,0.04474,0.002285,2.946,0.007119,0,1,0
166200000000,166500000000,3717263313,0,4777372198,0.005676,0.01286,0.01746,0.0009375,0.003475,0.01292,5.436e-05,4.005e-05,0.04889,0.001858,3.078,0.007638,0,1,0
166500000000,166800000000,3717263313,0,4777372198,0.005089,0.01286,0.01746,0.0009499,0.003487,0.01292,3.242e-05,4.005e-05,0.0528,0.001072,2.941,0.007695,0,1,0
166800000000,167100000000,3717263313,0,4777372198,0.005898,0.01285,0.01746,0.0009527,0.00349,0.01288,4.005e-05,4.005e-05,0.03662,0.001642,3.093,0.007606,0,1,0
167100000000,167400000000,3717263313,0,4777372198,0.005432,0.01286,0.01746,0.0009651,0.003502,0.01291,3.815e-05,4.005e-05,0.04755,0.001215,2.847,0.007055,0,1,0
167400000000,167700000000,3717263313,0,4777372198,0.005219,0.01286,0.01746,0.0009708,0.00351,0.01289,4.101e-05,4.005e-05,0.04468,0.002071,2.641,0.006908,0,1,0
167700000000,168000000000,3717263313,0,4777372198,0.005058,0.01288,0.01746,0.0009689,0.003506,0.01291,2.384e-05,4.005e-05,0.03546,0.001358,2.98,0.007581,0,1,0
168000000000,168300000000,3717263313,0,4777372198,0.004967,0.01286,0.01746,0.0009766,0.003517,0.01288,3.052e-05,3.91e-05,0.05658,0.001999,2.979,0.007212,0,1,0
168300000000,168600000000,3717263313,0,4777372198,0.005371,0.01285,0.01746,0.0009842,0.003521,0.01286,4.387e-05,3.91e-05,0.03998,0.001858,2.907,0.007621,0,1,0
168600000000,168900000000,3717263313,0,4777372198,0.004356,0.01286,0.01746,0.0009937,0.003532,0.01288,2.861e-05,3.91e-05,0.02936,0.001499,3.037,0.008019,0,1,0
168900000000,169200000000,3717263313,0,4777372198,0.004761,0.01286,0.01746,0.001003,0.003544,0.01288,1.717e-05,3.91e-05,0.05225,0.0003567,3.259,0.008097,0,1,0
169200000000,169500000000,3717263313,0,4777372198,0.005196,0.01289,0.01746,0.001013,0.003551,0.01292,3.338e-05,3.91e-05,0.03369,0.003571,2.883,0.006877,0,1,0
169500000000,169800000000,3717263313,0,4777372198,0.005089,0.01288,0.01746,0.001017,0.003555,0.01291,2.384e-05,3.91e-05,0.03619,0.001286,2.997,0.008568,0,1,0
169800000000,170100000000,3717263313,0,4777372198,0.004585,0.01286,0.01746,0.00102,0.003559,0.01289,2.384e-05,3.91e-05,0.03137,0.0007858,2.958,0.008698,0,1,0
170100000000,170400000000,3717263313,0,4777372198,0.004601,0.01286,0.01746,0.001022,0.003559,0.01289,3.624e-05,3.91e-05,0.04565,0.002571,2.978,0.007709,0,1,0
170400000000,170700000000,3717263313,0,4777372198,0.005226,0.01288,0.01746,0.001028,0.003567,0.01291,1.812e-05,3.91e-05,0.03815,0.0006428,2.97,0.007211,0,1,0
170700000000,171000000000,3717263313,0,4777372198,0.004883,0.01289,0.01746,0.0008678,0.003407,0.01291,2.289e-05,3.91e-05,0.03827,0.0009995,3.396,0.008636,0,1,0
171000000000,171300000000,3717263313,0,4777372198,0.00499,0.01289,0.01746,0.0005884,0.003128,0.01291,2.384e-05,3.91e-05,0.0206,0.001715,3.171,0.008933,0,1,0
171300000000,171600000000,3717263313,0,4777372198,0.00473,0.01291,0.01746,0.0006018,0.003139,0.01294,2.48e-05,3.91e-05,0.0343,0.001143,2.971,0.007778,0,1,0
171600000000,171900000000,3717263313,0,4777372198,0.005119,0.01291,0.01746,0.0006161,0.003155,0.01294,2.384e-05,3.91e-05,0.04779,0.0006428,3.199,0.008145,0,1,0
171900000000,172200000000,3717263313,0,4777372198,0.005287,0.01289,0.01746,0.0006294,0.003166,0.01292,2.861e-05,3.91e-05,0.04254,0.0009995,3.009,0.007162,0,1,0
172200000000,172500000000,3717263313,0,4777372198,0.00473,0.01289,0.01746,0.0006428,0.003181,0.01292,2.861e-05,3.91e-05,0.04333,0.001999,3.096,0.007641,0,1,0
172500000000,172800000000,3717263313,0,4777372198,0.004585,0.01288,0.01746,0.0006561,0.003193,0.01292,2.956e-05,3.91e-05,0.03314,0.002716,2.749,0.006748,0,1,0
172800000000,173100000000,3717263313,0,4777372198,0.005135,0.01286,0.01746,0.0006685,0.003208,0.01289,3.052e-05,3.91e-05,0.04102,0.002357,3.003,0.007729,0,1,0
173100000000,173400000000,3717263313,0,4777372198,0.004898,0.01288,0.01746,0.0006838,0.003223,0.01291,2.098e-05,3.91e-05,0.03729,0.0008574,3.155,0.008179,0,1,0
173400000000,173700000000,3717263313,0,4777372198,0.005081,0.01289,0.01746,0.0006981,0.003235,0.01294,3.242e-05,3.91e-05,0.02621,0.002644,2.954,0.006791,0,1,0
173700000000,174000000000,3717263313,0,4777372198,0.004768,0.01289,0.01746,0.0007124,0.00325,0.01291,1.907e-05,3.91e-05,0.04242,0.0009289,3.184,0.007901,0,1,0
174000000000,174300000000,3717263313,0,4777372198,0.004921,0.01289,0.01746,0.0007267,0.003265,0.01294,2.67e-05,3.91e-05,0.03265,0.002144,2.893,0.00722,0,1,0
174300000000,174600000000,3717263313,0,4777372198,0.004776,0.01288,0.01746,0.000741,0.003281,0.01291,2.003e-05,4.005e-05,0.03104,0.0008574,2.868,0.007421,0,1,0
174600000000,174900000000,3717263313,0,4777372198,0.005188,0.01288,0.01746,0.0007553,0.003292,0.01291,2.861e-05,4.005e-05,0.0517,0.001999,3.042,0.00752,0,1,0
174900000000,175200000000,3717263313,0,4777372198,0.004944,0.01288,0.01746,0.0007706,0.003307,0.01291,2.003e-05,4.005e-05,0.04938,0.0007858,3.086,0.00716,0,1,0
175200000000,175500000000,3717263313,0,4777372198,0.005348,0.01288,0.01746,0.0007801,0.003319,0.01295,3.242e-05,4.005e-05,0.04187,0.001999,2.963,0.007102,0,1,0
175500000000,175800000000,3717263313,0,4777372198,0.004623,0.01286,0.01746,0.0007906,0.00333,0.01288,2.384e-05,4.005e-05,0.02774,0.001215,3.325,0.009188,0,1,0
175800000000,176100000000,3717263313,0,4777372198,0.005089,0.01286,0.01746,0.0008011,0.003338,0.01291,2.098e-05,4.005e-05,0.03473,0.0007143,2.809,0.00719,0,1,0
186300000000,186600000000,3717263313,0,4777372198,0.005547,0.01289,0.01746,0.0007229,0.003262,0.01291,1.431e-05,4.005e-05,0.02979,0.0004997,3.571,0.01039,0,1,0
186600000000,186900000000,3717263313,0,4777372198,0.007011,0.01291,0.01746,0.0007401,0.003281,0.01297,3.433e-05,4.005e-05,0.04871,0.0009289,3.105,0.008592,0,1,0
186900000000,187200000000,3717263313,0,4777372198,0.006958,0.01291,0.01746,0.0007572,0.003296,0.01295,5.817e-05,4.005e-05,0.04022,0.003143,2.789,0.007356,0,1,0
187200000000,187500000000,3717263313,0,4777372198,0.007072,0.01292,0.01746,0.0007753,0.003315,0.01295,3.433e-05,4.005e-05,0.06909,0.0009995,2.71,0.007242,0,1,0
187500000000,187800000000,3717263313,0,4777372198,0.006874,0.01291,0.01746,0.0007925,0.00333,0.01294,2.575e-05,4.005e-05,0.03918,0.0009289,3.152,0.008469,0,1,0
187800000000,188100000000,3717263313,0,4777372198,0.00705,0.01291,0.01746,0.0008087,0.003349,0.01295,3.624e-05,4.005e-05,0.02798,0.002644,2.957,0.007015,0,1,0
188100000000,188400000000,3717263313,0,4777372198,0.006622,0.01292,0.01746,0.0008249,0.003365,0.01294,3.433e-05,4.005e-05,0.04108,0.002357,3.276,0.007994,0,1,0
188400000000,188700000000,3717263313,0,4777372198,0.006813,0.01291,0.01746,0.0008392,0.003376,0.01295,2.67e-05,4.005e-05,0.03073,0.001572,3.087,0.00723,0,1,0
188700000000,189000000000,3717263313,0,4777372198,0.006927,0.01294,0.01746,0.0008554,0.003395,0.01297,2.575e-05,4.005e-05,0.0426,0.001429,3.159,0.007313,0,1,0
189000000000,189300000000,3717263313,0,4777372198,0.006683,0.01295,0.01746,0.0008707,0.00341,0.013,2.67e-05,4.005e-05,0.06097,0.002071,3.001,0.007103,0,1,0
189300000000,189600000000,3717263313,0,4777372198,0.006439,0.01299,0.01746,0.0008879,0.003426,0.013,3.052e-05,3.91e-05,0.04535,0.001715,3.134,0.007754,0,1,0
189600000000,189900000000,3717263313,0,4777372198,0.005287,0.01297,0.01746,0.000905,0.003445,0.01299,3.719e-05,3.91e-05,0.04504,0.001999,2.956,0.006723,0,1,0
189900000000,190200000000,3717263313,0,4777372198,0.005531,0.01295,0.01746,0.0009203,0.00346,0.01299,2.956e-05,3.91e-05,0.03546,0.001572,2.98,0.007296,0,1,0
190200000000,190500000000,3717263313,0,4777372198,0.005562,0.01294,0.01746,0.0009365,0.003475,0.01295,2.766e-05,3.91e-05,0.04224,0.001572,3.2,0.007893,0,1,0
190500000000,190800000000,3717263313,0,4777372198,0.005547,0.01291,0.01746,0.0009527,0.00349,0.01294,3.529e-05,3.91e-05,0.04468,0.001785,3.031,0.006993,0,1,0
190800000000,191100000000,3717263313,0,4777372198,0.005463,0.01289,0.01746,0.0009699,0.00351,0.01292,3.242e-05,3.91e-05,0.03961,0.002071,2.924,0.006037,0,1,0
191100000000,191400000000,3717263313,0,4777372198,0.005371,0.01289,0.01746,0.0009823,0.003521,0.01291,3.624e-05,3.91e-05,0.03973,0.001785,2.938,0.007004,0,1,0
191400000000,191700000000,3717263313,0,4777372198,0.005508,0.01292,0.01746,0.0009975,0.003536,0.01297,2.861e-05,3.91e-05,0.06226,0.001358,2.861,0.00626,0,1,0
191700000000,192000000000,3717263313,0,4777372198,0.005966,0.01292,0.01746,0.0009995,0.003536,0.013,2.575e-05,3.91e-05,0.1029,0.0007858,3.085,0.006841,0,1,0
192000000000,192300000000,3717263313,0,4777372198,0.005348,0.01289,0.01746,0.001007,0.003544,0.01292,2.67e-05,3.91e-05,0.05194,0.001858,2.939,0.006829,0,1,0
192300000000,192600000000,3717263313,0,4777372198,0.005325,0.01291,0.01746,0.001015,0.003551,0.01292,2.384e-05,3.91e-05,0.04407,0.0007858,2.962,0.006801,0,1,0
192600000000,192900000000,3717263313,0,4777372198,0.005653,0.01291,0.01746,0.001009,0.003548,0.01294,3.338e-05,3.91e-05,0.04181,0.00243,3.047,0.006986,0,1,0
192900000000,193200000000,3717263313,0,4777372198,0.005646,0.01292,0.01746,0.001019,0.003555,0.01306,2.956e-05,3.91e-05,0.07703,0.001358,3.064,0.007321,0,1,0
193200000000,193500000000,3717263313,0,4777372198,0.004501,0.01291,0.01746,0.001028,0.003567,0.01294,1.621e-05,3.91e-05,0.02817,0.0004282,3.131,0.007754,0,1,0
193500000000,193800000000,3717263313,0,4777372198,0.00544,0.01291,0.01746,0.001047,0.003586,0.01294,2.956e-05,3.91e-05,0.05444,0.001215,2.983,0.006847,0,1,0
193800000000,194100000000,3717263313,0,4777372198,0.004906,0.01294,0.01746,0.00107,0.003609,0.01295,2.67e-05,3.91e-05,0.03601,0.002499,3.125,0.007906,0,1,0
194100000000,194400000000,3717263313,0,4777372198,0.005173,0.01292,0.01746,0.001076,0.003616,0.01294,2.384e-05,3.91e-05,0.04224,0.001286,3.074,0.007158,0,1,0
194400000000,194700000000,3717263313,0,4777372198,0.005806,0.01291,0.01746,0.00108,0.003616,0.01294,2.956e-05,4.005e-05,0.04974,0.002499,3.005,0.006668,0,1,0
194700000000,195000000000,3717263313,0,4777372198,0.005547,0.01291,0.01746,0.001091,0.003632,0.01294,2.098e-05,4.005e-05,0.05542,0.001715,3.009,0.006315,0,1,0
195000000000,195300000000,3717263313,0,4777372198,0.006264,0.01292,0.01746,0.0006227,0.003162,0.01295,3.242e-05,4.005e-05,0.04419,0.002285,3.02,0.006426,0,1,0
195300000000,195600000000,3717263313,0,4777372198,0.006065,0.01291,0.01746,0.0006008,0.003139,0.01294,2.384e-05,4.005e-05,0.04211,0.001072,3.029,0.006327,0,1,0
195600000000,195900000000,3717263313,0,4777372198,0.00663,0.01289,0.01746,0.000617,0.003155,0.01292,2.289e-05,4.005e-05,0.07202,0.001072,3.051,0.006676,0,1,0
195900000000,196200000000,3717263313,0,4777372198,0.00634,0.01289,0.01746,0.0006323,0.00317,0.01291,2.289e-05,4.005e-05,0.03571,0.0009289,2.856,0.006103,0,1,0
201300000000,201600000000,3717263313,0,4777372198,0.006302,0.01291,0.01746,0.0009174,0.003456,0.01294,2.384e-05,3.91e-05,0.04108,0.002357,3.226,0.006978,0,1,0
201600000000,201900000000,3717263313,0,4777372198,0.006386,0.01291,0.01746,0.0009298,0.003468,0.01292,2.289e-05,3.91e-05,0.06042,0.001358,3.285,0.007557,0,1,0
201900000000,202200000000,3717263313,0,4777372198,0.006805,0.01291,0.01746,0.0009317,0.003471,0.01294,2.575e-05,3.91e-05,0.05023,0.002213,3.203,0.006908,0,1,0
202200000000,202500000000,3717263313,0,4777372198,0.006866,0.01291,0.01746,0.0009489,0.003487,0.01292,3.147e-05,3.91e-05,0.03955,0.001572,3.155,0.006954,0,1,0
202500000000,202800000000,3717263313,0,4777372198,0.005501,0.01292,0.01746,0.0009632,0.003502,0.01295,1.907e-05,3.91e-05,0.03204,0.0006428,2.974,0.006342,0,1,0
202800000000,203100000000,3717263313,0,4777372198,0.00544,0.01289,0.01746,0.0009785,0.003517,0.01292,2.193e-05,3.91e-05,0.03516,0.001143,3.103,0.007079,0,1,0
203100000000,203400000000,3717263313,0,4777372198,0.00592,0.01286,0.01746,0.0009918,0.003532,0.01291,3.624e-05,3.91e-05,0.05286,0.001642,3.102,0.006581,0,1,0
203400000000,203700000000,3717263313,0,4777372198,0.006523,0.01289,0.01746,0.001072,0.003548,0.01308,0.0001516,3.91e-05,0.1193,0.02573,3.203,0.007591,0,1,0
204000000000,204300000000,3717263313,0,4777372198,0.005531,0.008392,0.01358,0.000618,0.003338,0.009064,3.147e-05,1.049e-05,0.0303,0.001999,2.961,0.006887,0,1,0
204300000000,204600000000,3717263313,0,4777372198,0.00531,0.008087,0.01358,0.0006208,0.003349,0.008102,3.719e-05,1.049e-05,0.03461,0.002571,3.12,0.007725,0,1,0
204600000000,204900000000,3717263313,0,4777372198,0.005569,0.008148,0.01358,0.0006208,0.003353,0.008194,3.242e-05,1.049e-05,0.03967,0.001572,3.177,0.00749,0,1,0
204900000000,205200000000,3717263313,0,4777372198,0.005402,0.008148,0.01358,0.0006342,0.003368,0.008179,3.624e-05,1.049e-05,0.04193,0.003502,3.172,0.007717,0,1,0
205200000000,205500000000,3717263313,0,4777372198,0.005608,0.008148,0.01358,0.0006456,0.00338,0.008179,4.768e-05,1.049e-05,0.04523,0.003071,2.991,0.007115,0,1,0
205500000000,205800000000,3717263313,0,4777372198,0.005669,0.008133,0.01358,0.0006523,0.003387,0.008163,2.384e-05,1.049e-05,0.04272,0.001642,2.948,0.007064,0,1,0
205800000000,206100000000,3717263313,0,4777372198,0.005775,0.008148,0.01358,0.0006657,0.003403,0.008194,5.531e-05,1.049e-05,0.03815,0.004143,2.965,0.007079,0,1,0
206100000000,206400000000,3717263313,0,4777372198,0.005798,0.008163,0.01358,0.0006781,0.003414,0.008194,2.575e-05,1.049e-05,0.03558,0.001785,2.964,0.007014,0,1,0
206400000000,206700000000,3717263313,0,4777372198,0.005836,0.008163,0.01358,0.0006905,0.003422,0.008362,4.673e-05,1.049e-05,0.03882,0.002571,2.897,0.006553,0,1,0
206700000000,207000000000,3717263313,0,4777372198,0.005745,0.008133,0.01358,0.000699,0.003422,0.008179,3.529e-05,1.049e-05,0.0318,0.001715,2.998,0.007037,0,1,0
207000000000,207300000000,3717263313,0,4777372198,0.005409,0.008133,0.01358,0.0007133,0.003437,0.008163,2.193e-05,1.049e-05,0.03888,0.0007858,3.101,0.007176,0,1,0
207300000000,207600000000,3717263313,0,4777372198,0.005356,0.008163,0.01358,0.0007296,0.003452,0.008224,2.956e-05,1.049e-05,0.03131,0.001858,3.16,0.007585,0,1,0
207600000000,207900000000,3717263313,0,4777372198,0.005302,0.008163,0.01358,0.0007448,0.003468,0.008224,3.242e-05,1.049e-05,0.06177,0.001499,3.012,0.006811,0,1,0
207900000000,208200000000,3717263313,0,4777372198,0.005646,0.008179,0.01358,0.0007601,0.003483,0.008224,2.861e-05,1.049e-05,0.03241,0.002144,2.927,0.006842,0,1,0
208200000000,208500000000,3717263313,0,4777372198,0.005486,0.008179,0.01358,0.0007763,0.003498,0.008209,2.67e-05,1.049e-05,0.02896,0.001999,2.916,0.00697,0,1,0
208500000000,208800000000,3717263313,0,4777372198,0.005539,0.008148,0.01358,0.0007915,0.00351,0.008255,4.959e-05,1.049e-05,0.0257,0.003502,3.142,0.007381,0,1,0
208800000000,209100000000,3717263313,0,4777372198,0.005577,0.008148,0.01358,0.0008049,0.003521,0.008179,1.907e-05,1.049e-05,0.03333,0.0007143,3.066,0.007446,0,1,0
209100000000,209400000000,3717263313,0,4777372198,0.005913,0.008133,0.01358,0.0008202,0.003536,0.008148,3.433e-05,1.049e-05,0.03491,0.003071,3.086,0.00713,0,1,0
209400000000,209700000000,3717263313,0,4777372198,0.0056,0.008148,0.01358,0.0008259,0.003536,0.008209,3.624e-05,1.144e-05,0.03229,0.002285,2.998,0.007025,0,1,0
209700000000,210000000000,3717263313,0,4777372198,0.005707,0.008148,0.01358,0.0008373,0.003548,0.008163,3.338e-05,1.144e-05,0.03442,0.002285,3.068,0.007224,0,1,0
210000000000,210300000000,3717263313,0,4777372198,0.005501,0.008163,0.01358,0.0008411,0.003551,0.008209,4.482e-05,1.144e-05,0.04712,0.002071,2.896,0.006285,0,1,0
210300000000,210600000000,3717263313,0,4777372198,0.005554,0.008163,0.01358,0.0008497,0.003563,0.008316,3.242e-05,1.144e-05,0.03503,0.002144,3.047,0.006692,0,1,0
210600000000,210900000000,3717263313,0,4777372198,0.00531,0.008148,0.01358,0.0008564,0.003567,0.008286,3.815e-05,1.144e-05,0.06787,0.004784,2.953,0.006646,0,1,0
210900000000,211200000000,3717263313,0,4777372198,0.005768,0.008133,0.01358,0.0008602,0.003571,0.008163,4.196e-05,1.144e-05,0.05151,0.003143,3.114,0.006945,0,1,0
211200000000,211500000000,3717263313,0,4777372198,0.005272,0.008148,0.01358,0.0008745,0.003586,0.008194,3.719e-05,1.144e-05,0.03833,0.002785,2.927,0.007052,0,1,0
211500000000,211800000000,3717263313,0,4777372198,0.005592,0.008148,0.01358,0.0008802,0.00359,0.008194,2.003e-05,1.144e-05,0.03583,0.0007143,3.18,0.007564,0,1,0
211800000000,212100000000,3717263313,0,4777372198,0.005203,0.008133,0.01358,0.0008793,0.00359,0.008163,3.529e-05,1.144e-05,0.04028,0.002998,2.848,0.006578,0,1,0
212100000000,212400000000,3717263313,0,4777372198,0.005386,0.008148,0.01358,0.0008888,0.003601,0.008423,2.575e-05,1.144e-05,0.03534,0.001715,3.209,0.007581,0,1,0
212400000000,212700000000,3717263313,0,4777372198,0.005272,0.008148,0.01358,0.0009003,0.003613,0.008179,3.338e-05,1.144e-05,0.02985,0.001928,2.816,0.006471,0,1,0
212700000000,213000000000,3717263313,0,4777372198,0.01199,0.009109,0.01447,0.0009441,0.003593,0.01776,0.0002003,1.144e-05,0.1953,0.02106,2.962,0.007069,0,1,0
213000000000,213300000000,3717263313,0,4777372198,0.005974,0.01363,0.01846,0.0007133,0.003429,0.01453,2.861e-05,1.144e-05,0.0556,0.002213,2.989,0.007038,0,1,0
213300000000,213600000000,3717263313,0,4777372198,0.005836,0.01291,0.01746,0.00072,0.003445,0.01295,2.67e-05,1.144e-05,0.03424,0.001499,2.952,0.006315,0,1,0
213600000000,213900000000,3717263313,0,4777372198,0.005455,0.01289,0.01746,0.0007296,0.00346,0.01309,4.864e-05,1.144e-05,0.08667,0.003643,3.243,0.007894,0,1,0
213900000000,214200000000,3717263313,0,4777372198,0.006409,0.01291,0.01746,0.0007391,0.003468,0.01295,4.196e-05,1.144e-05,0.03882,0.002998,3.021,0.006686,0,1,0
214200000000,214500000000,3717263313,0,4777372198,0.006187,0.01289,0.01746,0.0007439,0.003475,0.01292,2.67e-05,1.144e-05,0.03864,0.001928,2.979,0.006585,0,1,0
214500000000,214800000000,3717263313,0,4777372198,0.005684,0.01286,0.01746,0.000762,0.003494,0.01294,2.956e-05,1.144e-05,0.06335,0.002071,2.995,0.007527,0,1,0
214800000000,215100000000,3717263313,0,4777372198,0.005272,0.01289,0.01746,0.0007668,0.003498,0.01292,2.67e-05,1.144e-05,0.04486,0.001286,2.995,0.007389,0,1,0
215100000000,215400000000,3717263313,0,4777372198,0.005554,0.01289,0.01746,0.0007734,0.003506,0.01292,4.005e-05,1.144e-05,0.04614,0.003643,3.191,0.007965,0,1,0
215400000000,215700000000,3717263313,0,4777372198,0.005562,0.01289,0.01746,0.0004377,0.00317,0.01291,3.719e-05,1.144e-05,0.03156,0.002357,3.076,0.007648,0,1,0
215700000000,216000000000,3717263313,0,4777372198,0.00563,0.01288,0.01746,0.000453,0.003185,0.01289,3.242e-05,1.24e-05,0.03345,0.003071,3.08,0.007645,0,1,0
216000000000,216300000000,3717263313,0,4777372198,0.00592,0.01288,0.01746,0.0004663,0.003201,0.01295,2.861e-05,1.24e-05,0.04193,0.002144,3.067,0.007232,0,1,0
221100000000,221400000000,3717263313,0,4777372198,0.005814,0.01291,0.01746,0.0006886,0.003407,0.01294,4.005e-05,1.24e-05,0.0426,0.001642,2.863,0.007188,0,1,0
221400000000,221700000000,3717263313,0,4777372198,0.00592,0.01291,0.01746,0.0006962,0.003414,0.01295,3.719e-05,1.24e-05,0.04089,0.002571,2.919,0.007393,0,1,0
221700000000,222000000000,3717263313,0,4777372198,0.005577,0.01291,0.01746,0.0007057,0.003426,0.01292,4.959e-05,1.335e-05,0.0387,0.003071,2.805,0.007029,0,1,0
222000000000,222300000000,3717263313,0,4777372198,0.006126,0.01289,0.01746,0.0007114,0.003429,0.01302,3.242e-05,1.335e-05,0.03619,0.002071,2.747,0.006742,0,1,0
222300000000,222600000000,3717263313,0,4777372198,0.005829,0.01289,0.01746,0.0007257,0.003445,0.01292,3.242e-05,1.335e-05,0.03723,0.001928,2.897,0.007359,0,1,0
222600000000,222900000000,3717263313,0,4777372198,0.00602,0.01289,0.01746,0.0007315,0.003452,0.01292,4.387e-05,1.335e-05,0.03674,0.002285,2.892,0.007194,0,1,0
222900000000,223200000000,3717263313,0,4777372198,0.00589,0.01286,0.01746,0.0007467,0.003468,0.01289,4.101e-05,1.335e-05,0.04468,0.003784,2.874,0.006992,0,1,0
223200000000,223500000000,3717263313,0,4777372198,0.005943,0.01288,0.01746,0.0007524,0.003471,0.01291,3.624e-05,1.335e-05,0.03986,0.001429,2.811,0.007209,0,1,0
223500000000,223800000000,3717263313,0,4777372198,0.005646,0.01286,0.01746,0.0007572,0.003479,0.01289,4.292e-05,1.335e-05,0.03156,0.002357,2.884,0.007222,0,1,0
223800000000,224100000000,3717263313,0,4777372198,0.005989,0.01288,0.01746,0.0007591,0.003479,0.01292,6.485e-05,1.335e-05,0.05115,0.002716,2.898,0.007008,0,1,0
224100000000,224400000000,3717263313,0,4777372198,0.006027,0.01291,0.01746,0.0007572,0.003475,0.01295,8.106e-05,1.335e-05,0.03613,0.006073,2.951,0.0072,0,1,0
224400000000,224700000000,3717263313,0,4777372198,0.006432,0.01292,0.01746,0.0007696,0.00349,0.01305,6.294e-05,1.335e-05,0.0636,0.004211,2.823,0.006801,0,1,0
224700000000,225000000000,3717263313,0,4777372198,0.005936,0.01289,0.01746,0.0007858,0.003506,0.01292,5.627e-05,1.335e-05,0.0423,0.002571,2.942,0.007352,0,1,0
225000000000,225300000000,3717263313,0,4777372198,0.006241,0.01288,0.01746,0.0007906,0.00351,0.01289,4.101e-05,1.335e-05,0.05054,0.001429,2.966,0.007282,0,1,0
225300000000,225600000000,3717263313,0,4777372198,0.006477,0.01288,0.01746,0.0007925,0.003513,0.01289,7.248e-05,1.335e-05,0.04059,0.003143,2.72,0.006861,0,1,0
225600000000,225900000000,3717263313,0,4777372198,0.008011,0.01288,0.01746,0.0007973,0.003517,0.01294,6.676e-05,1.335e-05,0.09814,0.003216,2.724,0.00611,0,1,0
225900000000,226200000000,3717263313,0,4777372198,0.007446,0.01286,0.01746,0.0008106,0.003529,0.01291,7.534e-05,1.335e-05,0.05133,0.002213,2.584,0.005746,0,1,0
226200000000,226500000000,3717263313,0,4777372198,0.007256,0.01292,0.01746,0.000802,0.003521,0.01308,4.864e-05,1.335e-05,0.0415,0.002144,2.755,0.006424,0,1,0
226500000000,226800000000,3717263313,0,4777372198,0.008072,0.01289,0.01746,0.0007715,0.00349,0.01317,3.338e-05,1.335e-05,0.1331,0.001572,2.695,0.005802,0,1,0
226800000000,227100000000,3717263313,0,4777372198,0.008606,0.01286,0.01746,0.0004244,0.003143,0.01308,4.292e-05,1.335e-05,0.06555,0.002285,2.586,0.005425,0,1,0
227100000000,227400000000,3717263313,0,4777372198,0.009064,0.01288,0.01746,0.0004358,0.003155,0.01314,7.534e-05,1.335e-05,0.07922,0.003502,2.672,0.005801,0,1,0
227400000000,227700000000,3717263313,0,4777372198,0.006882,0.01288,0.01746,0.0004501,0.00317,0.01294,7.629e-05,1.335e-05,0.04736,0.002644,2.76,0.006278,0,1,0
227700000000,228000000000,3717263313,0,4777372198,0.008575,0.01286,0.01746,0.0004635,0.003181,0.01291,6.676e-05,1.431e-05,0.06812,0.003357,2.624,0.00547,0,1,0
228000000000,228300000000,3717263313,0,4777372198,0.008682,0.01289,0.01746,0.0004759,0.003189,0.01312,6.008e-05,1.431e-05,0.05237,0.001928,2.519,0.005307,0,1,0
228300000000,228600000000,3717263313,0,4777372198,0.008636,0.01291,0.01746,0.0004873,0.003201,0.01295,6.39e-05,1.431e-05,0.0611,0.003284,2.591,0.005279,0,1,0
228600000000,228900000000,3717263313,0,4777372198,0.008789,0.01289,0.01746,0.0004997,0.003204,0.01294,8.583e-05,1.431e-05,0.07153,0.002857,2.543,0.005541,0,1,0
228900000000,229200000000,3717263313,0,4777372198,0.007812,0.01288,0.01746,0.0005121,0.003216,0.01292,7.153e-05,1.431e-05,0.05176,0.003143,2.634,0.00589,0,1,0
229200000000,229500000000,3717263313,0,4777372198,0.007919,0.01288,0.01746,0.0005245,0.003223,0.01289,6.008e-05,1.431e-05,0.0592,0.001999,2.641,0.005942,0,1,0
229500000000,229800000000,3717263313,0,4777372198,0.008789,0.01288,0.01746,0.0005369,0.003231,0.01292,6.104e-05,1.431e-05,0.06165,0.003216,2.547,0.005394,0,1,0
229800000000,230100000000,3717263313,0,4777372198,0.009598,0.01288,0.01746,0.0005493,0.003239,0.013,3.433e-05,1.431e-05,0.07007,0.0009289,2.734,0.005444,0,1,0
230100000000,230400000000,3717263313,0,4777372198,0.007309,0.01286,0.01746,0.0005617,0.003246,0.01294,6.104e-05,1.431e-05,0.07727,0.002571,2.712,0.005859,0,1,0
230400000000,230700000000,3717263313,0,4777372198,0.008957,0.01286,0.01746,0.0005741,0.003258,0.01312,6.39e-05,1.431e-05,0.07336,0.003571,2.807,0.005664,0,1,0
230700000000,231000000000,3717263313,0,4777372198,0.009445,0.01288,0.01746,0.0005846,0.003269,0.01297,4.864e-05,1.431e-05,0.05743,0.00293,2.69,0.00542,0,1,0
231000000000,231300000000,3717263313,0,4777372198,0.008026,0.01286,0.01746,0.0005884,0.003273,0.01294,6.58e-05,1.431e-05,0.07788,0.001928,2.619,0.005408,0,1,0
231300000000,231600000000,3717263313,0,4777372198,0.009079,0.01288,0.01746,0.000597,0.003281,0.01297,6.008e-05,1.431e-05,0.07837,0.002644,2.76,0.005595,0,1,0
231600000000,231900000000,3717263313,0,4777372198,0.008774,0.01288,0.01746,0.0006075,0.003292,0.01299,3.242e-05,1.431e-05,0.08179,0.001143,2.743,0.005558,0,1,0
231900000000,232200000000,3717263313,0,4777372198,0.008499,0.01288,0.01746,0.0006189,0.003304,0.01291,4.768e-05,1.431e-05,0.06995,0.002571,2.689,0.00561,0,1,0
232200000000,232500000000,3717263313,0,4777372198,0.008514,0.01286,0.01746,0.0006323,0.003315,0.01291,5.054e-05,1.431e-05,0.05243,0.003071,2.699,0.005507,0,1,0
232500000000,232800000000,3717263313,0,4777372198,0.008972,0.01286,0.01746,0.0006437,0.003326,0.01309,7.915e-05,1.431e-05,0.0863,0.002785,2.798,0.005561,0,1,0
232800000000,233100000000,3717263313,0,4777372198,0.008514,0.01286,0.01746,0.0006542,0.003338,0.01289,3.529e-05,1.431e-05,0.06152,0.001358,2.648,0.005553,0,1,0
233100000000,233400000000,3717263313,0,4777372198,0.009094,0.01289,0.01746,0.0006647,0.003349,0.01297,9.155e-05,1.431e-05,0.08533,0.002998,2.706,0.005585,0,1,0
233400000000,233700000000,3717263313,0,4777372198,0.008408,0.01289,0.01746,0.0006695,0.003353,0.01292,4.768e-05,1.431e-05,0.09094,0.00243,2.667,0.00573,0,1,0
233700000000,234000000000,3717263313,0,4777372198,0.008804,0.01291,0.01746,0.0006781,0.003361,0.01306,4.005e-05,1.431e-05,0.06921,0.002144,2.683,0.005749,0,1,0
234000000000,234300000000,3717263313,0,4777372198,0.008835,0.01292,0.01746,0.0006914,0.003376,0.01324,5.341e-05,1.526e-05,0.1511,0.003357,2.588,0.005212,0,1,0
234300000000,234600000000,3717263313,0,4777372198,0.00856,0.01291,0.01746,0.0007057,0.003391,0.01311,4.387e-05,1.526e-05,0.05878,0.002644,2.637,0.005734,0,1,0
234600000000,234900000000,3717263313,0,4777372198,0.009018,0.01289,0.01746,0.0007124,0.003399,0.013,4.101e-05,1.526e-05,0.05756,0.002071,2.578,0.005535,0,1,0
234900000000,235200000000,3717263313,0,4777372198,0.007812,0.01289,0.01746,0.0007181,0.003403,0.01303,3.433e-05,1.526e-05,0.0484,0.001785,2.691,0.005704,0,1,0
235200000000,235500000000,3717263313,0,4777372198,0.008621,0.01286,0.01746,0.0007305,0.003414,0.01306,4.768e-05,1.526e-05,0.1289,0.002285,2.78,0.005817,0,1,0
235500000000,235800000000,3717263313,0,4777372198,0.008682,0.01289,0.01746,0.0007381,0.003422,0.01309,3.91e-05,1.526e-05,0.1187,0.00243,2.614,0.005257,0,1,0
235800000000,236100000000,3717263313,0,4777372198,0.008057,0.01292,0.01746,0.0007505,0.003437,0.01299,5.15e-05,1.526e-05,0.05481,0.001286,2.622,0.005359,0,1,0
236100000000,236400000000,3717263313,0,4777372198,0.007767,0.01289,0.01746,0.000761,0.003445,0.01292,4.196e-05,1.526e-05,0.05164,0.002499,2.808,0.00606,0,1,0
241200000000,241500000000,3717263313,0,4777372198,0.007607,0.01288,0.01746,0.0004597,0.003128,0.01306,4.578e-05,1.621e-05,0.06061,0.001429,2.604,0.005691,0,1,0
241500000000,241800000000,3717263313,0,4777372198,0.008133,0.01289,0.01746,0.0004749,0.003147,0.01309,3.624e-05,1.621e-05,0.1272,0.001642,2.68,0.005899,0,1,0
241800000000,242100000000,3717263313,0,4777372198,0.008606,0.01288,0.01746,0.000494,0.003162,0.01297,4.101e-05,1.621e-05,0.0741,0.002071,2.738,0.006073,0,1,0
242100000000,242400000000,3717263313,0,4777372198,0.008179,0.01286,0.01746,0.000514,0.003178,0.01291,4.387e-05,1.621e-05,0.04443,0.002857,2.786,0.005939,0,1,0
242400000000,242700000000,3717263313,0,4777372198,0.007889,0.01285,0.01746,0.0005283,0.003189,0.01292,4.196e-05,1.621e-05,0.04431,0.00293,2.807,0.005884,0,1,0
242700000000,243000000000,3717263313,0,4777372198,0.008957,0.01286,0.01746,0.0005417,0.003204,0.01289,2.861e-05,1.621e-05,0.05475,0.001143,2.834,0.00585,0,1,0
243000000000,243300000000,3717263313,0,4777372198,0.008743,0.01286,0.01746,0.0005569,0.00322,0.01295,4.578e-05,1.621e-05,0.0614,0.002499,2.707,0.005655,0,1,0
243300000000,243600000000,3717263313,0,4777372198,0.007843,0.01286,0.01746,0.0005741,0.003231,0.01291,3.052e-05,1.621e-05,0.05865,0.001143,2.598,0.005576,0,1,0
243600000000,243900000000,3717263313,0,4777372198,0.00853,0.01288,0.01746,0.0005875,0.003235,0.01317,4.673e-05,1.621e-05,0.08801,0.003071,2.871,0.006542,0,1,0
243900000000,244200000000,3717263313,0,4777372198,0.008942,0.01285,0.01746,0.000596,0.003246,0.01297,4.101e-05,1.621e-05,0.06085,0.002213,2.883,0.006665,0,1,0
244200000000,244500000000,3717263313,0,4777372198,0.008438,0.01285,0.01746,0.0006037,0.003254,0.01302,4.864e-05,1.621e-05,0.08276,0.002644,2.689,0.006379,0,1,0
244500000000,244800000000,3717263313,0,4777372198,0.008759,0.01286,0.01746,0.0006142,0.003262,0.01291,4.292e-05,1.621e-05,0.0647,0.002213,2.705,0.006217,0,1,0
244800000000,245100000000,3717263313,0,4777372198,0.008804,0.01289,0.01746,0.0006285,0.003277,0.01318,3.242e-05,1.621e-05,0.08691,0.001429,2.566,0.005416,0,1,0
245100000000,245400000000,3717263313,0,4777372198,0.008331,0.01286,0.01746,0.0006428,0.003292,0.01291,3.338e-05,1.621e-05,0.06226,0.001999,2.565,0.00568,0,1,0
245400000000,245700000000,3717263313,0,4777372198,0.008224,0.01285,0.01746,0.0006552,0.003304,0.01291,4.005e-05,1.621e-05,0.0686,0.002499,2.778,0.005787,0,1,0
245700000000,246000000000,3717263313,0,4777372198,0.009094,0.01288,0.01746,0.0006638,0.003311,0.01297,3.242e-05,1.621e-05,0.1168,0.002213,2.777,0.006127,0,1,0
246000000000,246300000000,3717263313,0,4777372198,0.008148,0.01286,0.01746,0.0006714,0.003319,0.01299,3.052e-05,1.621e-05,0.05273,0.001715,2.695,0.005844,0,1,0
251400000000,251700000000,3717263313,0,4777372198,0.006027,0.01288,0.01746,0.000886,0.003525,0.01291,4.196e-05,1.717e-05,0.0415,0.002144,2.671,0.006164,0,1,0
251700000000,252000000000,3717263313,0,4777372198,0.005829,0.01288,0.01746,0.0009003,0.00354,0.01291,2.956e-05,1.717e-05,0.02725,0.001215,2.876,0.0071,0,1,0
252000000000,252300000000,3717263313,0,4777372198,0.005394,0.01289,0.01746,0.0009155,0.003551,0.01291,4.292e-05,1.717e-05,0.04486,0.00293,2.905,0.006889,0,1,0
252300000000,252600000000,3717263313,0,4777372198,0.006104,0.01289,0.01746,0.0009174,0.003555,0.01294,3.242e-05,1.717e-05,0.05115,0.0009289,2.704,0.00648,0,1,0
252600000000,252900000000,3717263313,0,4777372198,0.005615,0.01291,0.01746,0.0009298,0.003567,0.01295,2.766e-05,1.717e-05,0.03613,0.001143,2.846,0.007259,0,1,0
252900000000,253200000000,3717263313,0,4777372198,0.005493,0.01289,0.01746,0.0009432,0.003582,0.01292,2.003e-05,1.717e-05,0.04041,0.0008574,2.764,0.006848,0,1,0
253200000000,253500000000,3717263313,0,4777372198,0.005493,0.01291,0.01746,0.0009556,0.003593,0.01294,2.766e-05,1.717e-05,0.05859,0.001358,2.812,0.006728,0,1,0
253500000000,253800000000,3717263313,0,4777372198,0.00531,0.01289,0.01746,0.0009604,0.003593,0.01295,3.719e-05,1.812e-05,0.04022,0.001572,3.019,0.007464,0,1,0
253800000000,254100000000,3717263313,0,4777372198,0.005028,0.01289,0.01746,0.0009546,0.003578,0.01294,3.719e-05,1.812e-05,0.0448,0.00243,3.034,0.007539,0,1,0
254100000000,254400000000,3717263313,0,4777372198,0.004822,0.01286,0.01746,0.0009661,0.00359,0.01289,3.529e-05,1.812e-05,0.02652,0.002716,2.977,0.006949,0,1,0
254400000000,254700000000,3717263313,0,4777372198,0.004471,0.01286,0.01746,0.0006895,0.003315,0.01289,2.67e-05,1.812e-05,0.0545,0.001072,2.732,0.006753,0,1,0
254700000000,255000000000,3717263313,0,4777372198,0.00473,0.01285,0.01746,0.0005198,0.003143,0.01286,5.436e-05,1.812e-05,0.02515,0.002213,2.962,0.007318,0,1,0
255000000000,255300000000,3717263313,0,4777372198,0.004799,0.01288,0.01746,0.0005322,0.003159,0.01289,3.719e-05,1.812e-05,0.04077,0.002213,3.03,0.007039,0,1,0
255300000000,255600000000,3717263313,0,4777372198,0.004883,0.01288,0.01746,0.0005445,0.00317,0.01292,3.052e-05,1.812e-05,0.06421,0.002144,2.699,0.00622,0,1,0
255600000000,255900000000,3717263313,0,4777372198,0.004761,0.01288,0.01746,0.0005541,0.003178,0.01292,2.289e-05,1.812e-05,0.03986,0.001499,3.006,0.008117,0,1,0
255900000000,256200000000,3717263313,0,4777372198,0.004684,0.01289,0.01746,0.0005655,0.003189,0.01294,2.861e-05,1.812e-05,0.05725,0.001286,2.749,0.007079,0,1,0
256200000000,256500000000,3717263313,0,4777372198,0.005127,0.01289,0.01746,0.000577,0.003201,0.01294,1.907e-05,1.812e-05,0.03461,0.0004997,2.85,0.006535,0,1,0
256500000000,256800000000,3717263313,0,4777372198,0.004662,0.01289,0.01746,0.0005894,0.003216,0.01292,2.003e-05,1.812e-05,0.03723,0.0007858,2.925,0.006855,0,1,0
256800000000,257100000000,3717263313,0,4777372198,0.004303,0.01291,0.01746,0.0006018,0.003227,0.01294,2.193e-05,1.812e-05,0.02557,0.0008574,2.983,0.007995,0,1,0
257100000000,257400000000,3717263313,0,4777372198,0.004555,0.01291,0.01746,0.0006151,0.003239,0.01295,4.578e-05,1.812e-05,0.0451,0.003284,2.804,0.006944,0,1,0
257400000000,257700000000,3717263313,0,4777372198,0.005089,0.01289,0.01746,0.0006266,0.00325,0.01294,2.48e-05,1.812e-05,0.03979,0.001358,2.875,0.006796,0,1,0
257700000000,258000000000,3717263313,0,4777372198,0.004799,0.01288,0.01746,0.000639,0.003265,0.01289,2.861e-05,1.812e-05,0.03943,0.001429,3.038,0.007067,0,1,0
258000000000,258300000000,3717263313,0,4777372198,0.004517,0.01291,0.01746,0.0006495,0.003273,0.01294,3.147e-05,1.812e-05,0.04358,0.001785,2.914,0.006761,0,1,0
258300000000,258600000000,3717263313,0,4777372198,0.005005,0.01289,0.01746,0.0006609,0.003284,0.01292,3.529e-05,1.812e-05,0.05328,0.001642,2.828,0.006834,0,1,0
258600000000,258900000000,3717263313,0,4777372198,0.005585,0.01286,0.01746,0.0006695,0.003296,0.01288,2.384e-05,1.812e-05,0.04095,0.001072,2.981,0.007215,0,1,0
258900000000,259200000000,3717263313,0,4777372198,0.004341,0.01286,0.01746,0.0006714,0.003296,0.01288,2.384e-05,1.812e-05,0.0368,0.0009995,3.142,0.007617,0,1,0
259200000000,259500000000,3717263313,0,4777372198,0.004929,0.01286,0.01746,0.0006714,0.003296,0.01288,2.956e-05,1.812e-05,0.02997,0.001642,2.971,0.007312,0,1,0
259500000000,259800000000,3717263313,0,4777372198,0.004829,0.01286,0.01746,0.0006742,0.0033,0.01288,2.289e-05,1.812e-05,0.03436,0.001286,2.969,0.0075,0,1,0
259800000000,260100000000,3717263313,0,4777372198,0.004326,0.01286,0.01746,0.0006781,0.003304,0.01289,2.575e-05,1.812e-05,0.03461,0.002144,2.906,0.007369,0,1,0
260100000000,260400000000,3717263313,0,4777372198,0.004349,0.01286,0.01746,0.0006876,0.003311,0.01288,2.098e-05,1.812e-05,0.04028,0.0008574,3.118,0.008624,0,1,0
260400000000,260700000000,3717263313,0,4777372198,0.004112,0.01288,0.01746,0.0006962,0.003319,0.01291,2.861e-05,1.812e-05,0.05151,0.001499,2.915,0.006943,0,1,0
260700000000,261000000000,3717263313,0,4777372198,0.004562,0.01289,0.01746,0.000699,0.003323,0.01291,2.193e-05,1.812e-05,0.04175,0.0006428,2.916,0.006528,0,1,0
261000000000,261300000000,3717263313,0,4777372198,0.004768,0.01291,0.01746,0.0007095,0.003334,0.01295,3.242e-05,1.812e-05,0.03497,0.002071,2.982,0.007111,0,1,0
261300000000,261600000000,3717263313,0,4777372198,0.004486,0.01285,0.01746,0.00072,0.003345,0.01289,2.289e-05,1.907e-05,0.03363,0.0007858,2.695,0.006404,0,1,0
261600000000,261900000000,3717263313,0,4777372198,0.00473,0.01285,0.01746,0.0007162,0.003342,0.01286,2.098e-05,1.907e-05,0.04694,0.0005713,2.829,0.006902,0,1,0
261900000000,262200000000,3717263313,0,4777372198,0.004692,0.01285,0.01746,0.0007162,0.003342,0.01285,2.67e-05,1.907e-05,0.03351,0.0009995,3.045,0.006834,0,1,0
262200000000,262500000000,3717263313,0,4777372198,0.005089,0.01286,0.01746,0.0007191,0.003345,0.01289,2.098e-05,1.907e-05,0.0553,0.0008574,3.026,0.007404,0,1,0
262500000000,262800000000,3717263313,0,4777372198,0.004646,0.01285,0.01746,0.0007286,0.003353,0.01288,2.289e-05,1.907e-05,0.02975,0.0009289,3.052,0.008349,0,1,0
262800000000,263100000000,3717263313,0,4777372198,0.004684,0.01286,0.01746,0.000742,0.003365,0.01289,3.719e-05,1.907e-05,0.05225,0.002285,2.847,0.007058,0,1,0
263100000000,263400000000,3717263313,0,4777372198,0.004898,0.01286,0.01746,0.0007515,0.003376,0.01289,2.575e-05,1.907e-05,0.04358,0.001429,3.059,0.007721,0,1,0
263400000000,263700000000,3717263313,0,4777372198,0.004501,0.01288,0.01746,0.0007591,0.003384,0.01289,2.956e-05,1.907e-05,0.05542,0.001715,3.14,0.008025,0,1,0
263700000000,264000000000,3717263313,0,4777372198,0.004044,0.01286,0.01746,0.0007687,0.003391,0.01291,1.717e-05,1.907e-05,0.02573,0.0007858,2.954,0.00663,0,1,0
264000000000,264300000000,3717263313,0,4777372198,0.004913,0.01286,0.01746,0.0007715,0.003395,0.01289,2.956e-05,1.907e-05,0.03156,0.001143,3.264,0.008306,0,1,0
264300000000,264600000000,3717263313,0,4777372198,0.004967,0.01285,0.01746,0.0007715,0.003395,0.01286,2.384e-05,1.907e-05,0.03864,0.0009289,3.148,0.00824,0,1,0
264600000000,264900000000,3717263313,0,4777372198,0.004646,0.01286,0.01746,0.0007591,0.003384,0.01289,2.193e-05,1.907e-05,0.03192,0.0007143,2.991,0.00724,0,1,0
264900000000,265200000000,3717263313,0,4777372198,0.004288,0.01286,0.01746,0.0007648,0.003387,0.01288,2.193e-05,1.907e-05,0.03589,0.001572,3.112,0.008578,0,1,0
265200000000,265500000000,3717263313,0,4777372198,0.004501,0.01286,0.01746,0.0007763,0.003399,0.01289,1.717e-05,1.907e-05,0.039,0.0004997,2.907,0.008084,0,1,0
265500000000,265800000000,3717263313,0,4777372198,0.004707,0.01285,0.01746,0.0007877,0.00341,0.01288,1.812e-05,1.907e-05,0.0304,0.0005713,2.906,0.007961,0,1,0
265800000000,266100000000,3717263313,0,4777372198,0.004868,0.01286,0.01746,0.0007772,0.003403,0.01291,2.193e-05,1.907e-05,0.03784,0.0008574,2.831,0.007396,0,1,0
266100000000,266400000000,3717263313,0,4777372198,0.004158,0.01288,0.01746,0.000782,0.003407,0.01291,2.098e-05,1.907e-05,0.02921,0.0008574,2.934,0.008099,0,1,0
266400000000,266700000000,3717263313,0,4777372198,0.004066,0.01288,0.01746,0.0007744,0.003399,0.01291,3.147e-05,1.907e-05,0.03351,0.002144,2.866,0.00776,0,1,0
266700000000,267000000000,3717263313,0,4777372198,0.004654,0.01289,0.01746,0.0007811,0.003407,0.01294,3.338e-05,1.907e-05,0.03204,0.001572,3.005,0.007033,0,1,0
267000000000,267300000000,3717263313,0,4777372198,0.00499,0.01291,0.01746,0.0007896,0.003414,0.01295,3.338e-05,1.907e-05,0.06146,0.001072,2.67,0.006644,0,1,0
267300000000,267600000000,3717263313,0,4777372198,0.004707,0.01288,0.01746,0.0008001,0.003426,0.01291,4.482e-05,1.907e-05,0.03607,0.002857,2.955,0.007451,0,1,0
267600000000,267900000000,3717263313,0,4777372198,0.004593,0.01286,0.01746,0.0008135,0.003437,0.01289,6.008e-05,1.907e-05,0.04041,0.004211,2.798,0.005987,0,1,0
267900000000,268200000000,3717263313,0,4777372198,0.004814,0.01286,0.01746,0.0008268,0.003452,0.01289,2.289e-05,1.907e-05,0.04297,0.0005713,2.842,0.006416,0,1,0
268200000000,268500000000,3717263313,0,4777372198,0.005096,0.01288,0.01746,0.0008402,0.003464,0.01294,2.67e-05,1.907e-05,0.03613,0.001143,2.869,0.006818,0,1,0
268500000000,268800000000,3717263313,0,4777372198,0.005219,0.01286,0.01746,0.0008535,0.003479,0.01288,2.48e-05,1.907e-05,0.03186,0.001286,2.875,0.006461,0,1,0
268800000000,269100000000,3717263313,0,4777372198,0.007225,0.01286,0.01746,0.0005789,0.003204,0.01289,4.196e-05,2.003e-05,0.04553,0.002357,3.024,0.00669,0,1,0
269100000000,269400000000,3717263313,0,4777372198,0.006821,0.01286,0.01746,0.0005035,0.003128,0.01288,2.289e-05,2.003e-05,0.02628,0.0004997,3.12,0.007121,0,1,0
269400000000,269700000000,3717263313,0,4777372198,0.007164,0.01286,0.01746,0.0005198,0.003143,0.01291,2.67e-05,2.003e-05,0.04987,0.0008574,2.815,0.006104,0,1,0
269700000000,270000000000,3717263313,0,4777372198,0.007309,0.01286,0.01746,0.000536,0.003162,0.01289,3.624e-05,2.003e-05,0.04572,0.001858,2.896,0.006102,0,1,0
270000000000,270300000000,3717263313,0,4777372198,0.006912,0.01286,0.01746,0.0005531,0.003178,0.01291,2.861e-05,2.003e-05,0.0412,0.001858,2.767,0.006145,0,1,0
270300000000,270600000000,3717263313,0,4777372198,0.006577,0.01286,0.01746,0.0005703,0.003197,0.01291,3.052e-05,2.003e-05,0.05383,0.002144,2.899,0.006405,0,1,0
270600000000,270900000000,3717263313,0,4777372198,0.006561,0.01285,0.01746,0.0005865,0.003212,0.01291,3.147e-05,2.003e-05,0.06384,0.001999,2.939,0.006324,0,1,0
270900000000,271200000000,3717263313,0,4777372198,0.006348,0.01283,0.01746,0.0006018,0.003227,0.01286,2.384e-05,2.003e-05,0.04291,0.0009995,3.227,0.007677,0,1,0
271200000000,271500000000,3717263313,0,4777372198,0.006271,0.01283,0.01746,0.0006189,0.003242,0.01286,2.384e-05,2.003e-05,0.03528,0.0009289,2.98,0.006967,0,1,0
281400000000,281700000000,3717263313,0,4777372198,0.006439,0.008224,0.01358,0.000536,0.003269,0.008255,3.815e-05,1.049e-05,0.05005,0.003143,3.056,0.006292,0,1,0
281700000000,282000000000,3717263313,0,4777372198,0.006149,0.008209,0.01358,0.0005522,0.003288,0.00827,2.67e-05,1.049e-05,0.03998,0.001715,2.879,0.005846,0,1,0
282000000000,282300000000,3717263313,0,4777372198,0.006432,0.008194,0.01358,0.0005665,0.0033,0.008224,2.575e-05,1.049e-05,0.03778,0.001215,2.979,0.006484,0,1,0
282300000000,282600000000,3717263313,0,4777372198,0.006432,0.008209,0.01358,0.0005798,0.003315,0.00824,2.861e-05,1.049e-05,0.03467,0.001642,3.065,0.006823,0,1,0
282600000000,282900000000,3717263313,0,4777372198,0.006096,0.008209,0.01358,0.0005884,0.003319,0.00824,3.147e-05,1.049e-05,0.03436,0.002499,2.887,0.005736,0,1,0
282900000000,283200000000,3717263313,0,4777372198,0.006607,0.008209,0.01358,0.000598,0.00333,0.008224,1.526e-05,1.144e-05,0.03888,0.0004282,3.111,0.006872,0,1,0
283200000000,283500000000,3717263313,0,4777372198,0.006424,0.008224,0.01358,0.0006037,0.003334,0.008255,1.907e-05,1.144e-05,0.04816,0.0007858,2.946,0.006044,0,1,0
283500000000,283800000000,3717263313,0,4777372198,0.00631,0.008209,0.01358,0.0006084,0.003342,0.00824,4.292e-05,1.144e-05,0.04938,0.00243,2.885,0.005933,0,1,0
283800000000,284100000000,3717263313,0,4777372198,0.006035,0.008209,0.01358,0.0006161,0.003349,0.00824,3.624e-05,1.144e-05,0.0318,0.002644,2.899,0.006423,0,1,0
284100000000,284400000000,3717263313,0,4777372198,0.006012,0.008194,0.01358,0.0006332,0.003365,0.00827,2.289e-05,1.144e-05,0.04376,0.0005713,2.85,0.005984,0,1,0
284400000000,284700000000,3717263313,0,4777372198,0.006157,0.008194,0.01358,0.0006466,0.00338,0.00827,2.48e-05,1.144e-05,0.0368,0.001499,2.869,0.006057,0,1,0
284700000000,285000000000,3717263313,0,4777372198,0.006187,0.008209,0.01358,0.0006618,0.003395,0.008347,2.861e-05,1.144e-05,0.06836,0.001358,3.058,0.006325,0,1,0
285000000000,285300000000,3717263313,0,4777372198,0.006119,0.008179,0.01358,0.0006781,0.00341,0.008224,2.48e-05,1.144e-05,0.04218,0.001358,3.017,0.006071,0,1,0
285300000000,285600000000,3717263313,0,4777372198,0.006401,0.008179,0.01358,0.0006933,0.003426,0.008255,2.766e-05,1.144e-05,0.03772,0.001785,3.162,0.006807,0,1,0
285600000000,285900000000,3717263313,0,4777372198,0.006432,0.008209,0.01358,0.0007067,0.003441,0.00824,2.289e-05,1.144e-05,0.03345,0.001072,3.101,0.006614,0,1,0
285900000000,286200000000,3717263313,0,4777372198,0.006256,0.008194,0.01358,0.000721,0.003452,0.008255,2.384e-05,1.144e-05,0.05103,0.001429,3.041,0.006385,0,1,0
286200000000,286500000000,3717263313,0,4777372198,0.006248,0.008179,0.01358,0.0007191,0.003452,0.008209,1.717e-05,1.144e-05,0.04358,0.0008574,3.033,0.00683,0,1,0
286500000000,286800000000,3717263313,0,4777372198,0.006233,0.008179,0.01358,0.0007248,0.003456,0.00824,2.766e-05,1.144e-05,0.04901,0.001858,3.038,0.006739,0,1,0
286800000000,287100000000,3717263313,0,4777372198,0.006187,0.008194,0.01358,0.0007248,0.003456,0.00824,2.48e-05,1.144e-05,0.02939,0.001429,2.877,0.005962,0,1,0
287100000000,287400000000,3717263313,0,4777372198,0.005943,0.008194,0.01358,0.0007315,0.003464,0.008209,2.48e-05,1.144e-05,0.03241,0.001215,3.11,0.006967,0,1,0
287400000000,287700000000,3717263313,0,4777372198,0.005615,0.008179,0.01358,0.0007401,0.003471,0.008209,2.193e-05,1.144e-05,0.04889,0.001429,3.127,0.007182,0,1,0
287700000000,288000000000,3717263313,0,4777372198,0.006119,0.008179,0.01358,0.0007544,0.003487,0.008392,2.575e-05,1.144e-05,0.04382,0.002716,2.986,0.006366,0,1,0
288000000000,288300000000,3717263313,0,4777372198,0.006493,0.008163,0.01358,0.0007668,0.003498,0.008194,3.433e-05,1.144e-05,0.03857,0.001999,2.959,0.006479,0,1,0
288300000000,288600000000,3717263313,0,4777372198,0.006653,0.008163,0.01358,0.0007811,0.003513,0.008179,2.67e-05,1.144e-05,0.04425,0.001715,3.017,0.006413,0,1,0
288600000000,288900000000,3717263313,0,4777372198,0.006149,0.008179,0.01358,0.0007896,0.003521,0.008255,2.575e-05,1.144e-05,0.03979,0.001286,2.933,0.005977,0,1,0
288900000000,289200000000,3717263313,0,4777372198,0.005013,0.008179,0.01358,0.0007982,0.003532,0.008194,2.384e-05,1.144e-05,0.03284,0.001572,3.089,0.007107,0,1,0
289200000000,289500000000,3717263313,0,4777372198,0.005234,0.008163,0.01358,0.0008068,0.00354,0.008286,2.289e-05,1.144e-05,0.09302,0.001358,2.997,0.006819,0,1,0
289500000000,289800000000,3717263313,0,4777372198,0.005386,0.008179,0.01358,0.0008144,0.003548,0.008209,2.67e-05,1.24e-05,0.03497,0.0009289,2.955,0.006761,0,1,0
289800000000,290100000000,3717263313,0,4777372198,0.005562,0.008163,0.01358,0.0002146,0.002945,0.008224,2.766e-05,1.24e-05,0.04474,0.001358,3.116,0.007876,0,1,0
290100000000,290400000000,3717263313,0,4777372198,0.005508,0.008163,0.01358,0.0002136,0.002945,0.008194,3.529e-05,1.24e-05,0.02713,0.001715,2.95,0.00654,0,1,0
290400000000,290700000000,3717263313,0,4777372198,0.005554,0.008179,0.01358,0.0002289,0.00296,0.008194,3.338e-05,1.24e-05,0.04492,0.001143,2.988,0.006494,0,1,0
290700000000,291000000000,3717263313,0,4777372198,0.005684,0.008163,0.01358,0.0002441,0.002975,0.008179,2.861e-05,1.24e-05,0.03442,0.001499,3.04,0.006782,0,1,0
291000000000,291300000000,3717263313,0,4777372198,0.005745,0.008209,0.01358,0.0002604,0.002995,0.008255,2.861e-05,1.24e-05,0.03479,0.001072,3.194,0.006912,0,1,0
291300000000,291600000000,3717263313,0,4777372198,0.005768,0.008209,0.01358,0.0002766,0.00301,0.008224,3.433e-05,1.24e-05,0.03571,0.001858,3.058,0.006716,0,1,0
291600000000,291900000000,3717263313,0,4777372198,0.006027,0.008209,0.01358,0.0002918,0.003025,0.00827,6.962e-05,1.24e-05,0.05609,0.002857,3.099,0.006702,0,1,0
291900000000,292200000000,3717263313,0,4777372198,0.006027,0.008224,0.01358,0.000308,0.00304,0.008423,4.482e-05,1.24e-05,0.06177,0.001642,2.745,0.005633,0,1,0
292200000000,292500000000,3717263313,0,4777372198,0.005768,0.008209,0.01358,0.0003233,0.003056,0.00824,2.766e-05,1.24e-05,0.05658,0.002357,3.002,0.006609,0,1,0
292500000000,292800000000,3717263313,0,4777372198,0.005768,0.008194,0.01358,0.0003386,0.003071,0.008224,2.956e-05,1.24e-05,0.03638,0.001215,2.982,0.006576,0,1,0
292800000000,293100000000,3717263313,0,4777372198,0.006027,0.008194,0.01358,0.0003328,0.003063,0.008224,3.815e-05,1.24e-05,0.02896,0.001429,3.022,0.006368,0,1,0
293100000000,293400000000,3717263313,0,4777372198,0.005905,0.008224,0.01358,0.0003443,0.003075,0.008255,3.338e-05,1.24e-05,0.04065,0.0008574,2.926,0.006822,0,1,0
293400000000,293700000000,3717263313,0,4777372198,0.00589,0.008224,0.01358,0.0003595,0.003094,0.00824,4.482e-05,1.24e-05,0.04413,0.001429,2.833,0.006158,0,1,0
293700000000,294000000000,3717263313,0,4777372198,0.006096,0.008209,0.01358,0.0003729,0.003105,0.008469,5.245e-05,1.24e-05,0.04803,0.001858,2.908,0.006055,0,1,0
294000000000,294300000000,3717263313,0,4777372198,0.005569,0.008194,0.01358,0.0003834,0.003117,0.008209,3.624e-05,1.24e-05,0.03632,0.001642,3.13,0.007119,0,1,0
294300000000,294600000000,3717263313,0,4777372198,0.005653,0.008194,0.01358,0.0003977,0.003132,0.008255,4.387e-05,1.24e-05,0.04559,0.003571,2.877,0.006264,0,1,0
294600000000,294900000000,3717263313,0,4777372198,0.005638,0.008209,0.01358,0.000411,0.003143,0.008224,4.196e-05,1.24e-05,0.03387,0.002071,3.092,0.006645,0,1,0
294900000000,295200000000,3717263313,0,4777372198,0.005836,0.008194,0.01358,0.0004168,0.003151,0.008224,3.815e-05,1.24e-05,0.03943,0.002285,2.934,0.00647,0,1,0
295200000000,295500000000,3717263313,0,4777372198,0.005562,0.008209,0.01358,0.0004272,0.003159,0.00824,2.766e-05,1.24e-05,0.02823,0.002213,3.141,0.006807,0,1,0
295500000000,295800000000,3717263313,0,4777372198,0.006004,0.008209,0.01358,0.0004339,0.003166,0.00824,5.531e-05,1.24e-05,0.03754,0.003075,3.07,0.006888,0,1,0
295800000000,296100000000,3717263313,0,4777372198,0.005989,0.008224,0.01358,0.0004387,0.00317,0.008255,3.529e-05,1.335e-05,0.02902,0.002213,3.008,0.00666,0,1,0
296100000000,296400000000,3717263313,0,4777372198,0.005791,0.00824,0.01358,0.0004358,0.003166,0.008255,4.005e-05,1.335e-05,0.03888,0.001785,3.033,0.006575,0,1,0
296400000000,296700000000,3717263313,0,4777372198,0.005821,0.008224,0.01358,0.0004482,0.003181,0.00824,2.575e-05,1.335e-05,0.03723,0.001358,3.185,0.00705,0,1,0
296700000000,297000000000,3717263313,0,4777372198,0.005928,0.008209,0.01358,0.0004616,0.003193,0.00824,4.673e-05,1.335e-05,0.04108,0.002571,3.009,0.006364,0,1,0
297000000000,297300000000,3717263313,0,4777372198,0.005592,0.008194,0.01358,0.0004759,0.003208,0.008209,2.766e-05,1.335e-05,0.03116,0.002285,3.028,0.006748,0,1,0
297300000000,297600000000,3717263313,0,4777372198,0.005379,0.008209,0.01358,0.0004911,0.003223,0.008255,2.956e-05,1.335e-05,0.0343,0.001928,3.158,0.00724,0,1,0
297600000000,297900000000,3717263313,0,4777372198,0.005653,0.008224,0.01358,0.0005007,0.003235,0.00824,2.956e-05,1.335e-05,0.03558,0.002071,3.032,0.006474,0,1,0
297900000000,298200000000,3717263313,0,4777372198,0.005836,0.008194,0.01358,0.0004969,0.003231,0.008209,3.433e-05,1.335e-05,0.03473,0.002571,3.095,0.006843,0,1,0
298200000000,298500000000,3717263313,0,4777372198,0.005455,0.008224,0.01358,0.0004835,0.003216,0.008255,3.147e-05,1.335e-05,0.05261,0.001358,3.093,0.007587,0,1,0
298500000000,298800000000,3717263313,0,4777372198,0.005417,0.00824,0.01358,0.0004663,0.003201,0.00827,2.384e-05,1.335e-05,0.02432,0.001429,2.884,0.00707,0,1,0
298800000000,299100000000,3717263313,0,4777372198,0.005882,0.00824,0.01358,0.0004673,0.003201,0.00827,3.242e-05,1.335e-05,0.04016,0.002285,3.196,0.007916,0,1,0
299100000000,299400000000,3717263313,0,4777372198,0.00605,0.00824,0.01358,0.0004787,0.003212,0.00827,3.815e-05,1.335e-05,0.02679,0.00243,3.054,0.007405,0,1,0
299400000000,299700000000,3717263313,0,4777372198,0.005936,0.00824,0.01358,0.0004873,0.00322,0.008255,2.48e-05,1.335e-05,0.03442,0.001715,3.215,0.007599,0,1,0
299700000000,300000000000,3717263313,0,4777372198,0.006241,0.008209,0.01358,0.0004978,0.003231,0.00824,4.292e-05,1.335e-05,0.03,0.002499,3.087,0.007607,0,1,0
