5700000000,6000000000,3768539610,0,3001375393,0.0002871,0.0004473,0.001923,0.0001593,0.0003929,0.0004787,1.907e-06,3.815e-06,0.001102,7.153e-05,9.766,0.04469,0,0,0.0002918
6000000000,6300000000,3768539610,0,3001375393,0.0002937,0.0004539,0.001923,0.0001612,0.0004005,0.0004778,7.629e-06,3.815e-06,0.001011,0.001572,11.39,0.05487,0,0,0.0003967
6300000000,6600000000,3768539610,0,3001375393,0.0002747,0.0004292,0.001925,0.0001631,0.0003977,0.0004778,1.717e-05,3.815e-06,0.001156,0.00293,15.96,0.08067,0,0,0.0002909
6600000000,6900000000,3768539610,0,3001375393,0.000289,0.0003386,0.001925,0.000165,0.0004196,0.0004778,2.861e-06,3.815e-06,0.001442,0.0001431,9.38,0.04096,0,0,0.0003223
6900000000,7200000000,3768539610,0,3001375393,0.0003023,0.0004244,0.001923,0.0001669,0.0004139,0.0004778,7.629e-06,3.815e-06,0.001287,0.001499,10.18,0.0476,0,0,0.000186
7200000000,7500000000,3768539610,0,3001375393,0.0002832,0.0003891,0.001925,0.0001688,0.0003881,0.0004778,1.526e-05,3.815e-06,0.001139,0.002144,14.12,0.07038,0,0,0.0001907
7500000000,7800000000,3768539610,0,3001375393,0.0002995,0.000453,0.001923,0.0001707,0.0004148,0.0004778,1.907e-06,3.815e-06,0.0009584,0.0001431,11.37,0.05252,0,0,0.0001593
7800000000,8100000000,3768539610,0,3001375393,0.0002975,0.0003481,0.001925,0.0001726,0.0004187,0.0004778,3.815e-06,3.815e-06,0.0007124,0.0007143,8.713,0.03834,0,0,0.0001965
8100000000,8400000000,3768539610,0,3001375393,0.0002956,0.000433,0.001923,0.0001745,0.0003939,0.0004778,7.629e-06,3.815e-06,0.001017,0.001072,10.75,0.05,0,0,0.0003347
8400000000,8700000000,3768539610,0,3001375393,0.0002604,0.000452,0.001923,0.0001764,0.0004139,0.0004778,1.907e-06,3.815e-06,0.0007324,0.0001431,7.416,0.0311,0,0,0.0003347
8700000000,9000000000,3768539610,0,3001375393,0.0002832,0.0004473,0.001923,0.0001783,0.000412,0.0004778,1.907e-06,3.815e-06,0.0007458,7.153e-05,8.59,0.03844,0,0,0.0001917
9000000000,9300000000,3768539610,0,3001375393,0.0002813,0.0004473,0.001923,0.0001802,0.0004139,0.0004778,4.768e-06,3.815e-06,0.0007696,0.0008574,8.345,0.03796,0,0,0.0002785
9300000000,9600000000,3768539610,0,3001375393,0.0002804,0.0004511,0.001923,0.0001822,0.0004196,0.0004778,1.907e-06,3.815e-06,0.000618,7.153e-05,8.218,0.03687,0,0,0.0002575
9600000000,9900000000,3768539610,0,3001375393,0.0002832,0.000453,0.001923,0.0001841,0.0004234,0.0004778,4.768e-06,3.815e-06,0.0007401,0.0008574,8.492,0.03818,0,0,0.0001383
9900000000,10200000000,3768539610,0,3001375393,0.0002794,0.0004473,0.001923,0.000186,0.0004196,0.0004778,3.815e-06,3.815e-06,0.0006104,0.0005713,7.908,0.03418,0,0,0.0002604
10200000000,10500000000,3768539610,0,3001375393,0.000288,0.0004511,0.001923,0.0001879,0.0004244,0.0004778,1.907e-06,3.815e-06,0.0007334,0.0001431,8.284,0.03598,0,0,0.0001278
10500000000,10800000000,3768539610,0,3001375393,0.0002832,0.0004559,0.001923,0.0001898,0.0004311,0.0004778,1.907e-06,3.815e-06,0.0007553,7.153e-05,8.192,0.03548,0,0,0.0002842
10800000000,11100000000,3768539610,0,3001375393,0.0002842,0.0004539,0.001923,0.0001917,0.000432,0.0004778,2.861e-06,3.815e-06,0.0007477,0.0001431,8.057,0.03476,0,0,0.0005102
11100000000,11400000000,3768539610,0,3001375393,0.0002823,0.000453,0.001923,0.0001936,0.000433,0.0004778,5.722e-06,3.815e-06,0.0008736,0.001072,8.765,0.03847,0,0,0.0004416
11400000000,11700000000,3768539610,0,3001375393,0.0002871,0.0004482,0.001923,0.0001955,0.0004301,0.0004778,3.815e-06,3.815e-06,0.001074,0.0004997,8.217,0.03565,0,0,0.0003796
11700000000,12000000000,3768539610,0,3001375393,0.0002975,0.0004501,0.001923,0.0001974,0.0004339,0.0004778,1.907e-06,3.815e-06,0.0009089,7.153e-05,8.31,0.03567,0,0,0.0001478
12000000000,12300000000,3768539610,0,3001375393,0.0002956,0.0004539,0.001923,0.0001993,0.0004396,0.0004787,5.722e-06,3.815e-06,0.0009584,0.0007143,9.276,0.04059,0,0,0.0003967
12300000000,12600000000,3768539610,0,3001375393,0.000268,0.0003977,0.001923,0.0002012,0.000433,0.0004778,1.907e-06,3.815e-06,0.0009184,7.153e-05,10.07,0.046,0,0,0.0001173
12600000000,12900000000,3768539610,0,3001375393,0.0003195,0.000453,0.001923,0.0002031,0.0004425,0.0004778,4.768e-06,3.815e-06,0.001451,0.0006428,11.16,0.05059,0,0,0.0003977
12900000000,13200000000,3768539610,0,3001375393,0.0003214,0.0004511,0.001923,0.000205,0.0004425,0.0004778,2.861e-06,3.815e-06,0.00115,0.0002146,11.24,0.05129,0,0,0.000289
13200000000,13500000000,3768539610,0,3001375393,0.0002995,0.0004292,0.001923,0.0002069,0.0004263,0.0004778,1.24e-05,3.815e-06,0.0009184,0.00293,9.223,0.03931,0,0,0.0001392
13500000000,13800000000,3768539610,0,3001375393,0.0002747,0.0004025,0.001925,0.0002089,0.0004549,0.0004778,9.537e-06,3.815e-06,0.0007734,0.0008574,7.755,0.03178,0,0,8.202e-05
13800000000,14100000000,3768539610,0,3001375393,0.0002584,0.0004463,0.001923,0.0002108,0.0004435,0.0004778,4.768e-06,3.815e-06,0.0006104,0.0007143,7.356,0.03065,0,0,0.0002337
14100000000,14400000000,3768539610,0,3001375393,0.0002575,0.0004501,0.001923,0.0002127,0.0004492,0.0004778,3.815e-06,3.815e-06,0.0007095,0.0005713,7.498,0.03104,0,0,0.000102
14400000000,14700000000,3768539610,0,3001375393,0.0002565,0.000453,0.001923,0.0002146,0.0004539,0.0004778,1.907e-06,3.815e-06,0.0006466,0.0001431,6.656,0.02667,0,0,0.0003414
14700000000,15000000000,3768539610,0,3001375393,0.0002508,0.000453,0.001923,0.0002165,0.0004559,0.0004778,4.768e-06,3.815e-06,0.0006857,0.0008574,6.907,0.02692,0,0,0.0002842
15000000000,15300000000,3768539610,0,3001375393,0.000247,0.0004578,0.001925,0.0002184,0.0004625,0.0004778,2.861e-06,3.815e-06,0.0006485,0.0001431,6.628,0.02635,0,0,7.915e-05
15300000000,15600000000,3768539610,0,3001375393,0.000267,0.0004482,0.001923,0.0002203,0.0004559,0.0004778,1.907e-06,3.815e-06,0.000618,7.153e-05,7.44,0.03038,0,0,0.0001774
15600000000,15900000000,3768539610,0,3001375393,0.000267,0.0004539,0.001923,0.0002222,0.0004625,0.0004778,2.861e-06,3.815e-06,0.0006943,0.0001431,7.03,0.02837,0,0,0.0002146
15900000000,16200000000,3768539610,0,3001375393,0.0002823,0.0004549,0.001923,0.0002241,0.0004654,0.0004778,2.861e-06,3.815e-06,0.002998,0.0001431,7.525,0.03052,0,0,0.0005083
16200000000,16500000000,3768539610,0,3001375393,0.000289,0.0004549,0.001923,0.000226,0.0004673,0.0004787,2.861e-06,3.815e-06,0.007462,0.0001431,7.474,0.03076,0,0,0.000248
16500000000,16800000000,3768539610,0,3001375393,0.0002899,0.000452,0.001923,0.0002279,0.0004663,0.0004787,2.861e-06,3.815e-06,0.0007248,0.0002861,8.119,0.03349,0,0,0.0003109
16800000000,17100000000,3768539610,0,3001375393,0.0002975,0.000452,0.001923,0.0002298,0.0004692,0.0004778,1.907e-06,3.815e-06,0.0007019,0.0001431,8.561,0.03606,0,0,0.000267
17100000000,17400000000,3768539610,0,3001375393,0.0002937,0.000452,0.001923,0.0002317,0.0004711,0.0004778,1.907e-06,3.815e-06,0.001007,7.153e-05,8.912,0.03735,0,0,0.0002441
17400000000,17700000000,3768539610,0,3001375393,0.0002947,0.0004568,0.001923,0.0002337,0.0004778,0.0004778,2.861e-06,3.815e-06,0.001196,0.0002146,8.584,0.03583,0,0,0.0001354
17700000000,18000000000,3768539610,0,3001375393,0.0002995,0.0004539,0.001923,0.0002356,0.0004759,0.0004778,1.907e-06,3.815e-06,0.0007248,7.153e-05,8.383,0.03517,0,0,9.537e-05
18000000000,18300000000,3768539610,0,3001375393,0.0002975,0.0004501,0.001923,0.0002375,0.000474,0.0004778,1.907e-06,3.815e-06,0.0007114,0.0001431,8.146,0.0334,0,0,0.0002613
18300000000,18600000000,3768539610,0,3001375393,0.0002956,0.0004511,0.001923,0.0002394,0.0004768,0.0004787,2.861e-06,3.815e-06,0.001148,0.0001431,8.513,0.03568,0,0,0.0001764
18600000000,18900000000,3768539610,0,3001375393,0.0002937,0.0004549,0.001923,0.0002413,0.0004826,0.0004778,1.907e-06,3.815e-06,0.006958,0.0001431,8.559,0.03583,0,0,0.0001669
18900000000,19200000000,3768539610,0,3001375393,0.000268,0.0004559,0.001923,0.0002432,0.0004854,0.0004778,2.861e-06,3.815e-06,0.003757,0.0001431,6.968,0.02785,0,0,0.000226
19200000000,19500000000,3768539610,0,3001375393,0.0002699,0.0004492,0.001923,0.0002451,0.0004797,0.0004778,2.861e-06,3.815e-06,0.0009012,0.0002861,7.278,0.02928,0,0,0.0001545
19500000000,19800000000,3768539610,0,3001375393,0.0002651,0.000453,0.001925,0.000247,0.0004864,0.0004778,2.861e-06,3.815e-06,0.0009727,0.0002861,7.228,0.02954,0,0,0.0001745
19800000000,20100000000,3768539610,0,3001375393,0.0002851,0.0004568,0.001925,0.0002489,0.0004921,0.0004778,2.861e-06,3.815e-06,0.00724,0.0001431,7.41,0.02975,0,0,0.0002441
20100000000,20400000000,3768539610,0,3001375393,0.0002966,0.0004549,0.001923,0.0002508,0.0004921,0.0004778,1.907e-06,3.815e-06,0.0009604,7.153e-05,7.998,0.03307,0,0,0.0001469
20400000000,20700000000,3768539610,0,3001375393,0.0002851,0.0004549,0.001923,0.0002527,0.000494,0.0004778,2.861e-06,3.815e-06,0.0009527,0.0001431,8.589,0.03649,0,0,0.0002728
20700000000,21000000000,3768539610,0,3001375393,0.0002823,0.0004511,0.001923,0.0002546,0.0004921,0.0004778,1.907e-06,3.815e-06,0.0008535,7.153e-05,7.986,0.03358,0,0,0.000104
21000000000,21300000000,3768539610,0,3001375393,0.0002861,0.000452,0.001923,0.0002565,0.000495,0.0004787,2.861e-06,3.815e-06,0.00102,0.0002146,8.26,0.03467,0,0,0.0003633
21300000000,21600000000,3768539610,0,3001375393,0.0002928,0.0004568,0.001923,0.0002584,0.0005016,0.0004787,1.907e-06,3.815e-06,0.0012,7.153e-05,8.237,0.03477,0,0,0.0002785
21600000000,21900000000,3768539610,0,3001375393,0.0002899,0.0004568,0.001923,0.0002604,0.0005035,0.0004787,1.907e-06,3.815e-06,0.001026,0.0001431,9.093,0.03933,0,0,0.0003958
21900000000,22200000000,3768539610,0,3001375393,0.000289,0.0004482,0.001923,0.0002623,0.0004978,0.0004787,2.861e-06,3.815e-06,0.001192,0.0002146,8.043,0.03398,0,0,0.0002518
22200000000,22500000000,3768539610,0,3001375393,0.0002737,0.0004511,0.001925,0.0002642,0.0005016,0.0004787,2.861e-06,3.815e-06,0.0009699,0.0001431,7.817,0.03289,0,0,0.0001879
22500000000,22800000000,3768539610,0,3001375393,0.0002775,0.0004559,0.001923,0.0002661,0.0005074,0.0004787,1.907e-06,3.815e-06,0.001059,7.153e-05,8.002,0.0327,0,0,0.0002708
22800000000,23100000000,3768539610,0,3001375393,0.0002747,0.0004559,0.001923,0.000268,0.0005102,0.0004787,2.861e-06,3.815e-06,0.0009785,0.0001431,7.79,0.03199,0,0,0.000248
23100000000,23400000000,3768539610,0,3001375393,0.0002623,0.000452,0.001923,0.0002699,0.0005083,0.0004787,1.907e-06,3.815e-06,0.001051,0.0001431,7.817,0.03288,0,0,0.0001631
23400000000,23700000000,3768539610,0,3001375393,0.0002546,0.000453,0.001925,0.0002718,0.0005112,0.0004778,2.861e-06,3.815e-06,0.00103,0.0002146,6.717,0.02656,0,0,0.0002413
23700000000,24000000000,3768539610,0,3001375393,0.0002403,0.000453,0.001925,0.0002737,0.000514,0.0004778,2.861e-06,3.815e-06,0.001005,0.0001431,6.155,0.02446,0,0,0.0006218
24000000000,24300000000,3768539610,0,3001375393,0.0002413,0.0004539,0.001923,0.0002756,0.0005159,0.0004787,1.907e-06,3.815e-06,0.0009384,0.0001431,6.164,0.02414,0,0,0.0006342
24300000000,24600000000,3768539610,0,3001375393,0.0002384,0.0004549,0.001925,0.0002775,0.0005188,0.0004787,1.907e-06,3.815e-06,0.001066,7.153e-05,6.492,0.02579,0,0,0.0005417
24600000000,24900000000,3768539610,0,3001375393,0.0002384,0.0004511,0.001923,0.0002794,0.0005169,0.0004787,2.861e-06,3.815e-06,0.0009842,0.0001431,6.279,0.02463,0,0,0.0006304
24900000000,25200000000,3768539610,0,3001375393,0.0002384,0.000452,0.001925,0.0002813,0.0005198,0.0004787,1.907e-06,3.815e-06,0.001181,7.153e-05,6.12,0.02392,0,0,0.0001841
25200000000,25500000000,3768539610,0,3001375393,0.0002384,0.0004559,0.001925,0.0002832,0.0005245,0.0004787,2.861e-06,3.815e-06,0.000967,0.0001431,6.382,0.02497,0,0,0.0001373
25500000000,25800000000,3768539610,0,3001375393,0.0002432,0.0004559,0.001925,0.0002851,0.0005274,0.0004787,1.907e-06,3.815e-06,0.0009441,7.153e-05,6.797,0.0274,0,0,0.0006847
25800000000,26100000000,3768539610,0,3001375393,0.0002651,0.000453,0.001923,0.0002871,0.0005264,0.0004787,2.861e-06,3.815e-06,0.001812,0.0001431,7.187,0.02927,0,0,0.0005913
26100000000,26400000000,3768539610,0,3001375393,0.0002489,0.0004539,0.001925,0.000289,0.0005283,0.0004787,1.907e-06,3.815e-06,0.0009155,0.0001431,6.808,0.02761,0,0,0.0006685
26400000000,26700000000,3768539610,0,3001375393,0.0002775,0.000453,0.001923,0.0002909,0.0005302,0.0004787,1.907e-06,3.815e-06,0.000967,0.0001431,8.443,0.0354,0,0,0.0006943
26700000000,27000000000,3768539610,0,3001375393,0.0002918,0.0004578,0.001923,0.0002928,0.0005369,0.0004787,1.907e-06,4.768e-06,0.001045,7.153e-05,7.704,0.02977,0,0,0.0001402
27000000000,27300000000,3768539610,0,3001375393,0.0003042,0.0004549,0.001923,0.0002947,0.000535,0.0004797,2.861e-06,4.768e-06,0.0007629,0.0001431,7.862,0.03052,0,0,0.0002527
27300000000,27600000000,3768539610,0,3001375393,0.000329,0.0004511,0.001923,0.0002966,0.0005331,0.0004787,2.861e-06,4.768e-06,0.0006695,0.0001431,9.063,0.03605,0,0,0.0003691
27600000000,27900000000,3768539610,0,3001375393,0.0003281,0.000453,0.001923,0.0002985,0.0005379,0.0004787,1.907e-06,4.768e-06,0.0008202,0.0001431,9.166,0.03692,0,0,0.0003757
27900000000,28200000000,3768539610,0,3001375393,0.0003319,0.0004568,0.001923,0.0003004,0.0005436,0.0004787,4.768e-06,4.768e-06,0.001116,0.0007858,8.845,0.03523,0,0,0.0002909
28200000000,28500000000,3768539610,0,3001375393,0.0003328,0.0004578,0.001923,0.0003023,0.0005455,0.0004797,2.861e-06,4.768e-06,0.0006399,0.0001431,9.202,0.03723,0,0,0.0003033
28500000000,28800000000,3768539610,0,3001375393,0.0003443,0.0004492,0.001923,0.0003042,0.0005388,0.0004797,1.907e-06,4.768e-06,0.00144,7.153e-05,9.733,0.03976,0,0,0.0002537
28800000000,29100000000,3768539610,0,3001375393,0.0003366,0.0004511,0.001923,0.0003061,0.0005436,0.0004787,2.861e-06,4.768e-06,0.00107,0.0001431,9.716,0.04003,0,0,0.000145
29100000000,29400000000,3768539610,0,3001375393,0.0003576,0.0004559,0.001923,0.000308,0.0005493,0.0004787,1.907e-06,4.768e-06,0.001404,7.153e-05,9.745,0.04005,0,0,0.0002632
29400000000,29700000000,3768539610,0,3001375393,0.0003433,0.0004549,0.001923,0.0003099,0.0005512,0.0004797,4.768e-06,4.768e-06,0.0006485,0.0007143,10.12,0.04187,0,0,0.0001879
29700000000,30000000000,3768539610,0,3001375393,0.0003271,0.000452,0.001923,0.0003119,0.0005493,0.0004787,1.907e-06,4.768e-06,0.0007677,7.153e-05,9.405,0.03933,0,0,0.0002003
30000000000,30300000000,3768539610,0,3001375393,0.0003395,0.0004597,0.001923,0.0003176,0.0005579,0.0005026,2.193e-05,4.768e-06,0.001181,0.004715,8.659,0.03444,0,0,0.0002251
30300000000,30600000000,3768539610,0,3001375393,0.0003271,0.0004597,0.001923,0.0003204,0.0005636,0.0004835,1.907e-06,4.768e-06,0.002327,7.153e-05,9.082,0.03706,0,0,0.0001907
30600000000,30900000000,3768539610,0,3001375393,0.0003281,0.0004568,0.001923,0.0003223,0.0005617,0.0004835,1.907e-06,4.768e-06,0.000742,0.0001431,8.787,0.03542,0,0,0.0002527
30900000000,31200000000,3768539610,0,3001375393,0.0003338,0.0004578,0.001923,0.0003242,0.0005655,0.0004835,2.861e-06,4.768e-06,0.0007172,0.0001431,9.732,0.03998,0,0,0.0001116
31200000000,31500000000,3768539610,0,3001375393,0.0003281,0.0004568,0.001923,0.0003262,0.0005655,0.0004835,1.907e-06,4.768e-06,0.001053,0.0001431,8.637,0.03446,0,0,0.0003014
31500000000,31800000000,3768539610,0,3001375393,0.0003262,0.0004587,0.001923,0.0003281,0.0005693,0.0004835,1.907e-06,4.768e-06,0.0008888,7.153e-05,8.601,0.03384,0,0,0.0001507
31800000000,32100000000,3768539610,0,3001375393,0.0003061,0.0004578,0.001923,0.00033,0.0005703,0.0004835,2.861e-06,4.768e-06,0.0008926,0.0001431,9.35,0.03799,0,0,0.0001354
32100000000,32400000000,3768539610,0,3001375393,0.0002975,0.0004578,0.001923,0.0003319,0.0005722,0.0004835,1.907e-06,4.768e-06,0.002987,7.153e-05,7.953,0.03095,0,0,0.0001612
32400000000,32700000000,3768539610,0,3001375393,0.0003185,0.0004568,0.001923,0.0003338,0.0005732,0.0004835,2.861e-06,4.768e-06,0.00145,0.0001431,8.563,0.03475,0,0,0.0001926
32700000000,33000000000,3768539610,0,3001375393,0.0003157,0.0004559,0.001923,0.0003357,0.0005751,0.0004835,2.861e-06,4.768e-06,0.003006,0.0001431,8.827,0.03627,0,0,0.0001383
33000000000,33300000000,3768539610,0,3001375393,0.0003204,0.0004597,0.001923,0.0003376,0.0005798,0.0004835,2.861e-06,4.768e-06,0.0008011,0.0001431,8.753,0.03578,0,0,0.0002813
33300000000,33600000000,3768539610,0,3001375393,0.0003166,0.0004568,0.001923,0.0003395,0.0005789,0.0004835,1.907e-06,4.768e-06,0.0008059,7.153e-05,8.832,0.0363,0,0,0.000247
33600000000,33900000000,3768539610,0,3001375393,0.0003252,0.0004559,0.001923,0.0003414,0.0005798,0.0004835,2.861e-06,4.768e-06,0.0007944,0.0001431,9.045,0.03679,0,0,0.0002909
33900000000,34200000000,3768539610,0,3001375393,0.0003223,0.0004606,0.001923,0.0003443,0.0005865,0.0004835,2.861e-06,4.768e-06,0.00333,0.0002146,8.944,0.03679,0,0,0.000288
34200000000,34500000000,3768539610,0,3001375393,0.0003147,0.0004625,0.001923,0.0003462,0.0005903,0.0004845,5.722e-06,4.768e-06,0.001104,0.0009289,9.168,0.03732,0,0,0.0001707
34500000000,34800000000,3768539610,0,3001375393,0.0003166,0.0004587,0.001923,0.0003481,0.0005884,0.0004845,2.861e-06,4.768e-06,0.0009174,0.0002146,8.789,0.03611,0,0,0.0002069
34800000000,35100000000,3768539610,0,3001375393,0.0003147,0.0004606,0.001923,0.00035,0.0005913,0.0004845,2.861e-06,4.768e-06,0.001242,0.0001431,9.885,0.04133,0,0,0.0003347
35100000000,35400000000,3768539610,0,3001375393,0.0003176,0.0004597,0.001923,0.0003519,0.0005941,0.0004835,2.861e-06,4.768e-06,0.001127,0.0001431,9.616,0.03978,0,0,0.0002604
35400000000,35700000000,3768539610,0,3001375393,0.0003176,0.0004597,0.001923,0.0003538,0.0005951,0.0004835,1.907e-06,4.768e-06,0.000988,0.0001431,9.38,0.04006,0,0,0.0001965
35700000000,36000000000,3768539610,0,3001375393,0.0003147,0.0004568,0.001923,0.0003557,0.000597,0.0004826,1.907e-06,4.768e-06,0.001055,7.153e-05,8.774,0.03714,0,0,0.0001097
36000000000,36300000000,3768539610,0,3001375393,0.0003195,0.0004568,0.001923,0.0003576,0.0005941,0.0004902,3.815e-06,4.768e-06,0.001802,0.0001431,10,0.04399,0,0,0.000267
36300000000,36600000000,3768539610,0,3001375393,0.0003119,0.0004625,0.001923,0.0003605,0.0006046,0.0004883,1.907e-06,4.768e-06,0.0009251,7.153e-05,9.3,0.04048,0,0,0.0004921
36600000000,36900000000,3768539610,0,3001375393,0.0003128,0.0004597,0.001923,0.0003624,0.0006037,0.0004845,2.861e-06,4.768e-06,0.001038,0.0001431,9.652,0.0422,0,0,0.0006151
36900000000,37200000000,3768539610,0,3001375393,0.000309,0.0004578,0.001923,0.0003643,0.0006037,0.0004854,1.907e-06,4.768e-06,0.001047,7.153e-05,9.916,0.04343,0,0,0.0001793
37200000000,37500000000,3768539610,0,3001375393,0.0003052,0.0004606,0.001923,0.0003662,0.0006084,0.0004845,2.861e-06,4.768e-06,0.000968,0.0001431,9.082,0.03959,0,0,0.000308
37500000000,37800000000,3768539610,0,3001375393,0.0003071,0.0004616,0.001923,0.0003681,0.0006113,0.0004845,1.907e-06,4.768e-06,0.0008888,0.0001431,9.266,0.03989,0,0,0.0001745
37800000000,38100000000,3768539610,0,3001375393,0.0003281,0.0004578,0.001923,0.00037,0.0006094,0.0004845,1.907e-06,4.768e-06,0.00112,0.0001431,10.27,0.04197,0,0,0.000308
38100000000,38400000000,3768539610,0,3001375393,0.0003099,0.0004587,0.001923,0.0003719,0.0006123,0.0004883,2.861e-06,4.768e-06,0.001629,0.0001431,8.366,0.03394,0,0,0.001312
38400000000,38700000000,3768539610,0,3001375393,0.0003223,0.0004625,0.001923,0.0003748,0.0006161,0.0004902,3.815e-06,4.768e-06,0.0008535,0.0004282,8.722,0.03486,0,0,0.0003958
38700000000,39000000000,3768539610,0,3001375393,0.0003386,0.0004606,0.001923,0.0003767,0.000618,0.0004854,4.768e-06,4.768e-06,0.0008669,0.0007858,9.437,0.04006,0,0,0.0002584
39000000000,39300000000,3768539610,0,3001375393,0.0003424,0.0004568,0.001923,0.0003786,0.000617,0.0004854,2.861e-06,4.768e-06,0.0008831,0.0001431,9.747,0.04117,0,0,0.0002794
39300000000,39600000000,3768539610,0,3001375393,0.0003443,0.0004578,0.001923,0.0003805,0.0006189,0.0004854,2.861e-06,4.768e-06,0.0009737,0.0004282,9.493,0.03976,0,0,0.000411
39600000000,39900000000,3768539610,0,3001375393,0.0003452,0.0004587,0.001923,0.0003824,0.0006218,0.0004854,2.861e-06,4.768e-06,0.0007591,0.0001431,10.02,0.04195,0,0,0.0002403
39900000000,40200000000,3768539610,0,3001375393,0.0003357,0.0004606,0.001923,0.0003843,0.0006256,0.0004854,2.861e-06,4.768e-06,0.0007629,0.0001431,8.854,0.03677,0,0,0.0002937
40200000000,40500000000,3768539610,0,3001375393,0.0003252,0.0004597,0.001923,0.0003862,0.0006266,0.0004854,2.861e-06,4.768e-06,0.0007114,0.0001431,8.925,0.0362,0,0,0.0001917
40500000000,40800000000,3768539610,0,3001375393,0.0003214,0.0004568,0.001923,0.0003881,0.0006256,0.0004854,3.815e-06,4.768e-06,0.0007782,0.0003567,8.912,0.03556,0,0,0.000205
51000000000,51300000000,3768539610,0,3001375393,0.0003643,0.0002594,0.001925,0.0004568,0.0007229,0.0002623,5.722e-06,4.768e-06,0.001457,0.0006428,9.945,0.04266,0,0,0.0003624
51300000000,51600000000,3768539610,0,3001375393,0.0003147,0.0002594,0.001925,0.0004597,0.0007248,0.0002623,1.907e-06,4.768e-06,0.001163,7.153e-05,9.567,0.03999,0,0,0.0009918
51600000000,51900000000,3768539610,0,3001375393,0.0002747,0.0002604,0.001925,0.0004616,0.0007267,0.0002642,2.861e-06,4.768e-06,0.001247,0.0002146,7.04,0.02913,0,0,0.0002184
51900000000,52200000000,3768539610,0,3001375393,0.0002804,0.0002594,0.001925,0.0004635,0.0007286,0.0002632,2.861e-06,4.768e-06,0.001297,0.0001431,7.381,0.03058,0,0,8.965e-05
52200000000,52500000000,3768539610,0,3001375393,0.0002937,0.000268,0.001925,0.0004654,0.0007315,0.0002747,2.861e-06,4.768e-06,0.002235,0.0002146,8.628,0.03807,0,0,0.0008364
52500000000,52800000000,3768539610,0,3001375393,0.0002747,0.0002613,0.001925,0.0004673,0.0007334,0.0002632,2.861e-06,4.768e-06,0.0006943,0.0002861,8.051,0.03473,0,0,0.0002079
52800000000,53100000000,3768539610,0,3001375393,0.0002441,0.0002594,0.001925,0.0004692,0.0007353,0.0002642,2.861e-06,4.768e-06,0.0006285,0.0001431,6.912,0.02964,0,0,0.000103
53100000000,53400000000,3768539610,0,3001375393,0.0002527,0.0002594,0.001925,0.0004721,0.0007372,0.0002632,1.907e-06,4.768e-06,0.0008163,0.0001431,6.261,0.02585,0,0,0.0002041
53400000000,53700000000,3768539610,0,3001375393,0.0002785,0.0002594,0.001925,0.000474,0.0007391,0.0002623,2.861e-06,4.768e-06,0.0007315,0.0001431,7.36,0.03072,0,0,0.0005159
53700000000,54000000000,3768539610,0,3001375393,0.000268,0.0002604,0.001925,0.0004759,0.000741,0.0002623,2.861e-06,4.768e-06,0.0006437,0.0001431,7.513,0.03191,0,0,0.0002108
54000000000,54300000000,3768539610,0,3001375393,0.0002995,0.0002604,0.001925,0.0003595,0.0006256,0.0002651,2.861e-06,4.768e-06,0.001442,0.0002861,9.356,0.04289,0,0,0.0001898
54300000000,54600000000,3768539610,0,3001375393,0.0002937,0.0002604,0.001925,9.06e-05,0.0003567,0.0002632,1.907e-06,4.768e-06,0.0006943,0.0001431,9.128,0.04169,0,0,0.0001907
54600000000,54900000000,3768539610,0,3001375393,0.0002966,0.0002594,0.001925,9.251e-05,0.0003586,0.0002623,1.24e-05,4.768e-06,0.0008965,0.00293,10.1,0.04588,0,0,0.0004854
54900000000,55200000000,3768539610,0,3001375393,0.0002918,0.0002594,0.001925,9.441e-05,0.0003605,0.0002623,4.768e-06,4.768e-06,0.001028,0.0005713,10.12,0.04663,0,0,0.0006571
55200000000,55500000000,3768539610,0,3001375393,0.0002832,0.0002594,0.001925,9.632e-05,0.0003624,0.0002623,5.722e-06,4.768e-06,0.0006542,0.001143,9.179,0.04117,0,0,0.0001965
55500000000,55800000000,3768539610,0,3001375393,0.0003252,0.0002594,0.001925,9.823e-05,0.0003643,0.0002623,4.768e-06,4.768e-06,0.0009346,0.0004997,14.15,0.06708,0,0,0.0002794
55800000000,56100000000,3768539610,0,3001375393,0.000289,0.0002613,0.001925,0.0001001,0.0003662,0.0002642,3.815e-06,4.768e-06,0.0007162,0.0003567,9.249,0.04121,0,0,0.000123
56100000000,56400000000,3768539610,0,3001375393,0.000268,0.0002604,0.001925,0.000103,0.0003681,0.0002642,6.676e-06,4.768e-06,0.0006275,0.001215,8.001,0.03579,0,0,0.0002069
56400000000,56700000000,3768539610,0,3001375393,0.0002785,0.0002594,0.001925,0.0001049,0.00037,0.0002623,8.583e-06,4.768e-06,0.0008783,0.0009995,9.875,0.04738,0,0,0.000247
56700000000,57000000000,3768539610,0,3001375393,0.0002794,0.0002584,0.001925,0.0001068,0.0003719,0.0002623,2.861e-06,4.768e-06,0.0007429,0.0002861,9.129,0.04269,0,0,0.0002222
57000000000,57300000000,3768539610,0,3001375393,0.0002642,0.0002594,0.001925,0.0001087,0.0003738,0.0002623,4.768e-06,4.768e-06,0.0006676,0.0007858,7.599,0.03264,0,0,0.0001707
57300000000,57600000000,3768539610,0,3001375393,0.0002823,0.0002584,0.001925,0.0001106,0.0003767,0.0002623,3.815e-06,4.768e-06,0.007401,0.0006428,9.445,0.04348,0,0,0.0002794
57600000000,57900000000,3768539610,0,3001375393,0.0003204,0.0002604,0.001925,0.0001125,0.0003786,0.0002623,3.815e-06,4.768e-06,0.001055,0.0003567,11.8,0.05358,0,0,0.0003195
57900000000,58200000000,3768539610,0,3001375393,0.0002823,0.0002584,0.001925,0.0001144,0.0003805,0.0002623,8.583e-06,4.768e-06,0.001194,0.001143,8.431,0.03609,0,0,0.0001631
58200000000,58500000000,3768539610,0,3001375393,0.0002851,0.0002594,0.001925,0.0001163,0.0003824,0.0002642,2.861e-06,4.768e-06,0.001141,0.0001431,10.62,0.05037,0,0,0.0003471
58500000000,58800000000,3768539610,0,3001375393,0.0002785,0.0002604,0.001925,0.0001183,0.0003843,0.0002632,7.629e-06,4.768e-06,0.0009708,0.001072,10.62,0.05115,0,0,0.0004187
58800000000,59100000000,3768539610,0,3001375393,0.000289,0.0002594,0.001925,0.0001202,0.0003862,0.0002623,2.861e-06,4.768e-06,0.0009069,0.0001431,12.16,0.05832,0,0,0.0002613
59100000000,59400000000,3768539610,0,3001375393,0.0003185,0.0002584,0.001925,0.0001221,0.0003881,0.0002623,6.676e-06,4.768e-06,0.0007172,0.001358,12.29,0.05645,0,0,0.0003481
59400000000,59700000000,3768539610,0,3001375393,0.000267,0.0002594,0.001925,0.000124,0.0003901,0.0002623,5.722e-06,4.768e-06,0.0006208,0.0008574,8.469,0.03721,0,0,0.0001173
59700000000,60000000000,3768539610,0,3001375393,0.0002918,0.0002594,0.001925,0.0001259,0.000392,0.0002623,1.907e-06,4.768e-06,0.0007238,7.153e-05,9.69,0.04568,0,0,0.000164
60000000000,60300000000,3768539610,0,3001375393,0.0002785,0.0002594,0.001925,0.0001278,0.0003939,0.0002642,2.861e-06,4.768e-06,0.0008574,0.0001431,10.83,0.05195,0,0,0.0003653
60300000000,60600000000,3768539610,0,3001375393,0.0002899,0.0002584,0.001925,0.0001297,0.0003958,0.0002632,1.907e-06,4.768e-06,0.000699,7.153e-05,13.96,0.06956,0,0,0.0001431
60600000000,60900000000,3768539610,0,3001375393,0.0002851,0.0002604,0.001925,0.0001316,0.0003977,0.0002623,2.861e-06,4.768e-06,0.0007267,0.0001431,8.391,0.03723,0,0,0.0002422
