5700000000,6000000000,3768540157,0,38647037,0.0005159,0.0004997,0.001923,0.0003977,0.0006113,0.0005512,9.537e-06,1.907e-05,0.001268,0.002357,10.05,0.0465,0,0,0.0004749
6000000000,6300000000,3768540157,0,38647037,0.0005245,0.0005035,0.001923,0.0004015,0.0006189,0.0005512,2.861e-06,1.907e-05,0.001448,0.0003567,10.6,0.05006,0,0,0.0004091
6300000000,6600000000,3768540157,0,38647037,0.0005245,0.0004969,0.001923,0.0004063,0.000618,0.0005512,3.815e-06,1.907e-05,0.001509,0.0004997,10.98,0.05248,0,0,0.0003319
6600000000,6900000000,3768540157,0,38647037,0.0005341,0.0004902,0.001921,0.000411,0.0006151,0.0005512,2.861e-06,1.907e-05,0.001324,0.0004282,11.22,0.05372,0,0,0.0004501
6900000000,7200000000,3768540157,0,38647037,0.0005283,0.0004873,0.001921,0.0004158,0.000617,0.0005512,4.768e-06,1.907e-05,0.0009785,0.0006428,10.44,0.04918,0,0,0.0004606
7200000000,7500000000,3768540157,0,38647037,0.0005331,0.000495,0.001921,0.0004196,0.0006285,0.0005512,1.907e-06,1.907e-05,0.0009031,7.153e-05,11.14,0.05304,0,0,0.0002728
7500000000,7800000000,3768540157,0,38647037,0.0005312,0.0004826,0.001921,0.0004244,0.0006208,0.0005512,6.676e-06,1.907e-05,0.0009918,0.0009289,11.05,0.05316,0,0,0.0005026
7800000000,8100000000,3768540157,0,38647037,0.0005264,0.0005045,0.001923,0.0004292,0.0006466,0.0005512,8.583e-06,1.907e-05,0.001007,0.001858,12.18,0.05911,0,0,0.0007353
8100000000,8400000000,3768540157,0,38647037,0.0005245,0.000493,0.001923,0.0004339,0.0006399,0.0005522,6.676e-06,1.907e-05,0.001095,0.001143,10.88,0.05131,0,0,0.0005541
8400000000,8700000000,3768540157,0,38647037,0.0005121,0.0005035,0.001923,0.0004377,0.0006552,0.0005522,5.722e-06,1.907e-05,0.001026,0.0008574,10.42,0.04903,0,0,0.0003872
8700000000,9000000000,3768540157,0,38647037,0.0005131,0.000493,0.001921,0.0004425,0.0006485,0.0005522,2.861e-06,1.812e-05,0.0009766,0.0001431,10.47,0.04932,0,0,0.0004673
9000000000,9300000000,3768540157,0,38647037,0.0005198,0.000495,0.001921,0.0004473,0.0006552,0.0005522,1.907e-06,1.812e-05,0.001007,7.153e-05,10.96,0.05242,0,0,0.0007601
9300000000,9600000000,3768540157,0,38647037,0.0005188,0.000493,0.001921,0.0004511,0.000658,0.0005522,1.717e-05,1.812e-05,0.0009193,0.002857,10.45,0.0498,0,0,0.0004883
9600000000,9900000000,3768540157,0,38647037,0.0005264,0.0004873,0.001921,0.0004559,0.0006561,0.0005522,1.907e-06,1.812e-05,0.001101,7.153e-05,11.07,0.05259,0,0,0.0005379
9900000000,10200000000,3768540157,0,38647037,0.0005322,0.0004959,0.001921,0.0004606,0.0006685,0.0005522,2.861e-06,1.812e-05,0.001465,7.153e-05,6.944,0.03181,0,0,0.0004835
10200000000,10500000000,3768540157,0,38647037,0.0005198,0.0004978,0.001921,0.0004654,0.0006762,0.0005522,7.629e-06,1.812e-05,0.001055,0.001143,11.27,0.05453,0,0,0.0005779
10500000000,10800000000,3768540157,0,38647037,0.0005226,0.0005093,0.001923,0.0004702,0.0006924,0.0005522,5.722e-06,1.812e-05,0.001053,0.0006428,10.94,0.05229,0,0,0.0005741
10800000000,11100000000,3768540157,0,38647037,0.000514,0.0004807,0.001921,0.000474,0.0006676,0.0005512,4.768e-06,1.812e-05,0.0009766,0.0007858,10.99,0.05207,0,0,0.0006666
11100000000,11400000000,3768540157,0,38647037,0.0005198,0.0005064,0.001921,0.0004787,0.0006981,0.0005512,2.861e-06,1.812e-05,0.001154,7.153e-05,10.76,0.05095,0,0,0.0005789
11400000000,11700000000,3768540157,0,38647037,0.0005236,0.0004759,0.001921,0.0004835,0.0006733,0.0005512,1.907e-06,1.812e-05,0.001068,0.0001431,11.83,0.05693,0,0,0.0003281
11700000000,12000000000,3768540157,0,38647037,0.0005217,0.0004959,0.001921,0.0004873,0.0006971,0.0005512,5.722e-06,1.812e-05,0.0009537,0.0007858,11.04,0.05248,0,0,0.0005798
12000000000,12300000000,3768540157,0,38647037,0.0005264,0.0004854,0.001921,0.0004921,0.0006905,0.0005512,1.335e-05,1.812e-05,0.0009937,0.002499,11.4,0.05459,0,0,0.0007315
12300000000,12600000000,3768540157,0,38647037,0.0005188,0.0005045,0.001923,0.0004969,0.0007143,0.0005512,2.861e-06,1.812e-05,0.0009737,0.0003567,10.82,0.05169,0,0,0.0004921
12600000000,12900000000,3768540157,0,38647037,0.000514,0.0005035,0.001923,0.0002775,0.000495,0.0005512,9.537e-06,1.812e-05,0.0009489,0.001429,10.77,0.0508,0,0,0.0004673
12900000000,13200000000,3768540157,0,38647037,0.0005255,0.0004978,0.001921,0.0001163,0.0003281,0.0005512,2.861e-06,1.812e-05,0.001291,0.0002146,10.67,0.05022,0,0,0.0004244
13200000000,13500000000,3768540157,0,38647037,0.000536,0.0004902,0.001921,0.0001211,0.0003242,0.0005503,7.629e-06,1.812e-05,0.00139,0.0009289,11.47,0.05474,0,0,0.0007505
13500000000,13800000000,3768540157,0,38647037,0.0005312,0.0004864,0.001921,0.0001259,0.0003252,0.0005512,2.861e-06,1.812e-05,0.001356,0.0002861,11.1,0.05297,0,0,0.0008402
13800000000,14100000000,3768540157,0,38647037,0.0005178,0.0005016,0.001921,0.0001297,0.0003452,0.0005512,2.861e-06,1.812e-05,0.001303,0.0002861,11.27,0.05419,0,0,0.0007954
14100000000,14400000000,3768540157,0,38647037,0.0005226,0.0004864,0.001921,0.0001345,0.0003347,0.0005503,4.768e-06,1.812e-05,0.001297,0.0004997,10.76,0.0512,0,0,0.0007687
14400000000,14700000000,3768540157,0,38647037,0.0005207,0.0005083,0.001923,0.0001392,0.0003614,0.0005503,6.676e-06,1.812e-05,0.001471,0.0006428,11.23,0.05383,0,0,0.0003653
14700000000,15000000000,3768540157,0,38647037,0.0005093,0.0004959,0.001923,0.0001431,0.0003538,0.0005503,1.907e-06,1.812e-05,0.00119,7.153e-05,10.47,0.04967,0,0,0.0003214
15000000000,15300000000,3768540157,0,38647037,0.0005293,0.0005007,0.001923,0.0001478,0.0003633,0.0005512,1.907e-06,1.812e-05,0.00132,7.153e-05,11.65,0.05555,0,0,0.0004501
15300000000,15600000000,3768540157,0,38647037,0.0005274,0.0004826,0.001921,0.0001526,0.000349,0.0005503,6.676e-06,1.812e-05,0.000946,0.0007143,11.11,0.05333,0,0,0.0002069
15600000000,15900000000,3768540157,0,38647037,0.0005217,0.0004959,0.001921,0.0001574,0.0003672,0.0005503,1.907e-06,1.812e-05,0.0009203,7.153e-05,11.33,0.05479,0,0,0.0004187
15900000000,16200000000,3768540157,0,38647037,0.0005169,0.0004864,0.001921,0.0001612,0.0003624,0.0005512,8.583e-06,1.812e-05,0.0009155,0.001358,10.45,0.04982,0,0,0.0006189
16200000000,16500000000,3768540157,0,38647037,0.0005178,0.000495,0.001921,0.0001659,0.0003748,0.0005512,1.907e-06,1.812e-05,0.001068,7.153e-05,10.93,0.05167,0,0,0.0005064
16500000000,16800000000,3768540157,0,38647037,0.0005236,0.000495,0.001923,0.0001707,0.0003796,0.0005503,1.24e-05,1.812e-05,0.0007734,0.00243,10.94,0.0513,0,0,0.0003948
16800000000,17100000000,3768540157,0,38647037,0.0005322,0.0005093,0.001923,0.0001755,0.0003986,0.0005503,1.907e-06,1.812e-05,0.0009413,7.153e-05,11.17,0.05329,0,0,0.0005236
17100000000,17400000000,3768540157,0,38647037,0.0005312,0.0004902,0.001921,0.0001793,0.0003834,0.0005512,4.768e-06,1.812e-05,0.002003,0.0004997,11.63,0.05589,0,0,0.0003738
17400000000,17700000000,3768540157,0,38647037,0.0005245,0.0004864,0.001921,0.0001841,0.0003843,0.0005503,3.815e-06,1.812e-05,0.001205,0.0003567,11.54,0.05556,0,0,0.0003548
17700000000,18000000000,3768540157,0,38647037,0.0005331,0.0005026,0.001921,0.0001888,0.0004053,0.0005503,3.815e-06,1.812e-05,0.0008478,0.0006428,11.19,0.05358,0,0,0.0003872
18000000000,18300000000,3768540157,0,38647037,0.0005302,0.000473,0.001921,0.0001926,0.0003805,0.0005512,5.722e-06,1.812e-05,0.000823,0.0005713,11.43,0.05463,0,0,0.0003309
18300000000,18600000000,3768540157,0,38647037,0.0005198,0.0004969,0.001921,0.0001974,0.0004082,0.0005512,4.768e-06,1.812e-05,0.000885,0.0006428,10.88,0.05164,0,0,0.0003624
18600000000,18900000000,3768540157,0,38647037,0.0005274,0.0004864,0.001921,0.0002022,0.0004034,0.0005503,3.815e-06,1.812e-05,0.000946,0.0006428,10.66,0.05048,0,0,0.0004845
18900000000,19200000000,3768540157,0,38647037,0.0005255,0.0005083,0.001923,0.0002069,0.0004292,0.0005503,2.861e-06,1.812e-05,0.0008974,7.153e-05,10.59,0.0499,0,0,0.0006123
19200000000,19500000000,3768540157,0,38647037,0.0005198,0.0004978,0.001923,0.0002108,0.0004244,0.0005503,1.907e-06,1.812e-05,0.0008745,7.153e-05,11.08,0.05247,0,0,0.0006771
19500000000,19800000000,3768540157,0,38647037,0.0005264,0.0004864,0.001921,0.0002155,0.0004158,0.0005503,2.861e-06,1.812e-05,0.00111,0.0001431,11.38,0.05453,0,0,0.0003405
19800000000,20100000000,3768540157,0,38647037,0.0005178,0.0004969,0.001921,0.0002203,0.0004311,0.0005503,1.049e-05,1.812e-05,0.003193,0.002357,12.01,0.05821,0,0,0.0003681
20100000000,20400000000,3768540157,0,38647037,0.0005169,0.0004835,0.001921,0.0002251,0.0004225,0.0005503,3.815e-06,1.812e-05,0.0008593,0.0002861,10.85,0.05201,0,0,0.000493
20400000000,20700000000,3768540157,0,38647037,0.0005169,0.0004997,0.001921,0.0002289,0.0004435,0.0005503,2.861e-06,1.812e-05,0.001007,7.153e-05,11.52,0.05464,0,0,0.000288
20700000000,21000000000,3768540157,0,38647037,0.0005302,0.0004835,0.001921,0.0002337,0.0004311,0.0005503,2.861e-06,1.812e-05,0.0009861,7.153e-05,11.03,0.05311,0,0,0.0006676
21000000000,21300000000,3768540157,0,38647037,0.0005245,0.0005093,0.001923,0.0002384,0.0004625,0.0005503,6.676e-06,1.812e-05,0.0009766,0.0006428,11.52,0.05552,0,0,0.0004702
21300000000,21600000000,3768540157,0,38647037,0.0005198,0.000494,0.001923,0.0002422,0.0004511,0.0005503,3.815e-06,1.812e-05,0.001137,0.0005713,10.38,0.04896,0,0,0.0004215
21600000000,21900000000,3768540157,0,38647037,0.0005178,0.0004969,0.001921,0.000247,0.0004587,0.0005503,2.861e-06,1.812e-05,0.001072,7.153e-05,10.55,0.04992,0,0,0.0004005
21900000000,22200000000,3768540157,0,38647037,0.000514,0.0004826,0.001921,0.0002518,0.0004473,0.0005503,2.861e-06,1.812e-05,0.001341,0.0001068,10.38,0.04938,0,0,0.0006599
22200000000,22500000000,3768540157,0,38647037,0.0005159,0.0004959,0.001921,0.0002565,0.0004663,0.0005503,3.815e-06,1.812e-05,0.001474,0.0005713,10.79,0.05103,0,0,0.0003729
22500000000,22800000000,3768540157,0,38647037,0.000515,0.0004911,0.001921,0.0002604,0.0004663,0.0005503,4.768e-06,1.812e-05,0.001448,0.0009289,10.35,0.04891,0,0,0.001251
22800000000,23100000000,3768540157,0,38647037,0.000515,0.000493,0.001921,0.0002651,0.000473,0.0005503,1.144e-05,1.812e-05,0.001438,0.002857,11.11,0.05289,0,0,0.0008707
23100000000,23400000000,3768540157,0,38647037,0.0005226,0.0004921,0.001923,0.0002699,0.0004768,0.0005503,2.861e-06,1.812e-05,0.001348,7.153e-05,10.48,0.04991,0,0,0.0009336
23400000000,23700000000,3768540157,0,38647037,0.0005255,0.0005007,0.001923,0.0002747,0.0004902,0.0005503,2.861e-06,1.812e-05,0.001364,7.153e-05,11.11,0.05334,0,0,0.0005646
23700000000,24000000000,3768540157,0,38647037,0.0005341,0.000494,0.001921,0.0002785,0.0004883,0.0005503,2.861e-06,1.812e-05,0.001326,7.153e-05,10.85,0.05149,0,0,0.0007544
24000000000,24300000000,3768540157,0,38647037,0.0005236,0.0004749,0.001921,0.0002832,0.000473,0.0005503,3.815e-06,1.812e-05,0.001085,0.0004997,11.16,0.05341,0,0,0.0005503
24300000000,24600000000,3768540157,0,38647037,0.0005131,0.0005045,0.001923,0.000288,0.0005074,0.0005503,7.629e-06,1.812e-05,0.001017,0.0009995,10.56,0.05018,0,0,0.0005636
24600000000,24900000000,3768540157,0,38647037,0.0005198,0.0004787,0.001921,0.0002928,0.0004854,0.0005503,2.861e-06,1.812e-05,0.0009918,0.0001431,11.09,0.05315,0,0,0.0003052
24900000000,25200000000,3768540157,0,38647037,0.0005178,0.0004988,0.001923,0.0002966,0.0005102,0.0005503,2.861e-06,1.812e-05,0.000906,7.153e-05,10.69,0.0503,0,0,0.0008287
25200000000,25500000000,3768540157,0,38647037,0.0005236,0.0004892,0.001921,0.0003014,0.0005054,0.0005503,4.768e-06,1.812e-05,0.0008717,0.0009289,11.01,0.05162,0,0,0.0003529
25500000000,25800000000,3768540157,0,38647037,0.0005169,0.0005035,0.001923,0.0003061,0.0005245,0.0005503,2.861e-06,1.812e-05,0.0008488,7.153e-05,10.28,0.04807,0,0,0.0008488
25800000000,26100000000,3768540157,0,38647037,0.0005169,0.000493,0.001921,0.0003099,0.0005178,0.0005503,2.861e-06,1.812e-05,0.00116,0.0001431,10.57,0.05025,0,0,0.0003767
26100000000,26400000000,3768540157,0,38647037,0.0005198,0.0004873,0.001921,0.0003147,0.0005169,0.0005503,4.768e-06,1.812e-05,0.0009155,0.0006428,10.28,0.0477,0,0,0.0003271
26400000000,26700000000,3768540157,0,38647037,0.0005283,0.0004959,0.001921,0.0003195,0.0005302,0.0005503,2.861e-06,1.812e-05,0.0009766,0.0002146,10.99,0.0519,0,0,0.0003757
26700000000,27000000000,3768540157,0,38647037,0.0005264,0.0004902,0.001921,0.0003242,0.0005293,0.0005503,1.431e-05,1.812e-05,0.0009022,0.002857,10.36,0.04889,0,0,0.0006762
27000000000,27300000000,3768540157,0,38647037,0.0005207,0.0004978,0.001921,0.0003281,0.0005417,0.0005503,3.815e-06,1.812e-05,0.000905,0.0006428,11.38,0.05462,0,0,0.0007076
27300000000,27600000000,3768540157,0,38647037,0.000515,0.0004845,0.001921,0.0003328,0.0005322,0.0005503,4.768e-06,1.812e-05,0.0008545,0.0005713,10.26,0.04849,0,0,0.0003805
27600000000,27900000000,3768540157,0,38647037,0.0005198,0.0005112,0.001923,0.0003376,0.0005627,0.0005503,1.907e-06,1.812e-05,0.001106,7.153e-05,10.81,0.05138,0,0,0.000782
27900000000,28200000000,3768540157,0,38647037,0.0005188,0.0004835,0.001921,0.0003424,0.0005398,0.0005503,3.815e-06,1.812e-05,0.001282,0.0003567,10.41,0.04911,0,0,0.0004292
28200000000,28500000000,3768540157,0,38647037,0.0005283,0.0005016,0.001921,0.0003462,0.0005636,0.0005503,2.861e-06,1.907e-05,0.00103,0.0001431,11.22,0.05368,0,0,0.0003338
28500000000,28800000000,3768540157,0,38647037,0.0005255,0.0004845,0.001921,0.000351,0.0005493,0.0005503,8.583e-06,1.907e-05,0.001068,0.001358,10.93,0.05215,0,0,0.0008316
28800000000,29100000000,3768540157,0,38647037,0.000515,0.0004969,0.001921,0.0003557,0.0005674,0.0005503,1.907e-06,1.907e-05,0.001015,7.153e-05,11.19,0.05361,0,0,0.0005121
29100000000,29400000000,3768540157,0,38647037,0.000514,0.0004864,0.001921,0.0003605,0.0005608,0.0005503,7.629e-06,1.907e-05,0.0009594,0.001715,10.36,0.04886,0,0,0.0005941
29400000000,29700000000,3768540157,0,38647037,0.0005131,0.0004902,0.001921,0.0003643,0.0005693,0.0005503,6.676e-06,1.907e-05,0.0009346,0.001499,11.14,0.05321,0,0,0.000495
29700000000,30000000000,3768540157,0,38647037,0.0005093,0.0004959,0.001923,0.0003691,0.0005798,0.0005503,1.144e-05,1.907e-05,0.001146,0.002357,10.7,0.05069,0,0,0.0002317
30000000000,30300000000,3768540157,0,38647037,0.0005112,0.000495,0.001923,0.0003738,0.0005836,0.0005493,3.815e-06,1.907e-05,0.00106,0.0004282,11,0.05216,0,0,0.0004101
30300000000,30600000000,3768540157,0,38647037,0.0005074,0.0004978,0.001921,0.0003777,0.0005903,0.0005503,2.861e-06,1.907e-05,0.001129,0.0001431,10.05,0.04661,0,0,0.0006123
30600000000,30900000000,3768540157,0,38647037,0.0005112,0.0004854,0.001921,0.0003824,0.0005827,0.0005493,1.907e-06,1.907e-05,0.0009918,7.153e-05,10.47,0.04895,0,0,0.0003595
30900000000,31200000000,3768540157,0,38647037,0.0005102,0.0004997,0.001921,0.0003872,0.0006018,0.0005493,4.768e-06,1.907e-05,0.001015,0.0005713,10.45,0.0495,0,0,0.0004444
31200000000,31500000000,3768540157,0,38647037,0.0005131,0.0004826,0.001921,0.000392,0.0005884,0.0005493,2.861e-06,1.907e-05,0.001299,0.0002146,10.83,0.05115,0,0,0.0005999
31500000000,31800000000,3768540157,0,38647037,0.0005064,0.0004988,0.001923,0.0003958,0.0006094,0.0005503,3.815e-06,1.907e-05,0.001276,0.0005713,10.54,0.04973,0,0,0.0009012
31800000000,32100000000,3768540157,0,38647037,0.0005131,0.0004883,0.001921,0.0004005,0.0006037,0.0005493,1.907e-06,1.907e-05,0.001234,7.153e-05,10.49,0.04975,0,0,0.0004807
32100000000,32400000000,3768540157,0,38647037,0.000515,0.0005035,0.001923,0.0004053,0.0006237,0.0005503,5.722e-06,1.907e-05,0.001478,0.0009289,10.39,0.04873,0,0,0.0009956
32400000000,32700000000,3768540157,0,38647037,0.0005207,0.0004854,0.001921,0.0004101,0.0006094,0.0005503,1.049e-05,1.907e-05,0.001356,0.002357,11.33,0.0541,0,0,0.0008059
32700000000,33000000000,3768540157,0,38647037,0.0005169,0.0004997,0.001921,0.0004139,0.0006285,0.0005503,4.768e-06,1.907e-05,0.001341,0.0007143,11.03,0.05234,0,0,0.0003786
33000000000,33300000000,3768540157,0,38647037,0.0005198,0.0004892,0.001921,0.0004187,0.0006218,0.0005503,2.861e-06,1.907e-05,0.00127,0.0003567,11.01,0.05242,0,0,0.0004625
33300000000,33600000000,3768540157,0,38647037,0.0005188,0.0004892,0.001921,0.0004234,0.0006275,0.0005503,1.907e-06,1.907e-05,0.0008621,7.153e-05,9.975,0.04697,0,0,0.0003443
33600000000,33900000000,3768540157,0,38647037,0.0005178,0.000493,0.001921,0.0004282,0.0006351,0.0005503,1.907e-06,1.907e-05,0.0009155,7.153e-05,10.22,0.04839,0,0,0.0002689
33900000000,34200000000,3768540157,0,38647037,0.0005226,0.0004911,0.001921,0.000433,0.000638,0.0005503,5.722e-06,1.907e-05,0.001003,0.0009289,9.963,0.04727,0,0,0.0006418
34200000000,34500000000,3768540157,0,38647037,0.0005178,0.0005102,0.001923,0.0004368,0.0006618,0.0005512,5.722e-06,1.907e-05,0.0009403,0.0003567,10.38,0.04945,0,0,0.0005121
34500000000,34800000000,3768540157,0,38647037,0.0005217,0.0004787,0.001921,0.0004416,0.0006351,0.0005503,2.861e-06,1.907e-05,0.0009441,0.0004282,9.994,0.04696,0,0,0.0007801
34800000000,35100000000,3768540157,0,38647037,0.0005217,0.0005074,0.001923,0.0004463,0.0006676,0.0005503,5.722e-06,1.812e-05,0.000824,0.0007858,10.7,0.05058,0,0,0.0005264
35100000000,35400000000,3768540157,0,38647037,0.0005255,0.0004768,0.001921,0.0004511,0.0006428,0.0005503,1.907e-06,1.812e-05,0.001135,7.153e-05,10.32,0.04874,0,0,0.0005026
35400000000,35700000000,3768540157,0,38647037,0.0005188,0.0004978,0.001921,0.0004559,0.0006676,0.0005503,1.24e-05,1.812e-05,0.0008945,0.002857,10.29,0.0484,0,0,0.0005388
35700000000,36000000000,3768540157,0,38647037,0.0005188,0.0004816,0.001921,0.0004606,0.0006561,0.0005503,2.861e-06,1.812e-05,0.001076,0.0002146,10.12,0.04767,0,0,0.0004864
36000000000,36300000000,3768540157,0,38647037,0.0005121,0.0004959,0.001923,0.0004644,0.0006752,0.0005503,4.768e-06,1.812e-05,0.001434,0.0004997,6.829,0.03157,0,0,0.0005798
36300000000,36600000000,3768540157,0,38647037,0.0005054,0.0005121,0.001923,0.0001297,0.0003557,0.0005522,5.722e-06,1.812e-05,0.001148,0.0005713,10.43,0.04918,0,0,0.0004864
36600000000,36900000000,3768540157,0,38647037,0.0005102,0.0004892,0.001921,8.583e-05,0.000289,0.0005512,3.815e-06,1.812e-05,0.0009756,0.0003567,10.5,0.04943,0,0,0.000803
36900000000,37200000000,3768540157,0,38647037,0.000515,0.000495,0.001921,8.965e-05,0.0002995,0.0005512,3.815e-06,1.812e-05,0.001163,0.0002861,10.06,0.0473,0,0,0.0002861
37200000000,37500000000,3768540157,0,38647037,0.0005274,0.0004864,0.001921,9.537e-05,0.0002928,0.0005569,7.629e-06,1.812e-05,0.00119,0.001072,10.64,0.05029,0,0,0.0002699
37500000000,37800000000,3768540157,0,38647037,0.0005255,0.0004988,0.001921,0.0001001,0.0003119,0.0005512,8.583e-06,1.812e-05,0.001204,0.0009995,10.22,0.04792,0,0,0.000351
37800000000,38100000000,3768540157,0,38647037,0.0005188,0.0004826,0.001921,0.000104,0.0003014,0.0005512,4.768e-06,1.812e-05,0.001066,0.0007858,10.78,0.05104,0,0,0.0003557
38100000000,38400000000,3768540157,0,38647037,0.0005445,0.0005026,0.001923,0.0001087,0.0003242,0.000556,1.717e-05,1.812e-05,0.001137,0.001286,10.5,0.04967,0,0,0.0004616
38400000000,38700000000,3768540157,0,38647037,0.0005274,0.0005159,0.001923,0.0001154,0.0003405,0.0005589,1.144e-05,1.812e-05,0.0009804,0.001858,10.67,0.05073,0,0,0.0004873
38700000000,39000000000,3768540157,0,38647037,0.0005207,0.0004864,0.001921,0.0001202,0.0003195,0.0005522,4.768e-06,1.812e-05,0.0009222,0.0006428,10.47,0.0492,0,0,0.0002947
39000000000,39300000000,3768540157,0,38647037,0.0005188,0.0005045,0.001923,0.0001249,0.0003414,0.0005522,1.907e-06,1.812e-05,0.001438,7.153e-05,10.87,0.0519,0,0,0.0004835
39300000000,39600000000,3768540157,0,38647037,0.0005283,0.0004873,0.001921,0.0001297,0.000329,0.0005531,1.049e-05,1.812e-05,0.001162,0.001358,10.54,0.05018,0,0,0.0005779
39600000000,39900000000,3768540157,0,38647037,0.0005226,0.0004988,0.001921,0.0001345,0.0003443,0.0005541,1.049e-05,1.812e-05,0.001627,0.001143,11.06,0.05279,0,0,0.000864
39900000000,40200000000,3768540157,0,38647037,0.0005207,0.000494,0.001921,0.0001392,0.0003452,0.0005531,3.815e-06,1.812e-05,0.001413,0.0002861,10.48,0.0496,0,0,0.0006266
40200000000,40500000000,3768540157,0,38647037,0.0005198,0.0004959,0.001921,0.000144,0.000351,0.0005531,1.907e-06,1.812e-05,0.001318,0.0001431,11.01,0.05266,0,0,0.0008659
40500000000,40800000000,3768540157,0,38647037,0.000514,0.0004997,0.001923,0.0001488,0.0003605,0.0005531,7.629e-06,1.812e-05,0.001348,0.0007143,10.53,0.05042,0,0,0.00103
51000000000,51300000000,3768540157,0,38647037,0.0005274,0.0004892,0.001921,0.0003147,0.000514,0.0005541,2.861e-06,1.812e-05,0.001482,7.153e-05,10.74,0.05086,0,0,0.0008488
51300000000,51600000000,3768540157,0,38647037,0.0005274,0.0004997,0.001923,0.0003195,0.0005302,0.0005541,1.717e-05,1.812e-05,0.001413,0.002857,10.77,0.05085,0,0,0.001316
51600000000,51900000000,3768540157,0,38647037,0.0005169,0.0004969,0.001923,0.0003233,0.0005312,0.0005541,2.861e-06,1.812e-05,0.001188,0.0003567,10.99,0.05228,0,0,0.0003481
51900000000,52200000000,3768540157,0,38647037,0.0005112,0.0005064,0.001923,0.0003281,0.0005455,0.0005541,3.815e-06,1.812e-05,0.001171,0.0003567,10.46,0.04923,0,0,0.0008669
52200000000,52500000000,3768540157,0,38647037,0.0005198,0.0004883,0.001921,0.0003338,0.0005302,0.0005598,5.722e-06,1.812e-05,0.001917,0.0005713,9.409,0.04392,0,0,0.0004454
52500000000,52800000000,3768540157,0,38647037,0.0005131,0.0004997,0.001921,0.0003386,0.0005493,0.0005541,7.629e-06,1.812e-05,0.001129,0.001572,10.74,0.05042,0,0,0.0005159
52800000000,53100000000,3768540157,0,38647037,0.0005112,0.0004959,0.001921,0.0003424,0.0005493,0.0005541,1.907e-06,1.812e-05,0.0009241,7.153e-05,11.11,0.05289,0,0,0.0004234
53100000000,53400000000,3768540157,0,38647037,0.0005102,0.0004902,0.001921,0.0003471,0.0005474,0.000555,5.722e-06,1.812e-05,0.00116,0.001215,10.61,0.05014,0,0,0.0004005
53400000000,53700000000,3768540157,0,38647037,0.0005131,0.0004921,0.001921,0.0003519,0.000556,0.0005541,5.722e-06,1.907e-05,0.001282,0.0007143,10.6,0.04982,0,0,0.0005798
53700000000,54000000000,3768540157,0,38647037,0.0005083,0.000493,0.001921,0.0003567,0.0005598,0.0005541,2.861e-06,1.907e-05,0.0009127,0.0002146,10.42,0.04905,0,0,0.0007944
54000000000,54300000000,3768540157,0,38647037,0.0005121,0.0005121,0.001923,0.0003614,0.0005846,0.0005541,8.583e-06,1.907e-05,0.0009003,0.001642,10.89,0.05163,0,0,0.0005283
54300000000,54600000000,3768540157,0,38647037,0.0005131,0.0004835,0.001921,0.0003653,0.0005598,0.0005541,3.815e-06,1.907e-05,0.0009975,0.0004997,10.56,0.04997,0,0,0.0003061
54600000000,54900000000,3768540157,0,38647037,0.0005217,0.0005064,0.001923,0.00037,0.0005875,0.0005541,8.583e-06,1.907e-05,0.0009212,0.001143,11.39,0.05491,0,0,0.0004807
54900000000,55200000000,3768540157,0,38647037,0.0005207,0.0004835,0.001921,0.0003748,0.0005693,0.0005541,8.583e-06,1.907e-05,0.0009804,0.001642,10.38,0.04896,0,0,0.0006914
55200000000,55500000000,3768540157,0,38647037,0.0005169,0.0004969,0.001921,0.0003796,0.0005865,0.0005541,1.049e-05,1.907e-05,0.00124,0.002499,10.95,0.05154,0,0,0.0005503
55500000000,55800000000,3768540157,0,38647037,0.0005045,0.0004911,0.001921,0.0003843,0.0005865,0.0005541,5.722e-06,1.907e-05,0.00119,0.001215,10.23,0.04779,0,0,0.0006371
55800000000,56100000000,3768540157,0,38647037,0.0005026,0.0004988,0.001921,0.0003881,0.000598,0.000555,3.815e-06,1.907e-05,0.0009766,0.0006428,10.99,0.05192,0,0,0.0002699
56100000000,56400000000,3768540157,0,38647037,0.0005054,0.0005121,0.001923,0.0003929,0.0006161,0.0005541,5.722e-06,1.907e-05,0.00631,0.001215,9.985,0.04635,0,0,0.0006733
56400000000,56700000000,3768540157,0,38647037,0.0005312,0.0004978,0.001923,0.0003977,0.0006065,0.0005541,1.24e-05,1.907e-05,0.001617,0.001858,11.47,0.05448,0,0,0.0004625
56700000000,57000000000,3768540157,0,38647037,0.0005198,0.0004969,0.001921,0.0004025,0.0006094,0.0005541,8.583e-06,1.907e-05,0.004028,0.001785,10.46,0.04897,0,0,0.0002441
57000000000,57300000000,3768540157,0,38647037,0.0005131,0.0004921,0.001921,0.0004072,0.0006104,0.0005541,1.907e-06,1.907e-05,0.001482,7.153e-05,11.01,0.0523,0,0,0.0005827
57300000000,57600000000,3768540157,0,38647037,0.0005064,0.0004988,0.001921,0.000412,0.0006208,0.000555,7.629e-06,1.907e-05,0.001835,0.001642,10.99,0.05264,0,0,0.0006371
57600000000,57900000000,3768540157,0,38647037,0.0005102,0.0004845,0.001921,0.0004158,0.0006123,0.0005541,3.815e-06,1.907e-05,0.001402,0.0004997,10.7,0.05046,0,0,0.0009604
57900000000,58200000000,3768540157,0,38647037,0.0005026,0.0005045,0.001923,0.0004206,0.0006361,0.0005541,4.768e-06,1.907e-05,0.001495,0.0004997,10.48,0.04935,0,0,0.0003853
58200000000,58500000000,3768540157,0,38647037,0.0005035,0.0004978,0.001923,0.0004253,0.0006332,0.0005541,2.861e-06,1.907e-05,0.003094,0.0001431,10.5,0.04903,0,0,0.0004644
58500000000,58800000000,3768540157,0,38647037,0.0005093,0.0005054,0.001923,0.0004301,0.0006456,0.0005541,3.815e-06,1.907e-05,0.001007,0.0002861,10.19,0.04734,0,0,0.0004625
58800000000,59100000000,3768540157,0,38647037,0.0005169,0.0004911,0.001921,0.0004349,0.0006371,0.0005541,2.861e-06,1.907e-05,0.001078,7.153e-05,11.23,0.05301,0,0,0.000391
59100000000,59400000000,3768540157,0,38647037,0.0005178,0.000494,0.001921,0.0004387,0.0006447,0.0005541,1.335e-05,1.907e-05,0.002281,0.001143,10.1,0.04731,0,0,0.0004282
59400000000,59700000000,3768540157,0,38647037,0.0005045,0.0004902,0.001921,0.0004435,0.0006447,0.0005541,6.676e-06,1.907e-05,0.00618,0.0005713,10.22,0.04807,0,0,0.000432
59700000000,60000000000,3768540157,0,38647037,0.0005045,0.0004892,0.001921,0.0004482,0.0006485,0.0005541,1.144e-05,1.907e-05,0.001074,0.002857,10.29,0.0479,0,0,0.0004454
60000000000,60300000000,3768540157,0,38647037,0.0005064,0.0004988,0.001921,0.000453,0.0006618,0.0005541,4.768e-06,1.812e-05,0.0009718,0.0007858,10.98,0.0516,0,0,0.0005178
60300000000,60600000000,3768540157,0,38647037,0.0005112,0.0005054,0.001923,0.0004578,0.0006733,0.0005541,2.861e-06,1.812e-05,0.0009937,0.0002146,10.18,0.04736,0,0,0.0007
60600000000,60900000000,3768540157,0,38647037,0.0005226,0.0005026,0.001923,0.0004625,0.0006752,0.000555,2.861e-06,1.812e-05,0.0009642,0.0001431,10.75,0.05032,0,0,0.0003252
