5700000000,6000000000,3769734124,0,2197275471,0.007446,0.1326,0.1418,0.0001879,0.0002232,0.1326,9.537e-07,0,0.05676,0.0001431,1.176,0.001554,0,0,0.0005941
6000000000,6300000000,3769734124,0,2197275471,0.006172,0.1326,0.1418,0.0001879,0.0002069,0.1328,5.722e-06,0,0.06628,0.0006428,1.214,0.001655,0,0,0.002876
6300000000,6600000000,3769734124,0,2197275471,0.00721,0.1326,0.1418,0.0001888,0.0002041,0.1328,1.717e-05,0,0.05273,0.001499,1.172,0.001532,0,0,0.003914
6600000000,6900000000,3769734124,0,2197275471,0.007164,0.1326,0.1418,0.0001888,0.0002136,0.1326,6.676e-06,0,0.05298,0.0006428,1.213,0.001602,0,0,0.0005341
6900000000,7200000000,3769734124,0,2197275471,0.006714,0.1326,0.1418,0.0001879,0.0001888,0.1326,9.537e-06,0,0.05237,0.001286,1.24,0.001566,0,0,0.01474
7200000000,7500000000,3769734124,0,2197275471,0.006386,0.1326,0.1418,0.0001879,0.0002098,0.1328,1.907e-06,0,0.06067,0.0002146,1.224,0.001658,0,0,0.004356
7500000000,7800000000,3769734124,0,2197275471,0.006989,0.1326,0.1418,0.0001888,0.0001898,0.1326,1.526e-05,0,0.04285,0.001499,1.194,0.001566,0,0,0.001368
7800000000,8100000000,3769734124,0,2197275471,0.00721,0.1326,0.1418,0.0001888,0.0002041,0.1328,2.861e-06,0,0.05371,0.0002146,1.162,0.001505,0,0,0.0004683
8100000000,8400000000,3769734124,0,2197275471,0.006493,0.1326,0.1418,0.0001879,0.0002003,0.1328,8.583e-06,0,0.05377,0.001072,1.177,0.001481,0,0,0.003796
8400000000,8700000000,3769734124,0,2197275471,0.007378,0.1326,0.1418,0.0001888,0.0001888,0.1326,8.583e-06,0,0.09912,0.0007858,1.169,0.001485,0,0,0.005898
8700000000,9000000000,3769734124,0,2197275471,0.007744,0.1326,0.1418,0.0001888,0.0001955,0.1328,7.629e-06,0,0.06146,0.0008574,1.147,0.001436,0,0,0.004936
9000000000,9300000000,3769734124,0,2197275471,0.008499,0.1326,0.1418,0.0001898,0.0001907,0.1326,1.907e-06,0,0.05719,0.0001431,1.135,0.001454,0,0,0.001013
9300000000,9600000000,3769734124,0,2197275471,0.007294,0.1326,0.1418,0.0001898,0.0001926,0.1326,1.907e-06,0,0.05396,0.0002146,1.165,0.001519,0,0,0.02582
9600000000,9900000000,3769734124,0,2197275471,0.006989,0.1326,0.1418,0.0001898,0.0001907,0.1328,7.629e-06,0,0.06061,0.0009995,1.176,0.001573,0,0,0.005775
9900000000,10200000000,3769734124,0,2197275471,0.009232,0.1328,0.1418,0.0001898,0.0003166,0.1328,2.861e-06,0,0.04211,0.0002146,1.241,0.001595,0,0,0.004822
10200000000,10500000000,3769734124,0,2197275471,0.006844,0.1326,0.1418,0.0001898,0.0003119,0.1328,9.537e-07,0,0.04907,7.153e-05,1.236,0.001648,0,0,0.000493
10500000000,10800000000,3769734124,0,2197275471,0.0065,0.1326,0.1418,0.0001898,0.0003195,0.1328,3.815e-06,0,0.08069,0.0004282,1.21,0.001666,0,0,0.006424
10800000000,11100000000,3769734124,0,2197275471,0.005707,0.1326,0.1418,0.0001898,0.0003052,0.1328,9.537e-06,0,0.04901,0.0006428,1.234,0.001645,0,0,0.004524
11100000000,11400000000,3769734124,0,2197275471,0.00576,0.1326,0.1418,0.0001898,0.0003185,0.1328,7.629e-06,0,0.04718,0.0006428,1.166,0.001523,0,0,0.009506
11400000000,11700000000,3769734124,0,2197275471,0.007286,0.1326,0.1418,0.0001898,0.0003033,0.1328,4.768e-06,0,0.05359,0.0002861,1.15,0.001501,0,0,0.01057
11700000000,12000000000,3769734124,0,2197275471,0.007576,0.1326,0.1418,0.0001888,0.0002947,0.1328,1.24e-05,0,0.06213,0.001928,1.119,0.001411,0,0,0.01028
12000000000,12300000000,3769734124,0,2197275471,0.007164,0.1326,0.1418,0.0001879,0.0003176,0.1328,5.722e-06,0,0.1941,0.0008574,1.184,0.001502,0,0,0.02127
12300000000,12600000000,3769734124,0,2197275471,0.007011,0.1326,0.1418,0.0001879,0.000289,0.1328,9.537e-06,0,0.04718,0.001715,1.199,0.001551,0,0,0.001745
12600000000,12900000000,3769734124,0,2197275471,0.006844,0.1326,0.1418,0.0001879,0.0003138,0.1326,9.537e-07,0,0.06055,7.153e-05,1.146,0.001495,0,0,7.915e-05
12900000000,13200000000,3769734124,0,2197275471,0.006935,0.1326,0.1418,0.0001879,0.0002804,0.1328,4.768e-06,0,0.05469,0.0004997,1.087,0.001389,0,0,0.0006857
13200000000,13500000000,3769734124,0,2197275471,0.008072,0.1326,0.1418,0.0001879,0.0003138,0.1328,1.049e-05,0,0.06555,0.0009289,1.193,0.001612,0,0,0.001764
13500000000,13800000000,3769734124,0,2197275471,0.008148,0.1326,0.1418,0.0001879,0.0002804,0.1328,1.335e-05,0,0.07471,0.0008574,1.152,0.001528,0,0,0.00975
13800000000,14100000000,3769734124,0,2197275471,0.005524,0.1326,0.1418,0.0001888,0.0002804,0.1328,4.768e-06,0,0.03418,0.0006428,1.179,0.001666,0,0,0.009552
14100000000,14400000000,3769734124,0,2197275471,0.0056,0.1326,0.1418,0.0001888,0.0003099,0.1328,3.147e-05,0,0.05853,0.007141,1.108,0.001468,0,0,0.01889
14400000000,14700000000,3769734124,0,2197275471,0.006256,0.1326,0.1418,0.0001888,0.0002728,0.1328,8.583e-06,0,0.05157,0.0009289,1.176,0.001613,0,0,0.007149
14700000000,15000000000,3769734124,0,2197275471,0.005699,0.1326,0.1418,0.0001888,0.0003119,0.1328,3.815e-06,0,0.05371,0.0006428,1.206,0.001685,0,0,0.006874
15000000000,15300000000,3769734124,0,2197275471,0.00502,0.1326,0.1418,0.0001888,0.0002651,0.1328,5.722e-06,0,0.04333,0.0009289,1.245,0.001784,0,0,0.005463
15300000000,15600000000,3769734124,0,2197275471,0.005341,0.1326,0.1418,0.0001888,0.0002775,0.1328,2.861e-06,0,0.06506,0.0002861,1.2,0.001584,0,0,0.004463
15600000000,15900000000,3769734124,0,2197275471,0.004906,0.1326,0.1418,0.0001888,0.0002975,0.1326,5.722e-06,0,0.04193,0.0006428,1.212,0.00167,0,0,0.007637
15900000000,16200000000,3769734124,0,2197275471,0.005173,0.1326,0.1418,0.0001888,0.0002556,0.1326,1.049e-05,0,0.04834,0.001642,1.177,0.00153,0,0,0.0002069
16200000000,16500000000,3769734124,0,2197275471,0.004646,0.1326,0.1418,0.0001888,0.0003061,0.1328,6.676e-06,0,0.03217,0.0005713,1.231,0.001719,0,0,0.0001726
16500000000,16800000000,3769734124,0,2197275471,0.004913,0.1326,0.1418,0.0001888,0.0002584,0.1328,3.815e-06,0,0.03717,0.0002861,1.137,0.001445,0,0,0.001274
16800000000,17100000000,3769734124,0,2197275471,0.005707,0.1326,0.1418,0.0001898,0.0002632,0.1328,1.144e-05,0,0.05786,0.001286,1.158,0.001524,0,0,0.005058
17100000000,17400000000,3769734124,0,2197275471,0.004929,0.1326,0.1418,0.0001898,0.0003014,0.1328,7.629e-06,0,0.05048,0.001215,1.184,0.001616,0,0,0.005005
17400000000,17700000000,3769734124,0,2197275471,0.00489,0.1326,0.1418,0.0001888,0.0002403,0.1326,2.861e-06,0,0.04004,0.0003567,1.223,0.001709,0,0,0.005219
17700000000,18000000000,3769734124,0,2197275471,0.00473,0.1326,0.1418,0.0001898,0.0002995,0.1328,2.098e-05,0,0.05426,0.001642,1.174,0.001543,0,0,0.0001726
18000000000,18300000000,3769734124,0,2197275471,0.004982,0.1326,0.1418,0.0001888,0.0002556,0.1328,3.815e-06,0,0.03192,0.0003567,1.202,0.001563,0,0,0.00174
18300000000,18600000000,3769734124,0,2197275471,0.005257,0.1326,0.1418,0.0001888,0.0002499,0.1328,2.861e-06,0,0.04272,0.0002146,1.187,0.00164,0,0,0.003128
18600000000,18900000000,3769734124,0,2197275471,0.004623,0.1326,0.1418,0.0001888,0.0002995,0.1328,3.815e-06,0,0.06079,0.0004282,1.14,0.001499,0,0,0.007111
18900000000,19200000000,3769734124,0,2197275471,0.004456,0.1326,0.1418,0.0001888,0.0002251,0.1326,1.907e-06,0,0.06323,0.0002146,1.225,0.001703,0,0,0.005554
19200000000,19500000000,3769734124,0,2197275471,0.004181,0.1326,0.1418,0.0001888,0.0002909,0.1326,1.907e-06,0,0.04034,7.153e-05,1.211,0.001656,0,0,0.009171
19500000000,19800000000,3769734124,0,2197275471,0.004303,0.1326,0.1418,0.0001888,0.0002527,0.1328,2.861e-06,0,0.04327,0.0001431,1.132,0.001474,0,0,0.001753
19800000000,20100000000,3769734124,0,2197275471,0.005226,0.1326,0.1418,0.0001888,0.0002403,0.1326,3.815e-06,0,0.05829,0.0002146,1.097,0.001354,0,0,0.009232
20100000000,20400000000,3769734124,0,2197275471,0.004036,0.1326,0.1418,0.0001888,0.0002966,0.1328,3.815e-06,0,0.03168,0.0007858,1.114,0.001434,0,0,0.0002012
20400000000,20700000000,3769734124,0,2197275471,0.004974,0.1326,0.1418,0.0001888,0.0002213,0.1328,1.049e-05,0,0.03632,0.001143,1.136,0.001515,0,0,0.001778
20700000000,21000000000,3769734124,0,2197275471,0.004494,0.1326,0.1418,0.0001888,0.0002651,0.1328,8.583e-06,0,0.05365,0.001286,1.192,0.001641,0,0,0.003048
21000000000,21300000000,3769734124,0,2197275471,0.004486,0.1326,0.1418,0.0001888,0.0002642,0.1328,1.144e-05,0,0.04755,0.001715,1.15,0.001524,0,0,0.001684
21300000000,21600000000,3769734124,0,2197275471,0.003819,0.1326,0.1418,0.0001888,0.0002155,0.1328,2.861e-06,0,0.03943,0.0002146,1.191,0.001601,0,0,0.01529
21600000000,21900000000,3769734124,0,2197275471,0.004265,0.1326,0.1418,0.0001888,0.0002832,0.1328,9.537e-07,0,0.03278,7.153e-05,1.093,0.001431,0,0,0.002937
21900000000,22200000000,3769734124,0,2197275471,0.003845,0.1326,0.1418,0.0001888,0.0002327,0.1328,3.815e-06,0,0.0379,0.0002861,1.14,0.001527,0,0,0.0002098
22200000000,22500000000,3769734124,0,2197275471,0.003849,0.1326,0.1418,0.0001888,0.0002403,0.1328,3.815e-06,0,0.05176,0.0002861,1.152,0.001541,0,0,0.0008373
22500000000,22800000000,3769734124,0,2197275471,0.003792,0.1326,0.1418,0.0001888,0.0002766,0.1328,3.815e-06,0,0.02942,0.0003567,1.218,0.001694,0,0,0.0003691
22800000000,23100000000,3769734124,0,2197275471,0.00359,0.1326,0.1418,0.0001888,0.0002003,0.1328,7.629e-06,0,0.04968,0.0008574,1.241,0.001783,0,0,0.00972
23100000000,23400000000,3769734124,0,2197275471,0.003834,0.1326,0.1418,0.0001907,0.0002651,0.1328,2.003e-05,0,0.02411,0.004143,1.18,0.001589,0,0,0.0001717
23400000000,23700000000,3769734124,0,2197275471,0.003613,0.1326,0.1418,0.0001936,0.0002518,0.1328,1.907e-06,0,0.04468,0.0001431,1.193,0.001654,0,0,0.001884
23700000000,24000000000,3769734124,0,2197275471,0.003567,0.1326,0.1418,0.0001917,0.0002165,0.1328,2.861e-06,0,0.03717,0.0007143,1.162,0.001478,0,0,0.0002346
24000000000,24300000000,3769734124,0,2197275471,0.003384,0.1326,0.1418,0.0001907,0.0002642,0.1328,2.861e-06,0,0.03375,0.0001431,1.209,0.001683,0,0,0.0006971
24300000000,24600000000,3769734124,0,2197275471,0.003269,0.1326,0.1418,0.0001907,0.0002174,0.1326,3.815e-06,0,0.04138,0.001072,1.17,0.001575,0,0,0.0006323
24600000000,24900000000,3769734124,0,2197275471,0.003292,0.1326,0.1418,0.0001907,0.0002365,0.1328,9.537e-07,0,0.05548,7.153e-05,1.206,0.001707,0,0,0.000288
24900000000,25200000000,3769734124,0,2197275471,0.003021,0.1326,0.1418,0.0001907,0.0002565,0.1326,7.629e-06,0,0.03235,0.001499,1.177,0.001616,0,0,0.001032
25200000000,25500000000,3769734124,0,2197275471,0.00351,0.1326,0.1418,0.0001898,0.0001907,0.1326,1.907e-06,0,0.04199,0.0001431,1.207,0.001752,0,0,0.001091
25500000000,25800000000,3769734124,0,2197275471,0.003574,0.1326,0.1418,0.0001888,0.0002518,0.1328,2.861e-06,0,0.05267,0.0001431,1.198,0.001649,0,0,0.0009232
25800000000,26100000000,3769734124,0,2197275471,0.00378,0.1326,0.1418,0.0001888,0.0002317,0.1328,2.861e-06,0,0.0318,0.0002146,1.137,0.001509,0,0,0.002151
26100000000,26400000000,3769734124,0,2197275471,0.003548,0.1326,0.1418,0.0001888,0.0002031,0.1326,1.144e-05,0,0.03619,0.001358,1.129,0.001466,0,0,0.001535
26400000000,26700000000,3769734124,0,2197275471,0.00351,0.1326,0.1418,0.0001879,0.0002403,0.1326,1.907e-06,0,0.04376,0.0001431,1.168,0.001522,0,0,0.001219
26700000000,27000000000,3769734124,0,2197275471,0.003483,0.1326,0.1418,0.0001888,0.0002069,0.1328,1.907e-06,0,0.05389,0.0002146,1.207,0.001661,0,0,0.005089
27000000000,27300000000,3769734124,0,2197275471,0.003452,0.1326,0.1418,0.0001888,0.0002213,0.1328,5.722e-06,0,0.06274,0.0007858,1.151,0.001611,0,0,0.002048
27300000000,27600000000,3769734124,0,2197275471,0.002682,0.1326,0.1418,0.0001879,0.0002327,0.1326,1.907e-06,0,0.02713,7.153e-05,1.169,0.001634,0,0,0.003181
27600000000,27900000000,3769734124,0,2197275471,0.002956,0.1326,0.1418,0.0001888,0.0001888,0.1326,2.861e-06,0,0.05518,0.0002861,1.207,0.001679,0,0,0.01813
27900000000,28200000000,3769734124,0,2197275471,0.002342,0.1326,0.1418,0.0001888,0.0002298,0.1326,1.907e-06,0,0.02481,0.0002861,1.263,0.001799,0,0,0.001991
28200000000,28500000000,3769734124,0,2197275471,0.002865,0.1326,0.1418,0.0001888,0.0002241,0.1326,6.676e-06,0,0.02972,0.0007143,1.012,0.001167,0,0,0.0003223
28500000000,28800000000,3769734124,0,2197275471,0.002831,0.1326,0.1418,0.0001888,0.0001898,0.1326,1.907e-06,0,0.04083,0.0002861,1.077,0.001326,0,0,0.0003109
28800000000,29100000000,3769734124,0,2197275471,0.002945,0.1326,0.1418,0.0001888,0.0002155,0.1326,1.907e-06,0,0.02597,0.0002861,1.125,0.001427,0,0,0.0003529
29100000000,29400000000,3769734124,0,2197275471,0.003437,0.1326,0.1418,0.0001888,0.0001984,0.1328,3.815e-06,0,0.03967,0.0004282,1.215,0.001537,0,0,0.0002375
29400000000,29700000000,3769734124,0,2197275471,0.002632,0.1326,0.1418,0.0001888,0.0002069,0.1326,1.907e-06,0,0.02756,0.0002146,1.227,0.00152,0,0,0.009262
29700000000,30000000000,3769734124,0,2197275471,0.002392,0.1326,0.1418,0.0001888,0.000227,0.1328,9.537e-07,0,0.07532,0.0001431,1.255,0.001586,0,0,8.392e-05
30000000000,30300000000,3769734124,0,2197275471,0.002739,0.1326,0.1418,0.0001888,0.0001898,0.1326,9.537e-07,0,0.05237,7.153e-05,1.332,0.001786,0,0,8.011e-05
30300000000,30600000000,3769734124,0,2197275471,0.002541,0.1326,0.1418,0.0001879,0.0002213,0.1326,1.907e-06,0,0.03552,0.0003567,1.082,0.001161,0,0,0.0006275
30600000000,30900000000,3769734124,0,2197275471,0.003529,0.1326,0.1418,0.0001888,0.0002022,0.1326,5.722e-06,0,0.05884,0.0008574,1.186,0.001431,0,0,0.0001154
30900000000,31200000000,3769734124,0,2197275471,0.003239,0.1326,0.1418,0.0001888,0.000205,0.1328,7.629e-06,0,0.02899,0.001358,1.185,0.001458,0,0,0.002548
31200000000,31500000000,3769734124,0,2197275471,0.002373,0.1326,0.1418,0.0001888,0.0002117,0.1328,0,0,0.04865,7.153e-05,1.222,0.001536,0,0,0.01004
31500000000,31800000000,3769734124,0,2197275471,0.002522,0.1326,0.1418,0.0001888,0.0001898,0.1326,1.907e-06,0,0.03021,0.0002861,1.177,0.001405,0,0,0.0001822
31800000000,32100000000,3769734124,0,2197275471,0.002853,0.1326,0.1418,0.0001888,0.0002089,0.1326,6.676e-06,0,0.03674,0.001429,1.083,0.001225,0,0,0.004234
32100000000,32400000000,3769734124,0,2197275471,0.001873,0.1326,0.1418,0.0001888,0.0002031,0.1326,9.537e-07,0,0.03674,0.0001431,1.319,0.001853,0,0,0.0001297
32400000000,32700000000,3769734124,0,2197275471,0.002037,0.1326,0.1418,0.0001888,0.0001898,0.1326,0,0,0.03906,7.153e-05,1.312,0.001861,0,0,7.439e-05
32700000000,33000000000,3769734124,0,2197275471,0.001972,0.1326,0.1418,0.0001879,0.0001993,0.1326,0,0,0.05634,7.153e-05,1.376,0.002059,0,0,0.0001869
33000000000,33300000000,3769734124,0,2197275471,0.001749,0.1326,0.1418,0.0001879,0.0001917,0.1326,0,0,0.02567,7.153e-05,1.197,0.001689,0,0,9.918e-05
33300000000,33600000000,3769734124,0,2197275471,0.002048,0.1326,0.1418,0.0001879,0.0001926,0.1326,9.537e-07,0,0.03079,0.0001431,1.312,0.001819,0,0,0.001289
33600000000,33900000000,3769734124,0,2197275471,0.001972,0.1326,0.1418,0.0001888,0.0001907,0.1326,2.861e-06,0,0.02744,0.0004997,1.293,0.001762,0,0,0.0001907
33900000000,34200000000,3769734124,0,2197275471,0.001991,0.1326,0.1418,0.0001888,0.0001898,0.1326,9.537e-07,0,0.03055,0.0001431,1.283,0.001776,0,0,0.0008192
34200000000,34500000000,3769734124,0,2197275471,0.002182,0.1326,0.1418,0.0001888,0.000288,0.1326,2.861e-06,0,0.03116,0.0007143,1.355,0.001939,0,0,0.0008421
34500000000,34800000000,3769734124,0,2197275471,0.001625,0.1326,0.1418,0.0001898,0.000309,0.1326,1.907e-06,0,0.04108,0.0002146,1.338,0.001705,0,0,0.002403
34800000000,35100000000,3769734124,0,2197275471,0.002193,0.1326,0.1418,0.0001888,0.0003147,0.1326,3.815e-06,0,0.02283,0.0006428,1.396,0.001916,0,0,0.0005732
35100000000,35400000000,3769734124,0,2197275471,0.002579,0.1326,0.1418,0.0001888,0.0002975,0.1326,3.815e-06,0,0.05701,0.0006428,1.433,0.002062,0,0,0.0001936
35400000000,35700000000,3769734124,0,2197275471,0.002132,0.1326,0.1418,0.0001888,0.0003014,0.1326,1.907e-06,0,0.03156,0.0002146,1.197,0.001498,0,0,0.0001202
35700000000,36000000000,3769734124,0,2197275471,0.002464,0.1326,0.1418,0.0001879,0.0002975,0.1326,1.907e-06,0,0.04327,0.0002146,1.187,0.001476,0,0,0.0001583
36000000000,36300000000,3769734124,0,2197275471,0.002399,0.1326,0.1418,0.0001888,0.0002871,0.1326,1.907e-06,0,0.0423,7.153e-05,1.098,0.001214,0,0,0.0001907
36300000000,36600000000,3769734124,0,2197275471,0.002514,0.1326,0.1418,0.0001888,0.0003071,0.1326,9.537e-07,0,0.03662,0.0001431,1.193,0.001487,0,0,7.534e-05
36600000000,36900000000,3769734124,0,2197275471,0.002895,0.1326,0.1418,0.0001888,0.0002842,0.1326,3.815e-06,0,0.04456,0.0002861,1.098,0.001243,0,0,0.0002327
36900000000,37200000000,3769734124,0,2197275471,0.002201,0.1326,0.1418,0.0001888,0.0002804,0.1326,1.907e-06,0,0.03766,0.0003567,1.103,0.001244,0,0,0.001144
37200000000,37500000000,3769734124,0,2197275471,0.002415,0.1326,0.1418,0.0001888,0.000308,0.1326,3.815e-06,0,0.07605,0.0007143,1.157,0.001341,0,0,0.001297
37500000000,37800000000,3769734124,0,2197275471,0.002262,0.1326,0.1418,0.0001917,0.0002804,0.1326,3.433e-05,0,0.03156,0.005714,1.201,0.001358,0,0,9.06e-05
37800000000,38100000000,3769734124,0,2197275471,0.002186,0.1326,0.1418,0.0001936,0.0003042,0.1326,9.537e-07,0,0.04736,7.153e-05,1.19,0.001514,0,0,0.00103
38100000000,38400000000,3769734124,0,2197275471,0.001957,0.1326,0.1418,0.0001926,0.000288,0.1326,6.676e-06,0,0.01999,0.001785,1.425,0.002056,0,0,0.002232
38400000000,38700000000,3769734124,0,2197275471,0.001558,0.1326,0.1418,0.0001926,0.0002728,0.1326,2.861e-06,0,0.03589,0.0005713,1.32,0.001697,0,0,0.002903
38700000000,39000000000,3769734124,0,2197275471,0.001677,0.1326,0.1418,0.0001926,0.0003128,0.1326,0,0,0.0293,7.153e-05,1.424,0.00199,0,0,0.0007095
39000000000,39300000000,3769734124,0,2197275471,0.001532,0.1326,0.1418,0.0001926,0.000268,0.1326,5.722e-06,0,0.0239,0.001072,1.423,0.002072,0,0,0.001879
39300000000,39600000000,3769734124,0,2197275471,0.001337,0.1326,0.1418,0.0001926,0.0002756,0.1326,0,0,0.02161,0,1.35,0.001866,0,0,0.0004177
39600000000,39900000000,3769734124,0,2197275471,0.001806,0.1326,0.1418,0.0001926,0.0003014,0.1328,1.049e-05,0,0.04919,0.00293,1.181,0.001489,0,0,0.0001535
39900000000,40200000000,3769734124,0,2197275471,0.001581,0.1326,0.1418,0.0001926,0.0002604,0.1326,3.815e-06,0,0.03247,0.001215,1.388,0.001957,0,0,0.0005608
40200000000,40500000000,3769734124,0,2197275471,0.001829,0.1326,0.1418,0.0001926,0.0002975,0.1326,6.676e-06,0,0.0253,0.001429,1.391,0.002016,0,0,0.00383
40500000000,40800000000,3769734124,0,2197275471,0.001453,0.1326,0.1418,0.0001907,0.0002689,0.1326,9.537e-07,0,0.02188,0.0003567,1.316,0.001799,0,0,0.0003986
51000000000,51300000000,3769734124,0,2197275471,0.003601,0.1326,0.1418,0.0001936,0.0002499,0.1326,9.537e-07,0,0.04358,7.153e-05,1.143,0.001417,0,0,0.0001698
51300000000,51600000000,3769734124,0,2197275471,0.003689,0.1326,0.1418,0.0001936,0.0001974,0.1328,1.907e-06,0,0.02954,0.0003567,1.09,0.001292,0,0,0.002987
51600000000,51900000000,3769734124,0,2197275471,0.003822,0.1326,0.1418,0.0001898,0.0002365,0.1328,3.815e-06,0,0.03772,0.0004997,1.311,0.001906,0,0,0.03406
51900000000,52200000000,3769734124,0,2197275471,0.003174,0.1326,0.1418,0.0001898,0.0002155,0.1328,0,0,0.04419,7.153e-05,1.155,0.001494,0,0,0.0004129
52200000000,52500000000,3769734124,0,2197275471,0.003345,0.1326,0.1418,0.0001898,0.0002127,0.1326,1.907e-06,0,0.05151,0.0002861,1.108,0.001309,0,0,0.0001116
52500000000,52800000000,3769734124,0,2197275471,0.003464,0.1326,0.1418,0.0001898,0.0002289,0.1328,3.815e-06,0,0.05048,0.0004997,1.098,0.001494,0,0,0.002247
52800000000,53100000000,3769734124,0,2197275471,0.002995,0.1326,0.1418,0.0001898,0.0001907,0.1326,7.629e-06,0,0.03387,0.001499,1.128,0.001598,0,0,0.0001726
53100000000,53400000000,3769734124,0,2197275471,0.002918,0.1326,0.1418,0.0001907,0.0002279,0.1326,2.861e-06,0,0.05396,0.0002861,1.163,0.001626,0,0,0.001507
53400000000,53700000000,3769734124,0,2197275471,0.00349,0.1326,0.1418,0.0001898,0.0001926,0.1326,1.907e-06,0,0.03918,0.0003567,1.094,0.00147,0,0,0.0002127
53700000000,54000000000,3769734124,0,2197275471,0.003281,0.1326,0.1418,0.0001898,0.0002222,0.1328,1.335e-05,0,0.03143,0.002998,1.099,0.00145,0,0,0.001467
54000000000,54300000000,3769734124,0,2197275471,0.003036,0.1326,0.1418,0.0001907,0.0002165,0.1326,9.537e-06,0,0.06482,0.001215,1.11,0.001492,0,0,0.00176
54300000000,54600000000,3769734124,0,2197275471,0.003632,0.1326,0.1418,0.0001898,0.0001907,0.1326,4.768e-06,0,0.04169,0.0007143,1.104,0.001439,0,0,0.0003395
54600000000,54900000000,3769734124,0,2197275471,0.004623,0.1326,0.1418,0.0001898,0.0002117,0.1326,7.629e-06,0,0.04163,0.0009289,1.125,0.001546,0,0,6.008e-05
54900000000,55200000000,3769734124,0,2197275471,0.003754,0.1326,0.1418,0.0001888,0.0001898,0.1326,6.676e-06,0,0.04834,0.0008574,1.111,0.001475,0,0,0.0001926
55200000000,55500000000,3769734124,0,2197275471,0.004044,0.1326,0.1418,0.0001888,0.0002069,0.1326,2.098e-05,0,0.05103,0.001429,1.162,0.001543,0,0,0.001375
55500000000,55800000000,3769734124,0,2197275471,0.004608,0.1326,0.1418,0.0001879,0.0001907,0.1326,1.144e-05,0,0.04529,0.001642,1.141,0.001557,0,0,0.001619
55800000000,56100000000,3769734124,0,2197275471,0.004593,0.1326,0.1418,0.0001888,0.0002012,0.1326,0,0,0.03766,7.153e-05,1.112,0.001464,0,0,0.0001459
56100000000,56400000000,3769734124,0,2197275471,0.004433,0.1326,0.1418,0.0001888,0.0001993,0.1328,1.907e-06,0,0.05048,0.0003567,1.165,0.001577,0,0,0.0002241
56400000000,56700000000,3769734124,0,2197275471,0.004776,0.1326,0.1418,0.0001888,0.0001898,0.1326,1.621e-05,0,0.04919,0.001999,1.169,0.001582,0,0,0.002472
56700000000,57000000000,3769734124,0,2197275471,0.003845,0.1326,0.1418,0.0001888,0.0001945,0.1326,4.768e-06,0,0.04462,0.0009995,1.137,0.0015,0,0,0.0001621
57000000000,57300000000,3769734124,0,2197275471,0.004288,0.1326,0.1418,0.0001888,0.0001898,0.1326,3.815e-06,0,0.05518,0.0006428,1.129,0.001449,0,0,0.02399
57300000000,57600000000,3769734124,0,2197275471,0.005043,0.1326,0.1418,0.0001888,0.0001898,0.1326,5.722e-06,0,0.05267,0.0009995,1.127,0.001495,0,0,0.02408
57600000000,57900000000,3769734124,0,2197275471,0.004936,0.1326,0.1418,0.0001888,0.0001898,0.1326,5.722e-06,0,0.05328,0.0007143,1.156,0.001539,0,0,0.006828
57900000000,58200000000,3769734124,0,2197275471,0.005074,0.1326,0.1418,0.0001888,0.0002794,0.1328,5.722e-06,0,0.0611,0.0009995,1.164,0.001565,0,0,0.004364
58200000000,58500000000,3769734124,0,2197275471,0.005127,0.1326,0.1418,0.0001888,0.0003147,0.1328,9.537e-07,0,0.05585,7.153e-05,1.111,0.00144,0,0,0.01311
58500000000,58800000000,3769734124,0,2197275471,0.004387,0.1326,0.1418,0.0001888,0.0003042,0.1326,2.861e-06,0,0.06677,0.0004282,1.221,0.001773,0,0,0.0009232
58800000000,59100000000,3769734124,0,2197275471,0.00576,0.1326,0.1418,0.0001888,0.0003147,0.1326,5.722e-06,0,0.04785,0.001143,1.112,0.001467,0,0,0.003681
59100000000,59400000000,3769734124,0,2197275471,0.005806,0.1326,0.1418,0.0001879,0.0002966,0.1328,8.583e-06,0,0.05554,0.0007143,1.169,0.001637,0,0,0.0003405
59400000000,59700000000,3769734124,0,2197275471,0.005478,0.1326,0.1418,0.0001879,0.0002327,0.1326,1.431e-05,0,0.06714,0.002213,1.147,0.001434,0,0,0.005188
59700000000,60000000000,3769734124,0,2197275471,0.006187,0.1326,0.1418,0.0001879,0.0002699,0.1328,5.722e-06,0,0.04797,0.0007858,1.186,0.001626,0,0,0.009079
60000000000,60300000000,3769734124,0,2197275471,0.004669,0.1326,0.1418,0.0001888,0.000246,0.1326,9.537e-07,0,0.05017,7.153e-05,1.255,0.001786,0,0,0.02374
60300000000,60600000000,3769734124,0,2197275471,0.004799,0.1326,0.1418,0.0001888,0.0002804,0.1328,3.815e-06,0,0.0636,0.0007143,1.205,0.001639,0,0,0.0001965
60600000000,60900000000,3769734124,0,2197275471,0.004761,0.1326,0.1418,0.0001888,0.0002403,0.1326,9.537e-07,0,0.04987,0.0002146,1.203,0.00169,0,0,0.0008192
70800000000,71100000000,3769734124,0,2197275471,0.005371,0.1326,0.1418,0.0001926,0.0002308,0.1328,7.629e-06,0,0.03906,0.001928,1.16,0.001521,0,0,0.001404
71100000000,71400000000,3769734124,0,2197275471,0.00602,0.1326,0.1418,0.0001926,0.0001936,0.1326,2.861e-06,0,0.04138,0.0002146,1.229,0.001679,0,0,0.001331
71400000000,71700000000,3769734124,0,2197275471,0.006447,0.1326,0.1418,0.0001898,0.0002298,0.1328,8.583e-06,0,0.04077,0.0009289,1.158,0.001506,0,0,0.003895
71700000000,72000000000,3769734124,0,2197275471,0.006874,0.1326,0.1418,0.0001898,0.0001907,0.1328,4.768e-06,0,0.06232,0.0004282,1.221,0.001626,0,0,0.0002489
72000000000,72300000000,3769734124,0,2197275471,0.005905,0.1326,0.1418,0.0001898,0.0002241,0.1328,2.861e-06,0,0.04321,0.0002146,1.154,0.001499,0,0,0.002666
72300000000,72600000000,3769734124,0,2197275471,0.006363,0.1326,0.1418,0.0001898,0.0001907,0.1326,2.861e-06,0,0.09473,0.0002861,1.178,0.001562,0,0,0.004341
72600000000,72900000000,3769734124,0,2197275471,0.006668,0.1326,0.1418,0.0001898,0.0002174,0.1328,2.384e-05,0,0.052,0.001928,1.154,0.001489,0,0,0.006424
72900000000,73200000000,3769734124,0,2197275471,0.005577,0.1326,0.1418,0.0001898,0.0001907,0.1328,3.815e-06,0,0.05444,0.0002146,1.154,0.001544,0,0,0.0005379
73200000000,73500000000,3769734124,0,2197275471,0.006477,0.1326,0.1418,0.0001898,0.0002155,0.1326,1.907e-06,0,0.0603,0.0001431,1.197,0.00161,0,0,0.0002365
73500000000,73800000000,3769734124,0,2197275471,0.006668,0.1326,0.1418,0.0001907,0.0001907,0.1328,2.861e-06,0,0.05127,0.0002146,1.16,0.001544,0,0,0.02747
73800000000,74100000000,3769734124,0,2197275471,0.006042,0.1326,0.1418,0.0001898,0.000206,0.1328,4.768e-06,0,0.05469,0.0002861,1.168,0.001538,0,0,0.004723
74100000000,74400000000,3769734124,0,2197275471,0.007477,0.1326,0.1418,0.0001907,0.0001907,0.1328,5.722e-06,0,0.07422,0.0009995,1.178,0.001624,0,0,0.003899
74400000000,74700000000,3769734124,0,2197275471,0.006699,0.1326,0.1418,0.0001898,0.0002022,0.1328,3.815e-06,0,0.04535,0.0002146,1.161,0.00157,0,0,0.0007067
74700000000,75000000000,3769734124,0,2197275471,0.006386,0.1326,0.1418,0.0001907,0.0001907,0.1328,1.144e-05,0,0.06982,0.001928,1.17,0.001607,0,0,0.004807
75000000000,75300000000,3769734124,0,2197275471,0.006119,0.1326,0.1418,0.0001898,0.0001974,0.1326,5.722e-06,0,0.04156,0.001143,1.181,0.001594,0,0,0.01421
75300000000,75600000000,3769734124,0,2197275471,0.006508,0.1326,0.1418,0.0001898,0.0001907,0.1328,9.537e-06,0,0.05481,0.001928,1.207,0.001687,0,0,0.0008488
75600000000,75900000000,3769734124,0,2197275471,0.006065,0.1326,0.1418,0.0001898,0.0001917,0.1326,2.861e-06,0,0.0343,0.0002146,1.194,0.001578,0,0,0.002197
75900000000,76200000000,3769734124,0,2197275471,0.00618,0.1326,0.1418,0.0001898,0.0001907,0.1326,4.768e-06,0,0.04993,0.0007143,1.19,0.001578,0,0,0.0008268
76200000000,76500000000,3769734124,0,2197275471,0.006355,0.1326,0.1418,0.0001907,0.0002403,0.1328,1.717e-05,0,0.05432,0.001642,1.143,0.001491,0,0,0.0003023
76500000000,76800000000,3769734124,0,2197275471,0.00666,0.1326,0.1418,0.0001907,0.0003128,0.1328,9.537e-07,0,0.052,7.153e-05,1.128,0.001469,0,0,0.0001593
76800000000,77100000000,3769734124,0,2197275471,0.00618,0.1326,0.1418,0.0001898,0.0003014,0.1328,2.861e-06,0,0.04584,0.0002146,1.151,0.001532,0,0,0.003178
77100000000,77400000000,3769734124,0,2197275471,0.006813,0.1326,0.1418,0.0001898,0.0003119,0.1328,8.583e-06,0,0.06158,0.0007858,1.176,0.001582,0,0,0.005936
77400000000,77700000000,3769734124,0,2197275471,0.006996,0.1326,0.1418,0.0001898,0.0002966,0.1328,2.289e-05,0,0.05414,0.001999,1.172,0.00163,0,0,0.0002565
77700000000,78000000000,3769734124,0,2197275471,0.006355,0.1326,0.1418,0.0001898,0.0003119,0.1328,4.768e-06,0,0.06049,0.0006428,1.15,0.001556,0,0,0.0002003
78000000000,78300000000,3769734124,0,2197275471,0.006348,0.1326,0.1418,0.0001898,0.0002871,0.1328,5.722e-06,0,0.05597,0.0007143,1.184,0.001677,0,0,0.008896
78300000000,78600000000,3769734124,0,2197275471,0.005569,0.1326,0.1418,0.0001898,0.0003119,0.1326,1.24e-05,0,0.0567,0.001642,1.178,0.00165,0,0,0.01401
78600000000,78900000000,3769734124,0,2197275471,0.006142,0.1326,0.1418,0.0001898,0.0002871,0.1328,9.537e-06,0,0.05804,0.0009289,1.136,0.001528,0,0,0.002422
78900000000,79200000000,3769734124,0,2197275471,0.006973,0.1326,0.1418,0.0001907,0.0003128,0.1328,1.812e-05,0,0.04523,0.002785,1.18,0.001653,0,0,0.004173
79200000000,79500000000,3769734124,0,2197275471,0.006668,0.1326,0.1418,0.0001936,0.0002861,0.1328,7.629e-06,0,0.05994,0.001072,1.153,0.001559,0,0,0.0006351
79500000000,79800000000,3769734124,0,2197275471,0.00631,0.1326,0.1418,0.0001936,0.0003157,0.1328,2.861e-06,0,0.05798,0.0002861,1.14,0.001538,0,0,0.0004902
79800000000,80100000000,3769734124,0,2197275471,0.006905,0.1326,0.1418,0.0001945,0.0002842,0.1328,7.629e-06,0,0.04419,0.001286,1.223,0.001747,0,0,0.01636
80100000000,80400000000,3769734124,0,2197275471,0.006813,0.1326,0.1418,0.0001945,0.0003166,0.1328,3.815e-06,0,0.04156,0.0005713,1.13,0.001526,0,0,0.0003424
80400000000,80700000000,3769734124,0,2197275471,0.006004,0.1326,0.1418,0.0001907,0.0002356,0.1328,1.526e-05,0,0.04883,0.001858,1.175,0.001607,0,0,0.002388
80700000000,81000000000,3769734124,0,2197275471,0.005699,0.1326,0.1418,0.0001898,0.0003119,0.1328,6.676e-06,0,0.04071,0.0009289,1.124,0.001521,0,0,0.001106
85800000000,86100000000,3769734124,0,2197275471,0.005936,0.1326,0.1418,0.0001907,0.0002022,0.1328,6.676e-06,0,0.05865,0.0008574,1.157,0.001604,0,0,0.001406
86100000000,86400000000,3769734124,0,2197275471,0.006081,0.1326,0.1418,0.0001907,0.0002403,0.1328,5.722e-06,0,0.05591,0.001358,1.13,0.001507,0,0,0.0004845
86400000000,86700000000,3769734124,0,2197275471,0.00618,0.1326,0.1418,0.0001917,0.0002012,0.1328,7.629e-06,0,0.03613,0.0009289,1.117,0.001521,0,0,0.02173
86700000000,87000000000,3769734124,0,2197275471,0.00618,0.1326,0.1418,0.0001917,0.0002298,0.1328,3.815e-06,0,0.03992,0.0005713,1.193,0.001665,0,0,0.03
87000000000,87300000000,3769734124,0,2197275471,0.006218,0.1326,0.1418,0.0001917,0.0002337,0.1328,5.722e-06,0,0.05273,0.0008574,1.156,0.001579,0,0,0.0003204
87300000000,87600000000,3769734124,0,2197275471,0.006317,0.1326,0.1418,0.0001926,0.0001936,0.1326,4.768e-06,0,0.06262,0.0009995,1.14,0.001531,0,0,0.005074
87600000000,87900000000,3769734124,0,2197275471,0.005356,0.1326,0.1418,0.0001926,0.0002298,0.1328,2.861e-06,0,0.04761,0.0002861,1.175,0.001644,0,0,0.009109
87900000000,88200000000,3769734124,0,2197275471,0.005539,0.1326,0.1418,0.0001926,0.0002108,0.1328,1.907e-06,0,0.05017,0.0002146,1.144,0.001502,0,0,0.000452
88200000000,88500000000,3769734124,0,2197275471,0.006874,0.1326,0.1418,0.0001926,0.0002108,0.1328,9.537e-07,0,0.06085,7.153e-05,1.175,0.001644,0,0,0.002594
88500000000,88800000000,3769734124,0,2197275471,0.005539,0.1326,0.1418,0.0001917,0.0002232,0.1326,4.768e-06,0,0.04187,0.0007143,1.202,0.001716,0,0,0.002918
88800000000,89100000000,3769734124,0,2197275471,0.004738,0.1326,0.1418,0.0001917,0.0001917,0.1326,3.815e-06,0,0.03052,0.0007858,1.251,0.001803,0,0,0.005363
89100000000,89400000000,3769734124,0,2197275471,0.00502,0.1326,0.1418,0.0001917,0.0002165,0.1326,9.537e-07,0,0.04492,0.0001431,1.256,0.001834,0,0,0.02811
89400000000,89700000000,3769734124,0,2197275471,0.006317,0.1326,0.1418,0.0001917,0.0002136,0.1326,1.717e-05,0,0.04767,0.001785,1.164,0.001615,0,0,0.0117
89700000000,90000000000,3769734124,0,2197275471,0.005913,0.1326,0.1418,0.0001917,0.0001926,0.1326,2.861e-06,0,0.09058,0.0003567,1.212,0.001766,0,0,0.004066
90000000000,90300000000,3769734124,0,2197275471,0.005882,0.1326,0.1418,0.0001917,0.0002089,0.1328,2.861e-06,0,0.03687,0.0002861,1.165,0.001588,0,0,0.003571
90300000000,90600000000,3769734124,0,2197275471,0.006058,0.1326,0.1418,0.0001917,0.0001926,0.1328,1.049e-05,0,0.04291,0.001072,1.131,0.001538,0,0,0.0004053
90600000000,90900000000,3769734124,0,2197275471,0.006294,0.1326,0.1418,0.0001917,0.000205,0.1326,9.537e-07,0,0.05731,7.153e-05,1.191,0.001578,0,0,0.005829
101100000000,101400000000,3769734124,0,2197275471,0.005836,0.1326,0.1418,0.0001965,0.0003071,0.1328,6.676e-06,0,0.04773,0.0007858,1.135,0.001476,0,0,0.001499
101400000000,101700000000,3769734124,0,2197275471,0.006531,0.1326,0.1418,0.0001926,0.0002985,0.1328,1.049e-05,0,0.04932,0.001143,1.156,0.001573,0,0,0.01451
101700000000,102000000000,3769734124,0,2197275471,0.005722,0.1326,0.1418,0.0001926,0.0003233,0.1328,2.861e-06,0,0.03772,0.0001431,1.113,0.001462,0,0,0.01134
102000000000,102300000000,3769734124,0,2197275471,0.005951,0.1326,0.1418,0.0001917,0.0002937,0.1328,8.583e-06,0,0.06274,0.001642,1.149,0.001538,0,0,0.00104
102300000000,102600000000,3769734124,0,2197275471,0.005791,0.1326,0.1418,0.0001926,0.0002956,0.1328,3.815e-06,0,0.06055,0.0002861,1.13,0.001476,0,0,0.003262
102600000000,102900000000,3769734124,0,2197275471,0.005302,0.1326,0.1418,0.0001926,0.0003176,0.1328,8.583e-06,0,0.04724,0.001215,1.166,0.001589,0,0,0.007439
102900000000,103200000000,3769734124,0,2197275471,0.005783,0.1326,0.1418,0.0001926,0.0002861,0.1328,4.768e-06,0,0.05786,0.0007858,1.154,0.001558,0,0,0.05786
103200000000,103500000000,3769734124,0,2197275471,0.005791,0.1326,0.1418,0.0001926,0.000308,0.1328,1.907e-06,0,0.05688,0.0001431,1.189,0.001686,0,0,0.001003
103500000000,103800000000,3769734124,0,2197275471,0.005791,0.1326,0.1418,0.0001926,0.0002937,0.1328,1.907e-06,0,0.05652,0.0002146,1.188,0.001652,0,0,0.01114
103800000000,104100000000,3769734124,0,2197275471,0.006989,0.1326,0.1418,0.0001926,0.0002975,0.1328,8.583e-06,0,0.05597,0.001215,1.216,0.001716,0,0,0.01944
104100000000,104400000000,3769734124,0,2197275471,0.00589,0.1326,0.1418,0.0001926,0.0002861,0.1328,1.907e-06,0,0.04388,0.0001431,1.245,0.001777,0,0,0.005119
104400000000,104700000000,3769734124,0,2197275471,0.005539,0.1326,0.1418,0.0001917,0.0003023,0.1326,4.768e-06,0,0.04218,0.0007858,1.179,0.001629,0,0,0.002686
104700000000,105000000000,3769734124,0,2197275471,0.005569,0.1326,0.1418,0.0001898,0.0002584,0.1326,1.907e-06,0,0.04797,0.0001431,1.24,0.001771,0,0,0.007133
105000000000,105300000000,3769734124,0,2197275471,0.006683,0.1326,0.1418,0.0001898,0.0003214,0.1328,6.676e-06,0,0.04919,0.0009995,1.201,0.001684,0,0,0.0004606
105300000000,105600000000,3769734124,0,2197275471,0.004913,0.1326,0.1418,0.0001898,0.0002613,0.1328,7.629e-06,0,0.03882,0.001143,1.208,0.001764,0,0,0.000782
105600000000,105900000000,3769734124,0,2197275471,0.004967,0.1326,0.1418,0.0001888,0.0002756,0.1326,1.907e-06,0,0.03998,0.0002146,1.139,0.001478,0,0,0.0009518
105900000000,106200000000,3769734124,0,2197275471,0.005211,0.1326,0.1418,0.0001888,0.0003061,0.1328,9.537e-07,0,0.03265,0.0002146,1.131,0.001502,0,0,0.0006981
106200000000,106500000000,3769734124,0,2197275471,0.00563,0.1326,0.1418,0.0001898,0.0002575,0.1328,5.722e-06,0,0.05151,0.0007143,1.21,0.001732,0,0,0.002628
106500000000,106800000000,3769734124,0,2197275471,0.005058,0.1326,0.1418,0.0001898,0.0002851,0.1328,6.676e-06,0,0.04132,0.0009289,1.119,0.001652,0,0,0.01718
106800000000,107100000000,3769734124,0,2197275471,0.004311,0.1326,0.1418,0.0001898,0.0002899,0.1328,2.861e-06,0,0.05438,0.0001431,1.028,0.001424,0,0,0.004005
107100000000,107400000000,3769734124,0,2197275471,0.004372,0.1326,0.1418,0.0001898,0.000248,0.1328,8.583e-06,0,0.04626,0.0009995,1.143,0.001681,0,0,0.0002584
107400000000,107700000000,3769734124,0,2197275471,0.004585,0.1326,0.1418,0.0001898,0.0002956,0.1328,7.629e-06,0,0.04297,0.0007858,1.05,0.001494,0,0,0.005127
107700000000,108000000000,3769734124,0,2197275471,0.004906,0.1326,0.1418,0.0001898,0.0002699,0.1328,2.861e-06,0,0.07971,0.0001431,1.1,0.001643,0,0,0.00033
108000000000,108300000000,3769734124,0,2197275471,0.00388,0.1326,0.1418,0.0001898,0.0002394,0.1326,1.907e-06,0,0.04321,7.153e-05,1.082,0.001533,0,0,0.0006475
108300000000,108600000000,3769734124,0,2197275471,0.003922,0.1326,0.1418,0.0001898,0.0003071,0.1328,9.537e-07,0,0.04718,0.0001431,1.135,0.001531,0,0,9.441e-05
108600000000,108900000000,3769734124,0,2197275471,0.003834,0.1326,0.1418,0.0001898,0.0002489,0.1326,1.907e-06,0,0.0318,0.0002146,1.141,0.001581,0,0,8.774e-05
108900000000,109200000000,3769734124,0,2197275471,0.003605,0.1326,0.1418,0.0001907,0.000247,0.1328,1.907e-06,0,0.02228,0.0002861,1.091,0.001447,0,0,9.918e-05
109200000000,109500000000,3769734124,0,2197275471,0.004051,0.1326,0.1418,0.0001917,0.0003033,0.1328,1.907e-06,0,0.03717,0.0001431,1.117,0.001522,0,0,0.0003653
109500000000,109800000000,3769734124,0,2197275471,0.00359,0.1326,0.1418,0.0001917,0.0002346,0.1328,2.861e-06,0,0.02228,0.0002146,1.189,0.001717,0,0,0.0004501
109800000000,110100000000,3769734124,0,2197275471,0.003914,0.1326,0.1418,0.0001917,0.0002565,0.1326,9.537e-07,0,0.03247,7.153e-05,1.119,0.001514,0,0,0.0003223
110100000000,110400000000,3769734124,0,2197275471,0.004272,0.1326,0.1418,0.0001917,0.000289,0.1328,8.583e-06,0,0.03186,0.0009289,1.19,0.001653,0,0,0.006989
110400000000,110700000000,3769734124,0,2197275471,0.004814,0.1326,0.1418,0.0001917,0.0002184,0.1326,4.768e-06,0,0.03979,0.0007143,1.131,0.001484,0,0,0.0006857
110700000000,111000000000,3769734124,0,2197275471,0.004417,0.1326,0.1418,0.0001907,0.0002708,0.1326,9.537e-06,0,0.03589,0.0009289,1.12,0.001387,0,0,0.01974
116100000000,116400000000,3769734124,0,2197275471,0.002823,0.1326,0.1418,0.0001955,0.0001984,0.1326,6.676e-06,0,0.04523,0.0007858,1.213,0.00166,0,0,0.002117
116400000000,116700000000,3769734124,0,2197275471,0.002853,0.1326,0.1418,0.0001945,0.0002394,0.1328,9.537e-07,0,0.02469,0.0001431,1.214,0.001667,0,0,0.0001898
116700000000,117000000000,3769734124,0,2197275471,0.003117,0.1326,0.1418,0.0001945,0.0002232,0.1328,9.537e-07,0,0.07007,7.153e-05,1.168,0.001557,0,0,0.0001383
117000000000,117300000000,3769734124,0,2197275471,0.003006,0.1326,0.1418,0.0001945,0.000206,0.1326,1.907e-06,0,0.02017,0.0003567,1.132,0.001493,0,0,0.002808
117300000000,117600000000,3769734124,0,2197275471,0.003403,0.1326,0.1418,0.0001955,0.0002298,0.1326,4.768e-06,0,0.04291,0.0007143,1.173,0.001498,0,0,0.003521
117600000000,117900000000,3769734124,0,2197275471,0.003117,0.1326,0.1418,0.0001955,0.0002069,0.1326,9.537e-07,0,0.0509,0.0001431,1.215,0.001699,0,0,0.001547
117900000000,118200000000,3769734124,0,2197275471,0.002815,0.1326,0.1418,0.0001936,0.0002127,0.1326,9.537e-07,0,0.04517,7.153e-05,1.118,0.001451,0,0,0.0007296
118200000000,118500000000,3769734124,0,2197275471,0.00267,0.1326,0.1418,0.0001926,0.0002193,0.1326,0,0,0.03174,7.153e-05,1.085,0.001366,0,0,0.02383
118500000000,118800000000,3769734124,0,2197275471,0.002518,0.1326,0.1418,0.0001926,0.0001936,0.1326,0,0,0.03085,7.153e-05,1.227,0.001583,0,0,0.003952
118800000000,119100000000,3769734124,0,2197275471,0.002815,0.1326,0.1418,0.0001926,0.0002146,0.1326,9.537e-07,0,0.047,0.0001431,1.06,0.001313,0,0,0.0001879
119100000000,119400000000,3769734124,0,2197275471,0.002678,0.1326,0.1418,0.0001926,0.0002108,0.1326,9.537e-07,0,0.04004,7.153e-05,1.168,0.00153,0,0,0.007507
119400000000,119700000000,3769734124,0,2197275471,0.002396,0.1326,0.1418,0.0001936,0.0001936,0.1326,9.537e-07,0,0.04327,7.153e-05,1.122,0.001403,0,0,0.01334
119700000000,120000000000,3769734124,0,2197275471,0.002262,0.1326,0.1418,0.0001926,0.0002069,0.1328,9.537e-07,0,0.02954,0.0001431,1.386,0.002037,0,0,0.0008812
120000000000,120300000000,3769734124,0,2197275471,0.001743,0.1326,0.1418,0.0001926,0.0002022,0.1326,9.537e-07,0,0.03229,0.0002146,1.298,0.001861,0,0,0.0002422
120300000000,120600000000,3769734124,0,2197275471,0.002178,0.1326,0.1418,0.0001936,0.0001945,0.1326,9.537e-07,0,0.04614,7.153e-05,1.138,0.001474,0,0,0.0004482
120600000000,120900000000,3769734124,0,2197275471,0.001972,0.1326,0.1418,0.0001936,0.0001984,0.1326,9.537e-07,0,0.02664,0.0001431,1.207,0.001812,0,0,0.001577
126000000000,126300000000,3769734124,0,2197275471,0.002335,0.1326,0.1418,0.0001898,0.0002718,0.1328,5.722e-06,0,0.02393,0.0007143,1.095,0.001516,0,0,0.003036
126300000000,126600000000,3769734124,0,2197275471,0.001795,0.1326,0.1418,0.0001907,0.0002861,0.1326,9.537e-07,0,0.02676,7.153e-05,1.095,0.001591,0,0,0.0001945
126600000000,126900000000,3769734124,0,2197275471,0.0009546,0.1326,0.1418,0.0001907,0.0002966,0.1328,9.537e-07,0,0.02972,0.0002861,1.438,0.002606,0,0,0.0003042
126900000000,127200000000,3769734124,0,2197275471,0.001122,0.1326,0.1418,0.0001907,0.0002642,0.1326,0,0,0.02045,7.153e-05,1.237,0.002049,0,0,0.000515
127200000000,127500000000,3769734124,0,2197275471,0.001259,0.1326,0.1418,0.0001898,0.0002966,0.1328,1.049e-05,0,0.02728,0.0007858,1.313,0.002162,0,0,7.534e-05
127500000000,127800000000,3769734124,0,2197275471,0.001532,0.1326,0.1418,0.0001888,0.0002756,0.1326,9.537e-07,0,0.03278,0.0001431,1.363,0.002262,0,0,6.485e-05
127800000000,128100000000,3769734124,0,2197275471,0.001581,0.1326,0.1418,0.0001888,0.0002537,0.1326,4.768e-06,0,0.05463,0.0009995,1.266,0.001748,0,0,0.0003595
128100000000,128400000000,3769734124,0,2197275471,0.001318,0.1326,0.1418,0.0001888,0.0003099,0.1326,9.537e-07,0,0.01534,0.0001431,1.229,0.001774,0,0,0.0001736
128400000000,128700000000,3769734124,0,2197275471,0.001034,0.1326,0.1418,0.0001888,0.0002546,0.1326,8.583e-06,0,0.04327,0.0007858,1.243,0.001809,0,0,0.0001621
128700000000,129000000000,3769734124,0,2197275471,0.001507,0.1326,0.1418,0.0001926,0.0002584,0.1326,3.147e-05,0,0.02097,0.004501,1.288,0.001892,0,0,0.0005779
129000000000,129300000000,3769734124,0,2197275471,0.001627,0.1326,0.1418,0.0001936,0.0003147,0.1326,9.537e-07,0,0.0191,0.0002146,1.324,0.001982,0,0,0.0005827
129300000000,129600000000,3769734124,0,2197275471,0.001333,0.1326,0.1418,0.0001936,0.0002508,0.1326,6.676e-06,0,0.02652,0.001572,1.232,0.00184,0,0,0.0001163
129600000000,129900000000,3769734124,0,2197275471,0.001299,0.1326,0.1418,0.0001936,0.0002718,0.1326,9.537e-07,0,0.02814,7.153e-05,1.323,0.002105,0,0,0.0002317
129900000000,130200000000,3769734124,0,2197275471,0.001102,0.1326,0.1418,0.0001936,0.0002966,0.1326,0,0,0.02335,0,1.165,0.001671,0,0,0.0001316
130200000000,130500000000,3769734124,0,2197275471,0.001284,0.1326,0.1418,0.0001945,0.0002413,0.1326,4.768e-06,0,0.02173,0.0007143,1.171,0.001668,0,0,0.000102
130500000000,130800000000,3769734124,0,2197275471,0.001667,0.1326,0.1418,0.0001955,0.0002832,0.1326,9.537e-07,0,0.03613,7.153e-05,1.186,0.001776,0,0,0.0005293
130800000000,131100000000,3769734124,0,2197275471,0.00132,0.1326,0.1418,0.0001936,0.0002737,0.1326,9.537e-07,0,0.02063,7.153e-05,1.292,0.001878,0,0,0.0005608
141000000000,141300000000,3769734124,0,2197275471,0.004272,0.1326,0.1418,0.0001917,0.0001917,0.1326,2.861e-06,0,0.06921,0.0001431,1.271,0.001903,0,0,0.001709
141300000000,141600000000,3769734124,0,2197275471,0.004578,0.1326,0.1418,0.0001917,0.0002146,0.1328,2.861e-06,0,0.05072,0.0002146,1.269,0.001888,0,0,0.003296
141600000000,141900000000,3769734124,0,2197275471,0.00349,0.1326,0.1418,0.0001917,0.0002098,0.1328,1.907e-06,0,0.04865,7.153e-05,1.282,0.001903,0,0,0.0005112
141900000000,142200000000,3769734124,0,2197275471,0.003998,0.1326,0.1418,0.0001917,0.0001917,0.1326,1.049e-05,0,0.05316,0.002857,1.314,0.002032,0,0,0.0003538
142200000000,142500000000,3769734124,0,2197275471,0.004128,0.1326,0.1418,0.0001917,0.000205,0.1326,9.537e-07,0,0.03674,7.153e-05,1.232,0.001764,0,0,0.0001993
142500000000,142800000000,3769734124,0,2197275471,0.004189,0.1326,0.1418,0.0001917,0.0001926,0.1326,1.621e-05,0,0.03339,0.00293,1.253,0.001818,0,0,0.03052
142800000000,143100000000,3769734124,0,2197275471,0.003433,0.1326,0.1418,0.0001917,0.0002003,0.1326,3.815e-06,0,0.04547,0.0007858,1.324,0.002116,0,0,0.0004654
143100000000,143400000000,3769734124,0,2197275471,0.004807,0.1326,0.1418,0.0001917,0.0001917,0.1326,8.583e-06,0,0.0542,0.001358,1.26,0.001982,0,0,0.001751
143400000000,143700000000,3769734124,0,2197275471,0.003819,0.1326,0.1418,0.0001917,0.0001974,0.1328,1.431e-05,0,0.04382,0.002857,1.215,0.001884,0,0,0.001228
143700000000,144000000000,3769734124,0,2197275471,0.004021,0.1326,0.1418,0.0001917,0.0002308,0.1326,1.049e-05,0,0.05811,0.001642,1.229,0.001747,0,0,0.0002794
144000000000,144300000000,3769734124,0,2197275471,0.004875,0.1326,0.1418,0.0001926,0.0003204,0.1328,4.768e-06,0,0.04407,0.0005713,1.263,0.001816,0,0,0.000391
144300000000,144600000000,3769734124,0,2197275471,0.005066,0.1326,0.1418,0.0001926,0.0003147,0.1328,5.722e-06,0,0.05603,0.0009995,1.247,0.001766,0,0,0.002975
144600000000,144900000000,3769734124,0,2197275471,0.004227,0.1326,0.1418,0.0001926,0.0003109,0.1328,4.768e-06,0,0.0415,0.0004997,1.251,0.001792,0,0,0.01167
144900000000,145200000000,3769734124,0,2197275471,0.00396,0.1326,0.1418,0.0001926,0.0003185,0.1328,9.537e-07,0,0.07263,0.0002861,1.324,0.002006,0,0,0.000186
145200000000,145500000000,3769734124,0,2197275471,0.004387,0.1326,0.1418,0.0001917,0.0003052,0.1328,1.144e-05,0,0.06726,0.0009289,1.29,0.001856,0,0,0.003468
145500000000,145800000000,3769734124,0,2197275471,0.004913,0.1326,0.1418,0.0001917,0.0003128,0.1328,1.907e-06,0,0.05731,0.0002146,1.287,0.001904,0,0,0.001516
145800000000,146100000000,3769734124,0,2197275471,0.005516,0.1326,0.1418,0.0001926,0.0003014,0.1328,5.817e-05,0,0.06738,0.001928,1.233,0.001696,0,0,0.004349
151200000000,151500000000,3769734124,0,2197275471,0.005737,0.1326,0.1418,0.0001917,0.0002527,0.1328,5.722e-06,0,0.04956,0.0004997,1.231,0.001756,0,0,0.002357
151500000000,151800000000,3769734124,0,2197275471,0.007423,0.1326,0.1418,0.0001907,0.000267,0.1328,1.144e-05,0,0.05841,0.0009289,1.266,0.001747,0,0,0.0005426
151800000000,152100000000,3769734124,0,2197275471,0.004959,0.1326,0.1418,0.0001907,0.0002851,0.1328,1.431e-05,0,0.04895,0.00243,1.331,0.001869,0,0,0.01044
152100000000,152400000000,3769734124,0,2197275471,0.005241,0.1326,0.1418,0.0001907,0.0002394,0.1328,1.907e-05,0,0.04047,0.001928,1.315,0.001922,0,0,0.001307
152400000000,152700000000,3769734124,0,2197275471,0.006248,0.1326,0.1418,0.0001888,0.0002975,0.1328,3.815e-06,0,0.04126,0.0004282,1.28,0.001845,0,0,0.000247
152700000000,153000000000,3769734124,0,2197275471,0.004509,0.1326,0.1418,0.0001888,0.0002518,0.1326,7.629e-06,0,0.03363,0.001715,1.264,0.001889,0,0,0.003365
153000000000,153300000000,3769734124,0,2197275471,0.004868,0.1326,0.1418,0.0001898,0.0002537,0.1328,9.537e-06,0,0.07629,0.0008574,1.273,0.001981,0,0,0.0002279
153300000000,153600000000,3769734124,0,2197275471,0.004807,0.1326,0.1418,0.0001926,0.0002785,0.1328,4.959e-05,0,0.04456,0.003284,1.288,0.001943,0,0,0.001242
153600000000,153900000000,3769734124,0,2197275471,0.005745,0.1326,0.1418,0.0001917,0.0002346,0.1328,4.768e-05,0,0.05493,0.003284,1.268,0.00178,0,0,0.001272
153900000000,154200000000,3769734124,0,2197275471,0.005638,0.1326,0.1418,0.0001907,0.0002661,0.1328,3.052e-05,0,0.04828,0.001572,1.282,0.001867,0,0,0.02341
154200000000,154500000000,3769734124,0,2197275471,0.005524,0.1326,0.1418,0.0001898,0.0002527,0.1328,9.537e-06,0,0.05518,0.001429,1.247,0.001789,0,0,0.01242
154500000000,154800000000,3769734124,0,2197275471,0.005775,0.1326,0.1418,0.0001888,0.0002604,0.1328,2.956e-05,0,0.05762,0.002357,1.246,0.001728,0,0,0.006554
154800000000,155100000000,3769734124,0,2197275471,0.006149,0.1326,0.1418,0.0001879,0.000248,0.1328,1.717e-05,0,0.0719,0.002071,1.277,0.001946,0,0,0.004234
155100000000,155400000000,3769734124,0,2197275471,0.004822,0.1326,0.1418,0.0001888,0.0002556,0.1328,4.768e-05,0,0.03302,0.007141,1.208,0.001737,0,0,0.002712
155400000000,155700000000,3769734124,0,2197275471,0.005959,0.1326,0.1418,0.0001888,0.000226,0.1328,7.629e-06,0,0.05652,0.0007143,1.178,0.001683,0,0,0.004936
155700000000,156000000000,3769734124,0,2197275471,0.005157,0.1326,0.1418,0.0001888,0.0002756,0.1328,1.907e-06,0,0.09119,0.0002146,1.236,0.001743,0,0,0.008759
161100000000,161400000000,3769734124,0,2197275471,0.005775,0.1326,0.1418,0.0001898,0.0002041,0.1328,1.907e-06,0,0.04297,0.0001431,1.219,0.001776,0,0,0.000185
161400000000,161700000000,3769734124,0,2197275471,0.006416,0.1326,0.1418,0.0001898,0.0002489,0.1328,4.768e-06,0,0.0542,0.0005713,1.254,0.001764,0,0,0.0003271
161700000000,162000000000,3769734124,0,2197275471,0.005714,0.1326,0.1418,0.0001898,0.0001907,0.1326,2.861e-06,0,0.05511,0.0001431,1.28,0.001923,0,0,0.008621
162000000000,162300000000,3769734124,0,2197275471,0.005722,0.1326,0.1418,0.0001898,0.0002375,0.1328,2.098e-05,0,0.05206,0.002213,1.32,0.001987,0,0,0.0001125
162300000000,162600000000,3769734124,0,2197275471,0.006073,0.1326,0.1418,0.0001898,0.0001945,0.1328,1.907e-06,0,0.05988,0.0001431,1.242,0.00177,0,0,0.0004034
162600000000,162900000000,3769734124,0,2197275471,0.005585,0.1326,0.1418,0.0001907,0.0002308,0.1328,8.583e-06,0,0.09827,0.001572,1.301,0.001943,0,0,0.03558
162900000000,163200000000,3769734124,0,2197275471,0.005379,0.1326,0.1418,0.0001907,0.0002193,0.1328,3.624e-05,0,0.05042,0.00293,1.243,0.001777,0,0,0.003059
163200000000,163500000000,3769734124,0,2197275471,0.005402,0.1326,0.1418,0.0001907,0.0002022,0.1328,1.621e-05,0,0.07214,0.00243,1.256,0.001755,0,0,0.01578
163500000000,163800000000,3769734124,0,2197275471,0.005562,0.1326,0.1418,0.0001907,0.0002232,0.1328,3.815e-06,0,0.04883,0.0001431,1.306,0.001895,0,0,0.0003691
163800000000,164100000000,3769734124,0,2197275471,0.006477,0.1326,0.1418,0.0001907,0.0001917,0.1328,1.907e-06,0,0.04156,0.0001431,1.265,0.001861,0,0,0.0006123
164100000000,164400000000,3769734124,0,2197275471,0.006622,0.1326,0.1418,0.0001898,0.0002222,0.1328,1.907e-06,0,0.05658,7.153e-05,1.256,0.00182,0,0,0.009155
164400000000,164700000000,3769734124,0,2197275471,0.00563,0.1326,0.1418,0.0001898,0.0001965,0.1328,2.956e-05,0,0.05573,0.005142,1.269,0.001874,0,0,0.002201
164700000000,165000000000,3769734124,0,2197275471,0.006416,0.1326,0.1418,0.0002022,0.0002203,0.1328,7.153e-05,0,0.04663,0.01036,1.249,0.001855,0,0,0.0002213
165000000000,165300000000,3769734124,0,2197275471,0.006027,0.1326,0.1418,0.0001965,0.0002222,0.1328,6.104e-05,0,0.04913,0.007217,1.266,0.001825,0,0,0.009979
165300000000,165600000000,3769734124,0,2197275471,0.005157,0.1326,0.1418,0.0002012,0.0002069,0.1328,2.861e-06,0,0.04144,0.0002146,1.252,0.001844,0,0,0.01328
165600000000,165900000000,3769734124,0,2197275471,0.006104,0.1326,0.1418,0.0002003,0.0002222,0.1328,3.529e-05,0,0.06036,0.002857,1.222,0.001722,0,0,0.000267
165900000000,166200000000,3769734124,0,2197275471,0.005768,0.1326,0.1418,0.0001984,0.0002146,0.1328,1.907e-06,0,0.05353,0.0002146,1.215,0.001731,0,0,0.001299
166200000000,166500000000,3769734124,0,2197275471,0.005638,0.1326,0.1418,0.0001945,0.0002003,0.1326,3.147e-05,0,0.05249,0.00293,1.251,0.001804,0,0,0.00238
166500000000,166800000000,3769734124,0,2197275471,0.006828,0.1326,0.1418,0.0001917,0.000205,0.1326,1.907e-05,0,0.04828,0.002857,1.281,0.00193,0,0,0.002888
166800000000,167100000000,3769734124,0,2197275471,0.006271,0.1326,0.1418,0.0001907,0.0001955,0.1328,1.907e-06,0,0.05957,0.0001431,1.249,0.001795,0,0,0.02377
167100000000,167400000000,3769734124,0,2197275471,0.005371,0.1326,0.1418,0.0001888,0.0001945,0.1328,2.861e-05,0,0.05383,0.005859,1.265,0.001776,0,0,0.00341
167400000000,167700000000,3769734124,0,2197275471,0.005501,0.1326,0.1418,0.0001907,0.0002098,0.1328,4.387e-05,0,0.04993,0.003998,1.279,0.001893,0,0,0.01028
167700000000,168000000000,3769734124,0,2197275471,0.005157,0.1326,0.1418,0.0001955,0.0003033,0.1326,0.000144,0,0.02884,0.004929,1.303,0.001895,0,0,0.007568
168000000000,168300000000,3769734124,0,2197275471,0.006172,0.1326,0.1418,0.0001984,0.0003042,0.1328,3.815e-05,0,0.0556,0.009506,1.257,0.001822,0,0,0.05029
168300000000,168600000000,3769734124,0,2197275471,0.005196,0.1326,0.1418,0.0001993,0.0003119,0.1328,1.431e-05,0,0.06085,0.002785,1.298,0.001942,0,0,0.005302
168600000000,168900000000,3769734124,0,2197275471,0.005722,0.1326,0.1418,0.0001984,0.0003033,0.1328,1.335e-05,0,0.05487,0.002285,1.246,0.001809,0,0,0.009476
168900000000,169200000000,3769734124,0,2197275471,0.005936,0.1326,0.1418,0.0001984,0.0003023,0.1328,9.537e-06,0,0.0495,0.001858,1.269,0.001849,0,0,0.0003738
169200000000,169500000000,3769734124,0,2197275471,0.004906,0.1326,0.1418,0.0001945,0.0003061,0.1328,1.24e-05,0,0.07019,0.001358,1.239,0.001733,0,0,0.003872
169500000000,169800000000,3769734124,0,2197275471,0.005173,0.1326,0.1418,0.0001936,0.0002918,0.1328,2.861e-06,0,0.06482,0.0003567,1.245,0.001707,0,0,0.001656
169800000000,170100000000,3769734124,0,2197275471,0.00441,0.1326,0.1418,0.0001936,0.000308,0.1328,3.815e-06,0,0.06689,0.0007143,1.293,0.001864,0,0,0.001806
170100000000,170400000000,3769734124,0,2197275471,0.004959,0.1326,0.1418,0.0001879,0.0002842,0.1328,9.537e-07,0,0.03455,0.0001431,1.302,0.001865,0,0,0.001726
170400000000,170700000000,3769734124,0,2197275471,0.005409,0.1326,0.1418,0.0002012,0.0003004,0.1328,0.0001106,0,0.04486,0.02393,1.261,0.001794,0,0,0.01752
170700000000,171000000000,3769734124,0,2197275471,0.006271,0.1326,0.1418,0.0002022,0.0003166,0.1328,1.526e-05,0,0.03589,0.002285,1.29,0.001913,0,0,0.001362
171000000000,171300000000,3769734124,0,2197275471,0.004974,0.1326,0.1418,0.0001955,0.0002861,0.1328,5.722e-06,0,0.06555,0.001143,1.297,0.001865,0,0,0.004074
171300000000,171600000000,3769734124,0,2197275471,0.005112,0.1326,0.1418,0.0001926,0.0003138,0.1328,1.431e-05,0,0.052,0.002144,1.237,0.001744,0,0,0.0006762
171600000000,171900000000,3769734124,0,2197275471,0.004402,0.1326,0.1418,0.0001888,0.0002747,0.1328,1.144e-05,0,0.05621,0.001429,1.272,0.001836,0,0,0.0002441
171900000000,172200000000,3769734124,0,2197275471,0.00515,0.1326,0.1418,0.0001888,0.0003004,0.1328,3.91e-05,0,0.04883,0.003998,1.267,0.001883,0,0,0.0002604
172200000000,172500000000,3769734124,0,2197275471,0.004959,0.1326,0.1418,0.0001888,0.0002756,0.1328,1.144e-05,0,0.04529,0.001858,1.25,0.001794,0,0,0.0143
172500000000,172800000000,3769734124,0,2197275471,0.004692,0.1326,0.1418,0.0001888,0.0002632,0.1328,2.003e-05,0,0.0592,0.002644,1.274,0.001868,0,0,0.0001984
172800000000,173100000000,3769734124,0,2197275471,0.004807,0.1326,0.1418,0.0001888,0.0003023,0.1328,1.526e-05,0,0.05585,0.002357,1.291,0.001907,0,0,0.01009
173100000000,173400000000,3769734124,0,2197275471,0.004868,0.1326,0.1418,0.0001879,0.0002575,0.1328,1.24e-05,0,0.05505,0.001999,1.303,0.001915,0,0,0.001017
173400000000,173700000000,3769734124,0,2197275471,0.005127,0.1326,0.1418,0.0001888,0.0003061,0.1328,2.384e-05,0,0.04938,0.001072,1.275,0.00183,0,0,0.008499
173700000000,174000000000,3769734124,0,2197275471,0.005638,0.1326,0.1418,0.0001907,0.0002546,0.1328,3.529e-05,0,0.05249,0.002998,1.249,0.001811,0,0,0.001816
174000000000,174300000000,3769734124,0,2197275471,0.005798,0.1326,0.1418,0.0001898,0.0002737,0.1328,2.861e-06,0,0.039,0.0002146,1.204,0.001742,0,0,0.006065
174300000000,174600000000,3769734124,0,2197275471,0.005356,0.1326,0.1418,0.0001879,0.0002823,0.1328,1.335e-05,0,0.0415,0.001429,1.23,0.001797,0,0,0.002693
174600000000,174900000000,3769734124,0,2197275471,0.005257,0.1326,0.1418,0.0001888,0.000247,0.1328,3.815e-05,0,0.05835,0.003998,1.289,0.001908,0,0,0.001696
174900000000,175200000000,3769734124,0,2197275471,0.005959,0.1326,0.1418,0.0001879,0.0003033,0.1328,1.049e-05,0,0.05951,0.001499,1.258,0.001845,0,0,0.02133
175200000000,175500000000,3769734124,0,2197275471,0.005157,0.1326,0.1418,0.0001879,0.0002394,0.1326,1.717e-05,0,0.04382,0.002857,1.262,0.001834,0,0,0.004311
175500000000,175800000000,3769734124,0,2197275471,0.004669,0.1326,0.1418,0.0001879,0.0003042,0.1328,1.049e-05,0,0.0509,0.001572,1.282,0.001861,0,0,0.0007334
175800000000,176100000000,3769734124,0,2197275471,0.006104,0.1326,0.1418,0.0001879,0.0002394,0.1328,1.049e-05,0,0.05243,0.002716,1.285,0.001923,0,0,0.008652
186300000000,186600000000,3769734124,0,2197275471,0.005638,0.1326,0.1418,0.0001879,0.0002069,0.1328,2.861e-05,0,0.03979,0.002857,1.172,0.001622,0,0,0.0002165
186600000000,186900000000,3769734124,0,2197275471,0.005272,0.1326,0.1418,0.0001888,0.000246,0.1328,1.812e-05,0,0.03119,0.002285,1.14,0.001551,0,0,0.03119
186900000000,187200000000,3769734124,0,2197275471,0.005608,0.1326,0.1418,0.0001888,0.0002317,0.1328,1.335e-05,0,0.04803,0.001999,1.246,0.001738,0,0,0.01488
187200000000,187500000000,3769734124,0,2197275471,0.005905,0.1326,0.1418,0.0001888,0.0002108,0.1328,8.583e-06,0,0.04022,0.001143,1.235,0.00176,0,0,0.0003033
187500000000,187800000000,3769734124,0,2197275471,0.005547,0.1326,0.1418,0.0001888,0.0002594,0.1328,2.48e-05,0,0.05151,0.002857,1.203,0.001636,0,0,0.002079
187800000000,188100000000,3769734124,0,2197275471,0.005539,0.1326,0.1418,0.0001888,0.0001898,0.1328,1.717e-05,0,0.05859,0.002857,1.148,0.001485,0,0,0.002533
188100000000,188400000000,3769734124,0,2197275471,0.005722,0.1326,0.1418,0.0001888,0.0002489,0.1328,2.861e-06,0,0.05078,0.0005713,1.145,0.001482,0,0,0.0005569
188400000000,188700000000,3769734124,0,2197275471,0.006264,0.1326,0.1418,0.0001879,0.0001907,0.1328,1.24e-05,0,0.04547,0.002857,1.123,0.00142,0,0,0.0009336
188700000000,189000000000,3769734124,0,2197275471,0.00528,0.1326,0.1418,0.0001879,0.0002394,0.1328,1.049e-05,0,0.05835,0.001286,1.242,0.001666,0,0,0.0121
189000000000,189300000000,3769734124,0,2197275471,0.004776,0.1326,0.1418,0.0001888,0.000227,0.1328,4.768e-06,0,0.04413,0.0004997,1.217,0.001652,0,0,0.0002851
189300000000,189600000000,3769734124,0,2197275471,0.00544,0.1326,0.1418,0.0001879,0.0002003,0.1328,7.629e-06,0,0.08997,0.001715,1.158,0.001538,0,0,0.005043
189600000000,189900000000,3769734124,0,2197275471,0.005859,0.1326,0.1418,0.0001888,0.0002317,0.1328,1.049e-05,0,0.04932,0.001928,1.083,0.001382,0,0,0.007126
189900000000,190200000000,3769734124,0,2197275471,0.005569,0.1326,0.1418,0.0001879,0.0001898,0.1326,3.815e-06,0,0.03204,0.0006428,1.163,0.001523,0,0,0.0006638
190200000000,190500000000,3769734124,0,2197275471,0.006004,0.1326,0.1418,0.0001888,0.000226,0.1328,1.431e-05,0,0.05084,0.002571,1.072,0.001364,0,0,0.00172
190500000000,190800000000,3769734124,0,2197275471,0.005058,0.1326,0.1418,0.0001888,0.0002117,0.1328,0,0,0.05286,7.153e-05,1.174,0.001538,0,0,0.003983
190800000000,191100000000,3769734124,0,2197275471,0.006462,0.1326,0.1418,0.0001888,0.0002012,0.1326,3.815e-06,0,0.047,0.0005713,1.069,0.001294,0,0,0.006218
191100000000,191400000000,3769734124,0,2197275471,0.006241,0.1326,0.1418,0.0001879,0.0002203,0.1328,1.24e-05,0,0.05206,0.001499,1.19,0.001583,0,0,0.002464
191400000000,191700000000,3769734124,0,2197275471,0.005287,0.1326,0.1418,0.0001879,0.0001898,0.1326,1.907e-06,0,0.03638,7.153e-05,1.142,0.001508,0,0,0.02618
191700000000,192000000000,3769734124,0,2197275471,0.00576,0.1326,0.1418,0.0001888,0.0002127,0.1328,1.717e-05,0,0.03455,0.001785,1.166,0.00155,0,0,0.001242
192000000000,192300000000,3769734124,0,2197275471,0.0056,0.1326,0.1418,0.0001879,0.0002098,0.1328,5.722e-06,0,0.03918,0.0009289,1.173,0.001601,0,0,0.0003471
192300000000,192600000000,3769734124,0,2197275471,0.004707,0.1326,0.1418,0.0001888,0.0001898,0.1326,1.431e-05,0,0.04688,0.002857,1.224,0.001694,0,0,0.002083
192600000000,192900000000,3769734124,0,2197275471,0.005058,0.1326,0.1418,0.0001888,0.0002041,0.1326,1.144e-05,0,0.04236,0.002857,1.157,0.001518,0,0,0.003658
192900000000,193200000000,3769734124,0,2197275471,0.005608,0.1326,0.1418,0.0001888,0.0001898,0.1326,1.717e-05,0,0.05469,0.002857,1.144,0.0015,0,0,0.0002966
193200000000,193500000000,3769734124,0,2197275471,0.005867,0.1326,0.1418,0.0001888,0.0002003,0.1328,4.768e-06,0,0.05658,0.0009289,1.191,0.001614,0,0,0.001766
193500000000,193800000000,3769734124,0,2197275471,0.00547,0.1326,0.1418,0.0001888,0.0001955,0.1326,8.583e-06,0,0.04797,0.002285,1.2,0.001682,0,0,0.0002642
193800000000,194100000000,3769734124,0,2197275471,0.005409,0.1326,0.1418,0.0001888,0.0001898,0.1326,4.768e-06,0,0.04468,0.0002146,1.13,0.00145,0,0,0.00383
194100000000,194400000000,3769734124,0,2197275471,0.004959,0.1326,0.1418,0.0001888,0.0001917,0.1328,2.575e-05,0,0.05023,0.002499,1.105,0.001397,0,0,0.02097
194400000000,194700000000,3769734124,0,2197275471,0.004539,0.1326,0.1418,0.0001888,0.0002184,0.1328,5.722e-06,0,0.05536,0.001143,1.119,0.001444,0,0,0.0006676
194700000000,195000000000,3769734124,0,2197275471,0.00489,0.1326,0.1418,0.0001888,0.0003185,0.1328,1.335e-05,0,0.03748,0.002357,1.149,0.00151,0,0,0.0005264
195000000000,195300000000,3769734124,0,2197275471,0.005348,0.1326,0.1418,0.0001888,0.0003119,0.1328,2.289e-05,0,0.05066,0.002357,1.115,0.001491,0,0,0.01205
195300000000,195600000000,3769734124,0,2197275471,0.00589,0.1326,0.1418,0.0001917,0.0003052,0.1328,3.433e-05,0,0.04932,0.002785,1.13,0.001537,0,0,0.005157
195600000000,195900000000,3769734124,0,2197275471,0.004997,0.1326,0.1418,0.0001907,0.0003147,0.1328,4.387e-05,0,0.03986,0.002857,1.097,0.001451,0,0,0.000247
195900000000,196200000000,3769734124,0,2197275471,0.004128,0.1326,0.1418,0.0001888,0.0002966,0.1328,1.049e-05,0,0.02969,0.0009289,1.098,0.00146,0,0,0.0009604
201300000000,201600000000,3769734124,0,2197275471,0.002865,0.1326,0.1418,0.0001926,0.0002899,0.1326,8.583e-06,0,0.02457,0.001928,1.139,0.001584,0,0,0.004189
201600000000,201900000000,3769734124,0,2197275471,0.002819,0.1326,0.1418,0.0001926,0.0002546,0.1326,1.144e-05,0,0.02261,0.002857,1.078,0.001391,0,0,0.004913
201900000000,202200000000,3769734124,0,2197275471,0.002525,0.1326,0.1418,0.0001917,0.0002947,0.1326,3.815e-06,0,0.02689,0.001072,1.07,0.001378,0,0,0.0003729
202200000000,202500000000,3769734124,0,2197275471,0.002598,0.1326,0.1418,0.0001917,0.0002775,0.1326,0,0,0.02469,7.153e-05,1.051,0.001279,0,0,0.0007029
202500000000,202800000000,3769734124,0,2197275471,0.002842,0.1326,0.1418,0.0001917,0.0002451,0.1326,3.815e-06,0,0.03296,0.0006428,1.159,0.001586,0,0,0.008606
202800000000,203100000000,3769734124,0,2197275471,0.00211,0.1326,0.1418,0.0001917,0.0003042,0.1326,0,0,0.02692,7.153e-05,1.321,0.002025,0,0,0.004715
203100000000,203400000000,3769734124,0,2197275471,0.002518,0.1326,0.1418,0.0001917,0.0002613,0.1326,0,0,0.0589,0,1.214,0.001553,0,0,0.004295
203400000000,203700000000,3769734124,0,2197275471,0.002861,0.1326,0.1418,0.0001917,0.0002441,0.1326,1.907e-06,0,0.03247,0.0002146,1.054,0.001296,0,0,0.000742
203700000000,204000000000,3769734124,0,2197275471,0.002537,0.1326,0.1418,0.0001917,0.0003061,0.1326,4.768e-06,0,0.03882,0.0009289,1.199,0.001685,0,0,0.0001917
204000000000,204300000000,3769734124,0,2197275471,0.002678,0.1326,0.1418,0.0001926,0.0002451,0.1326,9.537e-07,0,0.03906,0.0001431,1.21,0.001803,0,0,0.0002203
204300000000,204600000000,3769734124,0,2197275471,0.002689,0.1326,0.1418,0.0001926,0.0002518,0.1328,0,0,0.03339,7.153e-05,1.132,0.001542,0,0,0.00104
204600000000,204900000000,3769734124,0,2197275471,0.001577,0.1326,0.1418,0.0001917,0.0002975,0.1326,4.768e-06,0,0.03198,0.001286,1.217,0.00174,0,0,0.0001783
204900000000,205200000000,3769734124,0,2197275471,0.001749,0.1326,0.1418,0.0001926,0.0002251,0.1326,2.861e-06,0,0.04688,0.0006428,1.268,0.001953,0,0,0.0004892
205200000000,205500000000,3769734124,0,2197275471,0.001268,0.1326,0.1418,0.0001926,0.0002613,0.1326,8.583e-06,0,0.02353,0.001999,1.298,0.002051,0,0,0.0004721
205500000000,205800000000,3769734124,0,2197275471,0.002174,0.1326,0.1418,0.0001926,0.0002813,0.1328,3.815e-06,0,0.02618,0.0008574,1.285,0.002008,0,0,0.0001383
205800000000,206100000000,3769734124,0,2197275471,0.001503,0.1326,0.1418,0.0001926,0.0002174,0.1326,9.537e-07,0,0.03937,0.0001431,1.255,0.001877,0,0,9.441e-05
206100000000,206400000000,3769734124,0,2197275471,0.001463,0.1326,0.1418,0.0001926,0.000267,0.1328,5.722e-06,0,0.04889,0.001642,1.276,0.002013,0,0,0.0001144
206400000000,206700000000,3769734124,0,2197275471,0.002136,0.1326,0.1418,0.0001926,0.000267,0.1328,6.676e-06,0,0.04114,0.0009995,1.196,0.001648,0,0,0.0001144
206700000000,207000000000,3769734124,0,2197275471,0.001787,0.1326,0.1418,0.0001926,0.0002089,0.1326,0,0,0.02728,0,1.224,0.001816,0,0,0.004921
207000000000,207300000000,3769734124,0,2197275471,0.001837,0.1326,0.1418,0.0001926,0.0002737,0.1328,1.907e-06,0,0.0575,7.153e-05,1.245,0.001863,0,0,0.0005417
207300000000,207600000000,3769734124,0,2197275471,0.001337,0.1326,0.1418,0.0001926,0.0002527,0.1326,9.537e-07,0,0.02579,0.0001431,1.266,0.001989,0,0,0.000577
207600000000,207900000000,3769734124,0,2197275471,0.001455,0.1326,0.1418,0.0001955,0.0002174,0.1326,1.907e-05,0,0.03247,0.003571,1.234,0.001881,0,0,0.003895
207900000000,208200000000,3769734124,0,2197275471,0.001595,0.1326,0.1418,0.0001993,0.0002756,0.1326,6.676e-06,0,0.03091,0.001928,1.199,0.001701,0,0,0.0006189
208200000000,208500000000,3769734124,0,2197275471,0.001961,0.1326,0.1418,0.0001965,0.0002422,0.1326,1.049e-05,0,0.05237,0.002571,1.204,0.00168,0,0,0.0001545
208500000000,208800000000,3769734124,0,2197275471,0.001356,0.1326,0.1418,0.0001974,0.000226,0.1326,9.537e-07,0,0.02505,7.153e-05,1.275,0.001872,0,0,9.441e-05
208800000000,209100000000,3769734124,0,2197275471,0.001326,0.1326,0.1418,0.0001974,0.0002651,0.1326,9.537e-07,0,0.03363,7.153e-05,1.27,0.001925,0,0,0.0005312
209100000000,209400000000,3769734124,0,2197275471,0.001438,0.1326,0.1418,0.0001974,0.0002279,0.1326,0,0,0.04187,0.0001431,1.353,0.002135,0,0,0.0002813
209400000000,209700000000,3769734124,0,2197275471,0.001509,0.1326,0.1418,0.0001974,0.0002327,0.1326,9.537e-07,0,0.03461,7.153e-05,1.266,0.001787,0,0,0.002975
209700000000,210000000000,3769734124,0,2197275471,0.001251,0.1326,0.1418,0.0001965,0.0002556,0.1326,0,0,0.02805,0,1.234,0.0017,0,0,0.0006037
210000000000,210300000000,3769734124,0,2197275471,0.001047,0.1326,0.1418,0.0001965,0.0002079,0.1326,0,0,0.01944,7.153e-05,1.406,0.002305,0,0,8.965e-05
210300000000,210600000000,3769734124,0,2197275471,0.001049,0.1326,0.1418,0.0001955,0.0002394,0.1326,0,0,0.02426,0,1.286,0.002029,0,0,0.0001917
210600000000,210900000000,3769734124,0,2197275471,0.001242,0.1326,0.1418,0.0001955,0.0002451,0.1326,0,0,0.03296,7.153e-05,1.399,0.002338,0,0,0.0001841
210900000000,211200000000,3769734124,0,2197275471,0.001116,0.1326,0.1418,0.0001955,0.0001984,0.1326,0,0,0.02148,7.153e-05,1.284,0.001973,0,0,0.0002403
211200000000,211500000000,3769734124,0,2197275471,0.0009165,0.1326,0.1418,0.0001955,0.0002413,0.1326,0,0,0.01752,7.153e-05,1.425,0.002512,0,0,0.0004482
211500000000,211800000000,3769734124,0,2197275471,0.001389,0.1326,0.1418,0.0001965,0.0002375,0.1326,1.907e-06,0,0.02347,0.0002861,1.371,0.002147,0,0,0.0006771
211800000000,212100000000,3769734124,0,2197275471,0.001558,0.1326,0.1418,0.0001965,0.0001984,0.1326,2.861e-06,0,0.02277,0.0003567,1.427,0.002302,0,0,0.0006037
212100000000,212400000000,3769734124,0,2197275471,0.000968,0.1326,0.1418,0.0001965,0.0002337,0.1328,0,0,0.02386,7.153e-05,1.386,0.002392,0,0,0.0001163
212400000000,212700000000,3769734124,0,2197275471,0.001659,0.1326,0.1418,0.0001936,0.0002232,0.1326,1.049e-05,0,0.02725,0.002144,1.41,0.002318,0,0,0.0001564
212700000000,213000000000,3769734124,0,2197275471,0.0009069,0.1326,0.1418,0.0001917,0.0001965,0.1326,0,0,0.02289,0,1.31,0.002152,0,0,0.0004616
213000000000,213300000000,3769734124,0,2197275471,0.001066,0.1326,0.1418,0.0001917,0.0002213,0.1326,9.537e-07,0,0.06348,0.0001431,1.384,0.00233,0,0,0.000123
213300000000,213600000000,3769734124,0,2197275471,0.002071,0.1326,0.1418,0.0001917,0.0001945,0.1326,0,0,0.05963,7.153e-05,1.213,0.001381,0,0,0.0005226
213600000000,213900000000,3769734124,0,2197275471,0.001953,0.1326,0.1418,0.0001917,0.0002155,0.1326,0,0,0.05902,7.153e-05,1.235,0.001647,0,0,0.007355
213900000000,214200000000,3769734124,0,2197275471,0.001635,0.1326,0.1418,0.0001917,0.0002117,0.1328,2.861e-06,0,0.05341,0.0005713,1.233,0.001609,0,0,0.0005684
214200000000,214500000000,3769734124,0,2197275471,0.00201,0.1326,0.1418,0.0001926,0.0001945,0.1326,9.537e-07,0,0.05969,7.153e-05,1.297,0.001869,0,0,0.0001116
214500000000,214800000000,3769734124,0,2197275471,0.001083,0.1326,0.1418,0.0001917,0.0002079,0.1326,9.537e-07,0,0.01825,0.0001431,1.331,0.001965,0,0,8.011e-05
214800000000,215100000000,3769734124,0,2197275471,0.001324,0.1326,0.1418,0.0001917,0.0002031,0.1326,1.907e-06,0,0.04333,0.0005713,1.468,0.002561,0,0,7.82e-05
215100000000,215400000000,3769734124,0,2197275471,0.001215,0.1326,0.1418,0.0001917,0.0001936,0.1326,0,0,0.02579,7.153e-05,1.496,0.002579,0,0,0.0001392
215400000000,215700000000,3769734124,0,2197275471,0.0009651,0.1326,0.1418,0.0001917,0.0001993,0.1326,9.537e-06,0,0.02969,0.002785,1.539,0.002795,0,0,0.0001469
215700000000,216000000000,3769734124,0,2197275471,0.001295,0.1326,0.1418,0.0001917,0.0001945,0.1326,0,0,0.02744,0,1.403,0.002467,0,0,0.0002155
216000000000,216300000000,3769734124,0,2197275471,0.00111,0.1326,0.1418,0.0001917,0.0001945,0.1326,4.768e-06,0,0.01947,0.0009289,1.367,0.002326,0,0,0.0002413
221100000000,221400000000,3769734124,0,2197275471,0.001301,0.1326,0.1418,0.0001955,0.0002823,0.1328,8.583e-06,0,0.05035,0.002285,1.333,0.002144,0,0,0.009155
221400000000,221700000000,3769734124,0,2197275471,0.001642,0.1326,0.1418,0.0001936,0.0003166,0.1326,1.907e-06,0,0.04407,0.0004282,1.239,0.001834,0,0,0.001299
221700000000,222000000000,3769734124,0,2197275471,0.002003,0.1326,0.1418,0.0001917,0.0002747,0.1326,9.537e-07,0,0.03339,0.0003567,1.328,0.001965,0,0,0.002323
222000000000,222300000000,3769734124,0,2197275471,0.002605,0.1326,0.1418,0.0001917,0.0002632,0.1328,3.815e-06,0,0.0282,0.0005713,1.152,0.001722,0,0,0.0002537
222300000000,222600000000,3769734124,0,2197275471,0.002678,0.1326,0.1418,0.0001926,0.0003233,0.1328,1.526e-05,0,0.04547,0.001215,1.037,0.001379,0,0,0.008636
222600000000,222900000000,3769734124,0,2197275471,0.002842,0.1326,0.1418,0.0001917,0.0002623,0.1328,2.384e-05,0,0.04913,0.002716,1.036,0.00138,0,0,0.0004492
222900000000,223200000000,3769734124,0,2197275471,0.003288,0.1326,0.1418,0.0001917,0.0002813,0.1328,6.676e-06,0,0.0636,0.001785,1.083,0.001533,0,0,0.02219
223200000000,223500000000,3769734124,0,2197275471,0.003319,0.1326,0.1418,0.0001917,0.0002985,0.1328,8.583e-06,0,0.06409,0.0007143,1.06,0.001413,0,0,0.000123
223500000000,223800000000,3769734124,0,2197275471,0.002975,0.1326,0.1418,0.0001917,0.0002518,0.1328,7.629e-06,0,0.05505,0.001215,1.059,0.001403,0,0,0.007469
223800000000,224100000000,3769734124,0,2197275471,0.00354,0.1326,0.1418,0.0001917,0.0002947,0.1326,6.676e-06,0,0.0495,0.001358,1.063,0.00136,0,0,0.0002394
224100000000,224400000000,3769734124,0,2197275471,0.003426,0.1326,0.1418,0.0001926,0.0002737,0.1326,9.537e-07,0,0.04724,0.0002146,1.169,0.001642,0,0,0.01015
224400000000,224700000000,3769734124,0,2197275471,0.002884,0.1326,0.1418,0.0001917,0.0002441,0.1328,1.335e-05,0,0.04449,0.002499,1.169,0.001687,0,0,0.0001669
224700000000,225000000000,3769734124,0,2197275471,0.004044,0.1326,0.1418,0.0001917,0.0003147,0.1328,2.098e-05,0,0.08118,0.003071,1.144,0.001606,0,0,0.004768
225000000000,225300000000,3769734124,0,2197275471,0.003841,0.1326,0.1418,0.0001917,0.000247,0.1328,4.768e-06,0,0.03644,0.001143,1.176,0.001694,0,0,0.00161
225300000000,225600000000,3769734124,0,2197275471,0.004089,0.1326,0.1418,0.0001917,0.0002613,0.1328,3.815e-06,0,0.05933,0.001143,1.043,0.00138,0,0,0.0006447
225600000000,225900000000,3769734124,0,2197275471,0.004654,0.1326,0.1418,0.0001917,0.0002975,0.1328,1.24e-05,0,0.04358,0.00293,1.168,0.001694,0,0,0.000288
225900000000,226200000000,3769734124,0,2197275471,0.004402,0.1326,0.1418,0.0001917,0.0002289,0.1328,3.815e-06,0,0.04468,0.0006428,1.154,0.001672,0,0,0.0007763
226200000000,226500000000,3769734124,0,2197275471,0.004189,0.1326,0.1418,0.0001926,0.0002804,0.1328,5.722e-06,0,0.04309,0.0005713,1.239,0.00186,0,0,8.202e-05
226500000000,226800000000,3769734124,0,2197275471,0.004494,0.1326,0.1418,0.0001926,0.0002699,0.1328,6.676e-06,0,0.05603,0.001286,1.258,0.001848,0,0,0.01709
226800000000,227100000000,3769734124,0,2197275471,0.00396,0.1326,0.1418,0.0001926,0.0002232,0.1328,9.537e-06,0,0.04974,0.001785,1.185,0.001673,0,0,0.0004444
227100000000,227400000000,3769734124,0,2197275471,0.004532,0.1326,0.1418,0.0001917,0.0002975,0.1328,2.861e-06,0,0.04828,0.0005713,1.176,0.00169,0,0,0.00214
227400000000,227700000000,3769734124,0,2197275471,0.004326,0.1326,0.1418,0.0001917,0.0002422,0.1328,1.335e-05,0,0.0481,0.002716,1.233,0.001822,0,0,0.006027
227700000000,228000000000,3769734124,0,2197275471,0.004913,0.1326,0.1418,0.0001917,0.0002403,0.1328,7.629e-06,0,0.05597,0.001215,1.196,0.001631,0,0,0.002018
228000000000,228300000000,3769734124,0,2197275471,0.004608,0.1326,0.1418,0.0001917,0.000289,0.1328,3.815e-06,0,0.05042,0.0003567,1.228,0.001814,0,0,0.01828
228300000000,228600000000,3769734124,0,2197275471,0.005447,0.1326,0.1418,0.0001926,0.0002127,0.1328,9.537e-06,0,0.04596,0.0006428,1.213,0.001781,0,0,0.009552
228600000000,228900000000,3769734124,0,2197275471,0.005745,0.1326,0.1418,0.0001926,0.0002632,0.1328,2.861e-06,0,0.0791,0.0004997,1.199,0.001673,0,0,0.0003595
228900000000,229200000000,3769734124,0,2197275471,0.005341,0.1326,0.1418,0.0001926,0.0002651,0.1328,1.907e-05,0,0.06433,0.002857,1.239,0.001807,0,0,0.0006618
229200000000,229500000000,3769734124,0,2197275471,0.005844,0.1326,0.1418,0.0001926,0.000205,0.1328,1.907e-06,0,0.05359,0.0001431,1.16,0.001642,0,0,0.0008745
229500000000,229800000000,3769734124,0,2197275471,0.005241,0.1326,0.1418,0.0001926,0.0002728,0.1328,4.768e-06,0,0.07861,0.0005713,1.154,0.00157,0,0,0.0003586
229800000000,230100000000,3769734124,0,2197275471,0.005791,0.1326,0.1418,0.0001926,0.0002356,0.1328,9.537e-07,0,0.04773,7.153e-05,1.182,0.001683,0,0,0.01688
230100000000,230400000000,3769734124,0,2197275471,0.00457,0.1326,0.1418,0.0001936,0.0002289,0.1328,1.907e-05,0,0.06104,0.001642,1.18,0.001606,0,0,0.0006571
230400000000,230700000000,3769734124,0,2197275471,0.005135,0.1326,0.1418,0.0001955,0.000267,0.1328,1.907e-06,0,0.04974,7.153e-05,1.186,0.001685,0,0,0.0001116
230700000000,231000000000,3769734124,0,2197275471,0.005829,0.1326,0.1418,0.0001955,0.0002155,0.1328,3.815e-06,0,0.07288,0.0006428,1.226,0.001815,0,0,0.008621
231000000000,231300000000,3769734124,0,2197275471,0.006119,0.1326,0.1418,0.0001955,0.0002422,0.1328,8.583e-06,0,0.04553,0.001999,1.181,0.001692,0,0,0.009018
231300000000,231600000000,3769734124,0,2197275471,0.005112,0.1326,0.1418,0.0001955,0.0002575,0.1328,1.049e-05,0,0.03271,0.001642,1.197,0.001726,0,0,0.009598
231600000000,231900000000,3769734124,0,2197275471,0.006256,0.1326,0.1418,0.0001955,0.0001965,0.1326,5.722e-06,0,0.04456,0.0009289,1.19,0.001708,0,0,0.002148
231900000000,232200000000,3769734124,0,2197275471,0.006721,0.1326,0.1418,0.0001955,0.0002546,0.1328,1.812e-05,0,0.06128,0.002213,1.169,0.00165,0,0,0.002174
232200000000,232500000000,3769734124,0,2197275471,0.005615,0.1326,0.1418,0.0001955,0.000247,0.1328,4.768e-06,0,0.06073,0.0004282,1.185,0.001698,0,0,0.006882
232500000000,232800000000,3769734124,0,2197275471,0.004913,0.1326,0.1418,0.0001955,0.0001984,0.1328,7.629e-06,0,0.05341,0.001286,1.137,0.001599,0,0,0.0007925
232800000000,233100000000,3769734124,0,2197275471,0.005318,0.1326,0.1418,0.0001955,0.0002451,0.1328,1.907e-06,0,0.03406,0.0001431,1.224,0.00181,0,0,0.0007553
233100000000,233400000000,3769734124,0,2197275471,0.005417,0.1326,0.1418,0.0001965,0.0002289,0.1328,9.537e-07,0,0.03589,7.153e-05,1.19,0.001692,0,0,0.0003185
233400000000,233700000000,3769734124,0,2197275471,0.005257,0.1326,0.1418,0.0001965,0.0002089,0.1328,4.768e-06,0,0.047,0.0006428,1.169,0.001617,0,0,0.001616
233700000000,234000000000,3769734124,0,2197275471,0.00621,0.1326,0.1418,0.0001965,0.0002365,0.1328,4.768e-06,0,0.06232,0.0007143,1.187,0.001666,0,0,0.01509
234000000000,234300000000,3769734124,0,2197275471,0.005814,0.1326,0.1418,0.0001965,0.0002031,0.1328,2.861e-06,0,0.0658,0.0002861,1.222,0.001796,0,0,0.006783
234300000000,234600000000,3769734124,0,2197275471,0.007248,0.1326,0.1418,0.0001945,0.000226,0.1328,7.629e-06,0,0.04883,0.0008574,1.142,0.001583,0,0,0.0004148
234600000000,234900000000,3769734124,0,2197275471,0.007347,0.1326,0.1418,0.0001926,0.0002241,0.1328,3.052e-05,0,0.05096,0.005714,1.118,0.001533,0,0,0.00288
234900000000,235200000000,3769734124,0,2197275471,0.006233,0.1326,0.1418,0.0001965,0.0001984,0.1326,1.812e-05,0,0.03766,0.004784,1.089,0.001469,0,0,0.002525
235200000000,235500000000,3769734124,0,2197275471,0.006927,0.1326,0.1418,0.0001965,0.0002251,0.1328,9.537e-06,0,0.05884,0.0008574,1.113,0.001544,0,0,0.01079
235500000000,235800000000,3769734124,0,2197275471,0.007889,0.1326,0.1418,0.0001974,0.0002203,0.1328,2.956e-05,0,0.05096,0.00243,1.075,0.001464,0,0,0.001373
235800000000,236100000000,3769734124,0,2197275471,0.008362,0.1326,0.1418,0.0001974,0.0001974,0.1328,1.049e-05,0,0.06482,0.001286,1.088,0.001511,0,0,0.009598
236100000000,236400000000,3769734124,0,2197275471,0.007469,0.1326,0.1418,0.0001974,0.0002165,0.1326,2.861e-06,0,0.06702,0.0004997,1.046,0.001387,0,0,0.009674
241200000000,241500000000,3769734124,0,2197275471,0.006493,0.1326,0.1418,0.0001879,0.0001993,0.1328,1.144e-05,0,0.05499,0.0007858,1.073,0.001434,0,0,0.0003395
241500000000,241800000000,3769734124,0,2197275471,0.006516,0.1326,0.1418,0.0001879,0.0003147,0.1328,1.049e-05,0,0.07886,0.001785,1.067,0.001398,0,0,0.03925
241800000000,242100000000,3769734124,0,2197275471,0.007317,0.1326,0.1418,0.0001879,0.000205,0.1331,2.67e-05,0,0.05933,0.003357,1.069,0.001422,0,0,0.004028
242100000000,242400000000,3769734124,0,2197275471,0.007393,0.1326,0.1418,0.0001879,0.0003147,0.1328,2.289e-05,0,0.05023,0.002285,1.043,0.001362,0,0,0.002609
242400000000,242700000000,3769734124,0,2197275471,0.007919,0.1326,0.1418,0.0001888,0.0002069,0.1328,5.15e-05,0,0.0589,0.003357,1.096,0.001464,0,0,0.0002575
242700000000,243000000000,3769734124,0,2197275471,0.007263,0.1326,0.1418,0.0001879,0.0002899,0.1328,1.335e-05,0,0.04761,0.00243,1.075,0.001415,0,0,0.02133
243000000000,243300000000,3769734124,0,2197275471,0.008118,0.1326,0.1418,0.0001888,0.0002279,0.1328,2.67e-05,0,0.06348,0.001072,1.111,0.001532,0,0,0.004539
243300000000,243600000000,3769734124,0,2197275471,0.007416,0.1326,0.1418,0.0001879,0.0002642,0.1328,2.003e-05,0,0.0506,0.001072,1.063,0.001381,0,0,0.0005054
243600000000,243900000000,3769734124,0,2197275471,0.008545,0.1326,0.1418,0.0001879,0.0002337,0.1328,2.193e-05,0,0.05298,0.001143,1.123,0.001525,0,0,0.006523
243900000000,244200000000,3769734124,0,2197275471,0.007179,0.1326,0.1418,0.0001879,0.000268,0.1328,1.431e-05,0,0.06677,0.001785,1.08,0.001413,0,0,0.008224
244200000000,244500000000,3769734124,0,2197275471,0.008316,0.1326,0.1418,0.0001879,0.0002241,0.1328,6.676e-06,0,0.0824,0.0009289,1.085,0.00146,0,0,0.00798
244500000000,244800000000,3769734124,0,2197275471,0.008041,0.1326,0.1418,0.0001879,0.000268,0.1328,3.719e-05,0,0.04327,0.002857,1.089,0.001439,0,0,0.00856
244800000000,245100000000,3769734124,0,2197275471,0.007889,0.1326,0.1418,0.0001879,0.0002184,0.1328,1.24e-05,0,0.06689,0.001215,1.028,0.001285,0,0,0.0008602
245100000000,245400000000,3769734124,0,2197275471,0.006783,0.1326,0.1418,0.0001888,0.0002594,0.1328,1.431e-05,0,0.05347,0.001715,1.105,0.001473,0,0,0.003975
245400000000,245700000000,3769734124,0,2197275471,0.007233,0.1326,0.1418,0.0001879,0.0002203,0.1328,2.766e-05,0,0.07117,0.001999,1.171,0.001617,0,0,0.001463
245700000000,246000000000,3769734124,0,2197275471,0.006607,0.1326,0.1418,0.0001879,0.0002565,0.1328,1.144e-05,0,0.07141,0.001286,1.207,0.001622,0,0,0.001062
246000000000,246300000000,3769734124,0,2197275471,0.006668,0.1326,0.1418,0.0001879,0.0002155,0.1328,1.526e-05,0,0.04303,0.001358,1.17,0.001609,0,0,0.0001211
251400000000,251700000000,3769734124,0,2197275471,0.00647,0.1326,0.1418,0.0001879,0.0002422,0.1328,7.629e-06,0,0.06458,0.0006428,1.158,0.001545,0,0,0.002983
251700000000,252000000000,3769734124,0,2197275471,0.006042,0.1326,0.1418,0.0001879,0.0001879,0.1328,2.67e-05,0,0.07446,0.003357,1.173,0.001618,0,0,0.004486
252000000000,252300000000,3769734124,0,2197275471,0.005707,0.1326,0.1418,0.0001879,0.0002327,0.1328,3.815e-05,0,0.05792,0.002857,1.159,0.001578,0,0,0.003967
252300000000,252600000000,3769734124,0,2197275471,0.005486,0.1326,0.1418,0.0001888,0.0001888,0.1326,3.433e-05,0,0.04077,0.006783,1.176,0.00167,0,0,0.0008106
252600000000,252900000000,3769734124,0,2197275471,0.006531,0.1326,0.1418,0.0001879,0.0002346,0.1328,1.24e-05,0,0.08362,0.002071,1.212,0.001796,0,0,0.0004339
252900000000,253200000000,3769734124,0,2197275471,0.005836,0.1326,0.1418,0.0001879,0.0001888,0.1328,1.907e-05,0,0.04578,0.002571,1.152,0.001627,0,0,0.001816
253200000000,253500000000,3769734124,0,2197275471,0.005821,0.1326,0.1418,0.0001879,0.0002232,0.1328,1.144e-05,0,0.08069,0.001572,1.181,0.001696,0,0,0.0007992
253500000000,253800000000,3769734124,0,2197275471,0.006195,0.1326,0.1418,0.0001879,0.0001879,0.1326,1.144e-05,0,0.03589,0.0009289,1.186,0.00167,0,0,0.000145
253800000000,254100000000,3769734124,0,2197275471,0.005531,0.1326,0.1418,0.0001879,0.0002232,0.1328,2.861e-06,0,0.05042,0.0002146,1.212,0.001737,0,0,0.01849
254100000000,254400000000,3769734124,0,2197275471,0.006203,0.1326,0.1418,0.0001879,0.0001879,0.1328,8.583e-06,0,0.05664,0.0005713,1.165,0.001591,0,0,0.0002642
254400000000,254700000000,3769734124,0,2197275471,0.005577,0.1326,0.1418,0.0001879,0.0002108,0.1328,2.48e-05,0,0.06049,0.002857,1.211,0.001731,0,0,0.005547
254700000000,255000000000,3769734124,0,2197275471,0.005295,0.1326,0.1418,0.0001879,0.0001879,0.1326,1.621e-05,0,0.05768,0.002144,1.181,0.001625,0,0,0.003567
255000000000,255300000000,3769734124,0,2197275471,0.00563,0.1326,0.1418,0.0001879,0.0002165,0.1328,1.431e-05,0,0.04175,0.00243,1.238,0.001802,0,0,0.02066
255300000000,255600000000,3769734124,0,2197275471,0.005669,0.1326,0.1418,0.0001888,0.0001898,0.1326,2.575e-05,0,0.03357,0.002644,1.204,0.001683,0,0,0.0007343
255600000000,255900000000,3769734124,0,2197275471,0.00647,0.1326,0.1418,0.0001879,0.0002069,0.1328,6.676e-06,0,0.04492,0.0009289,1.223,0.001799,0,0,0.006035
255900000000,256200000000,3769734124,0,2197275471,0.006752,0.1326,0.1418,0.0001888,0.0001888,0.1326,3.338e-05,0,0.05054,0.002857,1.224,0.00179,0,0,0.004662
256200000000,256500000000,3769734124,0,2197275471,0.005508,0.1326,0.1418,0.0001888,0.0002022,0.1328,2.193e-05,0,0.08618,0.002213,1.191,0.001623,0,0,0.006721
256500000000,256800000000,3769734124,0,2197275471,0.005287,0.1326,0.1418,0.0001879,0.0001888,0.1326,5.722e-06,0,0.08374,0.001143,1.181,0.001619,0,0,0.0009556
256800000000,257100000000,3769734124,0,2197275471,0.00515,0.1326,0.1418,0.0001888,0.0001955,0.1326,1.907e-06,0,0.05621,0.0002146,1.209,0.001662,0,0,0.001362
257100000000,257400000000,3769734124,0,2197275471,0.005577,0.1326,0.1418,0.0001879,0.0001888,0.1326,9.537e-06,0,0.04285,0.002857,1.183,0.001618,0,0,0.02475
257400000000,257700000000,3769734124,0,2197275471,0.006592,0.1326,0.1418,0.0001888,0.0001907,0.1328,9.537e-06,0,0.06079,0.002357,1.221,0.001708,0,0,0.009399
257700000000,258000000000,3769734124,0,2197275471,0.006134,0.1326,0.1418,0.0001888,0.0001888,0.1326,1.335e-05,0,0.04486,0.001642,1.238,0.001745,0,0,0.007736
258000000000,258300000000,3769734124,0,2197275471,0.006149,0.1326,0.1418,0.0001879,0.0002184,0.1328,3.433e-05,0,0.05591,0.003216,1.215,0.001664,0,0,0.01155
258300000000,258600000000,3769734124,0,2197275471,0.006226,0.1326,0.1418,0.0001879,0.0003061,0.1328,1.907e-06,0,0.03973,0.0001431,1.227,0.001683,0,0,0.005196
258600000000,258900000000,3769734124,0,2197275471,0.006386,0.1326,0.1418,0.0001888,0.0002584,0.1328,6.676e-05,0,0.04993,0.01114,1.178,0.001592,0,0,0.01001
258900000000,259200000000,3769734124,0,2197275471,0.00618,0.1326,0.1418,0.0001879,0.0003023,0.1328,6.676e-06,0,0.03967,0.0004997,1.228,0.001725,0,0,0.0003662
259200000000,259500000000,3769734124,0,2197275471,0.007019,0.1326,0.1418,0.0001879,0.000247,0.1328,1.717e-05,0,0.04419,0.002357,1.293,0.001882,0,0,0.01028
259500000000,259800000000,3769734124,0,2197275471,0.006889,0.1326,0.1418,0.0001879,0.0003033,0.1328,8.583e-06,0,0.05933,0.001785,1.175,0.001603,0,0,0.002869
259800000000,260100000000,3769734124,0,2197275471,0.006432,0.1326,0.1418,0.0001879,0.0002384,0.1328,6.676e-06,0,0.04938,0.001143,1.273,0.001861,0,0,0.00227
260100000000,260400000000,3769734124,0,2197275471,0.008438,0.1328,0.1418,0.0001879,0.0003033,0.1328,9.537e-06,0,0.05756,0.001715,1.189,0.001615,0,0,0.0006075
260400000000,260700000000,3769734124,0,2197275471,0.007538,0.1326,0.1418,0.0001879,0.0002337,0.1328,4.196e-05,0,0.05652,0.003143,1.189,0.001647,0,0,0.03012
260700000000,261000000000,3769734124,0,2197275471,0.005684,0.1326,0.1418,0.0001879,0.0003033,0.1328,5.722e-06,0,0.06158,0.001072,1.196,0.001714,0,0,0.02527
261000000000,261300000000,3769734124,0,2197275471,0.006744,0.1326,0.1418,0.0001879,0.0002384,0.1328,1.621e-05,0,0.06079,0.001785,1.236,0.001802,0,0,0.0008335
261300000000,261600000000,3769734124,0,2197275471,0.006165,0.1326,0.1418,0.0001879,0.0003004,0.1328,4.768e-06,0,0.06555,0.001072,1.171,0.001704,0,0,0.00666
261600000000,261900000000,3769734124,0,2197275471,0.007339,0.1326,0.1418,0.0001879,0.0002413,0.1328,2.861e-06,0,0.04883,0.0002146,1.203,0.001713,0,0,0.0001001
261900000000,262200000000,3769734124,0,2197275471,0.006577,0.1326,0.1418,0.0001879,0.000289,0.1328,1.431e-05,0,0.05212,0.001999,1.161,0.001591,0,0,0.001165
262200000000,262500000000,3769734124,0,2197275471,0.005844,0.1326,0.1418,0.0001879,0.0002365,0.1326,1.907e-05,0,0.06183,0.003357,1.189,0.001641,0,0,0.0006971
262500000000,262800000000,3769734124,0,2197275471,0.006844,0.1326,0.1418,0.0001879,0.0002823,0.1328,1.907e-05,0,0.04663,0.001928,1.174,0.001588,0,0,0.00248
262800000000,263100000000,3769734124,0,2197275471,0.00692,0.1326,0.1418,0.0001879,0.0002375,0.1328,3.147e-05,0,0.04047,0.003143,1.234,0.001716,0,0,0.003117
263100000000,263400000000,3769734124,0,2197275471,0.00721,0.1326,0.1418,0.0001888,0.0002775,0.1328,3.052e-05,0,0.06012,0.002571,1.215,0.00162,0,0,0.03424
263400000000,263700000000,3769734124,0,2197275471,0.007416,0.1326,0.1418,0.0001879,0.0002432,0.1328,1.144e-05,0,0.0791,0.0008574,1.215,0.001535,0,0,0.005264
263700000000,264000000000,3769734124,0,2197275471,0.007416,0.1326,0.1418,0.0001888,0.0002699,0.1328,6.199e-05,0,0.0575,0.005714,1.235,0.001624,0,0,0.0001335
264000000000,264300000000,3769734124,0,2197275471,0.007156,0.1326,0.1418,0.0001879,0.000246,0.1328,1.812e-05,0,0.04272,0.002144,1.208,0.001571,0,0,0.003296
264300000000,264600000000,3769734124,0,2197275471,0.007774,0.1326,0.1418,0.0001879,0.000267,0.1328,1.526e-05,0,0.05725,0.001143,1.236,0.001686,0,0,0.01096
264600000000,264900000000,3769734124,0,2197275471,0.007599,0.1326,0.1418,0.0001879,0.000246,0.1328,1.812e-05,0,0.04736,0.003502,1.244,0.001782,0,0,0.02472
264900000000,265200000000,3769734124,0,2197275471,0.008301,0.1326,0.1418,0.0001879,0.0002642,0.1328,2.956e-05,0,0.0863,0.002857,1.208,0.001681,0,0,0.02643
265200000000,265500000000,3769734124,0,2197275471,0.008774,0.1326,0.1418,0.0001879,0.0002346,0.1328,3.052e-05,0,0.05328,0.00293,1.194,0.001536,0,0,0.003529
265500000000,265800000000,3769734124,0,2197275471,0.008713,0.1326,0.1418,0.0001879,0.0002623,0.1328,2.384e-05,0,0.06262,0.002857,1.229,0.001622,0,0,0.0009251
265800000000,266100000000,3769734124,0,2197275471,0.007904,0.1326,0.1418,0.0001888,0.0002413,0.1328,2.956e-05,0,0.04004,0.002857,1.265,0.001762,0,0,0.005035
266100000000,266400000000,3769734124,0,2197275471,0.00885,0.1326,0.1418,0.0001879,0.0002499,0.1328,1.335e-05,0,0.06787,0.001858,1.206,0.001629,0,0,0.009399
266400000000,266700000000,3769734124,0,2197275471,0.007729,0.1326,0.1418,0.0001879,0.0002537,0.1328,1.431e-05,0,0.03583,0.002571,1.196,0.001622,0,0,0.002682
266700000000,267000000000,3769734124,0,2197275471,0.007179,0.1326,0.1418,0.0001879,0.0002317,0.1328,2.861e-05,0,0.0708,0.00293,1.257,0.001726,0,0,0.01068
267000000000,267300000000,3769734124,0,2197275471,0.00753,0.1326,0.1418,0.0001879,0.0002594,0.1328,1.24e-05,0,0.04785,0.002499,1.246,0.001725,0,0,0.004059
267300000000,267600000000,3769734124,0,2197275471,0.007057,0.1326,0.1418,0.0001888,0.000227,0.1328,2.67e-05,0,0.05499,0.005569,1.206,0.001601,0,0,0.04919
267600000000,267900000000,3769734124,0,2197275471,0.008972,0.1326,0.1418,0.0001898,0.0002623,0.1328,1.812e-05,0,0.04736,0.002499,1.242,0.001746,0,0,0.01471
267900000000,268200000000,3769734124,0,2197275471,0.007385,0.1326,0.1418,0.0001879,0.0002117,0.1328,2.003e-05,0,0.05847,0.002144,1.178,0.001575,0,0,0.0009375
268200000000,268500000000,3769734124,0,2197275471,0.007439,0.1326,0.1418,0.0001888,0.000268,0.1328,2.098e-05,0,0.04419,0.002857,1.223,0.001665,0,0,0.005989
268500000000,268800000000,3769734124,0,2197275471,0.007111,0.1326,0.1418,0.0001888,0.0002031,0.1328,2.766e-05,0,0.0387,0.002357,1.178,0.001596,0,0,0.00589
268800000000,269100000000,3769734124,0,2197275471,0.007645,0.1326,0.1418,0.0001888,0.0002747,0.1328,2.098e-05,0,0.04962,0.002357,1.217,0.001663,0,0,0.02261
269100000000,269400000000,3769734124,0,2197275471,0.00769,0.1326,0.1418,0.0001888,0.0001888,0.1326,1.049e-05,0,0.05609,0.001286,1.149,0.001503,0,0,0.01503
269400000000,269700000000,3769734124,0,2197275471,0.00695,0.1326,0.1418,0.0001888,0.0002785,0.1328,1.335e-05,0,0.0545,0.00243,1.166,0.001541,0,0,0.001707
269700000000,270000000000,3769734124,0,2197275471,0.007004,0.1326,0.1418,0.0001879,0.0001888,0.1326,1.717e-05,0,0.06897,0.002144,1.178,0.001561,0,0,0.009109
270000000000,270300000000,3769734124,0,2197275471,0.00605,0.1326,0.1418,0.0001888,0.0002651,0.1328,3.815e-05,0,0.04901,0.004356,1.227,0.001715,0,0,0.004257
270300000000,270600000000,3769734124,0,2197275471,0.006531,0.1326,0.1418,0.0001898,0.000206,0.1328,5.341e-05,0,0.05804,0.003857,1.152,0.001523,0,0,0.004349
270600000000,270900000000,3769734124,0,2197275471,0.00663,0.1326,0.1418,0.0001879,0.0002451,0.1328,9.537e-06,0,0.05566,0.001858,1.172,0.001593,0,0,0.001301
270900000000,271200000000,3769734124,0,2197275471,0.006187,0.1326,0.1418,0.0001879,0.000227,0.1328,2.193e-05,0,0.06677,0.001785,1.175,0.00161,0,0,0.0004721
271200000000,271500000000,3769734124,0,2197275471,0.006844,0.1326,0.1418,0.0001888,0.0002203,0.1326,2.48e-05,0,0.05511,0.00293,1.158,0.00154,0,0,0.002468
281400000000,281700000000,3769734124,0,2197275471,0.003731,0.1326,0.1418,0.0001888,0.0002851,0.1328,1.812e-05,0,0.06812,0.002644,1.096,0.001463,0,0,0.0009546
281700000000,282000000000,3769734124,0,2197275471,0.004211,0.1326,0.1418,0.0001907,0.0003071,0.1328,1.144e-05,0,0.03461,0.002857,1.17,0.001613,0,0,0.001572
282000000000,282300000000,3769734124,0,2197275471,0.004158,0.1326,0.1418,0.0001907,0.0002823,0.1328,2.193e-05,0,0.03308,0.002857,1.129,0.001621,0,0,0.001495
282300000000,282600000000,3769734124,0,2197275471,0.004227,0.1326,0.1418,0.0001898,0.0002775,0.1326,6.676e-06,0,0.04877,0.001642,1.166,0.001679,0,0,0.003193
282600000000,282900000000,3769734124,0,2197275471,0.004707,0.1326,0.1418,0.0001907,0.000308,0.1328,1.335e-05,0,0.04633,0.001715,1.127,0.001522,0,0,0.002724
282900000000,283200000000,3769734124,0,2197275471,0.004463,0.1326,0.1418,0.0001907,0.0002766,0.1328,1.907e-05,0,0.04785,0.002857,1.114,0.001535,0,0,0.006393
283200000000,283500000000,3769734124,0,2197275471,0.004173,0.1326,0.1418,0.0001898,0.0002861,0.1328,2.003e-05,0,0.0426,0.001572,1.142,0.001595,0,0,0.001137
283500000000,283800000000,3769734124,0,2197275471,0.004517,0.1326,0.1418,0.0001888,0.0002861,0.1328,1.526e-05,0,0.04279,0.001715,1.162,0.001668,0,0,0.005959
283800000000,284100000000,3769734124,0,2197275471,0.004303,0.1326,0.1418,0.0001907,0.0002661,0.1328,8.583e-06,0,0.03546,0.002285,1.08,0.001431,0,0,0.001581
284100000000,284400000000,3769734124,0,2197275471,0.004547,0.1326,0.1418,0.0001907,0.0002966,0.1328,7.629e-06,0,0.03619,0.001286,1.129,0.001567,0,0,0.0007954
284400000000,284700000000,3769734124,0,2197275471,0.004158,0.1326,0.1418,0.0001888,0.000268,0.1328,1.144e-05,0,0.05066,0.002357,1.17,0.001675,0,0,0.001865
284700000000,285000000000,3769734124,0,2197275471,0.004349,0.1326,0.1418,0.0001888,0.0002556,0.1328,8.583e-06,0,0.04462,0.0007143,1.178,0.001667,0,0,0.0001154
285000000000,285300000000,3769734124,0,2197275471,0.003975,0.1326,0.1418,0.0001888,0.0003052,0.1328,4.768e-06,0,0.0517,0.0002861,1.071,0.001421,0,0,0.001434
285300000000,285600000000,3769734124,0,2197275471,0.004311,0.1326,0.1418,0.0001888,0.0002518,0.1328,1.717e-05,0,0.05121,0.002357,1.084,0.001457,0,0,0.0002699
285600000000,285900000000,3769734124,0,2197275471,0.004333,0.1326,0.1418,0.0001888,0.000268,0.1328,1.144e-05,0,0.03571,0.002857,1.166,0.001693,0,0,0.01129
285900000000,286200000000,3769734124,0,2197275471,0.003784,0.1326,0.1418,0.0001888,0.000289,0.1328,2.003e-05,0,0.05438,0.00293,1.149,0.001636,0,0,0.0006199
286200000000,286500000000,3769734124,0,2197275471,0.003864,0.1326,0.1418,0.0001888,0.000246,0.1328,8.583e-06,0,0.03497,0.001358,1.039,0.001359,0,0,0.0008783
286500000000,286800000000,3769734124,0,2197275471,0.004021,0.1326,0.1418,0.0001907,0.0002871,0.1328,9.537e-06,0,0.06213,0.001215,1.021,0.001337,0,0,0.0005674
286800000000,287100000000,3769734124,0,2197275471,0.003525,0.1326,0.1418,0.0001917,0.000267,0.1328,1.144e-05,0,0.03003,0.00243,1.127,0.001577,0,0,0.0001888
287100000000,287400000000,3769734124,0,2197275471,0.002731,0.1326,0.1418,0.0001917,0.0002413,0.1326,9.537e-07,0,0.02075,7.153e-05,1.184,0.001732,0,0,0.0007896
287400000000,287700000000,3769734124,0,2197275471,0.003201,0.1326,0.1418,0.0001917,0.0003033,0.1331,1.049e-05,0,0.03882,0.00293,1.14,0.001626,0,0,0.007828
287700000000,288000000000,3769734124,0,2197275471,0.002819,0.1326,0.1418,0.0001917,0.0002451,0.1328,9.537e-07,0,0.02411,7.153e-05,1.105,0.001506,0,0,0.009171
288000000000,288300000000,3769734124,0,2197275471,0.003124,0.1326,0.1418,0.0001917,0.0002518,0.1326,9.537e-07,0,0.05841,7.153e-05,1.172,0.001666,0,0,0.0001373
288300000000,288600000000,3769734124,0,2197275471,0.002918,0.1326,0.1418,0.0001917,0.0002928,0.1328,6.676e-06,0,0.03424,0.001072,1.175,0.001701,0,0,0.0005245
288600000000,288900000000,3769734124,0,2197275471,0.002438,0.1326,0.1418,0.0001917,0.0002279,0.1326,9.537e-07,0,0.02786,7.153e-05,1.065,0.001462,0,0,0.0002451
288900000000,289200000000,3769734124,0,2197275471,0.002476,0.1326,0.1418,0.0001917,0.0002756,0.1328,1.049e-05,0,0.02975,0.001858,1.118,0.00157,0,0,0.0003557
289200000000,289500000000,3769734124,0,2197275471,0.00238,0.1326,0.1418,0.0001917,0.0002728,0.1326,9.537e-07,0,0.02945,7.153e-05,1.14,0.00167,0,0,0.0004873
289500000000,289800000000,3769734124,0,2197275471,0.002716,0.1326,0.1418,0.0001917,0.0002441,0.1326,8.583e-06,0,0.02554,0.002285,1.2,0.001784,0,0,0.0003891
289800000000,290100000000,3769734124,0,2197275471,0.002819,0.1326,0.1418,0.0001917,0.0003004,0.1328,9.537e-07,0,0.04315,7.153e-05,1.121,0.001564,0,0,0.000351
290100000000,290400000000,3769734124,0,2197275471,0.002445,0.1326,0.1418,0.0001917,0.0002518,0.1328,9.537e-07,0,0.03601,7.153e-05,1.125,0.001603,0,0,0.006805
290400000000,290700000000,3769734124,0,2197275471,0.002327,0.1326,0.1418,0.0001926,0.0002489,0.1326,1.907e-06,0,0.03079,0.0004997,1.082,0.001412,0,0,0.0001507
290700000000,291000000000,3769734124,0,2197275471,0.002392,0.1326,0.1418,0.0001926,0.0002995,0.1328,0,0,0.02502,7.153e-05,1.098,0.001504,0,0,0.005623
291000000000,291300000000,3769734124,0,2197275471,0.002544,0.1326,0.1418,0.0001926,0.0002317,0.1326,1.907e-06,0,0.04126,0.0001431,1.089,0.001477,0,0,0.0002117
291300000000,291600000000,3769734124,0,2197275471,0.002701,0.1326,0.1418,0.0001926,0.0002642,0.1328,7.629e-06,0,0.02679,0.001286,1.221,0.001802,0,0,0.0003519
291600000000,291900000000,3769734124,0,2197275471,0.002327,0.1326,0.1418,0.0001926,0.0002785,0.1328,1.431e-05,0,0.04315,0.002857,1.218,0.001784,0,0,0.0006065
291900000000,292200000000,3769734124,0,2197275471,0.001522,0.1326,0.1418,0.0001926,0.0002241,0.1328,0,0,0.02475,7.153e-05,1.323,0.002158,0,0,0.0006609
292200000000,292500000000,3769734124,0,2197275471,0.001799,0.1326,0.1418,0.0001926,0.0002775,0.1326,0,0,0.04193,7.153e-05,1.15,0.001663,0,0,0.0001879
292500000000,292800000000,3769734124,0,2197275471,0.00267,0.1326,0.1418,0.0001926,0.0002565,0.1326,2.861e-06,0,0.03802,0.0005713,1.158,0.001637,0,0,6.294e-05
292800000000,293100000000,3769734124,0,2197275471,0.002342,0.1326,0.1418,0.0001917,0.0002241,0.1326,5.722e-06,0,0.03076,0.001429,1.063,0.001367,0,0,0.02087
293100000000,293400000000,3769734124,0,2197275471,0.002327,0.1326,0.1418,0.0001898,0.0002813,0.1326,1.144e-05,0,0.04382,0.001715,1.144,0.001562,0,0,0.0005989
293400000000,293700000000,3769734124,0,2197275471,0.002743,0.1326,0.1418,0.0001898,0.0002289,0.1326,9.537e-07,0,0.03772,0.0001431,1.079,0.001422,0,0,0.01125
293700000000,294000000000,3769734124,0,2197275471,0.002003,0.1326,0.1418,0.0001898,0.0002384,0.1326,0,0,0.04041,7.153e-05,1.04,0.001364,0,0,0.002438
294000000000,294300000000,3769734124,0,2197275471,0.002487,0.1326,0.1418,0.0001898,0.0002718,0.1328,1.335e-05,0,0.04987,0.001642,1.171,0.001629,0,0,0.0003119
294300000000,294600000000,3769734124,0,2197275471,0.002331,0.1326,0.1418,0.0001907,0.0002069,0.1326,2.861e-06,0,0.02936,0.0002146,1.051,0.001321,0,0,0.0003824
294600000000,294900000000,3769734124,0,2197275471,0.002232,0.1326,0.1418,0.0001907,0.0002546,0.1326,9.537e-07,0,0.04053,0.0001431,1.041,0.001361,0,0,6.199e-05
294900000000,295200000000,3769734124,0,2197275471,0.002338,0.1326,0.1418,0.0001907,0.0002546,0.1328,9.537e-07,0,0.04102,7.153e-05,1.061,0.001357,0,0,0.0002689
295200000000,295500000000,3769734124,0,2197275471,0.002575,0.1326,0.1418,0.0001907,0.0002031,0.1328,3.815e-06,0,0.02817,0.0007858,1.099,0.001451,0,0,0.002193
295500000000,295800000000,3769734124,0,2197275471,0.002117,0.1326,0.1418,0.0001907,0.0002623,0.1326,9.537e-07,0,0.02646,7.153e-05,1.131,0.001594,0,0,0.0006552
295800000000,296100000000,3769734124,0,2197275471,0.002186,0.1326,0.1418,0.0001907,0.0002327,0.1326,6.676e-06,0,0.04193,0.001072,1.122,0.00153,0,0,0.0007668
296100000000,296400000000,3769734124,0,2197275471,0.002285,0.1326,0.1418,0.0001888,0.0002165,0.1326,5.722e-06,0,0.03113,0.001642,1.125,0.001553,0,0,0.0004444
296400000000,296700000000,3769734124,0,2197275471,0.001909,0.1326,0.1418,0.0001888,0.0002518,0.1326,1.431e-05,0,0.0304,0.003143,1.193,0.001733,0,0,0.0001898
296700000000,297000000000,3769734124,0,2197275471,0.001892,0.1326,0.1418,0.0001898,0.0002012,0.1326,2.48e-05,0,0.04132,0.002857,1.284,0.001939,0,0,0.0004444
297000000000,297300000000,3769734124,0,2197275471,0.001968,0.1326,0.1418,0.0001888,0.0002375,0.1326,1.907e-06,0,0.04791,0.0002861,1.307,0.001988,0,0,0.0002594
297300000000,297600000000,3769734124,0,2197275471,0.001509,0.1326,0.1418,0.0001888,0.0002451,0.1326,9.537e-07,0,0.04962,7.153e-05,1.342,0.00214,0,0,0.0001688
297600000000,297900000000,3769734124,0,2197275471,0.00161,0.1326,0.1418,0.0001888,0.0001907,0.1326,7.629e-06,0,0.02539,0.001785,1.261,0.001946,0,0,0.0006952
297900000000,298200000000,3769734124,0,2197275471,0.001633,0.1326,0.1418,0.0001907,0.0002441,0.1328,6.199e-05,0,0.02512,0.01172,1.235,0.001925,0,0,0.0005264
298200000000,298500000000,3769734124,0,2197275471,0.001671,0.1326,0.1418,0.0001898,0.0002222,0.1326,4.768e-06,0,0.01428,0.001143,1.271,0.001927,0,0,0.0006018
298500000000,298800000000,3769734124,0,2197275471,0.001616,0.1326,0.1418,0.0001898,0.0002136,0.1326,0,0,0.03571,7.153e-05,1.126,0.001632,0,0,0.0006027
298800000000,299100000000,3769734124,0,2197275471,0.00193,0.1326,0.1418,0.0001888,0.0002337,0.1326,9.537e-07,0,0.04797,0.0001431,1.199,0.00179,0,0,0.0003853
299100000000,299400000000,3769734124,0,2197275471,0.001835,0.1326,0.1418,0.0001888,0.0001917,0.1326,1.907e-06,0,0.03149,0.0001431,1.058,0.001406,0,0,0.0001202
299400000000,299700000000,3769734124,0,2197275471,0.001936,0.1326,0.1418,0.0001888,0.0002279,0.1328,1.907e-06,0,0.03308,0.0001431,1.313,0.002015,0,0,0.001282
299700000000,300000000000,3769734124,0,2197275471,0.002064,0.1326,0.1418,0.0001888,0.0002232,0.1326,9.537e-07,0,0.03168,7.153e-05,1.058,0.001413,0,0,0.0001287
