5700000000,6000000000,3769734721,0,207599566,0.08069,0.1313,0.1377,0.0002661,0.0005751,0.1316,9.537e-06,1.907e-06,0.1819,0.001286,1.079,0.00137,0,0,0.1306
6000000000,6300000000,3769734721,0,207599566,0.08215,0.1313,0.1377,0.0002661,0.0005751,0.1313,5.722e-06,1.907e-06,0.2278,0.0002861,1.107,0.001391,0,0,0.04932
6600000000,6900000000,3769734721,0,207599566,0.08813,0.1313,0.1377,0.0002661,0.0005751,0.1316,1.431e-05,1.907e-06,0.2195,0.001215,1.125,0.00143,0,0,0.1161
6900000000,7200000000,3769734721,0,207599566,0.08984,0.1313,0.1377,0.0002661,0.0005751,0.1313,1.621e-05,1.907e-06,0.1907,0.001358,1.128,0.001416,0,0,0.1252
7200000000,7500000000,3769734721,0,207599566,0.09106,0.1313,0.1377,0.0002661,0.0005751,0.1316,1.049e-05,1.907e-06,0.2092,0.0006428,1.125,0.001434,0,0,0.06946
7500000000,7800000000,3769734721,0,207599566,0.08667,0.1313,0.1377,0.0002661,0.000576,0.1316,9.537e-06,1.907e-06,0.4531,0.0008574,1.108,0.001391,0,0,0.07581
7800000000,8100000000,3769734721,0,207599566,0.08398,0.1313,0.1377,0.0002651,0.0005741,0.1316,1.431e-05,1.907e-06,0.1836,0.001642,1.078,0.001379,0,0,0.05194
8100000000,8400000000,3769734721,0,207599566,0.08069,0.1313,0.1377,0.0002651,0.0005741,0.1313,8.583e-06,1.907e-06,0.1953,0.0009289,1.079,0.00137,0,0,0.09729
8400000000,8700000000,3769734721,0,207599566,0.08447,0.1313,0.1377,0.0002651,0.0005751,0.1316,1.431e-05,1.907e-06,0.1943,0.0009995,1.085,0.001385,0,0,0.1068
8700000000,9000000000,3769734721,0,207599566,0.08081,0.1313,0.1377,0.0002661,0.0005751,0.1313,1.526e-05,1.907e-06,0.1899,0.001785,1.09,0.0014,0,0,0.08887
9000000000,9300000000,3769734721,0,207599566,0.08362,0.1313,0.1377,0.0002661,0.000576,0.1316,8.583e-06,1.907e-06,0.1836,0.0005713,1.076,0.00137,0,0,0.04974
9300000000,9600000000,3769734721,0,207599566,0.08289,0.1313,0.1377,0.0002661,0.000576,0.1316,6.676e-06,1.907e-06,0.1865,0.0006428,1.073,0.001376,0,0,0.09924
9600000000,9900000000,3769734721,0,207599566,0.07886,0.1313,0.1377,0.0002661,0.000576,0.1316,1.24e-05,1.907e-06,0.1772,0.001358,1.077,0.00139,0,0,0.08276
9900000000,10200000000,3769734721,0,207599566,0.07947,0.1313,0.1377,0.0002661,0.000576,0.1313,7.629e-06,1.907e-06,0.1895,0.0004997,1.088,0.001404,0,0,0.08044
10200000000,10500000000,3769734721,0,207599566,0.08423,0.1313,0.1377,0.000267,0.000576,0.1313,8.583e-06,1.907e-06,0.1917,0.0005713,1.076,0.001391,0,0,0.07507
10500000000,10800000000,3769734721,0,207599566,0.07837,0.1313,0.1377,0.000267,0.000577,0.1313,2.098e-05,1.907e-06,0.2053,0.001286,1.07,0.001376,0,0,0.0556
10800000000,11100000000,3769734721,0,207599566,0.07727,0.1313,0.1377,0.000268,0.000577,0.1316,9.537e-06,1.907e-06,0.1621,0.0007143,1.074,0.001364,0,0,0.07959
11100000000,11400000000,3769734721,0,207599566,0.07349,0.1313,0.1377,0.000268,0.000577,0.1316,9.537e-06,1.907e-06,0.1516,0.0004997,1.078,0.001381,0,0,0.1174
11400000000,11700000000,3769734721,0,207599566,0.07129,0.1313,0.1377,0.000268,0.0005779,0.1313,9.537e-06,1.907e-06,0.1711,0.0007143,1.078,0.001385,0,0,0.05347
11700000000,12000000000,3769734721,0,207599566,0.07141,0.1313,0.1377,0.0002689,0.0005779,0.1313,5.722e-06,1.907e-06,0.1924,0.0001431,1.071,0.001354,0,0,0.08569
12300000000,12600000000,3769734721,0,207599566,0.07397,0.1313,0.1377,0.0002689,0.0005779,0.1316,1.335e-05,1.907e-06,0.1816,0.001286,1.07,0.001368,0,0,0.03796
13500000000,13800000000,3769734721,0,207599566,0.06171,0.1313,0.1377,0.0002699,0.0005798,0.1313,6.676e-06,1.907e-06,0.1711,0.0004282,1.058,0.001348,0,0,0.08508
13800000000,14100000000,3769734721,0,207599566,0.06958,0.1313,0.1377,0.0002699,0.0005798,0.1316,6.676e-06,1.907e-06,0.2039,0.0004282,1.055,0.001349,0,0,0.04688
14100000000,14400000000,3769734721,0,207599566,0.06024,0.1313,0.1377,0.0002708,0.0005798,0.1316,1.144e-05,1.907e-06,0.1553,0.001072,1.071,0.001376,0,0,0.05762
14400000000,14700000000,3769734721,0,207599566,0.05457,0.1311,0.1377,0.0002708,0.0005808,0.1313,6.676e-06,1.907e-06,0.1521,0.0004282,1.073,0.001384,0,0,0.09985
14700000000,15000000000,3769734721,0,207599566,0.05365,0.1311,0.1377,0.0002708,0.0005808,0.1313,1.049e-05,1.907e-06,0.1282,0.0009289,1.068,0.001369,0,0,0.03467
15000000000,15300000000,3769734721,0,207599566,0.052,0.1311,0.1377,0.0002718,0.0005808,0.1313,9.537e-06,1.907e-06,0.1443,0.0009995,1.089,0.001413,0,0,0.03613
15300000000,15600000000,3769734721,0,207599566,0.04822,0.1311,0.1377,0.0002718,0.0005817,0.1313,1.335e-05,1.907e-06,0.1287,0.001358,1.08,0.001394,0,0,0.07422
15600000000,15900000000,3769734721,0,207599566,0.04688,0.1311,0.1377,0.0002718,0.0005817,0.1311,4.768e-06,1.907e-06,0.1095,0.0001431,1.052,0.001329,0,0,0.09082
15900000000,16200000000,3769734721,0,207599566,0.04633,0.1311,0.1377,0.0002728,0.0005817,0.1311,1.049e-05,1.907e-06,0.1198,0.0007143,1.053,0.001334,0,0,0.0379
16200000000,16500000000,3769734721,0,207599566,0.04382,0.1311,0.1377,0.0002718,0.0005817,0.1311,1.144e-05,1.907e-06,0.1296,0.001999,1.062,0.001351,0,0,0.02206
16500000000,16800000000,3769734721,0,207599566,0.04596,0.1311,0.1377,0.0002689,0.0005779,0.1311,6.676e-06,1.907e-06,0.1453,0.0007143,1.055,0.001346,0,0,0.05194
16800000000,17100000000,3769734721,0,207599566,0.04224,0.1311,0.1377,0.0002661,0.000576,0.1313,2.861e-06,1.907e-06,0.1956,7.153e-05,1.058,0.001362,0,0,0.02478
17100000000,17400000000,3769734721,0,207599566,0.04077,0.1311,0.1377,0.0002661,0.000576,0.1311,9.537e-06,1.907e-06,0.1173,0.001143,1.07,0.001367,0,0,0.02762
17400000000,17700000000,3769734721,0,207599566,0.03931,0.1311,0.1377,0.000267,0.000576,0.1313,4.768e-06,1.907e-06,0.09229,0.0001431,1.062,0.001363,0,0,0.0528
17700000000,18000000000,3769734721,0,207599566,0.03656,0.1311,0.1377,0.000267,0.000576,0.1313,1.526e-05,1.907e-06,0.1014,0.002857,1.07,0.001378,0,0,0.02563
18000000000,18300000000,3769734721,0,207599566,0.03613,0.1311,0.1377,0.000267,0.000577,0.1313,5.722e-06,1.907e-06,0.1196,0.0002861,1.05,0.001336,0,0,0.05243
18300000000,18600000000,3769734721,0,207599566,0.03278,0.1309,0.1377,0.000267,0.000577,0.1311,6.676e-06,1.907e-06,0.127,0.0006428,1.046,0.00133,0,0,0.03998
18600000000,18900000000,3769734721,0,207599566,0.03247,0.1309,0.1377,0.000267,0.000576,0.1311,8.583e-06,1.907e-06,0.1179,0.0009289,1.068,0.001383,0,0,0.034
18900000000,19200000000,3769734721,0,207599566,0.03143,0.1309,0.1377,0.000267,0.000577,0.1311,5.722e-06,1.907e-06,0.1079,0.0004282,1.061,0.001346,0,0,0.0329
19200000000,19500000000,3769734721,0,207599566,0.03076,0.1311,0.1377,0.000267,0.000577,0.1313,7.629e-06,1.907e-06,0.1074,0.001143,1.061,0.001373,0,0,0.01201
19500000000,19800000000,3769734721,0,207599566,0.02921,0.1309,0.1377,0.000267,0.000577,0.1311,5.722e-06,1.907e-06,0.1265,0.0004282,1.055,0.001356,0,0,0.03638
19800000000,20100000000,3769734721,0,207599566,0.03036,0.1309,0.1377,0.000268,0.000577,0.1311,6.676e-06,1.907e-06,0.09912,0.0004997,1.051,0.001353,0,0,0.03125
20100000000,20400000000,3769734721,0,207599566,0.0307,0.1309,0.1377,0.000268,0.000577,0.1311,4.768e-06,1.907e-06,0.1031,0.0001431,1.058,0.001356,0,0,0.03705
20400000000,20700000000,3769734721,0,207599566,0.02859,0.1309,0.1377,0.000268,0.0005779,0.1311,7.629e-06,1.907e-06,0.1056,0.001072,1.061,0.001383,0,0,0.01555
20700000000,21000000000,3769734721,0,207599566,0.02957,0.1311,0.1377,0.000268,0.0005779,0.1313,3.815e-06,1.907e-06,0.1294,7.153e-05,1.058,0.001364,0,0,0.01115
21000000000,21300000000,3769734721,0,207599566,0.02496,0.1309,0.1377,0.0002689,0.0005779,0.1311,5.722e-06,1.907e-06,0.08313,0.0004282,1.044,0.00134,0,0,0.0128
21300000000,21600000000,3769734721,0,207599566,0.02554,0.1309,0.1377,0.0002689,0.0005789,0.1309,9.537e-06,1.907e-06,0.0874,0.001642,1.044,0.001347,0,0,0.002895
21600000000,21900000000,3769734721,0,207599566,0.02362,0.1309,0.1377,0.0002708,0.0005808,0.1309,1.335e-05,1.907e-06,0.07922,0.002857,1.04,0.001321,0,0,0.03577
21900000000,22200000000,3769734721,0,207599566,0.02307,0.1309,0.1377,0.0002708,0.0005808,0.1311,5.722e-06,1.907e-06,0.09497,0.0004997,1.064,0.001374,0,0,0.01929
22200000000,22500000000,3769734721,0,207599566,0.02408,0.1309,0.1377,0.0002708,0.0005808,0.1309,5.722e-06,1.907e-06,0.08789,0.0004997,1.058,0.001368,0,0,0.03717
22500000000,22800000000,3769734721,0,207599566,0.02393,0.1309,0.1377,0.0002718,0.0005808,0.1309,5.722e-06,1.907e-06,0.103,0.0007858,1.047,0.00135,0,0,0.01076
22800000000,23100000000,3769734721,0,207599566,0.02316,0.1309,0.1377,0.0002718,0.0005817,0.1311,3.815e-06,1.907e-06,0.09204,0.0001431,1.061,0.001354,0,0,0.07458
23100000000,23400000000,3769734721,0,207599566,0.02219,0.1309,0.1377,0.0002718,0.0005817,0.1309,6.676e-06,1.907e-06,0.09119,0.0004997,1.039,0.001333,0,0,0.03247
23400000000,23700000000,3769734721,0,207599566,0.01892,0.1309,0.1377,0.0002699,0.0005798,0.1309,3.815e-06,1.907e-06,0.08435,0.0001431,1.03,0.001307,0,0,0.01636
23700000000,24000000000,3769734721,0,207599566,0.02063,0.1309,0.1377,0.0002689,0.0005789,0.1311,7.629e-06,1.907e-06,0.09692,0.0009289,1.043,0.00135,0,0,0.01134
24000000000,24300000000,3769734721,0,207599566,0.01935,0.1309,0.1377,0.0002689,0.0005789,0.1309,1.049e-05,1.907e-06,0.1061,0.002144,1.036,0.001311,0,0,0.02713
24300000000,24600000000,3769734721,0,207599566,0.01749,0.1309,0.1377,0.0002689,0.0005789,0.1309,8.583e-06,1.907e-06,0.08154,0.0008574,1.045,0.00134,0,0,0.02997
24600000000,24900000000,3769734721,0,207599566,0.0184,0.1309,0.1377,0.0002689,0.0005789,0.1309,3.815e-06,1.907e-06,0.08838,0.0002861,1.037,0.001339,0,0,0.03296
24900000000,25200000000,3769734721,0,207599566,0.01865,0.1309,0.1377,0.0002689,0.0005789,0.1309,3.815e-06,1.907e-06,0.08337,0.0001431,1.039,0.001379,0,0,0.02893
25200000000,25500000000,3769734721,0,207599566,0.01746,0.1309,0.1377,0.000268,0.0005779,0.1309,2.861e-06,1.907e-06,0.1042,7.153e-05,1.025,0.001321,0,0,0.007629
25500000000,25800000000,3769734721,0,207599566,0.01666,0.1309,0.1377,0.000268,0.0005779,0.1309,8.583e-06,1.907e-06,0.07581,0.001642,1.041,0.00135,0,0,0.006126
25800000000,26100000000,3769734721,0,207599566,0.01721,0.1309,0.1377,0.0002689,0.0005779,0.1309,1.049e-05,1.907e-06,0.06372,0.001358,1.032,0.001334,0,0,0.01566
26100000000,26400000000,3769734721,0,207599566,0.01469,0.1306,0.1377,0.0002689,0.0005779,0.1309,7.629e-06,1.907e-06,0.08008,0.001286,1.048,0.001377,0,0,0.009552
26400000000,26700000000,3769734721,0,207599566,0.01408,0.1306,0.1377,0.0002689,0.0005789,0.1309,2.861e-06,1.907e-06,0.0575,7.153e-05,1.055,0.001388,0,0,0.008514
26700000000,27000000000,3769734721,0,207599566,0.01517,0.1306,0.1377,0.0002689,0.0005789,0.1309,1.907e-06,1.907e-06,0.07495,7.153e-05,1.036,0.001342,0,0,0.02203
27000000000,27300000000,3769734721,0,207599566,0.01381,0.1306,0.1377,0.0002689,0.0005779,0.1309,3.815e-06,1.907e-06,0.0611,0.0006428,1.029,0.001314,0,0,0.003857
27300000000,27600000000,3769734721,0,207599566,0.01321,0.1306,0.1377,0.0002689,0.0005779,0.1306,1.24e-05,1.907e-06,0.0791,0.001642,1.028,0.001323,0,0,0.0075
27600000000,27900000000,3769734721,0,207599566,0.01543,0.1306,0.1377,0.0002689,0.0005779,0.1306,2.861e-06,1.907e-06,0.07019,0.0002146,1.035,0.001338,0,0,0.0009699
27900000000,28200000000,3769734721,0,207599566,0.0121,0.1306,0.1377,0.0002689,0.0005779,0.1309,6.676e-06,1.907e-06,0.05975,0.001215,1.03,0.001306,0,0,0.01038
28200000000,28500000000,3769734721,0,207599566,0.01196,0.1306,0.1377,0.0002689,0.0005789,0.1306,5.722e-06,1.907e-06,0.05847,0.0007858,1.021,0.001316,0,0,0.01314
28500000000,28800000000,3769734721,0,207599566,0.01317,0.1306,0.1377,0.0002689,0.0005789,0.1309,2.861e-06,1.907e-06,0.09045,0.0002146,1.032,0.001348,0,0,0.01718
28800000000,29100000000,3769734721,0,207599566,0.01195,0.1306,0.1377,0.0002689,0.0005789,0.1309,3.815e-06,1.907e-06,0.07703,0.0007143,1.035,0.001337,0,0,0.002205
29100000000,29400000000,3769734721,0,207599566,0.01216,0.1306,0.1377,0.0002689,0.0005789,0.1309,1.907e-06,1.907e-06,0.07947,7.153e-05,1.01,0.001329,0,0,0.005249
29400000000,29700000000,3769734721,0,207599566,0.01035,0.1306,0.1377,0.0002699,0.0005789,0.1309,2.861e-06,1.907e-06,0.06189,0.0003567,1.029,0.00137,0,0,0.01721
29700000000,30000000000,3769734721,0,207599566,0.01051,0.1309,0.1377,0.0002699,0.0005789,0.1311,1.907e-06,1.907e-06,0.06323,0.0001431,1.048,0.00136,0,0,0.004799
30000000000,30300000000,3769734721,0,207599566,0.01041,0.1306,0.1377,0.0002699,0.0005798,0.1309,1.144e-05,1.907e-06,0.05847,0.002857,1.071,0.001435,0,0,0.007645
30300000000,30600000000,3769734721,0,207599566,0.01045,0.1306,0.1377,0.0002699,0.0005798,0.1309,1.907e-06,1.907e-06,0.05206,7.153e-05,1.053,0.00139,0,0,0.01279
30600000000,30900000000,3769734721,0,207599566,0.01033,0.1306,0.1377,0.0002699,0.0005798,0.1309,1.907e-06,1.907e-06,0.06738,0.0003567,1.052,0.001408,0,0,0.01097
30900000000,31200000000,3769734721,0,207599566,0.01088,0.1306,0.1377,0.0002699,0.0005798,0.1309,1.907e-06,1.907e-06,0.0636,7.153e-05,1.03,0.001359,0,0,0.004959
31200000000,31500000000,3769734721,0,207599566,0.01004,0.1306,0.1377,0.0002699,0.0005798,0.1306,1.907e-06,1.907e-06,0.0542,7.153e-05,1.041,0.001369,0,0,0.001949
31500000000,31800000000,3769734721,0,207599566,0.009079,0.1306,0.1377,0.0002699,0.0005798,0.1306,1.907e-06,1.907e-06,0.052,7.153e-05,1.061,0.001426,0,0,0.01277
31800000000,32100000000,3769734721,0,207599566,0.009567,0.1306,0.1377,0.0002708,0.0005798,0.1306,9.537e-07,1.907e-06,0.06738,7.153e-05,1.039,0.00136,0,0,0.007172
32100000000,32400000000,3769734721,0,207599566,0.009125,0.1306,0.1377,0.0002708,0.0005798,0.1306,9.537e-07,1.907e-06,0.05316,7.153e-05,1.013,0.001335,0,0,0.0451
32400000000,32700000000,3769734721,0,207599566,0.009445,0.1306,0.1377,0.0002708,0.0005808,0.1306,1.907e-06,1.907e-06,0.1112,7.153e-05,1.017,0.001321,0,0,0.001789
32700000000,33000000000,3769734721,0,207599566,0.01076,0.1306,0.1377,0.0002689,0.0005789,0.1306,2.861e-06,1.907e-06,0.08667,0.0006428,1.037,0.001345,0,0,0.01289
33000000000,33300000000,3769734721,0,207599566,0.008972,0.1306,0.1377,0.0002689,0.0005789,0.1306,2.861e-06,1.907e-06,0.05914,0.0004282,1.037,0.001361,0,0,0.006058
33300000000,33600000000,3769734721,0,207599566,0.01021,0.1306,0.1377,0.0002689,0.0005789,0.1309,2.861e-06,1.907e-06,0.06848,0.0001431,1.031,0.001373,0,0,0.008148
33600000000,33900000000,3769734721,0,207599566,0.009491,0.1306,0.1377,0.0002689,0.0005789,0.1309,2.861e-06,1.907e-06,0.05664,7.153e-05,1.037,0.001354,0,0,0.006889
33900000000,34200000000,3769734721,0,207599566,0.009354,0.1306,0.1377,0.0002689,0.0005789,0.1306,1.907e-06,1.907e-06,0.04138,7.153e-05,1.042,0.00134,0,0,0.004761
34200000000,34500000000,3769734721,0,207599566,0.01108,0.1306,0.1377,0.0002689,0.0005789,0.1306,1.907e-06,1.907e-06,0.09888,7.153e-05,1.004,0.00127,0,0,0.01387
34500000000,34800000000,3769734721,0,207599566,0.01077,0.1306,0.1377,0.0002689,0.0005789,0.1306,1.907e-06,1.907e-06,0.07129,7.153e-05,1.055,0.001406,0,0,0.002213
34800000000,35100000000,3769734721,0,207599566,0.01273,0.1306,0.1377,0.0002699,0.0005789,0.1306,9.537e-06,1.907e-06,0.06653,0.001358,1.026,0.001346,0,0,0.01259
35100000000,35400000000,3769734721,0,207599566,0.01175,0.1306,0.1377,0.0002699,0.0005789,0.1306,1.907e-06,1.907e-06,0.09583,0.0003567,1.06,0.001408,0,0,0.01605
35400000000,35700000000,3769734721,0,207599566,0.01137,0.1306,0.1377,0.0002699,0.0005798,0.1306,1.907e-06,1.907e-06,0.05798,7.153e-05,1.061,0.001398,0,0,0.0146
35700000000,36000000000,3769734721,0,207599566,0.01062,0.1306,0.1377,0.0002699,0.0005798,0.1306,9.537e-07,1.907e-06,0.06458,7.153e-05,1.062,0.001436,0,0,0.02667
36000000000,36300000000,3769734721,0,207599566,0.01129,0.1306,0.1377,0.0002699,0.0005798,0.1306,1.907e-06,1.907e-06,0.05469,0.0002146,1.041,0.00135,0,0,0.02313
36300000000,36600000000,3769734721,0,207599566,0.01181,0.1306,0.1377,0.0002699,0.0005798,0.1306,8.583e-06,1.907e-06,0.06726,0.001858,1.045,0.001356,0,0,0.008545
36600000000,36900000000,3769734721,0,207599566,0.01233,0.1306,0.1377,0.0002708,0.0005798,0.1306,4.768e-06,1.907e-06,0.05585,0.0005713,1.059,0.001368,0,0,0.01079
36900000000,37200000000,3769734721,0,207599566,0.01291,0.1306,0.1377,0.0002689,0.0005789,0.1306,5.722e-06,1.907e-06,0.07568,0.0006428,1.077,0.001398,0,0,0.02527
37200000000,37500000000,3769734721,0,207599566,0.01534,0.1306,0.1377,0.0002699,0.0005789,0.1306,7.629e-06,1.907e-06,0.07166,0.001358,1.049,0.001291,0,0,0.0253
37500000000,37800000000,3769734721,0,207599566,0.01801,0.1306,0.1377,0.0002699,0.0005789,0.1306,7.629e-06,1.907e-06,0.07178,0.0004997,1.038,0.001287,0,0,0.01234
37800000000,38100000000,3769734721,0,207599566,0.01505,0.1306,0.1377,0.0002699,0.0005798,0.1306,6.676e-06,1.907e-06,0.05981,0.0009995,1.05,0.001304,0,0,0.008057
38100000000,38400000000,3769734721,0,207599566,0.01546,0.1306,0.1377,0.0002699,0.0005798,0.1309,1.144e-05,1.907e-06,0.07581,0.001928,1.062,0.001377,0,0,0.007721
38400000000,38700000000,3769734721,0,207599566,0.0162,0.1306,0.1377,0.0002699,0.0005798,0.1306,4.768e-06,1.907e-06,0.06946,0.0009289,1.067,0.001364,0,0,0.003887
38700000000,39000000000,3769734721,0,207599566,0.01666,0.1306,0.1377,0.0002708,0.0005798,0.1306,2.861e-06,1.907e-06,0.07495,0.0001431,1.067,0.001373,0,0,0.02988
39000000000,39300000000,3769734721,0,207599566,0.01608,0.1306,0.1377,0.0002708,0.0005808,0.1306,2.861e-06,1.907e-06,0.05695,7.153e-05,1.074,0.001386,0,0,0.04504
39300000000,39600000000,3769734721,0,207599566,0.01831,0.1306,0.1377,0.0002708,0.0005808,0.1306,6.676e-06,1.907e-06,0.06641,0.0008574,1.062,0.001379,0,0,0.008224
39600000000,39900000000,3769734721,0,207599566,0.02069,0.1306,0.1377,0.0002708,0.0005808,0.1309,2.861e-06,1.907e-06,0.0708,0.0001431,1.126,0.001469,0,0,0.01485
39900000000,40200000000,3769734721,0,207599566,0.02115,0.1306,0.1377,0.0002718,0.0005808,0.1306,1.907e-06,1.907e-06,0.0791,7.153e-05,1.157,0.00154,0,0,0.03778
40200000000,40500000000,3769734721,0,207599566,0.02206,0.1306,0.1377,0.0002718,0.0005808,0.1309,1.907e-06,1.907e-06,0.1229,7.153e-05,1.118,0.001524,0,0,0.01329
40500000000,40800000000,3769734721,0,207599566,0.02164,0.1306,0.1377,0.0002708,0.0005808,0.1309,7.629e-06,1.907e-06,0.08655,0.0007143,1.103,0.001458,0,0,0.02411
52200000000,52500000000,3769734721,0,207599566,0.09009,0.1311,0.1377,0.0002575,0.0005665,0.1313,1.717e-05,1.907e-06,0.1733,0.00243,1.112,0.00147,0,0,0.08948
52500000000,52800000000,3769734721,0,207599566,0.0907,0.1311,0.1377,0.0002575,0.0005674,0.1313,1.526e-05,1.907e-06,0.1846,0.001286,1.111,0.001462,0,0,0.1029
52800000000,53100000000,3769734721,0,207599566,0.09204,0.1311,0.1377,0.0002584,0.0005674,0.1313,9.537e-06,1.907e-06,0.1855,0.0007858,1.12,0.001488,0,0,0.07336
53100000000,53400000000,3769734721,0,207599566,0.09314,0.1311,0.1377,0.0002575,0.0005674,0.1311,1.049e-05,1.907e-06,0.219,0.0009289,1.118,0.001483,0,0,0.08838
53400000000,53700000000,3769734721,0,207599566,0.0957,0.1311,0.1377,0.0002584,0.0005684,0.1311,9.537e-06,1.907e-06,0.1653,0.0005713,1.122,0.0015,0,0,0.1067
53700000000,54000000000,3769734721,0,207599566,0.09692,0.1311,0.1377,0.0002584,0.0005684,0.1311,9.537e-06,1.907e-06,0.1917,0.0009995,1.118,0.001494,0,0,0.1201
54000000000,54300000000,3769734721,0,207599566,0.1006,0.1311,0.1377,0.0002594,0.0005684,0.1313,1.24e-05,1.907e-06,0.197,0.001143,1.113,0.001473,0,0,0.07629
54300000000,54600000000,3769734721,0,207599566,0.1025,0.1311,0.1377,0.0002594,0.0005693,0.1313,1.049e-05,1.907e-06,0.188,0.0006428,1.106,0.001459,0,0,0.1133
54600000000,54900000000,3769734721,0,207599566,0.09839,0.1311,0.1377,0.0002594,0.0005693,0.1313,9.537e-06,1.907e-06,0.1965,0.0006428,1.124,0.001514,0,0,0.105
54900000000,55200000000,3769734721,0,207599566,0.1013,0.1311,0.1377,0.0002594,0.0005693,0.1313,6.676e-06,1.907e-06,0.2029,0.0002861,1.111,0.001477,0,0,0.09448
55200000000,55500000000,3769734721,0,207599566,0.1027,0.1311,0.1377,0.0002604,0.0005693,0.1313,1.335e-05,1.907e-06,0.2332,0.001215,1.106,0.00147,0,0,0.1224
55500000000,55800000000,3769734721,0,207599566,0.1053,0.1311,0.1377,0.0002594,0.0005693,0.1313,2.003e-05,1.907e-06,0.1794,0.001785,1.109,0.001468,0,0,0.0874
55800000000,56100000000,3769734721,0,207599566,0.1108,0.1311,0.1377,0.0002584,0.0005674,0.1313,1.431e-05,1.907e-06,0.2336,0.001072,1.107,0.001472,0,0,0.1343
56100000000,56400000000,3769734721,0,207599566,0.1116,0.1313,0.1377,0.0002565,0.0005665,0.1313,1.717e-05,1.907e-06,0.2356,0.001286,1.103,0.001461,0,0,0.1313
56400000000,56700000000,3769734721,0,207599566,0.1074,0.1311,0.1377,0.0002565,0.0005665,0.1313,1.144e-05,1.907e-06,0.2114,0.0007858,1.113,0.001491,0,0,0.1193
56700000000,57000000000,3769734721,0,207599566,0.11,0.1311,0.1377,0.0002565,0.0005665,0.1313,1.049e-05,1.907e-06,0.2083,0.0008574,1.12,0.001494,0,0,0.1088
57000000000,57300000000,3769734721,0,207599566,0.1066,0.1311,0.1377,0.0002565,0.0005665,0.1313,1.049e-05,1.907e-06,0.2053,0.0007858,1.136,0.001523,0,0,0.09534
57300000000,57600000000,3769734721,0,207599566,0.1077,0.1311,0.1377,0.0002565,0.0005655,0.1313,6.676e-06,1.907e-06,0.2351,0.0002861,1.121,0.0015,0,0,0.109
57600000000,57900000000,3769734721,0,207599566,0.108,0.1311,0.1377,0.0002565,0.0005665,0.1313,1.049e-05,1.907e-06,0.2539,0.0007143,1.12,0.001512,0,0,0.1105
57900000000,58200000000,3769734721,0,207599566,0.1083,0.1313,0.1377,0.0002565,0.0005665,0.1313,1.526e-05,1.907e-06,0.1904,0.0006428,1.128,0.001524,0,0,0.1149
58200000000,58500000000,3769734721,0,207599566,0.1029,0.1313,0.1377,0.0002575,0.0005665,0.1313,1.049e-05,1.907e-06,0.1951,0.0006428,1.121,0.001505,0,0,0.09875
58500000000,58800000000,3769734721,0,207599566,0.1053,0.1311,0.1377,0.0002565,0.0005665,0.1313,1.24e-05,1.907e-06,0.2085,0.0006428,1.114,0.001486,0,0,0.09363
58800000000,59100000000,3769734721,0,207599566,0.104,0.1311,0.1377,0.0002556,0.0005655,0.1313,1.431e-05,1.907e-06,0.2063,0.001358,1.113,0.001484,0,0,0.1316
59100000000,59400000000,3769734721,0,207599566,0.1052,0.1311,0.1377,0.0002556,0.0005655,0.1313,1.335e-05,1.907e-06,0.197,0.0009289,1.113,0.001471,0,0,0.06055
59400000000,59700000000,3769734721,0,207599566,0.1024,0.1313,0.1377,0.0002537,0.0005627,0.1316,1.526e-05,1.907e-06,0.2139,0.0008574,1.112,0.001466,0,0,0.157
59700000000,60000000000,3769734721,0,207599566,0.1088,0.1311,0.1377,0.0002527,0.0005617,0.1313,1.335e-05,1.907e-06,0.1975,0.0007143,1.116,0.00148,0,0,0.07837
60000000000,60300000000,3769734721,0,207599566,0.1049,0.1313,0.1377,0.0002527,0.0005627,0.1313,1.24e-05,1.907e-06,0.188,0.0006428,1.117,0.00149,0,0,0.1423
60300000000,60600000000,3769734721,0,207599566,0.1033,0.1313,0.1377,0.0002537,0.0005627,0.1313,1.526e-05,1.907e-06,0.2019,0.001358,1.115,0.00148,0,0,0.07898
60600000000,60900000000,3769734721,0,207599566,0.1029,0.1313,0.1377,0.0002537,0.0005627,0.1316,1.24e-05,1.907e-06,0.2317,0.0006428,1.125,0.001505,0,0,0.0791
70800000000,71100000000,3769734721,0,207599566,0.1097,0.1313,0.1377,0.0002518,0.0005617,0.1316,9.537e-06,1.907e-06,0.2092,0.0004997,1.123,0.001492,0,0,0.1902
71100000000,71400000000,3769734721,0,207599566,0.1108,0.1313,0.1377,0.0002518,0.0005617,0.1313,7.629e-06,1.907e-06,0.2314,0.0004282,1.128,0.001506,0,0,0.1066
71400000000,71700000000,3769734721,0,207599566,0.1117,0.1313,0.1377,0.0002527,0.0005627,0.1316,9.537e-06,1.907e-06,0.2144,0.0007858,1.122,0.001489,0,0,0.1252
71700000000,72000000000,3769734721,0,207599566,0.1072,0.1313,0.1377,0.0002527,0.0005627,0.1316,9.537e-06,1.907e-06,0.2764,0.0004282,1.127,0.001501,0,0,0.08813
72000000000,72300000000,3769734721,0,207599566,0.1133,0.1313,0.1377,0.0002537,0.0005627,0.1313,8.583e-06,1.907e-06,0.2163,0.0004282,1.132,0.001503,0,0,0.1036
72300000000,72600000000,3769734721,0,207599566,0.1146,0.1313,0.1377,0.0002537,0.0005636,0.1313,2.003e-05,1.907e-06,0.2229,0.001642,1.123,0.001497,0,0,0.1085
72600000000,72900000000,3769734721,0,207599566,0.1124,0.1313,0.1377,0.0002546,0.0005636,0.1313,8.583e-06,1.907e-06,0.2197,0.0005713,1.126,0.0015,0,0,0.09375
72900000000,73200000000,3769734721,0,207599566,0.1117,0.1313,0.1377,0.0002546,0.0005646,0.1313,9.537e-06,1.907e-06,0.2217,0.0003567,1.119,0.001488,0,0,0.1321
73200000000,73500000000,3769734721,0,207599566,0.1155,0.1313,0.1377,0.0002556,0.0005646,0.1313,7.629e-06,1.907e-06,0.2344,0.0003567,1.124,0.00149,0,0,0.1567
73500000000,73800000000,3769734721,0,207599566,0.1156,0.1313,0.1377,0.0002556,0.0005646,0.1316,1.049e-05,1.907e-06,0.2573,0.0008574,1.132,0.00152,0,0,0.1168
73800000000,74100000000,3769734721,0,207599566,0.1178,0.1313,0.1377,0.0002556,0.0005655,0.1316,9.537e-06,1.907e-06,0.2415,0.0007143,1.115,0.001486,0,0,0.1758
74100000000,74400000000,3769734721,0,207599566,0.1183,0.1313,0.1377,0.0002565,0.0005655,0.1316,9.537e-06,1.907e-06,0.2322,0.0005713,1.126,0.001509,0,0,0.1575
74400000000,74700000000,3769734721,0,207599566,0.1173,0.1313,0.1377,0.0002565,0.0005665,0.1313,1.24e-05,1.907e-06,0.2065,0.0009289,1.123,0.001487,0,0,0.1392
74700000000,75000000000,3769734721,0,207599566,0.1149,0.1313,0.1377,0.0002565,0.0005665,0.1313,9.537e-06,1.907e-06,0.2356,0.0006428,1.12,0.001488,0,0,0.1234
75000000000,75300000000,3769734721,0,207599566,0.1166,0.1313,0.1377,0.0002575,0.0005674,0.1313,1.049e-05,1.907e-06,0.2341,0.0006428,1.125,0.001504,0,0,0.2192
75300000000,75600000000,3769734721,0,207599566,0.1172,0.1313,0.1377,0.0002584,0.0005674,0.1313,8.583e-06,1.907e-06,0.2539,0.0004282,1.116,0.001484,0,0,0.1426
75600000000,75900000000,3769734721,0,207599566,0.1178,0.1313,0.1377,0.0002584,0.0005684,0.1316,1.431e-05,1.907e-06,0.2617,0.001358,1.125,0.001507,0,0,0.06738
75900000000,76200000000,3769734721,0,207599566,0.1124,0.1313,0.1377,0.0002575,0.0005665,0.1316,5.722e-06,1.907e-06,0.2173,0.0002146,1.136,0.001514,0,0,0.1198
76200000000,76500000000,3769734721,0,207599566,0.1128,0.1313,0.1377,0.0002575,0.0005674,0.1316,9.537e-06,1.907e-06,0.2373,0.0005713,1.126,0.001494,0,0,0.1382
76500000000,76800000000,3769734721,0,207599566,0.1112,0.1313,0.1377,0.0002575,0.0005674,0.1313,1.144e-05,1.907e-06,0.2017,0.0007143,1.126,0.001494,0,0,0.1019
76800000000,77100000000,3769734721,0,207599566,0.1108,0.1313,0.1377,0.0002584,0.0005674,0.1313,1.144e-05,1.907e-06,0.2058,0.0007143,1.115,0.001482,0,0,0.1455
77100000000,77400000000,3769734721,0,207599566,0.1112,0.1313,0.1377,0.0002584,0.0005684,0.1316,5.722e-06,1.907e-06,0.2261,0.0001431,1.119,0.001489,0,0,0.1265
77400000000,77700000000,3769734721,0,207599566,0.1141,0.1313,0.1377,0.0002594,0.0005693,0.1313,1.717e-05,1.907e-06,0.231,0.001215,1.115,0.00148,0,0,0.1062
77700000000,78000000000,3769734721,0,207599566,0.1123,0.1313,0.1377,0.0002604,0.0005703,0.1316,1.144e-05,1.907e-06,0.2158,0.0006428,1.127,0.001499,0,0,0.06506
78000000000,78300000000,3769734721,0,207599566,0.1115,0.1316,0.1377,0.0002613,0.0005703,0.1316,8.583e-06,1.907e-06,0.2141,0.0006428,1.128,0.001489,0,0,0.1063
78300000000,78600000000,3769734721,0,207599566,0.1125,0.1313,0.1377,0.0002613,0.0005703,0.1316,1.144e-05,1.907e-06,0.2205,0.001215,1.131,0.001501,0,0,0.1106
78600000000,78900000000,3769734721,0,207599566,0.11,0.1313,0.1377,0.0002613,0.0005713,0.1316,9.537e-06,1.907e-06,0.2676,0.0006428,1.125,0.001487,0,0,0.07068
78900000000,79200000000,3769734721,0,207599566,0.1096,0.1313,0.1377,0.0002623,0.0005713,0.1316,9.537e-06,1.907e-06,0.2234,0.0008574,1.117,0.001472,0,0,0.1323
79200000000,79500000000,3769734721,0,207599566,0.1083,0.1313,0.1377,0.0002623,0.0005713,0.1316,1.621e-05,1.907e-06,0.2163,0.001715,1.137,0.001501,0,0,0.0636
79500000000,79800000000,3769734721,0,207599566,0.1036,0.1313,0.1377,0.0002623,0.0005713,0.1316,1.24e-05,2.861e-06,0.2046,0.0007143,1.125,0.001474,0,0,0.06091
79800000000,80100000000,3769734721,0,207599566,0.1034,0.1313,0.1377,0.0002623,0.0005722,0.1313,1.431e-05,2.861e-06,0.2097,0.001072,1.121,0.001461,0,0,0.06677
80100000000,80400000000,3769734721,0,207599566,0.1017,0.1313,0.1377,0.0002604,0.0005703,0.1313,7.629e-06,2.861e-06,0.2229,0.0004997,1.121,0.001468,0,0,0.1033
80400000000,80700000000,3769734721,0,207599566,0.09619,0.1313,0.1377,0.0002604,0.0005703,0.1316,1.526e-05,2.861e-06,0.2363,0.001358,1.134,0.001485,0,0,0.0979
80700000000,81000000000,3769734721,0,207599566,0.09668,0.1313,0.1377,0.0002632,0.0005741,0.1313,5.722e-06,2.861e-06,0.1831,0.0002146,1.13,0.001478,0,0,0.09851
85800000000,86100000000,3769734721,0,207599566,0.08093,0.1313,0.1377,0.0002642,0.0005741,0.1313,1.049e-05,2.861e-06,0.1792,0.001429,1.155,0.001517,0,0,0.09656
87300000000,87600000000,3769734721,0,207599566,0.08069,0.1313,0.1377,0.0002651,0.000576,0.1313,7.629e-06,2.861e-06,0.1638,0.0006428,1.147,0.001504,0,0,0.07544
87600000000,87900000000,3769734721,0,207599566,0.08057,0.1313,0.1377,0.0002661,0.000576,0.1313,8.583e-06,2.861e-06,0.1733,0.0006428,1.149,0.001511,0,0,0.03394
87900000000,88200000000,3769734721,0,207599566,0.08093,0.1313,0.1377,0.0002661,0.000576,0.1313,5.722e-06,2.861e-06,0.1838,0.0001431,1.15,0.00152,0,0,0.08875
88200000000,88500000000,3769734721,0,207599566,0.07715,0.1311,0.1377,0.0002661,0.000577,0.1313,1.431e-05,2.861e-06,0.1721,0.0009995,1.144,0.001515,0,0,0.05878
88500000000,88800000000,3769734721,0,207599566,0.08044,0.1313,0.1377,0.0002661,0.000576,0.1313,9.537e-06,2.861e-06,0.1577,0.0009995,1.137,0.001503,0,0,0.0946
88800000000,89100000000,3769734721,0,207599566,0.08081,0.1311,0.1377,0.0002651,0.0005751,0.1313,7.629e-06,2.861e-06,0.2432,0.0006428,1.158,0.001508,0,0,0.07373
89100000000,89400000000,3769734721,0,207599566,0.08191,0.1311,0.1377,0.0002642,0.0005741,0.1313,1.431e-05,2.861e-06,0.155,0.001429,1.166,0.001538,0,0,0.08057
89400000000,89700000000,3769734721,0,207599566,0.07947,0.1311,0.1377,0.0002632,0.0005732,0.1313,7.629e-06,2.861e-06,0.2498,0.0004282,1.189,0.001559,0,0,0.06628
89700000000,90000000000,3769734721,0,207599566,0.08826,0.1313,0.1377,0.0002632,0.0005732,0.1316,9.537e-06,2.861e-06,0.2114,0.0006428,1.156,0.001479,0,0,0.05176
90000000000,90300000000,3769734721,0,207599566,0.08057,0.1313,0.1377,0.0002632,0.0005741,0.1313,8.583e-06,2.861e-06,0.1931,0.0007143,1.158,0.001523,0,0,0.09924
90300000000,90600000000,3769734721,0,207599566,0.07886,0.1311,0.1377,0.0002632,0.0005732,0.1313,1.24e-05,2.861e-06,0.1802,0.0006428,1.154,0.001542,0,0,0.1287
90600000000,90900000000,3769734721,0,207599566,0.08044,0.1313,0.1377,0.0002632,0.0005741,0.1313,7.629e-06,2.861e-06,0.1855,0.0006428,1.153,0.001536,0,0,0.06226
101100000000,101400000000,3769734721,0,207599566,0.05591,0.1311,0.1377,0.0002747,0.0005856,0.1313,6.676e-06,2.861e-06,0.1328,0.0003567,1.093,0.00143,0,0,0.09009
101400000000,101700000000,3769734721,0,207599566,0.05646,0.1311,0.1377,0.0002756,0.0005856,0.1313,8.583e-06,2.861e-06,0.1558,0.0006428,1.089,0.001418,0,0,0.06
101700000000,102000000000,3769734721,0,207599566,0.0531,0.1313,0.1377,0.0002737,0.0005846,0.1313,7.629e-06,2.861e-06,0.1489,0.0004997,1.106,0.001453,0,0,0.01999
102000000000,102300000000,3769734721,0,207599566,0.05176,0.1313,0.1377,0.0002699,0.0005808,0.1313,1.812e-05,2.861e-06,0.144,0.001572,1.104,0.001443,0,0,0.03137
102300000000,102600000000,3769734721,0,207599566,0.05261,0.1311,0.1377,0.000268,0.0005779,0.1313,6.676e-06,2.861e-06,0.167,0.0002861,1.096,0.001446,0,0,0.02859
102600000000,102900000000,3769734721,0,207599566,0.05249,0.1311,0.1377,0.000268,0.0005789,0.1313,9.537e-06,2.861e-06,0.1401,0.0006428,1.085,0.001423,0,0,0.04913
102900000000,103200000000,3769734721,0,207599566,0.05042,0.1311,0.1377,0.000268,0.0005789,0.1313,4.768e-06,2.861e-06,0.1416,0.0002146,1.081,0.001405,0,0,0.02048
103200000000,103500000000,3769734721,0,207599566,0.04993,0.1311,0.1377,0.0002689,0.0005789,0.1313,4.768e-06,2.861e-06,0.1775,0.0003567,1.088,0.001443,0,0,0.07861
103500000000,103800000000,3769734721,0,207599566,0.04419,0.1311,0.1377,0.0002689,0.0005798,0.1313,1.049e-05,2.861e-06,0.1848,0.001499,1.08,0.001423,0,0,0.02231
103800000000,104100000000,3769734721,0,207599566,0.04395,0.1311,0.1377,0.0002689,0.0005798,0.1311,5.722e-06,2.861e-06,0.1217,0.0001431,1.074,0.001393,0,0,0.02011
104100000000,104400000000,3769734721,0,207599566,0.04297,0.1311,0.1377,0.0002689,0.0005798,0.1311,1.431e-05,2.861e-06,0.1353,0.002499,1.069,0.001392,0,0,0.02271
104400000000,104700000000,3769734721,0,207599566,0.03949,0.1311,0.1377,0.0002699,0.0005798,0.1313,1.24e-05,2.861e-06,0.1101,0.001358,1.066,0.001392,0,0,0.01877
104700000000,105000000000,3769734721,0,207599566,0.03888,0.1311,0.1377,0.0002699,0.0005798,0.1311,1.335e-05,2.861e-06,0.1301,0.001642,1.067,0.001381,0,0,0.01518
105000000000,105300000000,3769734721,0,207599566,0.03711,0.1311,0.1377,0.0002699,0.0005808,0.1313,5.722e-06,2.861e-06,0.1106,0.0001431,1.07,0.001398,0,0,0.04523
105300000000,105600000000,3769734721,0,207599566,0.03906,0.1311,0.1377,0.0002699,0.0005808,0.1313,8.583e-06,2.861e-06,0.1215,0.001072,1.071,0.001393,0,0,0.02408
105600000000,105900000000,3769734721,0,207599566,0.03796,0.1311,0.1377,0.0002708,0.0005808,0.1311,6.676e-06,2.861e-06,0.1217,0.0004997,1.066,0.001378,0,0,0.0293
105900000000,106200000000,3769734721,0,207599566,0.02893,0.1309,0.1377,0.0002708,0.0005808,0.1311,6.676e-06,2.861e-06,0.1007,0.0005713,1.067,0.001416,0,0,0.017
106200000000,106500000000,3769734721,0,207599566,0.02744,0.1309,0.1377,0.0002708,0.0005808,0.1311,8.583e-06,2.861e-06,0.08789,0.001143,1.082,0.001429,0,0,0.03571
106500000000,106800000000,3769734721,0,207599566,0.03094,0.1311,0.1377,0.0002708,0.0005817,0.1313,8.583e-06,2.861e-06,0.1012,0.001429,1.047,0.001355,0,0,0.01305
106800000000,107100000000,3769734721,0,207599566,0.02841,0.1311,0.1377,0.0002708,0.0005817,0.1311,1.144e-05,2.861e-06,0.0863,0.001215,1.049,0.001368,0,0,0.00946
107100000000,107400000000,3769734721,0,207599566,0.02979,0.1311,0.1377,0.0002708,0.0005817,0.1311,9.537e-06,2.861e-06,0.1055,0.001286,1.052,0.001386,0,0,0.03085
107400000000,107700000000,3769734721,0,207599566,0.02551,0.1309,0.1377,0.0002718,0.0005817,0.1311,4.768e-06,2.861e-06,0.1063,0.0003567,1.071,0.001413,0,0,0.01022
107700000000,108000000000,3769734721,0,207599566,0.02563,0.1309,0.1377,0.0002718,0.0005817,0.1309,2.861e-06,2.861e-06,0.1019,0.0001431,1.061,0.001383,0,0,0.02603
108000000000,108300000000,3769734721,0,207599566,0.02646,0.1309,0.1377,0.0002718,0.0005827,0.1311,1.049e-05,2.861e-06,0.09082,0.002213,1.057,0.001365,0,0,0.01303
108300000000,108600000000,3769734721,0,207599566,0.02509,0.1309,0.1377,0.0002718,0.0005827,0.1309,6.676e-06,2.861e-06,0.07715,0.0004282,1.062,0.001392,0,0,0.01158
108600000000,108900000000,3769734721,0,207599566,0.0246,0.1309,0.1377,0.0002718,0.0005827,0.1311,3.815e-06,2.861e-06,0.07654,7.153e-05,1.069,0.001429,0,0,0.04718
108900000000,109200000000,3769734721,0,207599566,0.02026,0.1309,0.1377,0.0002718,0.0005827,0.1309,2.861e-06,2.861e-06,0.07031,7.153e-05,1.061,0.001404,0,0,0.03012
109200000000,109500000000,3769734721,0,207599566,0.02121,0.1309,0.1377,0.0002728,0.0005827,0.1309,7.629e-06,2.861e-06,0.08472,0.001499,1.053,0.001391,0,0,0.01901
109500000000,109800000000,3769734721,0,207599566,0.01971,0.1309,0.1377,0.0002728,0.0005836,0.1311,3.815e-06,2.861e-06,0.07666,0.0001431,1.058,0.001405,0,0,0.003525
109800000000,110100000000,3769734721,0,207599566,0.01895,0.1309,0.1377,0.0002728,0.0005836,0.1311,1.526e-05,2.861e-06,0.07812,0.001858,1.039,0.001358,0,0,0.01303
110100000000,110400000000,3769734721,0,207599566,0.01953,0.1309,0.1377,0.0002728,0.0005836,0.1309,5.722e-06,2.861e-06,0.1179,0.0005713,1.049,0.001401,0,0,0.005882
110400000000,110700000000,3769734721,0,207599566,0.0181,0.1309,0.1377,0.0002728,0.0005836,0.1311,6.676e-06,2.861e-06,0.08984,0.0003567,1.047,0.001375,0,0,0.01822
110700000000,111000000000,3769734721,0,207599566,0.01895,0.1309,0.1377,0.0002728,0.0005836,0.1309,4.768e-06,2.861e-06,0.1085,0.0002146,1.023,0.001334,0,0,0.002598
116100000000,116400000000,3769734721,0,207599566,0.01044,0.1306,0.1377,0.0002718,0.0005827,0.1309,3.815e-06,2.861e-06,0.06689,0.0001431,1.046,0.001421,0,0,0.0001812
116400000000,116700000000,3769734721,0,207599566,0.01106,0.1306,0.1377,0.0002728,0.0005827,0.1309,8.583e-06,2.861e-06,0.07288,0.0009289,1.044,0.001423,0,0,0.004791
116700000000,117000000000,3769734721,0,207599566,0.01079,0.1306,0.1377,0.0002728,0.0005827,0.1306,1.907e-06,2.861e-06,0.07886,7.153e-05,1.042,0.001415,0,0,0.00296
117000000000,117300000000,3769734721,0,207599566,0.01079,0.1306,0.1377,0.0002728,0.0005836,0.1309,3.815e-06,2.861e-06,0.07227,0.0001431,1.036,0.001403,0,0,0.008545
117300000000,117600000000,3769734721,0,207599566,0.01115,0.1306,0.1377,0.0002728,0.0005836,0.1309,2.861e-06,2.861e-06,0.06506,7.153e-05,1.02,0.001356,0,0,0.001106
117600000000,117900000000,3769734721,0,207599566,0.009949,0.1306,0.1377,0.0002728,0.0005836,0.1309,4.768e-06,2.861e-06,0.05151,0.0004282,1.06,0.00146,0,0,0.01546
117900000000,118200000000,3769734721,0,207599566,0.009094,0.1306,0.1377,0.0002718,0.0005827,0.1309,8.583e-06,2.861e-06,0.0498,0.0006428,1.059,0.001465,0,0,0.01463
118200000000,118500000000,3769734721,0,207599566,0.008286,0.1306,0.1377,0.0002718,0.0005827,0.1306,3.815e-06,2.861e-06,0.05249,0.0006428,1.075,0.001462,0,0,0.01376
118500000000,118800000000,3769734721,0,207599566,0.008911,0.1306,0.1377,0.0002718,0.0005827,0.1306,3.815e-06,2.861e-06,0.05597,0.0006428,1.041,0.001437,0,0,0.0008183
118800000000,119100000000,3769734721,0,207599566,0.008774,0.1306,0.1377,0.0002718,0.0005827,0.1309,4.768e-06,2.861e-06,0.09631,0.0002861,1.045,0.001442,0,0,0.02295
119100000000,119400000000,3769734721,0,207599566,0.008789,0.1306,0.1377,0.0002718,0.0005827,0.1306,2.861e-06,2.861e-06,0.06055,7.153e-05,1.058,0.001466,0,0,0.001154
119400000000,119700000000,3769734721,0,207599566,0.009583,0.1306,0.1377,0.0002718,0.0005827,0.1306,1.907e-06,2.861e-06,0.04926,7.153e-05,1.084,0.001527,0,0,0.005379
119700000000,120000000000,3769734721,0,207599566,0.008453,0.1306,0.1377,0.0002718,0.0005827,0.1306,2.861e-06,2.861e-06,0.0517,7.153e-05,1.038,0.001417,0,0,0.002174
120000000000,120300000000,3769734721,0,207599566,0.01012,0.1306,0.1377,0.0002728,0.0005827,0.1306,2.861e-06,2.861e-06,0.0575,0.0002146,1.027,0.00139,0,0,0.004143
120300000000,120600000000,3769734721,0,207599566,0.009537,0.1306,0.1377,0.0002728,0.0005827,0.1309,1.907e-06,2.861e-06,0.05194,7.153e-05,1.053,0.001475,0,0,0.002979
120600000000,120900000000,3769734721,0,207599566,0.01054,0.1306,0.1377,0.0002728,0.0005836,0.1306,1.907e-06,2.861e-06,0.06323,7.153e-05,1.052,0.001462,0,0,0.008255
126000000000,126300000000,3769734721,0,207599566,0.01599,0.1306,0.1377,0.0002708,0.0005808,0.1309,5.722e-06,2.861e-06,0.06067,0.0002861,1.045,0.001397,0,0,0.01837
126300000000,126600000000,3769734721,0,207599566,0.01828,0.1306,0.1377,0.0002708,0.0005808,0.1309,2.861e-06,2.861e-06,0.099,0.0001431,1.016,0.001322,0,0,0.00737
126600000000,126900000000,3769734721,0,207599566,0.02014,0.1306,0.1377,0.0002699,0.0005808,0.1309,3.815e-06,2.861e-06,0.08215,0.0001431,1.06,0.001441,0,0,0.007133
126900000000,127200000000,3769734721,0,207599566,0.02176,0.1306,0.1377,0.0002699,0.0005808,0.1309,6.676e-06,2.861e-06,0.07874,0.0007858,1.059,0.001406,0,0,0.02701
127200000000,127500000000,3769734721,0,207599566,0.02274,0.1306,0.1377,0.0002527,0.0005636,0.1309,4.768e-06,2.861e-06,0.07727,0.0002146,1.062,0.001407,0,0,0.02252
127500000000,127800000000,3769734721,0,207599566,0.0274,0.1309,0.1377,0.0002527,0.0005636,0.1309,4.768e-06,2.861e-06,0.0918,0.0001431,1.043,0.00139,0,0,0.01968
127800000000,128100000000,3769734721,0,207599566,0.02682,0.1306,0.1377,0.0002527,0.0005627,0.1309,4.768e-06,2.861e-06,0.1125,0.0003567,1.065,0.001424,0,0,0.03314
128100000000,128400000000,3769734721,0,207599566,0.02957,0.1306,0.1377,0.0002527,0.0005627,0.1309,4.768e-06,2.861e-06,0.09924,0.0002146,1.051,0.001385,0,0,0.03229
128400000000,128700000000,3769734721,0,207599566,0.02786,0.1306,0.1377,0.0002527,0.0005627,0.1309,4.768e-06,2.861e-06,0.08984,0.0001431,1.073,0.001425,0,0,0.03241
128700000000,129000000000,3769734721,0,207599566,0.02805,0.1306,0.1377,0.0002527,0.0005636,0.1309,1.144e-05,2.861e-06,0.08435,0.001715,1.06,0.001351,0,0,0.02448
129000000000,129300000000,3769734721,0,207599566,0.03067,0.1306,0.1377,0.0002527,0.0005636,0.1309,3.815e-06,2.861e-06,0.0802,7.153e-05,1.074,0.00139,0,0,0.03534
129300000000,129600000000,3769734721,0,207599566,0.03485,0.1306,0.1377,0.0002527,0.0005636,0.1309,1.049e-05,2.861e-06,0.09583,0.0009995,1.054,0.001343,0,0,0.05145
129600000000,129900000000,3769734721,0,207599566,0.03735,0.1309,0.1377,0.0002527,0.0005636,0.1309,6.676e-06,2.861e-06,0.1154,0.0004282,1.062,0.001351,0,0,0.0351
129900000000,130200000000,3769734721,0,207599566,0.03931,0.1309,0.1377,0.0002527,0.0005636,0.1309,9.537e-06,2.861e-06,0.09888,0.0007858,1.067,0.001353,0,0,0.03271
130200000000,130500000000,3769734721,0,207599566,0.04053,0.1309,0.1377,0.0002527,0.0005636,0.1309,9.537e-06,2.861e-06,0.09766,0.0006428,1.086,0.001412,0,0,0.01791
130500000000,130800000000,3769734721,0,207599566,0.04376,0.1309,0.1377,0.0002527,0.0005636,0.1309,1.431e-05,2.861e-06,0.1218,0.001499,1.075,0.001381,0,0,0.06085
130800000000,131100000000,3769734721,0,207599566,0.04761,0.1309,0.1377,0.0002537,0.0005636,0.1309,1.526e-05,2.861e-06,0.137,0.001143,1.069,0.001368,0,0,0.0365
141000000000,141300000000,3769734721,0,207599566,0.1013,0.1313,0.1377,0.0002613,0.0005713,0.1316,8.583e-06,2.861e-06,0.2151,0.0002861,1.105,0.001461,0,0,0.0929
141300000000,141600000000,3769734721,0,207599566,0.1023,0.1313,0.1377,0.0002613,0.0005722,0.1313,2.003e-05,2.861e-06,0.2153,0.001286,1.093,0.001444,0,0,0.09302
141600000000,141900000000,3769734721,0,207599566,0.1064,0.1313,0.1377,0.0002623,0.0005732,0.1316,1.049e-05,2.861e-06,0.2759,0.0009289,1.101,0.001454,0,0,0.08704
141900000000,142200000000,3769734721,0,207599566,0.1091,0.1313,0.1377,0.0002613,0.0005722,0.1313,1.526e-05,2.861e-06,0.2358,0.0009995,1.098,0.001458,0,0,0.1174
142200000000,142500000000,3769734721,0,207599566,0.1075,0.1313,0.1377,0.0002613,0.0005713,0.1316,1.526e-05,2.861e-06,0.1873,0.0008574,1.106,0.001465,0,0,0.09888
142500000000,142800000000,3769734721,0,207599566,0.1095,0.1313,0.1377,0.0002613,0.0005722,0.1316,1.24e-05,2.861e-06,0.2234,0.0009289,1.106,0.001469,0,0,0.07251
142800000000,143100000000,3769734721,0,207599566,0.105,0.1313,0.1377,0.0002623,0.0005722,0.1313,1.907e-05,2.861e-06,0.1929,0.001143,1.113,0.001485,0,0,0.09778
143100000000,143400000000,3769734721,0,207599566,0.1058,0.1313,0.1377,0.0002623,0.0005722,0.1316,1.335e-05,2.861e-06,0.2017,0.001429,1.105,0.001465,0,0,0.1382
143400000000,143700000000,3769734721,0,207599566,0.1088,0.1313,0.1377,0.0002632,0.0005741,0.1316,1.526e-05,2.861e-06,0.2017,0.001072,1.109,0.001476,0,0,0.09656
143700000000,144000000000,3769734721,0,207599566,0.1073,0.1313,0.1377,0.0002642,0.0005751,0.1316,1.24e-05,2.861e-06,0.1863,0.001143,1.106,0.001479,0,0,0.1012
144000000000,144300000000,3769734721,0,207599566,0.1094,0.1313,0.1377,0.0002651,0.000576,0.1316,1.24e-05,2.861e-06,0.2227,0.0009289,1.106,0.001473,0,0,0.1094
144300000000,144600000000,3769734721,0,207599566,0.1086,0.1313,0.1377,0.0002651,0.000576,0.1313,7.629e-06,2.861e-06,0.2217,0.0002861,1.103,0.00146,0,0,0.1068
144600000000,144900000000,3769734721,0,207599566,0.1047,0.1313,0.1377,0.0002661,0.000576,0.1313,1.621e-05,2.861e-06,0.2378,0.001858,1.109,0.001496,0,0,0.09338
144900000000,145200000000,3769734721,0,207599566,0.1051,0.1313,0.1377,0.0002651,0.0005751,0.1313,1.526e-05,2.861e-06,0.23,0.0007858,1.107,0.001479,0,0,0.1365
145200000000,145500000000,3769734721,0,207599566,0.1058,0.1313,0.1377,0.0002642,0.0005751,0.1316,1.049e-05,2.861e-06,0.2051,0.0005713,1.114,0.001475,0,0,0.06616
145500000000,145800000000,3769734721,0,207599566,0.1029,0.1313,0.1377,0.0002642,0.0005741,0.1313,1.621e-05,2.861e-06,0.217,0.001499,1.103,0.001456,0,0,0.1636
145800000000,146100000000,3769734721,0,207599566,0.104,0.1313,0.1377,0.0002642,0.0005751,0.1313,7.629e-06,2.861e-06,0.229,0.0004282,1.099,0.001448,0,0,0.1089
151200000000,151500000000,3769734721,0,207599566,0.09863,0.1313,0.1377,0.0002699,0.0005808,0.1313,7.629e-06,2.861e-06,0.1997,0.0006428,1.115,0.001476,0,0,0.09692
151500000000,151800000000,3769734721,0,207599566,0.1013,0.1313,0.1377,0.0002699,0.0005798,0.1316,1.24e-05,2.861e-06,0.2056,0.0009995,1.115,0.001474,0,0,0.07153
151800000000,152100000000,3769734721,0,207599566,0.104,0.1313,0.1377,0.0002699,0.0005808,0.1313,7.629e-06,2.861e-06,0.2205,0.0003567,1.122,0.00149,0,0,0.0708
152100000000,152400000000,3769734721,0,207599566,0.1033,0.1313,0.1377,0.0002708,0.0005808,0.1316,1.24e-05,2.861e-06,0.2385,0.0007858,1.112,0.001484,0,0,0.08984
152400000000,152700000000,3769734721,0,207599566,0.1028,0.1313,0.1377,0.0002708,0.0005817,0.1316,1.335e-05,2.861e-06,0.2383,0.0007143,1.116,0.001481,0,0,0.09705
152700000000,153000000000,3769734721,0,207599566,0.1088,0.1313,0.1377,0.0002718,0.0005817,0.1316,1.049e-05,2.861e-06,0.2549,0.0008574,1.11,0.001462,0,0,0.08826
153000000000,153300000000,3769734721,0,207599566,0.105,0.1313,0.1377,0.0002728,0.0005827,0.1316,1.335e-05,2.861e-06,0.2578,0.001143,1.112,0.001467,0,0,0.07849
153300000000,153600000000,3769734721,0,207599566,0.1063,0.1313,0.1377,0.0002728,0.0005827,0.1313,1.335e-05,2.861e-06,0.2222,0.001572,1.115,0.001473,0,0,0.1169
153600000000,153900000000,3769734721,0,207599566,0.1018,0.1313,0.1377,0.0002718,0.0005827,0.1316,1.907e-05,2.861e-06,0.2424,0.001858,1.104,0.00145,0,0,0.1543
153900000000,154200000000,3769734721,0,207599566,0.1014,0.1313,0.1377,0.0002718,0.0005827,0.1316,1.144e-05,2.861e-06,0.175,0.0007858,1.095,0.001432,0,0,0.1655
154200000000,154500000000,3769734721,0,207599566,0.106,0.1313,0.1377,0.0002728,0.0005827,0.1316,1.335e-05,2.861e-06,0.2217,0.001858,1.103,0.001453,0,0,0.09436
154500000000,154800000000,3769734721,0,207599566,0.1011,0.1313,0.1377,0.0002728,0.0005836,0.1313,1.049e-05,2.861e-06,0.2166,0.0004997,1.103,0.001446,0,0,0.1105
154800000000,155100000000,3769734721,0,207599566,0.1105,0.1313,0.1377,0.0002737,0.0005836,0.1316,1.144e-05,2.861e-06,0.2573,0.0007143,1.108,0.00147,0,0,0.09705
155100000000,155400000000,3769734721,0,207599566,0.1042,0.1313,0.1377,0.0002737,0.0005846,0.1316,6.676e-06,2.861e-06,0.2073,0.0002146,1.11,0.001461,0,0,0.06494
155400000000,155700000000,3769734721,0,207599566,0.106,0.1313,0.1377,0.0002747,0.0005846,0.1316,1.907e-05,2.861e-06,0.1951,0.002285,1.102,0.001451,0,0,0.09912
155700000000,156000000000,3769734721,0,207599566,0.09973,0.1313,0.1377,0.0002747,0.0005856,0.1316,1.335e-05,2.861e-06,0.199,0.0009289,1.113,0.001465,0,0,0.1041
161100000000,161400000000,3769734721,0,207599566,0.1136,0.1313,0.1377,0.0002823,0.0005932,0.1313,6.676e-06,2.861e-06,0.1978,0.0004997,1.105,0.001451,0,0,0.09509
161400000000,161700000000,3769734721,0,207599566,0.1113,0.1313,0.1377,0.0002823,0.0005932,0.1313,7.629e-06,2.861e-06,0.2063,0.0004282,1.095,0.001442,0,0,0.1658
161700000000,162000000000,3769734721,0,207599566,0.11,0.1313,0.1377,0.0002823,0.0005922,0.1313,1.24e-05,2.861e-06,0.2405,0.001499,1.101,0.001446,0,0,0.1689
162000000000,162300000000,3769734721,0,207599566,0.1068,0.1313,0.1377,0.0002823,0.0005922,0.1313,5.722e-06,2.861e-06,0.2034,0.0002146,1.109,0.001452,0,0,0.09399
162300000000,162600000000,3769734721,0,207599566,0.1085,0.1313,0.1377,0.0002823,0.0005932,0.1316,1.812e-05,2.861e-06,0.2246,0.001715,1.109,0.00146,0,0,0.07166
162600000000,162900000000,3769734721,0,207599566,0.1123,0.1313,0.1377,0.0002832,0.0005932,0.1316,2.098e-05,2.861e-06,0.1978,0.001715,1.108,0.001472,0,0,0.05725
162900000000,163200000000,3769734721,0,207599566,0.1061,0.1313,0.1377,0.0002832,0.0005941,0.1313,1.621e-05,2.861e-06,0.1914,0.0008574,1.106,0.00146,0,0,0.126
163200000000,163500000000,3769734721,0,207599566,0.105,0.1313,0.1377,0.0002842,0.0005941,0.1316,1.24e-05,2.861e-06,0.2075,0.0009289,1.105,0.00145,0,0,0.134
163500000000,163800000000,3769734721,0,207599566,0.1058,0.1313,0.1377,0.0002842,0.0005941,0.1316,2.003e-05,2.861e-06,0.2356,0.001499,1.112,0.001459,0,0,0.07385
163800000000,164100000000,3769734721,0,207599566,0.1099,0.1313,0.1377,0.0002832,0.0005941,0.1316,1.431e-05,2.861e-06,0.1902,0.0007858,1.101,0.001439,0,0,0.1318
164100000000,164400000000,3769734721,0,207599566,0.1101,0.1313,0.1377,0.0002832,0.0005941,0.1316,1.907e-05,2.861e-06,0.2034,0.0009995,1.101,0.001447,0,0,0.1528
164400000000,164700000000,3769734721,0,207599566,0.1056,0.1313,0.1377,0.0002823,0.0005922,0.1316,1.907e-05,2.861e-06,0.1951,0.002857,1.1,0.001438,0,0,0.1948
164700000000,165000000000,3769734721,0,207599566,0.1017,0.1313,0.1377,0.0002813,0.0005913,0.1316,7.629e-06,2.861e-06,0.1875,0.0004282,1.106,0.001444,0,0,0.1384
165000000000,165300000000,3769734721,0,207599566,0.1062,0.1313,0.1377,0.0002813,0.0005922,0.1316,1.144e-05,2.861e-06,0.2356,0.0009289,1.093,0.001423,0,0,0.1646
165300000000,165600000000,3769734721,0,207599566,0.1021,0.1313,0.1377,0.0002823,0.0005922,0.1313,1.24e-05,2.861e-06,0.2007,0.001143,1.098,0.001428,0,0,0.111
165600000000,165900000000,3769734721,0,207599566,0.1008,0.1313,0.1377,0.0002823,0.0005922,0.1316,1.049e-05,2.861e-06,0.2034,0.0003567,1.099,0.001433,0,0,0.09106
165900000000,166200000000,3769734721,0,207599566,0.1017,0.1313,0.1377,0.0002823,0.0005932,0.1316,2.003e-05,2.861e-06,0.1985,0.001215,1.112,0.00145,0,0,0.1008
166200000000,166500000000,3769734721,0,207599566,0.0979,0.1313,0.1377,0.0002832,0.0005932,0.1316,1.431e-05,2.861e-06,0.2341,0.0006428,1.126,0.001485,0,0,0.1208
166500000000,166800000000,3769734721,0,207599566,0.09558,0.1313,0.1377,0.0002832,0.0005941,0.1313,1.431e-05,2.861e-06,0.1973,0.0009289,1.122,0.001459,0,0,0.08643
166800000000,167100000000,3769734721,0,207599566,0.09448,0.1313,0.1377,0.0002756,0.0005856,0.1313,1.621e-05,2.861e-06,0.1895,0.001358,1.105,0.001432,0,0,0.03467
167100000000,167400000000,3769734721,0,207599566,0.09656,0.1313,0.1377,0.000268,0.0005779,0.1313,8.583e-06,2.861e-06,0.1804,0.0002146,1.126,0.00146,0,0,0.09644
167400000000,167700000000,3769734721,0,207599566,0.09631,0.1313,0.1377,0.000268,0.0005779,0.1316,7.629e-06,2.861e-06,0.2603,0.0004997,1.103,0.001417,0,0,0.1372
167700000000,168000000000,3769734721,0,207599566,0.09485,0.1313,0.1377,0.000268,0.0005789,0.1313,9.537e-06,2.861e-06,0.1987,0.0003567,1.104,0.001434,0,0,0.1139
168000000000,168300000000,3769734721,0,207599566,0.09363,0.1313,0.1377,0.0002689,0.0005798,0.1313,1.431e-05,2.861e-06,0.1931,0.0009995,1.114,0.001449,0,0,0.06677
168300000000,168600000000,3769734721,0,207599566,0.09436,0.1313,0.1377,0.0002689,0.0005798,0.1313,1.526e-05,2.861e-06,0.1934,0.0009995,1.124,0.001461,0,0,0.1178
168600000000,168900000000,3769734721,0,207599566,0.09521,0.1313,0.1377,0.0002699,0.0005798,0.1313,2.575e-05,2.861e-06,0.2039,0.001429,1.114,0.001459,0,0,0.134
168900000000,169200000000,3769734721,0,207599566,0.08936,0.1313,0.1377,0.0002699,0.0005798,0.1313,1.812e-05,2.861e-06,0.2036,0.002499,1.113,0.001447,0,0,0.1489
169200000000,169500000000,3769734721,0,207599566,0.09094,0.1313,0.1377,0.0002699,0.0005798,0.1313,1.24e-05,2.861e-06,0.1714,0.001072,1.11,0.001432,0,0,0.06775
169500000000,169800000000,3769734721,0,207599566,0.0874,0.1313,0.1377,0.0002699,0.0005808,0.1313,9.537e-06,2.861e-06,0.1499,0.0007858,1.118,0.001458,0,0,0.146
169800000000,170100000000,3769734721,0,207599566,0.08936,0.1313,0.1377,0.0002708,0.0005808,0.1313,9.537e-06,2.861e-06,0.1855,0.0009289,1.115,0.001441,0,0,0.08276
170100000000,170400000000,3769734721,0,207599566,0.08679,0.1313,0.1377,0.0002708,0.0005817,0.1313,1.431e-05,2.861e-06,0.1836,0.001215,1.109,0.00142,0,0,0.05695
170400000000,170700000000,3769734721,0,207599566,0.08533,0.1311,0.1377,0.0002718,0.0005817,0.1313,8.583e-06,2.861e-06,0.1919,0.0005713,1.1,0.001405,0,0,0.05969
170700000000,171000000000,3769734721,0,207599566,0.07959,0.1313,0.1377,0.0002718,0.0005827,0.1313,8.583e-06,2.861e-06,0.1851,0.0002861,1.119,0.001433,0,0,0.1165
171000000000,171300000000,3769734721,0,207599566,0.0769,0.1313,0.1377,0.0002728,0.0005827,0.1316,1.907e-05,2.861e-06,0.1731,0.001642,1.106,0.001413,0,0,0.07568
171300000000,171600000000,3769734721,0,207599566,0.08142,0.1313,0.1377,0.0002728,0.0005827,0.1316,1.335e-05,2.861e-06,0.1794,0.0007858,1.11,0.001416,0,0,0.07385
171600000000,171900000000,3769734721,0,207599566,0.08228,0.1313,0.1377,0.0002728,0.0005836,0.1313,9.537e-06,2.861e-06,0.1794,0.0008574,1.106,0.001423,0,0,0.05988
171900000000,172200000000,3769734721,0,207599566,0.07922,0.1313,0.1377,0.0002737,0.0005836,0.1313,1.049e-05,2.861e-06,0.1567,0.001286,1.121,0.001447,0,0,0.1279
172200000000,172500000000,3769734721,0,207599566,0.07788,0.1313,0.1377,0.0002737,0.0005846,0.1316,1.526e-05,2.861e-06,0.188,0.001143,1.117,0.001439,0,0,0.03564
172500000000,172800000000,3769734721,0,207599566,0.07666,0.1313,0.1377,0.0002756,0.0005865,0.1316,1.717e-05,2.861e-06,0.178,0.001429,1.114,0.001438,0,0,0.03967
172800000000,173100000000,3769734721,0,207599566,0.0769,0.1313,0.1377,0.0002766,0.0005875,0.1316,1.526e-05,2.861e-06,0.1606,0.002144,1.124,0.001457,0,0,0.08423
173100000000,173400000000,3769734721,0,207599566,0.0769,0.1313,0.1377,0.0002775,0.0005875,0.1316,6.676e-06,2.861e-06,0.156,0.0002146,1.12,0.001453,0,0,0.0517
174000000000,174300000000,3769734721,0,207599566,0.07458,0.1313,0.1377,0.0002785,0.0005894,0.1313,8.583e-06,2.861e-06,0.1912,0.0004997,1.124,0.00146,0,0,0.103
174300000000,174600000000,3769734721,0,207599566,0.0752,0.1311,0.1377,0.0002766,0.0005875,0.1313,1.24e-05,2.861e-06,0.1721,0.001215,1.119,0.001458,0,0,0.09827
175500000000,175800000000,3769734721,0,207599566,0.07825,0.1313,0.1377,0.0002642,0.0005751,0.1316,1.144e-05,2.861e-06,0.1819,0.0006428,1.105,0.001439,0,0,0.1089
175800000000,176100000000,3769734721,0,207599566,0.0769,0.1313,0.1377,0.0002632,0.0005741,0.1313,8.583e-06,2.861e-06,0.1758,0.0005713,1.111,0.001455,0,0,0.1075
186300000000,186600000000,3769734721,0,207599566,0.07068,0.1313,0.1377,0.0002613,0.0005722,0.1313,7.629e-06,2.861e-06,0.1428,0.0002146,1.088,0.001414,0,0,0.05212
186600000000,186900000000,3769734721,0,207599566,0.0675,0.1313,0.1377,0.0002623,0.0005722,0.1313,1.431e-05,2.861e-06,0.1733,0.001429,1.075,0.001396,0,0,0.04486
186900000000,187200000000,3769734721,0,207599566,0.06421,0.1313,0.1377,0.0002623,0.0005732,0.1313,6.676e-06,2.861e-06,0.1562,0.0002861,1.085,0.001416,0,0,0.05328
187200000000,187500000000,3769734721,0,207599566,0.06812,0.1313,0.1377,0.0002632,0.0005732,0.1316,1.526e-05,2.861e-06,0.1724,0.0009995,1.073,0.001383,0,0,0.04773
187500000000,187800000000,3769734721,0,207599566,0.06189,0.1313,0.1377,0.0002632,0.0005732,0.1313,1.24e-05,2.861e-06,0.1475,0.0009995,1.085,0.001409,0,0,0.03632
187800000000,188100000000,3769734721,0,207599566,0.05591,0.1311,0.1377,0.0002632,0.0005741,0.1313,1.812e-05,2.861e-06,0.1597,0.002857,1.077,0.001394,0,0,0.03961
188100000000,188400000000,3769734721,0,207599566,0.06299,0.1313,0.1377,0.0002642,0.0005741,0.1313,7.629e-06,2.861e-06,0.2344,0.0003567,1.073,0.001382,0,0,0.0697
188400000000,188700000000,3769734721,0,207599566,0.05487,0.1311,0.1377,0.0002642,0.0005741,0.1313,1.335e-05,2.861e-06,0.1396,0.001215,1.076,0.001404,0,0,0.06909
188700000000,189000000000,3769734721,0,207599566,0.05188,0.1311,0.1377,0.0002642,0.0005751,0.1313,1.144e-05,2.861e-06,0.1465,0.0007858,1.081,0.001389,0,0,0.07471
189000000000,189300000000,3769734721,0,207599566,0.05029,0.1311,0.1377,0.0002642,0.0005751,0.1313,1.049e-05,2.861e-06,0.1675,0.0004997,1.065,0.001373,0,0,0.0741
189300000000,189600000000,3769734721,0,207599566,0.05237,0.1313,0.1377,0.0002651,0.0005751,0.1313,9.537e-06,2.861e-06,0.1313,0.0005713,1.066,0.001377,0,0,0.02713
189600000000,189900000000,3769734721,0,207599566,0.04755,0.1311,0.1377,0.0002651,0.0005751,0.1313,6.676e-06,2.861e-06,0.1234,0.0004282,1.083,0.001416,0,0,0.02783
189900000000,190200000000,3769734721,0,207599566,0.04712,0.1311,0.1377,0.0002651,0.000576,0.1313,8.583e-06,2.861e-06,0.1306,0.0004997,1.066,0.001369,0,0,0.09924
190200000000,190500000000,3769734721,0,207599566,0.04291,0.1311,0.1377,0.0002661,0.000576,0.1313,1.621e-05,2.861e-06,0.1174,0.002857,1.082,0.001404,0,0,0.03632
190500000000,190800000000,3769734721,0,207599566,0.03986,0.1311,0.1377,0.0002661,0.000576,0.1311,4.768e-06,2.861e-06,0.1399,0.0001431,1.074,0.001399,0,0,0.0351
190800000000,191100000000,3769734721,0,207599566,0.03894,0.1311,0.1377,0.0002661,0.000576,0.1311,8.583e-06,2.861e-06,0.1331,0.0009289,1.069,0.001397,0,0,0.02805
191100000000,191400000000,3769734721,0,207599566,0.03925,0.1311,0.1377,0.0002661,0.000577,0.1311,1.24e-05,2.861e-06,0.1282,0.0007143,1.067,0.00139,0,0,0.03113
191400000000,191700000000,3769734721,0,207599566,0.03693,0.1311,0.1377,0.0002661,0.000577,0.1311,5.722e-06,2.861e-06,0.1235,0.0002146,1.062,0.001373,0,0,0.03577
191700000000,192000000000,3769734721,0,207599566,0.03589,0.1311,0.1377,0.000267,0.000577,0.1313,6.676e-06,2.861e-06,0.09949,0.0002861,1.069,0.001413,0,0,0.02014
192000000000,192300000000,3769734721,0,207599566,0.03351,0.1311,0.1377,0.000267,0.000577,0.1311,3.815e-06,2.861e-06,0.1152,0.0001431,1.066,0.0014,0,0,0.1029
192300000000,192600000000,3769734721,0,207599566,0.0332,0.1309,0.1377,0.000267,0.000577,0.1311,4.768e-06,2.861e-06,0.1127,0.0002861,1.074,0.001403,0,0,0.03204
192600000000,192900000000,3769734721,0,207599566,0.02972,0.1309,0.1377,0.000267,0.0005779,0.1311,9.537e-06,2.861e-06,0.09839,0.001572,1.074,0.001422,0,0,0.03735
192900000000,193200000000,3769734721,0,207599566,0.02771,0.1309,0.1377,0.000267,0.0005779,0.1311,4.768e-06,2.861e-06,0.07727,0.0001431,1.08,0.001422,0,0,0.01085
193200000000,193500000000,3769734721,0,207599566,0.02936,0.1309,0.1377,0.000268,0.0005779,0.1311,8.583e-06,2.861e-06,0.0907,0.0008574,1.059,0.001378,0,0,0.05756
193500000000,193800000000,3769734721,0,207599566,0.0285,0.1309,0.1377,0.000268,0.0005779,0.1311,4.768e-06,2.861e-06,0.1033,0.0001431,1.075,0.001396,0,0,0.02658
193800000000,194100000000,3769734721,0,207599566,0.02817,0.1309,0.1377,0.000268,0.0005789,0.1311,7.629e-06,2.861e-06,0.1158,0.001072,1.061,0.00139,0,0,0.04974
194100000000,194400000000,3769734721,0,207599566,0.02765,0.1309,0.1377,0.000268,0.0005789,0.1311,4.768e-06,2.861e-06,0.08875,0.0001431,1.05,0.001377,0,0,0.02228
194400000000,194700000000,3769734721,0,207599566,0.0275,0.1309,0.1377,0.0002689,0.0005789,0.1311,5.722e-06,2.861e-06,0.09277,0.0002861,1.027,0.001308,0,0,0.01292
194700000000,195000000000,3769734721,0,207599566,0.02325,0.1309,0.1377,0.0002689,0.0005789,0.1309,3.815e-06,2.861e-06,0.1078,0.0002146,1.068,0.001392,0,0,0.06409
195000000000,195300000000,3769734721,0,207599566,0.02286,0.1309,0.1377,0.0002689,0.0005789,0.1311,4.768e-06,2.861e-06,0.07178,0.0002146,1.082,0.001426,0,0,0.01161
195300000000,195600000000,3769734721,0,207599566,0.02362,0.1309,0.1377,0.0002689,0.0005798,0.1311,5.722e-06,2.861e-06,0.08313,0.0006428,1.057,0.001354,0,0,0.06482
195600000000,195900000000,3769734721,0,207599566,0.02402,0.1309,0.1377,0.0002689,0.0005798,0.1311,3.815e-06,2.861e-06,0.09229,0.0002146,1.052,0.001365,0,0,0.01476
195900000000,196200000000,3769734721,0,207599566,0.02118,0.1309,0.1377,0.0002699,0.0005798,0.1311,5.722e-06,2.861e-06,0.1031,0.0007858,1.059,0.001396,0,0,0.01453
201300000000,201600000000,3769734721,0,207599566,0.01057,0.1306,0.1377,0.0002623,0.0005722,0.1309,1.049e-05,2.861e-06,0.07361,0.002213,1.041,0.001369,0,0,0.006203
201600000000,201900000000,3769734721,0,207599566,0.01096,0.1306,0.1377,0.0002623,0.0005722,0.1309,4.768e-06,2.861e-06,0.05988,0.0002146,1.059,0.001423,0,0,0.02274
201900000000,202200000000,3769734721,0,207599566,0.01036,0.1309,0.1377,0.0002623,0.0005732,0.1311,3.815e-06,2.861e-06,0.05615,0.0002146,1.029,0.00137,0,0,0.01248
202200000000,202500000000,3769734721,0,207599566,0.01025,0.1306,0.1377,0.0002623,0.0005732,0.1309,2.861e-06,2.861e-06,0.05591,7.153e-05,1.026,0.001348,0,0,0.02936
202500000000,202800000000,3769734721,0,207599566,0.009369,0.1306,0.1377,0.0002623,0.0005732,0.1309,4.768e-06,2.861e-06,0.05548,0.0002146,1.058,0.0014,0,0,0.01599
202800000000,203100000000,3769734721,0,207599566,0.009003,0.1306,0.1377,0.0002632,0.0005732,0.1309,4.768e-06,2.861e-06,0.04803,0.0002146,1.058,0.001443,0,0,0.02197
203100000000,203400000000,3769734721,0,207599566,0.009491,0.1306,0.1377,0.0002632,0.0005732,0.1309,2.861e-06,2.861e-06,0.04388,0.0001431,1.046,0.001389,0,0,0.0005379
203400000000,203700000000,3769734721,0,207599566,0.009384,0.1306,0.1377,0.0002632,0.0005732,0.1306,1.907e-06,2.861e-06,0.05243,0.0001431,1.02,0.001329,0,0,0.003174
203700000000,204000000000,3769734721,0,207599566,0.00885,0.1306,0.1377,0.0002632,0.0005732,0.1306,9.537e-07,2.861e-06,0.07349,7.153e-05,1.026,0.001359,0,0,0.01558
204000000000,204300000000,3769734721,0,207599566,0.008545,0.1306,0.1377,0.0002632,0.0005741,0.1306,1.907e-06,2.861e-06,0.08264,7.153e-05,1.051,0.001404,0,0,0.005928
204300000000,204600000000,3769734721,0,207599566,0.008652,0.1306,0.1377,0.0002632,0.0005741,0.1309,3.815e-06,2.861e-06,0.08923,0.0001431,1.032,0.001381,0,0,0.01361
204600000000,204900000000,3769734721,0,207599566,0.009537,0.1306,0.1377,0.0002632,0.0005741,0.1306,2.861e-06,2.861e-06,0.07336,7.153e-05,1.051,0.001382,0,0,0.01303
204900000000,205200000000,3769734721,0,207599566,0.007812,0.1306,0.1377,0.0002632,0.0005741,0.1306,4.768e-06,2.861e-06,0.07214,0.0008574,1.05,0.001396,0,0,0.001713
205200000000,205500000000,3769734721,0,207599566,0.008545,0.1306,0.1377,0.0002642,0.0005741,0.1309,2.861e-06,2.861e-06,0.09314,7.153e-05,1.034,0.001362,0,0,0.009659
205500000000,205800000000,3769734721,0,207599566,0.007889,0.1306,0.1377,0.0002642,0.0005741,0.1306,3.815e-06,2.861e-06,0.05951,0.0002146,1.034,0.001352,0,0,0.02631
205800000000,206100000000,3769734721,0,207599566,0.007843,0.1306,0.1377,0.0002642,0.0005741,0.1306,5.722e-06,2.861e-06,0.06836,0.0006428,1.055,0.001417,0,0,0.005882
206100000000,206400000000,3769734721,0,207599566,0.009369,0.1306,0.1377,0.0002642,0.0005741,0.1311,4.768e-06,2.861e-06,0.05408,0.0001431,1.018,0.001337,0,0,0.003487
206400000000,206700000000,3769734721,0,207599566,0.007996,0.1306,0.1377,0.0002642,0.0005751,0.1306,1.907e-06,2.861e-06,0.05145,7.153e-05,1.049,0.001388,0,0,0.004776
206700000000,207000000000,3769734721,0,207599566,0.008469,0.1306,0.1377,0.0002642,0.0005751,0.1306,1.907e-06,2.861e-06,0.06445,7.153e-05,1.057,0.001389,0,0,0.001116
207000000000,207300000000,3769734721,0,207599566,0.00795,0.1306,0.1377,0.0002642,0.0005751,0.1306,3.815e-06,2.861e-06,0.07043,7.153e-05,1.068,0.001445,0,0,0.002281
207300000000,207600000000,3769734721,0,207599566,0.00885,0.1306,0.1377,0.0002642,0.0005751,0.1309,2.861e-06,2.861e-06,0.08203,7.153e-05,1.03,0.001345,0,0,0.0005579
207600000000,207900000000,3769734721,0,207599566,0.009171,0.1306,0.1377,0.0002651,0.0005751,0.1306,2.861e-06,2.861e-06,0.05145,0.0001431,1.058,0.001428,0,0,0.01636
207900000000,208200000000,3769734721,0,207599566,0.0106,0.1306,0.1377,0.0002651,0.0005751,0.1306,8.583e-06,2.861e-06,0.08337,0.0009289,1.032,0.001371,0,0,0.01828
208200000000,208500000000,3769734721,0,207599566,0.00946,0.1306,0.1377,0.0002651,0.0005751,0.1306,2.861e-06,2.861e-06,0.07593,0.0002861,1.067,0.001438,0,0,0.01436
208500000000,208800000000,3769734721,0,207599566,0.008957,0.1306,0.1377,0.0002651,0.0005751,0.1306,1.907e-06,2.861e-06,0.07581,0.0001431,1.085,0.001453,0,0,0.03265
208800000000,209100000000,3769734721,0,207599566,0.01042,0.1306,0.1377,0.0002651,0.000576,0.1306,1.907e-06,2.861e-06,0.05493,7.153e-05,1.056,0.001398,0,0,0.0139
209100000000,209400000000,3769734721,0,207599566,0.0107,0.1306,0.1377,0.0002642,0.0005751,0.1306,2.861e-06,2.861e-06,0.07227,0.0001431,1.031,0.001334,0,0,0.006523
209400000000,209700000000,3769734721,0,207599566,0.01079,0.1306,0.1377,0.0002623,0.0005732,0.1306,6.676e-06,2.861e-06,0.06409,0.001143,1.074,0.001404,0,0,0.009064
209700000000,210000000000,3769734721,0,207599566,0.0106,0.1306,0.1377,0.0002623,0.0005732,0.1306,2.861e-06,2.861e-06,0.0592,0.0001431,1.052,0.00139,0,0,0.006897
210000000000,210300000000,3769734721,0,207599566,0.01097,0.1306,0.1377,0.0002632,0.0005732,0.1306,4.768e-06,2.861e-06,0.07239,0.0001431,1.036,0.001319,0,0,0.001318
210300000000,210600000000,3769734721,0,207599566,0.01143,0.1306,0.1377,0.0002632,0.0005732,0.1306,2.861e-06,2.861e-06,0.04651,0.0001431,1.061,0.001391,0,0,0.005836
210600000000,210900000000,3769734721,0,207599566,0.01282,0.1306,0.1377,0.0002632,0.0005732,0.1306,4.768e-06,2.861e-06,0.08398,0.0006428,1.049,0.001394,0,0,0.01501
210900000000,211200000000,3769734721,0,207599566,0.01315,0.1306,0.1377,0.0002632,0.0005732,0.1306,3.815e-06,2.861e-06,0.07227,0.0003567,1.057,0.0014,0,0,0.02029
211200000000,211500000000,3769734721,0,207599566,0.01611,0.1306,0.1377,0.0002632,0.0005741,0.1306,2.861e-06,2.861e-06,0.07422,7.153e-05,1.022,0.001261,0,0,0.03613
211500000000,211800000000,3769734721,0,207599566,0.01706,0.1306,0.1377,0.0002632,0.0005741,0.1306,9.537e-06,2.861e-06,0.07385,0.001286,1.062,0.001309,0,0,0.008652
211800000000,212100000000,3769734721,0,207599566,0.01578,0.1306,0.1377,0.0002632,0.0005741,0.1306,4.768e-06,2.861e-06,0.06116,0.0005713,1.092,0.001437,0,0,0.02328
212100000000,212400000000,3769734721,0,207599566,0.01608,0.1306,0.1377,0.0002632,0.0005741,0.1306,3.815e-06,2.861e-06,0.0592,0.0008574,1.082,0.001418,0,0,0.008835
212400000000,212700000000,3769734721,0,207599566,0.01645,0.1306,0.1377,0.0002642,0.0005741,0.1306,5.722e-06,2.861e-06,0.05853,0.0009995,1.063,0.001403,0,0,0.01176
212700000000,213000000000,3769734721,0,207599566,0.01895,0.1306,0.1377,0.0002642,0.0005741,0.1306,7.629e-06,2.861e-06,0.07654,0.0009995,1.076,0.001447,0,0,0.009888
213000000000,213300000000,3769734721,0,207599566,0.01978,0.1306,0.1377,0.0002642,0.0005751,0.1306,4.768e-06,2.861e-06,0.09656,0.0002146,1.078,0.001408,0,0,0.01593
213300000000,213600000000,3769734721,0,207599566,0.02023,0.1306,0.1377,0.0002642,0.0005751,0.1309,4.768e-06,2.861e-06,0.1058,0.0002146,1.083,0.001426,0,0,0.009537
213600000000,213900000000,3769734721,0,207599566,0.02261,0.1306,0.1377,0.0002642,0.0005751,0.1306,4.768e-06,2.861e-06,0.08289,0.0002861,1.092,0.001449,0,0,0.0239
213900000000,214200000000,3769734721,0,207599566,0.02271,0.1306,0.1377,0.0002651,0.0005751,0.1309,6.676e-06,2.861e-06,0.09436,0.0004282,1.088,0.001425,0,0,0.009033
214200000000,214500000000,3769734721,0,207599566,0.02573,0.1306,0.1377,0.0002642,0.0005751,0.1309,1.24e-05,2.861e-06,0.07739,0.002144,1.083,0.001406,0,0,0.04089
214500000000,214800000000,3769734721,0,207599566,0.02676,0.1306,0.1377,0.0002623,0.0005732,0.1309,4.768e-06,2.861e-06,0.08069,0.0002146,1.088,0.001407,0,0,0.02252
214800000000,215100000000,3769734721,0,207599566,0.02893,0.1306,0.1377,0.0002623,0.0005732,0.1309,4.768e-06,2.861e-06,0.1072,0.0002861,1.083,0.001406,0,0,0.06531
215100000000,215400000000,3769734721,0,207599566,0.02972,0.1306,0.1377,0.0002632,0.0005732,0.1309,7.629e-06,2.861e-06,0.09814,0.0003567,1.087,0.001425,0,0,0.02588
215400000000,215700000000,3769734721,0,207599566,0.03253,0.1306,0.1377,0.0002632,0.0005732,0.1309,9.537e-06,2.861e-06,0.09546,0.0006428,1.063,0.001382,0,0,0.06909
215700000000,216000000000,3769734721,0,207599566,0.03497,0.1306,0.1377,0.0002632,0.0005741,0.1309,5.722e-06,2.861e-06,0.1064,0.0001431,1.077,0.001394,0,0,0.02701
216000000000,216300000000,3769734721,0,207599566,0.03571,0.1309,0.1377,0.0002632,0.0005741,0.1309,6.676e-06,2.861e-06,0.1049,0.0002146,1.089,0.001417,0,0,0.04523
221100000000,221400000000,3769734721,0,207599566,0.07544,0.1311,0.1377,0.0002623,0.0005732,0.1311,1.526e-05,2.861e-06,0.1726,0.001286,1.1,0.001418,0,0,0.04828
221400000000,221700000000,3769734721,0,207599566,0.07544,0.1311,0.1377,0.0002632,0.0005732,0.1313,9.537e-06,2.861e-06,0.1729,0.0005713,1.114,0.001448,0,0,0.07764
221700000000,222000000000,3769734721,0,207599566,0.07764,0.1311,0.1377,0.0002632,0.0005741,0.1311,1.049e-05,2.861e-06,0.2361,0.0009995,1.12,0.001457,0,0,0.1134
222300000000,222600000000,3769734721,0,207599566,0.07837,0.1311,0.1377,0.0002632,0.0005741,0.1311,5.722e-06,2.861e-06,0.1672,0.0002146,1.11,0.00143,0,0,0.1206
222600000000,222900000000,3769734721,0,207599566,0.08069,0.1311,0.1377,0.0002632,0.0005741,0.1311,1.717e-05,2.861e-06,0.1531,0.002857,1.108,0.001438,0,0,0.08044
222900000000,223200000000,3769734721,0,207599566,0.08203,0.1311,0.1377,0.0002623,0.0005722,0.1313,1.431e-05,2.861e-06,0.179,0.0006428,1.106,0.00143,0,0,0.05865
223200000000,223500000000,3769734721,0,207599566,0.08606,0.1311,0.1377,0.0002623,0.0005732,0.1311,8.583e-06,2.861e-06,0.1758,0.0005713,1.119,0.001449,0,0,0.05707
223500000000,223800000000,3769734721,0,207599566,0.09045,0.1311,0.1377,0.0002623,0.0005732,0.1311,1.621e-05,2.861e-06,0.1899,0.001143,1.1,0.001428,0,0,0.07886
223800000000,224100000000,3769734721,0,207599566,0.08765,0.1311,0.1377,0.0002632,0.0005732,0.1311,8.583e-06,2.861e-06,0.2068,0.0004282,1.114,0.001453,0,0,0.0686
224100000000,224400000000,3769734721,0,207599566,0.09265,0.1311,0.1377,0.0002632,0.0005741,0.1311,1.144e-05,2.861e-06,0.1946,0.0009289,1.122,0.001476,0,0,0.1299
224400000000,224700000000,3769734721,0,207599566,0.09583,0.1311,0.1377,0.0002642,0.0005741,0.1313,1.24e-05,2.861e-06,0.2229,0.0008574,1.112,0.001458,0,0,0.04974
224700000000,225000000000,3769734721,0,207599566,0.09424,0.1311,0.1377,0.0002642,0.0005741,0.1313,7.629e-06,2.861e-06,0.2043,0.0002861,1.104,0.001438,0,0,0.1125
225000000000,225300000000,3769734721,0,207599566,0.09973,0.1311,0.1377,0.0002642,0.0005741,0.1313,1.526e-05,2.861e-06,0.2097,0.0009995,1.108,0.001455,0,0,0.09448
225300000000,225600000000,3769734721,0,207599566,0.1025,0.1311,0.1377,0.0002584,0.0005684,0.1313,2.098e-05,2.861e-06,0.2168,0.001572,1.113,0.001471,0,0,0.1304
225600000000,225900000000,3769734721,0,207599566,0.099,0.1311,0.1377,0.0002508,0.0005617,0.1313,1.431e-05,2.861e-06,0.2131,0.0008574,1.125,0.001484,0,0,0.05304
225900000000,226200000000,3769734721,0,207599566,0.09998,0.1311,0.1377,0.0002508,0.0005617,0.1313,8.583e-06,2.861e-06,0.2202,0.0002861,1.113,0.001471,0,0,0.1011
226200000000,226500000000,3769734721,0,207599566,0.1019,0.1313,0.1377,0.0002499,0.0005608,0.1313,6.676e-06,2.861e-06,0.2346,0.0002146,1.115,0.001472,0,0,0.1392
226500000000,226800000000,3769734721,0,207599566,0.1036,0.1313,0.1377,0.0002489,0.0005598,0.1313,6.676e-06,2.861e-06,0.1826,0.0002146,1.112,0.001462,0,0,0.1045
226800000000,227100000000,3769734721,0,207599566,0.1036,0.1311,0.1377,0.0002499,0.0005608,0.1313,1.24e-05,2.861e-06,0.2166,0.0008574,1.105,0.00145,0,0,0.0647
227100000000,227400000000,3769734721,0,207599566,0.1019,0.1313,0.1377,0.0002508,0.0005608,0.1316,1.144e-05,2.861e-06,0.2046,0.0007143,1.11,0.001463,0,0,0.05707
227400000000,227700000000,3769734721,0,207599566,0.09839,0.1313,0.1377,0.0002518,0.0005617,0.1313,1.144e-05,2.861e-06,0.229,0.001072,1.106,0.00146,0,0,0.1089
227700000000,228000000000,3769734721,0,207599566,0.1003,0.1313,0.1377,0.0002518,0.0005617,0.1316,1.144e-05,2.861e-06,0.2029,0.0007143,1.118,0.001479,0,0,0.1133
228000000000,228300000000,3769734721,0,207599566,0.1071,0.1313,0.1377,0.0002518,0.0005627,0.1313,1.144e-05,2.861e-06,0.1914,0.0007143,1.112,0.001479,0,0,0.1002
228300000000,228600000000,3769734721,0,207599566,0.1082,0.1313,0.1377,0.0002527,0.0005627,0.1313,1.335e-05,2.861e-06,0.1924,0.0008574,1.104,0.001465,0,0,0.1121
228600000000,228900000000,3769734721,0,207599566,0.1113,0.1313,0.1377,0.0002537,0.0005636,0.1313,2.098e-05,2.861e-06,0.2419,0.002716,1.098,0.001454,0,0,0.1501
228900000000,229200000000,3769734721,0,207599566,0.1185,0.1313,0.1377,0.0002537,0.0005646,0.1313,1.526e-05,2.861e-06,0.2327,0.001286,1.117,0.001505,0,0,0.08997
229200000000,229500000000,3769734721,0,207599566,0.116,0.1313,0.1377,0.0002546,0.0005646,0.1316,1.526e-05,2.861e-06,0.2097,0.0008574,1.101,0.001464,0,0,0.1235
229500000000,229800000000,3769734721,0,207599566,0.1061,0.1313,0.1377,0.0002546,0.0005655,0.1313,9.537e-06,2.861e-06,0.2637,0.0004282,1.104,0.001469,0,0,0.1511
229800000000,230100000000,3769734721,0,207599566,0.1089,0.1313,0.1377,0.0002556,0.0005665,0.1313,1.907e-05,2.861e-06,0.2283,0.001928,1.111,0.001476,0,0,0.07751
230100000000,230400000000,3769734721,0,207599566,0.1062,0.1313,0.1377,0.0002565,0.0005665,0.1316,4.101e-05,2.861e-06,0.2139,0.00293,1.107,0.001467,0,0,0.1489
230400000000,230700000000,3769734721,0,207599566,0.1096,0.1313,0.1377,0.0002565,0.0005674,0.1313,2.003e-05,2.861e-06,0.2122,0.001143,1.109,0.001468,0,0,0.1494
230700000000,231000000000,3769734721,0,207599566,0.1075,0.1313,0.1377,0.0002565,0.0005674,0.1313,1.24e-05,2.861e-06,0.2012,0.0009995,1.104,0.001454,0,0,0.1555
231000000000,231300000000,3769734721,0,207599566,0.1058,0.1313,0.1377,0.0002575,0.0005684,0.1313,2.575e-05,2.861e-06,0.252,0.002857,1.096,0.00144,0,0,0.07727
231300000000,231600000000,3769734721,0,207599566,0.1045,0.1313,0.1377,0.0002584,0.0005684,0.1316,2.098e-05,2.861e-06,0.209,0.001642,1.106,0.001461,0,0,0.1335
231600000000,231900000000,3769734721,0,207599566,0.1067,0.1313,0.1377,0.0002584,0.0005693,0.1316,1.049e-05,2.861e-06,0.2239,0.0004997,1.108,0.001463,0,0,0.09229
231900000000,232200000000,3769734721,0,207599566,0.1031,0.1313,0.1377,0.0002594,0.0005693,0.1316,1.144e-05,2.861e-06,0.2612,0.0006428,1.107,0.001455,0,0,0.1133
232200000000,232500000000,3769734721,0,207599566,0.1088,0.1313,0.1377,0.0002604,0.0005703,0.1313,1.144e-05,2.861e-06,0.2019,0.0005713,1.104,0.001462,0,0,0.07727
232500000000,232800000000,3769734721,0,207599566,0.1038,0.1313,0.1377,0.0002604,0.0005713,0.1316,1.431e-05,2.861e-06,0.1953,0.001429,1.098,0.001444,0,0,0.1357
232800000000,233100000000,3769734721,0,207599566,0.1038,0.1313,0.1377,0.0002613,0.0005713,0.1316,1.526e-05,2.861e-06,0.1821,0.001642,1.097,0.001439,0,0,0.1445
233100000000,233400000000,3769734721,0,207599566,0.106,0.1313,0.1377,0.0002613,0.0005722,0.1316,1.907e-05,2.861e-06,0.218,0.001072,1.095,0.001437,0,0,0.1384
233400000000,233700000000,3769734721,0,207599566,0.1052,0.1313,0.1377,0.0002623,0.0005722,0.1316,1.717e-05,2.861e-06,0.2112,0.0008574,1.099,0.001444,0,0,0.0791
233700000000,234000000000,3769734721,0,207599566,0.1025,0.1313,0.1377,0.0002623,0.0005732,0.1316,1.526e-05,2.861e-06,0.1946,0.0008574,1.095,0.001446,0,0,0.1946
234000000000,234300000000,3769734721,0,207599566,0.1112,0.1313,0.1377,0.0002632,0.0005732,0.1316,2.384e-05,2.861e-06,0.2476,0.001358,1.091,0.001431,0,0,0.08496
234300000000,234600000000,3769734721,0,207599566,0.1072,0.1313,0.1377,0.0002632,0.0005741,0.1313,1.717e-05,2.861e-06,0.2261,0.002071,1.104,0.001453,0,0,0.08948
234600000000,234900000000,3769734721,0,207599566,0.1035,0.1313,0.1377,0.0002642,0.0005751,0.1313,1.431e-05,2.861e-06,0.209,0.0009995,1.105,0.001464,0,0,0.08252
234900000000,235200000000,3769734721,0,207599566,0.103,0.1313,0.1377,0.0002651,0.0005751,0.1313,2.098e-05,2.861e-06,0.1895,0.001642,1.098,0.00145,0,0,0.07007
235200000000,235500000000,3769734721,0,207599566,0.1003,0.1313,0.1377,0.0002651,0.000576,0.1316,1.621e-05,2.861e-06,0.2114,0.0008574,1.104,0.001447,0,0,0.08716
235500000000,235800000000,3769734721,0,207599566,0.09985,0.1313,0.1377,0.0002661,0.000576,0.1313,1.526e-05,2.861e-06,0.2209,0.001215,1.111,0.001456,0,0,0.08777
235800000000,236100000000,3769734721,0,207599566,0.09973,0.1313,0.1377,0.000267,0.000577,0.1313,1.24e-05,2.861e-06,0.1899,0.0007858,1.121,0.001466,0,0,0.1226
236100000000,236400000000,3769734721,0,207599566,0.1016,0.1313,0.1377,0.0002642,0.0005751,0.1316,1.621e-05,2.861e-06,0.2144,0.001215,1.14,0.001501,0,0,0.06714
241200000000,241500000000,3769734721,0,207599566,0.1113,0.1313,0.1377,0.0002737,0.0005836,0.1313,8.583e-06,2.861e-06,0.2283,0.0003567,1.093,0.001435,0,0,0.07141
241500000000,241800000000,3769734721,0,207599566,0.1051,0.1313,0.1377,0.0002737,0.0005846,0.1313,1.049e-05,2.861e-06,0.2344,0.0004997,1.094,0.001447,0,0,0.1122
241800000000,242100000000,3769734721,0,207599566,0.1038,0.1313,0.1377,0.0002747,0.0005846,0.1313,2.193e-05,2.861e-06,0.1963,0.002285,1.105,0.001455,0,0,0.1072
242100000000,242400000000,3769734721,0,207599566,0.1089,0.1313,0.1377,0.0002747,0.0005856,0.1313,2.956e-05,2.861e-06,0.2102,0.001572,1.101,0.00145,0,0,0.1188
242400000000,242700000000,3769734721,0,207599566,0.1117,0.1313,0.1377,0.0002756,0.0005865,0.1313,9.537e-06,2.861e-06,0.2275,0.0003567,1.104,0.001455,0,0,0.09424
242700000000,243000000000,3769734721,0,207599566,0.1072,0.1313,0.1377,0.0002756,0.0005865,0.1316,9.537e-06,2.861e-06,0.2324,0.0005713,1.102,0.001459,0,0,0.0874
243000000000,243300000000,3769734721,0,207599566,0.1094,0.1313,0.1377,0.0002766,0.0005875,0.1313,1.144e-05,2.861e-06,0.2122,0.001215,1.104,0.00146,0,0,0.1282
243300000000,243600000000,3769734721,0,207599566,0.1089,0.1313,0.1377,0.0002775,0.0005875,0.1316,1.431e-05,2.861e-06,0.2632,0.0008574,1.106,0.001474,0,0,0.1567
243600000000,243900000000,3769734721,0,207599566,0.1108,0.1313,0.1377,0.0002775,0.0005884,0.1313,1.335e-05,2.861e-06,0.2373,0.001143,1.107,0.001473,0,0,0.09485
243900000000,244200000000,3769734721,0,207599566,0.1094,0.1313,0.1377,0.0002785,0.0005884,0.1313,1.335e-05,2.861e-06,0.2324,0.0009995,1.097,0.001443,0,0,0.1062
244200000000,244500000000,3769734721,0,207599566,0.1082,0.1313,0.1377,0.0002785,0.0005894,0.1316,1.431e-05,2.861e-06,0.2295,0.001143,1.106,0.001469,0,0,0.1074
244500000000,244800000000,3769734721,0,207599566,0.1146,0.1313,0.1377,0.0002794,0.0005903,0.1316,8.583e-06,2.861e-06,0.251,0.0007858,1.095,0.001461,0,0,0.118
244800000000,245100000000,3769734721,0,207599566,0.1168,0.1313,0.1377,0.0002804,0.0005903,0.1313,1.335e-05,2.861e-06,0.2725,0.001072,1.099,0.001453,0,0,0.1299
245100000000,245400000000,3769734721,0,207599566,0.1272,0.1313,0.1377,0.0002804,0.0005913,0.1313,1.907e-05,2.861e-06,0.2939,0.0007143,1.103,0.001466,0,0,0.1541
245400000000,245700000000,3769734721,0,207599566,0.1136,0.1313,0.1377,0.0002813,0.0005922,0.1313,2.003e-05,2.861e-06,0.1975,0.001358,1.096,0.001441,0,0,0.1697
245700000000,246000000000,3769734721,0,207599566,0.113,0.1313,0.1377,0.0002823,0.0005922,0.1313,1.717e-05,2.861e-06,0.2446,0.001286,1.097,0.001442,0,0,0.119
246000000000,246300000000,3769734721,0,207599566,0.1154,0.1313,0.1377,0.0002823,0.0005932,0.1313,2.575e-05,2.861e-06,0.2734,0.001642,1.095,0.001441,0,0,0.04651
251400000000,251700000000,3769734721,0,207599566,0.1121,0.1313,0.1377,0.0002947,0.0006056,0.1316,1.907e-05,2.861e-06,0.2222,0.001858,1.107,0.001446,0,0,0.06134
251700000000,252000000000,3769734721,0,207599566,0.1097,0.1313,0.1377,0.0002956,0.0006065,0.1313,8.583e-06,2.861e-06,0.2271,0.0002146,1.095,0.00142,0,0,0.0802
252000000000,252300000000,3769734721,0,207599566,0.1075,0.1313,0.1377,0.0002966,0.0006065,0.1313,1.717e-05,2.861e-06,0.2063,0.001286,1.1,0.00143,0,0,0.1021
252300000000,252600000000,3769734721,0,207599566,0.1073,0.1313,0.1377,0.0002966,0.0006075,0.1313,2.193e-05,2.861e-06,0.2332,0.001429,1.095,0.001434,0,0,0.08606
252600000000,252900000000,3769734721,0,207599566,0.1078,0.1313,0.1377,0.0002975,0.0006084,0.1316,1.144e-05,2.861e-06,0.2324,0.0008574,1.091,0.001432,0,0,0.08765
252900000000,253200000000,3769734721,0,207599566,0.1038,0.1313,0.1377,0.0002975,0.0006084,0.1316,1.335e-05,2.861e-06,0.2063,0.001286,1.102,0.001436,0,0,0.0636
253200000000,253500000000,3769734721,0,207599566,0.09875,0.1313,0.1377,0.0002985,0.0006094,0.1316,2.384e-05,2.861e-06,0.2021,0.002571,1.101,0.001442,0,0,0.09485
253500000000,253800000000,3769734721,0,207599566,0.1021,0.1313,0.1377,0.0002995,0.0006104,0.1313,1.049e-05,2.861e-06,0.2136,0.0008574,1.103,0.001427,0,0,0.1292
253800000000,254100000000,3769734721,0,207599566,0.1017,0.1313,0.1377,0.0002995,0.0006104,0.1313,1.144e-05,2.861e-06,0.1956,0.0006428,1.094,0.001403,0,0,0.1224
254100000000,254400000000,3769734721,0,207599566,0.09705,0.1313,0.1377,0.0003004,0.0006113,0.1313,9.537e-06,2.861e-06,0.2004,0.0008574,1.105,0.001436,0,0,0.05859
254400000000,254700000000,3769734721,0,207599566,0.09485,0.1313,0.1377,0.0003014,0.0006113,0.1313,1.812e-05,2.861e-06,0.2395,0.002571,1.104,0.001435,0,0,0.06287
254700000000,255000000000,3769734721,0,207599566,0.09131,0.1313,0.1377,0.0003014,0.0006123,0.1313,1.049e-05,2.861e-06,0.2163,0.0007143,1.11,0.00143,0,0,0.08691
255000000000,255300000000,3769734721,0,207599566,0.09192,0.1311,0.1377,0.0003023,0.0006123,0.1313,7.629e-06,2.861e-06,0.177,0.0004997,1.11,0.001434,0,0,0.05737
255300000000,255600000000,3769734721,0,207599566,0.08972,0.1311,0.1377,0.0003023,0.0006132,0.1313,1.526e-05,2.861e-06,0.1846,0.0009995,1.101,0.001413,0,0,0.1188
255600000000,255900000000,3769734721,0,207599566,0.09167,0.1311,0.1377,0.0003033,0.0006132,0.1313,1.24e-05,2.861e-06,0.1897,0.001429,1.107,0.001432,0,0,0.1193
255900000000,256200000000,3769734721,0,207599566,0.09106,0.1313,0.1377,0.0003033,0.0006142,0.1313,8.583e-06,2.861e-06,0.1824,0.0004282,1.113,0.001439,0,0,0.1093
256200000000,256500000000,3769734721,0,207599566,0.08862,0.1313,0.1377,0.0003033,0.0006142,0.1313,9.537e-06,2.861e-06,0.1665,0.0003567,1.102,0.001417,0,0,0.07227
256500000000,256800000000,3769734721,0,207599566,0.08728,0.1313,0.1377,0.0003042,0.0006151,0.1313,1.335e-05,2.861e-06,0.1846,0.002144,1.1,0.001413,0,0,0.0658
256800000000,257100000000,3769734721,0,207599566,0.08765,0.1313,0.1377,0.0003042,0.0006151,0.1316,1.144e-05,2.861e-06,0.178,0.0009289,1.106,0.001424,0,0,0.07495
257100000000,257400000000,3769734721,0,207599566,0.08862,0.1311,0.1377,0.0003052,0.0006161,0.1313,9.537e-06,2.861e-06,0.1958,0.0009995,1.101,0.00141,0,0,0.0885
257400000000,257700000000,3769734721,0,207599566,0.08679,0.1311,0.1377,0.0003052,0.0006161,0.1313,6.676e-06,2.861e-06,0.1877,0.0003567,1.089,0.00139,0,0,0.06604
257700000000,258000000000,3769734721,0,207599566,0.08923,0.1311,0.1377,0.0003061,0.000617,0.1313,1.049e-05,2.861e-06,0.2034,0.0004997,1.105,0.001428,0,0,0.1152
258000000000,258300000000,3769734721,0,207599566,0.08789,0.1311,0.1377,0.0003061,0.000617,0.1313,1.144e-05,2.861e-06,0.1975,0.0004997,1.101,0.001402,0,0,0.08411
258300000000,258600000000,3769734721,0,207599566,0.08655,0.1311,0.1377,0.0003071,0.000618,0.1313,1.621e-05,2.861e-06,0.177,0.001215,1.107,0.001423,0,0,0.09595
258600000000,258900000000,3769734721,0,207599566,0.08386,0.1311,0.1377,0.000308,0.0006189,0.1313,1.24e-05,2.861e-06,0.2979,0.001715,1.101,0.001404,0,0,0.07715
258900000000,259200000000,3769734721,0,207599566,0.08325,0.1311,0.1377,0.0002985,0.0006094,0.1311,1.812e-05,2.861e-06,0.1885,0.001286,1.101,0.00142,0,0,0.07007
259200000000,259500000000,3769734721,0,207599566,0.07898,0.1311,0.1377,0.0002985,0.0006094,0.1313,1.24e-05,2.861e-06,0.1868,0.001429,1.101,0.001409,0,0,0.06506
259500000000,259800000000,3769734721,0,207599566,0.078,0.1311,0.1377,0.0002995,0.0006104,0.1313,1.431e-05,2.861e-06,0.2,0.002213,1.094,0.001397,0,0,0.07361
259800000000,260100000000,3769734721,0,207599566,0.07874,0.1311,0.1377,0.0002995,0.0006104,0.1313,1.049e-05,2.861e-06,0.1882,0.0008574,1.103,0.001419,0,0,0.1093
260100000000,260400000000,3769734721,0,207599566,0.07983,0.1313,0.1377,0.0002995,0.0006104,0.1313,9.537e-06,2.861e-06,0.2104,0.0007143,1.113,0.001436,0,0,0.07983
260400000000,260700000000,3769734721,0,207599566,0.08289,0.1313,0.1377,0.0003023,0.0006132,0.1313,1.526e-05,2.861e-06,0.1953,0.001429,1.102,0.001428,0,0,0.04938
260700000000,261000000000,3769734721,0,207599566,0.08228,0.1311,0.1377,0.0003033,0.0006142,0.1313,1.144e-05,2.861e-06,0.1975,0.0007858,1.1,0.001401,0,0,0.1178
261000000000,261300000000,3769734721,0,207599566,0.08057,0.1311,0.1377,0.0003033,0.0006142,0.1313,1.049e-05,2.861e-06,0.2083,0.001072,1.086,0.001385,0,0,0.05927
261300000000,261600000000,3769734721,0,207599566,0.08215,0.1311,0.1377,0.0003033,0.0006142,0.1313,1.049e-05,2.861e-06,0.186,0.0007143,1.095,0.001403,0,0,0.09216
261600000000,261900000000,3769734721,0,207599566,0.08362,0.1313,0.1377,0.0002956,0.0006065,0.1316,9.537e-06,2.861e-06,0.2283,0.0007143,1.091,0.001413,0,0,0.05945
261900000000,262200000000,3769734721,0,207599566,0.08069,0.1311,0.1377,0.000289,0.0005999,0.1313,6.676e-06,2.861e-06,0.2117,0.0004282,1.097,0.001409,0,0,0.04291
262200000000,262500000000,3769734721,0,207599566,0.07849,0.1311,0.1377,0.000288,0.0005989,0.1313,7.629e-06,2.861e-06,0.1821,0.0003567,1.108,0.001443,0,0,0.05164
262500000000,262800000000,3769734721,0,207599566,0.0769,0.1311,0.1377,0.000288,0.0005989,0.1313,8.583e-06,2.861e-06,0.1938,0.0004997,1.113,0.001453,0,0,0.1404
262800000000,263100000000,3769734721,0,207599566,0.07629,0.1311,0.1377,0.000288,0.0005989,0.1313,5.722e-06,2.861e-06,0.1453,0.0001431,1.111,0.001455,0,0,0.06848
263100000000,263400000000,3769734721,0,207599566,0.07886,0.1313,0.1377,0.000288,0.0005989,0.1313,1.144e-05,2.861e-06,0.2131,0.001358,1.097,0.001438,0,0,0.06848
263400000000,263700000000,3769734721,0,207599566,0.07703,0.1313,0.1377,0.000289,0.0005999,0.1313,9.537e-06,2.861e-06,0.1753,0.0007858,1.119,0.001465,0,0,0.07251
264000000000,264300000000,3769734721,0,207599566,0.07776,0.1311,0.1377,0.000289,0.0006008,0.1313,1.144e-05,2.861e-06,0.1936,0.001072,1.104,0.001433,0,0,0.0791
264300000000,264600000000,3769734721,0,207599566,0.07959,0.1311,0.1377,0.0002899,0.0006008,0.1313,1.621e-05,2.861e-06,0.1917,0.001215,1.104,0.001437,0,0,0.1042
264900000000,265200000000,3769734721,0,207599566,0.08374,0.1311,0.1377,0.0002909,0.0006018,0.1313,9.537e-06,2.861e-06,0.1719,0.0009289,1.099,0.001432,0,0,0.1375
266100000000,266400000000,3769734721,0,207599566,0.0835,0.1313,0.1377,0.0002928,0.0006037,0.1313,1.049e-05,2.861e-06,0.1885,0.001215,1.098,0.001423,0,0,0.05951
266400000000,266700000000,3769734721,0,207599566,0.08484,0.1313,0.1377,0.0002928,0.0006037,0.1313,6.676e-06,2.861e-06,0.1677,0.0004997,1.093,0.001427,0,0,0.1045
267000000000,267300000000,3769734721,0,207599566,0.08533,0.1313,0.1377,0.0002937,0.0006046,0.1316,1.335e-05,2.861e-06,0.2534,0.001642,1.095,0.001422,0,0,0.08948
267300000000,267600000000,3769734721,0,207599566,0.08789,0.1313,0.1377,0.0002947,0.0006056,0.1313,7.629e-06,2.861e-06,0.2056,0.0006428,1.091,0.001415,0,0,0.1012
267600000000,267900000000,3769734721,0,207599566,0.08484,0.1313,0.1377,0.0002947,0.0006056,0.1316,1.24e-05,2.861e-06,0.1724,0.001072,1.097,0.001429,0,0,0.09497
267900000000,268200000000,3769734721,0,207599566,0.08484,0.1313,0.1377,0.0002947,0.0006056,0.1316,1.049e-05,2.861e-06,0.1614,0.0008574,1.098,0.001432,0,0,0.06665
268200000000,268500000000,3769734721,0,207599566,0.0874,0.1313,0.1377,0.0002956,0.0006065,0.1316,1.907e-05,2.861e-06,0.2275,0.002644,1.092,0.001425,0,0,0.05872
268500000000,268800000000,3769734721,0,207599566,0.08533,0.1313,0.1377,0.0002956,0.0006065,0.1313,1.24e-05,2.861e-06,0.2122,0.0006428,1.086,0.001403,0,0,0.08228
268800000000,269100000000,3769734721,0,207599566,0.08325,0.1313,0.1377,0.0002956,0.0006075,0.1313,1.621e-05,2.861e-06,0.1846,0.002857,1.083,0.001403,0,0,0.0484
269100000000,269400000000,3769734721,0,207599566,0.08765,0.1313,0.1377,0.0002966,0.0006075,0.1313,5.722e-06,2.861e-06,0.2012,0.0002146,1.089,0.001407,0,0,0.1257
269400000000,269700000000,3769734721,0,207599566,0.08447,0.1313,0.1377,0.0002966,0.0006075,0.1313,7.629e-06,2.861e-06,0.2161,0.0004282,1.078,0.001396,0,0,0.08081
269700000000,270000000000,3769734721,0,207599566,0.08386,0.1313,0.1377,0.0002975,0.0006084,0.1313,8.583e-06,2.861e-06,0.1731,0.0004997,1.075,0.001381,0,0,0.05927
270000000000,270300000000,3769734721,0,207599566,0.08643,0.1313,0.1377,0.0002985,0.0006094,0.1313,7.629e-06,2.861e-06,0.2139,0.0007143,1.072,0.00139,0,0,0.03656
270300000000,270600000000,3769734721,0,207599566,0.08044,0.1313,0.1377,0.0003004,0.0006123,0.1316,9.537e-06,2.861e-06,0.1685,0.0005713,1.069,0.001371,0,0,0.06848
270600000000,270900000000,3769734721,0,207599566,0.07788,0.1313,0.1377,0.0002995,0.0006113,0.1316,6.676e-06,2.861e-06,0.1736,0.0003567,1.093,0.001419,0,0,0.04218
281400000000,281700000000,3769734721,0,207599566,0.02573,0.1309,0.1377,0.0002909,0.0006018,0.1309,1.049e-05,2.861e-06,0.09314,0.001858,1.057,0.001362,0,0,0.03076
281700000000,282000000000,3769734721,0,207599566,0.02338,0.1309,0.1377,0.0002909,0.0006027,0.1309,3.815e-06,2.861e-06,0.08191,0.0001431,1.051,0.001368,0,0,0.02328
282000000000,282300000000,3769734721,0,207599566,0.02161,0.1309,0.1377,0.0002909,0.0006027,0.1309,9.537e-06,2.861e-06,0.07996,0.001215,1.074,0.00141,0,0,0.03442
282300000000,282600000000,3769734721,0,207599566,0.02087,0.1309,0.1377,0.0002909,0.0006027,0.1309,3.815e-06,2.861e-06,0.1299,0.0001431,1.08,0.00143,0,0,0.0101
282600000000,282900000000,3769734721,0,207599566,0.01941,0.1309,0.1377,0.0002918,0.0006027,0.1309,2.861e-06,2.861e-06,0.09106,0.0002146,1.06,0.001397,0,0,0.008789
282900000000,283200000000,3769734721,0,207599566,0.01965,0.1309,0.1377,0.0002918,0.0006027,0.1309,3.815e-06,2.861e-06,0.09106,0.0001431,1.053,0.00139,0,0,0.03412
283200000000,283500000000,3769734721,0,207599566,0.01865,0.1309,0.1377,0.0002918,0.0006027,0.1309,4.768e-06,2.861e-06,0.0863,0.0004282,1.068,0.001434,0,0,0.007057
283500000000,283800000000,3769734721,0,207599566,0.01859,0.1309,0.1377,0.0002918,0.0006027,0.1311,3.815e-06,2.861e-06,0.07446,7.153e-05,1.046,0.001374,0,0,0.0246
283800000000,284100000000,3769734721,0,207599566,0.01852,0.1309,0.1377,0.0002918,0.0006037,0.1309,3.815e-06,2.861e-06,0.07483,0.0001431,1.031,0.001328,0,0,0.008926
284100000000,284400000000,3769734721,0,207599566,0.01923,0.1309,0.1377,0.0002918,0.0006037,0.1311,3.815e-06,2.861e-06,0.09485,0.0001431,1.045,0.001378,0,0,0.02219
284400000000,284700000000,3769734721,0,207599566,0.01764,0.1309,0.1377,0.0002918,0.0006037,0.1311,5.722e-06,2.861e-06,0.1044,0.0003567,1.073,0.001432,0,0,0.01031
284700000000,285000000000,3769734721,0,207599566,0.0166,0.1309,0.1377,0.0002928,0.0006037,0.1309,3.815e-06,2.861e-06,0.06995,0.0001431,1.049,0.001372,0,0,0.006287
285000000000,285300000000,3769734721,0,207599566,0.01678,0.1309,0.1377,0.0002928,0.0006037,0.1309,5.722e-06,2.861e-06,0.0675,0.0006428,1.051,0.001368,0,0,0.02774
285300000000,285600000000,3769734721,0,207599566,0.01555,0.1309,0.1377,0.0002928,0.0006037,0.1309,6.676e-06,2.861e-06,0.09534,0.0002861,1.047,0.001363,0,0,0.01077
285600000000,285900000000,3769734721,0,207599566,0.01404,0.1309,0.1377,0.0002928,0.0006046,0.1309,1.431e-05,2.861e-06,0.06543,0.001642,1.048,0.00138,0,0,0.01123
285900000000,286200000000,3769734721,0,207599566,0.01389,0.1309,0.1377,0.0002928,0.0006046,0.1309,3.815e-06,2.861e-06,0.0658,0.0001431,1.057,0.0014,0,0,0.002182
286200000000,286500000000,3769734721,0,207599566,0.01393,0.1306,0.1377,0.0002928,0.0006046,0.1309,4.768e-06,2.861e-06,0.0874,0.0001431,1.064,0.001445,0,0,0.01074
286500000000,286800000000,3769734721,0,207599566,0.01411,0.1306,0.1377,0.0002928,0.0006046,0.1309,3.815e-06,2.861e-06,0.06836,0.0003567,1.049,0.001396,0,0,0.004745
286800000000,287100000000,3769734721,0,207599566,0.01385,0.1309,0.1377,0.0002937,0.0006046,0.1311,3.815e-06,2.861e-06,0.07788,0.0002146,1.055,0.001411,0,0,0.01044
287100000000,287400000000,3769734721,0,207599566,0.01187,0.1309,0.1377,0.0002937,0.0006056,0.1309,7.629e-06,2.861e-06,0.07373,0.0007143,1.05,0.001399,0,0,0.01363
287400000000,287700000000,3769734721,0,207599566,0.01076,0.1309,0.1377,0.0002937,0.0006056,0.1311,1.144e-05,2.861e-06,0.06531,0.001286,1.029,0.001359,0,0,0.008957
287700000000,288000000000,3769734721,0,207599566,0.0108,0.1306,0.1377,0.0002937,0.0006056,0.1309,3.815e-06,2.861e-06,0.0611,0.0001431,1.036,0.001384,0,0,0.0008116
288000000000,288300000000,3769734721,0,207599566,0.01073,0.1306,0.1377,0.0002937,0.0006056,0.1309,4.768e-06,2.861e-06,0.05829,0.0002861,1.035,0.001381,0,0,0.005943
288300000000,288600000000,3769734721,0,207599566,0.01039,0.1306,0.1377,0.0002937,0.0006056,0.1311,2.861e-06,2.861e-06,0.09558,0.0001431,1.039,0.001393,0,0,0.0007811
288600000000,288900000000,3769734721,0,207599566,0.009506,0.1306,0.1377,0.0002947,0.0006056,0.1309,4.768e-06,2.861e-06,0.04285,0.0004282,1.049,0.001374,0,0,0.00547
288900000000,289200000000,3769734721,0,207599566,0.009659,0.1306,0.1377,0.0002947,0.0006056,0.1309,7.629e-06,2.861e-06,0.05341,0.001358,1.089,0.0015,0,0,0.01007
289200000000,289500000000,3769734721,0,207599566,0.01016,0.1306,0.1377,0.0002947,0.0006065,0.1309,5.722e-06,2.861e-06,0.05682,0.0004997,1.035,0.001345,0,0,0.00354
289500000000,289800000000,3769734721,0,207599566,0.009171,0.1306,0.1377,0.0002947,0.0006065,0.1309,3.815e-06,2.861e-06,0.06372,0.0002861,1.097,0.001514,0,0,0.003311
289800000000,290100000000,3769734721,0,207599566,0.009583,0.1306,0.1377,0.0002947,0.0006065,0.1309,3.815e-06,2.861e-06,0.05475,0.0004282,1.054,0.001419,0,0,0.002457
290100000000,290400000000,3769734721,0,207599566,0.009506,0.1306,0.1377,0.0002947,0.0006065,0.1309,1.907e-06,2.861e-06,0.04889,7.153e-05,1.06,0.001424,0,0,0.008118
290400000000,290700000000,3769734721,0,207599566,0.008438,0.1306,0.1377,0.0002956,0.0006065,0.1309,2.861e-06,2.861e-06,0.0658,0.0001431,1.036,0.001361,0,0,0.002583
290700000000,291000000000,3769734721,0,207599566,0.008743,0.1306,0.1377,0.0002956,0.0006065,0.1309,8.583e-06,2.861e-06,0.05353,0.001928,1.035,0.001337,0,0,0.001339
291000000000,291300000000,3769734721,0,207599566,0.008911,0.1306,0.1377,0.0002956,0.0006065,0.1309,2.861e-06,2.861e-06,0.04541,0.0002146,1.044,0.001392,0,0,0.001146
291300000000,291600000000,3769734721,0,207599566,0.00943,0.1306,0.1377,0.0002956,0.0006065,0.1309,3.815e-06,2.861e-06,0.07385,0.0003567,1.05,0.001404,0,0,0.0004635
291600000000,291900000000,3769734721,0,207599566,0.009109,0.1306,0.1377,0.0002956,0.0006075,0.1309,1.907e-06,2.861e-06,0.05786,7.153e-05,1.04,0.00138,0,0,0.002808
291900000000,292200000000,3769734721,0,207599566,0.007919,0.1306,0.1377,0.0002956,0.0006075,0.1306,4.768e-06,2.861e-06,0.04242,0.0009995,1.062,0.001444,0,0,0.002209
292200000000,292500000000,3769734721,0,207599566,0.008545,0.1306,0.1377,0.0002956,0.0006075,0.1306,2.861e-06,2.861e-06,0.05914,0.0001431,1.046,0.001384,0,0,0.01462
292500000000,292800000000,3769734721,0,207599566,0.009659,0.1306,0.1377,0.0002956,0.0006075,0.1306,4.768e-06,2.861e-06,0.05261,0.0002861,1.039,0.001387,0,0,0.004547
292800000000,293100000000,3769734721,0,207599566,0.01042,0.1306,0.1377,0.0002966,0.0006075,0.1306,3.815e-06,2.861e-06,0.04816,0.0002146,1.042,0.001327,0,0,0.009506
293100000000,293400000000,3769734721,0,207599566,0.008408,0.1306,0.1377,0.0002966,0.0006075,0.1306,3.815e-06,2.861e-06,0.03949,0.0001431,1.077,0.001478,0,0,0.02032
293400000000,293700000000,3769734721,0,207599566,0.00946,0.1306,0.1377,0.0002966,0.0006075,0.1306,2.861e-06,2.861e-06,0.06262,0.0001431,1.067,0.00142,0,0,0.007393
293700000000,294000000000,3769734721,0,207599566,0.009109,0.1306,0.1377,0.0002966,0.0006075,0.1306,5.722e-06,2.861e-06,0.04779,0.0004997,1.053,0.001383,0,0,0.04602
294000000000,294300000000,3769734721,0,207599566,0.01021,0.1306,0.1377,0.0002966,0.0006084,0.1309,7.629e-06,2.861e-06,0.0625,0.001072,1.038,0.001371,0,0,0.003323
294300000000,294600000000,3769734721,0,207599566,0.009811,0.1306,0.1377,0.0002966,0.0006084,0.1309,1.907e-06,2.861e-06,0.06738,0.0002861,1.071,0.00145,0,0,0.01736
294600000000,294900000000,3769734721,0,207599566,0.01036,0.1306,0.1377,0.0002966,0.0006084,0.1309,2.861e-06,2.861e-06,0.04803,7.153e-05,1.048,0.001361,0,0,0.002316
294900000000,295200000000,3769734721,0,207599566,0.0105,0.1306,0.1377,0.0002966,0.0006084,0.1309,1.907e-06,2.861e-06,0.05408,0.0001431,1.058,0.001374,0,0,0.02893
295200000000,295500000000,3769734721,0,207599566,0.01091,0.1306,0.1377,0.0002975,0.0006084,0.1309,2.861e-06,2.861e-06,0.06287,0.0001431,1.057,0.001379,0,0,0.03711
295500000000,295800000000,3769734721,0,207599566,0.01003,0.1306,0.1377,0.0002975,0.0006084,0.1309,2.861e-06,2.861e-06,0.07031,0.0001431,1.058,0.001372,0,0,0.003681
295800000000,296100000000,3769734721,0,207599566,0.01086,0.1306,0.1377,0.0002975,0.0006094,0.1309,3.815e-06,2.861e-06,0.04285,0.0004282,1.062,0.001425,0,0,0.006203
296100000000,296400000000,3769734721,0,207599566,0.01025,0.1306,0.1377,0.0002975,0.0006094,0.1309,3.815e-06,2.861e-06,0.05621,0.0001431,1.06,0.00144,0,0,0.01178
296400000000,296700000000,3769734721,0,207599566,0.01123,0.1306,0.1377,0.0002975,0.0006094,0.1309,3.815e-06,2.861e-06,0.06445,0.0008574,1.072,0.00143,0,0,0.008102
296700000000,297000000000,3769734721,0,207599566,0.01265,0.1306,0.1377,0.0002928,0.0006046,0.1306,7.629e-06,2.861e-06,0.05475,0.0006428,1.055,0.001398,0,0,0.005081
297000000000,297300000000,3769734721,0,207599566,0.01308,0.1306,0.1377,0.0002928,0.0006037,0.1309,2.861e-06,2.861e-06,0.07166,0.0001431,1.074,0.001405,0,0,0.001976
297300000000,297600000000,3769734721,0,207599566,0.01393,0.1306,0.1377,0.0002928,0.0006046,0.1306,3.815e-06,2.861e-06,0.07581,0.0002146,1.063,0.001389,0,0,0.01344
297600000000,297900000000,3769734721,0,207599566,0.01492,0.1306,0.1377,0.0002928,0.0006046,0.1306,3.815e-06,2.861e-06,0.07422,0.0001431,1.082,0.00142,0,0,0.0008469
297900000000,298200000000,3769734721,0,207599566,0.01648,0.1306,0.1377,0.0002928,0.0006046,0.1309,7.629e-06,2.861e-06,0.05951,0.001785,1.067,0.001387,0,0,0.00853
298200000000,298500000000,3769734721,0,207599566,0.01779,0.1306,0.1377,0.0002928,0.0006046,0.1309,1.907e-06,2.861e-06,0.09558,7.153e-05,1.046,0.001363,0,0,0.02731
298500000000,298800000000,3769734721,0,207599566,0.01782,0.1306,0.1377,0.0002937,0.0006046,0.1309,5.722e-06,2.861e-06,0.07568,0.0005713,1.067,0.001407,0,0,0.01187
298800000000,299100000000,3769734721,0,207599566,0.01822,0.1306,0.1377,0.0002937,0.0006046,0.1309,3.815e-06,2.861e-06,0.07068,0.0001431,1.062,0.001362,0,0,0.01472
299100000000,299400000000,3769734721,0,207599566,0.02118,0.1306,0.1377,0.0002937,0.0006046,0.1309,2.861e-06,2.861e-06,0.07861,7.153e-05,1.069,0.001357,0,0,0.03381
299400000000,299700000000,3769734721,0,207599566,0.02289,0.1306,0.1377,0.0002937,0.0006056,0.1306,5.722e-06,2.861e-06,0.0979,0.0004997,1.047,0.001327,0,0,0.04614
299700000000,300000000000,3769734721,0,207599566,0.02219,0.1306,0.1377,0.0002937,0.0006056,0.1306,3.815e-06,2.861e-06,0.07019,0.0003567,1.086,0.00138,0,0,0.01031
