5700000000,6000000000,39308692,0,336047708,0.0001287,0.07959,0.08728,0.0008745,0.001177,0.07959,2.861e-06,0.0001774,0.00547,0.0001431,6.905,0.03492,0,1,0
6000000000,6300000000,39308692,0,336047708,0.0001287,0.07959,0.08728,0.0008755,0.001179,0.07959,2.861e-06,0.0001774,0.002701,0.0004282,5.574,0.02653,0,1,0
6300000000,6600000000,39308692,0,336047708,0.0001488,0.07959,0.08728,0.0008755,0.001179,0.07959,2.861e-06,0.0001774,0.003826,0.0001431,7.667,0.03557,0,1,0
6600000000,6900000000,39308692,0,336047708,0.0001478,0.07959,0.08728,0.0008764,0.001179,0.07959,7.629e-06,0.0001774,0.002769,0.001642,7.109,0.03301,0,1,0
6900000000,7200000000,39308692,0,336047708,0.0001545,0.07959,0.08728,0.0008764,0.001179,0.07959,1.907e-06,0.0001774,0.003159,0.0001431,6.745,0.03048,0,1,0
7200000000,7500000000,39308692,0,336047708,0.0001459,0.07959,0.08728,0.0008774,0.001181,0.07959,2.861e-06,0.0001774,0.005432,0.0002146,7.349,0.03493,0,1,0
7500000000,7800000000,39308692,0,336047708,0.0001316,0.07959,0.08728,0.0007658,0.001068,0.07959,2.861e-06,0.0001774,0.002346,0.0001431,6.59,0.03253,0,1,0
7800000000,8100000000,39308692,0,336047708,0.0001354,0.07959,0.08728,0.0007048,0.001007,0.07959,1.907e-06,0.0001774,0.002163,0.0001431,7.253,0.03582,0,1,0
8100000000,8400000000,39308692,0,336047708,0.0001459,0.07959,0.08728,0.0007057,0.001009,0.07959,1.907e-06,0.0001774,0.004616,0.0001431,6.258,0.0295,0,1,0
8400000000,8700000000,39308692,0,336047708,0.0001402,0.07959,0.08728,0.0007057,0.001009,0.07959,5.722e-06,0.0001774,0.005569,0.001143,6.263,0.02979,0,1,0
8700000000,9000000000,39308692,0,336047708,0.0001268,0.07959,0.08728,0.0007067,0.001009,0.07959,1.907e-06,0.0001774,0.005005,0.0001431,6.699,0.03302,0,1,0
9000000000,9300000000,39308692,0,336047708,0.0001287,0.07959,0.08728,0.0007067,0.001009,0.07959,2.861e-06,0.0001774,0.003323,0.0001431,5.515,0.02692,0,1,0
9300000000,9600000000,39308692,0,336047708,0.0001373,0.07959,0.08728,0.0007076,0.001011,0.07959,2.861e-06,0.0001774,0.004189,0.0001431,6.139,0.03016,0,1,0
9600000000,9900000000,39308692,0,336047708,0.0001469,0.07959,0.08728,0.0007076,0.001011,0.07959,2.861e-06,0.0001774,0.001841,0.0001431,7.236,0.03521,0,1,0
9900000000,10200000000,39308692,0,336047708,0.0001507,0.07959,0.08728,0.0007086,0.001011,0.07959,1.907e-06,0.0001774,0.005203,0.0001431,6.888,0.03327,0,1,0
10200000000,10500000000,39308692,0,336047708,0.0001431,0.07959,0.08728,0.0007086,0.001011,0.07959,1.907e-06,0.0001774,0.003021,0.0001431,7.508,0.03652,0,1,0
10500000000,10800000000,39308692,0,336047708,0.0001278,0.07959,0.08728,0.0007095,0.001013,0.07959,3.815e-06,0.0001774,0.00206,0.0005713,6.298,0.03048,0,1,0
10800000000,11100000000,39308692,0,336047708,0.0001373,0.07959,0.08728,0.0007095,0.001013,0.07959,1.907e-06,0.0001774,0.003418,0.0001431,7.165,0.03666,0,1,0
11100000000,11400000000,39308692,0,336047708,0.0001364,0.07959,0.08728,0.0007105,0.001013,0.07959,2.861e-06,0.0001774,0.003143,0.0001431,6.58,0.03145,0,1,0
11400000000,11700000000,39308692,0,336047708,0.0001459,0.07959,0.08728,0.0007105,0.001013,0.07959,1.907e-06,0.0001774,0.002651,0.0001431,6.145,0.02915,0,1,0
11700000000,12000000000,39308692,0,336047708,0.0001478,0.07959,0.08728,0.0007114,0.001015,0.07959,1.907e-06,0.0001774,0.001253,0.0001431,8.499,0.04144,0,1,0
12000000000,12300000000,39308692,0,336047708,0.0001497,0.07959,0.08728,0.0007114,0.001015,0.07959,3.815e-06,0.0001774,0.002796,0.0006428,5.825,0.0281,0,1,0
12300000000,12600000000,39308692,0,336047708,0.0001411,0.07959,0.08728,0.0007124,0.001015,0.07959,1.907e-06,0.0001774,0.006363,0.0001431,5.667,0.02662,0,1,0
12600000000,12900000000,39308692,0,336047708,0.0001373,0.07959,0.08728,0.0007133,0.001017,0.07959,2.861e-06,0.0001774,0.005707,0.0001431,5.389,0.02683,0,1,0
12900000000,13200000000,39308692,0,336047708,0.0001411,0.07959,0.08728,0.0007133,0.001017,0.07959,1.907e-06,0.0001774,0.003326,0.0001431,5.09,0.0257,0,1,0
13200000000,13500000000,39308692,0,336047708,0.0001259,0.07959,0.08728,0.0007143,0.001017,0.07959,1.907e-06,0.0001774,0.003395,0.0001431,4.993,0.02479,0,1,0
13500000000,13800000000,39308692,0,336047708,0.0001326,0.07959,0.08728,0.0007143,0.001017,0.07959,1.907e-06,0.0001774,0.002102,0.0001431,5.788,0.02952,0,1,0
13800000000,14100000000,39308692,0,336047708,0.0001316,0.07959,0.08728,0.0007153,0.001019,0.07959,1.907e-05,0.0001774,0.003456,0.002716,5.87,0.02992,0,1,0
14100000000,14400000000,39308692,0,336047708,0.0001354,0.07959,0.08728,0.0007153,0.001019,0.07959,2.861e-06,0.0001774,0.003029,0.0001431,4.845,0.02402,0,1,0
14400000000,14700000000,39308692,0,336047708,0.0001469,0.07959,0.08728,0.0007162,0.001019,0.07959,3.815e-06,0.0001774,0.005074,0.0004282,4.539,0.02227,0,1,0
14700000000,15000000000,39308692,0,336047708,0.0001297,0.07959,0.08728,0.0007172,0.00102,0.07959,1.907e-06,0.0001774,0.002533,0.0001431,5.346,0.02684,0,1,0
15000000000,15300000000,39308692,0,336047708,0.0001392,0.07959,0.08728,0.0007172,0.00102,0.07959,2.861e-06,0.0001774,0.002419,0.0001431,4.771,0.02342,0,1,0
15300000000,15600000000,39308692,0,336047708,0.0001335,0.07959,0.08728,0.0007181,0.00102,0.07959,1.907e-06,0.0001774,0.001778,0.0001431,5.426,0.02714,0,1,0
15600000000,15900000000,39308692,0,336047708,0.0001373,0.07959,0.08728,0.0007191,0.001022,0.07959,2.861e-06,0.0001774,0.006035,0.0002146,4.913,0.02462,0,1,0
15900000000,16200000000,39308692,0,336047708,0.0001383,0.07959,0.08728,0.00072,0.001022,0.07959,2.861e-06,0.0001774,0.0056,0.0003567,5.007,0.02518,0,1,0
16200000000,16500000000,39308692,0,336047708,0.0001402,0.07959,0.08728,0.000721,0.001024,0.07959,2.861e-06,0.0001774,0.003628,0.0001431,4.746,0.02362,0,1,0
16500000000,16800000000,39308692,0,336047708,0.0001268,0.07959,0.08728,0.0007219,0.001024,0.07959,1.907e-06,0.0001774,0.002342,0.0001431,5.275,0.02657,0,1,0
16800000000,17100000000,39308692,0,336047708,0.0001354,0.07959,0.08728,0.0007219,0.001026,0.07959,1.907e-06,0.0001774,0.001947,0.0001431,5.346,0.02692,0,1,0
17100000000,17400000000,39308692,0,336047708,0.0001345,0.07959,0.08728,0.0007229,0.001026,0.07959,2.861e-06,0.0001774,0.004234,0.0001431,6.196,0.03153,0,1,0
17400000000,17700000000,39308692,0,336047708,0.0001297,0.07959,0.08728,0.0007238,0.001026,0.07959,1.907e-06,0.0001774,0.002251,0.0001431,5.55,0.02803,0,1,0
17700000000,18000000000,39308692,0,336047708,0.0001345,0.07959,0.08728,0.0007238,0.001026,0.07959,2.861e-06,0.0001774,0.00238,0.0001431,5.124,0.02541,0,1,0
18000000000,18300000000,39308692,0,336047708,0.0001345,0.07959,0.08728,0.0007248,0.001028,0.07959,1.907e-06,0.0001774,0.00322,0.0001431,5.43,0.0271,0,1,0
18300000000,18600000000,39308692,0,336047708,0.0001278,0.07959,0.08728,0.0007248,0.001028,0.07959,1.907e-06,0.0001774,0.002563,0.0001431,5.691,0.02878,0,1,0
18600000000,18900000000,39308692,0,336047708,0.000144,0.07959,0.08728,0.0007257,0.001028,0.07959,2.861e-06,0.0001774,0.008377,0.0001431,4.799,0.02333,0,1,0
18900000000,19200000000,39308692,0,336047708,0.0001221,0.07959,0.08728,0.0007267,0.00103,0.07959,2.861e-06,0.0001774,0.001844,0.0002146,6.873,0.03583,0,1,0
19200000000,19500000000,39308692,0,336047708,0.0001392,0.07959,0.08728,0.0007267,0.00103,0.07959,1.907e-06,0.0001774,0.004021,0.0001431,4.672,0.02307,0,1,0
19500000000,19800000000,39308692,0,336047708,0.0001268,0.07959,0.08728,0.0007277,0.00103,0.07959,1.907e-06,0.0001774,0.001759,0.0001431,6.405,0.03232,0,1,0
19800000000,20100000000,39308692,0,336047708,0.0001297,0.07959,0.08728,0.0007277,0.00103,0.07959,1.907e-06,0.0001774,0.005058,0.0001431,5.329,0.02685,0,1,0
20100000000,20400000000,39308692,0,336047708,0.0001259,0.07959,0.08728,0.0007286,0.001032,0.07959,2.861e-06,0.0001774,0.004211,0.0001431,4.784,0.02407,0,1,0
20400000000,20700000000,39308692,0,336047708,0.0001373,0.07959,0.08728,0.0007286,0.001032,0.07959,2.861e-06,0.0001774,0.002884,0.0001431,6.762,0.03525,0,1,0
20700000000,21000000000,39308692,0,336047708,0.0001268,0.07959,0.08728,0.0007296,0.001032,0.07959,1.907e-06,0.0001774,0.004883,0.0001431,5.799,0.02936,0,1,0
21000000000,21300000000,39308692,0,336047708,0.0001335,0.07959,0.08728,0.0007296,0.001032,0.07959,2.861e-06,0.0001774,0.003838,0.0001431,6.046,0.03053,0,1,0
21300000000,21600000000,39308692,0,336047708,0.0001364,0.07959,0.08728,0.0007305,0.001034,0.07959,1.907e-06,0.0001774,0.002098,0.0001431,4.927,0.02447,0,1,0
21600000000,21900000000,39308692,0,336047708,0.0001535,0.07959,0.08728,0.0007315,0.001034,0.07959,2.861e-06,0.0001774,0.002472,0.0002146,3.863,0.01822,0,1,0
21900000000,22200000000,39308692,0,336047708,0.0001326,0.07959,0.08728,0.0007305,0.001034,0.07959,2.861e-06,0.0001774,0.002811,0.0001431,5.392,0.02732,0,1,0
22200000000,22500000000,39308692,0,336047708,0.0001497,0.07959,0.08728,0.0007305,0.001034,0.07959,1.907e-06,0.0001774,0.002811,0.0001431,5.819,0.02791,0,1,0
22500000000,22800000000,39308692,0,336047708,0.0001497,0.07959,0.08728,0.0007133,0.001015,0.07959,5.722e-06,0.0001774,0.003189,0.001143,5.165,0.02487,0,1,0
22800000000,23100000000,39308692,0,336047708,0.0001383,0.07959,0.08728,0.0007105,0.001013,0.07959,1.144e-05,0.0001774,0.002827,0.00293,5.537,0.02696,0,1,0
23100000000,23400000000,39308692,0,336047708,0.0001307,0.07959,0.08728,0.0007114,0.001013,0.07959,3.815e-06,0.0001774,0.002632,0.0003567,6.073,0.03118,0,1,0
23400000000,23700000000,39308692,0,336047708,0.000144,0.07959,0.08728,0.0007124,0.001015,0.07959,1.907e-06,0.0001774,0.006729,0.0001431,4.526,0.02218,0,1,0
23700000000,24000000000,39308692,0,336047708,0.000144,0.07959,0.08728,0.0007124,0.001015,0.07959,1.144e-05,0.0001774,0.00161,0.00293,5.416,0.02622,0,1,0
24000000000,24300000000,39308692,0,336047708,0.0001478,0.07959,0.08728,0.0007133,0.001015,0.07959,2.861e-06,0.0001774,0.008469,0.0001431,4.772,0.02335,0,1,0
24300000000,24600000000,39308692,0,336047708,0.0001383,0.07959,0.08728,0.0007133,0.001017,0.07959,2.861e-06,0.0001774,0.002728,0.0001431,4.2,0.02022,0,1,0
24600000000,24900000000,39308692,0,336047708,0.000164,0.07959,0.08728,0.0007143,0.001017,0.07959,2.861e-06,0.0001774,0.005714,0.0001431,5.466,0.02687,0,1,0
24900000000,25200000000,39308692,0,336047708,0.0001459,0.07959,0.08728,0.0007153,0.001017,0.07959,2.861e-06,0.0001774,0.005852,0.0001431,5.03,0.02484,0,1,0
25200000000,25500000000,39308692,0,336047708,0.000144,0.07959,0.08728,0.0007162,0.001019,0.07959,2.861e-06,0.0001774,0.002728,0.0001431,4.852,0.02382,0,1,0
25500000000,25800000000,39308692,0,336047708,0.0001373,0.07959,0.08728,0.0007162,0.001019,0.07959,2.861e-06,0.0001774,0.00251,0.0001431,5.266,0.02631,0,1,0
25800000000,26100000000,39308692,0,336047708,0.0001478,0.07959,0.08728,0.0007172,0.001019,0.07959,2.861e-06,0.0001774,0.002705,0.0001431,5.274,0.02591,0,1,0
26100000000,26400000000,39308692,0,336047708,0.0001297,0.07959,0.08728,0.0007172,0.00102,0.07959,2.861e-06,0.0001774,0.002182,0.0001431,5.596,0.02805,0,1,0
26400000000,26700000000,39308692,0,336047708,0.000144,0.07959,0.08728,0.0007181,0.00102,0.07959,1.907e-06,0.0001774,0.002853,0.0001431,5.47,0.02763,0,1,0
26700000000,27000000000,39308692,0,336047708,0.0001516,0.07959,0.08728,0.0007191,0.00102,0.07959,2.861e-06,0.0001774,0.002022,0.0001431,5.479,0.02758,0,1,0
27000000000,27300000000,39308692,0,336047708,0.0001411,0.07959,0.08728,0.0007191,0.001022,0.07959,2.861e-06,0.0001774,0.002743,0.0002146,6.079,0.03121,0,1,0
27300000000,27600000000,39308692,0,336047708,0.0001316,0.07959,0.08728,0.00072,0.001022,0.07959,5.722e-06,0.0001774,0.005096,0.001215,5.519,0.028,0,1,0
27600000000,27900000000,39308692,0,336047708,0.0001554,0.07959,0.08728,0.000721,0.001022,0.07959,1.907e-06,0.0001774,0.002583,0.0001431,6.575,0.03352,0,1,0
27900000000,28200000000,39308692,0,336047708,0.000165,0.07959,0.08728,0.000721,0.001024,0.07959,2.861e-06,0.0001774,0.005989,0.0001431,5.172,0.02546,0,1,0
28200000000,28500000000,39308692,0,336047708,0.0001478,0.07959,0.08728,0.0007219,0.001024,0.07959,1.907e-06,0.0001774,0.004036,0.0001431,5.692,0.02866,0,1,0
28500000000,28800000000,39308692,0,336047708,0.0001574,0.07959,0.08728,0.0007219,0.001024,0.07959,1.907e-06,0.0001774,0.003437,0.0001431,4.588,0.02219,0,1,0
28800000000,29100000000,39308692,0,336047708,0.0001421,0.07959,0.08728,0.000721,0.001024,0.07959,1.907e-06,0.0001774,0.002785,0.0001431,5.623,0.02811,0,1,0
29100000000,29400000000,39308692,0,336047708,0.0001402,0.07959,0.08728,0.0007219,0.001024,0.07959,3.815e-06,0.0001774,0.004631,0.0007143,5.648,0.028,0,1,0
29400000000,29700000000,39308692,0,336047708,0.0001431,0.07959,0.08728,0.0007229,0.001024,0.07959,2.861e-06,0.0001774,0.002586,0.0001431,5.887,0.02984,0,1,0
29700000000,30000000000,39308692,0,336047708,0.0001411,0.07959,0.08728,0.0007229,0.001026,0.07959,8.583e-06,0.0001774,0.002403,0.001858,5.533,0.0284,0,1,0
30000000000,30300000000,39308692,0,336047708,0.0001497,0.07959,0.08728,0.0007238,0.001026,0.07959,2.861e-06,0.0001774,0.003483,0.0001431,4.374,0.02143,0,1,0
30300000000,30600000000,39308692,0,336047708,0.0001373,0.07959,0.08728,0.0007248,0.001026,0.07959,2.861e-06,0.0001774,0.002872,0.0001431,4.588,0.02232,0,1,0
30600000000,30900000000,39308692,0,336047708,0.0001383,0.07959,0.08728,0.0007248,0.001028,0.07959,2.861e-06,0.0001774,0.002609,0.0001431,4.767,0.02345,0,1,0
30900000000,31200000000,39308692,0,336047708,0.000144,0.07959,0.08728,0.0007257,0.001028,0.07959,2.861e-06,0.0001774,0.002556,0.0001431,4.858,0.02425,0,1,0
31200000000,31500000000,39308692,0,336047708,0.0001287,0.07959,0.08728,0.0007267,0.001028,0.07959,2.861e-06,0.0001774,0.003178,0.0001431,7.588,0.04023,0,1,0
31500000000,31800000000,39308692,0,336047708,0.0001411,0.07959,0.08728,0.0007267,0.00103,0.07959,1.907e-06,0.0001774,0.003399,0.0001431,6.22,0.03155,0,1,0
31800000000,32100000000,39308692,0,336047708,0.0001554,0.07959,0.08728,0.0007277,0.00103,0.07959,1.907e-06,0.0001774,0.00378,0.0001431,5.1,0.02495,0,1,0
32100000000,32400000000,39308692,0,336047708,0.0001497,0.07959,0.08728,0.0007286,0.00103,0.07959,1.907e-06,0.0001774,0.004089,0.0001431,6.09,0.0307,0,1,0
32400000000,32700000000,39308692,0,336047708,0.0001478,0.07959,0.08728,0.0007286,0.001032,0.07959,2.861e-06,0.0001774,0.002468,0.0001431,5.158,0.02519,0,1,0
32700000000,33000000000,39308692,0,336047708,0.0001364,0.07959,0.08728,0.0007296,0.001032,0.07959,2.861e-06,0.0001774,0.003101,0.0001431,7.136,0.03616,0,1,0
33000000000,33300000000,39308692,0,336047708,0.0001373,0.07959,0.08728,0.0007305,0.001032,0.07959,1.907e-06,0.0001774,0.002121,0.0001431,6.015,0.03041,0,1,0
33300000000,33600000000,39308692,0,336047708,0.0001345,0.07959,0.08728,0.0007305,0.001034,0.07959,2.861e-06,0.0001774,0.005104,0.0002146,6.7,0.03442,0,1,0
33600000000,33900000000,39308692,0,336047708,0.0001659,0.07959,0.08728,0.0007315,0.001034,0.07959,1.907e-06,0.0001774,0.007286,0.0001431,5.29,0.02624,0,1,0
33900000000,34200000000,39308692,0,336047708,0.0001383,0.07959,0.08728,0.0007324,0.001034,0.07959,2.861e-06,0.0001774,0.002853,0.0001431,4.623,0.02248,0,1,0
34200000000,34500000000,39308692,0,336047708,0.0001478,0.07959,0.08728,0.0007324,0.001036,0.07959,1.907e-06,0.0001774,0.00251,0.0001431,4.954,0.02445,0,1,0
34500000000,34800000000,39308692,0,336047708,0.0001307,0.07959,0.08728,0.0007334,0.001036,0.07959,1.907e-06,0.0001783,0.003635,0.0001431,5.796,0.02976,0,1,0
34800000000,35100000000,39308692,0,336047708,0.0001545,0.07959,0.08728,0.0007343,0.001036,0.07959,2.861e-06,0.0001783,0.004158,0.0001431,5.404,0.02709,0,1,0
35100000000,35400000000,39308692,0,336047708,0.0001421,0.07959,0.08728,0.0007343,0.001038,0.07959,2.861e-06,0.0001783,0.004333,0.0002146,5.135,0.02518,0,1,0
35400000000,35700000000,39308692,0,336047708,0.0001354,0.07959,0.08728,0.0007353,0.001038,0.07959,2.861e-06,0.0001783,0.003109,0.0002861,6.154,0.03188,0,1,0
35700000000,36000000000,39308692,0,336047708,0.0001383,0.07959,0.08728,0.0007362,0.001038,0.07959,1.24e-05,0.0001783,0.004906,0.002998,4.707,0.02351,0,1,0
36000000000,36300000000,39308692,0,336047708,0.0001316,0.07959,0.08728,0.0007362,0.00104,0.07959,1.907e-06,0.0001783,0.001917,0.0001431,5.066,0.02526,0,1,0
36300000000,36600000000,39308692,0,336047708,0.0001392,0.07959,0.08728,0.0007372,0.00104,0.07959,1.526e-05,0.0001783,0.00618,0.003784,5.217,0.02588,0,1,0
36600000000,36900000000,39308692,0,336047708,0.0001316,0.07959,0.08728,0.0007372,0.00104,0.07959,1.907e-06,0.0001783,0.003975,0.0001431,5.767,0.02852,0,1,0
36900000000,37200000000,39308692,0,336047708,0.0001316,0.07959,0.08728,0.0007381,0.00104,0.07959,2.861e-06,0.0001783,0.002483,0.0002861,5.028,0.02563,0,1,0
37200000000,37500000000,39308692,0,336047708,0.0001345,0.07959,0.08728,0.0007391,0.001041,0.07959,2.861e-06,0.0001783,0.001886,0.0001431,5.958,0.03015,0,1,0
37500000000,37800000000,39308692,0,336047708,0.0001459,0.07959,0.08728,0.0007391,0.001041,0.07959,1.907e-06,0.0001783,0.002266,0.0001431,4.893,0.02324,0,1,0
37800000000,38100000000,39308692,0,336047708,0.0001307,0.07959,0.08728,0.0007401,0.001041,0.07959,1.907e-06,0.0001783,0.003681,0.0001431,5.731,0.02948,0,1,0
38100000000,38400000000,39308692,0,336047708,0.0001364,0.07959,0.08728,0.0007401,0.001043,0.07959,2.861e-06,0.0001783,0.001539,0.0002146,4.984,0.02555,0,1,0
38400000000,38700000000,39308692,0,336047708,0.0001268,0.07959,0.08728,0.0007362,0.001038,0.07959,2.861e-06,0.0001783,0.002438,0.0001431,6.258,0.03212,0,1,0
38700000000,39000000000,39308692,0,336047708,0.0001354,0.07959,0.08728,0.0007305,0.001032,0.07959,2.861e-06,0.0001783,0.003418,0.0001431,6.458,0.03169,0,1,0
39000000000,39300000000,39308692,0,336047708,0.0001583,0.07959,0.08728,0.0007305,0.001032,0.07959,2.861e-06,0.0001783,0.004272,0.0002861,5.316,0.02588,0,1,0
39300000000,39600000000,39308692,0,336047708,0.0001459,0.07959,0.08728,0.0007305,0.001034,0.07959,2.861e-06,0.0001783,0.002926,0.0002146,5.298,0.02595,0,1,0
39600000000,39900000000,39308692,0,336047708,0.000145,0.07959,0.08728,0.0007315,0.001034,0.07959,1.907e-06,0.0001783,0.003002,0.0001431,6.542,0.03113,0,1,0
39900000000,40200000000,39308692,0,336047708,0.0001373,0.07959,0.08728,0.0007277,0.00103,0.07959,2.861e-06,0.0001783,0.00359,0.0003567,4.922,0.02326,0,1,0
40200000000,40500000000,39308692,0,336047708,0.0001297,0.07959,0.08728,0.0007286,0.00103,0.07959,2.861e-06,0.0001783,0.003288,0.0001431,5.34,0.02576,0,1,0
40500000000,40800000000,39308692,0,336047708,0.0001163,0.07959,0.08728,0.0007286,0.001032,0.07959,2.861e-06,0.0001783,0.002071,0.0001431,6.14,0.03106,0,1,0
51000000000,51300000000,39308692,0,336047708,0.0001469,0.07959,0.08728,0.0007162,0.001019,0.07959,2.861e-06,0.0001783,0.003368,0.0001431,5.549,0.02789,0,1,0
51300000000,51600000000,39308692,0,336047708,0.0001278,0.07959,0.08728,0.0007172,0.00102,0.07959,2.861e-06,0.0001783,0.002762,0.0001431,5.296,0.02663,0,1,0
51600000000,51900000000,39308692,0,336047708,0.0001392,0.07959,0.08728,0.0007172,0.00102,0.07959,1.24e-05,0.0001783,0.002731,0.00293,6.399,0.03281,0,1,0
51900000000,52200000000,39308692,0,336047708,0.0001249,0.07959,0.08728,0.0007181,0.00102,0.07959,2.861e-06,0.0001783,0.003273,0.0002861,6.662,0.03414,0,1,0
52200000000,52500000000,39308692,0,336047708,0.0001364,0.07959,0.08728,0.0007181,0.00102,0.07959,2.861e-06,0.0001783,0.003914,0.0001431,5.216,0.02589,0,1,0
52500000000,52800000000,39308692,0,336047708,0.0001278,0.07959,0.08728,0.0007191,0.001022,0.07959,1.335e-05,0.0001783,0.0016,0.00293,6.823,0.03554,0,1,0
52800000000,53100000000,39308692,0,336047708,0.000124,0.07959,0.08728,0.0007191,0.001022,0.07959,2.861e-06,0.0001783,0.001972,0.0001431,6.049,0.03137,0,1,0
53100000000,53400000000,39308692,0,336047708,0.0001373,0.07959,0.08728,0.00072,0.001022,0.07959,2.861e-06,0.0001783,0.001984,0.0001431,6.34,0.03279,0,1,0
53400000000,53700000000,39308692,0,336047708,0.0001287,0.07959,0.08728,0.000721,0.001022,0.07959,1.335e-05,0.0001783,0.002525,0.003143,6.179,0.03198,0,1,0
53700000000,54000000000,39308692,0,336047708,0.0001259,0.07959,0.08728,0.000721,0.001024,0.07959,4.768e-06,0.0001783,0.003658,0.0009289,5.979,0.03112,0,1,0
54000000000,54300000000,39308692,0,336047708,0.0001402,0.07959,0.08728,0.0007219,0.001024,0.07959,1.907e-06,0.0001783,0.003307,0.0001431,5.247,0.02636,0,1,0
54300000000,54600000000,39308692,0,336047708,0.0001326,0.07959,0.08728,0.0007219,0.001024,0.07959,1.907e-06,0.0001783,0.003345,0.0001431,5.374,0.02714,0,1,0
54600000000,54900000000,39308692,0,336047708,0.0001259,0.07959,0.08728,0.0007229,0.001026,0.07959,2.861e-06,0.0001783,0.002502,0.0001431,6.138,0.03213,0,1,0
54900000000,55200000000,39308692,0,336047708,0.0001259,0.07959,0.08728,0.0007229,0.001026,0.07959,2.861e-06,0.0001783,0.00293,0.0001431,6.03,0.03172,0,1,0
55200000000,55500000000,39308692,0,336047708,0.0001192,0.07959,0.08728,0.0007238,0.001026,0.07959,2.861e-06,0.0001783,0.002167,0.0001431,5.748,0.02936,0,1,0
55500000000,55800000000,39308692,0,336047708,0.0001326,0.07959,0.08728,0.0007238,0.001026,0.07959,5.722e-06,0.0001783,0.002735,0.0009995,4.582,0.02302,0,1,0
55800000000,56100000000,39308692,0,336047708,0.0001259,0.07959,0.08728,0.0007248,0.001028,0.07959,2.861e-06,0.0001783,0.005554,0.0001431,7.476,0.03998,0,1,0
56100000000,56400000000,39308692,0,336047708,0.0001249,0.07959,0.08728,0.0007248,0.001028,0.07959,2.861e-06,0.0001783,0.002514,0.0002861,5.092,0.02569,0,1,0
56400000000,56700000000,39308692,0,336047708,0.000102,0.07959,0.08728,0.0007257,0.001028,0.07959,2.861e-06,0.0001783,0.00108,0.0001431,8.362,0.04516,0,1,0
56700000000,57000000000,39308692,0,336047708,8.869e-05,0.07959,0.08728,0.0007257,0.001028,0.07959,1.907e-06,0.0001783,0.0009956,0.0002146,9.373,0.05171,0,1,0
57000000000,57300000000,39308692,0,336047708,9.823e-05,0.07959,0.08728,0.0007257,0.001028,0.07959,2.861e-06,0.0001783,0.001358,0.0001431,13.51,0.07258,0,1,0
57300000000,57600000000,39308692,0,336047708,9.06e-05,0.07959,0.08728,0.0007257,0.001028,0.07959,2.861e-06,0.0001783,0.001305,0.0007143,12.3,0.06819,0,1,0
57600000000,57900000000,39308692,0,336047708,0.0001078,0.07959,0.08728,0.0007257,0.001028,0.07959,1.907e-06,0.0001783,0.00206,0.0001431,7.251,0.03854,0,1,0
57900000000,58200000000,39308692,0,336047708,0.0001192,0.07959,0.08728,0.0007257,0.001028,0.07959,9.537e-06,0.0001783,0.002419,0.002357,6.411,0.03355,0,1,0
58200000000,58500000000,39308692,0,336047708,0.0001192,0.07959,0.08728,0.0007219,0.001024,0.07959,2.861e-06,0.0001783,0.002235,0.0001431,7.833,0.04076,0,1,0
58500000000,58800000000,39308692,0,336047708,9.918e-05,0.07959,0.08728,0.000721,0.001024,0.07959,6.676e-06,0.0001783,0.001514,0.001143,6.953,0.03661,0,1,0
58800000000,59100000000,39308692,0,336047708,8.678e-05,0.07959,0.08728,0.000721,0.001024,0.07959,2.861e-06,0.0001783,0.0007296,0.0001431,20.63,0.1179,0,1,0
59100000000,59400000000,39308692,0,336047708,8.965e-05,0.07959,0.08728,0.0007219,0.001024,0.07959,7.629e-06,0.0001783,0.001104,0.001143,21.63,0.1219,0,1,0
59400000000,59700000000,39308692,0,336047708,0.000205,0.07959,0.08728,0.0007296,0.001045,0.07983,0.0002222,0.0001783,0.01242,0.01587,10.45,0.05904,0,1,0
59700000000,60000000000,39308692,0,336047708,0.0001764,0.07983,0.08728,0.000782,0.001194,0.07983,1.24e-05,0.0001783,0.003456,0.001928,8.969,0.04744,0,1,0
60000000000,60300000000,39308692,0,336047708,0.0001678,0.07971,0.08728,0.000783,0.001194,0.07971,3.815e-06,0.0001783,0.002266,0.0002861,10.05,0.05448,0,1,0
60300000000,60600000000,39308692,0,336047708,0.000165,0.07971,0.08728,0.0007572,0.001167,0.07971,2.861e-06,0.0001783,0.002205,0.0002146,9.206,0.04994,0,1,0
60600000000,60900000000,39308692,0,336047708,0.0001907,0.07971,0.08728,0.0007515,0.001162,0.07971,1.907e-05,0.0001783,0.01807,0.002998,8.574,0.04585,0,1,0
70800000000,71100000000,39308692,0,336047708,0.0001211,0.07959,0.08728,0.0007067,0.001007,0.07959,2.861e-06,0.0001783,0.006149,0.0001431,6.488,0.03378,0,1,0
71100000000,71400000000,39308692,0,336047708,0.0001183,0.07959,0.08728,0.0007067,0.001009,0.07959,2.861e-06,0.0001783,0.001099,0.0001431,7.449,0.03816,0,1,0
71400000000,71700000000,39308692,0,336047708,0.0001125,0.07959,0.08728,0.0007067,0.001009,0.07959,2.861e-06,0.0001783,0.00186,0.0001431,6.154,0.0314,0,1,0
71700000000,72000000000,39308692,0,336047708,0.0001125,0.07959,0.08728,0.0007076,0.001009,0.07959,3.815e-06,0.0001783,0.002895,0.0005713,7.006,0.03691,0,1,0
72000000000,72300000000,39308692,0,336047708,0.0001087,0.07959,0.08728,0.0007076,0.001009,0.07959,2.861e-06,0.0001783,0.0008974,0.0002146,7.95,0.04217,0,1,0
72300000000,72600000000,39308692,0,336047708,0.0001345,0.07959,0.08728,0.0007076,0.001009,0.07959,6.676e-06,0.0001783,0.002617,0.001143,8.097,0.03884,0,1,0
72600000000,72900000000,39308692,0,336047708,0.0001345,0.07959,0.08728,0.0007019,0.001003,0.07959,1.24e-05,0.0001783,0.002728,0.00293,4.266,0.0205,0,1,0
72900000000,73200000000,39308692,0,336047708,0.0001049,0.07959,0.08728,0.000701,0.001001,0.07959,2.861e-06,0.0001783,0.002083,0.0001431,6.717,0.03431,0,1,0
73200000000,73500000000,39308692,0,336047708,9.727e-05,0.07959,0.08728,0.000701,0.001003,0.07959,2.861e-06,0.0001783,0.002514,0.0001431,7.113,0.03799,0,1,0
73500000000,73800000000,39308692,0,336047708,0.0001078,0.07959,0.08728,0.0007019,0.001003,0.07959,4.768e-06,0.0001783,0.00362,0.0009289,21.14,0.1207,0,1,0
73800000000,74100000000,39308692,0,336047708,0.0001116,0.07959,0.08728,0.0007019,0.001003,0.07959,2.861e-06,0.0001783,0.002827,0.0001431,7.895,0.04113,0,1,0
74100000000,74400000000,39308692,0,336047708,0.0001116,0.07959,0.08728,0.0007019,0.001003,0.07959,2.861e-06,0.0001783,0.001137,0.0001431,8.253,0.04225,0,1,0
74400000000,74700000000,39308692,0,336047708,0.0001144,0.07959,0.08728,0.0007019,0.001003,0.07959,2.861e-06,0.0001783,0.004211,0.0001431,9.053,0.04775,0,1,0
74700000000,75000000000,39308692,0,336047708,0.0001059,0.07959,0.08728,0.0007029,0.001003,0.07959,2.861e-06,0.0001783,0.007576,0.0001431,6.086,0.03112,0,1,0
75000000000,75300000000,39308692,0,336047708,0.0001135,0.07959,0.08728,0.0007029,0.001003,0.07959,2.861e-06,0.0001783,0.004097,0.0002861,7.012,0.03677,0,1,0
75300000000,75600000000,39308692,0,336047708,0.0001116,0.07959,0.08728,0.0007029,0.001005,0.07959,1.907e-06,0.0001783,0.001999,0.0001431,8.908,0.04788,0,1,0
75600000000,75900000000,39308692,0,336047708,0.0001097,0.07959,0.08728,0.0007038,0.001005,0.07959,2.861e-06,0.0001783,0.001486,0.0001431,6.535,0.03313,0,1,0
75900000000,76200000000,39308692,0,336047708,0.000104,0.07959,0.08728,0.0007038,0.001005,0.07959,2.861e-06,0.0001783,0.001225,0.0002146,6.681,0.03499,0,1,0
76200000000,76500000000,39308692,0,336047708,0.000102,0.07959,0.08728,0.0007038,0.001005,0.07959,1.907e-06,0.0001783,0.003475,0.0001431,5.998,0.03088,0,1,0
76500000000,76800000000,39308692,0,336047708,9.823e-05,0.07959,0.08728,0.0007038,0.001005,0.07959,2.861e-06,0.0001783,0.002113,0.0001431,17.88,0.1013,0,1,0
76800000000,77100000000,39308692,0,336047708,0.0001068,0.07959,0.08728,0.0007048,0.001005,0.07959,2.861e-06,0.0001783,0.01299,0.0001431,8.605,0.04636,0,1,0
77100000000,77400000000,39308692,0,336047708,9.632e-05,0.07959,0.08728,0.0007048,0.001005,0.07959,2.861e-06,0.0001783,0.002399,0.0001431,11.08,0.06143,0,1,0
77400000000,77700000000,39308692,0,336047708,9.346e-05,0.07959,0.08728,0.0007048,0.001005,0.07959,1.907e-06,0.0001783,0.002052,0.0001431,8.264,0.04479,0,1,0
77700000000,78000000000,39308692,0,336047708,0.0001001,0.07959,0.08728,0.0007048,0.001007,0.07959,2.861e-06,0.0001783,0.001516,0.0001431,18.85,0.1047,0,1,0
78000000000,78300000000,39308692,0,336047708,0.0001068,0.07959,0.08728,0.0007048,0.001007,0.07959,2.861e-06,0.0001783,0.002167,0.0001431,5.035,0.02582,0,1,0
78300000000,78600000000,39308692,0,336047708,0.0001011,0.07959,0.08728,0.0007057,0.001007,0.07959,3.815e-06,0.0001783,0.001806,0.0006428,7.29,0.03859,0,1,0
78600000000,78900000000,39308692,0,336047708,9.823e-05,0.07959,0.08728,0.0007057,0.001007,0.07959,2.861e-06,0.0001783,0.001118,0.0001431,22.21,0.1243,0,1,0
78900000000,79200000000,39308692,0,336047708,9.727e-05,0.07959,0.08728,0.0007057,0.001007,0.07959,2.861e-06,0.0001783,0.001431,0.0002146,8.871,0.04827,0,1,0
79200000000,79500000000,39308692,0,336047708,0.0001049,0.07959,0.08728,0.0007057,0.001007,0.07959,1.144e-05,0.0001783,0.003639,0.00293,8.649,0.04647,0,1,0
79500000000,79800000000,39308692,0,336047708,8.965e-05,0.07959,0.08728,0.0007057,0.001007,0.07959,2.861e-06,0.0001783,0.001137,0.0002146,20.89,0.1183,0,1,0
79800000000,80100000000,39308692,0,336047708,9.632e-05,0.07959,0.08728,0.0007057,0.001007,0.07959,1.907e-06,0.0001783,0.001631,0.0001431,5.195,0.0268,0,1,0
80100000000,80400000000,39308692,0,336047708,9.251e-05,0.07959,0.08728,0.0007067,0.001007,0.07959,2.861e-06,0.0001783,0.001356,0.0002861,8.332,0.04387,0,1,0
80400000000,80700000000,39308692,0,336047708,9.346e-05,0.07959,0.08728,0.0007067,0.001007,0.07959,1.907e-06,0.0001783,0.001127,0.0001431,20.71,0.1181,0,1,0
80700000000,81000000000,39308692,0,336047708,9.441e-05,0.07959,0.08728,0.0007067,0.001007,0.07959,3.815e-06,0.0001783,0.00256,0.0005713,20.56,0.1178,0,1,0
85800000000,86100000000,39308692,0,336047708,0.0001001,0.07959,0.08728,0.0008936,0.001196,0.07959,2.861e-06,0.0001783,0.003059,0.0001431,8.167,0.04346,0,1,0
86100000000,86400000000,39308692,0,336047708,0.0001106,0.07959,0.08728,0.0008936,0.001196,0.07959,1.907e-06,0.0001783,0.003197,0.0001431,6.729,0.03523,0,1,0
86400000000,86700000000,39308692,0,336047708,0.0001049,0.07959,0.08728,0.0008936,0.001196,0.07959,3.815e-06,0.0001783,0.003002,0.0005713,6.38,0.03248,0,1,0
86700000000,87000000000,39308692,0,336047708,0.0001049,0.07959,0.08728,0.0008945,0.001196,0.07959,2.861e-06,0.0001783,0.002556,0.0002146,13.47,0.07226,0,1,0
87000000000,87300000000,39308692,0,336047708,0.000102,0.07959,0.08728,0.0008945,0.001196,0.07959,2.861e-06,0.0001783,0.001318,0.0001431,7.941,0.04122,0,1,0
87300000000,87600000000,39308692,0,336047708,0.0001059,0.07959,0.08728,0.0008945,0.001196,0.07959,2.861e-06,0.0001783,0.00235,0.0001431,8.936,0.04849,0,1,0
87600000000,87900000000,39308692,0,336047708,0.0001097,0.07959,0.08728,0.0008955,0.001196,0.07959,1.144e-05,0.0001783,0.001232,0.00293,5.875,0.03058,0,1,0
87900000000,88200000000,39308692,0,336047708,0.000104,0.07959,0.08728,0.0008955,0.001198,0.07959,4.768e-06,0.0001783,0.002312,0.0007143,7.854,0.04089,0,1,0
88200000000,88500000000,39308692,0,336047708,0.000104,0.07959,0.08728,0.0008936,0.001196,0.07959,2.861e-06,0.0001783,0.001703,0.0001431,8.117,0.04335,0,1,0
88500000000,88800000000,39308692,0,336047708,0.0001154,0.07959,0.08728,0.0008936,0.001196,0.07959,1.907e-06,0.0001783,0.003059,0.0001431,6.2,0.0312,0,1,0
88800000000,89100000000,39308692,0,336047708,0.0001154,0.07959,0.08728,0.0008945,0.001196,0.07959,2.861e-06,0.0001783,0.001326,0.0002146,8.048,0.0401,0,1,0
89100000000,89400000000,39308692,0,336047708,0.0001144,0.07959,0.08728,0.0008945,0.001196,0.07959,2.861e-06,0.0001783,0.002041,0.0001431,11.19,0.05722,0,1,0
89400000000,89700000000,39308692,0,336047708,0.0001297,0.07959,0.08728,0.0008945,0.001196,0.07959,1.907e-06,0.0001783,0.01654,0.0001068,4.694,0.02145,0,1,0
89700000000,90000000000,39308692,0,336047708,0.0001135,0.07959,0.08728,0.0008945,0.001196,0.07959,1.907e-06,0.0001783,0.002563,0.0001431,10.13,0.0505,0,1,0
90000000000,90300000000,39308692,0,336047708,0.000103,0.07959,0.08728,0.0007648,0.001066,0.07959,2.861e-06,0.0001783,0.001038,0.0002861,8.695,0.04561,0,1,0
90300000000,90600000000,39308692,0,336047708,0.000103,0.07959,0.08728,0.0007162,0.001017,0.07959,2.861e-06,0.0001783,0.002529,0.0001431,5.19,0.02642,0,1,0
90600000000,90900000000,39308692,0,336047708,0.000104,0.07959,0.08728,0.0007162,0.001019,0.07959,1.907e-06,0.0001783,0.000988,0.0001431,6.965,0.03492,0,1,0
101100000000,101400000000,39308692,0,336047708,0.0001326,0.07959,0.08728,0.0007172,0.001019,0.07959,2.861e-06,0.0001783,0.002243,0.0002146,5.244,0.02627,0,1,0
101400000000,101700000000,39308692,0,336047708,0.0001259,0.07959,0.08728,0.0007172,0.001019,0.07959,2.861e-06,0.0001783,0.002739,0.0001431,6.444,0.03316,0,1,0
101700000000,102000000000,39308692,0,336047708,0.0001421,0.07959,0.08728,0.0007181,0.00102,0.07959,1.907e-06,0.0001783,0.002834,0.0001431,5.466,0.02651,0,1,0
102000000000,102300000000,39308692,0,336047708,0.000145,0.07959,0.08728,0.0007181,0.00102,0.07959,1.907e-06,0.0001783,0.003212,0.0001431,4.6,0.02195,0,1,0
102300000000,102600000000,39308692,0,336047708,0.0001316,0.07959,0.08728,0.0007191,0.00102,0.07959,2.861e-06,0.0001783,0.001621,0.0001431,5.269,0.02602,0,1,0
102600000000,102900000000,39308692,0,336047708,0.0001392,0.07959,0.08728,0.00072,0.00102,0.07959,2.861e-06,0.0001783,0.002361,0.0001431,5.011,0.02451,0,1,0
102900000000,103200000000,39308692,0,336047708,0.0001259,0.07959,0.08728,0.00072,0.001022,0.07959,1.907e-06,0.0001783,0.002422,0.0001431,5.1,0.02567,0,1,0
103200000000,103500000000,39308692,0,336047708,0.0001307,0.07959,0.08728,0.000721,0.001022,0.07959,2.861e-06,0.0001783,0.002903,0.0001431,5.042,0.02527,0,1,0
103500000000,103800000000,39308692,0,336047708,0.0001354,0.07959,0.08728,0.000721,0.001022,0.07959,2.861e-06,0.0001783,0.002068,0.0002146,5.382,0.02685,0,1,0
103800000000,104100000000,39308692,0,336047708,0.0001364,0.07959,0.08728,0.0007219,0.001024,0.07959,2.861e-06,0.0001783,0.002392,0.0001431,6.232,0.03127,0,1,0
104100000000,104400000000,39308692,0,336047708,0.0001411,0.07959,0.08728,0.0007219,0.001024,0.07959,2.861e-06,0.0001783,0.002487,0.0001431,6.402,0.03215,0,1,0
104400000000,104700000000,39308692,0,336047708,0.0001411,0.07959,0.08728,0.0007229,0.001024,0.07959,2.861e-06,0.0001783,0.002991,0.0001431,5.054,0.02505,0,1,0
104700000000,105000000000,39308692,0,336047708,0.0001392,0.07959,0.08728,0.0007238,0.001024,0.07959,1.907e-06,0.0001783,0.002865,0.0001431,5.213,0.02554,0,1,0
105000000000,105300000000,39308692,0,336047708,0.0001392,0.07959,0.08728,0.0007238,0.001026,0.07959,1.907e-06,0.0001783,0.003513,0.0001431,5.71,0.02811,0,1,0
105300000000,105600000000,39308692,0,336047708,0.0001488,0.07959,0.08728,0.0007248,0.001026,0.07959,1.907e-06,0.0001783,0.003094,0.0001431,5.006,0.02467,0,1,0
105600000000,105900000000,39308692,0,336047708,0.0001383,0.07959,0.08728,0.0007248,0.001026,0.07959,2.861e-06,0.0001783,0.003418,0.0001431,4.494,0.02194,0,1,0
105900000000,106200000000,39308692,0,336047708,0.000123,0.07959,0.08728,0.0007257,0.001028,0.07959,2.861e-06,0.0001783,0.00301,0.0001431,6.047,0.03004,0,1,0
106200000000,106500000000,39308692,0,336047708,0.0001259,0.07959,0.08728,0.0007257,0.001028,0.07959,2.861e-06,0.0001783,0.002228,0.0001431,6.166,0.03116,0,1,0
106500000000,106800000000,39308692,0,336047708,0.0001278,0.07959,0.08728,0.0007267,0.001028,0.07959,2.861e-06,0.0001783,0.004257,0.0001431,4.438,0.02189,0,1,0
106800000000,107100000000,39308692,0,336047708,0.0001307,0.07959,0.08728,0.0007267,0.001028,0.07959,2.861e-06,0.0001783,0.003082,0.0001431,5.738,0.02839,0,1,0
107100000000,107400000000,39308692,0,336047708,0.0001326,0.07959,0.08728,0.0007277,0.00103,0.07959,1.907e-06,0.0001783,0.004471,0.0001431,6.113,0.03077,0,1,0
107400000000,107700000000,39308692,0,336047708,0.0001364,0.07959,0.08728,0.0007277,0.00103,0.07959,1.907e-06,0.0001783,0.00251,0.0001431,5.405,0.02635,0,1,0
107700000000,108000000000,39308692,0,336047708,0.0001354,0.07959,0.08728,0.0007286,0.00103,0.07959,2.861e-06,0.0001783,0.003296,0.0001431,4.464,0.02098,0,1,0
108000000000,108300000000,39308692,0,336047708,0.0001516,0.07959,0.08728,0.0007296,0.00103,0.07959,2.861e-06,0.0001783,0.009872,0.0001431,5.051,0.02452,0,1,0
108300000000,108600000000,39308692,0,336047708,0.0001307,0.07959,0.08728,0.0007296,0.001032,0.07959,2.861e-06,0.0001783,0.004532,0.0001431,5.383,0.02688,0,1,0
108600000000,108900000000,39308692,0,336047708,0.0001354,0.07959,0.08728,0.0007305,0.001032,0.07959,4.768e-06,0.0001783,0.003559,0.0006428,4.784,0.02342,0,1,0
108900000000,109200000000,39308692,0,336047708,0.0001354,0.07959,0.08728,0.0007305,0.001032,0.07959,2.861e-06,0.0001783,0.002232,0.0002146,4.852,0.02387,0,1,0
109200000000,109500000000,39308692,0,336047708,0.0001421,0.07959,0.08728,0.0007315,0.001034,0.07959,2.861e-06,0.0001783,0.006828,0.0001431,5.971,0.03017,0,1,0
109500000000,109800000000,39308692,0,336047708,0.0001516,0.07959,0.08728,0.0007324,0.001034,0.07959,2.861e-06,0.0001783,0.004677,0.0001431,5.449,0.02691,0,1,0
109800000000,110100000000,39308692,0,336047708,0.0001612,0.07959,0.08728,0.0007324,0.001034,0.07959,1.907e-06,0.0001783,0.003319,0.0001431,4.88,0.02376,0,1,0
110100000000,110400000000,39308692,0,336047708,0.0001526,0.07959,0.08728,0.0007334,0.001036,0.07959,2.861e-06,0.0001783,0.002335,0.0001431,4.581,0.02197,0,1,0
110400000000,110700000000,39308692,0,336047708,0.0001411,0.07959,0.08728,0.0007343,0.001036,0.07959,2.861e-06,0.0001783,0.001345,0.0001431,5.448,0.02654,0,1,0
110700000000,111000000000,39308692,0,336047708,0.000144,0.07959,0.08728,0.0007353,0.001036,0.07959,2.861e-06,0.0001783,0.006332,0.0001431,5.498,0.0274,0,1,0
116100000000,116400000000,39308692,0,336047708,0.0001488,0.07959,0.08728,0.0007458,0.001047,0.07959,1.907e-06,0.0001783,0.00222,0.0001431,4.874,0.02411,0,1,0
116400000000,116700000000,39308692,0,336047708,0.0001402,0.07959,0.08728,0.0007467,0.001049,0.07959,2.861e-06,0.0001783,0.002846,0.0001431,5.113,0.02536,0,1,0
116700000000,117000000000,39308692,0,336047708,0.0001335,0.07959,0.08728,0.0007477,0.001049,0.07959,2.861e-06,0.0001783,0.001909,0.0001431,5.313,0.02591,0,1,0
117000000000,117300000000,39308692,0,336047708,0.0001326,0.07959,0.08728,0.0007477,0.001049,0.07959,2.861e-06,0.0001783,0.003536,0.0001431,5.26,0.02587,0,1,0
117300000000,117600000000,39308692,0,336047708,0.0001307,0.07959,0.08728,0.0007486,0.001049,0.07959,3.815e-06,0.0001783,0.002609,0.0007143,5.561,0.02802,0,1,0
117600000000,117900000000,39308692,0,336047708,0.0001402,0.07959,0.08728,0.0007486,0.001051,0.07959,2.861e-06,0.0001783,0.002705,0.0001431,6.141,0.03119,0,1,0
117900000000,118200000000,39308692,0,336047708,0.0001507,0.07959,0.08728,0.0007496,0.001051,0.07959,1.907e-06,0.0001783,0.01015,0.0001431,4.089,0.01942,0,1,0
118200000000,118500000000,39308692,0,336047708,0.0001469,0.07959,0.08728,0.0007505,0.001051,0.07959,2.861e-06,0.0001783,0.002586,0.0001431,5.539,0.02743,0,1,0
118500000000,118800000000,39308692,0,336047708,0.0001316,0.07959,0.08728,0.0007505,0.001053,0.07959,2.861e-06,0.0001783,0.002777,0.0002146,5.418,0.02745,0,1,0
118800000000,119100000000,39308692,0,336047708,0.0001307,0.07959,0.08728,0.0007515,0.001053,0.07959,3.815e-06,0.0001783,0.003002,0.0003567,4.708,0.02335,0,1,0
119100000000,119400000000,39308692,0,336047708,0.0001383,0.07959,0.08728,0.0007524,0.001053,0.07959,2.861e-06,0.0001783,0.002171,0.0001431,5.059,0.02526,0,1,0
119400000000,119700000000,39308692,0,336047708,0.0001602,0.07959,0.08728,0.0007524,0.001055,0.07959,2.861e-06,0.0001783,0.004593,0.0001431,4.546,0.02194,0,1,0
119700000000,120000000000,39308692,0,336047708,0.0001287,0.07959,0.08728,0.0007534,0.001055,0.07959,1.907e-06,0.0001783,0.002312,0.0001431,5.761,0.02895,0,1,0
120000000000,120300000000,39308692,0,336047708,0.0001345,0.07959,0.08728,0.0007534,0.001055,0.07959,1.049e-05,0.0001783,0.003231,0.00243,5.481,0.02772,0,1,0
120300000000,120600000000,39308692,0,336047708,0.0001345,0.07959,0.08728,0.0007544,0.001057,0.07959,5.722e-06,0.0001783,0.002174,0.001072,5.329,0.02644,0,1,0
120600000000,120900000000,39308692,0,336047708,0.0001326,0.07959,0.08728,0.0007553,0.001057,0.07959,2.861e-06,0.0001783,0.002728,0.0001431,5.187,0.02594,0,1,0
126000000000,126300000000,39308692,0,336047708,0.0001326,0.07959,0.08728,0.0007629,0.001064,0.07959,2.861e-06,0.0001783,0.007401,0.0001431,5.394,0.02708,0,1,0
126300000000,126600000000,39308692,0,336047708,0.000145,0.07959,0.08728,0.0007639,0.001064,0.07959,1.907e-06,0.0001783,0.006424,0.0001431,4.796,0.02368,0,1,0
126600000000,126900000000,39308692,0,336047708,0.0001335,0.07959,0.08728,0.0007639,0.001066,0.07959,2.861e-06,0.0001783,0.00248,0.0001431,4.942,0.02469,0,1,0
126900000000,127200000000,39308692,0,336047708,0.0001249,0.07959,0.08728,0.0007648,0.001066,0.07959,2.861e-06,0.0001783,0.002769,0.0001431,5.89,0.0305,0,1,0
127200000000,127500000000,39308692,0,336047708,0.0001268,0.07959,0.08728,0.0007648,0.001066,0.07959,2.861e-06,0.0001783,0.003056,0.0001431,6.006,0.02998,0,1,0
127500000000,127800000000,39308692,0,336047708,0.0001373,0.07959,0.08728,0.0007658,0.001066,0.07959,2.861e-06,0.0001783,0.00227,0.0002146,4.661,0.02255,0,1,0
127800000000,128100000000,39308692,0,336047708,0.0001268,0.07959,0.08728,0.0007658,0.001068,0.07959,2.861e-06,0.0001783,0.004005,0.0002146,6.062,0.0309,0,1,0
128100000000,128400000000,39308692,0,336047708,0.0001278,0.07959,0.08728,0.0007658,0.001068,0.07959,2.861e-06,0.0001783,0.00692,0.0001431,5.953,0.03034,0,1,0
128400000000,128700000000,39308692,0,336047708,0.0001278,0.07959,0.08728,0.0007648,0.001066,0.07959,1.907e-06,0.0001783,0.004517,0.0001431,6.866,0.03551,0,1,0
128700000000,129000000000,39308692,0,336047708,0.0001278,0.07959,0.08728,0.0007658,0.001066,0.07959,2.861e-06,0.0001783,0.001457,0.0001431,5.782,0.02938,0,1,0
129000000000,129300000000,39308692,0,336047708,0.0001211,0.07959,0.08728,0.0007658,0.001068,0.07959,2.861e-06,0.0001783,0.003201,0.0001431,5.369,0.02631,0,1,0
129300000000,129600000000,39308692,0,336047708,0.0001192,0.07959,0.08728,0.0007668,0.001068,0.07959,2.861e-06,0.0001783,0.002296,0.0001431,6.199,0.03127,0,1,0
129600000000,129900000000,39308692,0,336047708,0.0001221,0.07959,0.08728,0.0007668,0.001068,0.07959,1.907e-06,0.0001783,0.003029,0.0001431,14.86,0.08299,0,1,0
129900000000,130200000000,39308692,0,336047708,0.0001307,0.07959,0.08728,0.0007677,0.001068,0.07959,2.861e-06,0.0001783,0.004799,0.0001431,5.424,0.02728,0,1,0
130200000000,130500000000,39308692,0,336047708,0.0001307,0.07959,0.08728,0.0007677,0.00107,0.07959,7.629e-06,0.0001783,0.002075,0.001429,5.877,0.02898,0,1,0
130500000000,130800000000,39308692,0,336047708,0.0001268,0.07959,0.08728,0.0007687,0.00107,0.07959,1.907e-06,0.0001783,0.003418,0.0001431,5.539,0.02792,0,1,0
130800000000,131100000000,39308692,0,336047708,0.0001373,0.07959,0.08728,0.0007687,0.00107,0.07959,2.861e-06,0.0001783,0.006607,0.0001431,6.096,0.0313,0,1,0
141000000000,141300000000,39308692,0,336047708,0.0001268,0.07959,0.08728,0.000783,0.001085,0.07959,2.861e-06,0.0001783,0.00246,0.0002146,4.734,0.02333,0,1,0
141300000000,141600000000,39308692,0,336047708,0.0001116,0.07959,0.08728,0.000783,0.001085,0.07959,2.861e-06,0.0001783,0.002857,0.0001431,5.737,0.02921,0,1,0
141600000000,141900000000,39308692,0,336047708,0.0001297,0.07959,0.08728,0.0007839,0.001085,0.07959,2.861e-06,0.0001783,0.003025,0.0001431,6.064,0.03095,0,1,0
141900000000,142200000000,39308692,0,336047708,0.0001183,0.07959,0.08728,0.000783,0.001083,0.07959,2.861e-06,0.0001783,0.00621,0.0002861,7.512,0.03913,0,1,0
142200000000,142500000000,39308692,0,336047708,0.0001297,0.07959,0.08728,0.000783,0.001083,0.07959,2.861e-06,0.0001783,0.004326,0.0001431,7.021,0.03579,0,1,0
142500000000,142800000000,39308692,0,336047708,0.0001268,0.07959,0.08728,0.000783,0.001085,0.07959,1.144e-05,0.0001783,0.002644,0.00293,6.2,0.03149,0,1,0
142800000000,143100000000,39308692,0,336047708,0.0001278,0.07959,0.08728,0.0007839,0.001085,0.07959,2.861e-06,0.0001783,0.003029,0.0001431,5.618,0.02865,0,1,0
143100000000,143400000000,39308692,0,336047708,0.0001268,0.07959,0.08728,0.0007839,0.001085,0.07959,2.861e-06,0.0001783,0.00256,0.0001431,5.888,0.02917,0,1,0
143400000000,143700000000,39308692,0,336047708,0.0001144,0.07959,0.08728,0.0007849,0.001085,0.07959,2.861e-06,0.0001783,0.001987,0.0001431,8.402,0.04422,0,1,0
143700000000,144000000000,39308692,0,336047708,0.0001211,0.07959,0.08728,0.0007849,0.001087,0.07959,4.768e-06,0.0001783,0.008682,0.0009995,5.434,0.0272,0,1,0
144000000000,144300000000,39308692,0,336047708,0.0001268,0.07959,0.08728,0.0007849,0.001087,0.07959,1.24e-05,0.0001783,0.003532,0.00293,5.658,0.02852,0,1,0
144300000000,144600000000,39308692,0,336047708,0.0001221,0.07959,0.08728,0.0007858,0.001087,0.07959,2.861e-06,0.0001783,0.001961,0.0001431,5.774,0.02891,0,1,0
144600000000,144900000000,39308692,0,336047708,0.0001106,0.07959,0.08728,0.0007858,0.001087,0.07959,2.861e-06,0.0001783,0.001366,0.0002146,7.034,0.03706,0,1,0
144900000000,145200000000,39308692,0,336047708,0.0001192,0.07959,0.08728,0.0007868,0.001087,0.07959,2.861e-06,0.0001783,0.001932,0.0001431,5.273,0.02663,0,1,0
145200000000,145500000000,39308692,0,336047708,0.0001202,0.07959,0.08728,0.0007868,0.001087,0.07959,1.621e-05,0.0001783,0.001472,0.004074,5.363,0.02659,0,1,0
145500000000,145800000000,39308692,0,336047708,0.0001249,0.07959,0.08728,0.000783,0.001083,0.07959,1.144e-05,0.0001783,0.001528,0.001785,5.785,0.02925,0,1,0
145800000000,146100000000,39308692,0,336047708,0.0003119,0.07971,0.08728,0.0008001,0.001133,0.07983,0.0002317,0.0001783,0.021,0.03717,7.209,0.03808,0,1,0
151200000000,151500000000,39308692,0,336047708,0.0001059,0.07959,0.08728,0.0007753,0.001076,0.07959,4.768e-06,0.0001783,0.001385,0.0005713,12.67,0.06867,0,1,0
151500000000,151800000000,39308692,0,336047708,9.918e-05,0.07959,0.08728,0.0007753,0.001076,0.07959,2.861e-06,0.0001783,0.001278,0.0001431,7.389,0.03873,0,1,0
151800000000,152100000000,39308692,0,336047708,0.000104,0.07959,0.08728,0.0007753,0.001076,0.07959,2.861e-06,0.0001783,0.001949,0.0002146,17.98,0.09944,0,1,0
152100000000,152400000000,39308692,0,336047708,9.918e-05,0.07959,0.08728,0.0007753,0.001076,0.07959,1.907e-06,0.0001783,0.001453,0.0001431,9.815,0.0538,0,1,0
152400000000,152700000000,39308692,0,336047708,0.0001059,0.07959,0.08728,0.0007763,0.001076,0.07959,4.768e-06,0.0001783,0.003727,0.0006428,8.787,0.04702,0,1,0
152700000000,153000000000,39308692,0,336047708,0.0001011,0.07959,0.08728,0.0007763,0.001076,0.07959,1.907e-06,0.0001783,0.00235,0.0001431,8.853,0.04717,0,1,0
153000000000,153300000000,39308692,0,336047708,0.000104,0.07959,0.08728,0.0007744,0.001076,0.07959,1.907e-06,0.0001783,0.001886,0.0001431,11.15,0.06104,0,1,0
153300000000,153600000000,39308692,0,336047708,0.000103,0.07959,0.08728,0.0007744,0.001076,0.07959,2.861e-06,0.0001783,0.001684,0.0001431,7.399,0.03866,0,1,0
153600000000,153900000000,39308692,0,336047708,9.441e-05,0.07959,0.08728,0.0007753,0.001076,0.07959,1.621e-05,0.0001783,0.00178,0.001858,14.03,0.0779,0,1,0
153900000000,154200000000,39308692,0,336047708,0.0001059,0.07959,0.08728,0.0007753,0.001076,0.07959,2.861e-06,0.0001783,0.00272,0.0001431,7.896,0.04309,0,1,0
154200000000,154500000000,39308692,0,336047708,8.774e-05,0.07959,0.08728,0.0007753,0.001076,0.07959,1.907e-06,0.0001783,0.001736,0.0001431,11.13,0.06092,0,1,0
154500000000,154800000000,39308692,0,336047708,8.488e-05,0.07959,0.08728,0.0007753,0.001076,0.07959,1.907e-06,0.0001783,0.000947,0.0001431,20.67,0.1156,0,1,0
154800000000,155100000000,39308692,0,336047708,8.297e-05,0.07959,0.08728,0.0007753,0.001076,0.07959,9.537e-07,0.0001783,0.0008211,0.0001431,21.35,0.1222,0,1,0
155100000000,155400000000,39308692,0,336047708,8.488e-05,0.07959,0.08728,0.0007753,0.001076,0.07959,9.537e-06,0.0001783,0.0007887,0.00243,22.14,0.1264,0,1,0
155400000000,155700000000,39308692,0,336047708,8.488e-05,0.07959,0.08728,0.0007753,0.001076,0.07959,1.907e-06,0.0001783,0.000926,0.0001431,21.97,0.125,0,1,0
155700000000,156000000000,39308692,0,336047708,8.392e-05,0.07959,0.08728,0.0007763,0.001076,0.07959,8.583e-06,0.0001783,0.0005426,0.001499,21.67,0.1201,0,1,0
161100000000,161400000000,39308692,0,336047708,9.632e-05,0.07959,0.08728,0.0007792,0.00108,0.07959,1.907e-06,0.0001783,0.0008287,0.0001431,6.295,0.0326,0,1,0
161400000000,161700000000,39308692,0,336047708,9.251e-05,0.07959,0.08728,0.0007792,0.00108,0.07959,6.676e-06,0.0001783,0.001314,0.001286,10.62,0.05759,0,1,0
161700000000,162000000000,39308692,0,336047708,0.0001068,0.07959,0.08728,0.0007801,0.00108,0.07959,2.861e-06,0.0001783,0.002281,0.0001431,5.326,0.02642,0,1,0
162000000000,162300000000,39308692,0,336047708,9.251e-05,0.07959,0.08728,0.0007801,0.001081,0.07959,1.907e-06,0.0001783,0.0006504,0.0001431,8.314,0.04418,0,1,0
162300000000,162600000000,39308692,0,336047708,0.000102,0.07959,0.08728,0.0007801,0.001081,0.07959,5.722e-06,0.0001783,0.003189,0.0009995,11.02,0.06003,0,1,0
162600000000,162900000000,39308692,0,336047708,0.000102,0.07959,0.08728,0.0007801,0.001081,0.07959,2.861e-06,0.0001783,0.001005,0.0001431,7.932,0.04018,0,1,0
162900000000,163200000000,39308692,0,336047708,9.918e-05,0.07959,0.08728,0.0007801,0.001081,0.07959,1.144e-05,0.0001783,0.0009069,0.002357,13.89,0.07125,0,1,0
163200000000,163500000000,39308692,0,336047708,0.0001001,0.07959,0.08728,0.0007811,0.001081,0.07959,1.907e-06,0.0001783,0.002449,0.0001431,12.34,0.06599,0,1,0
163500000000,163800000000,39308692,0,336047708,0.0001116,0.07959,0.08728,0.0007801,0.001081,0.07959,2.861e-06,0.0001783,0.009689,0.0001431,9.083,0.04839,0,1,0
163800000000,164100000000,39308692,0,336047708,0.0001059,0.07959,0.08728,0.0007792,0.00108,0.07959,2.861e-06,0.0001783,0.008255,0.0001431,10.44,0.0568,0,1,0
164100000000,164400000000,39308692,0,336047708,9.632e-05,0.07959,0.08728,0.0007792,0.00108,0.07959,1.907e-06,0.0001783,0.00486,0.0001431,6.911,0.03646,0,1,0
164400000000,164700000000,39308692,0,336047708,9.823e-05,0.07959,0.08728,0.0007792,0.00108,0.07959,2.861e-06,0.0001783,0.005524,0.0001431,6.588,0.03462,0,1,0
164700000000,165000000000,39308692,0,336047708,0.0001135,0.07959,0.08728,0.0007772,0.001078,0.07959,1.907e-06,0.0001783,0.003624,0.0001431,10.95,0.05595,0,1,0
165000000000,165300000000,39308692,0,336047708,9.632e-05,0.07959,0.08728,0.0007639,0.001064,0.07959,3.815e-06,0.0001783,0.001732,0.0005713,18.44,0.1017,0,1,0
165300000000,165600000000,39308692,0,336047708,0.0001078,0.07959,0.08728,0.0007648,0.001064,0.07959,2.861e-06,0.0001783,0.003052,0.0002146,8.83,0.04708,0,1,0
165600000000,165900000000,39308692,0,336047708,9.346e-05,0.07959,0.08728,0.0007648,0.001064,0.07959,3.815e-06,0.0001783,0.0009804,0.0007143,8.796,0.047,0,1,0
165900000000,166200000000,39308692,0,336047708,0.0001049,0.07959,0.08728,0.0007648,0.001066,0.07959,2.861e-06,0.0001783,0.002853,0.0001431,13.72,0.0732,0,1,0
166200000000,166500000000,39308692,0,336047708,9.346e-05,0.07959,0.08728,0.0007648,0.001066,0.07959,2.861e-06,0.0001783,0.001827,0.0002146,10.38,0.05726,0,1,0
166500000000,166800000000,39308692,0,336047708,9.251e-05,0.07959,0.08728,0.0007648,0.001066,0.07959,2.861e-06,0.0001783,0.00209,0.0001431,9.996,0.05412,0,1,0
166800000000,167100000000,39308692,0,336047708,8.965e-05,0.07959,0.08728,0.0007648,0.001066,0.07959,6.676e-06,0.0001783,0.0006676,0.0009642,15.83,0.08809,0,1,0
167100000000,167400000000,39308692,0,336047708,9.06e-05,0.07959,0.08728,0.0007658,0.001066,0.07959,2.861e-06,0.0001783,0.001806,0.0001431,15.03,0.08007,0,1,0
167400000000,167700000000,39308692,0,336047708,8.869e-05,0.07959,0.08728,0.0007658,0.001066,0.07959,1.144e-05,0.0001783,0.0008173,0.001715,23.03,0.128,0,1,0
167700000000,168000000000,39308692,0,336047708,0.0002451,0.07971,0.08728,0.0007849,0.001118,0.07983,0.0002451,0.0001783,0.03638,0.03662,15.66,0.08761,0,1,0
168000000000,168300000000,39308692,0,336047708,0.0001497,0.07971,0.08728,0.0008278,0.001236,0.07983,3.624e-05,0.0001783,0.001543,0.005714,21.38,0.1188,0,1,0
168300000000,168600000000,39308692,0,336047708,0.0001755,0.07971,0.08728,0.0008278,0.001236,0.07971,1.335e-05,0.0001783,0.001814,0.002716,8.613,0.0453,0,1,0
168600000000,168900000000,39308692,0,336047708,0.000164,0.07971,0.08728,0.0008278,0.001238,0.07971,1.049e-05,0.0001783,0.001627,0.001928,18.35,0.1016,0,1,0
168900000000,169200000000,39308692,0,336047708,0.0001717,0.07971,0.08728,0.0008183,0.001228,0.07971,8.583e-06,0.0001783,0.002487,0.0008574,14.34,0.07967,0,1,0
169200000000,169500000000,39308692,0,336047708,0.0001011,0.07959,0.08728,0.0008879,0.0012,0.07996,1.526e-05,0.0001783,0.002098,0.002644,9.189,0.04914,0,1,0
169500000000,169800000000,39308692,0,336047708,8.965e-05,0.07959,0.08728,0.0008993,0.0012,0.07959,2.861e-06,0.0001783,0.001463,0.0002146,22.09,0.1238,0,1,0
169800000000,170100000000,39308692,0,336047708,8.678e-05,0.07959,0.08728,0.0008993,0.0012,0.07959,1.907e-06,0.0001783,0.0008774,0.0001431,20.94,0.1205,0,1,0
170100000000,170400000000,39308692,0,336047708,9.06e-05,0.07959,0.08728,0.0008993,0.0012,0.07959,4.768e-06,0.0001783,0.0007811,0.0009995,20.98,0.1182,0,1,0
170400000000,170700000000,39308692,0,336047708,8.488e-05,0.07959,0.08728,0.0008993,0.0012,0.07959,2.861e-06,0.0001783,0.001158,0.0002146,21.01,0.1184,0,1,0
170700000000,171000000000,39308692,0,336047708,0.0001144,0.07959,0.08728,0.0008993,0.0012,0.07959,1.907e-06,0.0001783,0.02899,0.0001431,9.447,0.05039,0,1,0
171000000000,171300000000,39308692,0,336047708,8.774e-05,0.07959,0.08728,0.0008993,0.0012,0.07959,2.861e-06,0.0001783,0.004822,0.0001431,11.06,0.06116,0,1,0
171300000000,171600000000,39308692,0,336047708,8.392e-05,0.07959,0.08728,0.0008993,0.0012,0.07959,1.907e-06,0.0001783,0.0006084,0.0001431,21.72,0.1207,0,1,0
171600000000,171900000000,39308692,0,336047708,8.392e-05,0.07959,0.08728,0.0008993,0.0012,0.07959,9.537e-07,0.0001783,0.0008068,0.0001431,20.2,0.1143,0,1,0
171900000000,172200000000,39308692,0,336047708,8.774e-05,0.07959,0.08728,0.0009003,0.0012,0.07959,1.907e-06,0.0001783,0.0006304,0.0001431,10.82,0.05964,0,1,0
172200000000,172500000000,39308692,0,336047708,8.297e-05,0.07959,0.08728,0.0009003,0.0012,0.07959,1.907e-06,0.0001783,0.0006485,0.0001431,21.61,0.1232,0,1,0
172500000000,172800000000,39308692,0,336047708,8.392e-05,0.07959,0.08728,0.0009003,0.0012,0.07959,1.907e-06,0.0001783,0.0006056,0.0001431,20.48,0.1159,0,1,0
172800000000,173100000000,39308692,0,336047708,8.488e-05,0.07959,0.08728,0.0009003,0.0012,0.07959,1.907e-06,0.0001783,0.001814,0.0001431,21.86,0.1239,0,1,0
173100000000,173400000000,39308692,0,336047708,8.869e-05,0.07959,0.08728,0.0009003,0.0012,0.07959,1.907e-06,0.0001783,0.0006428,0.0001431,11.65,0.06516,0,1,0
173400000000,173700000000,39308692,0,336047708,9.06e-05,0.07959,0.08728,0.0009003,0.0012,0.07959,4.768e-06,0.0001783,0.00127,0.0009289,13.02,0.07296,0,1,0
173700000000,174000000000,39308692,0,336047708,8.869e-05,0.07959,0.08728,0.0009003,0.0012,0.07959,1.907e-06,0.0001783,0.001251,0.0001431,21.35,0.122,0,1,0
174000000000,174300000000,39308692,0,336047708,8.869e-05,0.07959,0.08728,0.0009003,0.0012,0.07959,1.907e-06,0.0001783,0.0009995,0.0001431,20.95,0.1208,0,1,0
174300000000,174600000000,39308692,0,336047708,8.297e-05,0.07959,0.08728,0.0009003,0.001202,0.07959,3.815e-06,0.0001783,0.0005875,0.0009995,12.81,0.07246,0,1,0
174600000000,174900000000,39308692,0,336047708,9.727e-05,0.07959,0.08728,0.0009003,0.001202,0.07959,4.768e-06,0.0001783,0.007141,0.0007858,21.59,0.1216,0,1,0
174900000000,175200000000,39308692,0,336047708,9.155e-05,0.07959,0.08728,0.0009012,0.001202,0.07959,1.907e-06,0.0001783,0.001417,0.0001431,21.88,0.1234,0,1,0
175200000000,175500000000,39308692,0,336047708,8.869e-05,0.07959,0.08728,0.0009012,0.001202,0.07959,2.861e-06,0.0001783,0.0005989,0.0001431,11.11,0.06013,0,1,0
175500000000,175800000000,39308692,0,336047708,8.774e-05,0.07959,0.08728,0.0009012,0.001202,0.07959,2.861e-06,0.0001783,0.0005903,0.0001431,13.53,0.07537,0,1,0
175800000000,176100000000,39308692,0,336047708,8.678e-05,0.07959,0.08728,0.0009012,0.001202,0.07959,1.907e-06,0.0001783,0.0009995,0.0001431,11.3,0.06268,0,1,0
186300000000,186600000000,39308692,0,336047708,8.869e-05,0.07959,0.08728,0.000741,0.001041,0.07959,1.907e-06,0.0001783,0.0007477,0.0001431,21.54,0.1219,0,1,0
186600000000,186900000000,39308692,0,336047708,0.0001001,0.07959,0.08728,0.000742,0.001041,0.07959,4.768e-06,0.0001783,0.001921,0.0008574,24,0.1301,0,1,0
186900000000,187200000000,39308692,0,336047708,9.537e-05,0.07959,0.08728,0.000742,0.001041,0.07959,2.861e-06,0.0001783,0.000618,0.0001431,25.05,0.133,0,1,0
187200000000,187500000000,39308692,0,336047708,0.0001001,0.07959,0.08728,0.000742,0.001041,0.07959,2.861e-06,0.0001783,0.003075,0.0001431,18.21,0.09563,0,1,0
187500000000,187800000000,39308692,0,336047708,9.823e-05,0.07959,0.08728,0.000742,0.001041,0.07959,3.815e-06,0.0001783,0.0006485,0.0005713,19.23,0.101,0,1,0
187800000000,188100000000,39308692,0,336047708,9.537e-05,0.07959,0.08728,0.000742,0.001041,0.07959,3.815e-06,0.0001783,0.0006943,0.0007858,24.31,0.1304,0,1,0
188100000000,188400000000,39308692,0,336047708,9.155e-05,0.07959,0.08728,0.000742,0.001041,0.07959,2.861e-06,0.0001783,0.001673,0.0001431,9.826,0.05196,0,1,0
188400000000,188700000000,39308692,0,336047708,9.441e-05,0.07959,0.08728,0.000742,0.001041,0.07959,2.861e-06,0.0001783,0.001928,0.0001431,10.78,0.05811,0,1,0
188700000000,189000000000,39308692,0,336047708,9.632e-05,0.07959,0.08728,0.000742,0.001041,0.07959,3.815e-06,0.0001783,0.001247,0.0005713,5.895,0.03063,0,1,0
189000000000,189300000000,39308692,0,336047708,8.774e-05,0.07959,0.08728,0.000742,0.001043,0.07959,1.907e-06,0.0001783,0.0006676,0.0001431,7.312,0.03846,0,1,0
189300000000,189600000000,39308692,0,336047708,8.869e-05,0.07959,0.08728,0.0007429,0.001043,0.07959,2.861e-06,0.0001783,0.001326,0.0001431,7.267,0.03833,0,1,0
189600000000,189900000000,39308692,0,336047708,8.488e-05,0.07959,0.08728,0.0007429,0.001043,0.07959,1.907e-06,0.0001783,0.0005856,0.0001431,21.14,0.1194,0,1,0
189900000000,190200000000,39308692,0,336047708,8.488e-05,0.07959,0.08728,0.0007429,0.001043,0.07959,1.907e-06,0.0001783,0.0006227,0.0002861,20.33,0.1135,0,1,0
190200000000,190500000000,39308692,0,336047708,8.488e-05,0.07959,0.08728,0.0007429,0.001043,0.07959,1.907e-06,0.0001783,0.002083,0.0001431,8.923,0.04836,0,1,0
190500000000,190800000000,39308692,0,336047708,8.583e-05,0.07959,0.08728,0.0007429,0.001043,0.07959,3.815e-06,0.0001783,0.0006924,0.0007143,19.79,0.1131,0,1,0
190800000000,191100000000,39308692,0,336047708,8.965e-05,0.07959,0.08728,0.0007429,0.001043,0.07959,8.583e-06,0.0001783,0.000617,0.002071,20.94,0.1172,0,1,0
191100000000,191400000000,39308692,0,336047708,8.392e-05,0.07959,0.08728,0.0007429,0.001043,0.07959,2.861e-06,0.0001783,0.0007401,0.0001431,19.82,0.1119,0,1,0
191400000000,191700000000,39308692,0,336047708,8.678e-05,0.07959,0.08728,0.0007429,0.001043,0.07959,1.907e-06,0.0001783,0.001635,0.0001431,21.84,0.1222,0,1,0
191700000000,192000000000,39308692,0,336047708,9.06e-05,0.07959,0.08728,0.0007429,0.001043,0.07959,1.907e-06,0.0001783,0.003052,0.0001431,20.5,0.1144,0,1,0
192000000000,192300000000,39308692,0,336047708,8.297e-05,0.07959,0.08728,0.0007429,0.001043,0.07959,2.861e-06,0.0001783,0.0005341,0.0001431,20.08,0.1142,0,1,0
192300000000,192600000000,39308692,0,336047708,8.583e-05,0.07959,0.08728,0.0007429,0.001043,0.07959,1.907e-06,0.0001783,0.001198,0.0001431,20.61,0.1157,0,1,0
192600000000,192900000000,39308692,0,336047708,8.392e-05,0.07959,0.08728,0.0007439,0.001043,0.07959,2.861e-06,0.0001783,0.0005379,0.0005713,21.36,0.1193,0,1,0
192900000000,193200000000,39308692,0,336047708,8.297e-05,0.07959,0.08728,0.0007439,0.001043,0.07959,4.768e-06,0.0001783,0.000597,0.0005713,20.66,0.1173,0,1,0
193200000000,193500000000,39308692,0,336047708,8.392e-05,0.07959,0.08728,0.0007439,0.001043,0.07959,2.861e-06,0.0001783,0.001661,0.0002146,20.2,0.1145,0,1,0
193500000000,193800000000,39308692,0,336047708,8.869e-05,0.07959,0.08728,0.0007439,0.001043,0.07959,5.722e-06,0.0001783,0.001858,0.001286,20.46,0.1171,0,1,0
193800000000,194100000000,39308692,0,336047708,8.774e-05,0.07959,0.08728,0.0007439,0.001043,0.07959,2.861e-06,0.0001783,0.002399,0.0001431,9.732,0.05276,0,1,0
194100000000,194400000000,39308692,0,336047708,8.583e-05,0.07959,0.08728,0.0007439,0.001043,0.07959,1.907e-06,0.0001783,0.003216,0.0001431,20.76,0.1166,0,1,0
194400000000,194700000000,39308692,0,336047708,8.774e-05,0.07959,0.08728,0.0007439,0.001043,0.07959,1.907e-06,0.0001783,0.0006008,0.0001431,11.16,0.06122,0,1,0
194700000000,195000000000,39308692,0,336047708,9.06e-05,0.07959,0.08728,0.0007439,0.001045,0.07959,3.815e-06,0.0001783,0.0007973,0.0007143,21.13,0.1182,0,1,0
195000000000,195300000000,39308692,0,336047708,8.392e-05,0.07959,0.08728,0.0007439,0.001045,0.07959,1.907e-06,0.0001783,0.001598,0.0002146,21.13,0.1182,0,1,0
195300000000,195600000000,39308692,0,336047708,8.202e-05,0.07959,0.08728,0.0007448,0.001045,0.07959,5.722e-06,0.0001783,0.0007048,0.001499,19.06,0.1079,0,1,0
195600000000,195900000000,39308692,0,336047708,8.392e-05,0.07959,0.08728,0.0007448,0.001045,0.07959,2.861e-06,0.0001783,0.001112,0.0001431,19.63,0.1105,0,1,0
195900000000,196200000000,39308692,0,336047708,8.488e-05,0.07959,0.08728,0.0007448,0.001045,0.07959,1.907e-06,0.0001783,0.002838,0.0001431,19.54,0.1114,0,1,0
201300000000,201600000000,39308692,0,336047708,8.678e-05,0.07959,0.08728,0.0007448,0.001045,0.07959,1.907e-06,0.0001783,0.00141,0.0001431,21.01,0.1183,0,1,0
201600000000,201900000000,39308692,0,336047708,8.202e-05,0.07959,0.08728,0.0007448,0.001045,0.07959,2.861e-06,0.0001783,0.0007315,0.0002861,19.19,0.1077,0,1,0
201900000000,202200000000,39308692,0,336047708,8.297e-05,0.07959,0.08728,0.0007448,0.001045,0.07959,2.861e-06,0.0001783,0.0006809,0.0002146,9.709,0.05256,0,1,0
202200000000,202500000000,39308692,0,336047708,8.869e-05,0.07959,0.08728,0.0007448,0.001045,0.07959,2.861e-06,0.0001783,0.0008154,0.0002146,20.47,0.1147,0,1,0
202500000000,202800000000,39308692,0,336047708,8.869e-05,0.07959,0.08728,0.0007448,0.001045,0.07959,3.815e-06,0.0001783,0.002548,0.0009289,21.25,0.1181,0,1,0
202800000000,203100000000,39308692,0,336047708,9.06e-05,0.07959,0.08728,0.0007448,0.001045,0.07959,2.861e-06,0.0001783,0.001165,0.0001431,8.55,0.04615,0,1,0
203100000000,203400000000,39308692,0,336047708,9.346e-05,0.07959,0.08728,0.0007448,0.001045,0.07959,2.861e-06,0.0001783,0.001329,0.0001431,9.37,0.04975,0,1,0
203400000000,203700000000,39308692,0,336047708,8.965e-05,0.07959,0.08728,0.0007448,0.001045,0.07959,2.861e-06,0.0001783,0.001884,0.0005713,8.616,0.04602,0,1,0
203700000000,204000000000,39308692,0,336047708,9.06e-05,0.07959,0.08728,0.0007448,0.001045,0.07959,3.815e-06,0.0001783,0.001553,0.0004997,13.44,0.07276,0,1,0
204000000000,204300000000,39308692,0,336047708,8.583e-05,0.07959,0.08728,0.0007458,0.001045,0.07959,1.907e-06,0.0001783,0.0005312,0.0001431,20.88,0.1172,0,1,0
204300000000,204600000000,39308692,0,336047708,8.488e-05,0.07959,0.08728,0.0007458,0.001045,0.07959,2.861e-06,0.0001783,0.0005465,0.0005713,20.83,0.1165,0,1,0
204600000000,204900000000,39308692,0,336047708,8.583e-05,0.07959,0.08728,0.0007458,0.001045,0.07959,1.907e-06,0.0001783,0.0006542,0.0001431,15.73,0.08524,0,1,0
204900000000,205200000000,39308692,0,336047708,8.583e-05,0.07959,0.08728,0.0007458,0.001045,0.07959,1.907e-06,0.0001783,0.001545,0.0001431,21.94,0.1207,0,1,0
205200000000,205500000000,39308692,0,336047708,8.774e-05,0.07959,0.08728,0.0007458,0.001045,0.07959,1.907e-06,0.0001783,0.0005903,0.0001431,9.339,0.05104,0,1,0
205500000000,205800000000,39308692,0,336047708,8.392e-05,0.07959,0.08728,0.0007458,0.001045,0.07959,2.861e-06,0.0001783,0.0005817,0.0001431,21.58,0.122,0,1,0
205800000000,206100000000,39308692,0,336047708,8.583e-05,0.07959,0.08728,0.0007458,0.001045,0.07959,1.907e-06,0.0001783,0.001032,0.0001431,15.01,0.08335,0,1,0
206100000000,206400000000,39308692,0,336047708,8.106e-05,0.07959,0.08728,0.0007458,0.001045,0.07959,1.907e-06,0.0001783,0.0006342,0.0001431,20.3,0.1151,0,1,0
206400000000,206700000000,39308692,0,336047708,8.202e-05,0.07959,0.08728,0.0007458,0.001045,0.07959,2.861e-06,0.0001783,0.0005569,0.0004282,11.19,0.06147,0,1,0
206700000000,207000000000,39308692,0,336047708,8.583e-05,0.07959,0.08728,0.0007458,0.001047,0.07959,1.907e-06,0.0001783,0.0005217,0.0001431,13.94,0.07675,0,1,0
207000000000,207300000000,39308692,0,336047708,8.297e-05,0.07959,0.08728,0.0007467,0.001047,0.07959,1.049e-05,0.0001783,0.0005512,0.00293,14.44,0.07888,0,1,0
207300000000,207600000000,39308692,0,336047708,8.297e-05,0.07959,0.08728,0.0007467,0.001047,0.07959,4.768e-06,0.0001783,0.0005112,0.0009289,21.27,0.1202,0,1,0
207600000000,207900000000,39308692,0,336047708,8.202e-05,0.07959,0.08728,0.0007467,0.001047,0.07959,1.907e-06,0.0001783,0.0006113,0.0001431,14.27,0.07832,0,1,0
207900000000,208200000000,39308692,0,336047708,8.488e-05,0.07959,0.08728,0.0007467,0.001047,0.07959,8.583e-06,0.0001783,0.0005407,0.002071,14.72,0.08119,0,1,0
208200000000,208500000000,39308692,0,336047708,8.297e-05,0.07959,0.08728,0.0007467,0.001047,0.07959,2.861e-06,0.0001783,0.0005131,0.0003567,21.21,0.1194,0,1,0
208500000000,208800000000,39308692,0,336047708,8.202e-05,0.07959,0.08728,0.0007467,0.001047,0.07959,1.144e-05,0.0001783,0.001852,0.00293,20.52,0.1168,0,1,0
208800000000,209100000000,39308692,0,336047708,8.011e-05,0.07959,0.08728,0.0007467,0.001047,0.07959,6.676e-06,0.0001783,0.0005808,0.001499,20.61,0.1164,0,1,0
209100000000,209400000000,39308692,0,336047708,8.392e-05,0.07959,0.08728,0.0007467,0.001047,0.07959,1.907e-06,0.0001783,0.0006285,0.0002146,21.07,0.1177,0,1,0
209400000000,209700000000,39308692,0,336047708,8.678e-05,0.07959,0.08728,0.0007467,0.001047,0.07959,1.907e-06,0.0001783,0.001335,0.0001431,6.216,0.03277,0,1,0
209700000000,210000000000,39308692,0,336047708,8.392e-05,0.07959,0.08728,0.0007477,0.001047,0.07959,3.815e-06,0.0001783,0.0006495,0.0004997,19.28,0.1064,0,1,0
210000000000,210300000000,39308692,0,336047708,8.297e-05,0.07959,0.08728,0.0007486,0.001049,0.07959,3.815e-06,0.0001783,0.0006485,0.0002146,20.21,0.115,0,1,0
210300000000,210600000000,39308692,0,336047708,8.202e-05,0.07959,0.08728,0.0007486,0.001049,0.07959,2.861e-06,0.0001783,0.0007038,0.0002146,22.22,0.1239,0,1,0
210600000000,210900000000,39308692,0,336047708,8.011e-05,0.07959,0.08728,0.0007486,0.001049,0.07959,1.907e-06,0.0001783,0.0005894,0.0002146,20.71,0.1168,0,1,0
210900000000,211200000000,39308692,0,336047708,7.82e-05,0.07959,0.08728,0.0007486,0.001049,0.07959,1.907e-06,0.0001783,0.001139,0.0001431,20.83,0.1162,0,1,0
211200000000,211500000000,39308692,0,336047708,8.392e-05,0.07959,0.08728,0.0007486,0.001049,0.07959,2.861e-06,0.0001783,0.002411,0.0002861,22.19,0.1238,0,1,0
211500000000,211800000000,39308692,0,336047708,8.583e-05,0.07959,0.08728,0.0007496,0.001049,0.07959,3.815e-06,0.0001783,0.0006208,0.0004282,11.09,0.0601,0,1,0
211800000000,212100000000,39308692,0,336047708,8.583e-05,0.07959,0.08728,0.0007496,0.001051,0.07959,2.861e-06,0.0001783,0.004486,0.0001431,7.955,0.0429,0,1,0
212100000000,212400000000,39308692,0,336047708,8.965e-05,0.07959,0.08728,0.0007496,0.001051,0.07959,2.861e-06,0.0001783,0.0008402,0.0001431,20.35,0.1149,0,1,0
212400000000,212700000000,39308692,0,336047708,8.488e-05,0.07959,0.08728,0.0007496,0.001051,0.07959,3.815e-06,0.0001783,0.0005798,0.0007143,20.41,0.1147,0,1,0
212700000000,213000000000,39308692,0,336047708,8.392e-05,0.07959,0.08728,0.0007496,0.001051,0.07959,1.049e-05,0.0001783,0.000535,0.002357,19.64,0.1114,0,1,0
213000000000,213300000000,39308692,0,336047708,8.583e-05,0.07959,0.08728,0.0007496,0.001051,0.07959,3.815e-06,0.0001783,0.0005646,0.0006428,21.52,0.1211,0,1,0
213300000000,213600000000,39308692,0,336047708,8.488e-05,0.07959,0.08728,0.0007505,0.001051,0.07959,1.907e-06,0.0001783,0.0005274,0.0001431,12.17,0.06829,0,1,0
213600000000,213900000000,39308692,0,336047708,8.678e-05,0.07959,0.08728,0.0007505,0.001051,0.07959,1.907e-06,0.0001783,0.0008097,0.0001431,14.71,0.08181,0,1,0
213900000000,214200000000,39308692,0,336047708,8.869e-05,0.07959,0.08728,0.0007505,0.001051,0.07959,1.907e-06,0.0001783,0.0009031,0.0001431,20.99,0.1187,0,1,0
214200000000,214500000000,39308692,0,336047708,8.774e-05,0.07959,0.08728,0.0007505,0.001051,0.07959,1.907e-06,0.0001783,0.001045,0.0001431,21.27,0.1213,0,1,0
214500000000,214800000000,39308692,0,336047708,8.297e-05,0.07959,0.08728,0.0007505,0.001051,0.07959,2.861e-06,0.0001783,0.001453,0.0004997,21.92,0.1223,0,1,0
214800000000,215100000000,39308692,0,336047708,8.392e-05,0.07959,0.08728,0.0007505,0.001051,0.07959,1.907e-06,0.0001783,0.0008974,0.0001431,20.64,0.1186,0,1,0
215100000000,215400000000,39308692,0,336047708,8.392e-05,0.07959,0.08728,0.0007505,0.001051,0.07959,1.144e-05,0.0001783,0.001503,0.00293,20.33,0.1153,0,1,0
215400000000,215700000000,39308692,0,336047708,8.774e-05,0.07959,0.08728,0.0007505,0.001051,0.07959,3.815e-06,0.0001783,0.0009804,0.0004997,15.74,0.08668,0,1,0
215700000000,216000000000,39308692,0,336047708,8.583e-05,0.07959,0.08728,0.0007505,0.001051,0.07959,2.861e-06,0.0001783,0.0009899,0.0001431,9.631,0.05213,0,1,0
216000000000,216300000000,39308692,0,336047708,8.488e-05,0.07959,0.08728,0.0007505,0.001051,0.07959,2.861e-06,0.0001783,0.001499,0.0004997,20.46,0.1149,0,1,0
221100000000,221400000000,39308692,0,336047708,8.678e-05,0.07959,0.08728,0.0007486,0.001049,0.07959,3.815e-06,0.0001783,0.0006275,0.0006428,8.991,0.04804,0,1,0
221400000000,221700000000,39308692,0,336047708,8.965e-05,0.07959,0.08728,0.0007486,0.001049,0.07959,3.815e-06,0.0001783,0.002174,0.0007858,5.529,0.0282,0,1,0
221700000000,222000000000,39308692,0,336047708,8.297e-05,0.07959,0.08728,0.0007486,0.001049,0.07959,1.907e-06,0.0001783,0.0005569,0.0001431,19.42,0.108,0,1,0
222000000000,222300000000,39308692,0,336047708,8.488e-05,0.07959,0.08728,0.0007486,0.001049,0.07959,1.907e-06,0.0001783,0.0005894,0.0001431,21.4,0.12,0,1,0
222300000000,222600000000,39308692,0,336047708,8.774e-05,0.07959,0.08728,0.0007486,0.001049,0.07959,2.861e-06,0.0001783,0.000701,0.0004997,22.06,0.1231,0,1,0
222600000000,222900000000,39308692,0,336047708,8.202e-05,0.07959,0.08728,0.0007496,0.001049,0.07959,3.815e-06,0.0001783,0.0005779,0.0003567,13.07,0.07199,0,1,0
222900000000,223200000000,39308692,0,336047708,8.392e-05,0.07959,0.08728,0.0007496,0.001049,0.07959,3.815e-06,0.0001783,0.0006065,0.0006428,20.76,0.1166,0,1,0
223200000000,223500000000,39308692,0,336047708,8.583e-05,0.07959,0.08728,0.0007496,0.001049,0.07959,6.676e-06,0.0001783,0.0005217,0.001358,11.03,0.06063,0,1,0
223500000000,223800000000,39308692,0,336047708,8.678e-05,0.07959,0.08728,0.0007496,0.001049,0.07959,2.861e-06,0.0001783,0.0005426,0.0003567,17.6,0.09945,0,1,0
223800000000,224100000000,39308692,0,336047708,8.774e-05,0.07959,0.08728,0.0007496,0.001051,0.07959,1.907e-06,0.0001783,0.001451,0.0001431,20.06,0.1128,0,1,0
224100000000,224400000000,39308692,0,336047708,8.678e-05,0.07959,0.08728,0.0007496,0.001051,0.07959,2.861e-06,0.0001783,0.0005388,0.0004997,9.781,0.05305,0,1,0
224400000000,224700000000,39308692,0,336047708,8.678e-05,0.07959,0.08728,0.0007496,0.001051,0.07959,6.676e-06,0.0001783,0.001244,0.001358,12.85,0.07095,0,1,0
224700000000,225000000000,39308692,0,336047708,8.678e-05,0.07959,0.08728,0.0007496,0.001051,0.07959,6.676e-06,0.0001783,0.0005493,0.001143,8.388,0.04465,0,1,0
225000000000,225300000000,39308692,0,336047708,8.297e-05,0.07959,0.08728,0.0007496,0.001051,0.07959,9.537e-07,0.0001783,0.0005026,0.0001431,19.8,0.111,0,1,0
225300000000,225600000000,39308692,0,336047708,8.583e-05,0.07959,0.08728,0.0007496,0.001051,0.07959,3.815e-06,0.0001783,0.0005932,0.0006428,20.28,0.1132,0,1,0
225600000000,225900000000,39308692,0,336047708,9.155e-05,0.07959,0.08728,0.0007505,0.001051,0.07959,3.815e-06,0.0001783,0.0008373,0.0007143,7.801,0.04179,0,1,0
225900000000,226200000000,39308692,0,336047708,8.202e-05,0.07959,0.08728,0.0007505,0.001051,0.07959,2.861e-06,0.0001783,0.0006647,0.0001431,8.699,0.04685,0,1,0
226200000000,226500000000,39308692,0,336047708,8.869e-05,0.07959,0.08728,0.0007505,0.001051,0.07959,2.861e-06,0.0001783,0.0006676,0.0001431,10.64,0.05852,0,1,0
226500000000,226800000000,39308692,0,336047708,8.488e-05,0.07959,0.08728,0.0007505,0.001051,0.07959,1.907e-06,0.0001783,0.0006676,0.0001431,20.36,0.1134,0,1,0
226800000000,227100000000,39308692,0,336047708,8.583e-05,0.07959,0.08728,0.0007496,0.001051,0.07959,2.861e-06,0.0001783,0.0007095,0.0005713,16.37,0.09189,0,1,0
227100000000,227400000000,39308692,0,336047708,8.869e-05,0.07959,0.08728,0.0007467,0.001047,0.07959,1.907e-06,0.0001783,0.001547,0.0001431,21.18,0.1212,0,1,0
227400000000,227700000000,39308692,0,336047708,8.297e-05,0.07959,0.08728,0.0007467,0.001047,0.07959,1.907e-06,0.0001783,0.0007238,0.0001431,19.97,0.1133,0,1,0
227700000000,228000000000,39308692,0,336047708,8.678e-05,0.07959,0.08728,0.0007467,0.001047,0.07959,2.861e-06,0.0001783,0.0005589,0.0004997,19.9,0.1117,0,1,0
228000000000,228300000000,39308692,0,336047708,8.869e-05,0.07959,0.08728,0.0007467,0.001047,0.07959,2.861e-06,0.0001783,0.0005522,0.0002146,21.82,0.1214,0,1,0
228300000000,228600000000,39308692,0,336047708,8.774e-05,0.07959,0.08728,0.0007467,0.001047,0.07959,4.768e-06,0.0001783,0.001123,0.0006428,12.01,0.06662,0,1,0
228600000000,228900000000,39308692,0,336047708,8.678e-05,0.07959,0.08728,0.0007467,0.001047,0.07959,1.907e-06,0.0001783,0.001411,0.0001431,20.44,0.1173,0,1,0
228900000000,229200000000,39308692,0,336047708,0.0001001,0.07959,0.08728,0.0007477,0.001047,0.07959,2.861e-06,0.0001783,0.00293,0.0001431,21.77,0.1231,0,1,0
229200000000,229500000000,39308692,0,336047708,9.06e-05,0.07959,0.08728,0.0007477,0.001047,0.07959,2.861e-06,0.0001783,0.001957,0.0001431,4.967,0.0255,0,1,0
229500000000,229800000000,39308692,0,336047708,8.583e-05,0.07959,0.08728,0.0007477,0.001047,0.07959,1.907e-06,0.0001783,0.0007906,0.0001431,17.93,0.1,0,1,0
229800000000,230100000000,39308692,0,336047708,8.488e-05,0.07959,0.08728,0.0007477,0.001047,0.07959,2.861e-06,0.0001783,0.0005436,0.0001431,14.01,0.07637,0,1,0
230100000000,230400000000,39308692,0,336047708,8.774e-05,0.07959,0.08728,0.0007477,0.001049,0.07959,3.815e-06,0.0001783,0.001263,0.0006428,7.666,0.04126,0,1,0
230400000000,230700000000,39308692,0,336047708,9.06e-05,0.07959,0.08728,0.0007477,0.001049,0.07959,2.861e-06,0.0001783,0.0007839,0.0001431,6.004,0.03196,0,1,0
230700000000,231000000000,39308692,0,336047708,9.155e-05,0.07959,0.08728,0.0007477,0.001049,0.07959,2.861e-06,0.0001783,0.002174,0.0003567,19.2,0.1095,0,1,0
231000000000,231300000000,39308692,0,336047708,0.0001049,0.07959,0.08728,0.0007477,0.001049,0.07959,2.861e-06,0.0001783,0.001574,0.0002146,15.65,0.089,0,1,0
231300000000,231600000000,39308692,0,336047708,9.727e-05,0.07959,0.08728,0.0007486,0.001049,0.07959,3.815e-06,0.0001783,0.00227,0.0006428,6.708,0.03508,0,1,0
231600000000,231900000000,39308692,0,336047708,9.155e-05,0.07959,0.08728,0.0007486,0.001049,0.07959,2.861e-06,0.0001783,0.0007992,0.0002146,20.49,0.1153,0,1,0
231900000000,232200000000,39308692,0,336047708,8.869e-05,0.07959,0.08728,0.0007486,0.001049,0.07959,1.907e-06,0.0001783,0.0006523,0.0001431,17.51,0.09744,0,1,0
232200000000,232500000000,39308692,0,336047708,9.632e-05,0.07959,0.08728,0.0007486,0.001049,0.07959,1.907e-06,0.0001783,0.01082,0.0001431,21.54,0.1195,0,1,0
232500000000,232800000000,39308692,0,336047708,9.155e-05,0.07959,0.08728,0.0007486,0.001049,0.07959,2.861e-06,0.0001783,0.004128,0.0001431,20.45,0.1147,0,1,0
232800000000,233100000000,39308692,0,336047708,8.774e-05,0.07959,0.08728,0.0007486,0.001049,0.07959,1.907e-06,0.0001783,0.001398,0.0001431,9.981,0.05484,0,1,0
233100000000,233400000000,39308692,0,336047708,8.774e-05,0.07959,0.08728,0.0007486,0.001049,0.07959,3.815e-06,0.0001783,0.0005283,0.0006428,14.06,0.07772,0,1,0
233400000000,233700000000,39308692,0,336047708,9.06e-05,0.07959,0.08728,0.0007486,0.001049,0.07959,1.907e-06,0.0001783,0.002617,0.0001431,22.19,0.1229,0,1,0
233700000000,234000000000,39308692,0,336047708,8.774e-05,0.07959,0.08728,0.0007486,0.001049,0.07959,2.861e-06,0.0001783,0.00246,0.0003567,20.19,0.1176,0,1,0
234000000000,234300000000,39308692,0,336047708,8.869e-05,0.07959,0.08728,0.0007496,0.001049,0.07959,1.049e-05,0.0001783,0.0006065,0.002571,13.02,0.07273,0,1,0
234300000000,234600000000,39308692,0,336047708,8.392e-05,0.07959,0.08728,0.0007496,0.001049,0.07959,2.861e-06,0.0001783,0.001888,0.0001431,15.76,0.08972,0,1,0
234600000000,234900000000,39308692,0,336047708,8.297e-05,0.07959,0.08728,0.0007496,0.001049,0.07959,1.907e-06,0.0001783,0.0005875,0.0001431,20.25,0.1137,0,1,0
234900000000,235200000000,39308692,0,336047708,8.392e-05,0.07959,0.08728,0.0007496,0.001049,0.07959,1.907e-06,0.0001783,0.0006342,0.0001431,14.14,0.07811,0,1,0
235200000000,235500000000,39308692,0,336047708,8.965e-05,0.07959,0.08728,0.0007496,0.001049,0.07959,2.861e-06,0.0001783,0.002041,0.0002146,12.09,0.06759,0,1,0
235500000000,235800000000,39308692,0,336047708,0.0001059,0.07959,0.08728,0.000762,0.001064,0.07959,2.48e-05,0.0001783,0.006088,0.007004,15.35,0.08591,0,1,0
235800000000,236100000000,39308692,0,336047708,8.774e-05,0.07959,0.08728,0.0007639,0.001064,0.07959,1.907e-06,0.0001783,0.0006971,0.0001431,9.425,0.05079,0,1,0
236100000000,236400000000,39308692,0,336047708,8.297e-05,0.07959,0.08728,0.0007639,0.001064,0.07959,5.722e-06,0.0001783,0.0006208,0.001286,11.03,0.0603,0,1,0
241200000000,241500000000,39308692,0,336047708,8.297e-05,0.07959,0.08728,0.0007658,0.001066,0.07959,9.537e-06,0.0001783,0.0005693,0.002499,18.97,0.1086,0,1,0
241500000000,241800000000,39308692,0,336047708,8.392e-05,0.07959,0.08728,0.0007658,0.001066,0.07959,1.907e-06,0.0001783,0.0005684,0.0001431,19.95,0.1133,0,1,0
241800000000,242100000000,39308692,0,336047708,8.488e-05,0.07959,0.08728,0.0007658,0.001066,0.07959,1.907e-06,0.0001783,0.0005484,0.0001431,19.97,0.1148,0,1,0
242100000000,242400000000,39308692,0,336047708,0.000227,0.07959,0.08728,0.0007658,0.001066,0.07959,1.907e-06,0.0001783,0.03833,0.0002146,2.717,0.0114,0,1,0
242400000000,242700000000,39308692,0,336047708,9.155e-05,0.07959,0.08728,0.0007658,0.001066,0.07959,2.861e-06,0.0001783,0.001722,0.0002146,7.058,0.03614,0,1,0
242700000000,243000000000,39308692,0,336047708,9.06e-05,0.07959,0.08728,0.0007658,0.001066,0.07959,1.907e-06,0.0001783,0.000576,0.0001431,22.38,0.121,0,1,0
243000000000,243300000000,39308692,0,336047708,8.869e-05,0.07959,0.08728,0.0007658,0.001068,0.07959,1.907e-06,0.0001783,0.0009298,0.0001431,21.35,0.1185,0,1,0
243300000000,243600000000,39308692,0,336047708,8.774e-05,0.07959,0.08728,0.0007658,0.001068,0.07959,2.861e-06,0.0001783,0.0008211,0.0004282,20.47,0.116,0,1,0
243600000000,243900000000,39308692,0,336047708,9.346e-05,0.07959,0.08728,0.0007658,0.001068,0.07959,2.861e-06,0.0001783,0.001606,0.0003567,6.816,0.03513,0,1,0
243900000000,244200000000,39308692,0,336047708,8.488e-05,0.07959,0.08728,0.0007658,0.001068,0.07959,1.144e-05,0.0001783,0.0008554,0.00293,20.65,0.1163,0,1,0
244200000000,244500000000,39308692,0,336047708,8.297e-05,0.07959,0.08728,0.0007668,0.001068,0.07959,1.907e-06,0.0001783,0.0005512,0.0001431,19.9,0.1159,0,1,0
244500000000,244800000000,39308692,0,336047708,8.488e-05,0.07959,0.08728,0.0007668,0.001068,0.07959,2.861e-06,0.0001783,0.0005474,0.0001431,10.49,0.05781,0,1,0
244800000000,245100000000,39308692,0,336047708,8.488e-05,0.07959,0.08728,0.0007668,0.001068,0.07959,1.907e-06,0.0001783,0.001146,0.0001431,19.75,0.1115,0,1,0
245100000000,245400000000,39308692,0,336047708,8.392e-05,0.07959,0.08728,0.0007668,0.001068,0.07959,8.583e-06,0.0001783,0.001226,0.0009289,20.21,0.1129,0,1,0
245400000000,245700000000,39308692,0,336047708,8.297e-05,0.07959,0.08728,0.0007668,0.001068,0.07959,2.861e-06,0.0001783,0.0006304,0.0006428,20.36,0.1134,0,1,0
245700000000,246000000000,39308692,0,336047708,8.106e-05,0.07959,0.08728,0.0007668,0.001068,0.07959,1.144e-05,0.0001783,0.002758,0.00293,20.42,0.116,0,1,0
246000000000,246300000000,39308692,0,336047708,8.202e-05,0.07959,0.08728,0.0007668,0.001068,0.07959,1.907e-06,0.0001783,0.001617,0.0001431,11.93,0.06524,0,1,0
251400000000,251700000000,39308692,0,336047708,8.774e-05,0.07959,0.08728,0.0007687,0.00107,0.07959,1.335e-05,0.0001783,0.0006428,0.00293,11.75,0.0647,0,1,0
251700000000,252000000000,39308692,0,336047708,8.297e-05,0.07959,0.08728,0.0007687,0.00107,0.07959,1.907e-06,0.0001783,0.0005093,0.0001431,19.69,0.1104,0,1,0
252000000000,252300000000,39308692,0,336047708,8.869e-05,0.07959,0.08728,0.0007687,0.00107,0.07959,1.907e-06,0.0001783,0.001406,0.0001431,11.49,0.06436,0,1,0
252300000000,252600000000,39308692,0,336047708,8.774e-05,0.07959,0.08728,0.0007687,0.00107,0.07959,5.722e-06,0.0001783,0.002087,0.001286,7.933,0.04172,0,1,0
252600000000,252900000000,39308692,0,336047708,8.488e-05,0.07959,0.08728,0.0007696,0.00107,0.07959,1.907e-06,0.0001783,0.001165,0.0001431,20.41,0.1177,0,1,0
252900000000,253200000000,39308692,0,336047708,8.583e-05,0.07959,0.08728,0.0007696,0.00107,0.07959,4.768e-06,0.0001783,0.007362,0.001072,6.431,0.03413,0,1,0
253200000000,253500000000,39308692,0,336047708,9.727e-05,0.07959,0.08728,0.0007696,0.00107,0.07959,2.861e-06,0.0001783,0.001995,0.0005713,6.011,0.03059,0,1,0
253500000000,253800000000,39308692,0,336047708,9.155e-05,0.07959,0.08728,0.0007648,0.001066,0.07959,1.907e-06,0.0001783,0.001921,0.0001431,15.19,0.08179,0,1,0
253800000000,254100000000,39308692,0,336047708,9.346e-05,0.07959,0.08728,0.000762,0.001062,0.07959,1.907e-06,0.0001783,0.007378,0.0001431,21.98,0.1234,0,1,0
254100000000,254400000000,39308692,0,336047708,9.441e-05,0.07959,0.08728,0.000762,0.001062,0.07959,1.144e-05,0.0001783,0.001101,0.001928,21.92,0.1215,0,1,0
254400000000,254700000000,39308692,0,336047708,0.0003767,0.07971,0.08728,0.0007849,0.001123,0.07983,0.0002213,0.0001783,0.06482,0.03345,17.85,0.0995,0,1,0
254700000000,255000000000,39308692,0,336047708,0.0001335,0.07971,0.08728,0.0008278,0.001238,0.07983,3.815e-06,0.0001783,0.00112,0.0002861,9.734,0.05033,0,1,0
255000000000,255300000000,39308692,0,336047708,0.0001335,0.07971,0.08728,0.0008278,0.001238,0.07971,1.24e-05,0.0001783,0.002239,0.002998,11.77,0.06357,0,1,0
255300000000,255600000000,39308692,0,336047708,0.0001354,0.07971,0.08728,0.0008278,0.001238,0.07971,3.815e-06,0.0001783,0.001301,0.0002146,20.36,0.1133,0,1,0
255600000000,255900000000,39308692,0,336047708,0.0001316,0.07971,0.08728,0.0008278,0.001238,0.07971,1.431e-05,0.0001783,0.001291,0.003357,18.34,0.103,0,1,0
255900000000,256200000000,39308692,0,336047708,0.0001259,0.07971,0.08728,0.0008278,0.001238,0.07971,2.861e-06,0.0001783,0.002289,0.0002146,11.93,0.06679,0,1,0
256200000000,256500000000,39308692,0,336047708,0.0001345,0.07971,0.08728,0.0008278,0.001238,0.07971,4.768e-06,0.0001783,0.001648,0.0003567,7.278,0.03839,0,1,0
256500000000,256800000000,39308692,0,336047708,0.000123,0.07971,0.08728,0.0008125,0.001223,0.07971,1.907e-06,0.0001783,0.00068,0.0002146,19.01,0.1085,0,1,0
256800000000,257100000000,39308692,0,336047708,9.251e-05,0.07959,0.08728,0.0008879,0.001204,0.07996,2.766e-05,0.0001783,0.001089,0.0065,19.39,0.1107,0,1,0
257100000000,257400000000,39308692,0,336047708,8.774e-05,0.07959,0.08728,0.0009022,0.001204,0.07959,2.861e-06,0.0001783,0.0005484,0.0002146,12.91,0.07183,0,1,0
257400000000,257700000000,39308692,0,336047708,9.537e-05,0.07959,0.08728,0.0009022,0.001204,0.07959,2.861e-06,0.0001783,0.003647,0.0001431,10.65,0.05815,0,1,0
257700000000,258000000000,39308692,0,336047708,8.678e-05,0.07959,0.08728,0.0009022,0.001204,0.07959,2.861e-06,0.0001783,0.001909,0.0001431,8.26,0.0449,0,1,0
258000000000,258300000000,39308692,0,336047708,8.488e-05,0.07959,0.08728,0.0009022,0.001204,0.07959,1.907e-06,0.0001783,0.003059,0.0001431,12.44,0.06847,0,1,0
258300000000,258600000000,39308692,0,336047708,8.488e-05,0.07959,0.08728,0.0009022,0.001204,0.07959,2.861e-06,0.0001783,0.000988,0.0001431,19.31,0.1102,0,1,0
258600000000,258900000000,39308692,0,336047708,8.869e-05,0.07959,0.08728,0.0009022,0.001204,0.07959,1.907e-06,0.0001783,0.0009995,0.0001431,20.66,0.1154,0,1,0
258900000000,259200000000,39308692,0,336047708,8.869e-05,0.07959,0.08728,0.0009022,0.001204,0.07959,1.907e-06,0.0001783,0.0006723,0.0001431,12.3,0.06817,0,1,0
259200000000,259500000000,39308692,0,336047708,8.583e-05,0.07959,0.08728,0.0009022,0.001204,0.07959,3.815e-06,0.0001783,0.0005493,0.0005713,20.44,0.1161,0,1,0
259500000000,259800000000,39308692,0,336047708,8.297e-05,0.07959,0.08728,0.0009022,0.001204,0.07959,1.907e-06,0.0001783,0.0005331,0.0001431,19.41,0.1102,0,1,0
259800000000,260100000000,39308692,0,336047708,8.869e-05,0.07959,0.08728,0.0009022,0.001204,0.07959,1.907e-06,0.0001783,0.0008297,0.0001431,7.231,0.03897,0,1,0
260100000000,260400000000,39308692,0,336047708,8.488e-05,0.07959,0.08728,0.0009031,0.001204,0.07959,1.907e-06,0.0001783,0.0007982,0.0001431,10.76,0.05838,0,1,0
260400000000,260700000000,39308692,0,336047708,8.202e-05,0.07959,0.08728,0.0009031,0.001204,0.07959,1.907e-06,0.0001783,0.0005045,0.0001431,20.49,0.1156,0,1,0
260700000000,261000000000,39308692,0,336047708,8.202e-05,0.07959,0.08728,0.0009031,0.001204,0.07959,1.907e-06,0.0001783,0.0008497,0.0001431,11.76,0.06466,0,1,0
261000000000,261300000000,39308692,0,336047708,8.678e-05,0.07959,0.08728,0.0009031,0.001204,0.07959,2.861e-06,0.0001783,0.004166,0.0001431,15.13,0.08482,0,1,0
261300000000,261600000000,39308692,0,336047708,9.155e-05,0.07959,0.08728,0.0009031,0.001204,0.07959,1.907e-06,0.0001783,0.004059,0.0001431,10.8,0.0594,0,1,0
261600000000,261900000000,39308692,0,336047708,8.965e-05,0.07959,0.08728,0.0009031,0.001204,0.07959,2.861e-06,0.0001783,0.0006475,0.0002861,12.82,0.0692,0,1,0
261900000000,262200000000,39308692,0,336047708,8.678e-05,0.07959,0.08728,0.0009031,0.001205,0.07959,2.861e-06,0.0001783,0.001537,0.0002146,9.857,0.05354,0,1,0
262200000000,262500000000,39308692,0,336047708,8.869e-05,0.07959,0.08728,0.0009031,0.001205,0.07959,2.861e-06,0.0001783,0.007858,0.0001431,19.7,0.1107,0,1,0
262500000000,262800000000,39308692,0,336047708,0.0001068,0.07959,0.08728,0.0009031,0.001205,0.07959,1.907e-06,0.0001783,0.01057,0.0002146,4.121,0.02061,0,1,0
262800000000,263100000000,39308692,0,336047708,8.297e-05,0.07959,0.08728,0.0009041,0.001205,0.07959,1.907e-06,0.0001783,0.001629,0.0001431,19.91,0.1133,0,1,0
263100000000,263400000000,39308692,0,336047708,8.297e-05,0.07959,0.08728,0.0009041,0.001205,0.07959,1.907e-06,0.0001783,0.0007763,0.0001431,19.21,0.1093,0,1,0
263400000000,263700000000,39308692,0,336047708,0.0001211,0.07959,0.08728,0.0009041,0.001205,0.07959,1.907e-06,0.0001783,0.03339,0.0001431,21.7,0.119,0,1,0
263700000000,264000000000,39308692,0,336047708,8.678e-05,0.07959,0.08728,0.0009041,0.001205,0.07959,9.537e-07,0.0001783,0.001957,0.0001431,19.72,0.111,0,1,0
264000000000,264300000000,39308692,0,336047708,9.251e-05,0.07959,0.08728,0.0009041,0.001205,0.07959,2.861e-06,0.0001783,0.001518,0.0002146,16.35,0.09114,0,1,0
264300000000,264600000000,39308692,0,336047708,8.583e-05,0.07959,0.08728,0.0009041,0.001205,0.07959,1.907e-06,0.0001783,0.0008516,0.0001431,19.71,0.1124,0,1,0
264600000000,264900000000,39308692,0,336047708,9.251e-05,0.07959,0.08728,0.0009041,0.001205,0.07959,1.907e-06,0.0001783,0.00301,0.0002861,21.09,0.1176,0,1,0
264900000000,265200000000,39308692,0,336047708,8.869e-05,0.07959,0.08728,0.0009041,0.001205,0.07959,1.907e-06,0.0001783,0.001266,0.0001431,21.44,0.1183,0,1,0
265200000000,265500000000,39308692,0,336047708,9.155e-05,0.07959,0.08728,0.0009041,0.001205,0.07959,1.907e-06,0.0001783,0.001245,0.0002146,10.08,0.05278,0,1,0
265500000000,265800000000,39308692,0,336047708,9.537e-05,0.07959,0.08728,0.0009041,0.001205,0.07959,1.907e-06,0.0001783,0.0008039,0.0001431,22.93,0.1233,0,1,0
265800000000,266100000000,39308692,0,336047708,9.632e-05,0.07959,0.08728,0.000905,0.001205,0.07959,1.907e-06,0.0001783,0.001469,0.0001431,23.6,0.1265,0,1,0
266100000000,266400000000,39308692,0,336047708,9.632e-05,0.07959,0.08728,0.000905,0.001205,0.07959,1.907e-06,0.0001783,0.002247,0.0001431,23.35,0.1227,0,1,0
266400000000,266700000000,39308692,0,336047708,9.155e-05,0.07959,0.08728,0.000905,0.001205,0.07959,1.907e-06,0.0001783,0.000597,0.0001431,16.17,0.08783,0,1,0
266700000000,267000000000,39308692,0,336047708,9.06e-05,0.07959,0.08728,0.000905,0.001205,0.07959,1.907e-06,0.0001783,0.0006962,0.0001431,15.87,0.08777,0,1,0
267000000000,267300000000,39308692,0,336047708,0.0001001,0.07959,0.08728,0.000905,0.001205,0.07959,1.907e-06,0.0001783,0.003067,0.0002861,10.52,0.0545,0,1,0
267300000000,267600000000,39308692,0,336047708,0.0001211,0.07959,0.08728,0.000905,0.001205,0.07959,1.907e-06,0.0001783,0.003178,0.0002861,5.529,0.0254,0,1,0
267600000000,267900000000,39308692,0,336047708,0.000102,0.07959,0.08728,0.000905,0.001205,0.07959,2.861e-06,0.0001783,0.0006237,0.0002146,9.003,0.04548,0,1,0
267900000000,268200000000,39308692,0,336047708,9.346e-05,0.07959,0.08728,0.000905,0.001207,0.07959,1.907e-06,0.0001783,0.0006323,0.0001431,21.56,0.1156,0,1,0
268200000000,268500000000,39308692,0,336047708,9.441e-05,0.07959,0.08728,0.000905,0.001207,0.07959,1.907e-06,0.0001783,0.0008554,0.0001431,16.87,0.09332,0,1,0
268500000000,268800000000,39308692,0,336047708,9.155e-05,0.07959,0.08728,0.000905,0.001207,0.07959,2.861e-06,0.0001783,0.0005322,0.0001431,13.35,0.0728,0,1,0
268800000000,269100000000,39308692,0,336047708,9.823e-05,0.07959,0.08728,0.000906,0.001207,0.07959,1.907e-06,0.0001783,0.002171,0.0001431,22.91,0.1256,0,1,0
269100000000,269400000000,39308692,0,336047708,9.632e-05,0.07959,0.08728,0.000906,0.001207,0.07959,1.907e-06,0.0001783,0.0005894,0.0001431,23.12,0.1254,0,1,0
269400000000,269700000000,39308692,0,336047708,9.918e-05,0.07959,0.08728,0.000906,0.001207,0.07959,2.861e-06,0.0001783,0.0006294,0.0001431,16.6,0.08564,0,1,0
269700000000,270000000000,39308692,0,336047708,0.0001011,0.07959,0.08728,0.000906,0.001207,0.07959,3.815e-06,0.0001783,0.001225,0.0005713,6.872,0.0338,0,1,0
270000000000,270300000000,39308692,0,336047708,9.06e-05,0.07959,0.08728,0.000906,0.001207,0.07959,2.861e-06,0.0001783,0.001385,0.0002146,19.08,0.1051,0,1,0
270300000000,270600000000,39308692,0,336047708,9.823e-05,0.07959,0.08728,0.000906,0.001207,0.07959,2.861e-06,0.0001783,0.003246,0.0001431,20.51,0.1159,0,1,0
270600000000,270900000000,39308692,0,336047708,9.441e-05,0.07959,0.08728,0.000906,0.001207,0.07959,3.815e-06,0.0001783,0.000762,0.0007143,22.42,0.1224,0,1,0
270900000000,271200000000,39308692,0,336047708,9.441e-05,0.07959,0.08728,0.000906,0.001207,0.07959,3.815e-06,0.0001783,0.000701,0.0007143,12.26,0.06369,0,1,0
271200000000,271500000000,39308692,0,336047708,9.823e-05,0.07959,0.08728,0.000906,0.001207,0.07959,2.861e-06,0.0001783,0.005287,0.0002146,16.6,0.08762,0,1,0
281400000000,281700000000,39308692,0,336047708,8.678e-05,0.07959,0.08728,0.000741,0.001041,0.07959,1.907e-06,0.0001783,0.00338,0.0001431,20.16,0.112,0,1,0
281700000000,282000000000,39308692,0,336047708,8.965e-05,0.07959,0.08728,0.000741,0.001043,0.07959,3.815e-06,0.0001783,0.0006075,0.0005713,13.5,0.07374,0,1,0
282000000000,282300000000,39308692,0,336047708,8.869e-05,0.07959,0.08728,0.000741,0.001043,0.07959,1.907e-06,0.0001783,0.0005779,0.0001431,21.3,0.116,0,1,0
282300000000,282600000000,39308692,0,336047708,8.678e-05,0.07959,0.08728,0.000741,0.001043,0.07959,1.907e-06,0.0001783,0.001032,0.0001431,12.12,0.06642,0,1,0
282600000000,282900000000,39308692,0,336047708,8.678e-05,0.07959,0.08728,0.000741,0.001043,0.07959,1.907e-06,0.0001783,0.0007191,0.0001431,9.683,0.05269,0,1,0
282900000000,283200000000,39308692,0,336047708,8.392e-05,0.07959,0.08728,0.000742,0.001043,0.07959,1.907e-06,0.0001783,0.001583,0.0001431,20.24,0.1143,0,1,0
283200000000,283500000000,39308692,0,336047708,8.678e-05,0.07959,0.08728,0.000742,0.001043,0.07959,1.907e-06,0.0001783,0.001814,0.0001431,19.58,0.1094,0,1,0
283500000000,283800000000,39308692,0,336047708,8.106e-05,0.07959,0.08728,0.000742,0.001043,0.07959,1.907e-06,0.0001783,0.001553,0.0001431,19.6,0.1098,0,1,0
283800000000,284100000000,39308692,0,336047708,8.106e-05,0.07959,0.08728,0.000742,0.001043,0.07959,1.907e-06,0.0001783,0.0006332,0.0001431,19.42,0.1089,0,1,0
284100000000,284400000000,39308692,0,336047708,8.583e-05,0.07959,0.08728,0.000742,0.001043,0.07959,1.907e-06,0.0001783,0.002468,0.0001431,19.65,0.1112,0,1,0
284400000000,284700000000,39308692,0,336047708,8.106e-05,0.07959,0.08728,0.000742,0.001043,0.07959,1.907e-06,0.0001783,0.001057,0.0001431,19.25,0.1088,0,1,0
284700000000,285000000000,39308692,0,336047708,8.011e-05,0.07959,0.08728,0.000742,0.001043,0.07959,1.907e-06,0.0001783,0.000515,0.0001431,19.2,0.1082,0,1,0
285000000000,285300000000,39308692,0,336047708,8.488e-05,0.07959,0.08728,0.000742,0.001043,0.07959,2.861e-06,0.0001783,0.0005531,0.0003567,10.49,0.05707,0,1,0
285300000000,285600000000,39308692,0,336047708,8.106e-05,0.07959,0.08728,0.000742,0.001043,0.07959,1.907e-06,0.0001783,0.0006695,0.0001431,19.47,0.1101,0,1,0
285600000000,285900000000,39308692,0,336047708,8.392e-05,0.07959,0.08728,0.000742,0.001043,0.07959,2.861e-06,0.0001783,0.0005245,0.0002861,20.05,0.112,0,1,0
285900000000,286200000000,39308692,0,336047708,8.488e-05,0.07959,0.08728,0.0007429,0.001043,0.07959,1.907e-06,0.0001783,0.000495,0.0001431,10.14,0.05567,0,1,0
286200000000,286500000000,39308692,0,336047708,8.297e-05,0.07959,0.08728,0.0007429,0.001043,0.07959,2.861e-06,0.0001783,0.0006313,0.0005713,18.76,0.1054,0,1,0
286500000000,286800000000,39308692,0,336047708,8.965e-05,0.07959,0.08728,0.0007429,0.001043,0.07959,1.907e-06,0.0001783,0.00135,0.0001431,19.5,0.1095,0,1,0
286800000000,287100000000,39308692,0,336047708,8.678e-05,0.07959,0.08728,0.0007429,0.001043,0.07959,2.861e-06,0.0001783,0.0005512,0.0001431,12.62,0.06868,0,1,0
287100000000,287400000000,39308692,0,336047708,0.0001001,0.07959,0.08728,0.0007429,0.001043,0.07959,1.907e-06,0.0001783,0.005806,0.0001431,19.49,0.1095,0,1,0
287400000000,287700000000,39308692,0,336047708,8.583e-05,0.07959,0.08728,0.0007429,0.001043,0.07959,1.907e-06,0.0001783,0.0006123,0.0001431,18.36,0.104,0,1,0
287700000000,288000000000,39308692,0,336047708,8.678e-05,0.07959,0.08728,0.0007429,0.001045,0.07959,2.861e-06,0.0001783,0.001163,0.0003567,12.31,0.06766,0,1,0
288000000000,288300000000,39308692,0,336047708,8.869e-05,0.07959,0.08728,0.0007429,0.001045,0.07959,1.907e-06,0.0001783,0.0006952,0.0001431,20.37,0.1133,0,1,0
288300000000,288600000000,39308692,0,336047708,8.678e-05,0.07959,0.08728,0.0007429,0.001045,0.07959,1.907e-06,0.0001783,0.0008364,0.0001431,19.36,0.11,0,1,0
288600000000,288900000000,39308692,0,336047708,9.155e-05,0.07959,0.08728,0.0007439,0.001045,0.07959,5.722e-06,0.0001783,0.001345,0.0008574,8.222,0.04372,0,1,0
288900000000,289200000000,39308692,0,336047708,8.583e-05,0.07959,0.08728,0.0007439,0.001045,0.07959,2.861e-06,0.0001783,0.001856,0.0007143,12.6,0.06915,0,1,0
289200000000,289500000000,39308692,0,336047708,8.583e-05,0.07959,0.08728,0.0007439,0.001045,0.07959,2.861e-06,0.0001783,0.001657,0.0001431,19.55,0.1099,0,1,0
289500000000,289800000000,39308692,0,336047708,8.297e-05,0.07959,0.08728,0.0007439,0.001045,0.07959,5.722e-06,0.0001783,0.0006266,0.001358,19.78,0.1114,0,1,0
289800000000,290100000000,39308692,0,336047708,8.774e-05,0.07959,0.08728,0.0007439,0.001045,0.07959,2.861e-06,0.0001783,0.0006762,0.0001431,13.69,0.07504,0,1,0
290100000000,290400000000,39308692,0,336047708,8.869e-05,0.07959,0.08728,0.0007439,0.001045,0.07959,1.907e-06,0.0001783,0.0006371,0.0001431,17.26,0.09439,0,1,0
290400000000,290700000000,39308692,0,336047708,8.678e-05,0.07959,0.08728,0.0007439,0.001045,0.07959,1.907e-06,0.0001783,0.000617,0.0001431,20.81,0.1169,0,1,0
290700000000,291000000000,39308692,0,336047708,8.678e-05,0.07959,0.08728,0.0007439,0.001045,0.07959,1.907e-06,0.0001783,0.0006828,0.0001431,19.7,0.1094,0,1,0
291000000000,291300000000,39308692,0,336047708,8.297e-05,0.07959,0.08728,0.0007439,0.001045,0.07959,1.907e-06,0.0001783,0.0005713,0.0001431,12.19,0.0678,0,1,0
291300000000,291600000000,39308692,0,336047708,8.297e-05,0.07959,0.08728,0.0007439,0.001045,0.07959,2.861e-06,0.0001783,0.001352,0.0001431,19.19,0.1096,0,1,0
291600000000,291900000000,39308692,0,336047708,8.488e-05,0.07959,0.08728,0.0007439,0.001045,0.07959,3.815e-06,0.0001783,0.0007181,0.0007143,8.852,0.04863,0,1,0
291900000000,292200000000,39308692,0,336047708,0.000103,0.07959,0.08728,0.0007448,0.001045,0.07959,1.907e-06,0.0001783,0.006317,0.0001431,19.81,0.1091,0,1,0
292200000000,292500000000,39308692,0,336047708,9.346e-05,0.07959,0.08728,0.0007448,0.001045,0.07959,2.861e-06,0.0001783,0.001225,0.0001431,21.34,0.1189,0,1,0
292500000000,292800000000,39308692,0,336047708,8.583e-05,0.07959,0.08728,0.0007448,0.001045,0.07959,1.907e-06,0.0001783,0.003376,0.0001431,20.68,0.1172,0,1,0
292800000000,293100000000,39308692,0,336047708,8.392e-05,0.07959,0.08728,0.0007448,0.001045,0.07959,1.144e-05,0.0001783,0.0006866,0.002998,16.14,0.08999,0,1,0
293100000000,293400000000,39308692,0,336047708,8.392e-05,0.07959,0.08728,0.0007448,0.001045,0.07959,2.861e-06,0.0001783,0.0005932,0.0001431,13.72,0.07681,0,1,0
293400000000,293700000000,39308692,0,336047708,8.869e-05,0.07959,0.08728,0.0007448,0.001047,0.07959,7.629e-06,0.0001783,0.00275,0.001572,11.89,0.06581,0,1,0
293700000000,294000000000,39308692,0,336047708,8.202e-05,0.07959,0.08728,0.0007448,0.001047,0.07959,1.907e-06,0.0001783,0.0005856,0.0001431,18.58,0.1037,0,1,0
294000000000,294300000000,39308692,0,336047708,8.583e-05,0.07959,0.08728,0.0007448,0.001047,0.07959,2.861e-06,0.0001783,0.004242,0.0002146,18.76,0.106,0,1,0
294300000000,294600000000,39308692,0,336047708,8.488e-05,0.07959,0.08728,0.0007448,0.001047,0.07959,2.861e-06,0.0001783,0.0006504,0.0003567,14.62,0.08038,0,1,0
294600000000,294900000000,39308692,0,336047708,8.583e-05,0.07959,0.08728,0.0007458,0.001047,0.07959,1.144e-05,0.0001783,0.0006247,0.00293,19.6,0.1124,0,1,0
294900000000,295200000000,39308692,0,336047708,8.392e-05,0.07959,0.08728,0.0007458,0.001047,0.07959,1.907e-06,0.0001783,0.0005627,0.0001431,14.36,0.07886,0,1,0
295200000000,295500000000,39308692,0,336047708,8.297e-05,0.07959,0.08728,0.0007458,0.001047,0.07959,3.815e-06,0.0001783,0.0005827,0.0009289,13.88,0.07704,0,1,0
295500000000,295800000000,39308692,0,336047708,7.82e-05,0.07959,0.08728,0.0007458,0.001047,0.07959,2.861e-06,0.0001783,0.0006456,0.0004282,19.49,0.109,0,1,0
295800000000,296100000000,39308692,0,336047708,8.297e-05,0.07959,0.08728,0.0007458,0.001047,0.07959,6.676e-06,0.0001783,0.0006523,0.001499,19.54,0.1117,0,1,0
296100000000,296400000000,39308692,0,336047708,8.774e-05,0.07959,0.08728,0.0007458,0.001047,0.07959,1.907e-06,0.0001783,0.0007229,0.0001431,9.76,0.05264,0,1,0
296400000000,296700000000,39308692,0,336047708,8.965e-05,0.07959,0.08728,0.0007458,0.001047,0.07959,2.861e-06,0.0001783,0.0007572,0.0003567,21.36,0.1181,0,1,0
296700000000,297000000000,39308692,0,336047708,8.488e-05,0.07959,0.08728,0.0007458,0.001047,0.07959,1.907e-06,0.0001783,0.0006294,0.0001431,20.68,0.116,0,1,0
297000000000,297300000000,39308692,0,336047708,8.678e-05,0.07959,0.08728,0.0007458,0.001047,0.07959,1.907e-06,0.0001783,0.0008602,0.0001431,13.3,0.07462,0,1,0
297300000000,297600000000,39308692,0,336047708,9.06e-05,0.07959,0.08728,0.0007458,0.001047,0.07959,1.907e-06,0.0001783,0.0008774,0.0001431,20.82,0.1178,0,1,0
297600000000,297900000000,39308692,0,336047708,8.869e-05,0.07959,0.08728,0.0007467,0.001047,0.07959,2.861e-06,0.0001783,0.0005817,0.0001431,12.85,0.07033,0,1,0
297900000000,298200000000,39308692,0,336047708,8.488e-05,0.07959,0.08728,0.0007467,0.001047,0.07959,1.907e-06,0.0001783,0.0006418,0.0001431,20.39,0.1123,0,1,0
298200000000,298500000000,39308692,0,336047708,8.202e-05,0.07959,0.08728,0.0007467,0.001047,0.07959,1.907e-06,0.0001783,0.0006866,0.0001431,19.94,0.1098,0,1,0
298500000000,298800000000,39308692,0,336047708,8.488e-05,0.07959,0.08728,0.0007467,0.001047,0.07959,1.907e-06,0.0001783,0.001205,0.0001431,21.01,0.1165,0,1,0
298800000000,299100000000,39308692,0,336047708,0.000102,0.07959,0.08728,0.0007467,0.001047,0.07959,2.861e-06,0.0001783,0.003574,0.0002861,21.05,0.1184,0,1,0
299100000000,299400000000,39308692,0,336047708,8.392e-05,0.07959,0.08728,0.0007467,0.001047,0.07959,4.768e-06,0.0001783,0.0006027,0.0008574,8.216,0.04422,0,1,0
299400000000,299700000000,39308692,0,336047708,8.583e-05,0.07959,0.08728,0.0007467,0.001049,0.07959,1.907e-06,0.0001783,0.0008106,0.0001431,9.766,0.05264,0,1,0
299700000000,300000000000,39308692,0,336047708,8.774e-05,0.07959,0.08728,0.0007467,0.001049,0.07959,1.907e-06,0.0001783,0.001099,0.0001431,20.94,0.1151,0,1,0
