5700000000,6000000000,3961023475,0,1273561,3.433e-05,0.0001812,0.001938,6.676e-05,0.0002003,0.000185,0,0,0.0002966,0,25.1,0.1197,0,0,2.861e-05
6000000000,6300000000,3961023475,0,1273561,3.433e-05,0.0001812,0.001938,6.676e-05,0.0002003,0.000185,0,0,0.0001392,7.153e-05,25.71,0.121,0,0,9.537e-07
6300000000,6600000000,3961023475,0,1273561,3.433e-05,0.0001812,0.001938,6.676e-05,0.0002003,0.000185,0,0,0.0002365,0,25.34,0.1218,0,0,1.526e-05
6600000000,6900000000,3961023475,0,1273561,3.529e-05,0.0001812,0.001938,6.676e-05,0.0002003,0.000185,0,0,0.0002213,7.153e-05,25.37,0.1213,0,0,7.629e-06
6900000000,7200000000,3961023475,0,1273561,3.433e-05,0.0001822,0.001938,6.676e-05,0.0002003,0.000186,0,0,0.0001631,0,25.38,0.1212,0,0,0
7200000000,7500000000,3961023475,0,1273561,3.433e-05,0.0001831,0.001938,6.676e-05,0.0002003,0.000185,0,0,0.0002613,7.153e-05,25.7,0.1221,0,0,2.575e-05
7500000000,7800000000,3961023475,0,1273561,3.338e-05,0.0001812,0.001938,6.676e-05,0.0002003,0.000185,0,0,0.0001078,0,25.3,0.1189,0,0,4.387e-05
7800000000,8100000000,3961023475,0,1273561,3.338e-05,0.0001822,0.001938,6.676e-05,0.0002003,0.0001898,9.537e-07,0,0.0003309,7.153e-05,25.71,0.1215,0,0,4.482e-05
8100000000,8400000000,3961023475,0,1273561,3.242e-05,0.0001822,0.001938,6.771e-05,0.0002003,0.0001898,0,0,0.001293,0,25.06,0.1204,0,0,6.294e-05
8400000000,8700000000,3961023475,0,1273561,3.433e-05,0.0001822,0.001938,6.771e-05,0.0002003,0.000185,0,0,0.0001478,7.153e-05,24.27,0.1193,0,0,0
8700000000,9000000000,3961023475,0,1273561,3.338e-05,0.0001812,0.001938,6.771e-05,0.0002003,0.000185,0,0,0.0003929,0,25.41,0.121,0,0,3.624e-05
9000000000,9300000000,3961023475,0,1273561,3.242e-05,0.0001822,0.001938,6.771e-05,0.0002003,0.000186,0,0,0.0001698,7.153e-05,24.73,0.1204,0,0,6.676e-06
9300000000,9600000000,3961023475,0,1273561,3.338e-05,0.0001812,0.001938,6.771e-05,0.0002003,0.000186,0,0,0.0001297,0,24.63,0.1196,0,0,4.768e-06
9600000000,9900000000,3961023475,0,1273561,3.338e-05,0.0001831,0.001938,6.771e-05,0.0002003,0.000185,0,0,0.0003119,7.153e-05,24.97,0.1198,0,0,3.242e-05
9900000000,10200000000,3961023475,0,1273561,3.433e-05,0.0001812,0.001938,6.771e-05,0.0002003,0.000185,0,0,0.0002632,0,24.85,0.1205,0,0,5.817e-05
10200000000,10500000000,3961023475,0,1273561,3.338e-05,0.0001812,0.001938,6.771e-05,0.0002003,0.000185,0,0,0.0001564,7.153e-05,24.94,0.1199,0,0,2.861e-05
10500000000,10800000000,3961023475,0,1273561,3.433e-05,0.0001812,0.001938,6.771e-05,0.0002003,0.000185,0,0,0.0001936,0,23.73,0.1132,0,0,1.621e-05
10800000000,11100000000,3961023475,0,1273561,3.433e-05,0.0001812,0.001938,6.771e-05,0.0002003,0.000185,0,0,0.0002069,7.153e-05,24.03,0.1149,0,0,3.433e-05
11100000000,11400000000,3961023475,0,1273561,3.338e-05,0.0001812,0.001938,6.771e-05,0.0002003,0.000185,0,0,0.0001678,0,24.5,0.1193,0,0,2.766e-05
11400000000,11700000000,3961023475,0,1273561,3.433e-05,0.0001812,0.001938,6.771e-05,0.0002003,0.000185,0,0,0.0002165,7.153e-05,24.83,0.1207,0,0,6.39e-05
11700000000,12000000000,3961023475,0,1273561,3.338e-05,0.0001812,0.001938,6.771e-05,0.0002012,0.000185,0,0,0.0002098,0,24.83,0.1197,0,0,5.531e-05
12000000000,12300000000,3961023475,0,1273561,3.433e-05,0.0001812,0.001938,6.771e-05,0.0002012,0.000185,0,0,0.000165,7.153e-05,25.43,0.1208,0,0,8.583e-06
12300000000,12600000000,3961023475,0,1273561,3.433e-05,0.0001822,0.001938,6.771e-05,0.0002012,0.000185,0,0,0.0001698,7.153e-05,25.13,0.1208,0,0,9.727e-05
12600000000,12900000000,3961023475,0,1273561,3.433e-05,0.0001831,0.001938,6.771e-05,0.0002012,0.000185,0,0,0.0004787,7.153e-05,25.01,0.1199,0,0,1.621e-05
12900000000,13200000000,3961023475,0,1273561,3.338e-05,0.0001822,0.001938,6.771e-05,0.0002012,0.000186,0,0,0.0003242,0,24.77,0.1208,0,0,4.482e-05
13200000000,13500000000,3961023475,0,1273561,3.433e-05,0.0001822,0.001938,6.771e-05,0.0002012,0.000185,0,0,0.0002699,7.153e-05,24.85,0.1208,0,0,2.193e-05
13500000000,13800000000,3961023475,0,1273561,3.338e-05,0.0001812,0.001938,6.771e-05,0.0002012,0.000185,0,0,0.0001831,0,24.71,0.12,0,0,3.242e-05
13800000000,14100000000,3961023475,0,1273561,3.338e-05,0.0001812,0.001938,6.771e-05,0.0002012,0.000185,0,0,0.0001831,7.153e-05,25.61,0.1212,0,0,2.003e-05
14100000000,14400000000,3961023475,0,1273561,3.242e-05,0.0001812,0.001938,6.771e-05,0.0002012,0.000185,0,0,0.0001707,0,24.17,0.1178,0,0,3.338e-05
14400000000,14700000000,3961023475,0,1273561,3.242e-05,0.0001812,0.001938,6.771e-05,0.0002012,0.000185,0,0,0.0001659,7.153e-05,24.5,0.1193,0,0,1.717e-05
14700000000,15000000000,3961023475,0,1273561,3.242e-05,0.0001812,0.001938,6.771e-05,0.0002012,0.000185,0,0,0.0001812,0,23.68,0.1176,0,0,2.766e-05
15000000000,15300000000,3961023475,0,1273561,3.433e-05,0.0001822,0.001938,6.771e-05,0.0002012,0.0001898,9.537e-07,0,0.0002069,7.153e-05,23.88,0.1161,0,0,1.907e-05
15300000000,15600000000,3961023475,0,1273561,3.242e-05,0.0001822,0.001938,6.771e-05,0.0002012,0.0001898,0,0,0.0001583,0,24.18,0.1202,0,0,3.91e-05
15600000000,15900000000,3961023475,0,1273561,3.147e-05,0.0001812,0.001938,6.771e-05,0.0002012,0.000185,0,0,0.0002117,7.153e-05,24.11,0.1206,0,0,1.335e-05
15900000000,16200000000,3961023475,0,1273561,3.147e-05,0.0001812,0.001938,6.771e-05,0.0002012,0.000185,0,0,0.0001259,0,24.84,0.1197,0,0,4.005e-05
16200000000,16500000000,3961023475,0,1273561,3.147e-05,0.0001812,0.001938,6.771e-05,0.0002012,0.000185,0,0,0.000123,7.153e-05,24.17,0.1198,0,0,1.24e-05
16500000000,16800000000,3961023475,0,1273561,3.242e-05,0.0001812,0.001938,6.771e-05,0.0002012,0.000185,0,0,0.0001459,0,25.76,0.1206,0,0,4.768e-06
16800000000,17100000000,3961023475,0,1273561,3.147e-05,0.0001812,0.001938,6.771e-05,0.0002012,0.000185,0,0,0.0001268,7.153e-05,23.87,0.118,0,0,7.534e-05
17100000000,17400000000,3961023475,0,1273561,3.147e-05,0.0001812,0.001938,6.771e-05,0.0002012,0.000185,0,0,0.0001621,0,24.22,0.1194,0,0,3.815e-06
17400000000,17700000000,3961023475,0,1273561,3.052e-05,0.0001812,0.001938,6.771e-05,0.0002012,0.0001888,0,0,0.0001001,7.153e-05,22.9,0.1135,0,0,2.289e-05
17700000000,18000000000,3961023475,0,1273561,3.052e-05,0.0001822,0.001938,6.771e-05,0.0002012,0.0001888,0,0,0.0001144,0,23.1,0.1181,0,0,1.144e-05
18000000000,18300000000,3961023475,0,1273561,3.147e-05,0.0001822,0.001938,6.771e-05,0.0002012,0.000185,0,0,0.0001135,7.153e-05,23.54,0.1189,0,0,4.292e-05
18300000000,18600000000,3961023475,0,1273561,3.147e-05,0.0001812,0.001938,6.771e-05,0.0002012,0.000185,0,0,0.0001316,0,23.6,0.1198,0,0,1.812e-05
18600000000,18900000000,3961023475,0,1273561,3.147e-05,0.0001812,0.001938,6.771e-05,0.0002012,0.000185,0,0,0.0001812,7.153e-05,24.36,0.1193,0,0,2.956e-05
18900000000,19200000000,3961023475,0,1273561,3.147e-05,0.0001812,0.001938,6.771e-05,0.0002012,0.000185,0,0,0.0001431,0,23.73,0.1188,0,0,2.861e-05
19200000000,19500000000,3961023475,0,1273561,3.147e-05,0.0001812,0.001938,6.771e-05,0.0002012,0.000185,0,0,0.0001469,7.153e-05,24.19,0.1201,0,0,0.0001106
19500000000,19800000000,3961023475,0,1273561,3.147e-05,0.0001812,0.001938,6.771e-05,0.0002012,0.000185,0,0,0.0001526,0,24.07,0.1199,0,0,1.049e-05
19800000000,20100000000,3961023475,0,1273561,3.242e-05,0.0001812,0.001938,6.771e-05,0.0002012,0.000185,0,0,0.0001774,7.153e-05,24.08,0.1193,0,0,9.251e-05
20100000000,20400000000,3961023475,0,1273561,3.147e-05,0.0001812,0.001938,6.771e-05,0.0002012,0.000185,0,0,0.0001736,0,23.27,0.118,0,0,1.431e-05
20400000000,20700000000,3961023475,0,1273561,3.147e-05,0.0001812,0.001938,6.771e-05,0.0002012,0.000185,0,0,0.0001736,7.153e-05,23.85,0.1183,0,0,1.526e-05
20700000000,21000000000,3961023475,0,1273561,3.147e-05,0.0001802,0.001938,6.771e-05,0.0002012,0.000185,0,0,0.0001316,0,24.19,0.1187,0,0,7.629e-06
21000000000,21300000000,3961023475,0,1273561,3.147e-05,0.0001812,0.001938,6.771e-05,0.0002012,0.000185,0,0,0.0001192,7.153e-05,23.25,0.1171,0,0,1.812e-05
21300000000,21600000000,3961023475,0,1273561,3.147e-05,0.0001812,0.001938,6.771e-05,0.0002012,0.000185,0,0,0.0001717,0,23.14,0.1195,0,0,1.907e-05
21600000000,21900000000,3961023475,0,1273561,3.052e-05,0.0001812,0.001938,6.771e-05,0.0002012,0.000185,0,0,0.0001144,7.153e-05,23.11,0.1197,0,0,9.537e-06
21900000000,22200000000,3961023475,0,1273561,3.147e-05,0.0001812,0.001938,6.771e-05,0.0002012,0.000185,0,0,0.0001812,0,24.36,0.1187,0,0,0.0001135
22200000000,22500000000,3961023475,0,1273561,3.147e-05,0.0001812,0.001938,6.771e-05,0.0002012,0.000185,0,0,0.002178,7.153e-05,23.4,0.1185,0,0,1.526e-05
22500000000,22800000000,3961023475,0,1273561,3.052e-05,0.0001831,0.001938,6.771e-05,0.0002012,0.0001879,0,0,0.0001745,7.153e-05,23.15,0.1188,0,0,4.578e-05
22800000000,23100000000,3961023475,0,1273561,3.052e-05,0.0001812,0.001938,6.771e-05,0.0002012,0.000185,0,0,0.000145,7.153e-05,22.23,0.1186,0,0,3.433e-05
23100000000,23400000000,3961023475,0,1273561,3.052e-05,0.0001812,0.001938,6.771e-05,0.0002012,0.000185,0,0,0.0001392,0,22.54,0.1156,0,0,5.913e-05
23400000000,23700000000,3961023475,0,1273561,3.147e-05,0.0001822,0.001938,6.771e-05,0.0002012,0.0001888,0,0,0.0001469,7.153e-05,21.5,0.1096,0,0,4.768e-06
23700000000,24000000000,3961023475,0,1273561,3.147e-05,0.0001812,0.001938,6.771e-05,0.0002012,0.0001888,0,0,0.0001659,0,22.7,0.1146,0,0,4.959e-05
24000000000,24300000000,3961023475,0,1273561,3.052e-05,0.0001812,0.001938,6.771e-05,0.0002012,0.000185,0,0,0.0001411,7.153e-05,21.96,0.1107,0,0,1.431e-05
24300000000,24600000000,3961023475,0,1273561,3.147e-05,0.0001812,0.001938,6.771e-05,0.0002012,0.000185,0,0,0.0001688,0,23.54,0.1193,0,0,1.907e-05
24600000000,24900000000,3961023475,0,1273561,3.147e-05,0.0001812,0.001938,6.771e-05,0.0002012,0.000185,0,0,0.0001535,7.153e-05,23.69,0.1187,0,0,6.676e-06
24900000000,25200000000,3961023475,0,1273561,3.242e-05,0.0001812,0.001938,6.771e-05,0.0002012,0.000185,0,0,0.000206,0,22.82,0.1179,0,0,7.629e-06
25200000000,25500000000,3961023475,0,1273561,3.242e-05,0.0001812,0.001938,6.771e-05,0.0002012,0.000185,0,0,0.0001945,7.153e-05,23.05,0.1172,0,0,3.719e-05
25500000000,25800000000,3961023475,0,1273561,3.147e-05,0.0001812,0.001938,6.771e-05,0.0002012,0.000185,0,0,0.000165,0,23.07,0.1182,0,0,1.526e-05
25800000000,26100000000,3961023475,0,1273561,3.147e-05,0.0001812,0.001938,6.771e-05,0.0002012,0.000185,0,0,0.0001678,7.153e-05,23.88,0.1174,0,0,1.335e-05
26100000000,26400000000,3961023475,0,1273561,3.147e-05,0.0001812,0.001938,6.771e-05,0.0002012,0.000185,0,0,0.000185,0,23.66,0.1184,0,0,1.907e-05
26400000000,26700000000,3961023475,0,1273561,3.338e-05,0.0001822,0.001938,6.771e-05,0.0002012,0.000186,0,0,0.000206,7.153e-05,24.9,0.1194,0,0,1.907e-06
26700000000,27000000000,3961023475,0,1273561,3.052e-05,0.0001812,0.001938,6.771e-05,0.0002012,0.000186,0,0,0.0002022,0,22.67,0.1182,0,0,6.962e-05
27000000000,27300000000,3961023475,0,1273561,3.147e-05,0.0001812,0.001938,6.771e-05,0.0002012,0.000185,0,0,0.0001688,7.153e-05,23.83,0.1185,0,0,7.629e-06
27300000000,27600000000,3961023475,0,1273561,3.147e-05,0.0001812,0.001938,6.771e-05,0.0002012,0.000185,0,0,0.0001926,0,23.26,0.1179,0,0,3.052e-05
27600000000,27900000000,3961023475,0,1273561,3.433e-05,0.0001812,0.001938,6.771e-05,0.0002012,0.000185,0,0,0.0002098,7.153e-05,24.81,0.1198,0,0,8.583e-06
27900000000,28200000000,3961023475,0,1273561,3.242e-05,0.0001812,0.001938,6.866e-05,0.0002012,0.000185,0,0,0.0002518,0,23.27,0.1187,0,0,3.624e-05
28200000000,28500000000,3961023475,0,1273561,3.242e-05,0.0001822,0.001938,6.866e-05,0.0002012,0.0001888,0,0,0.0002375,7.153e-05,22.64,0.1171,0,0,6.676e-06
28500000000,28800000000,3961023475,0,1273561,3.338e-05,0.0001822,0.001938,6.866e-05,0.0002012,0.000186,0,0,0.0002146,0,24.73,0.119,0,0,1.717e-05
28800000000,29100000000,3961023475,0,1273561,3.338e-05,0.0001812,0.001938,6.866e-05,0.0002012,0.000185,0,0,0.0001955,7.153e-05,23.94,0.1144,0,0,8.488e-05
29100000000,29400000000,3961023475,0,1273561,3.242e-05,0.0001812,0.001938,6.866e-05,0.0002012,0.000185,0,0,0.0002241,0,23.55,0.1126,0,0,3.242e-05
29400000000,29700000000,3961023475,0,1273561,3.338e-05,0.0001812,0.001938,6.866e-05,0.0002012,0.000185,0,0,0.000227,7.153e-05,24.09,0.1184,0,0,2.48e-05
29700000000,30000000000,3961023475,0,1273561,3.338e-05,0.0001831,0.001938,6.866e-05,0.0002012,0.0001869,0,0,0.0002193,7.153e-05,24.81,0.1198,0,0,4.482e-05
30000000000,30300000000,3961023475,0,1273561,3.338e-05,0.0001812,0.001938,6.866e-05,0.0002012,0.000185,0,0,0.0002041,7.153e-05,24.23,0.119,0,0,8.965e-05
30300000000,30600000000,3961023475,0,1273561,3.242e-05,0.0001812,0.001938,6.866e-05,0.0002012,0.000185,0,0,0.0001974,0,24.76,0.1199,0,0,3.91e-05
30600000000,30900000000,3961023475,0,1273561,3.338e-05,0.0001812,0.001938,6.866e-05,0.0002012,0.000185,0,0,0.0001898,7.153e-05,24.61,0.12,0,0,1.812e-05
30900000000,31200000000,3961023475,0,1273561,3.242e-05,0.0001812,0.001938,6.866e-05,0.0002012,0.000185,0,0,0.0002403,0,24.13,0.1184,0,0,0.0001097
31200000000,31500000000,3961023475,0,1273561,3.338e-05,0.0001812,0.001938,6.866e-05,0.0002022,0.000185,0,0,0.0002098,7.153e-05,24.41,0.1194,0,0,1.24e-05
31500000000,31800000000,3961023475,0,1273561,3.242e-05,0.0001812,0.001938,6.866e-05,0.0002022,0.000185,0,0,0.0002317,0,23.46,0.1172,0,0,2.003e-05
31800000000,32100000000,3961023475,0,1273561,3.338e-05,0.0001812,0.001938,6.866e-05,0.0002022,0.000185,0,0,0.0002785,7.153e-05,23.14,0.1121,0,0,2.67e-05
32100000000,32400000000,3961023475,0,1273561,3.433e-05,0.0001812,0.001938,6.866e-05,0.0002022,0.000185,0,0,0.0002699,0,24.01,0.1165,0,0,8.011e-05
32400000000,32700000000,3961023475,0,1273561,3.433e-05,0.0001812,0.001938,6.866e-05,0.0002022,0.000185,0,0,0.000268,7.153e-05,25.13,0.12,0,0,3.147e-05
32700000000,33000000000,3961023475,0,1273561,3.242e-05,0.0001812,0.001938,6.866e-05,0.0002022,0.000185,0,0,0.0002012,0,24.47,0.1182,0,0,2.48e-05
33000000000,33300000000,3961023475,0,1273561,3.338e-05,0.0001812,0.001938,6.866e-05,0.0002022,0.000185,0,0,0.0002394,7.153e-05,25.26,0.1198,0,0,1.431e-05
33300000000,33600000000,3961023475,0,1273561,3.338e-05,0.0001812,0.001938,6.866e-05,0.0002022,0.000185,0,0,0.0002728,0,24.84,0.1205,0,0,2.48e-05
33600000000,33900000000,3961023475,0,1273561,3.242e-05,0.0001812,0.001938,6.866e-05,0.0002022,0.000185,0,0,0.0002642,7.153e-05,24.72,0.1199,0,0,3.242e-05
33900000000,34200000000,3961023475,0,1273561,3.242e-05,0.0001822,0.001938,6.866e-05,0.0002022,0.000185,0,0,0.0002089,0,23.71,0.1187,0,0,1.431e-05
34200000000,34500000000,3961023475,0,1273561,3.338e-05,0.0001831,0.001938,6.866e-05,0.0002022,0.0001888,0,0,0.000247,7.153e-05,24.27,0.1183,0,0,0.0001764
34500000000,34800000000,3961023475,0,1273561,3.338e-05,0.0001822,0.001938,6.866e-05,0.0002022,0.0001869,0,0,0.0002213,7.153e-05,24.63,0.1191,0,0,1.049e-05
34800000000,35100000000,3961023475,0,1273561,3.338e-05,0.0001812,0.001938,6.866e-05,0.0002022,0.000185,0,0,0.0002594,7.153e-05,24.77,0.1194,0,0,2.193e-05
35100000000,35400000000,3961023475,0,1273561,3.338e-05,0.0001812,0.001938,6.866e-05,0.0002022,0.000185,0,0,0.0002527,0,24.32,0.1166,0,0,4.387e-05
35400000000,35700000000,3961023475,0,1273561,3.338e-05,0.0001812,0.001938,6.866e-05,0.0002022,0.000185,0,0,0.001377,7.153e-05,23.77,0.115,0,0,3.815e-06
35700000000,36000000000,3961023475,0,1273561,3.242e-05,0.0001812,0.001938,6.866e-05,0.0002022,0.000185,0,0,0.0002337,0,23.62,0.1172,0,0,3.529e-05
36000000000,36300000000,3961023475,0,1273561,3.242e-05,0.0001812,0.001938,6.866e-05,0.0002022,0.000185,0,0,0.0001612,7.153e-05,24.2,0.1195,0,0,6.104e-05
36300000000,36600000000,3961023475,0,1273561,3.338e-05,0.0001812,0.001938,6.866e-05,0.0002022,0.000185,0,0,0.0008183,0,25.36,0.1216,0,0,4.482e-05
36600000000,36900000000,3961023475,0,1273561,3.242e-05,0.0001812,0.001938,6.866e-05,0.0002022,0.000185,0,0,0.0001564,7.153e-05,25.06,0.1206,0,0,1.144e-05
36900000000,37200000000,3961023475,0,1273561,3.147e-05,0.0001831,0.001938,6.866e-05,0.0002022,0.000186,0,0,0.000144,7.153e-05,24.06,0.1202,0,0,3.815e-06
37200000000,37500000000,3961023475,0,1273561,3.433e-05,0.0001812,0.001938,6.866e-05,0.0002022,0.000185,0,0,0.0001354,7.153e-05,26.41,0.1224,0,0,4.768e-06
37500000000,37800000000,3961023475,0,1273561,3.052e-05,0.0001812,0.001938,6.866e-05,0.0002022,0.000185,0,0,0.000144,0,23.49,0.1185,0,0,2.956e-05
37800000000,38100000000,3961023475,0,1273561,3.147e-05,0.0001812,0.001938,6.866e-05,0.0002022,0.000185,0,0,0.0001707,7.153e-05,23.79,0.1184,0,0,6.962e-05
38100000000,38400000000,3961023475,0,1273561,3.147e-05,0.0001802,0.001938,6.866e-05,0.0002022,0.000185,0,0,0.0002012,0,23.02,0.1183,0,0,2.575e-05
38400000000,38700000000,3961023475,0,1273561,3.242e-05,0.0001812,0.001938,6.866e-05,0.0002022,0.000185,0,0,0.0001955,7.153e-05,23.35,0.119,0,0,7.629e-06
38700000000,39000000000,3961023475,0,1273561,3.147e-05,0.0001802,0.001938,6.866e-05,0.0002022,0.000185,0,0,0.0001774,0,23.15,0.1191,0,0,5.15e-05
39000000000,39300000000,3961023475,0,1273561,3.242e-05,0.0001822,0.001938,6.866e-05,0.0002022,0.000185,0,0,0.0002146,7.153e-05,23.56,0.1182,0,0,7.057e-05
39300000000,39600000000,3961023475,0,1273561,3.338e-05,0.0001822,0.001938,6.866e-05,0.0002022,0.000185,0,0,0.0002089,0,22.63,0.118,0,0,3.815e-06
39600000000,39900000000,3961023475,0,1273561,3.338e-05,0.0001812,0.001938,6.866e-05,0.0002022,0.000185,0,0,0.0001879,7.153e-05,24.83,0.1196,0,0,5.722e-06
39900000000,40200000000,3961023475,0,1273561,3.242e-05,0.0001812,0.001938,6.866e-05,0.0002022,0.000185,0,0,0.0001831,0,23.8,0.1186,0,0,0.0001173
40200000000,40500000000,3961023475,0,1273561,3.242e-05,0.0001812,0.001938,6.866e-05,0.0002022,0.000185,0,0,0.0002012,7.153e-05,23.59,0.1175,0,0,9.537e-06
40500000000,40800000000,3961023475,0,1273561,3.242e-05,0.0001812,0.001938,6.866e-05,0.0002022,0.000185,0,0,0.0002155,0,22.88,0.1176,0,0,0
51000000000,51300000000,3961023475,0,1273561,3.624e-05,0.0001812,0.001938,6.962e-05,0.0002031,0.000185,0,0,0.000226,7.153e-05,27.72,0.1245,0,0,6.008e-05
51300000000,51600000000,3961023475,0,1273561,3.624e-05,0.0001831,0.001938,6.962e-05,0.0002031,0.000186,0,0,0.0001688,7.153e-05,26.99,0.124,0,0,6.676e-05
51600000000,51900000000,3961023475,0,1273561,3.624e-05,0.0001812,0.001938,6.962e-05,0.0002031,0.000185,0,0,0.0001411,7.153e-05,26.63,0.1223,0,0,2.766e-05
51900000000,52200000000,3961023475,0,1273561,3.624e-05,0.0001812,0.001938,6.962e-05,0.0002031,0.000185,0,0,0.0001955,0,27.09,0.1225,0,0,2.575e-05
52200000000,52500000000,3961023475,0,1273561,3.624e-05,0.0001812,0.001938,6.962e-05,0.0002031,0.000185,0,0,0.0001631,7.153e-05,27.17,0.1221,0,0,4.005e-05
52500000000,52800000000,3961023475,0,1273561,3.624e-05,0.0001812,0.001938,6.962e-05,0.0002031,0.000185,0,0,0.0001316,0,26.7,0.1226,0,0,6.676e-06
52800000000,53100000000,3961023475,0,1273561,3.529e-05,0.0001812,0.001938,6.962e-05,0.0002031,0.000185,0,0,0.0001593,7.153e-05,27.15,0.1239,0,0,2.861e-05
53100000000,53400000000,3961023475,0,1273561,3.624e-05,0.0001812,0.001938,6.962e-05,0.0002031,0.000185,0,0,0.0001335,0,26.82,0.1235,0,0,4.196e-05
53400000000,53700000000,3961023475,0,1273561,3.624e-05,0.0001812,0.001938,6.962e-05,0.0002031,0.000185,0,0,0.0001535,0.0001431,27.21,0.1227,0,0,0.0001192
53700000000,54000000000,3961023475,0,1273561,3.529e-05,0.0001812,0.001938,6.962e-05,0.0002031,0.000185,0,0,0.0001545,0,26.35,0.1214,0,0,3.052e-05
54000000000,54300000000,3961023475,0,1273561,3.529e-05,0.0001812,0.001938,6.962e-05,0.0002031,0.000185,0,0,0.0001793,7.153e-05,27.09,0.1225,0,0,5.054e-05
54300000000,54600000000,3961023475,0,1273561,3.433e-05,0.0001812,0.001938,6.962e-05,0.0002031,0.000185,0,0,0.0002251,0,26.56,0.1215,0,0,4.768e-06
54600000000,54900000000,3961023475,0,1273561,3.529e-05,0.0001812,0.001938,6.962e-05,0.0002031,0.000185,0,0,0.0001459,7.153e-05,26.72,0.1226,0,0,2.861e-06
54900000000,55200000000,3961023475,0,1273561,3.529e-05,0.0001812,0.001938,6.962e-05,0.0002031,0.000185,0,0,0.0001278,0,25.21,0.1158,0,0,9.537e-06
55200000000,55500000000,3961023475,0,1273561,3.624e-05,0.0001812,0.001938,6.962e-05,0.0002031,0.000185,0,0,0.0001993,7.153e-05,24.81,0.1151,0,0,5.054e-05
55500000000,55800000000,3961023475,0,1273561,3.529e-05,0.0001822,0.001938,6.962e-05,0.0002031,0.0001869,0,0,0.000186,0,25.45,0.1171,0,0,0.0001011
55800000000,56100000000,3961023475,0,1273561,3.529e-05,0.0001831,0.001938,6.962e-05,0.0002031,0.000185,0,0,0.0001335,7.153e-05,24.94,0.1147,0,0,1.049e-05
56100000000,56400000000,3961023475,0,1273561,3.529e-05,0.0001812,0.001938,6.962e-05,0.0002031,0.000185,0,0,0.0001326,0,26.09,0.1184,0,0,8.583e-06
56400000000,56700000000,3961023475,0,1273561,3.529e-05,0.0001812,0.001938,6.962e-05,0.0002031,0.000185,0,0,0.0003233,7.153e-05,25.59,0.1152,0,0,9.537e-06
56700000000,57000000000,3961023475,0,1273561,3.624e-05,0.0001802,0.001938,6.962e-05,0.0002031,0.000185,0,0,0.0001278,0,26.02,0.1179,0,0,8.583e-06
57000000000,57300000000,3961023475,0,1273561,3.624e-05,0.0001812,0.001938,6.962e-05,0.0002031,0.000185,0,0,0.0001383,7.153e-05,24.94,0.1147,0,0,0.0001116
57300000000,57600000000,3961023475,0,1273561,3.624e-05,0.0001802,0.001938,6.962e-05,0.0002031,0.000185,0,0,0.0002031,0,25.43,0.1168,0,0,6.771e-05
57600000000,57900000000,3961023475,0,1273561,3.624e-05,0.0001812,0.001938,6.962e-05,0.0002031,0.000185,0,0,0.0001841,7.153e-05,25.49,0.1171,0,0,3.815e-05
57900000000,58200000000,3961023475,0,1273561,3.624e-05,0.0001812,0.001938,6.962e-05,0.0002031,0.000185,0,0,0.0008221,0,25.7,0.1174,0,0,8.583e-06
58200000000,58500000000,3961023475,0,1273561,3.719e-05,0.0001812,0.001938,6.962e-05,0.0002031,0.000185,0,0,0.0006008,7.153e-05,24.76,0.1154,0,0,9.537e-07
58500000000,58800000000,3961023475,0,1273561,3.624e-05,0.0001831,0.001938,6.962e-05,0.0002031,0.000186,0,0,0.000164,7.153e-05,25.34,0.1173,0,0,6.676e-06
58800000000,59100000000,3961023475,0,1273561,3.624e-05,0.0001812,0.001938,6.962e-05,0.0002031,0.000185,0,0,0.0001602,7.153e-05,25.03,0.1158,0,0,2.861e-06
59100000000,59400000000,3961023475,0,1273561,3.815e-05,0.0001802,0.001938,6.962e-05,0.0002031,0.000185,0,0,0.0002012,0,26.61,0.1196,0,0,4.768e-06
59400000000,59700000000,3961023475,0,1273561,3.91e-05,0.0001812,0.001938,6.962e-05,0.0002031,0.000185,9.537e-07,0,0.0002222,0.0002861,26.79,0.1182,0,0,1.431e-05
59700000000,60000000000,3961023475,0,1273561,3.815e-05,0.0001812,0.001938,6.962e-05,0.0002031,0.000185,0,0,0.0001717,0,26.94,0.1189,0,0,3.91e-05
60000000000,60300000000,3961023475,0,1273561,3.815e-05,0.0001812,0.001938,6.962e-05,0.0002031,0.000185,0,0,0.0001812,7.153e-05,26.01,0.1158,0,0,2.861e-05
60300000000,60600000000,3961023475,0,1273561,3.815e-05,0.0001812,0.001938,6.962e-05,0.0002031,0.000185,0,0,0.0001163,0,27.22,0.1202,0,0,3.719e-05
60600000000,60900000000,3961023475,0,1273561,3.719e-05,0.0001822,0.001938,6.962e-05,0.0002031,0.000185,0,0,0.0002537,7.153e-05,26.24,0.1164,0,0,1.621e-05
70800000000,71100000000,3961023475,0,1273561,3.815e-05,0.0001812,0.001938,7.057e-05,0.0002041,0.000185,0,0,0.0001602,0.0001431,26.18,0.1157,0,0,3.052e-05
71100000000,71400000000,3961023475,0,1273561,3.91e-05,0.0001822,0.001938,7.057e-05,0.0002041,0.000185,0,0,0.0002127,0,27.28,0.1212,0,0,9.537e-06
71400000000,71700000000,3961023475,0,1273561,3.815e-05,0.0001822,0.001938,7.057e-05,0.0002041,0.0001898,0,0,0.0002356,7.153e-05,25.9,0.1167,0,0,9.537e-06
71700000000,72000000000,3961023475,0,1273561,3.815e-05,0.0001812,0.001938,7.057e-05,0.0002041,0.0001898,0,0,0.0002766,0,26.49,0.1195,0,0,2.766e-05
72000000000,72300000000,3961023475,0,1273561,3.815e-05,0.0001812,0.001938,7.057e-05,0.0002041,0.000185,0,0,0.0002718,7.153e-05,26.23,0.1164,0,0,3.719e-05
72300000000,72600000000,3961023475,0,1273561,3.91e-05,0.0001812,0.001938,7.057e-05,0.0002041,0.000185,0,0,0.0003366,0,26.35,0.1183,0,0,5.341e-05
72600000000,72900000000,3961023475,0,1273561,3.91e-05,0.0001812,0.001938,7.057e-05,0.0002041,0.000185,0,0,0.0002737,7.153e-05,26.48,0.1166,0,0,7.153e-05
72900000000,73200000000,3961023475,0,1273561,4.005e-05,0.0001831,0.001938,7.057e-05,0.0002041,0.000186,0,0,0.00033,7.153e-05,27.12,0.1203,0,0,3.529e-05
73200000000,73500000000,3961023475,0,1273561,4.005e-05,0.0001822,0.001938,7.057e-05,0.0002041,0.000185,0,0,0.0002279,7.153e-05,26.59,0.1174,0,0,1.049e-05
73500000000,73800000000,3961023475,0,1273561,4.005e-05,0.0001812,0.001938,7.057e-05,0.0002041,0.000185,0,0,0.0001965,0,26.94,0.1198,0,0,2.003e-05
73800000000,74100000000,3961023475,0,1273561,3.91e-05,0.0001812,0.001938,7.057e-05,0.0002041,0.000185,0,0,0.0001678,7.153e-05,26.63,0.1182,0,0,3.338e-05
74100000000,74400000000,3961023475,0,1273561,4.005e-05,0.0001812,0.001938,7.057e-05,0.0002041,0.000185,0,0,0.0001478,0,27.27,0.1202,0,0,5.531e-05
74400000000,74700000000,3961023475,0,1273561,4.101e-05,0.0001812,0.001938,7.057e-05,0.0002041,0.000185,0,0,0.0002022,7.153e-05,27.38,0.1207,0,0,1.049e-05
74700000000,75000000000,3961023475,0,1273561,4.005e-05,0.0001812,0.001938,7.057e-05,0.0002041,0.000185,0,0,0.001751,0,26.89,0.1195,0,0,9.537e-06
75000000000,75300000000,3961023475,0,1273561,4.005e-05,0.0001812,0.001938,7.057e-05,0.0002041,0.000185,0,0,0.0001917,7.153e-05,26.97,0.1194,0,0,3.242e-05
75300000000,75600000000,3961023475,0,1273561,4.005e-05,0.0001812,0.001938,7.057e-05,0.0002041,0.000185,0,0,0.0001726,0,26.71,0.1199,0,0,1.907e-06
75600000000,75900000000,3961023475,0,1273561,4.005e-05,0.0001812,0.001938,7.057e-05,0.0002041,0.000185,0,0,0.0008879,7.153e-05,26.43,0.1176,0,0,1.621e-05
75900000000,76200000000,3961023475,0,1273561,4.005e-05,0.0001812,0.001938,7.057e-05,0.0002041,0.000185,0,0,0.0001516,0,26.95,0.12,0,0,9.537e-07
76200000000,76500000000,3961023475,0,1273561,3.91e-05,0.0001812,0.001938,7.057e-05,0.0002041,0.000185,0,0,0.0001936,7.153e-05,26.53,0.1166,0,0,8.869e-05
76500000000,76800000000,3961023475,0,1273561,3.815e-05,0.0001812,0.001938,7.057e-05,0.0002041,0.000185,0,0,0.0002022,0,26,0.117,0,0,8.011e-05
76800000000,77100000000,3961023475,0,1273561,3.91e-05,0.0001831,0.001938,7.057e-05,0.0002041,0.0001888,0,0,0.0002441,7.153e-05,25.75,0.1158,0,0,3.147e-05
77100000000,77400000000,3961023475,0,1273561,3.815e-05,0.0001822,0.001938,7.057e-05,0.0002041,0.000185,0,0,0.0001564,0,26.42,0.1189,0,0,1.812e-05
77400000000,77700000000,3961023475,0,1273561,3.91e-05,0.0001812,0.001938,7.057e-05,0.0002041,0.000185,0,0,0.0001841,7.153e-05,25.67,0.1157,0,0,6.676e-06
77700000000,78000000000,3961023475,0,1273561,3.91e-05,0.0001812,0.001938,7.057e-05,0.0002041,0.000185,0,0,0.0002699,0,25.87,0.1171,0,0,4.005e-05
78000000000,78300000000,3961023475,0,1273561,3.91e-05,0.0001812,0.001938,7.057e-05,0.0002041,0.000185,0,0,0.0002813,7.153e-05,25.61,0.1161,0,0,4.482e-05
78300000000,78600000000,3961023475,0,1273561,3.815e-05,0.0001812,0.001938,7.057e-05,0.0002041,0.000185,0,0,0.0002537,0,26.21,0.118,0,0,8.583e-06
78600000000,78900000000,3961023475,0,1273561,4.005e-05,0.0001812,0.001938,7.057e-05,0.0002041,0.000185,0,0,0.0003004,7.153e-05,26.03,0.1177,0,0,3.147e-05
78900000000,79200000000,3961023475,0,1273561,3.91e-05,0.0001802,0.001938,7.057e-05,0.0002041,0.000185,0,0,0.0002995,0,26.33,0.1183,0,0,0.0002565
79200000000,79500000000,3961023475,0,1273561,4.101e-05,0.0001812,0.001938,7.057e-05,0.0002041,0.000185,0,0,0.0003805,7.153e-05,26.71,0.1178,0,0,9.918e-05
79500000000,79800000000,3961023475,0,1273561,4.005e-05,0.0001812,0.001938,7.057e-05,0.0002041,0.000185,0,0,0.0003395,0,27.35,0.1218,0,0,1.717e-05
79800000000,80100000000,3961023475,0,1273561,4.005e-05,0.0001812,0.001938,7.057e-05,0.0002041,0.000185,0,0,0.0002451,7.153e-05,26.53,0.1183,0,0,2.289e-05
80100000000,80400000000,3961023475,0,1273561,3.91e-05,0.0001822,0.001938,7.057e-05,0.0002041,0.000186,9.537e-07,0,0.0001802,0.0001431,26.84,0.1195,0,0,5.531e-05
80400000000,80700000000,3961023475,0,1273561,4.005e-05,0.0001822,0.001938,7.057e-05,0.0002041,0.000186,0,0,0.0001774,7.153e-05,26.94,0.1183,0,0,7.629e-06
80700000000,81000000000,3961023475,0,1273561,4.101e-05,0.0001802,0.001938,7.057e-05,0.0002041,0.000185,0,0,0.0001764,0,27.07,0.1203,0,0,1.335e-05
85800000000,86100000000,3961023475,0,1273561,4.196e-05,0.0001812,0.001938,7.153e-05,0.0002041,0.000185,0,0,0.0001755,7.153e-05,27.21,0.1193,0,0,2.861e-06
86100000000,86400000000,3961023475,0,1273561,4.196e-05,0.0001802,0.001938,7.153e-05,0.0002041,0.000185,0,0,0.0003357,0,27.36,0.1217,0,0,7.725e-05
86400000000,86700000000,3961023475,0,1273561,4.292e-05,0.0001812,0.001938,7.153e-05,0.0002041,0.000186,0,0,0.0001993,7.153e-05,26.61,0.1184,0,0,1.907e-06
86700000000,87000000000,3961023475,0,1273561,4.292e-05,0.0001812,0.001938,7.153e-05,0.0002041,0.000185,0,0,0.0003986,0,27.24,0.1233,0,0,3.147e-05
87000000000,87300000000,3961023475,0,1273561,4.387e-05,0.0001812,0.001938,7.153e-05,0.0002041,0.000185,0,0,0.0002947,7.153e-05,26.51,0.1183,0,0,3.242e-05
87300000000,87600000000,3961023475,0,1273561,4.387e-05,0.0001812,0.001938,7.153e-05,0.0002041,0.000186,0,0,0.0003138,7.153e-05,27.57,0.1228,0,0,6.39e-05
87600000000,87900000000,3961023475,0,1273561,4.482e-05,0.0001841,0.001938,7.153e-05,0.0002041,0.000186,0,0,0.0003405,7.153e-05,27.2,0.1219,0,0,1.24e-05
87900000000,88200000000,3961023475,0,1273561,4.768e-05,0.0001822,0.001938,7.153e-05,0.0002041,0.000185,0,0,0.0003386,0,27.48,0.123,0,0,1.907e-06
88200000000,88500000000,3961023475,0,1273561,4.578e-05,0.0001812,0.001938,7.153e-05,0.0002041,0.000185,0,0,0.0001717,7.153e-05,27.48,0.1219,0,0,1.049e-05
88500000000,88800000000,3961023475,0,1273561,4.482e-05,0.0001812,0.001938,7.153e-05,0.000205,0.000185,0,0,0.000329,0,27.11,0.1218,0,0,8.488e-05
88800000000,89100000000,3961023475,0,1273561,4.578e-05,0.0001812,0.001938,7.153e-05,0.000205,0.000185,0,0,0.0003862,7.153e-05,27.18,0.1201,0,0,5.054e-05
89100000000,89400000000,3961023475,0,1273561,4.387e-05,0.0001812,0.001938,7.153e-05,0.000205,0.000185,0,0,0.0001984,0,27.75,0.1234,0,0,2.861e-06
89400000000,89700000000,3961023475,0,1273561,4.482e-05,0.0001812,0.001938,7.153e-05,0.000205,0.000185,0,0,0.0003977,7.153e-05,26.87,0.1208,0,0,2.575e-05
89700000000,90000000000,3961023475,0,1273561,4.387e-05,0.0001812,0.001938,7.153e-05,0.000205,0.000185,0,0,0.0002041,0,27.47,0.1223,0,0,2.003e-05
90000000000,90300000000,3961023475,0,1273561,4.482e-05,0.0001812,0.001938,7.153e-05,0.000205,0.000185,1.907e-06,0,0.001038,0.0005713,27.11,0.1211,0,0,2.766e-05
90300000000,90600000000,3961023475,0,1273561,4.387e-05,0.0001812,0.001938,7.153e-05,0.000205,0.000185,0,0,0.0001802,0,27.55,0.1221,0,0,1.431e-05
90600000000,90900000000,3961023475,0,1273561,4.482e-05,0.0001812,0.001938,7.153e-05,0.000205,0.000185,0,0,0.0002975,7.153e-05,26.72,0.1195,0,0,0.0001545
101100000000,101400000000,3961023475,0,1273561,3.624e-05,0.0001812,0.001938,7.153e-05,0.000205,0.000185,0,0,0.0004272,0,26.55,0.118,0,0,1.717e-05
101400000000,101700000000,3961023475,0,1273561,3.719e-05,0.0001812,0.001938,7.153e-05,0.000205,0.000185,0,0,0.0003691,7.153e-05,25.92,0.1154,0,0,9.727e-05
101700000000,102000000000,3961023475,0,1273561,3.719e-05,0.0001812,0.001938,7.153e-05,0.000205,0.000185,0,0,0.0003157,0,26.56,0.1192,0,0,2.766e-05
102000000000,102300000000,3961023475,0,1273561,3.624e-05,0.0001841,0.001938,7.153e-05,0.000205,0.000186,9.537e-07,0,0.0003538,7.153e-05,25.29,0.1139,0,0,2.956e-05
102300000000,102600000000,3961023475,0,1273561,3.624e-05,0.0001812,0.001938,7.153e-05,0.000205,0.000185,0,0,0.0004301,0,26.45,0.1177,0,0,2.956e-05
102600000000,102900000000,3961023475,0,1273561,3.624e-05,0.0001812,0.001938,7.153e-05,0.000205,0.000185,0,0,0.0002556,7.153e-05,25.1,0.1148,0,0,2.289e-05
102900000000,103200000000,3961023475,0,1273561,3.624e-05,0.0001812,0.001938,7.153e-05,0.000205,0.000185,0,0,0.0003939,0,25.89,0.1178,0,0,1.24e-05
103200000000,103500000000,3961023475,0,1273561,3.529e-05,0.0001812,0.001938,7.153e-05,0.000205,0.000185,0,0,0.0004883,7.153e-05,25.54,0.1159,0,0,1.812e-05
103500000000,103800000000,3961023475,0,1273561,3.624e-05,0.0001822,0.001938,7.153e-05,0.000205,0.000185,0,0,0.0002365,0,26.2,0.1187,0,0,2.67e-05
103800000000,104100000000,3961023475,0,1273561,3.624e-05,0.0001831,0.001938,7.153e-05,0.000205,0.000185,0,0,0.0003681,7.153e-05,26.1,0.1152,0,0,3.052e-05
104100000000,104400000000,3961023475,0,1273561,3.624e-05,0.0001812,0.001938,7.153e-05,0.000205,0.000185,0,0,0.0006599,0,25.9,0.1171,0,0,1.431e-05
104400000000,104700000000,3961023475,0,1273561,3.624e-05,0.0001812,0.001938,7.248e-05,0.000205,0.000186,0,0,0.0007057,7.153e-05,25.82,0.1164,0,0,0.0001068
104700000000,105000000000,3961023475,0,1273561,3.529e-05,0.0001822,0.001938,7.248e-05,0.000205,0.000186,0,0,0.0006819,0,26.26,0.1234,0,0,1.526e-05
105000000000,105300000000,3961023475,0,1273561,3.529e-05,0.0001812,0.001938,7.248e-05,0.000205,0.000185,0,0,0.0009727,7.153e-05,26.28,0.1221,0,0,8.869e-05
105300000000,105600000000,3961023475,0,1273561,3.529e-05,0.0001812,0.001938,7.248e-05,0.000205,0.000185,0,0,0.0005188,0,26.06,0.1206,0,0,3.338e-05
105600000000,105900000000,3961023475,0,1273561,3.433e-05,0.0001812,0.001938,7.248e-05,0.000205,0.000185,0,0,0.0008078,7.153e-05,25.74,0.1214,0,0,2.861e-06
105900000000,106200000000,3961023475,0,1273561,3.433e-05,0.0001812,0.001938,7.248e-05,0.000205,0.000185,0,0,0.0008717,0,24.22,0.1157,0,0,6.866e-05
106200000000,106500000000,3961023475,0,1273561,3.433e-05,0.0001812,0.001938,7.248e-05,0.000205,0.000185,0,0,0.000596,7.153e-05,24.53,0.1143,0,0,4.005e-05
106500000000,106800000000,3961023475,0,1273561,3.719e-05,0.0001812,0.001938,7.248e-05,0.000205,0.000185,0,0,0.0007429,0,25.92,0.1167,0,0,9.537e-06
106800000000,107100000000,3961023475,0,1273561,3.624e-05,0.0001812,0.001938,7.248e-05,0.000205,0.000185,0,0,0.0005541,7.153e-05,25.66,0.1142,0,0,1.621e-05
107100000000,107400000000,3961023475,0,1273561,3.624e-05,0.0001812,0.001938,7.248e-05,0.000205,0.000185,0,0,0.0004597,0,25.8,0.1164,0,0,6.676e-06
107400000000,107700000000,3961023475,0,1273561,3.624e-05,0.0001812,0.001938,7.248e-05,0.000205,0.000185,0,0,0.0006332,7.153e-05,25.24,0.1147,0,0,8.583e-06
107700000000,108000000000,3961023475,0,1273561,3.529e-05,0.0001812,0.001938,7.248e-05,0.000205,0.000185,0,0,0.0005417,0,26.68,0.1185,0,0,8.678e-05
108000000000,108300000000,3961023475,0,1273561,3.529e-05,0.0001812,0.001938,7.248e-05,0.000206,0.000185,0,0,0.0008869,7.153e-05,26.9,0.123,0,0,6.39e-05
108300000000,108600000000,3961023475,0,1273561,3.433e-05,0.0001812,0.001938,7.248e-05,0.000206,0.000185,0,0,0.00106,0,26.08,0.1218,0,0,6.39e-05
108600000000,108900000000,3961023475,0,1273561,3.433e-05,0.0001812,0.001938,7.248e-05,0.000206,0.000185,0,0,0.000351,7.153e-05,26.23,0.1217,0,0,6.771e-05
108900000000,109200000000,3961023475,0,1273561,3.433e-05,0.0001812,0.001938,7.248e-05,0.000206,0.000185,0,0,0.0002737,0,25.25,0.1209,0,0,0.0002432
109200000000,109500000000,3961023475,0,1273561,3.433e-05,0.000185,0.001938,7.248e-05,0.000206,0.0001888,9.537e-07,0,0.0002899,0.0001431,25.71,0.1205,0,0,9.537e-06
109500000000,109800000000,3961023475,0,1273561,3.529e-05,0.0001822,0.001938,7.248e-05,0.000206,0.0001869,0,0,0.0002823,0,26.94,0.1217,0,0,5.054e-05
109800000000,110100000000,3961023475,0,1273561,3.433e-05,0.0001812,0.001938,7.248e-05,0.000206,0.000185,0,0,0.001102,7.153e-05,26.69,0.123,0,0,4.959e-05
110100000000,110400000000,3961023475,0,1273561,3.338e-05,0.0001812,0.001938,7.248e-05,0.000206,0.000185,0,0,0.0002193,0,26.38,0.122,0,0,2.289e-05
110400000000,110700000000,3961023475,0,1273561,3.338e-05,0.0001812,0.001938,7.248e-05,0.000206,0.000185,0,0,0.0007181,7.153e-05,25.25,0.1196,0,0,4.005e-05
110700000000,111000000000,3961023475,0,1273561,3.338e-05,0.0001812,0.001938,7.248e-05,0.000206,0.000185,0,0,0.0007725,0,27.14,0.1219,0,0,4.768e-06
116100000000,116400000000,3961023475,0,1273561,3.433e-05,0.0001812,0.001938,7.248e-05,0.000206,0.000185,0,0,0.0004282,0,26.04,0.1216,0,0,8.774e-05
116400000000,116700000000,3961023475,0,1273561,3.338e-05,0.0001841,0.001938,7.248e-05,0.000206,0.000186,9.537e-07,0,0.0004568,0.0001431,25.25,0.1212,0,0,3.624e-05
116700000000,117000000000,3961023475,0,1273561,3.242e-05,0.0001812,0.001938,7.248e-05,0.000206,0.000185,0,0,0.0003653,0,25.37,0.12,0,0,5.436e-05
117000000000,117300000000,3961023475,0,1273561,3.338e-05,0.0001812,0.001938,7.248e-05,0.000206,0.000185,0,0,0.0002193,7.153e-05,25.47,0.1198,0,0,8.583e-06
117300000000,117600000000,3961023475,0,1273561,3.242e-05,0.0001812,0.001938,7.248e-05,0.000206,0.000185,0,0,0.0001831,0,25.7,0.1189,0,0,2.861e-05
117600000000,117900000000,3961023475,0,1273561,3.433e-05,0.0001822,0.001938,7.248e-05,0.000206,0.000185,0,0,0.0008135,7.153e-05,26.12,0.1152,0,0,0
117900000000,118200000000,3961023475,0,1273561,3.433e-05,0.0001812,0.001938,7.248e-05,0.000206,0.000185,0,0,0.0005064,0,24.04,0.1137,0,0,4.673e-05
118200000000,118500000000,3961023475,0,1273561,3.338e-05,0.0001822,0.001938,7.248e-05,0.000206,0.000185,0,0,0.0005817,7.153e-05,25.7,0.1173,0,0,6.676e-06
118500000000,118800000000,3961023475,0,1273561,3.529e-05,0.0001822,0.001938,7.248e-05,0.000206,0.000185,0,0,0.00107,7.153e-05,26.66,0.1209,0,0,3.242e-05
118800000000,119100000000,3961023475,0,1273561,3.529e-05,0.0001822,0.001938,7.248e-05,0.000206,0.000185,0,0,0.001102,7.153e-05,26.64,0.1221,0,0,3.91e-05
119100000000,119400000000,3961023475,0,1273561,3.433e-05,0.0001812,0.001938,7.248e-05,0.000206,0.000185,0,0,0.001122,0,26.14,0.1217,0,0,4.768e-06
119400000000,119700000000,3961023475,0,1273561,3.624e-05,0.0001812,0.001938,7.248e-05,0.000206,0.000185,0,0,0.0006618,7.153e-05,27.23,0.123,0,0,6.676e-05
119700000000,120000000000,3961023475,0,1273561,3.433e-05,0.0001812,0.001938,7.248e-05,0.000206,0.000185,0,0,0.0003109,0,26.47,0.1214,0,0,2.575e-05
120000000000,120300000000,3961023475,0,1273561,3.433e-05,0.0001822,0.001938,7.248e-05,0.000206,0.0001888,0,0,0.0005159,7.153e-05,26.38,0.1232,0,0,3.242e-05
120300000000,120600000000,3961023475,0,1273561,3.242e-05,0.0001822,0.001938,7.248e-05,0.000206,0.0001898,0,0,0.0002499,0,24.9,0.1206,0,0,4.768e-06
120600000000,120900000000,3961023475,0,1273561,3.433e-05,0.0001812,0.001938,7.248e-05,0.000206,0.000185,0,0,0.0004454,7.153e-05,25.87,0.1198,0,0,5.722e-06
126000000000,126300000000,3961023475,0,1273561,3.242e-05,0.0001812,0.001938,7.343e-05,0.0002069,0.000185,0,0,0.0005951,7.153e-05,24.86,0.1199,0,0,2.289e-05
126300000000,126600000000,3961023475,0,1273561,3.242e-05,0.0001812,0.001938,7.343e-05,0.0002069,0.000185,0,0,0.0002317,0,26.06,0.1198,0,0,6.676e-05
126600000000,126900000000,3961023475,0,1273561,3.338e-05,0.0001812,0.001938,7.343e-05,0.0002069,0.000185,0,0,0.0003366,7.153e-05,25.28,0.1189,0,0,3.815e-06
126900000000,127200000000,3961023475,0,1273561,3.338e-05,0.0001812,0.001938,7.343e-05,0.0002069,0.000185,0,0,0.0002012,0,25.7,0.1215,0,0,1.907e-06
127200000000,127500000000,3961023475,0,1273561,3.338e-05,0.0001812,0.001938,7.343e-05,0.0002069,0.000185,0,0,0.0006342,7.153e-05,25.34,0.1188,0,0,2.956e-05
127500000000,127800000000,3961023475,0,1273561,3.433e-05,0.0001812,0.001938,7.343e-05,0.0002069,0.000185,0,0,0.0006609,0,25.79,0.1209,0,0,3.624e-05
127800000000,128100000000,3961023475,0,1273561,3.338e-05,0.0001822,0.001938,7.343e-05,0.0002069,0.000185,0,0,0.0007257,7.153e-05,26.52,0.12,0,0,0
128100000000,128400000000,3961023475,0,1273561,3.433e-05,0.0001812,0.001938,7.343e-05,0.0002069,0.000185,0,0,0.0006227,0,25.69,0.1207,0,0,3.433e-05
128400000000,128700000000,3961023475,0,1273561,3.338e-05,0.0001822,0.001938,7.343e-05,0.0002069,0.000185,0,0,0.0004797,7.153e-05,24.43,0.1196,0,0,1.049e-05
128700000000,129000000000,3961023475,0,1273561,3.529e-05,0.0001812,0.001938,7.343e-05,0.0002069,0.000185,0,0,0.0008163,0,26.32,0.1212,0,0,2.67e-05
129000000000,129300000000,3961023475,0,1273561,3.338e-05,0.0001812,0.001938,7.343e-05,0.0002069,0.000185,0,0,0.0006733,7.153e-05,25.92,0.1206,0,0,4.768e-06
129300000000,129600000000,3961023475,0,1273561,3.338e-05,0.0001812,0.001938,7.343e-05,0.0002069,0.000185,0,0,0.0008183,0,25.6,0.1204,0,0,6.199e-05
129600000000,129900000000,3961023475,0,1273561,3.338e-05,0.0001831,0.001938,7.343e-05,0.0002069,0.000185,0,0,0.0006533,7.153e-05,24.75,0.1164,0,0,4.768e-06
129900000000,130200000000,3961023475,0,1273561,3.433e-05,0.0001812,0.001938,7.343e-05,0.0002069,0.000185,0,0,0.001093,0,24.96,0.1196,0,0,2.193e-05
130200000000,130500000000,3961023475,0,1273561,3.529e-05,0.0001812,0.001938,7.343e-05,0.0002069,0.000185,0,0,0.001034,7.153e-05,25.37,0.1219,0,0,2.861e-05
130500000000,130800000000,3961023475,0,1273561,3.529e-05,0.0001822,0.001938,7.343e-05,0.0002069,0.000185,0,0,0.0009537,0,25.36,0.1201,0,0,7.629e-06
130800000000,131100000000,3961023475,0,1273561,3.529e-05,0.000185,0.001938,7.343e-05,0.0002069,0.0001898,9.537e-07,0,0.0008249,7.153e-05,25.64,0.1204,0,0,2.193e-05
141000000000,141300000000,3961023475,0,1273561,3.624e-05,0.0001831,0.001938,7.153e-05,0.0002069,0.000186,0,0,0.0006447,7.153e-05,27.56,0.1197,0,0,3.719e-05
141300000000,141600000000,3961023475,0,1273561,3.624e-05,0.0001831,0.001938,7.153e-05,0.0002069,0.000186,0,0,0.0007381,0,27.25,0.1207,0,0,2.575e-05
141600000000,141900000000,3961023475,0,1273561,3.719e-05,0.0001841,0.001938,7.153e-05,0.0002069,0.0001898,0,0,0.0008707,7.153e-05,26.86,0.1199,0,0,1.24e-05
141900000000,142200000000,3961023475,0,1273561,3.719e-05,0.0001822,0.001938,7.153e-05,0.0002069,0.0001869,0,0,0.0006809,0,27.11,0.1204,0,0,5.722e-06
142200000000,142500000000,3961023475,0,1273561,3.624e-05,0.0001831,0.001938,7.153e-05,0.0002069,0.000186,0,0,0.0007915,7.153e-05,27.61,0.1217,0,0,1.526e-05
142500000000,142800000000,3961023475,0,1273561,3.624e-05,0.0001822,0.001938,7.153e-05,0.0002069,0.000186,0,0,0.0005713,0,27.59,0.1208,0,0,8.678e-05
142800000000,143100000000,3961023475,0,1273561,3.719e-05,0.0001831,0.001938,7.153e-05,0.0002069,0.0001869,0,0,0.0006943,7.153e-05,27.33,0.1198,0,0,4.005e-05
143100000000,143400000000,3961023475,0,1273561,3.719e-05,0.0001822,0.001938,7.153e-05,0.0002069,0.000186,0,0,0.0004416,0,27.43,0.1217,0,0,5.722e-06
143400000000,143700000000,3961023475,0,1273561,3.529e-05,0.0001831,0.001938,7.153e-05,0.0002069,0.000186,0,0,0.0003023,7.153e-05,27.2,0.1204,0,0,1.907e-06
143700000000,144000000000,3961023475,0,1273561,3.624e-05,0.0001822,0.001938,7.153e-05,0.0002069,0.000186,0,0,0.0005903,0,26.42,0.1173,0,0,1.907e-06
144000000000,144300000000,3961023475,0,1273561,3.624e-05,0.0001831,0.001938,7.153e-05,0.0002069,0.000186,0,0,0.000536,7.153e-05,27.17,0.1215,0,0,1.812e-05
144300000000,144600000000,3961023475,0,1273561,3.624e-05,0.0001822,0.001938,7.153e-05,0.0002069,0.000186,0,0,0.0007782,0,27.68,0.1204,0,0,3.624e-05
144600000000,144900000000,3961023475,0,1273561,3.719e-05,0.0001831,0.001938,7.153e-05,0.0002069,0.000186,0,0,0.000783,7.153e-05,26.99,0.1209,0,0,5.722e-06
144900000000,145200000000,3961023475,0,1273561,3.624e-05,0.0001822,0.001938,7.153e-05,0.0002069,0.000186,0,0,0.0007343,0,26.98,0.1201,0,0,2.384e-05
145200000000,145500000000,3961023475,0,1273561,3.719e-05,0.000185,0.001938,7.153e-05,0.0002069,0.0001898,9.537e-07,0,0.0006218,7.153e-05,27.1,0.1199,0,0,2.861e-05
145500000000,145800000000,3961023475,0,1273561,3.624e-05,0.0001822,0.001938,7.153e-05,0.0002069,0.000186,0,0,0.0005913,0,27.57,0.1201,0,0,2.575e-05
145800000000,146100000000,3961023475,0,1273561,3.719e-05,0.0001831,0.001938,7.153e-05,0.0002069,0.000186,1.907e-06,0,0.001043,0.0005713,27.1,0.1201,0,0,3.719e-05
151200000000,151500000000,3961023475,0,1273561,3.719e-05,0.0001841,0.001938,7.248e-05,0.0002079,0.000186,0,0,0.0008993,7.153e-05,27.36,0.1215,0,0,1.431e-05
151500000000,151800000000,3961023475,0,1273561,3.719e-05,0.0001822,0.001938,7.248e-05,0.0002079,0.000186,0,0,0.000411,0,28.17,0.1211,0,0,6.676e-06
151800000000,152100000000,3961023475,0,1273561,3.719e-05,0.0001831,0.001938,7.248e-05,0.0002079,0.0001869,0,0,0.0001631,7.153e-05,27.55,0.1229,0,0,6.008e-05
152100000000,152400000000,3961023475,0,1273561,3.624e-05,0.0001831,0.001938,7.248e-05,0.0002079,0.000186,0,0,0.0002041,0,27.69,0.1209,0,0,7.629e-05
152400000000,152700000000,3961023475,0,1273561,3.624e-05,0.000186,0.001938,7.248e-05,0.0002079,0.0001907,9.537e-07,0,0.0002174,7.153e-05,26.81,0.1205,0,0,8.488e-05
152700000000,153000000000,3961023475,0,1273561,3.719e-05,0.0001822,0.001938,7.248e-05,0.0002079,0.0001869,0,0,0.0004702,0,27.34,0.1195,0,0,0.0001917
153000000000,153300000000,3961023475,0,1273561,3.529e-05,0.0001831,0.001938,7.248e-05,0.0002079,0.000186,0,0,0.0001898,7.153e-05,28.07,0.122,0,0,1.526e-05
153300000000,153600000000,3961023475,0,1273561,3.719e-05,0.0001822,0.001938,7.248e-05,0.0002079,0.000186,0,0,0.0002451,0,27.81,0.1221,0,0,2.67e-05
153600000000,153900000000,3961023475,0,1273561,3.624e-05,0.0001831,0.001938,7.248e-05,0.0002079,0.000186,0,0,0.000288,7.153e-05,26.96,0.1212,0,0,2.48e-05
153900000000,154200000000,3961023475,0,1273561,3.719e-05,0.0001822,0.001938,7.248e-05,0.0002079,0.000186,0,0,0.0004063,0,26.79,0.1196,0,0,3.624e-05
154200000000,154500000000,3961023475,0,1273561,3.624e-05,0.0001831,0.001938,7.248e-05,0.0002079,0.0001869,0,0,0.0004501,7.153e-05,26.16,0.1168,0,0,4.959e-05
154500000000,154800000000,3961023475,0,1273561,3.529e-05,0.0001822,0.001938,7.248e-05,0.0002079,0.000186,0,0,0.0001383,0,26.07,0.1183,0,0,1.049e-05
154800000000,155100000000,3961023475,0,1273561,3.624e-05,0.0001831,0.001938,7.248e-05,0.0002079,0.0001869,0,0,0.0004139,7.153e-05,27.6,0.1208,0,0,7.629e-06
155100000000,155400000000,3961023475,0,1273561,3.624e-05,0.0001841,0.001938,7.248e-05,0.0002079,0.0001879,0,0,0.0001602,7.153e-05,27.66,0.1212,0,0,3.719e-05
155400000000,155700000000,3961023475,0,1273561,3.624e-05,0.0001831,0.001938,7.248e-05,0.0002079,0.000186,0,0,0.0005102,7.153e-05,28.48,0.1217,0,0,2.956e-05
155700000000,156000000000,3961023475,0,1273561,3.624e-05,0.0001822,0.001938,7.248e-05,0.0002079,0.000186,0,0,0.00304,0,27.8,0.1217,0,0,0.0001154
161100000000,161400000000,3961023475,0,1273561,3.624e-05,0.0001822,0.001938,7.248e-05,0.0002079,0.000186,0,0,0.0004635,0,27.52,0.121,0,0,4.959e-05
161400000000,161700000000,3961023475,0,1273561,3.719e-05,0.0001831,0.001938,7.248e-05,0.0002079,0.0001869,0,0,0.000452,7.153e-05,26.48,0.1196,0,0,6.676e-06
161700000000,162000000000,3961023475,0,1273561,3.719e-05,0.0001822,0.001938,7.248e-05,0.0002079,0.0001869,0,0,0.0004845,0,28.16,0.1219,0,0,2.67e-05
162000000000,162300000000,3961023475,0,1273561,3.719e-05,0.0001831,0.001938,7.248e-05,0.0002079,0.000186,0,0,0.000535,7.153e-05,27.67,0.1218,0,0,2.575e-05
162300000000,162600000000,3961023475,0,1273561,3.624e-05,0.0001822,0.001938,7.248e-05,0.0002079,0.000186,0,0,0.0004377,0,27.29,0.1202,0,0,3.529e-05
162600000000,162900000000,3961023475,0,1273561,3.624e-05,0.0001831,0.001938,7.248e-05,0.0002079,0.0001869,0,0,0.0003853,7.153e-05,26.87,0.1196,0,0,7.725e-05
162900000000,163200000000,3961023475,0,1273561,3.624e-05,0.000185,0.001938,7.248e-05,0.0002079,0.0001888,0,0,0.0004578,7.153e-05,26.72,0.1203,0,0,4.101e-05
163200000000,163500000000,3961023475,0,1273561,3.624e-05,0.0001841,0.001938,7.248e-05,0.0002079,0.000186,0,0,0.0002909,7.153e-05,27.15,0.1212,0,0,4.578e-05
163500000000,163800000000,3961023475,0,1273561,3.624e-05,0.0001822,0.001938,7.248e-05,0.0002079,0.000186,0,0,0.000289,0,27.13,0.1191,0,0,4.292e-05
163800000000,164100000000,3961023475,0,1273561,3.719e-05,0.0001831,0.001938,7.248e-05,0.0002079,0.0001869,0,0,0.0004816,7.153e-05,27.94,0.1203,0,0,1.907e-06
164100000000,164400000000,3961023475,0,1273561,3.719e-05,0.0001822,0.001938,7.248e-05,0.0002079,0.0001869,0,0,0.0004311,0,26.81,0.1214,0,0,0.0002079
164400000000,164700000000,3961023475,0,1273561,3.624e-05,0.0001831,0.001938,7.248e-05,0.0002079,0.0001869,0,0,0.0005245,7.153e-05,27.56,0.1207,0,0,1.717e-05
164700000000,165000000000,3961023475,0,1273561,3.719e-05,0.0001822,0.001938,7.248e-05,0.0002079,0.0001869,0,0,0.0003328,0,27.45,0.1218,0,0,8.965e-05
165000000000,165300000000,3961023475,0,1273561,3.719e-05,0.0001831,0.001938,7.248e-05,0.0002079,0.000186,0,0,0.0003738,7.153e-05,27.23,0.1212,0,0,4.768e-05
165300000000,165600000000,3961023475,0,1273561,3.719e-05,0.0001822,0.001938,7.248e-05,0.0002079,0.000186,0,0,0.0003643,0,27.1,0.1216,0,0,3.815e-06
165600000000,165900000000,3961023475,0,1273561,3.815e-05,0.0001831,0.001938,7.248e-05,0.0002089,0.0001869,0,0,0.0006075,7.153e-05,27.72,0.1212,0,0,1.431e-05
165900000000,166200000000,3961023475,0,1273561,3.719e-05,0.0001822,0.001938,7.248e-05,0.0002089,0.000186,0,0,0.0004358,0,27.26,0.1209,0,0,2.384e-05
166200000000,166500000000,3961023475,0,1273561,3.815e-05,0.0001831,0.001938,7.248e-05,0.0002089,0.000186,0,0,0.0005684,7.153e-05,27.76,0.1199,0,0,2.098e-05
166500000000,166800000000,3961023475,0,1273561,3.815e-05,0.0001822,0.001938,7.248e-05,0.0002089,0.000186,0,0,0.0001917,0,27.54,0.1204,0,0,9.537e-06
166800000000,167100000000,3961023475,0,1273561,3.719e-05,0.0001841,0.001938,7.248e-05,0.0002089,0.0001907,0,0,0.0003099,7.153e-05,27.2,0.1197,0,0,1.717e-05
167100000000,167400000000,3961023475,0,1273561,3.719e-05,0.0001831,0.001938,7.248e-05,0.0002089,0.0001898,0,0,0.0009336,0,27.63,0.1216,0,0,2.289e-05
167400000000,167700000000,3961023475,0,1273561,3.624e-05,0.0001831,0.001938,7.248e-05,0.0002089,0.000186,0,0,0.0003824,7.153e-05,27.74,0.1209,0,0,6.676e-06
167700000000,168000000000,3961023475,0,1273561,3.624e-05,0.0001822,0.001938,7.248e-05,0.0002089,0.000186,0,0,0.0005207,0,28.01,0.1221,0,0,1.907e-05
168000000000,168300000000,3961023475,0,1273561,3.624e-05,0.0001831,0.001938,7.343e-05,0.0002089,0.0001879,0,0,0.000391,7.153e-05,26.73,0.118,0,0,1.24e-05
168300000000,168600000000,3961023475,0,1273561,3.529e-05,0.0001831,0.001938,7.343e-05,0.0002089,0.0001898,0,0,0.0001707,0,25.79,0.113,0,0,9.537e-07
168600000000,168900000000,3961023475,0,1273561,3.624e-05,0.0001831,0.001938,7.343e-05,0.0002089,0.0001869,0,0,0.0003233,7.153e-05,26.61,0.1169,0,0,2.003e-05
168900000000,169200000000,3961023475,0,1273561,3.624e-05,0.0001822,0.001938,7.343e-05,0.0002089,0.000186,0,0,0.0005236,0,25.77,0.1133,0,0,4.768e-06
169200000000,169500000000,3961023475,0,1273561,3.624e-05,0.0001831,0.001938,7.343e-05,0.0002089,0.0001869,0,0,0.0004835,7.153e-05,26.97,0.1174,0,0,7.439e-05
169500000000,169800000000,3961023475,0,1273561,3.624e-05,0.0001822,0.001938,7.343e-05,0.0002089,0.000186,0,0,0.0002241,0,25.91,0.1132,0,0,1.907e-06
169800000000,170100000000,3961023475,0,1273561,3.719e-05,0.0001831,0.001938,7.343e-05,0.0002089,0.0001869,0,0,0.0003624,7.153e-05,26.23,0.1159,0,0,7.629e-06
170100000000,170400000000,3961023475,0,1273561,3.624e-05,0.0001822,0.001938,7.343e-05,0.0002089,0.0001869,0,0,0.0002117,0,26.26,0.1145,0,0,1.144e-05
170400000000,170700000000,3961023475,0,1273561,3.815e-05,0.0001831,0.001938,7.343e-05,0.0002089,0.0001869,0,0,0.0003777,7.153e-05,26.73,0.1159,0,0,2.67e-05
170700000000,171000000000,3961023475,0,1273561,3.719e-05,0.0001822,0.001938,7.343e-05,0.0002089,0.000186,0,0,0.0005312,0,25.96,0.1145,0,0,1.24e-05
171000000000,171300000000,3961023475,0,1273561,3.815e-05,0.0001831,0.001938,7.343e-05,0.0002089,0.000186,0,0,0.0004597,7.153e-05,26.4,0.1174,0,0,4.768e-05
171300000000,171600000000,3961023475,0,1273561,3.719e-05,0.0001822,0.001938,7.343e-05,0.0002089,0.000186,0,0,0.0004473,0,25.99,0.1141,0,0,3.242e-05
171600000000,171900000000,3961023475,0,1273561,3.719e-05,0.0001831,0.001938,7.343e-05,0.0002089,0.000186,0,0,0.000494,7.153e-05,26.48,0.1149,0,0,2.289e-05
171900000000,172200000000,3961023475,0,1273561,3.815e-05,0.0001822,0.001938,7.343e-05,0.0002089,0.000186,0,0,0.0001612,0,25.57,0.1136,0,0,9.155e-05
172200000000,172500000000,3961023475,0,1273561,3.815e-05,0.0001831,0.001938,7.343e-05,0.0002089,0.000186,0,0,0.0005064,7.153e-05,26.97,0.1161,0,0,4.864e-05
172500000000,172800000000,3961023475,0,1273561,3.815e-05,0.0001822,0.001938,7.343e-05,0.0002089,0.000186,0,0,0.0001726,0,25.9,0.1148,0,0,1.335e-05
172800000000,173100000000,3961023475,0,1273561,3.815e-05,0.0001831,0.001938,7.343e-05,0.0002089,0.0001869,0,0,0.0001316,7.153e-05,26.43,0.1156,0,0,4.578e-05
173100000000,173400000000,3961023475,0,1273561,3.719e-05,0.0001822,0.001938,7.343e-05,0.0002089,0.000186,0,0,0.0002623,0,26.12,0.1133,0,0,6.676e-06
173400000000,173700000000,3961023475,0,1273561,3.719e-05,0.0001831,0.001938,7.343e-05,0.0002089,0.0001888,0,0,0.000247,7.153e-05,26.55,0.1155,0,0,1.907e-06
173700000000,174000000000,3961023475,0,1273561,3.624e-05,0.0001831,0.001938,7.343e-05,0.0002089,0.0001888,0,0,0.0004654,0,26.16,0.1144,0,0,0.0001106
174000000000,174300000000,3961023475,0,1273561,3.719e-05,0.000185,0.001938,7.343e-05,0.0002089,0.0001907,9.537e-07,0,0.0003138,7.153e-05,26.14,0.1153,0,0,0.000103
174300000000,174600000000,3961023475,0,1273561,3.719e-05,0.0001831,0.001938,7.343e-05,0.0002089,0.0001907,0,0,0.0003004,0,26.04,0.1143,0,0,3.815e-05
174600000000,174900000000,3961023475,0,1273561,3.719e-05,0.0001831,0.001938,7.343e-05,0.0002089,0.0001869,0,0,0.0003319,7.153e-05,26.98,0.1199,0,0,2.861e-05
174900000000,175200000000,3961023475,0,1273561,3.624e-05,0.0001822,0.001938,7.343e-05,0.0002089,0.000186,0,0,0.0002813,0,27.75,0.1217,0,0,5.722e-05
175200000000,175500000000,3961023475,0,1273561,3.719e-05,0.0001831,0.001938,7.343e-05,0.0002089,0.0001869,0,0,0.0002632,7.153e-05,28.56,0.1227,0,0,4.673e-05
175500000000,175800000000,3961023475,0,1273561,3.719e-05,0.0001822,0.001938,7.343e-05,0.0002089,0.0001869,0,0,0.0002337,0,27.69,0.1222,0,0,2.098e-05
175800000000,176100000000,3961023475,0,1273561,3.815e-05,0.0001831,0.001938,7.343e-05,0.0002089,0.0001869,0,0,0.0004301,7.153e-05,28.25,0.1216,0,0,4.292e-05
186300000000,186600000000,3961023475,0,1273561,3.719e-05,0.0001831,0.001938,7.343e-05,0.0002098,0.000186,0,0,0.0004034,0,26.3,0.1146,0,0,2.575e-05
186600000000,186900000000,3961023475,0,1273561,3.624e-05,0.0001831,0.001938,7.343e-05,0.0002098,0.0001869,0,0,0.001719,7.153e-05,25.5,0.1132,0,0,4.482e-05
186900000000,187200000000,3961023475,0,1273561,3.624e-05,0.0001822,0.001938,7.439e-05,0.0002098,0.0001869,0,0,0.0005121,0,25.77,0.1152,0,0,3.147e-05
187200000000,187500000000,3961023475,0,1273561,3.624e-05,0.0001831,0.001938,7.439e-05,0.0002098,0.0001869,0,0,0.0004721,7.153e-05,25.45,0.112,0,0,6.676e-06
187500000000,187800000000,3961023475,0,1273561,3.529e-05,0.0001831,0.001938,7.439e-05,0.0002098,0.0001869,0,0,0.0001736,7.153e-05,26.29,0.115,0,0,1.621e-05
187800000000,188100000000,3961023475,0,1273561,3.624e-05,0.0001841,0.001938,7.439e-05,0.0002098,0.0001869,0,0,0.0005808,7.153e-05,25.6,0.1123,0,0,2.003e-05
188100000000,188400000000,3961023475,0,1273561,3.719e-05,0.0001822,0.001938,7.439e-05,0.0002098,0.0001869,0,0,0.0005293,0,27.64,0.1208,0,0,6.008e-05
188400000000,188700000000,3961023475,0,1273561,3.624e-05,0.0001831,0.001938,7.439e-05,0.0002098,0.0001898,9.537e-07,0,0.0002794,7.153e-05,27.24,0.1206,0,0,1.621e-05
188700000000,189000000000,3961023475,0,1273561,3.624e-05,0.0001841,0.001938,7.439e-05,0.0002098,0.0001907,0,0,0.0002117,0,26.74,0.1197,0,0,5.627e-05
189000000000,189300000000,3961023475,0,1273561,3.624e-05,0.0001831,0.001938,7.439e-05,0.0002098,0.0001869,0,0,0.0002546,7.153e-05,27.01,0.1203,0,0,4.005e-05
189300000000,189600000000,3961023475,0,1273561,3.529e-05,0.0001831,0.001938,7.439e-05,0.0002098,0.0001869,0,0,0.0001965,0,26.87,0.1203,0,0,0
189600000000,189900000000,3961023475,0,1273561,3.624e-05,0.0001841,0.001938,7.439e-05,0.0002098,0.0001898,0,0,0.0005903,7.153e-05,27.36,0.1203,0,0,1.621e-05
189900000000,190200000000,3961023475,0,1273561,3.624e-05,0.0001822,0.001938,7.439e-05,0.0002098,0.000186,0,0,0.0004845,0,26.01,0.1178,0,0,1.907e-05
190200000000,190500000000,3961023475,0,1273561,3.529e-05,0.0001831,0.001938,7.439e-05,0.0002098,0.0001869,0,0,0.0002823,7.153e-05,26.73,0.1198,0,0,2.861e-05
190500000000,190800000000,3961023475,0,1273561,3.624e-05,0.0001822,0.001938,7.439e-05,0.0002098,0.000186,0,0,0.0002213,0,26.81,0.1202,0,0,6.676e-06
190800000000,191100000000,3961023475,0,1273561,3.624e-05,0.0001831,0.001938,7.439e-05,0.0002098,0.000186,0,0,0.0004435,7.153e-05,27.23,0.1209,0,0,7.629e-06
191100000000,191400000000,3961023475,0,1273561,3.529e-05,0.0001822,0.001938,7.439e-05,0.0002098,0.000186,0,0,0.0002518,0,26.41,0.1195,0,0,7.82e-05
191400000000,191700000000,3961023475,0,1273561,3.624e-05,0.0001831,0.001938,7.439e-05,0.0002098,0.0001869,0,0,0.0002289,7.153e-05,26.17,0.12,0,0,2.384e-05
191700000000,192000000000,3961023475,0,1273561,3.624e-05,0.0001822,0.001938,7.439e-05,0.0002098,0.0001869,0,0,0.0002165,0,26.9,0.1206,0,0,5.722e-06
192000000000,192300000000,3961023475,0,1273561,3.624e-05,0.0001831,0.001938,7.439e-05,0.0002098,0.0001888,9.537e-07,0,0.000392,7.153e-05,26.87,0.1201,0,0,2.193e-05
192300000000,192600000000,3961023475,0,1273561,3.624e-05,0.0001831,0.001938,7.439e-05,0.0002098,0.0001888,0,0,0.0002689,0,25.74,0.1181,0,0,5.722e-06
192600000000,192900000000,3961023475,0,1273561,3.624e-05,0.0001831,0.001938,7.439e-05,0.0002098,0.0001869,0,0,0.0003099,7.153e-05,26.39,0.1191,0,0,0.0001144
192900000000,193200000000,3961023475,0,1273561,3.529e-05,0.0001822,0.001938,7.439e-05,0.0002098,0.0001869,0,0,0.0006676,0,26.96,0.1224,0,0,1.621e-05
193200000000,193500000000,3961023475,0,1273561,3.624e-05,0.0001831,0.001938,7.439e-05,0.0002098,0.000186,0,0,0.0003176,7.153e-05,26.06,0.1186,0,0,3.052e-05
193500000000,193800000000,3961023475,0,1273561,3.624e-05,0.0001822,0.001938,7.439e-05,0.0002098,0.000186,0,0,0.0003157,0,27,0.1197,0,0,2.766e-05
193800000000,194100000000,3961023475,0,1273561,3.624e-05,0.0001822,0.001938,7.439e-05,0.0002098,0.000186,0,0,0.0002699,7.153e-05,24.32,0.1141,0,0,2.956e-05
194100000000,194400000000,3961023475,0,1273561,3.624e-05,0.0001822,0.001938,7.439e-05,0.0002098,0.000186,0,0,0.0003099,0,25.5,0.1139,0,0,0.0001011
194400000000,194700000000,3961023475,0,1273561,3.624e-05,0.0001831,0.001938,7.439e-05,0.0002098,0.000186,0,0,0.0002232,7.153e-05,24.54,0.1122,0,0,4.101e-05
194700000000,195000000000,3961023475,0,1273561,3.529e-05,0.0001822,0.001938,7.439e-05,0.0002098,0.000186,0,0,0.0002537,0,26.09,0.1139,0,0,5.913e-05
195000000000,195300000000,3961023475,0,1273561,3.624e-05,0.0001831,0.001938,7.439e-05,0.0002098,0.000186,0,0,0.0002899,7.153e-05,25.58,0.1136,0,0,3.624e-05
195300000000,195600000000,3961023475,0,1273561,3.624e-05,0.0001831,0.001938,7.439e-05,0.0002098,0.0001869,0,0,0.0002642,0,26.97,0.1201,0,0,1.335e-05
195600000000,195900000000,3961023475,0,1273561,3.529e-05,0.0001822,0.001938,7.439e-05,0.0002098,0.0001879,0,0,0.0004301,7.153e-05,26.02,0.1194,0,0,2.67e-05
195900000000,196200000000,3961023475,0,1273561,3.433e-05,0.0001841,0.001938,7.439e-05,0.0002098,0.0001898,0,0,0.0002508,7.153e-05,26.99,0.1207,0,0,0.0001554
201300000000,201600000000,3961023475,0,1273561,3.529e-05,0.0001822,0.001938,7.439e-05,0.0002098,0.000186,0,0,0.0001936,0,25.91,0.1189,0,0,2.575e-05
201600000000,201900000000,3961023475,0,1273561,3.529e-05,0.0001831,0.001938,7.439e-05,0.0002098,0.000186,0,0,0.001272,7.153e-05,25.7,0.1187,0,0,0.001272
201900000000,202200000000,3961023475,0,1273561,3.624e-05,0.0001822,0.001938,7.439e-05,0.0002098,0.000186,0,0,0.0003519,0,26.62,0.1202,0,0,2.861e-06
202200000000,202500000000,3961023475,0,1273561,3.529e-05,0.0001831,0.001938,7.439e-05,0.0002098,0.000186,0,0,0.000267,7.153e-05,26.26,0.1194,0,0,1.907e-05
202500000000,202800000000,3961023475,0,1273561,3.433e-05,0.0001822,0.001938,7.439e-05,0.0002098,0.000186,0,0,0.0002537,0,25.76,0.1185,0,0,1.335e-05
202800000000,203100000000,3961023475,0,1273561,3.529e-05,0.0001822,0.001938,7.439e-05,0.0002098,0.000186,0,0,0.0002222,7.153e-05,25.9,0.1176,0,0,1.24e-05
203100000000,203400000000,3961023475,0,1273561,3.529e-05,0.0001841,0.001938,7.439e-05,0.0002098,0.0001869,1.907e-06,0,0.0004673,0.0005713,25.23,0.118,0,0,2.003e-05
203400000000,203700000000,3961023475,0,1273561,3.624e-05,0.0001822,0.001938,7.439e-05,0.0002098,0.000186,0,0,0.0004978,7.153e-05,26.51,0.1202,0,0,2.766e-05
203700000000,204000000000,3961023475,0,1273561,3.624e-05,0.0001822,0.001938,7.439e-05,0.0002098,0.000186,0,0,0.0004244,0,26.33,0.1175,0,0,2.48e-05
204000000000,204300000000,3961023475,0,1273561,3.433e-05,0.0001822,0.001938,7.439e-05,0.0002098,0.000186,0,0,0.000392,7.153e-05,24.93,0.1132,0,0,2.003e-05
204300000000,204600000000,3961023475,0,1273561,3.624e-05,0.0001822,0.001938,7.439e-05,0.0002108,0.000186,0,0,0.0002823,0,24.61,0.1135,0,0,2.766e-05
204600000000,204900000000,3961023475,0,1273561,3.529e-05,0.0001822,0.001938,7.439e-05,0.0002108,0.000186,0,0,0.0002489,7.153e-05,26.01,0.117,0,0,1.335e-05
204900000000,205200000000,3961023475,0,1273561,3.433e-05,0.0001822,0.001938,7.439e-05,0.0002108,0.000186,0,0,0.0002127,0,25.85,0.1181,0,0,2.48e-05
205200000000,205500000000,3961023475,0,1273561,3.529e-05,0.0001831,0.001938,7.439e-05,0.0002108,0.000186,0,0,0.0004549,7.153e-05,25.87,0.1165,0,0,1.144e-05
205500000000,205800000000,3961023475,0,1273561,3.529e-05,0.0001822,0.001938,7.439e-05,0.0002108,0.000186,0,0,0.0003433,0,25.4,0.1175,0,0,1.907e-06
205800000000,206100000000,3961023475,0,1273561,3.624e-05,0.0001841,0.001938,7.439e-05,0.0002108,0.000186,0,0,0.0003147,7.153e-05,26.11,0.1177,0,0,5.817e-05
206100000000,206400000000,3961023475,0,1273561,3.529e-05,0.0001831,0.001938,7.439e-05,0.0002108,0.000186,0,0,0.000432,0,26.11,0.119,0,0,4.101e-05
206400000000,206700000000,3961023475,0,1273561,3.433e-05,0.0001822,0.001938,7.439e-05,0.0002108,0.000186,0,0,0.0004196,7.153e-05,25.46,0.1153,0,0,4.864e-05
206700000000,207000000000,3961023475,0,1273561,3.624e-05,0.0001822,0.001938,7.534e-05,0.0002108,0.000186,0,0,0.0003853,0,25.41,0.1134,0,0,9.537e-06
207000000000,207300000000,3961023475,0,1273561,3.624e-05,0.0001822,0.001938,7.534e-05,0.0002108,0.000186,0,0,0.0002708,7.153e-05,26.7,0.1185,0,0,0.0001717
207300000000,207600000000,3961023475,0,1273561,3.529e-05,0.0001822,0.001938,7.534e-05,0.0002108,0.000186,0,0,0.0003033,0,25.83,0.1172,0,0,2.861e-05
207600000000,207900000000,3961023475,0,1273561,3.529e-05,0.0001822,0.001938,7.534e-05,0.0002108,0.000186,0,0,0.0002661,7.153e-05,26.74,0.1183,0,0,2.384e-05
207900000000,208200000000,3961023475,0,1273561,3.529e-05,0.0001822,0.001938,7.534e-05,0.0002108,0.000186,0,0,0.0002775,0,25.92,0.1181,0,0,3.052e-05
208200000000,208500000000,3961023475,0,1273561,3.433e-05,0.0001831,0.001938,7.534e-05,0.0002108,0.000186,0,0,0.0002117,7.153e-05,25.96,0.1178,0,0,0.0001678
208500000000,208800000000,3961023475,0,1273561,3.529e-05,0.0001822,0.001938,7.534e-05,0.0002108,0.000186,0,0,0.0001917,0,26.11,0.1189,0,0,2.48e-05
208800000000,209100000000,3961023475,0,1273561,3.433e-05,0.0001831,0.001938,7.534e-05,0.0002108,0.000186,0,0,0.0002871,7.153e-05,25.58,0.1184,0,0,2.861e-05
209100000000,209400000000,3961023475,0,1273561,3.433e-05,0.0001822,0.001938,7.534e-05,0.0002108,0.000186,0,0,0.0002308,0,25.79,0.118,0,0,3.815e-06
209400000000,209700000000,3961023475,0,1273561,3.624e-05,0.0001831,0.001938,7.534e-05,0.0002108,0.000186,0,0,0.0002403,7.153e-05,25.66,0.1167,0,0,1.431e-05
209700000000,210000000000,3961023475,0,1273561,3.529e-05,0.0001822,0.001938,7.534e-05,0.0002108,0.000186,0,0,0.0002699,0,25.98,0.1164,0,0,3.529e-05
210000000000,210300000000,3961023475,0,1273561,3.624e-05,0.0001831,0.001938,7.534e-05,0.0002108,0.000186,0,0,0.000349,7.153e-05,26.56,0.12,0,0,7.343e-05
210300000000,210600000000,3961023475,0,1273561,3.529e-05,0.0001841,0.001938,7.534e-05,0.0002108,0.0001869,0,0,0.0003958,7.153e-05,26.45,0.1184,0,0,3.719e-05
210600000000,210900000000,3961023475,0,1273561,3.529e-05,0.0001822,0.001938,7.534e-05,0.0002108,0.000186,0,0,0.0003452,7.153e-05,25.99,0.119,0,0,2.575e-05
210900000000,211200000000,3961023475,0,1273561,3.529e-05,0.0001831,0.001938,7.534e-05,0.0002108,0.0001879,0,0,0.000411,0,26.37,0.1181,0,0,2.861e-06
211200000000,211500000000,3961023475,0,1273561,3.529e-05,0.0001841,0.001938,7.534e-05,0.0002108,0.000186,0,0,0.0001545,7.153e-05,25.3,0.1146,0,0,1.431e-05
211500000000,211800000000,3961023475,0,1273561,3.529e-05,0.0001822,0.001938,7.534e-05,0.0002108,0.000186,0,0,0.0002298,0,23.83,0.1099,0,0,2.384e-05
211800000000,212100000000,3961023475,0,1273561,3.529e-05,0.0001822,0.001938,7.534e-05,0.0002108,0.000186,0,0,0.0003452,7.153e-05,25.68,0.1152,0,0,5.341e-05
212100000000,212400000000,3961023475,0,1273561,3.529e-05,0.0001822,0.001938,7.534e-05,0.0002108,0.000186,0,0,0.000267,0,25.97,0.1176,0,0,3.147e-05
212400000000,212700000000,3961023475,0,1273561,3.529e-05,0.0001831,0.001938,7.534e-05,0.0002108,0.000186,0,0,0.0002613,7.153e-05,26.38,0.1191,0,0,3.719e-05
212700000000,213000000000,3961023475,0,1273561,3.529e-05,0.0001822,0.001938,7.534e-05,0.0002108,0.000186,0,0,0.0002518,0,27.26,0.1186,0,0,1.717e-05
213000000000,213300000000,3961023475,0,1273561,3.624e-05,0.0001831,0.001938,7.534e-05,0.0002108,0.000186,0,0,0.0001516,7.153e-05,26.5,0.1184,0,0,1.335e-05
213300000000,213600000000,3961023475,0,1273561,3.529e-05,0.0001822,0.001938,7.534e-05,0.0002108,0.000186,0,0,0.0001812,0,26.65,0.1209,0,0,1.431e-05
213600000000,213900000000,3961023475,0,1273561,3.433e-05,0.0001822,0.001938,7.534e-05,0.0002108,0.000186,0,0,0.0001822,7.153e-05,24.99,0.1153,0,0,7.248e-05
213900000000,214200000000,3961023475,0,1273561,3.624e-05,0.0001822,0.001938,7.534e-05,0.0002108,0.000186,0,0,0.0003223,0,26.32,0.1188,0,0,4.768e-06
214200000000,214500000000,3961023475,0,1273561,3.529e-05,0.0001822,0.001938,7.534e-05,0.0002108,0.000186,0,0,0.0002556,7.153e-05,26.26,0.1186,0,0,1.431e-05
214500000000,214800000000,3961023475,0,1273561,3.529e-05,0.0001822,0.001938,7.534e-05,0.0002108,0.000186,0,0,0.0003185,0,26.57,0.1194,0,0,2.193e-05
214800000000,215100000000,3961023475,0,1273561,3.624e-05,0.0001822,0.001938,7.534e-05,0.0002108,0.000186,0,0,0.0005035,7.153e-05,26.7,0.1193,0,0,7.915e-05
215100000000,215400000000,3961023475,0,1273561,3.529e-05,0.0001822,0.001938,7.534e-05,0.0002108,0.000186,0,0,0.0002155,0,26.23,0.1186,0,0,1.621e-05
215400000000,215700000000,3961023475,0,1273561,3.529e-05,0.0001822,0.001938,7.534e-05,0.0002108,0.000186,0,0,0.0001678,7.153e-05,25.69,0.1183,0,0,4.578e-05
215700000000,216000000000,3961023475,0,1273561,3.529e-05,0.0001822,0.001938,7.534e-05,0.0002108,0.000186,0,0,0.0001774,0,26.1,0.1185,0,0,1.144e-05
216000000000,216300000000,3961023475,0,1273561,3.719e-05,0.0001831,0.001938,7.534e-05,0.0002108,0.000186,0,0,0.0003462,7.153e-05,26.68,0.1197,0,0,5.722e-06
221100000000,221400000000,3961023475,0,1273561,3.719e-05,0.0001822,0.001938,7.534e-05,0.0002108,0.000186,0,0,0.0002422,0,27.19,0.1188,0,0,5.245e-05
221400000000,221700000000,3961023475,0,1273561,3.529e-05,0.0001831,0.001938,7.534e-05,0.0002108,0.0001888,0,0,0.0001926,7.153e-05,26.56,0.1194,0,0,4.673e-05
221700000000,222000000000,3961023475,0,1273561,3.719e-05,0.0001831,0.001938,7.534e-05,0.0002108,0.0001888,0,0,0.0001984,0,26.73,0.121,0,0,2.956e-05
222000000000,222300000000,3961023475,0,1273561,3.719e-05,0.0001831,0.001938,7.534e-05,0.0002108,0.000186,0,0,0.0001717,7.153e-05,26.14,0.1197,0,0,2.193e-05
222300000000,222600000000,3961023475,0,1273561,3.815e-05,0.0001822,0.001938,7.534e-05,0.0002108,0.000186,0,0,0.000227,0,27.08,0.1226,0,0,2.861e-05
222600000000,222900000000,3961023475,0,1273561,3.719e-05,0.0001831,0.001938,7.534e-05,0.0002108,0.000186,0,0,0.0002003,7.153e-05,26.91,0.1195,0,0,4.101e-05
222900000000,223200000000,3961023475,0,1273561,3.624e-05,0.0001841,0.001938,7.534e-05,0.0002117,0.000186,0,0,0.0001259,7.153e-05,26.74,0.1191,0,0,3.91e-05
223200000000,223500000000,3961023475,0,1273561,3.624e-05,0.0001831,0.001938,7.534e-05,0.0002117,0.000186,0,0,0.0001583,7.153e-05,26.48,0.1196,0,0,1.621e-05
223500000000,223800000000,3961023475,0,1273561,3.719e-05,0.0001822,0.001938,7.534e-05,0.0002117,0.000186,0,0,0.0001945,0,25.59,0.1127,0,0,1.431e-05
223800000000,224100000000,3961023475,0,1273561,3.719e-05,0.0001841,0.001938,7.534e-05,0.0002117,0.0001869,0,0,0.0002003,7.153e-05,26.48,0.116,0,0,2.861e-06
224100000000,224400000000,3961023475,0,1273561,3.719e-05,0.0001822,0.001938,7.534e-05,0.0002117,0.000186,0,0,0.0001764,0,26.12,0.1151,0,0,9.537e-07
224400000000,224700000000,3961023475,0,1273561,3.815e-05,0.0001831,0.001938,7.534e-05,0.0002117,0.000186,0,0,0.0001984,7.153e-05,26.98,0.1165,0,0,2.766e-05
224700000000,225000000000,3961023475,0,1273561,3.815e-05,0.0001841,0.001938,7.534e-05,0.0002117,0.0001869,9.537e-07,0,0.0002079,7.153e-05,26.07,0.1136,0,0,1.144e-05
225000000000,225300000000,3961023475,0,1273561,3.815e-05,0.0001831,0.001938,7.629e-05,0.0002117,0.0001869,0,0,0.0002251,7.153e-05,26.18,0.1152,0,0,2.003e-05
225300000000,225600000000,3961023475,0,1273561,3.719e-05,0.0001822,0.001938,7.629e-05,0.0002117,0.000186,0,0,0.0001869,0,25.8,0.112,0,0,3.815e-06
225600000000,225900000000,3961023475,0,1273561,3.719e-05,0.0001822,0.001938,7.629e-05,0.0002117,0.0001869,0,0,0.0002193,7.153e-05,26.09,0.1181,0,0,1.907e-05
225900000000,226200000000,3961023475,0,1273561,3.719e-05,0.0001822,0.001938,7.629e-05,0.0002117,0.000186,0,0,0.0002537,0,26.69,0.1215,0,0,4.768e-05
226200000000,226500000000,3961023475,0,1273561,3.719e-05,0.0001831,0.001938,7.629e-05,0.0002117,0.000186,0,0,0.0001621,7.153e-05,26.91,0.1195,0,0,4.768e-06
226500000000,226800000000,3961023475,0,1273561,3.719e-05,0.0001822,0.001938,7.629e-05,0.0002117,0.000186,0,0,0.0002384,0,26.85,0.119,0,0,2.861e-05
226800000000,227100000000,3961023475,0,1273561,3.624e-05,0.0001831,0.001938,7.629e-05,0.0002117,0.000186,0,0,0.0001755,7.153e-05,26.79,0.1212,0,0,4.768e-05
227100000000,227400000000,3961023475,0,1273561,3.719e-05,0.0001831,0.001938,7.629e-05,0.0002117,0.000186,0,0,0.0002155,0,27.4,0.1205,0,0,2.67e-05
227400000000,227700000000,3961023475,0,1273561,3.719e-05,0.0001841,0.001938,7.629e-05,0.0002117,0.0001907,0,0,0.0002289,7.153e-05,27.51,0.1214,0,0,3.338e-05
227700000000,228000000000,3961023475,0,1273561,3.719e-05,0.0001822,0.001938,7.629e-05,0.0002117,0.0001907,0,0,0.000329,0,26.9,0.1211,0,0,0.0001068
228000000000,228300000000,3961023475,0,1273561,3.719e-05,0.0001831,0.001938,7.629e-05,0.0002117,0.000186,0,0,0.0001612,7.153e-05,27.11,0.1215,0,0,2.956e-05
228300000000,228600000000,3961023475,0,1273561,3.624e-05,0.0001822,0.001938,7.629e-05,0.0002117,0.000186,0,0,0.0001488,0,27.01,0.1204,0,0,6.676e-06
228600000000,228900000000,3961023475,0,1273561,3.719e-05,0.0001831,0.001938,7.629e-05,0.0002117,0.0001869,0,0,0.0001793,7.153e-05,26.85,0.1206,0,0,1.24e-05
228900000000,229200000000,3961023475,0,1273561,3.719e-05,0.0001822,0.001938,7.629e-05,0.0002117,0.000186,0,0,0.0001888,0,27.39,0.1209,0,0,2.384e-05
229200000000,229500000000,3961023475,0,1273561,3.719e-05,0.0001831,0.001938,7.629e-05,0.0002117,0.000186,0,0,0.000185,7.153e-05,28.15,0.1199,0,0,1.24e-05
229500000000,229800000000,3961023475,0,1273561,3.719e-05,0.0001831,0.001938,7.629e-05,0.0002117,0.000186,0,0,0.0002155,0,27.85,0.122,0,0,4.482e-05
229800000000,230100000000,3961023475,0,1273561,3.719e-05,0.0001831,0.001938,7.629e-05,0.0002117,0.000186,0,0,0.000186,7.153e-05,26.89,0.1212,0,0,4.387e-05
230100000000,230400000000,3961023475,0,1273561,3.719e-05,0.0001822,0.001938,7.629e-05,0.0002117,0.000186,0,0,0.0001926,0,26.65,0.1204,0,0,6.771e-05
230400000000,230700000000,3961023475,0,1273561,3.719e-05,0.0001831,0.001938,7.629e-05,0.0002117,0.000186,0,0,0.0001621,7.153e-05,26.8,0.1203,0,0,4.768e-06
230700000000,231000000000,3961023475,0,1273561,3.719e-05,0.0001831,0.001938,7.629e-05,0.0002117,0.000186,0,0,0.0001564,7.153e-05,27.3,0.1204,0,0,1.907e-05
231000000000,231300000000,3961023475,0,1273561,3.719e-05,0.0001831,0.001938,7.629e-05,0.0002117,0.000186,0,0,0.0001621,7.153e-05,27.28,0.1211,0,0,1.526e-05
231300000000,231600000000,3961023475,0,1273561,3.719e-05,0.0001822,0.001938,7.629e-05,0.0002117,0.000186,0,0,0.0002022,0,27.11,0.1195,0,0,2.766e-05
231600000000,231900000000,3961023475,0,1273561,3.815e-05,0.0001831,0.001938,7.629e-05,0.0002117,0.000186,0,0,0.000206,7.153e-05,27.82,0.1222,0,0,2.766e-05
231900000000,232200000000,3961023475,0,1273561,3.719e-05,0.0001841,0.001938,7.629e-05,0.0002117,0.0001869,0,0,0.0002193,7.153e-05,27.02,0.1191,0,0,6.294e-05
232200000000,232500000000,3961023475,0,1273561,3.719e-05,0.0001841,0.001938,7.629e-05,0.0002117,0.0001888,0,0,0.0002022,7.153e-05,26.96,0.1215,0,0,4.005e-05
232500000000,232800000000,3961023475,0,1273561,3.719e-05,0.0001831,0.001938,7.629e-05,0.0002117,0.000186,0,0,0.0002441,0,26.15,0.116,0,0,3.147e-05
232800000000,233100000000,3961023475,0,1273561,3.624e-05,0.0001831,0.001938,7.629e-05,0.0002117,0.000186,0,0,0.000164,7.153e-05,26.81,0.1208,0,0,4.196e-05
233100000000,233400000000,3961023475,0,1273561,3.624e-05,0.0001822,0.001938,7.629e-05,0.0002117,0.0001869,0,0,0.0001717,0,27.19,0.1216,0,0,3.242e-05
233400000000,233700000000,3961023475,0,1273561,3.719e-05,0.0001831,0.001938,7.629e-05,0.0002117,0.000186,0,0,0.0001707,7.153e-05,26.85,0.1211,0,0,2.193e-05
233700000000,234000000000,3961023475,0,1273561,3.815e-05,0.0001822,0.001938,7.629e-05,0.0002117,0.000186,0,0,0.0003271,0,27.57,0.1213,0,0,7.725e-05
234000000000,234300000000,3961023475,0,1273561,3.719e-05,0.0001822,0.001938,7.629e-05,0.0002117,0.000186,0,0,0.0001621,7.153e-05,27.16,0.1205,0,0,2.575e-05
234300000000,234600000000,3961023475,0,1273561,3.719e-05,0.0001822,0.001938,7.629e-05,0.0002117,0.000186,0,0,0.0001659,0,26.9,0.1192,0,0,4.768e-06
234600000000,234900000000,3961023475,0,1273561,3.719e-05,0.0001831,0.001938,7.629e-05,0.0002117,0.000186,0,0,0.0001793,7.153e-05,26.95,0.1199,0,0,3.815e-06
234900000000,235200000000,3961023475,0,1273561,3.624e-05,0.0001822,0.001938,7.629e-05,0.0002117,0.000186,0,0,0.0002031,0,27.7,0.1212,0,0,9.537e-07
235200000000,235500000000,3961023475,0,1273561,3.624e-05,0.0001831,0.001938,7.629e-05,0.0002117,0.000186,0,0,0.0001707,7.153e-05,27.58,0.1205,0,0,6.008e-05
235500000000,235800000000,3961023475,0,1273561,3.719e-05,0.0001831,0.001938,7.629e-05,0.0002117,0.000186,0,0,0.0001755,0,27.15,0.1208,0,0,1.431e-05
235800000000,236100000000,3961023475,0,1273561,3.624e-05,0.0001831,0.001938,7.629e-05,0.0002117,0.000186,0,0,0.0001545,7.153e-05,27.18,0.1218,0,0,8.583e-06
236100000000,236400000000,3961023475,0,1273561,3.719e-05,0.0001822,0.001938,7.629e-05,0.0002117,0.000186,0,0,0.0001755,0,26.92,0.1203,0,0,5.054e-05
241200000000,241500000000,3961023475,0,1273561,5.341e-05,0.0001831,0.001938,7.82e-05,0.0002136,0.0001869,0,0,0.0003309,0.0001431,25.37,0.1127,0,0,1.526e-05
241500000000,241800000000,3961023475,0,1273561,5.245e-05,0.0001822,0.001938,7.82e-05,0.0002136,0.0001869,0,0,0.0003195,0,24.46,0.1112,0,0,2.766e-05
241800000000,242100000000,3961023475,0,1273561,5.341e-05,0.0001831,0.001938,7.82e-05,0.0002136,0.0001869,0,0,0.0004683,7.153e-05,25.23,0.1128,0,0,1.907e-05
242100000000,242400000000,3961023475,0,1273561,5.436e-05,0.0001822,0.001938,7.82e-05,0.0002136,0.0001869,0,0,0.0003271,0,25.66,0.1135,0,0,9.537e-06
242400000000,242700000000,3961023475,0,1273561,5.436e-05,0.0001831,0.001938,7.82e-05,0.0002136,0.0001869,0,0,0.004082,7.153e-05,25.52,0.114,0,0,0.0001001
242700000000,243000000000,3961023475,0,1273561,5.341e-05,0.0001822,0.001938,7.82e-05,0.0002136,0.0001869,0,0,0.0002203,0,25.38,0.1131,0,0,0.000164
243000000000,243300000000,3961023475,0,1273561,5.341e-05,0.0001831,0.001938,7.82e-05,0.0002136,0.0001869,0,0,0.0002756,7.153e-05,25.55,0.1136,0,0,8.869e-05
243300000000,243600000000,3961023475,0,1273561,5.341e-05,0.0001822,0.001938,7.82e-05,0.0002136,0.0001869,0,0,0.000227,0,25.7,0.114,0,0,8.202e-05
243600000000,243900000000,3961023475,0,1273561,5.436e-05,0.0001831,0.001938,7.82e-05,0.0002136,0.0001869,0,0,0.0002422,7.153e-05,25.34,0.1133,0,0,8.392e-05
243900000000,244200000000,3961023475,0,1273561,5.436e-05,0.0001831,0.001938,7.82e-05,0.0002136,0.0001869,0,0,0.0002136,0,26.71,0.1169,0,0,0.0001392
244200000000,244500000000,3961023475,0,1273561,5.531e-05,0.0001831,0.001938,7.82e-05,0.0002136,0.0001869,0,0,0.0003147,7.153e-05,25.32,0.1137,0,0,4.768e-06
244500000000,244800000000,3961023475,0,1273561,5.245e-05,0.0001822,0.001938,7.82e-05,0.0002136,0.0001869,0,0,0.000164,0,25.29,0.114,0,0,6.676e-06
244800000000,245100000000,3961023475,0,1273561,5.341e-05,0.0001831,0.001938,7.82e-05,0.0002136,0.0001869,0,0,0.0001869,7.153e-05,25.69,0.1146,0,0,0.0001183
245100000000,245400000000,3961023475,0,1273561,5.245e-05,0.0001822,0.001938,7.82e-05,0.0002136,0.0001869,0,0,0.0002165,0,25.79,0.114,0,0,3.242e-05
245400000000,245700000000,3961023475,0,1273561,5.245e-05,0.0001831,0.001938,7.82e-05,0.0002136,0.0001888,0,0,0.0001736,7.153e-05,25.86,0.1156,0,0,8.583e-06
245700000000,246000000000,3961023475,0,1273561,5.245e-05,0.0001831,0.001938,7.82e-05,0.0002136,0.0001888,0,0,0.000185,0,25.61,0.1123,0,0,1.717e-05
246000000000,246300000000,3961023475,0,1273561,5.341e-05,0.0001841,0.001938,7.82e-05,0.0002136,0.0001869,0,0,0.0001879,7.153e-05,25.32,0.1128,0,0,0.0001116
251400000000,251700000000,3961023475,0,1273561,5.341e-05,0.0001841,0.001938,7.82e-05,0.0002146,0.0001869,0,0,0.0002289,7.153e-05,25.28,0.1128,0,0,3.052e-05
251700000000,252000000000,3961023475,0,1273561,5.436e-05,0.0001831,0.001938,7.82e-05,0.0002146,0.0001869,0,0,0.0001945,0,26.22,0.1136,0,0,4.196e-05
252000000000,252300000000,3961023475,0,1273561,5.436e-05,0.0001831,0.001938,7.82e-05,0.0002146,0.0001869,0,0,0.0002441,7.153e-05,25.76,0.1144,0,0,2.67e-05
252300000000,252600000000,3961023475,0,1273561,5.341e-05,0.0001822,0.001938,7.82e-05,0.0002146,0.0001869,0,0,0.0002699,0,25.91,0.1152,0,0,5.531e-05
252600000000,252900000000,3961023475,0,1273561,5.436e-05,0.0001831,0.001938,7.82e-05,0.0002146,0.0001879,0,0,0.0002518,7.153e-05,25.9,0.1144,0,0,6.008e-05
252900000000,253200000000,3961023475,0,1273561,5.341e-05,0.0001831,0.001938,7.82e-05,0.0002146,0.0001869,0,0,0.0002546,0,24.89,0.1108,0,0,3.624e-05
253200000000,253500000000,3961023475,0,1273561,5.436e-05,0.0001831,0.001938,7.82e-05,0.0002146,0.0001869,0,0,0.0004606,7.153e-05,24.91,0.1105,0,0,1.907e-06
253500000000,253800000000,3961023475,0,1273561,5.341e-05,0.0001831,0.001938,7.82e-05,0.0002146,0.0001869,0,0,0.0002213,7.153e-05,25.69,0.1137,0,0,1.144e-05
253800000000,254100000000,3961023475,0,1273561,5.341e-05,0.0001841,0.001938,7.82e-05,0.0002146,0.0001888,0,0,0.0001755,7.153e-05,25.19,0.1132,0,0,2.098e-05
254100000000,254400000000,3961023475,0,1273561,5.245e-05,0.0001841,0.001938,7.82e-05,0.0002146,0.0001888,0,0,0.000186,0,25.38,0.1144,0,0,5.054e-05
254400000000,254700000000,3961023475,0,1273561,5.341e-05,0.0001831,0.001938,7.82e-05,0.0002146,0.0001869,0,0,0.0002079,7.153e-05,25.4,0.1142,0,0,2.193e-05
254700000000,255000000000,3961023475,0,1273561,5.341e-05,0.0001831,0.001938,7.82e-05,0.0002146,0.0001869,0,0,0.0001593,0,25.48,0.114,0,0,4.768e-06
255000000000,255300000000,3961023475,0,1273561,5.341e-05,0.0001831,0.001938,7.82e-05,0.0002146,0.0001869,0,0,0.000185,7.153e-05,25.55,0.1148,0,0,8.583e-06
255300000000,255600000000,3961023475,0,1273561,5.436e-05,0.0001822,0.001938,7.82e-05,0.0002146,0.0001869,0,0,0.0002422,0,25.52,0.1143,0,0,0.0001316
255600000000,255900000000,3961023475,0,1273561,5.531e-05,0.0001831,0.001938,7.82e-05,0.0002146,0.0001869,0,0,0.0002365,7.153e-05,26.04,0.1143,0,0,4.768e-05
255900000000,256200000000,3961023475,0,1273561,5.436e-05,0.0001822,0.001938,7.82e-05,0.0002146,0.0001869,0,0,0.0002203,0,26.3,0.1151,0,0,3.719e-05
256200000000,256500000000,3961023475,0,1273561,5.341e-05,0.0001831,0.001938,7.82e-05,0.0002146,0.0001869,0,0,0.0002031,7.153e-05,25.61,0.1128,0,0,2.289e-05
256500000000,256800000000,3961023475,0,1273561,5.436e-05,0.0001822,0.001938,7.82e-05,0.0002146,0.0001869,0,0,0.000227,0,25.63,0.1147,0,0,1.907e-06
256800000000,257100000000,3961023475,0,1273561,5.436e-05,0.0001841,0.001938,7.82e-05,0.0002146,0.0001869,0,0,0.0002327,7.153e-05,26.51,0.1153,0,0,1.144e-05
257100000000,257400000000,3961023475,0,1273561,5.341e-05,0.0001841,0.001938,7.82e-05,0.0002146,0.0001869,0,0,0.0002165,0,26.13,0.1165,0,0,0.0001249
257400000000,257700000000,3961023475,0,1273561,5.531e-05,0.0001831,0.001938,7.915e-05,0.0002146,0.0001869,0,0,0.0002365,7.153e-05,25.51,0.1141,0,0,4.768e-05
257700000000,258000000000,3961023475,0,1273561,5.436e-05,0.0001831,0.001938,7.915e-05,0.0002146,0.0001869,0,0,0.000246,0,25.65,0.1146,0,0,1.812e-05
258000000000,258300000000,3961023475,0,1273561,5.531e-05,0.0001831,0.001938,7.915e-05,0.0002146,0.0001869,0,0,0.0002594,7.153e-05,25.93,0.1143,0,0,1.049e-05
258300000000,258600000000,3961023475,0,1273561,5.436e-05,0.0001822,0.001938,7.915e-05,0.0002146,0.0001869,0,0,0.0002251,0,25.87,0.1147,0,0,4.673e-05
258600000000,258900000000,3961023475,0,1273561,5.436e-05,0.0001831,0.001938,7.915e-05,0.0002146,0.0001869,0,0,0.0002289,7.153e-05,25.54,0.1146,0,0,0.0001173
258900000000,259200000000,3961023475,0,1273561,5.531e-05,0.0001822,0.001938,7.915e-05,0.0002146,0.0001869,0,0,0.0002213,0,26.38,0.1165,0,0,0.000103
259200000000,259500000000,3961023475,0,1273561,5.436e-05,0.0001831,0.001938,7.915e-05,0.0002146,0.0001869,0,0,0.0001869,7.153e-05,26.31,0.1162,0,0,1.717e-05
259500000000,259800000000,3961023475,0,1273561,5.436e-05,0.0001822,0.001938,7.915e-05,0.0002146,0.0001869,0,0,0.0002518,0,26.11,0.1144,0,0,0.0001106
259800000000,260100000000,3961023475,0,1273561,5.531e-05,0.0001831,0.001938,7.915e-05,0.0002146,0.0001869,0,0,0.0002003,7.153e-05,25.92,0.1142,0,0,2.098e-05
260100000000,260400000000,3961023475,0,1273561,5.436e-05,0.0001822,0.001938,7.915e-05,0.0002146,0.0001869,0,0,0.0002117,0,25.77,0.1154,0,0,4.005e-05
260400000000,260700000000,3961023475,0,1273561,5.436e-05,0.0001831,0.001938,7.915e-05,0.0002146,0.0001869,0,0,0.0002079,7.153e-05,25.49,0.1148,0,0,1.049e-05
260700000000,261000000000,3961023475,0,1273561,5.436e-05,0.0001831,0.001938,7.915e-05,0.0002146,0.0001869,0,0,0.0002384,0,25.74,0.1145,0,0,6.962e-05
261000000000,261300000000,3961023475,0,1273561,5.341e-05,0.000185,0.001938,7.915e-05,0.0002146,0.0001869,9.537e-07,0,0.0003176,0.0001431,25.96,0.1151,0,0,0.000123
261300000000,261600000000,3961023475,0,1273561,5.531e-05,0.0001831,0.001938,7.915e-05,0.0002146,0.0001869,0,0,0.0001755,0,25.51,0.1139,0,0,3.147e-05
261600000000,261900000000,3961023475,0,1273561,5.341e-05,0.0001841,0.001938,7.915e-05,0.0002146,0.0001907,0,0,0.0001554,7.153e-05,25.95,0.1151,0,0,1.907e-05
261900000000,262200000000,3961023475,0,1273561,5.436e-05,0.0001831,0.001938,7.915e-05,0.0002146,0.0001907,0,0,0.0002756,0,25.8,0.1145,0,0,1.717e-05
262200000000,262500000000,3961023475,0,1273561,5.436e-05,0.0001841,0.001938,7.915e-05,0.0002146,0.0001869,0,0,0.0002127,7.153e-05,26.25,0.1151,0,0,4.864e-05
262500000000,262800000000,3961023475,0,1273561,5.436e-05,0.0001831,0.001938,7.915e-05,0.0002146,0.0001869,0,0,0.000206,0,26.56,0.1176,0,0,6.294e-05
262800000000,263100000000,3961023475,0,1273561,5.531e-05,0.0001841,0.001938,7.915e-05,0.0002146,0.0001888,0,0,0.0001965,7.153e-05,26.27,0.1163,0,0,2.575e-05
263100000000,263400000000,3961023475,0,1273561,5.436e-05,0.0001831,0.001938,7.915e-05,0.0002146,0.0001869,0,0,0.000227,0,25.93,0.1147,0,0,3.052e-05
263400000000,263700000000,3961023475,0,1273561,5.436e-05,0.0001831,0.001938,7.915e-05,0.0002146,0.0001869,0,0,0.0002241,7.153e-05,24.53,0.1096,0,0,0.0001307
263700000000,264000000000,3961023475,0,1273561,5.436e-05,0.0001822,0.001938,7.915e-05,0.0002146,0.0001869,0,0,0.0002422,0,24.88,0.1104,0,0,5.436e-05
264000000000,264300000000,3961023475,0,1273561,5.436e-05,0.0001831,0.001938,7.915e-05,0.0002146,0.0001869,0,0,0.0002661,7.153e-05,25.37,0.1118,0,0,2.861e-05
264300000000,264600000000,3961023475,0,1273561,5.436e-05,0.0001822,0.001938,7.915e-05,0.0002146,0.0001869,0,0,0.0001984,0,25.3,0.1112,0,0,5.722e-06
264600000000,264900000000,3961023475,0,1273561,5.436e-05,0.0001831,0.001938,7.915e-05,0.0002146,0.0001869,0,0,0.0004644,7.153e-05,25.11,0.1106,0,0,7.629e-06
264900000000,265200000000,3961023475,0,1273561,5.245e-05,0.0001831,0.001938,7.915e-05,0.0002146,0.0001869,0,0,0.0001812,0,25.02,0.111,0,0,0.0001173
265200000000,265500000000,3961023475,0,1273561,5.436e-05,0.0001831,0.001938,7.915e-05,0.0002146,0.0001869,0,0,0.0002031,7.153e-05,25.03,0.1104,0,0,2.861e-06
265500000000,265800000000,3961023475,0,1273561,5.436e-05,0.0001831,0.001938,7.915e-05,0.0002146,0.0001869,0,0,0.0001669,0,24.85,0.1105,0,0,3.815e-06
265800000000,266100000000,3961023475,0,1273561,5.436e-05,0.0001831,0.001938,7.915e-05,0.0002146,0.0001869,0,0,0.0002747,7.153e-05,25.53,0.1111,0,0,4.482e-05
266100000000,266400000000,3961023475,0,1273561,5.341e-05,0.0001831,0.001938,7.915e-05,0.0002146,0.0001869,0,0,0.0003929,0,24.51,0.1101,0,0,9.537e-07
266400000000,266700000000,3961023475,0,1273561,5.436e-05,0.0001831,0.001938,7.915e-05,0.0002146,0.0001869,0,0,0.0002279,7.153e-05,25.24,0.1114,0,0,0.0001173
266700000000,267000000000,3961023475,0,1273561,5.436e-05,0.0001831,0.001938,7.915e-05,0.0002146,0.0001869,0,0,0.000205,0,25.24,0.1117,0,0,4.768e-05
267000000000,267300000000,3961023475,0,1273561,5.436e-05,0.0001831,0.001938,7.915e-05,0.0002146,0.0001869,0,0,0.0001888,7.153e-05,25.83,0.1145,0,0,3.815e-06
267300000000,267600000000,3961023475,0,1273561,5.436e-05,0.0001841,0.001938,7.915e-05,0.0002146,0.0001869,0,0,0.0001755,0,25.43,0.1152,0,0,4.768e-06
267600000000,267900000000,3961023475,0,1273561,5.436e-05,0.0001841,0.001938,7.915e-05,0.0002146,0.0001907,0,0,0.0002184,7.153e-05,25.78,0.1164,0,0,1.335e-05
267900000000,268200000000,3961023475,0,1273561,5.531e-05,0.0001831,0.001938,7.915e-05,0.0002146,0.0001907,0,0,0.0001898,0,26.53,0.1184,0,0,0.0001097
268200000000,268500000000,3961023475,0,1273561,5.531e-05,0.000185,0.001938,7.915e-05,0.0002146,0.0001869,9.537e-07,0,0.0002098,7.153e-05,26.03,0.1167,0,0,9.537e-05
268500000000,268800000000,3961023475,0,1273561,5.436e-05,0.0001831,0.001938,7.915e-05,0.0002146,0.0001869,0,0,0.0001745,0,26.11,0.115,0,0,1.907e-06
268800000000,269100000000,3961023475,0,1273561,5.531e-05,0.0001831,0.001938,7.915e-05,0.0002146,0.0001869,0,0,0.0004005,7.153e-05,25.93,0.1153,0,0,0.0001822
269100000000,269400000000,3961023475,0,1273561,5.436e-05,0.0001831,0.001938,7.915e-05,0.0002146,0.0001869,0,0,0.0002384,0,26.41,0.1175,0,0,9.155e-05
269400000000,269700000000,3961023475,0,1273561,5.436e-05,0.0001831,0.001938,7.915e-05,0.0002146,0.0001869,0,0,0.0002384,7.153e-05,26.24,0.1153,0,0,9.155e-05
269700000000,270000000000,3961023475,0,1273561,5.341e-05,0.0001831,0.001938,7.915e-05,0.0002146,0.0001869,0,0,0.0001955,0,25.33,0.1153,0,0,1.526e-05
270000000000,270300000000,3961023475,0,1273561,5.245e-05,0.0001831,0.001938,7.915e-05,0.0002155,0.0001869,0,0,0.0001869,7.153e-05,25.5,0.1148,0,0,3.719e-05
270300000000,270600000000,3961023475,0,1273561,5.245e-05,0.0001831,0.001938,7.915e-05,0.0002155,0.0001869,0,0,0.0001841,0,25.74,0.1138,0,0,0.0001259
270600000000,270900000000,3961023475,0,1273561,5.436e-05,0.0001831,0.001938,7.915e-05,0.0002155,0.0001869,0,0,0.0002232,7.153e-05,25.6,0.1144,0,0,1.621e-05
270900000000,271200000000,3961023475,0,1273561,5.341e-05,0.0001822,0.001938,7.915e-05,0.0002155,0.0001869,0,0,0.0002766,0,25.61,0.1143,0,0,9.823e-05
271200000000,271500000000,3961023475,0,1273561,5.245e-05,0.0001831,0.001938,7.915e-05,0.0002155,0.0001869,0,0,0.0002108,7.153e-05,25.96,0.1148,0,0,6.008e-05
281400000000,281700000000,3961023475,0,1273561,5.245e-05,0.0001841,0.001938,8.011e-05,0.0002155,0.0001898,0,0,0.0002556,7.153e-05,24.46,0.1112,0,0,2.098e-05
281700000000,282000000000,3961023475,0,1273561,5.245e-05,0.0001831,0.001938,8.011e-05,0.0002155,0.0001898,0,0,0.0002556,0,24.58,0.1089,0,0,5.722e-05
282000000000,282300000000,3961023475,0,1273561,5.341e-05,0.0001831,0.001938,8.011e-05,0.0002155,0.0001869,0,0,0.000288,7.153e-05,23.96,0.1078,0,0,0.0001202
282300000000,282600000000,3961023475,0,1273561,5.15e-05,0.0001831,0.001938,8.011e-05,0.0002155,0.0001869,0,0,0.0002728,0,24.76,0.1111,0,0,9.155e-05
282600000000,282900000000,3961023475,0,1273561,5.245e-05,0.000185,0.001938,8.011e-05,0.0002155,0.0001869,9.537e-07,0,0.0002031,7.153e-05,24.69,0.1122,0,0,4.768e-05
282900000000,283200000000,3961023475,0,1273561,5.15e-05,0.0001831,0.001938,8.011e-05,0.0002155,0.0001869,0,0,0.0002069,0,25.31,0.1126,0,0,0.0001211
283200000000,283500000000,3961023475,0,1273561,5.15e-05,0.0001841,0.001938,8.011e-05,0.0002155,0.0001869,0,0,0.0002279,7.153e-05,24.91,0.1114,0,0,0.0001326
283500000000,283800000000,3961023475,0,1273561,5.15e-05,0.0001841,0.001938,8.011e-05,0.0002155,0.0001869,0,0,0.0001764,0,25,0.1113,0,0,1.24e-05
283800000000,284100000000,3961023475,0,1273561,5.15e-05,0.0001831,0.001938,8.011e-05,0.0002155,0.0001869,2.861e-06,0,0.0001974,0.0007143,24.42,0.1096,0,0,2.384e-05
284100000000,284400000000,3961023475,0,1273561,5.245e-05,0.0001831,0.001938,8.011e-05,0.0002155,0.0001869,0,0,0.00428,0,24.62,0.1114,0,0,7.343e-05
284400000000,284700000000,3961023475,0,1273561,5.15e-05,0.0001831,0.001938,8.011e-05,0.0002155,0.0001869,0,0,0.0002613,7.153e-05,24.47,0.1119,0,0,4.768e-05
284700000000,285000000000,3961023475,0,1273561,5.15e-05,0.0001831,0.001938,8.011e-05,0.0002155,0.0001869,0,0,0.0002317,0,24.28,0.1101,0,0,2.67e-05
285000000000,285300000000,3961023475,0,1273561,5.341e-05,0.0001831,0.001938,8.011e-05,0.0002155,0.0001869,0,0,0.0002365,7.153e-05,24.76,0.1115,0,0,2.289e-05
285300000000,285600000000,3961023475,0,1273561,5.245e-05,0.0001831,0.001938,8.011e-05,0.0002155,0.0001869,0,0,0.0002623,0,24.26,0.1113,0,0,4.292e-05
285600000000,285900000000,3961023475,0,1273561,5.245e-05,0.0001831,0.001938,8.011e-05,0.0002155,0.0001869,0,0,0.0002842,7.153e-05,24.24,0.111,0,0,0.0001211
285900000000,286200000000,3961023475,0,1273561,5.341e-05,0.0001831,0.001938,8.011e-05,0.0002155,0.0001869,0,0,0.0002232,0,25.6,0.1156,0,0,0.0001163
286200000000,286500000000,3961023475,0,1273561,5.15e-05,0.0001831,0.001938,8.011e-05,0.0002155,0.0001869,0,0,0.0002165,7.153e-05,25.66,0.1125,0,0,2.67e-05
286500000000,286800000000,3961023475,0,1273561,5.15e-05,0.0001831,0.001938,8.011e-05,0.0002155,0.0001869,0,0,0.0002203,0,24.75,0.1107,0,0,2.861e-06
286800000000,287100000000,3961023475,0,1273561,5.15e-05,0.0001831,0.001938,8.011e-05,0.0002155,0.0001869,0,0,0.0002213,7.153e-05,24.84,0.1108,0,0,3.815e-05
287100000000,287400000000,3961023475,0,1273561,5.15e-05,0.0001831,0.001938,8.011e-05,0.0002155,0.0001869,0,0,0.000164,0,24.25,0.1111,0,0,1.812e-05
287400000000,287700000000,3961023475,0,1273561,5.15e-05,0.0001831,0.001938,8.011e-05,0.0002155,0.0001869,0,0,0.0002251,7.153e-05,24.55,0.1102,0,0,2.956e-05
287700000000,288000000000,3961023475,0,1273561,5.245e-05,0.0001831,0.001938,8.011e-05,0.0002155,0.0001869,0,0,0.000246,0,24.16,0.11,0,0,5.627e-05
288000000000,288300000000,3961023475,0,1273561,5.245e-05,0.0001831,0.001938,8.011e-05,0.0002155,0.0001869,0,0,0.0002537,7.153e-05,24.1,0.112,0,0,1.431e-05
288300000000,288600000000,3961023475,0,1273561,5.245e-05,0.0001822,0.001938,8.011e-05,0.0002155,0.0001869,0,0,0.0002384,0,24.96,0.1109,0,0,2.956e-05
288600000000,288900000000,3961023475,0,1273561,5.245e-05,0.0001831,0.001938,8.011e-05,0.0002155,0.0001869,0,0,0.0002728,7.153e-05,24.6,0.1118,0,0,8.583e-05
288900000000,289200000000,3961023475,0,1273561,5.245e-05,0.0001841,0.001938,8.011e-05,0.0002165,0.0001907,0,0,0.0002832,0,24.72,0.1118,0,0,1.907e-06
289200000000,289500000000,3961023475,0,1273561,5.15e-05,0.0001841,0.001938,8.011e-05,0.0002165,0.0001869,0,0,0.0002222,7.153e-05,24.24,0.1112,0,0,0.0001326
289500000000,289800000000,3961023475,0,1273561,5.15e-05,0.0001822,0.001938,8.011e-05,0.0002165,0.0001869,0,0,0.0002394,0,24.86,0.1123,0,0,9.632e-05
289800000000,290100000000,3961023475,0,1273561,5.245e-05,0.000185,0.001938,8.011e-05,0.0002165,0.0001888,9.537e-07,0,0.0001898,7.153e-05,25.01,0.1128,0,0,8.488e-05
290100000000,290400000000,3961023475,0,1273561,5.15e-05,0.0001831,0.001938,8.011e-05,0.0002165,0.0001869,0,0,0.0002108,0,23.27,0.1063,0,0,4.482e-05
290400000000,290700000000,3961023475,0,1273561,5.245e-05,0.0001831,0.001938,8.011e-05,0.0002165,0.0001869,0,0,0.0002203,7.153e-05,24.22,0.109,0,0,8.583e-06
290700000000,291000000000,3961023475,0,1273561,5.15e-05,0.0001831,0.001938,8.011e-05,0.0002165,0.0001869,0,0,0.0002022,0,24.12,0.11,0,0,1.24e-05
291000000000,291300000000,3961023475,0,1273561,5.054e-05,0.0001831,0.001938,8.011e-05,0.0002165,0.0001869,0,0,0.0001907,7.153e-05,24.45,0.1104,0,0,8.583e-06
291300000000,291600000000,3961023475,0,1273561,5.15e-05,0.0001831,0.001938,8.011e-05,0.0002165,0.0001869,0,0,0.0002241,0,24.09,0.1104,0,0,3.815e-05
291600000000,291900000000,3961023475,0,1273561,5.054e-05,0.0001831,0.001938,8.011e-05,0.0002165,0.0001869,0,0,0.0002098,7.153e-05,24.75,0.1119,0,0,6.676e-06
291900000000,292200000000,3961023475,0,1273561,5.245e-05,0.0001822,0.001938,8.011e-05,0.0002165,0.0001869,0,0,0.0003147,0,24.36,0.1112,0,0,0.0001154
292200000000,292500000000,3961023475,0,1273561,5.245e-05,0.0001831,0.001938,8.011e-05,0.0002165,0.0001869,0,0,0.0002804,7.153e-05,24.16,0.1103,0,0,2.193e-05
292500000000,292800000000,3961023475,0,1273561,5.15e-05,0.0001831,0.001938,8.011e-05,0.0002165,0.0001869,0,0,0.0001831,0,24.92,0.1112,0,0,1.049e-05
292800000000,293100000000,3961023475,0,1273561,5.15e-05,0.0001831,0.001938,8.011e-05,0.0002165,0.0001869,0,0,0.0002289,7.153e-05,24.39,0.11,0,0,3.433e-05
293100000000,293400000000,3961023475,0,1273561,5.15e-05,0.0001831,0.001938,8.011e-05,0.0002165,0.0001869,0,0,0.0002079,0,24.04,0.1083,0,0,3.052e-05
293400000000,293700000000,3961023475,0,1273561,5.245e-05,0.0001831,0.001938,8.011e-05,0.0002165,0.0001869,0,0,0.00037,7.153e-05,23.79,0.1077,0,0,2.575e-05
293700000000,294000000000,3961023475,0,1273561,5.245e-05,0.0001831,0.001938,8.011e-05,0.0002165,0.0001869,0,0,0.0002651,0,24.19,0.1105,0,0,3.052e-05
294000000000,294300000000,3961023475,0,1273561,5.15e-05,0.0001841,0.001938,8.011e-05,0.0002165,0.0001907,0,0,0.0003252,7.153e-05,25.06,0.1116,0,0,2.67e-05
294300000000,294600000000,3961023475,0,1273561,5.15e-05,0.0001841,0.001938,8.011e-05,0.0002165,0.0001907,0,0,0.0002089,0,24.9,0.1118,0,0,9.823e-05
294600000000,294900000000,3961023475,0,1273561,5.15e-05,0.0001831,0.001938,8.011e-05,0.0002165,0.0001869,0,0,0.0002251,7.153e-05,24.45,0.1119,0,0,1.526e-05
294900000000,295200000000,3961023475,0,1273561,5.245e-05,0.0001831,0.001938,8.011e-05,0.0002165,0.0001869,0,0,0.0002661,0,24.49,0.1104,0,0,3.815e-06
295200000000,295500000000,3961023475,0,1273561,5.15e-05,0.0001831,0.001938,8.011e-05,0.0002165,0.0001869,0,0,0.0001926,7.153e-05,25.01,0.1121,0,0,7.629e-06
295500000000,295800000000,3961023475,0,1273561,5.15e-05,0.0001831,0.001938,8.011e-05,0.0002165,0.0001869,0,0,0.0001869,0,25.17,0.1125,0,0,3.719e-05
295800000000,296100000000,3961023475,0,1273561,5.15e-05,0.0001831,0.001938,8.011e-05,0.0002165,0.0001869,0,0,0.0002832,7.153e-05,24.41,0.1106,0,0,8.583e-06
296100000000,296400000000,3961023475,0,1273561,5.245e-05,0.0001831,0.001938,8.011e-05,0.0002165,0.0001869,0,0,0.0004253,0,24.25,0.1108,0,0,0.0001411
296400000000,296700000000,3961023475,0,1273561,5.245e-05,0.0001831,0.001938,8.011e-05,0.0002165,0.0001869,0,0,0.0003595,7.153e-05,24.53,0.1108,0,0,1.335e-05
296700000000,297000000000,3961023475,0,1273561,5.245e-05,0.0001831,0.001938,8.106e-05,0.0002165,0.0001869,0,0,0.000308,0,24.93,0.1097,0,0,1.144e-05
297000000000,297300000000,3961023475,0,1273561,5.245e-05,0.000185,0.001938,8.106e-05,0.0002165,0.0001907,9.537e-07,0,0.0002098,7.153e-05,24.17,0.1086,0,0,3.433e-05
297300000000,297600000000,3961023475,0,1273561,5.245e-05,0.0001822,0.001938,8.106e-05,0.0002165,0.0001869,0,0,0.002541,0,23.93,0.1093,0,0,1.907e-06
297600000000,297900000000,3961023475,0,1273561,5.245e-05,0.0001831,0.001938,8.106e-05,0.0002165,0.0001869,0,0,0.0002117,7.153e-05,25.06,0.112,0,0,5.913e-05
297900000000,298200000000,3961023475,0,1273561,5.15e-05,0.0001831,0.001938,8.106e-05,0.0002165,0.0001869,0,0,0.0001774,0,24.35,0.1114,0,0,4.387e-05
298200000000,298500000000,3961023475,0,1273561,5.245e-05,0.0001831,0.001938,8.106e-05,0.0002165,0.0001869,0,0,0.000246,7.153e-05,24.53,0.1097,0,0,1.431e-05
298500000000,298800000000,3961023475,0,1273561,5.245e-05,0.0001831,0.001938,8.106e-05,0.0002165,0.0001869,0,0,0.0002718,0,23.93,0.1096,0,0,5.817e-05
298800000000,299100000000,3961023475,0,1273561,5.15e-05,0.0001831,0.001938,8.106e-05,0.0002165,0.0001869,0,0,0.0002861,7.153e-05,24.88,0.1124,0,0,2.575e-05
299100000000,299400000000,3961023475,0,1273561,5.15e-05,0.0001831,0.001938,8.106e-05,0.0002165,0.0001869,0,0,0.0002127,0,25.53,0.1127,0,0,0.0001955
299400000000,299700000000,3961023475,0,1273561,5.15e-05,0.0001841,0.001938,8.106e-05,0.0002165,0.0001907,0,0,0.0002136,7.153e-05,25.04,0.1119,0,0,2.098e-05
299700000000,300000000000,3961023475,0,1273561,5.15e-05,0.0001831,0.001938,8.106e-05,0.0002165,0.0001907,0,0,0.000206,0,24.73,0.1115,0,0,0.0001488
