5700000000,6000000000,4340570461,0,351604835,0.00035,0.0008383,0.01164,0.0006962,0.001116,0.000845,4.768e-06,0,0.007095,0.0009289,24.74,0.1162,0,0,0.0007343
6000000000,6300000000,4340570461,0,351604835,0.0003796,0.0008392,0.01164,0.0006962,0.001116,0.000844,5.722e-06,0,0.00824,0.001072,23.55,0.1081,0,0,0.0002003
6300000000,6600000000,4340570461,0,351604835,0.0003595,0.0008392,0.01164,0.0006962,0.001116,0.0008459,3.815e-06,0,0.001234,0.0002861,20.23,0.09447,0,0,0.0005589
6600000000,6900000000,4340570461,0,351604835,0.0003729,0.0008364,0.01164,0.0006962,0.001116,0.0008392,2.861e-06,0,0.00106,0.0003567,23.88,0.1116,0,0,0.000824
6900000000,7200000000,4340570461,0,351604835,0.0003195,0.0008383,0.01164,0.0006962,0.001116,0.000845,9.537e-06,0,0.002213,0.001358,15.58,0.0719,0,0,0.0004902
7200000000,7500000000,4340570461,0,351604835,0.0002756,0.0008383,0.01164,0.0006962,0.001116,0.000845,1.049e-05,0,0.002411,0.001286,22.65,0.1051,0,0,0.001045
7500000000,7800000000,4340570461,0,351604835,0.0004082,0.0008421,0.01164,0.0006962,0.001116,0.000845,6.676e-06,0,0.001293,0.001572,25.49,0.1214,0,0,0.0004492
7800000000,8100000000,4340570461,0,351604835,0.0003128,0.0008345,0.01164,0.0006962,0.001116,0.0008411,1.907e-06,0,0.00189,0.0002146,27.95,0.1377,0,0,0.0001411
8100000000,8400000000,4340570461,0,351604835,0.0002327,0.0008345,0.01164,0.0006962,0.001116,0.0008364,6.676e-06,0,0.000988,0.001072,24.05,0.1194,0,0,0.0005407
8400000000,8700000000,4340570461,0,351604835,0.0002346,0.0008345,0.01164,0.0006962,0.001116,0.0008392,9.537e-07,0,0.0008898,0.0001431,26.19,0.1283,0,0,4.482e-05
8700000000,9000000000,4340570461,0,351604835,0.000226,0.0008335,0.01164,0.0006962,0.001116,0.0008354,1.907e-06,0,0.0009632,7.153e-05,22.49,0.1084,0,0,0.0003157
9000000000,9300000000,4340570461,0,351604835,0.0002918,0.0008392,0.01164,0.0006962,0.001116,0.0008469,8.583e-06,0,0.01569,0.001072,23.03,0.1083,0,0,0.0002432
9300000000,9600000000,4340570461,0,351604835,0.0003681,0.0008411,0.01164,0.0006962,0.001116,0.000844,2.861e-06,0,0.001146,7.153e-05,24.85,0.1144,0,0,0.0001717
9600000000,9900000000,4340570461,0,351604835,0.0003738,0.0008364,0.01164,0.0006962,0.001116,0.0008402,5.722e-06,0,0.001074,0.001715,25.71,0.1195,0,0,0.0002308
9900000000,10200000000,4340570461,0,351604835,0.0002995,0.0008354,0.01164,0.0006962,0.001116,0.0008373,9.537e-07,0,0.000864,7.153e-05,25.81,0.119,0,0,0.000514
10200000000,10500000000,4340570461,0,351604835,0.000227,0.0008354,0.01164,0.0006962,0.001116,0.0008383,3.815e-06,0,0.0006742,0.0005713,22.06,0.1033,0,0,0.0001602
10500000000,10800000000,4340570461,0,351604835,0.0002565,0.0008345,0.01164,0.0006962,0.001116,0.0008345,4.768e-06,0,0.001007,0.0006428,21.07,0.09825,0,0,0.0001717
10800000000,11100000000,4340570461,0,351604835,0.0003405,0.0008402,0.01164,0.0006962,0.001118,0.0008469,3.815e-06,0,0.002968,0.0002146,20.37,0.09441,0,0,0.0004139
11100000000,11400000000,4340570461,0,351604835,0.0003242,0.0008392,0.01164,0.0006962,0.001116,0.000845,2.861e-06,0,0.001213,0.0004282,22.03,0.1028,0,0,0.0003119
11400000000,11700000000,4340570461,0,351604835,0.000205,0.0008392,0.01164,0.0006962,0.001116,0.000844,3.815e-06,0,0.0008841,0.0001431,20.74,0.09989,0,0,0.0001717
11700000000,12000000000,4340570461,0,351604835,0.0002146,0.0008383,0.01164,0.0006962,0.001118,0.000844,6.676e-06,0,0.001497,0.0007143,15.61,0.07205,0,0,9.441e-05
12000000000,12300000000,4340570461,0,351604835,0.0002327,0.0008411,0.01164,0.0006962,0.001118,0.0008459,9.537e-07,0,0.0007286,0.0001431,22.69,0.1061,0,0,0.0002928
12300000000,12600000000,4340570461,0,351604835,0.0002384,0.0008316,0.01164,0.0006962,0.001118,0.0008354,0,0,0.0007544,0,26.65,0.1263,0,0,0.0002689
12600000000,12900000000,4340570461,0,351604835,0.0002518,0.0008373,0.01164,0.0006962,0.001118,0.0008469,2.861e-06,0,0.001268,0.0004282,22.85,0.1067,0,0,0.0003977
12900000000,13200000000,4340570461,0,351604835,0.000246,0.0008354,0.01164,0.0006962,0.001118,0.000843,4.768e-06,0,0.0009384,0.001072,25.91,0.1219,0,0,0.0001822
13200000000,13500000000,4340570461,0,351604835,0.0002384,0.0008392,0.01164,0.0006962,0.001118,0.000844,1.144e-05,0,0.001215,0.001429,16.67,0.07732,0,0,0.0001125
13500000000,13800000000,4340570461,0,351604835,0.0002537,0.0008354,0.01164,0.0006962,0.001118,0.000844,6.676e-06,0,0.002155,0.0007143,24.34,0.1146,0,0,0.0001907
13800000000,14100000000,4340570461,0,351604835,0.0003405,0.0008402,0.01164,0.0006962,0.001118,0.000844,4.768e-06,0,0.001179,0.0006428,21.36,0.1,0,0,0.0002918
14100000000,14400000000,4340570461,0,351604835,0.0003424,0.0008383,0.01164,0.0006962,0.001118,0.000843,2.861e-06,0,0.001076,0.0003567,19.69,0.09266,0,0,0.0002756
14400000000,14700000000,4340570461,0,351604835,0.0003386,0.0008326,0.01164,0.0006962,0.001118,0.0008364,9.537e-07,0,0.001257,0.0001431,24.32,0.1149,0,0,0.0002451
14700000000,15000000000,4340570461,0,351604835,0.0002031,0.0008335,0.01164,0.0006962,0.001118,0.0008364,7.629e-06,0,0.0006762,0.001928,21.66,0.1048,0,0,0.0003653
15000000000,15300000000,4340570461,0,351604835,0.000227,0.0008354,0.01164,0.0006962,0.001118,0.000843,5.722e-06,0,0.0008001,0.001072,20.73,0.09926,0,0,0.0001116
15300000000,15600000000,4340570461,0,351604835,0.000227,0.0008354,0.01164,0.0006962,0.001118,0.0008421,2.861e-06,0,0.001894,0.0002146,24.15,0.115,0,0,0.0001545
15600000000,15900000000,4340570461,0,351604835,0.0002098,0.0008383,0.01164,0.0006962,0.001118,0.000843,9.537e-07,0,0.0007048,0.0001431,22.9,0.1107,0,0,6.39e-05
15900000000,16200000000,4340570461,0,351604835,0.0002222,0.000843,0.01164,0.0007029,0.001123,0.0008554,4.768e-06,0,0.0009737,0.0006428,10.46,0.04825,0,0,0.0002222
16200000000,16500000000,4340570461,0,351604835,0.0002108,0.0008354,0.01164,0.0007162,0.001137,0.0008535,4.768e-06,0,0.000699,0.0007858,23.32,0.1121,0,0,0.0001345
16500000000,16800000000,4340570461,0,351604835,0.000227,0.0008335,0.01164,0.0007162,0.001137,0.0008345,9.537e-07,0,0.002087,7.153e-05,24.62,0.118,0,0,0.0003004
16800000000,17100000000,4340570461,0,351604835,0.0003357,0.0008411,0.01164,0.0007162,0.001137,0.000844,4.768e-06,0,0.001099,0.0004282,15.7,0.0736,0,0,0.0001564
17100000000,17400000000,4340570461,0,351604835,0.0003309,0.0008421,0.01164,0.0007162,0.001137,0.0008526,3.815e-06,0,0.002003,0.0004282,20.19,0.09502,0,0,0.0002556
17400000000,17700000000,4340570461,0,351604835,0.0003109,0.0008392,0.01164,0.0007162,0.001137,0.000844,3.815e-06,0,0.001305,0.0002861,18.36,0.08627,0,0,0.0003309
17700000000,18000000000,4340570461,0,351604835,0.0002966,0.0008335,0.01164,0.0007162,0.001137,0.0008364,2.003e-05,0,0.001085,0.002857,21.47,0.1015,0,0,0.0001059
18000000000,18300000000,4340570461,0,351604835,0.0002174,0.0008354,0.01164,0.0007162,0.001137,0.0008392,5.722e-06,0,0.0007944,0.001143,22.49,0.1085,0,0,0.0001793
18300000000,18600000000,4340570461,0,351604835,0.0001945,0.0008297,0.01164,0.0007162,0.001137,0.0008335,0,0,0.001017,7.153e-05,21.45,0.1066,0,0,0.000206
18600000000,18900000000,4340570461,0,351604835,0.0002079,0.0008354,0.01164,0.0007162,0.001137,0.0008421,3.815e-06,0,0.001162,0.0002861,14.49,0.06818,0,0,7.248e-05
18900000000,19200000000,4340570461,0,351604835,0.0002241,0.0008364,0.01164,0.0007162,0.001137,0.0008421,9.537e-07,0,0.0008688,0.0002861,21.02,0.09933,0,0,0.0001411
19200000000,19500000000,4340570461,0,351604835,0.0002184,0.0008316,0.01164,0.0007162,0.001137,0.0008383,1.907e-06,0,0.0006046,0.0004282,24.5,0.1142,0,0,0.0001612
19500000000,19800000000,4340570461,0,351604835,0.000205,0.0008316,0.01164,0.0007162,0.001137,0.0008364,2.861e-06,0,0.0009375,0.0007858,20.8,0.09888,0,0,6.294e-05
19800000000,20100000000,4340570461,0,351604835,0.0001965,0.0008316,0.01164,0.0007162,0.001137,0.0008364,1.907e-06,0,0.001078,0.0001431,21.87,0.1092,0,0,6.771e-05
20100000000,20400000000,4340570461,0,351604835,0.0001936,0.0008316,0.01164,0.0007172,0.001137,0.0008335,9.537e-07,0,0.0005865,7.153e-05,19.96,0.09737,0,0,0.000102
20400000000,20700000000,4340570461,0,351604835,0.0002031,0.0008354,0.01164,0.0007172,0.001137,0.0008421,6.676e-06,0,0.001131,0.0007858,18.85,0.09031,0,0,0.0002327
20700000000,21000000000,4340570461,0,351604835,0.0003166,0.0008373,0.01164,0.0007172,0.001137,0.0008421,4.768e-06,0,0.001904,0.0007858,23.11,0.1088,0,0,0.0002575
21000000000,21300000000,4340570461,0,351604835,0.000329,0.0008383,0.01164,0.0007172,0.001137,0.0008421,3.815e-06,0,0.001049,0.0004997,18.71,0.08572,0,0,0.0003023
21300000000,21600000000,4340570461,0,351604835,0.0002003,0.0008411,0.01164,0.0007172,0.001137,0.0008421,1.907e-06,0,0.001766,0.0001431,18.74,0.09047,0,0,3.529e-05
21600000000,21900000000,4340570461,0,351604835,0.0001869,0.0008345,0.01164,0.0007172,0.001137,0.0008392,1.907e-06,0,0.0007544,0.0001431,17.84,0.08844,0,0,0.0001202
21900000000,22200000000,4340570461,0,351604835,0.0003119,0.0008354,0.01164,0.0007172,0.001137,0.0008421,1.907e-06,0,0.0139,7.153e-05,19.93,0.09107,0,0,0.000124
22200000000,22500000000,4340570461,0,351604835,0.0003281,0.0008373,0.01164,0.0007172,0.001137,0.0008421,5.722e-06,0,0.001299,0.0009289,16.12,0.07486,0,0,0.0002785
22500000000,22800000000,4340570461,0,351604835,0.0003309,0.0008326,0.01164,0.0007172,0.001137,0.0008335,2.861e-06,0,0.001675,0.0002861,18.77,0.08577,0,0,0.0002851
22800000000,23100000000,4340570461,0,351604835,0.0003176,0.000843,0.01164,0.0007172,0.001137,0.0008478,9.537e-06,0,0.000968,0.001215,14.54,0.06671,0,0,0.0002203
23100000000,23400000000,4340570461,0,351604835,0.0003223,0.0008373,0.01164,0.0007172,0.001137,0.0008392,5.722e-06,0,0.0009899,0.0002861,20.27,0.09399,0,0,0.0001335
23400000000,23700000000,4340570461,0,351604835,0.000329,0.0008421,0.01164,0.0007172,0.001137,0.000845,1.144e-05,0,0.000906,0.001358,17.19,0.08012,0,0,0.0003319
23700000000,24000000000,4340570461,0,351604835,0.000289,0.0008364,0.01164,0.0007172,0.001137,0.0008421,2.384e-05,0,0.0008717,0.001785,25.33,0.1159,0,0,0.000165
24000000000,24300000000,4340570461,0,351604835,0.0002308,0.0008373,0.01164,0.0007172,0.001137,0.000843,1.049e-05,0,0.001038,0.001499,24.16,0.1127,0,0,0.0002518
24300000000,24600000000,4340570461,0,351604835,0.0002146,0.0008307,0.01164,0.0007172,0.001137,0.0008402,2.861e-06,0,0.0008326,0.0002861,18.81,0.08724,0,0,0.0008106
24600000000,24900000000,4340570461,0,351604835,0.0002069,0.0008411,0.01164,0.0007172,0.001137,0.000845,1.144e-05,0,0.001158,0.001999,19.28,0.09188,0,0,0.0001516
24900000000,25200000000,4340570461,0,351604835,0.0002422,0.0008373,0.01164,0.0007172,0.001137,0.0008421,2.861e-06,0,0.001976,7.153e-05,21.16,0.09982,0,0,0.0001421
25200000000,25500000000,4340570461,0,351604835,0.000371,0.0008421,0.01164,0.0007172,0.001137,0.000845,3.815e-06,0,0.002064,0.0002146,17.78,0.08124,0,0,0.0005484
25500000000,25800000000,4340570461,0,351604835,0.0004005,0.0008373,0.01164,0.0007172,0.001137,0.0008421,1.907e-06,0,0.0009995,0.0001431,22.17,0.1011,0,0,0.0005112
25800000000,26100000000,4340570461,0,351604835,0.0004015,0.0008354,0.01164,0.0007172,0.001137,0.0008411,2.861e-06,0,0.001049,0.0002146,30.47,0.1391,0,0,0.0002222
26100000000,26400000000,4340570461,0,351604835,0.0004082,0.0008345,0.01164,0.0007172,0.001137,0.0008392,3.815e-06,0,0.001076,0.0002146,28.94,0.1324,0,0,0.0006847
26400000000,26700000000,4340570461,0,351604835,0.0002947,0.0008345,0.01164,0.0007172,0.001137,0.0008383,1.907e-06,0,0.0007401,0.0002861,30.67,0.1383,0,0,0.0001669
26700000000,27000000000,4340570461,0,351604835,0.0002365,0.0008307,0.01164,0.0007172,0.001137,0.0008373,5.722e-06,0,0.001587,0.0004282,26.85,0.124,0,0,0.0002031
27000000000,27300000000,4340570461,0,351604835,0.0003166,0.0008392,0.01164,0.0007172,0.001137,0.000843,5.722e-06,0,0.001682,0.0004282,25.3,0.1173,0,0,0.0001535
27300000000,27600000000,4340570461,0,351604835,0.0003519,0.0008373,0.01164,0.0007172,0.001137,0.0008402,2.861e-06,0,0.001167,0.0003567,20.9,0.0966,0,0,0.0003061
27600000000,27900000000,4340570461,0,351604835,0.0003834,0.0008392,0.01164,0.0007172,0.001137,0.000843,3.815e-06,0,0.001133,0.0002146,21.67,0.09824,0,0,0.0003462
27900000000,28200000000,4340570461,0,351604835,0.0003452,0.0008326,0.01164,0.0007172,0.001137,0.0008421,3.815e-06,0,0.001034,0.0004282,28.01,0.129,0,0,0.0004358
28200000000,28500000000,4340570461,0,351604835,0.0002737,0.0008354,0.01164,0.0007172,0.001137,0.0008411,4.768e-06,0,0.005028,0.0002146,22.43,0.1047,0,0,0.0004025
28500000000,28800000000,4340570461,0,351604835,0.0004091,0.0008383,0.01164,0.0007172,0.001137,0.0008411,1.144e-05,0,0.001194,0.002499,27.62,0.1292,0,0,0.0006142
28800000000,29100000000,4340570461,0,351604835,0.0003548,0.0008335,0.01164,0.0007172,0.001137,0.0008402,7.629e-06,0,0.001049,0.001286,25.16,0.1173,0,0,0.0003319
29100000000,29400000000,4340570461,0,351604835,0.0003643,0.0008364,0.01164,0.0007172,0.001137,0.0008392,1.907e-06,0,0.001768,7.153e-05,26.83,0.1255,0,0,0.0002298
29400000000,29700000000,4340570461,0,351604835,0.0004034,0.0008364,0.01164,0.0007172,0.001137,0.0008411,2.861e-06,0,0.001427,0.0001431,21.18,0.09802,0,0,0.0002871
29700000000,30000000000,4340570461,0,351604835,0.0003872,0.0008326,0.01164,0.0007172,0.001137,0.0008373,6.676e-06,0,0.002502,0.001286,27.81,0.1315,0,0,0.0004511
30000000000,30300000000,4340570461,0,351604835,0.0002899,0.000844,0.01164,0.0007286,0.00115,0.0008602,1.335e-05,0,0.001291,0.001572,25.07,0.1173,0,0,0.0001593
30300000000,30600000000,4340570461,0,351604835,0.0002432,0.0008345,0.01164,0.0007353,0.001156,0.0008392,3.815e-06,0,0.002048,0.0006428,25.69,0.1231,0,0,0.0004683
30600000000,30900000000,4340570461,0,351604835,0.000226,0.0008373,0.01164,0.0007353,0.001156,0.0008402,6.676e-06,0,0.001652,0.001358,23.8,0.113,0,0,0.0001373
30900000000,31200000000,4340570461,0,351604835,0.0002365,0.0008383,0.01164,0.0007353,0.001156,0.0008402,3.815e-06,0,0.001095,0.0001431,20.24,0.09618,0,0,0.0001812
31200000000,31500000000,4340570461,0,351604835,0.0002489,0.0008392,0.01164,0.0007353,0.001156,0.0008411,2.861e-06,0,0.001108,0.0002146,26.59,0.1284,0,0,7.439e-05
31500000000,31800000000,4340570461,0,351604835,0.0002451,0.0008373,0.01164,0.0007353,0.001156,0.0008392,6.676e-06,0,0.00102,0.0009289,15.27,0.07148,0,0,0.0001707
31800000000,32100000000,4340570461,0,351604835,0.0002279,0.0008326,0.01164,0.0007362,0.001156,0.0008402,8.583e-06,0,0.0009146,0.001358,21.2,0.09796,0,0,0.000227
32100000000,32400000000,4340570461,0,351604835,0.0002365,0.0008335,0.01164,0.0007362,0.001156,0.0008392,2.861e-06,0,0.00123,0.0002146,22.47,0.1052,0,0,0.0001745
32400000000,32700000000,4340570461,0,351604835,0.0002337,0.0008364,0.01164,0.0007362,0.001156,0.0008411,9.537e-07,0,0.0009632,0.0001431,19.85,0.09246,0,0,0.0001373
32700000000,33000000000,4340570461,0,351604835,0.0002346,0.0008326,0.01164,0.0007362,0.001156,0.0008364,3.815e-06,0,0.001032,0.0002146,18.4,0.08452,0,0,0.0001736
33000000000,33300000000,4340570461,0,351604835,0.0002089,0.0008326,0.01164,0.0007362,0.001156,0.0008364,1.907e-06,0,0.000699,0.0002146,26.8,0.1261,0,0,0.0001326
33300000000,33600000000,4340570461,0,351604835,0.0002146,0.0008307,0.01164,0.0007362,0.001156,0.0008373,6.676e-06,0,0.0008402,0.001499,27.06,0.1296,0,0,0.0001326
33600000000,33900000000,4340570461,0,351604835,0.0003033,0.0008383,0.01164,0.0007362,0.001156,0.000844,4.768e-06,0,0.001776,0.0002146,19.48,0.08922,0,0,9.632e-05
33900000000,34200000000,4340570461,0,351604835,0.000329,0.0008354,0.01164,0.0007362,0.001156,0.0008392,2.861e-06,0,0.001097,0.0001431,23.6,0.1102,0,0,0.0002975
34200000000,34500000000,4340570461,0,351604835,0.0001898,0.0008326,0.01164,0.0007362,0.001156,0.0008354,2.861e-06,0,0.0008974,0.0004997,19.81,0.0935,0,0,0.0001545
34500000000,34800000000,4340570461,0,351604835,0.0001631,0.0008297,0.01164,0.0007362,0.001156,0.0008354,2.861e-06,0,0.0008345,0.0003567,13.61,0.06672,0,0,0.0002041
34800000000,35100000000,4340570461,0,351604835,0.0001993,0.0008354,0.01164,0.0007362,0.001156,0.0008411,5.722e-06,0,0.0007448,0.001286,19.34,0.09102,0,0,0.000226
35100000000,35400000000,4340570461,0,351604835,0.0002117,0.0008373,0.01164,0.0007362,0.001156,0.0008383,2.861e-06,0,0.001398,7.153e-05,20.78,0.09643,0,0,6.199e-05
35400000000,35700000000,4340570461,0,351604835,0.0001993,0.0008354,0.01164,0.0007362,0.001156,0.0008392,1.907e-06,0,0.0007486,0.0001431,18.43,0.0868,0,0,0.0001326
35700000000,36000000000,4340570461,0,351604835,0.0001955,0.0008278,0.01164,0.0007362,0.001156,0.0008297,1.907e-06,0,0.0007362,7.153e-05,21.22,0.1013,0,0,0.0001802
36000000000,36300000000,4340570461,0,351604835,0.0002022,0.0008287,0.01164,0.0007362,0.001156,0.0008316,1.907e-06,0,0.001129,0.0002146,25.5,0.1235,0,0,0.00033
36300000000,36600000000,4340570461,0,351604835,0.0002089,0.0008335,0.01164,0.0007362,0.001156,0.0008373,1.144e-05,0,0.000946,0.002071,16.68,0.07772,0,0,0.0001488
36600000000,36900000000,4340570461,0,351604835,0.0002079,0.0008373,0.01164,0.0007362,0.001156,0.0008411,1.907e-06,0,0.0008497,0.0001431,23.12,0.111,0,0,0.0001917
36900000000,37200000000,4340570461,0,351604835,0.0001879,0.0008316,0.01164,0.0007362,0.001156,0.0008373,7.629e-06,0,0.001751,0.001358,16.34,0.07892,0,0,0.0002909
37200000000,37500000000,4340570461,0,351604835,0.0002069,0.0008345,0.01164,0.0007362,0.001156,0.0008392,3.815e-06,0,0.001072,0.0004282,20.52,0.09682,0,0,0.0001307
37500000000,37800000000,4340570461,0,351604835,0.0002089,0.0008345,0.01164,0.0007362,0.001156,0.0008373,5.722e-06,0,0.0008364,0.001286,17.81,0.08261,0,0,0.0003662
37800000000,38100000000,4340570461,0,351604835,0.0001898,0.0008345,0.01164,0.0007362,0.001156,0.0008383,5.722e-06,0,0.0007868,0.0009995,17.36,0.08315,0,0,0.0001163
51000000000,51300000000,4340570461,0,45,0.000205,0.001038,0.01158,7.82e-05,0.0005083,0.001043,0,0,0.0008507,7.153e-05,25.28,0.123,0,0,0.0001183
51300000000,51600000000,4340570461,0,45,0.0002441,0.001041,0.0116,7.82e-05,0.0005093,0.001051,4.768e-06,0,0.001945,0.0005713,23.04,0.1124,0,0,0.0001345
51600000000,51900000000,4340570461,0,45,0.0003748,0.001053,0.0116,7.82e-05,0.0005093,0.001066,2.861e-06,0,0.00123,0.0004282,25.36,0.1201,0,0,0.0002327
51900000000,52200000000,4340570461,0,45,0.0003643,0.001041,0.0116,7.82e-05,0.0005093,0.00106,9.537e-07,0,0.0009804,7.153e-05,23.67,0.1132,0,0,0.0002489
53400000000,53700000000,4340570461,0,351662441,0.0006809,0.0008402,0.01166,2.384e-05,0.0004416,0.0008488,1.049e-05,0,0.001881,0.001572,20.28,0.09121,0,0,0.000371
53700000000,54000000000,4340570461,0,351662441,0.0007668,0.000823,0.01166,2.48e-05,0.0004416,0.0008326,2.861e-06,0,0.001558,0.0006428,25.82,0.1172,0,0,0.0009203
54000000000,54300000000,4340570461,0,351662441,0.0006094,0.0008268,0.01166,2.48e-05,0.0004425,0.0008326,9.537e-07,0,0.004402,0.0001431,18.29,0.0807,0,0,0.0009003
54300000000,54600000000,4340570461,0,351662441,0.0007992,0.0008287,0.01166,2.48e-05,0.0004425,0.0008345,5.722e-06,0,0.003708,0.0007143,20.09,0.0882,0,0,0.0008678
54600000000,54900000000,4340570461,0,351662441,0.0005112,0.0008287,0.01166,2.48e-05,0.0004425,0.0008383,6.39e-05,0,0.00182,0.003216,28.17,0.1279,0,0,0.0007915
56400000000,56700000000,4340570461,0,1270963,0.0006771,0.0007687,0.01166,3.91e-05,0.0004702,0.0007734,3.815e-06,0,0.001324,0.0002861,18.07,0.07642,0,0,0.0006285
56700000000,57000000000,4340570461,0,1270963,0.0005093,0.0007668,0.01166,3.91e-05,0.0004702,0.0007772,0,0,0.001314,7.153e-05,19.84,0.08553,0,0,0.0006018
57000000000,57300000000,4340570461,0,1270963,0.0004349,0.0007668,0.01166,3.91e-05,0.0004711,0.0007811,9.537e-07,0,0.001287,7.153e-05,23.21,0.1031,0,0,0.0003061
57300000000,57600000000,4340570461,0,1270963,0.0006123,0.0007715,0.01166,4.005e-05,0.0004711,0.000783,2.861e-06,0,0.003185,0.0001431,22.9,0.09902,0,0,0.0002537
57600000000,57900000000,4340570461,0,1270963,0.000452,0.0007715,0.01166,3.91e-05,0.0004711,0.0007763,0.0001183,0,0.001429,0.004143,18.61,0.08122,0,0,0.0002098
57900000000,58200000000,4340570461,0,1270963,0.0003872,0.0007648,0.01166,3.91e-05,0.0004711,0.0007706,3.815e-06,0,0.0008869,0.001143,22.8,0.1001,0,0,0.0003233
58200000000,58500000000,4340570461,0,1270963,0.0004005,0.0007591,0.01166,3.91e-05,0.0004711,0.0007629,0,0,0.00104,7.153e-05,22.4,0.09916,0,0,0.0001965
58500000000,58800000000,4340570461,0,1270963,0.0003862,0.0007648,0.01166,3.91e-05,0.0004711,0.0007734,9.537e-07,0,0.00264,7.153e-05,20.58,0.08878,0,0,0.0008259
58800000000,59100000000,4340570461,0,1270963,0.0004139,0.000762,0.01166,3.91e-05,0.0004711,0.0007687,9.537e-07,0,0.001225,7.153e-05,21.61,0.09505,0,0,0.0004253
59100000000,59400000000,4340570461,0,1270963,0.0003748,0.0007648,0.01166,3.91e-05,0.0004711,0.0007715,7.629e-06,0,0.000947,0.001429,21.26,0.09214,0,0,0.0002794
59400000000,59700000000,4340570461,0,1270963,0.0001545,0.0007687,0.01166,4.005e-05,0.0004721,0.0007744,1.049e-05,0,0.000701,0.001572,12.04,0.0537,0,0,0.0003681
59700000000,60000000000,4340570461,0,1270963,0.0003881,0.0007734,0.01166,4.101e-05,0.0004721,0.0007753,3.815e-06,0,0.002857,0.0007858,20.29,0.08849,0,0,0.0002775
60000000000,60300000000,4340570461,0,1270963,0.0004139,0.0007696,0.01166,4.005e-05,0.0004721,0.0007744,1.907e-06,0,0.001034,7.153e-05,20.43,0.08972,0,0,0.0006971
60300000000,60600000000,4340570461,0,1270963,0.0004025,0.0007668,0.01166,4.005e-05,0.0004721,0.0007744,9.537e-07,0,0.0008478,7.153e-05,21.64,0.09383,0,0,0.0004835
60600000000,60900000000,4340570461,0,1270963,0.0004168,0.0007648,0.01166,4.005e-05,0.0004721,0.0007696,9.537e-07,0,0.001392,0.0001431,21.58,0.09398,0,0,0.0003786
87000000000,87300000000,4340570461,0,1271272,0.0006638,0.0008411,0.0116,0.0006428,0.001072,0.0008459,1.907e-06,0,0.001673,7.153e-05,24.25,0.1031,0,0,0.000865
87300000000,87600000000,4340570461,0,1271272,0.0007019,0.0008326,0.0116,0.0006418,0.001072,0.000843,0,0,0.001507,7.153e-05,26.13,0.1127,0,0,0.0007782
88500000000,88800000000,4340570461,0,4303443962,0.0008364,0.0007839,0.01166,0.0006237,0.001051,0.0007915,2.861e-06,0,0.002087,0.0006428,27.37,0.1276,0,0,0.0005836
88800000000,89100000000,4340570461,0,4303443962,0.0008965,0.0007772,0.01166,0.0006237,0.001051,0.0007801,2.861e-06,0,0.002274,0.0003567,30.38,0.1425,0,0,0.0007839
89100000000,89400000000,4340570461,0,4303443962,0.0006561,0.0007763,0.01166,0.0006237,0.001051,0.000782,9.537e-07,0,0.004066,0.0001431,26.15,0.1192,0,0,0.0008135
89400000000,89700000000,4340570461,0,4303443962,0.0006542,0.0007715,0.01166,0.0006237,0.001051,0.0007753,3.815e-06,0,0.001223,0.0006428,22.24,0.1004,0,0,0.000453
89700000000,90000000000,4340570461,0,4303443962,0.000391,0.0007782,0.01166,0.0006237,0.001051,0.0007839,0.000124,0,0.001415,0.00293,25,0.1188,0,0,0.0001917
90000000000,90300000000,4340570461,0,4303443962,0.0001955,0.0007725,0.01166,0.0006237,0.001051,0.0007811,9.537e-06,0,0.0006132,0.0007858,23,0.112,0,0,0.0002651
90300000000,90600000000,4340570461,0,4303443962,0.0001936,0.0007849,0.01166,0.0006237,0.001051,0.0007887,8.583e-06,0,0.0007315,0.001215,20.09,0.09769,0,0,0.0001783
90600000000,90900000000,4340570461,0,4303443962,0.0002003,0.0007744,0.01166,0.0006237,0.001051,0.0007811,0,0,0.0004816,0,25.79,0.1274,0,0,0.0002117
101100000000,101400000000,4340570461,0,6566745,0.0006866,0.0009098,0.01164,0.0006428,0.001072,0.0009203,9.537e-07,0,0.001503,7.153e-05,20.4,0.08093,0,0,0.0004168
101400000000,101700000000,4340570461,0,6566745,0.0004959,0.0009146,0.01164,0.0006428,0.001072,0.0009184,8.488e-05,0,0.002781,0.002357,21.38,0.08621,0,0,0.0006704
101700000000,102000000000,4340570461,0,6566745,0.0001841,0.0009022,0.01164,0.0006418,0.001072,0.0009146,9.537e-07,0,0.002384,7.153e-05,17.58,0.07541,0,0,0.0005331
102600000000,102900000000,4340570461,0,371617923,0.0007,0.0007982,0.01166,0.0006466,0.001076,0.0008049,1.907e-06,0,0.00194,7.153e-05,26.66,0.1107,0,0,0.0007315
102900000000,103200000000,4340570461,0,371617923,0.0005312,0.0007925,0.01166,0.0006456,0.001076,0.0007973,9.537e-07,0,0.001419,7.153e-05,27.21,0.1143,0,0,0.000535
103200000000,103500000000,4340570461,0,371617923,0.0007076,0.0008001,0.01166,0.0006456,0.001076,0.000803,1.907e-06,0,0.003174,7.153e-05,27.14,0.1108,0,0,0.0006275
103500000000,103800000000,4340570461,0,371617923,0.0006781,0.0007954,0.01166,0.0006447,0.001074,0.0008173,0,0,0.001829,0,27.6,0.1143,0,0,0.0004025
103800000000,104100000000,4340570461,0,371617923,0.0006142,0.0007963,0.01166,0.0006447,0.001074,0.000802,3.719e-05,0,0.003502,0.001215,24.18,0.09788,0,0,0.0007067
104100000000,104400000000,4340570461,0,371617923,0.0004168,0.0007992,0.01166,0.0006437,0.001074,0.000802,3.815e-06,0,0.001389,0.0001431,26.34,0.1088,0,0,0.0004835
104400000000,104700000000,4340570461,0,371617923,0.000412,0.0007925,0.01166,0.0006437,0.001074,0.0007992,9.537e-07,0,0.001045,7.153e-05,28.71,0.1216,0,0,0.0003214
104700000000,105000000000,4340570461,0,371617923,0.000432,0.0007925,0.01166,0.0006447,0.001074,0.000802,9.537e-07,0,0.001184,7.153e-05,26.52,0.1121,0,0,0.0004988
105000000000,105300000000,4340570461,0,371617923,0.0004177,0.0007954,0.01166,0.0006437,0.001074,0.000802,0,0,0.0009632,7.153e-05,28.43,0.1189,0,0,0.0003023
105300000000,105600000000,4340570461,0,371617923,0.000411,0.0007906,0.01166,0.0006447,0.001074,0.0007935,0,0,0.000988,7.153e-05,27.89,0.1154,0,0,0.0005655
110100000000,110400000000,4340570461,0,1436373504,0.0005636,0.0008106,0.01166,0.0006533,0.001091,0.0008144,4.768e-06,0,0.002373,0.0005713,21.24,0.09896,0,0,0.0003004
110400000000,110700000000,4340570461,0,1436373504,0.0005913,0.000802,0.01166,0.0006533,0.001091,0.0008078,1.907e-06,0,0.001358,7.153e-05,23.56,0.1129,0,0,0.0004578
110700000000,111000000000,4340570461,0,1436373504,0.0006132,0.0008059,0.01166,0.0006533,0.001091,0.0008097,1.907e-06,0,0.001602,7.153e-05,24.59,0.1186,0,0,0.000556
116100000000,116400000000,4340570461,0,7576168,0.0002022,0.0007229,0.01166,0.0006237,0.001041,0.0007257,3.815e-06,0,0.0008821,0.0001431,22.63,0.1001,0,0,0.0006094
116400000000,116700000000,4340570461,0,7576168,0.0001888,0.0007219,0.01166,0.0006237,0.001041,0.0007286,3.815e-06,0,0.0007448,0.0007143,22.44,0.0994,0,0,0.0004396
116700000000,117000000000,4340570461,0,7576168,0.000185,0.0007153,0.01166,0.0006237,0.001041,0.0007172,9.537e-07,0,0.0007238,0.0002146,21.46,0.09554,0,0,0.0001793
117000000000,117300000000,4340570461,0,7576168,0.0001831,0.0007162,0.01166,0.0006237,0.001041,0.00072,2.861e-06,0,0.0007553,0.0002861,20.04,0.09038,0,0,8.583e-05
117300000000,117600000000,4340570461,0,7576168,0.0001888,0.0007172,0.01166,0.0006237,0.001041,0.0007229,2.861e-06,0,0.006569,0.0004997,24.77,0.1112,0,0,0.0001173
117600000000,117900000000,4340570461,0,7576168,0.000371,0.000721,0.01166,0.0006237,0.001041,0.0007286,2.861e-06,0,0.001345,0.0001431,22.74,0.09832,0,0,0.0007524
117900000000,118200000000,4340570461,0,7576168,0.0003681,0.0007181,0.01166,0.0006237,0.001041,0.0007219,2.861e-06,0,0.001396,0.0001068,24.93,0.106,0,0,0.0002823
118200000000,118500000000,4340570461,0,7576168,0.0003672,0.0007229,0.01166,0.0006237,0.001041,0.0007286,1.907e-06,0,0.001041,0.0001431,24.39,0.1031,0,0,0.0004215
118500000000,118800000000,4340570461,0,7576168,0.0003614,0.0007133,0.01166,0.0006227,0.001041,0.0007162,9.537e-07,0,0.00103,7.153e-05,26.47,0.1134,0,0,0.0004053
118800000000,119100000000,4340570461,0,7576168,0.0003395,0.0007172,0.01166,0.0006237,0.001041,0.0007248,2.861e-06,0,0.000824,0.0001431,18.4,0.07491,0,0,0.000474
119100000000,119400000000,4340570461,0,7576168,0.0003891,0.0007191,0.01166,0.0006237,0.001041,0.0007257,1.526e-05,0,0.001146,0.0004997,26.55,0.1159,0,0,0.0003862
119400000000,119700000000,4340570461,0,7576168,0.0001945,0.0007162,0.01166,0.0006237,0.001041,0.000721,8.583e-06,0,0.000906,0.0005713,23.13,0.1038,0,0,0.0002308
119700000000,120000000000,4340570461,0,7576168,0.0001907,0.00072,0.01166,0.0006237,0.001041,0.0007238,2.861e-06,0,0.0008526,0.0001431,24.94,0.1087,0,0,7.343e-05
126000000000,126300000000,4340570461,0,2801813330,0.0004425,0.0008755,0.01163,0.0006695,0.001097,0.0008945,2.861e-06,0,0.002003,0.0004997,13.68,0.05677,0,0,0.0006514
126300000000,126600000000,4340570461,0,2801813330,0.0003338,0.0008707,0.01163,0.0006628,0.001091,0.0008793,1.907e-06,0,0.001068,7.153e-05,11.75,0.04991,0,0,0.0002766
126600000000,126900000000,4340570461,0,2801813330,0.0002871,0.000864,0.01163,0.0006618,0.001091,0.0008698,0,0,0.001377,7.153e-05,14.53,0.06695,0,0,0.0004158
128100000000,128400000000,4340570461,0,711221,0.0006104,0.0007753,0.01166,0.000617,0.001034,0.000783,1.907e-06,0,0.001354,0.0002146,27.75,0.1269,0,0,0.0006371
128400000000,128700000000,4340570461,0,711221,0.0005932,0.000782,0.01166,0.000617,0.001034,0.0007849,2.861e-06,0,0.003124,7.153e-05,25.17,0.1153,0,0,0.0006609
128700000000,129000000000,4340570461,0,711221,0.0007076,0.0007792,0.01166,0.000617,0.001034,0.0007839,1.907e-06,0,0.001783,0.0001431,30.84,0.1403,0,0,0.0009613
129000000000,129300000000,4340570461,0,711221,0.000701,0.0007782,0.01166,0.000617,0.001034,0.0007858,9.537e-07,0,0.001455,0.0001431,27.97,0.127,0,0,0.0005713
129300000000,129600000000,4340570461,0,711221,0.0007,0.0007782,0.01166,0.000617,0.001034,0.000782,3.815e-05,0,0.001585,0.001358,24.46,0.112,0,0,0.0004692
129600000000,129900000000,4340570461,0,711221,0.0004539,0.0007801,0.01166,0.000617,0.001034,0.0007849,2.861e-06,0,0.00178,0.0001431,24.77,0.1169,0,0,0.0002365
129900000000,130200000000,4340570461,0,711221,0.0004454,0.0007772,0.01166,0.000617,0.001034,0.000782,9.537e-07,0,0.001169,0.0001431,27.69,0.13,0,0,0.0003195
130200000000,130500000000,4340570461,0,711221,0.0003672,0.0007792,0.01166,0.000617,0.001034,0.000782,2.67e-05,0,0.001266,0.0009995,23.65,0.1117,0,0,0.0002079
130500000000,130800000000,4340570461,0,711221,0.0002232,0.0007782,0.01166,0.000617,0.001034,0.0007811,1.907e-06,0,0.0006838,0.0001431,24.5,0.1171,0,0,0.000164
130800000000,131100000000,4340570461,0,711221,0.0002346,0.0007744,0.01166,0.000617,0.001034,0.0007763,9.537e-07,0,0.0007286,7.153e-05,26,0.1225,0,0,0.0002689
144600000000,144900000000,4340570461,0,352498692,0.0008526,0.0008202,0.01166,0.0006628,0.001093,0.0008259,6.676e-06,0,0.002304,0.0006428,25.81,0.1237,0,0,0.0006504
144900000000,145200000000,4340570461,0,352498692,0.0008545,0.0008116,0.01166,0.0006628,0.001093,0.0008202,0,0,0.01454,7.153e-05,28.34,0.1364,0,0,0.0006409
145200000000,145500000000,4340570461,0,352498692,0.0007944,0.0008183,0.01166,0.0006599,0.001093,0.0008259,8.583e-06,0,0.002426,0.0004282,23.87,0.1117,0,0,0.0007868
145500000000,145800000000,4340570461,0,352498692,0.0007954,0.000824,0.01166,0.0006571,0.001093,0.0008268,5.722e-06,0,0.002678,0.001072,23.99,0.1128,0,0,0.0008116
145800000000,146100000000,4340570461,0,352498692,0.0007143,0.0008192,0.01166,0.0006599,0.001093,0.0008354,5.436e-05,0,0.001804,0.002071,24.94,0.1184,0,0,0.0004807
151200000000,151500000000,4340570461,0,257499345,0.0001564,0.0008602,0.01163,0.0006456,0.001076,0.0008812,4.768e-06,0,0.0009975,0.001358,22.8,0.1147,0,0,4.578e-05
151500000000,151800000000,4340570461,0,257499345,0.0002947,0.0008659,0.01163,0.0006456,0.001076,0.0008717,9.537e-06,0,0.009277,0.0009995,18.78,0.09179,0,0,0.0001583
151800000000,152100000000,4340570461,0,257499345,0.0004206,0.0008545,0.01163,0.0006456,0.001076,0.000865,0,0,0.001282,7.153e-05,27.04,0.1281,0,0,0.0005083
152100000000,152400000000,4340570461,0,257499345,0.0002308,0.0008583,0.01163,0.0006456,0.001076,0.000865,5.722e-06,0,0.003117,0.0006428,18.41,0.08899,0,0,0.0001469
161100000000,161400000000,4340570461,0,1269397,0.0002279,0.0009785,0.01149,0.0006561,0.001085,0.0009804,2.861e-06,0,0.0007954,7.153e-05,22.26,0.1006,0,0,0.0002098
161400000000,161700000000,4340570461,0,1269397,0.0002346,0.0009747,0.01149,0.0006542,0.001083,0.0009766,3.815e-06,0,0.0006838,0.0002861,22.98,0.1051,0,0,0.0002537
161700000000,162000000000,4340570461,0,1269397,0.0003357,0.000967,0.01149,0.0006552,0.001083,0.0009727,2.861e-06,0,0.003082,0.0007858,27.48,0.1219,0,0,0.0008326
162000000000,162300000000,4340570461,0,1269397,0.0004854,0.0009623,0.01149,0.0006475,0.001076,0.0009699,9.537e-07,0,0.00152,0.0001431,29.2,0.1265,0,0,0.0003452
162300000000,162600000000,4340570461,0,1269397,0.0002651,0.0009508,0.01151,0.0006409,0.00107,0.0009604,0,0,0.0009651,0.0001431,28.79,0.1263,0,0,7.629e-05
162600000000,162900000000,4340570461,0,1269397,0.0001955,0.0009451,0.01151,0.0006409,0.00107,0.000948,9.537e-07,0,0.0006857,0.0002146,28.29,0.1267,0,0,0.0001774
162900000000,163200000000,4340570461,0,1269397,0.0001974,0.000947,0.01151,0.0006409,0.00107,0.0009546,4.768e-06,0,0.001637,0.0009995,24.06,0.1076,0,0,0.0003691
163200000000,163500000000,4340570461,0,1269397,0.0003929,0.0009518,0.01151,0.0006409,0.00107,0.0009584,5.722e-06,0,0.003162,0.0007143,25.84,0.1134,0,0,0.0003319
163500000000,163800000000,4340570461,0,1269397,0.0004539,0.000947,0.01151,0.0006409,0.00107,0.0009508,1.907e-06,0,0.001429,7.153e-05,25.66,0.1131,0,0,0.000349
163800000000,164100000000,4340570461,0,1269397,0.0004539,0.0009518,0.01151,0.0006409,0.00107,0.0009651,1.907e-06,0,0.001215,0.0001431,27.68,0.123,0,0,0.0002613
165300000000,165600000000,4340570461,0,711219,0.0008154,0.0008221,0.01164,3.338e-05,0.0004625,0.0008307,5.722e-06,0,0.00206,0.0009289,23.67,0.1008,0,0,0.0008717
165600000000,165900000000,4340570461,0,711219,0.0008888,0.0008202,0.01164,3.338e-05,0.0004635,0.0008268,9.537e-07,0,0.001734,7.153e-05,31.95,0.1415,0,0,0.0007153
165900000000,166200000000,4340570461,0,711219,0.0007877,0.0008202,0.01164,3.338e-05,0.0004635,0.0008345,9.537e-07,0,0.001791,0.0001431,31.19,0.1357,0,0,0.0006809
166200000000,166500000000,4340570461,0,711219,0.0005865,0.0008125,0.01164,3.338e-05,0.0004635,0.0008259,9.537e-07,0,0.003944,0.0001431,28.64,0.1253,0,0,0.0003338
166500000000,166800000000,4340570461,0,711219,0.000617,0.000823,0.01164,3.433e-05,0.0004635,0.0008307,7.057e-05,0,0.01834,0.001858,29.36,0.1249,0,0,0.000412
166800000000,167100000000,4340570461,0,711219,0.0004778,0.0008125,0.01164,3.338e-05,0.0004635,0.0008154,9.537e-07,0,0.00123,7.153e-05,27.26,0.121,0,0,0.0004368
167100000000,167400000000,4340570461,0,711219,0.0004797,0.0008173,0.01164,3.338e-05,0.0004635,0.0008259,3.815e-06,0,0.001474,0.0004282,15.89,0.06746,0,0,0.0004168
167400000000,167700000000,4340570461,0,711219,0.0005016,0.0008154,0.01164,3.338e-05,0.0004635,0.0008259,2.861e-06,0,0.002193,0.0001431,27.94,0.1218,0,0,0.0005951
167700000000,168000000000,4340570461,0,711219,0.0004921,0.0008221,0.01164,3.338e-05,0.0004635,0.0008268,1.907e-06,0,0.002071,0.0001431,31.36,0.1379,0,0,0.0004272
168000000000,168300000000,4340570461,0,711219,0.0004711,0.0008183,0.01164,3.338e-05,0.0004635,0.000823,4.292e-05,0,0.001328,0.003071,26.2,0.1131,0,0,0.0004082
168300000000,168600000000,4340570461,0,711219,0.0002337,0.0008183,0.01164,3.433e-05,0.0004644,0.0008249,4.768e-06,0,0.001129,0.0005713,26.29,0.1199,0,0,0.0001373
168600000000,168900000000,4340570461,0,711219,0.0002327,0.0008116,0.01164,3.433e-05,0.0004644,0.0008154,2.861e-06,0,0.001007,0.0004997,25.99,0.1167,0,0,0.0001068
168900000000,169200000000,4340570461,0,711219,0.0002317,0.0008192,0.01164,3.433e-05,0.0004644,0.0008259,3.815e-06,0,0.0008669,0.0004282,20.98,0.09357,0,0,0.0001678
169200000000,169500000000,4340570461,0,711219,0.000247,0.0008125,0.01164,3.433e-05,0.0004644,0.0008144,9.537e-07,0,0.0008144,7.153e-05,27.76,0.1221,0,0,0.000247
169500000000,169800000000,4340570461,0,711219,0.0002213,0.0008097,0.01164,3.338e-05,0.0004635,0.000824,1.907e-06,0,0.001163,0.0001431,23.76,0.1092,0,0,0.0001068
169800000000,170100000000,4340570461,0,711219,0.0002384,0.0008059,0.01164,3.147e-05,0.0004616,0.0008125,1.907e-06,0,0.006516,0.0001431,24.68,0.1154,0,0,0.0003052
170100000000,170400000000,4340570461,0,711219,0.0002623,0.0008068,0.01164,2.766e-05,0.0004578,0.0008106,4.768e-06,0,0.001867,0.0007143,25.85,0.1136,0,0,0.000165
170400000000,170700000000,4340570461,0,711219,0.0002394,0.0007963,0.01164,2.766e-05,0.0004578,0.0008049,0,0,0.001457,7.153e-05,27.7,0.1244,0,0,0.0001822
170700000000,171000000000,4340570461,0,711219,0.000246,0.000803,0.01164,2.766e-05,0.0004578,0.0008078,8.583e-06,0,0.000865,0.001286,22.95,0.1052,0,0,0.0004692
171000000000,171300000000,4340570461,0,711219,0.000351,0.0008039,0.01164,2.766e-05,0.0004578,0.0008087,3.815e-06,0,0.006645,0.0006428,15.84,0.07177,0,0,6.58e-05
172500000000,172800000000,4340570461,0,4469371300,0.0006609,0.0008535,0.01146,1.907e-05,0.0004358,0.0008593,2.861e-06,0,0.001444,0.0009289,24.24,0.09562,0,0,0.0004358
172800000000,173100000000,4340570461,0,4469371300,0.0006647,0.0008545,0.01146,2.003e-05,0.0004377,0.0008631,9.537e-07,0,0.00346,0.0001431,24.48,0.09789,0,0,0.0007782
173100000000,173400000000,4340570461,0,4469371300,0.0006247,0.0008478,0.01146,2.098e-05,0.0004377,0.0008516,9.537e-07,0,0.001471,7.153e-05,23.05,0.09189,0,0,0.0005198
173400000000,173700000000,4340570461,0,4469371300,0.0004501,0.0008526,0.01146,2.003e-05,0.0004368,0.0008574,9.537e-07,0,0.001041,7.153e-05,24.42,0.09966,0,0,0.000268
173700000000,174000000000,4340570461,0,4469371300,0.0005274,0.0008554,0.01146,2.003e-05,0.0004368,0.0008612,4.101e-05,0,0.006424,0.001072,20.54,0.08323,0,0,0.0006161
174000000000,174300000000,4340570461,0,4469371300,0.0003929,0.0008535,0.01146,2.003e-05,0.0004368,0.0008631,0,0,0.0009174,7.153e-05,21.35,0.09063,0,0,0.0003366
174300000000,174600000000,4340570461,0,4469371300,0.0003939,0.0008554,0.01146,2.003e-05,0.0004368,0.0008621,9.537e-07,0,0.0009737,7.153e-05,24.31,0.1011,0,0,0.0007524
174600000000,174900000000,4340570461,0,4469371300,0.0003891,0.0008564,0.01146,2.098e-05,0.0004387,0.000865,4.768e-06,0,0.001009,0.0008574,19.84,0.08025,0,0,0.0003166
174900000000,175200000000,4340570461,0,4469371300,0.0003872,0.0008574,0.01146,2.098e-05,0.0004387,0.0008612,2.861e-06,0,0.001572,7.153e-05,20.61,0.08422,0,0,0.0004034
175200000000,175500000000,4340570461,0,4469371300,0.0003834,0.0008574,0.01146,2.193e-05,0.0004396,0.0008612,4.768e-06,0,0.0008936,0.0007858,21.44,0.08909,0,0,0.0001898
175500000000,175800000000,4340570461,0,4469371300,0.000411,0.0008564,0.01146,2.193e-05,0.0004396,0.0008602,2.193e-05,0,0.002213,0.0005713,19.86,0.08757,0,0,0.0003052
187200000000,187500000000,4340570461,0,38707776,0.0005121,0.0007896,0.01163,0.000679,0.001106,0.0008049,9.537e-07,0,0.001377,7.153e-05,14.95,0.06826,0,0,0.0005875
187500000000,187800000000,4340570461,0,38707776,0.0004692,0.0007839,0.01163,0.0006781,0.001106,0.0007925,4.768e-06,0,0.001043,0.0007143,13.5,0.05348,0,0,0.0005875
187800000000,188100000000,4340570461,0,38707776,0.0004816,0.0007811,0.01163,0.0006781,0.001106,0.0007868,5.722e-06,0,0.001392,0.0005713,14.26,0.0632,0,0,0.0002384
188100000000,188400000000,4340570461,0,38707776,0.0004292,0.000783,0.01163,0.0006781,0.001106,0.0007915,3.815e-06,0,0.00107,0.0004282,11.42,0.04865,0,0,0.000494
188400000000,188700000000,4340570461,0,38707776,0.0005322,0.000783,0.01163,0.000679,0.001108,0.0007944,5.531e-05,0,0.002842,0.002998,16.23,0.07427,0,0,0.0008783
188700000000,189000000000,4340570461,0,38707776,0.0003185,0.0007868,0.01163,0.0006781,0.001106,0.0008049,9.537e-07,0,0.0009937,7.153e-05,17.92,0.08127,0,0,0.0002346
189000000000,189300000000,4340570461,0,38707776,0.0003557,0.0007734,0.01163,0.0006781,0.001106,0.000783,1.907e-06,0,0.001324,0.0005713,18.75,0.08827,0,0,0.0003376
189300000000,189600000000,4340570461,0,38707776,0.00033,0.000782,0.01163,0.0006781,0.001106,0.0007849,7.629e-06,0,0.001232,0.001499,15.76,0.0721,0,0,0.0001192
189600000000,189900000000,4340570461,0,38707776,0.0003433,0.0007811,0.01163,0.0006781,0.001106,0.0007839,3.815e-06,0,0.001026,0.0004997,18.16,0.08327,0,0,0.0003681
189900000000,190200000000,4340570461,0,38707776,0.0003233,0.0007811,0.01163,0.0006781,0.001106,0.0007839,1.907e-06,0,0.0008888,0.0001431,14.94,0.06759,0,0,0.0002232
190200000000,190500000000,4340570461,0,38707776,0.000268,0.0007839,0.01163,0.0006781,0.001106,0.0007915,2.67e-05,0,0.001276,0.0006428,17.23,0.08379,0,0,0.0005283
190500000000,190800000000,4340570461,0,38707776,0.0001764,0.000782,0.01163,0.0006695,0.001099,0.0007877,9.537e-07,0,0.001551,7.153e-05,16.21,0.079,0,0,0.0002728
190800000000,191100000000,4340570461,0,38707776,0.0001831,0.0007763,0.01163,0.0006599,0.001089,0.0007839,9.537e-07,0,0.0007391,7.153e-05,20.84,0.1023,0,0,0.0001993
191100000000,191400000000,4340570461,0,38707776,0.0001774,0.0007772,0.01163,0.0006599,0.001089,0.000782,1.907e-06,0,0.0007401,7.153e-05,17.21,0.08341,0,0,0.0001097
191400000000,191700000000,4340570461,0,38707776,0.0001717,0.0007782,0.01163,0.0006599,0.001089,0.000782,9.537e-07,0,0.0005379,7.153e-05,19.76,0.09806,0,0,0.0001869
192300000000,192600000000,4340570461,0,372629458,0.0008307,0.0008869,0.01166,0.0006533,0.001081,0.0008888,3.815e-06,0,0.004883,0.0006428,26.08,0.1159,0,0,0.0009575
192600000000,192900000000,4340570461,0,372629458,0.0007849,0.0008812,0.01166,0.0006533,0.001081,0.000886,2.861e-06,0,0.004852,0.0003567,27.11,0.1202,0,0,0.001156
192900000000,193200000000,4340570461,0,372629458,0.0007982,0.0008821,0.01166,0.0006533,0.001081,0.000885,5.722e-06,0,0.002037,0.001215,26.04,0.1149,0,0,0.0009022
193200000000,193500000000,4340570461,0,372629458,0.0007715,0.0008774,0.01166,0.0006533,0.001081,0.0008841,9.537e-07,0,0.002258,7.153e-05,27.3,0.1209,0,0,0.0008402
193500000000,193800000000,4340570461,0,372629458,0.000597,0.0008812,0.01166,0.0006533,0.001081,0.0008841,0.0001068,0,0.002827,0.003716,22.44,0.1009,0,0,0.001678
193800000000,194100000000,4340570461,0,372629458,0.0002117,0.0008631,0.01166,0.0006409,0.001068,0.0008812,1.907e-06,0,0.02179,7.153e-05,23.09,0.1081,0,0,0.0001173
194100000000,194400000000,4340570461,0,372629458,0.0002317,0.0008612,0.01166,0.000638,0.001066,0.000865,3.815e-06,0,0.001047,0.0005713,20.61,0.0964,0,0,0.0001116
194400000000,194700000000,4340570461,0,372629458,0.0002375,0.0008564,0.01166,0.0006304,0.001059,0.0008774,2.861e-06,0,0.001076,7.153e-05,22.82,0.1059,0,0,0.0002069
194700000000,195000000000,4340570461,0,372629458,0.0002289,0.0008612,0.01166,0.0006304,0.001059,0.0008793,1.907e-06,0,0.003567,0.0003567,25.56,0.1172,0,0,0.0004368
195000000000,195300000000,4340570461,0,372629458,0.000226,0.0008516,0.01166,0.0006304,0.001059,0.0008554,2.861e-06,0,0.001076,0.0007143,23.43,0.1087,0,0,0.0002489
195300000000,195600000000,4340570461,0,372629458,0.0002213,0.0008593,0.01166,0.0006304,0.001059,0.0008631,6.676e-06,0,0.0007887,0.0007858,25.42,0.1187,0,0,0.0001469
195600000000,195900000000,4340570461,0,372629458,0.0002079,0.0008574,0.01166,0.0006304,0.001059,0.0008621,3.815e-06,0,0.0009499,7.153e-05,26.67,0.126,0,0,0.0001469
195900000000,196200000000,4340570461,0,372629458,0.0002098,0.0008593,0.01166,0.0006304,0.001059,0.0008631,1.907e-06,0,0.001524,0.0004997,23.97,0.1141,0,0,0.000289
201300000000,201600000000,4340570461,0,372629458,0.0003996,0.0008545,0.01166,0.0006304,0.001059,0.0008602,1.431e-05,0,0.001554,0.001499,19.18,0.08661,0,0,0.0002689
201600000000,201900000000,4340570461,0,372629458,0.00035,0.0008554,0.01166,0.0006304,0.001059,0.0008612,2.861e-06,0,0.0008869,0.0001431,20.68,0.09658,0,0,0.0002079
201900000000,202200000000,4340570461,0,372629458,0.0003662,0.0008507,0.01166,0.0006304,0.001059,0.0008583,7.629e-06,0,0.001116,0.0007143,25.36,0.1175,0,0,0.000349
202200000000,202500000000,4340570461,0,372629458,0.00037,0.0008564,0.01166,0.0006313,0.001059,0.0008593,1.431e-05,0,0.0256,0.001429,16.32,0.07364,0,0,0.0002928
202500000000,202800000000,4340570461,0,372629458,0.0004539,0.0008545,0.01166,0.0006304,0.001059,0.0008602,5.722e-06,0,0.001444,0.001429,27.53,0.1268,0,0,0.0003872
202800000000,203100000000,4340570461,0,372629458,0.0004702,0.000844,0.01166,0.0006304,0.001059,0.0008488,0,0,0.00135,0,30.55,0.1365,0,0,0.0003319
203100000000,203400000000,4340570461,0,372629458,0.0002308,0.0008459,0.01166,0.0006304,0.001059,0.0008478,9.537e-07,0,0.0008802,0.0002146,27.56,0.1263,0,0,0.0001478
203400000000,203700000000,4340570461,0,372629458,0.0003681,0.0008526,0.01166,0.0006313,0.00106,0.0008593,7.629e-06,0,0.003784,0.001143,27.34,0.1251,0,0,0.0003853
203700000000,204000000000,4340570461,0,372629458,0.0005264,0.0008459,0.01166,0.0006313,0.00106,0.0008564,1.907e-06,0,0.001511,0.0002146,31.11,0.14,0,0,0.0005388
204000000000,204300000000,4340570461,0,372629458,0.0002012,0.0008488,0.01166,0.0006313,0.001059,0.0008574,2.861e-06,0,0.001129,0.0002861,27.14,0.1256,0,0,0.000103
204300000000,204600000000,4340570461,0,372629458,0.0002975,0.0008554,0.01166,0.0006313,0.00106,0.0008612,7.629e-06,0,0.003242,0.001358,19.11,0.08782,0,0,0.0002556
204600000000,204900000000,4340570461,0,372629458,0.0004263,0.0008621,0.01166,0.0006313,0.001059,0.0008698,1.431e-05,0,0.002289,0.002857,25.87,0.1192,0,0,0.0003872
204900000000,205200000000,4340570461,0,372629458,0.0004377,0.0008535,0.01166,0.0006304,0.001059,0.0008659,3.815e-06,0,0.001009,0.0009289,28.03,0.1285,0,0,0.0004387
205200000000,205500000000,4340570461,0,372629458,0.0004177,0.0008554,0.01166,0.0006304,0.001059,0.0008745,9.537e-07,0,0.001169,7.153e-05,27.51,0.1278,0,0,0.0009527
205500000000,205800000000,4340570461,0,372629458,0.0004015,0.0008507,0.01166,0.0006304,0.001059,0.000865,1.907e-06,0,0.001308,0.0002146,25.91,0.1211,0,0,0.0001535
205800000000,206100000000,4340570461,0,372629458,0.0001812,0.0008516,0.01166,0.0006304,0.001059,0.0008659,0,0,0.0008678,7.153e-05,20.05,0.09342,0,0,2.193e-05
206100000000,206400000000,4340570461,0,372629458,0.0003567,0.0008526,0.01166,0.0006313,0.00106,0.0008612,1.24e-05,0,0.002914,0.001928,27.1,0.1254,0,0,0.000102
206400000000,206700000000,4340570461,0,372629458,0.0004234,0.0008669,0.01166,0.0006533,0.001081,0.0008869,1.24e-05,0,0.002869,0.001215,10.45,0.04635,0,0,0.0002928
206700000000,207000000000,4340570461,0,372629458,0.000371,0.0008621,0.01166,0.0006533,0.001081,0.0008793,7.629e-06,0,0.001265,0.0005713,27.17,0.1266,0,0,0.0005178
207000000000,207300000000,4340570461,0,372629458,0.0001764,0.0008554,0.01166,0.0006533,0.001081,0.0008783,0,0,0.0007668,0,27.57,0.129,0,0,0.0002995
207300000000,207600000000,4340570461,0,372629458,0.0001841,0.0008516,0.01166,0.0006533,0.001081,0.0008535,0,0,0.0008602,7.153e-05,24.62,0.1157,0,0,0.0002203
207600000000,207900000000,4340570461,0,372629458,0.0001822,0.0008478,0.01166,0.0006533,0.001081,0.0008535,9.537e-07,0,0.000802,7.153e-05,26.25,0.1222,0,0,0.000494
207900000000,208200000000,4340570461,0,372629458,0.000186,0.0008602,0.01166,0.0006533,0.001081,0.000864,2.861e-06,0,0.00141,0.0004997,25.11,0.1161,0,0,0.0002127
208200000000,208500000000,4340570461,0,372629458,0.0001717,0.0008516,0.01166,0.0006542,0.001081,0.0008621,4.768e-06,0,0.002491,0.001286,27.1,0.1271,0,0,0.0001144
208500000000,208800000000,4340570461,0,372629458,0.0001726,0.0008564,0.01166,0.0006542,0.001081,0.0008621,3.815e-06,0,0.0007219,0.0002861,18.65,0.08671,0,0,0.0001402
208800000000,209100000000,4340570461,0,372629458,0.000164,0.0008545,0.01166,0.0006533,0.001081,0.000865,0,0,0.0006962,0,24.23,0.1133,0,0,1.431e-05
209100000000,209400000000,4340570461,0,372629458,0.0003481,0.0008583,0.01166,0.0006542,0.001083,0.0008726,2.861e-06,0,0.003265,0.0002146,26.47,0.1205,0,0,0.0003996
209400000000,209700000000,4340570461,0,372629458,0.0004807,0.0008554,0.01166,0.0006542,0.001081,0.0008707,2.861e-06,0,0.001507,0.0008574,31.34,0.1434,0,0,0.0008564
209700000000,210000000000,4340570461,0,372629458,0.0003977,0.0008545,0.01166,0.0006542,0.001083,0.0008621,1.907e-06,0,0.001562,0.0001431,28.67,0.1306,0,0,0.0006542
210000000000,210300000000,4340570461,0,372629458,0.0001698,0.0008545,0.01166,0.0006542,0.001083,0.0008621,1.907e-06,0,0.0006037,0.0002146,25.51,0.1203,0,0,0.0001421
210300000000,210600000000,4340570461,0,372629458,0.0001545,0.0008488,0.01166,0.0006542,0.001083,0.0008574,0,0,0.0006065,7.153e-05,24.95,0.1208,0,0,0.0001335
210600000000,210900000000,4340570461,0,372629458,0.0001736,0.0008535,0.01166,0.0006542,0.001083,0.0008583,4.768e-06,0,0.000761,0.0008574,21.82,0.1019,0,0,8.488e-05
210900000000,211200000000,4340570461,0,372629458,0.0001764,0.0008516,0.01166,0.0006542,0.001083,0.0008583,3.815e-06,0,0.0005331,0.0004282,21.39,0.09991,0,0,5.817e-05
211200000000,211500000000,4340570461,0,372629458,0.0001669,0.0008507,0.01166,0.0006542,0.001083,0.0008593,0,0,0.0008717,0,26.76,0.125,0,0,0.000186
211500000000,211800000000,4340570461,0,372629458,0.0001745,0.0008469,0.01166,0.0006542,0.001083,0.0008593,2.861e-06,0,0.0007706,0.0004997,24.99,0.1154,0,0,0.0001783
211800000000,212100000000,4340570461,0,372629458,0.0001698,0.0008526,0.01166,0.0006542,0.001083,0.0008593,9.537e-07,0,0.0006495,7.153e-05,27.13,0.1256,0,0,4.101e-05
212100000000,212400000000,4340570461,0,372629458,0.000412,0.0008554,0.01166,0.0006542,0.001083,0.0008612,9.537e-07,0,0.00341,0.0002146,31.37,0.1445,0,0,0.0003452
212400000000,212700000000,4340570461,0,372629458,0.0003967,0.0008516,0.01166,0.0006542,0.001083,0.0008535,9.537e-07,0,0.001097,7.153e-05,25.78,0.1199,0,0,0.0002089
212700000000,213000000000,4340570461,0,372629458,0.0004225,0.0008545,0.01166,0.0006542,0.001083,0.0008621,3.815e-06,0,0.001469,0.0004282,27.97,0.1297,0,0,0.0004368
213000000000,213300000000,4340570461,0,372629458,0.0002213,0.0008535,0.01166,0.0006542,0.001083,0.000864,1.907e-06,0,0.0009861,0.0001431,26.42,0.1228,0,0,0.0001755
213300000000,213600000000,4340570461,0,372629458,0.0001822,0.0008612,0.01166,0.0006542,0.001083,0.0008669,7.629e-06,0,0.00156,0.001215,20.39,0.0949,0,0,0.0001488
213600000000,213900000000,4340570461,0,372629458,0.0001678,0.0008564,0.01166,0.0006542,0.001083,0.000864,9.537e-07,0,0.0006819,7.153e-05,26.72,0.1257,0,0,0.0005188
213900000000,214200000000,4340570461,0,372629458,0.0001831,0.0008516,0.01166,0.0006542,0.001083,0.0008574,9.537e-07,0,0.0007038,0.0002861,28.18,0.1297,0,0,0.0003815
214200000000,214500000000,4340570461,0,372629458,0.0001669,0.0008469,0.01166,0.0006495,0.001078,0.0008526,0,0,0.0005703,7.153e-05,26.4,0.1263,0,0,0.0002289
214500000000,214800000000,4340570461,0,372629458,0.0001717,0.0008526,0.01166,0.0006495,0.001078,0.0008583,2.861e-06,0,0.0007343,0.0004997,19.95,0.0943,0,0,0.0001402
214800000000,215100000000,4340570461,0,372629458,0.0002422,0.0008478,0.01166,0.0006495,0.001078,0.0008593,9.537e-07,0,0.002319,0.0001431,27.41,0.1286,0,0,0.0001097
215100000000,215400000000,4340570461,0,372629458,0.0004139,0.0008593,0.01166,0.0006495,0.001078,0.0008621,1.049e-05,0,0.001446,0.0007858,25.86,0.1192,0,0,0.0004282
215400000000,215700000000,4340570461,0,372629458,0.0004005,0.0008526,0.01166,0.0006495,0.001078,0.0008631,9.537e-07,0,0.0009165,7.153e-05,28.63,0.1334,0,0,0.0002213
215700000000,216000000000,4340570461,0,372629458,0.0003071,0.0008469,0.01166,0.0006495,0.001078,0.0008583,3.815e-06,0,0.0009689,0.0004997,27.93,0.1292,0,0,0.0002594
216000000000,216300000000,4340570461,0,372629458,0.0003862,0.0008621,0.01166,0.0006495,0.00108,0.0008736,5.722e-06,0,0.002865,0.0004997,25.07,0.1169,0,0,0.000227
222300000000,222600000000,4340570461,0,3269833998,0.000598,0.0007286,0.01166,4.101e-05,0.0004702,0.0007353,9.537e-06,0,0.003296,0.00243,21.87,0.09464,0,0,0.0007925
222600000000,222900000000,4340570461,0,3269833998,0.0005894,0.0007296,0.01166,3.719e-05,0.0004663,0.0007343,8.583e-06,0,0.003166,0.001785,18.54,0.0794,0,0,0.0003624
222900000000,223200000000,4340570461,0,3269833998,0.0006151,0.0007334,0.01166,3.815e-05,0.0004673,0.0007381,1.335e-05,0,0.001413,0.001785,11.36,0.04621,0,0,0.0006266
223200000000,223500000000,4340570461,0,3269833998,0.0006351,0.0007248,0.01166,3.815e-05,0.0004673,0.0007334,0,0,0.001312,7.153e-05,22.99,0.09954,0,0,0.0008469
223500000000,223800000000,4340570461,0,3269833998,0.0006104,0.0007296,0.01166,3.815e-05,0.0004673,0.0007353,9.823e-05,0,0.00189,0.002857,24.04,0.1048,0,0,0.0007439
223800000000,224100000000,4340570461,0,3269833998,0.0004272,0.0007315,0.01166,3.815e-05,0.0004673,0.0007353,4.768e-06,0,0.001574,0.0009995,20.62,0.09238,0,0,0.0003347
224100000000,224400000000,4340570461,0,3269833998,0.0003109,0.0007324,0.01166,3.815e-05,0.0004673,0.0007372,3.815e-06,0,0.003521,0.0009289,26.49,0.1206,0,0,0.0003042
224400000000,224700000000,4340570461,0,3269833998,0.0004778,0.0007238,0.01166,3.815e-05,0.0004683,0.0007362,9.537e-07,0,0.001984,0.0003567,28.18,0.1269,0,0,0.0005751
224700000000,225000000000,4340570461,0,3269833998,0.0002766,0.0007296,0.01166,3.815e-05,0.0004673,0.0007439,9.537e-07,0,0.001024,0.0001431,28.27,0.1294,0,0,0.0004482
225000000000,225300000000,4340570461,0,3269833998,0.0003014,0.0007267,0.01166,3.815e-05,0.0004683,0.0007353,1.907e-06,0,0.00351,0.0005713,7.804,0.03163,0,0,0.000267
225300000000,225600000000,4340570461,0,3269833998,0.0005064,0.0007286,0.01166,3.91e-05,0.0004683,0.0007381,6.676e-06,0,0.001375,0.001499,31.41,0.1419,0,0,0.0007935
225600000000,225900000000,4340570461,0,3269833998,0.0002947,0.0007343,0.01166,3.91e-05,0.0004692,0.0007391,1.717e-05,0,0.001526,0.002213,18.22,0.08296,0,0,0.0005646
225900000000,226200000000,4340570461,0,3269833998,0.0001717,0.0007324,0.01166,3.91e-05,0.0004692,0.0007372,1.907e-06,0,0.0009003,0.0001431,28.86,0.1367,0,0,0.0002775
226200000000,226500000000,4340570461,0,3269833998,0.0001707,0.0007219,0.01166,3.91e-05,0.0004692,0.0007315,0,0,0.0006447,0,25.41,0.118,0,0,0.0003748
226500000000,226800000000,4340570461,0,3269833998,0.0001774,0.0007305,0.01166,3.91e-05,0.0004692,0.0007362,9.537e-06,0,0.0007763,0.001072,20.23,0.09371,0,0,0.0002069
226800000000,227100000000,4340570461,0,3269833998,0.0001736,0.0007324,0.01166,3.91e-05,0.0004692,0.0007343,3.815e-06,0,0.0008869,0.0003567,19.4,0.0916,0,0,0.0002527
227100000000,227400000000,4340570461,0,3269833998,0.0003996,0.0007324,0.01166,4.005e-05,0.0004702,0.0007372,9.537e-07,0,0.003658,0.0002861,25.68,0.1144,0,0,0.000865
227400000000,227700000000,4340570461,0,3269833998,0.0004539,0.0007267,0.01166,3.91e-05,0.0004692,0.0007324,9.537e-06,0,0.001495,0.001072,22.15,0.09832,0,0,0.000308
227700000000,228000000000,4340570461,0,3269833998,0.0004883,0.0007324,0.01166,3.91e-05,0.0004692,0.0007362,2.861e-06,0,0.00135,0.0005713,24.5,0.1091,0,0,0.0006971
228000000000,228300000000,4340570461,0,3269833998,0.0004225,0.0007334,0.01166,3.91e-05,0.0004692,0.0007534,1.907e-06,0,0.001225,0.0002146,29.28,0.1326,0,0,0.0005808
228300000000,228600000000,4340570461,0,3269833998,0.0001726,0.0007315,0.01166,4.005e-05,0.0004692,0.0007524,8.583e-06,0,0.0007353,0.00243,25.46,0.1177,0,0,0.0001802
228600000000,228900000000,4340570461,0,3269833998,0.0001707,0.0007277,0.01166,4.101e-05,0.0004702,0.0007429,0,0,0.0006742,0,23.37,0.1079,0,0,0.0001411
228900000000,229200000000,4340570461,0,3269833998,0.0004139,0.0007315,0.01166,4.101e-05,0.0004711,0.0007391,9.537e-07,0,0.004044,0.0002146,25.86,0.1154,0,0,0.0003319
229200000000,229500000000,4340570461,0,3269833998,0.0004272,0.0007248,0.01166,4.196e-05,0.0004711,0.0007286,9.537e-07,0,0.001093,0.0001431,26.34,0.1199,0,0,0.0005941
229500000000,229800000000,4340570461,0,3269833998,0.0001726,0.0007372,0.01166,4.101e-05,0.0004702,0.0007401,9.537e-07,0,0.000597,0.0001431,18.21,0.0865,0,0,0.0001583
229800000000,230100000000,4340570461,0,3269833998,0.0001688,0.0007296,0.01166,4.101e-05,0.0004702,0.0007353,8.583e-06,0,0.0007372,0.001072,15.5,0.07379,0,0,0.0001984
230100000000,230400000000,4340570461,0,3269833998,0.0001574,0.0007324,0.01166,4.101e-05,0.0004702,0.0007372,3.815e-06,0,0.0005293,0.0009289,19.82,0.09673,0,0,0.0001621
230400000000,230700000000,4340570461,0,3269833998,0.0001593,0.0007343,0.01166,4.101e-05,0.0004711,0.0007372,3.815e-06,0,0.0005875,0.0008574,18.59,0.08871,0,0,5.531e-05
230700000000,231000000000,4340570461,0,3269833998,0.000164,0.0007353,0.01166,4.101e-05,0.0004702,0.000741,3.815e-06,0,0.0007029,0.0004282,16.41,0.07901,0,0,0.0004473
231000000000,231300000000,4340570461,0,3269833998,0.0001621,0.0007334,0.01166,4.101e-05,0.0004711,0.0007381,2.861e-06,0,0.001732,0.0007858,16.23,0.07833,0,0,0.000124
231300000000,231600000000,4340570461,0,3269833998,0.0004311,0.0007343,0.01166,4.101e-05,0.0004711,0.000741,9.537e-07,0,0.003407,0.0001431,25.91,0.1212,0,0,0.000247
231600000000,231900000000,4340570461,0,3269833998,0.0004168,0.0007324,0.01166,4.101e-05,0.0004711,0.0007372,2.861e-06,0,0.001625,0.0002861,18.8,0.08881,0,0,0.0004005
231900000000,232200000000,4340570461,0,3269833998,0.0002975,0.0007372,0.01166,4.101e-05,0.0004711,0.0007458,1.907e-06,0,0.008224,0.0003567,24.71,0.1181,0,0,6.199e-05
232200000000,232500000000,4340570461,0,3269833998,0.0004787,0.0007391,0.01166,4.101e-05,0.0004711,0.0007458,2.861e-06,0,0.001526,0.0003567,23.22,0.1092,0,0,0.000639
232500000000,232800000000,4340570461,0,3269833998,0.0002747,0.0007372,0.01166,4.101e-05,0.0004711,0.000741,9.537e-07,0,0.001396,0.0001431,29.27,0.1375,0,0,0.0002766
232800000000,233100000000,4340570461,0,3269833998,0.0001774,0.0007286,0.01166,4.101e-05,0.0004711,0.0007324,0,0,0.0007515,0,24.31,0.1144,0,0,0.0007515
233100000000,233400000000,4340570461,0,3269833998,0.0003309,0.0007353,0.01166,4.101e-05,0.0004711,0.0007458,9.537e-07,0,0.00399,0.0003567,21.71,0.1007,0,0,0.000371
233400000000,233700000000,4340570461,0,3269833998,0.0004721,0.0007315,0.01166,4.196e-05,0.0004721,0.0007391,4.768e-06,0,0.0016,0.001215,20.77,0.09678,0,0,0.000639
233700000000,234000000000,4340570461,0,3269833998,0.0002146,0.0007353,0.01166,4.101e-05,0.0004711,0.0007401,1.907e-06,0,0.001127,0.0002146,24.63,0.1184,0,0,0.0001469
234000000000,234300000000,4340570461,0,3269833998,0.000165,0.0007391,0.01166,4.101e-05,0.0004711,0.0007439,4.768e-06,0,0.001232,0.0004997,16.27,0.07901,0,0,0.0001822
234300000000,234600000000,4340570461,0,3269833998,0.0001688,0.0007334,0.01166,4.101e-05,0.0004711,0.000742,0,0,0.0008202,7.153e-05,24.73,0.1194,0,0,0.0004377
234600000000,234900000000,4340570461,0,3269833998,0.0001707,0.0007362,0.01166,4.101e-05,0.0004711,0.0007429,2.861e-06,0,0.0007477,0.0002861,20.28,0.09743,0,0,0.000102
234900000000,235200000000,4340570461,0,3269833998,0.0001669,0.0007381,0.01166,4.101e-05,0.0004711,0.0007429,1.907e-06,0,0.000802,0.0004282,24.5,0.1192,0,0,0.0005035
235200000000,235500000000,4340570461,0,3269833998,0.0001755,0.0007353,0.01166,4.101e-05,0.0004711,0.0007582,9.537e-06,0,0.0005493,0.0007858,18.15,0.08646,0,0,3.242e-05
235500000000,235800000000,4340570461,0,3269833998,0.0001764,0.0007439,0.01166,4.101e-05,0.0004711,0.0007601,7.629e-06,0,0.0008965,0.001072,18.36,0.08699,0,0,0.0001125
235800000000,236100000000,4340570461,0,3269833998,0.0001812,0.0007448,0.01166,4.101e-05,0.0004711,0.0007572,0,0,0.0006561,7.153e-05,17.25,0.08245,0,0,0.0002174
236100000000,236400000000,4340570461,0,3269833998,0.0001736,0.0007324,0.01166,4.101e-05,0.0004711,0.0007381,0,0,0.0007696,7.153e-05,22.63,0.108,0,0,6.104e-05
241200000000,241500000000,4340570461,0,3269833998,0.0002937,0.0007486,0.01166,6.58e-05,0.0004959,0.0007553,9.537e-07,0,0.002735,7.153e-05,22.71,0.114,0,0,0.0001249
241500000000,241800000000,4340570461,0,3269833998,0.0004253,0.0007391,0.01166,6.676e-05,0.0004969,0.0007505,9.537e-07,0,0.004097,0.0001431,24.97,0.1217,0,0,0.0001869
241800000000,242100000000,4340570461,0,3269833998,0.0002279,0.0007429,0.01166,6.58e-05,0.0004959,0.0007524,0,0,0.001011,7.153e-05,25.59,0.1253,0,0,0.0002241
242100000000,242400000000,4340570461,0,3269833998,0.0001659,0.000742,0.01166,6.58e-05,0.0004959,0.0007496,6.676e-06,0,0.0005331,0.0009289,21.75,0.1099,0,0,9.251e-05
242400000000,242700000000,4340570461,0,3269833998,0.0001602,0.0007486,0.01166,6.58e-05,0.0004959,0.0007515,5.722e-06,0,0.0006037,0.0005713,14.35,0.0713,0,0,0.0003691
242700000000,243000000000,4340570461,0,3269833998,0.0001507,0.0007467,0.01166,6.58e-05,0.0004959,0.0007486,2.861e-06,0,0.0004988,0.0003567,19.9,0.1034,0,0,9.727e-05
243900000000,244200000000,4340570461,0,317488584,0.0005779,0.0008106,0.01163,0.0006924,0.00112,0.0008135,9.537e-07,0,0.001326,0.0002861,29.2,0.1416,0,0,0.0005646
244200000000,244500000000,4340570461,0,317488584,0.0008144,0.0007925,0.01163,0.0006704,0.001097,0.0008068,3.815e-06,0,0.01834,0.0005713,30.19,0.1439,0,0,0.0006199
244500000000,244800000000,4340570461,0,317488584,0.0008564,0.0007858,0.01163,0.0006647,0.001093,0.0007935,2.861e-06,0,0.008698,0.0002861,27.72,0.1334,0,0,0.00068
244800000000,245100000000,4340570461,0,317488584,0.000845,0.0007887,0.01163,0.0006647,0.001093,0.0007935,1.907e-06,0,0.006058,0.0002146,24.72,0.1167,0,0,0.0005875
245100000000,245400000000,4340570461,0,317488584,0.0006723,0.0007868,0.01163,0.0006647,0.001093,0.0007906,7.629e-05,0,0.001694,0.001999,23.55,0.1112,0,0,0.0008526
245400000000,245700000000,4340570461,0,317488584,0.0002804,0.0007782,0.01163,0.0006657,0.001093,0.0007877,9.537e-07,0,0.002949,0.0002146,23.29,0.1134,0,0,0.0001421
245700000000,246000000000,4340570461,0,317488584,0.0001631,0.0007792,0.01163,0.0006657,0.001093,0.0007839,1.907e-06,0,0.0006084,0.0002146,22.15,0.1128,0,0,4.959e-05
246000000000,246300000000,4340570461,0,317488584,0.0001583,0.0007772,0.01163,0.0006657,0.001093,0.000782,9.537e-07,0,0.0006046,7.153e-05,23.51,0.1203,0,0,4.578e-05
251700000000,252000000000,4340570461,0,4304773033,0.0006714,0.001043,0.01158,0.000701,0.001129,0.001055,0,0,0.002079,7.153e-05,19.71,0.08896,0,0,0.0007477
252000000000,252300000000,4340570461,0,4304773033,0.0005407,0.001032,0.01158,0.0006952,0.001125,0.00104,1.907e-06,0,0.001266,0.0005713,21.24,0.09704,0,0,0.001266
252300000000,252600000000,4340570461,0,4304773033,0.0004539,0.001005,0.01158,0.0006666,0.001095,0.001011,9.537e-06,0,0.0009689,0.001785,22.53,0.1063,0,0,0.0003023
252600000000,252900000000,4340570461,0,4304773033,0.0004444,0.0009937,0.01158,0.0006571,0.001087,0.001013,2.861e-06,0,0.001089,0.0006428,21.52,0.1009,0,0,0.000495
252900000000,253200000000,4340570461,0,4304773033,0.0003729,0.0009756,0.01158,0.0006418,0.001072,0.0009823,9.06e-05,0,0.003056,0.004356,18.67,0.0889,0,0,0.0004196
253800000000,254100000000,4340570461,0,257406112,0.0005302,0.0008316,0.01166,3.529e-05,0.0004683,0.0008345,1.907e-06,0,0.001219,0.0001431,27.43,0.1327,0,0,0.0009212
254100000000,254400000000,4340570461,0,257406112,0.0005045,0.0008221,0.01166,3.433e-05,0.0004683,0.0008316,2.861e-06,0,0.00201,0.0001431,22.11,0.1073,0,0,0.0004606
254400000000,254700000000,4340570461,0,257406112,0.000493,0.0008097,0.01166,3.338e-05,0.0004673,0.0008154,0,0,0.001236,7.153e-05,25.35,0.1246,0,0,0.0004759
254700000000,255000000000,4340570461,0,257406112,0.0007401,0.0008106,0.01166,3.433e-05,0.0004683,0.0008211,0,0,0.003525,7.153e-05,23.74,0.1127,0,0,0.0003643
255000000000,255300000000,4340570461,0,257406112,0.0005884,0.0008049,0.01166,3.338e-05,0.0004683,0.0008163,6.104e-05,0,0.001732,0.001928,24.98,0.1173,0,0,0.0001516
255300000000,255600000000,4340570461,0,257406112,0.0001583,0.0008068,0.01166,3.338e-05,0.0004673,0.0008183,0,0,0.0006199,0,18.29,0.08842,0,0,0.0003338
255600000000,255900000000,4340570461,0,257406112,0.0001755,0.0008001,0.01166,3.338e-05,0.0004673,0.0008049,0,0,0.0006199,7.153e-05,24.95,0.1192,0,0,0.0001163
255900000000,256200000000,4340570461,0,257406112,0.0001822,0.0008001,0.01166,3.338e-05,0.0004673,0.0008097,1.907e-06,0,0.0005875,7.153e-05,24.05,0.1139,0,0,3.719e-05
256200000000,256500000000,4340570461,0,257406112,0.0001736,0.0008116,0.01166,3.338e-05,0.0004673,0.0008249,9.537e-07,0,0.0008373,0.0001431,25.24,0.1226,0,0,0.0001163
256500000000,256800000000,4340570461,0,257406112,0.0001678,0.000802,0.01166,3.338e-05,0.0004673,0.0008211,0,0,0.0007086,0,25.34,0.1236,0,0,0.0002728
256800000000,257100000000,4340570461,0,257406112,0.0004368,0.0008106,0.01166,3.338e-05,0.0004673,0.0008192,6.676e-06,0,0.00346,0.0009289,21.58,0.103,0,0,0.0002947
257100000000,257400000000,4340570461,0,257406112,0.0004892,0.0008078,0.01166,3.338e-05,0.0004683,0.0008116,4.768e-06,0,0.01515,0.0004997,24.67,0.1182,0,0,0.0002546
257400000000,257700000000,4340570461,0,257406112,0.0004683,0.0008011,0.01166,3.338e-05,0.0004683,0.0008059,9.537e-07,0,0.001202,0.0001431,25.38,0.1216,0,0,0.0006905
257700000000,258000000000,4340570461,0,257406112,0.0004663,0.000802,0.01166,3.338e-05,0.0004683,0.0008078,8.583e-06,0,0.003975,0.001572,27,0.1286,0,0,0.0004807
258000000000,258300000000,4340570461,0,257406112,0.000474,0.0008068,0.01166,3.338e-05,0.0004673,0.0008087,9.537e-07,0,0.001247,0.0001431,28.28,0.1367,0,0,0.0006857
258300000000,258600000000,4340570461,0,257406112,0.0004759,0.0008011,0.01166,3.242e-05,0.0004673,0.0008097,9.537e-07,0,0.001808,7.153e-05,29.37,0.1403,0,0,0.0005445
260100000000,260400000000,4340570461,0,4302245502,0.0007973,0.0007782,0.01166,0.0006466,0.001074,0.0008259,8.583e-06,0,0.001768,0.0006428,20.88,0.09612,0,0,0.0008497
261000000000,261300000000,4340570461,0,317302925,0.0007849,0.000803,0.01166,0.0006666,0.001095,0.0008087,7.629e-06,0,0.001928,0.001429,25.87,0.1048,0,0,0.0005093
261300000000,261600000000,4340570461,0,317302925,0.000843,0.0007906,0.01166,0.0006657,0.001095,0.0008001,6.676e-06,0,0.002346,0.001215,27.86,0.1132,0,0,0.0006132
261600000000,261900000000,4340570461,0,317302925,0.0007782,0.0007868,0.01166,0.0006657,0.001095,0.0007925,1.907e-06,0,0.001783,0.0002146,23.91,0.09591,0,0,0.001057
261900000000,262200000000,4340570461,0,317302925,0.0007496,0.000782,0.01166,0.0006657,0.001095,0.0007877,9.537e-07,0,0.002228,7.153e-05,24.19,0.0955,0,0,0.0004206
262200000000,262500000000,4340570461,0,317302925,0.0007954,0.0007887,0.01166,0.0006657,0.001095,0.0007935,7.534e-05,0,0.002224,0.003284,25.7,0.1039,0,0,0.0005398
262500000000,262800000000,4340570461,0,317302925,0.0002317,0.0007896,0.01166,0.0006657,0.001095,0.0007963,4.768e-06,0,0.0009327,0.0002861,23.89,0.1021,0,0,0.0002813
262800000000,263100000000,4340570461,0,317302925,0.000247,0.0007839,0.01166,0.0006657,0.001095,0.0007868,3.815e-06,0,0.0008087,0.0002861,25.78,0.1117,0,0,0.0003462
263100000000,263400000000,4340570461,0,317302925,0.0002508,0.000782,0.01166,0.0006657,0.001095,0.0007877,3.815e-06,0,0.000802,0.0002861,19.01,0.07905,0,0,0.000494
263400000000,263700000000,4340570461,0,317302925,0.000268,0.0007744,0.01166,0.0006657,0.001095,0.000783,5.722e-06,0,0.0006914,0.0004997,17.25,0.07171,0,0,0.0001402
263700000000,264000000000,4340570461,0,317302925,0.0002651,0.000783,0.01166,0.0006657,0.001095,0.0007849,9.537e-06,0,0.00412,0.001572,23.99,0.101,0,0,0.0004187
264000000000,264300000000,4340570461,0,317302925,0.0002842,0.0007753,0.01166,0.0006657,0.001095,0.0007782,5.722e-06,0,0.007378,0.0004282,26.62,0.1171,0,0,9.155e-05
264300000000,264600000000,4340570461,0,317302925,0.0002718,0.0007782,0.01166,0.0006657,0.001095,0.000782,2.861e-06,0,0.0008678,0.0001431,20.06,0.08808,0,0,0.0003643
264600000000,264900000000,4340570461,0,317302925,0.0002575,0.0007772,0.01166,0.0006657,0.001095,0.0007811,3.815e-06,0,0.003059,0.0001431,21.64,0.1013,0,0,0.0002089
264900000000,265200000000,4340570461,0,317302925,0.0002642,0.000782,0.01166,0.0006657,0.001095,0.0007849,4.768e-06,0,0.000865,0.0004997,13.79,0.06255,0,0,0.0001278
265200000000,265500000000,4340570461,0,317302925,0.000268,0.0007772,0.01166,0.0006657,0.001095,0.0007811,1.907e-06,0,0.001173,7.153e-05,22.67,0.1072,0,0,8.202e-05
265500000000,265800000000,4340570461,0,317302925,0.0002775,0.0007772,0.01166,0.0006657,0.001095,0.0007801,3.815e-06,0,0.001217,0.0004282,23.09,0.1083,0,0,0.0001392
265800000000,266100000000,4340570461,0,317302925,0.0002804,0.0007782,0.01166,0.0006666,0.001097,0.000783,3.815e-06,0,0.001228,0.0002146,23.76,0.1094,0,0,0.0001354
266100000000,266400000000,4340570461,0,317302925,0.0002546,0.0007792,0.01166,0.0006676,0.001097,0.0007954,3.815e-06,0,0.001186,0.0002146,27.8,0.1227,0,0,6.39e-05
266400000000,266700000000,4340570461,0,317302925,0.000268,0.0007811,0.01166,0.0006676,0.001097,0.0007896,1.049e-05,0,0.003288,0.001429,22.09,0.09767,0,0,0.0002785
266700000000,267000000000,4340570461,0,317302925,0.0002575,0.0007801,0.01166,0.0006676,0.001097,0.0007839,3.815e-06,0,0.0008898,0.0003567,24.13,0.1031,0,0,0.0001678
267000000000,267300000000,4340570461,0,317302925,0.0002747,0.0007734,0.01166,0.0006676,0.001097,0.000782,3.815e-06,0,0.001724,0.0002861,27.78,0.1188,0,0,0.0002136
267300000000,267600000000,4340570461,0,317302925,0.0002747,0.0007744,0.01166,0.0006676,0.001097,0.0007839,2.861e-06,0,0.003273,0.0004282,29.86,0.1331,0,0,0.0002251
267600000000,267900000000,4340570461,0,317302925,0.0002747,0.0007725,0.01166,0.0006676,0.001097,0.0007744,3.815e-06,0,0.0009842,0.0003567,25.52,0.1074,0,0,0.0001831
267900000000,268200000000,4340570461,0,317302925,0.0002775,0.0007744,0.01166,0.0006676,0.001097,0.0007811,4.768e-06,0,0.0008535,0.0006428,23.87,0.1027,0,0,0.0003176
268200000000,268500000000,4340570461,0,317302925,0.0002756,0.0007801,0.01166,0.0006676,0.001097,0.000783,3.815e-06,0,0.0008183,0.0001431,23.57,0.09904,0,0,0.000329
268500000000,268800000000,4340570461,0,317302925,0.0002689,0.000782,0.01166,0.0006676,0.001097,0.0007849,5.722e-06,0,0.00141,0.0002146,23.48,0.09967,0,0,0.0001163
268800000000,269100000000,4340570461,0,317302925,0.0002718,0.0007792,0.01166,0.0006676,0.001097,0.000782,4.768e-06,0,0.0008545,0.0002146,24.53,0.1038,0,0,0.0001259
269100000000,269400000000,4340570461,0,317302925,0.0002689,0.0007811,0.01166,0.0006676,0.001097,0.0007839,2.861e-06,0,0.0007992,7.153e-05,21.78,0.09283,0,0,0.0003805
269400000000,269700000000,4340570461,0,317302925,0.0002794,0.0007753,0.01166,0.0006676,0.001097,0.000782,3.815e-06,0,0.0009594,0.0002146,19.36,0.08148,0,0,6.294e-05
269700000000,270000000000,4340570461,0,317302925,0.0002775,0.000783,0.01166,0.0006676,0.001097,0.0007963,2.861e-06,0,0.0008287,0.0002861,20.1,0.0862,0,0,0.000289
270000000000,270300000000,4340570461,0,317302925,0.0003366,0.0007782,0.01166,0.0006676,0.001097,0.0007839,2.193e-05,0,0.001785,0.0009289,23.32,0.1077,0,0,0.00033
270300000000,270600000000,4340570461,0,317302925,0.0004568,0.0007811,0.01166,0.0006676,0.001097,0.0007868,1.335e-05,0,0.001291,0.0007143,22.15,0.1012,0,0,0.0004492
270600000000,270900000000,4340570461,0,317302925,0.0003519,0.0007792,0.01166,0.0006676,0.001097,0.000782,1.24e-05,0,0.001266,0.0009995,23.41,0.1072,0,0,0.000474
270900000000,271200000000,4340570461,0,317302925,0.0002661,0.0007849,0.01166,0.0006676,0.001097,0.0008011,1.24e-05,0,0.001637,0.0009995,24.03,0.1118,0,0,0.0001173
271200000000,271500000000,4340570461,0,317302925,0.0002642,0.0007839,0.01166,0.0006676,0.001097,0.0007963,6.676e-06,0,0.000824,0.0009995,20.48,0.09348,0,0,0.0005264
281400000000,281700000000,4340570461,0,336036419,0.0002594,0.000782,0.01163,0.0006132,0.001041,0.0007982,4.768e-06,0,0.0007753,0.0003567,13.43,0.06231,0,0,0.000123
281700000000,282000000000,4340570461,0,336036419,0.0002556,0.0007772,0.01163,0.0006132,0.001041,0.0007915,4.768e-06,0,0.0007677,0.0007143,15.26,0.07063,0,0,0.0001392
282000000000,282300000000,4340570461,0,336036419,0.0001984,0.0007725,0.01163,0.0006132,0.001041,0.0007782,1.907e-06,0,0.0006294,7.153e-05,16.43,0.08015,0,0,0.0001726
282300000000,282600000000,4340570461,0,336036419,0.0001774,0.0007715,0.01163,0.0006132,0.001041,0.0007792,2.861e-06,0,0.0006104,7.153e-05,16,0.07934,0,0,0.0002575
282600000000,282900000000,4340570461,0,336036419,0.0001669,0.0007715,0.01163,0.0006132,0.001041,0.0007811,0,0,0.0005827,7.153e-05,17.15,0.08435,0,0,0.0002289
282900000000,283200000000,4340570461,0,336036419,0.0001783,0.0007763,0.01163,0.0006132,0.001041,0.000783,6.676e-06,0,0.001385,0.0004997,15.37,0.07359,0,0,4.864e-05
283200000000,283500000000,4340570461,0,336036419,0.0001574,0.0007772,0.01163,0.0006142,0.001041,0.0007792,2.861e-06,0,0.0005674,7.153e-05,15.6,0.07679,0,0,9.346e-05
283500000000,283800000000,4340570461,0,336036419,0.0002222,0.0007801,0.01163,0.0006142,0.001041,0.000782,3.815e-06,0,0.00169,0.0001431,8.035,0.03456,0,0,0.0003986
283800000000,284100000000,4340570461,0,336036419,0.0002346,0.0007725,0.01163,0.0006142,0.001041,0.0007763,2.861e-06,0,0.0009975,7.153e-05,13.44,0.06328,0,0,0.000473
284100000000,284400000000,4340570461,0,336036419,0.0001774,0.000783,0.01163,0.0006142,0.001041,0.0007935,3.815e-06,0,0.001415,0.0001431,11.33,0.05377,0,0,0.0001926
284400000000,284700000000,4340570461,0,336036419,0.0001593,0.0007801,0.01163,0.0006142,0.001041,0.0007906,1.907e-06,0,0.001041,7.153e-05,13.64,0.06624,0,0,0.0002069
284700000000,285000000000,4340570461,0,336036419,0.0001478,0.0007706,0.01163,0.0006142,0.001041,0.0007734,9.537e-07,0,0.0005884,7.153e-05,14.58,0.07252,0,0,0.0001364
285000000000,285300000000,4340570461,0,336036419,0.0001488,0.0007782,0.01163,0.0006142,0.001041,0.0007811,1.907e-06,0,0.0004673,7.153e-05,16.87,0.08554,0,0,0.0001116
285300000000,285600000000,4340570461,0,336036419,0.000145,0.0007725,0.01163,0.0006142,0.001041,0.0007753,9.537e-07,0,0.0005322,7.153e-05,12.98,0.06363,0,0,8.678e-05
285600000000,285900000000,4340570461,0,336036419,0.0001516,0.0007725,0.01163,0.0006142,0.001041,0.0007763,2.861e-06,0,0.0005465,0.0003567,15.44,0.0758,0,0,0.0002604
285900000000,286200000000,4340570461,0,336036419,0.0001497,0.0007801,0.01163,0.0006142,0.001041,0.0007839,8.583e-06,0,0.0005445,0.001143,8.108,0.03708,0,0,9.537e-05
286200000000,286500000000,4340570461,0,336036419,0.000144,0.0007782,0.01163,0.0006142,0.001041,0.0007839,3.815e-06,0,0.0004997,0.0004997,12.32,0.06047,0,0,0.0001202
286500000000,286800000000,4340570461,0,336036419,0.0001478,0.0007744,0.01163,0.0006142,0.001041,0.0007811,1.907e-06,0,0.000597,7.153e-05,14.03,0.06924,0,0,0.0003519
286800000000,287100000000,4340570461,0,336036419,0.0001421,0.0007753,0.01163,0.0006142,0.001041,0.0007811,2.861e-06,0,0.0005322,7.153e-05,12.39,0.06107,0,0,0.0002022
287100000000,287400000000,4340570461,0,336036419,0.0001516,0.0007811,0.01163,0.0006142,0.001041,0.0007915,2.861e-06,0,0.0009098,0.0002861,12.45,0.06204,0,0,0.0001869
287400000000,287700000000,4340570461,0,336036419,0.0001478,0.0007801,0.01163,0.0006142,0.001041,0.0007849,1.907e-06,0,0.0008812,0.0001431,13.25,0.06429,0,0,7.725e-05
287700000000,288000000000,4340570461,0,336036419,0.0001593,0.000782,0.01163,0.0006227,0.001051,0.0007935,4.768e-06,0,0.0008345,0.0003567,12.77,0.06136,0,0,0.0002804
288000000000,288300000000,4340570461,0,336036419,0.0001507,0.0007858,0.01163,0.0006275,0.001057,0.0007887,5.722e-06,0,0.000576,0.0003567,14.05,0.06967,0,0,0.0002966
288300000000,288600000000,4340570461,0,336036419,0.0001631,0.0007858,0.01163,0.0006275,0.001057,0.0007896,4.768e-06,0,0.000473,7.153e-05,12,0.05642,0,0,0.0002012
288600000000,288900000000,4340570461,0,336036419,0.0002451,0.0007906,0.01163,0.0006285,0.001057,0.000802,2.861e-06,0,0.001379,7.153e-05,16,0.07307,0,0,0.0001831
288900000000,289200000000,4340570461,0,336036419,0.000289,0.0007868,0.01163,0.0006275,0.001057,0.0007973,3.815e-06,0,0.001091,0.0001431,19.5,0.09054,0,0,0.0001497
289200000000,289500000000,4340570461,0,336036419,0.0002851,0.0007849,0.01163,0.0006275,0.001057,0.0007925,2.861e-06,0,0.0008755,7.153e-05,21.13,0.09889,0,0,0.0001535
289500000000,289800000000,4340570461,0,336036419,0.0002089,0.000783,0.01163,0.0006275,0.001057,0.0007896,4.768e-06,0,0.0005932,0.0006428,15.3,0.07096,0,0,0.0001841
289800000000,290100000000,4340570461,0,336036419,0.0001554,0.000783,0.01163,0.0006275,0.001057,0.0007896,3.815e-06,0,0.0006542,0.0004282,14.74,0.07426,0,0,0.0003996
290100000000,290400000000,4340570461,0,336036419,0.0001507,0.000782,0.01163,0.0006275,0.001057,0.0007849,3.815e-06,0,0.000802,0.0001431,11.56,0.05714,0,0,9.441e-05
290400000000,290700000000,4340570461,0,336036419,0.0001574,0.0007792,0.01163,0.0006275,0.001057,0.0007839,3.815e-06,0,0.000947,7.153e-05,12.66,0.06102,0,0,8.678e-05
290700000000,291000000000,4340570461,0,336036419,0.0001421,0.0007849,0.01163,0.0006275,0.001057,0.0007858,6.676e-06,0,0.00116,0.0004282,12.75,0.06365,0,0,0.0001421
291000000000,291300000000,4340570461,0,336036419,0.0001459,0.0007839,0.01163,0.0006275,0.001057,0.0007896,4.768e-06,0,0.0004673,0.0002861,10.49,0.05199,0,0,6.104e-05
291300000000,291600000000,4340570461,0,336036419,0.0001421,0.0007782,0.01163,0.0006275,0.001057,0.000782,4.768e-06,0,0.0005445,0.0005713,12.91,0.06377,0,0,4.482e-05
291600000000,291900000000,4340570461,0,336036419,0.000145,0.000783,0.01163,0.0006275,0.001057,0.0007887,2.861e-06,0,0.0006027,0.0001431,13.32,0.0657,0,0,0.0002022
291900000000,292200000000,4340570461,0,336036419,0.0001431,0.0007801,0.01163,0.0006275,0.001057,0.0007858,3.815e-06,0,0.0005579,0.0002146,15.31,0.07828,0,0,4.387e-05
292200000000,292500000000,4340570461,0,336036419,0.000145,0.0007839,0.01163,0.0006285,0.001057,0.0007954,3.815e-06,0,0.0005522,0.0002146,13.1,0.06504,0,0,0.0001793
292500000000,292800000000,4340570461,0,336036419,0.0001411,0.000783,0.01163,0.0006285,0.001057,0.0007887,1.24e-05,0,0.0006371,0.002499,12.52,0.06181,0,0,6.294e-05
292800000000,293100000000,4340570461,0,336036419,0.0001459,0.0007792,0.01163,0.0006285,0.001057,0.0007849,4.768e-06,0,0.0005808,7.153e-05,17.03,0.08495,0,0,0.0001669
293100000000,293400000000,4340570461,0,336036419,0.0001497,0.0007782,0.01163,0.0006285,0.001057,0.0007801,1.907e-06,0,0.0007095,7.153e-05,14.25,0.06994,0,0,0.0004244
293400000000,293700000000,4340570461,0,336036419,0.000145,0.000782,0.01163,0.0006285,0.001057,0.0007868,6.676e-06,0,0.001131,0.001358,15.56,0.07745,0,0,6.866e-05
293700000000,294000000000,4340570461,0,336036419,0.0001411,0.000783,0.01163,0.0006285,0.001057,0.0007887,5.722e-06,0,0.0007601,0.0002861,14.21,0.07118,0,0,3.147e-05
294000000000,294300000000,4340570461,0,336036419,0.0001421,0.0007868,0.01163,0.0006285,0.001057,0.0007887,3.815e-06,0,0.001558,7.153e-05,14.19,0.07221,0,0,6.866e-05
294300000000,294600000000,4340570461,0,336036419,0.000144,0.0007839,0.01163,0.0006285,0.001057,0.0007877,2.861e-06,0,0.0004101,0.0002146,13.64,0.0678,0,0,0.0003529
294600000000,294900000000,4340570461,0,336036419,0.0001354,0.0007782,0.01163,0.0006285,0.001057,0.000783,1.907e-06,0,0.0004396,7.153e-05,11.56,0.05716,0,0,0.0001173
294900000000,295200000000,4340570461,0,336036419,0.0001459,0.000782,0.01163,0.0006285,0.001057,0.0007896,3.815e-06,0,0.001394,0.0001431,15.47,0.0793,0,0,6.199e-05
295200000000,295500000000,4340570461,0,336036419,0.0002193,0.0007849,0.01163,0.0006285,0.001057,0.0007906,1.907e-06,0,0.001419,7.153e-05,17.21,0.08255,0,0,0.0001402
295500000000,295800000000,4340570461,0,336036419,0.0001917,0.0007801,0.01163,0.0006285,0.001057,0.0007877,2.861e-06,0,0.0008125,7.153e-05,12.73,0.06043,0,0,0.0002937
295800000000,296100000000,4340570461,0,336036419,0.0001402,0.0007839,0.01163,0.0006285,0.001057,0.0007887,2.861e-06,0,0.0005064,7.153e-05,12.49,0.06186,0,0,0.0001049
296100000000,296400000000,4340570461,0,336036419,0.000145,0.000782,0.01163,0.0006285,0.001057,0.0007877,1.24e-05,0,0.001047,0.00293,10.17,0.04881,0,0,0.000577
296400000000,296700000000,4340570461,0,336036419,0.0001678,0.0007877,0.01163,0.0006285,0.001057,0.0007963,2.861e-06,0,0.001322,7.153e-05,15.25,0.07364,0,0,0.0002623
296700000000,297000000000,4340570461,0,336036419,0.0002365,0.0007858,0.01163,0.0006285,0.001057,0.0007877,2.861e-06,0,0.000742,0.0002861,13,0.06058,0,0,0.0004044
297000000000,297300000000,4340570461,0,336036419,0.0002136,0.0007801,0.01163,0.0006285,0.001057,0.0007839,1.907e-06,0,0.0006609,0.0001431,18.11,0.08319,0,0,0.0002537
297300000000,297600000000,4340570461,0,336036419,0.0001392,0.0007782,0.01163,0.0006285,0.001057,0.0007811,9.537e-07,0,0.0008516,7.153e-05,15.88,0.08063,0,0,0.0001631
297600000000,297900000000,4340570461,0,336036419,0.0001402,0.0007792,0.01163,0.0006285,0.001057,0.0007801,1.907e-06,0,0.0007162,0.0001431,12.28,0.06119,0,0,0.0002031
297900000000,298200000000,4340570461,0,336036419,0.0001383,0.0007849,0.01163,0.0006285,0.001057,0.0007868,2.861e-06,0,0.0007467,7.153e-05,10.19,0.0495,0,0,0.0002995
298200000000,298500000000,4340570461,0,336036419,0.0001383,0.0007877,0.01163,0.0006285,0.001057,0.0007887,2.861e-06,0,0.0009327,7.153e-05,10.85,0.05298,0,0,5.15e-05
298500000000,298800000000,4340570461,0,336036419,0.0001497,0.0007925,0.01163,0.0006409,0.00107,0.000803,2.861e-06,0,0.0005054,0.0001431,14.45,0.07215,0,0,7.915e-05
298800000000,299100000000,4340570461,0,336036419,0.0001554,0.0007792,0.01163,0.0006428,0.001072,0.0007811,9.537e-07,0,0.0007248,0.0001431,15.17,0.07377,0,0,0.0002947
299100000000,299400000000,4340570461,0,336036419,0.0001459,0.0007839,0.01163,0.0006428,0.001072,0.0007906,9.537e-06,0,0.0009699,0.002071,14.52,0.0716,0,0,0.0001211
299400000000,299700000000,4340570461,0,336036419,0.0001431,0.0007887,0.01163,0.0006428,0.001072,0.0008039,9.537e-07,0,0.001041,0.0001431,15.16,0.07462,0,0,0.000123
299700000000,300000000000,4340570461,0,336036419,0.0001507,0.000782,0.01163,0.0006428,0.001072,0.0007915,9.537e-07,0,0.0006142,7.153e-05,12.49,0.05991,0,0,0.0001135
