5700000000,6000000000,4520637677,0,766891110,0.06702,0.01221,0.02042,0.01254,0.01279,0.01259,0.003334,0.0002136,0.1877,0.04095,3.271,0.006185,0,1,0
6000000000,6300000000,4520637677,0,766891110,0.06763,0.01274,0.02136,0.01315,0.0134,0.01447,0.003273,0.0002327,0.1946,0.04449,3.959,0.007689,0,1,0
6300000000,6600000000,4520637677,0,766891110,0.06482,0.01184,0.01926,0.01208,0.01233,0.01234,0.003426,0.0002518,0.1848,0.04193,4.989,0.01023,0,1,0
6600000000,6900000000,4520637677,0,766891110,0.0658,0.01173,0.01926,0.01208,0.01233,0.01213,0.003181,0.0002699,0.187,0.04346,5.178,0.01073,0,1,0
6900000000,7200000000,4520637677,0,766891110,0.06787,0.01204,0.01956,0.0121,0.01234,0.01253,0.003387,0.0001764,0.209,0.06128,4.152,0.008329,0,1,0
7200000000,7500000000,4520637677,0,766891110,0.06274,0.01135,0.01926,0.01208,0.01233,0.01204,0.002987,8.488e-05,0.1807,0.03271,5.178,0.01096,0,1,0
7500000000,7800000000,4520637677,0,766891110,0.06335,0.01152,0.01926,0.01208,0.01231,0.01208,0.002949,0.0001011,0.1907,0.03864,5.426,0.01128,0,1,0
7800000000,8100000000,4520637677,0,766891110,0.0636,0.01151,0.01926,0.01208,0.01233,0.01216,0.003014,0.0001183,0.2007,0.03857,4.665,0.009294,0,1,0
8100000000,8400000000,4520637677,0,766891110,0.06689,0.01247,0.02005,0.01273,0.01297,0.01445,0.003426,0.0001354,0.1899,0.03949,5.33,0.01105,0,1,0
8400000000,8700000000,4520637677,0,766891110,0.06,0.01172,0.01996,0.0127,0.01294,0.01323,0.002834,0.0001545,0.2029,0.04095,5.02,0.01043,0,1,0
8700000000,9000000000,4520637677,0,766891110,0.06024,0.01082,0.01926,0.01199,0.01224,0.01138,0.002682,0.0001678,0.1982,0.03827,5.803,0.01221,0,1,0
9000000000,9300000000,4520637677,0,766891110,0.05847,0.01106,0.01926,0.0121,0.01233,0.01144,0.002804,0.0001812,0.2285,0.04657,5.078,0.0104,0,1,0
9300000000,9600000000,4520637677,0,766891110,0.06299,0.01143,0.01926,0.01207,0.01231,0.01195,0.002712,0.0001965,0.2041,0.04492,5.422,0.01126,0,1,0
9600000000,9900000000,4520637677,0,766891110,0.0592,0.01125,0.01926,0.01207,0.01231,0.01178,0.002804,0.0002127,0.1963,0.04376,5.207,0.0105,0,1,0
9900000000,10200000000,4520637677,0,766891110,0.06372,0.01149,0.01926,0.01205,0.0123,0.0121,0.00288,0.0002279,0.208,0.0473,5.211,0.01051,0,1,0
10200000000,10500000000,4520637677,0,766891110,0.05969,0.01123,0.01926,0.01204,0.01227,0.01212,0.002388,0.0002441,0.1787,0.04962,5.653,0.01189,0,1,0
10500000000,10800000000,4520637677,0,766891110,0.06177,0.01128,0.01926,0.01198,0.01222,0.01208,0.002987,0.0001698,0.1909,0.07397,5.011,0.01012,0,1,0
10800000000,11100000000,4520637677,0,766891110,0.06311,0.0119,0.01996,0.01241,0.01265,0.01306,0.003044,0.0001011,0.1816,0.04413,5.403,0.01106,0,1,0
11100000000,11400000000,4520637677,0,766891110,0.05725,0.01109,0.01926,0.01196,0.01221,0.01149,0.002647,0.0001163,0.1797,0.03821,5.196,0.01095,0,1,0
11400000000,11700000000,4520637677,0,766891110,0.06219,0.0114,0.01932,0.01196,0.01219,0.01279,0.003014,0.0001307,0.1819,0.03851,5.584,0.01171,0,1,0
11700000000,12000000000,4520637677,0,766891110,0.0625,0.01172,0.01971,0.01224,0.01247,0.01291,0.00251,0.0001459,0.2139,0.04187,5.119,0.01035,0,1,0
12000000000,12300000000,4520637677,0,766891110,0.05908,0.01111,0.01926,0.01195,0.01218,0.01146,0.002705,0.0001602,0.1838,0.04443,5.571,0.0114,0,1,0
12300000000,12600000000,4520637677,0,766891110,0.06152,0.01181,0.01959,0.01208,0.01231,0.01308,0.002918,0.0001755,0.2019,0.03601,5.026,0.0103,0,1,0
12600000000,12900000000,4520637677,0,766891110,0.05957,0.01158,0.01947,0.01204,0.01228,0.01291,0.00264,0.0001917,0.1863,0.0484,5.527,0.01151,0,1,0
12900000000,13200000000,4520637677,0,766891110,0.05963,0.01108,0.01926,0.0119,0.01215,0.01157,0.002529,0.000206,0.1863,0.03613,5.493,0.01179,0,1,0
13200000000,13500000000,4520637677,0,766891110,0.05933,0.01138,0.01926,0.01192,0.01215,0.0119,0.002594,0.0002203,0.1792,0.04688,5.331,0.01091,0,1,0
13500000000,13800000000,4520637677,0,766891110,0.0592,0.01128,0.01926,0.01192,0.01215,0.01192,0.002544,0.0002346,0.2129,0.04138,5.488,0.01137,0,1,0
13800000000,14100000000,4520637677,0,766891110,0.05927,0.01141,0.01926,0.01189,0.01213,0.01186,0.002636,0.0002499,0.2009,0.04724,5.005,0.01024,0,1,0
14100000000,14400000000,4520637677,0,766891110,0.05798,0.01118,0.01929,0.009048,0.009293,0.01172,0.002876,0.0001574,0.1838,0.04834,3.512,0.006667,0,1,0
14400000000,14700000000,4520637677,0,766891110,0.05798,0.01108,0.01926,0.01184,0.01208,0.0116,0.002834,6.58e-05,0.1865,0.03894,5.102,0.01024,0,1,0
14700000000,15000000000,4520637677,0,766891110,0.05731,0.01128,0.01926,0.01199,0.01222,0.01184,0.002651,8.106e-05,0.1997,0.05042,5.221,0.01004,0,1,0
15000000000,15300000000,4520637677,0,766891110,0.05847,0.01123,0.01926,0.01199,0.01224,0.01169,0.00256,9.632e-05,0.1794,0.04755,4.984,0.009627,0,1,0
15300000000,15600000000,4520637677,0,766891110,0.06018,0.01115,0.01926,0.01193,0.01218,0.01151,0.002735,0.0001106,0.1831,0.04474,3.948,0.007595,0,1,0
15600000000,15900000000,4520637677,0,766891110,0.05994,0.01125,0.01926,0.01196,0.01221,0.01164,0.002895,0.0001249,0.1753,0.03528,4.936,0.01019,0,1,0
15900000000,16200000000,4520637677,0,766891110,0.05884,0.01149,0.01968,0.01218,0.01241,0.01299,0.002827,0.0001392,0.1951,0.03943,5.616,0.01161,0,1,0
16200000000,16500000000,4520637677,0,766891110,0.0592,0.01146,0.01913,0.01157,0.01181,0.01236,0.002724,0.0001545,0.1772,0.03833,5.243,0.01081,0,1,0
16500000000,16800000000,4520637677,0,766891110,0.05951,0.01122,0.0191,0.01178,0.01202,0.01175,0.00256,0.0001698,0.1841,0.03851,5.45,0.01154,0,1,0
16800000000,17100000000,4520637677,0,766891110,0.05573,0.01118,0.01913,0.01169,0.01192,0.01216,0.002426,0.0001841,0.2004,0.03857,5.447,0.01124,0,1,0
17100000000,17400000000,4520637677,0,766891110,0.05823,0.01122,0.0191,0.01172,0.01195,0.0117,0.002533,0.0001984,0.1792,0.04706,5.201,0.01094,0,1,0
17400000000,17700000000,4520637677,0,766891110,0.05481,0.01083,0.01913,0.01093,0.01117,0.01149,0.002392,0.0002127,0.1885,0.03491,5.186,0.01053,0,1,0
17700000000,18000000000,4520637677,0,766891110,0.05585,0.01093,0.01913,0.01106,0.01131,0.01157,0.002857,0.0001383,0.1792,0.07788,5.272,0.01099,0,1,0
18000000000,18300000000,4520637677,0,766891110,0.05493,0.01085,0.01913,0.01137,0.01161,0.01149,0.002678,6.485e-05,0.1821,0.04651,5.448,0.01116,0,1,0
18300000000,18600000000,4520637677,0,766891110,0.05914,0.01114,0.0191,0.01183,0.01207,0.01152,0.002525,7.915e-05,0.196,0.05127,5.197,0.01149,0,1,0
18600000000,18900000000,4520637677,0,766891110,0.05817,0.0112,0.01898,0.01004,0.01028,0.01201,0.002937,9.537e-05,0.1816,0.04095,5.288,0.01154,0,1,0
18900000000,19200000000,4520637677,0,766891110,0.05688,0.01111,0.01913,0.01093,0.01117,0.01176,0.002621,0.0001106,0.1943,0.04187,4.85,0.009944,0,1,0
19200000000,19500000000,4520637677,0,766891110,0.05389,0.01108,0.0191,0.0118,0.01204,0.01175,0.002506,0.0001249,0.1743,0.0498,5.164,0.01064,0,1,0
19500000000,19800000000,4520637677,0,766891110,0.05707,0.01151,0.01965,0.01225,0.0125,0.01305,0.002686,0.0001402,0.1855,0.04901,4.74,0.009633,0,1,0
19800000000,20100000000,4520637677,0,766891110,0.05438,0.01112,0.01941,0.01222,0.01247,0.01205,0.002491,0.0001554,0.1934,0.03516,5.12,0.01029,0,1,0
20100000000,20400000000,4520637677,0,766891110,0.05518,0.01093,0.01926,0.01212,0.01236,0.01135,0.002308,0.0001698,0.1934,0.03888,4.891,0.01009,0,1,0
20400000000,20700000000,4520637677,0,766891110,0.05505,0.01115,0.01926,0.0121,0.01234,0.01234,0.002487,0.0001841,0.2056,0.03705,5.279,0.01102,0,1,0
20700000000,21000000000,4520637677,0,766891110,0.05396,0.01086,0.01926,0.01213,0.01237,0.01131,0.002636,0.0001974,0.1831,0.02707,5.108,0.01025,0,1,0
21000000000,21300000000,4520637677,0,766891110,0.05469,0.01079,0.01926,0.01213,0.01237,0.01117,0.002708,0.0002117,0.1694,0.02377,5.164,0.01034,0,1,0
21300000000,21600000000,4520637677,0,766891110,0.05737,0.01106,0.01929,0.01131,0.01155,0.01166,0.002541,0.0001383,0.189,0.039,5.321,0.01068,0,1,0
21600000000,21900000000,4520637677,0,766891110,0.05615,0.01091,0.01926,0.01208,0.01233,0.01166,0.002228,6.676e-05,0.1809,0.02637,5.103,0.01049,0,1,0
21900000000,22200000000,4520637677,0,766891110,0.05756,0.01123,0.01926,0.01208,0.01233,0.01202,0.002792,8.202e-05,0.2102,0.03479,5.251,0.0102,0,1,0
22200000000,22500000000,4520637677,0,766891110,0.05896,0.01111,0.01926,0.01213,0.01237,0.01167,0.002697,9.727e-05,0.2004,0.05286,4.987,0.009703,0,1,0
22500000000,22800000000,4520637677,0,766891110,0.06067,0.01141,0.01926,0.01212,0.01236,0.01178,0.002823,0.0001135,0.1807,0.03284,5.351,0.01059,0,1,0
22800000000,23100000000,4520637677,0,766891110,0.0542,0.01117,0.01926,0.01204,0.01228,0.01181,0.002811,0.0001297,0.1846,0.04669,4.569,0.007893,0,1,0
23100000000,23400000000,4520637677,0,766891110,0.052,0.01122,0.01929,0.01149,0.01173,0.01222,0.002533,0.000145,0.1978,0.04828,4.673,0.007766,0,1,0
23400000000,23700000000,4520637677,0,766891110,0.05072,0.01071,0.01926,0.01215,0.01239,0.01118,0.002361,0.0001593,0.2195,0.04584,4.416,0.007257,0,1,0
23700000000,24000000000,4520637677,0,766891110,0.05194,0.01077,0.01926,0.01215,0.01239,0.01125,0.002338,0.0001736,0.1978,0.0415,3.476,0.005547,0,1,0
24000000000,24300000000,4520637677,0,766891110,0.05164,0.01102,0.01926,0.01212,0.01234,0.01155,0.00246,0.0001869,0.1731,0.04773,3.49,0.005548,0,1,0
24300000000,24600000000,4520637677,0,766891110,0.05096,0.01088,0.01926,0.0121,0.01233,0.01132,0.002354,0.0002022,0.1941,0.04242,4.698,0.007689,0,1,0
24600000000,24900000000,4520637677,0,766891110,0.05157,0.01105,0.01926,0.01202,0.01227,0.0114,0.002529,0.0002165,0.1951,0.04163,4.815,0.008835,0,1,0
24900000000,25200000000,4520637677,0,766891110,0.05255,0.01103,0.01929,0.01173,0.01198,0.01146,0.002853,0.0001421,0.1792,0.05286,4.033,0.007611,0,1,0
25200000000,25500000000,4520637677,0,766891110,0.05188,0.01088,0.01907,0.01105,0.01128,0.01147,0.002716,6.676e-05,0.1716,0.04077,4.301,0.00796,0,1,0
25500000000,25800000000,4520637677,0,766891110,0.0506,0.01068,0.01926,0.01202,0.01227,0.01106,0.002392,8.011e-05,0.1868,0.03522,4.931,0.008957,0,1,0
25800000000,26100000000,4520637677,0,766891110,0.052,0.01114,0.01926,0.01215,0.01237,0.01215,0.002571,9.346e-05,0.1729,0.0387,4.734,0.007752,0,1,0
26100000000,26400000000,4520637677,0,766891110,0.05249,0.01077,0.01926,0.01213,0.01237,0.01114,0.00275,0.0001078,0.1797,0.03564,4.546,0.007669,0,1,0
26400000000,26700000000,4520637677,0,766891110,0.05121,0.01082,0.01926,0.01213,0.01237,0.01125,0.002743,0.0001211,0.188,0.03699,4.713,0.007772,0,1,0
26700000000,27000000000,4520637677,0,766891110,0.0528,0.01126,0.01932,0.01128,0.01152,0.01271,0.003021,0.0001354,0.1672,0.03613,4.594,0.007944,0,1,0
27000000000,27300000000,4520637677,0,766891110,0.05157,0.01083,0.01926,0.0121,0.01234,0.01169,0.002697,0.0001497,0.1697,0.02829,4.95,0.008687,0,1,0
27300000000,27600000000,4520637677,0,766891110,0.05225,0.01077,0.01926,0.01208,0.01233,0.01131,0.002529,0.0001621,0.179,0.03339,4.63,0.008016,0,1,0
27600000000,27900000000,4520637677,0,766891110,0.05383,0.01108,0.01926,0.01208,0.01231,0.01149,0.002331,0.0001764,0.1895,0.0293,5.067,0.009374,0,1,0
27900000000,28200000000,4520637677,0,766891110,0.05188,0.01093,0.01926,0.0121,0.01234,0.01129,0.002361,0.0001907,0.1929,0.03607,4.663,0.008187,0,1,0
28200000000,28500000000,4520637677,0,766891110,0.05457,0.01089,0.01913,0.01173,0.01196,0.01135,0.002598,0.000205,0.1853,0.04199,5.097,0.009511,0,1,0
28500000000,28800000000,4520637677,0,766891110,0.05658,0.01128,0.01932,0.0121,0.01234,0.0127,0.003017,0.0001535,0.1816,0.06763,5.082,0.009898,0,1,0
28800000000,29100000000,4520637677,0,766891110,0.05518,0.01143,0.01944,0.01111,0.01134,0.01265,0.002518,0.000102,0.1997,0.03674,5.386,0.01103,0,1,0
29100000000,29400000000,4520637677,0,766891110,0.05463,0.01146,0.01953,0.01152,0.01176,0.01292,0.002602,0.0001163,0.1714,0.03937,4.73,0.008961,0,1,0
29400000000,29700000000,4520637677,0,766891110,0.05792,0.01111,0.01895,0.009293,0.009521,0.01215,0.002789,0.0001307,0.1768,0.04156,5.011,0.008821,0,1,0
29700000000,30000000000,4520637677,0,766891110,0.05859,0.0112,0.01926,0.01143,0.01167,0.01163,0.003059,0.0001459,0.178,0.03485,5,0.009151,0,1,0
30000000000,30300000000,4520637677,0,766891110,0.0575,0.01108,0.01926,0.01135,0.0116,0.01193,0.002697,0.0001602,0.1963,0.03778,4.24,0.007558,0,1,0
30300000000,30600000000,4520637677,0,766891110,0.05591,0.01134,0.01926,0.01198,0.01221,0.01199,0.002869,0.0001755,0.1833,0.0368,5.013,0.008772,0,1,0
30600000000,30900000000,4520637677,0,766891110,0.05811,0.0112,0.01926,0.01173,0.01198,0.01169,0.002987,0.0001907,0.1785,0.03583,4.836,0.008859,0,1,0
30900000000,31200000000,4520637677,0,766891110,0.05609,0.01134,0.01926,0.01196,0.01221,0.01167,0.00304,0.000205,0.1807,0.04016,4.009,0.006689,0,1,0
31200000000,31500000000,4520637677,0,766891110,0.05737,0.0117,0.01965,0.01216,0.01241,0.01285,0.002476,0.0002203,0.2073,0.04279,4.522,0.007613,0,1,0
31500000000,31800000000,4520637677,0,766891110,0.05621,0.01143,0.01926,0.01199,0.01224,0.01173,0.002884,0.0002356,0.187,0.04791,4.876,0.008396,0,1,0
31800000000,32100000000,4520637677,0,766891110,0.05731,0.01147,0.01926,0.01201,0.01224,0.01193,0.002964,0.0002518,0.1833,0.0423,4.113,0.006756,0,1,0
32100000000,32400000000,4520637677,0,766891110,0.05945,0.01212,0.01993,0.01233,0.01257,0.01349,0.003132,0.000164,0.1968,0.07812,4.286,0.007102,0,1,0
32400000000,32700000000,4520637677,0,766891110,0.05957,0.01134,0.01926,0.01158,0.01183,0.01192,0.002563,7.343e-05,0.1787,0.03613,4.548,0.007302,0,1,0
32700000000,33000000000,4520637677,0,766891110,0.05853,0.01141,0.01926,0.0117,0.01195,0.01183,0.002197,8.869e-05,0.1721,0.04486,5.038,0.008605,0,1,0
33000000000,33300000000,4520637677,0,766891110,0.06128,0.01228,0.02032,0.01262,0.01286,0.01396,0.003773,0.000104,0.187,0.04706,3.93,0.006582,0,1,0
33300000000,33600000000,4520637677,0,766891110,0.05841,0.01125,0.01926,0.01147,0.01172,0.0117,0.00267,0.0001202,0.1729,0.03918,4.994,0.009165,0,1,0
33600000000,33900000000,4520637677,0,766891110,0.05908,0.01178,0.01926,0.01199,0.01224,0.01241,0.002762,0.0001364,0.1946,0.03613,3.676,0.005914,0,1,0
33900000000,34200000000,4520637677,0,766891110,0.05817,0.01134,0.01926,0.01193,0.01218,0.0118,0.002617,0.0001526,0.2,0.04309,3.911,0.006519,0,1,0
34200000000,34500000000,4520637677,0,766891110,0.05621,0.01141,0.01926,0.01201,0.01224,0.01178,0.002716,0.0001678,0.1934,0.04797,4.44,0.006461,0,1,0
34500000000,34800000000,4520637677,0,766891110,0.05719,0.01192,0.02008,0.01257,0.01282,0.01305,0.003006,0.0001831,0.1863,0.04852,4.393,0.006405,0,1,0
34800000000,35100000000,4520637677,0,766891110,0.06018,0.01169,0.01923,0.0119,0.01215,0.01225,0.002796,0.0001993,0.1892,0.04388,2.911,0.003939,0,1,0
35100000000,35400000000,4520637677,0,766891110,0.05627,0.01147,0.01923,0.01192,0.01216,0.01176,0.003036,0.0002155,0.1802,0.0473,4.355,0.006316,0,1,0
35400000000,35700000000,4520637677,0,766891110,0.05804,0.0117,0.01923,0.01192,0.01215,0.01213,0.003143,0.0002317,0.1934,0.04431,4.441,0.006278,0,1,0
35700000000,36000000000,4520637677,0,766891110,0.05786,0.01108,0.01898,0.0112,0.01143,0.01196,0.002872,0.0001621,0.199,0.05243,4.211,0.006176,0,1,0
36000000000,36300000000,4520637677,0,766891110,0.06012,0.01178,0.01923,0.0119,0.01215,0.01251,0.002949,8.965e-05,0.1885,0.04742,4.633,0.006824,0,1,0
36300000000,36600000000,4520637677,0,766891110,0.0564,0.01138,0.01923,0.01192,0.01216,0.01187,0.002766,0.0001059,0.1802,0.04492,4.455,0.006532,0,1,0
36600000000,36900000000,4520637677,0,766891110,0.05981,0.01152,0.01923,0.01192,0.01216,0.01189,0.002945,0.0001211,0.1997,0.04492,4.698,0.006965,0,1,0
36900000000,37200000000,4520637677,0,766891110,0.05804,0.01169,0.01944,0.01198,0.01222,0.01271,0.002594,0.0001354,0.1782,0.04242,4.667,0.007011,0,1,0
37200000000,37500000000,4520637677,0,766891110,0.06067,0.01157,0.01923,0.01147,0.0117,0.01199,0.003025,0.0001516,0.2078,0.04181,4.78,0.007364,0,1,0
37500000000,37800000000,4520637677,0,766891110,0.05792,0.01135,0.01923,0.01175,0.01198,0.0119,0.002853,0.0001678,0.1831,0.03955,4.549,0.007031,0,1,0
37800000000,38100000000,4520637677,0,766891110,0.05823,0.01225,0.02042,0.01279,0.01302,0.01358,0.002811,0.0001831,0.2107,0.04022,4.671,0.006825,0,1,0
38100000000,38400000000,4520637677,0,766891110,0.0575,0.0121,0.02057,0.01228,0.01253,0.01288,0.003082,0.0001984,0.1726,0.04077,4.433,0.006598,0,1,0
38400000000,38700000000,4520637677,0,766891110,0.05878,0.0117,0.0192,0.01158,0.01183,0.01221,0.002956,0.0002136,0.2104,0.04999,4.81,0.007152,0,1,0
38700000000,39000000000,4520637677,0,766891110,0.06494,0.01222,0.02014,0.0101,0.01035,0.01372,0.003101,0.0002298,0.1875,0.03699,4.912,0.008909,0,1,0
39000000000,39300000000,4520637677,0,766891110,0.0647,0.01175,0.0192,0.01183,0.01207,0.01215,0.003048,0.000246,0.1797,0.03583,5.078,0.009487,0,1,0
39300000000,39600000000,4520637677,0,766891110,0.06482,0.01201,0.01959,0.01208,0.01231,0.01305,0.003231,0.0001774,0.1716,0.05017,5.193,0.009791,0,1,0
39600000000,39900000000,4520637677,0,766891110,0.0658,0.01236,0.02066,0.01257,0.01282,0.01326,0.002888,0.0001059,0.2014,0.03314,4.913,0.009354,0,1,0
39900000000,40200000000,4520637677,0,766891110,0.06335,0.01248,0.02094,0.013,0.01323,0.01305,0.003365,0.0001221,0.186,0.03973,4.957,0.008627,0,1,0
40200000000,40500000000,4520637677,0,766891110,0.06458,0.01259,0.02094,0.01321,0.01346,0.01324,0.002899,0.0001402,0.2014,0.03564,4.437,0.006841,0,1,0
40500000000,40800000000,4520637677,0,766891110,0.0625,0.01216,0.02042,0.0125,0.01274,0.01265,0.002701,0.0001574,0.1865,0.03912,4.838,0.00767,0,1,0
51000000000,51300000000,4520637677,0,766891110,0.09692,0.01347,0.02118,0.01381,0.01404,0.0139,0.004204,0.0001392,0.2197,0.0401,5.599,0.01037,0,1,0
51300000000,51600000000,4520637677,0,766891110,0.09375,0.01337,0.02118,0.01378,0.01402,0.01395,0.004189,0.0001612,0.2119,0.03656,5.265,0.009847,0,1,0
51600000000,51900000000,4520637677,0,766891110,0.09473,0.01334,0.02118,0.0137,0.01393,0.01396,0.003868,0.0001812,0.3281,0.03558,5.507,0.01003,0,1,0
51900000000,52200000000,4520637677,0,766891110,0.08704,0.01433,0.02203,0.01424,0.01448,0.01794,0.003029,0.0002003,0.2214,0.01849,4.668,0.007878,0,1,0
52200000000,52500000000,4520637677,0,766891110,0.07214,0.01883,0.02841,0.01855,0.0188,0.02203,0.00618,0.0002213,0.2207,0.03394,3.885,0.005872,0,1,0
52500000000,52800000000,4520637677,0,766891110,0.07312,0.01363,0.02173,0.01324,0.01349,0.01518,0.004196,0.0002441,0.231,0.03497,4.019,0.006013,0,1,0
52800000000,53100000000,4520637677,0,766891110,0.08301,0.01382,0.02121,0.01372,0.01396,0.01465,0.00428,0.0002661,0.2324,0.04834,3.365,0.00517,0,1,0
53100000000,53400000000,4520637677,0,766891110,0.0835,0.01358,0.02118,0.01385,0.0141,0.01422,0.004272,0.0002871,0.2529,0.04364,4.48,0.007071,0,1,0
53400000000,53700000000,4520637677,0,766891110,0.08582,0.01341,0.02115,0.01317,0.0134,0.01411,0.004272,0.000308,0.2227,0.04492,4.302,0.007011,0,1,0
53700000000,54000000000,4520637677,0,766891110,0.09363,0.01326,0.02106,0.01314,0.01337,0.01421,0.004677,0.0002031,0.3115,0.07446,4.94,0.008688,0,1,0
54000000000,54300000000,4520637677,0,766891110,0.09827,0.01392,0.02179,0.01244,0.01268,0.01534,0.004456,8.869e-05,0.2637,0.05042,3.925,0.006704,0,1,0
54300000000,54600000000,4520637677,0,766891110,0.09387,0.01395,0.02188,0.01387,0.01411,0.01462,0.004318,0.0001106,0.2419,0.04303,4.608,0.007301,0,1,0
54600000000,54900000000,4520637677,0,766891110,0.0946,0.01416,0.02176,0.0141,0.01434,0.01517,0.004265,0.0001326,0.2417,0.04486,4.72,0.007656,0,1,0
54900000000,55200000000,4520637677,0,766891110,0.0957,0.01436,0.02307,0.01543,0.01566,0.01495,0.004692,0.0001545,0.2612,0.04547,4.461,0.007134,0,1,0
55200000000,55500000000,4520637677,0,766891110,0.09387,0.0146,0.02286,0.01488,0.01512,0.01645,0.004837,0.0001755,0.2349,0.05414,4.634,0.008005,0,1,0
55500000000,55800000000,4520637677,0,766891110,0.09619,0.0143,0.02249,0.01465,0.01488,0.01617,0.004318,0.0001984,0.229,0.0448,4.462,0.007274,0,1,0
55800000000,56100000000,4520637677,0,766891110,0.09631,0.01495,0.02301,0.01465,0.01489,0.01712,0.005562,0.0002193,1.209,0.04529,4.863,0.008105,0,1,0
56100000000,56400000000,4520637677,0,766891110,0.09277,0.01476,0.02414,0.01617,0.01642,0.01721,0.004196,0.0002422,0.2251,0.0365,4.51,0.007392,0,1,0
56400000000,56700000000,4520637677,0,766891110,0.0918,0.01437,0.0231,0.01532,0.01556,0.0153,0.004295,0.0002632,0.2344,0.03619,4.56,0.007492,0,1,0
56700000000,57000000000,4520637677,0,766891110,0.09009,0.01439,0.0231,0.01535,0.01559,0.0152,0.004341,0.0002842,0.2441,0.0484,4.703,0.007684,0,1,0
57000000000,57300000000,4520637677,0,766891110,0.0918,0.01381,0.02216,0.01256,0.0128,0.01486,0.004501,0.0003061,0.2681,0.0412,4.366,0.007164,0,1,0
57300000000,57600000000,4520637677,0,766891110,0.0907,0.01387,0.02127,0.0136,0.01382,0.01465,0.004326,0.0002012,0.2524,0.04962,4.689,0.007709,0,1,0
57600000000,57900000000,4520637677,0,766891110,0.09363,0.01413,0.02194,0.01433,0.01457,0.01498,0.004578,8.774e-05,0.2146,0.04755,4.264,0.006827,0,1,0
57900000000,58200000000,4520637677,0,766891110,0.09387,0.01437,0.02289,0.01508,0.01532,0.01518,0.004494,0.0001087,0.2964,0.04022,4.266,0.007095,0,1,0
58200000000,58500000000,4520637677,0,766891110,0.09351,0.01385,0.02142,0.01353,0.01378,0.01587,0.004387,0.0001297,0.2461,0.03894,4.493,0.007213,0,1,0
58500000000,58800000000,4520637677,0,766891110,0.09229,0.0145,0.02283,0.01489,0.01512,0.01584,0.004257,0.0001526,0.2192,0.04956,4.558,0.007449,0,1,0
58800000000,59100000000,4520637677,0,766891110,0.09656,0.01462,0.02307,0.01508,0.01532,0.01685,0.00457,0.0001745,0.3037,0.04462,3.816,0.006175,0,1,0
59100000000,59400000000,4520637677,0,766891110,0.09412,0.01511,0.02405,0.01596,0.0162,0.0174,0.004639,0.0001965,0.2485,0.04285,4.412,0.007326,0,1,0
59400000000,59700000000,4520637677,0,766891110,0.09485,0.01421,0.02261,0.0145,0.01472,0.01503,0.004517,0.0002184,0.2336,0.04315,4.9,0.008426,0,1,0
59700000000,60000000000,4520637677,0,766891110,0.09546,0.01384,0.02209,0.0139,0.01414,0.01503,0.004265,0.0002403,0.2529,0.04443,3.966,0.006804,0,1,0
60000000000,60300000000,4520637677,0,766891110,0.09839,0.01465,0.0228,0.01472,0.01497,0.01636,0.004601,0.0002623,0.2393,0.04517,3.572,0.006015,0,1,0
60300000000,60600000000,4520637677,0,766891110,0.09424,0.01439,0.02298,0.01527,0.01552,0.01494,0.004593,0.0002851,0.2876,0.04254,4.631,0.007955,0,1,0
60600000000,60900000000,4520637677,0,766891110,0.09192,0.01471,0.02322,0.01532,0.01555,0.01743,0.004211,0.0003071,0.2803,0.04639,4.582,0.00784,0,1,0
70800000000,71100000000,4520637677,0,766891110,0.09985,0.01485,0.02307,0.01526,0.01549,0.01624,0.004425,0.0002718,0.2275,0.04474,5.09,0.01011,0,1,0
71100000000,71400000000,4520637677,0,766891110,0.09302,0.01448,0.02307,0.0152,0.01544,0.01532,0.004356,0.0002947,0.2405,0.03888,4.677,0.009243,0,1,0
71400000000,71700000000,4520637677,0,766891110,0.09363,0.01515,0.02396,0.01532,0.01556,0.01706,0.004311,0.0003157,0.2129,0.04138,5.066,0.009988,0,1,0
71700000000,72000000000,4520637677,0,766891110,0.09155,0.01434,0.02319,0.01532,0.01556,0.01523,0.00473,0.0002155,0.2334,0.0697,5.051,0.009995,0,1,0
72000000000,72300000000,4520637677,0,766891110,0.09241,0.01485,0.02267,0.01466,0.01491,0.01688,0.004341,9.632e-05,0.2195,0.02664,4.688,0.009286,0,1,0
72300000000,72600000000,4520637677,0,766891110,0.09558,0.01443,0.02289,0.01479,0.01503,0.01599,0.004364,0.0001183,0.2473,0.03412,5.015,0.00994,0,1,0
72600000000,72900000000,4520637677,0,766891110,0.09424,0.0146,0.0231,0.01527,0.0155,0.01535,0.004456,0.0001411,0.2302,0.03583,4.574,0.009039,0,1,0
72900000000,73200000000,4520637677,0,766891110,0.09326,0.0145,0.0231,0.01532,0.01555,0.01511,0.004547,0.000165,0.2612,0.03949,4.991,0.009934,0,1,0
73200000000,73500000000,4520637677,0,766891110,0.09595,0.01469,0.0228,0.01488,0.01511,0.01633,0.004448,0.0001879,0.2273,0.03516,4.575,0.009035,0,1,0
73500000000,73800000000,4520637677,0,766891110,0.09607,0.01454,0.0231,0.01526,0.01549,0.01529,0.004509,0.0002108,0.2769,0.04108,3.446,0.006508,0,1,0
73800000000,74100000000,4520637677,0,766891110,0.09216,0.01439,0.02307,0.01529,0.01553,0.01494,0.00515,0.0002327,0.2471,0.06158,4.94,0.009174,0,1,0
74100000000,74400000000,4520637677,0,766891110,0.0946,0.01407,0.02231,0.01401,0.01424,0.01506,0.004692,0.0002565,0.2544,0.04346,4.429,0.0076,0,1,0
74400000000,74700000000,4520637677,0,766891110,0.09424,0.01463,0.0231,0.01524,0.01549,0.01572,0.005219,0.0002794,0.2588,0.03943,4.86,0.008792,0,1,0
74700000000,75000000000,4520637677,0,766891110,0.0929,0.01468,0.0231,0.01527,0.01552,0.01559,0.005226,0.0003023,0.2363,0.04437,4.161,0.007384,0,1,0
75000000000,75300000000,4520637677,0,766891110,0.09583,0.01547,0.02411,0.01605,0.01627,0.01715,0.00518,0.0003262,0.209,0.03192,4.707,0.008383,0,1,0
75300000000,75600000000,4520637677,0,766891110,0.09509,0.01581,0.02441,0.01627,0.01651,0.01721,0.006104,0.0002317,0.2261,0.02307,4.546,0.007889,0,1,0
75600000000,75900000000,4520637677,0,766891110,0.09277,0.01483,0.02402,0.01605,0.0163,0.01691,0.00544,0.0001135,0.2214,0.02722,4.426,0.007778,0,1,0
75900000000,76200000000,4520637677,0,766891110,0.09302,0.01506,0.02347,0.01558,0.01581,0.01758,0.005165,0.0001345,0.2148,0.02972,4.817,0.008516,0,1,0
76200000000,76500000000,4520637677,0,766891110,0.09436,0.01509,0.02322,0.01529,0.01553,0.01764,0.004913,0.0001593,0.2153,0.02463,3.661,0.006737,0,1,0
76500000000,76800000000,4520637677,0,766891110,0.09253,0.01547,0.02377,0.01593,0.01617,0.01697,0.004738,0.0001822,0.2261,0.01743,4.827,0.008963,0,1,0
76800000000,77100000000,4520637677,0,766891110,0.09155,0.01561,0.02429,0.01648,0.01672,0.01697,0.005737,0.0002069,0.2358,0.02728,4.522,0.008247,0,1,0
77100000000,77400000000,4520637677,0,766891110,0.09497,0.01488,0.0231,0.01538,0.01562,0.01599,0.005417,0.0002317,0.2373,0.01521,3.496,0.006255,0,1,0
77400000000,77700000000,4520637677,0,766891110,0.08875,0.01447,0.0231,0.0153,0.01553,0.015,0.005089,0.0002565,0.231,0.01822,4.858,0.009199,0,1,0
77700000000,78000000000,4520637677,0,766891110,0.08911,0.01476,0.02289,0.01505,0.01529,0.01633,0.004616,0.0002794,0.2156,0.02393,4.253,0.007858,0,1,0
78000000000,78300000000,4520637677,0,766891110,0.08533,0.01404,0.02277,0.01456,0.0148,0.01497,0.004158,0.0003004,0.2322,0.02951,4.245,0.007678,0,1,0
78300000000,78600000000,4520637677,0,766891110,0.09106,0.01691,0.0246,0.01614,0.01639,0.02328,0.001431,0.0003147,0.248,0.02441,3.993,0.007036,0,1,0
78600000000,78900000000,4520637677,0,766891110,0.08826,0.01822,0.02859,0.01968,0.0199,0.02383,0.007858,0.0003395,0.2275,0.03363,4.831,0.008199,0,1,0
78900000000,79200000000,4520637677,0,766891110,0.08777,0.01437,0.02267,0.01459,0.01483,0.01559,0.004578,0.0002232,0.2273,0.05463,4.508,0.00768,0,1,0
79200000000,79500000000,4520637677,0,766891110,0.0874,0.01436,0.02307,0.01488,0.01511,0.01547,0.00388,7.629e-05,0.228,0.03259,4.171,0.007124,0,1,0
79500000000,79800000000,4520637677,0,766891110,0.09155,0.01462,0.02307,0.01505,0.01529,0.01535,0.004189,9.632e-05,0.2573,0.02707,3.585,0.006006,0,1,0
79800000000,80100000000,4520637677,0,766891110,0.08679,0.01436,0.02304,0.01486,0.01511,0.01537,0.004219,0.0001173,0.24,0.03802,4.437,0.007867,0,1,0
80100000000,80400000000,4520637677,0,766891110,0.08154,0.01428,0.02304,0.01483,0.01506,0.01529,0.003872,0.0001383,0.2166,0.0351,4.86,0.008715,0,1,0
80400000000,80700000000,4520637677,0,766891110,0.07849,0.01347,0.02133,0.01341,0.01366,0.01427,0.00367,0.0001574,0.2463,0.03156,4.457,0.007952,0,1,0
80700000000,81000000000,4520637677,0,766891110,0.07642,0.01352,0.02145,0.0135,0.01373,0.01566,0.003372,0.0001774,0.2275,0.02972,4.018,0.006961,0,1,0
85800000000,86100000000,4520637677,0,766891110,0.07092,0.01376,0.02213,0.01411,0.01436,0.01566,0.004471,0.0002842,0.2012,0.02951,4.77,0.009427,0,1,0
86100000000,86400000000,4520637677,0,766891110,0.06592,0.01312,0.02142,0.01363,0.01387,0.01471,0.003784,0.0002108,0.2056,0.02829,4.43,0.008838,0,1,0
86400000000,86700000000,4520637677,0,766891110,0.06653,0.01277,0.02127,0.01299,0.01323,0.01445,0.003605,0.0001078,0.1941,0.02686,4.888,0.009743,0,1,0
86700000000,87000000000,4520637677,0,766891110,0.06592,0.01283,0.02121,0.01357,0.01381,0.01341,0.003239,0.0001278,0.1997,0.03857,4.321,0.008213,0,1,0
87000000000,87300000000,4520637677,0,766891110,0.06311,0.0126,0.02121,0.01353,0.01376,0.01331,0.003323,0.0001469,0.1958,0.03284,4.719,0.00912,0,1,0
87300000000,87600000000,4520637677,0,766891110,0.06116,0.01259,0.02121,0.01358,0.01382,0.01315,0.00309,0.000165,0.197,0.03265,4.237,0.007979,0,1,0
87600000000,87900000000,4520637677,0,766891110,0.06104,0.01305,0.02118,0.01355,0.01379,0.0146,0.003265,0.0001841,0.1931,0.02963,4.179,0.007546,0,1,0
87900000000,88200000000,4520637677,0,766891110,0.06555,0.01282,0.02118,0.01357,0.01381,0.0136,0.00349,0.0002041,0.2351,0.02744,4.461,0.008168,0,1,0
88200000000,88500000000,4520637677,0,766891110,0.06274,0.01303,0.02118,0.01358,0.01382,0.01392,0.003441,0.0002251,0.1914,0.03442,4.128,0.007566,0,1,0
88500000000,88800000000,4520637677,0,766891110,0.06335,0.01291,0.02121,0.0136,0.01384,0.01347,0.003658,0.000246,0.2126,0.03308,4.358,0.007991,0,1,0
88800000000,89100000000,4520637677,0,766891110,0.05682,0.01263,0.02121,0.01358,0.01382,0.01331,0.003159,0.000267,0.2307,0.03564,3.908,0.007076,0,1,0
89100000000,89400000000,4520637677,0,766891110,0.06195,0.01274,0.02121,0.01355,0.01379,0.01364,0.003628,0.0002851,0.2024,0.04041,4.427,0.008187,0,1,0
89400000000,89700000000,4520637677,0,766891110,0.06024,0.01218,0.0199,0.01178,0.01201,0.01329,0.0028,0.0003033,0.2295,0.02963,4.58,0.009147,0,1,0
89700000000,90000000000,4520637677,0,766891110,0.06384,0.01237,0.02008,0.01089,0.01112,0.01369,0.003094,0.000206,0.2029,0.06311,5.007,0.01016,0,1,0
90000000000,90300000000,4520637677,0,766891110,0.06287,0.01227,0.02039,0.01228,0.01251,0.01299,0.002842,7.725e-05,0.189,0.03558,4.584,0.009073,0,1,0
90300000000,90600000000,4520637677,0,766891110,0.06409,0.01326,0.02142,0.01321,0.01346,0.01523,0.003742,9.632e-05,0.2334,0.03528,4.353,0.007983,0,1,0
90600000000,90900000000,4520637677,0,766891110,0.06396,0.01263,0.02118,0.01353,0.01376,0.01375,0.003098,0.0001163,0.2051,0.02893,4.65,0.00991,0,1,0
101100000000,101400000000,4520637677,0,766891110,0.05957,0.01183,0.01926,0.01169,0.01192,0.01263,0.002895,0.0001116,0.2434,0.0473,4.931,0.009422,0,1,0
101400000000,101700000000,4520637677,0,766891110,0.05566,0.01164,0.01926,0.01158,0.01183,0.01245,0.002632,0.0001268,0.178,0.03455,4.781,0.009266,0,1,0
101700000000,102000000000,4520637677,0,766891110,0.05511,0.0116,0.01929,0.01067,0.01089,0.01224,0.002728,0.0001421,0.1877,0.03265,4.545,0.008441,0,1,0
102000000000,102300000000,4520637677,0,766891110,0.0553,0.01167,0.01926,0.0117,0.01193,0.01216,0.00272,0.0001593,0.2007,0.03192,4.672,0.00839,0,1,0
102300000000,102600000000,4520637677,0,766891110,0.0564,0.01154,0.01938,0.01146,0.0117,0.01303,0.002357,0.0001745,0.1885,0.03,4.566,0.008486,0,1,0
102600000000,102900000000,4520637677,0,766891110,0.0564,0.01184,0.01944,0.01062,0.01085,0.0132,0.002411,0.0001888,0.2412,0.03613,4.807,0.008706,0,1,0
102900000000,103200000000,4520637677,0,766891110,0.05304,0.01137,0.0192,0.0114,0.01163,0.01201,0.002472,0.000205,0.2126,0.03772,4.389,0.007783,0,1,0
103200000000,103500000000,4520637677,0,766891110,0.05206,0.01149,0.01929,0.01135,0.01158,0.01263,0.00235,0.0002193,0.2646,0.04138,4.686,0.008253,0,1,0
103500000000,103800000000,4520637677,0,766891110,0.05096,0.0112,0.01929,0.01123,0.01147,0.01212,0.002628,0.0002337,0.1709,0.04065,4.245,0.007449,0,1,0
103800000000,104100000000,4520637677,0,766891110,0.05304,0.01103,0.01901,0.01068,0.01091,0.01212,0.002758,0.0002489,0.2178,0.03436,2.75,0.004524,0,1,0
104100000000,104400000000,4520637677,0,766891110,0.05487,0.01155,0.01938,0.008972,0.009201,0.01294,0.002678,0.0001755,0.2573,0.04498,4.213,0.007801,0,1,0
104400000000,104700000000,4520637677,0,766891110,0.05847,0.01186,0.01923,0.01051,0.01074,0.01233,0.002934,6.962e-05,0.4438,0.03101,4.889,0.009421,0,1,0
104700000000,105000000000,4520637677,0,766891110,0.05389,0.01138,0.01926,0.01053,0.01077,0.01254,0.002953,8.774e-05,0.1934,0.02985,4.273,0.007454,0,1,0
105000000000,105300000000,4520637677,0,766891110,0.05957,0.01207,0.01996,0.008728,0.008972,0.01408,0.003201,0.0001068,0.2949,0.02957,3.706,0.006105,0,1,0
105300000000,105600000000,4520637677,0,766891110,0.05298,0.01122,0.01923,0.01099,0.01123,0.01231,0.002853,0.000123,0.5459,0.02936,4.537,0.007638,0,1,0
105600000000,105900000000,4520637677,0,766891110,0.05756,0.01192,0.01993,0.01004,0.01028,0.01312,0.002842,0.0001402,0.2295,0.02658,4.665,0.008873,0,1,0
105900000000,106200000000,4520637677,0,766891110,0.05481,0.01137,0.01923,0.01105,0.01128,0.01231,0.002754,0.0001554,0.2065,0.03217,5.028,0.00943,0,1,0
106200000000,106500000000,4520637677,0,766891110,0.05402,0.01138,0.01923,0.01091,0.01114,0.01221,0.002525,0.0001698,0.1863,0.03778,4.319,0.007866,0,1,0
106500000000,106800000000,4520637677,0,766891110,0.05194,0.0117,0.01953,0.01001,0.01025,0.01331,0.002491,0.000185,0.218,0.04822,4.659,0.008279,0,1,0
106800000000,107100000000,4520637677,0,766891110,0.0542,0.01126,0.0192,0.0108,0.01103,0.01178,0.002819,0.0001993,0.179,0.04236,4.558,0.008526,0,1,0
107100000000,107400000000,4520637677,0,766891110,0.0517,0.01154,0.01926,0.0117,0.01195,0.01193,0.00264,0.0002146,0.21,0.04614,4.8,0.009824,0,1,0
107400000000,107700000000,4520637677,0,766891110,0.05347,0.01234,0.02032,0.0125,0.01274,0.01378,0.002934,0.0002298,0.1887,0.05029,4.284,0.00881,0,1,0
107700000000,108000000000,4520637677,0,766891110,0.0509,0.0117,0.01926,0.01163,0.01187,0.01237,0.003029,0.0001726,0.1707,0.09253,4.738,0.009871,0,1,0
108000000000,108300000000,4520637677,0,766891110,0.0528,0.01173,0.01926,0.01164,0.01187,0.01236,0.003258,8.488e-05,0.1711,0.03967,4.432,0.00932,0,1,0
108300000000,108600000000,4520637677,0,766891110,0.04865,0.01178,0.01926,0.01164,0.01189,0.01231,0.002697,0.0001011,0.1934,0.04254,4.376,0.00855,0,1,0
108600000000,108900000000,4520637677,0,766891110,0.05115,0.01166,0.01926,0.01163,0.01187,0.01228,0.002911,0.0001163,0.1941,0.03906,4.63,0.008655,0,1,0
108900000000,109200000000,4520637677,0,766891110,0.05164,0.01158,0.01941,0.0101,0.01033,0.01282,0.002735,0.0001316,0.3271,0.04248,3.386,0.005483,0,1,0
109200000000,109500000000,4520637677,0,766891110,0.05182,0.01123,0.01932,0.008743,0.008972,0.0121,0.002636,0.0001478,0.1946,0.04407,4.485,0.007643,0,1,0
109500000000,109800000000,4520637677,0,766891110,0.04803,0.01099,0.01895,0.01059,0.01082,0.0118,0.002682,0.0001621,0.2332,0.04053,4.312,0.007363,0,1,0
109800000000,110100000000,4520637677,0,766891110,0.05212,0.01103,0.01917,0.009384,0.009613,0.01195,0.00267,0.0001755,0.2104,0.03583,3.581,0.005739,0,1,0
110100000000,110400000000,4520637677,0,766891110,0.052,0.01146,0.01932,0.009277,0.009521,0.01199,0.003155,0.0001907,0.1951,0.04449,3.722,0.006455,0,1,0
110400000000,110700000000,4520637677,0,766891110,0.05042,0.01082,0.01907,0.0105,0.01074,0.01163,0.002808,0.0002079,0.1689,0.03253,4.498,0.00743,0,1,0
110700000000,111000000000,4520637677,0,766891110,0.04846,0.01143,0.01929,0.009155,0.009399,0.0126,0.002708,0.0002222,0.1677,0.03992,4.166,0.006855,0,1,0
116100000000,116400000000,4520637677,0,766891110,0.05225,0.01158,0.01923,0.01163,0.01186,0.0119,0.002773,0.0001326,0.2466,0.0307,4.456,0.007247,0,1,0
116400000000,116700000000,4520637677,0,766891110,0.05316,0.01158,0.01926,0.01158,0.01183,0.01192,0.003075,0.0001478,0.1689,0.02658,4.684,0.007813,0,1,0
116700000000,117000000000,4520637677,0,766891110,0.05383,0.01207,0.02002,0.01172,0.01196,0.01328,0.002934,0.0001621,0.1853,0.02701,4.316,0.007006,0,1,0
117000000000,117300000000,4520637677,0,766891110,0.05554,0.01173,0.01926,0.01166,0.01189,0.01215,0.003132,0.0001774,0.1814,0.02823,4.594,0.007534,0,1,0
117300000000,117600000000,4520637677,0,766891110,0.05292,0.01154,0.01926,0.01164,0.01187,0.01196,0.003059,0.0001917,0.1836,0.02808,4.371,0.007113,0,1,0
117600000000,117900000000,4520637677,0,766891110,0.05695,0.01239,0.02048,0.01268,0.01291,0.0137,0.003185,0.0002069,0.1936,0.04614,4.643,0.007667,0,1,0
117900000000,118200000000,4520637677,0,766891110,0.05298,0.0118,0.01938,0.01155,0.01178,0.01241,0.002918,0.0002232,0.1714,0.0376,4.217,0.006666,0,1,0
118200000000,118500000000,4520637677,0,766891110,0.05298,0.01173,0.01926,0.01163,0.01187,0.01219,0.002735,0.0002375,0.1997,0.04156,2.655,0.003755,0,1,0
118500000000,118800000000,4520637677,0,766891110,0.05908,0.01248,0.02063,0.01091,0.01115,0.01363,0.003632,0.0001717,0.1831,0.07544,4.297,0.007126,0,1,0
118800000000,119100000000,4520637677,0,766891110,0.0556,0.01173,0.01907,0.01147,0.01172,0.01216,0.002838,7.057e-05,0.1912,0.04187,4.557,0.007251,0,1,0
119100000000,119400000000,4520637677,0,766891110,0.0556,0.01175,0.01907,0.01149,0.01173,0.01215,0.003029,8.583e-05,0.1672,0.04144,4.226,0.00657,0,1,0
119400000000,119700000000,4520637677,0,766891110,0.05804,0.01184,0.01907,0.01126,0.01151,0.01233,0.002724,0.000102,0.198,0.05084,4.644,0.007476,0,1,0
119700000000,120000000000,4520637677,0,766891110,0.05597,0.01173,0.01907,0.01147,0.01172,0.0121,0.003132,0.0001173,0.2087,0.04504,4.603,0.007711,0,1,0
120000000000,120300000000,4520637677,0,766891110,0.05621,0.01163,0.01907,0.01093,0.01117,0.0123,0.002972,0.0001316,0.1821,0.03632,4.374,0.007345,0,1,0
120300000000,120600000000,4520637677,0,766891110,0.05518,0.01178,0.01907,0.01147,0.01172,0.01215,0.002979,0.0001478,0.1792,0.04822,4.432,0.006869,0,1,0
120600000000,120900000000,4520637677,0,766891110,0.05981,0.01164,0.01907,0.01134,0.01158,0.01231,0.00341,0.0001631,0.1902,0.03296,4.224,0.006657,0,1,0
126000000000,126300000000,4520637677,0,766891110,0.05878,0.01221,0.0206,0.01225,0.0125,0.01311,0.003212,0.0001011,0.1978,0.05255,4.834,0.008286,0,1,0
126300000000,126600000000,4520637677,0,766891110,0.05908,0.01173,0.01926,0.011,0.01126,0.01231,0.002956,0.0001163,0.2317,0.04755,4.357,0.007236,0,1,0
126600000000,126900000000,4520637677,0,766891110,0.06335,0.01195,0.01974,0.01094,0.0112,0.01279,0.003323,0.0001335,0.1917,0.04401,4.824,0.008096,0,1,0
126900000000,127200000000,4520637677,0,766891110,0.0592,0.01205,0.01978,0.01192,0.01216,0.01277,0.002983,0.0001497,0.198,0.03583,4.539,0.007525,0,1,0
127200000000,127500000000,4520637677,0,766891110,0.06097,0.01169,0.01913,0.01088,0.01112,0.01253,0.002644,0.0001659,0.1921,0.04663,4.711,0.007905,0,1,0
127500000000,127800000000,4520637677,0,766891110,0.06073,0.0123,0.02045,0.01233,0.01257,0.01314,0.002895,0.0001822,0.1804,0.04193,4.867,0.008386,0,1,0
127800000000,128100000000,4520637677,0,766891110,0.06085,0.01241,0.02106,0.01326,0.0135,0.01303,0.003136,0.0001984,0.188,0.04413,4.308,0.00664,0,1,0
128100000000,128400000000,4520637677,0,766891110,0.05963,0.01169,0.01926,0.01085,0.01108,0.01242,0.002865,0.0002146,0.2175,0.03406,4.642,0.007097,0,1,0
128400000000,128700000000,4520637677,0,766891110,0.06116,0.01204,0.01926,0.01106,0.01131,0.01251,0.002998,0.0002308,0.1787,0.02786,4.393,0.007091,0,1,0
128700000000,129000000000,4520637677,0,766891110,0.05945,0.01199,0.01926,0.01169,0.01193,0.01241,0.003166,0.000248,0.1938,0.02179,4.65,0.007418,0,1,0
129000000000,129300000000,4520637677,0,766891110,0.06024,0.01248,0.0202,0.01178,0.01202,0.01468,0.003433,0.0002642,0.1807,0.02057,4.324,0.007018,0,1,0
129300000000,129600000000,4520637677,0,766891110,0.06012,0.01254,0.02139,0.01349,0.01373,0.01421,0.003296,0.0001936,0.2261,0.02628,4.783,0.00821,0,1,0
129600000000,129900000000,4520637677,0,766891110,0.06244,0.01248,0.02084,0.01274,0.01299,0.01341,0.002953,8.011e-05,0.1638,0.02249,4.759,0.00856,0,1,0
129900000000,130200000000,4520637677,0,766891110,0.0636,0.01263,0.02097,0.01306,0.01331,0.01352,0.003181,9.537e-05,0.1819,0.02249,5.083,0.009273,0,1,0
130200000000,130500000000,4520637677,0,766891110,0.06836,0.01257,0.02097,0.01306,0.01329,0.01328,0.002956,0.0001125,0.1812,0.01843,4.935,0.008912,0,1,0
130500000000,130800000000,4520637677,0,766891110,0.06567,0.01263,0.021,0.01309,0.01332,0.01314,0.003323,0.0001297,0.2415,0.01901,4.943,0.009193,0,1,0
130800000000,131100000000,4520637677,0,766891110,0.06689,0.01279,0.02103,0.01312,0.01335,0.0134,0.003357,0.0001469,0.1794,0.02142,5.022,0.009123,0,1,0
141000000000,141300000000,4520637677,0,766891110,0.09106,0.01443,0.0231,0.01524,0.01547,0.01501,0.00518,0.000123,0.2373,0.04401,4.733,0.008709,0,1,0
141300000000,141600000000,4520637677,0,766891110,0.09448,0.01572,0.02444,0.01633,0.01657,0.01743,0.005089,0.0001431,0.2288,0.05029,4.786,0.008855,0,1,0
141600000000,141900000000,4520637677,0,766891110,0.09009,0.01448,0.02319,0.01532,0.01556,0.01523,0.005058,0.0001659,0.2158,0.05151,4.897,0.008948,0,1,0
141900000000,142200000000,4520637677,0,766891110,0.09009,0.01459,0.0231,0.01523,0.01547,0.01534,0.005104,0.0001879,0.2322,0.03967,4.332,0.007879,0,1,0
142200000000,142500000000,4520637677,0,766891110,0.0929,0.01448,0.0231,0.01521,0.01546,0.01514,0.005379,0.0002098,0.2312,0.0387,4.802,0.008703,0,1,0
142500000000,142800000000,4520637677,0,766891110,0.09583,0.01462,0.02283,0.01479,0.01501,0.01555,0.004807,0.0002317,0.2607,0.03662,4.475,0.008613,0,1,0
142800000000,143100000000,4520637677,0,766891110,0.09448,0.01442,0.0231,0.01477,0.015,0.01537,0.004929,0.0002537,0.2366,0.03601,4.925,0.009603,0,1,0
143100000000,143400000000,4520637677,0,766891110,0.09363,0.01482,0.0231,0.01521,0.01546,0.01584,0.004829,0.0002747,0.2583,0.03979,4.598,0.008789,0,1,0
143400000000,143700000000,4520637677,0,766891110,0.0918,0.01514,0.0231,0.01518,0.01541,0.01611,0.005226,0.0002966,0.2607,0.01727,4.647,0.008405,0,1,0
143700000000,144000000000,4520637677,0,766891110,0.09998,0.01543,0.02374,0.01547,0.01572,0.01758,0.006172,0.0002346,0.2468,0.03235,4.236,0.007923,0,1,0
144000000000,144300000000,4520637677,0,766891110,0.09204,0.01437,0.02277,0.01482,0.01506,0.01505,0.004791,8.106e-05,0.199,0.02414,4.365,0.007787,0,1,0
144300000000,144600000000,4520637677,0,766891110,0.09375,0.01569,0.02435,0.01627,0.01648,0.01764,0.005531,0.000103,0.2676,0.02344,4.665,0.00838,0,1,0
144600000000,144900000000,4520637677,0,766891110,0.0929,0.01418,0.0228,0.01352,0.01375,0.01532,0.005287,0.0001259,1.664,0.02451,4.335,0.007793,0,1,0
144900000000,145200000000,4520637677,0,766891110,0.09485,0.01451,0.02286,0.01328,0.01352,0.01552,0.005737,0.0001478,0.2314,0.02344,3.481,0.006001,0,1,0
145200000000,145500000000,4520637677,0,766891110,0.09412,0.01425,0.02301,0.0146,0.01485,0.01506,0.005379,0.0001698,0.2104,0.01907,4.635,0.008269,0,1,0
145500000000,145800000000,4520637677,0,766891110,0.09424,0.01474,0.02295,0.01453,0.01477,0.01581,0.005211,0.0001917,0.2256,0.01944,4.621,0.008231,0,1,0
145800000000,146100000000,4520637677,0,766891110,0.09106,0.01451,0.02304,0.01515,0.01538,0.01581,0.004776,0.0002136,0.2192,0.01599,4.78,0.008286,0,1,0
151200000000,151500000000,4520637677,0,766891110,0.09302,0.01385,0.02139,0.01346,0.0137,0.01503,0.004509,8.583e-05,0.2285,0.04486,4.106,0.007669,0,1,0
151500000000,151800000000,4520637677,0,766891110,0.09436,0.01382,0.02185,0.01378,0.01401,0.01512,0.004593,0.0001068,0.2253,0.04236,4.549,0.008736,0,1,0
151800000000,152100000000,4520637677,0,766891110,0.09131,0.01396,0.02127,0.01352,0.01376,0.01514,0.004745,0.0001278,0.2329,0.04688,4.537,0.008254,0,1,0
152100000000,152400000000,4520637677,0,766891110,0.09424,0.01453,0.02307,0.01515,0.0154,0.01562,0.004593,0.0001488,0.2549,0.04578,4.942,0.008908,0,1,0
152400000000,152700000000,4520637677,0,766891110,0.09106,0.01413,0.02258,0.01411,0.01436,0.01535,0.004601,0.0001707,0.2395,0.04773,3.648,0.006461,0,1,0
152700000000,153000000000,4520637677,0,766891110,0.08887,0.01476,0.02399,0.01569,0.01593,0.01666,0.005302,0.0001926,0.2327,0.02856,4.265,0.007667,0,1,0
153000000000,153300000000,4520637677,0,766891110,0.0885,0.01413,0.02307,0.01508,0.01532,0.01495,0.005157,0.0002146,0.2097,0.02078,5.043,0.01004,0,1,0
153300000000,153600000000,4520637677,0,766891110,0.09692,0.01524,0.02365,0.0154,0.01562,0.01715,0.0056,0.0002356,0.2493,0.02164,3.521,0.006496,0,1,0
153600000000,153900000000,4520637677,0,766891110,0.08936,0.0143,0.02283,0.01457,0.01482,0.01506,0.004967,0.0002575,0.2583,0.02142,4.679,0.008547,0,1,0
153900000000,154200000000,4520637677,0,766891110,0.08911,0.01451,0.02261,0.01447,0.01469,0.01575,0.005272,0.0002813,0.3022,0.01865,4.363,0.008015,0,1,0
154200000000,154500000000,4520637677,0,766891110,0.09009,0.01465,0.02298,0.01503,0.01527,0.01639,0.004997,0.0003033,0.3403,0.02008,4.316,0.00829,0,1,0
154500000000,154800000000,4520637677,0,766891110,0.08984,0.01453,0.02304,0.01472,0.01495,0.01624,0.005173,0.0002499,0.2197,0.0275,4.717,0.008592,0,1,0
154800000000,155100000000,4520637677,0,766891110,0.09058,0.01413,0.02228,0.01411,0.01434,0.0163,0.00425,8.583e-05,0.2329,0.02393,4.572,0.008953,0,1,0
155100000000,155400000000,4520637677,0,766891110,0.09338,0.01562,0.02454,0.01605,0.01627,0.01712,0.00547,0.0001068,0.2239,0.02151,4.963,0.009703,0,1,0
155400000000,155700000000,4520637677,0,766891110,0.08911,0.0144,0.0231,0.0153,0.01555,0.01559,0.004005,0.0001287,0.2661,0.03528,4.446,0.008045,0,1,0
155700000000,156000000000,4520637677,0,766891110,0.09387,0.01482,0.02347,0.01434,0.01457,0.01706,0.005493,0.0001497,0.2312,0.03271,3.176,0.005422,0,1,0
161100000000,161400000000,4520637677,0,766891110,0.09009,0.0155,0.02368,0.01562,0.01584,0.01724,0.005035,0.0003109,0.2217,0.02115,4.334,0.007998,0,1,0
161400000000,161700000000,4520637677,0,766891110,0.08984,0.01437,0.02307,0.01508,0.0153,0.01526,0.005165,0.0003347,0.2207,0.01901,4.748,0.008667,0,1,0
161700000000,162000000000,4520637677,0,766891110,0.09241,0.01469,0.02307,0.01443,0.01466,0.01569,0.005821,0.0002747,0.2549,0.03735,3.475,0.006218,0,1,0
162000000000,162300000000,4520637677,0,766891110,0.08948,0.01433,0.02277,0.01448,0.01471,0.01561,0.004829,7.534e-05,0.2224,0.02216,3.734,0.006805,0,1,0
162300000000,162600000000,4520637677,0,766891110,0.08936,0.01425,0.02267,0.0118,0.01202,0.0152,0.004845,9.727e-05,0.2161,0.01779,4.82,0.009323,0,1,0
162600000000,162900000000,4520637677,0,766891110,0.08997,0.01451,0.02286,0.01459,0.01482,0.01587,0.00499,0.0001202,0.2244,0.01999,4.358,0.008196,0,1,0
162900000000,163200000000,4520637677,0,766891110,0.09229,0.01529,0.02347,0.01474,0.01497,0.01727,0.00515,0.0001431,0.2468,0.02399,4.693,0.00861,0,1,0
163200000000,163500000000,4520637677,0,766891110,0.08691,0.01443,0.02307,0.01501,0.01524,0.01555,0.005157,0.0001659,0.1965,0.02216,4.421,0.008221,0,1,0
163500000000,163800000000,4520637677,0,766891110,0.08765,0.01451,0.02307,0.01501,0.01526,0.01524,0.004799,0.000186,0.2397,0.0242,4.927,0.009216,0,1,0
163800000000,164100000000,4520637677,0,766891110,0.08594,0.01436,0.02307,0.01489,0.01514,0.01503,0.004585,0.0002079,0.2478,0.01956,4.479,0.008209,0,1,0
164100000000,164400000000,4520637677,0,766891110,0.08618,0.0143,0.02298,0.01474,0.01498,0.01534,0.00473,0.0002279,0.2007,0.02194,4.639,0.008721,0,1,0
164400000000,164700000000,4520637677,0,766891110,0.08337,0.0139,0.02145,0.0132,0.01343,0.01462,0.004723,0.000248,0.1926,0.01807,4.834,0.009009,0,1,0
164700000000,165000000000,4520637677,0,766891110,0.0835,0.01448,0.02225,0.01411,0.01436,0.01657,0.0047,0.000268,0.1963,0.01614,4.421,0.008235,0,1,0
165000000000,165300000000,4520637677,0,766891110,0.0835,0.01422,0.02295,0.01476,0.01498,0.01538,0.004578,0.000289,0.2402,0.02322,4.781,0.009042,0,1,0
165300000000,165600000000,4520637677,0,766891110,0.08325,0.01457,0.02213,0.01381,0.01404,0.01703,0.005005,0.0002422,0.2126,0.01987,4.385,0.008157,0,1,0
165600000000,165900000000,4520637677,0,766891110,0.08362,0.01463,0.02368,0.01553,0.01578,0.01672,0.004913,7.534e-05,0.2485,0.02472,4.777,0.009046,0,1,0
165900000000,166200000000,4520637677,0,766891110,0.08313,0.01408,0.02213,0.01399,0.01422,0.01503,0.004807,9.632e-05,0.2124,0.02371,4.761,0.008955,0,1,0
166200000000,166500000000,4520637677,0,766891110,0.08154,0.01387,0.02216,0.01381,0.01405,0.01468,0.005051,0.0001173,0.1958,0.021,4.394,0.008165,0,1,0
166500000000,166800000000,4520637677,0,766891110,0.08008,0.0139,0.02155,0.01353,0.01376,0.01633,0.004684,0.0001373,0.208,0.02106,4.771,0.008959,0,1,0
166800000000,167100000000,4520637677,0,766891110,0.08655,0.01437,0.02252,0.01341,0.01364,0.01688,0.00531,0.0001593,0.208,0.02142,4.129,0.008125,0,1,0
167100000000,167400000000,4520637677,0,766891110,0.07617,0.01341,0.0213,0.01344,0.01369,0.01532,0.004242,0.0001793,0.2158,0.02457,4.953,0.01005,0,1,0
167400000000,167700000000,4520637677,0,766891110,0.07642,0.01396,0.02194,0.01285,0.01308,0.01614,0.00457,0.0002003,0.2217,0.01865,4.486,0.009096,0,1,0
167700000000,168000000000,4520637677,0,766891110,0.07385,0.0132,0.02118,0.0134,0.01364,0.01404,0.004204,0.0002203,0.1831,0.01929,3.69,0.007186,0,1,0
168000000000,168300000000,4520637677,0,766891110,0.08081,0.01419,0.02222,0.01401,0.01424,0.01593,0.005234,0.0002413,0.2043,0.01849,3.225,0.006075,0,1,0
168300000000,168600000000,4520637677,0,766891110,0.07422,0.01361,0.02197,0.01369,0.01392,0.01524,0.004646,0.0002632,0.1826,0.01901,4.536,0.009286,0,1,0
168600000000,168900000000,4520637677,0,766891110,0.07483,0.01404,0.02255,0.01447,0.01469,0.01596,0.004227,0.0002823,0.2073,0.01785,3.414,0.006635,0,1,0
168900000000,169200000000,4520637677,0,766891110,0.06848,0.01367,0.02179,0.01379,0.01402,0.01508,0.004768,0.0002451,0.2646,0.02536,4.421,0.00825,0,1,0
169200000000,169500000000,4520637677,0,766891110,0.07263,0.01366,0.02216,0.01401,0.01424,0.01518,0.004326,0.0001001,0.1819,0.0195,4.671,0.008947,0,1,0
169500000000,169800000000,4520637677,0,766891110,0.0686,0.01291,0.02118,0.01338,0.01361,0.01347,0.004005,0.0001202,0.179,0.02014,3.649,0.006839,0,1,0
169800000000,170100000000,4520637677,0,766891110,0.07019,0.01328,0.02118,0.01343,0.01366,0.0141,0.004745,0.0001402,0.1948,0.0202,4.131,0.008035,0,1,0
170100000000,170400000000,4520637677,0,766891110,0.07141,0.01317,0.02118,0.01317,0.0134,0.01407,0.004189,0.0001593,0.2029,0.02078,4.806,0.01016,0,1,0
170400000000,170700000000,4520637677,0,766891110,0.0708,0.01389,0.02182,0.01315,0.0134,0.01596,0.004707,0.0001802,0.2107,0.01901,4.542,0.009065,0,1,0
170700000000,171000000000,4520637677,0,766891110,0.0686,0.01279,0.02136,0.01347,0.0137,0.01479,0.003914,0.0002003,0.1824,0.02313,4.498,0.009568,0,1,0
171000000000,171300000000,4520637677,0,766891110,0.06787,0.01294,0.02118,0.01299,0.01323,0.01414,0.004166,0.0002193,0.1934,0.02078,4.591,0.009887,0,1,0
171300000000,171600000000,4520637677,0,766891110,0.06726,0.01254,0.02094,0.01219,0.01242,0.01341,0.00386,0.0002384,0.1697,0.02457,4.961,0.01046,0,1,0
171600000000,171900000000,4520637677,0,766891110,0.07117,0.01308,0.02115,0.01323,0.01346,0.01382,0.004128,0.0002575,0.2192,0.022,4.443,0.009022,0,1,0
171900000000,172200000000,4520637677,0,766891110,0.06799,0.0128,0.02115,0.0125,0.01273,0.01355,0.004189,0.0002785,0.2129,0.01944,4.877,0.01009,0,1,0
172200000000,172500000000,4520637677,0,766891110,0.06567,0.01282,0.02118,0.01213,0.01236,0.0137,0.004005,0.0002966,0.1799,0.02121,4.718,0.009735,0,1,0
172500000000,172800000000,4520637677,0,766891110,0.06873,0.01367,0.02194,0.01385,0.01408,0.01515,0.004196,0.0002518,0.1978,0.03687,4.565,0.009353,0,1,0
172800000000,173100000000,4520637677,0,766891110,0.06763,0.01268,0.02109,0.01326,0.0135,0.01324,0.003998,7.534e-05,0.176,0.01837,4.259,0.008741,0,1,0
173100000000,173400000000,4520637677,0,766891110,0.06506,0.01259,0.02109,0.01326,0.0135,0.01302,0.003487,9.251e-05,0.2117,0.02008,4.756,0.0102,0,1,0
173400000000,173700000000,4520637677,0,766891110,0.07007,0.01294,0.02109,0.01324,0.01349,0.01363,0.004364,0.0001116,0.3477,0.01779,5.062,0.01059,0,1,0
173700000000,174000000000,4520637677,0,766891110,0.06348,0.01256,0.02109,0.01323,0.01346,0.01341,0.003674,0.0001287,0.1677,0.01849,4.687,0.00987,0,1,0
174000000000,174300000000,4520637677,0,766891110,0.06702,0.0126,0.02109,0.01317,0.01341,0.01324,0.003864,0.0001459,0.1975,0.01791,3.396,0.006633,0,1,0
174300000000,174600000000,4520637677,0,766891110,0.06665,0.0125,0.02109,0.01326,0.01349,0.01294,0.003719,0.0001631,0.1758,0.01865,4.76,0.009955,0,1,0
174600000000,174900000000,4520637677,0,766891110,0.06226,0.01248,0.02109,0.01326,0.01349,0.01305,0.003441,0.0001802,0.1792,0.02057,5.022,0.01035,0,1,0
174900000000,175200000000,4520637677,0,766891110,0.06299,0.01244,0.02112,0.01314,0.01337,0.01305,0.003338,0.0001974,0.1775,0.02301,4.621,0.009486,0,1,0
175200000000,175500000000,4520637677,0,766891110,0.06207,0.01248,0.02109,0.01323,0.01346,0.01331,0.003571,0.0002146,0.2156,0.01724,5.134,0.01052,0,1,0
175500000000,175800000000,4520637677,0,766891110,0.06604,0.01317,0.02167,0.01357,0.01379,0.01512,0.003998,0.0002317,0.1829,0.01944,4.786,0.01035,0,1,0
175800000000,176100000000,4520637677,0,766891110,0.06232,0.01193,0.01962,0.01118,0.01143,0.0128,0.00338,0.0002489,0.1914,0.02106,4.996,0.01091,0,1,0
186300000000,186600000000,4520637677,0,766891110,0.05774,0.01205,0.0199,0.01201,0.01225,0.0126,0.003036,0.0002441,0.1675,0.01929,4.662,0.01098,0,1,0
186600000000,186900000000,4520637677,0,766891110,0.05707,0.01193,0.01938,0.01129,0.01152,0.01266,0.003517,0.0002613,0.1729,0.01642,5.02,0.0118,0,1,0
186900000000,187200000000,4520637677,0,766891110,0.05579,0.01234,0.02072,0.01247,0.0127,0.01285,0.003391,0.0002289,0.1785,0.02228,4.311,0.009503,0,1,0
187200000000,187500000000,4520637677,0,766891110,0.05688,0.01233,0.02075,0.01257,0.0128,0.01338,0.003429,7.725e-05,0.1719,0.01837,4.816,0.01107,0,1,0
187500000000,187800000000,4520637677,0,766891110,0.0542,0.01248,0.02023,0.01231,0.01256,0.01416,0.003422,9.346e-05,0.1853,0.02377,4.621,0.0106,0,1,0
187800000000,188100000000,4520637677,0,766891110,0.05627,0.01247,0.02118,0.01321,0.01344,0.01323,0.003525,0.0001097,0.1826,0.02008,4.592,0.01018,0,1,0
188100000000,188400000000,4520637677,0,766891110,0.0545,0.01244,0.02118,0.01331,0.01353,0.01299,0.003571,0.0001268,0.1809,0.02206,4.762,0.00972,0,1,0
188400000000,188700000000,4520637677,0,766891110,0.0578,0.01254,0.02066,0.01161,0.01184,0.01401,0.003605,0.000145,0.1877,0.02106,4.391,0.008867,0,1,0
188700000000,189000000000,4520637677,0,766891110,0.05243,0.01192,0.01932,0.01151,0.01173,0.01247,0.003551,0.0001602,0.1802,0.01791,4.757,0.01015,0,1,0
189000000000,189300000000,4520637677,0,766891110,0.05634,0.01257,0.02078,0.01263,0.01288,0.01367,0.003574,0.0001783,0.1909,0.02084,4.07,0.008402,0,1,0
189300000000,189600000000,4520637677,0,766891110,0.05414,0.01228,0.0209,0.01239,0.01262,0.0134,0.002289,0.0001955,2.402,0.01886,4.88,0.0107,0,1,0
189600000000,189900000000,4520637677,0,766891110,0.05743,0.01308,0.02103,0.01265,0.01288,0.01443,0.00441,0.0002146,0.1699,0.01642,4.317,0.008918,0,1,0
189900000000,190200000000,4520637677,0,766891110,0.05902,0.01294,0.02075,0.01074,0.01097,0.01466,0.003704,0.0002327,0.1589,0.02158,4.97,0.01186,0,1,0
190200000000,190500000000,4520637677,0,766891110,0.05823,0.0114,0.01929,0.01022,0.01045,0.01192,0.003258,0.0002489,0.1479,0.01837,4.865,0.01165,0,1,0
190500000000,190800000000,4520637677,0,766891110,0.05817,0.01221,0.02002,0.01175,0.01199,0.01367,0.00346,0.0002184,0.1621,0.02158,5.203,0.01236,0,1,0
190800000000,191100000000,4520637677,0,766891110,0.05658,0.01227,0.02063,0.01257,0.01282,0.01375,0.003582,6.485e-05,0.1938,0.02042,4.456,0.009173,0,1,0
191100000000,191400000000,4520637677,0,766891110,0.05481,0.01225,0.02051,0.01155,0.01178,0.01306,0.003696,8.297e-05,0.1577,0.02127,4.388,0.008931,0,1,0
191400000000,191700000000,4520637677,0,766891110,0.05566,0.01216,0.01974,0.008301,0.008545,0.01366,0.00378,0.000102,0.165,0.02142,4.664,0.008976,0,1,0
191700000000,192000000000,4520637677,0,766891110,0.05292,0.01157,0.01929,0.01076,0.01099,0.01227,0.002934,0.0001183,0.2788,0.04126,4.379,0.00867,0,1,0
192000000000,192300000000,4520637677,0,766891110,0.05432,0.01147,0.01929,0.008972,0.009201,0.01242,0.003056,0.0001335,0.1992,0.03571,3.948,0.008185,0,1,0
192300000000,192600000000,4520637677,0,766891110,0.05383,0.01152,0.01929,0.01093,0.01115,0.01218,0.003056,0.0001488,0.1775,0.0412,4.096,0.009298,0,1,0
192600000000,192900000000,4520637677,0,766891110,0.05469,0.01157,0.01926,0.0112,0.01144,0.01215,0.003162,0.000164,0.187,0.03485,5.048,0.01189,0,1,0
192900000000,193200000000,4520637677,0,766891110,0.05255,0.01187,0.01959,0.01152,0.01175,0.01288,0.003109,0.0001802,0.1799,0.03888,4.696,0.01094,0,1,0
193200000000,193500000000,4520637677,0,766891110,0.05182,0.01175,0.01923,0.01132,0.01157,0.01218,0.003105,0.0001945,0.1777,0.04144,3.598,0.007322,0,1,0
193500000000,193800000000,4520637677,0,766891110,0.04773,0.01147,0.01923,0.0108,0.01105,0.01221,0.003094,0.0002089,0.1934,0.03534,3.461,0.006666,0,1,0
193800000000,194100000000,4520637677,0,766891110,0.05212,0.01173,0.01923,0.009827,0.01006,0.0123,0.003071,0.0002232,0.1807,0.02777,4.753,0.009679,0,1,0
194100000000,194400000000,4520637677,0,766891110,0.05096,0.01259,0.02097,0.01271,0.01294,0.01355,0.003471,0.0002022,0.1638,0.02151,4.469,0.008657,0,1,0
194400000000,194700000000,4520637677,0,766891110,0.04956,0.0119,0.02005,0.01207,0.0123,0.01276,0.003098,8.106e-05,0.1729,0.02063,4.495,0.008666,0,1,0
194700000000,195000000000,4520637677,0,766891110,0.05243,0.01251,0.02072,0.009659,0.009903,0.01331,0.003262,9.823e-05,0.1589,0.01614,4.446,0.008434,0,1,0
195000000000,195300000000,4520637677,0,766891110,0.05042,0.01213,0.02036,0.01218,0.01241,0.01283,0.003273,0.0001144,0.1638,0.01672,4.243,0.008293,0,1,0
195300000000,195600000000,4520637677,0,766891110,0.04944,0.01198,0.01941,0.01137,0.0116,0.0127,0.00301,0.0001297,0.1531,0.01791,4.592,0.009365,0,1,0
195600000000,195900000000,4520637677,0,766891110,0.05072,0.0119,0.01956,0.01172,0.01195,0.01265,0.00304,0.0001459,0.1646,0.01791,4.249,0.008461,0,1,0
195900000000,196200000000,4520637677,0,766891110,0.047,0.01172,0.01926,0.01135,0.0116,0.01237,0.002857,0.0001602,0.1768,0.01514,4.575,0.008902,0,1,0
201300000000,201600000000,4520637677,0,766891110,0.05347,0.0116,0.01926,0.01158,0.01183,0.01204,0.002995,0.0002108,0.1863,0.08606,4.572,0.008979,0,1,0
201600000000,201900000000,4520637677,0,766891110,0.052,0.01189,0.01962,0.0117,0.01193,0.01358,0.002392,8.869e-05,0.1792,0.04242,4.761,0.008742,0,1,0
201900000000,202200000000,4520637677,0,766891110,0.05371,0.01216,0.02002,0.01222,0.01245,0.01361,0.002945,0.000103,0.2388,0.04486,4.524,0.007755,0,1,0
202200000000,202500000000,4520637677,0,766891110,0.05573,0.01256,0.02036,0.01247,0.0127,0.01408,0.002876,0.0001183,0.2,0.05566,4.516,0.007495,0,1,0
202500000000,202800000000,4520637677,0,766891110,0.05664,0.01245,0.02118,0.01328,0.0135,0.01299,0.002922,0.0001354,0.1836,0.05115,4.618,0.007699,0,1,0
202800000000,203100000000,4520637677,0,766891110,0.05756,0.01242,0.02118,0.01332,0.01357,0.01285,0.003143,0.0001516,0.1855,0.04395,4.383,0.007364,0,1,0
203100000000,203400000000,4520637677,0,766891110,0.06189,0.01247,0.02048,0.01108,0.01131,0.01369,0.003399,0.0001678,0.2458,0.04138,4.843,0.008416,0,1,0
203400000000,203700000000,4520637677,0,766891110,0.06189,0.01242,0.02118,0.01334,0.01357,0.01299,0.003113,0.000185,0.1841,0.04474,4.534,0.007989,0,1,0
203700000000,204000000000,4520637677,0,766891110,0.05756,0.01256,0.02118,0.013,0.01323,0.01305,0.003036,0.0002022,0.1953,0.04614,4.713,0.008566,0,1,0
204000000000,204300000000,4520637677,0,766891110,0.0575,0.01247,0.02118,0.01332,0.01355,0.01294,0.003052,0.0002193,0.2058,0.05084,4.345,0.007707,0,1,0
204300000000,204600000000,4520637677,0,766891110,0.06018,0.01253,0.02118,0.01335,0.01358,0.01321,0.003349,0.0002365,0.2258,0.05396,3.983,0.006984,0,1,0
204600000000,204900000000,4520637677,0,766891110,0.06091,0.01248,0.02118,0.01343,0.01366,0.01289,0.003254,0.0002527,0.1816,0.04608,4.413,0.007879,0,1,0
204900000000,205200000000,4520637677,0,766891110,0.05975,0.01248,0.02118,0.01335,0.0136,0.01314,0.003319,0.0002298,0.2058,0.05505,4.785,0.008774,0,1,0
205200000000,205500000000,4520637677,0,766891110,0.05933,0.01277,0.02118,0.01332,0.01355,0.01437,0.003017,8.869e-05,0.1995,0.05341,3.501,0.005746,0,1,0
205500000000,205800000000,4520637677,0,766891110,0.06024,0.01271,0.02118,0.01335,0.0136,0.01418,0.003242,0.0001059,0.2424,0.04584,4.639,0.007618,0,1,0
205800000000,206100000000,4520637677,0,766891110,0.06036,0.01241,0.02115,0.01335,0.01358,0.01295,0.003071,0.0001221,0.1797,0.04828,4.383,0.007234,0,1,0
206100000000,206400000000,4520637677,0,766891110,0.06409,0.01262,0.02106,0.01312,0.01335,0.01324,0.003239,0.0001402,0.2258,0.04504,4.033,0.006858,0,1,0
206400000000,206700000000,4520637677,0,766891110,0.0625,0.01245,0.02118,0.01337,0.0136,0.01303,0.003109,0.0001564,0.2271,0.04504,4.328,0.007719,0,1,0
206700000000,207000000000,4520637677,0,766891110,0.06421,0.01241,0.02109,0.0126,0.01283,0.01299,0.003059,0.0001726,0.2393,0.04785,4.61,0.008479,0,1,0
207000000000,207300000000,4520637677,0,766891110,0.06146,0.01228,0.02084,0.01289,0.01312,0.01288,0.002857,0.0001888,0.1775,0.04199,5.147,0.009671,0,1,0
207300000000,207600000000,4520637677,0,766891110,0.06213,0.01207,0.01926,0.0116,0.01183,0.01253,0.002914,0.000206,0.2031,0.04852,3.701,0.006265,0,1,0
207600000000,207900000000,4520637677,0,766891110,0.06201,0.01241,0.02017,0.01233,0.01257,0.0134,0.002987,0.0002213,0.1892,0.04681,4.908,0.008879,0,1,0
207900000000,208200000000,4520637677,0,766891110,0.06219,0.01237,0.02103,0.01302,0.01324,0.01317,0.00322,0.0002375,0.2332,0.03912,2.917,0.004723,0,1,0
208200000000,208500000000,4520637677,0,766891110,0.06012,0.01204,0.01926,0.01152,0.01175,0.0125,0.002937,0.0002537,0.1865,0.04797,4.099,0.006861,0,1,0
208500000000,208800000000,4520637677,0,766891110,0.06165,0.01207,0.01926,0.01146,0.01169,0.01256,0.00341,0.000226,0.1868,0.08606,4.744,0.008845,0,1,0
208800000000,209100000000,4520637677,0,766891110,0.05957,0.0119,0.01926,0.01141,0.01166,0.01241,0.002857,6.866e-05,0.21,0.04486,4.909,0.008841,0,1,0
209100000000,209400000000,4520637677,0,766891110,0.06091,0.01244,0.0206,0.01273,0.01295,0.01321,0.002979,8.583e-05,0.2021,0.05121,4.358,0.007296,0,1,0
209400000000,209700000000,4520637677,0,766891110,0.06036,0.01247,0.02097,0.01292,0.01315,0.01317,0.002892,0.000102,0.2185,0.04535,4.808,0.008425,0,1,0
209700000000,210000000000,4520637677,0,766891110,0.0575,0.01212,0.01935,0.01161,0.01184,0.01259,0.003067,0.0001183,0.1704,0.04144,4.689,0.008283,0,1,0
210000000000,210300000000,4520637677,0,766891110,0.05927,0.01236,0.01987,0.01137,0.0116,0.01427,0.002888,0.0001345,0.2019,0.05713,4.599,0.00773,0,1,0
210300000000,210600000000,4520637677,0,766891110,0.06134,0.01241,0.02115,0.01312,0.01335,0.01309,0.002983,0.0001507,0.1868,0.05243,4.98,0.009275,0,1,0
210600000000,210900000000,4520637677,0,766891110,0.06061,0.01207,0.02029,0.01178,0.01202,0.01276,0.002937,0.0001669,0.1931,0.05164,4.813,0.009194,0,1,0
210900000000,211200000000,4520637677,0,766891110,0.06195,0.01216,0.01999,0.01198,0.01221,0.01282,0.003067,0.0001831,0.1914,0.05048,4.865,0.009527,0,1,0
211200000000,211500000000,4520637677,0,766891110,0.06073,0.01183,0.01926,0.01088,0.01112,0.01234,0.003368,0.0001984,0.189,0.0509,4.992,0.00982,0,1,0
211500000000,211800000000,4520637677,0,766891110,0.06238,0.01199,0.01926,0.01137,0.0116,0.01256,0.003014,0.0002136,0.2051,0.04205,5.304,0.0107,0,1,0
211800000000,212100000000,4520637677,0,766891110,0.06433,0.01245,0.02026,0.01205,0.01228,0.01381,0.003151,0.0002298,0.1865,0.04706,4.928,0.01001,0,1,0
212100000000,212400000000,4520637677,0,766891110,0.06445,0.01233,0.02054,0.01245,0.01268,0.01289,0.003014,0.0002117,0.2039,0.06934,5.331,0.01094,0,1,0
212400000000,212700000000,4520637677,0,766891110,0.06146,0.01236,0.02057,0.01231,0.01254,0.01315,0.00317,8.965e-05,0.1794,0.04431,4.806,0.009167,0,1,0
212700000000,213000000000,4520637677,0,766891110,0.06262,0.01253,0.02115,0.01315,0.0134,0.0132,0.002949,0.0001059,0.2122,0.0531,5.162,0.00985,0,1,0
213000000000,213300000000,4520637677,0,766891110,0.0636,0.01256,0.02115,0.01324,0.01347,0.01306,0.003254,0.0001221,0.199,0.05035,4.759,0.008966,0,1,0
213300000000,213600000000,4520637677,0,766891110,0.06183,0.01285,0.02115,0.01318,0.01341,0.01418,0.003372,0.0001383,0.2297,0.04755,5.133,0.009744,0,1,0
213600000000,213900000000,4520637677,0,766891110,0.06238,0.01237,0.02087,0.01276,0.01299,0.013,0.003048,0.0001554,0.2117,0.05255,4.791,0.009001,0,1,0
213900000000,214200000000,4520637677,0,766891110,0.06238,0.01237,0.02112,0.01305,0.01328,0.01299,0.003067,0.0001717,0.1907,0.04492,5.17,0.00985,0,1,0
214200000000,214500000000,4520637677,0,766891110,0.06158,0.01233,0.02069,0.01146,0.0117,0.01295,0.003262,0.0001879,0.1809,0.05566,4.924,0.009285,0,1,0
214500000000,214800000000,4520637677,0,766891110,0.06445,0.01208,0.01926,0.0116,0.01183,0.01245,0.003338,0.000205,0.1938,0.04974,5.114,0.009957,0,1,0
214800000000,215100000000,4520637677,0,766891110,0.06885,0.01201,0.01929,0.01015,0.01039,0.01251,0.003082,0.0002213,0.1941,0.05023,5.585,0.01208,0,1,0
215100000000,215400000000,4520637677,0,766891110,0.07129,0.01228,0.02036,0.01228,0.01251,0.01279,0.003349,0.0002384,0.1934,0.05017,3.835,0.00824,0,1,0
215400000000,215700000000,4520637677,0,766891110,0.06921,0.01256,0.02118,0.01347,0.0137,0.0132,0.002995,0.0002546,0.2227,0.0517,5.662,0.01288,0,1,0
215700000000,216000000000,4520637677,0,766891110,0.0697,0.01303,0.02118,0.01347,0.01372,0.01421,0.003494,0.0002298,0.1963,0.06091,4.885,0.009953,0,1,0
216000000000,216300000000,4520637677,0,766891110,0.06641,0.01263,0.02121,0.01317,0.0134,0.01305,0.003208,7.343e-05,0.1926,0.05408,5.006,0.009288,0,1,0
221100000000,221400000000,4520637677,0,766891110,0.0741,0.01305,0.02118,0.01324,0.01349,0.01373,0.003674,0.0001698,0.251,0.03912,4.502,0.007204,0,1,0
221400000000,221700000000,4520637677,0,766891110,0.0719,0.01303,0.02109,0.01237,0.0126,0.01355,0.003586,0.0001898,0.2046,0.05652,4.638,0.007252,0,1,0
221700000000,222000000000,4520637677,0,766891110,0.07178,0.01303,0.02121,0.01349,0.01372,0.01346,0.003815,0.0002089,0.2053,0.05066,4.282,0.006646,0,1,0
222000000000,222300000000,4520637677,0,766891110,0.07507,0.01427,0.02237,0.01436,0.01459,0.01624,0.00412,0.0002279,0.1926,0.04456,4.584,0.007088,0,1,0
222300000000,222600000000,4520637677,0,766891110,0.07764,0.01373,0.02173,0.01375,0.01398,0.01431,0.003666,0.0002489,0.2554,0.0387,4.245,0.00662,0,1,0
222600000000,222900000000,4520637677,0,766891110,0.07812,0.01404,0.02203,0.0135,0.01373,0.01596,0.004257,0.0002699,0.2483,0.04211,4.644,0.007304,0,1,0
222900000000,223200000000,4520637677,0,766891110,0.07886,0.01366,0.02121,0.01341,0.01366,0.01443,0.003998,0.0002499,0.2026,0.08313,4.386,0.006968,0,1,0
223200000000,223500000000,4520637677,0,766891110,0.08044,0.01387,0.02197,0.01372,0.01395,0.01575,0.003998,9.346e-05,0.2393,0.05023,4.758,0.00792,0,1,0
223500000000,223800000000,4520637677,0,766891110,0.08252,0.01349,0.02118,0.01323,0.01346,0.01422,0.003952,0.0001144,0.2646,0.04492,3.041,0.004875,0,1,0
223800000000,224100000000,4520637677,0,766891110,0.0835,0.0139,0.02158,0.01349,0.01373,0.01517,0.004158,0.0001345,0.2261,0.04755,4.791,0.007913,0,1,0
224100000000,224400000000,4520637677,0,766891110,0.08252,0.01352,0.02118,0.01334,0.01358,0.01425,0.003868,0.0001545,0.2126,0.04858,4.94,0.008789,0,1,0
224400000000,224700000000,4520637677,0,766891110,0.08398,0.01375,0.02151,0.01358,0.01381,0.015,0.004074,0.0001745,0.2478,0.05322,4.639,0.00854,0,1,0
224700000000,225000000000,4520637677,0,766891110,0.09021,0.01424,0.02292,0.01471,0.01494,0.01508,0.004066,0.0001955,0.2393,0.04871,5.034,0.009202,0,1,0
225000000000,225300000000,4520637677,0,766891110,0.08655,0.01414,0.02277,0.01448,0.01471,0.01521,0.004204,0.0002155,0.2117,0.05328,4.571,0.008136,0,1,0
225300000000,225600000000,4520637677,0,766891110,0.08765,0.01404,0.0217,0.01379,0.01404,0.01515,0.00412,0.0002365,0.2117,0.05353,4.997,0.009041,0,1,0
225600000000,225900000000,4520637677,0,766891110,0.09351,0.01418,0.02252,0.01439,0.01462,0.01535,0.004387,0.0002575,0.2373,0.0509,4.726,0.008515,0,1,0
225900000000,226200000000,4520637677,0,766891110,0.09351,0.01472,0.02313,0.01495,0.0152,0.01593,0.004242,0.0002785,0.2471,0.05444,4.963,0.00884,0,1,0
226200000000,226500000000,4520637677,0,766891110,0.09106,0.01447,0.02313,0.01518,0.01541,0.01524,0.004372,0.0002995,0.2412,0.05383,4.794,0.008463,0,1,0
226500000000,226800000000,4520637677,0,766891110,0.0946,0.01482,0.02313,0.01521,0.01544,0.01636,0.004463,0.0002728,0.2249,0.06787,4.743,0.008361,0,1,0
226800000000,227100000000,4520637677,0,766891110,0.09192,0.01447,0.02313,0.01515,0.01538,0.01515,0.004585,8.202e-05,0.2437,0.05353,5.05,0.008896,0,1,0
227100000000,227400000000,4520637677,0,766891110,0.09778,0.01529,0.02347,0.01543,0.01566,0.01703,0.00457,0.000103,0.2239,0.05353,4.519,0.007975,0,1,0
227400000000,227700000000,4520637677,0,766891110,0.09534,0.01445,0.0231,0.01514,0.01537,0.01515,0.004662,0.0001249,0.2271,0.04767,5.139,0.009563,0,1,0
227700000000,228000000000,4520637677,0,766891110,0.09619,0.01544,0.02402,0.01593,0.01617,0.0174,0.004517,0.0001459,0.238,0.05121,4.553,0.008079,0,1,0
228000000000,228300000000,4520637677,0,766891110,0.09656,0.01447,0.02313,0.01518,0.01541,0.015,0.00444,0.0001678,0.2329,0.05072,4.983,0.008791,0,1,0
228300000000,228600000000,4520637677,0,766891110,0.09802,0.01462,0.0231,0.01515,0.01538,0.01532,0.004807,0.0001898,0.2429,0.05322,4.246,0.007701,0,1,0
228600000000,228900000000,4520637677,0,766891110,0.09729,0.01469,0.0231,0.01512,0.01537,0.01526,0.004486,0.0002117,0.2273,0.05469,4.476,0.007858,0,1,0
228900000000,229200000000,4520637677,0,766891110,0.099,0.01509,0.0231,0.01506,0.01529,0.01633,0.004807,0.0002337,0.251,0.05109,4.961,0.008895,0,1,0
229200000000,229500000000,4520637677,0,766891110,0.09644,0.01472,0.02313,0.015,0.01523,0.01535,0.004295,0.0002565,0.2324,0.04712,4.031,0.007219,0,1,0
229500000000,229800000000,4520637677,0,766891110,0.1006,0.01578,0.02432,0.01537,0.01559,0.01767,0.004875,0.0002785,0.2734,0.05103,3.689,0.006395,0,1,0
229800000000,230100000000,4520637677,0,766891110,0.09656,0.01466,0.02313,0.01512,0.01535,0.01544,0.004875,0.0003014,0.2351,0.05927,3.997,0.006876,0,1,0
230100000000,230400000000,4520637677,0,766891110,0.09619,0.01466,0.02313,0.01509,0.01534,0.01527,0.004936,0.0002747,0.2275,0.09827,4.932,0.008819,0,1,0
230400000000,230700000000,4520637677,0,766891110,0.09814,0.01472,0.02313,0.01505,0.01527,0.01599,0.004509,8.392e-05,0.2202,0.05524,3.798,0.006447,0,1,0
230700000000,231000000000,4520637677,0,766891110,0.09766,0.01486,0.02313,0.01509,0.01534,0.0163,0.004532,0.0001059,0.2212,0.05664,4.204,0.007405,0,1,0
231000000000,231300000000,4520637677,0,766891110,0.09583,0.01471,0.02313,0.01509,0.01532,0.01572,0.004417,0.0001278,0.2246,0.04816,4.679,0.008206,0,1,0
231300000000,231600000000,4520637677,0,766891110,0.09875,0.01569,0.02399,0.0155,0.01572,0.01761,0.004448,0.0001497,0.231,0.05945,3.795,0.006519,0,1,0
231600000000,231900000000,4520637677,0,766891110,0.0957,0.0146,0.0231,0.01509,0.01534,0.01515,0.004463,0.0001717,0.2275,0.0473,5.037,0.009372,0,1,0
231900000000,232200000000,4520637677,0,766891110,0.0979,0.01463,0.0231,0.01506,0.0153,0.01544,0.004456,0.0001936,0.2419,0.04486,5.012,0.009436,0,1,0
232200000000,232500000000,4520637677,0,766891110,0.09814,0.01495,0.02313,0.015,0.01523,0.01578,0.004715,0.0002165,0.2361,0.05023,4.555,0.008082,0,1,0
232500000000,232800000000,4520637677,0,766891110,0.09473,0.01453,0.0231,0.01501,0.01524,0.01535,0.004395,0.0002375,0.2332,0.04797,5.101,0.009438,0,1,0
232800000000,233100000000,4520637677,0,766891110,0.09387,0.01465,0.02313,0.015,0.01523,0.01617,0.004379,0.0002594,0.2422,0.05023,4.614,0.008249,0,1,0
233100000000,233400000000,4520637677,0,766891110,0.09729,0.01498,0.02313,0.01479,0.01503,0.0166,0.00486,0.0002804,0.2485,0.0506,4.969,0.008772,0,1,0
233400000000,233700000000,4520637677,0,766891110,0.09363,0.01466,0.02313,0.01498,0.01521,0.01605,0.004486,0.0003023,0.2153,0.05463,4.579,0.008278,0,1,0
233700000000,234000000000,4520637677,0,766891110,0.09705,0.01541,0.02393,0.01552,0.01575,0.01749,0.004776,0.0002775,0.2466,0.0896,5.009,0.00923,0,1,0
234000000000,234300000000,4520637677,0,766891110,0.09583,0.01474,0.02313,0.01489,0.01512,0.01532,0.004463,8.488e-05,0.2358,0.05084,4.973,0.00893,0,1,0
234300000000,234600000000,4520637677,0,766891110,0.09412,0.01463,0.02313,0.01488,0.01511,0.01524,0.004349,0.0001068,0.2434,0.05383,4.63,0.008701,0,1,0
234600000000,234900000000,4520637677,0,766891110,0.09644,0.01489,0.02313,0.01488,0.01512,0.01561,0.004456,0.0001278,0.2598,0.05121,4.986,0.00903,0,1,0
234900000000,235200000000,4520637677,0,766891110,0.09302,0.01462,0.02313,0.01491,0.01515,0.01535,0.004288,0.0001488,0.2205,0.04907,4.603,0.008297,0,1,0
235200000000,235500000000,4520637677,0,766891110,0.09363,0.01454,0.02313,0.0148,0.01505,0.01534,0.004227,0.0001707,0.2209,0.04517,5.036,0.009016,0,1,0
235500000000,235800000000,4520637677,0,766891110,0.09521,0.01466,0.02313,0.01491,0.01514,0.0153,0.004242,0.0001917,0.2229,0.05634,4.904,0.009166,0,1,0
235800000000,236100000000,4520637677,0,766891110,0.09326,0.01439,0.02298,0.01447,0.01469,0.01511,0.004166,0.0002127,0.2292,0.05438,3.905,0.00685,0,1,0
236100000000,236400000000,4520637677,0,766891110,0.09412,0.01463,0.02301,0.01416,0.01439,0.01569,0.00457,0.0002337,0.2202,0.05554,5.04,0.009261,0,1,0
241200000000,241500000000,4520637677,0,766891110,0.0885,0.01428,0.0231,0.01492,0.01517,0.01488,0.004295,7.439e-05,0.2278,0.02744,4.728,0.007672,0,1,0
241500000000,241800000000,4520637677,0,766891110,0.08728,0.01466,0.02313,0.01508,0.0153,0.01578,0.003754,9.537e-05,0.2131,0.02734,4.337,0.006955,0,1,0
241800000000,242100000000,4520637677,0,766891110,0.09375,0.01451,0.0231,0.01509,0.01534,0.01534,0.004463,0.0001163,0.228,0.02386,3.826,0.006167,0,1,0
242100000000,242400000000,4520637677,0,766891110,0.08887,0.0146,0.02313,0.01472,0.01497,0.01578,0.004166,0.0001373,0.2073,0.02637,4.383,0.007046,0,1,0
242400000000,242700000000,4520637677,0,766891110,0.08899,0.0145,0.0231,0.01511,0.01534,0.01501,0.004318,0.0001583,0.2239,0.02365,4.671,0.007349,0,1,0
242700000000,243000000000,4520637677,0,766891110,0.09021,0.0148,0.0231,0.01503,0.01527,0.01642,0.004326,0.0001802,0.2114,0.01843,4.398,0.007074,0,1,0
243000000000,243300000000,4520637677,0,766891110,0.09045,0.01457,0.0231,0.01511,0.01535,0.01524,0.003788,0.0002031,0.231,0.03192,3.589,0.00548,0,1,0
243300000000,243600000000,4520637677,0,766891110,0.09375,0.01515,0.02365,0.01543,0.01566,0.01724,0.004753,0.0002241,0.2363,0.02441,5.025,0.008851,0,1,0
243600000000,243900000000,4520637677,0,766891110,0.09473,0.015,0.02335,0.01512,0.01537,0.0162,0.004906,0.000246,0.217,0.02344,4.544,0.00806,0,1,0
243900000000,244200000000,4520637677,0,766891110,0.09204,0.01462,0.0231,0.01512,0.01535,0.01529,0.004456,0.0002699,0.2144,0.02487,4.708,0.007754,0,1,0
244200000000,244500000000,4520637677,0,766891110,0.09241,0.01437,0.02289,0.01433,0.01457,0.0154,0.004272,0.0002918,0.2334,0.02142,4.314,0.007143,0,1,0
244500000000,244800000000,4520637677,0,766891110,0.08997,0.01497,0.02365,0.01524,0.01547,0.01678,0.004807,0.0002699,0.2129,0.02621,4.69,0.007798,0,1,0
244800000000,245100000000,4520637677,0,766891110,0.0918,0.01443,0.02286,0.01474,0.01497,0.01512,0.004272,7.725e-05,0.2097,0.01764,4.275,0.006884,0,1,0
245100000000,245400000000,4520637677,0,766891110,0.0896,0.01445,0.02313,0.01514,0.01538,0.015,0.004478,0.0001001,0.2175,0.02164,4.512,0.007245,0,1,0
245400000000,245700000000,4520637677,0,766891110,0.09302,0.0146,0.02289,0.01476,0.01498,0.01555,0.004387,0.000123,0.2385,0.01785,4.749,0.007821,0,1,0
245700000000,246000000000,4520637677,0,766891110,0.09131,0.01476,0.02295,0.01482,0.01505,0.01627,0.004204,0.0001469,0.2031,0.02142,3.529,0.005539,0,1,0
246000000000,246300000000,4520637677,0,766891110,0.08777,0.01443,0.02295,0.01491,0.01514,0.01529,0.004166,0.0001688,0.2258,0.02307,4.77,0.007924,0,1,0
251400000000,251700000000,4520637677,0,766891110,0.08752,0.01495,0.0235,0.01529,0.01553,0.01724,0.004173,0.000309,0.2302,0.02292,4.384,0.00755,0,1,0
251700000000,252000000000,4520637677,0,766891110,0.08435,0.01501,0.02454,0.01556,0.01581,0.01688,0.004578,0.0002871,0.2283,0.03809,4.825,0.008612,0,1,0
252000000000,252300000000,4520637677,0,766891110,0.08228,0.01448,0.02292,0.01447,0.01469,0.01709,0.004166,9.06e-05,0.2285,0.02563,4.519,0.007479,0,1,0
252300000000,252600000000,4520637677,0,766891110,0.08325,0.01477,0.02377,0.01541,0.01562,0.01712,0.003792,0.0001125,0.2468,0.02408,4.535,0.007387,0,1,0
252600000000,252900000000,4520637677,0,766891110,0.08215,0.01385,0.0217,0.01282,0.01305,0.01605,0.003914,0.0001326,0.2183,0.02179,4.792,0.007954,0,1,0
252900000000,253200000000,4520637677,0,766891110,0.0791,0.01431,0.02209,0.01334,0.01357,0.01633,0.003529,0.0001526,0.2065,0.02084,4.331,0.007048,0,1,0
253200000000,253500000000,4520637677,0,766891110,0.07715,0.0136,0.02118,0.01321,0.01344,0.01442,0.003658,0.0001726,0.2078,0.02386,4.785,0.008038,0,1,0
253500000000,253800000000,4520637677,0,766891110,0.0752,0.01392,0.02216,0.01401,0.01425,0.01561,0.004005,0.0001917,0.2073,0.02194,4.412,0.007736,0,1,0
253800000000,254100000000,4520637677,0,766891110,0.07422,0.0134,0.02118,0.01324,0.01347,0.01427,0.003719,0.0002108,0.1904,0.02258,3.257,0.005088,0,1,0
254100000000,254400000000,4520637677,0,766891110,0.07275,0.01341,0.02118,0.01326,0.0135,0.01405,0.003315,0.0002308,0.1926,0.02386,4.505,0.007728,0,1,0
254400000000,254700000000,4520637677,0,766891110,0.07373,0.01338,0.02118,0.01324,0.01347,0.01404,0.003536,0.0002508,0.2402,0.0235,4.527,0.007776,0,1,0
254700000000,255000000000,4520637677,0,766891110,0.07019,0.0132,0.02118,0.01328,0.0135,0.01364,0.003365,0.0002708,0.186,0.02493,4.623,0.007694,0,1,0
255000000000,255300000000,4520637677,0,766891110,0.07227,0.01346,0.02115,0.01324,0.01349,0.01411,0.003433,0.0002909,0.1958,0.02036,3.77,0.006267,0,1,0
255300000000,255600000000,4520637677,0,766891110,0.07141,0.01378,0.02191,0.01375,0.01398,0.01562,0.003387,0.000268,0.2185,0.03302,4.805,0.009024,0,1,0
255600000000,255900000000,4520637677,0,766891110,0.06714,0.01299,0.02124,0.01334,0.01357,0.0141,0.003166,7.439e-05,0.1807,0.02243,4.366,0.007764,0,1,0
255900000000,256200000000,4520637677,0,766891110,0.06689,0.01297,0.02118,0.01334,0.01357,0.01347,0.00354,9.346e-05,0.2,0.02057,4.765,0.008924,0,1,0
256200000000,256500000000,4520637677,0,766891110,0.07336,0.01314,0.02118,0.01331,0.01353,0.01395,0.003975,0.0001116,0.197,0.02158,4.648,0.008971,0,1,0
256500000000,256800000000,4520637677,0,766891110,0.06775,0.01295,0.02118,0.01335,0.01358,0.0135,0.003395,0.0001307,0.1838,0.0235,4.874,0.009563,0,1,0
256800000000,257100000000,4520637677,0,766891110,0.06812,0.01347,0.02185,0.01381,0.01404,0.01491,0.003899,0.0001497,0.2036,0.02386,4.717,0.008584,0,1,0
257100000000,257400000000,4520637677,0,766891110,0.06738,0.01305,0.02103,0.01312,0.01335,0.01358,0.003342,0.0001688,0.1902,0.02499,4.321,0.007684,0,1,0
257400000000,257700000000,4520637677,0,766891110,0.07202,0.01343,0.02103,0.01245,0.0127,0.01428,0.003559,0.0001898,0.2278,0.02313,4.768,0.009172,0,1,0
257700000000,258000000000,4520637677,0,766891110,0.06897,0.01352,0.02103,0.01317,0.01341,0.01402,0.003643,0.0002117,0.1902,0.02249,4.363,0.008278,0,1,0
258000000000,258300000000,4520637677,0,766891110,0.06946,0.01396,0.02194,0.01396,0.01419,0.01587,0.003822,0.0002346,0.199,0.02094,4.832,0.009467,0,1,0
258300000000,258600000000,4520637677,0,766891110,0.06458,0.01251,0.02118,0.0134,0.01363,0.0132,0.003483,0.0002527,0.2109,0.02008,4.516,0.008853,0,1,0
258600000000,258900000000,4520637677,0,766891110,0.06921,0.0128,0.02118,0.0134,0.01363,0.01363,0.003273,0.0002699,0.2241,0.02301,4.889,0.009433,0,1,0
258900000000,259200000000,4520637677,0,766891110,0.06604,0.01299,0.02118,0.0134,0.01363,0.01353,0.003437,0.0002546,0.2122,0.02878,4.438,0.008595,0,1,0
259200000000,259500000000,4520637677,0,766891110,0.06482,0.01265,0.02118,0.01332,0.01355,0.01459,0.00304,8.678e-05,0.1946,0.02158,4.916,0.008855,0,1,0
259500000000,259800000000,4520637677,0,766891110,0.06531,0.0136,0.02182,0.01346,0.0137,0.01549,0.003315,0.0001059,0.1943,0.0235,4.569,0.008386,0,1,0
259800000000,260100000000,4520637677,0,766891110,0.06665,0.01285,0.02112,0.01317,0.01341,0.01349,0.003281,0.000124,0.198,0.02042,3.558,0.006185,0,1,0
260100000000,260400000000,4520637677,0,766891110,0.06396,0.01274,0.02112,0.01317,0.0134,0.01346,0.003212,0.0001431,0.1843,0.02127,3.877,0.007081,0,1,0
260400000000,260700000000,4520637677,0,766891110,0.06274,0.01271,0.02112,0.01318,0.01341,0.01329,0.002968,0.0001612,0.2061,0.02228,4.335,0.008073,0,1,0
260700000000,261000000000,4520637677,0,766891110,0.05981,0.01253,0.02115,0.0132,0.01344,0.01334,0.003242,0.0001783,0.1873,0.02216,4.797,0.008709,0,1,0
261000000000,261300000000,4520637677,0,766891110,0.06628,0.01262,0.02084,0.01225,0.0125,0.01326,0.00317,0.0001955,0.1868,0.01743,4.096,0.007454,0,1,0
261300000000,261600000000,4520637677,0,766891110,0.06323,0.01273,0.02118,0.0134,0.01363,0.01331,0.003437,0.0002146,0.2051,0.02249,4.643,0.008799,0,1,0
261600000000,261900000000,4520637677,0,766891110,0.06433,0.01295,0.02118,0.01344,0.01369,0.0143,0.00346,0.0002327,0.1809,0.01807,4.47,0.008204,0,1,0
261900000000,262200000000,4520637677,0,766891110,0.06219,0.01259,0.02118,0.0135,0.01373,0.01314,0.003033,0.0002518,0.1792,0.01987,4.591,0.00846,0,1,0
262200000000,262500000000,4520637677,0,766891110,0.06702,0.01346,0.02213,0.01419,0.01442,0.01566,0.003521,0.0002699,0.1941,0.02292,3.622,0.006576,0,1,0
262500000000,262800000000,4520637677,0,766891110,0.06195,0.01254,0.02145,0.01376,0.01399,0.01314,0.003082,0.0002537,0.1785,0.02365,4.263,0.007652,0,1,0
262800000000,263100000000,4520637677,0,766891110,0.06128,0.01256,0.02121,0.01344,0.01367,0.01326,0.003239,9.06e-05,0.1931,0.02036,4.777,0.009079,0,1,0
263100000000,263400000000,4520637677,0,766891110,0.06195,0.01253,0.02121,0.01352,0.01375,0.01328,0.003368,0.0001087,0.178,0.02121,3.116,0.005247,0,1,0
263400000000,263700000000,4520637677,0,766891110,0.06836,0.01233,0.02072,0.01028,0.01053,0.01343,0.003868,0.0001297,0.1956,0.02042,4.917,0.01013,0,1,0
263700000000,264000000000,4520637677,0,766891110,0.06311,0.01277,0.02121,0.01297,0.0132,0.01337,0.003651,0.0001497,0.1814,0.02094,4.544,0.008719,0,1,0
264000000000,264300000000,4520637677,0,766891110,0.06097,0.01262,0.02121,0.01353,0.01376,0.01343,0.003204,0.0001688,0.1765,0.02008,3.444,0.005824,0,1,0
264300000000,264600000000,4520637677,0,766891110,0.06,0.01282,0.02118,0.01344,0.01369,0.01428,0.003197,0.0001869,0.176,0.01871,4.57,0.008234,0,1,0
264600000000,264900000000,4520637677,0,766891110,0.06,0.01259,0.02121,0.01355,0.01379,0.01323,0.003345,0.0002041,0.1995,0.02271,4.324,0.007839,0,1,0
264900000000,265200000000,4520637677,0,766891110,0.06482,0.01311,0.02139,0.01346,0.01369,0.01469,0.003723,0.0002232,0.2219,0.02686,4.633,0.009015,0,1,0
265200000000,265500000000,4520637677,0,766891110,0.05731,0.01221,0.02005,0.01236,0.01259,0.01352,0.003067,0.0002403,0.1621,0.01993,4.412,0.00823,0,1,0
265500000000,265800000000,4520637677,0,766891110,0.05884,0.01208,0.01926,0.0117,0.01195,0.01259,0.002789,0.0002575,0.1809,0.02451,5.016,0.01013,0,1,0
265800000000,266100000000,4520637677,0,766891110,0.06323,0.01347,0.02173,0.01352,0.01375,0.01466,0.003326,0.0002747,0.1768,0.02216,4.33,0.00832,0,1,0
266100000000,266400000000,4520637677,0,766891110,0.06097,0.01256,0.02118,0.01343,0.01366,0.01324,0.003445,0.0002604,0.1873,0.03815,3.141,0.005662,0,1,0
266400000000,266700000000,4520637677,0,766891110,0.05908,0.01248,0.02118,0.0135,0.01373,0.01317,0.003284,9.537e-05,0.2178,0.02063,4.421,0.008408,0,1,0
266700000000,267000000000,4520637677,0,766891110,0.05933,0.01254,0.02118,0.01352,0.01375,0.01317,0.003422,0.0001135,0.1953,0.02493,4.653,0.008485,0,1,0
267000000000,267300000000,4520637677,0,766891110,0.06195,0.01248,0.02118,0.01276,0.01299,0.01331,0.003536,0.0001316,0.1797,0.02164,4.45,0.007999,0,1,0
267300000000,267600000000,4520637677,0,766891110,0.06409,0.01233,0.02069,0.01193,0.01216,0.01289,0.003227,0.0001497,0.179,0.02072,4.227,0.00865,0,1,0
267600000000,267900000000,4520637677,0,766891110,0.0614,0.01225,0.02115,0.01335,0.01358,0.01289,0.003777,0.0001669,0.1787,0.02051,5.132,0.01058,0,1,0
267900000000,268200000000,4520637677,0,766891110,0.06323,0.01207,0.01984,0.01184,0.01208,0.01315,0.003567,0.0001841,0.2078,0.02142,4.642,0.009374,0,1,0
268200000000,268500000000,4520637677,0,766891110,0.0567,0.01176,0.01926,0.0117,0.01193,0.01218,0.002598,0.0002003,0.1809,0.02036,4.751,0.008705,0,1,0
268500000000,268800000000,4520637677,0,766891110,0.05933,0.01176,0.01926,0.0117,0.01193,0.01245,0.00267,0.0002155,0.1855,0.02365,4.708,0.009159,0,1,0
268800000000,269100000000,4520637677,0,766891110,0.05988,0.01222,0.02069,0.01282,0.01305,0.01384,0.003181,0.0002308,0.1755,0.02451,5.064,0.009889,0,1,0
269100000000,269400000000,4520637677,0,766891110,0.05573,0.01161,0.01926,0.01158,0.01183,0.01208,0.002892,0.000246,0.176,0.02499,4.515,0.008271,0,1,0
269400000000,269700000000,4520637677,0,766891110,0.05414,0.01147,0.01932,0.01169,0.01192,0.01282,0.002655,0.0002604,0.2087,0.0202,4.761,0.008601,0,1,0
269700000000,270000000000,4520637677,0,766891110,0.05835,0.01227,0.02008,0.01237,0.01262,0.0139,0.00317,0.0002413,0.1765,0.02408,4.78,0.008661,0,1,0
270000000000,270300000000,4520637677,0,766891110,0.05511,0.01161,0.01923,0.0117,0.01195,0.01208,0.002728,7.248e-05,0.1753,0.02228,4.289,0.00765,0,1,0
270300000000,270600000000,4520637677,0,766891110,0.05609,0.01164,0.01926,0.01169,0.01193,0.0121,0.002789,8.774e-05,0.1785,0.02127,4.706,0.008426,0,1,0
270600000000,270900000000,4520637677,0,766891110,0.05627,0.01173,0.01923,0.01173,0.01196,0.01231,0.003109,0.000104,0.1772,0.02014,4.308,0.007622,0,1,0
270900000000,271200000000,4520637677,0,766891110,0.0542,0.01158,0.01923,0.01172,0.01195,0.01225,0.002468,0.0001192,0.2224,0.02121,4.763,0.008514,0,1,0
271200000000,271500000000,4520637677,0,766891110,0.05316,0.01151,0.01926,0.01173,0.01198,0.0121,0.002804,0.0001335,0.1638,0.02344,4.322,0.007694,0,1,0
281400000000,281700000000,4520637677,0,766891110,0.05371,0.01178,0.02002,0.01236,0.01259,0.01303,0.002823,9.918e-05,0.1741,0.05646,3.464,0.005858,0,1,0
281700000000,282000000000,4520637677,0,766891110,0.0517,0.01112,0.01929,0.01186,0.01208,0.01157,0.002502,0.0001144,0.1899,0.05078,4.567,0.008376,0,1,0
282000000000,282300000000,4520637677,0,766891110,0.05029,0.01099,0.01926,0.01189,0.01213,0.01154,0.002365,0.0001278,0.1714,0.04242,5.112,0.009881,0,1,0
282300000000,282600000000,4520637677,0,766891110,0.05042,0.01128,0.01926,0.01184,0.01208,0.01257,0.002445,0.0001421,0.1873,0.04523,4.259,0.008103,0,1,0
282600000000,282900000000,4520637677,0,766891110,0.05096,0.01096,0.01926,0.01187,0.0121,0.0114,0.002335,0.0001545,0.2036,0.04572,5.088,0.01067,0,1,0
282900000000,283200000000,4520637677,0,766891110,0.05078,0.01115,0.01926,0.01187,0.0121,0.01172,0.002548,0.0001698,0.209,0.03717,5.003,0.009828,0,1,0
283200000000,283500000000,4520637677,0,766891110,0.0506,0.01123,0.01926,0.01189,0.01212,0.01178,0.00275,0.0001841,0.1716,0.04681,4.612,0.008799,0,1,0
283500000000,283800000000,4520637677,0,766891110,0.04919,0.01103,0.01926,0.01186,0.0121,0.01151,0.00251,0.0001984,0.1807,0.04773,4.941,0.009438,0,1,0
283800000000,284100000000,4520637677,0,766891110,0.04913,0.01108,0.01926,0.01187,0.0121,0.01149,0.002159,0.0002127,0.1641,0.03006,4.65,0.00927,0,1,0
284100000000,284400000000,4520637677,0,766891110,0.05182,0.0114,0.01926,0.01187,0.0121,0.01192,0.002659,0.0002022,0.23,0.0578,5.025,0.009977,0,1,0
284400000000,284700000000,4520637677,0,766891110,0.05066,0.01125,0.01926,0.01187,0.01212,0.0117,0.002827,6.866e-05,0.1697,0.04108,4.594,0.008793,0,1,0
284700000000,285000000000,4520637677,0,766891110,0.04865,0.01099,0.01926,0.01189,0.01213,0.01138,0.002281,8.392e-05,0.166,0.04779,4.918,0.009414,0,1,0
285000000000,285300000000,4520637677,0,766891110,0.05255,0.01129,0.01926,0.01187,0.01212,0.01172,0.002525,9.823e-05,0.1792,0.04785,4.74,0.009681,0,1,0
285300000000,285600000000,4520637677,0,766891110,0.05219,0.01115,0.01926,0.01187,0.0121,0.01172,0.002544,0.0001125,0.2017,0.04059,5.061,0.009821,0,1,0
285600000000,285900000000,4520637677,0,766891110,0.0498,0.01129,0.01929,0.0119,0.01213,0.01176,0.00259,0.0001278,0.1772,0.04755,4.346,0.007488,0,1,0
285900000000,286200000000,4520637677,0,766891110,0.05017,0.01144,0.01926,0.01189,0.01212,0.01199,0.002556,0.0001431,0.1738,0.04712,4.671,0.008103,0,1,0
286200000000,286500000000,4520637677,0,766891110,0.0506,0.01125,0.01926,0.01189,0.01212,0.01158,0.00246,0.0001574,0.1936,0.05334,4.388,0.007958,0,1,0
286500000000,286800000000,4520637677,0,766891110,0.05042,0.01125,0.01926,0.01187,0.0121,0.01198,0.002518,0.0001717,0.1758,0.04901,2.7,0.004352,0,1,0
286800000000,287100000000,4520637677,0,766891110,0.04932,0.01125,0.01926,0.0118,0.01202,0.01187,0.002399,0.000186,0.2036,0.04419,4.534,0.008032,0,1,0
287100000000,287400000000,4520637677,0,766891110,0.05127,0.01117,0.01926,0.01184,0.01207,0.01166,0.002686,0.0002003,0.1704,0.05579,4.649,0.008313,0,1,0
287400000000,287700000000,4520637677,0,766891110,0.05133,0.01126,0.01929,0.01105,0.01129,0.01181,0.00248,0.0002146,0.1812,0.04767,4.868,0.008807,0,1,0
287700000000,288000000000,4520637677,0,766891110,0.05292,0.01151,0.01926,0.01184,0.01207,0.01201,0.002735,0.0002041,0.1873,0.07239,4.504,0.008105,0,1,0
288000000000,288300000000,4520637677,0,766891110,0.05347,0.01141,0.01926,0.0118,0.01202,0.0118,0.002686,7.153e-05,0.1716,0.04474,4.816,0.009078,0,1,0
288300000000,288600000000,4520637677,0,766891110,0.05176,0.01134,0.01926,0.01187,0.0121,0.01205,0.002705,8.678e-05,0.1868,0.05109,4.556,0.00833,0,1,0
288600000000,288900000000,4520637677,0,766891110,0.05493,0.01187,0.01926,0.01164,0.01189,0.01225,0.002781,0.000103,0.1777,0.05017,4.61,0.008027,0,1,0
288900000000,289200000000,4520637677,0,766891110,0.05634,0.01173,0.01926,0.01184,0.01207,0.01216,0.002876,0.0001202,0.1946,0.04987,4.446,0.008176,0,1,0
289200000000,289500000000,4520637677,0,766891110,0.05377,0.01164,0.01926,0.01187,0.0121,0.01212,0.002777,0.0001354,0.1995,0.0473,4.804,0.008631,0,1,0
289500000000,289800000000,4520637677,0,766891110,0.05475,0.01219,0.01996,0.01237,0.0126,0.01355,0.002884,0.0001516,0.1729,0.0498,4.343,0.007593,0,1,0
289800000000,290100000000,4520637677,0,766891110,0.05566,0.01143,0.01929,0.01128,0.01151,0.01215,0.003048,0.0001678,0.2029,0.04736,4.652,0.008023,0,1,0
290100000000,290400000000,4520637677,0,766891110,0.05914,0.01169,0.01926,0.01176,0.01199,0.01248,0.002811,0.0001841,0.2324,0.05334,4.518,0.008256,0,1,0
290400000000,290700000000,4520637677,0,766891110,0.05896,0.0119,0.01926,0.01186,0.01208,0.01244,0.002872,0.0002012,0.1953,0.05322,5.021,0.01012,0,1,0
290700000000,291000000000,4520637677,0,766891110,0.05725,0.01158,0.01926,0.01163,0.01186,0.01201,0.002705,0.0002174,0.1765,0.04962,4.846,0.009807,0,1,0
291000000000,291300000000,4520637677,0,766891110,0.05933,0.01204,0.02008,0.0125,0.01273,0.01344,0.002808,0.0002327,0.2207,0.05072,5.054,0.009905,0,1,0
291300000000,291600000000,4520637677,0,766891110,0.05951,0.0117,0.01926,0.01187,0.01212,0.01222,0.002991,0.0002232,0.1843,0.09509,4.85,0.009472,0,1,0
291600000000,291900000000,4520637677,0,766891110,0.05768,0.01161,0.01926,0.01167,0.0119,0.01218,0.002949,8.392e-05,0.1951,0.0545,4.757,0.008878,0,1,0
291900000000,292200000000,4520637677,0,766891110,0.05768,0.01172,0.01926,0.01187,0.0121,0.01234,0.002815,0.0001001,0.2336,0.05005,4.799,0.008745,0,1,0
292200000000,292500000000,4520637677,0,766891110,0.05933,0.01183,0.01926,0.01189,0.01212,0.01216,0.002953,0.0001163,0.188,0.03857,4.436,0.007566,0,1,0
292500000000,292800000000,4520637677,0,766891110,0.06079,0.0123,0.01987,0.01231,0.01256,0.01395,0.003414,0.0001326,0.1963,0.04858,4.651,0.007892,0,1,0
292800000000,293100000000,4520637677,0,766891110,0.05994,0.0123,0.02103,0.01335,0.01358,0.01297,0.003189,0.0001497,0.1807,0.04816,4.4,0.007475,0,1,0
293100000000,293400000000,4520637677,0,766891110,0.05865,0.0118,0.01926,0.01172,0.01196,0.01247,0.002872,0.0001669,0.178,0.04688,4.734,0.008112,0,1,0
293400000000,293700000000,4520637677,0,766891110,0.05902,0.01201,0.01926,0.01183,0.01205,0.01259,0.003117,0.0001831,0.197,0.04773,4.362,0.007347,0,1,0
293700000000,294000000000,4520637677,0,766891110,0.06036,0.01187,0.01926,0.01183,0.01205,0.01231,0.003059,0.0001993,0.1882,0.05029,3.746,0.006081,0,1,0
294000000000,294300000000,4520637677,0,766891110,0.05859,0.01196,0.01935,0.01186,0.01208,0.01335,0.002941,0.0002155,0.1943,0.05676,3.749,0.00603,0,1,0
294300000000,294600000000,4520637677,0,766891110,0.05884,0.01265,0.021,0.01314,0.01337,0.0139,0.003258,0.0002327,0.1819,0.05396,4.576,0.007523,0,1,0
294600000000,294900000000,4520637677,0,766891110,0.05859,0.01204,0.0192,0.01158,0.01181,0.01251,0.003082,0.0002489,0.197,0.05554,4.437,0.007457,0,1,0
294900000000,295200000000,4520637677,0,766891110,0.06036,0.01224,0.01999,0.01202,0.01225,0.01311,0.00322,0.0002346,0.2043,0.1039,3.676,0.006198,0,1,0
295200000000,295500000000,4520637677,0,766891110,0.05774,0.01248,0.02112,0.01329,0.01352,0.01326,0.002834,6.485e-05,0.1799,0.0509,3.868,0.006323,0,1,0
295500000000,295800000000,4520637677,0,766891110,0.05914,0.01253,0.02112,0.01338,0.01361,0.01323,0.003258,8.106e-05,3.211,0.04993,4.857,0.008768,0,1,0
295800000000,296100000000,4520637677,0,766891110,0.06274,0.01271,0.02106,0.01328,0.0135,0.01414,0.003551,9.727e-05,0.1904,0.04913,4.684,0.008735,0,1,0
296100000000,296400000000,4520637677,0,766891110,0.06012,0.01215,0.02036,0.01233,0.01257,0.01273,0.00304,0.0001144,0.1865,0.05029,4.697,0.008324,0,1,0
296400000000,296700000000,4520637677,0,766891110,0.0589,0.01186,0.01926,0.01187,0.01212,0.0125,0.002953,0.0001307,0.1726,0.04285,4.832,0.008937,0,1,0
296700000000,297000000000,4520637677,0,766891110,0.05908,0.01184,0.01926,0.01189,0.01213,0.01231,0.00285,0.0001469,0.1733,0.05035,4.437,0.007557,0,1,0
297000000000,297300000000,4520637677,0,766891110,0.05957,0.01187,0.01926,0.01189,0.01213,0.01228,0.002853,0.000164,0.1812,0.04462,4.739,0.008627,0,1,0
297300000000,297600000000,4520637677,0,766891110,0.05927,0.01221,0.01999,0.0123,0.01253,0.01366,0.003017,0.0001793,0.1785,0.0542,4.465,0.00766,0,1,0
297600000000,297900000000,4520637677,0,766891110,0.05927,0.0118,0.01978,0.0118,0.01202,0.0128,0.003036,0.0001965,0.2017,0.04712,4.688,0.007924,0,1,0
297900000000,298200000000,4520637677,0,766891110,0.05914,0.01147,0.0192,0.01155,0.01178,0.01198,0.002743,0.0002117,0.1809,0.05072,4.556,0.008244,0,1,0
298200000000,298500000000,4520637677,0,766891110,0.06146,0.0117,0.01917,0.01094,0.01117,0.0123,0.003006,0.0002289,0.2471,0.05505,4.999,0.009794,0,1,0
298500000000,298800000000,4520637677,0,766891110,0.06262,0.0119,0.01917,0.01125,0.01147,0.01237,0.003231,0.0002213,0.1951,0.05035,4.665,0.008799,0,1,0
298800000000,299100000000,4520637677,0,766891110,0.06085,0.01253,0.02078,0.01202,0.01225,0.01396,0.002991,8.774e-05,0.2031,0.04742,4.682,0.007888,0,1,0
299100000000,299400000000,4520637677,0,766891110,0.06055,0.01236,0.02075,0.01273,0.01297,0.01378,0.003155,0.0001059,0.1841,0.04907,4.525,0.007554,0,1,0
299400000000,299700000000,4520637677,0,766891110,0.06232,0.01239,0.02118,0.01355,0.01379,0.01302,0.003483,0.000123,0.2354,0.04413,4.753,0.008423,0,1,0
299700000000,300000000000,4520637677,0,766891110,0.06219,0.01225,0.02023,0.01259,0.01283,0.0135,0.003181,0.0001392,0.2,0.04492,4.808,0.008328,0,1,0
