5700000000,6000000000,4665712396,60,257407435,0.0184,0.02487,0.03845,0.006569,0.007217,0.02573,0.000102,0.0003691,0.3643,0.01151,1.946,0.003502,0,0,0.01544
6000000000,6300000000,4665712396,60,257407435,0.01108,0.02432,0.03845,0.003952,0.004601,0.02518,5.341e-05,0.00037,0.3628,0.002998,2.434,0.005669,0,0,0.009705
6300000000,6600000000,4665712396,60,257407435,0.01053,0.02414,0.03845,0.004242,0.00489,0.02509,5.817e-05,0.000371,0.394,0.005859,2.844,0.00765,0,0,0.04681
6600000000,6900000000,4665712396,60,257407435,0.01624,0.02505,0.03845,0.004555,0.005203,0.02573,8.011e-05,0.000371,0.4062,0.005501,2.389,0.0058,0,0,0.01158
6900000000,7200000000,4665712396,60,257407435,0.01407,0.02499,0.03845,0.004936,0.005585,0.02551,8.583e-05,0.0003719,0.3774,0.006142,2.084,0.004269,0,0,0.002056
7200000000,7500000000,4665712396,60,257407435,0.01843,0.02548,0.03845,0.005371,0.00602,0.02615,0.0001059,0.0003729,0.4043,0.004715,2.237,0.004816,0,0,0.009583
7500000000,7800000000,4665712396,60,257407435,0.01697,0.02548,0.03839,0.005867,0.006516,0.02606,9.346e-05,0.0003748,0.3843,0.004501,2.188,0.004598,0,0,0.0217
7800000000,8100000000,4665712396,60,257407435,0.01721,0.0256,0.03845,0.00634,0.006981,0.02621,8.965e-05,0.0003757,0.375,0.006432,2.368,0.005648,0,0,0.3613
8100000000,8400000000,4665712396,60,257407435,0.02975,0.02579,0.03839,0.006882,0.00753,0.0264,0.0001125,0.0003767,0.4087,0.00914,1.713,0.002862,0,0,0.02634
8400000000,8700000000,4665712396,60,257407435,0.0188,0.02551,0.03833,0.007545,0.008194,0.0264,9.727e-05,0.0003786,0.4185,0.005928,2.039,0.004187,0,0,0.03369
8700000000,9000000000,4665712396,60,257407435,0.01794,0.02536,0.03833,0.008057,0.008713,0.02621,9.537e-05,0.0003805,0.415,0.005928,3.501,0.01016,0,0,0.01578
9000000000,9300000000,4665712396,60,257407435,0.0267,0.02579,0.03833,0.008698,0.009354,0.02621,0.0001268,0.0003815,0.396,0.0065,2.129,0.004284,0,0,0.0235
9300000000,9600000000,4665712396,60,257407435,0.02737,0.02597,0.03833,0.009232,0.009888,0.02628,0.0001144,0.0003834,0.4097,0.005859,2.044,0.004001,0,0,0.01146
9600000000,9900000000,4665712396,60,257407435,0.02542,0.02579,0.03833,0.009338,0.009979,0.02618,0.0001001,0.0003843,0.4136,0.007355,2.112,0.004457,0,0,0.0141
9900000000,10200000000,4665712396,60,257407435,0.02826,0.02579,0.03833,0.009354,0.01001,0.02615,0.0001221,0.00037,0.4058,0.008209,1.546,0.002402,0,0,0.005661
10200000000,10500000000,4665712396,60,257407435,0.0289,0.0256,0.03833,0.006897,0.007545,0.026,0.0001135,0.0003681,0.3892,0.005859,1.892,0.003444,0,0,0.005951
10500000000,10800000000,4665712396,60,257407435,0.03217,0.02548,0.03839,0.002399,0.003048,0.02609,0.0001249,0.00037,0.3418,0.01015,1.745,0.002795,0,0,0.1433
11100000000,11400000000,4665712396,60,257407435,0.02341,0.02548,0.03839,0.003483,0.004135,0.02585,8.678e-05,0.0003729,0.4292,0.004143,1.828,0.003104,0,0,0.1411
11400000000,11700000000,4665712396,60,257407435,0.02707,0.0256,0.03839,0.004021,0.004662,0.02628,0.000103,0.0003738,0.3794,0.0065,1.879,0.003358,0,0,0.0137
11700000000,12000000000,4665712396,60,257407435,0.03204,0.026,0.03839,0.004539,0.005188,0.0267,0.0001192,0.0003748,0.4048,0.01036,1.676,0.002544,0,0,0.01907
12000000000,12300000000,4665712396,60,257407435,0.0332,0.02634,0.03839,0.00518,0.005829,0.02731,9.346e-05,0.0003767,0.4038,0.006645,1.557,0.00201,0,0,0.01331
12300000000,12600000000,4665712396,60,257407435,0.0387,0.0264,0.03833,0.005814,0.006462,0.02682,8.965e-05,0.0003777,0.3721,0.006432,1.661,0.00233,0,0,0.002785
12600000000,12900000000,4665712396,60,257407435,0.01357,0.02542,0.03839,0.00631,0.006958,0.02618,7.248e-05,0.0003796,0.354,0.004074,2.05,0.004041,0,0,0.005638
12900000000,13200000000,4665712396,60,257407435,0.01331,0.02469,0.03839,0.006638,0.007286,0.02563,7.534e-05,0.0003805,0.3901,0.005432,2.196,0.004531,0,0,0.003929
13200000000,13500000000,4665712396,60,257407435,0.02106,0.02533,0.03839,0.007141,0.00779,0.02621,0.0001183,0.0003815,0.3711,0.006645,1.862,0.003343,0,0,0.003368
13800000000,14100000000,4665712396,60,257407435,0.01184,0.02515,0.03839,0.008118,0.008759,0.02609,6.866e-05,0.0003834,0.3589,0.005859,2.826,0.007595,0,0,0.00367
14100000000,14400000000,4665712396,60,257407435,0.01311,0.02475,0.03839,0.008423,0.009079,0.0257,7.153e-05,0.0003843,0.3696,0.004211,2.039,0.004078,0,0,0.004379
14400000000,14700000000,4665712396,60,257407435,0.01599,0.02493,0.03839,0.008804,0.009445,0.02579,7.82e-05,0.0003853,0.4336,0.003716,2.499,0.006373,0,0,0.00798
14700000000,15000000000,4665712396,60,257407435,0.02017,0.02557,0.03839,0.009323,0.009979,0.02621,9.251e-05,0.0003672,0.417,0.005287,1.999,0.00392,0,0,0.008728
15000000000,15300000000,4665712396,60,257407435,0.01926,0.02554,0.03839,0.004822,0.00547,0.02594,0.0001049,0.0003691,0.3774,0.005859,2.321,0.005166,0,0,0.01176
15300000000,15600000000,4665712396,60,257407435,0.01195,0.02469,0.03845,0.002308,0.002956,0.02551,7.629e-05,0.00037,0.3774,0.003998,2.366,0.005717,0,0,0.03424
15600000000,15900000000,4665712396,60,257407435,0.01782,0.02493,0.03845,0.002712,0.003361,0.0253,5.817e-05,0.000371,0.4077,0.004646,1.943,0.003529,0,0,0.02402
15900000000,16200000000,4665712396,60,257407435,0.02066,0.02475,0.03839,0.003265,0.003914,0.02533,9.537e-05,0.0003719,0.3994,0.01157,2.016,0.003831,0,0,0.01166
16200000000,16500000000,4665712396,60,257407435,0.01498,0.02423,0.03839,0.003796,0.00444,0.02536,0.000102,0.0003729,0.3838,0.006218,2.484,0.005893,0,0,0.0177
16500000000,16800000000,4665712396,60,257407435,0.01492,0.02472,0.03839,0.004234,0.004883,0.02551,7.725e-05,0.0003738,0.3726,0.003502,3.184,0.008923,0,0,0.005165
16800000000,17100000000,4665712396,60,257407435,0.01627,0.02444,0.03839,0.004654,0.005302,0.02536,8.106e-05,0.0003748,0.3823,0.005783,3.157,0.008726,0,0,0.004173
17100000000,17400000000,4665712396,60,257407435,0.01813,0.02505,0.03839,0.005142,0.005791,0.0257,7.82e-05,0.0003767,0.3882,0.005928,2.214,0.004692,0,0,0.001936
17400000000,17700000000,4665712396,60,257407435,0.01498,0.02502,0.03839,0.005653,0.006302,0.0257,8.106e-05,0.0003777,0.3911,0.006218,2.143,0.004523,0,0,0.00201
17700000000,18000000000,4665712396,60,257407435,0.01347,0.02457,0.03845,0.005966,0.006615,0.02527,6.58e-05,0.0003786,0.4268,0.003784,2.639,0.006921,0,0,0.00798
18000000000,18300000000,4665712396,60,257407435,0.01755,0.02484,0.03845,0.006378,0.007027,0.0253,6.962e-05,0.0003796,0.3896,0.005569,2.517,0.006339,0,0,0.005844
18300000000,18600000000,4665712396,60,257407435,0.01733,0.02502,0.03845,0.006851,0.007492,0.02576,6.104e-05,0.0003805,0.4097,0.005501,2.546,0.006447,0,0,0.00737
18600000000,18900000000,4665712396,60,257407435,0.02295,0.02512,0.03845,0.007401,0.008057,0.02573,0.0001259,0.0003815,0.4146,0.01207,2.372,0.005797,0,0,0.02853
18900000000,19200000000,4665712396,60,257407435,0.017,0.02441,0.03839,0.007935,0.008575,0.02527,4.864e-05,0.0003834,0.3989,0.003643,2.73,0.007163,0,0,0.01291
19200000000,19500000000,4665712396,60,257407435,0.01819,0.02457,0.03839,0.008331,0.008972,0.02527,9.537e-05,0.0003843,0.3457,0.005356,2.801,0.007304,0,0,0.01065
19500000000,19800000000,4665712396,60,257407435,0.01782,0.02469,0.03839,0.008759,0.009415,0.0253,8.488e-05,0.0003853,0.4072,0.008362,1.944,0.003556,0,0,0.003506
19800000000,20100000000,4665712396,60,257407435,0.01962,0.0249,0.03845,0.009247,0.009888,0.02545,7.82e-05,0.0003672,0.4292,0.006569,2.654,0.006727,0,0,0.008636
20100000000,20400000000,4665712396,60,257407435,0.03018,0.02527,0.03839,0.004219,0.004868,0.02579,0.0002317,0.00037,0.3901,0.01492,2.508,0.005713,0,0,0.004478
20400000000,20700000000,4665712396,60,257407435,0.01965,0.02466,0.03833,0.00309,0.003738,0.02542,7.153e-05,0.0003719,0.4116,0.004646,1.976,0.003775,0,0,0.3892
20700000000,21000000000,4665712396,60,257407435,0.01274,0.02454,0.03833,0.00349,0.004143,0.02606,5.817e-05,0.0003729,0.375,0.006714,2.108,0.00405,0,0,0.01614
21000000000,21300000000,4665712396,60,257407435,0.01688,0.02554,0.03839,0.003929,0.004578,0.02615,7.82e-05,0.0003738,0.4336,0.005859,2.049,0.003811,0,0,0.006126
21300000000,21600000000,4665712396,60,257407435,0.01437,0.02466,0.03839,0.004295,0.004944,0.02554,6.294e-05,0.0003748,0.3711,0.004997,2.393,0.00569,0,0,0.004448
21600000000,21900000000,4665712396,60,257407435,0.02112,0.02548,0.03839,0.004906,0.005554,0.02609,0.000104,0.0003757,0.394,0.01157,2.048,0.004255,0,0,0.0033
21900000000,22200000000,4665712396,60,257407435,0.01831,0.02585,0.03839,0.005409,0.006058,0.02661,0.0001059,0.0003777,0.4009,0.005783,2.114,0.004651,0,0,0.01048
22200000000,22500000000,4665712396,60,257407435,0.01309,0.0249,0.03839,0.005859,0.006508,0.02615,6.485e-05,0.0003786,0.3691,0.004929,2.086,0.004216,0,0,0.01108
22500000000,22800000000,4665712396,60,257407435,0.02048,0.02567,0.03839,0.006241,0.006889,0.02667,0.0001202,0.0003796,0.4087,0.005287,1.856,0.003288,0,0,0.004982
22800000000,23100000000,4665712396,60,257407435,0.009842,0.02496,0.03845,0.006607,0.007256,0.02628,4.578e-05,0.0003805,0.4087,0.00293,2.456,0.00594,0,0,0.002888
23100000000,23400000000,4665712396,60,257407435,0.009979,0.02478,0.03809,0.006897,0.007545,0.02609,6.771e-05,0.0003815,0.4282,0.004784,2.195,0.004579,0,0,0.01834
23400000000,23700000000,4665712396,60,257407435,0.01208,0.02322,0.03644,0.007072,0.007721,0.02591,5.341e-05,0.0003815,0.3623,0.004356,2.619,0.00671,0,0,0.007217
23700000000,24000000000,4665712396,60,257407435,0.01265,0.02481,0.0365,0.007439,0.008087,0.02573,7.153e-05,0.0003824,0.395,0.004211,2.121,0.004627,0,0,0.002258
24000000000,24300000000,4665712396,60,257407435,0.02328,0.02518,0.0365,0.007843,0.008499,0.02597,0.0001154,0.0003834,0.4014,0.008636,2.069,0.003934,0,0,0.06311
24300000000,24600000000,4665712396,60,257407435,0.01855,0.02545,0.0365,0.008484,0.009125,0.02615,9.06e-05,0.0003853,0.4121,0.006569,2.062,0.004104,0,0,0.003632
24600000000,24900000000,4665712396,60,257407435,0.01965,0.02542,0.03644,0.008957,0.009613,0.02606,8.774e-05,0.0003738,0.436,0.00914,2.454,0.005983,0,0,0.007187
24900000000,25200000000,4665712396,60,257407435,0.0174,0.02536,0.03644,0.008057,0.008698,0.02597,8.392e-05,0.0003681,0.4185,0.004646,2.144,0.004745,0,0,0.005722
25200000000,25500000000,4665712396,60,257407435,0.02051,0.02567,0.0365,0.002022,0.00267,0.0264,8.774e-05,0.0003691,0.4106,0.005859,2.63,0.006484,0,0,0.005356
25500000000,25800000000,4665712396,60,257407435,0.01599,0.02441,0.0365,0.002449,0.003098,0.02582,8.011e-05,0.00037,0.3394,0.005859,2.876,0.007667,0,0,0.005119
25800000000,26100000000,4665712396,60,257407435,0.0191,0.02463,0.0365,0.002892,0.00354,0.02567,0.0001221,0.000371,0.3516,0.009506,2.99,0.007962,0,0,0.009933
26100000000,26400000000,4665712396,60,257407435,0.01901,0.02527,0.0365,0.003407,0.004051,0.02631,8.774e-05,0.0003729,0.3569,0.005432,2.237,0.005065,0,0,0.02002
26400000000,26700000000,4665712396,60,257407435,0.02332,0.02515,0.0365,0.003922,0.00457,0.02591,8.869e-05,0.0003738,0.374,0.005074,2.019,0.004169,0,0,0.00425
26700000000,27000000000,4665712396,60,257407435,0.02612,0.02512,0.03644,0.004593,0.005234,0.02588,0.0001421,0.0003757,0.3501,0.01093,1.764,0.003343,0,0,0.01166
27000000000,27300000000,4665712396,60,257407435,0.01993,0.02484,0.0365,0.005142,0.005791,0.02551,8.774e-05,0.0003767,0.4053,0.008499,2.585,0.006459,0,0,0.006187
27300000000,27600000000,4665712396,60,257407435,0.02145,0.02496,0.0365,0.005692,0.00634,0.02567,0.0001001,0.0003786,0.3989,0.005287,1.804,0.003232,0,0,0.00573
27600000000,27900000000,4665712396,60,257407435,0.01724,0.02423,0.0365,0.00618,0.006828,0.02551,9.537e-05,0.0003796,0.3926,0.008148,1.978,0.003599,0,0,0.002827
27900000000,28200000000,4665712396,60,257407435,0.01804,0.02368,0.0365,0.005714,0.006363,0.02496,8.488e-05,0.0003805,0.3408,0.005432,2.997,0.008099,0,0,0.007965
28200000000,28500000000,4665712396,60,257407435,0.0202,0.02444,0.0365,0.005531,0.00618,0.02512,0.0001068,0.0003815,0.3892,0.005859,2.117,0.004228,0,0,0.004501
28500000000,28800000000,4665712396,60,257407435,0.01669,0.02408,0.0365,0.006004,0.006645,0.02502,9.251e-05,0.0003824,0.3066,0.007004,2.257,0.004667,0,0,0.004761
28800000000,29100000000,4665712396,60,257407435,0.01019,0.02255,0.0365,0.006294,0.006943,0.0238,5.627e-05,0.0003834,0.05042,0.00293,3.531,0.01018,0,0,0.01498
29100000000,29400000000,4665712396,60,257407435,0.02063,0.02353,0.0365,0.006638,0.007286,0.02454,0.0001049,0.0003843,0.3276,0.01207,1.687,0.002984,0,0,0.04144
29400000000,29700000000,4665712396,60,257407435,0.01364,0.02325,0.0365,0.00705,0.007698,0.02435,7.629e-05,0.0003786,0.354,0.004997,2.199,0.004599,0,0,0.009583
29700000000,30000000000,4665712396,60,257407435,0.02087,0.02512,0.0365,0.007454,0.008102,0.02609,8.106e-05,0.0003672,0.3784,0.005501,1.985,0.003894,0,0,0.004768
30000000000,30300000000,4665712396,60,257407435,0.01332,0.02484,0.0365,0.005318,0.005966,0.02591,7.248e-05,0.0003681,0.3828,0.005783,2.011,0.003787,0,0,0.005836
30300000000,30600000000,4665712396,60,257407435,0.02081,0.02472,0.0365,0.0004902,0.001139,0.0256,7.343e-05,0.0003691,0.3813,0.005142,3.08,0.008447,0,0,0.005661
30600000000,30900000000,4665712396,60,257407435,0.01993,0.02472,0.0365,0.001059,0.001707,0.02527,7.82e-05,0.000371,0.4067,0.005211,2.17,0.004478,0,0,0.01228
30900000000,31200000000,4665712396,60,257407435,0.01292,0.02435,0.0365,0.001526,0.002174,0.0256,6.39e-05,0.0003719,0.4067,0.00457,2.097,0.004211,0,0,0.0217
31200000000,31500000000,4665712396,60,257407435,0.02023,0.02481,0.0365,0.001919,0.002567,0.02567,7.248e-05,0.0003729,0.4009,0.005432,1.819,0.00317,0,0,0.01233
31500000000,31800000000,4665712396,60,257407435,0.02252,0.02499,0.0365,0.002445,0.003094,0.02573,9.346e-05,0.0003738,0.4355,0.008072,2.114,0.004499,0,0,0.005966
31800000000,32100000000,4665712396,60,257407435,0.02078,0.02527,0.0365,0.003109,0.003757,0.02609,9.918e-05,0.0003757,0.4102,0.005714,1.976,0.003793,0,0,0.002449
32100000000,32400000000,4665712396,60,257407435,0.01556,0.02524,0.0365,0.003574,0.004219,0.02585,8.583e-05,0.0003767,0.4033,0.006645,1.98,0.003617,0,0,0.01509
32400000000,32700000000,4665712396,60,257407435,0.01999,0.02499,0.0365,0.004013,0.004662,0.02643,9.727e-05,0.0003777,0.3843,0.007645,2.157,0.004363,0,0,0.02173
32700000000,33000000000,4665712396,60,257407435,0.01987,0.02545,0.0365,0.004379,0.005028,0.02606,8.678e-05,0.0003796,0.3784,0.006218,2.636,0.006703,0,0,0.006073
33000000000,33300000000,4665712396,60,257407435,0.01959,0.02487,0.0365,0.004883,0.005531,0.02551,7.725e-05,0.0003805,0.3896,0.006714,2.42,0.005804,0,0,0.002892
33300000000,33600000000,4665712396,60,257407435,0.02142,0.02521,0.0365,0.005371,0.00602,0.0264,7.439e-05,0.0003815,0.3877,0.004646,1.934,0.003533,0,0,0.008713
33600000000,33900000000,4665712396,60,257407435,0.01944,0.0253,0.0365,0.005852,0.0065,0.02628,0.0001059,0.0003824,0.3945,0.008636,2.036,0.003957,0,0,0.004082
33900000000,34200000000,4665712396,60,257407435,0.01978,0.02551,0.0365,0.006386,0.007034,0.02628,7.915e-05,0.0003843,0.4131,0.005859,2.01,0.003809,0,0,0.02081
34200000000,34500000000,4665712396,60,257407435,0.0174,0.02426,0.0365,0.006897,0.007545,0.02533,7.82e-05,0.0003853,0.4141,0.004715,1.897,0.003437,0,0,0.01505
34500000000,34800000000,4665712396,60,257407435,0.02072,0.02533,0.03644,0.007416,0.008057,0.026,8.202e-05,0.0003672,0.3945,0.004784,1.952,0.003597,0,0,0.01311
34800000000,35100000000,4665712396,60,257407435,0.0206,0.02527,0.03455,0.006538,0.007187,0.02615,6.962e-05,0.0003681,0.3926,0.005432,2.142,0.004355,0,0,0.0121
35100000000,35400000000,4665712396,60,257407435,0.0188,0.02545,0.03455,0.0005617,0.001209,0.02661,5.341e-05,0.00037,0.3955,0.005859,2.195,0.004494,0,0,0.008316
35400000000,35700000000,4665712396,60,257407435,0.02197,0.02567,0.03455,0.001066,0.001715,0.02637,9.06e-05,0.000371,0.4292,0.006142,2.736,0.007121,0,0,0.04871
35700000000,36000000000,4665712396,60,257407435,0.01797,0.02502,0.03455,0.001593,0.002239,0.02582,8.392e-05,0.0003719,0.3877,0.004356,1.888,0.003246,0,0,0.008026
36000000000,36300000000,4665712396,60,257407435,0.01259,0.0238,0.03455,0.002037,0.002686,0.02496,7.343e-05,0.0003729,0.4077,0.005356,2.968,0.008108,0,0,0.004486
36300000000,36600000000,4665712396,60,257407435,0.01837,0.02408,0.03455,0.002415,0.003063,0.02563,8.965e-05,0.0003738,0.4028,0.00457,3.273,0.009356,0,0,0.001299
36600000000,36900000000,4665712396,60,257407435,0.02768,0.02515,0.03455,0.002972,0.00362,0.02588,0.0001106,0.0003757,0.4463,0.009644,2.026,0.003766,0,0,0.3657
36900000000,37200000000,4665712396,60,257407435,0.02124,0.02505,0.03455,0.0037,0.004349,0.02579,0.0001078,0.0003767,0.4263,0.007996,1.977,0.003633,0,0,0.01277
37200000000,37500000000,4665712396,60,257407435,0.02026,0.02515,0.03455,0.004242,0.00489,0.02609,8.583e-05,0.0003786,0.3735,0.004929,2.783,0.007308,0,0,0.00592
37500000000,37800000000,4665712396,60,257407435,0.02179,0.02524,0.03455,0.004753,0.005402,0.02615,0.0001011,0.0003796,0.4346,0.005356,2.035,0.003801,0,0,0.01147
37800000000,38100000000,4665712396,60,257407435,0.01938,0.02493,0.03455,0.005318,0.005966,0.0257,7.248e-05,0.0003815,0.4399,0.005714,1.972,0.00364,0,0,0.01837
38100000000,38400000000,4665712396,60,257407435,0.01971,0.02466,0.03455,0.005844,0.006493,0.02524,0.000104,0.0003824,0.4023,0.006287,1.939,0.003424,0,0,0.01202
38400000000,38700000000,4665712396,60,257407435,0.02127,0.02478,0.03455,0.006363,0.007004,0.02563,0.0001125,0.0003834,0.5273,0.005928,2.132,0.004231,0,0,0.0117
38700000000,39000000000,4665712396,60,257407435,0.02014,0.02438,0.03448,0.006447,0.007095,0.02524,9.632e-05,0.0003853,0.3633,0.009079,2.365,0.005127,0,0,0.05695
39000000000,39300000000,4665712396,60,257407435,0.01868,0.02408,0.03448,0.00676,0.007408,0.02527,7.343e-05,0.0003748,0.3418,0.006355,3.705,0.01102,0,0,0.01172
39300000000,39600000000,4665712396,60,257407435,0.0195,0.02399,0.03448,0.007179,0.007828,0.02493,7.915e-05,0.0003681,0.3843,0.005432,2.489,0.005752,0,0,0.0154
39600000000,39900000000,4665712396,60,257407435,0.02969,0.02417,0.03448,0.001724,0.002373,0.02496,0.0001297,0.0003691,0.4082,0.006645,2.095,0.004186,0,0,0.008148
39900000000,40200000000,4665712396,60,257407435,0.01534,0.02362,0.03448,0.001055,0.001703,0.02551,8.869e-05,0.000371,0.3672,0.006073,2.212,0.004575,0,0,0.01512
40200000000,40500000000,4665712396,60,257407435,0.02005,0.0242,0.03455,0.001524,0.002174,0.02493,0.0001011,0.0003719,0.353,0.013,2.24,0.004557,0,0,0.02322
40500000000,40800000000,4665712396,60,257407435,0.02298,0.02408,0.03455,0.002045,0.002693,0.02496,7.915e-05,0.0003729,0.3999,0.005074,2.091,0.004144,0,0,0.008774
51000000000,51300000000,4665712396,60,257407435,0.02255,0.03113,0.03833,0.005295,0.005943,0.03259,0.0001059,0.0003815,0.4092,0.005783,2.285,0.004882,0,0,0.02536
51300000000,51600000000,4665712396,60,257407435,0.01968,0.03085,0.03839,0.005836,0.006485,0.03235,9.441e-05,0.0003824,0.4043,0.005997,2.229,0.004703,0,0,0.006622
51600000000,51900000000,4665712396,60,257407435,0.03265,0.03131,0.03833,0.005974,0.006622,0.03271,0.0001259,0.0003843,0.3525,0.008148,2.248,0.004899,0,0,0.005219
51900000000,52200000000,4665712396,60,257407435,0.02017,0.03085,0.03851,0.006264,0.006912,0.03241,0.000102,0.0003729,0.3652,0.006287,1.999,0.003753,0,0,0.006241
52200000000,52500000000,4665712396,60,257407435,0.02359,0.03091,0.03845,0.004868,0.005516,0.03253,0.0001326,0.0003681,0.3599,0.007355,2.644,0.00684,0,0,0.05804
52500000000,52800000000,4665712396,60,257407435,0.02164,0.03067,0.03839,0.0005512,0.0012,0.03149,8.488e-05,0.00037,0.3643,0.008636,2.136,0.004259,0,0,0.01804
52800000000,53100000000,4665712396,60,257407435,0.0191,0.03073,0.03839,0.001104,0.001753,0.03192,0.0001059,0.000371,0.397,0.008713,1.947,0.003605,0,0,0.0184
53100000000,53400000000,4665712396,60,257407435,0.02213,0.03107,0.03839,0.001682,0.002331,0.0329,0.0001183,0.0003729,0.3877,0.007858,2.664,0.006809,0,0,0.01442
53400000000,53700000000,4665712396,60,257407435,0.01509,0.03003,0.03839,0.002213,0.002857,0.03253,8.488e-05,0.0003738,0.3833,0.005142,2.772,0.007269,0,0,0.01518
53700000000,54000000000,4665712396,60,257407435,0.02103,0.03082,0.03833,0.0028,0.003448,0.0318,0.0001221,0.0003748,0.3784,0.008148,2.026,0.003808,0,0,0.01021
54000000000,54300000000,4665712396,60,257407435,0.01222,0.02966,0.03839,0.003319,0.003967,0.03098,5.817e-05,0.0003767,0.3804,0.004074,2.8,0.00752,0,0,0.01807
54300000000,54600000000,4665712396,60,257407435,0.01831,0.02988,0.03839,0.003719,0.004364,0.03156,8.297e-05,0.0003777,0.3667,0.0065,2.855,0.007654,0,0,0.003029
54600000000,54900000000,4665712396,60,257407435,0.017,0.0303,0.03839,0.004295,0.004944,0.03308,9.346e-05,0.0003786,0.3916,0.008362,2.113,0.004404,0,0,0.005951
54900000000,55200000000,4665712396,60,257407435,0.01512,0.03027,0.03839,0.00473,0.005379,0.03326,8.488e-05,0.0003796,0.4004,0.006142,2.86,0.007823,0,0,0.009964
55200000000,55500000000,4665712396,60,257407435,0.01538,0.03006,0.03833,0.005157,0.005798,0.03253,7.439e-05,0.0003805,0.4126,0.006073,2.766,0.007341,0,0,0.005615
55500000000,55800000000,4665712396,60,257407435,0.01834,0.03012,0.03833,0.00563,0.006279,0.03229,0.0001087,0.0003824,0.4209,0.007782,2.886,0.007825,0,0,0.009308
55800000000,56100000000,4665712396,60,257407435,0.02185,0.03094,0.03845,0.006104,0.006752,0.03241,0.0001373,0.0003834,0.4224,0.01079,1.931,0.003514,0,0,0.01276
56100000000,56400000000,4665712396,60,257407435,0.02118,0.03076,0.03845,0.006027,0.006676,0.03253,9.06e-05,0.0003843,0.3892,0.00486,2.144,0.004414,0,0,0.3657
56400000000,56700000000,4665712396,60,257407435,0.01981,0.03036,0.03833,0.006493,0.007141,0.03113,0.0001154,0.0003738,0.4028,0.007141,2.147,0.004483,0,0,0.003185
56700000000,57000000000,4665712396,60,257407435,0.01299,0.02991,0.03839,0.006981,0.007629,0.03143,9.823e-05,0.0003681,0.3745,0.008286,2.092,0.004337,0,0,0.02383
57000000000,57300000000,4665712396,60,257407435,0.01387,0.02982,0.03839,0.002819,0.003468,0.03198,7.725e-05,0.0003691,0.3994,0.004646,3.53,0.01027,0,0,0.01454
57300000000,57600000000,4665712396,60,257407435,0.02228,0.03024,0.03839,0.000699,0.001347,0.0321,0.0001116,0.00037,0.3823,0.00486,1.958,0.003757,0,0,0.007599
57600000000,57900000000,4665712396,60,257407435,0.01678,0.03061,0.03839,0.00119,0.001839,0.03223,8.011e-05,0.000371,0.4136,0.004646,2.51,0.006163,0,0,0.006889
57900000000,58200000000,4665712396,60,257407435,0.01804,0.03067,0.03839,0.001711,0.002357,0.0321,9.632e-05,0.0003729,0.3887,0.005501,1.897,0.003398,0,0,0.009857
58200000000,58500000000,4665712396,60,257407435,0.034,0.03021,0.03833,0.002537,0.003185,0.0311,0.0002565,0.0003748,0.394,0.01436,2.962,0.007382,0,0,0.009109
58500000000,58800000000,4665712396,60,257407435,0.01974,0.03012,0.04016,0.004036,0.004677,0.03278,0.0001631,0.0003786,0.3413,0.0125,2.837,0.007146,0,0,0.002808
58800000000,59100000000,4665712396,60,257407435,0.01968,0.03058,0.04022,0.004456,0.005104,0.03162,8.583e-05,0.0003796,0.3848,0.005287,2.075,0.004088,0,0,0.03131
59100000000,59400000000,4665712396,60,257407435,0.01526,0.03012,0.04034,0.004929,0.005577,0.03122,7.82e-05,0.0003805,0.3774,0.004997,3.011,0.008442,0,0,0.006302
59400000000,59700000000,4665712396,60,257407435,0.02057,0.0307,0.04028,0.005417,0.006065,0.03229,9.251e-05,0.0003815,0.3882,0.008713,2.846,0.007727,0,0,0.01904
59700000000,60000000000,4665712396,60,257407435,0.01228,0.02951,0.04034,0.005859,0.006508,0.03073,7.82e-05,0.0003824,0.3623,0.005928,3.32,0.009558,0,0,0.01773
60000000000,60300000000,4665712396,60,257407435,0.0173,0.02893,0.04028,0.006302,0.00695,0.02969,9.346e-05,0.0003843,0.144,0.008499,2.142,0.005188,0,0,0.02933
60300000000,60600000000,4665712396,60,257407435,0.0162,0.02951,0.04028,0.006752,0.007401,0.03253,6.866e-05,0.0003853,0.3955,0.005859,2.955,0.008315,0,0,0.006607
60600000000,60900000000,4665712396,60,257407435,0.02084,0.03085,0.04028,0.007042,0.00769,0.03223,0.0001154,0.0003691,0.3926,0.00943,2.235,0.004875,0,0,0.03534
70800000000,71100000000,4665712396,60,257407435,0.01981,0.03012,0.03845,0.001169,0.001818,0.03162,9.918e-05,0.000371,0.4243,0.008636,1.924,0.003578,0,0,0.04993
71100000000,71400000000,4665712396,60,257407435,0.01938,0.03,0.03839,0.001617,0.002266,0.03217,8.106e-05,0.0003729,0.4014,0.005859,2.812,0.007393,0,0,0.00309
71400000000,71700000000,4665712396,60,257407435,0.01773,0.03021,0.03839,0.002014,0.002663,0.03198,9.155e-05,0.0003738,0.4209,0.004288,2.991,0.007975,0,0,0.006203
71700000000,72000000000,4665712396,60,257407435,0.01581,0.02914,0.03839,0.002411,0.003059,0.03073,8.678e-05,0.0003748,0.3574,0.006355,3.174,0.008879,0,0,0.01302
72000000000,72300000000,4665712396,60,257407435,0.01797,0.02945,0.03839,0.002808,0.003456,0.03198,9.346e-05,0.0003757,0.5215,0.005287,2.777,0.007231,0,0,0.002308
72300000000,72600000000,4665712396,60,257407435,0.0311,0.03021,0.03857,0.003338,0.003983,0.03278,0.0001535,0.0003767,0.373,0.006569,2.411,0.005665,0,0,0.008972
72600000000,72900000000,4665712396,60,257407435,0.03156,0.03168,0.04028,0.004105,0.004753,0.03485,0.0001678,0.0003786,0.3657,0.005928,2.114,0.003782,0,0,0.06421
72900000000,73200000000,4665712396,60,257407435,0.0365,0.03204,0.04028,0.005119,0.005768,0.03534,0.0001478,0.0003815,0.3936,0.007431,2.798,0.007281,0,0,0.02951
73200000000,73500000000,4665712396,60,257407435,0.03448,0.03043,0.04022,0.006226,0.006874,0.03302,0.0001669,0.0003834,0.3921,0.01172,2.754,0.007268,0,0,0.01392
73500000000,73800000000,4665712396,60,257407435,0.02887,0.02884,0.04022,0.007057,0.007706,0.03064,0.000145,0.0003777,0.3496,0.01443,2.321,0.004777,0,0,0.007133
74100000000,74400000000,4665712396,60,257407435,0.01198,0.02753,0.03961,0.002926,0.003574,0.02963,8.774e-05,0.00037,0.0686,0.002998,3.07,0.008374,0,0,0.02347
74400000000,74700000000,4665712396,60,257407435,0.0125,0.02502,0.03723,0.0003891,0.001038,0.02591,9.155e-05,0.00037,0.06628,0.006287,3.213,0.009068,0,0,0.01337
75000000000,75300000000,4665712396,60,257407435,0.04578,0.02948,0.03845,0.001936,0.002583,0.03119,0.0002441,0.0003738,0.4014,0.01436,2.086,0.003903,0,0,0.01262
75300000000,75600000000,4665712396,60,257407435,0.03906,0.0289,0.03833,0.003056,0.003704,0.03033,0.0002108,0.0003767,0.5439,0.01207,2.235,0.005042,0,0,0.01151
75600000000,75900000000,4665712396,60,257407435,0.03156,0.02829,0.03839,0.003929,0.004578,0.02975,0.000144,0.0003786,0.4043,0.01178,2.44,0.005967,0,0,0.005783
75900000000,76200000000,4665712396,60,257407435,0.03381,0.02805,0.03833,0.004852,0.005501,0.02933,8.583e-05,0.0003815,0.377,0.005997,2.446,0.005994,0,0,0.004578
76200000000,76500000000,4665712396,60,257407435,0.03491,0.0278,0.03833,0.005844,0.006493,0.0289,0.0001764,0.0003834,0.5723,0.01443,2.049,0.003876,0,0,0.01007
76500000000,76800000000,4665712396,60,257407435,0.03198,0.02783,0.03839,0.006783,0.007431,0.0293,0.0001554,0.0003777,0.4189,0.01151,2.311,0.005464,0,0,0.00486
76800000000,77100000000,4665712396,60,257407435,0.05383,0.02789,0.03839,0.004395,0.005043,0.02905,0.0001984,0.0003691,0.4014,0.01151,2.001,0.003921,0,0,0.0238
77100000000,77400000000,4665712396,60,257407435,0.03253,0.02774,0.03839,0.001204,0.001852,0.02875,0.0001507,0.0003719,0.4053,0.01457,1.96,0.003668,0,0,0.006523
77400000000,77700000000,4665712396,60,257407435,0.04224,0.02783,0.03833,0.002193,0.002842,0.0293,0.0001621,0.0003748,0.3965,0.008636,1.977,0.003359,0,0,0.0603
77700000000,78000000000,4665712396,60,257407435,0.03754,0.02841,0.03833,0.003231,0.00388,0.02975,0.000124,0.0003767,0.3936,0.008636,1.854,0.002937,0,0,0.02036
78000000000,78300000000,4665712396,60,257407435,0.04163,0.02789,0.03833,0.004211,0.00486,0.02924,0.0001841,0.0003796,0.3779,0.01529,1.874,0.003194,0,0,0.0159
78600000000,78900000000,4665712396,60,257407435,0.0235,0.02628,0.03827,0.006172,0.006821,0.02811,8.774e-05,0.0003843,0.3359,0.008636,2.567,0.005757,0,0,0.009811
78900000000,79200000000,4665712396,60,257407435,0.03546,0.02548,0.03827,0.006821,0.007462,0.02725,0.0001249,0.0003777,0.4062,0.005783,1.937,0.003463,0,0,0.2993
79500000000,79800000000,4665712396,60,257407435,0.04425,0.02621,0.03705,0.004173,0.004822,0.02759,0.0001717,0.00037,0.4043,0.00943,2.212,0.004678,0,0,0.007248
80100000000,80400000000,4665712396,60,257407435,0.02621,0.02631,0.0365,0.002296,0.002941,0.02823,0.0001163,0.0003748,0.4219,0.01093,1.938,0.00337,0,0,0.009048
80400000000,80700000000,4665712396,60,257407435,0.03479,0.02637,0.0365,0.00312,0.003769,0.02786,0.0001431,0.0003767,0.4189,0.01071,2.295,0.005373,0,0,0.001873
85800000000,86100000000,4665712396,60,257407435,0.02762,0.02518,0.03461,0.0008755,0.001524,0.02667,0.0001116,0.000371,0.4023,0.008636,2.59,0.006195,0,0,0.007332
86100000000,86400000000,4665712396,60,257407435,0.02176,0.02399,0.03461,0.001453,0.002102,0.0249,0.0001402,0.0003729,0.3477,0.00972,2.242,0.004396,0,0,0.004753
86400000000,86700000000,4665712396,60,257407435,0.02151,0.02371,0.03461,0.001995,0.002644,0.02475,8.488e-05,0.0003738,0.3984,0.005287,2.002,0.003394,0,0,0.004456
86700000000,87000000000,4665712396,60,257407435,0.03418,0.02429,0.03467,0.002621,0.003269,0.02689,0.0001259,0.0003757,0.3525,0.005859,2.714,0.006449,0,0,0.008347
87000000000,87300000000,4665712396,60,257407435,0.03247,0.02527,0.03607,0.003426,0.004074,0.02698,0.0002098,0.0003777,0.3857,0.007217,2.26,0.004576,0,0,0.01419
87300000000,87600000000,4665712396,60,257407435,0.02542,0.02444,0.03632,0.004196,0.004845,0.02603,0.0001078,0.0003796,0.4072,0.008636,2.561,0.005925,0,0,0.01332
87600000000,87900000000,4665712396,60,257407435,0.03998,0.02481,0.03632,0.00515,0.005798,0.02649,0.0001764,0.0003815,0.4062,0.009995,2.973,0.007734,0,0,0.01201
87900000000,88200000000,4665712396,60,257407435,0.02689,0.02414,0.03625,0.005943,0.006592,0.02515,0.0001669,0.0003834,0.3857,0.01015,2.309,0.004759,0,0,0.02304
88200000000,88500000000,4665712396,60,257407435,0.03125,0.02481,0.03625,0.006699,0.007347,0.02664,0.0002012,0.0003805,0.4131,0.008636,3.205,0.008939,0,0,0.007874
88500000000,88800000000,4665712396,60,257407435,0.02649,0.02533,0.03625,0.007454,0.008102,0.02646,0.0001364,0.0003681,0.3779,0.008789,2.277,0.004487,0,0,0.01108
88800000000,89100000000,4665712396,60,257407435,0.02856,0.02496,0.03632,0.003334,0.003983,0.02682,9.346e-05,0.00037,0.3828,0.009933,3.602,0.01066,0,0,0.009384
89100000000,89400000000,4665712396,60,257407435,0.03284,0.02493,0.03632,0.001043,0.001692,0.0267,9.727e-05,0.0003719,0.4014,0.005783,3.357,0.009526,0,0,0.07556
89400000000,89700000000,4665712396,60,257407435,0.03235,0.02402,0.03625,0.001814,0.00246,0.02484,0.0001736,0.0003738,0.3896,0.008713,2.756,0.006921,0,0,0.007797
89700000000,90000000000,4665712396,60,257407435,0.02713,0.02502,0.03625,0.002544,0.003193,0.02682,0.0001059,0.0003757,0.3779,0.008789,2.327,0.004716,0,0,0.2964
90000000000,90300000000,4665712396,60,257407435,0.03638,0.02527,0.03619,0.003269,0.003914,0.02682,0.0001364,0.0003767,0.4033,0.008499,2.9,0.007529,0,0,0.006897
90600000000,90900000000,4665712396,60,257407435,0.02905,0.02502,0.03638,0.006058,0.006706,0.02661,0.0001478,0.0003843,0.543,0.01393,3.043,0.008284,0,0,0.006485
101400000000,101700000000,4665712396,60,257407435,0.0264,0.0235,0.0365,0.001116,0.001764,0.02496,0.0001507,0.0003719,0.4346,0.00943,1.82,0.002929,0,0,0.03381
102000000000,102300000000,4665712396,60,257407435,0.02847,0.0235,0.03644,0.002441,0.00309,0.02472,8.488e-05,0.0003748,0.3965,0.005783,1.691,0.002496,0,0,0.06036
102300000000,102600000000,4665712396,60,257407435,0.03973,0.02377,0.03644,0.00312,0.003769,0.02527,0.0001383,0.0003767,0.3643,0.008713,1.913,0.003349,0,0,0.01572
102600000000,102900000000,4665712396,60,257407435,0.02945,0.02359,0.03644,0.003777,0.004425,0.02493,9.441e-05,0.0003786,0.3818,0.008072,1.613,0.002244,0,0,0.003128
102900000000,103200000000,4665712396,60,257407435,0.02664,0.02313,0.0365,0.004372,0.00502,0.02411,9.632e-05,0.0003796,0.4146,0.00885,2.41,0.005886,0,0,0.003132
103200000000,103500000000,4665712396,60,257407435,0.02682,0.02249,0.0365,0.004944,0.005592,0.02316,6.485e-05,0.0003815,0.4033,0.003857,2.093,0.004534,0,0,0.009491
103500000000,103800000000,4665712396,60,257407435,0.04663,0.02426,0.03644,0.005707,0.006355,0.02628,0.0001516,0.0003834,0.4258,0.01401,1.62,0.002314,0,0,0.3477
103800000000,104100000000,4665712396,60,257407435,0.04187,0.02438,0.0365,0.006386,0.007034,0.02576,8.869e-05,0.0003843,0.4229,0.0065,1.651,0.002322,0,0,0.1372
104100000000,104400000000,4665712396,60,257407435,0.03162,0.02365,0.03644,0.006996,0.007645,0.02463,9.632e-05,0.0003748,0.4219,0.005783,1.66,0.002263,0,0,0.00367
104400000000,104700000000,4665712396,60,257407435,0.03723,0.02484,0.0365,0.007629,0.008286,0.0267,0.0001125,0.0003681,0.4414,0.006645,1.467,0.001776,0,0,0.05981
104700000000,105000000000,4665712396,60,257407435,0.02191,0.02353,0.0365,0.005745,0.006393,0.02554,0.000103,0.00037,0.4072,0.005859,2.469,0.005725,0,0,0.005836
105000000000,105300000000,4665712396,60,257407435,0.02371,0.02402,0.0365,0.0006866,0.001335,0.02533,0.000103,0.000371,0.3496,0.007431,2.032,0.003724,0,0,0.00631
105600000000,105900000000,4665712396,60,257407435,0.03198,0.02426,0.0365,0.00176,0.002407,0.02588,9.251e-05,0.0003738,0.3857,0.01057,2.05,0.003987,0,0,0.006935
105900000000,106200000000,4665712396,60,257407435,0.02634,0.02316,0.0365,0.002354,0.003002,0.02444,9.823e-05,0.0003748,0.4092,0.008636,1.762,0.002645,0,0,0.007446
106200000000,106500000000,4665712396,60,257407435,0.02554,0.0242,0.0365,0.003132,0.00378,0.02612,0.0001402,0.0003767,0.3887,0.008636,1.86,0.002972,0,0,0.02115
106500000000,106800000000,4665712396,60,257407435,0.03137,0.02386,0.0365,0.003792,0.00444,0.02466,0.0001192,0.0003786,0.3955,0.007141,1.918,0.003141,0,0,0.005798
106800000000,107100000000,4665712396,60,257407435,0.03113,0.02374,0.0365,0.004478,0.005127,0.02481,0.0001116,0.0003796,0.415,0.008148,1.887,0.003272,0,0,0.004486
107100000000,107400000000,4665712396,60,257407435,0.0267,0.02448,0.0365,0.005157,0.005806,0.02615,0.0001144,0.0003815,0.3789,0.0105,1.925,0.003207,0,0,0.05933
107400000000,107700000000,4665712396,60,257407435,0.03326,0.0246,0.0365,0.005936,0.006584,0.02637,0.0001287,0.0003834,0.3896,0.01042,2.239,0.004947,0,0,0.008423
107700000000,108000000000,4665712396,60,257407435,0.02921,0.02423,0.0365,0.006584,0.007233,0.02588,0.0001163,0.0003843,0.4053,0.008636,1.861,0.003039,0,0,0.002388
108000000000,108300000000,4665712396,60,257407435,0.0224,0.02371,0.0365,0.007156,0.007805,0.02542,0.000103,0.0003672,0.4307,0.01157,2.008,0.003702,0,0,0.007355
108300000000,108600000000,4665712396,60,257407435,0.02969,0.02405,0.0365,0.007874,0.00853,0.02557,0.0001574,0.0003691,0.4492,0.01393,1.808,0.002775,0,0,0.005547
108600000000,108900000000,4665712396,60,257407435,0.02972,0.02359,0.0365,0.0009413,0.001591,0.02481,0.0001259,0.000371,0.4102,0.007645,1.897,0.00321,0,0,0.002411
109500000000,109800000000,4665712396,60,257407435,0.02795,0.02365,0.0365,0.002895,0.003544,0.02441,0.0001154,0.0003757,0.377,0.006927,1.827,0.003404,0,0,0.00349
109800000000,110100000000,4665712396,60,257407435,0.03918,0.02353,0.03644,0.003895,0.004547,0.02435,0.0001955,0.0003786,0.3809,0.0145,2.924,0.007573,0,0,0.02295
110700000000,111000000000,4665712396,60,257407435,0.03271,0.02518,0.0365,0.005783,0.006432,0.02649,0.0001326,0.0003834,0.4131,0.01042,2.206,0.004675,0,0,0.006371
116100000000,116400000000,4665712396,60,257407435,0.02347,0.02359,0.03259,0.00301,0.003658,0.02481,0.0001144,0.0003767,0.4238,0.007072,1.944,0.003332,0,0,0.002071
116400000000,116700000000,4665712396,60,257407435,0.01996,0.02344,0.03278,0.003559,0.004211,0.02509,8.011e-05,0.0003786,0.4077,0.005783,1.948,0.00368,0,0,0.007179
116700000000,117000000000,4665712396,60,257407435,0.02377,0.02396,0.03308,0.004135,0.004784,0.02524,9.823e-05,0.0003796,0.4443,0.007004,1.848,0.002997,0,0,0.01033
117000000000,117300000000,4665712396,60,257407435,0.02557,0.02328,0.03345,0.004684,0.005333,0.02472,0.0001059,0.0003805,0.4072,0.008209,1.913,0.003247,0,0,0.00914
117300000000,117600000000,4665712396,60,257407435,0.02307,0.02423,0.0332,0.005333,0.005974,0.02621,0.0001364,0.0003824,0.4019,0.006783,1.964,0.003538,0,0,0.02109
117600000000,117900000000,4665712396,60,257407435,0.03351,0.02341,0.03271,0.006111,0.00676,0.02509,0.0001526,0.0003843,0.3955,0.01151,2.453,0.005769,0,0,0.01871
117900000000,118200000000,4665712396,60,257407435,0.04163,0.02341,0.03253,0.006393,0.007042,0.02435,0.0002842,0.000371,0.3765,0.01443,3.012,0.007076,0,0,0.03644
118200000000,118500000000,4665712396,60,257407435,0.01581,0.02213,0.03253,0.0006218,0.00127,0.02408,8.583e-05,0.000371,0.4336,0.005859,2.443,0.005911,0,0,0.007088
118800000000,119100000000,4665712396,60,257407435,0.02106,0.02182,0.03253,0.002075,0.002724,0.02298,0.0001097,0.0003748,0.4092,0.006073,2.252,0.005277,0,0,0.004318
119100000000,119400000000,4665712396,60,257407435,0.01654,0.02216,0.03259,0.002575,0.003223,0.02383,8.488e-05,0.0003757,0.4395,0.005928,1.557,0.002622,0,0,0.004936
119400000000,119700000000,4665712396,60,257407435,0.02155,0.02231,0.03265,0.003036,0.003685,0.02353,0.0001001,0.0003767,0.4106,0.006432,1.856,0.003108,0,0,0.005661
119700000000,120000000000,4665712396,60,257407435,0.02148,0.02191,0.03265,0.003517,0.004166,0.02484,9.155e-05,0.0003777,0.375,0.005432,2.139,0.004499,0,0,0.009521
120000000000,120300000000,4665712396,60,257407435,0.02252,0.02271,0.03265,0.004005,0.004654,0.0238,6.962e-05,0.0003796,0.3848,0.005859,1.892,0.0035,0,0,0.008514
120300000000,120600000000,4665712396,60,257407435,0.02884,0.02313,0.03259,0.004555,0.005196,0.02484,0.000104,0.0003805,0.4141,0.006218,2.154,0.004714,0,0,0.002701
120600000000,120900000000,4665712396,60,257407435,0.03223,0.02322,0.03381,0.005257,0.005905,0.02515,0.0001335,0.0003824,0.4033,0.01193,2.387,0.005688,0,0,0.01328
126000000000,126300000000,4665712396,60,257407435,0.01596,0.02213,0.03448,0.009552,0.01019,0.02332,0.0001163,0.0003738,0.3965,0.005859,2.44,0.006074,0,0,0.009064
126300000000,126600000000,4665712396,60,257407435,0.0166,0.02292,0.03455,0.009186,0.009827,0.02481,7.629e-05,0.0003748,0.3989,0.006287,2.191,0.004839,0,0,0.02109
126600000000,126900000000,4665712396,60,257407435,0.02051,0.02347,0.03455,0.008713,0.009354,0.02505,0.0001287,0.0003757,0.3926,0.01308,2.015,0.003678,0,0,0.002636
126900000000,127200000000,4665712396,60,257407435,0.03079,0.02243,0.03448,0.00914,0.009796,0.02307,6.866e-05,0.0003767,0.3857,0.003071,1.645,0.00235,0,0,0.006683
127200000000,127500000000,4665712396,60,257407435,0.03259,0.02206,0.03448,0.009613,0.01025,0.02469,9.06e-05,0.0003786,0.3965,0.006218,1.603,0.002154,0,0,0.04462
128100000000,128400000000,4665712396,60,257407435,0.02936,0.02274,0.03436,0.01016,0.0108,0.02441,0.0001411,0.0003834,0.4482,0.007286,1.962,0.003415,0,0,0.009216
128400000000,128700000000,4665712396,60,257407435,0.0329,0.02335,0.03436,0.009537,0.01019,0.02454,0.0001326,0.0003843,0.3887,0.01071,2.19,0.004722,0,0,0.007477
128700000000,129000000000,4665712396,60,257407435,0.04102,0.0228,0.0343,0.01042,0.01106,0.02356,0.0001574,0.00037,0.417,0.01199,1.901,0.003409,0,0,0.02527
129000000000,129300000000,4665712396,60,257407435,0.03049,0.02261,0.0343,0.0107,0.01135,0.02353,0.0001173,0.0003691,0.3711,0.008713,2.465,0.005693,0,0,0.009399
129300000000,129600000000,4665712396,60,257407435,0.02396,0.02237,0.03436,0.004234,0.004883,0.02328,0.0001125,0.000371,0.3975,0.005783,3.841,0.0117,0,0,0.01257
129600000000,129900000000,4665712396,60,257407435,0.01947,0.02286,0.03436,0.004257,0.004906,0.02481,0.0001221,0.0003719,0.437,0.009003,2.116,0.004165,0,0,0.009262
130200000000,130500000000,4665712396,60,257407435,0.02209,0.02231,0.03436,0.005531,0.00618,0.0231,0.0001221,0.0003757,0.3687,0.009354,3.111,0.00844,0,0,0.022
130500000000,130800000000,4665712396,60,257407435,0.02609,0.02396,0.03436,0.006218,0.006859,0.02533,0.0001307,0.0003767,0.4023,0.008713,3.569,0.01029,0,0,0.01134
130800000000,131100000000,4665712396,60,257407435,0.02142,0.0235,0.03436,0.00692,0.007568,0.02548,0.0001221,0.0003786,0.3555,0.005783,3.129,0.008654,0,0,0.01234
141000000000,141300000000,4665712396,60,257407435,0.01785,0.02945,0.04022,0.003567,0.004211,0.03098,8.583e-05,0.0003767,0.4038,0.005142,2.562,0.006315,0,0,0.002071
141300000000,141600000000,4665712396,60,257407435,0.009949,0.02808,0.04041,0.003895,0.004539,0.03174,5.341e-05,0.0003777,0.3784,0.00486,2.924,0.007857,0,0,0.0007772
141600000000,141900000000,4665712396,60,257407435,0.02097,0.03036,0.04041,0.004303,0.004951,0.03198,0.0001078,0.0003786,0.3809,0.006287,1.938,0.003485,0,0,0.01265
141900000000,142200000000,4665712396,60,257407435,0.01816,0.02924,0.04034,0.004822,0.00547,0.03024,7.439e-05,0.0003796,0.3633,0.006142,2.849,0.0075,0,0,0.002605
142200000000,142500000000,4665712396,60,257407435,0.02588,0.02966,0.04016,0.005447,0.006096,0.03073,0.0001459,0.0003815,0.3506,0.008713,2.207,0.004631,0,0,0.02243
142500000000,142800000000,4665712396,60,257407435,0.01965,0.02905,0.04016,0.006104,0.006752,0.03036,0.0001478,0.0003834,0.3848,0.008499,2.233,0.004626,0,0,0.007034
142800000000,143100000000,4665712396,60,257407435,0.01892,0.03009,0.04016,0.006721,0.00737,0.0321,0.0001135,0.0003843,0.3662,0.008499,3.575,0.01071,0,0,0.0217
143100000000,143400000000,4665712396,60,257407435,0.02161,0.02914,0.04016,0.007362,0.008011,0.03043,0.000123,0.0003738,0.3584,0.005928,2.265,0.004876,0,0,0.01059
143400000000,143700000000,4665712396,60,257407435,0.01555,0.02966,0.04022,0.007889,0.00853,0.03137,8.106e-05,0.0003681,0.3994,0.005783,2.813,0.007383,0,0,0.01144
143700000000,144000000000,4665712396,60,257407435,0.01831,0.02908,0.04028,0.008316,0.008972,0.03021,9.346e-05,0.0003691,0.3994,0.005928,2.591,0.006734,0,0,0.004105
144000000000,144300000000,4665712396,60,257407435,0.01639,0.02951,0.04041,0.004997,0.005646,0.03174,8.202e-05,0.00037,0.3843,0.005859,2.697,0.006868,0,0,0.008163
144300000000,144600000000,4665712396,60,257407435,0.0192,0.02954,0.04047,0.001375,0.002026,0.03073,8.869e-05,0.0003719,0.373,0.006714,2.862,0.007582,0,0,0.003613
144600000000,144900000000,4665712396,60,257407435,0.0174,0.02994,0.04041,0.001804,0.002453,0.03204,9.155e-05,0.0003729,0.4043,0.005501,2.346,0.005697,0,0,0.005409
144900000000,145200000000,4665712396,60,257407435,0.01825,0.02945,0.04041,0.002258,0.002907,0.03204,8.583e-05,0.0003738,0.4263,0.005714,2.65,0.006833,0,0,0.007317
145200000000,145500000000,4665712396,60,257407435,0.015,0.02951,0.04041,0.002689,0.003338,0.03098,7.629e-05,0.0003748,0.4126,0.005859,2.309,0.0052,0,0,0.01572
145500000000,145800000000,4665712396,60,257407435,0.01506,0.02881,0.04041,0.003082,0.003731,0.02982,6.771e-05,0.0003757,0.3877,0.006714,2.015,0.003723,0,0,0.002098
145800000000,146100000000,4665712396,60,257407435,0.01605,0.02942,0.04041,0.003487,0.004135,0.03073,8.678e-05,0.0003767,0.3984,0.005859,2.588,0.006512,0,0,0.001686
151200000000,151500000000,4665712396,60,257407435,0.02356,0.02893,0.04028,0.003632,0.00428,0.03006,0.0001507,0.0003786,0.3848,0.009354,2.982,0.007882,0,0,0.01488
151500000000,151800000000,4665712396,60,257407435,0.02087,0.0293,0.04022,0.004288,0.004936,0.03101,9.632e-05,0.0003796,0.4971,0.007286,2.299,0.00511,0,0,0.01532
151800000000,152100000000,4665712396,60,257407435,0.01608,0.02866,0.04028,0.004814,0.005463,0.03058,0.0001087,0.0003815,0.3906,0.005783,1.87,0.003226,0,0,0.002598
152100000000,152400000000,4665712396,60,257407435,0.01596,0.02927,0.04034,0.005234,0.005882,0.03061,6.962e-05,0.0003824,0.4438,0.005142,2.241,0.005082,0,0,0.007141
152400000000,152700000000,4665712396,60,257407435,0.02249,0.0285,0.04034,0.005676,0.006325,0.03113,6.771e-05,0.0003834,0.397,0.00885,2.343,0.005489,0,0,0.003952
152700000000,153000000000,4665712396,60,257407435,0.01633,0.02969,0.04041,0.006142,0.00679,0.03088,6.962e-05,0.0003843,0.4009,0.004784,1.89,0.003178,0,0,0.00473
153000000000,153300000000,4665712396,60,257407435,0.02008,0.02872,0.04034,0.006195,0.006844,0.02975,5.722e-05,0.0003786,0.3613,0.005074,2.445,0.005688,0,0,0.01276
153300000000,153600000000,4665712396,60,257407435,0.01761,0.02856,0.04041,0.006516,0.007164,0.03101,0.0001087,0.0003672,0.3896,0.008713,1.637,0.002639,0,0,0.0451
153600000000,153900000000,4665712396,60,257407435,0.01859,0.02911,0.04041,0.00692,0.007568,0.03018,9.155e-05,0.0003681,0.3882,0.005432,2.143,0.004582,0,0,0.004852
153900000000,154200000000,4665712396,60,257407435,0.01685,0.02823,0.04034,0.007355,0.008011,0.02917,8.202e-05,0.0003691,0.3569,0.005859,1.967,0.003609,0,0,0.004951
154200000000,154500000000,4665712396,60,257407435,0.01645,0.02899,0.04034,0.003338,0.003983,0.03064,8.774e-05,0.000371,0.3867,0.005569,2.729,0.007108,0,0,0.007164
154500000000,154800000000,4665712396,60,257407435,0.01868,0.02826,0.04041,0.0007896,0.001438,0.02927,0.0001011,0.0003719,0.3867,0.0065,2.781,0.007411,0,0,0.01244
154800000000,155100000000,4665712396,60,257407435,0.01611,0.02853,0.04041,0.001217,0.001863,0.03082,0.0001001,0.0003729,0.3936,0.005859,2.005,0.003762,0,0,0.00354
155100000000,155400000000,4665712396,60,257407435,0.01736,0.02814,0.03973,0.001621,0.00227,0.02936,0.000104,0.0003738,0.3354,0.003502,2.123,0.004265,0,0,0.01213
155400000000,155700000000,4665712396,60,257407435,0.02164,0.0282,0.03845,0.002167,0.002811,0.02905,0.0001078,0.0003748,0.3623,0.005859,2.496,0.005796,0,0,0.005554
155700000000,156000000000,4665712396,60,257407435,0.0162,0.02795,0.03845,0.002712,0.003361,0.02911,6.676e-05,0.0003767,0.3799,0.002998,2.375,0.005614,0,0,0.008331
161100000000,161400000000,4665712396,60,257407435,0.02179,0.02716,0.03821,0.003265,0.003914,0.02835,0.0001297,0.0003777,0.4033,0.007004,2.231,0.004587,0,0,0.01016
161400000000,161700000000,4665712396,60,257407435,0.01941,0.02805,0.03821,0.003864,0.004509,0.0296,8.583e-05,0.0003796,0.3975,0.005783,2.505,0.00588,0,0,0.01253
161700000000,162000000000,4665712396,60,257407435,0.02231,0.02783,0.03821,0.004463,0.005112,0.02924,0.0001087,0.0003805,0.4023,0.005859,1.78,0.003105,0,0,0.005852
162000000000,162300000000,4665712396,60,257407435,0.0153,0.0267,0.03821,0.00502,0.005669,0.0278,8.202e-05,0.0003815,0.375,0.006142,2.058,0.003938,0,0,0.007843
162300000000,162600000000,4665712396,60,257407435,0.02133,0.02695,0.03827,0.005577,0.006226,0.02847,0.0001249,0.0003834,0.4033,0.008575,2.83,0.007282,0,0,0.004059
162600000000,162900000000,4665712396,60,257407435,0.02029,0.02805,0.03827,0.006172,0.006821,0.02911,8.583e-05,0.0003843,0.4346,0.006287,2.037,0.00396,0,0,0.02588
162900000000,163200000000,4665712396,60,257407435,0.01834,0.02777,0.03827,0.006729,0.007378,0.02863,8.488e-05,0.0003738,0.4165,0.007072,2.152,0.0043,0,0,0.005959
163200000000,163500000000,4665712396,60,257407435,0.02161,0.02728,0.03827,0.007294,0.00795,0.02841,0.0001259,0.0003681,0.3784,0.008636,2.508,0.005871,0,0,0.004768
163500000000,163800000000,4665712396,60,257407435,0.02295,0.02771,0.03827,0.007904,0.008545,0.0285,0.0001221,0.0003691,0.4248,0.007858,2.237,0.004733,0,0,0.1086
163800000000,164100000000,4665712396,60,257407435,0.01917,0.02747,0.03827,0.0007486,0.001396,0.02875,9.251e-05,0.000371,0.4077,0.005783,2.229,0.004664,0,0,0.009308
164100000000,164400000000,4665712396,60,257407435,0.01605,0.02679,0.03827,0.001162,0.001808,0.02783,0.0001001,0.0003729,0.3594,0.008713,2.201,0.004594,0,0,0.007904
164400000000,164700000000,4665712396,60,257407435,0.0188,0.02658,0.03821,0.00169,0.002338,0.02747,9.918e-05,0.0003738,0.3945,0.00914,2.201,0.004532,0,0,0.006523
164700000000,165000000000,4665712396,60,257407435,0.02032,0.02768,0.03821,0.002262,0.002911,0.02936,0.0001106,0.0003748,0.3965,0.008636,2.751,0.00726,0,0,0.01752
165000000000,165300000000,4665712396,60,257407435,0.01556,0.02753,0.03821,0.002884,0.003532,0.02936,0.0001078,0.0003767,0.416,0.005783,2.32,0.00522,0,0,0.006485
165300000000,165600000000,4665712396,60,257407435,0.01555,0.02606,0.03815,0.003414,0.004059,0.02744,8.965e-05,0.0003777,0.3662,0.006142,3.153,0.008715,0,0,0.01265
165600000000,165900000000,4665712396,60,257407435,0.01926,0.02576,0.03815,0.003944,0.004593,0.02762,9.727e-05,0.0003796,0.3887,0.007004,2.835,0.007141,0,0,0.008957
165900000000,166200000000,4665712396,60,257407435,0.02029,0.02655,0.03821,0.004532,0.00518,0.02798,8.965e-05,0.0003805,0.3833,0.005714,3.005,0.008005,0,0,0.01169
166200000000,166500000000,4665712396,60,257407435,0.01913,0.0267,0.03821,0.005104,0.005753,0.0278,0.0001059,0.0003824,0.3608,0.006645,2.222,0.004563,0,0,0.008301
166500000000,166800000000,4665712396,60,257407435,0.02225,0.02713,0.03827,0.005722,0.006371,0.02921,0.000123,0.0003834,0.3613,0.008713,2.733,0.006868,0,0,0.009109
166800000000,167100000000,4665712396,60,257407435,0.01907,0.02823,0.03827,0.006302,0.00695,0.0293,0.0001221,0.0003853,0.4238,0.006927,2.944,0.007834,0,0,0.01315
167100000000,167400000000,4665712396,60,257407435,0.02139,0.02792,0.03827,0.006844,0.007492,0.0293,0.0001097,0.000371,0.4116,0.008072,2.62,0.00622,0,0,0.00779
167400000000,167700000000,4665712396,60,257407435,0.02063,0.02716,0.03821,0.007362,0.008011,0.02863,0.0001011,0.0003681,0.4243,0.006645,1.361,0.002087,0,0,0.005447
167700000000,168000000000,4665712396,60,257407435,0.02161,0.02768,0.03827,0.007843,0.008499,0.0285,0.0001154,0.00037,0.4282,0.008636,2.803,0.007341,0,0,0.009064
168000000000,168300000000,4665712396,60,257407435,0.01791,0.02704,0.03827,0.001099,0.001747,0.02847,0.0001059,0.000371,0.4243,0.01007,2.164,0.004323,0,0,0.01469
168300000000,168600000000,4665712396,60,257407435,0.01956,0.02737,0.03821,0.001238,0.001886,0.02908,0.0001087,0.0003729,0.4336,0.007072,2.729,0.007191,0,0,0.007843
168600000000,168900000000,4665712396,60,257407435,0.01843,0.02725,0.03821,0.001822,0.002468,0.02863,7.534e-05,0.0003738,0.416,0.005783,2.455,0.005866,0,0,0.007111
168900000000,169200000000,4665712396,60,257407435,0.0177,0.02719,0.03815,0.002422,0.003071,0.02832,0.000102,0.0003757,0.3667,0.007782,2.851,0.007554,0,0,0.004921
169200000000,169500000000,4665712396,60,257407435,0.02164,0.02756,0.03815,0.003109,0.003757,0.02908,0.0001144,0.0003767,0.4082,0.008789,2.96,0.008029,0,0,0.02289
169500000000,169800000000,4665712396,60,257407435,0.01865,0.02747,0.03821,0.003662,0.004311,0.02908,8.678e-05,0.0003786,0.4053,0.008789,2.937,0.008009,0,0,0.009018
169800000000,170100000000,4665712396,60,257407435,0.02209,0.02719,0.03821,0.004211,0.00486,0.02814,0.0001125,0.0003796,0.4209,0.009216,3.09,0.008976,0,0,0.04395
170100000000,170400000000,4665712396,60,257407435,0.01999,0.02631,0.03821,0.004593,0.005241,0.02747,7.915e-05,0.0003815,0.502,0.004211,2.935,0.007673,0,0,0.009598
170400000000,170700000000,4665712396,60,257407435,0.0191,0.02664,0.03821,0.005119,0.005768,0.02808,0.0001211,0.0003824,0.3926,0.006287,3.011,0.008028,0,0,0.007614
170700000000,171000000000,4665712396,60,257407435,0.01923,0.02698,0.03827,0.005669,0.006317,0.0278,9.155e-05,0.0003843,0.3545,0.006569,2.989,0.008023,0,0,0.004219
171000000000,171300000000,4665712396,60,257407435,0.02231,0.02744,0.03827,0.006264,0.006912,0.02893,8.965e-05,0.0003843,0.5371,0.006645,3.24,0.009179,0,0,0.02142
171300000000,171600000000,4665712396,60,257407435,0.01892,0.02753,0.03833,0.006851,0.0075,0.02917,8.488e-05,0.0003672,0.3711,0.006073,3.111,0.008632,0,0,0.01042
171600000000,171900000000,4665712396,60,257407435,0.0257,0.02734,0.03827,0.007477,0.008118,0.02859,0.0001516,0.0003691,0.4106,0.005859,3.177,0.009077,0,0,0.008606
171900000000,172200000000,4665712396,60,257407435,0.01743,0.02679,0.03833,0.003784,0.004433,0.02774,0.0001001,0.000371,0.4189,0.007431,2.024,0.003716,0,0,0.006233
172200000000,172500000000,4665712396,60,257407435,0.02188,0.0275,0.03833,0.0009861,0.001635,0.02899,0.0001068,0.0003719,0.4053,0.006783,3,0.008113,0,0,0.0137
172500000000,172800000000,4665712396,60,257407435,0.01886,0.02728,0.03833,0.001551,0.002197,0.02844,7.248e-05,0.0003738,0.4253,0.006714,2.543,0.006105,0,0,0.01068
172800000000,173100000000,4665712396,60,257407435,0.02209,0.02786,0.03827,0.00214,0.002789,0.0289,6.771e-05,0.0003748,0.4307,0.004143,3.293,0.01003,0,0,0.009949
173100000000,173400000000,4665712396,60,257407435,0.01892,0.02679,0.03827,0.002705,0.003353,0.02792,8.869e-05,0.0003767,0.3887,0.007355,3.666,0.01092,0,0,0.2993
173400000000,173700000000,4665712396,60,257407435,0.02039,0.02658,0.03827,0.003273,0.003922,0.0285,0.0001078,0.0003777,0.377,0.007286,2.228,0.004655,0,0,0.00827
173700000000,174000000000,4665712396,60,257407435,0.02075,0.0271,0.03827,0.003857,0.004501,0.0285,0.000104,0.0003786,0.4106,0.009003,2.725,0.007009,0,0,0.01064
174000000000,174300000000,4665712396,60,257407435,0.02283,0.02713,0.03821,0.004486,0.005135,0.02817,0.0001183,0.0003805,0.4126,0.008286,2.062,0.004027,0,0,0.01123
174300000000,174600000000,4665712396,60,257407435,0.02704,0.02731,0.03821,0.005203,0.005852,0.02826,0.0001202,0.0003824,0.417,0.005997,2.185,0.004557,0,0,0.01141
174600000000,174900000000,4665712396,60,257407435,0.0202,0.02716,0.03821,0.005806,0.006454,0.02829,0.0001192,0.0003834,0.4028,0.008713,2.09,0.004105,0,0,0.02145
174900000000,175200000000,4665712396,60,257407435,0.01831,0.02637,0.03821,0.006386,0.007034,0.02734,0.0001106,0.0003853,0.4219,0.00914,2.55,0.006432,0,0,0.01285
175200000000,175500000000,4665712396,60,257407435,0.02206,0.02667,0.03821,0.006989,0.007637,0.02771,0.0001287,0.0003672,0.416,0.008362,2.557,0.006291,0,0,0.01648
175500000000,175800000000,4665712396,60,257407435,0.02094,0.02621,0.03827,0.007271,0.007919,0.02704,9.441e-05,0.0003691,0.375,0.007355,2.332,0.005161,0,0,0.05579
175800000000,176100000000,4665712396,60,257407435,0.0239,0.02728,0.03833,0.004784,0.005432,0.02835,0.0001335,0.00037,0.355,0.008423,2.361,0.005123,0,0,0.01009
186300000000,186600000000,4665712396,60,257407435,0.01398,0.02637,0.03851,0.001936,0.002583,0.0275,6.866e-05,0.0003748,0.4194,0.004501,1.952,0.003462,0,0,0.009476
186600000000,186900000000,4665712396,60,257407435,0.0213,0.02643,0.03845,0.002323,0.002972,0.02872,9.251e-05,0.0003757,0.395,0.00885,2.287,0.005275,0,0,0.03937
186900000000,187200000000,4665712396,60,257407435,0.01427,0.02692,0.03845,0.002724,0.003372,0.02832,5.913e-05,0.0003767,0.4258,0.003643,2.269,0.00513,0,0,0.01027
187200000000,187500000000,4665712396,60,257407435,0.01697,0.02676,0.03845,0.00304,0.003685,0.02814,8.106e-05,0.0003777,0.4131,0.006355,1.861,0.003173,0,0,0.02933
187500000000,187800000000,4665712396,60,257407435,0.01442,0.02646,0.03851,0.00341,0.004059,0.02832,7.915e-05,0.0003786,0.5977,0.004288,1.929,0.003405,0,0,0.005211
187800000000,188100000000,4665712396,60,257407435,0.01434,0.0267,0.03845,0.003735,0.004387,0.02811,5.15e-05,0.0003796,0.3936,0.003502,2.328,0.005309,0,0,0.005325
188100000000,188400000000,4665712396,60,257407435,0.01776,0.02615,0.03851,0.004082,0.00473,0.02856,7.534e-05,0.0003805,0.397,0.004356,2.337,0.005274,0,0,0.006104
188400000000,188700000000,4665712396,60,257407435,0.01372,0.02725,0.03851,0.00444,0.005089,0.02856,9.155e-05,0.0003805,0.4009,0.004997,1.86,0.003184,0,0,0.00186
188700000000,189000000000,4665712396,60,257407435,0.01938,0.02686,0.03845,0.004829,0.005478,0.0282,8.392e-05,0.0003815,0.4473,0.005783,1.929,0.003443,0,0,0.008804
189000000000,189300000000,4665712396,60,257407435,0.02051,0.02713,0.03845,0.005287,0.005936,0.02869,8.583e-05,0.0003834,0.3848,0.007072,1.862,0.003441,0,0,0.001991
189300000000,189600000000,4665712396,60,257407435,0.01581,0.02756,0.03845,0.005775,0.006424,0.02917,4.196e-05,0.0003843,0.4077,0.002285,2.147,0.004653,0,0,0.004036
189600000000,189900000000,4665712396,60,257407435,0.01617,0.02637,0.03845,0.006088,0.006737,0.0278,8.202e-05,0.0003853,0.4072,0.004356,1.938,0.003472,0,0,0.00349
189900000000,190200000000,4665712396,60,257407435,0.01624,0.02762,0.03845,0.006493,0.007141,0.02908,6.294e-05,0.0003738,0.4302,0.004425,1.815,0.003234,0,0,0.007797
190200000000,190500000000,4665712396,60,257407435,0.02078,0.02667,0.03839,0.006912,0.007561,0.02783,9.346e-05,0.0003672,0.415,0.005569,2.009,0.003944,0,0,0.01201
190500000000,190800000000,4665712396,60,257407435,0.01294,0.02707,0.03845,0.007286,0.007935,0.02911,6.58e-05,0.0003681,0.3926,0.005783,2.3,0.005161,0,0,0.006943
190800000000,191100000000,4665712396,60,257407435,0.01697,0.02676,0.03845,0.007622,0.00827,0.02905,7.725e-05,0.0003691,0.4165,0.006073,2.022,0.003752,0,0,0.00573
191100000000,191400000000,4665712396,60,257407435,0.01624,0.02661,0.03778,0.005135,0.005783,0.02777,6.771e-05,0.00037,0.457,0.004425,2.388,0.005641,0,0,0.008789
191400000000,191700000000,4665712396,60,257407435,0.02527,0.02686,0.03656,0.0005255,0.001173,0.02875,0.0001097,0.000371,0.4077,0.01157,1.891,0.003221,0,0,0.003231
191700000000,192000000000,4665712396,60,257407435,0.01816,0.02774,0.03668,0.001036,0.001682,0.02893,8.297e-05,0.0003729,0.4028,0.009506,2.011,0.00397,0,0,0.01097
192000000000,192300000000,4665712396,60,257407435,0.02209,0.0278,0.03821,0.00144,0.002087,0.02921,8.583e-05,0.0003738,0.3916,0.00293,1.988,0.003754,0,0,0.01471
192300000000,192600000000,4665712396,60,257407435,0.01834,0.02753,0.03845,0.001888,0.002537,0.02936,5.627e-05,0.0003748,0.377,0.002998,1.995,0.003744,0,0,0.01175
192600000000,192900000000,4665712396,60,257407435,0.02417,0.02719,0.03845,0.002319,0.002968,0.02869,7.915e-05,0.0003757,0.3774,0.005783,1.982,0.003451,0,0,0.01877
192900000000,193200000000,4665712396,60,257407435,0.01524,0.02689,0.03845,0.002762,0.00341,0.02832,6.008e-05,0.0003767,0.396,0.00293,1.981,0.003692,0,0,0.005325
193200000000,193500000000,4665712396,60,257407435,0.01476,0.02628,0.03845,0.003124,0.003773,0.02759,8.297e-05,0.0003777,0.3975,0.005501,2.394,0.005679,0,0,0.01624
193500000000,193800000000,4665712396,60,257407435,0.01494,0.02679,0.03845,0.003452,0.004097,0.02869,9.537e-05,0.0003786,0.4033,0.005432,1.966,0.003637,0,0,0.005585
193800000000,194100000000,4665712396,60,257407435,0.02322,0.02661,0.03845,0.004097,0.004745,0.03055,0.0009356,0.0003777,0.4111,0.02078,1.732,0.002736,0,0,0.005974
194100000000,194400000000,4665712396,60,257407435,0.01743,0.02695,0.03845,0.004845,0.005486,0.02841,4.673e-05,0.0003624,0.3955,0.003857,1.856,0.003257,0,0,0.007217
194400000000,194700000000,4665712396,60,257407435,0.01205,0.02713,0.03845,0.005234,0.005882,0.02838,6.771e-05,0.0003633,0.3691,0.004784,2.529,0.006261,0,0,0.006134
194700000000,195000000000,4665712396,60,257407435,0.01532,0.02652,0.03845,0.005577,0.006226,0.02817,7.057e-05,0.0003643,0.4258,0.003571,2.252,0.005058,0,0,0.003632
195000000000,195300000000,4665712396,60,257407435,0.01405,0.02649,0.03851,0.005898,0.006546,0.02881,5.817e-05,0.0003653,0.4219,0.004211,1.94,0.003661,0,0,0.04193
195300000000,195600000000,4665712396,60,257407435,0.0146,0.0267,0.03851,0.006264,0.006912,0.02832,7.057e-05,0.0003662,0.4424,0.003571,1.814,0.003134,0,0,0.004112
195600000000,195900000000,4665712396,60,257407435,0.01752,0.02698,0.03851,0.00663,0.007278,0.02814,9.06e-05,0.0003672,0.4453,0.005714,2.178,0.004745,0,0,0.00444
195900000000,196200000000,4665712396,60,257407435,0.01682,0.0267,0.03845,0.006996,0.007645,0.02747,6.962e-05,0.0003681,0.7119,0.005142,1.944,0.00362,0,0,0.006111
201300000000,201600000000,4665712396,60,257407435,0.01384,0.02539,0.03656,0.005501,0.006149,0.02625,6.008e-05,0.0003834,0.4111,0.004501,2.073,0.004418,0,0,0.008408
201600000000,201900000000,4665712396,60,257407435,0.01314,0.02481,0.03656,0.005821,0.00647,0.02609,7.439e-05,0.0003843,0.3945,0.004074,1.904,0.003376,0,0,0.006874
201900000000,202200000000,4665712396,60,257407435,0.01703,0.02615,0.03656,0.006172,0.006821,0.02719,9.537e-05,0.0003853,0.416,0.005501,1.96,0.003869,0,0,0.0112
202200000000,202500000000,4665712396,60,257407435,0.01703,0.02585,0.03656,0.006584,0.007233,0.02686,0.0001068,0.0003729,0.3984,0.01244,2.183,0.005064,0,0,0.007584
202500000000,202800000000,4665712396,60,257407435,0.01608,0.02618,0.03656,0.006958,0.007607,0.0271,4.768e-05,0.0003672,0.4062,0.004356,1.773,0.003265,0,0,0.01198
202800000000,203100000000,4665712396,60,257407435,0.01721,0.02548,0.03656,0.007339,0.007996,0.02692,0.0001049,0.0003681,0.3701,0.005714,1.704,0.002714,0,0,0.01028
203100000000,203400000000,4665712396,60,257407435,0.01797,0.02505,0.03656,0.007751,0.008392,0.0267,9.251e-05,0.0003691,0.3652,0.005859,2.115,0.004456,0,0,0.005447
203400000000,203700000000,4665712396,60,257407435,0.01935,0.02536,0.03656,0.002884,0.003532,0.02756,7.057e-05,0.000371,0.4004,0.005432,2.097,0.004491,0,0,0.007858
203700000000,204000000000,4665712396,60,257407435,0.01527,0.0253,0.03656,0.0007086,0.001356,0.02667,4.196e-05,0.0003719,0.3477,0.00293,1.873,0.003113,0,0,0.006004
204000000000,204300000000,4665712396,60,257407435,0.01907,0.02612,0.03656,0.001118,0.001766,0.02762,7.343e-05,0.0003729,0.396,0.005074,2.067,0.004381,0,0,0.008301
204300000000,204600000000,4665712396,60,257407435,0.01549,0.0257,0.03656,0.001486,0.002132,0.02686,8.011e-05,0.0003738,0.4082,0.006569,2.343,0.005557,0,0,0.007423
204600000000,204900000000,4665712396,60,257407435,0.01877,0.02615,0.03656,0.001881,0.002529,0.0278,7.534e-05,0.0003748,0.4111,0.005501,2.056,0.00439,0,0,0.004532
204900000000,205200000000,4665712396,60,257407435,0.01578,0.02618,0.03656,0.002277,0.002922,0.02792,5.722e-05,0.0003757,0.4155,0.005783,1.95,0.003521,0,0,0.01697
205200000000,205500000000,4665712396,60,257407435,0.0184,0.02545,0.03656,0.002655,0.003304,0.02643,8.011e-05,0.0003767,0.3975,0.005356,2.288,0.005359,0,0,0.02332
205500000000,205800000000,4665712396,60,257407435,0.01892,0.02509,0.03656,0.003117,0.003765,0.026,7.915e-05,0.0003777,0.3848,0.005859,2.002,0.00419,0,0,0.003147
205800000000,206100000000,4665712396,60,257407435,0.01794,0.02585,0.03656,0.003582,0.004234,0.02731,7.725e-05,0.0003786,0.4004,0.004501,1.919,0.003426,0,0,0.00194
206100000000,206400000000,4665712396,60,257407435,0.01552,0.02588,0.03656,0.003967,0.004616,0.02731,8.869e-05,0.0003796,0.3608,0.006569,2.466,0.006139,0,0,0.005417
206400000000,206700000000,4665712396,60,257407435,0.0184,0.02591,0.03656,0.004402,0.005051,0.02734,7.248e-05,0.0003805,0.3765,0.005074,1.92,0.003798,0,0,0.01318
206700000000,207000000000,4665712396,60,257407435,0.01892,0.0253,0.0365,0.004814,0.005463,0.02603,8.774e-05,0.0003815,0.4009,0.004425,1.982,0.003805,0,0,0.001425
207000000000,207300000000,4665712396,60,257407435,0.01569,0.02634,0.03656,0.005219,0.005867,0.02792,7.915e-05,0.0003824,0.4199,0.005142,1.898,0.003445,0,0,0.007729
207300000000,207600000000,4665712396,60,257407435,0.01877,0.02618,0.03656,0.00563,0.006279,0.02747,8.297e-05,0.0003834,0.3887,0.00486,2.113,0.004546,0,0,0.004501
207600000000,207900000000,4665712396,60,257407435,0.01559,0.02582,0.03656,0.00602,0.006668,0.02728,4.959e-05,0.0003843,0.3643,0.004288,2.049,0.004283,0,0,0.01505
207900000000,208200000000,4665712396,60,257407435,0.02417,0.02496,0.0365,0.00647,0.007118,0.02594,9.727e-05,0.0003786,0.3789,0.005783,1.893,0.003399,0,0,0.00666
208200000000,208500000000,4665712396,60,257407435,0.01859,0.02545,0.0365,0.006851,0.0075,0.02698,9.06e-05,0.0003672,0.3594,0.005714,2.122,0.004515,0,0,0.007469
208500000000,208800000000,4665712396,60,257407435,0.008606,0.02444,0.03644,0.007172,0.007812,0.02637,4.005e-05,0.0003681,0.06219,0.002213,2.342,0.005573,0,0,0.003014
208800000000,209100000000,4665712396,60,257407435,0.01147,0.02481,0.03601,0.007332,0.00798,0.02707,6.771e-05,0.0003691,0.4014,0.003998,2.394,0.005852,0,0,0.005501
209100000000,209400000000,4665712396,60,257407435,0.007858,0.02313,0.03656,0.007545,0.008194,0.02451,5.15e-05,0.00037,0.06787,0.00293,2.809,0.007582,0,0,0.005127
209400000000,209700000000,4665712396,60,257407435,0.01215,0.02399,0.03656,0.007828,0.008469,0.02567,6.294e-05,0.00037,0.4502,0.00293,2.378,0.005647,0,0,0.01212
209700000000,210000000000,4665712396,60,257407435,0.02042,0.02606,0.03632,0.0004845,0.001133,0.02811,7.153e-05,0.000371,0.3594,0.00457,1.95,0.003499,0,0,0.002621
210000000000,210300000000,4665712396,60,257407435,0.01172,0.02545,0.03656,0.0007753,0.001423,0.02753,6.008e-05,0.0003719,0.4092,0.002571,2.217,0.004836,0,0,0.002747
210300000000,210600000000,4665712396,60,257407435,0.009125,0.02399,0.03656,0.001074,0.001722,0.02585,6.771e-05,0.0003729,0.07056,0.005142,2.06,0.004439,0,0,0.001474
210600000000,210900000000,4665712396,60,257407435,0.02286,0.02591,0.03656,0.001511,0.002159,0.02698,9.06e-05,0.0003738,0.4043,0.005783,1.987,0.003637,0,0,0.00425
210900000000,211200000000,4665712396,60,257407435,0.01503,0.02509,0.03656,0.001898,0.002548,0.02628,8.392e-05,0.0003748,0.4121,0.005569,2.192,0.004869,0,0,0.01274
211200000000,211500000000,4665712396,60,257407435,0.0121,0.0242,0.03656,0.002205,0.00285,0.02579,6.199e-05,0.0003757,0.4062,0.005287,2.186,0.004526,0,0,0.008652
211500000000,211800000000,4665712396,60,257407435,0.01208,0.02408,0.03656,0.002487,0.003136,0.02545,6.104e-05,0.0003757,0.3232,0.003929,2.359,0.005495,0,0,0.01147
211800000000,212100000000,4665712396,60,257407435,0.02167,0.02597,0.03656,0.002846,0.003494,0.02768,9.632e-05,0.0003767,0.4009,0.005783,1.715,0.003042,0,0,0.0495
212100000000,212400000000,4665712396,60,257407435,0.01669,0.02576,0.03656,0.003265,0.003914,0.02765,6.771e-05,0.0003777,0.5303,0.006218,1.869,0.003344,0,0,0.01024
212400000000,212700000000,4665712396,60,257407435,0.01514,0.02661,0.03656,0.003628,0.004272,0.0282,8.297e-05,0.0003786,0.4023,0.004501,1.834,0.00317,0,0,0.002903
212700000000,213000000000,4665712396,60,257407435,0.01785,0.02533,0.03656,0.004021,0.004669,0.02606,8.678e-05,0.0003796,0.4023,0.005859,1.923,0.003385,0,0,0.007057
213000000000,213300000000,4665712396,60,257407435,0.02301,0.02646,0.0365,0.004547,0.005196,0.02789,0.0001135,0.0003805,0.3931,0.005211,1.781,0.003089,0,0,0.01208
213300000000,213600000000,4665712396,60,257407435,0.01923,0.02563,0.0365,0.004951,0.0056,0.02756,8.392e-05,0.0003815,0.3789,0.004997,1.979,0.00398,0,0,0.004959
213600000000,213900000000,4665712396,60,257407435,0.01552,0.02606,0.03656,0.005356,0.006004,0.0275,9.727e-05,0.0003824,0.3848,0.005211,1.876,0.003329,0,0,0.01724
213900000000,214200000000,4665712396,60,257407435,0.0192,0.02557,0.03656,0.005745,0.006393,0.02786,9.823e-05,0.0003834,0.4282,0.005783,1.961,0.003914,0,0,0.01309
214200000000,214500000000,4665712396,60,257407435,0.01512,0.02682,0.03656,0.006142,0.00679,0.02805,5.436e-05,0.0003843,0.4033,0.004143,1.919,0.003752,0,0,0.004234
214500000000,214800000000,4665712396,60,257407435,0.0192,0.02625,0.03656,0.006523,0.007172,0.02768,7.057e-05,0.0003767,0.3979,0.004501,1.966,0.003774,0,0,0.006569
214800000000,215100000000,4665712396,60,257407435,0.01511,0.02634,0.03656,0.00692,0.007568,0.02786,8.488e-05,0.0003672,0.4302,0.004143,1.89,0.003429,0,0,0.008728
215100000000,215400000000,4665712396,60,257407435,0.007889,0.02441,0.03656,0.007202,0.007843,0.02573,4.578e-05,0.0003681,0.05023,0.002071,2.771,0.007434,0,0,0.004532
215400000000,215700000000,4665712396,60,257407435,0.01111,0.02307,0.03656,0.007378,0.008026,0.02689,5.341e-05,0.0003681,0.4111,0.005074,2.576,0.006753,0,0,0.001507
215700000000,216000000000,4665712396,60,257407435,0.015,0.02524,0.03656,0.007729,0.008377,0.02646,7.629e-05,0.0003691,0.4082,0.004929,1.893,0.003434,0,0,0.02026
216000000000,216300000000,4665712396,60,257407435,0.017,0.02582,0.03546,0.00362,0.004272,0.02698,7.725e-05,0.00037,0.416,0.006287,2.108,0.004659,0,0,0.008636
221100000000,221400000000,4665712396,60,257407435,0.01752,0.03113,0.03839,0.004799,0.005447,0.03369,9.251e-05,0.0003672,0.4019,0.005783,3.038,0.008399,0,0,0.007133
221400000000,221700000000,4665712396,60,257407435,0.01433,0.03067,0.03845,0.005112,0.00576,0.03265,7.153e-05,0.0003681,0.3911,0.004074,2.686,0.00704,0,0,0.02008
221700000000,222000000000,4665712396,60,257407435,0.01825,0.03085,0.03845,0.005501,0.006149,0.03229,9.537e-05,0.0003691,0.4028,0.006927,2.977,0.008022,0,0,0.02249
222000000000,222300000000,4665712396,60,257407435,0.01534,0.03018,0.03845,0.005096,0.005745,0.03137,7.153e-05,0.00037,0.3896,0.004784,2.634,0.00667,0,0,0.005234
222300000000,222600000000,4665712396,60,257407435,0.01663,0.03052,0.03851,0.000515,0.001163,0.0321,7.439e-05,0.000371,0.4014,0.004715,2.409,0.005683,0,0,0.01248
222600000000,222900000000,4665712396,60,257407435,0.01382,0.03015,0.03851,0.0008717,0.00152,0.03156,6.485e-05,0.0003719,0.4092,0.004425,2.007,0.003768,0,0,0.01215
222900000000,223200000000,4665712396,60,257407435,0.01639,0.03137,0.03851,0.001244,0.001892,0.03333,7.343e-05,0.0003729,0.4189,0.003998,2.676,0.006945,0,0,0.01263
223200000000,223500000000,4665712396,60,257407435,0.01685,0.03055,0.03851,0.001677,0.002323,0.03271,8.488e-05,0.0003738,0.4219,0.005859,2.175,0.004835,0,0,0.00631
223500000000,223800000000,4665712396,60,257407435,0.01149,0.02945,0.03851,0.002022,0.00267,0.03241,6.39e-05,0.0003748,0.355,0.004501,2.682,0.006766,0,0,0.00235
223800000000,224100000000,4665712396,60,257407435,0.01373,0.02939,0.03851,0.002266,0.002914,0.03229,7.248e-05,0.0003757,0.3804,0.005142,1.934,0.003482,0,0,0.005997
224100000000,224400000000,4665712396,60,257407435,0.01736,0.02966,0.03851,0.002613,0.003262,0.03073,6.866e-05,0.0003767,0.377,0.005211,2.493,0.005917,0,0,0.009781
224400000000,224700000000,4665712396,60,257407435,0.01379,0.03009,0.03851,0.002991,0.003639,0.03241,6.771e-05,0.0003767,0.3779,0.004715,2.301,0.005312,0,0,0.00885
224700000000,225000000000,4665712396,60,257407435,0.01642,0.03012,0.03851,0.00333,0.003975,0.03204,6.199e-05,0.0003777,0.4102,0.005783,2.501,0.006067,0,0,0.003254
225000000000,225300000000,4665712396,60,257407435,0.01779,0.03061,0.03851,0.003788,0.00444,0.03253,9.727e-05,0.0003786,0.4092,0.006645,1.991,0.003704,0,0,0.003651
225300000000,225600000000,4665712396,60,257407435,0.01678,0.03061,0.03851,0.004234,0.004883,0.03265,7.629e-05,0.0003805,0.3916,0.004074,2.403,0.005629,0,0,0.03033
225600000000,225900000000,4665712396,60,257407435,0.0224,0.0303,0.03851,0.004677,0.005325,0.03271,8.965e-05,0.0003815,0.4014,0.01151,2.012,0.003568,0,0,0.008972
225900000000,226200000000,4665712396,60,257407435,0.0209,0.03079,0.03845,0.005257,0.005905,0.03253,9.346e-05,0.0003824,0.3975,0.005859,1.969,0.003479,0,0,0.00198
226200000000,226500000000,4665712396,60,257407435,0.01663,0.0304,0.03845,0.00573,0.006378,0.0318,7.915e-05,0.0003834,0.3525,0.005859,2.183,0.004708,0,0,0.002098
226500000000,226800000000,4665712396,60,257407435,0.01993,0.03091,0.03851,0.005814,0.006462,0.03296,9.06e-05,0.0003853,0.3916,0.005859,2.213,0.00495,0,0,0.003857
226800000000,227100000000,4665712396,60,257407435,0.02036,0.03043,0.03845,0.005989,0.006638,0.03162,9.823e-05,0.0003719,0.4365,0.005211,2.278,0.005108,0,0,0.00528
227100000000,227400000000,4665712396,60,257407435,0.01245,0.02951,0.03851,0.006439,0.007088,0.03052,7.057e-05,0.0003681,0.4019,0.004143,2.757,0.007253,0,0,0.00589
227400000000,227700000000,4665712396,60,257407435,0.01207,0.02884,0.03851,0.006439,0.007088,0.03247,7.153e-05,0.0003691,0.3696,0.005859,2.501,0.006144,0,0,0.02933
227700000000,228000000000,4665712396,60,257407435,0.01326,0.02933,0.03851,0.006096,0.006737,0.03253,7.629e-05,0.0003691,0.3604,0.006142,2.581,0.005993,0,0,0.01645
228000000000,228300000000,4665712396,60,257407435,0.02271,0.0303,0.03845,0.004478,0.005127,0.03259,0.0001173,0.000371,0.3906,0.01151,2.402,0.005548,0,0,0.01234
228300000000,228600000000,4665712396,60,257407435,0.01605,0.02994,0.03851,0.0007944,0.001442,0.03259,8.869e-05,0.0003719,0.3862,0.007286,2.165,0.00449,0,0,0.002769
228600000000,228900000000,4665712396,60,257407435,0.01727,0.02948,0.03851,0.001116,0.001764,0.03284,7.725e-05,0.0003729,0.3843,0.006714,2.239,0.004974,0,0,0.008408
228900000000,229200000000,4665712396,60,257407435,0.01794,0.03003,0.03851,0.001602,0.002251,0.03204,7.629e-05,0.0003738,0.3584,0.006142,1.964,0.003591,0,0,0.006813
229200000000,229500000000,4665712396,60,257407435,0.02002,0.03015,0.03851,0.002048,0.002693,0.03223,8.488e-05,0.0003748,0.3896,0.006645,1.995,0.003595,0,0,0.002773
229500000000,229800000000,4665712396,60,257407435,0.01627,0.03012,0.03851,0.00251,0.003155,0.03204,8.392e-05,0.0003757,0.3779,0.005356,1.985,0.003509,0,0,0.005836
229800000000,230100000000,4665712396,60,257407435,0.02017,0.03015,0.03845,0.002987,0.003635,0.03192,8.011e-05,0.0003777,0.3887,0.006073,1.998,0.003935,0,0,0.008835
230100000000,230400000000,4665712396,60,257407435,0.01614,0.02972,0.03851,0.003456,0.004105,0.03073,9.346e-05,0.0003786,0.3828,0.004646,1.89,0.003196,0,0,0.00631
230400000000,230700000000,4665712396,60,257407435,0.02435,0.03043,0.03845,0.004036,0.004684,0.03235,0.0001287,0.0003796,0.4131,0.0075,1.892,0.003171,0,0,0.008209
230700000000,231000000000,4665712396,60,257407435,0.01938,0.03027,0.03845,0.004616,0.005264,0.0321,8.678e-05,0.0003815,0.415,0.005783,2.241,0.005175,0,0,0.008881
231000000000,231300000000,4665712396,60,257407435,0.01575,0.03049,0.03845,0.005104,0.005753,0.03204,9.155e-05,0.0003824,0.3862,0.006645,2.542,0.006437,0,0,0.009445
231300000000,231600000000,4665712396,60,257407435,0.01654,0.02942,0.03851,0.005562,0.00621,0.03043,7.057e-05,0.0003834,0.4141,0.003216,2.662,0.006784,0,0,0.001587
231600000000,231900000000,4665712396,60,257407435,0.02032,0.02972,0.03845,0.005997,0.006645,0.03217,0.0001154,0.0003843,0.3887,0.007141,2.502,0.006215,0,0,0.011
231900000000,232200000000,4665712396,60,257407435,0.01294,0.02963,0.03845,0.006401,0.00705,0.0321,6.676e-05,0.0003815,0.3848,0.005783,2.631,0.006656,0,0,0.005829
232200000000,232500000000,4665712396,60,257407435,0.02081,0.03,0.03845,0.006439,0.007088,0.03235,8.488e-05,0.0003672,0.4004,0.005783,2.299,0.005126,0,0,0.007385
232500000000,232800000000,4665712396,60,257407435,0.01332,0.0289,0.03845,0.006561,0.00721,0.03073,7.343e-05,0.0003681,0.3364,0.005859,2.014,0.003728,0,0,0.003696
232800000000,233100000000,4665712396,60,257407435,0.03009,0.0304,0.0387,0.004929,0.005569,0.0329,0.0001497,0.00037,0.3906,0.007072,2.28,0.004784,0,0,0.01608
233100000000,233400000000,4665712396,60,257407435,0.01672,0.03082,0.03839,0.0007563,0.001404,0.0332,0.0001173,0.0003719,0.3828,0.007782,2.387,0.00542,0,0,0.0195
233400000000,233700000000,4665712396,60,257407435,0.01813,0.02945,0.03839,0.001326,0.001972,0.03094,7.439e-05,0.0003729,0.3535,0.004784,3.717,0.01117,0,0,0.01073
233700000000,234000000000,4665712396,60,257407435,0.02087,0.02982,0.03851,0.001905,0.002552,0.03149,0.0001307,0.0003748,0.3691,0.008362,3.164,0.008868,0,0,0.008179
234000000000,234300000000,4665712396,60,257407435,0.01624,0.02982,0.03839,0.00246,0.003109,0.03229,0.000103,0.0003757,0.3906,0.005928,3.229,0.009131,0,0,0.009781
234300000000,234600000000,4665712396,60,257407435,0.01917,0.03036,0.03851,0.003025,0.00367,0.03186,0.0001078,0.0003777,0.4023,0.007935,2.19,0.004376,0,0,0.02225
234600000000,234900000000,4665712396,60,257407435,0.01837,0.03036,0.03906,0.003651,0.004295,0.03235,0.0001087,0.0003786,0.3936,0.006645,3.305,0.00963,0,0,0.005753
234900000000,235200000000,4665712396,60,257407435,0.01874,0.0303,0.04028,0.004272,0.004921,0.03223,0.0001163,0.0003805,0.4053,0.008575,3.338,0.009714,0,0,0.005783
235200000000,235500000000,4665712396,60,257407435,0.02551,0.03012,0.04028,0.004967,0.005615,0.03143,0.000144,0.0003824,0.4238,0.008636,2.882,0.007726,0,0,0.01041
235500000000,235800000000,4665712396,60,257407435,0.02264,0.02988,0.04022,0.005775,0.006424,0.03241,0.0001211,0.0003843,0.3994,0.006645,2.236,0.004584,0,0,0.01022
235800000000,236100000000,4665712396,60,257407435,0.01242,0.02936,0.04028,0.006264,0.006912,0.03131,4.959e-05,0.0003853,0.0528,0.003216,3.922,0.01199,0,0,0.004196
236100000000,236400000000,4665712396,60,257407435,0.01932,0.02954,0.04022,0.006737,0.007385,0.03259,0.000102,0.000371,0.4048,0.005783,3.493,0.01041,0,0,0.03143
241200000000,241500000000,4665712396,60,257407435,0.02097,0.02975,0.04022,0.002125,0.002773,0.03137,9.346e-05,0.0003748,0.4033,0.007568,3.579,0.01082,0,0,0.02197
241500000000,241800000000,4665712396,60,257407435,0.02151,0.03043,0.04022,0.002792,0.003441,0.03235,0.0001183,0.0003767,0.3784,0.007645,2.572,0.006209,0,0,0.004875
241800000000,242100000000,4665712396,60,257407435,0.02151,0.03052,0.04022,0.003498,0.00415,0.03265,0.0001326,0.0003786,0.4033,0.008713,2.411,0.005497,0,0,0.03546
242100000000,242400000000,4665712396,60,257407435,0.02463,0.03085,0.04016,0.004219,0.004868,0.03326,0.0001221,0.0003805,0.3936,0.008286,2.595,0.006332,0,0,0.009766
242400000000,242700000000,4665712396,60,257407435,0.02258,0.0304,0.04022,0.004936,0.005585,0.03229,0.0001278,0.0003824,0.3486,0.008575,2.359,0.005282,0,0,0.005028
242700000000,243000000000,4665712396,60,257407435,0.02063,0.03091,0.04016,0.005554,0.006203,0.03271,0.0001001,0.0003834,0.418,0.005859,2.251,0.004819,0,0,0.01077
243000000000,243300000000,4665712396,60,257407435,0.02045,0.03052,0.04022,0.006111,0.00676,0.03247,9.537e-05,0.0003853,0.4102,0.005783,3.629,0.01105,0,0,0.01108
243300000000,243600000000,4665712396,60,257407435,0.01718,0.03046,0.04022,0.006653,0.007301,0.03284,9.251e-05,0.000371,0.4023,0.006645,3.612,0.01095,0,0,0.02142
243600000000,243900000000,4665712396,60,257407435,0.02164,0.03104,0.04022,0.007019,0.007668,0.03278,0.0001116,0.0003681,0.4062,0.008636,3.382,0.009908,0,0,0.01202
243900000000,244200000000,4665712396,60,257407435,0.01944,0.03107,0.04022,0.007042,0.00769,0.03296,0.0001049,0.00037,0.3711,0.009079,3.586,0.01069,0,0,0.01332
244200000000,244500000000,4665712396,60,257407435,0.02045,0.03094,0.04028,0.001335,0.001984,0.03259,0.0001192,0.000371,0.3916,0.01021,3.795,0.01179,0,0,0.0125
244500000000,244800000000,4665712396,60,257407435,0.01852,0.03033,0.04028,0.0009785,0.001627,0.03217,0.0001049,0.0003729,0.4287,0.004501,3.307,0.009455,0,0,0.008362
244800000000,245100000000,4665712396,60,257407435,0.02469,0.03101,0.04022,0.001659,0.002308,0.0329,0.0001478,0.0003738,0.3975,0.008286,2.533,0.006077,0,0,0.008484
245100000000,245400000000,4665712396,60,257407435,0.01831,0.03064,0.04022,0.002251,0.002899,0.03186,0.0001011,0.0003757,0.3828,0.005783,2.126,0.004187,0,0,0.004707
245400000000,245700000000,4665712396,60,257407435,0.01852,0.03027,0.04028,0.002777,0.003426,0.03271,0.0001087,0.0003767,0.3931,0.007004,2.28,0.004881,0,0,0.01129
245700000000,246000000000,4665712396,60,257407435,0.01981,0.03076,0.04028,0.003403,0.004051,0.03302,0.0001221,0.0003786,0.4062,0.005783,3.013,0.007981,0,0,0.007668
246000000000,246300000000,4665712396,60,257407435,0.02048,0.0311,0.04028,0.003983,0.004631,0.03296,0.000124,0.0003796,0.415,0.0075,3.426,0.009962,0,0,0.0114
251400000000,251700000000,4665712396,60,257407435,0.01996,0.03067,0.04016,0.006508,0.007149,0.03284,0.0001335,0.0003738,1.09,0.005783,3.499,0.01027,0,0,0.01599
251700000000,252000000000,4665712396,60,257407435,0.02301,0.03024,0.04016,0.007027,0.007675,0.03125,0.0001287,0.0003681,0.4141,0.006927,3.398,0.009958,0,0,0.01036
252000000000,252300000000,4665712396,60,257407435,0.02258,0.03082,0.04016,0.007088,0.007736,0.03247,0.0001259,0.00037,0.4053,0.007004,2.409,0.005581,0,0,0.007034
252300000000,252600000000,4665712396,60,257407435,0.01889,0.0307,0.04016,0.0006723,0.00132,0.03271,0.0001326,0.000371,0.3916,0.007645,2.065,0.003989,0,0,0.01294
252600000000,252900000000,4665712396,60,257407435,0.02731,0.03131,0.04016,0.001228,0.001875,0.03302,0.0001373,0.0003729,0.4004,0.008926,2.006,0.003792,0,0,0.09875
252900000000,253200000000,4665712396,60,257407435,0.01935,0.03094,0.04016,0.00189,0.002537,0.03271,9.632e-05,0.0003748,0.3818,0.006714,2.239,0.004662,0,0,0.03073
253200000000,253500000000,4665712396,60,257407435,0.02969,0.03043,0.04016,0.002491,0.003139,0.03162,0.0001764,0.0003757,0.3979,0.008636,1.825,0.003435,0,0,0.3584
253500000000,253800000000,4665712396,60,257407435,0.02094,0.03049,0.04016,0.00309,0.003738,0.03204,0.0001259,0.0003777,0.4204,0.008148,2.335,0.005182,0,0,0.006866
253800000000,254100000000,4665712396,60,257407435,0.01813,0.03033,0.04022,0.003685,0.004333,0.03217,0.0001001,0.0003786,0.4121,0.007217,2.039,0.003919,0,0,0.005203
254100000000,254400000000,4665712396,60,257407435,0.01688,0.02936,0.04022,0.004227,0.004875,0.03061,8.106e-05,0.0003805,0.4297,0.0065,3.327,0.009555,0,0,0.006561
254400000000,254700000000,4665712396,60,257407435,0.01929,0.03055,0.04022,0.004807,0.005455,0.03271,0.0001059,0.0003815,0.416,0.008148,3.11,0.008853,0,0,0.0163
254700000000,255000000000,4665712396,60,257407435,0.02216,0.03094,0.04022,0.005379,0.006027,0.03253,9.727e-05,0.0003824,0.4155,0.006432,2.001,0.003811,0,0,0.003704
255000000000,255300000000,4665712396,60,257407435,0.01721,0.03049,0.04022,0.00605,0.006691,0.03217,0.0001192,0.0003843,0.4077,0.009293,2.034,0.00416,0,0,0.006378
255300000000,255600000000,4665712396,60,257407435,0.01868,0.03098,0.04022,0.006622,0.007271,0.03241,9.537e-05,0.0003777,0.4258,0.005783,3.063,0.008722,0,0,0.01645
255600000000,255900000000,4665712396,60,257407435,0.02243,0.03055,0.04022,0.007111,0.007759,0.03186,0.0001163,0.0003681,0.416,0.008713,3.265,0.009308,0,0,0.01167
255900000000,256200000000,4665712396,60,257407435,0.01865,0.02979,0.04028,0.007584,0.008224,0.03049,8.106e-05,0.0003691,0.3774,0.006355,2.203,0.004528,0,0,0.01285
256200000000,256500000000,4665712396,60,257407435,0.02045,0.02975,0.04028,0.004181,0.004829,0.03067,0.0001087,0.000371,0.416,0.005859,3.073,0.008526,0,0,0.009735
256500000000,256800000000,4665712396,60,257407435,0.01971,0.02991,0.04028,0.0009861,0.001635,0.03088,0.0001163,0.0003719,0.4111,0.008636,2.778,0.007268,0,0,0.01105
256800000000,257100000000,4665712396,60,257407435,0.01819,0.03012,0.04022,0.001564,0.002213,0.03247,9.727e-05,0.0003738,0.3955,0.006714,3.623,0.0109,0,0,0.01311
257100000000,257400000000,4665712396,60,257407435,0.01837,0.02966,0.04022,0.002163,0.002811,0.03036,0.0001087,0.0003748,0.3867,0.007072,2.233,0.004821,0,0,0.008301
257400000000,257700000000,4665712396,60,257407435,0.01279,0.02808,0.04022,0.002613,0.003262,0.0289,5.817e-05,0.0003757,0.07227,0.003571,3.814,0.01163,0,0,0.007149
257700000000,258000000000,4665712396,60,257407435,0.0117,0.02664,0.04028,0.002998,0.003647,0.02725,8.678e-05,0.0003767,0.03583,0.005569,3.699,0.01106,0,0,0.006859
258000000000,258300000000,4665712396,60,257407435,0.01584,0.02774,0.04028,0.003433,0.004082,0.03021,9.155e-05,0.0003786,0.3794,0.008636,3.594,0.01047,0,0,0.01294
258300000000,258600000000,4665712396,60,257407435,0.01521,0.02872,0.04022,0.003914,0.004562,0.02994,9.06e-05,0.0003796,0.4248,0.007782,3.284,0.009288,0,0,0.007523
258600000000,258900000000,4665712396,60,257407435,0.01859,0.02908,0.04022,0.004372,0.00502,0.03186,0.000104,0.0003805,0.3848,0.005928,3.085,0.008389,0,0,0.006927
258900000000,259200000000,4665712396,60,257407435,0.01767,0.03024,0.04022,0.004944,0.005592,0.03156,8.488e-05,0.0003815,0.4072,0.007713,2.257,0.004759,0,0,0.004578
259200000000,259500000000,4665712396,60,257407435,0.01465,0.02982,0.04022,0.00547,0.006119,0.03174,9.727e-05,0.0003834,0.4131,0.006432,3.039,0.008447,0,0,0.007065
259500000000,259800000000,4665712396,60,257407435,0.01773,0.02905,0.04022,0.005966,0.006615,0.03015,9.823e-05,0.0003843,0.3965,0.008713,2.271,0.004869,0,0,0.004494
259800000000,260100000000,4665712396,60,257407435,0.01198,0.0275,0.04022,0.006393,0.007042,0.0285,6.294e-05,0.0003815,0.07971,0.003071,3.676,0.01108,0,0,0.005806
260100000000,260400000000,4665712396,60,257407435,0.01797,0.02802,0.04022,0.006653,0.007301,0.03061,8.678e-05,0.0003672,0.4043,0.007645,2.315,0.005011,0,0,0.008255
260400000000,260700000000,4665712396,60,257407435,0.01425,0.02972,0.04028,0.007179,0.007828,0.03113,0.0001135,0.0003681,0.3984,0.007996,2.356,0.005267,0,0,0.006111
260700000000,261000000000,4665712396,60,257407435,0.01907,0.02975,0.04022,0.007698,0.008347,0.03098,0.0001125,0.00037,0.4268,0.007645,2.931,0.007934,0,0,0.01334
261000000000,261300000000,4665712396,60,257407435,0.01724,0.03027,0.03876,0.001778,0.002426,0.03168,9.727e-05,0.000371,0.4033,0.007935,2.199,0.004467,0,0,0.03693
261300000000,261600000000,4665712396,60,257407435,0.01132,0.02853,0.03839,0.0007153,0.001364,0.02972,7.82e-05,0.0003719,0.03711,0.004288,3.312,0.009595,0,0,0.01514
261600000000,261900000000,4665712396,60,257407435,0.01552,0.02713,0.03839,0.001184,0.001833,0.02777,8.678e-05,0.0003729,0.1477,0.008072,2.948,0.007735,0,0,0.004585
261900000000,262200000000,4665712396,60,257407435,0.0114,0.02621,0.03839,0.001581,0.002232,0.0264,7.248e-05,0.0003738,0.04999,0.004929,3.531,0.01036,0,0,0.002899
262200000000,262500000000,4665712396,60,257407435,0.01183,0.02615,0.03845,0.001951,0.002598,0.02628,7.343e-05,0.0003748,0.06738,0.003357,3.523,0.01046,0,0,0.004082
262500000000,262800000000,4665712396,60,257407435,0.009949,0.02612,0.03845,0.0023,0.002949,0.02621,6.962e-05,0.0003757,0.03613,0.003143,3.276,0.009446,0,0,0.009796
262800000000,263100000000,4665712396,60,257407435,0.0106,0.02615,0.03845,0.002663,0.003307,0.02628,8.869e-05,0.0003767,0.03625,0.004425,3.213,0.009114,0,0,0.004494
263100000000,263400000000,4665712396,60,257407435,0.01068,0.02615,0.03845,0.00304,0.003689,0.02625,7.439e-05,0.0003777,0.06775,0.006645,3.188,0.00881,0,0,0.007568
263400000000,263700000000,4665712396,60,257407435,0.01125,0.02612,0.03845,0.003426,0.004074,0.02625,7.343e-05,0.0003786,0.0564,0.003357,3.413,0.009808,0,0,0.01199
263700000000,264000000000,4665712396,60,257407435,0.0121,0.02618,0.03827,0.003788,0.004433,0.0267,6.294e-05,0.0003796,0.08313,0.003284,2.999,0.00822,0,0,0.01355
264000000000,264300000000,4665712396,60,257407435,0.01666,0.02628,0.03644,0.004311,0.004959,0.02682,8.583e-05,0.0003805,0.2148,0.005859,2.338,0.005215,0,0,0.01521
264300000000,264600000000,4665712396,60,257407435,0.008408,0.02579,0.03638,0.004639,0.005287,0.02588,4.101e-05,0.0003815,0.06726,0.002357,2.731,0.007012,0,0,0.002052
264600000000,264900000000,4665712396,60,257407435,0.007858,0.02576,0.03644,0.004799,0.005447,0.02582,4.673e-05,0.0003824,0.05359,0.002213,2.698,0.007052,0,0,0.006378
264900000000,265200000000,4665712396,60,257407435,0.007477,0.0257,0.03656,0.004974,0.005623,0.02576,3.719e-05,0.0003824,0.03943,0.001999,2.516,0.006213,0,0,0.01059
265200000000,265500000000,4665712396,60,257407435,0.00943,0.02591,0.03485,0.005676,0.006325,0.02856,0.000886,0.0003653,0.06848,0.04083,2.554,0.006274,0,0,0.002602
265500000000,265800000000,4665712396,60,257407435,0.007919,0.02567,0.03473,0.005783,0.006432,0.02573,5.054e-05,0.0003653,0.05176,0.003284,2.802,0.007219,0,0,0.01099
265800000000,266100000000,4665712396,60,257407435,0.008194,0.0257,0.03473,0.005951,0.006599,0.02576,5.722e-05,0.0003653,0.05182,0.002213,2.923,0.007669,0,0,0.009003
266100000000,266400000000,4665712396,60,257407435,0.01134,0.02576,0.03473,0.006149,0.006798,0.02631,8.297e-05,0.0003662,0.1753,0.006142,2.655,0.006803,0,0,0.007698
266400000000,266700000000,4665712396,60,257407435,0.00824,0.0257,0.03467,0.006424,0.007072,0.02588,3.719e-05,0.0003672,0.078,0.001499,2.398,0.005747,0,0,0.009293
266700000000,267000000000,4665712396,60,257407435,0.006851,0.02567,0.03467,0.006592,0.00724,0.02573,4.196e-05,0.0003672,0.05048,0.002571,2.842,0.007593,0,0,0.007797
267000000000,267300000000,4665712396,60,257407435,0.007523,0.0256,0.03473,0.006744,0.007393,0.02567,4.482e-05,0.0003672,0.06226,0.001858,2.476,0.005989,0,0,0.005722
267300000000,267600000000,4665712396,60,257407435,0.007523,0.02567,0.03473,0.00692,0.007568,0.0257,4.387e-05,0.0003681,0.03772,0.002499,2.757,0.007013,0,0,0.004051
267600000000,267900000000,4665712396,60,257407435,0.008026,0.0257,0.03473,0.007088,0.007736,0.02576,4.196e-05,0.0003681,0.05341,0.002071,2.656,0.006652,0,0,0.002743
267900000000,268200000000,4665712396,60,257407435,0.007278,0.0257,0.03473,0.007256,0.007904,0.02573,4.101e-05,0.0003691,0.08337,0.001785,2.798,0.007231,0,0,0.01013
268200000000,268500000000,4665712396,60,257407435,0.007713,0.0257,0.03473,0.007416,0.008057,0.02573,4.578e-05,0.0003691,0.03104,0.001999,2.698,0.006818,0,0,0.009232
268500000000,268800000000,4665712396,60,257407435,0.01042,0.02588,0.03467,0.007698,0.008347,0.02631,6.008e-05,0.00037,0.1377,0.005783,2.676,0.006856,0,0,0.03503
268800000000,269100000000,4665712396,60,257407435,0.007149,0.02582,0.03467,0.007492,0.008133,0.02594,4.959e-05,0.0003691,0.03418,0.001928,2.588,0.006721,0,0,0.003265
269100000000,269400000000,4665712396,60,257407435,0.007767,0.02567,0.03473,0.007576,0.008224,0.02615,4.864e-05,0.00037,0.07715,0.002144,1.372,0.002274,0,0,0.002033
269400000000,269700000000,4665712396,60,257407435,0.006752,0.02539,0.03473,0.007736,0.008392,0.02548,4.005e-05,0.00037,0.05029,0.002144,2.655,0.006934,0,0,0.005814
269700000000,270000000000,4665712396,60,257407435,0.006691,0.02545,0.03473,0.007919,0.00856,0.02551,4.387e-05,0.00037,0.04626,0.00243,2.825,0.007703,0,0,0.004738
270000000000,270300000000,4665712396,60,257407435,0.007133,0.02548,0.03473,0.002151,0.0028,0.02554,4.673e-05,0.000371,0.06775,0.001928,2.635,0.006784,0,0,0.01381
270300000000,270600000000,4665712396,60,257407435,0.006439,0.02548,0.03473,0.0003529,0.001001,0.02551,5.054e-05,0.000371,0.02948,0.002998,2.65,0.00693,0,0,0.003895
270600000000,270900000000,4665712396,60,257407435,0.009781,0.02551,0.03473,0.0005064,0.001154,0.02612,4.482e-05,0.0003719,0.1409,0.005783,2.489,0.006265,0,0,0.01512
270900000000,271200000000,4665712396,60,257407435,0.007614,0.02563,0.03467,0.0007925,0.00144,0.02615,4.673e-05,0.0003719,0.05078,0.00293,2.676,0.006894,0,0,0.0159
271200000000,271500000000,4665712396,60,257407435,0.008377,0.0256,0.03467,0.0009613,0.00161,0.02628,3.815e-05,0.0003729,0.1475,0.001642,1.935,0.003974,0,0,0.008072
281400000000,281700000000,4665712396,60,257407435,0.007858,0.02463,0.03467,0.00766,0.008316,0.02469,5.15e-05,0.0003691,0.04333,0.002785,3.067,0.008555,0,0,0.01947
281700000000,282000000000,4665712396,60,257407435,0.007721,0.0246,0.03473,0.007874,0.008514,0.02466,4.768e-05,0.00037,0.04822,0.00243,3.262,0.00915,0,0,0.001556
282000000000,282300000000,4665712396,60,257407435,0.008102,0.02463,0.03436,0.006584,0.007233,0.02472,4.959e-05,0.000371,0.05634,0.002571,2.878,0.007433,0,0,0.01038
282300000000,282600000000,4665712396,60,257407435,0.007996,0.02457,0.03284,0.0003347,0.0009823,0.02463,4.768e-05,0.000371,0.04272,0.00293,2.775,0.007189,0,0,0.01193
282600000000,282900000000,4665712396,60,257407435,0.009171,0.0246,0.03284,0.0005589,0.001207,0.02466,6.294e-05,0.0003719,0.06641,0.002998,2.73,0.006969,0,0,0.02112
282900000000,283200000000,4665712396,60,257407435,0.007484,0.02451,0.03284,0.0007963,0.001444,0.02463,5.15e-05,0.0003719,0.05743,0.002644,2.42,0.005982,0,0,0.007889
283200000000,283500000000,4665712396,60,257407435,0.007767,0.02451,0.03284,0.001028,0.001675,0.0246,7.534e-05,0.0003729,0.1106,0.00293,3.101,0.008687,0,0,0.005219
283500000000,283800000000,4665712396,60,257407435,0.01123,0.02457,0.03278,0.001301,0.001947,0.02502,7.534e-05,0.0003729,0.1519,0.008636,2.85,0.007713,0,0,0.02231
283800000000,284100000000,4665712396,60,257407435,0.007874,0.02448,0.03278,0.001625,0.002274,0.02457,4.482e-05,0.0003738,0.07422,0.002357,3.091,0.008609,0,0,0.01868
284100000000,284400000000,4665712396,60,257407435,0.007721,0.02448,0.03278,0.001869,0.002518,0.02454,5.531e-05,0.0003748,0.03949,0.00243,3.023,0.008283,0,0,0.01462
284400000000,284700000000,4665712396,60,257407435,0.006966,0.02444,0.03284,0.002071,0.00272,0.02451,4.292e-05,0.0003748,0.04657,0.002285,2.908,0.007732,0,0,0.005043
284700000000,285000000000,4665712396,60,257407435,0.007668,0.02448,0.03284,0.002262,0.002907,0.02454,4.578e-05,0.0003757,0.04315,0.002857,2.748,0.007118,0,0,0.003304
285000000000,285300000000,4665712396,60,257407435,0.007195,0.02444,0.03284,0.002468,0.003117,0.02451,5.436e-05,0.0003757,0.03955,0.00293,2.638,0.006615,0,0,0.00145
285300000000,285600000000,4665712396,60,257407435,0.006699,0.02451,0.03284,0.002647,0.003296,0.0246,4.101e-05,0.0003767,0.03516,0.001999,2.466,0.006031,0,0,0.001713
285600000000,285900000000,4665712396,60,257407435,0.007149,0.02457,0.03284,0.002853,0.003498,0.02463,4.482e-05,0.0003767,0.0448,0.00243,2.59,0.006523,0,0,0.008591
285900000000,286200000000,4665712396,60,257407435,0.006943,0.02444,0.03278,0.003036,0.003685,0.02451,4.673e-05,0.0003777,0.03149,0.002357,2.733,0.007185,0,0,0.01544
286200000000,286500000000,4665712396,60,257407435,0.01129,0.02457,0.03271,0.003342,0.00399,0.02502,7.248e-05,0.0003786,0.1917,0.005714,2.459,0.006027,0,0,0.01045
286500000000,286800000000,4665712396,60,257407435,0.007401,0.02438,0.03271,0.003559,0.004204,0.02441,4.768e-05,0.0003786,0.04181,0.002644,2.581,0.00653,0,0,0.007599
286800000000,287100000000,4665712396,60,257407435,0.007278,0.02435,0.03278,0.003731,0.004379,0.02444,4.673e-05,0.0003796,0.04169,0.001928,2.598,0.006597,0,0,0.009949
287100000000,287400000000,4665712396,60,257407435,0.007187,0.02435,0.03284,0.003906,0.004555,0.02441,4.768e-05,0.0003796,0.04492,0.001785,2.659,0.0069,0,0,0.005333
287400000000,287700000000,4665712396,60,257407435,0.00708,0.02441,0.03284,0.004112,0.004761,0.02448,4.768e-05,0.0003805,0.04541,0.002285,2.585,0.006507,0,0,0.005188
287700000000,288000000000,4665712396,60,257407435,0.007156,0.02438,0.03284,0.004303,0.004951,0.02444,2.766e-05,0.0003805,0.04034,0.002285,3.012,0.008095,0,0,0.00972
288000000000,288300000000,4665712396,60,257407435,0.007385,0.02435,0.03284,0.004478,0.005127,0.02441,4.005e-05,0.0003815,0.06024,0.001999,2.611,0.00656,0,0,0.007965
288300000000,288600000000,4665712396,60,257407435,0.006599,0.02441,0.03284,0.004654,0.005302,0.02444,4.482e-05,0.0003815,0.02954,0.002285,2.847,0.007691,0,0,0.004677
288600000000,288900000000,4665712396,60,257407435,0.0065,0.02441,0.03284,0.004822,0.00547,0.02448,3.815e-05,0.0003815,0.03467,0.001999,2.615,0.006681,0,0,0.005409
288900000000,289200000000,4665712396,60,257407435,0.01125,0.02454,0.03278,0.005135,0.005783,0.02505,5.913e-05,0.0003824,0.1494,0.007141,2.344,0.005415,0,0,0.004395
289200000000,289500000000,4665712396,60,257407435,0.007744,0.02444,0.03278,0.005333,0.005981,0.02451,6.104e-05,0.0003834,0.04865,0.00293,2.644,0.006816,0,0,0.002026
289500000000,289800000000,4665712396,60,257407435,0.00708,0.02435,0.03284,0.005516,0.006165,0.02451,4.673e-05,0.0003834,0.03674,0.00293,2.67,0.00686,0,0,0.003513
289800000000,290100000000,4665712396,60,257407435,0.00766,0.02432,0.03284,0.005699,0.006348,0.02441,4.673e-05,0.0003843,0.06873,0.002357,2.671,0.006808,0,0,0.06873
290100000000,290400000000,4665712396,60,257407435,0.007713,0.02435,0.03284,0.005882,0.006531,0.02441,4.101e-05,0.0003843,0.03851,0.002716,2.8,0.007177,0,0,0.002388
290400000000,290700000000,4665712396,60,257407435,0.008163,0.0242,0.03284,0.006058,0.006706,0.02451,5.341e-05,0.0003853,0.07007,0.002071,2.686,0.006732,0,0,0.001865
290700000000,291000000000,4665712396,60,257407435,0.007492,0.02417,0.03278,0.006256,0.006905,0.02426,8.106e-05,0.0003853,0.04114,0.004646,2.78,0.007275,0,0,0.004501
291000000000,291300000000,4665712396,60,257407435,0.006638,0.02414,0.03284,0.006439,0.007088,0.0242,5.436e-05,0.0003815,0.03693,0.003784,2.592,0.006552,0,0,0.002369
291300000000,291600000000,4665712396,60,257407435,0.006516,0.02411,0.03284,0.006607,0.007256,0.02417,5.913e-05,0.0003672,0.07385,0.004929,2.561,0.006534,0,0,0.001146
291600000000,291900000000,4665712396,60,257407435,0.006477,0.02414,0.03284,0.006783,0.007431,0.0242,4.482e-05,0.0003672,0.02979,0.002144,2.546,0.006445,0,0,0.001083
291900000000,292200000000,4665712396,60,257407435,0.01025,0.02432,0.03278,0.007065,0.007713,0.02475,5.436e-05,0.0003681,0.1638,0.007431,2.678,0.006908,0,0,0.005096
292200000000,292500000000,4665712396,60,257407435,0.007774,0.02414,0.03278,0.007263,0.007919,0.02429,5.054e-05,0.0003681,0.07788,0.00293,2.676,0.006786,0,0,0.003635
292500000000,292800000000,4665712396,60,257407435,0.006882,0.02411,0.03278,0.007431,0.008072,0.02417,3.815e-05,0.0003691,0.04315,0.002144,2.546,0.006366,0,0,0.001547
292800000000,293100000000,4665712396,60,257407435,0.007477,0.02399,0.03284,0.007614,0.008255,0.02423,3.624e-05,0.0003691,0.08533,0.001999,2.421,0.005819,0,0,0.002552
293100000000,293400000000,4665712396,60,257407435,0.006973,0.0239,0.03284,0.007736,0.008392,0.02396,4.959e-05,0.00037,0.04712,0.00243,2.526,0.006312,0,0,0.001781
293400000000,293700000000,4665712396,60,257407435,0.007034,0.02396,0.03284,0.007904,0.00856,0.02402,4.768e-05,0.00037,0.05524,0.00293,2.508,0.006081,0,0,0.004036
293700000000,294000000000,4665712396,60,257407435,0.006599,0.02396,0.03284,0.006767,0.007416,0.02402,4.768e-05,0.000371,0.03961,0.001999,2.537,0.006364,0,0,0.01324
294000000000,294300000000,4665712396,60,257407435,0.006836,0.02393,0.03284,0.0003643,0.001013,0.02399,2.861e-05,0.000371,0.04297,0.001858,2.427,0.005891,0,0,0.003906
294300000000,294600000000,4665712396,60,257407435,0.006874,0.02396,0.03284,0.0005341,0.001183,0.02405,4.673e-05,0.000371,0.09558,0.002213,2.74,0.007151,0,0,0.00441
294600000000,294900000000,4665712396,60,257407435,0.01132,0.02408,0.03278,0.0008516,0.001499,0.02469,7.629e-05,0.0003719,0.1521,0.007217,2.058,0.004601,0,0,0.007294
294900000000,295200000000,4665712396,60,257407435,0.006287,0.0238,0.03278,0.001036,0.001684,0.02383,5.436e-05,0.0003729,0.04773,0.00243,2.688,0.006927,0,0,0.002434
295200000000,295500000000,4665712396,60,257407435,0.006989,0.0238,0.03284,0.001207,0.001856,0.02386,4.864e-05,0.0003729,0.06738,0.002499,2.351,0.005633,0,0,0.007614
295500000000,295800000000,4665712396,60,257407435,0.00692,0.02383,0.03284,0.001379,0.002026,0.02386,5.054e-05,0.0003738,0.02374,0.003643,2.915,0.007797,0,0,0.006104
295800000000,296100000000,4665712396,60,257407435,0.006973,0.02383,0.03284,0.001558,0.002209,0.0239,5.245e-05,0.0003738,0.05603,0.00243,2.682,0.007013,0,0,0.001915
296100000000,296400000000,4665712396,60,257407435,0.006859,0.02383,0.03284,0.001724,0.002373,0.0239,3.719e-05,0.0003738,0.0459,0.001358,2.499,0.006161,0,0,0.01129
296400000000,296700000000,4665712396,60,257407435,0.007828,0.0239,0.03284,0.001896,0.002544,0.02393,5.15e-05,0.0003748,0.05322,0.00293,2.666,0.006738,0,0,0.002018
296700000000,297000000000,4665712396,60,257407435,0.008911,0.02393,0.03284,0.002075,0.002724,0.02411,5.817e-05,0.0003748,0.05719,0.002644,2.481,0.00615,0,0,0.01448
297000000000,297300000000,4665712396,60,257407435,0.007919,0.02377,0.03284,0.002262,0.002911,0.02396,4.864e-05,0.0003757,0.04633,0.003357,3.101,0.008554,0,0,0.007782
297300000000,297600000000,4665712396,60,257407435,0.008087,0.0238,0.03278,0.002445,0.003094,0.02402,5.054e-05,0.0003757,0.07031,0.00293,3.002,0.008051,0,0,0.00322
297600000000,297900000000,4665712396,60,257407435,0.01164,0.02393,0.03278,0.002743,0.003391,0.02435,6.39e-05,0.0003767,0.1531,0.002998,2.81,0.007423,0,0,0.004662
297900000000,298200000000,4665712396,60,257407435,0.008301,0.02383,0.03271,0.002983,0.003632,0.0239,6.771e-05,0.0003777,0.05078,0.002785,3.107,0.0086,0,0,0.009445
298200000000,298500000000,4665712396,60,257407435,0.007423,0.02383,0.03278,0.003178,0.003822,0.0239,4.578e-05,0.0003777,0.039,0.002571,2.811,0.007474,0,0,0.009125
298500000000,298800000000,4665712396,60,257407435,0.007156,0.02383,0.03284,0.00338,0.004028,0.0239,5.436e-05,0.0003786,0.05493,0.00243,2.652,0.006856,0,0,0.001043
298800000000,299100000000,4665712396,60,257407435,0.008041,0.02371,0.03284,0.003582,0.004227,0.02383,6.485e-05,0.0003786,0.0614,0.003284,2.701,0.006934,0,0,0.003529
299100000000,299400000000,4665712396,60,257407435,0.006683,0.02371,0.03284,0.003765,0.00441,0.02377,5.817e-05,0.0003796,0.04565,0.002716,2.627,0.006631,0,0,0.004379
299400000000,299700000000,4665712396,60,257407435,0.00724,0.02374,0.03284,0.003937,0.004585,0.02383,4.482e-05,0.0003796,0.05658,0.001999,2.649,0.006808,0,0,0.002995
299700000000,300000000000,4665712396,60,257407435,0.007065,0.02374,0.03284,0.004112,0.004761,0.0238,5.245e-05,0.0003796,0.02972,0.002285,2.948,0.00781,0,0,0.01247
