5700000000,6000000000,4665896876,251,372630265,0.03448,0.06604,0.07739,0.00341,0.004059,0.06689,0.0002508,0.0003719,0.1241,0.01151,1.763,0.003442,0,0,0.02737
6000000000,6300000000,4665896876,251,372630265,0.02582,0.0647,0.07739,0.003666,0.004311,0.06689,0.0001183,0.0003729,0.1333,0.005432,1.684,0.003494,0,0,0.06409
6300000000,6600000000,4665896876,251,372630265,0.02036,0.06519,0.07739,0.003922,0.00457,0.06641,6.008e-05,0.0003729,0.1161,0.00293,2.404,0.005316,0,0,0.01147
6600000000,6900000000,4665896876,251,372630265,0.02072,0.06641,0.07739,0.004166,0.004814,0.06665,5.722e-05,0.0003738,0.1045,0.003143,2.633,0.006561,0,0,0.01393
6900000000,7200000000,4665896876,251,372630265,0.01584,0.06641,0.07739,0.004486,0.005127,0.06653,6.294e-05,0.0003748,0.06836,0.00293,3.933,0.01123,0,0,0.005768
7200000000,7500000000,4665896876,251,372630265,0.02005,0.06641,0.07739,0.004791,0.00544,0.06665,7.915e-05,0.0003757,0.09619,0.00293,2.755,0.006774,0,0,0.003155
7800000000,8100000000,4665896876,251,372630265,0.02286,0.06653,0.07739,0.005478,0.006119,0.06677,8.392e-05,0.0003777,0.1008,0.003571,2.815,0.00699,0,0,0.05969
8100000000,8400000000,4665896876,251,372630265,0.02258,0.06653,0.07739,0.00576,0.006409,0.06665,8.202e-05,0.0003786,0.1599,0.003216,3.242,0.008813,0,0,0.07458
8400000000,8700000000,4665896876,251,372630265,0.01633,0.06628,0.07739,0.005974,0.006622,0.06653,8.011e-05,0.0003796,0.1074,0.002857,3.877,0.01154,0,0,0.008499
8700000000,9000000000,4665896876,251,372630265,0.0181,0.06616,0.07739,0.006218,0.006866,0.06641,5.722e-05,0.0003796,0.0752,0.002998,4.734,0.01464,0,0,0.01512
9000000000,9300000000,4665896876,251,372630265,0.01657,0.06641,0.07739,0.006424,0.007072,0.06677,5.817e-05,0.0003805,0.1205,0.003143,5.617,0.01852,0,0,0.01262
9300000000,9600000000,4665896876,251,372630265,0.02429,0.06641,0.07727,0.006561,0.00721,0.06677,7.534e-05,0.0003815,0.1199,0.002785,2.636,0.006477,0,0,0.05011
9600000000,9900000000,4665896876,251,372630265,0.0217,0.06641,0.07739,0.006744,0.007393,0.06653,7.534e-05,0.0003824,0.1357,0.003571,3.849,0.01089,0,0,0.04401
9900000000,10200000000,4665896876,251,372630265,0.02246,0.06641,0.07727,0.007065,0.007713,0.06665,8.678e-05,0.0003834,0.1162,0.002998,2.484,0.005715,0,0,0.009506
10200000000,10500000000,4665896876,251,372630265,0.01688,0.06628,0.07739,0.007286,0.007935,0.06653,8.011e-05,0.0003843,0.1055,0.003284,4.217,0.01283,0,0,0.008789
10500000000,10800000000,4665896876,251,372630265,0.01779,0.06628,0.07739,0.007599,0.00824,0.06653,6.485e-05,0.0003853,0.07617,0.002357,3.931,0.01097,0,0,0.04047
10800000000,11100000000,4665896876,251,372630265,0.01932,0.06641,0.07739,0.007767,0.008423,0.06653,6.676e-05,0.0003757,0.109,0.00293,3.855,0.01107,0,0,0.004852
11100000000,11400000000,4665896876,251,372630265,0.02084,0.06653,0.07739,0.008011,0.008652,0.06665,7.057e-05,0.0003672,0.1066,0.003284,3.534,0.01005,0,0,0.07642
11400000000,11700000000,4665896876,251,372630265,0.02356,0.06665,0.07739,0.008118,0.008759,0.06689,7.153e-05,0.0003681,0.1006,0.002785,2.52,0.005859,0,0,0.01495
11700000000,12000000000,4665896876,251,372630265,0.01846,0.06665,0.07739,0.008423,0.009064,0.06689,6.485e-05,0.0003691,0.09766,0.005074,3.458,0.009323,0,0,0.01176
12000000000,12300000000,4665896876,251,372630265,0.02393,0.06677,0.07739,0.008743,0.009384,0.0675,7.629e-05,0.00037,0.09631,0.004784,3.262,0.008446,0,0,0.01393
12900000000,13200000000,4665896876,251,372630265,0.01965,0.06653,0.07739,0.009155,0.009796,0.06689,6.771e-05,0.0003729,0.1071,0.002857,3.847,0.01059,0,0,0.01036
13200000000,13500000000,4665896876,251,372630265,0.01691,0.06665,0.07739,0.009521,0.01018,0.06702,6.008e-05,0.0003738,0.08435,0.003502,3.907,0.01078,0,0,0.04987
13800000000,14100000000,4665896876,251,372630265,0.02066,0.06592,0.07739,0.01021,0.01086,0.06665,5.722e-05,0.0003757,0.1221,0.002785,4.116,0.0119,0,0,0.00827
14100000000,14400000000,4665896876,251,372630265,0.01715,0.06616,0.07739,0.006996,0.007645,0.06653,7.057e-05,0.0003757,0.1152,0.003784,3.62,0.01018,0,0,0.005684
14400000000,14700000000,4665896876,251,372630265,0.01794,0.06641,0.07739,0.005455,0.006104,0.06665,6.104e-05,0.0003767,0.1057,0.002785,2.626,0.006331,0,0,0.009094
15300000000,15600000000,4665896876,251,372630265,0.02881,0.06628,0.07727,0.006439,0.007088,0.06665,7.915e-05,0.0003796,0.1051,0.002571,1.899,0.003542,0,0,0.06812
15600000000,15900000000,4665896876,251,372630265,0.01511,0.06494,0.07739,0.006775,0.007423,0.0658,7.248e-05,0.0003805,0.08789,0.002998,3.094,0.008438,0,0,0.01355
15900000000,16200000000,4665896876,251,372630265,0.02277,0.06348,0.07739,0.007027,0.007675,0.06409,8.488e-05,0.0003815,0.1948,0.003071,2.233,0.005103,0,0,0.0238
16200000000,16500000000,4665896876,251,372630265,0.01917,0.0647,0.07739,0.007317,0.007965,0.06531,5.627e-05,0.0003815,0.1262,0.00293,3.249,0.009023,0,0,0.00547
16800000000,17100000000,4665896876,251,372630265,0.01666,0.06604,0.07739,0.007805,0.008453,0.06616,4.864e-05,0.0003834,0.06946,0.00243,4.295,0.01291,0,0,0.01791
17100000000,17400000000,4665896876,251,372630265,0.01682,0.06616,0.07739,0.002121,0.002766,0.06641,6.39e-05,0.0003843,0.08643,0.004211,4.205,0.01238,0,0,0.01126
17400000000,17700000000,4665896876,251,372630265,0.02597,0.06628,0.07739,0.000679,0.001328,0.06665,8.583e-05,0.0003843,0.1145,0.003216,2.598,0.006279,0,0,0.006531
18000000000,18300000000,4665896876,251,372630265,0.04517,0.06641,0.07739,0.001373,0.002022,0.06665,0.0001259,0.0003672,0.1367,0.004074,1.743,0.002917,0,0,0.0434
18300000000,18600000000,4665896876,251,372630265,0.03754,0.0658,0.07739,0.001751,0.002399,0.06653,9.251e-05,0.0003681,0.1562,0.006142,1.615,0.002422,0,0,0.1255
18600000000,18900000000,4665896876,251,372630265,0.01288,0.06348,0.07739,0.002033,0.002678,0.06482,5.15e-05,0.0003691,0.07471,0.002357,5.923,0.01905,0,0,0.01022
18900000000,19200000000,4665896876,251,372630265,0.02499,0.06201,0.07739,0.002258,0.002903,0.06677,6.199e-05,0.0003691,0.1211,0.002357,3.648,0.01006,0,0,0.005341
19200000000,19500000000,4665896876,251,372630265,0.0296,0.06604,0.07739,0.002621,0.003269,0.06689,7.629e-05,0.00037,0.1128,0.003071,1.465,0.002092,0,0,0.06195
19500000000,19800000000,4665896876,251,372630265,0.01947,0.06396,0.07739,0.002876,0.003521,0.06482,7.343e-05,0.000371,0.09473,0.002357,4.513,0.01336,0,0,0.01241
19800000000,20100000000,4665896876,251,372630265,0.03729,0.06445,0.07739,0.003159,0.003807,0.06702,9.537e-05,0.0003719,0.1768,0.003571,1.786,0.003027,0,0,0.011
20100000000,20400000000,4665896876,251,372630265,0.02905,0.0658,0.07739,0.003532,0.004181,0.06689,7.439e-05,0.0003729,0.1892,0.003998,1.949,0.003497,0,0,0.007179
20400000000,20700000000,4665896876,251,372630265,0.02509,0.06421,0.07739,0.003864,0.004509,0.06458,8.202e-05,0.0003729,0.1206,0.003071,2.478,0.005644,0,0,0.004272
20700000000,21000000000,4665896876,251,372630265,0.01804,0.06433,0.07739,0.004082,0.00473,0.06494,0.000102,0.0003738,0.09302,0.005997,2.426,0.00561,0,0,0.009506
21000000000,21300000000,4665896876,251,372630265,0.02521,0.06555,0.07739,0.00441,0.005058,0.06653,8.106e-05,0.0003748,0.1136,0.002998,2.654,0.00624,0,0,0.009262
21300000000,21600000000,4665896876,251,372630265,0.01782,0.06616,0.07739,0.00473,0.005379,0.06653,7.534e-05,0.0003757,0.1149,0.00243,4.322,0.01248,0,0,0.0368
21900000000,22200000000,4665896876,251,372630265,0.01559,0.06628,0.07739,0.005226,0.005875,0.06689,5.531e-05,0.0003767,0.0896,0.003071,4.506,0.01358,0,0,0.007729
22200000000,22500000000,4665896876,251,372630265,0.0354,0.06653,0.07739,0.005402,0.00605,0.06689,6.866e-05,0.0003777,0.1187,0.003857,1.771,0.003164,0,0,0.02335
22800000000,23100000000,4665896876,251,372630265,0.01544,0.06384,0.07739,0.006012,0.00666,0.06506,5.817e-05,0.0003796,0.1007,0.002998,5.142,0.01559,0,0,0.07361
23100000000,23400000000,4665896876,251,372630265,0.01773,0.06335,0.07739,0.006325,0.006973,0.06641,7.534e-05,0.0003796,0.09875,0.003571,2.677,0.006819,0,0,0.007355
23400000000,23700000000,4665896876,251,372630265,0.04034,0.06653,0.07739,0.006531,0.007179,0.06689,0.0001001,0.0003805,0.1511,0.005501,1.379,0.001671,0,0,0.07263
23700000000,24000000000,4665896876,251,372630265,0.01825,0.06445,0.07739,0.006737,0.007385,0.06604,9.155e-05,0.0003815,0.1279,0.002998,3.509,0.009425,0,0,0.01115
24000000000,24300000000,4665896876,251,372630265,0.01602,0.06232,0.07739,0.007034,0.007683,0.06335,6.39e-05,0.0003824,0.104,0.00293,3.677,0.01004,0,0,0.003635
24300000000,24600000000,4665896876,251,372630265,0.01874,0.06,0.0769,0.007301,0.00795,0.06091,6.485e-05,0.0003834,0.1099,0.002998,2.303,0.005044,0,0,0.06775
24600000000,24900000000,4665896876,251,372630265,0.03143,0.06079,0.07642,0.007439,0.008087,0.06531,0.0001011,0.0003834,0.1401,0.003643,1.553,0.002415,0,0,0.02545
24900000000,25200000000,4665896876,251,372630265,0.02197,0.06372,0.07739,0.002632,0.003281,0.06531,5.436e-05,0.0003843,0.1528,0.001999,4.654,0.01354,0,0,0.04517
25200000000,25500000000,4665896876,251,372630265,0.0267,0.06543,0.07739,0.0008087,0.001457,0.06653,5.722e-05,0.0003853,0.1482,0.002144,1.499,0.002222,0,0,0.008362
25500000000,25800000000,4665896876,251,372630265,0.03717,0.06555,0.07739,0.001095,0.001743,0.06677,8.965e-05,0.0003719,0.1241,0.003784,1.902,0.003353,0,0,0.02594
25800000000,26100000000,4665896876,251,372630265,0.01688,0.0647,0.07739,0.001442,0.00209,0.0658,6.866e-05,0.0003672,0.1036,0.002998,4.993,0.0152,0,0,0.007133
26100000000,26400000000,4665896876,251,372630265,0.01999,0.0625,0.07739,0.001755,0.002403,0.06348,8.488e-05,0.0003681,0.1047,0.004211,2.744,0.006741,0,0,0.07434
26400000000,26700000000,4665896876,251,372630265,0.01907,0.06128,0.07739,0.002007,0.002655,0.06232,8.297e-05,0.0003691,0.1002,0.005142,2.688,0.006349,0,0,0.06641
26700000000,27000000000,4665896876,251,372630265,0.03705,0.06311,0.07739,0.002243,0.002888,0.06677,0.000103,0.00037,0.1396,0.003998,1.703,0.002686,0,0,0.08093
27300000000,27600000000,4665896876,251,372630265,0.03888,0.06616,0.07739,0.002441,0.00309,0.06677,8.392e-05,0.000371,0.1592,0.00293,1.589,0.002386,0,0,0.04266
27600000000,27900000000,4665896876,251,372630265,0.01898,0.06409,0.07739,0.002697,0.003345,0.06531,5.054e-05,0.0003719,0.09509,0.002716,5.285,0.01579,0,0,0.006714
27900000000,28200000000,4665896876,251,372630265,0.02362,0.06226,0.07739,0.003014,0.003662,0.06299,6.104e-05,0.0003729,0.07617,0.003284,3.506,0.00965,0,0,0.04413
28200000000,28500000000,4665896876,251,372630265,0.02277,0.06158,0.07739,0.003319,0.003967,0.06262,6.104e-05,0.0003738,0.1074,0.00293,2.348,0.005008,0,0,0.004745
28500000000,28800000000,4665896876,251,372630265,0.01843,0.06067,0.07739,0.003586,0.004234,0.06104,8.297e-05,0.0003748,0.09375,0.005287,2.942,0.007278,0,0,0.01137
29100000000,29400000000,4665896876,251,372630265,0.02924,0.06384,0.07739,0.003975,0.004623,0.06653,7.343e-05,0.0003757,0.1484,0.003357,2.332,0.004954,0,0,0.01108
30000000000,30300000000,4665896876,251,372630265,0.01559,0.06555,0.07739,0.004486,0.005135,0.0658,0.0001097,0.0003786,0.07324,0.005646,4.248,0.01203,0,0,0.008087
30300000000,30600000000,4665896876,251,372630265,0.02972,0.06628,0.07739,0.004044,0.004692,0.06677,7.534e-05,0.0003796,0.09546,0.002998,1.654,0.002456,0,0,0.01569
30600000000,30900000000,4665896876,251,372630265,0.01584,0.06519,0.07739,0.004288,0.004936,0.06616,5.531e-05,0.0003796,0.1016,0.002998,4.279,0.01219,0,0,0.01045
31500000000,31800000000,4665896876,251,372630265,0.01904,0.06628,0.07739,0.004807,0.005455,0.06641,8.678e-05,0.0003824,0.1019,0.002499,3.65,0.009956,0,0,0.02176
31800000000,32100000000,4665896876,251,372630265,0.02051,0.06616,0.07739,0.00499,0.005638,0.06641,5.817e-05,0.0003834,0.07947,0.00293,2.186,0.004386,0,0,0.01624
32100000000,32400000000,4665896876,251,372630265,0.02588,0.06604,0.07727,0.004486,0.005135,0.06641,6.866e-05,0.0003843,0.1174,0.003502,1.997,0.003956,0,0,0.02057
32400000000,32700000000,4665896876,251,372630265,0.01752,0.0658,0.07739,0.0004625,0.00111,0.06604,7.439e-05,0.0003853,0.103,0.003284,3.791,0.01086,0,0,0.01001
32700000000,33000000000,4665896876,251,372630265,0.01691,0.06567,0.07739,0.0006828,0.001331,0.06592,8.869e-05,0.0003796,0.1113,0.002857,5.623,0.01848,0,0,0.03497
33000000000,33300000000,4665896876,251,372630265,0.0148,0.06616,0.07739,0.001003,0.001652,0.06641,5.245e-05,0.0003672,0.1036,0.002285,5.983,0.01965,0,0,0.007629
33300000000,33600000000,4665896876,251,372630265,0.0163,0.06604,0.07739,0.001348,0.001995,0.06653,6.39e-05,0.0003681,0.06958,0.003143,2.961,0.007883,0,0,0.007523
33600000000,33900000000,4665896876,251,372630265,0.01898,0.06628,0.07739,0.001657,0.002304,0.06653,8.106e-05,0.0003691,0.0918,0.005859,3.302,0.009117,0,0,0.01231
33900000000,34200000000,4665896876,251,372630265,0.02121,0.06628,0.07739,0.001984,0.002632,0.06653,7.057e-05,0.00037,0.1306,0.002499,3.867,0.01114,0,0,0.01115
34200000000,34500000000,4665896876,251,372630265,0.01962,0.06616,0.07739,0.002331,0.002979,0.06653,8.297e-05,0.00037,0.1013,0.003857,2.958,0.007756,0,0,0.005638
34500000000,34800000000,4665896876,251,372630265,0.01929,0.06628,0.07739,0.002701,0.003349,0.06641,6.676e-05,0.000371,0.1156,0.002644,2.061,0.004496,0,0,0.008423
34800000000,35100000000,4665896876,251,372630265,0.01868,0.06628,0.07739,0.003025,0.003674,0.06653,5.245e-05,0.0003719,0.07825,0.002857,3.484,0.009337,0,0,0.009186
35100000000,35400000000,4665896876,251,372630265,0.01645,0.06628,0.07739,0.003277,0.003922,0.06641,5.913e-05,0.0003729,0.07812,0.00293,3.626,0.009978,0,0,0.04138
35400000000,35700000000,4665896876,251,372630265,0.01834,0.06628,0.07739,0.003647,0.004295,0.06653,7.534e-05,0.0003738,0.08496,0.00243,3.042,0.008156,0,0,0.008377
35700000000,36000000000,4665896876,251,372630265,0.02319,0.06592,0.07727,0.003937,0.004585,0.06653,8.011e-05,0.0003748,0.1045,0.00293,1.694,0.002988,0,0,0.01181
36000000000,36300000000,4665896876,251,372630265,0.0213,0.06567,0.07727,0.004295,0.004944,0.06604,9.155e-05,0.0003757,0.1035,0.003643,1.917,0.003776,0,0,0.03217
36300000000,36600000000,4665896876,251,372630265,0.01578,0.06519,0.07739,0.004639,0.005287,0.06555,7.248e-05,0.0003767,0.09912,0.003357,3.066,0.008062,0,0,0.004509
36600000000,36900000000,4665896876,251,372630265,0.01736,0.06531,0.07739,0.004959,0.005608,0.06543,8.202e-05,0.0003777,0.07812,0.003284,2.444,0.005815,0,0,0.008911
36900000000,37200000000,4665896876,251,372630265,0.01697,0.0658,0.07739,0.005264,0.005913,0.06616,8.297e-05,0.0003777,0.08594,0.003429,4.363,0.01281,0,0,0.01465
37200000000,37500000000,4665896876,251,372630265,0.03351,0.06616,0.07727,0.005585,0.006233,0.06665,8.297e-05,0.0003786,0.1123,0.002857,1.771,0.00305,0,0,0.02841
37800000000,38100000000,4665896876,251,372630265,0.01987,0.0636,0.07739,0.006187,0.006836,0.0647,8.297e-05,0.0003805,0.08411,0.002998,2.1,0.00449,0,0,0.005959
38400000000,38700000000,4665896876,251,372630265,0.02054,0.06049,0.07739,0.006813,0.007454,0.06134,8.106e-05,0.0003824,0.1323,0.003284,2.297,0.00494,0,0,0.01541
38700000000,39000000000,4665896876,251,372630265,0.02325,0.0603,0.07739,0.006859,0.007507,0.06079,0.0001087,0.0003834,0.1047,0.003071,2.46,0.005791,0,0,0.04901
39000000000,39300000000,4665896876,251,372630265,0.02521,0.0603,0.07739,0.00708,0.007729,0.06091,8.965e-05,0.0003843,0.1304,0.003284,3.667,0.01049,0,0,0.09045
39300000000,39600000000,4665896876,251,372630265,0.0318,0.06335,0.07727,0.007339,0.007996,0.06665,6.866e-05,0.0003853,0.1064,0.002857,2.283,0.005073,0,0,0.04169
39900000000,40200000000,4665896876,251,372630265,0.01627,0.06372,0.07739,0.0075,0.008148,0.06506,7.343e-05,0.0003672,0.06787,0.003216,5.322,0.01719,0,0,0.006744
40200000000,40500000000,4665896876,251,372630265,0.01697,0.06116,0.07739,0.007843,0.008499,0.06232,8.392e-05,0.0003681,0.09814,0.003429,5.65,0.01822,0,0,0.021
40500000000,40800000000,4665896876,251,372630265,0.02194,0.05951,0.0769,0.008072,0.008728,0.05994,7.343e-05,0.0003691,0.1289,0.00293,2.444,0.005608,0,0,0.006599
51000000000,51300000000,4665896876,251,372630265,0.03851,0.06323,0.07727,0.002777,0.003426,0.06482,0.0001774,0.0003729,0.1326,0.01279,2.018,0.004617,0,0,0.01718
51300000000,51600000000,4665896876,251,372630265,0.02252,0.06458,0.07727,0.00333,0.003975,0.06494,0.0001411,0.0003748,0.1072,0.005997,3.165,0.008664,0,0,0.009033
51900000000,52200000000,4665896876,251,372630265,0.02301,0.06458,0.07727,0.003357,0.004005,0.0647,8.774e-05,0.0003767,0.09741,0.003071,3.976,0.01203,0,0,0.01472
52200000000,52500000000,4665896876,251,372630265,0.02429,0.06506,0.07727,0.003311,0.00396,0.06555,8.202e-05,0.0003777,0.1025,0.003284,3.479,0.009769,0,0,0.005173
52500000000,52800000000,4665896876,251,372630265,0.02145,0.06592,0.07739,0.003616,0.004265,0.06628,9.537e-05,0.0003786,0.1101,0.003571,2.716,0.006824,0,0,0.015
52800000000,53100000000,4665896876,251,372630265,0.02032,0.06641,0.07739,0.004036,0.004684,0.06665,8.869e-05,0.0003796,0.1099,0.003929,5.158,0.01578,0,0,0.01117
53100000000,53400000000,4665896876,251,372630265,0.02866,0.06653,0.07727,0.004395,0.005043,0.06677,8.965e-05,0.0003815,0.1345,0.003429,3.406,0.009312,0,0,0.01807
53400000000,53700000000,4665896876,251,372630265,0.02475,0.06653,0.07727,0.004852,0.005501,0.06665,0.000102,0.0003824,0.09375,0.006142,2.777,0.006749,0,0,0.008133
53700000000,54000000000,4665896876,251,372630265,0.0239,0.06653,0.07727,0.005257,0.005905,0.06689,0.0001154,0.0003834,0.1035,0.005783,6.004,0.01971,0,0,0.02963
54000000000,54300000000,4665896876,251,372630265,0.04089,0.06653,0.07727,0.004822,0.00547,0.06702,0.0001497,0.0003853,0.1355,0.004784,3.274,0.009046,0,0,0.0217
55800000000,56100000000,4665896876,251,372630265,0.02106,0.06653,0.07727,0.002972,0.00362,0.06665,9.06e-05,0.0003729,0.1331,0.004929,3.683,0.009955,0,0,0.0125
56700000000,57000000000,4665896876,251,372630265,0.03119,0.06641,0.07727,0.004372,0.00502,0.06665,0.0001154,0.0003767,0.1084,0.003643,2.233,0.004375,0,0,0.05255
57000000000,57300000000,4665896876,251,372630265,0.03259,0.06653,0.07727,0.004898,0.005547,0.06677,8.965e-05,0.0003786,0.1333,0.003784,2.856,0.006754,0,0,0.01237
57300000000,57600000000,4665896876,251,372630265,0.02887,0.06653,0.07727,0.005363,0.006012,0.06677,0.000124,0.0003796,0.1155,0.004425,3.056,0.007773,0,0,0.04895
57600000000,57900000000,4665896876,251,372630265,0.02866,0.06653,0.07727,0.005844,0.006493,0.06665,0.0001211,0.0003805,0.1074,0.004288,2.209,0.004685,0,0,0.03284
57900000000,58200000000,4665896876,251,372630265,0.03491,0.06641,0.07727,0.006104,0.006752,0.06665,0.0001135,0.0003824,0.1333,0.008713,1.754,0.003152,0,0,0.01036
58200000000,58500000000,4665896876,251,372630265,0.02869,0.0658,0.07727,0.006264,0.006912,0.06628,9.346e-05,0.0003834,0.115,0.004074,2.316,0.005316,0,0,0.01077
58500000000,58800000000,4665896876,251,372630265,0.02383,0.06519,0.07727,0.006783,0.007431,0.06543,8.583e-05,0.0003843,0.113,0.003284,4.815,0.01499,0,0,0.02313
58800000000,59100000000,4665896876,251,372630265,0.02267,0.06519,0.07739,0.00189,0.002537,0.06567,8.488e-05,0.0003719,0.1112,0.004929,5.11,0.01517,0,0,0.011
59100000000,59400000000,4665896876,251,372630265,0.01752,0.0658,0.07739,0.0007133,0.001362,0.06628,8.583e-05,0.0003681,0.09534,0.004929,3.033,0.007783,0,0,0.009476
59400000000,59700000000,4665896876,251,372630265,0.01337,0.06616,0.07739,0.0008202,0.001469,0.06628,6.39e-05,0.0003681,0.08997,0.002357,4.888,0.01522,0,0,0.006081
60000000000,60300000000,4665896876,251,372630265,0.01709,0.06604,0.07739,0.001242,0.00189,0.06616,5.436e-05,0.0003691,0.06458,0.00243,4.834,0.01535,0,0,0.01086
60300000000,60600000000,4665896876,251,372630265,0.01871,0.06616,0.07739,0.001501,0.002148,0.06641,6.962e-05,0.00037,0.08093,0.005211,3.878,0.01171,0,0,0.01767
60600000000,60900000000,4665896876,251,372630265,0.01776,0.06616,0.07739,0.001722,0.002369,0.06628,4.482e-05,0.000371,0.07983,0.001999,2.926,0.007813,0,0,0.009262
71100000000,71400000000,4665896876,251,372630265,0.03235,0.06702,0.07739,0.005569,0.006218,0.06714,0.0001106,0.0003853,0.1215,0.005074,2.161,0.004273,0,0,0.02347
71400000000,71700000000,4665896876,251,372630265,0.02478,0.06677,0.07739,0.002209,0.002857,0.06689,8.488e-05,0.0003681,0.07812,0.003643,3.467,0.009536,0,0,0.0321
72000000000,72300000000,4665896876,251,372630265,0.02747,0.06665,0.07739,0.001198,0.001846,0.06677,8.869e-05,0.00037,0.155,0.003784,4.104,0.0124,0,0,0.0365
72300000000,72600000000,4665896876,251,372630265,0.02792,0.06653,0.07739,0.001625,0.002274,0.06665,7.82e-05,0.000371,0.1086,0.003784,4.29,0.01307,0,0,0.08411
72900000000,73200000000,4665896876,251,372630265,0.01373,0.06604,0.07739,0.002613,0.003262,0.06641,4.768e-05,0.0003738,0.06421,0.003571,4.924,0.01508,0,0,0.02374
73500000000,73800000000,4665896876,251,372630265,0.021,0.06628,0.07739,0.003014,0.003662,0.06641,6.39e-05,0.0003748,0.119,0.005783,3.829,0.01032,0,0,0.01479
73800000000,74100000000,4665896876,251,372630265,0.01672,0.06628,0.07739,0.003296,0.003944,0.06628,4.101e-05,0.0003757,0.07715,0.002857,5.314,0.01608,0,0,0.01981
74100000000,74400000000,4665896876,251,372630265,0.02374,0.06616,0.07739,0.003506,0.004158,0.06641,6.008e-05,0.0003757,0.0929,0.003643,3.442,0.009098,0,0,0.007996
74400000000,74700000000,4665896876,251,372630265,0.03204,0.06641,0.07739,0.003582,0.004234,0.06665,8.011e-05,0.0003767,0.1199,0.003071,2.881,0.007068,0,0,0.01056
75000000000,75300000000,4665896876,251,372630265,0.01932,0.06604,0.07739,0.003944,0.004593,0.06641,6.866e-05,0.0003777,0.1146,0.002857,1.983,0.003814,0,0,0.0257
75300000000,75600000000,4665896876,251,372630265,0.01791,0.0658,0.07739,0.004173,0.004822,0.06592,5.341e-05,0.0003786,0.08301,0.002357,4.378,0.01275,0,0,0.01663
75600000000,75900000000,4665896876,251,372630265,0.01932,0.06592,0.07739,0.004349,0.004997,0.06628,5.913e-05,0.0003796,0.09814,0.003071,2.253,0.005059,0,0,0.01317
75900000000,76200000000,4665896876,251,372630265,0.01514,0.06604,0.07739,0.004532,0.00518,0.06616,5.341e-05,0.0003796,0.05878,0.002213,5.157,0.01567,0,0,0.009613
76500000000,76800000000,4665896876,251,372630265,0.01505,0.06616,0.07739,0.004753,0.005402,0.06628,6.008e-05,0.0003815,0.07324,0.00293,3.38,0.009222,0,0,0.003643
76800000000,77100000000,4665896876,251,372630265,0.01694,0.06616,0.07739,0.004738,0.005386,0.06628,4.482e-05,0.0003815,0.09998,0.002144,4.173,0.0117,0,0,0.02658
77400000000,77700000000,4665896876,251,372630265,0.02023,0.06592,0.07739,0.005165,0.005814,0.06628,5.436e-05,0.0003834,0.1064,0.003571,2.304,0.004964,0,0,0.01105
77700000000,78000000000,4665896876,251,372630265,0.01392,0.06543,0.07739,0.005379,0.006027,0.06567,4.673e-05,0.0003843,0.06702,0.002144,4.994,0.01468,0,0,0.02533
78000000000,78300000000,4665896876,251,372630265,0.01694,0.06531,0.07739,0.005562,0.00621,0.06604,4.673e-05,0.0003843,0.07764,0.002499,4.888,0.01428,0,0,0.03137
78300000000,78600000000,4665896876,251,372630265,0.01694,0.06616,0.07739,0.005623,0.006271,0.06628,6.294e-05,0.0003853,0.07617,0.002285,5.331,0.0158,0,0,0.009995
78600000000,78900000000,4665896876,251,372630265,0.01663,0.06616,0.07739,0.005653,0.006302,0.06616,5.245e-05,0.0003853,0.07104,0.002857,5.47,0.01612,0,0,0.006767
79200000000,79500000000,4665896876,251,372630265,0.0188,0.06616,0.07739,0.005981,0.00663,0.06616,6.104e-05,0.0003672,0.08472,0.00243,4.337,0.01255,0,0,0.01047
79500000000,79800000000,4665896876,251,372630265,0.01993,0.06616,0.07739,0.006218,0.006866,0.06641,8.583e-05,0.0003681,0.155,0.00293,2.722,0.006774,0,0,0.03101
79800000000,80100000000,4665896876,251,372630265,0.01427,0.06604,0.07739,0.006371,0.007019,0.06616,6.39e-05,0.0003691,0.0708,0.00293,4.939,0.01522,0,0,0.02444
80100000000,80400000000,4665896876,251,372630265,0.01587,0.06604,0.07739,0.006638,0.007286,0.06628,5.436e-05,0.0003691,0.09033,0.004074,4.504,0.01365,0,0,0.01241
80400000000,80700000000,4665896876,251,372630265,0.01508,0.06604,0.07739,0.006889,0.007538,0.06616,5.436e-05,0.00037,0.07788,0.001858,5.499,0.01696,0,0,0.009247
80700000000,81000000000,4665896876,251,372630265,0.01596,0.06616,0.07739,0.007118,0.007767,0.06628,3.815e-05,0.000371,0.09045,0.002285,4.643,0.01426,0,0,0.01349
85800000000,86100000000,4665896876,251,372630265,0.01303,0.06409,0.07751,0.005333,0.005981,0.06433,3.719e-05,0.0003815,0.06372,0.002213,4.515,0.01301,0,0,0.01715
86100000000,86400000000,4665896876,251,372630265,0.01257,0.06384,0.07751,0.005524,0.006172,0.06409,5.913e-05,0.0003815,0.07043,0.003429,4.776,0.01433,0,0,0.0107
86400000000,86700000000,4665896876,251,372630265,0.0152,0.06494,0.07739,0.005508,0.006157,0.06592,0.0001192,0.0003824,0.07837,0.004784,2.713,0.006758,0,0,0.01675
87000000000,87300000000,4665896876,251,372630265,0.01399,0.06592,0.07739,0.005394,0.006042,0.06592,4.482e-05,0.0003834,0.06165,0.002571,3.765,0.0106,0,0,0.03595
87300000000,87600000000,4665896876,251,372630265,0.01175,0.06592,0.07739,0.00544,0.006088,0.06592,4.196e-05,0.0003834,0.0697,0.002357,5.014,0.01539,0,0,0.009979
87600000000,87900000000,4665896876,251,372630265,0.0166,0.06592,0.07739,0.005493,0.006142,0.06616,6.485e-05,0.0003843,0.08655,0.002071,4.103,0.01182,0,0,0.01263
88200000000,88500000000,4665896876,251,372630265,0.01364,0.06543,0.07739,0.005875,0.006523,0.06592,6.104e-05,0.0003853,0.05859,0.00293,4.487,0.01347,0,0,0.01611
88500000000,88800000000,4665896876,251,372630265,0.01173,0.06494,0.07751,0.006065,0.006714,0.06519,5.436e-05,0.0003853,0.07458,0.002571,4.851,0.01482,0,0,0.01128
88800000000,89100000000,4665896876,251,372630265,0.0118,0.0647,0.07751,0.006226,0.006874,0.06482,5.817e-05,0.0003719,0.07483,0.003429,5.077,0.01543,0,0,0.003819
89100000000,89400000000,4665896876,251,372630265,0.01456,0.06494,0.07751,0.002121,0.002769,0.06592,5.531e-05,0.0003672,0.06061,0.002144,4.15,0.01206,0,0,0.04926
89700000000,90000000000,4665896876,251,372630265,0.01611,0.06592,0.07739,0.000514,0.001162,0.06616,5.531e-05,0.0003681,0.0863,0.002644,4.552,0.01355,0,0,0.00301
90000000000,90300000000,4665896876,251,372630265,0.01376,0.06592,0.07739,0.0007076,0.001356,0.06604,4.292e-05,0.0003681,0.06738,0.001858,5.406,0.01674,0,0,0.009155
90300000000,90600000000,4665896876,251,372630265,0.01479,0.06592,0.07739,0.0008888,0.001537,0.06604,6.58e-05,0.0003691,0.09119,0.002644,2.507,0.005834,0,0,0.0126
90600000000,90900000000,4665896876,251,372630265,0.01538,0.06592,0.07739,0.001072,0.00172,0.06592,5.15e-05,0.0003691,0.08337,0.002144,3.769,0.01024,0,0,0.00489
101400000000,101700000000,4665896876,251,372630265,0.01788,0.0658,0.07739,0.006111,0.006752,0.06592,5.054e-05,0.0003681,0.07263,0.002857,3.245,0.008397,0,0,0.01401
101700000000,102000000000,4665896876,251,372630265,0.02246,0.0658,0.07751,0.006302,0.00695,0.06604,5.531e-05,0.0003681,0.1074,0.00293,4.454,0.013,0,0,0.02887
102000000000,102300000000,4665896876,251,372630265,0.0152,0.0658,0.07739,0.006416,0.007065,0.06604,5.15e-05,0.0003691,0.07825,0.00293,3.551,0.009292,0,0,0.003815
102300000000,102600000000,4665896876,251,372630265,0.01427,0.0658,0.07751,0.0065,0.007149,0.06592,4.196e-05,0.0003691,0.0719,0.001642,4.447,0.01251,0,0,0.005165
102600000000,102900000000,4665896876,251,372630265,0.01236,0.0658,0.07751,0.006416,0.007065,0.06592,7.057e-05,0.00037,0.08301,0.003643,5.326,0.01608,0,0,0.01337
102900000000,103200000000,4665896876,251,372630265,0.01859,0.0658,0.07739,0.006386,0.007034,0.06616,6.58e-05,0.00037,0.1044,0.002785,4.577,0.01328,0,0,0.004745
103200000000,103500000000,4665896876,251,372630265,0.03049,0.06567,0.07739,0.006546,0.007195,0.06616,4.196e-05,0.000371,0.167,0.002071,1.466,0.002051,0,0,0.01285
103800000000,104100000000,4665896876,251,372630265,0.0145,0.06531,0.07751,0.006844,0.007492,0.06592,5.054e-05,0.0003719,0.06445,0.00243,4.08,0.01159,0,0,0.03571
104100000000,104400000000,4665896876,251,372630265,0.01262,0.06592,0.07751,0.006897,0.007545,0.06604,6.104e-05,0.0003719,0.09399,0.002785,5.279,0.01587,0,0,0.02353
104400000000,104700000000,4665896876,251,372630265,0.01071,0.0658,0.07739,0.006844,0.007492,0.06604,4.959e-05,0.0003729,0.07068,0.001858,5.104,0.01597,0,0,0.008759
104700000000,105000000000,4665896876,251,372630265,0.01727,0.06592,0.07751,0.006859,0.007507,0.06628,5.054e-05,0.0003729,0.1296,0.001785,4.357,0.0125,0,0,0.004684
105300000000,105600000000,4665896876,251,372630265,0.01074,0.06458,0.07739,0.007294,0.00795,0.06567,4.005e-05,0.0003738,0.06433,0.001999,3.301,0.008341,0,0,0.006424
105600000000,105900000000,4665896876,251,372630265,0.01129,0.0625,0.07751,0.007088,0.007736,0.0636,3.624e-05,0.0003738,0.07275,0.00293,4.75,0.01308,0,0,0.008636
105900000000,106200000000,4665896876,251,372630265,0.01128,0.06073,0.07751,0.00301,0.003654,0.06158,3.147e-05,0.0003748,0.07361,0.001928,5.353,0.01499,0,0,0.002159
106200000000,106500000000,4665896876,251,372630265,0.02661,0.06012,0.07666,0.003094,0.003738,0.06348,7.248e-05,0.0003748,0.1523,0.002998,2.343,0.004639,0,0,0.07715
106500000000,106800000000,4665896876,251,372630265,0.04089,0.06567,0.07751,0.003159,0.003807,0.06616,5.627e-05,0.0003757,0.1536,0.003502,1.418,0.001454,0,0,0.08276
106800000000,107100000000,4665896876,251,372630265,0.01135,0.06409,0.07751,0.003319,0.003967,0.06519,3.052e-05,0.0003757,0.07617,0.002499,4.057,0.01084,0,0,0.00359
107100000000,107400000000,4665896876,251,372630265,0.01534,0.06409,0.07751,0.003452,0.004105,0.06592,3.719e-05,0.0003767,0.08398,0.001928,2.713,0.006541,0,0,0.01883
107400000000,107700000000,4665896876,251,372630265,0.03369,0.0658,0.07751,0.003578,0.004227,0.06616,4.768e-05,0.0003767,0.1211,0.002998,1.73,0.002602,0,0,0.02032
107700000000,108000000000,4665896876,251,372630265,0.01222,0.06494,0.07739,0.003811,0.004456,0.06616,6.294e-05,0.0003777,0.1143,0.00293,2.205,0.004379,0,0,0.004814
108000000000,108300000000,4665896876,251,372630265,0.03699,0.06482,0.07739,0.003967,0.004616,0.06616,7.248e-05,0.0003777,0.1484,0.003143,1.959,0.003721,0,0,0.004364
108300000000,108600000000,4665896876,251,372630265,0.03381,0.06555,0.07739,0.004181,0.004829,0.06604,7.439e-05,0.0003786,0.1465,0.005074,1.331,0.001367,0,0,0.005035
108600000000,108900000000,4665896876,251,372630265,0.03192,0.06506,0.07739,0.00441,0.005058,0.06604,0.000102,0.0003786,0.2109,0.006073,1.403,0.001726,0,0,0.004967
108900000000,109200000000,4665896876,251,372630265,0.03143,0.0647,0.07739,0.004555,0.005203,0.06604,5.531e-05,0.0003796,0.1533,0.00243,1.578,0.002391,0,0,0.07458
109200000000,109500000000,4665896876,251,372630265,0.0231,0.06519,0.07739,0.004829,0.005478,0.06616,5.15e-05,0.0003796,0.1309,0.002499,1.86,0.003263,0,0,0.001278
109500000000,109800000000,4665896876,251,372630265,0.01266,0.06311,0.07739,0.004997,0.005646,0.06421,4.864e-05,0.0003805,0.1006,0.002144,2.365,0.00518,0,0,0.006409
109800000000,110100000000,4665896876,251,372630265,0.01486,0.06128,0.07739,0.00515,0.005798,0.06219,3.529e-05,0.0003805,0.1055,0.001785,3.503,0.009317,0,0,0.02628
110100000000,110400000000,4665896876,251,372630265,0.01511,0.05963,0.07666,0.005272,0.00592,0.06036,4.578e-05,0.0003815,0.101,0.001999,2.034,0.003856,0,0,0.02838
110400000000,110700000000,4665896876,251,372630265,0.01225,0.05945,0.07556,0.005371,0.00602,0.06024,3.147e-05,0.0003815,0.06567,0.002499,6.065,0.01871,0,0,0.01183
110700000000,111000000000,4665896876,251,372630265,0.0132,0.06323,0.07739,0.00531,0.005951,0.06458,6.294e-05,0.0003824,0.09583,0.003143,3.008,0.007988,0,0,0.01321
116400000000,116700000000,4665896876,251,372630265,0.01389,0.06519,0.07751,0.001318,0.001968,0.0658,3.624e-05,0.000371,0.0647,0.001928,3.29,0.009114,0,0,0.006393
116700000000,117000000000,4665896876,251,372630265,0.01321,0.06567,0.07751,0.001499,0.002148,0.0658,3.242e-05,0.000371,0.06183,0.00243,4.051,0.01182,0,0,0.01045
117000000000,117300000000,4665896876,251,372630265,0.03204,0.0658,0.07739,0.001488,0.002136,0.06616,6.58e-05,0.0003719,0.1357,0.003571,1.464,0.002101,0,0,0.01691
117900000000,118200000000,4665896876,251,372630265,0.01752,0.06299,0.07751,0.0019,0.002548,0.06519,6.294e-05,0.0003729,0.1055,0.003071,2.583,0.006086,0,0,0.007462
118500000000,118800000000,4665896876,251,372630265,0.01109,0.06458,0.07751,0.00185,0.002499,0.06543,5.531e-05,0.0003738,0.0603,0.003071,2.949,0.007718,0,0,0.004128
118800000000,119100000000,4665896876,251,372630265,0.01241,0.06335,0.07751,0.002033,0.002682,0.06384,3.147e-05,0.0003748,0.0603,0.001642,4.369,0.01304,0,0,0.03534
119100000000,119400000000,4665896876,251,372630265,0.01038,0.06519,0.07751,0.002182,0.002831,0.06567,5.627e-05,0.0003748,0.08057,0.002499,3.92,0.01146,0,0,0.007294
119400000000,119700000000,4665896876,251,372630265,0.04138,0.06592,0.07751,0.002308,0.002953,0.06616,8.488e-05,0.0003757,0.1154,0.004997,2.089,0.004124,0,0,0.05762
119700000000,120000000000,4665896876,251,372630265,0.01237,0.06531,0.07739,0.002102,0.00275,0.06604,8.202e-05,0.0003757,0.07129,0.002499,3.214,0.008573,0,0,0.01184
120000000000,120300000000,4665896876,251,372630265,0.01253,0.06409,0.07739,0.002258,0.002907,0.06482,5.054e-05,0.0003767,0.1083,0.002144,5.407,0.01669,0,0,0.004448
120300000000,120600000000,4665896876,251,372630265,0.01054,0.06287,0.07751,0.002415,0.003063,0.06348,3.147e-05,0.0003767,0.05463,0.001286,5.116,0.01603,0,0,0.008698
120600000000,120900000000,4665896876,251,372630265,0.04584,0.0658,0.07739,0.002533,0.003181,0.06616,7.343e-05,0.0003777,0.1252,0.003357,1.441,0.00184,0,0,0.03876
126000000000,126300000000,4665896876,251,372630265,0.0108,0.06555,0.07751,0.004745,0.005394,0.0658,4.101e-05,0.0003853,0.05811,0.00243,5.471,0.01694,0,0,0.005013
126300000000,126600000000,4665896876,251,372630265,0.01033,0.06567,0.07751,0.004898,0.005547,0.0658,4.387e-05,0.0003853,0.1179,0.001999,5.407,0.01675,0,0,0.1179
126600000000,126900000000,4665896876,251,372630265,0.01108,0.0658,0.07751,0.004852,0.005501,0.0658,3.147e-05,0.0003834,0.05493,0.001215,5.548,0.01725,0,0,0.005142
126900000000,127200000000,4665896876,251,372630265,0.01114,0.0658,0.07751,0.00499,0.005638,0.06592,3.719e-05,0.0003672,0.07251,0.001572,5.358,0.01649,0,0,0.02087
127200000000,127500000000,4665896876,251,372630265,0.01291,0.0658,0.07751,0.005142,0.005791,0.06616,4.673e-05,0.0003672,0.08496,0.001928,5.49,0.01706,0,0,0.008926
127500000000,127800000000,4665896876,251,372630265,0.01448,0.06567,0.07739,0.005295,0.005943,0.06592,5.245e-05,0.0003672,0.08911,0.00293,2.876,0.007354,0,0,0.008148
127800000000,128100000000,4665896876,251,372630265,0.01289,0.0658,0.07739,0.005135,0.005783,0.0658,3.338e-05,0.0003681,0.06091,0.002285,4.687,0.01414,0,0,0.02603
128100000000,128400000000,4665896876,251,372630265,0.01399,0.06567,0.07751,0.0002012,0.0008488,0.0658,5.054e-05,0.0003681,0.06299,0.002857,5.127,0.01605,0,0,0.008392
128400000000,128700000000,4665896876,251,372630265,0.01013,0.06567,0.07751,0.0003967,0.001045,0.0658,4.864e-05,0.0003691,0.05548,0.002213,5.228,0.01638,0,0,0.006996
128700000000,129000000000,4665896876,251,372630265,0.01173,0.06555,0.07751,0.0005245,0.001173,0.06592,3.719e-05,0.0003691,0.07019,0.001429,2.703,0.006907,0,0,0.00502
129000000000,129300000000,4665896876,251,372630265,0.01274,0.06567,0.07751,0.0005674,0.001215,0.0658,5.054e-05,0.00037,0.06482,0.001858,4.081,0.01181,0,0,0.01868
129300000000,129600000000,4665896876,251,372630265,0.01385,0.06567,0.07739,0.0006552,0.001303,0.06592,6.008e-05,0.00037,0.07532,0.002857,4.86,0.01495,0,0,0.003952
129600000000,129900000000,4665896876,251,372630265,0.01167,0.0658,0.07739,0.0008144,0.001463,0.06592,4.101e-05,0.00037,0.08728,0.00243,3.613,0.01029,0,0,0.008514
129900000000,130200000000,4665896876,251,372630265,0.01033,0.06567,0.07751,0.0009003,0.001549,0.0658,3.719e-05,0.000371,0.06122,0.001358,5.368,0.01705,0,0,0.02658
130200000000,130500000000,4665896876,251,372630265,0.01147,0.06567,0.07751,0.0009737,0.001621,0.0658,4.005e-05,0.000371,0.06335,0.001429,5.596,0.01762,0,0,0.02139
130500000000,130800000000,4665896876,251,372630265,0.01125,0.06567,0.07739,0.001024,0.001673,0.0658,5.15e-05,0.0003719,0.06226,0.001999,5.581,0.01716,0,0,0.003155
130800000000,131100000000,4665896876,251,372630265,0.01402,0.0658,0.07739,0.0009975,0.001644,0.06592,6.104e-05,0.0003719,0.06726,0.002857,5.317,0.01651,0,0,0.02841
141000000000,141300000000,4665896876,251,372630265,0.01581,0.06628,0.07739,0.002384,0.003033,0.06653,5.913e-05,0.0003738,0.07141,0.003643,4.589,0.01515,0,0,0.007065
141300000000,141600000000,4665896876,251,372630265,0.0202,0.06665,0.07739,0.002625,0.003273,0.06714,8.392e-05,0.0003748,0.09595,0.00293,2.774,0.007612,0,0,0.03149
141900000000,142200000000,4665896876,251,372630265,0.01537,0.06665,0.07739,0.00333,0.003975,0.06677,6.866e-05,0.0003767,0.07483,0.004646,5.005,0.01695,0,0,0.01462
142200000000,142500000000,4665896876,251,372630265,0.02112,0.06702,0.07739,0.003616,0.004265,0.06763,6.866e-05,0.0003767,0.07703,0.003716,2.824,0.007608,0,0,0.01085
142500000000,142800000000,4665896876,251,372630265,0.0141,0.06702,0.07739,0.003914,0.004562,0.06726,5.341e-05,0.0003777,0.07092,0.002071,5.474,0.01859,0,0,0.07056
142800000000,143100000000,4665896876,251,372630265,0.01691,0.06689,0.07739,0.004265,0.004913,0.06714,4.959e-05,0.0003786,0.1145,0.003643,3.335,0.009527,0,0,0.01419
143100000000,143400000000,4665896876,251,372630265,0.01819,0.06702,0.07739,0.004433,0.005074,0.06726,5.722e-05,0.0003796,0.08618,0.00243,3.069,0.008465,0,0,0.0152
143400000000,143700000000,4665896876,251,372630265,0.01663,0.06702,0.07739,0.004646,0.005287,0.06714,6.199e-05,0.0003805,0.06421,0.002644,4.11,0.01277,0,0,0.02866
143700000000,144000000000,4665896876,251,372630265,0.01782,0.06689,0.07739,0.004868,0.005516,0.06726,7.534e-05,0.0003805,0.1223,0.00293,5.138,0.01711,0,0,0.02472
144000000000,144300000000,4665896876,251,372630265,0.01834,0.06702,0.07739,0.005196,0.005844,0.06726,8.488e-05,0.0003815,0.09753,0.00457,2.736,0.007102,0,0,0.0184
144300000000,144600000000,4665896876,251,372630265,0.01892,0.06689,0.07739,0.005562,0.00621,0.06702,6.008e-05,0.0003824,0.1022,0.002213,4.252,0.0132,0,0,0.01822
144600000000,144900000000,4665896876,251,372630265,0.01767,0.06677,0.07739,0.005859,0.006508,0.06689,6.104e-05,0.0003834,0.08301,0.002144,3.185,0.009037,0,0,0.006111
144900000000,145200000000,4665896876,251,372630265,0.03125,0.06677,0.07727,0.006058,0.006706,0.06714,9.251e-05,0.0003843,0.1108,0.003571,1.891,0.003783,0,0,0.07373
145800000000,146100000000,4665896876,251,372630265,0.02408,0.06653,0.07739,0.007011,0.00766,0.06689,5.15e-05,0.0003672,0.09021,0.003216,2.489,0.006073,0,0,0.01057
151500000000,151800000000,4665896876,251,372630265,0.01971,0.06787,0.07739,0.005692,0.00634,0.06836,5.245e-05,0.0003843,0.06604,0.003429,3.655,0.01106,0,0,0.01488
151800000000,152100000000,4665896876,251,372630265,0.02695,0.06824,0.07727,0.006012,0.00666,0.06848,0.0001049,0.0003843,0.1309,0.004288,4.119,0.01276,0,0,0.01898
152400000000,152700000000,4665896876,251,372630265,0.01743,0.06726,0.07739,0.006638,0.007286,0.0675,7.057e-05,0.0003672,0.06543,0.002998,4.034,0.01216,0,0,0.009079
152700000000,153000000000,4665896876,251,372630265,0.02304,0.06714,0.07727,0.006317,0.006966,0.06726,8.011e-05,0.0003681,0.1133,0.00293,2.752,0.007107,0,0,0.02615
153000000000,153300000000,4665896876,251,372630265,0.01654,0.06689,0.07739,0.0001802,0.0008287,0.06702,6.676e-05,0.0003691,0.0614,0.002785,5.965,0.02003,0,0,0.009842
153300000000,153600000000,4665896876,251,372630265,0.02307,0.06677,0.07739,0.0004673,0.001116,0.06714,0.0001326,0.00037,0.09961,0.003502,2.575,0.00647,0,0,0.004715
153600000000,153900000000,4665896876,251,372630265,0.01584,0.06677,0.07739,0.0007019,0.00135,0.06689,6.866e-05,0.000371,0.099,0.002644,4.261,0.01332,0,0,0.01192
153900000000,154200000000,4665896876,251,372630265,0.01617,0.06665,0.07739,0.0008535,0.001501,0.06677,4.673e-05,0.000371,0.05298,0.00243,5.569,0.01877,0,0,0.00737
154200000000,154500000000,4665896876,251,372630265,0.01804,0.06677,0.07739,0.001051,0.001699,0.06689,5.722e-05,0.0003719,0.09033,0.00243,5.278,0.01764,0,0,0.06177
154500000000,154800000000,4665896876,251,372630265,0.02078,0.06689,0.07739,0.001373,0.002022,0.06726,8.678e-05,0.0003729,0.1257,0.003216,3.928,0.01198,0,0,0.03363
154800000000,155100000000,4665896876,251,372630265,0.01489,0.06677,0.07739,0.001724,0.002373,0.06702,6.771e-05,0.0003738,0.0556,0.00293,5.254,0.0181,0,0,0.01225
155100000000,155400000000,4665896876,251,372630265,0.01617,0.06677,0.07739,0.002026,0.002674,0.06677,6.771e-05,0.0003748,0.08167,0.004646,4.274,0.01338,0,0,0.01385
155400000000,155700000000,4665896876,251,372630265,0.02634,0.06689,0.07739,0.002247,0.002895,0.06726,8.011e-05,0.0003757,0.1108,0.003357,2.427,0.005768,0,0,0.03174
161100000000,161400000000,4665896876,251,372630265,0.01559,0.06689,0.07739,0.001204,0.00185,0.06702,4.196e-05,0.000371,0.07019,0.002357,5.531,0.01795,0,0,0.02103
161400000000,161700000000,4665896876,251,372630265,0.02591,0.06702,0.07739,0.001564,0.002213,0.06726,8.774e-05,0.0003719,0.1216,0.002998,2.801,0.007425,0,0,0.01669
161700000000,162000000000,4665896876,251,372630265,0.01541,0.06714,0.07739,0.001789,0.002438,0.06726,5.722e-05,0.0003729,0.05933,0.002716,5.067,0.01683,0,0,0.01627
162000000000,162300000000,4665896876,251,372630265,0.01466,0.06689,0.07739,0.001951,0.002598,0.06689,5.245e-05,0.0003738,0.07092,0.003284,5.134,0.0171,0,0,0.007172
162300000000,162600000000,4665896876,251,372630265,0.01703,0.06689,0.07739,0.002266,0.002914,0.0675,6.485e-05,0.0003748,0.1104,0.002285,3.977,0.01232,0,0,0.02341
162600000000,162900000000,4665896876,251,372630265,0.02014,0.06873,0.07739,0.002579,0.003223,0.06897,5.627e-05,0.0003757,0.07874,0.003502,3.116,0.00881,0,0,0.01923
162900000000,163200000000,4665896876,251,372630265,0.01566,0.06799,0.07739,0.002834,0.003483,0.06848,6.199e-05,0.0003767,0.0813,0.00293,5.605,0.01745,0,0,0.01996
163200000000,163500000000,4665896876,251,372630265,0.01917,0.0675,0.07739,0.003101,0.00375,0.06787,6.008e-05,0.0003767,0.1151,0.002071,3.531,0.009654,0,0,0.01727
163500000000,163800000000,4665896876,251,372630265,0.02509,0.06726,0.07739,0.003414,0.004059,0.0675,6.866e-05,0.0003777,0.07617,0.002998,4.347,0.01308,0,0,0.01247
164100000000,164400000000,4665896876,251,372630265,0.01685,0.06665,0.07739,0.004097,0.004745,0.06689,5.913e-05,0.0003796,0.1217,0.003716,5.945,0.02058,0,0,0.01181
164400000000,164700000000,4665896876,251,372630265,0.01694,0.06677,0.07739,0.004356,0.005005,0.06689,6.771e-05,0.0003805,0.07715,0.002285,5.976,0.02062,0,0,0.05206
164700000000,165000000000,4665896876,251,372630265,0.01868,0.06689,0.07727,0.004646,0.005295,0.06714,5.722e-05,0.0003815,0.07434,0.002285,2.645,0.006747,0,0,0.01419
165600000000,165900000000,4665896876,251,372630265,0.01666,0.06689,0.07739,0.005592,0.006241,0.06702,6.58e-05,0.0003834,0.0813,0.003357,5.908,0.02012,0,0,0.03278
165900000000,166200000000,4665896876,251,372630265,0.01785,0.06677,0.07739,0.005959,0.006607,0.06714,7.629e-05,0.0003843,0.08167,0.005646,3.785,0.01146,0,0,0.004349
166200000000,166500000000,4665896876,251,372630265,0.01895,0.06702,0.07739,0.00621,0.006859,0.06763,6.294e-05,0.0003853,0.09546,0.002785,5.425,0.01772,0,0,0.0121
166500000000,166800000000,4665896876,251,372630265,0.03156,0.0675,0.07739,0.006767,0.007416,0.06775,0.0001659,0.0003719,0.1167,0.005783,3.577,0.01024,0,0,0.02353
167400000000,167700000000,4665896876,251,372630265,0.02243,0.06738,0.07739,0.001041,0.00169,0.0675,8.297e-05,0.0003719,0.07385,0.00457,4.526,0.0141,0,0,0.02258
168000000000,168300000000,4665896876,251,372630265,0.01543,0.06677,0.07739,0.001789,0.002438,0.06738,8.583e-05,0.0003738,0.06183,0.003143,3.827,0.01178,0,0,0.01259
169200000000,169500000000,4665896876,251,372630265,0.01575,0.06689,0.07739,0.002396,0.003044,0.06702,4.482e-05,0.0003777,0.07495,0.002285,5.426,0.01787,0,0,0.01611
169500000000,169800000000,4665896876,251,372630265,0.02151,0.06714,0.07739,0.002693,0.003342,0.06726,8.392e-05,0.0003786,0.1265,0.004211,2.863,0.007649,0,0,0.01181
169800000000,170100000000,4665896876,251,372630265,0.01331,0.06689,0.07739,0.002892,0.003536,0.06702,5.722e-05,0.0003786,0.073,0.002071,5.798,0.01923,0,0,0.006058
170100000000,170400000000,4665896876,251,372630265,0.01399,0.06677,0.07739,0.002872,0.003521,0.06689,4.864e-05,0.0003796,0.07068,0.002357,5.71,0.01891,0,0,0.01477
170400000000,170700000000,4665896876,251,372630265,0.01685,0.06702,0.07739,0.002987,0.003635,0.06714,5.341e-05,0.0003805,0.08984,0.002357,5.465,0.01809,0,0,0.03674
170700000000,171000000000,4665896876,251,372630265,0.01183,0.06677,0.07739,0.003159,0.003807,0.06689,4.578e-05,0.0003805,0.06653,0.001715,5.698,0.01934,0,0,0.01483
171000000000,171300000000,4665896876,251,372630265,0.01231,0.06677,0.07739,0.003403,0.004051,0.06689,4.292e-05,0.0003815,0.06836,0.001785,5.709,0.01889,0,0,0.008835
171300000000,171600000000,4665896876,251,372630265,0.01633,0.06689,0.07739,0.003658,0.004311,0.06726,6.58e-05,0.0003824,0.1133,0.00293,4.456,0.01407,0,0,0.01321
171600000000,171900000000,4665896876,251,372630265,0.01172,0.06677,0.07739,0.003929,0.004578,0.06689,4.101e-05,0.0003824,0.375,0.00243,6.053,0.02058,0,0,0.01578
171900000000,172200000000,4665896876,251,372630265,0.0125,0.06677,0.07739,0.004005,0.004654,0.06689,4.196e-05,0.0003834,0.05573,0.002357,5.769,0.01993,0,0,0.008835
172200000000,172500000000,4665896876,251,372630265,0.03036,0.06702,0.07739,0.004303,0.004951,0.06775,9.155e-05,0.0003843,0.1531,0.006714,1.7,0.003294,0,0,0.05475
172500000000,172800000000,4665896876,251,372630265,0.01367,0.06702,0.07739,0.004601,0.005249,0.06738,7.343e-05,0.0003853,0.0647,0.00293,3.491,0.01059,0,0,0.02121
172800000000,173100000000,4665896876,251,372630265,0.01227,0.06653,0.07739,0.004875,0.005524,0.06677,5.436e-05,0.0003824,0.06787,0.004425,5.685,0.01918,0,0,0.01187
173100000000,173400000000,4665896876,251,372630265,0.01323,0.06604,0.07739,0.005135,0.005783,0.06616,4.482e-05,0.0003672,0.08459,0.002285,5.516,0.01907,0,0,0.01117
173400000000,173700000000,4665896876,251,372630265,0.01436,0.0658,0.07739,0.005318,0.005966,0.06592,5.817e-05,0.0003681,0.07031,0.002571,3.596,0.01077,0,0,0.005028
173700000000,174000000000,4665896876,251,372630265,0.01256,0.06555,0.07739,0.00544,0.006088,0.0658,6.866e-05,0.0003681,0.07312,0.003502,5.598,0.01897,0,0,0.007721
174000000000,174300000000,4665896876,251,372630265,0.01286,0.06628,0.07739,0.002323,0.002972,0.06677,5.436e-05,0.0003691,0.06482,0.00293,5.364,0.01633,0,0,0.02255
174300000000,174600000000,4665896876,251,372630265,0.01421,0.06689,0.07739,0.000391,0.00104,0.06714,5.245e-05,0.00037,0.08276,0.001999,5.415,0.01721,0,0,0.00946
174600000000,174900000000,4665896876,251,372630265,0.01218,0.06677,0.07739,0.0005989,0.001247,0.06689,4.673e-05,0.00037,0.05615,0.002357,5.649,0.01931,0,0,0.01529
174900000000,175200000000,4665896876,251,372630265,0.02039,0.06689,0.07739,0.0008783,0.001526,0.06726,5.722e-05,0.000371,0.1061,0.003143,4.133,0.01283,0,0,0.0769
175500000000,175800000000,4665896876,251,372630265,0.01311,0.06628,0.07739,0.001373,0.002022,0.06665,5.436e-05,0.0003719,0.08069,0.00243,5.55,0.01792,0,0,0.02335
186300000000,186600000000,4665896876,251,372630265,0.01472,0.06567,0.07739,0.004059,0.004707,0.06592,7.534e-05,0.0003796,0.08582,0.003784,4.411,0.01339,0,0,0.01892
187200000000,187500000000,4665896876,251,372630265,0.01727,0.06665,0.07739,0.005165,0.005814,0.06714,6.39e-05,0.0003815,0.1138,0.00293,2.318,0.005756,0,0,0.02396
187500000000,187800000000,4665896876,251,372630265,0.03104,0.06628,0.07739,0.005539,0.006187,0.06641,0.000104,0.0003824,0.1699,0.003857,1.597,0.002482,0,0,0.01624
187800000000,188100000000,4665896876,251,372630265,0.01541,0.06567,0.07739,0.005875,0.006523,0.06604,5.341e-05,0.0003834,0.08545,0.002071,5.793,0.01876,0,0,0.00634
188100000000,188400000000,4665896876,251,372630265,0.01923,0.06531,0.07739,0.006218,0.006866,0.06543,6.676e-05,0.0003843,0.1279,0.003357,3.115,0.008377,0,0,0.01126
188400000000,188700000000,4665896876,251,372630265,0.01562,0.0658,0.07739,0.006523,0.007172,0.06702,5.245e-05,0.0003853,0.123,0.002644,5.289,0.01683,0,0,0.01831
188700000000,189000000000,4665896876,251,372630265,0.03827,0.06726,0.07739,0.006943,0.007591,0.06763,7.915e-05,0.0003719,0.1843,0.00293,1.986,0.003792,0,0,0.005241
189000000000,189300000000,4665896876,251,372630265,0.02631,0.06738,0.07739,0.007339,0.007996,0.06763,9.06e-05,0.0003672,0.1296,0.003571,2.355,0.006075,0,0,0.01877
189300000000,189600000000,4665896876,251,372630265,0.03583,0.06702,0.07739,0.00766,0.008301,0.0675,6.962e-05,0.0003691,0.1487,0.004997,1.652,0.002703,0,0,0.008057
189600000000,189900000000,4665896876,251,372630265,0.01215,0.06616,0.07739,0.00293,0.003578,0.06653,5.245e-05,0.0003691,0.07141,0.003071,5.47,0.01813,0,0,0.007195
189900000000,190200000000,4665896876,251,372630265,0.01578,0.06555,0.07739,0.0004206,0.001068,0.06592,7.343e-05,0.00037,0.09448,0.002716,3.342,0.009905,0,0,0.008835
190200000000,190500000000,4665896876,251,372630265,0.02756,0.06641,0.07739,0.0006266,0.001274,0.06726,6.771e-05,0.000371,0.1055,0.003857,1.788,0.003188,0,0,0.07666
190500000000,190800000000,4665896876,251,372630265,0.01437,0.06641,0.07739,0.0007849,0.001432,0.06665,4.578e-05,0.000371,0.09534,0.002285,5.345,0.01775,0,0,0.005524
190800000000,191100000000,4665896876,251,372630265,0.01843,0.06604,0.07739,0.001038,0.001684,0.06616,5.341e-05,0.0003719,0.1113,0.001928,2.322,0.005917,0,0,0.005287
191700000000,192000000000,4665896876,251,372630265,0.02667,0.06738,0.07739,0.001957,0.002605,0.06763,6.676e-05,0.0003738,0.2117,0.003071,1.969,0.00418,0,0,0.004745
192300000000,192600000000,4665896876,251,372630265,0.01825,0.06848,0.07739,0.002518,0.003166,0.06873,5.245e-05,0.0003757,0.09644,0.002144,2.239,0.005861,0,0,0.02094
192600000000,192900000000,4665896876,251,372630265,0.01678,0.06799,0.07739,0.002838,0.003487,0.06824,6.771e-05,0.0003767,0.123,0.00293,3.09,0.008904,0,0,0.0274
192900000000,193200000000,4665896876,251,372630265,0.01334,0.0675,0.07739,0.003071,0.003719,0.06775,4.768e-05,0.0003777,0.0658,0.002716,4.948,0.01642,0,0,0.00853
193500000000,193800000000,4665896876,251,372630265,0.02103,0.06726,0.07739,0.00346,0.004112,0.06775,7.153e-05,0.0003786,0.1838,0.00293,1.54,0.002814,0,0,0.007828
193800000000,194100000000,4665896876,251,372630265,0.01144,0.06665,0.07739,0.003624,0.004272,0.06689,5.15e-05,0.0003796,0.06458,0.002571,4.236,0.01323,0,0,0.02719
194100000000,194400000000,4665896876,251,372630265,0.02094,0.06714,0.07739,0.00383,0.004478,0.0675,7.439e-05,0.0003796,0.1353,0.005142,2.378,0.005497,0,0,0.01561
194400000000,194700000000,4665896876,251,372630265,0.01283,0.06726,0.07739,0.004021,0.004669,0.0675,4.292e-05,0.0003805,0.1099,0.002213,4.416,0.01317,0,0,0.002777
194700000000,195000000000,4665896876,251,372630265,0.01483,0.06738,0.07739,0.004227,0.004875,0.0675,5.15e-05,0.0003805,0.1262,0.002785,5.113,0.01599,0,0,0.02527
195000000000,195300000000,4665896876,251,372630265,0.02374,0.0675,0.07739,0.004501,0.00515,0.06836,5.341e-05,0.0003815,0.1531,0.00293,3.16,0.008833,0,0,0.002777
195900000000,196200000000,4665896876,251,372630265,0.01434,0.06702,0.07739,0.005066,0.005714,0.06726,2.861e-05,0.0003834,0.1257,0.001215,4.156,0.01324,0,0,0.006721
201300000000,201600000000,4665896876,251,372630265,0.01886,0.06714,0.07739,0.0028,0.003448,0.06738,6.962e-05,0.0003757,0.09534,0.002785,4.375,0.01405,0,0,0.02893
201600000000,201900000000,4665896876,251,372630265,0.01923,0.06738,0.07739,0.003273,0.003922,0.0675,6.771e-05,0.0003767,0.08765,0.003571,4.889,0.0162,0,0,0.01512
201900000000,202200000000,4665896876,251,372630265,0.03043,0.0675,0.07739,0.003696,0.004349,0.06763,8.011e-05,0.0003777,0.1411,0.003071,2.428,0.005918,0,0,0.0473
202200000000,202500000000,4665896876,251,372630265,0.01926,0.06726,0.07739,0.003952,0.004601,0.0675,6.58e-05,0.0003786,0.0957,0.003643,3.289,0.009528,0,0,0.01207
202500000000,202800000000,4665896876,251,372630265,0.02325,0.06726,0.07739,0.003967,0.004616,0.06738,6.39e-05,0.0003796,0.08264,0.002785,4.036,0.01232,0,0,0.02026
202800000000,203100000000,4665896876,251,372630265,0.02927,0.0675,0.07739,0.004112,0.004761,0.06763,9.537e-05,0.0003805,0.1172,0.002998,2.92,0.007803,0,0,0.01173
203100000000,203400000000,4665896876,251,372630265,0.0246,0.0675,0.07739,0.004532,0.00518,0.06775,0.000103,0.0003815,0.1377,0.003216,2.945,0.008023,0,0,0.03357
204000000000,204300000000,4665896876,251,372630265,0.02802,0.06763,0.07739,0.005463,0.006111,0.06812,6.866e-05,0.0003843,0.2168,0.00293,1.903,0.003721,0,0,0.01712
204300000000,204600000000,4665896876,251,372630265,0.02289,0.0675,0.07739,0.005775,0.006424,0.06775,4.959e-05,0.0003853,0.1084,0.002716,3.03,0.008513,0,0,0.02463
204600000000,204900000000,4665896876,251,372630265,0.01865,0.06738,0.07739,0.005905,0.006554,0.06763,5.627e-05,0.0003853,0.1602,0.003643,1.994,0.004782,0,0,0.02155
205200000000,205500000000,4665896876,251,372630265,0.01237,0.06885,0.07739,0.006142,0.00679,0.06909,5.054e-05,0.0003672,0.07581,0.001999,4.275,0.0135,0,0,0.01685
205500000000,205800000000,4665896876,251,372630265,0.03174,0.06824,0.07727,0.00621,0.006859,0.0686,8.678e-05,0.0003681,0.1171,0.002716,2.142,0.005162,0,0,0.04742
205800000000,206100000000,4665896876,251,372630265,0.01944,0.06897,0.07739,0.006447,0.007095,0.07019,5.531e-05,0.0003691,0.1198,0.00243,3.281,0.009039,0,0,0.01358
206100000000,206400000000,4665896876,251,372630265,0.02631,0.06946,0.07739,0.006744,0.007393,0.06995,5.722e-05,0.00037,0.1382,0.002716,1.864,0.00437,0,0,0.01401
206400000000,206700000000,4665896876,251,372630265,0.01743,0.06836,0.07739,0.005516,0.006157,0.06873,7.534e-05,0.00037,0.1426,0.00293,2.778,0.007625,0,0,0.01253
207000000000,207300000000,4665896876,251,372630265,0.01865,0.06787,0.07739,0.001003,0.00165,0.06812,4.578e-05,0.0003719,0.09375,0.001999,4.583,0.01478,0,0,0.02191
207300000000,207600000000,4665896876,251,372630265,0.01956,0.06775,0.07739,0.001265,0.001913,0.06787,5.722e-05,0.0003719,0.1166,0.002716,2.766,0.007614,0,0,0.01947
207600000000,207900000000,4665896876,251,372630265,0.02368,0.0675,0.07739,0.00152,0.002167,0.06763,5.817e-05,0.0003729,0.1345,0.002144,2.838,0.007418,0,0,0.008255
207900000000,208200000000,4665896876,251,372630265,0.02014,0.0675,0.07739,0.001804,0.002453,0.06775,4.768e-05,0.0003738,0.1396,0.002644,2.855,0.007388,0,0,0.02649
208500000000,208800000000,4665896876,251,372630265,0.03754,0.06775,0.07739,0.002331,0.002979,0.06812,7.725e-05,0.0003748,0.2476,0.00293,2.126,0.005078,0,0,0.00666
208800000000,209100000000,4665896876,251,372630265,0.02188,0.06738,0.07739,0.002632,0.003281,0.06787,7.057e-05,0.0003757,0.1077,0.002571,3.68,0.01157,0,0,0.04279
209100000000,209400000000,4665896876,251,372630265,0.01767,0.06738,0.07739,0.002941,0.00359,0.06763,4.768e-05,0.0003767,0.1223,0.003216,3.971,0.01244,0,0,0.0117
209400000000,209700000000,4665896876,251,372630265,0.02191,0.06738,0.07739,0.00322,0.003868,0.06763,6.58e-05,0.0003777,0.1562,0.003284,2.785,0.007842,0,0,0.01584
209700000000,210000000000,4665896876,251,372630265,0.01608,0.06726,0.07739,0.003532,0.004181,0.06738,5.341e-05,0.0003786,0.1311,0.003216,3.342,0.009546,0,0,0.02478
210300000000,210600000000,4665896876,251,372630265,0.02795,0.06763,0.07739,0.004059,0.004707,0.06787,5.341e-05,0.0003796,0.113,0.002785,2.666,0.00684,0,0,0.06921
210600000000,210900000000,4665896876,251,372630265,0.01779,0.0675,0.07739,0.004372,0.00502,0.06763,4.673e-05,0.0003805,0.1523,0.002357,3.816,0.01125,0,0,0.02032
210900000000,211200000000,4665896876,251,372630265,0.01752,0.0675,0.07739,0.004631,0.00528,0.06763,4.387e-05,0.0003815,0.1172,0.002144,4.253,0.01337,0,0,0.02164
211500000000,211800000000,4665896876,251,372630265,0.02875,0.06958,0.07739,0.005272,0.00592,0.07019,8.297e-05,0.0003824,0.1389,0.003071,1.759,0.003364,0,0,0.0228
211800000000,212100000000,4665896876,251,372630265,0.0174,0.0686,0.07739,0.005592,0.006233,0.06909,7.343e-05,0.0003834,0.08203,0.003357,3.226,0.009176,0,0,0.02185
212100000000,212400000000,4665896876,251,372630265,0.01355,0.0675,0.07739,0.005829,0.006477,0.06799,5.245e-05,0.0003843,0.08118,0.001928,2.885,0.008349,0,0,0.0123
212400000000,212700000000,4665896876,251,372630265,0.01251,0.06604,0.07739,0.00602,0.006668,0.06689,8.583e-05,0.0003843,0.07703,0.003571,4.542,0.0153,0,0,0.009842
212700000000,213000000000,4665896876,251,372630265,0.01462,0.06372,0.07739,0.006294,0.006943,0.0647,9.441e-05,0.0003853,0.08972,0.005142,3.701,0.01159,0,0,0.009384
213300000000,213600000000,4665896876,251,372630265,0.01709,0.06201,0.07739,0.006828,0.007477,0.0625,6.199e-05,0.0003672,0.127,0.002499,1.972,0.00512,0,0,0.01755
213900000000,214200000000,4665896876,251,372630265,0.02618,0.06055,0.07739,0.007607,0.008255,0.06348,0.0001545,0.0003691,0.1504,0.01859,1.51,0.00321,0,0,0.007393
214200000000,214500000000,4665896876,251,372630265,0.02588,0.05902,0.07581,0.00185,0.002499,0.05981,0.0002146,0.00037,0.1626,0.01956,1.331,0.002374,0,0,0.06995
214500000000,214800000000,4665896876,251,372630265,0.01883,0.05768,0.07471,0.0004368,0.001085,0.05847,7.153e-05,0.00037,0.165,0.003784,1.739,0.003857,0,0,0.01503
214800000000,215100000000,4665896876,251,372630265,0.02261,0.05652,0.07361,0.0005951,0.001244,0.05695,8.869e-05,0.000371,0.2002,0.003429,3.479,0.01072,0,0,0.01288
215100000000,215400000000,4665896876,251,372630265,0.07507,0.05743,0.07385,0.001678,0.002327,0.05927,0.0004988,0.0003729,0.2205,0.01736,1.146,0.001483,0,0,0.04382
215400000000,215700000000,4665896876,251,372630265,0.02551,0.05615,0.07336,0.001675,0.002323,0.05737,7.343e-05,0.0003738,0.11,0.003571,1.454,0.002855,0,0,0.05298
215700000000,216000000000,4665896876,251,372630265,0.01123,0.05548,0.07166,0.001417,0.002064,0.05573,6.866e-05,0.0003738,0.07532,0.00293,5.042,0.01717,0,0,0.01019
216000000000,216300000000,4665896876,251,372630265,0.05304,0.05591,0.07214,0.002396,0.003044,0.05634,0.0002565,0.0003767,0.2646,0.009781,3.39,0.01002,0,0,0.0918
221100000000,221400000000,4665896876,251,372630265,0.03061,0.06628,0.07739,0.006065,0.006714,0.06653,0.0001316,0.0003843,0.1016,0.008286,5.619,0.01887,0,0,0.03571
221400000000,221700000000,4665896876,251,372630265,0.03503,0.06641,0.07739,0.007042,0.00769,0.06665,0.000145,0.0003672,0.1348,0.00885,2.921,0.00821,0,0,0.02249
221700000000,222000000000,4665896876,251,372630265,0.03491,0.06628,0.07739,0.007858,0.008514,0.06653,0.0001621,0.00037,0.1016,0.009079,5.111,0.01708,0,0,0.02454
222300000000,222600000000,4665896876,251,372630265,0.02917,0.06628,0.07739,0.002548,0.003197,0.06641,0.0001297,0.0003757,0.08264,0.006714,4.358,0.01417,0,0,0.02692
222600000000,222900000000,4665896876,251,372630265,0.02878,0.06641,0.07739,0.003651,0.004295,0.06653,0.0001345,0.0003777,0.09167,0.009354,5.093,0.0175,0,0,0.02344
223200000000,223500000000,4665896876,251,372630265,0.03772,0.06763,0.07739,0.00647,0.007118,0.06897,0.0001945,0.0003853,0.1265,0.01514,2.053,0.004811,0,0,0.005974
223500000000,223800000000,4665896876,251,372630265,0.02225,0.06641,0.07739,0.00676,0.007408,0.06689,8.869e-05,0.0003729,0.166,0.002857,2.655,0.007537,0,0,0.005272
223800000000,224100000000,4665896876,251,372630265,0.05139,0.06628,0.07727,0.007126,0.007774,0.0675,0.0001783,0.0003672,0.1414,0.01492,1.25,0.001681,0,0,0.06714
224100000000,224400000000,4665896876,251,372630265,0.01733,0.06567,0.07739,0.007301,0.00795,0.06592,6.008e-05,0.0003681,0.1174,0.002571,1.787,0.00379,0,0,0.04468
224400000000,224700000000,4665896876,251,372630265,0.01566,0.06543,0.07739,0.007545,0.008194,0.06555,8.106e-05,0.0003691,0.07373,0.003502,2.362,0.005994,0,0,0.003292
224700000000,225000000000,4665896876,251,372630265,0.0285,0.06555,0.07739,0.007965,0.008606,0.06592,8.488e-05,0.00037,0.1094,0.003216,2.317,0.005981,0,0,0.04236
225000000000,225300000000,4665896876,251,372630265,0.01965,0.0658,0.07739,0.008408,0.009048,0.0658,6.676e-05,0.000371,0.1055,0.002998,3.4,0.0104,0,0,0.007515
225300000000,225600000000,4665896876,251,372630265,0.01926,0.06567,0.07739,0.008698,0.009338,0.0658,5.817e-05,0.0003719,0.06287,0.002998,5.135,0.01751,0,0,0.01019
225600000000,225900000000,4665896876,251,372630265,0.0195,0.06567,0.07739,0.008835,0.009491,0.0658,7.153e-05,0.0003729,0.06445,0.002998,5.015,0.01698,0,0,0.01743
226200000000,226500000000,4665896876,251,372630265,0.01926,0.0658,0.07739,0.009369,0.01003,0.06592,7.534e-05,0.0003757,0.07495,0.00293,5.064,0.01747,0,0,0.008957
226500000000,226800000000,4665896876,251,372630265,0.01834,0.0658,0.07739,0.009766,0.01042,0.06592,5.722e-05,0.0003767,0.06848,0.00293,5.161,0.01774,0,0,0.02332
227100000000,227400000000,4665896876,251,372630265,0.04041,0.06628,0.07727,0.009918,0.01056,0.06787,0.0002575,0.0003796,0.1719,0.0155,1.184,0.001806,0,0,0.1136
227400000000,227700000000,4665896876,251,372630265,0.01462,0.06567,0.07739,0.009933,0.01057,0.0658,6.199e-05,0.0003796,0.07019,0.002857,5.227,0.01789,0,0,0.01312
227700000000,228000000000,4665896876,251,372630265,0.01581,0.06567,0.07739,0.01018,0.01083,0.0658,0.0001144,0.0003805,0.08447,0.003071,5.327,0.01809,0,0,0.0145
228000000000,228300000000,4665896876,251,372630265,0.01736,0.06567,0.07739,0.01042,0.01108,0.06567,5.341e-05,0.0003815,0.07739,0.002499,5.595,0.01881,0,0,0.02155
228300000000,228600000000,4665896876,251,372630265,0.01627,0.06555,0.07739,0.01082,0.01146,0.06567,6.866e-05,0.0003824,0.07178,0.00293,5.387,0.01845,0,0,0.07178
228600000000,228900000000,4665896876,251,372630265,0.02197,0.06567,0.07739,0.01114,0.0118,0.0658,6.199e-05,0.0003834,0.1207,0.00243,2.703,0.007704,0,0,0.0611
229500000000,229800000000,4665896876,251,372630265,0.02274,0.06592,0.07739,0.01122,0.01187,0.06665,6.294e-05,0.0003681,0.1289,0.004646,2.658,0.007296,0,0,0.01396
229800000000,230100000000,4665896876,251,372630265,0.01562,0.06641,0.07739,0.01093,0.01157,0.06665,6.962e-05,0.0003681,0.06702,0.002857,4.087,0.01314,0,0,0.00975
230100000000,230400000000,4665896876,251,372630265,0.01755,0.06641,0.07727,0.01096,0.0116,0.06653,7.82e-05,0.0003691,0.07654,0.00457,3.768,0.01168,0,0,0.01694
230400000000,230700000000,4665896876,251,372630265,0.01788,0.06628,0.07739,0.01114,0.01178,0.06641,5.054e-05,0.00037,0.1093,0.00293,5.102,0.01728,0,0,0.01041
231000000000,231300000000,4665896876,251,372630265,0.02011,0.06958,0.07739,0.00425,0.004898,0.06982,5.722e-05,0.0003719,0.08472,0.00293,3.888,0.0119,0,0,0.04346
231300000000,231600000000,4665896876,251,372630265,0.0235,0.0686,0.07727,0.004593,0.005241,0.06921,6.199e-05,0.0003729,0.1157,0.002499,3.546,0.01059,0,0,0.03925
231600000000,231900000000,4665896876,251,372630265,0.01761,0.06775,0.07739,0.004951,0.0056,0.06824,6.485e-05,0.0003738,0.07495,0.002998,5.755,0.0195,0,0,0.004112
231900000000,232200000000,4665896876,251,372630265,0.02286,0.06738,0.07727,0.005348,0.005997,0.06763,7.439e-05,0.0003748,0.1125,0.003357,3.024,0.008272,0,0,0.0387
232200000000,232500000000,4665896876,251,372630265,0.0206,0.06702,0.07739,0.005714,0.006363,0.06714,5.15e-05,0.0003757,0.1294,0.002644,5.893,0.01988,0,0,0.0148
232500000000,232800000000,4665896876,251,372630265,0.02658,0.06726,0.07727,0.006439,0.007088,0.0708,0.001072,0.0003767,0.1438,0.02515,3.097,0.009054,0,0,0.01968
232800000000,233100000000,4665896876,251,372630265,0.01773,0.06677,0.07739,0.003613,0.004265,0.06738,5.722e-05,0.0003786,0.06848,0.002285,4.269,0.01388,0,0,0.02606
233100000000,233400000000,4665896876,251,372630265,0.01572,0.06653,0.07739,0.003998,0.004646,0.06665,5.817e-05,0.0003796,0.07214,0.002857,5.724,0.01993,0,0,0.01456
233400000000,233700000000,4665896876,251,372630265,0.02383,0.06665,0.07739,0.004356,0.005005,0.06677,6.676e-05,0.0003805,0.09509,0.003143,2.904,0.008069,0,0,0.006966
233700000000,234000000000,4665896876,251,372630265,0.0177,0.06653,0.07739,0.004753,0.005402,0.06665,5.436e-05,0.0003815,0.07312,0.002998,5.728,0.02025,0,0,0.01242
234000000000,234300000000,4665896876,251,372630265,0.01715,0.06665,0.07739,0.005157,0.005806,0.06665,5.436e-05,0.0003824,0.07117,0.002499,5.432,0.01887,0,0,0.02505
234300000000,234600000000,4665896876,251,372630265,0.01712,0.06653,0.07739,0.005493,0.006142,0.06665,8.774e-05,0.0003834,0.07324,0.003216,5.604,0.01909,0,0,0.01801
234600000000,234900000000,4665896876,251,372630265,0.0166,0.06641,0.07739,0.005898,0.006538,0.06653,5.245e-05,0.0003843,0.09119,0.00293,5.279,0.01796,0,0,0.009216
234900000000,235200000000,4665896876,251,372630265,0.02106,0.06653,0.07739,0.006233,0.006882,0.06702,7.82e-05,0.0003853,0.121,0.003643,4.046,0.0125,0,0,0.0365
235200000000,235500000000,4665896876,251,372630265,0.01901,0.06689,0.07727,0.006516,0.007164,0.06702,6.294e-05,0.0003757,0.07715,0.003571,4.875,0.01592,0,0,0.01749
235500000000,235800000000,4665896876,251,372630265,0.01691,0.06665,0.07739,0.006615,0.007263,0.06677,6.676e-05,0.0003672,0.06897,0.002998,5.766,0.01903,0,0,0.02084
235800000000,236100000000,4665896876,251,372630265,0.02747,0.06665,0.07727,0.006927,0.007576,0.06689,0.0001202,0.0003681,0.145,0.003357,2.438,0.005815,0,0,0.08313
236100000000,236400000000,4665896876,251,372630265,0.0253,0.06677,0.07727,0.007141,0.00779,0.06689,0.0001364,0.0003691,0.1528,0.002785,2.445,0.006386,0,0,0.02341
241500000000,241800000000,4665896876,251,372630265,0.01636,0.06628,0.07739,0.005013,0.005661,0.06641,5.913e-05,0.0003834,0.3418,0.00293,5.639,0.01948,0,0,0.01111
241800000000,242100000000,4665896876,251,372630265,0.01794,0.06616,0.07739,0.005402,0.00605,0.06641,5.531e-05,0.0003672,0.08276,0.00293,5.708,0.01966,0,0,0.0177
242100000000,242400000000,4665896876,251,372630265,0.0213,0.06616,0.07739,0.005699,0.006348,0.06641,8.965e-05,0.0003681,0.1122,0.003502,3.809,0.01154,0,0,0.01109
242700000000,243000000000,4665896876,251,372630265,0.01743,0.06616,0.07739,0.006393,0.007042,0.06628,5.627e-05,0.00037,0.06799,0.002499,5.566,0.01859,0,0,0.005615
243000000000,243300000000,4665896876,251,372630265,0.0195,0.06616,0.07739,0.006805,0.007454,0.06641,6.008e-05,0.000371,0.1089,0.00293,3.663,0.01093,0,0,0.01367
243300000000,243600000000,4665896876,251,372630265,0.01913,0.06604,0.07739,0.0007429,0.00139,0.06616,6.676e-05,0.0003719,0.0918,0.002998,4.717,0.0148,0,0,0.02301
243600000000,243900000000,4665896876,251,372630265,0.0217,0.06616,0.07739,0.0009108,0.001558,0.06628,5.341e-05,0.0003729,0.1162,0.002998,5.934,0.01989,0,0,0.01984
243900000000,244200000000,4665896876,251,372630265,0.02124,0.06616,0.07739,0.00115,0.001799,0.06628,5.627e-05,0.0003738,0.08398,0.002357,6.018,0.02047,0,0,0.01614
244200000000,244500000000,4665896876,251,372630265,0.02097,0.06616,0.07739,0.001379,0.002029,0.06641,6.676e-05,0.0003748,0.07703,0.003071,4.733,0.01546,0,0,0.01047
244500000000,244800000000,4665896876,251,372630265,0.01761,0.06628,0.07739,0.001678,0.002327,0.06641,6.58e-05,0.0003757,0.07495,0.00293,5.662,0.01919,0,0,0.01642
244800000000,245100000000,4665896876,251,372630265,0.0289,0.06641,0.07739,0.002018,0.002666,0.06702,7.629e-05,0.0003767,0.1433,0.003071,1.753,0.00361,0,0,0.01935
245100000000,245400000000,4665896876,251,372630265,0.01724,0.06641,0.07739,0.002415,0.003063,0.06665,6.008e-05,0.0003777,0.07922,0.002998,2.472,0.006366,0,0,0.01306
245400000000,245700000000,4665896876,251,372630265,0.01865,0.06628,0.07739,0.002762,0.00341,0.06641,4.387e-05,0.0003786,0.08228,0.002071,5.208,0.01751,0,0,0.07959
245700000000,246000000000,4665896876,251,372630265,0.022,0.06641,0.07739,0.003155,0.003803,0.06653,6.294e-05,0.0003796,0.1107,0.003716,2.55,0.006371,0,0,0.0256
246000000000,246300000000,4665896876,251,372630265,0.01935,0.06628,0.07739,0.003487,0.004135,0.06641,5.436e-05,0.0003805,0.08875,0.002357,5.382,0.0179,0,0,0.008163
251400000000,251700000000,4665896876,251,372630265,0.02502,0.06714,0.07739,0.003651,0.004303,0.06726,7.057e-05,0.0003796,0.1042,0.004997,3.134,0.008948,0,0,0.03036
252000000000,252300000000,4665896876,251,372630265,0.02417,0.06653,0.07727,0.004677,0.005325,0.06677,8.297e-05,0.0003815,0.1348,0.003929,3.02,0.008419,0,0,0.01558
252300000000,252600000000,4665896876,251,372630265,0.01462,0.06628,0.07739,0.005013,0.005661,0.06641,6.294e-05,0.0003824,0.08411,0.003216,5.038,0.01703,0,0,0.01605
252600000000,252900000000,4665896876,251,372630265,0.0242,0.06726,0.07739,0.005196,0.005836,0.06812,9.727e-05,0.0003834,0.1355,0.004501,2.529,0.006965,0,0,0.06287
252900000000,253200000000,4665896876,251,372630265,0.01393,0.06689,0.07739,0.005554,0.006203,0.06726,5.627e-05,0.0003843,0.06934,0.002499,5.322,0.01887,0,0,0.01608
253500000000,253800000000,4665896876,251,372630265,0.03085,0.06604,0.07727,0.006187,0.006836,0.06628,5.436e-05,0.0003853,0.145,0.003143,2.188,0.005068,0,0,0.03235
254100000000,254400000000,4665896876,251,372630265,0.01469,0.06543,0.07739,0.006729,0.007378,0.06555,5.436e-05,0.0003681,0.08032,0.002998,5.318,0.01817,0,0,0.01338
254400000000,254700000000,4665896876,251,372630265,0.02658,0.06567,0.07739,0.006958,0.007607,0.06677,7.343e-05,0.0003681,0.0957,0.003071,3.199,0.009044,0,0,0.008316
254700000000,255000000000,4665896876,251,372630265,0.01819,0.06641,0.07739,0.007309,0.007965,0.06677,6.104e-05,0.0003691,0.09021,0.002998,1.862,0.003911,0,0,0.008057
255000000000,255300000000,4665896876,251,372630265,0.01419,0.06604,0.07739,0.007614,0.00827,0.06616,6.771e-05,0.00037,0.08557,0.002285,4.494,0.0148,0,0,0.01956
255900000000,256200000000,4665896876,251,372630265,0.01703,0.06628,0.07739,0.0006905,0.001339,0.06665,6.104e-05,0.0003729,0.1299,0.002571,3.453,0.01027,0,0,0.01068
256200000000,256500000000,4665896876,251,372630265,0.01323,0.06555,0.07739,0.0009623,0.00161,0.06592,5.436e-05,0.0003729,0.04517,0.003284,5.779,0.01997,0,0,0.01694
256500000000,256800000000,4665896876,251,372630265,0.01472,0.06482,0.07739,0.001232,0.001881,0.06519,3.91e-05,0.0003738,0.0863,0.001999,5.386,0.01852,0,0,0.004868
256800000000,257100000000,4665896876,251,372630265,0.01265,0.06409,0.07739,0.001516,0.002163,0.06458,5.245e-05,0.0003748,0.0708,0.001928,5.917,0.02107,0,0,0.01285
257100000000,257400000000,4665896876,251,372630265,0.01396,0.06384,0.07739,0.00178,0.002426,0.06421,4.482e-05,0.0003748,0.09119,0.002071,5.315,0.01818,0,0,0.0173
257700000000,258000000000,4665896876,251,372630265,0.01201,0.06628,0.07739,0.002361,0.00301,0.06653,4.196e-05,0.0003767,0.07507,0.002144,5.131,0.01741,0,0,0.00798
258000000000,258300000000,4665896876,251,372630265,0.01996,0.06653,0.07739,0.002548,0.003197,0.06665,9.823e-05,0.0003777,0.1409,0.004356,3.839,0.01174,0,0,0.0285
258300000000,258600000000,4665896876,251,372630265,0.02045,0.06628,0.07739,0.002701,0.003349,0.06653,6.104e-05,0.0003777,0.1426,0.002357,1.95,0.004118,0,0,0.01118
258600000000,258900000000,4665896876,251,372630265,0.01245,0.06616,0.07739,0.002987,0.003635,0.06641,5.245e-05,0.0003786,0.08704,0.002785,5.313,0.01815,0,0,0.0231
258900000000,259200000000,4665896876,251,372630265,0.01315,0.06628,0.07739,0.003193,0.003841,0.06641,4.292e-05,0.0003796,0.07178,0.002213,5.305,0.01776,0,0,0.01175
259200000000,259500000000,4665896876,251,372630265,0.01308,0.06628,0.07739,0.003361,0.004005,0.06641,5.245e-05,0.0003796,0.1394,0.00243,5.186,0.01748,0,0,0.007996
259500000000,259800000000,4665896876,251,372630265,0.01291,0.06628,0.07739,0.003628,0.004272,0.06641,4.482e-05,0.0003805,0.05688,0.002144,5.219,0.01745,0,0,0.02753
259800000000,260100000000,4665896876,251,372630265,0.01385,0.06628,0.07739,0.003876,0.004524,0.06641,5.627e-05,0.0003815,0.08569,0.003071,5.652,0.01875,0,0,0.02203
260100000000,260400000000,4665896876,251,372630265,0.01935,0.06653,0.07739,0.004181,0.004829,0.06689,5.722e-05,0.0003824,0.1353,0.002998,3.436,0.00975,0,0,0.01033
260400000000,260700000000,4665896876,251,372630265,0.01309,0.06628,0.07739,0.004463,0.005104,0.06641,6.008e-05,0.0003824,0.06775,0.002499,5.412,0.01767,0,0,0.006462
260700000000,261000000000,4665896876,251,372630265,0.01231,0.06628,0.07739,0.004646,0.005295,0.06641,3.91e-05,0.0003834,0.07544,0.001642,5.41,0.01762,0,0,0.003372
261000000000,261300000000,4665896876,251,372630265,0.01624,0.06641,0.07739,0.004738,0.005386,0.06653,5.054e-05,0.0003843,0.1035,0.002998,1.949,0.00459,0,0,0.02386
261300000000,261600000000,4665896876,251,372630265,0.0139,0.06628,0.07739,0.004745,0.005394,0.06641,4.482e-05,0.0003843,0.07178,0.001999,5.428,0.01793,0,0,0.02567
261600000000,261900000000,4665896876,251,372630265,0.01355,0.06628,0.07739,0.004868,0.005516,0.06641,4.292e-05,0.0003853,0.07117,0.002357,5.363,0.01782,0,0,0.006874
261900000000,262200000000,4665896876,251,372630265,0.01291,0.06641,0.07739,0.005081,0.00573,0.06641,4.292e-05,0.0003719,0.06812,0.002998,5.299,0.01781,0,0,0.03864
262200000000,262500000000,4665896876,251,372630265,0.01338,0.06641,0.07739,0.005363,0.006012,0.06653,4.005e-05,0.0003672,0.06958,0.002644,5.373,0.0179,0,0,0.00412
262500000000,262800000000,4665896876,251,372630265,0.01263,0.06641,0.07739,0.005432,0.006073,0.06653,3.91e-05,0.0003681,0.06421,0.002144,5.252,0.01752,0,0,0.02789
262800000000,263100000000,4665896876,251,372630265,0.01337,0.06641,0.07739,0.005363,0.006012,0.06665,5.054e-05,0.0003691,0.1234,0.00293,5.291,0.01779,0,0,0.01245
263100000000,263400000000,4665896876,251,372630265,0.02301,0.06653,0.07739,0.005623,0.006271,0.06677,4.673e-05,0.0003691,0.1053,0.002071,1.506,0.002919,0,0,0.01422
263400000000,263700000000,4665896876,251,372630265,0.01193,0.06604,0.07739,0.005852,0.0065,0.06641,4.196e-05,0.00037,0.06836,0.002213,5.648,0.01898,0,0,0.006775
263700000000,264000000000,4665896876,251,372630265,0.01166,0.06628,0.07739,0.003765,0.00441,0.06641,3.624e-05,0.000371,0.06689,0.002357,5.442,0.0185,0,0,0.01085
264000000000,264300000000,4665896876,251,372630265,0.01202,0.06641,0.07739,0.0003557,0.001003,0.06641,4.292e-05,0.000371,0.05756,0.002285,5.387,0.01848,0,0,0.01715
264300000000,264600000000,4665896876,251,372630265,0.01344,0.06628,0.07739,0.0005503,0.001198,0.06665,3.91e-05,0.0003719,0.1016,0.002071,2.46,0.006093,0,0,0.008667
264600000000,264900000000,4665896876,251,372630265,0.0127,0.06641,0.07739,0.0006933,0.001341,0.06641,3.242e-05,0.0003719,0.08862,0.001928,5.601,0.0195,0,0,0.004608
264900000000,265200000000,4665896876,251,372630265,0.01324,0.06641,0.07739,0.0009079,0.001556,0.06653,4.292e-05,0.0003729,0.08398,0.001572,5.798,0.02034,0,0,0.02023
265200000000,265500000000,4665896876,251,372630265,0.01349,0.06641,0.07739,0.00106,0.001709,0.06653,5.436e-05,0.0003738,0.07373,0.002285,6.068,0.0212,0,0,0.02008
265500000000,265800000000,4665896876,251,372630265,0.01448,0.06653,0.07739,0.001287,0.001934,0.06677,4.959e-05,0.0003738,0.09509,0.001999,5.778,0.01988,0,0,0.01308
265800000000,266100000000,4665896876,251,372630265,0.01392,0.06641,0.07739,0.001528,0.002174,0.06653,4.482e-05,0.0003748,0.07593,0.002144,5.73,0.01962,0,0,0.02356
266400000000,266700000000,4665896876,251,372630265,0.01431,0.06628,0.07739,0.001968,0.002617,0.06665,5.436e-05,0.0003767,0.06348,0.002285,3.148,0.008832,0,0,0.01163
266700000000,267000000000,4665896876,251,372630265,0.01283,0.06592,0.07739,0.002235,0.002884,0.06616,4.482e-05,0.0003767,0.07275,0.001999,5.467,0.01841,0,0,0.02231
267000000000,267300000000,4665896876,251,372630265,0.01352,0.06555,0.07739,0.002506,0.003155,0.06567,4.292e-05,0.0003777,0.06543,0.002213,5.502,0.0183,0,0,0.01782
267300000000,267600000000,4665896876,251,372630265,0.01353,0.06531,0.07739,0.002705,0.003353,0.0658,4.482e-05,0.0003786,0.08337,0.001572,6.004,0.02047,0,0,0.01355
267900000000,268200000000,4665896876,251,372630265,0.01448,0.06653,0.07739,0.002964,0.003609,0.06665,3.719e-05,0.0003796,0.06714,0.002144,6.056,0.01996,0,0,0.02185
268200000000,268500000000,4665896876,251,372630265,0.0174,0.06665,0.07739,0.003029,0.003677,0.06689,7.343e-05,0.0003805,0.1335,0.002998,4.623,0.01469,0,0,0.02209
268500000000,268800000000,4665896876,251,372630265,0.02399,0.06677,0.07739,0.003334,0.003983,0.06714,8.774e-05,0.0003805,0.08032,0.007217,1.771,0.003552,0,0,0.02295
269100000000,269400000000,4665896876,251,372630265,0.0132,0.06616,0.07739,0.003784,0.004433,0.06628,6.39e-05,0.0003824,0.07617,0.002499,5.284,0.01782,0,0,0.02673
269400000000,269700000000,4665896876,251,372630265,0.01315,0.06604,0.07739,0.004005,0.004654,0.06616,4.482e-05,0.0003824,0.06665,0.001858,5.513,0.01844,0,0,0.0106
269700000000,270000000000,4665896876,251,372630265,0.01491,0.06628,0.07739,0.003922,0.00457,0.06677,6.58e-05,0.0003834,0.07227,0.003071,5.513,0.01817,0,0,0.01059
270000000000,270300000000,4665896876,251,372630265,0.01614,0.06665,0.07739,0.004143,0.004791,0.06677,5.245e-05,0.0003843,0.078,0.002998,5.803,0.01929,0,0,0.01166
270300000000,270600000000,4665896876,251,372630265,0.0153,0.06665,0.07739,0.004318,0.004967,0.06677,4.959e-05,0.0003853,0.07385,0.003284,5.336,0.01845,0,0,0.0206
270600000000,270900000000,4665896876,251,372630265,0.01517,0.06665,0.07739,0.004677,0.005325,0.06677,5.722e-05,0.0003681,0.06921,0.003998,5.421,0.01854,0,0,0.01503
270900000000,271200000000,4665896876,251,372630265,0.01917,0.06689,0.07739,0.004967,0.005615,0.06714,5.531e-05,0.0003681,0.08362,0.002571,2.893,0.007817,0,0,0.01262
271200000000,271500000000,4665896876,251,372630265,0.0152,0.06689,0.07739,0.005325,0.005966,0.06689,6.771e-05,0.0003691,0.06958,0.002644,5.494,0.01873,0,0,0.009369
281700000000,282000000000,4665896876,251,372630265,0.009995,0.06262,0.07751,0.001446,0.002094,0.06311,3.624e-05,0.0003738,0.0625,0.001286,5.505,0.0187,0,0,0.005501
282000000000,282300000000,4665896876,251,372630265,0.01178,0.06189,0.07739,0.001659,0.002308,0.06207,4.387e-05,0.0003748,0.11,0.002998,2.413,0.006258,0,0,0.009247
282300000000,282600000000,4665896876,251,372630265,0.008789,0.06091,0.07739,0.001816,0.002464,0.06165,6.866e-05,0.0003748,0.05798,0.002998,4.902,0.01675,0,0,0.01132
282600000000,282900000000,4665896876,251,372630265,0.01006,0.06018,0.07739,0.001999,0.002644,0.06055,3.815e-05,0.0003757,0.05853,0.001642,5.476,0.0191,0,0,0.00753
282900000000,283200000000,4665896876,251,372630265,0.009628,0.06128,0.07751,0.002178,0.002827,0.06201,4.387e-05,0.0003757,0.06238,0.002785,5.771,0.01986,0,0,0.005852
283200000000,283500000000,4665896876,251,372630265,0.009705,0.06262,0.07751,0.002384,0.003029,0.06323,5.531e-05,0.0003767,0.06824,0.003143,5.631,0.01906,0,0,0.009354
283500000000,283800000000,4665896876,251,372630265,0.01167,0.06372,0.07751,0.002594,0.003239,0.06409,5.817e-05,0.0003767,0.09265,0.003143,3.458,0.009891,0,0,0.01399
283800000000,284100000000,4665896876,251,372630265,0.01074,0.06409,0.07751,0.002773,0.003422,0.0647,4.196e-05,0.0003777,0.06714,0.002144,5.375,0.01778,0,0,0.01422
284100000000,284400000000,4665896876,251,372630265,0.009918,0.06531,0.07751,0.002964,0.003613,0.0658,4.196e-05,0.0003777,0.07007,0.003071,5.057,0.01643,0,0,0.02042
284400000000,284700000000,4665896876,251,372630265,0.01035,0.06604,0.07751,0.003151,0.003799,0.06628,5.341e-05,0.0003786,0.06262,0.002499,5.333,0.0172,0,0,0.004593
284700000000,285000000000,4665896876,251,372630265,0.01015,0.06628,0.07739,0.003185,0.003834,0.06628,5.531e-05,0.0003786,0.1328,0.00243,5.144,0.01692,0,0,0.002937
285000000000,285300000000,4665896876,251,372630265,0.01337,0.06628,0.07739,0.003315,0.00396,0.06665,4.387e-05,0.0003796,0.08032,0.001928,5.335,0.01785,0,0,0.009628
285300000000,285600000000,4665896876,251,372630265,0.01312,0.06641,0.07739,0.003506,0.004158,0.06653,5.054e-05,0.0003796,0.06653,0.003143,5.178,0.01675,0,0,0.01073
285600000000,285900000000,4665896876,251,372630265,0.01431,0.06628,0.07739,0.003849,0.004494,0.06641,5.245e-05,0.0003805,0.05591,0.002644,5.491,0.01723,0,0,0.02307
285900000000,286200000000,4665896876,251,372630265,0.02084,0.06641,0.07739,0.004189,0.004837,0.06653,9.823e-05,0.0003815,0.09058,0.003216,2.466,0.005941,0,0,0.01216
286200000000,286500000000,4665896876,251,372630265,0.01518,0.06628,0.07739,0.004578,0.005226,0.06641,7.153e-05,0.0003824,0.07935,0.003216,5.293,0.01688,0,0,0.01862
286500000000,286800000000,4665896876,251,372630265,0.0143,0.06616,0.07739,0.00486,0.005508,0.06628,6.676e-05,0.0003834,0.07202,0.003502,5.44,0.01699,0,0,0.02927
286800000000,287100000000,4665896876,251,372630265,0.01469,0.06628,0.07739,0.005173,0.005821,0.06641,6.58e-05,0.0003843,0.07117,0.004143,5.395,0.01681,0,0,0.03418
287100000000,287400000000,4665896876,251,372630265,0.01442,0.06628,0.07739,0.005554,0.006203,0.06641,6.58e-05,0.0003834,0.1161,0.003071,5.281,0.01667,0,0,0.01694
287400000000,287700000000,4665896876,251,372630265,0.01816,0.06641,0.07739,0.005928,0.006577,0.06665,6.58e-05,0.0003672,0.1107,0.002716,3.001,0.008066,0,0,0.01788
287700000000,288000000000,4665896876,251,372630265,0.01569,0.06628,0.07739,0.006294,0.006943,0.06641,5.436e-05,0.0003681,0.1075,0.002998,5.458,0.01745,0,0,0.007133
288000000000,288300000000,4665896876,251,372630265,0.01517,0.06628,0.07739,0.006607,0.007256,0.06641,7.153e-05,0.0003691,0.0686,0.002857,5.526,0.01771,0,0,0.01602
288300000000,288600000000,4665896876,251,372630265,0.01941,0.06641,0.07739,0.006981,0.007629,0.06665,9.346e-05,0.00037,0.1074,0.003284,2.946,0.007906,0,0,0.01645
288600000000,288900000000,4665896876,251,372630265,0.01517,0.06604,0.07739,0.006241,0.006889,0.06653,5.531e-05,0.000371,0.07373,0.002998,2.011,0.004599,0,0,0.008957
288900000000,289200000000,4665896876,251,372630265,0.01353,0.06616,0.07739,0.0004892,0.001137,0.06628,5.913e-05,0.0003719,0.1027,0.003857,5.637,0.01877,0,0,0.01501
289200000000,289500000000,4665896876,251,372630265,0.01093,0.06616,0.07739,0.0007706,0.001419,0.06641,6.58e-05,0.0003729,0.2783,0.002857,4.975,0.01628,0,0,0.002098
289500000000,289800000000,4665896876,251,372630265,0.01031,0.06604,0.07739,0.0009556,0.001604,0.06616,7.629e-05,0.0003729,0.07397,0.003784,3.639,0.0111,0,0,0.009964
289800000000,290100000000,4665896876,251,372630265,0.01117,0.06604,0.07739,0.001175,0.001823,0.06628,4.578e-05,0.0003738,0.06787,0.001499,5.542,0.01884,0,0,0.01227
290100000000,290400000000,4665896876,251,372630265,0.01259,0.06616,0.07739,0.001413,0.00206,0.06628,5.054e-05,0.0003738,0.07971,0.002213,4.343,0.01416,0,0,0.002953
290400000000,290700000000,4665896876,251,372630265,0.01219,0.06604,0.07739,0.001595,0.002243,0.06628,5.245e-05,0.0003748,0.05377,0.002857,4.162,0.01341,0,0,0.006912
290700000000,291000000000,4665896876,251,372630265,0.01143,0.06616,0.07739,0.001825,0.002472,0.06616,5.054e-05,0.0003748,0.07336,0.003216,5.241,0.01773,0,0,0.007156
291000000000,291300000000,4665896876,251,372630265,0.01115,0.06616,0.07739,0.002064,0.002712,0.06616,3.338e-05,0.0003757,0.09863,0.001572,5.453,0.01858,0,0,0.02115
291300000000,291600000000,4665896876,251,372630265,0.01176,0.06616,0.07739,0.002132,0.002781,0.06628,5.627e-05,0.0003767,0.07349,0.002357,4.602,0.01491,0,0,0.03918
291600000000,291900000000,4665896876,251,372630265,0.009811,0.06592,0.07739,0.002285,0.002934,0.06604,4.196e-05,0.0003767,0.05823,0.002785,4.893,0.01647,0,0,0.02023
291900000000,292200000000,4665896876,251,372630265,0.01761,0.0658,0.07739,0.002483,0.003132,0.06616,4.673e-05,0.0003777,0.1115,0.002716,3.168,0.009327,0,0,0.0351
292200000000,292500000000,4665896876,251,372630265,0.01865,0.06592,0.07739,0.00275,0.003399,0.06641,8.678e-05,0.0003777,0.08215,0.008575,2.059,0.004601,0,0,0.02679
292500000000,292800000000,4665896876,251,372630265,0.0114,0.06555,0.07739,0.00296,0.003609,0.0658,4.768e-05,0.0003786,0.07263,0.00243,5.091,0.01691,0,0,0.00214
292800000000,293100000000,4665896876,251,372630265,0.01109,0.06531,0.07739,0.003151,0.003799,0.06543,6.294e-05,0.0003796,0.07117,0.003857,5.014,0.01675,0,0,0.01051
293100000000,293400000000,4665896876,251,372630265,0.01102,0.06494,0.07739,0.003334,0.003983,0.06531,4.864e-05,0.0003796,0.06506,0.00293,5.315,0.0178,0,0,0.0101
293400000000,293700000000,4665896876,251,372630265,0.01314,0.0658,0.07739,0.003544,0.004189,0.06616,5.15e-05,0.0003805,0.06812,0.002285,3.305,0.009796,0,0,0.01073
293700000000,294000000000,4665896876,251,372630265,0.01234,0.06592,0.07739,0.003807,0.004456,0.06604,5.436e-05,0.0003805,0.06433,0.002785,4.867,0.01628,0,0,0.01097
294000000000,294300000000,4665896876,251,372630265,0.01381,0.06592,0.07739,0.004044,0.004692,0.06616,5.341e-05,0.0003815,0.09692,0.001785,2.831,0.007536,0,0,0.01627
294300000000,294600000000,4665896876,251,372630265,0.01151,0.06592,0.07739,0.004295,0.004944,0.06604,4.292e-05,0.0003824,0.06458,0.00293,5.5,0.0178,0,0,0.003796
294600000000,294900000000,4665896876,251,372630265,0.01299,0.06604,0.07739,0.004524,0.005173,0.06616,4.768e-05,0.0003824,0.113,0.002785,2.276,0.005484,0,0,0.009109
294900000000,295200000000,4665896876,251,372630265,0.01175,0.06592,0.07739,0.004761,0.005409,0.06604,5.436e-05,0.0003834,0.06012,0.002499,5.09,0.01719,0,0,0.005112
295200000000,295500000000,4665896876,251,372630265,0.0121,0.06592,0.07739,0.00502,0.005661,0.06604,5.436e-05,0.0003843,0.05322,0.002785,5.29,0.0176,0,0,0.01512
295500000000,295800000000,4665896876,251,372630265,0.02261,0.06616,0.07739,0.005188,0.005836,0.06641,7.629e-05,0.0003843,0.1326,0.003429,1.82,0.003346,0,0,0.0636
295800000000,296100000000,4665896876,251,372630265,0.01476,0.06604,0.07739,0.005348,0.005997,0.06628,6.676e-05,0.0003853,0.1106,0.002998,1.878,0.003786,0,0,0.05786
296100000000,296400000000,4665896876,251,372630265,0.01149,0.06567,0.07739,0.005424,0.006073,0.06592,4.101e-05,0.0003757,0.08093,0.002357,4.977,0.01661,0,0,0.01608
296400000000,296700000000,4665896876,251,372630265,0.01468,0.0658,0.07739,0.005646,0.006294,0.06604,6.58e-05,0.0003672,0.08203,0.002998,4.616,0.01507,0,0,0.01231
296700000000,297000000000,4665896876,251,372630265,0.01491,0.0658,0.07739,0.005905,0.006554,0.06604,6.294e-05,0.0003681,0.1123,0.003071,3.097,0.008605,0,0,0.003433
297000000000,297300000000,4665896876,251,372630265,0.01247,0.06567,0.07739,0.006157,0.006805,0.0658,5.15e-05,0.0003681,0.06348,0.002716,5.716,0.01914,0,0,0.02872
297300000000,297600000000,4665896876,251,372630265,0.01279,0.0658,0.07739,0.006317,0.006966,0.06592,4.196e-05,0.0003691,0.06616,0.002213,5.433,0.01746,0,0,0.02005
297600000000,297900000000,4665896876,251,372630265,0.01718,0.06592,0.07739,0.006569,0.007217,0.06604,6.104e-05,0.00037,0.1122,0.001785,3.18,0.008671,0,0,0.004211
297900000000,298200000000,4665896876,251,372630265,0.01344,0.06567,0.07739,0.006805,0.007454,0.06604,5.15e-05,0.00037,0.09058,0.002213,4.711,0.01498,0,0,0.0206
298200000000,298500000000,4665896876,251,372630265,0.01135,0.06567,0.07739,0.006523,0.007164,0.0658,4.578e-05,0.000371,0.06372,0.001928,5.466,0.01778,0,0,0.00853
298500000000,298800000000,4665896876,251,372630265,0.01222,0.06567,0.07739,0.000329,0.0009766,0.0658,6.199e-05,0.000371,0.06519,0.003571,4.928,0.01631,0,0,0.01834
298800000000,299100000000,4665896876,251,372630265,0.01164,0.06592,0.07739,0.0006027,0.001251,0.06628,4.482e-05,0.0003719,0.06049,0.002285,5.27,0.01762,0,0,0.01488
299100000000,299400000000,4665896876,251,372630265,0.01132,0.06616,0.07739,0.0008125,0.001461,0.06628,3.719e-05,0.0003729,0.05554,0.001999,5.47,0.01845,0,0,0.005424
299400000000,299700000000,4665896876,251,372630265,0.03247,0.06641,0.07739,0.001066,0.001715,0.06677,8.774e-05,0.0003729,0.1484,0.003502,1.708,0.003013,0,0,0.007217
