5700000000,6000000000,4708675610,0,38661494,5.054e-05,0.0003166,0.001934,9.441e-05,0.0002785,0.0003166,3.815e-06,9.537e-07,0.0005445,0.0002861,3.418,0.01157,0,1,0
6000000000,6300000000,4708675610,0,38661494,5.054e-05,0.0003166,0.001934,9.441e-05,0.0002785,0.0003166,2.861e-06,9.537e-07,0.0005798,7.153e-05,3.24,0.01058,0,1,0
6300000000,6600000000,4708675610,0,38661494,5.15e-05,0.0003166,0.001934,9.441e-05,0.0002785,0.0003166,7.629e-06,9.537e-07,0.0005922,0.001358,3.431,0.01169,0,1,0
6600000000,6900000000,4708675610,0,38661494,5.15e-05,0.0003166,0.001934,9.441e-05,0.0002785,0.0003176,6.676e-06,9.537e-07,0.0005808,0.0003214,3.308,0.01104,0,1,0
6900000000,7200000000,4708675610,0,38661494,5.15e-05,0.0003166,0.001934,9.441e-05,0.0002794,0.0003176,2.861e-06,9.537e-07,0.000638,0.0001431,3.37,0.01124,0,1,0
7200000000,7500000000,4708675610,0,38661494,4.959e-05,0.0003166,0.001934,9.441e-05,0.0002794,0.0003166,2.861e-06,9.537e-07,0.0006304,7.153e-05,3.451,0.01173,0,1,0
7500000000,7800000000,4708675610,0,38661494,5.15e-05,0.0003166,0.001934,9.441e-05,0.0002794,0.0003166,2.861e-06,9.537e-07,0.0005789,0.0001431,3.501,0.01182,0,1,0
7800000000,8100000000,4708675610,0,38661494,5.245e-05,0.0003166,0.001934,9.537e-05,0.0002794,0.0003166,2.861e-06,9.537e-07,0.0006294,7.153e-05,3.419,0.01159,0,1,0
8100000000,8400000000,4708675610,0,38661494,5.054e-05,0.0003166,0.001934,9.537e-05,0.0002794,0.0003166,2.861e-06,9.537e-07,0.0005703,7.153e-05,3.267,0.01101,0,1,0
8400000000,8700000000,4708675610,0,38661494,5.054e-05,0.0003166,0.001934,9.537e-05,0.0002794,0.0003166,2.861e-06,9.537e-07,0.0005188,7.153e-05,3.435,0.01207,0,1,0
8700000000,9000000000,4708675610,0,38661494,5.054e-05,0.0003166,0.001934,9.537e-05,0.0002794,0.0003166,3.815e-06,9.537e-07,0.0006084,7.153e-05,3.31,0.01076,0,1,0
9000000000,9300000000,4708675610,0,38661494,5.054e-05,0.0003166,0.001934,9.537e-05,0.0002794,0.0003166,3.815e-06,9.537e-07,0.0006208,0.0002861,3.243,0.0106,0,1,0
9300000000,9600000000,4708675610,0,38661494,5.15e-05,0.0003166,0.001934,9.537e-05,0.0002794,0.0003166,2.861e-06,9.537e-07,0.0007763,7.153e-05,3.451,0.01176,0,1,0
9600000000,9900000000,4708675610,0,38661494,5.054e-05,0.0003166,0.001934,9.537e-05,0.0002794,0.0003166,2.861e-06,9.537e-07,0.0005741,7.153e-05,3.306,0.01115,0,1,0
9900000000,10200000000,4708675610,0,38661494,5.15e-05,0.0003166,0.001934,9.537e-05,0.0002804,0.0003166,2.861e-06,9.537e-07,0.0005722,7.153e-05,3.358,0.01144,0,1,0
10200000000,10500000000,4708675610,0,38661494,4.959e-05,0.0003166,0.001934,9.537e-05,0.0002804,0.0003166,2.861e-06,9.537e-07,0.0005913,0.0002146,3.52,0.01222,0,1,0
10500000000,10800000000,4708675610,0,38661494,4.959e-05,0.0003166,0.001934,9.537e-05,0.0002804,0.0003166,2.861e-06,9.537e-07,0.0006647,0.0001431,3.35,0.01138,0,1,0
10800000000,11100000000,4708675610,0,38661494,4.864e-05,0.0003166,0.001934,9.632e-05,0.0002804,0.0003166,2.861e-06,9.537e-07,0.000453,0.0001431,3.527,0.01239,0,1,0
11100000000,11400000000,4708675610,0,38661494,5.054e-05,0.0003166,0.001934,9.632e-05,0.0002804,0.0003166,2.861e-06,9.537e-07,0.0007763,7.153e-05,3.411,0.0118,0,1,0
11400000000,11700000000,4708675610,0,38661494,4.864e-05,0.0003166,0.001934,9.632e-05,0.0002804,0.0003166,2.861e-06,9.537e-07,0.0007048,7.153e-05,3.287,0.0109,0,1,0
11700000000,12000000000,4708675610,0,38661494,4.959e-05,0.0003166,0.001934,9.632e-05,0.0002804,0.0003166,2.861e-06,9.537e-07,0.0006657,7.153e-05,3.471,0.01187,0,1,0
12000000000,12300000000,4708675610,0,38661494,4.864e-05,0.0003166,0.001934,9.632e-05,0.0002804,0.0003166,2.861e-06,9.537e-07,0.0005503,7.153e-05,3.356,0.01133,0,1,0
12300000000,12600000000,4708675610,0,38661494,4.864e-05,0.0003166,0.001934,9.632e-05,0.0002804,0.0003166,2.861e-06,9.537e-07,0.0008221,7.153e-05,3.477,0.01222,0,1,0
12600000000,12900000000,4708675610,0,38661494,4.959e-05,0.0003166,0.001934,9.632e-05,0.0002804,0.0003166,8.583e-06,9.537e-07,0.0006876,0.001572,3.646,0.01282,0,1,0
12900000000,13200000000,4708675610,0,38661494,4.959e-05,0.0003166,0.001934,9.632e-05,0.0002813,0.0003166,2.861e-06,9.537e-07,0.0007534,7.153e-05,3.375,0.01182,0,1,0
13200000000,13500000000,4708675610,0,38661494,5.054e-05,0.0003166,0.001934,9.632e-05,0.0002813,0.0003176,3.815e-06,9.537e-07,0.0005255,0.0003567,3.566,0.01251,0,1,0
13500000000,13800000000,4708675610,0,38661494,4.959e-05,0.0003166,0.001934,9.632e-05,0.0002813,0.0003166,3.815e-06,9.537e-07,0.0006847,0.0001431,3.425,0.01159,0,1,0
13800000000,14100000000,4708675610,0,38661494,4.864e-05,0.0003166,0.001934,9.727e-05,0.0002813,0.0003166,2.861e-06,9.537e-07,0.000536,7.153e-05,3.305,0.01144,0,1,0
14100000000,14400000000,4708675610,0,38661494,4.959e-05,0.0003166,0.001934,9.727e-05,0.0002813,0.0003166,3.815e-06,9.537e-07,0.0003729,7.153e-05,3.283,0.01112,0,1,0
14400000000,14700000000,4708675610,0,38661494,4.768e-05,0.0003166,0.001934,9.727e-05,0.0002813,0.0003166,2.861e-06,9.537e-07,0.0003405,7.153e-05,3.245,0.01085,0,1,0
14700000000,15000000000,4708675610,0,38661494,4.864e-05,0.0003166,0.001934,9.727e-05,0.0002813,0.0003166,2.861e-06,9.537e-07,0.0002899,7.153e-05,3.435,0.01188,0,1,0
15000000000,15300000000,4708675610,0,38661494,4.864e-05,0.0003166,0.001934,9.727e-05,0.0002813,0.0003166,3.815e-06,9.537e-07,0.0003386,0.0004282,3.326,0.01109,0,1,0
15300000000,15600000000,4708675610,0,38661494,4.959e-05,0.0003166,0.001934,9.727e-05,0.0002813,0.0003166,2.861e-06,9.537e-07,0.0002918,7.153e-05,3.387,0.01187,0,1,0
15600000000,15900000000,4708675610,0,38661494,4.768e-05,0.0003166,0.001934,9.727e-05,0.0002813,0.0003166,2.861e-06,9.537e-07,0.0005293,7.153e-05,3.573,0.01296,0,1,0
15900000000,16200000000,4708675610,0,38661494,4.864e-05,0.0003166,0.001934,9.727e-05,0.0002813,0.0003166,2.861e-06,9.537e-07,0.0003786,7.153e-05,3.292,0.01122,0,1,0
16200000000,16500000000,4708675610,0,38661494,4.959e-05,0.0003166,0.001934,9.727e-05,0.0002823,0.0003166,2.861e-06,9.537e-07,0.0005598,7.153e-05,3.506,0.01201,0,1,0
16500000000,16800000000,4708675610,0,38661494,4.959e-05,0.0003166,0.001934,9.727e-05,0.0002823,0.0003166,2.861e-06,9.537e-07,0.0005283,7.153e-05,3.601,0.01242,0,1,0
16800000000,17100000000,4708675610,0,38661494,4.959e-05,0.0003166,0.001934,9.823e-05,0.0002823,0.0003166,2.861e-06,9.537e-07,0.0006371,7.153e-05,3.419,0.01147,0,1,0
17100000000,17400000000,4708675610,0,38661494,4.864e-05,0.0003166,0.001934,9.823e-05,0.0002823,0.0003166,2.861e-06,9.537e-07,0.0006552,7.153e-05,3.342,0.01114,0,1,0
17400000000,17700000000,4708675610,0,38661494,4.864e-05,0.0003166,0.001934,9.823e-05,0.0002823,0.0003166,2.861e-06,9.537e-07,0.0007229,7.153e-05,3.369,0.0117,0,1,0
17700000000,18000000000,4708675610,0,38661494,4.768e-05,0.0003166,0.001934,9.823e-05,0.0002823,0.0003176,2.861e-06,9.537e-07,0.0005617,0.0001431,3.404,0.01201,0,1,0
18000000000,18300000000,4708675610,0,38661494,4.768e-05,0.0003166,0.001934,9.823e-05,0.0002823,0.0003176,2.861e-06,9.537e-07,0.0006962,7.153e-05,3.331,0.01142,0,1,0
18300000000,18600000000,4708675610,0,38661494,4.768e-05,0.0003166,0.001934,9.823e-05,0.0002823,0.0003166,2.861e-06,9.537e-07,0.0007868,7.153e-05,3.376,0.01177,0,1,0
18600000000,18900000000,4708675610,0,38661494,4.673e-05,0.0003166,0.001934,9.823e-05,0.0002823,0.0003166,2.861e-06,9.537e-07,0.0007954,7.153e-05,3.29,0.01137,0,1,0
18900000000,19200000000,4708675610,0,38661494,4.959e-05,0.0003166,0.001934,9.823e-05,0.0002823,0.0003176,5.722e-06,9.537e-07,0.0007057,0.0009289,3.278,0.01149,0,1,0
19500000000,19800000000,4708675610,0,2274895763,6.58e-05,0.0003452,0.001741,8.488e-05,0.0002642,0.0004492,0.0001936,9.537e-07,0.003643,0.04285,1.106,0.001979,0,1,0
19800000000,20100000000,4708675610,0,2274895763,4.196e-05,0.000309,0.001759,8.202e-05,0.0002651,0.000309,7.629e-06,9.537e-07,0.0002794,0.0005713,5.416,0.02328,0,1,0
20100000000,20400000000,4708675610,0,2274895763,8.774e-05,0.0003128,0.00176,8.106e-05,0.0002651,0.0003138,1.431e-05,9.537e-07,0.008148,0.002857,4.367,0.01641,0,1,0
20400000000,20700000000,4708675610,0,2274895763,5.341e-05,0.0003138,0.00176,8.106e-05,0.0002651,0.0003147,2.861e-06,9.537e-07,0.0003424,7.153e-05,3.593,0.01203,0,1,0
20700000000,21000000000,4708675610,0,2274895763,5.245e-05,0.0003147,0.00176,8.106e-05,0.0002661,0.0003147,1.907e-05,9.537e-07,0.0003853,0.001858,3.456,0.01123,0,1,0
21000000000,21300000000,4708675610,0,2274895763,5.341e-05,0.0003147,0.00176,8.106e-05,0.0002661,0.0003157,3.815e-06,9.537e-07,0.0003443,0.0002146,3.243,0.01038,0,1,0
21600000000,21900000000,4708675610,0,294847088,3.719e-05,0.0003099,0.001928,1.24e-05,0.0001955,0.0003109,2.861e-06,9.537e-07,0.0002766,0.0001431,19.35,0.1032,0,1,0
21900000000,22200000000,4708675610,0,294847088,8.011e-05,0.0003128,0.001928,1.526e-05,0.0001984,0.0003147,1.049e-05,9.537e-07,0.009048,0.002071,6.335,0.02723,0,1,0
22200000000,22500000000,4708675610,0,294847088,5.054e-05,0.0003147,0.001928,1.621e-05,0.0002003,0.0003147,5.722e-06,9.537e-07,0.0002623,0.0007143,4.274,0.01559,0,1,0
22500000000,22800000000,4708675610,0,294847088,4.578e-05,0.0003147,0.001928,1.621e-05,0.0002012,0.0003157,4.768e-06,9.537e-07,0.0003176,0.0003567,3.896,0.01395,0,1,0
22800000000,23100000000,4708675610,0,294847088,4.482e-05,0.0003157,0.001928,1.717e-05,0.0002012,0.0003157,4.768e-06,9.537e-07,0.0002871,0.0004997,3.919,0.01399,0,1,0
23100000000,23400000000,4708675610,0,294847088,4.578e-05,0.0003157,0.001928,1.717e-05,0.0002012,0.0003157,3.815e-06,9.537e-07,0.0002699,0.0002146,4.064,0.01442,0,1,0
23400000000,23700000000,4708675610,0,294847088,4.673e-05,0.0003157,0.001928,1.717e-05,0.0002012,0.0003157,3.815e-06,9.537e-07,0.000268,0.0002146,4.026,0.01426,0,1,0
23700000000,24000000000,4708675610,0,294847088,4.673e-05,0.0003157,0.001928,1.717e-05,0.0002012,0.0003157,3.815e-06,9.537e-07,0.0002737,0.0002146,3.984,0.01346,0,1,0
24000000000,24300000000,4708675610,0,294847088,4.673e-05,0.0003157,0.001928,1.717e-05,0.0002012,0.0003157,2.861e-06,9.537e-07,0.0002766,0.0002146,4.162,0.01512,0,1,0
24300000000,24600000000,4708675610,0,294847088,4.578e-05,0.0003157,0.001928,1.717e-05,0.0002012,0.0003157,3.815e-06,9.537e-07,0.0002756,0.0002146,4.299,0.01516,0,1,0
24600000000,24900000000,4708675610,0,294847088,4.768e-05,0.0003157,0.001928,1.717e-05,0.0002012,0.0003157,2.861e-06,9.537e-07,0.0003405,0.0001431,4.79,0.017,0,1,0
24900000000,25200000000,4708675610,0,294847088,4.673e-05,0.0003157,0.001928,1.717e-05,0.0002012,0.0003157,3.815e-06,9.537e-07,0.0003462,0.0002861,4.694,0.01791,0,1,0
25200000000,25500000000,4708675610,0,294847088,4.768e-05,0.0003157,0.001928,1.717e-05,0.0002012,0.0003157,2.861e-06,9.537e-07,0.0002813,0.0001431,4.466,0.01575,0,1,0
25500000000,25800000000,4708675610,0,294847088,4.864e-05,0.0003157,0.001928,1.717e-05,0.0002012,0.0003166,3.815e-06,9.537e-07,0.0003071,0.0003567,4.582,0.01693,0,1,0
25800000000,26100000000,4708675610,0,294847088,4.768e-05,0.0003157,0.001928,1.717e-05,0.0002022,0.0003166,3.815e-06,9.537e-07,0.0002985,0.0001431,4.315,0.01522,0,1,0
26100000000,26400000000,4708675610,0,294847088,4.864e-05,0.0003157,0.001928,1.812e-05,0.0002022,0.0003166,3.815e-06,9.537e-07,0.0003157,0.0002146,3.897,0.0132,0,1,0
26400000000,26700000000,4708675610,0,294847088,5.054e-05,0.0003166,0.001928,1.812e-05,0.0002022,0.0003166,3.815e-06,9.537e-07,0.0002718,0.0002146,4.427,0.01513,0,1,0
26700000000,27000000000,4708675610,0,294847088,5.15e-05,0.0003157,0.001928,1.812e-05,0.0002022,0.0003166,4.768e-06,9.537e-07,0.0003338,0.0001431,4.602,0.0165,0,1,0
27000000000,27300000000,4708675610,0,294847088,4.864e-05,0.0003166,0.001928,1.812e-05,0.0002022,0.0003166,5.722e-06,9.537e-07,0.0003052,0.0005713,4.514,0.01612,0,1,0
27300000000,27600000000,4708675610,0,294847088,4.768e-05,0.0003166,0.001928,1.812e-05,0.0002022,0.0003166,5.722e-06,9.537e-07,0.0006018,0.0007143,4.519,0.01645,0,1,0
27600000000,27900000000,4708675610,0,294847088,4.673e-05,0.0003166,0.001928,1.812e-05,0.0002031,0.0003166,4.768e-06,9.537e-07,0.0005636,0.0005713,5.161,0.0198,0,1,0
27900000000,28200000000,4708675610,0,294847088,4.959e-05,0.0003166,0.001928,1.812e-05,0.0002031,0.0003166,2.861e-06,9.537e-07,0.0006418,0.0001431,4.87,0.0181,0,1,0
28200000000,28500000000,4708675610,0,294847088,4.864e-05,0.0003166,0.001928,1.907e-05,0.0002031,0.0003166,2.861e-06,9.537e-07,0.0006609,0.0001431,4.902,0.01848,0,1,0
28500000000,28800000000,4708675610,0,294847088,4.768e-05,0.0003166,0.001928,1.907e-05,0.0002031,0.0003166,2.861e-06,9.537e-07,0.0005541,0.0001431,4.642,0.01711,0,1,0
28800000000,29100000000,4708675610,0,294847088,4.864e-05,0.0003166,0.001928,1.907e-05,0.0002031,0.0003166,2.861e-06,9.537e-07,0.0006018,0.0002861,4.465,0.01587,0,1,0
29100000000,29400000000,4708675610,0,294847088,4.864e-05,0.0003166,0.001928,1.907e-05,0.0002031,0.0003166,2.861e-06,9.537e-07,0.0005751,0.0001431,5.164,0.01986,0,1,0
29400000000,29700000000,4708675610,0,294847088,4.959e-05,0.0003166,0.001928,1.907e-05,0.0002031,0.0003166,3.815e-06,9.537e-07,0.0007782,0.0002861,4.459,0.01628,0,1,0
29700000000,30000000000,4708675610,0,294847088,4.768e-05,0.0003166,0.001928,1.907e-05,0.0002031,0.0003166,2.861e-06,9.537e-07,0.0007153,0.0001431,4.684,0.0175,0,1,0
30000000000,30300000000,4708675610,0,294847088,4.768e-05,0.0003166,0.001928,1.907e-05,0.0002031,0.0003166,2.861e-06,9.537e-07,0.0007181,0.0002861,4.585,0.01708,0,1,0
30300000000,30600000000,4708675610,0,294847088,4.768e-05,0.0003166,0.001928,1.907e-05,0.0002041,0.0003166,3.815e-06,9.537e-07,0.0005903,0.0002861,4.827,0.01793,0,1,0
30600000000,30900000000,4708675610,0,294847088,4.768e-05,0.0003166,0.001928,1.907e-05,0.0002041,0.0003166,3.815e-06,9.537e-07,0.0003195,0.0002146,4.304,0.01549,0,1,0
30900000000,31200000000,4708675610,0,294847088,4.768e-05,0.0003166,0.001928,1.907e-05,0.0002041,0.0003166,4.768e-06,9.537e-07,0.0002899,0.0003567,4.579,0.01675,0,1,0
31200000000,31500000000,4708675610,0,294847088,4.864e-05,0.0003166,0.001928,2.003e-05,0.0002041,0.0003166,5.722e-06,9.537e-07,0.0003004,0.0004282,4.753,0.01732,0,1,0
31500000000,31800000000,4708675610,0,294847088,4.768e-05,0.0003166,0.001928,2.003e-05,0.0002041,0.0003166,3.815e-06,9.537e-07,0.0002871,0.0002861,4.746,0.01782,0,1,0
31800000000,32100000000,4708675610,0,294847088,4.768e-05,0.0003166,0.001928,2.003e-05,0.0002041,0.0003166,3.815e-06,9.537e-07,0.0003109,0.0004997,4.572,0.01672,0,1,0
32100000000,32400000000,4708675610,0,294847088,4.768e-05,0.0003166,0.001928,2.003e-05,0.0002041,0.0003166,2.861e-06,9.537e-07,0.0003214,0.0002146,4.539,0.01669,0,1,0
38700000000,39000000000,4708675610,0,38737461,7.915e-05,0.0003328,0.001837,9.918e-05,0.0002689,0.001368,0.0003405,9.537e-07,0.003895,0.04285,19.03,0.1032,0,1,0
39000000000,39300000000,4708675610,0,38737461,4.101e-05,0.000308,0.001934,8.202e-05,0.0002651,0.000309,1.24e-05,9.537e-07,0.0003624,0.001572,18.77,0.105,0,1,0
39300000000,39600000000,4708675610,0,38737461,7.915e-05,0.0003128,0.001934,8.106e-05,0.0002651,0.0003138,1.812e-05,9.537e-07,0.006554,0.001715,5.562,0.02378,0,1,0
52500000000,52800000000,4708675610,0,1271117,4.005e-05,0.000308,0.001938,9.537e-06,0.0001917,0.000308,3.815e-06,9.537e-07,0.0002909,7.153e-05,9.989,0.04647,0,1,0
52800000000,53100000000,4708675610,0,1271117,6.962e-05,0.0003099,0.001938,1.144e-05,0.0001945,0.0003128,1.717e-05,9.537e-07,0.006538,0.002144,6.063,0.02511,0,1,0
53700000000,54000000000,4708675610,0,295002673,4.005e-05,0.000308,0.001934,8.583e-06,0.0001917,0.000308,7.629e-06,9.537e-07,0.0003052,0.001429,7.968,0.03756,0,1,0
54000000000,54300000000,4708675610,0,295002673,8.678e-05,0.0003119,0.001934,1.144e-05,0.0001955,0.0003128,1.431e-05,9.537e-07,0.008606,0.002213,4.75,0.01766,0,1,0
54300000000,54600000000,4708675610,0,295002673,4.578e-05,0.0003128,0.001934,1.24e-05,0.0001965,0.0003128,8.583e-06,9.537e-07,0.0003548,0.0009995,3.605,0.01196,0,1,0
54600000000,54900000000,4708675610,0,295002673,4.005e-05,0.0003128,0.001934,1.24e-05,0.0001974,0.0003128,4.768e-06,9.537e-07,0.0002985,0.0003567,3.048,0.009573,0,1,0
54900000000,55200000000,4708675610,0,295002673,4.292e-05,0.0003128,0.001934,1.335e-05,0.0001974,0.0003128,3.815e-06,9.537e-07,0.0003014,0.0001431,3.003,0.009154,0,1,0
55200000000,55500000000,4708675610,0,295002673,4.101e-05,0.0003138,0.001934,1.335e-05,0.0001974,0.0003138,1.907e-05,9.537e-07,0.0002851,0.003571,2.877,0.00873,0,1,0
55500000000,55800000000,4708675610,0,295002673,4.578e-05,0.0003138,0.001934,1.335e-05,0.0001974,0.0003138,6.676e-06,9.537e-07,0.0003481,0.0006428,3.32,0.01069,0,1,0
55800000000,56100000000,4708675610,0,295002673,4.196e-05,0.0003138,0.001934,1.335e-05,0.0001974,0.0003138,1.049e-05,9.537e-07,0.0002918,0.001642,2.931,0.008553,0,1,0
56100000000,56400000000,4708675610,0,295002673,4.292e-05,0.0003138,0.001934,1.335e-05,0.0001974,0.0003138,3.815e-06,9.537e-07,0.0003262,0.0001431,3.032,0.00922,0,1,0
56400000000,56700000000,4708675610,0,295002673,3.91e-05,0.0003138,0.001934,1.335e-05,0.0001974,0.0003138,2.861e-06,9.537e-07,0.00033,0.0001431,2.938,0.008267,0,1,0
56700000000,57000000000,4708675610,0,295002673,4.292e-05,0.0003138,0.001934,1.335e-05,0.0001974,0.0003138,2.861e-06,9.537e-07,0.0002975,7.153e-05,3.072,0.009795,0,1,0
57000000000,57300000000,4708675610,0,295002673,4.482e-05,0.0003138,0.001934,1.335e-05,0.0001984,0.0003138,3.815e-06,9.537e-07,0.0002966,0.0002146,2.946,0.008955,0,1,0
57300000000,57600000000,4708675610,0,295002673,4.387e-05,0.0003138,0.001934,1.335e-05,0.0001984,0.0003138,2.861e-06,9.537e-07,0.0002899,7.153e-05,3.036,0.009691,0,1,0
57600000000,57900000000,4708675610,0,295002673,4.292e-05,0.0003138,0.001934,1.431e-05,0.0001984,0.0003138,2.861e-06,9.537e-07,0.0002794,0.0001431,2.759,0.008144,0,1,0
57900000000,58200000000,4708675610,0,295002673,4.196e-05,0.0003138,0.001934,1.431e-05,0.0001984,0.0003138,2.861e-06,9.537e-07,0.0002565,7.153e-05,2.827,0.008635,0,1,0
58200000000,58500000000,4708675610,0,295002673,4.864e-05,0.0003138,0.001934,1.431e-05,0.0001984,0.0003138,1.907e-06,9.537e-07,0.0003309,0.0002146,3.294,0.0105,0,1,0
58500000000,58800000000,4708675610,0,295002673,4.673e-05,0.0003138,0.001934,1.431e-05,0.0001984,0.0003138,2.861e-06,9.537e-07,0.0003195,7.153e-05,2.897,0.008731,0,1,0
58800000000,59100000000,4708675610,0,295002673,4.673e-05,0.0003138,0.001934,1.431e-05,0.0001984,0.0003138,1.907e-05,9.537e-07,0.0003242,0.00293,2.955,0.008865,0,1,0
59100000000,59400000000,4708675610,0,295002673,4.673e-05,0.0003138,0.001934,1.431e-05,0.0001984,0.0003138,2.861e-06,9.537e-07,0.0003061,0.0001431,3.115,0.009877,0,1,0
59400000000,59700000000,4708675610,0,295002673,4.578e-05,0.0003138,0.001934,1.431e-05,0.0001984,0.0003138,3.815e-06,9.537e-07,0.0002995,0.0002861,3.113,0.009602,0,1,0
59700000000,60000000000,4708675610,0,295002673,4.578e-05,0.0003138,0.001934,1.431e-05,0.0001984,0.0003138,2.861e-06,9.537e-07,0.0003624,7.153e-05,3.3,0.01075,0,1,0
60000000000,60300000000,4708675610,0,295002673,4.578e-05,0.0003138,0.001934,1.431e-05,0.0001984,0.0003138,2.861e-06,9.537e-07,0.0002766,0.0001431,2.972,0.00896,0,1,0
60300000000,60600000000,4708675610,0,295002673,4.578e-05,0.0003138,0.001934,1.431e-05,0.0001993,0.0003138,2.861e-06,9.537e-07,0.0002909,7.153e-05,3.106,0.009852,0,1,0
60600000000,60900000000,4708675610,0,295002673,4.578e-05,0.0003138,0.001934,1.526e-05,0.0001993,0.0003147,3.815e-06,9.537e-07,0.0003014,0.0001431,3.385,0.01135,0,1,0
71400000000,71700000000,4708675610,0,336059045,6.866e-05,0.0003242,0.001707,7.534e-05,0.0002375,0.0004673,0.0002499,9.537e-07,0.0047,0.04224,7.45,0.03213,0,1,0
71700000000,72000000000,4708675610,0,336059045,4.387e-05,0.0003099,0.001911,8.297e-05,0.0002661,0.0003099,6.676e-06,9.537e-07,0.0003748,0.0006428,11.21,0.05098,0,1,0
72000000000,72300000000,4708675610,0,336059045,8.488e-05,0.0003138,0.001911,8.202e-05,0.0002661,0.0003147,7.629e-06,9.537e-07,0.007935,0.0004282,0.806,0.0005608,0,1,0
72300000000,72600000000,4708675610,0,336059045,5.15e-05,0.0003147,0.001911,8.202e-05,0.000267,0.0003147,3.815e-06,9.537e-07,0.0003424,0.0002146,6.283,0.02491,0,1,0
73500000000,73800000000,4708675610,0,32084209,7.153e-05,0.0003195,0.001877,8.583e-05,0.0002623,0.000391,0.0002785,9.537e-07,0.007141,0.03717,13.44,0.06026,0,1,0
73800000000,74100000000,4708675610,0,32084209,4.482e-05,0.000309,0.001934,8.583e-05,0.0002689,0.000309,8.583e-06,9.537e-07,0.0003843,0.001572,15.43,0.07256,0,1,0
74100000000,74400000000,4708675610,0,32084209,8.583e-05,0.0003128,0.001934,8.488e-05,0.0002689,0.0003138,2.193e-05,9.537e-07,0.03754,0.001286,5.842,0.02276,0,1,0
75900000000,76200000000,4708675610,0,4469987630,0.0003595,0.0003462,0.001839,0.000124,0.0002851,0.001476,0.0003195,9.537e-07,0.007233,0.03204,6.434,0.02665,0,1,0
85800000000,86100000000,4708675610,0,317330974,5.436e-05,0.0003147,0.001934,8.202e-05,0.0002661,0.0003147,1.812e-05,9.537e-07,0.0003538,0.002213,6.876,0.02651,0,1,0
86700000000,87000000000,4708675610,0,38681254,8.297e-05,0.0003309,0.001934,8.488e-05,0.000268,0.0004406,7.629e-06,9.537e-07,0.009186,0.0005713,1.084,0.001798,0,1,0
87000000000,87300000000,4708675610,0,38681254,5.341e-05,0.0003128,0.001934,8.392e-05,0.000268,0.0003138,9.537e-06,9.537e-07,0.003952,0.0007143,3.594,0.0134,0,1,0
87300000000,87600000000,4708675610,0,38681254,5.245e-05,0.0003147,0.001934,8.488e-05,0.0002689,0.0003147,2.861e-06,9.537e-07,0.0003643,7.153e-05,3.635,0.01323,0,1,0
87600000000,87900000000,4708675610,0,38681254,4.482e-05,0.0003147,0.001934,8.488e-05,0.0002689,0.0003147,2.861e-06,9.537e-07,0.0002785,7.153e-05,3.14,0.01097,0,1,0
87900000000,88200000000,4708675610,0,38681254,4.482e-05,0.0003147,0.001934,8.488e-05,0.0002699,0.0003147,2.861e-06,9.537e-07,0.0002642,7.153e-05,3.155,0.0112,0,1,0
88200000000,88500000000,4708675610,0,38681254,4.673e-05,0.0003147,0.001934,8.488e-05,0.0002699,0.0003147,2.861e-06,9.537e-07,0.0003147,7.153e-05,3.226,0.01126,0,1,0
88500000000,88800000000,4708675610,0,38681254,4.482e-05,0.0003147,0.001934,8.583e-05,0.0002699,0.0003147,2.861e-06,9.537e-07,0.0003853,7.153e-05,3.15,0.01026,0,1,0
88800000000,89100000000,4708675610,0,38681254,4.578e-05,0.0003147,0.001934,8.583e-05,0.0002699,0.0003147,2.861e-06,9.537e-07,0.0003481,7.153e-05,3.276,0.01132,0,1,0
89100000000,89400000000,4708675610,0,38681254,4.578e-05,0.0003147,0.001934,8.583e-05,0.0002699,0.0003147,2.861e-06,9.537e-07,0.0003233,7.153e-05,3.075,0.01051,0,1,0
89400000000,89700000000,4708675610,0,38681254,4.673e-05,0.0003147,0.001934,8.488e-05,0.0002689,0.0003147,4.768e-06,9.537e-07,0.000288,0.0005713,3.389,0.01166,0,1,0
89700000000,90000000000,4708675610,0,38681254,4.673e-05,0.0003157,0.001934,8.392e-05,0.000268,0.0003157,3.815e-06,9.537e-07,0.0002842,0.0001431,3.443,0.012,0,1,0
90000000000,90300000000,4708675610,0,38681254,4.673e-05,0.0003157,0.001934,8.392e-05,0.000268,0.0003157,3.815e-06,9.537e-07,0.0003262,7.153e-05,3.501,0.01172,0,1,0
90300000000,90600000000,4708675610,0,38681254,4.578e-05,0.0003157,0.001934,8.392e-05,0.000268,0.0003157,2.861e-06,9.537e-07,0.0003328,7.153e-05,3.315,0.01132,0,1,0
90600000000,90900000000,4708675610,0,38681254,4.673e-05,0.0003157,0.001934,8.392e-05,0.000268,0.0003157,2.861e-06,9.537e-07,0.00033,7.153e-05,3.27,0.01098,0,1,0
109500000000,109800000000,4708675610,0,1341795,0.0003052,0.0002432,0.001213,6.771e-05,0.0001774,0.001425,0.0001907,9.537e-07,0.00396,0.03571,1.009,0.001446,0,1,0
109800000000,110100000000,4708675610,0,1341795,3.147e-05,0.000309,0.001909,8.392e-05,0.000267,0.000309,9.537e-06,9.537e-07,0.0002689,0.002071,4.976,0.02272,0,1,0
110100000000,110400000000,4708675610,0,1341795,6.962e-05,0.0003119,0.001909,8.297e-05,0.000267,0.0003138,4.768e-06,9.537e-07,0.009003,0.0005713,0.7554,0.0004062,0,1,0
110400000000,110700000000,4708675610,0,1341795,4.578e-05,0.0003138,0.001909,8.297e-05,0.000267,0.0003138,2.861e-06,9.537e-07,0.00033,7.153e-05,3.737,0.01357,0,1,0
110700000000,111000000000,4708675610,0,1341795,4.482e-05,0.0003138,0.001909,8.297e-05,0.000268,0.0003138,5.722e-06,9.537e-07,0.0003843,0.0005713,3.325,0.0109,0,1,0
116400000000,116700000000,4708675610,0,38742677,0.0002956,0.0003195,0.001816,8.774e-05,0.000246,0.001354,0.0002365,9.537e-07,0.02072,0.06042,17.33,0.09951,0,1,0
117000000000,117300000000,4708675610,0,1436293720,0.0004187,0.000308,0.001814,8.774e-05,0.0001955,0.001299,0.0002003,9.537e-07,0.004906,0.03497,1.128,0.00176,0,1,0
117300000000,117600000000,4708675610,0,1436293720,4.387e-05,0.000309,0.00193,0.0001001,0.0002832,0.0003099,2.861e-06,9.537e-07,0.0002747,7.153e-05,8.973,0.03887,0,1,0
117600000000,117900000000,4708675610,0,1436293720,6.866e-05,0.0003119,0.00193,9.727e-05,0.0002813,0.0003138,3.815e-06,9.537e-07,0.004929,0.0002861,0.9382,0.001141,0,1,0
117900000000,118200000000,4708675610,0,1436293720,5.436e-05,0.0003138,0.00193,8.583e-05,0.0002699,0.0003147,2.861e-06,9.537e-07,0.0003376,0.0001431,5.474,0.0206,0,1,0
118200000000,118500000000,4708675610,0,1436293720,5.054e-05,0.0003147,0.00193,8.583e-05,0.0002699,0.0003147,2.861e-06,9.537e-07,0.0003099,7.153e-05,4.46,0.01544,0,1,0
118500000000,118800000000,4708675610,0,1436293720,4.864e-05,0.0003147,0.00193,8.583e-05,0.0002708,0.0003147,2.861e-06,9.537e-07,0.0002842,7.153e-05,4.628,0.01647,0,1,0
118800000000,119100000000,4708675610,0,1436293720,5.054e-05,0.0003147,0.00193,8.583e-05,0.0002708,0.0003147,4.768e-06,9.537e-07,0.0002909,0.0005713,4.654,0.01619,0,1,0
119100000000,119400000000,4708675610,0,1436293720,5.054e-05,0.0003147,0.00193,8.678e-05,0.0002708,0.0003147,2.861e-06,9.537e-07,0.000308,0.0001431,4.578,0.016,0,1,0
119400000000,119700000000,4708675610,0,1436293720,5.15e-05,0.0003147,0.00193,8.678e-05,0.0002708,0.0003157,2.861e-06,9.537e-07,0.000309,7.153e-05,4.96,0.01759,0,1,0
119700000000,120000000000,4708675610,0,1436293720,5.341e-05,0.0003147,0.00193,8.678e-05,0.0002708,0.0003157,2.861e-06,9.537e-07,0.0003004,7.153e-05,4.467,0.01509,0,1,0
126300000000,126600000000,4708675610,0,156849050,0.0003967,0.0003014,0.001831,1.24e-05,0.0001812,0.001381,4.196e-05,9.537e-07,0.006233,0.007568,24.32,0.1159,0,1,0
126600000000,126900000000,4708675610,0,156849050,4.482e-05,0.0003109,0.001934,9.537e-06,0.0001926,0.0003109,4.768e-06,9.537e-07,0.0004349,0.0004282,23.36,0.1114,0,1,0
127200000000,127500000000,4708675610,0,38667393,5.817e-05,0.0003004,0.001841,1.335e-05,0.000185,0.0003424,5.245e-05,9.537e-07,0.005363,0.005356,5.735,0.02583,0,1,0
127500000000,127800000000,4708675610,0,38667393,3.91e-05,0.000309,0.001917,1.717e-05,0.0002003,0.0003099,1.335e-05,9.537e-07,0.0002928,0.001358,6,0.02788,0,1,0
127800000000,128100000000,4708675610,0,38667393,8.011e-05,0.0003128,0.001917,2.098e-05,0.000205,0.0003138,3.052e-05,9.537e-07,0.007721,0.002857,3.809,0.01447,0,1,0
128100000000,128400000000,4708675610,0,38667393,4.292e-05,0.0003138,0.001917,2.193e-05,0.000206,0.0003138,1.717e-05,9.537e-07,0.0002546,0.001715,3.008,0.01027,0,1,0
128400000000,128700000000,4708675610,0,38667393,4.196e-05,0.0003138,0.001917,2.193e-05,0.000206,0.0003138,1.24e-05,9.537e-07,0.0002842,0.001143,3.063,0.01047,0,1,0
128700000000,129000000000,4708675610,0,38667393,4.768e-05,0.0003138,0.001917,2.193e-05,0.000206,0.0003138,2.098e-05,9.537e-07,0.0002975,0.001858,3.38,0.01158,0,1,0
129000000000,129300000000,4708675610,0,38667393,4.578e-05,0.0003138,0.001917,2.193e-05,0.000206,0.0003138,1.717e-05,9.537e-07,0.0003023,0.001715,3.279,0.01116,0,1,0
129600000000,129900000000,4708675610,0,1340278,3.719e-05,0.0003166,0.001926,9.346e-05,0.0002766,0.0003996,1.431e-05,9.537e-07,0.0002613,0.002644,2.982,0.01183,0,1,0
130200000000,130500000000,4708675610,0,257338583,6.676e-05,0.0003281,0.001938,8.297e-05,0.0002651,0.000392,4.768e-06,9.537e-07,0.001444,0.0003567,27.8,0.1319,0,1,0
130500000000,130800000000,4708675610,0,257338583,9.823e-05,0.0003109,0.001938,8.202e-05,0.0002651,0.0003147,1.526e-05,9.537e-07,0.01137,0.002071,26.15,0.1249,0,1,0
130800000000,131100000000,4708675610,0,257338583,7.343e-05,0.0003147,0.001938,8.106e-05,0.0002651,0.0003157,1.049e-05,9.537e-07,0.00127,0.001143,13.1,0.0591,0,1,0
141000000000,141300000000,4708675610,0,3832630,4.864e-05,0.0003128,0.001934,8.774e-05,0.0002718,0.0003128,2.861e-06,9.537e-07,0.000289,7.153e-05,3.643,0.0135,0,1,0
143700000000,144000000000,4708675610,0,305376347,3.338e-05,0.000308,0.001934,8.202e-05,0.0002651,0.000309,2.861e-06,9.537e-07,0.0002565,7.153e-05,16.62,0.09866,0,1,0
144000000000,144300000000,4708675610,0,305376347,7.343e-05,0.0003109,0.001934,8.202e-05,0.0002651,0.0003128,3.815e-06,9.537e-07,0.009674,0.0002861,5.897,0.02859,0,1,0
144600000000,144900000000,4708675610,0,294862247,4.482e-05,0.000309,0.00193,8.392e-05,0.000267,0.0003262,2.956e-05,9.537e-07,0.0007715,0.002071,21.72,0.1096,0,1,0
144900000000,145200000000,4708675610,0,294862247,7.439e-05,0.0003109,0.00193,8.392e-05,0.000267,0.0003138,1.335e-05,9.537e-07,0.01436,0.002213,9.55,0.04239,0,1,0
145200000000,145500000000,4708675610,0,294862247,5.817e-05,0.0003147,0.00193,8.297e-05,0.000267,0.0003147,1.621e-05,9.537e-07,0.0005007,0.001358,5.655,0.02166,0,1,0
145500000000,145800000000,4708675610,0,294862247,5.15e-05,0.0003147,0.00193,8.297e-05,0.000267,0.0003157,2.289e-05,9.537e-07,0.0006752,0.002357,5.23,0.01993,0,1,0
145800000000,146100000000,4708675610,0,294862247,5.245e-05,0.0003157,0.00193,8.297e-05,0.000268,0.0003157,1.717e-05,9.537e-07,0.0007782,0.002144,4.826,0.01741,0,1,0
151200000000,151500000000,4708675610,0,294862247,5.341e-05,0.0003166,0.00193,8.488e-05,0.0002689,0.0003166,2.384e-05,9.537e-07,0.000392,0.001429,5.485,0.0202,0,1,0
151500000000,151800000000,4708675610,0,294862247,5.341e-05,0.0003166,0.00193,8.488e-05,0.0002689,0.0003166,1.335e-05,9.537e-07,0.0003548,0.001143,5.422,0.01995,0,1,0
151800000000,152100000000,4708675610,0,294862247,5.436e-05,0.0003166,0.00193,8.488e-05,0.0002689,0.0003166,1.812e-05,9.537e-07,0.0006123,0.001358,5.269,0.01902,0,1,0
152100000000,152400000000,4708675610,0,294862247,5.531e-05,0.0003166,0.00193,8.488e-05,0.0002689,0.0003166,1.717e-05,9.537e-07,0.0004072,0.001858,5.331,0.01902,0,1,0
152700000000,153000000000,4708675610,0,1340448,0.0003624,0.0002985,0.001701,8.011e-05,0.0002384,0.001434,0.0002251,9.537e-07,0.004799,0.03851,18.03,0.09997,0,1,0
154200000000,154500000000,4708675610,0,1340448,3.815e-05,0.0003099,0.001934,1.24e-05,0.0001955,0.0003109,2.289e-05,9.537e-07,0.0008097,0.002857,19.68,0.1071,0,1,0
154500000000,154800000000,4708675610,0,1340448,7.057e-05,0.0003128,0.001934,1.431e-05,0.0001974,0.0003157,2.48e-05,9.537e-07,0.009171,0.002857,9.382,0.04688,0,1,0
154800000000,155100000000,4708675610,0,1340448,5.245e-05,0.0003157,0.001934,1.717e-05,0.0002012,0.0003157,1.431e-05,9.537e-07,0.0007725,0.002857,4.984,0.02051,0,1,0
155100000000,155400000000,4708675610,0,1340448,4.578e-05,0.0003157,0.001934,1.717e-05,0.0002012,0.0003157,7.629e-06,9.537e-07,0.0007963,0.001499,4.499,0.01783,0,1,0
155400000000,155700000000,4708675610,0,1340448,4.578e-05,0.0003157,0.001934,1.717e-05,0.0002012,0.0003157,3.815e-06,9.537e-07,0.000679,0.0001431,4.781,0.01959,0,1,0
155700000000,156000000000,4708675610,0,1340448,4.578e-05,0.0003157,0.001934,1.717e-05,0.0002012,0.0003166,1.812e-05,9.537e-07,0.0005713,0.002644,4.678,0.01884,0,1,0
161100000000,161400000000,4708675610,0,1340448,4.864e-05,0.0003166,0.001934,1.812e-05,0.0002022,0.0003166,1.144e-05,9.537e-07,0.0005932,0.002716,4.076,0.01545,0,1,0
161400000000,161700000000,4708675610,0,1340448,4.768e-05,0.0003166,0.001934,1.812e-05,0.0002022,0.0003166,2.861e-06,9.537e-07,0.0007238,7.153e-05,4.37,0.01708,0,1,0
161700000000,162000000000,4708675610,0,1340448,4.578e-05,0.0003166,0.001934,1.812e-05,0.0002022,0.0003166,2.861e-06,9.537e-07,0.0006905,7.153e-05,4.089,0.01555,0,1,0
162000000000,162300000000,4708675610,0,1340448,4.673e-05,0.0003166,0.001934,1.812e-05,0.0002031,0.0003166,2.861e-06,9.537e-07,0.0002584,7.153e-05,4.148,0.01586,0,1,0
162300000000,162600000000,4708675610,0,1340448,4.768e-05,0.0003166,0.001934,1.907e-05,0.0002031,0.0003166,2.861e-05,9.537e-07,0.0002975,0.002857,4.113,0.01546,0,1,0
162600000000,162900000000,4708675610,0,1340448,4.959e-05,0.0003166,0.001934,1.907e-05,0.0002031,0.0003166,3.052e-05,9.537e-07,0.000288,0.002857,4.58,0.01747,0,1,0
162900000000,163200000000,4708675610,0,1340448,5.054e-05,0.0003166,0.001934,1.907e-05,0.0002031,0.0003176,2.003e-05,9.537e-07,0.0003052,0.002857,4.605,0.01776,0,1,0
163200000000,163500000000,4708675610,0,1340448,4.768e-05,0.0003166,0.001934,1.907e-05,0.0002031,0.0003176,2.861e-06,9.537e-07,0.0002565,7.153e-05,4.699,0.01912,0,1,0
163500000000,163800000000,4708675610,0,1340448,4.959e-05,0.0003176,0.001934,1.907e-05,0.0002031,0.0003176,2.861e-06,9.537e-07,0.0003538,7.153e-05,4.596,0.01839,0,1,0
163800000000,164100000000,4708675610,0,1340448,4.959e-05,0.0003176,0.001934,1.907e-05,0.0002031,0.0003176,2.861e-06,9.537e-07,0.0004177,7.153e-05,4.361,0.01709,0,1,0
164100000000,164400000000,4708675610,0,1340448,4.864e-05,0.0003176,0.001934,1.907e-05,0.0002031,0.0003176,2.861e-06,9.537e-07,0.0005035,7.153e-05,4.521,0.01773,0,1,0
164400000000,164700000000,4708675610,0,1340448,4.864e-05,0.0003176,0.001934,1.907e-05,0.0002031,0.0003176,3.815e-06,9.537e-07,0.0003414,0.0001431,4.166,0.01584,0,1,0
164700000000,165000000000,4708675610,0,1340448,4.959e-05,0.0003176,0.001934,1.907e-05,0.0002031,0.0003176,2.861e-06,9.537e-07,0.0004673,7.153e-05,4.465,0.01767,0,1,0
165000000000,165300000000,4708675610,0,1340448,4.959e-05,0.0003166,0.001934,1.907e-05,0.0002041,0.0003176,2.861e-06,9.537e-07,0.0004377,7.153e-05,4.529,0.01769,0,1,0
165300000000,165600000000,4708675610,0,1340448,4.864e-05,0.0003166,0.001934,2.003e-05,0.0002041,0.0003176,2.861e-06,9.537e-07,0.0007925,0.0001431,4.654,0.01871,0,1,0
165600000000,165900000000,4708675610,0,1340448,4.959e-05,0.0003176,0.001934,2.003e-05,0.0002041,0.0003176,4.101e-05,9.537e-07,0.0004358,0.002857,4.755,0.01888,0,1,0
165900000000,166200000000,4708675610,0,1340448,4.959e-05,0.0003176,0.001934,2.003e-05,0.0002041,0.0003176,9.537e-06,9.537e-07,0.001017,0.001715,4.111,0.01529,0,1,0
166200000000,166500000000,4708675610,0,1340448,5.054e-05,0.0003176,0.001934,2.003e-05,0.0002041,0.0003176,1.526e-05,9.537e-07,0.0006065,0.001858,4.288,0.01666,0,1,0
166500000000,166800000000,4708675610,0,1340448,4.959e-05,0.0003176,0.001934,2.003e-05,0.0002041,0.0003176,3.815e-06,9.537e-07,0.0005417,0.0001431,4.59,0.01832,0,1,0
166800000000,167100000000,4708675610,0,1340448,5.15e-05,0.0003176,0.001934,2.003e-05,0.0002041,0.0003176,1.621e-05,9.537e-07,0.0003605,0.002857,4.36,0.01632,0,1,0
167100000000,167400000000,4708675610,0,1340448,5.245e-05,0.0003176,0.001934,2.003e-05,0.0002041,0.0003176,3.815e-06,9.537e-07,0.0003281,0.0001431,4.527,0.01679,0,1,0
167400000000,167700000000,4708675610,0,1340448,5.15e-05,0.0003176,0.001934,2.003e-05,0.000205,0.0003176,3.815e-06,9.537e-07,0.0005503,0.0004282,4.609,0.0171,0,1,0
167700000000,168000000000,4708675610,0,1340448,5.15e-05,0.0003176,0.001934,2.098e-05,0.000205,0.0003176,3.815e-06,9.537e-07,0.0008821,0.0001431,4.834,0.01873,0,1,0
168000000000,168300000000,4708675610,0,1340448,5.15e-05,0.0003176,0.001934,2.098e-05,0.000205,0.0003176,2.861e-06,9.537e-07,0.0005865,7.153e-05,4.963,0.01963,0,1,0
168300000000,168600000000,4708675610,0,1340448,5.054e-05,0.0003176,0.001934,2.098e-05,0.000205,0.0003176,1.24e-05,9.537e-07,0.0004349,0.002857,5.424,0.022,0,1,0
168600000000,168900000000,4708675610,0,1340448,5.054e-05,0.0003176,0.001934,2.098e-05,0.000205,0.0003176,1.24e-05,9.537e-07,0.0008926,0.002857,4.454,0.01677,0,1,0
168900000000,169200000000,4708675610,0,1340448,4.959e-05,0.0003176,0.001934,2.098e-05,0.000205,0.0003176,3.815e-06,9.537e-07,0.0003176,7.153e-05,4.495,0.01747,0,1,0
169200000000,169500000000,4708675610,0,1340448,4.959e-05,0.0003176,0.001934,2.098e-05,0.000205,0.0003176,2.861e-06,9.537e-07,0.0004063,7.153e-05,4.636,0.01812,0,1,0
169500000000,169800000000,4708675610,0,1340448,5.054e-05,0.0003176,0.001934,2.098e-05,0.000205,0.0003176,6.676e-06,9.537e-07,0.0003309,0.001215,4.455,0.0171,0,1,0
169800000000,170100000000,4708675610,0,1340448,4.959e-05,0.0003176,0.001934,2.098e-05,0.000205,0.0003176,1.144e-05,9.537e-07,0.0005703,0.002644,4.104,0.01506,0,1,0
170100000000,170400000000,4708675610,0,1340448,4.959e-05,0.0003176,0.001934,2.098e-05,0.000205,0.0003176,2.861e-06,9.537e-07,0.0006218,7.153e-05,4.008,0.01459,0,1,0
170400000000,170700000000,4708675610,0,1340448,4.959e-05,0.0003176,0.001934,2.098e-05,0.000205,0.0003176,1.24e-05,9.537e-07,0.0004396,0.002857,3.848,0.01379,0,1,0
170700000000,171000000000,4708675610,0,1340448,5.054e-05,0.0003176,0.001934,2.098e-05,0.000206,0.0003176,3.815e-06,9.537e-07,0.000453,0.0002146,4.157,0.0156,0,1,0
171000000000,171300000000,4708675610,0,1340448,5.054e-05,0.0003176,0.001934,2.193e-05,0.000206,0.0003176,3.815e-06,9.537e-07,0.001024,0.0004282,4.012,0.01478,0,1,0
171300000000,171600000000,4708675610,0,1340448,5.15e-05,0.0003176,0.001934,2.193e-05,0.000206,0.0003185,3.242e-05,9.537e-07,0.0008249,0.004074,4.095,0.01447,0,1,0
171600000000,171900000000,4708675610,0,1340448,4.959e-05,0.0003176,0.001934,2.193e-05,0.000206,0.0003185,2.861e-06,9.537e-07,0.000906,0.0001431,4.434,0.01651,0,1,0
171900000000,172200000000,4708675610,0,1340448,5.15e-05,0.0003176,0.001934,2.193e-05,0.000206,0.0003185,1.335e-05,9.537e-07,0.0009308,0.002857,4.579,0.01739,0,1,0
172200000000,172500000000,4708675610,0,1340448,4.864e-05,0.0003176,0.001934,2.193e-05,0.000206,0.0003176,1.621e-05,9.537e-07,0.0006647,0.002857,4.571,0.01758,0,1,0
172500000000,172800000000,4708675610,0,1340448,4.959e-05,0.0003176,0.001934,2.193e-05,0.0002069,0.0003176,9.537e-06,9.537e-07,0.0005836,0.001928,4.399,0.01647,0,1,0
172800000000,173100000000,4708675610,0,1340448,5.15e-05,0.0003176,0.001934,2.193e-05,0.0002069,0.0003176,2.956e-05,9.537e-07,0.00106,0.002857,4.101,0.01466,0,1,0
173100000000,173400000000,4708675610,0,1340448,5.054e-05,0.0003176,0.001934,2.289e-05,0.0002069,0.0003176,3.815e-06,9.537e-07,0.00107,0.0002146,4.238,0.01556,0,1,0
173400000000,173700000000,4708675610,0,1340448,5.15e-05,0.0003176,0.001934,2.289e-05,0.0002069,0.0003176,5.722e-06,9.537e-07,0.001131,0.0008574,3.922,0.01393,0,1,0
173700000000,174000000000,4708675610,0,1340448,5.054e-05,0.0003176,0.001934,2.289e-05,0.0002069,0.0003185,9.537e-06,9.537e-07,0.001215,0.002071,3.868,0.01345,0,1,0
174000000000,174300000000,4708675610,0,1340448,5.054e-05,0.0003176,0.001934,2.289e-05,0.0002069,0.0003185,2.861e-06,9.537e-07,0.001362,7.153e-05,4.142,0.01535,0,1,0
174300000000,174600000000,4708675610,0,1340448,4.959e-05,0.0003176,0.001934,2.289e-05,0.0002069,0.0003185,1.24e-05,9.537e-07,0.0004168,0.002857,4.084,0.01476,0,1,0
174600000000,174900000000,4708675610,0,1340448,5.15e-05,0.0003185,0.001934,2.289e-05,0.0002069,0.0003185,2.861e-06,9.537e-07,0.0004606,7.153e-05,4.046,0.01476,0,1,0
174900000000,175200000000,4708675610,0,1340448,5.054e-05,0.0003185,0.001934,2.289e-05,0.0002069,0.0003185,5.722e-06,9.537e-07,0.001019,0.0007143,3.96,0.01406,0,1,0
175200000000,175500000000,4708675610,0,1340448,4.864e-05,0.0003185,0.001934,2.289e-05,0.0002069,0.0003185,2.861e-06,9.537e-07,0.0012,7.153e-05,4.333,0.01632,0,1,0
175500000000,175800000000,4708675610,0,1340448,4.959e-05,0.0003176,0.001934,2.289e-05,0.0002079,0.0003185,8.583e-06,9.537e-07,0.001013,0.001572,4.138,0.01535,0,1,0
175800000000,176100000000,4708675610,0,1340448,4.864e-05,0.0003185,0.001934,2.289e-05,0.0002079,0.0003185,2.861e-06,9.537e-07,0.001085,7.153e-05,4.029,0.01493,0,1,0
186300000000,186600000000,4708675610,0,294847196,5.245e-05,0.0003157,0.001934,8.297e-05,0.000268,0.0003157,6.676e-06,9.537e-07,0.0006533,0.0008574,4.964,0.01809,0,1,0
186600000000,186900000000,4708675610,0,294847196,5.15e-05,0.0003157,0.001934,8.297e-05,0.000268,0.0003157,3.815e-06,9.537e-07,0.0006599,0.0002146,4.817,0.01729,0,1,0
186900000000,187200000000,4708675610,0,294847196,5.054e-05,0.0003157,0.001934,8.297e-05,0.000268,0.0003157,2.861e-06,9.537e-07,0.000803,7.153e-05,5.442,0.02045,0,1,0
187200000000,187500000000,4708675610,0,294847196,5.341e-05,0.0003157,0.001934,8.392e-05,0.000268,0.0003157,3.815e-06,9.537e-07,0.0007629,7.153e-05,5.358,0.0193,0,1,0
187500000000,187800000000,4708675610,0,294847196,5.245e-05,0.0003157,0.001934,8.392e-05,0.000268,0.0003157,2.861e-06,9.537e-07,0.0004663,7.153e-05,5.967,0.02279,0,1,0
187800000000,188100000000,4708675610,0,294847196,5.245e-05,0.0003157,0.001934,8.392e-05,0.000268,0.0003157,2.861e-06,9.537e-07,0.0007858,7.153e-05,5.369,0.01959,0,1,0
188100000000,188400000000,4708675610,0,294847196,5.341e-05,0.0003157,0.001934,8.392e-05,0.000268,0.0003157,2.861e-06,9.537e-07,0.0007076,7.153e-05,5.261,0.01952,0,1,0
188400000000,188700000000,4708675610,0,294847196,5.245e-05,0.0003157,0.001934,8.392e-05,0.000268,0.0003157,2.861e-06,9.537e-07,0.0007467,0.0001431,5.76,0.02187,0,1,0
188700000000,189000000000,4708675610,0,294847196,5.341e-05,0.0003157,0.001934,8.392e-05,0.000268,0.0003157,3.815e-06,9.537e-07,0.000762,0.0001431,6.157,0.02438,0,1,0
189000000000,189300000000,4708675610,0,294847196,5.531e-05,0.0003157,0.001934,8.392e-05,0.000268,0.0003157,2.861e-06,9.537e-07,0.0007811,7.153e-05,4.93,0.01786,0,1,0
189300000000,189600000000,4708675610,0,294847196,5.341e-05,0.0003157,0.001934,8.392e-05,0.000268,0.0003157,3.815e-06,9.537e-07,0.0007038,7.153e-05,5.517,0.02087,0,1,0
189600000000,189900000000,4708675610,0,294847196,5.341e-05,0.0003157,0.001934,8.392e-05,0.0002689,0.0003157,3.815e-06,9.537e-07,0.0008135,0.0002146,4.937,0.01779,0,1,0
189900000000,190200000000,4708675610,0,294847196,5.245e-05,0.0003157,0.001934,8.392e-05,0.0002689,0.0003157,2.861e-06,9.537e-07,0.0008163,7.153e-05,5.262,0.01976,0,1,0
190200000000,190500000000,4708675610,0,294847196,5.341e-05,0.0003157,0.001934,8.488e-05,0.0002689,0.0003157,3.815e-06,9.537e-07,0.0006514,7.153e-05,4.998,0.01805,0,1,0
190500000000,190800000000,4708675610,0,294847196,5.245e-05,0.0003157,0.001934,8.488e-05,0.0002689,0.0003157,2.861e-06,9.537e-07,0.0006676,7.153e-05,5.55,0.0201,0,1,0
190800000000,191100000000,4708675610,0,294847196,5.245e-05,0.0003157,0.001934,8.488e-05,0.0002689,0.0003157,4.768e-06,9.537e-07,0.000742,0.0004282,5.467,0.02033,0,1,0
191100000000,191400000000,4708675610,0,294847196,5.245e-05,0.0003157,0.001934,8.488e-05,0.0002689,0.0003157,2.861e-06,9.537e-07,0.0008268,7.153e-05,5.492,0.02058,0,1,0
191400000000,191700000000,4708675610,0,294847196,5.341e-05,0.0003157,0.001934,8.488e-05,0.0002689,0.0003157,2.861e-06,9.537e-07,0.0003023,0.0001431,5.187,0.01919,0,1,0
191700000000,192000000000,4708675610,0,294847196,5.245e-05,0.0003157,0.001934,8.488e-05,0.0002689,0.0003157,2.861e-06,9.537e-07,0.0005531,7.153e-05,6.27,0.02453,0,1,0
192000000000,192300000000,4708675610,0,294847196,5.245e-05,0.0003157,0.001934,8.488e-05,0.0002689,0.0003166,3.815e-06,9.537e-07,0.0006533,0.0001431,5.73,0.02185,0,1,0
192300000000,192600000000,4708675610,0,294847196,5.341e-05,0.0003157,0.001934,8.488e-05,0.0002689,0.0003166,1.049e-05,9.537e-07,0.0003109,0.001358,6.281,0.0239,0,1,0
192600000000,192900000000,4708675610,0,294847196,5.341e-05,0.0003157,0.001934,8.488e-05,0.0002699,0.0003166,2.861e-06,9.537e-07,0.0003624,0.0001431,5.723,0.02195,0,1,0
192900000000,193200000000,4708675610,0,294847196,5.341e-05,0.0003166,0.001934,8.488e-05,0.0002699,0.0003166,3.815e-06,9.537e-07,0.000433,0.0001431,5.709,0.02166,0,1,0
193200000000,193500000000,4708675610,0,294847196,5.341e-05,0.0003166,0.001934,8.488e-05,0.0002699,0.0003166,3.815e-06,9.537e-07,0.0004044,0.0002146,5.335,0.01972,0,1,0
193500000000,193800000000,4708675610,0,294847196,5.15e-05,0.0003166,0.001934,8.583e-05,0.0002699,0.0003166,6.676e-06,9.537e-07,0.0003166,0.0009289,5.293,0.01966,0,1,0
193800000000,194100000000,4708675610,0,294847196,5.054e-05,0.0003166,0.001934,8.583e-05,0.0002699,0.0003166,5.722e-06,9.537e-07,0.0003347,0.0005713,5.305,0.02017,0,1,0
194100000000,194400000000,4708675610,0,294847196,5.436e-05,0.0003157,0.001934,8.583e-05,0.0002699,0.0003157,2.861e-06,9.537e-07,0.000392,7.153e-05,5.213,0.01926,0,1,0
194400000000,194700000000,4708675610,0,294847196,5.341e-05,0.0003157,0.001934,8.583e-05,0.0002699,0.0003157,3.815e-06,9.537e-07,0.0003023,7.153e-05,5.044,0.01808,0,1,0
194700000000,195000000000,4708675610,0,294847196,5.245e-05,0.0003157,0.001934,8.583e-05,0.0002699,0.0003157,1.24e-05,9.537e-07,0.0003119,0.002857,5.04,0.01861,0,1,0
195000000000,195300000000,4708675610,0,294847196,5.341e-05,0.0003157,0.001934,8.583e-05,0.0002699,0.0003157,2.861e-06,9.537e-07,0.0003357,0.0001431,4.954,0.01788,0,1,0
195300000000,195600000000,4708675610,0,294847196,5.15e-05,0.0003157,0.001934,8.583e-05,0.0002699,0.0003157,2.861e-06,9.537e-07,0.0003214,7.153e-05,5.245,0.01938,0,1,0
195600000000,195900000000,4708675610,0,294847196,5.341e-05,0.0003157,0.001934,8.583e-05,0.0002708,0.0003157,3.815e-06,9.537e-07,0.0003519,7.153e-05,5.387,0.01988,0,1,0
195900000000,196200000000,4708675610,0,294847196,5.245e-05,0.0003157,0.001934,8.583e-05,0.0002708,0.0003157,3.815e-06,9.537e-07,0.0004091,7.153e-05,5.462,0.0205,0,1,0
201300000000,201600000000,4708675610,0,294847196,5.245e-05,0.0003157,0.001934,8.774e-05,0.0002718,0.0003157,2.861e-06,9.537e-07,0.0004063,7.153e-05,5.915,0.02273,0,1,0
201600000000,201900000000,4708675610,0,294847196,5.15e-05,0.0003157,0.001934,8.774e-05,0.0002718,0.0003157,4.768e-06,9.537e-07,0.0002823,0.0005713,5.746,0.02222,0,1,0
201900000000,202200000000,4708675610,0,294847196,5.054e-05,0.0003157,0.001934,8.774e-05,0.0002728,0.0003157,3.815e-06,9.537e-07,0.0002861,0.0001431,5.684,0.02192,0,1,0
202200000000,202500000000,4708675610,0,294847196,5.15e-05,0.0003157,0.001934,8.774e-05,0.0002728,0.0003157,2.861e-06,9.537e-07,0.000288,7.153e-05,5.688,0.02228,0,1,0
202500000000,202800000000,4708675610,0,294847196,5.054e-05,0.0003157,0.001934,8.869e-05,0.0002728,0.0003157,2.861e-06,9.537e-07,0.0003128,7.153e-05,5.81,0.02317,0,1,0
202800000000,203100000000,4708675610,0,294847196,5.15e-05,0.0003157,0.001934,8.869e-05,0.0002728,0.0003157,3.815e-06,9.537e-07,0.0002937,0.0001431,7.389,0.03054,0,1,0
203100000000,203400000000,4708675610,0,294847196,5.436e-05,0.0003157,0.001934,8.869e-05,0.0002728,0.0003157,7.629e-06,9.537e-07,0.0003862,0.0007143,5.377,0.02068,0,1,0
203400000000,203700000000,4708675610,0,294847196,5.531e-05,0.0003157,0.001934,8.869e-05,0.0002728,0.0003157,5.722e-06,9.537e-07,0.0003061,0.0007858,7.071,0.02775,0,1,0
203700000000,204000000000,4708675610,0,294847196,5.817e-05,0.0003157,0.001934,8.869e-05,0.0002728,0.0003157,3.815e-06,9.537e-07,0.0003233,0.0002146,6.766,0.02496,0,1,0
204000000000,204300000000,4708675610,0,294847196,5.054e-05,0.0003157,0.001934,8.869e-05,0.0002728,0.0003157,2.861e-06,9.537e-07,0.0003099,7.153e-05,5.717,0.02117,0,1,0
204300000000,204600000000,4708675610,0,294847196,5.054e-05,0.0003157,0.001934,8.869e-05,0.0002737,0.0003157,4.768e-06,9.537e-07,0.0002794,0.0001431,4.815,0.01741,0,1,0
204600000000,204900000000,4708675610,0,294847196,5.054e-05,0.0003157,0.001934,8.869e-05,0.0002737,0.0003157,3.815e-06,9.537e-07,0.0003281,0.0001431,5.235,0.01972,0,1,0
204900000000,205200000000,4708675610,0,294847196,5.054e-05,0.0003157,0.001934,8.869e-05,0.0002737,0.0003157,2.861e-06,9.537e-07,0.0003233,7.153e-05,5.347,0.02023,0,1,0
205200000000,205500000000,4708675610,0,294847196,5.245e-05,0.0003157,0.001934,8.965e-05,0.0002737,0.0003157,4.768e-06,9.537e-07,0.000412,0.0006428,6.279,0.02494,0,1,0
205500000000,205800000000,4708675610,0,294847196,4.959e-05,0.0003157,0.001934,8.965e-05,0.0002737,0.0003157,2.861e-06,9.537e-07,0.0002928,7.153e-05,4.928,0.0186,0,1,0
205800000000,206100000000,4708675610,0,294847196,4.959e-05,0.0003157,0.001934,8.965e-05,0.0002737,0.0003157,3.815e-06,9.537e-07,0.0003691,7.153e-05,4.944,0.01875,0,1,0
206100000000,206400000000,4708675610,0,294847196,4.768e-05,0.0003157,0.001934,8.965e-05,0.0002737,0.0003157,2.861e-06,9.537e-07,0.0002823,7.153e-05,5.434,0.0208,0,1,0
206400000000,206700000000,4708675610,0,294847196,4.959e-05,0.0003157,0.001934,8.965e-05,0.0002737,0.0003157,2.861e-06,9.537e-07,0.0002985,7.153e-05,5.15,0.02036,0,1,0
206700000000,207000000000,4708675610,0,294847196,4.768e-05,0.0003157,0.001934,8.965e-05,0.0002737,0.0003157,2.861e-06,9.537e-07,0.0002794,7.153e-05,4.826,0.01858,0,1,0
207000000000,207300000000,4708675610,0,294847196,4.959e-05,0.0003157,0.001934,8.965e-05,0.0002737,0.0003157,2.861e-06,9.537e-07,0.0002823,7.153e-05,5.04,0.01886,0,1,0
207300000000,207600000000,4708675610,0,294847196,4.768e-05,0.0003157,0.001934,8.965e-05,0.0002747,0.0003157,2.861e-06,9.537e-07,0.000349,0.0001431,4.975,0.01925,0,1,0
207600000000,207900000000,4708675610,0,294847196,4.959e-05,0.0003157,0.001934,8.965e-05,0.0002747,0.0003157,3.815e-06,9.537e-07,0.0002823,0.0003567,4.69,0.01731,0,1,0
207900000000,208200000000,4708675610,0,294847196,4.959e-05,0.0003157,0.001934,8.965e-05,0.0002747,0.0003157,6.676e-06,9.537e-07,0.0002775,0.001143,4.922,0.01857,0,1,0
208200000000,208500000000,4708675610,0,294847196,5.054e-05,0.0003157,0.001934,8.965e-05,0.0002747,0.0003157,2.861e-06,9.537e-07,0.0003204,7.153e-05,4.409,0.01577,0,1,0
208500000000,208800000000,4708675610,0,294847196,4.768e-05,0.0003157,0.001934,9.06e-05,0.0002747,0.0003157,3.815e-06,9.537e-07,0.0003338,0.0002861,5.005,0.01925,0,1,0
208800000000,209100000000,4708675610,0,294847196,4.959e-05,0.0003157,0.001934,9.06e-05,0.0002747,0.0003157,2.861e-06,9.537e-07,0.0002747,7.153e-05,4.733,0.01782,0,1,0
209100000000,209400000000,4708675610,0,294847196,4.768e-05,0.0003157,0.001934,9.06e-05,0.0002747,0.0003157,3.815e-06,9.537e-07,0.0002766,0.0001431,4.934,0.01856,0,1,0
209400000000,209700000000,4708675610,0,294847196,4.959e-05,0.0003157,0.001934,9.06e-05,0.0002747,0.0003157,2.861e-06,9.537e-07,0.000371,7.153e-05,4.697,0.01722,0,1,0
209700000000,210000000000,4708675610,0,294847196,4.959e-05,0.0003157,0.001934,9.06e-05,0.0002747,0.0003157,2.861e-06,9.537e-07,0.0002899,7.153e-05,4.716,0.01732,0,1,0
210000000000,210300000000,4708675610,0,294847196,5.15e-05,0.0003157,0.001934,9.06e-05,0.0002747,0.0003157,5.722e-06,9.537e-07,0.0002747,0.0005713,4.638,0.01697,0,1,0
210300000000,210600000000,4708675610,0,294847196,5.341e-05,0.0003157,0.001934,9.06e-05,0.0002756,0.0003157,3.815e-06,9.537e-07,0.0007257,0.0003567,4.985,0.01719,0,1,0
210600000000,210900000000,4708675610,0,294847196,5.341e-05,0.0003157,0.001934,9.06e-05,0.0002756,0.0003157,3.815e-06,9.537e-07,0.0003014,7.153e-05,4.82,0.01659,0,1,0
210900000000,211200000000,4708675610,0,294847196,5.245e-05,0.0003157,0.001934,9.06e-05,0.0002756,0.0003157,3.815e-06,9.537e-07,0.0007639,0.0002146,4.978,0.01711,0,1,0
211200000000,211500000000,4708675610,0,294847196,5.341e-05,0.0003157,0.001934,9.155e-05,0.0002756,0.0003157,4.768e-06,9.537e-07,0.000659,0.0004282,4.805,0.01651,0,1,0
211500000000,211800000000,4708675610,0,294847196,5.15e-05,0.0003157,0.001934,9.155e-05,0.0002756,0.0003157,2.861e-06,9.537e-07,0.0005722,7.153e-05,5.248,0.01894,0,1,0
211800000000,212100000000,4708675610,0,294847196,5.341e-05,0.0003157,0.001934,9.155e-05,0.0002756,0.0003157,2.861e-06,9.537e-07,0.0007734,7.153e-05,5.182,0.01838,0,1,0
212100000000,212400000000,4708675610,0,294847196,5.341e-05,0.0003157,0.001934,9.251e-05,0.0002766,0.0003157,4.768e-06,9.537e-07,0.0005951,0.0004282,5.059,0.01758,0,1,0
212400000000,212700000000,4708675610,0,294847196,5.245e-05,0.0003157,0.001934,9.251e-05,0.0002766,0.0003157,2.861e-06,9.537e-07,0.0007372,7.153e-05,5.244,0.01892,0,1,0
212700000000,213000000000,4708675610,0,294847196,5.341e-05,0.0003157,0.001934,9.251e-05,0.0002775,0.0003157,8.583e-06,9.537e-07,0.000741,0.001715,5.408,0.01929,0,1,0
213000000000,213300000000,4708675610,0,294847196,5.245e-05,0.0003157,0.001934,9.251e-05,0.0002775,0.0003157,3.815e-06,9.537e-07,0.0007572,0.0001431,5.768,0.02136,0,1,0
213300000000,213600000000,4708675610,0,294847196,5.341e-05,0.0003157,0.001934,9.251e-05,0.0002775,0.0003157,2.861e-06,9.537e-07,0.0007439,7.153e-05,4.937,0.01663,0,1,0
213600000000,213900000000,4708675610,0,294847196,5.245e-05,0.0003157,0.001934,9.346e-05,0.0002775,0.0003157,4.768e-06,9.537e-07,0.0007267,0.0006428,4.932,0.01729,0,1,0
213900000000,214200000000,4708675610,0,294847196,5.15e-05,0.0003157,0.001934,9.346e-05,0.0002775,0.0003157,2.861e-06,9.537e-07,0.0008984,7.153e-05,4.886,0.01713,0,1,0
214200000000,214500000000,4708675610,0,294847196,5.245e-05,0.0003157,0.001934,9.346e-05,0.0002775,0.0003157,5.722e-06,9.537e-07,0.0006647,0.0007143,5.558,0.0202,0,1,0
214500000000,214800000000,4708675610,0,294847196,5.341e-05,0.0003157,0.001934,9.346e-05,0.0002775,0.0003157,3.815e-06,9.537e-07,0.0007286,0.0002146,5.15,0.0182,0,1,0
214800000000,215100000000,4708675610,0,294847196,5.245e-05,0.0003157,0.001934,9.346e-05,0.0002775,0.0003157,3.815e-06,9.537e-07,0.0006113,7.153e-05,5.069,0.0177,0,1,0
215100000000,215400000000,4708675610,0,294847196,5.341e-05,0.0003157,0.001934,9.346e-05,0.0002775,0.0003157,2.861e-06,9.537e-07,0.0007458,0.0001431,5.21,0.01838,0,1,0
215400000000,215700000000,4708675610,0,294847196,5.15e-05,0.0003157,0.001934,9.346e-05,0.0002775,0.0003157,3.815e-06,9.537e-07,0.0006037,0.0001431,5.738,0.02142,0,1,0
215700000000,216000000000,4708675610,0,294847196,5.245e-05,0.0003157,0.001934,9.346e-05,0.0002785,0.0003157,2.861e-06,9.537e-07,0.0006647,7.153e-05,5.374,0.01951,0,1,0
216000000000,216300000000,4708675610,0,294847196,5.245e-05,0.0003157,0.001934,9.346e-05,0.0002785,0.0003157,2.861e-06,9.537e-07,0.0005655,7.153e-05,5.351,0.01937,0,1,0
221100000000,221400000000,4708675610,0,294847196,4.959e-05,0.0003157,0.001934,9.537e-05,0.0002794,0.0003157,2.861e-06,9.537e-07,0.000289,7.153e-05,4.83,0.01804,0,1,0
221400000000,221700000000,4708675610,0,294847196,4.959e-05,0.0003157,0.001934,9.537e-05,0.0002794,0.0003157,2.861e-06,9.537e-07,0.0003128,0.0001431,5.255,0.01967,0,1,0
221700000000,222000000000,4708675610,0,294847196,5.054e-05,0.0003157,0.001934,9.537e-05,0.0002804,0.0003157,3.815e-06,9.537e-07,0.0003357,7.153e-05,5.389,0.02041,0,1,0
222000000000,222300000000,4708675610,0,294847196,5.054e-05,0.0003157,0.001934,9.537e-05,0.0002804,0.0003157,2.861e-06,9.537e-07,0.0002871,7.153e-05,5.478,0.02085,0,1,0
222300000000,222600000000,4708675610,0,294847196,5.054e-05,0.0003157,0.001934,9.537e-05,0.0002804,0.0003157,2.861e-06,9.537e-07,0.0003929,7.153e-05,5.095,0.01831,0,1,0
222600000000,222900000000,4708675610,0,294847196,5.15e-05,0.0003157,0.001934,9.632e-05,0.0002804,0.0003157,3.815e-06,9.537e-07,0.0002699,0.0001431,5.474,0.02057,0,1,0
222900000000,223200000000,4708675610,0,294847196,5.15e-05,0.0003157,0.001934,9.632e-05,0.0002804,0.0003157,3.815e-06,9.537e-07,0.0002813,0.0001431,5.124,0.01835,0,1,0
223200000000,223500000000,4708675610,0,294847196,5.15e-05,0.0003157,0.001934,9.632e-05,0.0002804,0.0003157,2.861e-06,9.537e-07,0.0002871,0.0001431,4.673,0.01702,0,1,0
223500000000,223800000000,4708675610,0,294847196,5.341e-05,0.0003157,0.001934,9.632e-05,0.0002804,0.0003157,2.861e-06,9.537e-07,0.0002794,0.0001431,4.848,0.01734,0,1,0
223800000000,224100000000,4708675610,0,294847196,5.341e-05,0.0003157,0.001934,9.632e-05,0.0002804,0.0003157,3.815e-06,9.537e-07,0.0002756,7.153e-05,5.028,0.01849,0,1,0
224100000000,224400000000,4708675610,0,294847196,5.15e-05,0.0003157,0.001934,9.632e-05,0.0002804,0.0003157,3.815e-06,9.537e-07,0.0003099,0.0001431,5.145,0.01944,0,1,0
224400000000,224700000000,4708675610,0,294847196,5.245e-05,0.0003157,0.001934,9.632e-05,0.0002804,0.0003157,2.861e-06,9.537e-07,0.000288,0.0001431,5.425,0.02069,0,1,0
224700000000,225000000000,4708675610,0,294847196,5.15e-05,0.0003157,0.001934,9.632e-05,0.0002804,0.0003157,2.861e-06,9.537e-07,0.0003147,0.0001431,4.985,0.01812,0,1,0
225000000000,225300000000,4708675610,0,294847196,5.341e-05,0.0003157,0.001934,9.632e-05,0.0002813,0.0003157,3.815e-06,9.537e-07,0.0003929,7.153e-05,5.083,0.01858,0,1,0
225300000000,225600000000,4708675610,0,294847196,5.245e-05,0.0003157,0.001934,9.632e-05,0.0002813,0.0003157,2.861e-06,9.537e-07,0.0002794,7.153e-05,5.139,0.01901,0,1,0
225600000000,225900000000,4708675610,0,294847196,5.245e-05,0.0003157,0.001934,9.632e-05,0.0002813,0.0003157,2.861e-06,9.537e-07,0.0002861,7.153e-05,5.355,0.02024,0,1,0
225900000000,226200000000,4708675610,0,294847196,5.15e-05,0.0003157,0.001934,9.727e-05,0.0002813,0.0003157,3.815e-06,9.537e-07,0.0002985,0.0002146,5.231,0.01965,0,1,0
226200000000,226500000000,4708675610,0,294847196,5.15e-05,0.0003157,0.001934,9.727e-05,0.0002813,0.0003157,2.861e-06,9.537e-07,0.000309,7.153e-05,5.74,0.02223,0,1,0
226500000000,226800000000,4708675610,0,294847196,5.054e-05,0.0003157,0.001934,9.727e-05,0.0002813,0.0003157,2.861e-06,9.537e-07,0.0002737,7.153e-05,6.198,0.02388,0,1,0
226800000000,227100000000,4708675610,0,294847196,5.15e-05,0.0003157,0.001934,9.727e-05,0.0002813,0.0003157,2.861e-06,9.537e-07,0.000308,0.0001431,5.046,0.01891,0,1,0
227100000000,227400000000,4708675610,0,294847196,5.15e-05,0.0003157,0.001934,9.727e-05,0.0002813,0.0003166,2.861e-06,9.537e-07,0.0002813,7.153e-05,5.966,0.0234,0,1,0
227400000000,227700000000,4708675610,0,294847196,5.245e-05,0.0003157,0.001934,9.727e-05,0.0002813,0.0003166,5.722e-06,9.537e-07,0.000308,0.0007143,5.415,0.02045,0,1,0
227700000000,228000000000,4708675610,0,294847196,5.245e-05,0.0003157,0.001934,9.727e-05,0.0002813,0.0003157,3.815e-06,9.537e-07,0.0002861,0.0002861,5.06,0.01867,0,1,0
228000000000,228300000000,4708675610,0,294847196,5.15e-05,0.0003157,0.001934,9.727e-05,0.0002823,0.0003157,3.815e-06,9.537e-07,0.0004225,0.0001431,5.063,0.01827,0,1,0
228300000000,228600000000,4708675610,0,294847196,5.15e-05,0.0003157,0.001934,9.727e-05,0.0002823,0.0003157,2.861e-06,9.537e-07,0.0003033,7.153e-05,5.325,0.02014,0,1,0
228600000000,228900000000,4708675610,0,294847196,5.245e-05,0.0003157,0.001934,9.823e-05,0.0002823,0.0003157,2.861e-06,9.537e-07,0.0002899,7.153e-05,5.846,0.02272,0,1,0
228900000000,229200000000,4708675610,0,294847196,5.245e-05,0.0003157,0.001934,9.823e-05,0.0002823,0.0003157,2.861e-06,9.537e-07,0.0004215,7.153e-05,5.276,0.0197,0,1,0
229200000000,229500000000,4708675610,0,294847196,5.054e-05,0.0003157,0.001934,9.823e-05,0.0002823,0.0003157,2.861e-06,9.537e-07,0.0003119,7.153e-05,5.37,0.02051,0,1,0
229500000000,229800000000,4708675610,0,294847196,5.15e-05,0.0003157,0.001934,9.823e-05,0.0002823,0.0003157,2.861e-06,9.537e-07,0.0002956,0.0001431,5.069,0.01794,0,1,0
229800000000,230100000000,4708675610,0,294847196,5.054e-05,0.0003157,0.001934,9.823e-05,0.0002823,0.0003157,3.815e-06,9.537e-07,0.0002766,0.0002146,6.719,0.02709,0,1,0
230100000000,230400000000,4708675610,0,294847196,5.15e-05,0.0003157,0.001934,9.823e-05,0.0002823,0.0003157,6.676e-06,9.537e-07,0.0002804,0.0007858,5.559,0.02091,0,1,0
230400000000,230700000000,4708675610,0,294847196,5.245e-05,0.0003157,0.001934,9.823e-05,0.0002823,0.0003157,4.768e-06,9.537e-07,0.0003033,0.0003567,5.044,0.01814,0,1,0
230700000000,231000000000,4708675610,0,294847196,5.15e-05,0.0003157,0.001934,9.823e-05,0.0002823,0.0003157,4.768e-06,9.537e-07,0.0002689,0.0006428,5.586,0.02116,0,1,0
231000000000,231300000000,4708675610,0,294847196,5.245e-05,0.0003157,0.001934,9.823e-05,0.0002832,0.0003157,3.815e-06,9.537e-07,0.0004301,0.0001431,5.764,0.02162,0,1,0
231300000000,231600000000,4708675610,0,294847196,4.864e-05,0.0003157,0.001934,9.823e-05,0.0002832,0.0003157,5.722e-06,9.537e-07,0.0003424,0.0007143,6.674,0.0269,0,1,0
231600000000,231900000000,4708675610,0,294847196,5.15e-05,0.0003157,0.001934,9.823e-05,0.0002832,0.0003157,3.815e-06,9.537e-07,0.0003567,7.153e-05,5.237,0.01917,0,1,0
231900000000,232200000000,4708675610,0,294847196,5.15e-05,0.0003157,0.001934,9.918e-05,0.0002832,0.0003157,2.861e-06,9.537e-07,0.0007286,7.153e-05,5.305,0.01905,0,1,0
232200000000,232500000000,4708675610,0,294847196,5.245e-05,0.0003157,0.001934,9.918e-05,0.0002832,0.0003166,3.815e-06,9.537e-07,0.0002823,0.0002146,5.486,0.02055,0,1,0
232500000000,232800000000,4708675610,0,294847196,5.054e-05,0.0003157,0.001934,9.918e-05,0.0002832,0.0003166,6.676e-06,9.537e-07,0.0004082,0.0009995,5.265,0.01942,0,1,0
232800000000,233100000000,4708675610,0,294847196,4.959e-05,0.0003157,0.001934,9.918e-05,0.0002832,0.0003166,2.861e-06,9.537e-07,0.0002785,7.153e-05,5.335,0.01975,0,1,0
233100000000,233400000000,4708675610,0,294847196,5.054e-05,0.0003157,0.001934,9.918e-05,0.0002832,0.0003166,2.861e-06,9.537e-07,0.0003099,7.153e-05,5.928,0.02348,0,1,0
233400000000,233700000000,4708675610,0,294847196,5.15e-05,0.0003157,0.001934,9.918e-05,0.0002832,0.0003166,3.815e-06,9.537e-07,0.0003033,0.0001431,5.599,0.02075,0,1,0
233700000000,234000000000,4708675610,0,294847196,5.054e-05,0.0003157,0.001934,9.918e-05,0.0002832,0.0003166,2.861e-06,9.537e-07,0.0002737,7.153e-05,5.595,0.02051,0,1,0
234000000000,234300000000,4708675610,0,294847196,5.15e-05,0.0003157,0.001934,9.918e-05,0.0002842,0.0003166,4.768e-06,9.537e-07,0.0003328,0.0002861,5.424,0.01975,0,1,0
234300000000,234600000000,4708675610,0,294847196,5.15e-05,0.0003157,0.001934,9.918e-05,0.0002842,0.0003166,2.861e-06,9.537e-07,0.0002794,7.153e-05,5.019,0.01801,0,1,0
234600000000,234900000000,4708675610,0,294847196,5.054e-05,0.0003157,0.001934,9.918e-05,0.0002842,0.0003166,3.815e-06,9.537e-07,0.0003214,0.0002146,4.725,0.01699,0,1,0
234900000000,235200000000,4708675610,0,294847196,5.054e-05,0.0003157,0.001934,0.0001001,0.0002842,0.0003157,7.629e-06,9.537e-07,0.0003519,0.0005713,4.473,0.01531,0,1,0
235200000000,235500000000,4708675610,0,294847196,5.054e-05,0.0003157,0.001934,0.0001001,0.0002842,0.0003157,3.815e-06,9.537e-07,0.0003052,0.0002146,4.424,0.01514,0,1,0
235500000000,235800000000,4708675610,0,294847196,5.15e-05,0.0003157,0.001934,0.0001001,0.0002842,0.0003157,2.861e-06,9.537e-07,0.0003834,7.153e-05,4.759,0.01697,0,1,0
235800000000,236100000000,4708675610,0,294847196,5.245e-05,0.0003157,0.001934,0.0001001,0.0002842,0.0003157,5.722e-06,9.537e-07,0.0002804,0.0006428,4.707,0.01642,0,1,0
236100000000,236400000000,4708675610,0,294847196,5.15e-05,0.0003157,0.001934,0.0001001,0.0002842,0.0003157,2.861e-06,9.537e-07,0.0003433,7.153e-05,4.754,0.01646,0,1,0
241200000000,241500000000,4708675610,0,294847196,5.436e-05,0.0003157,0.001934,0.000102,0.0002861,0.0003166,3.815e-06,9.537e-07,0.0007524,0.0001431,4.644,0.01599,0,1,0
241500000000,241800000000,4708675610,0,294847196,5.341e-05,0.0003166,0.001934,0.000102,0.0002861,0.0003166,2.861e-06,9.537e-07,0.0006571,7.153e-05,5.21,0.01878,0,1,0
241800000000,242100000000,4708675610,0,294847196,5.436e-05,0.0003166,0.001934,0.000102,0.0002861,0.0003166,3.815e-06,9.537e-07,0.0008297,7.153e-05,4.335,0.01449,0,1,0
242100000000,242400000000,4708675610,0,294847196,5.531e-05,0.0003166,0.001934,0.000102,0.0002861,0.0003166,2.861e-06,9.537e-07,0.0007963,0.0002146,4.685,0.01593,0,1,0
242400000000,242700000000,4708675610,0,294847196,5.531e-05,0.0003166,0.001934,0.000102,0.0002861,0.0003166,3.815e-06,9.537e-07,0.0007095,7.153e-05,4.639,0.01617,0,1,0
242700000000,243000000000,4708675610,0,294847196,5.436e-05,0.0003157,0.001934,0.000102,0.0002861,0.0003157,3.815e-06,9.537e-07,0.0007324,0.0002861,4.795,0.01639,0,1,0
243000000000,243300000000,4708675610,0,294847196,5.436e-05,0.0003157,0.001934,0.000102,0.0002861,0.0003157,2.861e-06,9.537e-07,0.0007105,7.153e-05,5.172,0.01822,0,1,0
243300000000,243600000000,4708675610,0,294847196,5.436e-05,0.0003157,0.001934,0.000102,0.0002871,0.0003157,2.861e-06,9.537e-07,0.000597,0.0001431,4.917,0.01735,0,1,0
243600000000,243900000000,4708675610,0,294847196,5.245e-05,0.0003157,0.001934,0.000102,0.0002871,0.0003157,3.815e-06,9.537e-07,0.0007715,0.0002861,4.567,0.01572,0,1,0
243900000000,244200000000,4708675610,0,294847196,5.341e-05,0.0003157,0.001934,0.000102,0.0002871,0.0003157,3.815e-06,9.537e-07,0.0007467,0.0001431,4.551,0.0157,0,1,0
244200000000,244500000000,4708675610,0,294847196,5.341e-05,0.0003157,0.001934,0.000103,0.0002871,0.0003157,2.861e-06,9.537e-07,0.0005903,7.153e-05,4.856,0.01721,0,1,0
244500000000,244800000000,4708675610,0,294847196,5.531e-05,0.0003157,0.001934,0.000103,0.0002871,0.0003157,2.861e-06,9.537e-07,0.0005646,7.153e-05,4.648,0.01634,0,1,0
244800000000,245100000000,4708675610,0,294847196,5.436e-05,0.0003157,0.001934,0.000103,0.0002871,0.0003157,2.861e-06,9.537e-07,0.0006771,7.153e-05,4.944,0.01762,0,1,0
245100000000,245400000000,4708675610,0,294847196,5.531e-05,0.0003157,0.001934,0.000103,0.0002871,0.0003166,3.815e-06,9.537e-07,0.0005407,0.0001431,4.816,0.0168,0,1,0
245400000000,245700000000,4708675610,0,294847196,5.627e-05,0.0003157,0.001934,0.000103,0.0002871,0.0003166,2.861e-06,9.537e-07,0.000555,0.0001431,4.929,0.01718,0,1,0
245700000000,246000000000,4708675610,0,294847196,5.531e-05,0.0003157,0.001934,0.000103,0.0002871,0.0003166,6.676e-06,9.537e-07,0.0003986,0.001143,4.374,0.01456,0,1,0
246000000000,246300000000,4708675610,0,294847196,5.531e-05,0.0003157,0.001934,0.000103,0.0002871,0.0003157,5.722e-06,9.537e-07,0.0003834,0.0006428,4.467,0.01491,0,1,0
251400000000,251700000000,4708675610,0,294847196,5.436e-05,0.0003157,0.001934,0.0001049,0.000289,0.0003157,2.861e-06,9.537e-07,0.0004139,7.153e-05,4.767,0.016,0,1,0
251700000000,252000000000,4708675610,0,294847196,5.436e-05,0.0003157,0.001934,0.0001049,0.000289,0.0003157,2.861e-06,9.537e-07,0.0006247,0.0001431,4.779,0.01624,0,1,0
252000000000,252300000000,4708675610,0,294847196,5.341e-05,0.0003157,0.001934,0.0001049,0.000289,0.0003157,6.676e-06,9.537e-07,0.0005903,0.001143,5.849,0.02194,0,1,0
252300000000,252600000000,4708675610,0,294847196,5.436e-05,0.0003157,0.001934,0.0001049,0.0002899,0.0003157,3.815e-06,9.537e-07,0.0007505,0.0003567,5.536,0.02042,0,1,0
252600000000,252900000000,4708675610,0,294847196,5.341e-05,0.0003157,0.001934,0.0001049,0.0002899,0.0003157,2.861e-06,9.537e-07,0.0005922,0.0001431,5.002,0.01707,0,1,0
252900000000,253200000000,4708675610,0,294847196,5.436e-05,0.0003157,0.001934,0.0001049,0.0002899,0.0003157,2.861e-06,9.537e-07,0.0008211,0.0001431,4.877,0.01648,0,1,0
253200000000,253500000000,4708675610,0,294847196,5.341e-05,0.0003157,0.001934,0.0001059,0.0002899,0.0003157,2.861e-06,9.537e-07,0.0008669,0.0001431,5.152,0.01726,0,1,0
253500000000,253800000000,4708675610,0,294847196,5.341e-05,0.0003157,0.001934,0.0001059,0.0002899,0.0003157,2.861e-06,9.537e-07,0.0007782,0.0001431,4.541,0.01445,0,1,0
253800000000,254100000000,4708675610,0,294847196,5.436e-05,0.0003157,0.001934,0.0001059,0.0002899,0.0003157,2.861e-06,9.537e-07,0.0007734,0.0001431,5.084,0.01737,0,1,0
254100000000,254400000000,4708675610,0,294847196,5.341e-05,0.0003157,0.001934,0.0001059,0.0002899,0.0003157,3.815e-06,9.537e-07,0.0006762,0.0001431,4.706,0.0157,0,1,0
254400000000,254700000000,4708675610,0,294847196,5.436e-05,0.0003157,0.001934,0.0001059,0.0002899,0.0003157,4.768e-06,9.537e-07,0.0005989,0.0005713,4.733,0.01579,0,1,0
254700000000,255000000000,4708675610,0,294847196,5.341e-05,0.0003157,0.001934,0.0001059,0.0002899,0.0003157,4.768e-06,9.537e-07,0.0004396,0.0004997,4.89,0.01678,0,1,0
255000000000,255300000000,4708675610,0,294847196,5.341e-05,0.0003157,0.001934,0.0001059,0.0002899,0.0003157,3.815e-06,9.537e-07,0.0007677,7.153e-05,5.293,0.01826,0,1,0
255300000000,255600000000,4708675610,0,294847196,5.531e-05,0.0003157,0.001934,0.0001059,0.0002909,0.0003157,3.815e-06,9.537e-07,0.00037,0.0002146,5.218,0.01822,0,1,0
255600000000,255900000000,4708675610,0,294847196,6.008e-05,0.0003157,0.001934,0.0001059,0.0002909,0.0003157,5.722e-06,9.537e-07,0.0008516,0.0004997,6.29,0.02327,0,1,0
255900000000,256200000000,4708675610,0,294847196,5.913e-05,0.0003157,0.001934,0.0001059,0.0002909,0.0003166,5.722e-06,9.537e-07,0.0003576,0.0002861,8.411,0.03411,0,1,0
259500000000,259800000000,4708675610,0,294855039,5.15e-05,0.0003119,0.001921,9.441e-05,0.0002775,0.0003424,4.768e-06,9.537e-07,0.0003872,0.0005713,7.294,0.03184,0,1,0
259800000000,260100000000,4708675610,0,294855039,8.202e-05,0.0003128,0.001921,9.155e-05,0.0002747,0.0003157,2.861e-06,9.537e-07,0.009949,7.153e-05,0.9659,0.001317,0,1,0
260100000000,260400000000,4708675610,0,294855039,6.008e-05,0.0003157,0.001921,8.392e-05,0.000268,0.0003157,1.907e-06,9.537e-07,0.0003777,7.153e-05,3.886,0.01349,0,1,0
260400000000,260700000000,4708675610,0,294855039,4.768e-05,0.0003157,0.001921,8.392e-05,0.000268,0.0003157,2.861e-06,9.537e-07,0.0002851,0.0001431,3.838,0.01341,0,1,0
260700000000,261000000000,4708675610,0,294855039,5.054e-05,0.0003157,0.001921,8.392e-05,0.000268,0.0003166,4.768e-06,9.537e-07,0.0003023,0.0004282,3.41,0.01125,0,1,0
261000000000,261300000000,4708675610,0,294855039,4.864e-05,0.0003166,0.001921,8.297e-05,0.000267,0.0003166,3.815e-06,9.537e-07,0.0003395,0.0002146,3.723,0.01282,0,1,0
261300000000,261600000000,4708675610,0,294855039,4.959e-05,0.0003166,0.001921,8.106e-05,0.0002661,0.0003166,2.861e-06,9.537e-07,0.0005941,7.153e-05,3.51,0.01164,0,1,0
261600000000,261900000000,4708675610,0,294855039,4.768e-05,0.0003166,0.001921,8.202e-05,0.0002661,0.0003166,3.815e-06,9.537e-07,0.0005503,7.153e-05,3.662,0.01262,0,1,0
261900000000,262200000000,4708675610,0,294855039,5.054e-05,0.0003166,0.001921,8.202e-05,0.0002661,0.0003166,5.722e-06,9.537e-07,0.0005856,0.0005713,3.13,0.00985,0,1,0
262200000000,262500000000,4708675610,0,294855039,4.864e-05,0.0003166,0.001921,8.202e-05,0.0002661,0.0003166,3.815e-06,9.537e-07,0.0006609,0.0001431,3.209,0.01021,0,1,0
262500000000,262800000000,4708675610,0,294855039,4.959e-05,0.0003166,0.001921,8.202e-05,0.0002661,0.0003166,1.24e-05,9.537e-07,0.0008373,0.002213,3.36,0.01081,0,1,0
262800000000,263100000000,4708675610,0,294855039,5.054e-05,0.0003166,0.001921,8.202e-05,0.0002661,0.0003166,3.815e-06,9.537e-07,0.0007153,7.153e-05,3.568,0.01182,0,1,0
263100000000,263400000000,4708675610,0,294855039,4.864e-05,0.0003166,0.001921,8.202e-05,0.0002661,0.0003166,7.629e-06,9.537e-07,0.0005407,0.001572,3.431,0.01158,0,1,0
263400000000,263700000000,4708675610,0,294855039,4.959e-05,0.0003166,0.001921,8.202e-05,0.0002661,0.0003166,8.583e-06,9.537e-07,0.0007505,0.0007858,3.35,0.01073,0,1,0
263700000000,264000000000,4708675610,0,294855039,5.054e-05,0.0003166,0.001921,8.202e-05,0.0002661,0.0003166,3.815e-06,9.537e-07,0.0008354,0.0001431,3.866,0.01297,0,1,0
264000000000,264300000000,4708675610,0,294855039,4.959e-05,0.0003166,0.001921,8.202e-05,0.000267,0.0003176,3.815e-06,9.537e-07,0.0008259,0.0001431,3.483,0.01135,0,1,0
264300000000,264600000000,4708675610,0,294855039,4.864e-05,0.0003166,0.001921,8.202e-05,0.000267,0.0003176,2.861e-06,9.537e-07,0.0006037,7.153e-05,3.543,0.01199,0,1,0
264600000000,264900000000,4708675610,0,294855039,4.959e-05,0.0003166,0.001921,8.202e-05,0.000267,0.0003176,5.722e-06,9.537e-07,0.0007191,0.0007143,3.477,0.01158,0,1,0
264900000000,265200000000,4708675610,0,294855039,4.864e-05,0.0003166,0.001921,8.297e-05,0.000267,0.0003176,1.24e-05,9.537e-07,0.0006762,0.002644,3.645,0.01256,0,1,0
265200000000,265500000000,4708675610,0,294855039,4.864e-05,0.0003166,0.001921,8.297e-05,0.000267,0.0003176,5.722e-06,9.537e-07,0.0006113,0.0007143,3.722,0.01274,0,1,0
265500000000,265800000000,4708675610,0,294855039,4.959e-05,0.0003166,0.001921,8.297e-05,0.000267,0.0003176,5.722e-06,9.537e-07,0.0006161,0.0007858,3.634,0.01249,0,1,0
265800000000,266100000000,4708675610,0,294855039,4.959e-05,0.0003166,0.001921,8.297e-05,0.000267,0.0003166,4.768e-06,9.537e-07,0.0008335,0.0004282,3.4,0.01138,0,1,0
266100000000,266400000000,4708675610,0,294855039,4.959e-05,0.0003166,0.001921,8.297e-05,0.000267,0.0003176,1.621e-05,9.537e-07,0.0008068,0.002857,3.463,0.0115,0,1,0
266400000000,266700000000,4708675610,0,294855039,5.054e-05,0.0003176,0.001921,8.297e-05,0.000267,0.0003176,2.861e-06,9.537e-07,0.0006924,0.0001431,3.308,0.01077,0,1,0
266700000000,267000000000,4708675610,0,294855039,4.959e-05,0.0003176,0.001921,8.297e-05,0.000267,0.0003176,3.815e-06,9.537e-07,0.0007439,0.0002146,3.381,0.01112,0,1,0
267000000000,267300000000,4708675610,0,294855039,5.054e-05,0.0003176,0.001921,8.297e-05,0.000267,0.0003176,2.861e-06,9.537e-07,0.000556,7.153e-05,3.361,0.01111,0,1,0
267300000000,267600000000,4708675610,0,294855039,4.959e-05,0.0003176,0.001921,8.297e-05,0.000268,0.0003176,3.815e-06,9.537e-07,0.000473,0.0003567,3.368,0.01099,0,1,0
267600000000,267900000000,4708675610,0,294855039,5.054e-05,0.0003176,0.001921,8.297e-05,0.000268,0.0003176,2.861e-06,9.537e-07,0.0007477,0.0001431,3.253,0.0102,0,1,0
267900000000,268200000000,4708675610,0,294855039,5.054e-05,0.0003176,0.001921,8.392e-05,0.000268,0.0003176,1.24e-05,9.537e-07,0.0003338,0.002144,3.489,0.01168,0,1,0
268200000000,268500000000,4708675610,0,294855039,4.959e-05,0.0003176,0.001921,8.392e-05,0.000268,0.0003176,9.537e-06,9.537e-07,0.0004101,0.0007858,3.535,0.01196,0,1,0
268500000000,268800000000,4708675610,0,294855039,4.959e-05,0.0003176,0.001921,8.392e-05,0.000268,0.0003176,1.144e-05,9.537e-07,0.0003119,0.001928,3.178,0.01017,0,1,0
268800000000,269100000000,4708675610,0,294855039,5.054e-05,0.0003176,0.001921,8.392e-05,0.000268,0.0003176,3.815e-06,9.537e-07,0.0003786,7.153e-05,3.16,0.009768,0,1,0
269100000000,269400000000,4708675610,0,294855039,4.959e-05,0.0003176,0.001921,8.392e-05,0.000268,0.0003176,2.861e-06,9.537e-07,0.0003853,7.153e-05,3.435,0.01149,0,1,0
269400000000,269700000000,4708675610,0,294855039,4.768e-05,0.0003176,0.001921,8.392e-05,0.000268,0.0003176,3.815e-06,9.537e-07,0.0002737,0.0003567,3.459,0.01161,0,1,0
269700000000,270000000000,4708675610,0,294855039,4.959e-05,0.0003176,0.001921,8.392e-05,0.000268,0.0003176,4.768e-06,9.537e-07,0.0003719,0.0005713,3.702,0.01289,0,1,0
270000000000,270300000000,4708675610,0,294855039,4.864e-05,0.0003176,0.001921,8.392e-05,0.000268,0.0003176,2.861e-06,9.537e-07,0.000411,0.0001431,3.674,0.01283,0,1,0
270300000000,270600000000,4708675610,0,294855039,4.864e-05,0.0003176,0.001921,8.392e-05,0.0002689,0.0003176,1.526e-05,9.537e-07,0.0003862,0.001785,3.732,0.01299,0,1,0
270600000000,270900000000,4708675610,0,294855039,4.673e-05,0.0003176,0.001921,8.392e-05,0.0002689,0.0003176,2.861e-06,9.537e-07,0.0003386,7.153e-05,3.693,0.01301,0,1,0
270900000000,271200000000,4708675610,0,294855039,4.864e-05,0.0003176,0.001921,8.488e-05,0.0002689,0.0003176,3.815e-06,9.537e-07,0.0003662,0.0001431,3.5,0.01144,0,1,0
271200000000,271500000000,4708675610,0,294855039,4.673e-05,0.0003176,0.001921,8.488e-05,0.0002689,0.0003176,2.861e-06,9.537e-07,0.0003719,0.0001431,3.535,0.01237,0,1,0
281400000000,281700000000,4708675610,0,294855039,5.245e-05,0.0003185,0.001921,8.774e-05,0.0002718,0.0003185,3.815e-06,9.537e-07,0.0006275,0.0001431,3.691,0.01228,0,1,0
281700000000,282000000000,4708675610,0,294855039,5.245e-05,0.0003185,0.001921,8.774e-05,0.0002718,0.0003185,1.049e-05,9.537e-07,0.0007372,0.001858,4.05,0.01357,0,1,0
282000000000,282300000000,4708675610,0,294855039,5.245e-05,0.0003185,0.001921,8.774e-05,0.0002718,0.0003185,4.768e-06,9.537e-07,0.0006733,0.0001431,3.745,0.01263,0,1,0
282300000000,282600000000,4708675610,0,294855039,5.436e-05,0.0003185,0.001921,8.774e-05,0.0002718,0.0003185,7.629e-06,9.537e-07,0.0003967,0.0007858,3.516,0.01085,0,1,0
282600000000,282900000000,4708675610,0,294855039,5.15e-05,0.0003185,0.001921,8.774e-05,0.0002728,0.0003185,1.049e-05,9.537e-07,0.0003786,0.001572,3.711,0.01216,0,1,0
282900000000,283200000000,4708675610,0,294855039,5.341e-05,0.0003185,0.001921,8.774e-05,0.0002728,0.0003185,9.537e-06,9.537e-07,0.000309,0.001215,3.362,0.0104,0,1,0
283200000000,283500000000,4708675610,0,294855039,5.245e-05,0.0003185,0.001921,8.869e-05,0.0002728,0.0003185,1.717e-05,9.537e-07,0.0004854,0.001928,3.449,0.01102,0,1,0
283500000000,283800000000,4708675610,0,294855039,5.341e-05,0.0003185,0.001921,8.869e-05,0.0002728,0.0003185,1.144e-05,9.537e-07,0.0004587,0.002785,4.066,0.0139,0,1,0
283800000000,284100000000,4708675610,0,294855039,5.245e-05,0.0003185,0.001921,8.869e-05,0.0002728,0.0003185,2.861e-06,9.537e-07,0.000515,0.0001431,4.133,0.01413,0,1,0
284100000000,284400000000,4708675610,0,294855039,5.627e-05,0.0003185,0.001921,8.869e-05,0.0002728,0.0003185,5.722e-06,9.537e-07,0.003998,0.0007858,4.454,0.01465,0,1,0
284400000000,284700000000,4708675610,0,294855039,5.531e-05,0.0003185,0.001921,8.869e-05,0.0002728,0.0003185,2.861e-06,9.537e-07,0.0003357,7.153e-05,3.411,0.01005,0,1,0
284700000000,285000000000,4708675610,0,294855039,5.054e-05,0.0003185,0.001921,8.869e-05,0.0002728,0.0003185,2.861e-06,9.537e-07,0.0004005,0.0001431,3.161,0.009396,0,1,0
285000000000,285300000000,4708675610,0,294855039,5.341e-05,0.0003185,0.001921,8.869e-05,0.0002728,0.0003185,2.861e-06,9.537e-07,0.0006733,0.0001431,3.293,0.0101,0,1,0
285300000000,285600000000,4708675610,0,294855039,4.864e-05,0.0003185,0.001921,8.869e-05,0.0002728,0.0003185,5.722e-06,9.537e-07,0.0002594,0.0009289,3.336,0.01077,0,1,0
285600000000,285900000000,4708675610,0,294855039,5.054e-05,0.0003185,0.001921,8.869e-05,0.0002728,0.0003185,1.431e-05,9.537e-07,0.0003176,0.001499,3.311,0.01033,0,1,0
285900000000,286200000000,4708675610,0,294855039,4.959e-05,0.0003185,0.001921,8.869e-05,0.0002737,0.0003185,2.861e-06,9.537e-07,0.0003405,0.0001431,3.347,0.01063,0,1,0
286200000000,286500000000,4708675610,0,294855039,5.054e-05,0.0003185,0.001921,8.869e-05,0.0002737,0.0003185,5.722e-06,9.537e-07,0.0003338,0.0007858,3.374,0.01073,0,1,0
286500000000,286800000000,4708675610,0,294855039,4.959e-05,0.0003185,0.001921,8.965e-05,0.0002737,0.0003185,5.722e-06,9.537e-07,0.0003338,0.0007858,2.985,0.008808,0,1,0
286800000000,287100000000,4708675610,0,294855039,4.864e-05,0.0003185,0.001921,8.965e-05,0.0002737,0.0003185,2.861e-06,9.537e-07,0.0002995,7.153e-05,3.315,0.01021,0,1,0
287100000000,287400000000,4708675610,0,294855039,4.959e-05,0.0003185,0.001921,8.965e-05,0.0002737,0.0003185,5.722e-06,9.537e-07,0.0003071,0.0004282,3.429,0.01121,0,1,0
287400000000,287700000000,4708675610,0,294855039,4.959e-05,0.0003185,0.001921,8.965e-05,0.0002737,0.0003185,3.815e-06,9.537e-07,0.0003462,0.0002146,3.685,0.01289,0,1,0
287700000000,288000000000,4708675610,0,294855039,4.959e-05,0.0003185,0.001921,8.965e-05,0.0002737,0.0003185,4.768e-06,9.537e-07,0.0003042,0.0006428,3.326,0.01082,0,1,0
288000000000,288300000000,4708675610,0,294855039,4.959e-05,0.0003185,0.001921,8.965e-05,0.0002737,0.0003185,3.815e-06,9.537e-07,0.0002813,0.0002861,3.267,0.01023,0,1,0
288300000000,288600000000,4708675610,0,294855039,4.768e-05,0.0003185,0.001921,8.965e-05,0.0002737,0.0003185,1.812e-05,9.537e-07,0.0002642,0.002857,3.285,0.01076,0,1,0
288600000000,288900000000,4708675610,0,294855039,4.959e-05,0.0003185,0.001921,8.965e-05,0.0002737,0.0003185,7.629e-06,9.537e-07,0.0005836,0.0007858,3.155,0.01002,0,1,0
288900000000,289200000000,4708675610,0,294855039,4.768e-05,0.0003185,0.001921,8.965e-05,0.0002747,0.0003185,1.24e-05,9.537e-07,0.0009699,0.001429,3.555,0.01193,0,1,0
289200000000,289500000000,4708675610,0,294855039,4.768e-05,0.0003185,0.001921,8.965e-05,0.0002747,0.0003185,4.768e-06,9.537e-07,0.0002947,0.0006428,3.514,0.01197,0,1,0
289500000000,289800000000,4708675610,0,294855039,4.864e-05,0.0003185,0.001921,9.06e-05,0.0002747,0.0003185,3.815e-06,9.537e-07,0.0004635,0.0002146,3.797,0.01272,0,1,0
289800000000,290100000000,4708675610,0,294855039,4.959e-05,0.0003185,0.001921,9.06e-05,0.0002747,0.0003185,5.722e-06,9.537e-07,0.0004683,0.0004997,3.659,0.01258,0,1,0
290100000000,290400000000,4708675610,0,294855039,5.15e-05,0.0003185,0.001921,9.06e-05,0.0002747,0.0003185,2.861e-06,9.537e-07,0.0003147,7.153e-05,3.666,0.01219,0,1,0
290400000000,290700000000,4708675610,0,294855039,5.054e-05,0.0003185,0.001921,9.06e-05,0.0002747,0.0003185,3.815e-06,9.537e-07,0.0002794,0.0003567,3.594,0.01196,0,1,0
290700000000,291000000000,4708675610,0,294855039,5.245e-05,0.0003185,0.001921,9.06e-05,0.0002747,0.0003185,3.815e-06,9.537e-07,0.0007105,0.0004282,3.699,0.01218,0,1,0
291000000000,291300000000,4708675610,0,294855039,5.054e-05,0.0003185,0.001921,9.06e-05,0.0002747,0.0003185,9.537e-06,9.537e-07,0.0003948,0.001429,3.344,0.0105,0,1,0
291300000000,291600000000,4708675610,0,294855039,4.768e-05,0.0003185,0.001921,9.06e-05,0.0002747,0.0003185,8.583e-06,9.537e-07,0.0002909,0.001143,3.347,0.01114,0,1,0
291600000000,291900000000,4708675610,0,294855039,4.864e-05,0.0003185,0.001921,9.06e-05,0.0002747,0.0003185,1.144e-05,9.537e-07,0.0002708,0.001072,3.156,0.01034,0,1,0
291900000000,292200000000,4708675610,0,294855039,4.959e-05,0.0003185,0.001921,9.06e-05,0.0002756,0.0003185,9.537e-06,9.537e-07,0.0002909,0.0009995,3.105,0.01022,0,1,0
292200000000,292500000000,4708675610,0,294855039,4.864e-05,0.0003185,0.001921,9.06e-05,0.0002756,0.0003185,2.861e-06,9.537e-07,0.0005703,0.0001431,3.276,0.01073,0,1,0
292500000000,292800000000,4708675610,0,294855039,4.768e-05,0.0003185,0.001921,9.155e-05,0.0002756,0.0003185,2.861e-06,9.537e-07,0.0002966,0.0002861,3.253,0.01047,0,1,0
292800000000,293100000000,4708675610,0,294855039,4.864e-05,0.0003185,0.001921,9.155e-05,0.0002756,0.0003185,5.722e-06,9.537e-07,0.0002747,0.0005713,3.121,0.01005,0,1,0
293100000000,293400000000,4708675610,0,294855039,4.864e-05,0.0003185,0.001921,9.155e-05,0.0002756,0.0003185,1.907e-06,9.537e-07,0.0002728,0.0001431,3.193,0.01034,0,1,0
293400000000,293700000000,4708675610,0,294855039,4.864e-05,0.0003185,0.001921,9.155e-05,0.0002756,0.0003185,2.861e-06,9.537e-07,0.0003233,0.0001431,3.529,0.0117,0,1,0
293700000000,294000000000,4708675610,0,294855039,4.864e-05,0.0003185,0.001921,9.155e-05,0.0002756,0.0003185,7.629e-06,9.537e-07,0.0007086,0.001143,3.099,0.009884,0,1,0
294000000000,294300000000,4708675610,0,294855039,4.864e-05,0.0003185,0.001921,9.155e-05,0.0002756,0.0003185,3.815e-06,9.537e-07,0.000268,0.0002861,3.263,0.01082,0,1,0
294300000000,294600000000,4708675610,0,294855039,4.768e-05,0.0003185,0.001921,9.155e-05,0.0002756,0.0003185,4.768e-06,9.537e-07,0.0009241,0.0007858,3.118,0.01008,0,1,0
294600000000,294900000000,4708675610,0,294855039,4.864e-05,0.0003185,0.001921,9.155e-05,0.0002766,0.0003185,2.861e-06,9.537e-07,0.0007172,0.0001431,3.112,0.009919,0,1,0
294900000000,295200000000,4708675610,0,294855039,4.959e-05,0.0003185,0.001921,9.155e-05,0.0002766,0.0003185,1.049e-05,9.537e-07,0.00068,0.001215,3.338,0.01087,0,1,0
295200000000,295500000000,4708675610,0,294855039,4.864e-05,0.0003185,0.001921,9.251e-05,0.0002766,0.0003185,4.768e-06,9.537e-07,0.0007935,0.0003567,3.532,0.01247,0,1,0
295500000000,295800000000,4708675610,0,294855039,4.864e-05,0.0003185,0.001921,9.251e-05,0.0002766,0.0003185,6.676e-06,9.537e-07,0.0009117,0.0007143,3.319,0.01104,0,1,0
295800000000,296100000000,4708675610,0,294855039,4.959e-05,0.0003185,0.001921,9.251e-05,0.0002766,0.0003195,5.722e-06,9.537e-07,0.0007057,0.0007143,3.573,0.01217,0,1,0
296100000000,296400000000,4708675610,0,294855039,5.054e-05,0.0003185,0.001921,9.251e-05,0.0002766,0.0003185,2.861e-06,9.537e-07,0.001257,0.0001431,3.709,0.01281,0,1,0
296400000000,296700000000,4708675610,0,294855039,5.054e-05,0.0003185,0.001921,9.251e-05,0.0002766,0.0003185,9.537e-06,9.537e-07,0.001108,0.002144,3.395,0.01112,0,1,0
296700000000,297000000000,4708675610,0,294855039,5.054e-05,0.0003185,0.001921,9.251e-05,0.0002766,0.0003185,3.815e-06,9.537e-07,0.001099,0.0002861,3.323,0.01105,0,1,0
297000000000,297300000000,4708675610,0,294855039,5.054e-05,0.0003185,0.001921,9.251e-05,0.0002766,0.0003185,3.815e-06,9.537e-07,0.0008488,0.0003567,3.324,0.01048,0,1,0
297300000000,297600000000,4708675610,0,294855039,4.959e-05,0.0003185,0.001921,9.251e-05,0.0002766,0.0003185,3.815e-06,9.537e-07,0.001118,0.0003567,3.333,0.01104,0,1,0
297600000000,297900000000,4708675610,0,294855039,4.864e-05,0.0003185,0.001921,9.251e-05,0.0002775,0.0003185,4.768e-06,9.537e-07,0.001093,0.0007143,3.269,0.01106,0,1,0
297900000000,298200000000,4708675610,0,294855039,4.864e-05,0.0003185,0.001921,9.251e-05,0.0002775,0.0003185,2.861e-06,9.537e-07,0.0009241,0.0002861,3.289,0.01069,0,1,0
298200000000,298500000000,4708675610,0,294855039,4.959e-05,0.0003185,0.001921,9.251e-05,0.0002775,0.0003185,5.722e-06,9.537e-07,0.0006275,0.0006428,3.42,0.01115,0,1,0
298500000000,298800000000,4708675610,0,294855039,5.054e-05,0.0003185,0.001921,9.346e-05,0.0002775,0.0003185,3.815e-06,9.537e-07,0.0005474,0.0002146,3.343,0.01092,0,1,0
298800000000,299100000000,4708675610,0,294855039,5.245e-05,0.0003185,0.001921,9.346e-05,0.0002775,0.0003185,9.537e-06,9.537e-07,0.0005255,0.001642,3.867,0.01259,0,1,0
299100000000,299400000000,4708675610,0,294855039,5.245e-05,0.0003185,0.001921,9.346e-05,0.0002775,0.0003185,2.861e-06,9.537e-07,0.000576,7.153e-05,3.74,0.01176,0,1,0
299400000000,299700000000,4708675610,0,294855039,5.341e-05,0.0003185,0.001921,9.346e-05,0.0002775,0.0003185,7.629e-06,9.537e-07,0.0007858,0.0006428,3.889,0.01301,0,1,0
299700000000,300000000000,4708675610,0,294855039,5.15e-05,0.0003185,0.001921,9.346e-05,0.0002775,0.0003185,1.144e-05,9.537e-07,0.0003996,0.002357,4.033,0.01338,0,1,0
