5700000000,6000000000,4809848122,0,30790397,0.0002556,0.001299,0.001936,0.0002012,0.0006294,0.001299,0,0,0.0007219,7.153e-05,2.938,0.009279,0,0,0.000598
6000000000,6300000000,4809848122,0,30790397,0.0002766,0.001299,0.001942,0.0002012,0.0006294,0.001305,9.537e-07,0,0.005112,0.0002861,2.685,0.008038,0,0,0.0003977
6300000000,6600000000,4809848122,0,30790397,0.0003433,0.001312,0.002186,0.0001993,0.0006275,0.001329,3.815e-06,0,0.003109,0.0002146,3.319,0.01127,0,0,0.0002508
6600000000,6900000000,4809848122,0,30790397,0.0003071,0.001307,0.001936,0.0001974,0.0006256,0.001307,9.537e-07,0,0.001841,7.153e-05,3.11,0.01022,0,0,0.0006094
6900000000,7200000000,4809848122,0,30790397,0.0002651,0.001307,0.001936,0.0001974,0.0006256,0.001307,9.537e-07,0,0.0008659,7.153e-05,2.831,0.008687,0,0,0.0003338
7200000000,7500000000,4809848122,0,30790397,0.0002651,0.001307,0.001936,0.0001974,0.0006256,0.001307,0,0,0.0009727,7.153e-05,2.753,0.008431,0,0,0.0001116
7500000000,7800000000,4809848122,0,30790397,0.0002594,0.001307,0.001936,0.0001974,0.0006256,0.001307,0,0,0.0007477,7.153e-05,2.681,0.008082,0,0,0.0001326
7800000000,8100000000,4809848122,0,30790397,0.0002737,0.001307,0.001942,0.0001974,0.0006256,0.00131,0,0,0.002689,7.153e-05,2.649,0.007912,0,0,0.000226
8100000000,8400000000,4809848122,0,30790397,0.0003271,0.001324,0.002029,0.0001907,0.0006199,0.001495,2.861e-06,0,0.001467,7.153e-05,2.977,0.009815,0,0,0.0001955
8400000000,8700000000,4809848122,0,30790397,0.0003147,0.00131,0.001936,0.0001898,0.0006189,0.00131,0,0,0.0008221,7.153e-05,3.168,0.01053,0,0,0.000145
8700000000,9000000000,4809848122,0,30790397,0.000267,0.00131,0.001936,0.0001898,0.0006189,0.00131,9.537e-07,0,0.001831,7.153e-05,2.744,0.008404,0,0,0.0001736
9000000000,9300000000,4809848122,0,30790397,0.0002575,0.00131,0.001936,0.0001898,0.0006189,0.00131,0,0,0.0008793,0,2.878,0.009059,0,0,0.000598
9300000000,9600000000,4809848122,0,30790397,0.0002556,0.00131,0.001936,0.0001907,0.0006189,0.00131,0,0,0.0007935,7.153e-05,2.629,0.007803,0,0,0.0007362
9600000000,9900000000,4809848122,0,30790397,0.0002794,0.001308,0.001936,0.0001907,0.0006189,0.001312,0,0,0.004005,7.153e-05,2.596,0.007642,0,0,0.0002413
9900000000,10200000000,4809848122,0,30790397,0.0003805,0.001318,0.002056,0.0001926,0.0006208,0.001383,5.722e-06,0,0.001383,0.001215,3.364,0.01165,0,0,0.0002518
10200000000,10500000000,4809848122,0,30790397,0.000371,0.001312,0.001936,0.0001917,0.0006199,0.001312,0,0,0.001457,7.153e-05,3.686,0.01318,0,0,0.0003681
10500000000,10800000000,4809848122,0,30790397,0.0002804,0.001312,0.001936,0.0001917,0.0006199,0.001312,0,0,0.001526,7.153e-05,2.876,0.00917,0,0,0.0003471
10800000000,11100000000,4809848122,0,30790397,0.0002594,0.00131,0.001936,0.0001917,0.0006199,0.001312,0,0,0.0007191,0,2.622,0.007809,0,0,0.0001707
11100000000,11400000000,4809848122,0,30790397,0.0002575,0.001312,0.001936,0.0001917,0.0006208,0.001312,9.537e-07,0,0.0007372,7.153e-05,2.603,0.007726,0,0,0.000577
11400000000,11700000000,4809848122,0,30790397,0.0002699,0.001312,0.001942,0.0001917,0.0006208,0.001314,0,0,0.00256,7.153e-05,2.653,0.00797,0,0,0.00037
11700000000,12000000000,4809848122,0,30790397,0.0003405,0.001318,0.00206,0.0001888,0.000618,0.001385,2.861e-06,0,0.001625,7.153e-05,3.09,0.0103,0,0,0.0002546
12000000000,12300000000,4809848122,0,30790397,0.0003281,0.001312,0.001936,0.0001879,0.000617,0.001312,1.907e-06,0,0.0006809,0.0004282,3.27,0.01109,0,0,0.0004511
12300000000,12600000000,4809848122,0,30790397,0.0002708,0.001312,0.001936,0.0001888,0.000617,0.001312,0,0,0.0008764,7.153e-05,2.803,0.008744,0,0,0.0002232
12600000000,12900000000,4809848122,0,30790397,0.0002584,0.001312,0.001936,0.0001888,0.000617,0.001312,0,0,0.0006666,7.153e-05,2.677,0.008,0,0,0.0001554
12900000000,13200000000,4809848122,0,30790397,0.0002575,0.001312,0.001936,0.0001888,0.000617,0.001312,0,0,0.0006838,7.153e-05,2.607,0.007782,0,0,0.0004091
13200000000,13500000000,4809848122,0,30790397,0.0002651,0.001312,0.001936,0.0001888,0.000617,0.001314,9.537e-07,0,0.003643,7.153e-05,2.555,0.007541,0,0,0.0001535
13500000000,13800000000,4809848122,0,30790397,0.0002794,0.001314,0.001936,0.0001888,0.000618,0.001314,1.907e-06,0,0.0009422,0.0001431,2.628,0.007964,0,0,0.0009146
13800000000,14100000000,4809848122,0,30790397,0.0002756,0.001312,0.001936,0.0001888,0.000618,0.001312,3.815e-06,0,0.000886,0.0009995,2.648,0.008065,0,0,0.0001364
14100000000,14400000000,4809848122,0,30790397,0.0002613,0.001312,0.001936,0.0001888,0.000618,0.001312,9.537e-07,0,0.0007267,7.153e-05,2.512,0.007384,0,0,0.0002689
14400000000,14700000000,4809848122,0,30790397,0.0002575,0.001312,0.001936,0.0001888,0.000618,0.001312,9.537e-07,0,0.0008478,7.153e-05,2.562,0.007644,0,0,0.0001736
14700000000,15000000000,4809848122,0,30790397,0.0002565,0.001312,0.001936,0.0001898,0.000618,0.001312,9.537e-07,0,0.0007725,7.153e-05,2.597,0.007752,0,0,0.0001841
15000000000,15300000000,4809848122,0,30790397,0.0002756,0.001312,0.001949,0.0001898,0.000618,0.001429,9.537e-07,0,0.004417,0.0001431,2.564,0.007546,0,0,0.0001049
15300000000,15600000000,4809848122,0,30790397,0.0004349,0.001324,0.002052,0.0001812,0.0006104,0.001432,1.907e-06,0,0.008499,7.153e-05,3.408,0.01205,0,0,0.0006752
15600000000,15900000000,4809848122,0,30790397,0.0003824,0.001314,0.001936,0.0001812,0.0006094,0.001316,0,0,0.0007648,7.153e-05,3.32,0.01167,0,0,0.0001707
15900000000,16200000000,4809848122,0,30790397,0.0002813,0.001314,0.001936,0.0001812,0.0006104,0.001316,0,0,0.0009403,7.153e-05,2.819,0.008932,0,0,0.0002289
16200000000,16500000000,4809848122,0,30790397,0.0002584,0.001314,0.001936,0.0001812,0.0006104,0.001314,0,0,0.0007839,7.153e-05,2.52,0.007326,0,0,0.0006313
16500000000,16800000000,4809848122,0,30790397,0.0002623,0.001314,0.001936,0.0001812,0.0006104,0.001314,9.537e-07,0,0.0007057,7.153e-05,2.498,0.007188,0,0,9.823e-05
16800000000,17100000000,4809848122,0,30790397,0.0002775,0.001314,0.001936,0.0001812,0.0006104,0.001316,1.907e-06,0,0.003063,0.0005713,2.474,0.007184,0,0,0.0008268
17100000000,17400000000,4809848122,0,30790397,0.0003109,0.001314,0.001936,0.0001822,0.0006104,0.001316,2.861e-06,0,0.0047,0.0001431,2.709,0.008323,0,0,0.0009432
17400000000,17700000000,4809848122,0,30790397,0.0002766,0.001312,0.001936,0.0001822,0.0006113,0.001312,9.537e-07,0,0.000742,7.153e-05,2.528,0.007507,0,0,0.000103
17700000000,18000000000,4809848122,0,30790397,0.0002661,0.001312,0.001936,0.0001822,0.0006113,0.001312,9.537e-07,0,0.0007715,7.153e-05,2.465,0.007119,0,0,0.0001955
18000000000,18300000000,4809848122,0,30790397,0.0002604,0.001312,0.001936,0.0001822,0.0006113,0.001312,0,0,0.000721,0,2.544,0.007512,0,0,0.0001907
18300000000,18600000000,4809848122,0,30790397,0.0002632,0.001312,0.001936,0.0001822,0.0006113,0.001312,9.537e-07,0,0.0007324,7.153e-05,2.416,0.006927,0,0,0.0001507
18600000000,18900000000,4809848122,0,30790397,0.0002804,0.001312,0.001936,0.0001822,0.0006113,0.001314,0,0,0.00383,7.153e-05,2.401,0.006884,0,0,0.0002546
18900000000,19200000000,4809848122,0,30790397,0.0004225,0.001316,0.001934,0.0001841,0.0006123,0.001318,3.815e-06,0,0.00386,0.0004282,3.292,0.01152,0,0,0.0001574
19200000000,19500000000,4809848122,0,30790397,0.0003958,0.001314,0.001936,0.0001841,0.0006132,0.001314,0,0,0.0009422,0,3.461,0.01228,0,0,0.0005941
19500000000,19800000000,4809848122,0,30790397,0.0002851,0.001314,0.001936,0.0001841,0.0006132,0.001314,9.537e-07,0,0.0009956,7.153e-05,2.878,0.009219,0,0,0.0002003
19800000000,20100000000,4809848122,0,30790397,0.0002613,0.001314,0.001936,0.0001841,0.0006132,0.001314,0,0,0.0006504,0,2.332,0.006554,0,0,0.0001888
20100000000,20400000000,4809848122,0,30790397,0.0002623,0.001314,0.001936,0.0001841,0.0006132,0.001314,0,0,0.0008087,7.153e-05,2.326,0.006618,0,0,0.0001755
20400000000,20700000000,4809848122,0,30790397,0.0002718,0.001314,0.001936,0.0001841,0.0006132,0.001316,0,0,0.002991,7.153e-05,2.31,0.006522,0,0,0.0001945
20700000000,21000000000,4809848122,0,30790397,0.0004272,0.001343,0.002056,0.0001707,0.0005999,0.001484,2.861e-06,0,0.008865,7.153e-05,3.052,0.01041,0,0,0.0005369
21000000000,21300000000,4809848122,0,30790397,0.0003719,0.001331,0.001936,0.0001698,0.0005989,0.001331,1.907e-06,0,0.001106,7.153e-05,3.133,0.01093,0,0,0.0006351
21300000000,21600000000,4809848122,0,30790397,0.0002871,0.001331,0.001936,0.0001707,0.0005989,0.001331,9.537e-07,0,0.0009413,7.153e-05,2.586,0.007854,0,0,0.0002794
21600000000,21900000000,4809848122,0,30790397,0.0002661,0.001331,0.001936,0.0001707,0.0005989,0.001331,0,0,0.0007877,7.153e-05,2.42,0.006993,0,0,0.0001583
21900000000,22200000000,4809848122,0,30790397,0.0002623,0.001331,0.001936,0.0001707,0.0005989,0.001331,9.537e-07,0,0.000433,7.153e-05,2.324,0.00659,0,0,0.0001545
22200000000,22500000000,4809848122,0,30790397,0.0002794,0.001329,0.001942,0.0001707,0.0005989,0.001333,0,0,0.00248,7.153e-05,2.383,0.006741,0,0,0.000185
22500000000,22800000000,4809848122,0,30790397,0.0003586,0.001343,0.002056,0.0001678,0.000597,0.001476,2.861e-06,0,0.002453,0.0001431,2.829,0.009302,0,0,0.0002337
22800000000,23100000000,4809848122,0,30790397,0.0003405,0.001331,0.001936,0.0001678,0.000596,0.001331,0,0,0.000967,0,2.823,0.009264,0,0,0.0005627
23100000000,23400000000,4809848122,0,30790397,0.0002785,0.001331,0.001936,0.0001678,0.000596,0.001333,9.537e-07,0,0.000968,7.153e-05,2.516,0.007591,0,0,0.0001726
23400000000,23700000000,4809848122,0,30790397,0.0002632,0.001331,0.001936,0.0001678,0.000596,0.001331,0,0,0.0006495,0,2.483,0.007186,0,0,0.0002623
23700000000,24000000000,4809848122,0,30790397,0.0002604,0.001331,0.001936,0.0001678,0.000597,0.001333,0,0,0.0008736,7.153e-05,2.5,0.007309,0,0,0.0007677
24000000000,24300000000,4809848122,0,30790397,0.0002823,0.001331,0.001936,0.0001678,0.000597,0.001335,0,0,0.003838,7.153e-05,2.296,0.006424,0,0,0.0001564
24300000000,24600000000,4809848122,0,30790397,0.000288,0.001333,0.001936,0.0001688,0.000597,0.001337,1.907e-06,0,0.001053,7.153e-05,2.562,0.00789,0,0,0.0005322
24600000000,24900000000,4809848122,0,30790397,0.0002747,0.001331,0.001936,0.0001688,0.000597,0.001331,9.537e-07,0,0.0004511,0.0001431,2.383,0.006944,0,0,9.441e-05
24900000000,25200000000,4809848122,0,30790397,0.0002642,0.001331,0.001936,0.0001688,0.000597,0.001333,9.537e-07,0,0.0007982,7.153e-05,2.419,0.007023,0,0,0.0002556
25200000000,25500000000,4809848122,0,30790397,0.0002642,0.001333,0.001936,0.0001688,0.000597,0.001333,9.537e-07,0,0.0007467,7.153e-05,2.448,0.007091,0,0,9.251e-05
25500000000,25800000000,4809848122,0,30790397,0.0002642,0.001331,0.001936,0.0001688,0.000598,0.001333,9.537e-07,0,0.0007105,7.153e-05,2.378,0.006797,0,0,0.0002012
25800000000,26100000000,4809848122,0,30790397,0.0002985,0.001331,0.001949,0.0001688,0.000598,0.001463,9.537e-07,0,0.009964,7.153e-05,2.303,0.006475,0,0,0.0002613
26100000000,26400000000,4809848122,0,30790397,0.0004349,0.001345,0.002052,0.0001631,0.0005922,0.001465,1.907e-06,0,0.00766,0.0001431,3.373,0.01196,0,0,0.0006514
26400000000,26700000000,4809848122,0,30790397,0.0004034,0.001335,0.001934,0.0001621,0.0005913,0.001335,0,0,0.0009661,7.153e-05,3.371,0.01211,0,0,0.0002241
26700000000,27000000000,4809848122,0,30790397,0.0002956,0.001335,0.001936,0.0001631,0.0005913,0.001335,9.537e-07,0,0.001436,7.153e-05,2.595,0.007961,0,0,0.0001793
27000000000,27300000000,4809848122,0,30790397,0.0002604,0.001335,0.001936,0.0001621,0.0005913,0.001335,1.907e-06,0,0.0009518,0.0005713,2.204,0.006034,0,0,0.0001783
27300000000,27600000000,4809848122,0,30790397,0.0002584,0.001335,0.001936,0.0001631,0.0005913,0.001335,9.537e-07,0,0.0009842,7.153e-05,2.24,0.006162,0,0,0.0004177
27600000000,27900000000,4809848122,0,30790397,0.0002718,0.001333,0.001936,0.0001631,0.0005913,0.001337,1.907e-06,0,0.004105,0.0005713,2.315,0.006539,0,0,0.0002737
27900000000,28200000000,4809848122,0,30790397,0.0003099,0.001335,0.001934,0.0001631,0.0005922,0.001337,2.861e-06,0,0.001089,7.153e-05,2.69,0.008525,0,0,0.0002279
28200000000,28500000000,4809848122,0,30790397,0.0003004,0.001333,0.001936,0.0001631,0.0005922,0.001333,1.907e-06,0,0.001057,7.153e-05,2.501,0.007633,0,0,0.0004654
28500000000,28800000000,4809848122,0,30790397,0.000267,0.001333,0.001936,0.0001631,0.0005922,0.001333,9.537e-07,0,0.001232,7.153e-05,2.43,0.007091,0,0,0.0001802
28800000000,29100000000,4809848122,0,30790397,0.0002623,0.001333,0.001936,0.0001631,0.0005922,0.001333,0,0,0.0007601,7.153e-05,2.38,0.006837,0,0,0.0001955
29100000000,29400000000,4809848122,0,30790397,0.0002604,0.001333,0.001936,0.0001631,0.0005922,0.001333,0,0,0.0007858,7.153e-05,2.252,0.006274,0,0,0.0004435
29400000000,29700000000,4809848122,0,30790397,0.0002756,0.001333,0.001936,0.0001631,0.0005922,0.001335,9.537e-07,0,0.003292,7.153e-05,2.306,0.006487,0,0,8.488e-05
29700000000,30000000000,4809848122,0,30790397,0.0004044,0.001337,0.001934,0.000164,0.0005932,0.001339,1.907e-06,0,0.003231,7.153e-05,2.992,0.01024,0,0,0.0002508
30000000000,30300000000,4809848122,0,30790397,0.000371,0.001335,0.001934,0.000165,0.0005932,0.001335,0,0,0.001141,0,2.99,0.01013,0,0,0.0003567
30300000000,30600000000,4809848122,0,30790397,0.0002842,0.001335,0.001936,0.000165,0.0005932,0.001335,0,0,0.001266,7.153e-05,2.482,0.007476,0,0,0.0001011
30600000000,30900000000,4809848122,0,30790397,0.0002623,0.001335,0.001936,0.000165,0.0005932,0.001335,9.537e-07,0,0.0005836,0.0001431,2.299,0.006468,0,0,0.000226
30900000000,31200000000,4809848122,0,30790397,0.0002632,0.001335,0.001936,0.000165,0.0005941,0.001335,9.537e-07,0,0.0006838,7.153e-05,2.321,0.006513,0,0,0.0002308
31200000000,31500000000,4809848122,0,30790397,0.0002689,0.001333,0.001936,0.000165,0.0005941,0.001333,1.907e-06,0,0.002399,0.0006428,2.326,0.006501,0,0,0.0006638
31500000000,31800000000,4809848122,0,30790397,0.00035,0.001345,0.002064,0.000165,0.0005951,0.001471,9.537e-07,0,0.003513,7.153e-05,2.788,0.008965,0,0,0.0002584
31800000000,32100000000,4809848122,0,30790397,0.0003252,0.001335,0.001934,0.0001659,0.0005941,0.001335,0,0,0.000823,0,2.754,0.008868,0,0,0.0002565
32100000000,32400000000,4809848122,0,30790397,0.0002728,0.001333,0.001936,0.0001659,0.0005941,0.001335,0,0,0.000824,7.153e-05,2.378,0.006914,0,0,0.0001612
32400000000,32700000000,4809848122,0,30790397,0.0002604,0.001333,0.001936,0.0001659,0.0005941,0.001333,0,0,0.000638,7.153e-05,2.298,0.006486,0,0,0.0001364
32700000000,33000000000,4809848122,0,30790397,0.0002613,0.001333,0.001936,0.0001659,0.0005951,0.001333,9.537e-07,0,0.0004206,7.153e-05,2.257,0.006252,0,0,0.0001659
33000000000,33300000000,4809848122,0,30790397,0.000267,0.001333,0.001936,0.0001659,0.0005951,0.001335,9.537e-07,0,0.003086,7.153e-05,2.294,0.00636,0,0,0.0002766
33300000000,33600000000,4809848122,0,30790397,0.0005178,0.001345,0.002064,0.0001602,0.0005894,0.0014,2.861e-06,0,0.01871,7.153e-05,2.982,0.009842,0,0,0.000145
33600000000,33900000000,4809848122,0,30790397,0.0004244,0.001337,0.001934,0.0001602,0.0005884,0.001339,9.537e-07,0,0.0008307,7.153e-05,3.484,0.01255,0,0,0.0005255
33900000000,34200000000,4809848122,0,30790397,0.0002909,0.001337,0.001934,0.0001602,0.0005894,0.001337,0,0,0.0008602,7.153e-05,2.506,0.007571,0,0,0.0002365
34200000000,34500000000,4809848122,0,30790397,0.0002623,0.001337,0.001934,0.0001602,0.0005894,0.001337,9.537e-07,0,0.0007944,7.153e-05,2.192,0.005984,0,0,0.0006304
34500000000,34800000000,4809848122,0,30790397,0.0002604,0.001337,0.001934,0.0001602,0.0005894,0.001337,9.537e-07,0,0.000555,7.153e-05,2.19,0.006026,0,0,0.0002327
34800000000,35100000000,4809848122,0,30790397,0.0002708,0.001337,0.001934,0.0001602,0.0005894,0.001339,9.537e-07,0,0.003922,7.153e-05,2.303,0.006541,0,0,0.0002632
35100000000,35400000000,4809848122,0,30790397,0.0002832,0.001337,0.001934,0.0001602,0.0005894,0.001339,2.861e-06,0,0.0009365,0.0002146,2.355,0.006823,0,0,0.0002317
35400000000,35700000000,4809848122,0,30790397,0.0002728,0.001335,0.001934,0.0001602,0.0005894,0.001335,0,0,0.001764,7.153e-05,2.314,0.006546,0,0,0.0001745
35700000000,36000000000,4809848122,0,30790397,0.0002613,0.001335,0.001934,0.0001612,0.0005894,0.001335,0,0,0.0008297,7.153e-05,2.284,0.006426,0,0,0.0002508
36000000000,36300000000,4809848122,0,30790397,0.0002604,0.001335,0.001934,0.0001612,0.0005894,0.001335,0,0,0.0007429,0,2.207,0.006013,0,0,0.0006046
36300000000,36600000000,4809848122,0,30790397,0.0002623,0.001335,0.001934,0.0001612,0.0005894,0.001335,0,0,0.003139,7.153e-05,2.25,0.006139,0,0,0.0002623
36600000000,36900000000,4809848122,0,30790397,0.0002718,0.001335,0.001934,0.0001612,0.0005894,0.001337,9.537e-07,0,0.002583,7.153e-05,2.261,0.006211,0,0,0.0001154
36900000000,37200000000,4809848122,0,30790397,0.0003624,0.001339,0.001934,0.0001621,0.0005903,0.001341,1.907e-06,0,0.003132,0.0002861,2.747,0.008817,0,0,0.0002365
37200000000,37500000000,4809848122,0,30790397,0.0003386,0.001337,0.001934,0.0001621,0.0005903,0.001337,0,0,0.0009861,0,2.867,0.00947,0,0,0.0004272
37500000000,37800000000,4809848122,0,30790397,0.0002756,0.001337,0.001934,0.0001621,0.0005903,0.001337,0,0,0.001303,7.153e-05,2.438,0.007228,0,0,0.0002193
37800000000,38100000000,4809848122,0,30790397,0.0002613,0.001337,0.001934,0.0001621,0.0005903,0.001337,0,0,0.0007811,0,2.272,0.006231,0,0,0.0006199
38100000000,38400000000,4809848122,0,30790397,0.0002594,0.001337,0.001934,0.0001621,0.0005913,0.001337,0,0,0.000658,7.153e-05,2.22,0.006054,0,0,0.000185
38400000000,38700000000,4809848122,0,30790397,0.0002651,0.001337,0.001934,0.0001621,0.0005913,0.001337,0,0,0.003296,7.153e-05,2.224,0.006113,0,0,0.0001431
38700000000,39000000000,4809848122,0,30790397,0.0003309,0.001339,0.001934,0.0001631,0.0005913,0.001339,1.907e-06,0,0.00186,7.153e-05,2.631,0.008336,0,0,0.0008059
39000000000,39300000000,4809848122,0,30790397,0.0003109,0.001337,0.001934,0.0001631,0.0005913,0.001337,0,0,0.0006638,7.153e-05,2.643,0.008374,0,0,0.0006638
39300000000,39600000000,4809848122,0,30790397,0.0002689,0.001337,0.001934,0.0001631,0.0005922,0.001337,0,0,0.0005503,7.153e-05,2.356,0.006726,0,0,0.0001469
39600000000,39900000000,4809848122,0,30790397,0.0002613,0.001337,0.001934,0.0001631,0.0005922,0.001337,0,0,0.0007963,7.153e-05,2.292,0.006406,0,0,0.0003519
39900000000,40200000000,4809848122,0,30790397,0.0002594,0.001337,0.001934,0.0001631,0.0005922,0.001337,0,0,0.0007439,7.153e-05,2.254,0.006238,0,0,0.0002632
40200000000,40500000000,4809848122,0,30790397,0.0002661,0.001337,0.001934,0.0001631,0.0005922,0.001337,0,0,0.002956,7.153e-05,2.221,0.006191,0,0,0.0001087
40500000000,40800000000,4809848122,0,30790397,0.0004339,0.001343,0.002064,0.0001602,0.0005894,0.001396,9.537e-07,0,0.004372,7.153e-05,3.181,0.01118,0,0,0.0007725
51000000000,51300000000,4809848122,0,30790397,0.000267,0.001337,0.00194,0.0001621,0.0005913,0.001339,9.537e-07,0,0.00264,0.0002146,2.542,0.007382,0,0,0.0002861
51300000000,51600000000,4809848122,0,30790397,0.0003557,0.001341,0.002056,0.0001574,0.0005884,0.001429,1.907e-06,0,0.002888,7.153e-05,3.155,0.01069,0,0,0.0004501
51600000000,51900000000,4809848122,0,30790397,0.0003271,0.001333,0.001936,0.0001574,0.0005884,0.001335,0,0,0.0008726,0,3.233,0.01099,0,0,0.0002804
51900000000,52200000000,4809848122,0,30790397,0.0002737,0.001331,0.001936,0.0001574,0.0005894,0.001333,0,0,0.0008411,7.153e-05,2.782,0.00859,0,0,0.000701
52200000000,52500000000,4809848122,0,30790397,0.0002594,0.001331,0.001936,0.0001574,0.0005894,0.001331,0,0,0.0007906,7.153e-05,2.605,0.007718,0,0,0.0002937
52500000000,52800000000,4809848122,0,30790397,0.0002594,0.001331,0.001936,0.0001574,0.0005894,0.001333,0,0,0.0007019,0,2.605,0.007729,0,0,0.000227
52800000000,53100000000,4809848122,0,30790397,0.0002642,0.001333,0.001936,0.0001574,0.0005894,0.001333,0,0,0.002609,7.153e-05,2.593,0.007719,0,0,0.0005894
53100000000,53400000000,4809848122,0,30790397,0.0003099,0.001335,0.001936,0.0001583,0.0005894,0.001337,2.861e-06,0,0.006371,0.0002146,2.771,0.008577,0,0,0.0001945
53400000000,53700000000,4809848122,0,30790397,0.0002794,0.001333,0.001936,0.0001583,0.0005894,0.001333,0,0,0.0007715,7.153e-05,2.85,0.008997,0,0,0.0002451
53700000000,54000000000,4809848122,0,30790397,0.0002689,0.001331,0.001936,0.0001583,0.0005903,0.001333,9.537e-07,0,0.0007753,0.0001431,2.834,0.008773,0,0,0.0002537
54000000000,54300000000,4809848122,0,30790397,0.0002632,0.001331,0.001936,0.0001583,0.0005903,0.001331,0,0,0.0009937,0,2.801,0.008548,0,0,0.0001593
54300000000,54600000000,4809848122,0,30790397,0.0002584,0.001331,0.001936,0.0001583,0.0005903,0.001331,0,0,0.000433,7.153e-05,2.627,0.007881,0,0,0.0003691
54600000000,54900000000,4809848122,0,30790397,0.000268,0.001333,0.001936,0.0001583,0.0005903,0.001335,0,0,0.002388,0.0001431,2.56,0.007545,0,0,0.0003271
54900000000,55200000000,4809848122,0,30790397,0.0003033,0.001333,0.001936,0.0001593,0.0005903,0.001335,1.907e-06,0,0.00227,0.0001431,2.859,0.009116,0,0,0.0001221
55200000000,55500000000,4809848122,0,30790397,0.0002871,0.001333,0.001936,0.0001593,0.0005903,0.001333,0,0,0.0007563,7.153e-05,2.795,0.008732,0,0,0.0003347
55500000000,55800000000,4809848122,0,30790397,0.0002651,0.001333,0.001936,0.0001593,0.0005903,0.001333,0,0,0.0008841,7.153e-05,2.545,0.00744,0,0,0.0002527
55800000000,56100000000,4809848122,0,30790397,0.0002594,0.001333,0.001936,0.0001593,0.0005903,0.001333,0,0,0.0008898,0,2.69,0.008125,0,0,0.0001688
56100000000,56400000000,4809848122,0,30790397,0.0002575,0.001333,0.001936,0.0001593,0.0005913,0.001333,0,0,0.0007305,7.153e-05,2.561,0.007531,0,0,0.0006332
56400000000,56700000000,4809848122,0,30790397,0.0002689,0.001333,0.001936,0.0001593,0.0005913,0.001333,0,0,0.004456,7.153e-05,2.62,0.007701,0,0,9.441e-05
56700000000,57000000000,4809848122,0,30790397,0.0003548,0.001335,0.001936,0.0001602,0.0005913,0.001337,9.537e-07,0,0.004005,7.153e-05,3.31,0.01132,0,0,0.000246
57000000000,57300000000,4809848122,0,30790397,0.00033,0.001333,0.001936,0.0001602,0.0005913,0.001333,0,0,0.0007467,0,3.504,0.0121,0,0,0.0004501
57300000000,57600000000,4809848122,0,30790397,0.0002728,0.001333,0.001936,0.0001602,0.0005913,0.001333,0,0,0.0007896,7.153e-05,2.825,0.008849,0,0,0.0006485
57600000000,57900000000,4809848122,0,30790397,0.0002575,0.001333,0.001936,0.0001602,0.0005913,0.001333,0,0,0.0008345,0,2.605,0.007746,0,0,0.0005608
57900000000,58200000000,4809848122,0,30790397,0.0002613,0.001333,0.001936,0.0001602,0.0005922,0.001333,0,0,0.0008659,7.153e-05,2.675,0.007922,0,0,0.000289
58200000000,58500000000,4809848122,0,30790397,0.000267,0.001333,0.001936,0.0001602,0.0005922,0.001335,0,0,0.002865,7.153e-05,2.668,0.007959,0,0,0.0003033
58500000000,58800000000,4809848122,0,30790397,0.0005407,0.001343,0.002064,0.0001593,0.0005903,0.001385,1.907e-06,0,0.008865,7.153e-05,4.522,0.01731,0,0,0.0004902
58800000000,59100000000,4809848122,0,30790397,0.0004826,0.001339,0.001934,0.0001583,0.0005894,0.001341,0,0,0.00127,7.153e-05,4.707,0.01833,0,0,0.0005951
59100000000,59400000000,4809848122,0,30790397,0.0003052,0.001337,0.001936,0.0001583,0.0005903,0.001339,0,0,0.001829,0,3.482,0.01202,0,0,0.0002737
59400000000,59700000000,4809848122,0,30790397,0.0002642,0.001337,0.001936,0.0001583,0.0005903,0.001337,0,0,0.0009012,0,2.858,0.008775,0,0,0.0006227
59700000000,60000000000,4809848122,0,30790397,0.0002604,0.001337,0.001936,0.0001583,0.0005903,0.001337,0,0,0.0008087,7.153e-05,2.74,0.008142,0,0,0.0008087
60000000000,60300000000,4809848122,0,30790397,0.000268,0.001337,0.001936,0.0001583,0.0005903,0.001337,0,0,0.002064,0.0001431,2.799,0.008587,0,0,0.0006046
60300000000,60600000000,4809848122,0,30790397,0.0005484,0.001348,0.002052,0.0001535,0.0005846,0.00141,3.815e-06,0,0.007904,0.0004997,4.188,0.01573,0,0,0.000494
60600000000,60900000000,4809848122,0,30790397,0.0004873,0.001343,0.001934,0.0001526,0.0005836,0.001343,9.537e-07,0,0.001408,7.153e-05,4.489,0.0173,0,0,0.0004807
70800000000,71100000000,4809848122,0,3668262859,0.0002909,0.00131,0.001942,0.0002127,0.0006237,0.001312,0,0,0.001091,7.153e-05,2.759,0.007738,0,0,0.0002213
71100000000,71400000000,4809848122,0,3668262859,0.000288,0.00131,0.001942,0.0002127,0.0006237,0.00131,0,0,0.001423,7.153e-05,2.647,0.007246,0,0,0.0007381
71400000000,71700000000,4809848122,0,3668262859,0.0003767,0.001316,0.002071,0.0002079,0.0006199,0.001368,2.861e-06,0,0.005081,0.0006428,3.375,0.01045,0,0,0.0001869
71700000000,72000000000,4809848122,0,3668262859,0.0004482,0.001329,0.001942,0.0001907,0.0006018,0.001331,9.537e-07,0,0.002308,7.153e-05,4.778,0.01739,0,0,0.000412
72000000000,72300000000,4809848122,0,3668262859,0.000452,0.001328,0.001942,0.0001907,0.0006018,0.001328,0,0,0.001358,0.0001431,4.547,0.01624,0,0,0.0005188
72300000000,72600000000,4809848122,0,3668262859,0.0002956,0.001326,0.001942,0.0001907,0.0006018,0.001328,2.861e-06,0,0.0008535,0.0008574,3.457,0.01088,0,0,0.0006199
72600000000,72900000000,4809848122,0,3668262859,0.000288,0.001326,0.001942,0.0001907,0.0006018,0.001326,0,0,0.001032,7.153e-05,3.585,0.01152,0,0,0.0001945
72900000000,73200000000,4809848122,0,3668262859,0.0002832,0.001326,0.001942,0.0001907,0.0006027,0.001326,0,0,0.0007687,0,3.241,0.009785,0,0,0.0001869
73200000000,73500000000,4809848122,0,3668262859,0.0003595,0.001328,0.001942,0.0001907,0.0006027,0.001331,9.537e-07,0,0.004547,0.0001431,3.088,0.009054,0,0,0.0005779
73500000000,73800000000,4809848122,0,3668262859,0.0003815,0.001329,0.001942,0.0001917,0.0006027,0.001331,1.907e-06,0,0.002632,0.0002146,4.845,0.01743,0,0,0.0003405
74100000000,74400000000,4809848122,0,30790397,0.000371,0.001322,0.002098,0.0002918,0.000721,0.001699,9.537e-07,0,0.001135,7.153e-05,3.579,0.01281,0,0,0.0001516
74400000000,74700000000,4809848122,0,30790397,0.000351,0.001266,0.00194,0.0002432,0.0006723,0.001268,2.861e-06,0,0.00103,0.0005713,3.561,0.01266,0,0,0.0001822
74700000000,75000000000,4809848122,0,30790397,0.0002565,0.001266,0.00194,0.0002451,0.0006733,0.001268,0,0,0.001486,7.153e-05,2.663,0.008019,0,0,0.000267
75000000000,75300000000,4809848122,0,30790397,0.0002565,0.001266,0.00194,0.0002451,0.0006733,0.001266,0,0,0.003376,7.153e-05,2.693,0.008188,0,0,0.0006504
75300000000,75600000000,4809848122,0,30790397,0.0002556,0.001266,0.00194,0.0002451,0.0006733,0.001266,0,0,0.000823,7.153e-05,2.764,0.008512,0,0,0.0002174
75600000000,75900000000,4809848122,0,30790397,0.0003862,0.001276,0.002064,0.0002384,0.0006666,0.001347,3.815e-06,0,0.007858,0.0003567,3.457,0.01197,0,0,0.0002069
75900000000,76200000000,4809848122,0,30790397,0.0003958,0.001278,0.00194,0.0002241,0.0006533,0.001282,9.537e-07,0,0.001055,7.153e-05,3.857,0.01414,0,0,0.0003138
76200000000,76500000000,4809848122,0,30790397,0.00037,0.001278,0.00194,0.0002241,0.0006533,0.001278,2.861e-06,0,0.001421,0.0005713,3.867,0.01411,0,0,0.0002213
76500000000,76800000000,4809848122,0,30790397,0.0002527,0.001278,0.00194,0.0002241,0.0006533,0.001278,0,0,0.0007305,7.153e-05,2.728,0.008298,0,0,0.0002193
76800000000,77100000000,4809848122,0,30790397,0.0002537,0.001278,0.00194,0.0002251,0.0006533,0.001278,0,0,0.0008516,7.153e-05,2.761,0.008434,0,0,0.0001211
77100000000,77400000000,4809848122,0,30790397,0.0002537,0.001278,0.00194,0.0002251,0.0006533,0.001278,1.907e-06,0,0.000742,7.153e-05,2.703,0.008171,0,0,0.0005989
77400000000,77700000000,4809848122,0,30790397,0.0005207,0.001295,0.002064,0.0002127,0.0006418,0.001381,5.722e-06,0,0.01105,0.0008574,3.564,0.01255,0,0,0.0003004
77700000000,78000000000,4809848122,0,30790397,0.0006599,0.001312,0.001938,0.0001926,0.0006218,0.001314,2.861e-06,0,0.01428,0.0001431,5.237,0.02088,0,0,0.0006933
78000000000,78300000000,4809848122,0,30790397,0.0005264,0.001312,0.001938,0.0001936,0.0006227,0.001312,2.861e-06,0,0.004524,0.0001431,4.667,0.01802,0,0,0.0001593
78300000000,78600000000,4809848122,0,30790397,0.0002632,0.001308,0.00194,0.0001936,0.0006227,0.00131,0,0,0.0007896,7.153e-05,3.036,0.0096,0,0,0.0001965
78600000000,78900000000,4809848122,0,30790397,0.0002632,0.001308,0.00194,0.0001936,0.0006227,0.001308,9.537e-07,0,0.0008144,7.153e-05,2.85,0.008765,0,0,0.0001221
78900000000,79200000000,4809848122,0,30790397,0.0002623,0.001308,0.00194,0.0001936,0.0006227,0.001308,0,0,0.0007296,7.153e-05,2.935,0.009078,0,0,0.0002098
79200000000,79500000000,4809848122,0,30790397,0.0003366,0.001316,0.002068,0.0001936,0.0006227,0.001383,1.907e-06,0,0.003601,0.0001431,3.539,0.01212,0,0,0.001669
79500000000,79800000000,4809848122,0,30790397,0.000597,0.001318,0.002068,0.0001936,0.0006227,0.001339,9.537e-06,0,0.0166,0.0005713,4.313,0.017,0,0,0.000227
79800000000,80100000000,4809848122,0,30790397,0.001034,0.001343,0.00238,0.000186,0.0006151,0.001427,9.537e-06,0,0.03333,0.0006428,4.276,0.01712,0,0,0.001696
80100000000,80400000000,4809848122,0,30790397,0.0007439,0.001343,0.002224,0.0001745,0.0006037,0.001427,1.049e-05,0,0.009338,0.001143,4.88,0.01945,0,0,0.0008392
80400000000,80700000000,4809848122,0,30790397,0.0004835,0.001328,0.001938,0.0001726,0.0006018,0.001329,4.768e-06,0,0.00141,0.0003567,4.463,0.01708,0,0,0.0006342
80700000000,81000000000,4809848122,0,30790397,0.0002928,0.001326,0.001938,0.0001726,0.0006018,0.001328,1.907e-06,0,0.001074,0.0001431,3.158,0.01044,0,0,0.0005846
85800000000,86100000000,4809848122,0,30790397,0.0002527,0.00141,0.001938,0.000124,0.0005198,0.00141,9.537e-07,0,0.0007172,0.0001431,2.726,0.008484,0,0,0.00035
86100000000,86400000000,4809848122,0,30790397,0.0002565,0.00141,0.001938,0.000124,0.0005198,0.00141,0,0,0.0007658,0,2.658,0.007865,0,0,0.0002594
86400000000,86700000000,4809848122,0,30790397,0.0004292,0.001411,0.001938,0.000124,0.0005198,0.001415,2.861e-06,0,0.0141,7.153e-05,3.514,0.01281,0,0,0.0006971
86700000000,87000000000,4809848122,0,30790397,0.0004606,0.001411,0.001938,0.0001259,0.0005217,0.001415,3.815e-06,0,0.001112,0.0002861,4.009,0.0153,0,0,0.0001612
87000000000,87300000000,4809848122,0,30790397,0.0004301,0.001411,0.001938,0.0001259,0.0005217,0.001411,9.537e-07,0,0.002636,7.153e-05,4.321,0.01657,0,0,0.0003643
87300000000,87600000000,4809848122,0,30790397,0.0002651,0.00141,0.001938,0.0001259,0.0005217,0.001411,0,0,0.0009022,7.153e-05,2.86,0.008803,0,0,0.0001564
87600000000,87900000000,4809848122,0,30790397,0.0002651,0.00141,0.001938,0.0001259,0.0005217,0.00141,0,0,0.001017,7.153e-05,2.891,0.009002,0,0,0.0001888
87900000000,88200000000,4809848122,0,30790397,0.0002604,0.00141,0.001938,0.0001259,0.0005217,0.001411,0,0,0.0007343,7.153e-05,3.05,0.009679,0,0,0.0006742
88200000000,88500000000,4809848122,0,30790397,0.0003843,0.001415,0.002064,0.0001268,0.0005217,0.001459,3.815e-06,0,0.01462,0.0007143,3.37,0.01173,0,0,0.0002937
88500000000,88800000000,4809848122,0,30790397,0.0004063,0.001413,0.001938,0.0001259,0.0005188,0.001417,1.907e-06,0,0.001196,7.153e-05,4.081,0.01573,0,0,0.0002232
88800000000,89100000000,4809848122,0,30790397,0.0003805,0.001411,0.001938,0.0001259,0.0005188,0.001411,2.861e-06,0,0.001226,0.0001431,3.876,0.01442,0,0,0.0002422
89100000000,89400000000,4809848122,0,30790397,0.0002565,0.001411,0.001938,0.0001259,0.0005188,0.001411,0,0,0.0007381,0,2.801,0.008789,0,0,0.0002003
89400000000,89700000000,4809848122,0,30790397,0.0002575,0.001411,0.001938,0.0001259,0.0005198,0.001411,9.537e-07,0,0.0007553,7.153e-05,3.302,0.01123,0,0,0.000185
89700000000,90000000000,4809848122,0,30790397,0.0002584,0.001411,0.001938,0.0001259,0.0005198,0.001411,9.537e-07,0,0.0007963,7.153e-05,2.999,0.0097,0,0,0.0002241
90000000000,90300000000,4809848122,0,30790397,0.0004187,0.001417,0.002064,0.0001268,0.0005207,0.001476,1.907e-06,0,0.007172,0.0001431,3.463,0.01234,0,0,0.0003042
90300000000,90600000000,4809848122,0,30790397,0.0004692,0.001413,0.001938,0.0001268,0.0005207,0.001417,9.537e-07,0,0.001284,7.153e-05,4.589,0.01839,0,0,0.0004416
90600000000,90900000000,4809848122,0,30790397,0.000432,0.001411,0.001938,0.0001278,0.0005207,0.001413,1.907e-06,0,0.001797,0.0005713,4.503,0.01782,0,0,0.0003815
101100000000,101400000000,4809848122,0,3299641544,0.0003958,0.001352,0.003868,0.0008602,0.001289,0.001608,9.537e-07,0,0.001068,7.153e-05,3.965,0.01444,0,0,0.0003252
101400000000,101700000000,4809848122,0,3299641544,0.0003681,0.001329,0.003876,0.0006084,0.001038,0.001341,4.768e-06,0,0.00136,0.001215,3.627,0.01233,0,0,0.0005159
101700000000,102000000000,4809848122,0,3299641544,0.0002718,0.00132,0.003876,0.0005922,0.001022,0.001326,0,0,0.0008278,7.153e-05,2.859,0.008683,0,0,0.0004587
102000000000,102300000000,4809848122,0,3299641544,0.0002728,0.001318,0.003876,0.0005922,0.001022,0.001318,0,0,0.0008316,7.153e-05,2.87,0.008626,0,0,0.0001287
102300000000,102600000000,4809848122,0,3299641544,0.0002689,0.001318,0.003876,0.0005922,0.001022,0.00132,9.537e-07,0,0.0009298,0.0002146,2.882,0.008678,0,0,0.0004988
102600000000,102900000000,4809848122,0,3299641544,0.0003967,0.001333,0.003876,0.0005808,0.001011,0.001356,9.537e-07,0,0.006973,7.153e-05,3.033,0.009601,0,0,0.0001163
102900000000,103200000000,4809848122,0,3299641544,0.0003862,0.00135,0.003876,0.0005445,0.0009737,0.001362,1.907e-06,0,0.00182,0.0002861,3.692,0.01316,0,0,0.0002842
103200000000,103500000000,4809848122,0,3299641544,0.0003633,0.00135,0.003876,0.0005312,0.0009604,0.001364,9.537e-07,0,0.002651,0.0002146,3.698,0.01264,0,0,0.0001965
103500000000,103800000000,4809848122,0,3299641544,0.0002794,0.001347,0.003876,0.0005026,0.0009317,0.00136,0,0,0.0008173,7.153e-05,2.787,0.008125,0,0,0.0001812
103800000000,104100000000,4809848122,0,3299641544,0.0002642,0.001341,0.003876,0.0005016,0.0009308,0.001343,0,0,0.0006895,0.0001431,2.863,0.008654,0,0,0.0001211
104100000000,104400000000,4809848122,0,3299641544,0.0002689,0.001343,0.003876,0.0004978,0.000927,0.001345,0,0,0.000968,0,2.864,0.008581,0,0,0.000536
104400000000,104700000000,4809848122,0,3299641544,0.0003643,0.001343,0.003876,0.0004902,0.0009193,0.001345,5.722e-06,0,0.01987,0.0009289,2.926,0.008706,0,0,0.0003195
104700000000,105000000000,4809848122,0,3299641544,0.0003252,0.001343,0.003876,0.0004864,0.0009155,0.001345,9.537e-07,0,0.0007172,7.153e-05,2.985,0.009055,0,0,0.0001192
105000000000,105300000000,4809848122,0,3299641544,0.0003128,0.001341,0.003876,0.0004873,0.0009165,0.001341,9.537e-07,0,0.001257,0.0002861,2.825,0.008227,0,0,0.0005465
105300000000,105600000000,4809848122,0,3299641544,0.0002804,0.001339,0.003876,0.0004873,0.0009165,0.001339,0,0,0.001324,0,2.575,0.007061,0,0,0.0001831
105600000000,105900000000,4809848122,0,3299641544,0.0002785,0.001339,0.003876,0.0004873,0.0009165,0.001339,0,0,0.0006142,0.0001431,2.492,0.006763,0,0,0.000124
105900000000,106200000000,4809848122,0,3299641544,0.0002747,0.001339,0.003876,0.0004873,0.0009165,0.001339,1.907e-06,0,0.0008583,0.0005713,2.452,0.006585,0,0,0.00035
106200000000,106500000000,4809848122,0,3299641544,0.0003605,0.001341,0.003876,0.0004854,0.0009146,0.001343,1.907e-06,0,0.005867,0.0001431,2.631,0.007595,0,0,0.0006161
106500000000,106800000000,4809848122,0,3299641544,0.0003901,0.001341,0.003876,0.0004845,0.0009136,0.001343,9.537e-07,0,0.0009365,0.0002146,3.397,0.01105,0,0,0.0002289
106800000000,107100000000,4809848122,0,3299641544,0.0003815,0.001339,0.003876,0.0004845,0.0009136,0.001341,0,0,0.004929,0.0001431,3.291,0.01034,0,0,0.000246
107100000000,107400000000,4809848122,0,3299641544,0.0002708,0.001341,0.003876,0.0004845,0.0009136,0.001341,0,0,0.0008326,0.0001431,2.379,0.0063,0,0,0.000536
107400000000,107700000000,4809848122,0,3299641544,0.0002737,0.001339,0.003876,0.0004845,0.0009136,0.001341,0,0,0.0005493,7.153e-05,2.443,0.006429,0,0,0.0002041
107700000000,108000000000,4809848122,0,3299641544,0.0002747,0.001339,0.003876,0.0004845,0.0009136,0.001339,0,0,0.0008726,0,2.558,0.007013,0,0,0.0004663
108000000000,108300000000,4809848122,0,3299641544,0.0004416,0.001343,0.003876,0.0004835,0.0009127,0.001348,1.907e-06,0,0.007172,0.0001431,3.025,0.009211,0,0,0.0006304
108300000000,108600000000,4809848122,0,3299641544,0.0004797,0.001345,0.003876,0.0004826,0.0009117,0.001347,9.537e-07,0,0.0007038,0.0001431,3.681,0.01287,0,0,0.0003757
108600000000,108900000000,4809848122,0,3299641544,0.0004358,0.001343,0.003876,0.0004826,0.0009117,0.001345,0,0,0.001549,7.153e-05,3.527,0.0121,0,0,0.0007486
108900000000,109200000000,4809848122,0,3299641544,0.0002756,0.001343,0.003876,0.0004826,0.0009117,0.001343,0,0,0.0007687,0,2.394,0.006337,0,0,0.000597
109200000000,109500000000,4809848122,0,3299641544,0.0002766,0.001343,0.003876,0.0004826,0.0009117,0.001343,0,0,0.001366,7.153e-05,2.491,0.006686,0,0,0.000164
109500000000,109800000000,4809848122,0,3299641544,0.0002718,0.001343,0.003876,0.0004826,0.0009117,0.001343,0,0,0.0008287,0,2.42,0.006476,0,0,8.106e-05
109800000000,110100000000,4809848122,0,3299641544,0.0003777,0.001345,0.003876,0.0004835,0.0009127,0.001348,1.907e-06,0,0.006264,0.0001431,2.609,0.007416,0,0,0.000515
110100000000,110400000000,4809848122,0,3299641544,0.0003862,0.001345,0.003876,0.0004845,0.0009136,0.001347,1.907e-06,0,0.01425,7.153e-05,3.186,0.01001,0,0,0.0003004
110400000000,110700000000,4809848122,0,3299641544,0.0003376,0.001343,0.003876,0.0004845,0.0009136,0.001343,9.537e-07,0,0.001251,0.0001431,3.223,0.01028,0,0,0.0003405
110700000000,111000000000,4809848122,0,3299641544,0.0002794,0.001343,0.003876,0.0004845,0.0009136,0.001343,0,0,0.0008583,0,2.59,0.007218,0,0,0.0001106
116100000000,116400000000,4809848122,0,3299641544,0.0002708,0.001295,0.00388,0.0002651,0.0006838,0.001297,0,0,0.0008316,7.153e-05,2.306,0.005958,0,0,0.0001106
116400000000,116700000000,4809848122,0,3299641544,0.0002728,0.001295,0.00388,0.0002651,0.0006838,0.001297,0,0,0.001093,7.153e-05,2.33,0.005947,0,0,0.000309
116700000000,117000000000,4809848122,0,3299641544,0.0003281,0.001297,0.00388,0.0002623,0.00068,0.001299,9.537e-07,0,0.003857,7.153e-05,2.588,0.007323,0,0,0.000104
117000000000,117300000000,4809848122,0,3299641544,0.0003347,0.001297,0.00388,0.0002575,0.0006762,0.001299,0,0,0.0006857,7.153e-05,2.719,0.007993,0,0,0.000205
117300000000,117600000000,4809848122,0,3299641544,0.0003309,0.001297,0.00388,0.0002575,0.0006762,0.001297,9.537e-07,0,0.0009375,7.153e-05,2.637,0.007624,0,0,0.0002251
117600000000,117900000000,4809848122,0,3299641544,0.0002699,0.001295,0.00388,0.0002584,0.0006762,0.001295,9.537e-07,0,0.001043,7.153e-05,2.231,0.005523,0,0,0.000577
117900000000,118200000000,4809848122,0,3299641544,0.0002794,0.001295,0.00388,0.0002584,0.0006762,0.001295,9.537e-07,0,0.001045,7.153e-05,2.495,0.006574,0,0,0.0005732
118200000000,118500000000,4809848122,0,3299641544,0.0002785,0.001293,0.00388,0.0002584,0.0006762,0.001295,0,0,0.0008268,0,2.478,0.006576,0,0,0.0001564
118500000000,118800000000,4809848122,0,3299641544,0.0004072,0.001295,0.003876,0.0002584,0.0006771,0.001299,5.722e-06,0,0.008728,0.001358,2.971,0.00895,0,0,0.0001965
118800000000,119100000000,4809848122,0,3299641544,0.0004501,0.001295,0.003876,0.0002594,0.0006781,0.001297,1.907e-06,0,0.001074,7.153e-05,3.51,0.01175,0,0,0.0001774
119100000000,119400000000,4809848122,0,3299641544,0.0004129,0.001295,0.003876,0.0002594,0.0006781,0.001295,9.537e-07,0,0.001165,7.153e-05,3.465,0.01138,0,0,0.0002851
119400000000,119700000000,4809848122,0,3299641544,0.0002813,0.001295,0.00388,0.0002594,0.0006781,0.001297,1.907e-06,0,0.0008802,7.153e-05,2.54,0.006756,0,0,0.0001278
119700000000,120000000000,4809848122,0,3299641544,0.0002737,0.001295,0.00388,0.0002594,0.0006781,0.001297,9.537e-07,0,0.000886,7.153e-05,2.457,0.006651,0,0,0.000104
120000000000,120300000000,4809848122,0,3299641544,0.0002756,0.001295,0.00388,0.0002594,0.0006781,0.001295,0,0,0.0005388,0,2.652,0.007506,0,0,0.0002012
120300000000,120600000000,4809848122,0,3299641544,0.0003386,0.001297,0.003876,0.0002604,0.0006781,0.001299,1.907e-06,0,0.003307,7.153e-05,2.451,0.006817,0,0,0.0002499
120600000000,120900000000,4809848122,0,3299641544,0.0003481,0.001297,0.003876,0.0002604,0.000679,0.001299,1.907e-06,0,0.001345,0.0005713,2.887,0.009444,0,0,0.0008392
126000000000,126300000000,4809848122,0,3299641544,0.0004787,0.001322,0.003876,0.0002346,0.0006533,0.001324,9.537e-07,0,0.001202,0.0002146,3.95,0.01383,0,0,0.0008278
126300000000,126600000000,4809848122,0,3299641544,0.0004177,0.001322,0.003876,0.0002346,0.0006533,0.001322,0,0,0.007042,7.153e-05,3.826,0.01364,0,0,0.0004292
126600000000,126900000000,4809848122,0,3299641544,0.0002794,0.001322,0.00388,0.0002346,0.0006533,0.001322,0,0,0.0007553,0,2.546,0.006885,0,0,0.0001545
126900000000,127200000000,4809848122,0,3299641544,0.0002775,0.001322,0.00388,0.0002346,0.0006533,0.001322,0,0,0.0005493,7.153e-05,2.558,0.007101,0,0,0.0002108
127200000000,127500000000,4809848122,0,3299641544,0.0002747,0.001322,0.00388,0.0002346,0.0006533,0.001322,0,0,0.0009346,0,2.628,0.007525,0,0,0.0001421
127500000000,127800000000,4809848122,0,3299641544,0.0005407,0.001326,0.003876,0.0002298,0.0006485,0.001333,2.861e-06,0,0.00721,0.0002146,3.166,0.01005,0,0,0.000186
127800000000,128100000000,4809848122,0,3299641544,0.0006084,0.001331,0.003876,0.0002251,0.0006437,0.001333,2.861e-06,0,0.009415,7.153e-05,4.551,0.01656,0,0,0.0005522
128100000000,128400000000,4809848122,0,3299641544,0.0004864,0.001329,0.003876,0.0002251,0.0006437,0.001329,9.537e-07,0,0.003014,7.153e-05,3.875,0.01321,0,0,0.000598
128400000000,128700000000,4809848122,0,3299641544,0.0002775,0.001329,0.00388,0.000226,0.0006437,0.001329,0,0,0.0005112,7.153e-05,2.372,0.006306,0,0,0.0001545
128700000000,129000000000,4809848122,0,3299641544,0.0002861,0.001329,0.00388,0.000226,0.0006437,0.001329,0,0,0.000843,7.153e-05,2.431,0.006349,0,0,0.000617
129000000000,129300000000,4809848122,0,3299641544,0.0002823,0.001329,0.00388,0.000226,0.0006437,0.001329,0,0,0.01077,7.153e-05,2.66,0.007407,0,0,0.0001936
129300000000,129600000000,4809848122,0,3299641544,0.0004349,0.001329,0.003876,0.000226,0.0006447,0.001333,2.861e-06,0,0.01231,0.0001431,2.777,0.008245,0,0,0.003281
129600000000,129900000000,4809848122,0,3299641544,0.0005407,0.001331,0.003876,0.000227,0.0006456,0.001331,2.861e-06,0,0.008911,7.153e-05,3.484,0.01179,0,0,0.0007515
129900000000,130200000000,4809848122,0,3299641544,0.0004501,0.001331,0.003876,0.0002279,0.0006466,0.001331,2.861e-06,0,0.003513,7.153e-05,3.671,0.01306,0,0,0.0001411
130200000000,130500000000,4809848122,0,3299641544,0.0002785,0.001329,0.00388,0.0002279,0.0006466,0.001329,0,0,0.002029,7.153e-05,2.412,0.006472,0,0,0.0001745
130500000000,130800000000,4809848122,0,3299641544,0.0002775,0.001329,0.00388,0.0002279,0.0006466,0.001329,9.537e-07,0,0.00072,7.153e-05,2.563,0.007308,0,0,0.0002003
130800000000,131100000000,4809848122,0,3299641544,0.0002794,0.001328,0.00388,0.0002279,0.0006466,0.001329,0,0,0.00288,0,2.374,0.006321,0,0,0.0001154
141000000000,141300000000,4809848122,0,30790397,0.0003328,0.00131,0.001938,0.0003433,0.000618,0.00131,0,0,0.001732,7.153e-05,4.155,0.01475,0,0,0.000145
141300000000,141600000000,4809848122,0,30790397,0.0002499,0.001308,0.001938,0.0003433,0.000618,0.00131,0,0,0.003559,0,2.843,0.009026,0,0,0.0001154
141600000000,141900000000,4809848122,0,30790397,0.000247,0.001308,0.001938,0.0003433,0.0006189,0.00131,0,0,0.001091,7.153e-05,2.596,0.007887,0,0,0.0001326
141900000000,142200000000,4809848122,0,30790397,0.0002499,0.001308,0.001938,0.0003433,0.0006189,0.001308,0,0,0.0007963,0,2.734,0.008621,0,0,0.000123
142200000000,142500000000,4809848122,0,30790397,0.0004301,0.001312,0.001938,0.0003433,0.0006189,0.001314,1.144e-05,0,0.004395,0.001858,3.402,0.01245,0,0,0.0008554
142500000000,142800000000,4809848122,0,30790397,0.0003843,0.00131,0.001938,0.0003443,0.0006189,0.00131,0,0,0.001234,7.153e-05,3.654,0.01346,0,0,0.0003719
142800000000,143100000000,4809848122,0,30790397,0.0002928,0.00131,0.001938,0.0003443,0.0006199,0.00131,9.537e-07,0,0.00107,7.153e-05,3.105,0.01048,0,0,0.0001354
143100000000,143400000000,4809848122,0,30790397,0.0002527,0.00131,0.001938,0.0003443,0.0006199,0.00131,0,0,0.00104,0,2.911,0.009338,0,0,0.0001936
143400000000,143700000000,4809848122,0,30790397,0.0002556,0.00131,0.001938,0.0003443,0.0006199,0.00131,9.537e-07,0,0.001133,7.153e-05,2.848,0.009006,0,0,0.0001192
143700000000,144000000000,4809848122,0,30790397,0.0002527,0.00131,0.001938,0.0003443,0.0006199,0.00131,0,0,0.0006971,0,3.031,0.009907,0,0,0.0002337
144000000000,144300000000,4809848122,0,30790397,0.0006351,0.001322,0.002064,0.0003386,0.0006142,0.001385,5.722e-06,0,0.00882,0.0005713,3.965,0.01519,0,0,0.0008383
144300000000,144600000000,4809848122,0,30790397,0.0005579,0.001316,0.001936,0.0003309,0.0006056,0.001316,0,0,0.00116,7.153e-05,4.686,0.01871,0,0,0.0006676
144600000000,144900000000,4809848122,0,30790397,0.0003366,0.001314,0.001938,0.000329,0.0006046,0.001316,1.907e-06,0,0.001541,7.153e-05,3.597,0.01295,0,0,0.0002108
144900000000,145200000000,4809848122,0,30790397,0.0002508,0.001314,0.001938,0.000329,0.0006046,0.001316,3.815e-06,0,0.0007687,0.0007143,2.811,0.008922,0,0,0.000145
145200000000,145500000000,4809848122,0,30790397,0.0002537,0.001314,0.001938,0.000329,0.0006046,0.001316,9.537e-07,0,0.001413,0.0002146,2.657,0.008157,0,0,0.0002289
145500000000,145800000000,4809848122,0,30790397,0.0002546,0.001314,0.001938,0.000329,0.0006046,0.001314,0,0,0.0008955,0,2.805,0.008835,0,0,0.000123
145800000000,146100000000,4809848122,0,30790397,0.000495,0.001333,0.002068,0.0003223,0.000598,0.001347,1.144e-05,0,0.006317,0.001999,3.932,0.01504,0,0,0.0003605
151200000000,151500000000,4809848122,0,30790397,0.000598,0.001352,0.001938,0.0003071,0.0005827,0.001354,5.722e-06,0,0.02191,0.0003567,4.183,0.01625,0,0,0.0001259
151500000000,151800000000,4809848122,0,30790397,0.0004654,0.001352,0.001938,0.000308,0.0005827,0.001354,1.907e-06,0,0.006531,7.153e-05,5.018,0.01908,0,0,0.0002298
151800000000,152100000000,4809848122,0,30790397,0.0003223,0.001352,0.001938,0.000308,0.0005836,0.001354,9.537e-07,0,0.001282,7.153e-05,4.262,0.01547,0,0,0.0002041
152100000000,152400000000,4809848122,0,30790397,0.0002737,0.00135,0.001938,0.000308,0.0005836,0.001354,0,0,0.002884,7.153e-05,3.647,0.01199,0,0,0.0004425
152400000000,152700000000,4809848122,0,30790397,0.0002785,0.001352,0.001938,0.000308,0.0005836,0.001354,9.537e-07,0,0.0006981,7.153e-05,3.393,0.01098,0,0,0.0002079
152700000000,153000000000,4809848122,0,30790397,0.0002699,0.00135,0.001938,0.000308,0.0005836,0.00135,0,0,0.0008831,0,3.404,0.01106,0,0,0.0001974
153000000000,153300000000,4809848122,0,30790397,0.0004683,0.001356,0.002068,0.0003052,0.0005808,0.001392,2.861e-06,0,0.008743,7.153e-05,4.249,0.01651,0,0,0.0003462
153300000000,153600000000,4809848122,0,30790397,0.0003862,0.001352,0.001938,0.0003052,0.0005808,0.001352,9.537e-07,0,0.001009,7.153e-05,4.265,0.01544,0,0,0.0002489
153600000000,153900000000,4809848122,0,30790397,0.0003052,0.001352,0.001938,0.0003052,0.0005808,0.001352,1.907e-06,0,0.001478,7.153e-05,3.595,0.01233,0,0,0.000247
153900000000,154200000000,4809848122,0,30790397,0.0002775,0.001352,0.001938,0.0003052,0.0005808,0.001352,9.537e-07,0,0.001026,7.153e-05,3.371,0.01078,0,0,0.0003538
154200000000,154500000000,4809848122,0,30790397,0.0002775,0.001352,0.001938,0.0003052,0.0005808,0.001352,9.537e-07,0,0.001249,7.153e-05,3.543,0.01151,0,0,0.0001926
154500000000,154800000000,4809848122,0,30790397,0.0002604,0.001352,0.001938,0.0003052,0.0005808,0.001352,0,0,0.0007048,7.153e-05,3.353,0.01115,0,0,0.0001326
154800000000,155100000000,4809848122,0,30790397,0.0005426,0.001356,0.002068,0.0003042,0.0005798,0.001366,6.676e-06,0,0.008026,0.0007858,4.117,0.01669,0,0,0.0008087
155100000000,155400000000,4809848122,0,30790397,0.0004854,0.001354,0.001936,0.0003033,0.0005789,0.001354,0,0,0.001242,0,4.14,0.01596,0,0,0.0005951
155400000000,155700000000,4809848122,0,30790397,0.0003271,0.001354,0.001938,0.0003033,0.0005789,0.001354,9.537e-07,0,0.002514,7.153e-05,3.229,0.01102,0,0,0.0002031
155700000000,156000000000,4809848122,0,30790397,0.0002546,0.001354,0.001938,0.0003033,0.0005789,0.001354,0,0,0.0008736,0,2.619,0.007801,0,0,0.0002155
161100000000,161400000000,4809848122,0,30790397,0.0002642,0.001354,0.001938,0.0003033,0.0005789,0.001354,0,0,0.0007238,0,3.278,0.01057,0,0,0.0002136
161400000000,161700000000,4809848122,0,30790397,0.0002584,0.001354,0.001938,0.0003033,0.0005789,0.001354,0,0,0.001415,7.153e-05,3.032,0.009619,0,0,0.0002403
161700000000,162000000000,4809848122,0,30790397,0.0002546,0.001354,0.001938,0.0003033,0.0005789,0.001354,1.907e-06,0,0.0007782,0.0002861,2.689,0.008306,0,0,0.0001049
162000000000,162300000000,4809848122,0,30790397,0.0006361,0.001364,0.002064,0.0003023,0.0005779,0.001431,9.537e-06,0,0.01256,0.0009995,4.609,0.01955,0,0,0.0002127
162300000000,162600000000,4809848122,0,30790397,0.0005283,0.001356,0.001936,0.0003023,0.0005779,0.001358,0,0,0.001392,7.153e-05,4.256,0.01648,0,0,0.0003548
162600000000,162900000000,4809848122,0,30790397,0.00035,0.001356,0.001938,0.0003023,0.0005779,0.001358,3.815e-06,0,0.00198,0.0009995,3.772,0.01295,0,0,0.0001163
162900000000,163200000000,4809848122,0,30790397,0.0002832,0.001356,0.001938,0.0003023,0.0005779,0.001356,0,0,0.003338,0,3.428,0.01072,0,0,0.0002546
163200000000,163500000000,4809848122,0,30790397,0.0002804,0.001356,0.001938,0.0003023,0.0005779,0.001356,6.676e-06,0,0.00157,0.001858,3.586,0.01136,0,0,0.0002375
163500000000,163800000000,4809848122,0,30790397,0.0002794,0.001356,0.001938,0.0003023,0.0005779,0.001356,0,0,0.0008259,0,3.339,0.01032,0,0,0.0002184
163800000000,164100000000,4809848122,0,30790397,0.0005426,0.001364,0.002068,0.0003004,0.000576,0.001431,6.676e-06,0,0.01794,0.0009995,4.383,0.01664,0,0,0.000493
164100000000,164400000000,4809848122,0,30790397,0.0004177,0.001356,0.001938,0.0002995,0.0005751,0.001358,9.537e-07,0,0.001141,7.153e-05,4.885,0.01755,0,0,0.0007954
164400000000,164700000000,4809848122,0,30790397,0.0003223,0.001356,0.001938,0.0002995,0.0005751,0.001356,9.537e-07,0,0.004219,7.153e-05,3.98,0.01338,0,0,0.0001326
164700000000,165000000000,4809848122,0,30790397,0.0002728,0.001356,0.001938,0.0002995,0.0005751,0.001358,0,0,0.003334,0,3.557,0.0116,0,0,0.0002851
165000000000,165300000000,4809848122,0,30790397,0.0002661,0.001356,0.001938,0.0003004,0.000576,0.001358,4.768e-06,0,0.001671,0.0009995,2.963,0.009491,0,0,0.0006981
165300000000,165600000000,4809848122,0,30790397,0.0002594,0.001356,0.001938,0.0003004,0.000576,0.001356,9.537e-07,0,0.0007696,7.153e-05,2.842,0.008964,0,0,0.0001955
165600000000,165900000000,4809848122,0,30790397,0.0004454,0.001364,0.002056,0.0003004,0.000576,0.001421,5.722e-06,0,0.006104,0.0007858,3.7,0.01449,0,0,0.0006046
165900000000,166200000000,4809848122,0,30790397,0.0003719,0.001358,0.001938,0.0003014,0.000577,0.00136,9.537e-07,0,0.0008745,7.153e-05,3.855,0.01446,0,0,0.000227
166200000000,166500000000,4809848122,0,30790397,0.0002909,0.001356,0.001938,0.0003014,0.000577,0.001358,0,0,0.001801,7.153e-05,3.409,0.01196,0,0,0.0002308
166500000000,166800000000,4809848122,0,30790397,0.0002594,0.001356,0.001938,0.0003014,0.000577,0.001358,9.537e-07,0,0.0007515,7.153e-05,3.026,0.00982,0,0,0.0001259
166800000000,167100000000,4809848122,0,30790397,0.0002604,0.001356,0.001938,0.0003014,0.000577,0.001358,1.907e-06,0,0.002033,7.153e-05,2.798,0.00874,0,0,0.0002317
167100000000,167400000000,4809848122,0,30790397,0.0002642,0.001356,0.001938,0.0003014,0.000577,0.001358,0,0,0.0007563,7.153e-05,2.839,0.008796,0,0,0.0001221
167400000000,167700000000,4809848122,0,30790397,0.0003843,0.00136,0.00206,0.0003033,0.0005789,0.00139,8.583e-06,0,0.005745,0.0006428,3.977,0.01557,0,0,0.0001402
167700000000,168000000000,4809848122,0,30790397,0.0003262,0.001356,0.001938,0.0003042,0.0005798,0.001356,0,0,0.00116,7.153e-05,4.074,0.01425,0,0,0.0007792
168000000000,168300000000,4809848122,0,30790397,0.0002832,0.001356,0.001938,0.0003042,0.0005798,0.001356,9.537e-07,0,0.0008993,0.0001431,3.256,0.01072,0,0,0.000248
168300000000,168600000000,4809848122,0,30790397,0.0002613,0.001354,0.001938,0.0003042,0.0005798,0.001354,0,0,0.0006838,7.153e-05,3.282,0.01099,0,0,0.0001774
168600000000,168900000000,4809848122,0,30790397,0.0002613,0.001354,0.001938,0.0003042,0.0005798,0.001356,0,0,0.001776,7.153e-05,3.17,0.01042,0,0,0.0005455
168900000000,169200000000,4809848122,0,30790397,0.0002565,0.001354,0.001938,0.0003042,0.0005798,0.001356,0,0,0.0007401,0,3.076,0.01004,0,0,0.0004025
169200000000,169500000000,4809848122,0,30790397,0.0005407,0.001364,0.002064,0.0002995,0.000576,0.001436,3.815e-06,0,0.008438,0.0003567,4.277,0.0173,0,0,0.0005398
169500000000,169800000000,4809848122,0,30790397,0.0004721,0.001356,0.001938,0.0002985,0.0005741,0.001358,0,0,0.001173,0,4.304,0.01635,0,0,0.0009079
169800000000,170100000000,4809848122,0,30790397,0.0003157,0.001358,0.001938,0.0002985,0.0005751,0.00136,0,0,0.001738,7.153e-05,3.938,0.01447,0,0,0.000248
170100000000,170400000000,4809848122,0,30790397,0.0002699,0.001358,0.001938,0.0002985,0.0005751,0.001358,0,0,0.001545,0,3.54,0.01157,0,0,0.0005007
170400000000,170700000000,4809848122,0,30790397,0.0002632,0.001356,0.001938,0.0002985,0.0005751,0.001358,0,0,0.0006752,7.153e-05,2.693,0.008195,0,0,0.0001459
170700000000,171000000000,4809848122,0,30790397,0.0002556,0.001356,0.001938,0.0002985,0.0005751,0.001356,0,0,0.0008497,0,2.902,0.009181,0,0,0.0003395
171000000000,171300000000,4809848122,0,30790397,0.0004787,0.001358,0.001936,0.0002995,0.0005751,0.00136,4.768e-06,0,0.01212,0.0005713,4.048,0.01602,0,0,0.0004721
171300000000,171600000000,4809848122,0,30790397,0.0003471,0.001356,0.001938,0.0002995,0.000576,0.001358,4.768e-06,0,0.0009975,0.001072,3.696,0.01342,0,0,0.0005455
171600000000,171900000000,4809848122,0,30790397,0.0002823,0.001356,0.001938,0.0002995,0.000576,0.001356,9.537e-07,0,0.001801,7.153e-05,2.942,0.009453,0,0,0.0001984
171900000000,172200000000,4809848122,0,30790397,0.0002604,0.001354,0.001938,0.0002995,0.000576,0.001356,0,0,0.0009184,0,3.178,0.0105,0,0,0.0002136
172200000000,172500000000,4809848122,0,30790397,0.0002594,0.001354,0.001938,0.0002995,0.000576,0.001356,3.815e-06,0,0.00156,0.001143,3.027,0.009694,0,0,0.0001612
172500000000,172800000000,4809848122,0,30790397,0.0002584,0.001354,0.001938,0.0002995,0.000576,0.001354,0,0,0.0008011,0,3.061,0.01011,0,0,0.0001898
172800000000,173100000000,4809848122,0,30790397,0.0003948,0.001364,0.002068,0.0003014,0.0005779,0.001446,5.722e-06,0,0.00573,0.0004997,3.819,0.01516,0,0,0.0004425
173100000000,173400000000,4809848122,0,30790397,0.0003529,0.001356,0.001938,0.0003004,0.000577,0.001356,0,0,0.001167,7.153e-05,3.464,0.01215,0,0,0.0005589
173400000000,173700000000,4809848122,0,30790397,0.0002871,0.001356,0.001938,0.0003004,0.000577,0.001358,9.537e-07,0,0.002113,7.153e-05,3.433,0.01192,0,0,0.0001507
173700000000,174000000000,4809848122,0,30790397,0.0002613,0.001356,0.001938,0.0003004,0.000577,0.001356,0,0,0.004868,7.153e-05,2.909,0.009329,0,0,0.0004921
174000000000,174300000000,4809848122,0,30790397,0.0002613,0.001356,0.001938,0.0003014,0.000577,0.001356,0,0,0.005638,7.153e-05,2.622,0.007907,0,0,0.0001917
174300000000,174600000000,4809848122,0,30790397,0.0002718,0.001356,0.001938,0.0003014,0.000577,0.001356,0,0,0.000803,0,3.685,0.01232,0,0,0.0002756
174600000000,174900000000,4809848122,0,30790397,0.0003624,0.001366,0.002064,0.0002975,0.0005741,0.001484,1.049e-05,0,0.007515,0.001072,4.023,0.01554,0,0,0.0004454
174900000000,175200000000,4809848122,0,30790397,0.0003004,0.001356,0.001938,0.0002975,0.0005741,0.001356,1.907e-06,0,0.001135,0.0004282,3.045,0.01013,0,0,0.0002632
175200000000,175500000000,4809848122,0,30790397,0.0002689,0.001356,0.001938,0.0002975,0.0005741,0.001356,0,0,0.002209,7.153e-05,3.297,0.0111,0,0,0.0005026
175500000000,175800000000,4809848122,0,30790397,0.0002575,0.001356,0.001938,0.0002975,0.0005741,0.001358,0,0,0.001137,0,2.72,0.008314,0,0,0.0001974
175800000000,176100000000,4809848122,0,30790397,0.0002556,0.001356,0.001938,0.0002975,0.0005741,0.001358,0,0,0.0007515,7.153e-05,2.625,0.007864,0,0,0.0003414
186300000000,186600000000,4809848122,0,1436793372,0.0003891,0.001308,0.001942,0.0002346,0.0006046,0.00131,0,0,0.001497,0.0001431,3.186,0.01075,0,0,0.0004082
186600000000,186900000000,4809848122,0,1436793372,0.0002871,0.001308,0.001942,0.0002356,0.0006046,0.001308,9.537e-07,0,0.0007668,7.153e-05,2.548,0.007157,0,0,0.0001364
186900000000,187200000000,4809848122,0,1436793372,0.0002947,0.001307,0.001942,0.0002356,0.0006046,0.001308,9.537e-07,0,0.000639,0.0001431,2.543,0.006701,0,0,0.0001116
187200000000,187500000000,4809848122,0,1436793372,0.0002909,0.001307,0.001942,0.0002356,0.0006046,0.001307,0,0,0.0005703,7.153e-05,2.464,0.006382,0,0,0.0001516
187500000000,187800000000,4809848122,0,1436793372,0.0003357,0.001307,0.001942,0.0002356,0.0006046,0.001308,9.537e-07,0,0.007462,0.0001431,2.491,0.006621,0,0,0.0006771
187800000000,188100000000,4809848122,0,1436793372,0.0003748,0.001307,0.001942,0.0002356,0.0006056,0.001308,2.861e-06,0,0.001144,0.0004282,3.086,0.009326,0,0,0.000308
188100000000,188400000000,4809848122,0,1436793372,0.000349,0.001305,0.001942,0.0002356,0.0006056,0.001305,9.537e-07,0,0.001055,0.0001431,2.775,0.008066,0,0,0.0001612
188400000000,188700000000,4809848122,0,1436793372,0.0002804,0.001303,0.001942,0.0002356,0.0006056,0.001305,9.537e-07,0,0.000844,7.153e-05,2.263,0.005595,0,0,0.0005856
188700000000,189000000000,4809848122,0,1436793372,0.0002756,0.001303,0.001942,0.0002356,0.0006056,0.001303,9.537e-07,0,0.0009403,0.0002146,2.236,0.005539,0,0,0.0006847
189000000000,189300000000,4809848122,0,1436793372,0.0002794,0.001303,0.001942,0.0002365,0.0006056,0.001305,4.768e-06,0,0.0009308,0.001358,2.292,0.005776,0,0,0.0002232
189300000000,189600000000,4809848122,0,1436793372,0.0003033,0.001303,0.001942,0.0002365,0.0006056,0.001305,9.537e-07,0,0.002972,0.0001431,2.378,0.006142,0,0,0.0003071
189600000000,189900000000,4809848122,0,1436793372,0.0002842,0.001303,0.001942,0.0002365,0.0006065,0.001305,9.537e-07,0,0.0006342,7.153e-05,2.338,0.006127,0,0,0.0001564
189900000000,190200000000,4809848122,0,1436793372,0.0002918,0.001303,0.001942,0.0002365,0.0006065,0.001303,1.907e-06,0,0.0006332,0.0004282,2.423,0.006279,0,0,0.0002546
190200000000,190500000000,4809848122,0,1436793372,0.000288,0.001303,0.001942,0.0002365,0.0006065,0.001303,9.537e-07,0,0.0007896,7.153e-05,2.469,0.006365,0,0,0.0001411
190500000000,190800000000,4809848122,0,1436793372,0.000288,0.001303,0.001942,0.0002365,0.0006065,0.001303,9.537e-07,0,0.0006199,0.0001431,2.444,0.006315,0,0,0.0001087
190800000000,191100000000,4809848122,0,1436793372,0.0002975,0.001303,0.001942,0.0002375,0.0006065,0.001305,1.907e-06,0,0.001001,7.153e-05,2.538,0.006429,0,0,0.0002031
191100000000,191400000000,4809848122,0,1436793372,0.0003309,0.001303,0.001942,0.0002375,0.0006065,0.001307,4.768e-06,0,0.006012,0.0009995,2.582,0.006627,0,0,0.0008163
191400000000,191700000000,4809848122,0,1436793372,0.0003262,0.001303,0.001942,0.0002375,0.0006075,0.001305,9.537e-07,0,0.0009432,0.0001431,2.772,0.007555,0,0,0.0002966
191700000000,192000000000,4809848122,0,1436793372,0.0003166,0.001303,0.001942,0.0002375,0.0006075,0.001303,9.537e-07,0,0.001009,0.0001431,2.637,0.007125,0,0,0.0002174
192000000000,192300000000,4809848122,0,1436793372,0.0002928,0.001301,0.001942,0.0002375,0.0006075,0.001303,0,0,0.0008984,0,2.568,0.006652,0,0,0.0002632
192300000000,192600000000,4809848122,0,1436793372,0.0002985,0.001301,0.001942,0.0002375,0.0006075,0.001303,9.537e-07,0,0.000823,0.0001431,2.569,0.006647,0,0,0.0001297
192600000000,192900000000,4809848122,0,1436793372,0.0002966,0.001301,0.001942,0.0002384,0.0006075,0.001301,9.537e-07,0,0.0006838,0.0003567,2.486,0.00633,0,0,0.0003519
192900000000,193200000000,4809848122,0,1436793372,0.0003376,0.001303,0.001942,0.0002384,0.0006075,0.001305,2.861e-06,0,0.004974,0.0004282,2.6,0.006932,0,0,0.000659
193200000000,193500000000,4809848122,0,1436793372,0.0003452,0.001303,0.001942,0.0002384,0.0006084,0.001305,0,0,0.0008717,7.153e-05,2.777,0.007635,0,0,0.0003414
193500000000,193800000000,4809848122,0,1436793372,0.0003376,0.001301,0.001942,0.0002384,0.0006084,0.001303,9.537e-07,0,0.0007286,0.0002146,2.741,0.007397,0,0,0.0001354
193800000000,194100000000,4809848122,0,1436793372,0.0003023,0.001301,0.001942,0.0002384,0.0006084,0.001301,9.537e-07,0,0.0007877,0.0001431,2.505,0.006359,0,0,0.0003767
194100000000,194400000000,4809848122,0,1436793372,0.0003052,0.001301,0.001942,0.0002384,0.0006084,0.001303,9.537e-07,0,0.005524,0.0001431,2.579,0.006579,0,0,0.0007019
194400000000,194700000000,4809848122,0,1436793372,0.0003023,0.001301,0.001942,0.0002384,0.0006084,0.001301,0,0,0.0008268,0,2.59,0.006687,0,0,0.000104
194700000000,195000000000,4809848122,0,1436793372,0.0003309,0.001301,0.001942,0.0002384,0.0006084,0.001305,9.537e-07,0,0.004181,0.0002146,2.63,0.006931,0,0,0.0002041
195000000000,195300000000,4809848122,0,1436793372,0.0003176,0.001303,0.001942,0.0002394,0.0006084,0.001305,9.537e-07,0,0.000927,0.0002146,2.58,0.006726,0,0,0.0002995
195300000000,195600000000,4809848122,0,1436793372,0.0003042,0.001301,0.001942,0.0002394,0.0006084,0.001301,0,0,0.001156,7.153e-05,2.521,0.006585,0,0,0.0008478
195600000000,195900000000,4809848122,0,1436793372,0.0002918,0.001301,0.001942,0.0002394,0.0006094,0.001301,0,0,0.003429,0,2.431,0.006143,0,0,0.0001535
195900000000,196200000000,4809848122,0,1436793372,0.0002899,0.001301,0.001942,0.0002394,0.0006094,0.001301,0,0,0.0008373,7.153e-05,2.377,0.005904,0,0,0.0001564
201300000000,201600000000,4809848122,0,1436793372,0.0002956,0.001305,0.001942,0.0002451,0.0006151,0.001307,0,0,0.00115,0.0001431,2.556,0.006624,0,0,0.0001907
201600000000,201900000000,4809848122,0,1436793372,0.0002909,0.001305,0.001942,0.0002451,0.0006151,0.001307,0,0,0.001251,7.153e-05,2.46,0.006255,0,0,0.000288
201900000000,202200000000,4809848122,0,1436793372,0.0003891,0.001307,0.001942,0.0002451,0.0006151,0.001314,9.537e-07,0,0.009857,0.0001431,2.574,0.006942,0,0,0.0007315
202200000000,202500000000,4809848122,0,1436793372,0.0004349,0.001312,0.00194,0.000246,0.0006161,0.001314,9.537e-07,0,0.000926,7.153e-05,3.239,0.01015,0,0,0.0002594
202500000000,202800000000,4809848122,0,1436793372,0.0004168,0.00131,0.001942,0.000246,0.0006161,0.001312,0,0,0.003094,7.153e-05,3.51,0.01128,0,0,0.0003185
202800000000,203100000000,4809848122,0,1436793372,0.0002937,0.00131,0.001942,0.000246,0.0006161,0.001312,0,0,0.00127,0,2.643,0.007113,0,0,0.0002041
203100000000,203400000000,4809848122,0,1436793372,0.0002966,0.00131,0.001942,0.000247,0.0006161,0.00131,0,0,0.0006638,7.153e-05,2.653,0.006994,0,0,0.0002232
203400000000,203700000000,4809848122,0,1436793372,0.0002909,0.00131,0.001942,0.000247,0.0006161,0.001312,1.907e-06,0,0.0008984,0.0002861,2.425,0.006184,0,0,0.000268
203700000000,204000000000,4809848122,0,1436793372,0.000371,0.00131,0.001942,0.000247,0.0006161,0.001312,9.537e-07,0,0.005165,0.0001431,2.715,0.007225,0,0,0.0007563
204000000000,204300000000,4809848122,0,1436793372,0.00035,0.00131,0.001942,0.000248,0.000617,0.001312,4.768e-06,0,0.00106,0.0005713,2.876,0.008145,0,0,0.0001335
204300000000,204600000000,4809848122,0,1436793372,0.0003357,0.001308,0.001942,0.000248,0.000617,0.001308,1.907e-06,0,0.0008287,0.0005713,2.863,0.008023,0,0,0.000123
204600000000,204900000000,4809848122,0,1436793372,0.0002928,0.001307,0.001942,0.000248,0.000617,0.001308,0,0,0.0009346,7.153e-05,2.5,0.006527,0,0,0.0005245
204900000000,205200000000,4809848122,0,1436793372,0.000289,0.001308,0.001942,0.000248,0.000618,0.001308,9.537e-07,0,0.0008087,0.0001431,2.599,0.006894,0,0,0.0002241
205200000000,205500000000,4809848122,0,1436793372,0.0002851,0.001307,0.001942,0.000248,0.000618,0.001308,0,0,0.0005684,7.153e-05,2.411,0.006126,0,0,0.0001602
205500000000,205800000000,4809848122,0,1436793372,0.0004015,0.00131,0.00194,0.000248,0.000618,0.001318,1.907e-06,0,0.008926,0.0001431,2.653,0.007218,0,0,0.0001736
205800000000,206100000000,4809848122,0,1436793372,0.0004511,0.001314,0.00194,0.0002489,0.0006189,0.001318,1.907e-06,0,0.001251,7.153e-05,3.725,0.01245,0,0,0.000802
206100000000,206400000000,4809848122,0,1436793372,0.0004196,0.001312,0.00194,0.0002489,0.0006189,0.001314,0,0,0.00631,0.0001431,3.423,0.01098,0,0,0.0003939
206400000000,206700000000,4809848122,0,1436793372,0.0002842,0.001312,0.001942,0.0002499,0.0006189,0.001314,0,0,0.0008039,0,2.455,0.006388,0,0,0.0002251
206700000000,207000000000,4809848122,0,1436793372,0.0002699,0.001312,0.001942,0.0002499,0.0006189,0.001312,0,0,0.0008898,7.153e-05,2.484,0.00656,0,0,9.632e-05
207000000000,207300000000,4809848122,0,1436793372,0.0003052,0.001312,0.001942,0.0002499,0.0006189,0.001312,0,0,0.000762,7.153e-05,2.515,0.006707,0,0,0.0002651
207300000000,207600000000,4809848122,0,1436793372,0.0004225,0.001312,0.00194,0.0002499,0.0006189,0.001316,9.537e-07,0,0.008942,0.0001431,2.748,0.007772,0,0,0.0002937
207600000000,207900000000,4809848122,0,1436793372,0.0005026,0.001314,0.00194,0.0002518,0.0006208,0.001318,5.722e-06,0,0.003456,0.001072,3.843,0.01313,0,0,0.0006142
207900000000,208200000000,4809848122,0,1436793372,0.0004501,0.001312,0.00194,0.0002518,0.0006208,0.001312,9.537e-07,0,0.001377,0.0003567,3.908,0.01338,0,0,0.001059
208200000000,208500000000,4809848122,0,1436793372,0.0002899,0.00131,0.001942,0.0002518,0.0006218,0.001312,0,0,0.0008345,7.153e-05,2.584,0.006965,0,0,0.0005016
208500000000,208800000000,4809848122,0,1436793372,0.000288,0.00131,0.001942,0.0002518,0.0006218,0.001312,0,0,0.0007544,7.153e-05,2.439,0.006437,0,0,0.0001001
208800000000,209100000000,4809848122,0,1436793372,0.0002909,0.00131,0.001942,0.0002518,0.0006218,0.001312,9.537e-07,0,0.00115,0.0001431,2.499,0.006551,0,0,0.0006208
209100000000,209400000000,4809848122,0,1436793372,0.0004263,0.001318,0.002068,0.0002508,0.0006199,0.001354,1.907e-06,0,0.00914,0.0003567,2.783,0.007917,0,0,0.0001726
209400000000,209700000000,4809848122,0,1436793372,0.0005484,0.001316,0.00194,0.0002317,0.0006008,0.001335,1.907e-06,0,0.001482,7.153e-05,3.897,0.01309,0,0,0.0008411
209700000000,210000000000,4809848122,0,1436793372,0.0004826,0.001314,0.00194,0.0002308,0.0005999,0.001314,9.537e-07,0,0.001949,0.0001431,3.782,0.01274,0,0,0.0003128
210000000000,210300000000,4809848122,0,1436793372,0.0002947,0.001312,0.001942,0.0002308,0.0005999,0.001314,0,0,0.001221,7.153e-05,2.72,0.007386,0,0,0.0002508
210300000000,210600000000,4809848122,0,1436793372,0.000289,0.001312,0.001942,0.0002308,0.0005999,0.001312,6.676e-06,0,0.001451,0.001928,2.388,0.006063,0,0,0.000145
210600000000,210900000000,4809848122,0,1436793372,0.0002956,0.001312,0.001942,0.0002308,0.0006008,0.001314,2.861e-06,0,0.0008936,0.0007143,2.502,0.006477,0,0,0.0001421
210900000000,211200000000,4809848122,0,1436793372,0.0003691,0.001312,0.001942,0.0002308,0.0006008,0.001316,1.907e-06,0,0.005188,0.0003567,2.743,0.00766,0,0,0.0003376
211200000000,211500000000,4809848122,0,1436793372,0.0004387,0.001314,0.001942,0.0002317,0.0006008,0.001316,1.907e-06,0,0.001284,0.0003567,3.636,0.01182,0,0,0.0004854
211500000000,211800000000,4809848122,0,1436793372,0.0004072,0.001312,0.001942,0.0002317,0.0006008,0.001312,0,0,0.001366,7.153e-05,3.511,0.01131,0,0,0.0005827
211800000000,212100000000,4809848122,0,1436793372,0.0002956,0.001312,0.001942,0.0002317,0.0006018,0.001312,0,0,0.001108,0,2.846,0.007963,0,0,0.0006771
212100000000,212400000000,4809848122,0,1436793372,0.0002966,0.001312,0.001942,0.0002317,0.0006018,0.001312,9.537e-07,0,0.0008202,0.0002146,2.781,0.007705,0,0,0.0002823
212400000000,212700000000,4809848122,0,1436793372,0.0002861,0.001312,0.001942,0.0002317,0.0006018,0.001314,0,0,0.001106,0,2.542,0.006774,0,0,0.0001421
212700000000,213000000000,4809848122,0,1436793372,0.0003777,0.001312,0.001942,0.0002317,0.0006018,0.001318,9.537e-07,0,0.0139,0.0001431,2.802,0.007958,0,0,0.0001526
213000000000,213300000000,4809848122,0,1436793372,0.0004597,0.001314,0.00194,0.0002327,0.0006027,0.001318,9.537e-07,0,0.00102,7.153e-05,3.785,0.01262,0,0,0.0004139
213300000000,213600000000,4809848122,0,1436793372,0.000412,0.001314,0.001942,0.0002327,0.0006027,0.001314,0,0,0.002258,7.153e-05,3.592,0.01166,0,0,0.0003853
213600000000,213900000000,4809848122,0,1436793372,0.0002871,0.001314,0.001942,0.0002327,0.0006027,0.001314,1.907e-06,0,0.001101,0.0001431,2.644,0.007298,0,0,0.0001659
213900000000,214200000000,4809848122,0,1436793372,0.0002851,0.001314,0.001942,0.0002327,0.0006027,0.001314,9.537e-07,0,0.001028,0.0001431,2.566,0.006945,0,0,9.155e-05
214200000000,214500000000,4809848122,0,1436793372,0.000289,0.001314,0.001942,0.0002337,0.0006027,0.001314,0,0,0.001289,7.153e-05,2.498,0.006643,0,0,0.000721
214500000000,214800000000,4809848122,0,1436793372,0.0004015,0.001314,0.001942,0.0002337,0.0006027,0.00132,1.907e-06,0,0.005272,0.0001431,2.901,0.008361,0,0,0.0002527
214800000000,215100000000,4809848122,0,1436793372,0.0004282,0.001318,0.001942,0.0002337,0.0006037,0.00132,2.861e-06,0,0.001577,0.0004282,3.461,0.01124,0,0,0.0005255
215100000000,215400000000,4809848122,0,1436793372,0.0003939,0.001316,0.001942,0.0002337,0.0006037,0.001316,9.537e-07,0,0.001184,0.0001431,3.299,0.01034,0,0,0.0003452
215400000000,215700000000,4809848122,0,1436793372,0.0002909,0.001316,0.001942,0.0002346,0.0006037,0.001318,0,0,0.00152,7.153e-05,2.502,0.006671,0,0,0.0005751
215700000000,216000000000,4809848122,0,1436793372,0.0002909,0.001316,0.001942,0.0002346,0.0006037,0.001316,1.907e-06,0,0.001207,0.0006428,2.497,0.006513,0,0,0.0001059
216000000000,216300000000,4809848122,0,1436793372,0.0002899,0.001316,0.001942,0.0002346,0.0006037,0.001316,9.537e-07,0,0.001852,0.0003567,2.475,0.006518,0,0,0.0002661
221700000000,222000000000,4809848122,0,3269576045,0.0002918,0.001265,0.001942,0.0003004,0.0006647,0.001286,9.537e-07,0,0.0009298,7.153e-05,7.722,0.03352,0,0,0.0003443
222000000000,222300000000,4809848122,0,3269576045,0.0002279,0.001265,0.001942,0.0003004,0.0006647,0.001265,4.768e-06,0,0.0009298,0.001358,7.025,0.02926,0,0,0.0002518
222300000000,222600000000,4809848122,0,3269576045,0.0001774,0.001263,0.001942,0.0003004,0.0006647,0.001263,0,0,0.0007544,7.153e-05,6.574,0.02727,0,0,0.0001612
222600000000,222900000000,4809848122,0,3269576045,0.0001783,0.001263,0.001942,0.0003004,0.0006647,0.001263,9.537e-07,0,0.000576,0.0002861,6.268,0.02588,0,0,0.0001936
222900000000,223200000000,4809848122,0,3269576045,0.0001755,0.001263,0.001942,0.0003004,0.0006647,0.001263,0,0,0.0009117,0,5.852,0.02397,0,0,0.0001516
223200000000,223500000000,4809848122,0,3269576045,0.0002699,0.001266,0.001942,0.0003033,0.0006676,0.00127,9.537e-06,0,0.003605,0.001358,6.598,0.02924,0,0,0.0002193
223500000000,223800000000,4809848122,0,3269576045,0.0002575,0.001266,0.001942,0.0003042,0.0006685,0.001266,0,0,0.0008841,0,7.188,0.03053,0,0,0.0001125
223800000000,224100000000,4809848122,0,3269576045,0.0002174,0.001266,0.001942,0.0003042,0.0006685,0.001266,0,0,0.0007153,7.153e-05,6.537,0.02712,0,0,0.0002594
224100000000,224400000000,4809848122,0,3269576045,0.0001898,0.001266,0.001942,0.0003042,0.0006685,0.001266,0,0,0.0007153,0,6.313,0.02568,0,0,0.0001211
224400000000,224700000000,4809848122,0,3269576045,0.0001755,0.001266,0.001942,0.0003042,0.0006685,0.001266,1.907e-06,0,0.0007839,0.0004282,6.167,0.02525,0,0,0.0003605
224700000000,225000000000,4809848122,0,3269576045,0.0001764,0.001265,0.001942,0.0003042,0.0006685,0.001266,0,0,0.0007391,7.153e-05,6.155,0.02515,0,0,0.0002041
225000000000,225300000000,4809848122,0,3269576045,0.0002775,0.001274,0.002056,0.0003042,0.0006695,0.001375,4.768e-06,0,0.002934,0.0008574,6.541,0.02872,0,0,0.0002766
225300000000,225600000000,4809848122,0,3269576045,0.0002699,0.001266,0.001942,0.0003052,0.0006695,0.001266,0,0,0.0008602,0,7.123,0.03024,0,0,0.0002775
225600000000,225900000000,4809848122,0,3269576045,0.000205,0.001266,0.001942,0.0003052,0.0006695,0.001266,0,0,0.0007362,7.153e-05,6.973,0.02934,0,0,0.0002384
225900000000,226200000000,4809848122,0,3269576045,0.0001745,0.001266,0.001942,0.0003052,0.0006695,0.001266,0,0,0.004158,0,6.273,0.02566,0,0,0.0001116
226200000000,226500000000,4809848122,0,3269576045,0.0001717,0.001266,0.001942,0.0003052,0.0006695,0.001266,0,0,0.0006943,7.153e-05,6.237,0.02557,0,0,0.0002403
226500000000,226800000000,4809848122,0,3269576045,0.0001717,0.001266,0.001942,0.0003052,0.0006695,0.001266,0,0,0.0008583,0,5.754,0.02328,0,0,0.0005808
226800000000,227100000000,4809848122,0,3269576045,0.0002441,0.001268,0.002079,0.0003061,0.0006704,0.001287,1.907e-06,0,0.003464,0.0001431,6.231,0.02661,0,0,0.0002499
227100000000,227400000000,4809848122,0,3269576045,0.0002565,0.001266,0.001942,0.0003061,0.0006704,0.001266,0,0,0.001106,0,5.669,0.02302,0,0,0.0002041
227400000000,227700000000,4809848122,0,3269576045,0.0002556,0.001266,0.001942,0.0003061,0.0006704,0.001266,0,0,0.0008497,7.153e-05,3.591,0.01212,0,0,0.0001173
227700000000,228000000000,4809848122,0,3269576045,0.0001907,0.001266,0.001942,0.0003061,0.0006704,0.001266,0,0,0.0009012,0,5.948,0.02415,0,0,0.000205
228000000000,228300000000,4809848122,0,3269576045,0.000164,0.001266,0.001942,0.0003061,0.0006704,0.001266,9.537e-07,0,0.0008659,0.0002146,6.457,0.02564,0,0,0.0002422
228300000000,228600000000,4809848122,0,3269576045,0.0001974,0.001266,0.001942,0.0003061,0.0006704,0.001266,0,0,0.001032,0,4.211,0.01506,0,0,0.0002337
228600000000,228900000000,4809848122,0,3269576045,0.0003109,0.001272,0.002071,0.0003071,0.0006714,0.001318,1.907e-06,0,0.003407,0.0002146,4.898,0.01875,0,0,0.0002384
228900000000,229200000000,4809848122,0,3269576045,0.0003233,0.001266,0.001942,0.0003071,0.0006714,0.001268,0,0,0.00181,0,5.118,0.01944,0,0,0.0002785
229200000000,229500000000,4809848122,0,3269576045,0.0002899,0.001266,0.001942,0.0003071,0.0006714,0.001268,0,0,0.0007753,7.153e-05,3.976,0.01378,0,0,0.0003443
229500000000,229800000000,4809848122,0,3269576045,0.0002518,0.001266,0.001942,0.0003071,0.0006714,0.001268,0,0,0.0009022,0,4.135,0.01486,0,0,0.0001373
229800000000,230100000000,4809848122,0,3269576045,0.0002556,0.001266,0.001942,0.0003071,0.0006714,0.001266,0,0,0.0008173,7.153e-05,3.599,0.01232,0,0,0.0002308
230100000000,230400000000,4809848122,0,3269576045,0.0002546,0.001266,0.001942,0.0003071,0.0006714,0.001266,0,0,0.0009251,0,3.384,0.01132,0,0,0.0001421
230400000000,230700000000,4809848122,0,3269576045,0.0006008,0.001297,0.002071,0.0002699,0.0006342,0.001331,1.526e-05,0,0.02783,0.003071,3.712,0.01336,0,0,0.0003004
230700000000,231000000000,4809848122,0,3269576045,0.0005026,0.001299,0.00194,0.0002575,0.0006218,0.001303,9.537e-07,0,0.001181,7.153e-05,4.868,0.01898,0,0,0.000762
231000000000,231300000000,4809848122,0,3269576045,0.0003386,0.001299,0.001942,0.0002575,0.0006218,0.001299,4.768e-06,0,0.001862,0.001286,3.782,0.01313,0,0,0.0005245
231300000000,231600000000,4809848122,0,3269576045,0.0002499,0.001299,0.001942,0.0002575,0.0006218,0.001299,9.537e-07,0,0.0007277,7.153e-05,4.63,0.01724,0,0,0.0001373
231600000000,231900000000,4809848122,0,3269576045,0.0002565,0.001299,0.001942,0.0002575,0.0006218,0.001301,0,0,0.0008526,0.0001431,4.663,0.01685,0,0,0.0001125
231900000000,232200000000,4809848122,0,3269576045,0.0002785,0.001299,0.001942,0.0002575,0.0006218,0.001301,0,0,0.0008383,7.153e-05,3.645,0.01194,0,0,0.000185
232200000000,232500000000,4809848122,0,3269576045,0.0008574,0.00132,0.002068,0.000248,0.0006132,0.001362,2.861e-06,0,0.03308,0.0002861,4.619,0.01728,0,0,0.000617
232500000000,232800000000,4809848122,0,3269576045,0.0006752,0.001322,0.00194,0.000246,0.0006104,0.001324,9.537e-07,0,0.003258,7.153e-05,5.578,0.02191,0,0,0.0008259
232800000000,233100000000,4809848122,0,3269576045,0.0003872,0.00132,0.001942,0.000246,0.0006104,0.001322,0,0,0.01108,0.0001431,4.049,0.01409,0,0,9.251e-05
233100000000,233400000000,4809848122,0,3269576045,0.0002851,0.00132,0.001942,0.000246,0.0006104,0.00132,0,0,0.0009613,7.153e-05,3.039,0.009217,0,0,0.0005655
233400000000,233700000000,4809848122,0,3269576045,0.0002861,0.00132,0.001942,0.000246,0.0006104,0.00132,1.907e-06,0,0.0009003,0.0004997,3.602,0.0116,0,0,0.0001545
233700000000,234000000000,4809848122,0,3269576045,0.0002794,0.001318,0.001942,0.000246,0.0006113,0.001322,0,0,0.0008354,0,3.028,0.009078,0,0,0.0001736
234000000000,234300000000,4809848122,0,3269576045,0.0006227,0.001322,0.00194,0.0002365,0.0006008,0.001329,2.861e-06,0,0.0209,0.0002861,3.935,0.01362,0,0,0.0002203
234300000000,234600000000,4809848122,0,3269576045,0.0005445,0.00132,0.00194,0.0002337,0.000598,0.001322,9.537e-07,0,0.001383,0.0001431,5.229,0.02026,0,0,0.0004349
234600000000,234900000000,4809848122,0,3269576045,0.0003395,0.001318,0.001942,0.0002337,0.000598,0.00132,0,0,0.004692,7.153e-05,3.729,0.01279,0,0,0.0004892
234900000000,235200000000,4809848122,0,3269576045,0.0002632,0.001318,0.001942,0.0002337,0.000598,0.00132,1.907e-06,0,0.0007763,7.153e-05,2.951,0.008973,0,0,0.0001507
235200000000,235500000000,4809848122,0,3269576045,0.0002623,0.001318,0.001942,0.0002337,0.000598,0.00132,9.537e-07,0,0.0008173,0.0001431,3.392,0.01112,0,0,0.0001554
235500000000,235800000000,4809848122,0,3269576045,0.0002804,0.001318,0.001942,0.0002337,0.000598,0.00132,0,0,0.001192,7.153e-05,3.072,0.009459,0,0,0.0001974
235800000000,236100000000,4809848122,0,3269576045,0.0006676,0.001324,0.001938,0.0002317,0.000597,0.001333,1.907e-06,0,0.02002,0.0001431,3.763,0.01342,0,0,0.0008993
236100000000,236400000000,4809848122,0,3269576045,0.0005541,0.001322,0.00194,0.0002317,0.000597,0.001324,0,0,0.001331,7.153e-05,6.749,0.02772,0,0,0.0005302
241200000000,241500000000,4809848122,0,3269576045,0.0005999,0.001326,0.00194,0.0002365,0.0006008,0.001329,1.907e-06,0,0.007492,0.0001431,3.722,0.01288,0,0,0.0004349
241500000000,241800000000,4809848122,0,3269576045,0.0005617,0.001324,0.00194,0.0002365,0.0006018,0.001326,9.537e-07,0,0.001257,0.0001431,6.154,0.02439,0,0,0.0007296
241800000000,242100000000,4809848122,0,3269576045,0.0003633,0.001322,0.001942,0.0002365,0.0006018,0.001324,0,0,0.006264,0.0001431,5.017,0.0188,0,0,0.0006332
242100000000,242400000000,4809848122,0,3269576045,0.0002842,0.001322,0.001942,0.0002365,0.0006018,0.001324,0,0,0.000967,7.153e-05,3.385,0.01069,0,0,0.0001421
242400000000,242700000000,4809848122,0,3269576045,0.0002861,0.001322,0.001942,0.0002365,0.0006018,0.001324,0,0,0.0007744,7.153e-05,3.334,0.01041,0,0,0.0003653
242700000000,243000000000,4809848122,0,3269576045,0.0002832,0.001322,0.001942,0.0002375,0.0006018,0.001322,0,0,0.001209,7.153e-05,2.735,0.007548,0,0,0.0003471
243600000000,243900000000,4809848122,0,904210,0.0004101,0.001333,0.00193,0.0002909,0.0006285,0.001495,9.537e-07,0,0.02606,7.153e-05,3.763,0.01362,0,0,0.0003967
243900000000,244200000000,4809848122,0,904210,0.0004644,0.001297,0.00193,0.0002918,0.0006294,0.001299,3.815e-06,0,0.01021,0.0006428,3.655,0.01335,0,0,0.0008221
244200000000,244500000000,4809848122,0,904210,0.0002756,0.001297,0.00193,0.0002928,0.0006304,0.001297,0,0,0.0007343,0,2.629,0.007735,0,0,0.0001287
244500000000,244800000000,4809848122,0,904210,0.0002775,0.001297,0.00193,0.0002928,0.0006304,0.001297,9.537e-07,0,0.000844,7.153e-05,2.563,0.00756,0,0,0.000104
244800000000,245100000000,4809848122,0,904210,0.0002794,0.001297,0.00193,0.0002928,0.0006304,0.001297,0,0,0.001833,0,2.38,0.006462,0,0,0.000165
245100000000,245400000000,4809848122,0,904210,0.003601,0.001347,0.002159,0.0002623,0.0006008,0.001482,3.719e-05,0,0.06055,0.004074,0.866,0.0007734,0,0,0.0003023
245400000000,245700000000,4809848122,0,904210,0.0004301,0.001358,0.00193,0.0002317,0.0005703,0.001362,9.537e-07,0,0.001156,0.0001431,3.481,0.01218,0,0,0.0003214
245700000000,246000000000,4809848122,0,904210,0.0003824,0.001356,0.00193,0.0002317,0.0005703,0.001356,9.537e-07,0,0.001579,7.153e-05,3.144,0.01039,0,0,0.0005713
246000000000,246300000000,4809848122,0,904210,0.0002775,0.001356,0.00193,0.0002317,0.0005703,0.001356,0,0,0.0009165,7.153e-05,2.363,0.006495,0,0,0.0001698
251400000000,251700000000,4809848122,0,904210,0.0002832,0.001369,0.00193,0.0002108,0.0005503,0.001369,0,0,0.001049,0,2.487,0.00658,0,0,0.0001469
251700000000,252000000000,4809848122,0,904210,0.0002813,0.001369,0.00193,0.0002108,0.0005503,0.001369,0,0,0.0005693,7.153e-05,2.428,0.006467,0,0,9.727e-05
252000000000,252300000000,4809848122,0,904210,0.0002804,0.001369,0.00193,0.0002108,0.0005503,0.001369,0,0,0.0009136,0,2.423,0.00654,0,0,0.0002117
252300000000,252600000000,4809848122,0,904210,0.0005045,0.001371,0.00193,0.0002108,0.0005512,0.001379,1.907e-06,0,0.01106,7.153e-05,3.133,0.0105,0,0,0.0007
252600000000,252900000000,4809848122,0,904210,0.0004635,0.00136,0.001942,0.0002127,0.0005522,0.001362,1.907e-06,0,0.003357,7.153e-05,3.299,0.01144,0,0,0.0003614
252900000000,253200000000,4809848122,0,904210,0.0003653,0.001356,0.001942,0.0002127,0.0005531,0.001358,9.537e-07,0,0.001425,7.153e-05,3.011,0.009892,0,0,0.0002489
253200000000,253500000000,4809848122,0,904210,0.0002775,0.001354,0.001942,0.0002127,0.0005531,0.001354,0,0,0.0006514,7.153e-05,2.36,0.006436,0,0,0.0001707
253500000000,253800000000,4809848122,0,904210,0.0002747,0.001354,0.001942,0.0002127,0.0005531,0.001354,9.537e-07,0,0.0008955,7.153e-05,2.22,0.005645,0,0,0.0005617
253800000000,254100000000,4809848122,0,904210,0.0002766,0.001354,0.001942,0.0002127,0.0005531,0.001356,0,0,0.0008202,0,2.366,0.006375,0,0,0.000556
254100000000,254400000000,4809848122,0,904210,0.0005245,0.001356,0.001942,0.0002136,0.0005541,0.00136,1.907e-06,0,0.009308,0.0001431,3.255,0.01017,0,0,0.0006285
254400000000,254700000000,4809848122,0,904210,0.0005808,0.001356,0.00194,0.0002146,0.000555,0.001358,9.537e-07,0,0.001373,7.153e-05,4.162,0.01451,0,0,0.0004539
254700000000,255000000000,4809848122,0,904210,0.0004883,0.001356,0.001942,0.0002155,0.000555,0.001356,9.537e-07,0,0.002445,7.153e-05,3.83,0.01284,0,0,0.000536
255000000000,255300000000,4809848122,0,904210,0.0002823,0.001354,0.001942,0.0002155,0.000556,0.001356,0,0,0.000948,0,2.401,0.006163,0,0,0.0005531
255300000000,255600000000,4809848122,0,904210,0.0002689,0.001356,0.001942,0.0002155,0.000556,0.001356,0,0,0.0008812,7.153e-05,2.323,0.005984,0,0,0.0001993
255600000000,255900000000,4809848122,0,904210,0.0002642,0.001354,0.001942,0.0002155,0.000556,0.001354,0,0,0.000783,0,2.765,0.008225,0,0,0.0002165
255900000000,256200000000,4809848122,0,904210,0.000906,0.001362,0.00194,0.0002165,0.0005569,0.001369,3.815e-06,0,0.05048,0.0003567,3.344,0.01135,0,0,0.0006676
256200000000,256500000000,4809848122,0,904210,0.0007391,0.001366,0.00194,0.0002193,0.0005598,0.001369,1.907e-06,0,0.02457,0.0001431,4.092,0.01451,0,0,0.001186
256500000000,256800000000,4809848122,0,904210,0.0005436,0.001364,0.00194,0.0002203,0.0005598,0.001364,9.537e-07,0,0.003098,7.153e-05,4.084,0.0147,0,0,0.001032
256800000000,257100000000,4809848122,0,904210,0.000288,0.001362,0.001942,0.0002203,0.0005598,0.001362,1.907e-06,0,0.0005522,0.0005713,2.563,0.006873,0,0,0.000247
257100000000,257400000000,4809848122,0,904210,0.000288,0.001362,0.001942,0.0002203,0.0005598,0.001364,0,0,0.0008821,7.153e-05,2.635,0.007174,0,0,0.0002632
257400000000,257700000000,4809848122,0,904210,0.0002851,0.001362,0.001942,0.0002203,0.0005608,0.001362,0,0,0.001036,7.153e-05,2.795,0.007963,0,0,0.0004988
257700000000,258000000000,4809848122,0,904210,0.0006914,0.001366,0.00194,0.0002222,0.0005617,0.001371,2.861e-06,0,0.01886,0.0002861,3.333,0.01019,0,0,0.0001431
258000000000,258300000000,4809848122,0,904210,0.0007076,0.001366,0.00194,0.0002241,0.0005646,0.001369,1.907e-06,0,0.01642,7.153e-05,3.963,0.0134,0,0,0.000721
258300000000,258600000000,4809848122,0,904210,0.0006075,0.001366,0.00194,0.0002251,0.0005655,0.001368,2.861e-06,0,0.01402,7.153e-05,3.965,0.01351,0,0,0.0002165
258900000000,259200000000,4809848122,0,16915968,0.0004225,0.001852,0.002831,0.0006084,0.001038,0.00293,2.861e-06,0,0.003551,0.0002146,2.998,0.009861,0,0,0.002357
259200000000,259500000000,4809848122,0,16915968,0.0004072,0.001272,0.00193,0.0002222,0.0006514,0.001274,0,0,0.004982,7.153e-05,3.001,0.009638,0,0,0.0001526
259500000000,259800000000,4809848122,0,16915968,0.0002813,0.001274,0.00193,0.0002241,0.0006533,0.001276,2.861e-06,0,0.004929,0.0006428,2.253,0.006129,0,0,0.0002604
259800000000,260100000000,4809848122,0,16915968,0.0002708,0.001274,0.00193,0.0002241,0.0006533,0.001278,0,0,0.001097,7.153e-05,2.223,0.005582,0,0,0.0002375
260100000000,260400000000,4809848122,0,16915968,0.000246,0.001272,0.00193,0.0002251,0.0006533,0.001278,0,0,0.001278,0.0001431,2.016,0.004851,0,0,0.0005903
260400000000,260700000000,4809848122,0,16915968,0.0003004,0.00127,0.001957,0.0002241,0.0006533,0.00139,0,0,0.005211,7.153e-05,2.003,0.004873,0,0,0.0006313
260700000000,261000000000,4809848122,0,16915968,0.0004435,0.00131,0.002033,0.0001984,0.0006275,0.001392,1.621e-05,0,0.003483,0.002998,2.686,0.007988,0,0,0.0002146
261000000000,261300000000,4809848122,0,16915968,0.0004129,0.001301,0.001932,0.0001974,0.0006266,0.001301,0,0,0.001352,7.153e-05,2.758,0.008207,0,0,0.0003443
261300000000,261600000000,4809848122,0,16915968,0.0002813,0.001295,0.001934,0.0001974,0.0006266,0.001301,0,0,0.001587,0.0001431,2.223,0.005612,0,0,0.001305
261600000000,261900000000,4809848122,0,16915968,0.0002508,0.001293,0.001934,0.0001974,0.0006266,0.001295,0,0,0.001505,7.153e-05,2.007,0.004699,0,0,0.0001717
261900000000,262200000000,4809848122,0,16915968,0.0002499,0.001293,0.001934,0.0001974,0.0006266,0.001295,1.907e-06,0,0.001318,0.0006428,1.942,0.00444,0,0,0.0006256
262200000000,262500000000,4809848122,0,16915968,0.0002985,0.001293,0.001947,0.0001974,0.0006266,0.001356,0,0,0.01213,7.153e-05,2.776,0.008497,0,0,0.0001316
262500000000,262800000000,4809848122,0,16915968,0.000495,0.001308,0.002048,0.0001936,0.0006208,0.001354,3.815e-06,0,0.007828,0.0001431,3.152,0.01115,0,0,0.0007572
262800000000,263100000000,4809848122,0,16915968,0.0004435,0.001305,0.001934,0.0001945,0.0006218,0.001305,9.537e-06,0,0.00235,0.001642,3.026,0.01005,0,0,0.0004826
263100000000,263400000000,4809848122,0,16915968,0.000289,0.001303,0.001936,0.0001945,0.0006218,0.001303,9.537e-07,0,0.001486,0.0001431,2.33,0.00617,0,0,0.0002022
263400000000,263700000000,4809848122,0,16915968,0.0002594,0.001301,0.001936,0.0001945,0.0006218,0.001303,1.907e-06,0,0.0006208,0.0004282,2.072,0.00477,0,0,0.0001469
263700000000,264000000000,4809848122,0,16915968,0.0002594,0.001301,0.001936,0.0001945,0.0006227,0.001301,0,0,0.0006962,0.0001431,2.094,0.004873,0,0,0.0002384
264000000000,264300000000,4809848122,0,16915968,0.0003462,0.001301,0.001953,0.0001955,0.0006227,0.001339,0,0,0.01889,7.153e-05,2.152,0.00515,0,0,0.0003042
264300000000,264600000000,4809848122,0,16915968,0.0004263,0.001316,0.002045,0.0001926,0.0006199,0.001341,1.907e-06,0,0.00605,0.0001431,3.087,0.009757,0,0,0.0003395
264600000000,264900000000,4809848122,0,16915968,0.0003757,0.00131,0.001936,0.0001793,0.0006065,0.001326,9.537e-07,0,0.001074,7.153e-05,2.9,0.009053,0,0,0.0002985
264900000000,265200000000,4809848122,0,16915968,0.0002937,0.001308,0.001936,0.0001774,0.0006046,0.001308,9.537e-07,0,0.001303,0.0001431,2.37,0.006917,0,0,0.0001497
265200000000,265500000000,4809848122,0,16915968,0.0002737,0.001308,0.001936,0.0001774,0.0006046,0.001308,0,0,0.0008097,0,2.147,0.005768,0,0,0.0001822
265500000000,265800000000,4809848122,0,16915968,0.0002794,0.001308,0.001936,0.0001774,0.0006046,0.001312,0,0,0.001446,7.153e-05,2.216,0.005842,0,0,0.0005856
265800000000,266100000000,4809848122,0,16915968,0.0003138,0.001308,0.001936,0.0001774,0.0006046,0.00131,9.537e-07,0,0.004166,7.153e-05,2.283,0.005567,0,0,0.0006723
266100000000,266400000000,4809848122,0,16915968,0.0004425,0.00131,0.001934,0.0001783,0.0006056,0.001312,2.861e-06,0,0.01782,0.0001431,2.908,0.009179,0,0,0.0005093
266400000000,266700000000,4809848122,0,16915968,0.0003614,0.001308,0.001936,0.0001793,0.0006065,0.00131,9.537e-07,0,0.001534,0.0001431,2.743,0.008296,0,0,0.0002298
266700000000,267000000000,4809848122,0,16915968,0.0002699,0.001307,0.001936,0.0001793,0.0006065,0.001308,9.537e-07,0,0.003212,0.0001431,2.184,0.005571,0,0,0.0001593
267000000000,267300000000,4809848122,0,16915968,0.0002451,0.001307,0.001936,0.0001793,0.0006065,0.001307,0,0,0.0009422,0,1.889,0.00419,0,0,0.000164
267300000000,267600000000,4809848122,0,16915968,0.000246,0.001307,0.001936,0.0001793,0.0006065,0.001307,9.537e-07,0,0.001354,0.0001431,1.935,0.004438,0,0,0.0006847
267600000000,267900000000,4809848122,0,16915968,0.00033,0.001307,0.001936,0.0001793,0.0006065,0.001312,9.537e-07,0,0.02432,0.0001431,2.04,0.004838,0,0,0.0006218
267900000000,268200000000,4809848122,0,16915968,0.0003901,0.001314,0.001934,0.0001812,0.0006084,0.001316,2.861e-06,0,0.001644,0.0002861,2.581,0.007624,0,0,0.0001755
268200000000,268500000000,4809848122,0,16915968,0.0003691,0.001312,0.001934,0.0001812,0.0006084,0.001312,0,0,0.001101,7.153e-05,2.596,0.007646,0,0,0.0001459
268500000000,268800000000,4809848122,0,16915968,0.0002699,0.00131,0.001936,0.0001812,0.0006084,0.001312,9.537e-07,0,0.008209,0.0001431,2.108,0.00529,0,0,0.0001202
268800000000,269100000000,4809848122,0,16915968,0.0002489,0.00131,0.001936,0.0001812,0.0006084,0.001312,0,0,0.001478,0,1.853,0.004061,0,0,0.0002069
269100000000,269400000000,4809848122,0,16915968,0.0002518,0.00131,0.001936,0.0001812,0.0006084,0.001312,9.537e-07,0,0.001059,0.0001431,1.941,0.004524,0,0,0.0005951
269400000000,269700000000,4809848122,0,16915968,0.0002737,0.00131,0.001936,0.0001812,0.0006084,0.001314,0,0,0.003727,7.153e-05,1.889,0.004175,0,0,0.0005569
269700000000,270000000000,4809848122,0,16915968,0.0004034,0.001316,0.001934,0.0001831,0.0006104,0.001318,4.768e-06,0,0.004776,0.0004997,2.437,0.007094,0,0,0.000267
270000000000,270300000000,4809848122,0,16915968,0.000351,0.001312,0.001934,0.0001831,0.0006104,0.001312,9.537e-07,0,0.001181,7.153e-05,2.566,0.007584,0,0,0.0002956
270300000000,270600000000,4809848122,0,16915968,0.0002689,0.001312,0.001936,0.0001831,0.0006104,0.001312,0,0,0.002037,7.153e-05,2.14,0.005446,0,0,0.0001717
270600000000,270900000000,4809848122,0,16915968,0.0002642,0.001314,0.001936,0.0001831,0.0006104,0.001316,0,0,0.0007839,7.153e-05,2.143,0.005331,0,0,0.0001993
270900000000,271200000000,4809848122,0,16915968,0.0002632,0.001312,0.001936,0.0001831,0.0006104,0.001312,0,0,0.0009975,7.153e-05,2.063,0.004994,0,0,0.0005932
271200000000,271500000000,4809848122,0,16915968,0.0002909,0.001312,0.001936,0.0001831,0.0006104,0.001314,9.537e-07,0,0.004547,7.153e-05,2.187,0.00561,0,0,9.251e-05
281400000000,281700000000,4809848122,0,16915968,0.0002632,0.001322,0.001936,0.0001793,0.0006065,0.001324,0,0,0.001099,0,2.177,0.005551,0,0,0.0006247
281700000000,282000000000,4809848122,0,16915968,0.0002642,0.00132,0.001936,0.0001793,0.0006075,0.001322,9.537e-07,0,0.0007515,0.0001431,2.097,0.005189,0,0,0.000144
282000000000,282300000000,4809848122,0,16915968,0.0003166,0.00132,0.001947,0.0001802,0.0006075,0.00136,9.537e-07,0,0.005661,7.153e-05,2.128,0.005189,0,0,0.0001192
282300000000,282600000000,4809848122,0,16915968,0.0005035,0.001328,0.002048,0.0001774,0.0006037,0.00136,1.907e-05,0,0.002796,0.00293,3.139,0.01028,0,0,0.0002642
282600000000,282900000000,4809848122,0,16915968,0.0004683,0.001324,0.001934,0.0001764,0.0006037,0.001324,0,0,0.001101,7.153e-05,3.121,0.01019,0,0,0.0009069
282900000000,283200000000,4809848122,0,16915968,0.0003099,0.001322,0.001936,0.0001774,0.0006037,0.001324,9.537e-07,0,0.00209,0.0001431,2.465,0.007095,0,0,0.0007286
283200000000,283500000000,4809848122,0,16915968,0.0002699,0.001322,0.001936,0.0001774,0.0006037,0.001322,0,0,0.001076,7.153e-05,2.125,0.005332,0,0,0.0001154
283500000000,283800000000,4809848122,0,16915968,0.0002728,0.001322,0.001936,0.0001774,0.0006037,0.001322,9.537e-07,0,0.0004625,0.0003567,2.087,0.005179,0,0,0.0001001
283800000000,284100000000,4809848122,0,16915968,0.0003233,0.001322,0.001936,0.0001774,0.0006037,0.001328,0,0,0.007797,7.153e-05,2.161,0.005468,0,0,0.0002546
284100000000,284400000000,4809848122,0,16915968,0.0005093,0.001328,0.001934,0.0001745,0.0006008,0.001328,4.768e-06,0,0.002964,0.0003567,3.264,0.01117,0,0,0.0004807
284400000000,284700000000,4809848122,0,16915968,0.0004292,0.001326,0.001934,0.0001755,0.0006018,0.001328,1.907e-06,0,0.001532,0.0001431,2.934,0.009368,0,0,0.001026
284700000000,285000000000,4809848122,0,16915968,0.0002871,0.001326,0.001936,0.0001755,0.0006018,0.001326,0,0,0.0009336,7.153e-05,2.28,0.006149,0,0,0.0001316
285000000000,285300000000,4809848122,0,16915968,0.0002518,0.001324,0.001936,0.0001755,0.0006018,0.001324,1.049e-05,0,0.0009108,0.003143,1.91,0.004421,0,0,0.0001097
285300000000,285600000000,4809848122,0,16915968,0.0002508,0.001324,0.001936,0.0001755,0.0006018,0.001324,0,0,0.0009956,7.153e-05,2.157,0.00545,0,0,0.0001183
285600000000,285900000000,4809848122,0,16915968,0.0002899,0.001324,0.001936,0.0001755,0.0006018,0.001326,0,0,0.006813,7.153e-05,1.993,0.004765,0,0,5.245e-05
285900000000,286200000000,4809848122,0,16915968,0.0004091,0.001324,0.001934,0.0001764,0.0006027,0.001326,8.583e-06,0,0.001448,0.001572,2.966,0.009471,0,0,0.0003662
286200000000,286500000000,4809848122,0,16915968,0.0003881,0.001322,0.001934,0.0001764,0.0006027,0.001322,0,0,0.0007658,7.153e-05,2.996,0.009875,0,0,0.0003061
286500000000,286800000000,4809848122,0,16915968,0.0002909,0.001322,0.001936,0.0001764,0.0006027,0.001322,0,0,0.0009842,0.0001431,2.261,0.006184,0,0,0.0002489
286800000000,287100000000,4809848122,0,16915968,0.000268,0.001322,0.001936,0.0001764,0.0006027,0.001326,0,0,0.000865,0,2.132,0.005374,0,0,0.000371
287100000000,287400000000,4809848122,0,16915968,0.0002556,0.001322,0.001936,0.0001764,0.0006027,0.001326,9.537e-07,0,0.001535,0.0001431,2.452,0.006787,0,0,0.0001535
287400000000,287700000000,4809848122,0,16915968,0.0003567,0.001322,0.001961,0.0001764,0.0006027,0.00135,0,0,0.03137,7.153e-05,2.051,0.005037,0,0,0.0002279
287700000000,288000000000,4809848122,0,16915968,0.0005054,0.001333,0.002037,0.0001707,0.000597,0.001348,2.861e-06,0,0.002777,0.0001431,3.101,0.01008,0,0,0.0004005
288000000000,288300000000,4809848122,0,16915968,0.000474,0.001329,0.001934,0.0001707,0.000597,0.001331,9.537e-07,0,0.00219,0.0001431,3.121,0.01026,0,0,0.0002213
288300000000,288600000000,4809848122,0,16915968,0.0003061,0.001329,0.001936,0.0001707,0.000597,0.001329,9.537e-07,0,0.009384,0.0002146,2.404,0.006766,0,0,0.0002899
288600000000,288900000000,4809848122,0,16915968,0.0002613,0.001329,0.001936,0.0001707,0.000597,0.001329,0,0,0.001844,0,2.221,0.005785,0,0,0.0001421
288900000000,289200000000,4809848122,0,16915968,0.0002708,0.001329,0.001936,0.0001717,0.000598,0.001329,9.537e-07,0,0.0005112,0.0001431,2.087,0.00519,0,0,0.0001059
289200000000,289500000000,4809848122,0,16915968,0.0003033,0.001329,0.001936,0.0001717,0.000598,0.001333,0,0,0.003094,7.153e-05,2.16,0.005434,0,0,0.0003386
289500000000,289800000000,4809848122,0,16915968,0.0004683,0.001329,0.001934,0.0001726,0.0005989,0.001331,2.861e-06,0,0.01199,0.0002146,3.378,0.01183,0,0,0.0001345
289800000000,290100000000,4809848122,0,16915968,0.0003805,0.001328,0.001936,0.0001736,0.0005999,0.001329,1.907e-06,0,0.0009699,0.0002146,2.799,0.00858,0,0,0.0001478
290100000000,290400000000,4809848122,0,16915968,0.0002937,0.001328,0.001936,0.0001736,0.0005999,0.001328,9.537e-07,0,0.001106,0.0001431,2.312,0.006248,0,0,0.0001326
290400000000,290700000000,4809848122,0,16915968,0.0002508,0.001328,0.001936,0.0001736,0.0005999,0.001329,0,0,0.0007582,7.153e-05,2.408,0.006867,0,0,0.0001097
290700000000,291000000000,4809848122,0,16915968,0.0002689,0.001328,0.001936,0.0001736,0.0005999,0.001328,0,0,0.0005579,7.153e-05,2.095,0.005213,0,0,0.0002346
291000000000,291300000000,4809848122,0,16915968,0.0002937,0.001328,0.001936,0.0001736,0.0005999,0.001329,9.537e-07,0,0.005478,7.153e-05,2.102,0.005193,0,0,0.0001984
291300000000,291600000000,4809848122,0,16915968,0.0003061,0.001329,0.001936,0.0001745,0.0005999,0.001331,1.907e-06,0,0.001266,0.0001431,2.315,0.006323,0,0,0.0002346
291600000000,291900000000,4809848122,0,16915968,0.0002975,0.001328,0.001936,0.0001745,0.0006008,0.001328,0,0,0.0008316,0.0001431,2.292,0.006222,0,0,0.0007572
291900000000,292200000000,4809848122,0,16915968,0.0002718,0.001328,0.001936,0.0001745,0.0006008,0.001331,9.537e-07,0,0.0007362,0.0001431,2.079,0.005237,0,0,0.0001364
292200000000,292500000000,4809848122,0,16915968,0.0002699,0.001328,0.001936,0.0001745,0.0006008,0.001331,0,0,0.001595,0,2.095,0.005131,0,0,0.0001087
292500000000,292800000000,4809848122,0,16915968,0.0002699,0.001328,0.001936,0.0001745,0.0006008,0.001328,0,0,0.0007629,7.153e-05,2.07,0.005109,0,0,0.0002174
292800000000,293100000000,4809848122,0,16915968,0.0002956,0.001328,0.001936,0.0001745,0.0006008,0.001331,9.537e-07,0,0.006195,0.0001431,2.234,0.005885,0,0,0.0006504
293100000000,293400000000,4809848122,0,16915968,0.00037,0.001329,0.001934,0.0001755,0.0006018,0.001331,2.861e-06,0,0.0009823,0.0005713,2.822,0.008954,0,0,0.0003042
293400000000,293700000000,4809848122,0,16915968,0.0003729,0.001328,0.001934,0.0001755,0.0006018,0.001328,0,0,0.000782,0,2.77,0.008519,0,0,0.0003853
293700000000,294000000000,4809848122,0,16915968,0.0002804,0.001328,0.001936,0.0001755,0.0006018,0.001328,0,0,0.000824,7.153e-05,2.209,0.005787,0,0,0.000288
294000000000,294300000000,4809848122,0,16915968,0.0002642,0.001326,0.001936,0.0001755,0.0006018,0.001328,0,0,0.0007343,7.153e-05,2.09,0.005172,0,0,0.0006151
294300000000,294600000000,4809848122,0,16915968,0.0002527,0.001326,0.001936,0.0001755,0.0006018,0.001328,0,0,0.0007839,7.153e-05,2.262,0.006081,0,0,0.0001278
294600000000,294900000000,4809848122,0,16915968,0.0002899,0.001326,0.001936,0.0001755,0.0006018,0.001329,0,0,0.005943,0.0001431,2.178,0.005552,0,0,0.0001545
294900000000,295200000000,4809848122,0,16915968,0.0004082,0.001328,0.001934,0.0001764,0.0006027,0.001331,9.537e-07,0,0.0008993,0.0001431,2.905,0.00936,0,0,0.0003262
295200000000,295500000000,4809848122,0,16915968,0.0003986,0.001328,0.001934,0.0001764,0.0006027,0.001328,0,0,0.001049,0,3.009,0.009949,0,0,0.0007153
295500000000,295800000000,4809848122,0,16915968,0.0002937,0.001328,0.001936,0.0001764,0.0006027,0.001329,0,0,0.0009861,7.153e-05,2.314,0.006274,0,0,0.0001154
295800000000,296100000000,4809848122,0,16915968,0.0002651,0.001328,0.001936,0.0001764,0.0006027,0.001328,0,0,0.000617,0,2.075,0.005099,0,0,8.106e-05
296100000000,296400000000,4809848122,0,16915968,0.0002642,0.001328,0.001936,0.0001764,0.0006027,0.001328,0,0,0.0005026,7.153e-05,2.139,0.00535,0,0,0.0001631
296400000000,296700000000,4809848122,0,16915968,0.000289,0.001328,0.001953,0.0001774,0.0006037,0.001419,0,0,0.003742,7.153e-05,2.137,0.005415,0,0,0.0002699
296700000000,297000000000,4809848122,0,16915968,0.0003548,0.001335,0.002041,0.0001783,0.0006046,0.001419,4.768e-06,0,0.0008345,0.0005713,2.801,0.00896,0,0,0.0006638
297000000000,297300000000,4809848122,0,16915968,0.0003462,0.001328,0.001934,0.0001774,0.0006037,0.001328,0,0,0.001625,7.153e-05,2.711,0.008497,0,0,0.0001583
297300000000,297600000000,4809848122,0,16915968,0.0002794,0.001328,0.001936,0.0001774,0.0006037,0.001328,0,0,0.004066,7.153e-05,2.204,0.005814,0,0,0.0001154
297600000000,297900000000,4809848122,0,16915968,0.0002632,0.001328,0.001936,0.0001774,0.0006037,0.001331,0,0,0.001629,0,2.09,0.005138,0,0,0.0001326
297900000000,298200000000,4809848122,0,16915968,0.0002489,0.001328,0.001936,0.0001774,0.0006037,0.001331,0,0,0.0009327,7.153e-05,2.342,0.006431,0,0,0.000102
298200000000,298500000000,4809848122,0,16915968,0.0003242,0.001328,0.001961,0.0001783,0.0006046,0.001369,0,0,0.005676,7.153e-05,2.172,0.005592,0,0,0.0001745
298500000000,298800000000,4809848122,0,16915968,0.000493,0.001339,0.002037,0.0001717,0.000598,0.001369,8.583e-06,0,0.002174,0.001215,3.344,0.01155,0,0,0.0004797
298800000000,299100000000,4809848122,0,16915968,0.0004826,0.001329,0.001934,0.0001726,0.0005989,0.001329,0,0,0.001213,0,3.293,0.01102,0,0,0.0004139
299100000000,299400000000,4809848122,0,16915968,0.0003157,0.001329,0.001934,0.0001726,0.0005989,0.001331,0,0,0.003044,7.153e-05,2.536,0.006972,0,0,0.0001307
299400000000,299700000000,4809848122,0,16915968,0.0002613,0.001329,0.001936,0.000164,0.0005903,0.001329,0,0,0.001684,0,2.113,0.005146,0,0,0.0001583
299700000000,300000000000,4809848122,0,16915968,0.0002584,0.001329,0.001936,0.0001545,0.0005808,0.001329,0,0,0.001011,7.153e-05,2.012,0.004762,0,0,0.0001402
