25800000000,26100000000,4852735927,0,1436325665,0.000351,0.001228,0.005814,0.0006895,0.0008068,0.001228,1.431e-05,5.722e-06,0.005569,0.001358,13.58,0.06126,0,0,0.000308
26100000000,26400000000,4852735927,0,1436325665,0.0003901,0.001223,0.005814,0.0006905,0.0008068,0.001228,1.144e-05,5.722e-06,0.0155,0.0009995,3.694,0.01225,0,0,0.0006447
26400000000,26700000000,4852735927,0,1436325665,0.0003481,0.001213,0.005814,0.0006905,0.0008078,0.001215,1.335e-05,5.722e-06,0.004166,0.0007143,13.83,0.06148,0,0,0.0001059
26700000000,27000000000,4852735927,0,1436325665,0.0003471,0.001215,0.005814,0.0006905,0.0008078,0.001215,4.005e-05,5.722e-06,0.006889,0.002071,13.93,0.06186,0,0,0.0001945
27000000000,27300000000,4852735927,0,1436325665,0.0003471,0.001215,0.005814,0.0006905,0.0008078,0.001215,2.289e-05,5.722e-06,0.00563,0.0008574,12.33,0.05648,0,0,0.0001545
27300000000,27600000000,4852735927,0,1436325665,0.0003281,0.001215,0.005814,0.0006905,0.0008078,0.001215,1.526e-05,5.722e-06,0.001892,0.0009289,8.464,0.03659,0,0,0.0002251
27600000000,27900000000,4852735927,0,1436325665,0.000351,0.001215,0.005814,0.0006914,0.0008078,0.001217,1.717e-05,5.722e-06,0.003967,0.001499,13.28,0.05979,0,0,0.0001602
27900000000,28200000000,4852735927,0,1436325665,0.0003328,0.001215,0.005814,0.0006914,0.0008087,0.001215,1.24e-05,5.722e-06,0.005058,0.0006428,8.84,0.03836,0,0,0.000288
28200000000,28500000000,4852735927,0,1436325665,0.0003757,0.001215,0.005814,0.0006914,0.0008087,0.001217,1.049e-05,5.722e-06,0.01483,0.0005713,13.02,0.05991,0,0,0.0002966
28500000000,28800000000,4852735927,0,1436325665,0.00035,0.001213,0.005814,0.0006914,0.0008087,0.001215,3.052e-05,5.722e-06,0.004356,0.002644,12.26,0.05517,0,0,6.104e-05
28800000000,29100000000,4852735927,0,1436325665,0.0003386,0.001213,0.005814,0.0006914,0.0008087,0.001215,2.384e-05,5.722e-06,0.005974,0.001286,13.65,0.06272,0,0,9.06e-05
29100000000,29400000000,4852735927,0,1436325665,0.0003271,0.001215,0.005814,0.0006924,0.0008087,0.001215,2.289e-05,5.722e-06,0.006477,0.001715,8.995,0.04012,0,0,0.000288
29400000000,29700000000,4852735927,0,1436325665,0.0003624,0.001215,0.005814,0.0006924,0.0008097,0.001219,1.335e-05,5.722e-06,0.01401,0.001143,13.39,0.06216,0,0,0.0003881
29700000000,30000000000,4852735927,0,1436325665,0.0003519,0.001215,0.005814,0.0006924,0.0008097,0.001236,5.722e-06,5.722e-06,0.002441,0.0002146,11.83,0.05432,0,0,0.0003386
30000000000,30300000000,4852735927,0,1436325665,0.0003557,0.001225,0.005814,0.0006924,0.0008097,0.001242,7.629e-06,5.722e-06,0.01015,0.0002861,12.73,0.05778,0,0,9.537e-05
30300000000,30600000000,4852735927,0,1436325665,0.0003395,0.001215,0.005814,0.0006933,0.0008106,0.001217,1.24e-05,5.722e-06,0.003555,0.0009995,8.221,0.03579,0,0,0.000164
30600000000,30900000000,4852735927,0,1436325665,0.0003529,0.001213,0.005814,0.0006933,0.0008106,0.001215,1.24e-05,5.722e-06,0.004982,0.0009995,11.1,0.04865,0,0,0.0007505
70800000000,71100000000,4852735927,0,1436325665,0.0003443,0.001213,0.005814,0.0006962,0.0008097,0.001215,1.335e-05,5.722e-06,0.005882,0.001858,10.47,0.0468,0,0,0.0002594
71100000000,71400000000,4852735927,0,1436325665,0.0003519,0.001213,0.005814,0.0006962,0.0008097,0.001213,4.768e-06,5.722e-06,0.001465,0.0002861,12.38,0.05609,0,0,0.0002003
71400000000,71700000000,4852735927,0,1436325665,0.0003471,0.001213,0.005814,0.0006962,0.0008097,0.001219,4.768e-06,5.722e-06,0.008652,0.0001431,12.78,0.05805,0,0,0.0003176
71700000000,72000000000,4852735927,0,1436325665,0.0003386,0.001221,0.005814,0.0006971,0.0008106,0.001232,2.384e-05,5.722e-06,0.005638,0.001572,11.86,0.05396,0,0,0.0003519
72000000000,72300000000,4852735927,0,1436325665,0.0003376,0.001213,0.005814,0.0006971,0.0008106,0.001213,1.24e-05,5.722e-06,0.01151,0.001358,13.42,0.06174,0,0,0.0003147
72300000000,72600000000,4852735927,0,1436325665,0.0003357,0.001211,0.005814,0.0006971,0.0008106,0.001213,1.431e-05,5.722e-06,0.003937,0.001215,9.046,0.03971,0,0,0.0007
72600000000,72900000000,4852735927,0,1436325665,0.0003443,0.001213,0.005814,0.0006971,0.0008106,0.001213,1.717e-05,5.722e-06,0.01611,0.001072,10.27,0.04574,0,0,0.0002317
72900000000,73200000000,4852735927,0,1436325665,0.0003443,0.001213,0.005814,0.0006971,0.0008106,0.001219,1.621e-05,5.722e-06,0.004318,0.0007858,9.566,0.04267,0,0,0.000185
73200000000,73500000000,4852735927,0,1436325665,0.0003529,0.001213,0.005814,0.0006981,0.0008116,0.001215,1.526e-05,5.722e-06,0.006371,0.001072,10.04,0.04491,0,0,9.727e-05
73500000000,73800000000,4852735927,0,1436325665,0.0003595,0.001211,0.005814,0.0006981,0.0008116,0.001213,5.722e-06,5.722e-06,0.00695,0.0002146,11.76,0.05286,0,0,0.0001631
73800000000,74100000000,4852735927,0,1436325665,0.0003643,0.001213,0.005814,0.0006981,0.0008116,0.001215,1.049e-05,5.722e-06,0.01198,0.001429,13.49,0.06177,0,0,0.0007515
74100000000,74400000000,4852735927,0,1436325665,0.0003595,0.001213,0.005814,0.0006981,0.0008116,0.001215,1.144e-05,5.722e-06,0.002602,0.001858,9.921,0.04301,0,0,7.153e-05
74400000000,74700000000,4852735927,0,1436325665,0.0003643,0.001213,0.005814,0.0006981,0.0008116,0.001213,1.144e-05,5.722e-06,0.00473,0.0007858,10.09,0.04364,0,0,0.0002899
74700000000,75000000000,4852735927,0,1436325665,0.0003595,0.001215,0.005814,0.000699,0.0008116,0.001221,3.719e-05,5.722e-06,0.006226,0.00243,12.31,0.05615,0,0,0.0002985
75000000000,75300000000,4852735927,0,1436325665,0.0003881,0.001213,0.005814,0.000699,0.0008125,0.001213,1.049e-05,5.722e-06,0.01593,0.0007858,13.21,0.06218,0,0,0.0007448
75300000000,75600000000,4852735927,0,1436325665,0.0003328,0.001213,0.005814,0.000699,0.0008125,0.001213,7.629e-06,5.722e-06,0.004036,0.0005713,9.725,0.04379,0,0,0.0002575
75600000000,75900000000,4852735927,0,1436325665,0.0003395,0.001211,0.005814,0.000699,0.0008125,0.001213,4.768e-06,5.722e-06,0.002579,0.0001431,10.45,0.04657,0,0,0.0001888
5700000000,6000000000,4852735927,0,1436325665,0.00033,0.001223,0.005814,0.000701,0.0008173,0.001223,8.583e-06,5.722e-06,0.002987,0.0009995,13.72,0.06183,0,0,0.0001974
6000000000,6300000000,4852735927,0,1436325665,0.0003328,0.001223,0.005814,0.000701,0.0008183,0.001223,5.722e-06,5.722e-06,0.001709,0.0001431,12.8,0.05694,0,0,0.0001459
6300000000,6600000000,4852735927,0,1436325665,0.0003138,0.001223,0.005814,0.000701,0.0008183,0.001223,8.583e-06,5.722e-06,0.006363,0.0006428,12.59,0.0572,0,0,0.0001755
6600000000,6900000000,4852735927,0,1436325665,0.0003319,0.001223,0.005814,0.000701,0.0008183,0.001223,1.335e-05,5.722e-06,0.002502,0.00243,9.853,0.04271,0,0,0.0001078
6900000000,7200000000,4852735927,0,1436325665,0.0003204,0.001221,0.005814,0.000701,0.0008183,0.001223,6.676e-06,5.722e-06,0.003551,0.0003567,9.808,0.04341,0,0,0.003067
7200000000,7500000000,4852735927,0,1436325665,0.0003309,0.001223,0.005814,0.0007019,0.0008183,0.001223,6.676e-06,5.722e-06,0.003094,0.0001431,12.04,0.05361,0,0,9.06e-05
7500000000,7800000000,4852735927,0,1436325665,0.0003233,0.001221,0.005814,0.0007019,0.0008192,0.001223,5.722e-06,5.722e-06,0.001957,0.0002146,13.22,0.05894,0,0,0.0002117
7800000000,8100000000,4852735927,0,1436325665,0.0003271,0.001223,0.005814,0.0006981,0.0008154,0.001223,8.583e-06,5.722e-06,0.002869,0.0007858,13.24,0.05939,0,0,4.864e-05
8100000000,8400000000,4852735927,0,1436325665,0.0003061,0.001221,0.005814,0.0006981,0.0008154,0.001223,1.621e-05,5.722e-06,0.001282,0.00293,11.78,0.05395,0,0,0.0001965
8400000000,8700000000,4852735927,0,1436325665,0.000309,0.001221,0.005814,0.0006981,0.0008154,0.001223,5.722e-06,5.722e-06,0.006271,0.0001431,12.35,0.05758,0,0,0.0003948
8700000000,9000000000,4852735927,0,1436325665,0.0002985,0.001221,0.005814,0.0006981,0.0008154,0.001221,7.629e-06,5.722e-06,0.003437,0.0003567,8.875,0.03922,0,0,6.58e-05
9000000000,9300000000,4852735927,0,1436325665,0.0003071,0.001221,0.005814,0.000699,0.0008154,0.001223,7.629e-06,5.722e-06,0.002605,0.0002146,12.4,0.05739,0,0,6.39e-05
9300000000,9600000000,4852735927,0,1436325665,0.0003042,0.001221,0.005814,0.000699,0.0008163,0.001223,5.722e-06,5.722e-06,0.001526,0.0002146,11.66,0.0534,0,0,8.869e-05
9600000000,9900000000,4852735927,0,1436325665,0.0003109,0.001221,0.005814,0.000699,0.0008163,0.001223,5.722e-06,5.722e-06,0.001968,0.0001431,9.515,0.04303,0,0,0.0004759
9900000000,10200000000,4852735927,0,1436325665,0.0003138,0.001221,0.005814,0.000699,0.0008163,0.001221,5.722e-06,5.722e-06,0.006416,0.0002146,9.534,0.04187,0,0,0.0002661
10200000000,10500000000,4852735927,0,1436325665,0.0003128,0.001221,0.005814,0.000699,0.0008163,0.001223,6.676e-06,5.722e-06,0.0023,0.0004997,11.54,0.05316,0,0,0.000102
10500000000,10800000000,4852735927,0,1436325665,0.0003471,0.001221,0.005814,0.0007,0.0008173,0.001221,7.629e-06,5.722e-06,0.007263,0.0009289,13.94,0.06245,0,0,0.0005245
51000000000,51300000000,4852735927,0,1436325665,0.0003366,0.001221,0.005814,0.0006876,0.0008049,0.001223,7.629e-06,5.722e-06,0.00383,0.0004282,12.48,0.05783,0,0,0.0003471
51300000000,51600000000,4852735927,0,1436325665,0.000349,0.001221,0.005814,0.0006876,0.0008049,0.001223,1.431e-05,5.722e-06,0.001875,0.001143,7.649,0.0314,0,0,4.864e-05
51600000000,51900000000,4852735927,0,1436325665,0.0003586,0.001221,0.005814,0.0006876,0.0008049,0.001223,1.335e-05,5.722e-06,0.003147,0.001286,8.673,0.03667,0,0,0.0006676
51900000000,52200000000,4852735927,0,1436325665,0.0003576,0.001221,0.005814,0.0006876,0.0008049,0.001223,1.526e-05,5.722e-06,0.007149,0.001143,11.5,0.05092,0,0,0.0001163
52200000000,52500000000,4852735927,0,1436325665,0.0003595,0.001221,0.005814,0.0006886,0.0008059,0.001223,9.537e-06,5.722e-06,0.005798,0.0008574,10.49,0.04668,0,0,0.0005989
52500000000,52800000000,4852735927,0,1436325665,0.0003939,0.001221,0.005814,0.0006886,0.0008059,0.001223,1.717e-05,5.722e-06,0.01495,0.001143,9.636,0.04246,0,0,0.0006981
52800000000,53100000000,4852735927,0,1436325665,0.0003414,0.001221,0.005814,0.0006886,0.0008059,0.001221,1.24e-05,5.722e-06,0.004608,0.001358,13.4,0.06215,0,0,9.823e-05
53100000000,53400000000,4852735927,0,1436325665,0.0003338,0.001221,0.005814,0.0006886,0.0008059,0.001223,5.722e-06,5.722e-06,0.001709,0.0002146,9.33,0.04145,0,0,0.0005217
53400000000,53700000000,4852735927,0,1436325665,0.0003424,0.001225,0.005814,0.0006895,0.0008059,0.001226,1.907e-05,5.722e-06,0.002991,0.001928,9.755,0.0442,0,0,0.000289
53700000000,54000000000,4852735927,0,1436325665,0.0003424,0.001225,0.005814,0.0006895,0.0008068,0.001225,7.629e-06,5.722e-06,0.0132,0.0002146,7.951,0.03342,0,0,0.0001535
54000000000,54300000000,4852735927,0,1436325665,0.0004044,0.001226,0.005814,0.0006895,0.0008068,0.00123,8.583e-06,5.722e-06,0.05267,0.0004282,12.92,0.05914,0,0,0.0007133
54300000000,54600000000,4852735927,0,1436325665,0.0003405,0.00123,0.005814,0.0006895,0.000803,0.001232,1.907e-05,5.722e-06,0.001635,0.002285,7.446,0.03127,0,0,0.0001593
54600000000,54900000000,4852735927,0,1436325665,0.0003424,0.001226,0.005814,0.0006895,0.000803,0.001228,9.537e-06,5.722e-06,0.003349,0.0004282,13.34,0.06201,0,0,0.0006266
54900000000,55200000000,4852735927,0,1436325665,0.0003424,0.001226,0.005814,0.0006895,0.000803,0.001232,4.768e-06,5.722e-06,0.003052,0.0002146,8.551,0.03689,0,0,0.000102
55200000000,55500000000,4852735927,0,1436325665,0.0003386,0.001226,0.005814,0.0006905,0.0008039,0.001232,2.098e-05,5.722e-06,0.00238,0.001785,12.39,0.05717,0,0,0.0002604
55500000000,55800000000,4852735927,0,1436325665,0.0003357,0.001226,0.005814,0.0006905,0.0008039,0.001226,5.722e-06,5.722e-06,0.005722,0.0004282,9.692,0.04362,0,0,0.0001345
90900000000,91200000000,4852735927,0,1436325665,0.0003176,0.001215,0.005814,0.0007019,0.0008154,0.001217,1.621e-05,5.722e-06,0.003445,0.001143,8.887,0.04055,0,0,9.918e-05
91200000000,91500000000,4852735927,0,1436325665,0.0003824,0.001215,0.005814,0.0007029,0.0008154,0.001221,2.384e-05,5.722e-06,0.01935,0.001429,12.78,0.05661,0,0,0.0002813
91500000000,91800000000,4852735927,0,1436325665,0.0003328,0.001215,0.005814,0.000701,0.0008144,0.001219,1.526e-05,5.722e-06,0.007217,0.0009289,11.81,0.05401,0,0,0.0003967
91800000000,92100000000,4852735927,0,1436325665,0.0003414,0.001217,0.005814,0.000699,0.0008125,0.001219,1.431e-05,5.722e-06,0.01183,0.0007858,12.75,0.05874,0,0,0.0001431
92100000000,92400000000,4852735927,0,1436325665,0.0003443,0.001215,0.005814,0.000699,0.0008125,0.001217,1.526e-05,5.722e-06,0.008743,0.0008574,8.103,0.03534,0,0,0.0001574
92400000000,92700000000,4852735927,0,1436325665,0.0003414,0.001215,0.005814,0.000699,0.0008125,0.001217,7.629e-06,5.722e-06,0.01221,0.0001431,9.263,0.03947,0,0,0.0004282
92700000000,93000000000,4852735927,0,1436325665,0.0003433,0.001215,0.005814,0.0007,0.0008135,0.001217,2.003e-05,5.722e-06,0.001862,0.001143,9.28,0.04059,0,0,0.0001335
93000000000,93300000000,4852735927,0,1436325665,0.0003481,0.001215,0.005814,0.0007,0.0008135,0.001215,5.531e-05,5.722e-06,0.01085,0.002857,13.1,0.06099,0,0,0.0002308
93300000000,93600000000,4852735927,0,1436325665,0.0003443,0.001215,0.005814,0.0007,0.0008135,0.001217,3.147e-05,5.722e-06,0.003952,0.001572,11.14,0.05108,0,0,0.0001392
93600000000,93900000000,4852735927,0,1436325665,0.0003271,0.001213,0.005814,0.0007,0.0008135,0.001215,2.003e-05,5.722e-06,0.01132,0.0009289,13.31,0.06216,0,0,0.0002174
93900000000,94200000000,4852735927,0,1436325665,0.0003071,0.001213,0.005814,0.0007,0.0008135,0.001215,2.193e-05,5.722e-06,0.001822,0.001785,9.074,0.04087,0,0,0.0001965
94200000000,94500000000,4852735927,0,1436325665,0.0003147,0.001215,0.005814,0.000701,0.0008135,0.001215,1.621e-05,5.722e-06,0.001892,0.001358,9.217,0.04245,0,0,5.436e-05
94500000000,94800000000,4852735927,0,1436325665,0.0003271,0.001215,0.005814,0.000701,0.0008144,0.001221,1.717e-05,5.722e-06,0.008301,0.0005713,11.23,0.05136,0,0,0.0001593
94800000000,95100000000,4852735927,0,1436325665,0.0003233,0.001215,0.005814,0.000701,0.0008144,0.001221,1.717e-05,5.722e-06,0.01039,0.0007143,9.546,0.0432,0,0,0.0002623
95100000000,95400000000,4852735927,0,1436325665,0.0003233,0.001215,0.005814,0.000701,0.0008144,0.001225,2.098e-05,5.722e-06,0.007431,0.0009995,8.483,0.03796,0,0,0.0002232
95400000000,95700000000,4852735927,0,1436325665,0.000329,0.001215,0.005814,0.000701,0.0008144,0.001217,2.384e-05,5.722e-06,0.001892,0.001072,12.75,0.0589,0,0,0.0001478
95700000000,96000000000,4852735927,0,1436325665,0.0002975,0.001215,0.005814,0.0007019,0.0008144,0.001215,2.003e-05,5.722e-06,0.003887,0.001286,11.56,0.0519,0,0,0.0003633
85800000000,86100000000,4852735927,0,1436325665,0.0003595,0.001225,0.005814,0.0006981,0.0008116,0.001226,8.583e-06,5.722e-06,0.007904,0.0001431,8.199,0.0347,0,0,1.335e-05
86100000000,86400000000,4852735927,0,1436325665,0.0003424,0.001225,0.005814,0.000699,0.0008125,0.001226,7.629e-06,5.722e-06,0.001879,0.0003567,9.659,0.04121,0,0,0.0001049
86400000000,86700000000,4852735927,0,1436325665,0.0003538,0.001225,0.005814,0.000699,0.0008125,0.001226,2.766e-05,5.722e-06,0.0213,0.0008574,11.98,0.05456,0,0,4.768e-05
86700000000,87000000000,4852735927,0,1436325665,0.0003147,0.001223,0.005814,0.000699,0.0008125,0.001225,1.335e-05,5.722e-06,0.001648,0.001215,11.34,0.05233,0,0,0.0001163
87000000000,87300000000,4852735927,0,1436325665,0.0003204,0.001221,0.005814,0.000699,0.0008125,0.001221,9.537e-06,5.722e-06,0.007545,0.0001431,9.865,0.04417,0,0,9.537e-05
87300000000,87600000000,4852735927,0,1436325665,0.000308,0.001219,0.005814,0.000699,0.0008125,0.001221,1.049e-05,5.722e-06,0.007698,0.0007143,8.798,0.04003,0,0,0.003479
87600000000,87900000000,4852735927,0,1436325665,0.0003204,0.001217,0.005814,0.0007,0.0008135,0.001219,9.537e-06,5.722e-06,0.01114,0.0005713,12.76,0.06049,0,0,0.0001955
87900000000,88200000000,4852735927,0,1436325665,0.0003052,0.001217,0.005814,0.0007,0.0008135,0.001219,9.537e-06,5.722e-06,0.003788,0.0002146,11.39,0.05317,0,0,7.439e-05
88200000000,88500000000,4852735927,0,1436325665,0.0003166,0.001217,0.005814,0.0007,0.0008135,0.001219,1.144e-05,5.722e-06,0.01074,0.0004997,12.88,0.06107,0,0,0.0001497
88500000000,88800000000,4852735927,0,1436325665,0.0003138,0.001219,0.005814,0.0007,0.0008135,0.001219,1.24e-05,5.722e-06,0.003368,0.0006428,7.693,0.03285,0,0,0.0003233
88800000000,89100000000,4852735927,0,1436325665,0.0003538,0.001217,0.005814,0.000701,0.0008144,0.001221,1.812e-05,5.722e-06,0.01176,0.001572,13.22,0.06139,0,0,0.0005531
89100000000,89400000000,4852735927,0,1436325665,0.0003376,0.001217,0.005814,0.000701,0.0008144,0.001219,9.537e-06,5.722e-06,0.004456,0.0002146,11.87,0.05462,0,0,7.057e-05
89400000000,89700000000,4852735927,0,1436325665,0.0003242,0.001217,0.005814,0.000701,0.0008144,0.001219,1.335e-05,5.722e-06,0.004074,0.001072,9.403,0.04264,0,0,0.0008163
89700000000,90000000000,4852735927,0,1436325665,0.0003519,0.001217,0.005814,0.000701,0.0008144,0.001217,1.431e-05,5.722e-06,0.008728,0.001358,9.382,0.04167,0,0,0.0001831
90000000000,90300000000,4852735927,0,1436325665,0.0002985,0.001215,0.005814,0.0007019,0.0008154,0.001217,2.861e-05,5.722e-06,0.02045,0.0006428,9.338,0.04164,0,0,5.722e-05
90300000000,90600000000,4852735927,0,1436325665,0.0003347,0.001215,0.005814,0.0007019,0.0008154,0.001217,9.537e-06,5.722e-06,0.00238,0.0003567,8.675,0.03826,0,0,0.0002794
90600000000,90900000000,4852735927,0,1436325665,0.0003557,0.001215,0.005814,0.0007019,0.0008154,0.001217,2.003e-05,5.722e-06,0.01297,0.001429,8.496,0.03614,0,0,0.0004025
66000000000,66300000000,4852735927,0,1436325665,0.0003471,0.001213,0.005814,0.0006933,0.0008068,0.001213,4.864e-05,5.722e-06,0.008484,0.00243,7.59,0.031,0,0,0.000103
66300000000,66600000000,4852735927,0,1436325665,0.0003481,0.001211,0.005814,0.0006933,0.0008068,0.001213,1.335e-05,5.722e-06,0.003479,0.001785,9.598,0.04258,0,0,0.0002909
66600000000,66900000000,4852735927,0,1436325665,0.0003452,0.001213,0.005814,0.0006933,0.0008068,0.001213,6.676e-06,5.722e-06,0.01079,0.0002861,10.4,0.04652,0,0,0.0003395
66900000000,67200000000,4852735927,0,1436325665,0.0003433,0.001213,0.005814,0.0006933,0.0008068,0.001213,8.583e-06,5.722e-06,0.008041,0.0007143,9.239,0.04065,0,0,0.0002728
67200000000,67500000000,4852735927,0,1436325665,0.0003471,0.001211,0.005814,0.0006943,0.0008068,0.001213,1.335e-05,5.722e-06,0.002625,0.0007143,13.75,0.06332,0,0,0.0003624
67500000000,67800000000,4852735927,0,1436325665,0.0003433,0.001211,0.005814,0.0006943,0.0008078,0.001213,1.526e-05,5.722e-06,0.001648,0.001785,12.54,0.05707,0,0,0.0003395
67800000000,68100000000,4852735927,0,1436325665,0.000349,0.001215,0.005814,0.0006943,0.0008078,0.001219,9.537e-06,5.722e-06,0.006248,0.0009995,14.12,0.06467,0,0,0.0001097
68100000000,68400000000,4852735927,0,1436325665,0.0003357,0.001213,0.005814,0.0006943,0.0008078,0.001213,9.537e-06,5.722e-06,0.009064,0.001286,9.761,0.04329,0,0,0.0001497
68400000000,68700000000,4852735927,0,1436325665,0.0003462,0.001213,0.005814,0.0006943,0.0008078,0.001213,8.583e-06,5.722e-06,0.001831,0.0004282,10.4,0.04647,0,0,0.0002842
68700000000,69000000000,4852735927,0,1436325665,0.0003414,0.001213,0.005814,0.0006952,0.0008087,0.001213,7.629e-06,5.722e-06,0.001587,0.0004997,9.403,0.0412,0,0,0.0003166
69000000000,69300000000,4852735927,0,1436325665,0.0003433,0.001213,0.005814,0.0006952,0.0008087,0.001213,2.67e-05,5.722e-06,0.004097,0.001499,13.57,0.06216,0,0,0.0005007
69300000000,69600000000,4852735927,0,1436325665,0.0003347,0.001213,0.005814,0.0006952,0.0008087,0.001213,1.907e-05,5.722e-06,0.004135,0.001286,12.01,0.05494,0,0,0.0001545
69600000000,69900000000,4852735927,0,1436325665,0.0003386,0.001213,0.005814,0.0006952,0.0008087,0.001213,1.621e-05,5.722e-06,0.001831,0.001215,9.61,0.04269,0,0,0.0004578
69900000000,70200000000,4852735927,0,1436325665,0.000329,0.001211,0.005814,0.0006952,0.0008087,0.001213,1.335e-05,5.722e-06,0.005562,0.001215,12.32,0.05683,0,0,0.0004091
70200000000,70500000000,4852735927,0,1436325665,0.0003366,0.001213,0.005814,0.0006962,0.0008097,0.001215,1.049e-05,5.722e-06,0.001831,0.0005713,13.84,0.06347,0,0,9.441e-05
70500000000,70800000000,4852735927,0,1436325665,0.0003376,0.001213,0.005814,0.0006962,0.0008097,0.001215,1.335e-05,5.722e-06,0.003304,0.001143,9.15,0.04046,0,0,0.0003633
45900000000,46200000000,4852735927,0,1436325665,0.0003395,0.00123,0.005814,0.0006886,0.0008049,0.00123,1.717e-05,5.722e-06,0.009903,0.00293,11.54,0.05369,0,0,0.0005617
46200000000,46500000000,4852735927,0,1436325665,0.0003605,0.00123,0.005814,0.0006886,0.0008059,0.001234,2.575e-05,5.722e-06,0.00341,0.0009289,7.408,0.02976,0,0,0.0004864
46500000000,46800000000,4852735927,0,1436325665,0.0003471,0.001228,0.005814,0.0006857,0.000803,0.00123,1.431e-05,5.722e-06,0.004456,0.0007858,9.692,0.04221,0,0,0.0001888
46800000000,47100000000,4852735927,0,1436325665,0.00035,0.001228,0.005814,0.0006847,0.000802,0.00123,9.537e-06,5.722e-06,0.005486,0.0004282,9.591,0.04227,0,0,0.0001879
47100000000,47400000000,4852735927,0,1436325665,0.0003424,0.001228,0.005814,0.0006847,0.000802,0.00123,1.335e-05,5.722e-06,0.00177,0.0009289,11.45,0.05228,0,0,0.0001125
47400000000,47700000000,4852735927,0,1436325665,0.00035,0.001228,0.005814,0.0006857,0.000802,0.001234,9.537e-06,5.722e-06,0.004028,0.0007143,13.28,0.06055,0,0,0.0002213
47700000000,48000000000,4852735927,0,1436325665,0.000329,0.001226,0.005814,0.0006857,0.000803,0.001228,6.676e-06,5.722e-06,0.002747,0.0002861,11.4,0.05254,0,0,0.0003071
48000000000,48300000000,4852735927,0,1436325665,0.0004196,0.001226,0.005814,0.0006857,0.000803,0.001228,7.629e-06,5.722e-06,0.0343,0.0003567,13.89,0.06246,0,0,6.199e-05
48300000000,48600000000,4852735927,0,1436325665,0.00035,0.001228,0.005814,0.0006857,0.000803,0.00123,9.537e-06,5.722e-06,0.001789,0.0007858,8.484,0.03613,0,0,0.0004015
48600000000,48900000000,4852735927,0,1436325665,0.0003433,0.001226,0.005814,0.0006857,0.000803,0.001228,6.676e-06,5.722e-06,0.005592,0.0002861,13.55,0.06281,0,0,0.0003395
48900000000,49200000000,4852735927,0,1436325665,0.0003386,0.001226,0.005814,0.0006866,0.000803,0.001228,1.812e-05,5.722e-06,0.00795,0.001715,12.09,0.05553,0,0,0.0002918
49200000000,49500000000,4852735927,0,1436325665,0.0003548,0.001226,0.005814,0.0006866,0.0008039,0.00123,5.722e-06,5.722e-06,0.007645,0.0004282,8.275,0.03566,0,0,0.0006657
49500000000,49800000000,4852735927,0,1436325665,0.0003567,0.001226,0.005814,0.0006866,0.0008039,0.001228,1.24e-05,5.722e-06,0.003162,0.001429,12.47,0.05531,0,0,0.000247
49800000000,50100000000,4852735927,0,1436325665,0.000349,0.001228,0.005814,0.0006866,0.0008039,0.001228,8.583e-06,5.722e-06,0.001953,0.0006428,13.24,0.06139,0,0,9.727e-05
50100000000,50400000000,4852735927,0,1436325665,0.0003891,0.001223,0.005814,0.0006866,0.0008039,0.001226,1.431e-05,5.722e-06,0.0155,0.0007858,11.37,0.05151,0,0,0.0001984
50400000000,50700000000,4852735927,0,1436325665,0.0003471,0.001221,0.005814,0.0006866,0.0008039,0.001223,1.431e-05,5.722e-06,0.004768,0.0006428,13.52,0.06252,0,0,0.000246
50700000000,51000000000,4852735927,0,1436325665,0.0003443,0.001221,0.005814,0.0006876,0.0008039,0.001223,3.242e-05,5.722e-06,0.00362,0.001928,12.11,0.05533,0,0,0.0004883
20700000000,21000000000,4852735927,0,1436325665,0.0003214,0.001226,0.005814,0.0006943,0.0008116,0.001226,1.335e-05,5.722e-06,0.008698,0.0006428,12.59,0.05897,0,0,6.008e-05
21000000000,21300000000,4852735927,0,1436325665,0.0003357,0.001226,0.005814,0.0006943,0.0008116,0.001228,6.676e-06,5.722e-06,0.009476,0.0005713,9.337,0.04018,0,0,0.0001774
21300000000,21600000000,4852735927,0,1436325665,0.0003242,0.001226,0.005821,0.0006943,0.0008116,0.001228,2.67e-05,5.722e-06,0.001892,0.00293,12.56,0.05787,0,0,9.537e-05
21600000000,21900000000,4852735927,0,1436325665,0.0003166,0.001226,0.005814,0.0006952,0.0008116,0.001228,1.812e-05,5.722e-06,0.01477,0.001358,12.16,0.05627,0,0,0.0003729
21900000000,22200000000,4852735927,0,1436325665,0.0003233,0.001228,0.005814,0.0006952,0.0008125,0.00123,6.676e-06,5.722e-06,0.003296,0.0006428,12.96,0.06016,0,0,0.0001116
22200000000,22500000000,4852735927,0,1436325665,0.00033,0.001228,0.005814,0.0006952,0.0008125,0.00123,1.24e-05,5.722e-06,0.01181,0.001642,10.9,0.04851,0,0,0.0004969
22500000000,22800000000,4852735927,0,1436325665,0.0003147,0.001226,0.005814,0.0006933,0.0008097,0.001226,2.003e-05,5.722e-06,0.001572,0.002571,9.927,0.04539,0,0,0.0003128
22800000000,23100000000,4852735927,0,1436325665,0.0003252,0.001226,0.005814,0.0006914,0.0008087,0.001228,2.384e-05,5.722e-06,0.006859,0.002213,12.93,0.05983,0,0,0.0001535
23100000000,23400000000,4852735927,0,1436325665,0.00033,0.001226,0.005814,0.0006924,0.0008097,0.001228,1.335e-05,5.722e-06,0.005562,0.001499,12.5,0.0574,0,0,0.0002241
23400000000,23700000000,4852735927,0,1436325665,0.0003366,0.001228,0.005814,0.0006924,0.0008097,0.001232,6.676e-06,5.722e-06,0.003265,0.0002861,12.1,0.05493,0,0,0.0002985
23700000000,24000000000,4852735927,0,1436325665,0.0003538,0.001232,0.005814,0.0006924,0.0008097,0.001236,5.722e-06,5.722e-06,0.003094,0.0001431,13.46,0.06086,0,0,0.0003643
24000000000,24300000000,4852735927,0,1436325665,0.0003529,0.001234,0.005814,0.0006924,0.0008097,0.001234,1.049e-05,5.722e-06,0.002773,0.0004997,9.826,0.04298,0,0,0.0001812
24300000000,24600000000,4852735927,0,1436325665,0.0003452,0.001234,0.005821,0.0006933,0.0008097,0.001234,5.722e-06,5.722e-06,0.00724,0.0003567,7.044,0.02634,0,0,0.0001249
24600000000,24900000000,4852735927,0,1436325665,0.0003309,0.001234,0.005814,0.0006924,0.0008097,0.001236,7.629e-06,5.722e-06,0.001587,0.0004997,12.53,0.05809,0,0,0.0007687
24900000000,25200000000,4852735927,0,1436325665,0.000308,0.001234,0.005814,0.0006895,0.0008068,0.001236,1.717e-05,5.722e-06,0.00177,0.001358,9.612,0.04295,0,0,0.0002851
25200000000,25500000000,4852735927,0,1436325665,0.0003481,0.001232,0.005814,0.0006895,0.0008068,0.001234,3.052e-05,5.722e-06,0.005981,0.002716,8.372,0.03415,0,0,3.433e-05
25500000000,25800000000,4852735927,0,1436325665,0.0003424,0.00123,0.005814,0.0006895,0.0008068,0.001232,1.812e-05,5.722e-06,0.008667,0.001858,12.33,0.05715,0,0,0.0003452
60900000000,61200000000,4852735927,0,1436325665,0.000329,0.001228,0.005814,0.0006895,0.000803,0.00123,1.049e-05,5.722e-06,0.01147,0.0008574,8.728,0.03902,0,0,8.774e-05
61200000000,61500000000,4852735927,0,1436325665,0.0003681,0.001228,0.005814,0.0006905,0.000803,0.001232,8.583e-06,5.722e-06,0.01407,0.0004282,13.24,0.06125,0,0,0.0002222
61500000000,61800000000,4852735927,0,1436325665,0.0003529,0.001228,0.005814,0.0006905,0.0008039,0.00123,1.335e-05,5.722e-06,0.006866,0.002285,12.12,0.05505,0,0,0.0001268
61800000000,62100000000,4852735927,0,1436325665,0.000391,0.001226,0.005814,0.0006905,0.0008039,0.00123,1.907e-05,5.722e-06,0.01532,0.001715,12.47,0.05773,0,0,0.0005207
62100000000,62400000000,4852735927,0,1436325665,0.0003538,0.001215,0.005814,0.0006905,0.0008039,0.001217,4.196e-05,5.722e-06,0.005402,0.002213,12.22,0.05547,0,0,6.771e-05
62400000000,62700000000,4852735927,0,1436325665,0.0003452,0.001215,0.005814,0.0006905,0.0008039,0.001215,1.24e-05,5.722e-06,0.01204,0.0007143,13.39,0.06241,0,0,0.0001183
62700000000,63000000000,4852735927,0,1436325665,0.00033,0.001215,0.005814,0.0006914,0.0008039,0.001215,9.537e-06,5.722e-06,0.004189,0.0009289,8.476,0.03642,0,0,0.00037
63000000000,63300000000,4852735927,0,1436325665,0.0003395,0.001215,0.005814,0.0006914,0.0008049,0.001215,8.583e-06,5.722e-06,0.003922,0.0008574,13.43,0.06129,0,0,0.0003014
63300000000,63600000000,4852735927,0,1436325665,0.0003328,0.001215,0.005814,0.0006914,0.0008049,0.001215,8.583e-06,5.722e-06,0.002735,0.0007143,9.036,0.03958,0,0,0.0002155
63600000000,63900000000,4852735927,0,1436325665,0.0003357,0.001215,0.005814,0.0006914,0.0008049,0.001215,1.717e-05,5.722e-06,0.008392,0.002213,13.36,0.06172,0,0,0.0002413
63900000000,64200000000,4852735927,0,1436325665,0.0003328,0.001215,0.005814,0.0006914,0.0008049,0.001215,8.583e-06,5.722e-06,0.001465,0.0008574,11.48,0.05246,0,0,0.0004854
64200000000,64500000000,4852735927,0,1436325665,0.0003395,0.001215,0.005814,0.0006924,0.0008049,0.001215,1.526e-05,5.722e-06,0.02307,0.001928,9.38,0.04129,0,0,0.0001888
64500000000,64800000000,4852735927,0,1436325665,0.0003347,0.001215,0.005814,0.0006924,0.0008059,0.001215,8.583e-06,5.722e-06,0.004883,0.0007143,11.98,0.0551,0,0,0.000371
64800000000,65100000000,4852735927,0,1436325665,0.0003376,0.001213,0.005814,0.0006924,0.0008059,0.001215,1.621e-05,5.722e-06,0.00177,0.001215,9.637,0.04354,0,0,0.000124
65100000000,65400000000,4852735927,0,1436325665,0.0003357,0.001213,0.005814,0.0006924,0.0008059,0.001215,1.335e-05,5.722e-06,0.002441,0.0009289,9.434,0.04264,0,0,0.0003586
65400000000,65700000000,4852735927,0,1436325665,0.0003328,0.001215,0.005814,0.0006924,0.0008059,0.001219,1.621e-05,5.722e-06,0.003967,0.002857,13.34,0.06259,0,0,0.0001745
65700000000,66000000000,4852735927,0,1436325665,0.0003386,0.001213,0.005814,0.0006933,0.0008059,0.001213,1.812e-05,5.722e-06,0.003887,0.001642,11.07,0.05107,0,0,0.0001383
40800000000,41100000000,4852735927,0,1436325665,0.0003595,0.001223,0.005814,0.0006924,0.0008097,0.001226,2.098e-05,5.722e-06,0.00177,0.0009995,13.89,0.06355,0,0,0.0001373
41100000000,41400000000,4852735927,0,1436325665,0.000351,0.001223,0.005814,0.0006924,0.0008097,0.001225,6.676e-06,5.722e-06,0.002628,0.0004997,8.295,0.03453,0,0,0.0003433
41400000000,41700000000,4852735927,0,1436325665,0.0003414,0.001223,0.005814,0.0006933,0.0008106,0.001223,9.537e-06,5.722e-06,0.002876,0.0006428,10.07,0.0448,0,0,0.0002365
41700000000,42000000000,4852735927,0,1436325665,0.0003328,0.001223,0.005814,0.0006933,0.0008106,0.001223,1.049e-05,5.722e-06,0.003666,0.0008574,11.99,0.05534,0,0,0.0001068
42000000000,42300000000,4852735927,0,1436325665,0.0003357,0.001223,0.005814,0.0006933,0.0008106,0.001225,7.629e-06,5.722e-06,0.005257,0.0004997,10.53,0.04789,0,0,0.000412
42300000000,42600000000,4852735927,0,1436325665,0.0003252,0.001223,0.005814,0.0006933,0.0008106,0.001225,1.049e-05,5.722e-06,0.001789,0.001286,11.21,0.05153,0,0,0.0002851
42600000000,42900000000,4852735927,0,1436325665,0.0003386,0.001223,0.005814,0.0006933,0.0008106,0.001226,7.629e-06,5.722e-06,0.03192,0.0004282,10.32,0.04619,0,0,0.000227
42900000000,43200000000,4852735927,0,1436325665,0.0003319,0.001223,0.005814,0.0006943,0.0008116,0.001225,1.335e-05,5.722e-06,0.004814,0.0006428,11.86,0.05417,0,0,4.387e-05
43200000000,43500000000,4852735927,0,1436325665,0.000371,0.001225,0.005814,0.0006933,0.0008106,0.001228,9.537e-06,5.722e-06,0.01508,0.0007143,13.2,0.06171,0,0,0.0002565
43500000000,43800000000,4852735927,0,1436325665,0.0003185,0.001228,0.005814,0.0006905,0.0008078,0.001228,6.676e-06,5.722e-06,0.004501,0.0004997,11.04,0.05066,0,0,7.82e-05
43800000000,44100000000,4852735927,0,1436325665,0.0003271,0.001226,0.005814,0.0006905,0.0008078,0.001228,9.537e-06,5.722e-06,0.01167,0.0006428,12.88,0.0596,0,0,0.0002737
44100000000,44400000000,4852735927,0,1436325665,0.0003262,0.001228,0.005814,0.0006866,0.0008039,0.001228,1.526e-05,5.722e-06,0.008301,0.0009995,9.326,0.04191,0,0,0.0002975
44400000000,44700000000,4852735927,0,1436325665,0.0003233,0.001226,0.005814,0.0006876,0.0008039,0.001228,1.049e-05,5.722e-06,0.00177,0.0007143,12.32,0.05663,0,0,0.0001822
44700000000,45000000000,4852735927,0,1436325665,0.0003195,0.001228,0.005814,0.0006876,0.0008049,0.001228,1.526e-05,5.722e-06,0.005714,0.0007858,11.66,0.05414,0,0,0.0009708
45000000000,45300000000,4852735927,0,1436325665,0.0003252,0.001228,0.005814,0.0006876,0.0008049,0.00123,8.583e-06,5.722e-06,0.003418,0.0006428,13.11,0.06107,0,0,0.0004711
45300000000,45600000000,4852735927,0,1436325665,0.0003214,0.00123,0.005814,0.0006876,0.0008049,0.00123,1.24e-05,5.722e-06,0.002792,0.0009289,7.622,0.03308,0,0,0.0002403
45600000000,45900000000,4852735927,0,1436325665,0.0003214,0.00123,0.005814,0.0006876,0.0008049,0.00123,6.676e-06,5.722e-06,0.006683,0.0002861,13.02,0.06116,0,0,0.0002499
30900000000,31200000000,4852735927,0,1436325665,0.0003347,0.001215,0.005814,0.0006933,0.0008106,0.001219,1.335e-05,5.722e-06,0.004372,0.001143,11.46,0.05292,0,0,0.0001421
31200000000,31500000000,4852735927,0,1436325665,0.0003452,0.001219,0.005814,0.0006933,0.0008106,0.001226,1.335e-05,5.722e-06,0.003696,0.0005713,13.17,0.06046,0,0,0.0002966
31500000000,31800000000,4852735927,0,1436325665,0.0003357,0.001223,0.005814,0.0006943,0.0008106,0.001226,1.621e-05,5.722e-06,0.003529,0.001715,11.97,0.05548,0,0,0.0004435
31800000000,32100000000,4852735927,0,1436325665,0.0003939,0.001225,0.005814,0.0006943,0.0008116,0.001226,1.621e-05,5.722e-06,0.01459,0.002499,3.714,0.01299,0,0,0.0006094
32100000000,32400000000,4852735927,0,1436325665,0.000349,0.001225,0.005814,0.0006943,0.0008116,0.001228,1.526e-05,5.722e-06,0.002464,0.001143,9.066,0.03938,0,0,0.0003834
32400000000,32700000000,4852735927,0,1436325665,0.0003586,0.001225,0.005814,0.0006943,0.0008116,0.001226,7.629e-06,5.722e-06,0.003834,0.0002861,13.41,0.06059,0,0,0.0006018
32700000000,33000000000,4852735927,0,1436325665,0.0003319,0.001225,0.005814,0.0006914,0.0008087,0.001225,2.003e-05,5.722e-06,0.001377,0.00293,11.63,0.05293,0,0,0.0001163
33000000000,33300000000,4852735927,0,1436325665,0.0003414,0.001225,0.005814,0.0006914,0.0008078,0.001226,1.24e-05,5.722e-06,0.003017,0.001215,13.39,0.06234,0,0,0.0007381
33300000000,33600000000,4852735927,0,1436325665,0.0003366,0.001225,0.005814,0.0006914,0.0008087,0.001226,7.629e-06,5.722e-06,0.004646,0.0007143,11.96,0.05553,0,0,0.004646
33600000000,33900000000,4852735927,0,1436325665,0.0003996,0.001226,0.005814,0.0006914,0.0008087,0.001232,6.676e-06,5.722e-06,0.01611,0.0003567,13.24,0.0614,0,0,0.0001984
33900000000,34200000000,4852735927,0,1436325665,0.0003414,0.001225,0.005814,0.0006914,0.0008087,0.001226,7.629e-06,5.722e-06,0.01923,0.0003567,11.49,0.052,0,0,0.0005131
34200000000,34500000000,4852735927,0,1436325665,0.0003386,0.001225,0.005814,0.0006914,0.0008087,0.001228,1.049e-05,5.722e-06,0.003323,0.0004282,13.35,0.06239,0,0,0.0001717
34500000000,34800000000,4852735927,0,1436325665,0.0003395,0.001225,0.005814,0.0006924,0.0008087,0.001226,1.049e-05,5.722e-06,0.005615,0.001143,11.21,0.05125,0,0,9.06e-05
34800000000,35100000000,4852735927,0,1436325665,0.0003586,0.001225,0.005814,0.0006924,0.0008097,0.001226,1.621e-05,5.722e-06,0.00238,0.001143,13.82,0.06238,0,0,0.0008354
35100000000,35400000000,4852735927,0,1436325665,0.000329,0.001226,0.005814,0.0006924,0.0008097,0.001228,2.48e-05,5.722e-06,0.00853,0.001429,9.277,0.04165,0,0,0.0001764
35400000000,35700000000,4852735927,0,1436325665,0.0003223,0.001226,0.005814,0.0006924,0.0008097,0.001226,1.24e-05,5.722e-06,0.002728,0.0009995,12.89,0.06083,0,0,0.0002747
55800000000,56100000000,4852735927,0,1436325665,0.0003405,0.001226,0.005814,0.0006905,0.0008039,0.001226,5.722e-06,5.722e-06,0.002979,0.0002861,10.74,0.04836,0,0,6.676e-05
56100000000,56400000000,4852735927,0,1436325665,0.0003386,0.001226,0.005814,0.0006905,0.0008039,0.001226,1.049e-05,5.722e-06,0.003345,0.001785,12.12,0.05578,0,0,8.106e-05
56400000000,56700000000,4852735927,0,1436325665,0.000391,0.001226,0.005814,0.0006905,0.0008039,0.001228,1.717e-05,5.722e-06,0.01483,0.001358,10.04,0.04514,0,0,9.346e-05
56700000000,57000000000,4852735927,0,1436325665,0.0003347,0.001225,0.005814,0.0006914,0.0008049,0.001226,9.537e-06,5.722e-06,0.003262,0.0007143,11.98,0.05491,0,0,0.0002689
57000000000,57300000000,4852735927,0,1436325665,0.0003366,0.001226,0.005814,0.0006914,0.0008049,0.001228,1.431e-05,5.722e-06,0.003006,0.001499,13.05,0.06122,0,0,0.0005503
57300000000,57600000000,4852735927,0,1436325665,0.0003366,0.001226,0.005814,0.0006914,0.0008049,0.00123,1.24e-05,5.722e-06,0.004135,0.001215,11.31,0.05131,0,0,0.0001373
57600000000,57900000000,4852735927,0,1436325665,0.0003471,0.001228,0.005814,0.0006914,0.0008049,0.00123,8.583e-06,5.722e-06,0.002377,0.0004997,13.06,0.06003,0,0,0.0005665
57900000000,58200000000,4852735927,0,1436325665,0.0003376,0.001228,0.005814,0.0006914,0.0008049,0.00123,9.537e-06,5.722e-06,0.001526,0.0009995,12.1,0.05576,0,0,0.0002127
58200000000,58500000000,4852735927,0,1436325665,0.0003443,0.00123,0.005814,0.0006924,0.0008049,0.00123,7.629e-06,5.722e-06,0.005219,0.0004282,9.694,0.04302,0,0,0.0001163
58500000000,58800000000,4852735927,0,1436325665,0.0003548,0.00123,0.005814,0.0006924,0.0008059,0.00123,8.583e-06,5.722e-06,0.001646,0.0005713,9.2,0.0393,0,0,0.0002222
58800000000,59100000000,4852735927,0,1436325665,0.0003414,0.00123,0.005814,0.0006924,0.0008059,0.001232,1.431e-05,5.722e-06,0.008499,0.001286,12.36,0.05664,0,0,0.0002356
59100000000,59400000000,4852735927,0,1436325665,0.0003376,0.00123,0.005821,0.0006924,0.0008059,0.00123,8.583e-06,5.722e-06,0.002686,0.0004282,7.06,0.02876,0,0,0.0003138
59400000000,59700000000,4852735927,0,1436325665,0.0003328,0.00123,0.005814,0.0006914,0.0008049,0.00123,6.676e-06,5.722e-06,0.005455,0.0001431,12.83,0.05942,0,0,0.0003223
59700000000,60000000000,4852735927,0,1436325665,0.0003376,0.00123,0.005814,0.0006895,0.000802,0.001232,1.431e-05,5.722e-06,0.006416,0.001785,9.042,0.03998,0,0,0.0001144
60000000000,60300000000,4852735927,0,1436325665,0.000329,0.00123,0.005814,0.0006895,0.000803,0.00123,1.335e-05,5.722e-06,0.003487,0.0008574,12.25,0.057,0,0,0.0001249
60300000000,60600000000,4852735927,0,1436325665,0.0003262,0.001228,0.005814,0.0006895,0.000803,0.00123,6.676e-06,5.722e-06,0.005821,0.0002861,11.7,0.05473,0,0,0.0002842
60600000000,60900000000,4852735927,0,1436325665,0.0003452,0.001228,0.005814,0.0006895,0.000803,0.00123,3.147e-05,5.722e-06,0.03043,0.002571,13.33,0.06191,0,0,0.0004473
81000000000,81300000000,4852735927,0,1436325665,0.0003481,0.001219,0.005814,0.000699,0.0008125,0.001221,1.24e-05,5.722e-06,0.003159,0.001429,9.572,0.04219,0,0,8.583e-05
81300000000,81600000000,4852735927,0,1436325665,0.0003471,0.001219,0.005814,0.000699,0.0008125,0.001221,2.575e-05,5.722e-06,0.004379,0.001143,12.2,0.0554,0,0,0.000391
81600000000,81900000000,4852735927,0,1436325665,0.0003519,0.001219,0.005814,0.000699,0.0008125,0.001221,1.144e-05,5.722e-06,0.001831,0.001143,13.4,0.06205,0,0,0.0004578
81900000000,82200000000,4852735927,0,1436325665,0.0004082,0.001217,0.005814,0.000699,0.0008125,0.001221,7.629e-06,5.722e-06,0.01624,0.0004997,11.76,0.0529,0,0,0.0004683
82200000000,82500000000,4852735927,0,1436325665,0.0003405,0.001213,0.005814,0.0007,0.0008125,0.001215,6.676e-06,5.722e-06,0.003513,0.0002146,13.57,0.06229,0,0,0.0001163
82500000000,82800000000,4852735927,0,1436325665,0.0003452,0.001215,0.005814,0.0007,0.0008135,0.001217,1.621e-05,5.722e-06,0.007843,0.001358,12.18,0.05512,0,0,0.0005283
83400000000,83700000000,4852735927,0,1436325665,0.0004091,0.001213,0.005814,0.0007,0.0008135,0.001215,8.583e-06,5.722e-06,0.0166,0.001358,13.33,0.0611,0,0,0.0004578
83700000000,84000000000,4852735927,0,1436325665,0.000349,0.001213,0.005814,0.000701,0.0008135,0.001213,1.812e-05,5.722e-06,0.007416,0.001143,11.86,0.05255,0,0,0.0001211
84000000000,84300000000,4852735927,0,1436325665,0.0003519,0.001215,0.005814,0.000701,0.0008144,0.001217,1.431e-05,5.722e-06,0.001709,0.001429,8.324,0.03572,0,0,9.727e-05
84300000000,84600000000,4852735927,0,1436325665,0.0003519,0.001215,0.005814,0.000701,0.0008144,0.001221,9.537e-06,5.722e-06,0.007011,0.0009289,12.42,0.05627,0,0,0.0003786
84600000000,84900000000,4852735927,0,1436325665,0.0003748,0.001219,0.005814,0.000701,0.0008144,0.001221,1.24e-05,5.722e-06,0.008957,0.0009995,13.04,0.0587,0,0,0.0005903
84900000000,85200000000,4852735927,0,1436325665,0.0003548,0.001221,0.005814,0.000701,0.0008144,0.001223,7.629e-06,5.722e-06,0.004898,0.0004997,9.47,0.04064,0,0,0.0001659
85200000000,85500000000,4852735927,0,1436325665,0.0003786,0.001223,0.005821,0.0007019,0.0008144,0.001225,1.049e-05,5.722e-06,0.009262,0.0006428,14.07,0.06234,0,0,0.000452
85500000000,85800000000,4852735927,0,1436325665,0.0003595,0.001225,0.005814,0.0006981,0.0008116,0.001226,6.676e-06,5.722e-06,0.01103,0.0002146,12.59,0.05585,0,0,9.727e-05
600000000,900000000,4852735927,0,1436325665,0.0003195,0.001223,0.005821,0.000701,0.0008183,0.001223,1.335e-05,5.722e-06,0.002041,0.0009289,9.941,0.04428,0,0,0.0003262
900000000,1200000000,4852735927,0,1436325665,0.0003147,0.001221,0.005821,0.0007019,0.0008183,0.001223,5.722e-06,5.722e-06,0.001743,0.0002146,8.877,0.03832,0,0,0.0002604
1200000000,1500000000,4852735927,0,1436325665,0.0003166,0.001221,0.005814,0.0007019,0.0008192,0.001223,9.537e-06,5.722e-06,0.002441,0.0004282,12.07,0.05622,0,0,0.0001822
1500000000,1800000000,4852735927,0,1436325665,0.0003204,0.001221,0.005814,0.0007,0.0008173,0.001223,1.431e-05,5.722e-06,0.001556,0.002499,13.17,0.0612,0,0,0.0002069
1800000000,2100000000,4852735927,0,1436325665,0.0003262,0.001221,0.005814,0.0006981,0.0008154,0.001223,6.676e-06,5.722e-06,0.005478,0.0002146,8.042,0.03356,0,0,0.0001259
2100000000,2400000000,4852735927,0,1436325665,0.000329,0.001221,0.005814,0.0006981,0.0008154,0.001223,1.144e-05,5.722e-06,0.00375,0.0009289,10.29,0.04448,0,0,0.0001001
2400000000,2700000000,4852735927,0,1436325665,0.0003242,0.001221,0.005814,0.0006981,0.0008154,0.001223,5.722e-06,5.722e-06,0.002014,0.0001431,9.425,0.04113,0,0,0.0001163
2700000000,3000000000,4852735927,0,1436325665,0.0003166,0.001221,0.005814,0.000699,0.0008154,0.001223,1.144e-05,5.722e-06,0.005814,0.001785,13.01,0.0595,0,0,0.0003796
3000000000,3300000000,4852735927,0,1436325665,0.0003166,0.001221,0.005814,0.000699,0.0008163,0.001223,1.431e-05,5.722e-06,0.002502,0.0006428,12.57,0.0582,0,0,0.0008049
3300000000,3600000000,4852735927,0,1436325665,0.0003195,0.001221,0.005814,0.000699,0.0008163,0.001221,1.049e-05,5.722e-06,0.008072,0.0008574,9.336,0.04095,0,0,0.0002995
3600000000,3900000000,4852735927,0,1436325665,0.0003366,0.001221,0.005814,0.000699,0.0008163,0.001223,7.629e-06,5.722e-06,0.00647,0.0005713,9.021,0.0382,0,0,0.0004864
3900000000,4200000000,4852735927,0,1436325665,0.0003366,0.001221,0.005814,0.000699,0.0008163,0.001223,5.722e-06,5.722e-06,0.002148,0.0003567,9.938,0.04265,0,0,0.0001488
4200000000,4500000000,4852735927,0,1436325665,0.0003281,0.001221,0.005814,0.0007,0.0008163,0.001223,1.144e-05,5.722e-06,0.002625,0.001215,8.786,0.03773,0,0,0.0003195
4500000000,4800000000,4852735927,0,1436325665,0.0003214,0.001221,0.005814,0.0007,0.0008173,0.001223,1.812e-05,5.722e-06,0.001474,0.002571,10.04,0.044,0,0,0.0001783
4800000000,5100000000,4852735927,0,1436325665,0.0003242,0.001223,0.005814,0.0007,0.0008173,0.001225,6.676e-06,5.722e-06,0.006081,0.0002861,10.04,0.04461,0,0,6.008e-05
5100000000,5400000000,4852735927,0,1436325665,0.0003271,0.001223,0.005814,0.0007,0.0008173,0.001225,9.537e-06,5.722e-06,0.006371,0.0007858,9.864,0.04255,0,0,0.0001678
5400000000,5700000000,4852735927,0,1436325665,0.0003395,0.001223,0.005814,0.0007,0.0008173,0.001225,5.722e-06,5.722e-06,0.00473,0.0001431,10.41,0.04504,0,0,0.0004873
15900000000,16200000000,4852735927,0,1436325665,0.0003204,0.001217,0.005814,0.0006952,0.0008125,0.001219,1.526e-05,5.722e-06,0.001545,0.0007143,9.321,0.04293,0,0,8.678e-05
16200000000,16500000000,4852735927,0,1436325665,0.0003147,0.001219,0.005814,0.0006952,0.0008125,0.001219,1.335e-05,5.722e-06,0.001648,0.0009995,9.465,0.04373,0,0,0.0001392
16500000000,16800000000,4852735927,0,1436325665,0.0003252,0.001219,0.005814,0.0006952,0.0008125,0.001219,2.003e-05,5.722e-06,0.007622,0.001715,12.11,0.05593,0,0,0.0002575
16800000000,17100000000,4852735927,0,1436325665,0.0003195,0.001217,0.005814,0.0006962,0.0008125,0.001219,2.193e-05,5.722e-06,0.004326,0.002213,11.85,0.05507,0,0,9.06e-05
17100000000,17400000000,4852735927,0,1436325665,0.0003195,0.001217,0.005814,0.0006962,0.0008135,0.001219,8.583e-06,5.722e-06,0.002842,0.0004997,9.723,0.04415,0,0,0.0004969
17400000000,17700000000,4852735927,0,1436325665,0.0003099,0.001217,0.005814,0.0006962,0.0008135,0.001217,1.049e-05,5.722e-06,0.006142,0.0005713,9.825,0.04535,0,0,0.0001688
17700000000,18000000000,4852735927,0,1436325665,0.0003157,0.001217,0.005814,0.0006962,0.0008135,0.001219,1.24e-05,5.722e-06,0.002991,0.001286,9.371,0.04338,0,0,0.0002651
18000000000,18300000000,4852735927,0,1436325665,0.0003529,0.001223,0.005821,0.0006962,0.0008135,0.001228,7.629e-06,5.722e-06,0.01501,0.0005713,11.7,0.05544,0,0,0.0001183
18300000000,18600000000,4852735927,0,1436325665,0.0003223,0.001225,0.005814,0.0006933,0.0008106,0.001226,1.907e-05,5.722e-06,0.002373,0.001858,12.9,0.06004,0,0,0.0001717
18600000000,18900000000,4852735927,0,1436325665,0.000329,0.001223,0.005814,0.0006933,0.0008106,0.001223,2.289e-05,5.722e-06,0.003502,0.002357,12.5,0.05832,0,0,0.000164
18900000000,19200000000,4852735927,0,1436325665,0.0003262,0.001223,0.005814,0.0006933,0.0008106,0.001223,2.384e-05,5.722e-06,0.00415,0.00293,10.63,0.04647,0,0,0.0001888
19200000000,19500000000,4852735927,0,1436325665,0.0003471,0.001223,0.005814,0.0006933,0.0008106,0.001225,1.907e-05,5.722e-06,0.002602,0.001858,13.16,0.05957,0,0,0.0002842
19500000000,19800000000,4852735927,0,1436325665,0.0003176,0.001223,0.005814,0.0006933,0.0008106,0.001223,1.335e-05,5.722e-06,0.006706,0.0009289,9.273,0.04132,0,0,0.0008764
19800000000,20100000000,4852735927,0,1436325665,0.0003195,0.001221,0.005814,0.0006943,0.0008106,0.001223,1.431e-05,5.722e-06,0.003159,0.0009995,12.48,0.05818,0,0,0.0002842
20100000000,20400000000,4852735927,0,1436325665,0.0003624,0.001223,0.005814,0.0006943,0.0008116,0.001226,1.144e-05,5.722e-06,0.01404,0.001215,12.84,0.05989,0,0,0.0006437
20400000000,20700000000,4852735927,0,1436325665,0.0003204,0.001225,0.005814,0.0006943,0.0008116,0.001226,1.335e-05,5.722e-06,0.008575,0.001286,10.04,0.04565,0,0,0.0006475
35700000000,36000000000,4852735927,0,1436325665,0.0003242,0.001226,0.005814,0.0006924,0.0008097,0.001226,1.431e-05,5.722e-06,0.01268,0.001143,10.95,0.05079,0,0,0.0008917
36000000000,36300000000,4852735927,0,1436325665,0.0003262,0.001226,0.005814,0.0006933,0.0008097,0.001228,1.431e-05,5.722e-06,0.00177,0.0005713,13.15,0.06221,0,0,5.817e-05
36300000000,36600000000,4852735927,0,1436325665,0.0003233,0.001226,0.005814,0.0006933,0.0008106,0.001228,1.24e-05,5.722e-06,0.00547,0.0007858,8.799,0.03942,0,0,0.0004959
36600000000,36900000000,4852735927,0,1436325665,0.0003233,0.001226,0.005814,0.0006933,0.0008106,0.001226,7.629e-06,5.722e-06,0.00531,0.0004282,10.02,0.0452,0,0,7.915e-05
36900000000,37200000000,4852735927,0,1436325665,0.0003233,0.001226,0.005814,0.0006933,0.0008106,0.001226,1.335e-05,5.722e-06,0.005051,0.001358,9.591,0.04385,0,0,0.0002165
37200000000,37500000000,4852735927,0,1436325665,0.0003967,0.001225,0.005814,0.0006914,0.0008087,0.001226,1.431e-05,5.722e-06,0.01648,0.0006428,3.755,0.01248,0,0,0.0003014
37500000000,37800000000,4852735927,0,1436325665,0.0003271,0.001221,0.005814,0.0006905,0.0008078,0.001223,1.526e-05,5.722e-06,0.00441,0.002644,11.38,0.0522,0,0,0.000246
37800000000,38100000000,4852735927,0,1436325665,0.0003233,0.001221,0.005814,0.0006905,0.0008078,0.001221,1.335e-05,5.722e-06,0.0028,0.001072,13.14,0.06187,0,0,0.0004406
38100000000,38400000000,4852735927,0,1436325665,0.0003204,0.001221,0.005814,0.0006905,0.0008078,0.001221,1.144e-05,5.722e-06,0.003681,0.0007858,9.266,0.04199,0,0,0.0005894
38400000000,38700000000,4852735927,0,1436325665,0.0003357,0.001221,0.005814,0.0006914,0.0008078,0.001223,1.049e-05,5.722e-06,0.003952,0.0003567,13.37,0.0622,0,0,0.0002108
38700000000,39000000000,4852735927,0,1436325665,0.0003366,0.001221,0.005814,0.0006914,0.0008087,0.001221,6.676e-06,5.722e-06,0.01201,0.0004282,11.59,0.05235,0,0,0.0004568
39000000000,39300000000,4852735927,0,1436325665,0.000351,0.001221,0.005814,0.0006914,0.0008087,0.001221,4.768e-06,5.722e-06,0.002136,0.0001431,13.61,0.06203,0,0,0.0004454
39300000000,39600000000,4852735927,0,1436325665,0.0003891,0.001221,0.005814,0.0006914,0.0008087,0.001223,1.335e-05,5.722e-06,0.01569,0.0009289,12.01,0.05355,0,0,9.346e-05
39600000000,39900000000,4852735927,0,1436325665,0.0003653,0.001221,0.005814,0.0006914,0.0008087,0.001223,2.193e-05,5.722e-06,0.00388,0.0005713,12.67,0.05699,0,0,0.0005751
39900000000,40200000000,4852735927,0,1436325665,0.0003586,0.001221,0.005814,0.0006924,0.0008097,0.001225,2.48e-05,5.722e-06,0.002045,0.001572,12.62,0.05669,0,0,0.0006618
40200000000,40500000000,4852735927,0,1436325665,0.0003595,0.001221,0.005814,0.0006924,0.0008097,0.001225,2.861e-05,5.722e-06,0.004578,0.0008574,10.65,0.0465,0,0,0.0006828
40500000000,40800000000,4852735927,0,1436325665,0.0003643,0.001223,0.005814,0.0006924,0.0008097,0.001225,3.338e-05,5.722e-06,0.00354,0.001928,6.152,0.02291,0,0,0.0004511
75900000000,76200000000,4852735927,0,1436325665,0.0003538,0.001213,0.005814,0.000699,0.0008125,0.001215,2.67e-05,5.722e-06,0.005127,0.00293,9.903,0.04425,0,0,0.0002575
76200000000,76500000000,4852735927,0,1436325665,0.0003624,0.001213,0.005814,0.0007,0.0008125,0.001215,1.049e-05,5.722e-06,0.005219,0.0009995,13.63,0.06266,0,0,0.00037
76500000000,76800000000,4852735927,0,1436325665,0.0003395,0.001213,0.005814,0.0007,0.0008135,0.001213,9.537e-06,5.722e-06,0.002384,0.0008574,11.52,0.05249,0,0,0.0002527
76800000000,77100000000,4852735927,0,1436325665,0.0003872,0.001215,0.005814,0.0007,0.0008135,0.001217,7.629e-06,5.722e-06,0.05597,0.0005713,13.22,0.06158,0,0,0.0003128
77100000000,77400000000,4852735927,0,1436325665,0.0003366,0.001215,0.005814,0.0007,0.0008135,0.001217,1.907e-05,5.722e-06,0.004272,0.001715,11.98,0.05481,0,0,0.0007391
77400000000,77700000000,4852735927,0,1436325665,0.0003271,0.001215,0.005814,0.0007,0.0008135,0.001215,6.676e-06,5.722e-06,0.00177,0.0002146,10.12,0.04541,0,0,0.000906
77700000000,78000000000,4852735927,0,1436325665,0.0003271,0.001215,0.005814,0.000701,0.0008135,0.001215,8.583e-06,5.722e-06,0.001894,0.0005713,8.795,0.03843,0,0,0.0003538
78000000000,78300000000,4852735927,0,1436325665,0.0003319,0.001217,0.005814,0.000701,0.0008144,0.001219,2.48e-05,5.722e-06,0.002319,0.001928,13.63,0.0636,0,0,0.0001345
78300000000,78600000000,4852735927,0,1436325665,0.0003405,0.001219,0.005814,0.000701,0.0008144,0.001219,9.537e-06,5.722e-06,0.003738,0.0004997,8.966,0.03905,0,0,0.0003624
78600000000,78900000000,4852735927,0,1436325665,0.0003414,0.001217,0.005814,0.000701,0.0008144,0.001219,9.537e-06,5.722e-06,0.002441,0.0006428,10.22,0.04575,0,0,0.000145
78900000000,79200000000,4852735927,0,1436325665,0.0003414,0.001217,0.005814,0.000701,0.0008144,0.001221,7.629e-06,5.722e-06,0.006805,0.0003567,9.438,0.04169,0,0,0.0003061
79200000000,79500000000,4852735927,0,1436325665,0.00035,0.001219,0.005814,0.0007019,0.0008144,0.001221,1.24e-05,5.722e-06,0.002556,0.0007858,8.727,0.03796,0,0,0.0003395
79500000000,79800000000,4852735927,0,1436325665,0.0003386,0.001219,0.005814,0.0007019,0.0008154,0.001221,2.48e-05,5.722e-06,0.00177,0.00243,9.715,0.04297,0,0,0.0002327
79800000000,80100000000,4852735927,0,1436325665,0.0003939,0.001219,0.005814,0.0007019,0.0008154,0.001232,1.812e-05,5.722e-06,0.01581,0.001215,12.51,0.05752,0,0,0.0001249
80100000000,80400000000,4852735927,0,1436325665,0.0003424,0.001221,0.005814,0.000699,0.0008125,0.001226,2.098e-05,5.722e-06,0.007484,0.001499,3.789,0.01309,0,0,0.0002899
80400000000,80700000000,4852735927,0,1436325665,0.000351,0.001219,0.005814,0.0006981,0.0008116,0.001221,6.676e-06,5.722e-06,0.005013,0.0003567,10.81,0.04824,0,0,0.0004559
80700000000,81000000000,4852735927,0,1436325665,0.0003376,0.001217,0.005814,0.000699,0.0008116,0.001219,1.24e-05,5.722e-06,0.002319,0.0009289,12.17,0.05515,0,0,0.0007324
10800000000,11100000000,4852735927,0,1436325665,0.0003405,0.001221,0.005814,0.0007,0.0008173,0.001221,8.583e-06,5.722e-06,0.007736,0.0005713,13.35,0.06162,0,0,0.0003729
11100000000,11400000000,4852735927,0,1436325665,0.0003147,0.001221,0.005814,0.0007,0.0008173,0.001223,1.431e-05,5.722e-06,0.007027,0.0009289,11.45,0.0536,0,0,0.0001097
11400000000,11700000000,4852735927,0,1436325665,0.0003252,0.001221,0.005814,0.0007,0.0008173,0.001223,5.722e-06,5.722e-06,0.003696,0.0004997,12.4,0.05699,0,0,0.0001593
11700000000,12000000000,4852735927,0,1436325665,0.0003176,0.001221,0.005814,0.0007,0.0008173,0.001221,1.431e-05,5.722e-06,0.004128,0.001215,7.719,0.03241,0,0,0.000124
12000000000,12300000000,4852735927,0,1436325665,0.0003452,0.001221,0.005814,0.000701,0.0008173,0.001223,2.575e-05,5.722e-06,0.01392,0.0009289,12.45,0.05654,0,0,0.0002384
12300000000,12600000000,4852735927,0,1436325665,0.0004072,0.001215,0.005814,0.000701,0.0008183,0.001221,2.48e-05,5.722e-06,0.02335,0.001143,11.18,0.04816,0,0,0.0001001
12600000000,12900000000,4852735927,0,1436325665,0.0003557,0.001215,0.005814,0.000701,0.0008183,0.001217,1.049e-05,5.722e-06,0.004128,0.0004997,11.06,0.04732,0,0,0.0001869
12900000000,13200000000,4852735927,0,1436325665,0.0003443,0.001213,0.005814,0.000701,0.0008183,0.001215,1.24e-05,5.722e-06,0.008972,0.0007858,12.56,0.05593,0,0,0.0001516
13200000000,13500000000,4852735927,0,1436325665,0.0003405,0.001213,0.005814,0.000701,0.0008183,0.001215,1.144e-05,5.722e-06,0.002937,0.0007858,13.23,0.05997,0,0,0.0004339
13500000000,13800000000,4852735927,0,1436325665,0.0003395,0.001213,0.005814,0.0007019,0.0008183,0.001215,8.583e-06,5.722e-06,0.007217,0.0008574,13.34,0.06036,0,0,0.0006905
13800000000,14100000000,4852735927,0,1436325665,0.0003834,0.001215,0.005814,0.000699,0.0008163,0.001217,7.629e-06,5.722e-06,0.01617,0.0004282,12.49,0.05613,0,0,0.002876
14100000000,14400000000,4852735927,0,1436325665,0.0003214,0.001215,0.005814,0.0006981,0.0008154,0.001217,1.049e-05,5.722e-06,0.003891,0.0004997,12.95,0.06152,0,0,0.0002642
14400000000,14700000000,4852735927,0,1436325665,0.0003176,0.001213,0.005814,0.0006981,0.0008154,0.001215,1.431e-05,5.722e-06,0.002441,0.0009995,13,0.06055,0,0,0.0003386
14700000000,15000000000,4852735927,0,1436325665,0.0003023,0.001215,0.005814,0.0006981,0.0008154,0.001215,3.338e-05,5.722e-06,0.00177,0.002716,8.996,0.04093,0,0,9.251e-05
15000000000,15300000000,4852735927,0,1436325665,0.0003328,0.001217,0.005814,0.000699,0.0008154,0.001221,9.537e-06,5.722e-06,0.009323,0.0006428,12.46,0.05707,0,0,0.0003138
15300000000,15600000000,4852735927,0,1436325665,0.000329,0.001217,0.005814,0.000699,0.0008163,0.001219,1.812e-05,5.722e-06,0.004005,0.001358,12.04,0.05515,0,0,0.0005445
15600000000,15900000000,4852735927,0,1436325665,0.0003147,0.001217,0.005814,0.000699,0.0008154,0.001219,1.812e-05,5.722e-06,0.002899,0.0009995,9.299,0.04134,0,0,0.0002155
