6000000000,6300000000,4969889774,29,3312795286,0.03247,0.0235,0.02682,0.0007591,0.0009584,0.02353,0.0001326,5.531e-05,0.9541,0.003502,4.306,0.01325,0,0,0.02914
6300000000,6600000000,4969889774,29,3312795286,0.03534,0.0235,0.02682,0.0009174,0.001116,0.02353,6.294e-05,5.627e-05,0.1858,0.002857,4.379,0.01356,0,0,0.03296
6600000000,6900000000,4969889774,29,3312795286,0.03143,0.02347,0.02682,0.001373,0.001572,0.0235,7.534e-05,5.627e-05,0.1299,0.003857,4.108,0.01236,0,0,0.02463
6900000000,7200000000,4969889774,29,3312795286,0.03143,0.02353,0.02682,0.0006304,0.0008287,0.02356,5.436e-05,5.627e-05,0.1638,0.001999,4.454,0.01372,0,0,0.03296
7500000000,7800000000,4969889774,29,3312795286,0.03186,0.02353,0.02686,0.001402,0.0016,0.02356,8.392e-05,5.627e-05,0.1919,0.002857,4.357,0.01365,0,0,0.01648
7800000000,8100000000,4969889774,29,3312795286,0.03619,0.02353,0.02682,0.0007715,0.0009708,0.02359,0.0001135,5.627e-05,0.1643,0.003998,3.073,0.008337,0,0,0.03424
8100000000,8400000000,4969889774,29,3312795286,0.03394,0.02353,0.02682,0.001286,0.001484,0.02359,7.439e-05,5.722e-05,0.1484,0.002857,4.074,0.01233,0,0,0.02579
8400000000,8700000000,4969889774,29,3312795286,0.03412,0.0235,0.02682,0.0007896,0.000988,0.02353,5.913e-05,5.531e-05,0.1665,0.002144,4.143,0.01231,0,0,0.01831
8700000000,9000000000,4969889774,29,3312795286,0.04517,0.02362,0.02682,0.001135,0.001335,0.02374,8.488e-05,5.722e-05,0.2842,0.0075,4.308,0.01317,0,0,0.04388
9000000000,9300000000,4969889774,29,3312795286,0.03479,0.02356,0.02682,0.001329,0.001528,0.02359,6.294e-05,5.531e-05,0.1682,0.002071,4.532,0.01482,0,0,0.01428
9300000000,9600000000,4969889774,29,3312795286,0.03333,0.02356,0.02682,0.000967,0.001165,0.02359,7.629e-05,5.722e-05,0.1589,0.002571,3.952,0.01194,0,0,0.03625
9900000000,10200000000,4969889774,29,3312795286,0.0412,0.02356,0.02682,0.002079,0.002277,0.02365,6.58e-05,5.627e-05,0.2258,0.002716,2.309,0.005481,0,0,0.01392
10200000000,10500000000,4969889774,29,3312795286,0.03528,0.02356,0.02682,0.002571,0.002769,0.02362,9.346e-05,5.627e-05,0.1163,0.005432,3.944,0.01207,0,0,0.02393
10800000000,11100000000,4969889774,29,3312795286,0.03394,0.02353,0.02682,0.002434,0.002632,0.02362,7.439e-05,5.722e-05,0.1968,0.003429,4.229,0.01301,0,0,0.02054
11100000000,11400000000,4969889774,29,3312795286,0.03259,0.0235,0.02682,0.002411,0.002609,0.02353,6.104e-05,5.531e-05,0.1472,0.002144,4.604,0.01457,0,0,0.017
11700000000,12000000000,4969889774,29,3312795286,0.03339,0.02353,0.02682,0.001488,0.001688,0.02353,5.436e-05,5.627e-05,0.1501,0.001858,4.246,0.01273,0,0,0.04315
12000000000,12300000000,4969889774,29,3312795286,0.03314,0.0235,0.02682,0.0007524,0.0009518,0.02356,5.627e-05,5.627e-05,0.1577,0.002285,4.115,0.01224,0,0,0.04358
12300000000,12600000000,4969889774,29,3312795286,0.03851,0.02353,0.02682,0.001238,0.001436,0.02359,0.0001564,5.722e-05,0.2476,0.005859,3.97,0.01173,0,0,0.01712
12600000000,12900000000,4969889774,29,3312795286,0.0354,0.02353,0.02682,0.001602,0.001802,0.02356,9.823e-05,5.627e-05,0.11,0.005714,4.045,0.01212,0,0,0.03912
13200000000,13500000000,4969889774,29,3312795286,0.03741,0.02356,0.02682,0.002144,0.002342,0.02368,6.771e-05,5.531e-05,0.2122,0.002499,3.358,0.00964,0,0,0.02066
14100000000,14400000000,4969889774,29,3312795286,0.0365,0.02353,0.02682,0.001408,0.001606,0.02356,6.866e-05,5.722e-05,0.09949,0.002644,4.531,0.01442,0,0,0.01941
14400000000,14700000000,4969889774,29,3312795286,0.03693,0.0235,0.02682,0.001547,0.001743,0.02353,6.771e-05,5.531e-05,0.176,0.002857,4.508,0.01437,0,0,0.01868
15000000000,15300000000,4969889774,29,3312795286,0.03418,0.0235,0.02682,0.001282,0.001476,0.02353,6.485e-05,5.627e-05,0.146,0.002144,4.632,0.0149,0,0,0.02222
15300000000,15600000000,4969889774,29,3312795286,0.0332,0.0235,0.02682,0.001118,0.00131,0.02356,7.248e-05,5.627e-05,0.1616,0.005432,4.541,0.01442,0,0,0.03079
15600000000,15900000000,4969889774,29,3312795286,0.03546,0.0235,0.02682,0.001083,0.001274,0.02353,7.439e-05,5.722e-05,0.1685,0.002857,4.019,0.01242,0,0,0.02655
15900000000,16200000000,4969889774,29,3312795286,0.03101,0.02353,0.02682,0.001408,0.001602,0.02356,8.392e-05,5.627e-05,0.08411,0.007217,3.158,0.008735,0,0,0.01645
16800000000,17100000000,4969889774,29,3312795286,0.03271,0.02353,0.02682,0.001671,0.001867,0.02356,7.82e-05,5.531e-05,0.1124,0.004501,4.041,0.01199,0,0,0.01999
17100000000,17400000000,4969889774,29,3312795286,0.03455,0.02356,0.02682,0.001404,0.001598,0.02362,9.155e-05,5.722e-05,0.1914,0.002644,4.305,0.01282,0,0,0.02802
18000000000,18300000000,4969889774,29,3312795286,0.03043,0.0235,0.02682,0.001051,0.001211,0.02356,6.104e-05,5.722e-05,0.1914,0.002785,4.265,0.01278,0,0,0.02576
18300000000,18600000000,4969889774,29,3312795286,0.03394,0.0235,0.02682,0.001448,0.001608,0.02356,5.817e-05,5.627e-05,0.1658,0.002644,3.736,0.01096,0,0,0.01715
18600000000,18900000000,4969889774,29,3312795286,0.03265,0.0235,0.02682,0.0009632,0.001129,0.02356,6.485e-05,5.627e-05,0.1506,0.003143,3.353,0.009425,0,0,0.02859
19500000000,19800000000,4969889774,29,3312795286,0.03186,0.02353,0.02682,0.0007792,0.0009451,0.02356,6.866e-05,5.722e-05,0.1545,0.001858,4.169,0.0125,0,0,0.05536
20100000000,20400000000,4969889774,29,3312795286,0.03198,0.0235,0.02682,0.001648,0.001808,0.02353,7.248e-05,5.627e-05,0.1511,0.006355,4.486,0.01358,0,0,0.01978
20400000000,20700000000,4969889774,29,3312795286,0.03131,0.0235,0.02682,0.00182,0.001991,0.02353,5.817e-05,5.722e-05,0.1497,0.002998,3.993,0.012,0,0,0.0217
20700000000,21000000000,4969889774,29,3312795286,0.03143,0.0235,0.02682,0.002022,0.002193,0.02353,6.58e-05,5.531e-05,0.1641,0.002571,3.433,0.009838,0,0,0.01804
21000000000,21300000000,4969889774,29,3312795286,0.02988,0.02356,0.02682,0.002186,0.00235,0.02362,5.531e-05,5.627e-05,0.1331,0.001999,3.311,0.009266,0,0,0.021
21300000000,21600000000,4969889774,29,3312795286,0.03204,0.02362,0.02682,0.00193,0.002102,0.02365,5.054e-05,5.722e-05,0.1616,0.00243,2.228,0.005452,0,0,0.02539
21600000000,21900000000,4969889774,29,3312795286,0.02908,0.02362,0.02682,0.00165,0.001804,0.02365,5.245e-05,5.531e-05,0.1355,0.001785,3.472,0.01025,0,0,0.05524
21900000000,22200000000,4969889774,29,3312795286,0.03156,0.02362,0.02682,0.001343,0.001516,0.02365,5.436e-05,5.627e-05,0.1785,0.001928,3.116,0.008983,0,0,0.03558
22200000000,22500000000,4969889774,29,3312795286,0.03162,0.02356,0.02682,0.0008879,0.001081,0.02356,6.962e-05,5.722e-05,0.1472,0.004143,2.703,0.007183,0,0,0.03333
22500000000,22800000000,4969889774,29,3312795286,0.0289,0.02353,0.02682,0.001106,0.001299,0.02356,5.817e-05,5.531e-05,0.1707,0.002998,4.122,0.01222,0,0,0.0321
22800000000,23100000000,4969889774,29,3312795286,0.02933,0.0235,0.02689,0.001371,0.00156,0.02353,4.959e-05,5.627e-05,0.1587,0.002213,4.318,0.01307,0,0,0.01569
23100000000,23400000000,4969889774,29,3312795286,0.02783,0.0235,0.02689,0.001078,0.001257,0.02353,4.768e-05,5.722e-05,0.1873,0.002144,4.009,0.01203,0,0,0.02847
23400000000,23700000000,4969889774,29,3312795286,0.03122,0.0235,0.02686,0.001118,0.001287,0.02356,8.869e-05,5.531e-05,0.1453,0.003284,3.686,0.01098,0,0,0.02322
23700000000,24000000000,4969889774,29,3312795286,0.03204,0.02356,0.02686,0.0009394,0.001104,0.02362,8.965e-05,5.627e-05,0.08728,0.006218,4.186,0.01279,0,0,0.02036
24000000000,24300000000,4969889774,29,3312795286,0.03326,0.02365,0.02682,0.000926,0.001104,0.02368,0.0001116,5.627e-05,0.1521,0.01357,4.472,0.01398,0,0,0.02219
24300000000,24600000000,4969889774,29,3312795286,0.03381,0.02362,0.02682,0.001167,0.00135,0.02368,6.008e-05,5.627e-05,0.1624,0.001928,3.623,0.01064,0,0,0.02252
24900000000,25200000000,4969889774,29,3312795286,0.03436,0.02362,0.02682,0.001158,0.001348,0.02368,6.008e-05,5.531e-05,0.1743,0.001858,4.121,0.01222,0,0,0.03043
25200000000,25500000000,4969889774,29,3312795286,0.03473,0.02359,0.02682,0.001429,0.001619,0.02362,7.248e-05,5.627e-05,0.1633,0.003429,4.291,0.01287,0,0,0.1006
26100000000,26400000000,4969889774,29,3312795286,0.03192,0.02362,0.02692,0.001505,0.001694,0.02365,8.678e-05,5.722e-05,0.1433,0.006142,4.477,0.01371,0,0,0.03296
26400000000,26700000000,4969889774,29,3312795286,0.03381,0.02353,0.02692,0.001709,0.001892,0.02359,6.485e-05,5.531e-05,0.1641,0.002499,4.878,0.01569,0,0,0.01935
26700000000,27000000000,4969889774,29,3312795286,0.03061,0.02356,0.02695,0.001633,0.00182,0.02359,0.0001068,5.722e-05,0.1477,0.01057,4.857,0.01512,0,0,0.01675
27300000000,27600000000,4969889774,29,3312795286,0.03125,0.0235,0.02692,0.001469,0.001657,0.02353,5.817e-05,5.627e-05,0.103,0.001858,4.111,0.01269,0,0,0.0206
27900000000,28200000000,4969889774,29,3312795286,0.03668,0.02362,0.02682,0.001167,0.001358,0.02365,8.011e-05,5.531e-05,0.2026,0.002571,3.801,0.01087,0,0,0.02597
28200000000,28500000000,4969889774,29,3312795286,0.03424,0.02365,0.02682,0.0009766,0.001167,0.02368,7.534e-05,5.722e-05,0.1885,0.002785,4.511,0.01392,0,0,0.02899
28500000000,28800000000,4969889774,29,3312795286,0.03735,0.02362,0.02682,0.001102,0.001289,0.02368,0.0001011,5.531e-05,0.2549,0.005356,4.355,0.01329,0,0,0.02698
29100000000,29400000000,4969889774,29,3312795286,0.0351,0.02362,0.02682,0.00106,0.001251,0.02371,8.678e-05,5.627e-05,0.23,0.005714,2.706,0.006754,0,0,0.02441
29700000000,30000000000,4969889774,29,3312795286,0.03076,0.02356,0.02682,0.0007467,0.0009327,0.02359,5.436e-05,5.627e-05,0.1611,0.001999,3.76,0.01137,0,0,0.01749
30000000000,30300000000,4969889774,29,3312795286,0.03381,0.02356,0.02682,0.001049,0.001232,0.02356,6.39e-05,5.627e-05,0.1628,0.003071,3.941,0.01197,0,0,0.03699
30900000000,31200000000,4969889774,29,3312795286,0.02771,0.02353,0.02692,0.001116,0.001297,0.02356,6.58e-05,5.627e-05,0.1726,0.004501,4.251,0.0134,0,0,0.02582
31200000000,31500000000,4969889774,29,3312795286,0.03104,0.02353,0.02689,0.001442,0.001627,0.02356,0.0001059,5.722e-05,0.1499,0.01071,3.54,0.01059,0,0,0.1409
31500000000,31800000000,4969889774,29,3312795286,0.03162,0.02356,0.02686,0.001318,0.001507,0.02356,6.962e-05,5.531e-05,0.1582,0.003643,2.612,0.006846,0,0,0.03406
31800000000,32100000000,4969889774,29,3312795286,0.03113,0.02353,0.02686,0.001059,0.001245,0.02356,6.294e-05,5.627e-05,0.1694,0.002285,4.178,0.01288,0,0,0.03461
32100000000,32400000000,4969889774,29,3312795286,0.03479,0.02356,0.02682,0.000783,0.0009699,0.02356,7.534e-05,5.627e-05,0.1548,0.003571,4.12,0.0127,0,0,0.03241
32400000000,32700000000,4969889774,29,3312795286,0.03632,0.02356,0.02682,0.00136,0.001549,0.02356,7.343e-05,5.627e-05,0.1575,0.00293,3.75,0.011,0,0,0.03406
32700000000,33000000000,4969889774,29,3312795286,0.03925,0.02359,0.02682,0.0009584,0.001146,0.02365,9.155e-05,5.627e-05,0.1978,0.003784,3.717,0.0108,0,0,0.01932
33600000000,33900000000,4969889774,29,3312795286,0.03693,0.02362,0.02682,0.001099,0.001287,0.02371,9.06e-05,5.627e-05,0.1572,0.00293,2.478,0.006278,0,0,0.01419
33900000000,34200000000,4969889774,29,3312795286,0.03564,0.02362,0.02682,0.0007257,0.0009146,0.02365,7.439e-05,5.627e-05,0.1509,0.002571,4.069,0.0119,0,0,0.03625
34200000000,34500000000,4969889774,29,3312795286,0.03638,0.02359,0.02686,0.00127,0.001459,0.02365,6.676e-05,5.627e-05,0.1626,0.00293,4.685,0.01471,0,0,0.0199
34500000000,34800000000,4969889774,29,3312795286,0.03711,0.02356,0.02686,0.0007782,0.000967,0.02359,8.011e-05,5.627e-05,0.1521,0.00293,3.57,0.01062,0,0,0.01492
34800000000,35100000000,4969889774,29,3312795286,0.03473,0.02356,0.02682,0.0012,0.00139,0.02368,7.248e-05,5.627e-05,0.1721,0.003502,2.736,0.007403,0,0,0.02231
35100000000,35400000000,4969889774,29,3312795286,0.03943,0.02359,0.02682,0.001204,0.001366,0.02371,8.392e-05,5.722e-05,0.2317,0.002785,4.435,0.01401,0,0,0.03162
35400000000,35700000000,4969889774,29,3312795286,0.03522,0.02359,0.02682,0.001104,0.001289,0.02359,8.678e-05,5.531e-05,0.2017,0.005646,4.715,0.01495,0,0,0.01633
36300000000,36600000000,4969889774,29,3312795286,0.03104,0.02359,0.02689,0.00156,0.001751,0.02365,6.771e-05,5.722e-05,0.1102,0.001999,2.426,0.006691,0,0,0.02966
36600000000,36900000000,4969889774,29,3312795286,0.0321,0.02353,0.02692,0.0009432,0.001133,0.02356,6.485e-05,5.627e-05,0.2039,0.001999,4.486,0.01445,0,0,0.01892
36900000000,37200000000,4969889774,29,3312795286,0.02966,0.02356,0.02692,0.001348,0.001537,0.02362,5.531e-05,5.627e-05,0.1321,0.002071,4.246,0.01393,0,0,0.03687
37200000000,37500000000,4969889774,29,3312795286,0.03156,0.02356,0.02692,0.0009356,0.001125,0.02359,6.771e-05,5.722e-05,0.1433,0.003071,4.509,0.01463,0,0,0.03149
37500000000,37800000000,4969889774,29,3312795286,0.03497,0.02362,0.02689,0.001034,0.001223,0.02365,6.962e-05,5.627e-05,0.1936,0.00243,4.42,0.01399,0,0,0.02106
37800000000,38100000000,4969889774,29,3312795286,0.03369,0.02362,0.02686,0.001513,0.001701,0.02368,8.488e-05,5.722e-05,0.1853,0.005714,4.426,0.0144,0,0,0.0134
38100000000,38400000000,4969889774,29,3312795286,0.03577,0.02362,0.02686,0.002041,0.002232,0.02365,6.008e-05,5.531e-05,0.196,0.002071,4.471,0.01421,0,0,0.0567
38400000000,38700000000,4969889774,29,3312795286,0.034,0.0235,0.02686,0.002316,0.002499,0.02356,9.251e-05,5.627e-05,0.1787,0.004074,4.497,0.01422,0,0,0.01718
39000000000,39300000000,4969889774,29,3312795286,0.03662,0.02356,0.02692,0.001204,0.001394,0.02362,8.202e-05,5.627e-05,0.1604,0.005211,3.772,0.0115,0,0,0.05115
39600000000,39900000000,4969889774,29,3312795286,0.04108,0.02353,0.02686,0.001492,0.001671,0.02365,9.918e-05,5.627e-05,0.1392,0.003357,4.561,0.01531,0,0,0.03363
39900000000,40200000000,4969889774,29,3312795286,0.04211,0.02365,0.02682,0.001455,0.001627,0.02371,0.0001593,5.627e-05,0.2734,0.0162,4.205,0.01378,0,0,0.02209
40200000000,40500000000,4969889774,29,3312795286,0.03723,0.02365,0.02682,0.001038,0.001225,0.02371,0.0001488,5.627e-05,0.1445,0.002857,3.374,0.009566,0,0,0.04816
40500000000,40800000000,4969889774,29,3312795286,0.03778,0.02365,0.02682,0.001228,0.001415,0.02371,8.774e-05,5.722e-05,0.2227,0.005714,4.832,0.01545,0,0,0.02209
51000000000,51300000000,4969889774,29,3312795286,0.0473,0.02362,0.02682,0.0006876,0.0008564,0.02368,8.488e-05,5.627e-05,0.1589,0.00293,5.038,0.01634,0,0,0.02112
51300000000,51600000000,4969889774,29,3312795286,0.0451,0.02365,0.02682,0.0009537,0.001122,0.02371,0.000104,5.722e-05,0.167,0.00457,5.107,0.01687,0,0,0.05627
51600000000,51900000000,4969889774,29,3312795286,0.04785,0.02368,0.02682,0.0007582,0.000927,0.02371,8.869e-05,5.627e-05,0.1626,0.003216,3.91,0.01141,0,0,0.02563
51900000000,52200000000,4969889774,29,3312795286,0.04889,0.02365,0.02679,0.000947,0.001116,0.02368,9.632e-05,5.627e-05,0.1768,0.003143,4.727,0.01492,0,0,0.06836
52200000000,52500000000,4969889774,29,3312795286,0.04669,0.02368,0.02679,0.0009203,0.001087,0.02374,0.000103,5.627e-05,0.1643,0.005501,4.658,0.01472,0,0,0.04407
52500000000,52800000000,4969889774,29,3312795286,0.04816,0.02365,0.02679,0.0007095,0.0008764,0.02371,0.000144,5.627e-05,0.167,0.003429,3.936,0.01205,0,0,0.05859
52800000000,53100000000,4969889774,29,3312795286,0.04675,0.02362,0.02682,0.001017,0.001183,0.02365,0.0001554,5.722e-05,0.1858,0.004997,3.051,0.008856,0,0,0.04791
53100000000,53400000000,4969889774,29,3312795286,0.0484,0.02365,0.02682,0.00141,0.001575,0.02368,0.0001116,5.627e-05,0.2227,0.003857,3.219,0.009554,0,0,0.09656
53400000000,53700000000,4969889774,29,3312795286,0.04608,0.02365,0.02682,0.0008507,0.001017,0.02368,0.0001106,5.627e-05,0.176,0.005646,2.591,0.007129,0,0,0.04822
53700000000,54000000000,4969889774,29,3312795286,0.04602,0.02362,0.02682,0.0009632,0.001131,0.02368,9.06e-05,5.722e-05,0.1929,0.004211,4.851,0.01575,0,0,0.08801
54000000000,54300000000,4969889774,29,3312795286,0.04614,0.02368,0.02679,0.00102,0.001186,0.02374,0.0001392,5.627e-05,0.1685,0.005783,4.416,0.01456,0,0,0.03485
54300000000,54600000000,4969889774,29,3312795286,0.04285,0.02371,0.02682,0.001001,0.001169,0.02374,0.0001278,5.627e-05,0.1365,0.005714,4.765,0.01555,0,0,0.05896
54600000000,54900000000,4969889774,29,3312795286,0.04633,0.02374,0.02682,0.0008078,0.0009737,0.0238,0.0001545,5.627e-05,0.1743,0.006783,4.186,0.01372,0,0,0.01636
54900000000,55200000000,4969889774,29,3312795286,0.04535,0.02371,0.02682,0.0009108,0.001078,0.02374,0.0001097,5.627e-05,0.1597,0.005074,3.871,0.01225,0,0,0.0285
55200000000,55500000000,4969889774,29,3312795286,0.04858,0.02371,0.02682,0.001003,0.001171,0.02377,0.0001125,5.627e-05,0.2244,0.003571,2.385,0.005991,0,0,0.04028
55500000000,55800000000,4969889774,29,3312795286,0.04816,0.02377,0.02682,0.0008249,0.0009918,0.0238,0.0001287,5.627e-05,0.1868,0.007782,2.309,0.006204,0,0,0.02563
55800000000,56100000000,4969889774,29,3312795286,0.04797,0.02371,0.02682,0.001606,0.001774,0.02374,0.0001497,5.627e-05,0.1882,0.003857,3.017,0.00866,0,0,0.01657
56100000000,56400000000,4969889774,29,3312795286,0.04877,0.02377,0.02682,0.001699,0.001865,0.02383,0.0001249,5.627e-05,0.2166,0.006287,3.833,0.01189,0,0,0.0368
56400000000,56700000000,4969889774,29,3312795286,0.04639,0.0238,0.02682,0.002052,0.002216,0.02386,0.000145,5.627e-05,0.1646,0.008636,2.769,0.007649,0,0,0.0462
56700000000,57000000000,4969889774,29,3312795286,0.04651,0.02374,0.02682,0.002823,0.002979,0.0238,0.0001392,5.627e-05,0.2793,0.005211,4.576,0.01491,0,0,0.05792
57000000000,57300000000,4969889774,29,3312795286,0.04572,0.02368,0.02682,0.001629,0.001789,0.02374,0.0001392,5.722e-05,0.2034,0.005783,4.414,0.01405,0,0,0.06171
57300000000,57600000000,4969889774,29,3312795286,0.04633,0.02368,0.02682,0.0007172,0.0008783,0.02371,0.0001059,5.627e-05,0.1616,0.004074,4.583,0.01478,0,0,0.03955
57600000000,57900000000,4969889774,29,3312795286,0.04742,0.02371,0.02682,0.001366,0.001526,0.02377,0.0001154,5.627e-05,0.1699,0.004288,4.322,0.01362,0,0,0.05212
57900000000,58200000000,4969889774,29,3312795286,0.04773,0.02374,0.02682,0.002155,0.002316,0.02377,0.000145,5.722e-05,0.1902,0.005714,4.478,0.01438,0,0,0.1136
58200000000,58500000000,4969889774,29,3312795286,0.0437,0.02371,0.02682,0.001919,0.002079,0.02377,9.632e-05,5.627e-05,0.1921,0.003929,4.464,0.01445,0,0,0.0426
58500000000,58800000000,4969889774,29,3312795286,0.04803,0.02371,0.02682,0.002327,0.002487,0.02377,0.0001106,5.627e-05,0.1821,0.003929,4.482,0.01414,0,0,0.1582
58800000000,59100000000,4969889774,29,3312795286,0.05017,0.02371,0.02682,0.001879,0.002041,0.02374,0.0001125,5.722e-05,0.2515,0.004074,2.415,0.006266,0,0,0.05481
59100000000,59400000000,4969889774,29,3312795286,0.05328,0.02371,0.02682,0.001196,0.001358,0.0238,0.0002451,5.627e-05,0.2383,0.005714,4.734,0.01524,0,0,0.05511
59400000000,59700000000,4969889774,29,3312795286,0.05054,0.02368,0.02682,0.001083,0.001244,0.02377,0.0001822,5.627e-05,0.1868,0.003502,3.654,0.01071,0,0,0.06226
59700000000,60000000000,4969889774,29,3312795286,0.04968,0.02368,0.02682,0.001215,0.001375,0.02371,0.000165,5.627e-05,0.1768,0.005074,2.912,0.008289,0,0,0.05121
60000000000,60300000000,4969889774,29,3312795286,0.0509,0.02368,0.02682,0.001522,0.001682,0.02374,0.0001364,5.627e-05,0.1768,0.006859,4.494,0.01438,0,0,0.03107
60300000000,60600000000,4969889774,29,3312795286,0.05029,0.02371,0.02682,0.0009975,0.00116,0.02377,0.0001068,5.627e-05,0.1819,0.005859,4.398,0.0144,0,0,0.04767
60600000000,60900000000,4969889774,29,3312795286,0.05054,0.02374,0.02682,0.001087,0.001249,0.02377,0.0001326,5.627e-05,0.2327,0.005997,4.176,0.01281,0,0,0.05176
70800000000,71100000000,4969889774,29,3312795286,0.05756,0.02377,0.02682,0.001816,0.001968,0.02383,0.0001326,5.627e-05,0.2407,0.005356,3.576,0.01061,0,0,0.04431
71100000000,71400000000,4969889774,29,3312795286,0.05823,0.02377,0.02679,0.001919,0.002071,0.0238,0.0003214,5.627e-05,2.438,0.006218,2.848,0.007649,0,0,0.047
71400000000,71700000000,4969889774,29,3312795286,0.05432,0.02377,0.02682,0.001585,0.00174,0.0238,0.0001221,5.627e-05,0.1875,0.005287,4.18,0.01295,0,0,0.03461
71700000000,72000000000,4969889774,29,3312795286,0.05341,0.02377,0.02682,0.002178,0.002331,0.0238,0.0001698,5.722e-05,0.1914,0.005928,4.407,0.01364,0,0,0.07068
72000000000,72300000000,4969889774,29,3312795286,0.05206,0.02377,0.02682,0.003048,0.003197,0.02383,0.0002365,5.627e-05,0.1804,0.007072,3.916,0.01282,0,0,0.04657
72300000000,72600000000,4969889774,29,3312795286,0.05457,0.0238,0.02682,0.001923,0.00206,0.02383,0.000145,5.627e-05,0.1831,0.008636,3.605,0.01026,0,0,0.05786
72600000000,72900000000,4969889774,29,3312795286,0.05463,0.02386,0.02682,0.001238,0.001375,0.02386,0.0001488,5.627e-05,0.1768,0.006142,4.042,0.01208,0,0,0.03821
72900000000,73200000000,4969889774,29,3312795286,0.05463,0.02383,0.02682,0.001167,0.001305,0.02386,0.0001907,5.627e-05,0.1804,0.006073,3.582,0.01045,0,0,0.05011
73200000000,73500000000,4969889774,29,3312795286,0.05634,0.02383,0.02682,0.001122,0.001259,0.0239,0.000205,5.627e-05,0.1865,0.009995,3.754,0.01093,0,0,0.08301
73500000000,73800000000,4969889774,29,3312795286,0.05481,0.02383,0.02682,0.001146,0.001284,0.0239,0.0001554,5.627e-05,0.1978,0.007935,3.727,0.01082,0,0,0.06689
73800000000,74100000000,4969889774,29,3312795286,0.05328,0.0238,0.02682,0.001184,0.001322,0.02383,0.0001392,5.627e-05,0.1663,0.005714,3.971,0.01208,0,0,0.04626
74100000000,74400000000,4969889774,29,3312795286,0.05194,0.02377,0.02682,0.001455,0.001593,0.0238,0.0001297,5.627e-05,0.1843,0.005356,4.135,0.01323,0,0,0.02637
74400000000,74700000000,4969889774,29,3312795286,0.05402,0.02374,0.02682,0.002357,0.002495,0.0238,0.0002842,5.627e-05,0.1826,0.005569,4.203,0.01295,0,0,0.07202
74700000000,75000000000,4969889774,29,3312795286,0.05182,0.02374,0.02682,0.00227,0.002407,0.02377,0.0001221,5.627e-05,0.166,0.004784,4.272,0.01322,0,0,0.06726
75000000000,75300000000,4969889774,29,3312795286,0.05212,0.02374,0.02682,0.002285,0.002422,0.0238,0.0001564,5.627e-05,0.1687,0.006569,4.107,0.01215,0,0,0.03967
75300000000,75600000000,4969889774,29,3312795286,0.052,0.02374,0.02682,0.002426,0.002563,0.0238,0.0001316,5.627e-05,0.188,0.004715,4.29,0.01319,0,0,0.06396
75600000000,75900000000,4969889774,29,3312795286,0.05188,0.02377,0.02682,0.002476,0.002613,0.0238,0.0001154,5.627e-05,0.1838,0.005714,3.375,0.009435,0,0,0.04999
75900000000,76200000000,4969889774,29,3312795286,0.05316,0.02383,0.02682,0.003155,0.003277,0.02386,0.0001535,5.627e-05,0.2129,0.005783,4.395,0.01329,0,0,0.05145
76200000000,76500000000,4969889774,29,3312795286,0.05542,0.02383,0.02682,0.00206,0.002174,0.02393,0.0001678,5.627e-05,0.2056,0.01265,2.262,0.005074,0,0,0.04291
76500000000,76800000000,4969889774,29,3312795286,0.04999,0.02377,0.02682,0.00178,0.001894,0.02383,0.0001144,5.627e-05,0.1868,0.004929,3.969,0.0119,0,0,0.0592
76800000000,77100000000,4969889774,29,3312795286,0.05853,0.02386,0.02682,0.001247,0.001362,0.02393,0.0001278,5.627e-05,0.2544,0.00486,3.329,0.009183,0,0,0.07593
77100000000,77400000000,4969889774,29,3312795286,0.0564,0.0239,0.02682,0.001184,0.001299,0.02396,0.0001316,5.627e-05,0.1819,0.005287,2.7,0.007215,0,0,0.1033
77400000000,77700000000,4969889774,29,3312795286,0.05109,0.02386,0.02682,0.0008984,0.001013,0.0239,0.000123,5.627e-05,0.2432,0.006287,4.203,0.01329,0,0,0.04211
77700000000,78000000000,4969889774,29,3312795286,0.04956,0.0238,0.02682,0.0009661,0.00108,0.02386,0.0001554,5.627e-05,0.1746,0.005859,2.415,0.006115,0,0,0.03497
78000000000,78300000000,4969889774,29,3312795286,0.04974,0.0238,0.02682,0.001221,0.001335,0.02383,0.0001211,5.627e-05,0.1716,0.006432,2.847,0.007398,0,0,0.1022
78300000000,78600000000,4969889774,29,3312795286,0.05389,0.0238,0.02682,0.001036,0.00115,0.02386,0.0001659,5.627e-05,0.1948,0.008636,4.181,0.0126,0,0,0.06384
78600000000,78900000000,4969889774,29,3312795286,0.05273,0.0238,0.02682,0.002007,0.002121,0.02383,0.000144,5.627e-05,0.1707,0.005783,4.172,0.01254,0,0,0.07251
78900000000,79200000000,4969889774,29,3312795286,0.05096,0.0238,0.02682,0.001335,0.00145,0.02383,0.000144,5.627e-05,0.1768,0.005356,3.968,0.01184,0,0,0.03809
79200000000,79500000000,4969889774,29,3312795286,0.05151,0.0238,0.02682,0.001493,0.001608,0.02383,0.0001678,5.627e-05,0.2024,0.005714,4.129,0.01251,0,0,0.05682
79500000000,79800000000,4969889774,29,3312795286,0.05176,0.0238,0.02682,0.002468,0.002583,0.02383,0.0001593,5.627e-05,0.1699,0.008575,2.513,0.00637,0,0,0.04681
79800000000,80100000000,4969889774,29,3312795286,0.04712,0.02377,0.02682,0.001434,0.001549,0.0238,0.0001135,5.627e-05,0.1748,0.005783,4.148,0.01253,0,0,0.03131
80100000000,80400000000,4969889774,29,3312795286,0.04681,0.02374,0.02682,0.001049,0.001163,0.02377,0.0001068,5.722e-05,0.1709,0.003357,2.371,0.005798,0,0,0.03479
80400000000,80700000000,4969889774,29,3312795286,0.04407,0.02374,0.02682,0.001265,0.001379,0.02377,0.0001116,5.627e-05,0.1946,0.006714,2.251,0.005296,0,0,0.03693
80700000000,81000000000,4969889774,29,3312795286,0.04523,0.02371,0.02682,0.0008163,0.0009308,0.02377,0.0001011,5.627e-05,0.1724,0.004501,4.237,0.01294,0,0,0.03644
86100000000,86400000000,4969889774,29,3312795286,0.0368,0.02365,0.02682,0.002136,0.002251,0.02377,0.0001469,5.531e-05,0.1399,0.005783,3.309,0.009224,0,0,0.02579
86400000000,86700000000,4969889774,29,3312795286,0.04175,0.02371,0.02682,0.001915,0.002029,0.02374,0.0001249,5.722e-05,0.1973,0.005569,4.35,0.01383,0,0,0.03992
88200000000,88500000000,4969889774,29,3312795286,0.04358,0.02371,0.02682,0.0007935,0.0009079,0.02377,0.0001001,5.627e-05,0.2424,0.00293,4.29,0.01387,0,0,0.04999
88500000000,88800000000,4969889774,29,3312795286,0.03937,0.02371,0.02682,0.001245,0.00136,0.02377,0.0001125,5.627e-05,0.1555,0.005714,4.272,0.0135,0,0,0.05396
88800000000,89100000000,4969889774,29,3312795286,0.04315,0.02374,0.02682,0.000741,0.0008545,0.02374,0.0002232,5.627e-05,0.189,0.005714,2.275,0.005593,0,0,0.0368
89100000000,89400000000,4969889774,29,3312795286,0.04352,0.02371,0.02682,0.001377,0.001492,0.02377,0.0001373,5.627e-05,0.2488,0.006569,3.892,0.0117,0,0,0.0769
89400000000,89700000000,4969889774,29,3312795286,0.0379,0.02377,0.02682,0.000947,0.00106,0.02377,0.0001154,5.627e-05,0.2188,0.005714,4.069,0.0128,0,0,0.03235
89700000000,90000000000,4969889774,29,3312795286,0.04132,0.02374,0.02682,0.001329,0.001444,0.0238,0.0001173,5.627e-05,0.1758,0.005783,4.236,0.01341,0,0,0.03534
90000000000,90300000000,4969889774,29,3312795286,0.04303,0.02377,0.02682,0.0008249,0.0009394,0.0238,9.727e-05,5.627e-05,0.2705,0.003357,4.194,0.01295,0,0,0.04218
101700000000,102000000000,4969889774,29,3312795286,0.03101,0.02365,0.02682,0.0009356,0.0009937,0.02368,6.39e-05,5.722e-05,0.1604,0.002785,4.186,0.01336,0,0,0.02957
102300000000,102600000000,4969889774,29,3312795286,0.03149,0.02368,0.02682,0.0007706,0.0008297,0.02374,5.722e-05,5.627e-05,0.1246,0.001928,4.145,0.01293,0,0,0.03827
102600000000,102900000000,4969889774,29,3312795286,0.0354,0.02371,0.02682,0.001179,0.001226,0.02377,6.866e-05,5.722e-05,0.2217,0.00293,2.518,0.006873,0,0,0.04944
102900000000,103200000000,4969889774,29,3312795286,0.03198,0.02365,0.02682,0.001471,0.00153,0.02371,7.534e-05,5.627e-05,0.1198,0.002213,3.924,0.01213,0,0,0.03552
103200000000,103500000000,4969889774,29,3312795286,0.03467,0.02368,0.02682,0.001827,0.001886,0.02371,5.627e-05,5.722e-05,0.1794,0.002144,3.873,0.01254,0,0,0.0332
103500000000,103800000000,4969889774,29,3312795286,0.03192,0.02368,0.02682,0.0005951,0.0006542,0.02371,8.106e-05,5.627e-05,0.1577,0.004356,3.481,0.01093,0,0,0.02695
103800000000,104100000000,4969889774,29,3312795286,0.03036,0.02368,0.02682,0.0007591,0.0008192,0.02371,5.341e-05,5.627e-05,0.1614,0.001858,4.4,0.01442,0,0,0.03497
104100000000,104400000000,4969889774,29,3312795286,0.03241,0.02371,0.02682,0.001009,0.001068,0.02374,5.722e-05,5.722e-05,0.1714,0.001642,4.577,0.01515,0,0,0.04034
104400000000,104700000000,4969889774,29,3312795286,0.03186,0.02365,0.02682,0.000824,0.0008841,0.02371,6.58e-05,5.627e-05,0.1609,0.002857,3.984,0.01265,0,0,0.03137
104700000000,105000000000,4969889774,29,3312795286,0.03589,0.02371,0.02682,0.000905,0.0009651,0.02374,7.153e-05,5.627e-05,0.3252,0.00243,3.58,0.01124,0,0,0.06665
105000000000,105300000000,4969889774,29,3312795286,0.03955,0.02368,0.02682,0.0006285,0.0006886,0.02383,8.392e-05,5.627e-05,0.2544,0.004288,1.988,0.004715,0,0,0.05243
105300000000,105600000000,4969889774,29,3312795286,0.03552,0.02371,0.02682,0.0008307,0.0008907,0.02377,7.915e-05,5.627e-05,0.1736,0.00293,3.437,0.01064,0,0,0.02448
105900000000,106200000000,4969889774,29,3312795286,0.04785,0.0238,0.02682,0.001017,0.001078,0.02383,0.0001411,5.627e-05,0.2842,0.005859,3.74,0.01102,0,0,0.03625
106200000000,106500000000,4969889774,29,3312795286,0.06226,0.02393,0.02682,0.0009489,0.001009,0.02402,0.0002146,5.627e-05,0.2275,0.007996,3.571,0.01055,0,0,0.08081
106500000000,106800000000,4969889774,29,3312795286,0.06,0.02396,0.02679,0.001141,0.001202,0.02402,0.0001936,5.627e-05,0.1924,0.008209,4.257,0.01315,0,0,0.07166
106800000000,107100000000,4969889774,29,3312795286,0.06287,0.02393,0.02679,0.0009441,0.001005,0.02396,0.000227,5.627e-05,0.2109,0.009354,3.522,0.01033,0,0,0.02811
107100000000,107400000000,4969889774,29,3312795286,0.06873,0.02399,0.02682,0.001072,0.001133,0.02408,0.0002584,5.627e-05,0.2881,0.01215,2.158,0.005056,0,0,0.07385
107400000000,107700000000,4969889774,29,3312795286,0.06226,0.02396,0.02682,0.001305,0.001366,0.02402,0.0002184,5.627e-05,0.207,0.006569,3.042,0.008439,0,0,0.207
107700000000,108000000000,4969889774,29,3312795286,0.06274,0.02399,0.02679,0.001465,0.001526,0.02405,0.0002174,5.627e-05,0.2107,0.01122,4.183,0.01291,0,0,0.05054
108000000000,108300000000,4969889774,29,3312795286,0.0658,0.02399,0.02679,0.001417,0.001476,0.02402,0.0002909,5.627e-05,0.2273,0.009781,3.767,0.01107,0,0,0.07458
108300000000,108600000000,4969889774,29,3312795286,0.0636,0.02393,0.02682,0.0009918,0.001053,0.02402,0.000226,5.627e-05,0.2026,0.008926,3.991,0.01174,0,0,0.034
108600000000,108900000000,4969889774,29,3312795286,0.06372,0.02396,0.02682,0.001102,0.001163,0.02405,0.0002289,5.627e-05,0.2402,0.01021,2.491,0.006029,0,0,0.07141
108900000000,109200000000,4969889774,29,3312795286,0.06787,0.02405,0.02679,0.002285,0.002346,0.02411,0.0002365,5.627e-05,0.2061,0.008636,3.623,0.01041,0,0,0.06628
109200000000,109500000000,4969889774,29,3312795286,0.06299,0.02399,0.02679,0.002357,0.002419,0.02405,0.0002699,5.627e-05,0.2021,0.00972,3.106,0.008691,0,0,0.04254
109500000000,109800000000,4969889774,29,3312795286,0.06189,0.02396,0.02679,0.001064,0.001125,0.02402,0.0002556,5.627e-05,0.1975,0.01071,4.349,0.01328,0,0,0.07104
109800000000,110100000000,4969889774,29,3312795286,0.0647,0.02396,0.02679,0.0008268,0.000886,0.02405,0.0002213,5.627e-05,0.2085,0.00914,4.096,0.01225,0,0,0.04602
110100000000,110400000000,4969889774,29,3312795286,0.0686,0.02411,0.02682,0.00173,0.001791,0.02414,0.0002537,5.627e-05,0.2095,0.01086,4.003,0.01192,0,0,0.04279
110400000000,110700000000,4969889774,29,3312795286,0.06909,0.02411,0.02679,0.003002,0.003059,0.02414,0.000268,5.627e-05,0.2822,0.01186,3.709,0.01075,0,0,0.07739
110700000000,111000000000,4969889774,29,3312795286,0.05939,0.02396,0.02679,0.003132,0.003189,0.02405,0.000247,5.627e-05,0.2002,0.01143,3.095,0.008439,0,0,0.05029
116100000000,116400000000,4969889774,29,3312795286,0.04846,0.02393,0.02682,0.001436,0.001492,0.02399,0.0001392,5.627e-05,0.1841,0.006432,3.474,0.01019,0,0,0.06677
116400000000,116700000000,4969889774,29,3312795286,0.04993,0.02399,0.02682,0.002129,0.002182,0.02402,0.0001345,5.627e-05,0.2048,0.005714,3.956,0.0123,0,0,0.03748
116700000000,117000000000,4969889774,29,3312795286,0.05194,0.02399,0.02682,0.002857,0.002911,0.02405,0.0001802,5.627e-05,0.2117,0.008636,3.8,0.01154,0,0,0.0192
117000000000,117300000000,4969889774,29,3312795286,0.05634,0.02399,0.02682,0.001822,0.001875,0.02405,0.0001574,5.627e-05,0.2515,0.006218,3.976,0.01274,0,0,0.09875
117300000000,117600000000,4969889774,29,3312795286,0.05646,0.02399,0.02682,0.002792,0.002846,0.02405,0.0001888,5.627e-05,0.2043,0.00914,4.079,0.01281,0,0,0.04181
117600000000,117900000000,4969889774,29,3312795286,0.05737,0.02402,0.02679,0.003002,0.003056,0.02408,0.0001717,5.627e-05,0.1943,0.008575,4.111,0.01312,0,0,0.04895
117900000000,118200000000,4969889774,29,3312795286,0.05127,0.02399,0.02679,0.00243,0.002483,0.02408,0.0001707,5.627e-05,0.2554,0.007431,4.029,0.01265,0,0,0.0675
118200000000,118500000000,4969889774,29,3312795286,0.05878,0.02405,0.02682,0.002354,0.002407,0.02414,0.0001659,5.627e-05,0.3008,0.008789,3.321,0.009953,0,0,0.1243
118500000000,118800000000,4969889774,29,3312795286,0.04266,0.02393,0.02682,0.001051,0.001104,0.02396,0.000103,5.722e-05,0.2107,0.005783,4.375,0.0143,0,0,0.01706
118800000000,119100000000,4969889774,29,3312795286,0.04364,0.02393,0.02682,0.001244,0.001297,0.02396,0.0001211,5.627e-05,0.1777,0.004997,4.456,0.01448,0,0,0.04224
119100000000,119400000000,4969889774,29,3312795286,0.04376,0.02396,0.02682,0.001171,0.001226,0.02402,0.0001287,5.627e-05,0.2241,0.006432,4.152,0.01368,0,0,0.04175
119400000000,119700000000,4969889774,29,3312795286,0.04004,0.0239,0.02682,0.00198,0.002033,0.02399,9.251e-05,5.627e-05,0.2258,0.004356,4.304,0.01374,0,0,0.02167
119700000000,120000000000,4969889774,29,3312795286,0.04059,0.0239,0.02682,0.002697,0.00275,0.02396,0.0001001,5.627e-05,0.2229,0.004356,3.96,0.01217,0,0,0.03516
120000000000,120300000000,4969889774,29,3312795286,0.03876,0.02386,0.02682,0.00211,0.002167,0.02393,0.0001125,5.627e-05,0.2361,0.005783,3.162,0.008915,0,0,0.06348
126300000000,126600000000,4969889774,29,3312795286,0.03809,0.02383,0.02682,0.001141,0.001194,0.0239,8.488e-05,5.627e-05,0.188,0.003071,3.864,0.01148,0,0,0.03894
126600000000,126900000000,4969889774,29,3312795286,0.03479,0.02377,0.02682,0.001663,0.001717,0.02383,7.057e-05,5.627e-05,0.1228,0.003929,3.965,0.01194,0,0,0.02228
126900000000,127200000000,4969889774,29,3312795286,0.03802,0.0238,0.02682,0.002102,0.002159,0.02383,8.965e-05,5.627e-05,0.166,0.002499,3.192,0.008868,0,0,0.02197
127200000000,127500000000,4969889774,29,3312795286,0.04053,0.02386,0.02682,0.001572,0.001625,0.02393,0.0001135,5.627e-05,0.1882,0.006287,2.496,0.006293,0,0,0.03223
127500000000,127800000000,4969889774,29,3312795286,0.04205,0.0239,0.02679,0.001867,0.001911,0.02399,0.0001678,5.722e-05,0.2983,0.01801,2.828,0.00765,0,0,0.02866
127800000000,128100000000,4969889774,29,3312795286,0.04224,0.02383,0.02682,0.001976,0.002018,0.02386,8.965e-05,5.627e-05,0.2324,0.003429,4.666,0.01478,0,0,0.03363
128400000000,128700000000,4969889774,29,3312795286,0.03992,0.02383,0.02682,0.001995,0.002033,0.02386,9.155e-05,5.627e-05,0.1382,0.003143,4.457,0.01417,0,0,0.02423
129000000000,129300000000,4969889774,29,3312795286,0.04291,0.02386,0.02682,0.001116,0.001144,0.02396,0.0001268,5.627e-05,0.2034,0.005714,4.282,0.01342,0,0,0.03925
129900000000,130200000000,4969889774,29,3312795286,0.04047,0.02383,0.02679,0.0007629,0.0007973,0.02396,0.0001106,5.627e-05,0.1758,0.006142,3.784,0.01165,0,0,0.02606
130800000000,131100000000,4969889774,29,3312795286,0.04144,0.0238,0.02679,0.0005445,0.0005789,0.02386,0.000103,5.627e-05,0.1768,0.005074,4.254,0.01379,0,0,0.07581
141000000000,141300000000,4969889774,29,3312795286,0.0423,0.0239,0.02686,0.001373,0.001427,0.0239,0.0001335,5.627e-05,0.1475,0.007217,4.275,0.01352,0,0,0.03345
141300000000,141600000000,4969889774,29,3312795286,0.04541,0.02386,0.02686,0.00209,0.002144,0.0239,0.0001011,5.722e-05,0.1709,0.004715,2.44,0.006773,0,0,0.03668
141600000000,141900000000,4969889774,29,3312795286,0.04529,0.02393,0.02686,0.001534,0.001587,0.02399,0.0001049,5.627e-05,0.1763,0.004425,4.222,0.01343,0,0,0.02631
141900000000,142200000000,4969889774,29,3312795286,0.04669,0.02393,0.02686,0.001314,0.001366,0.02396,9.918e-05,5.627e-05,0.1602,0.003429,4.434,0.01422,0,0,0.04584
142200000000,142500000000,4969889774,29,3312795286,0.04834,0.02399,0.02682,0.0009804,0.001034,0.02402,0.0001373,5.722e-05,0.1641,0.006569,4.048,0.01261,0,0,0.02713
142500000000,142800000000,4969889774,29,3312795286,0.04761,0.02393,0.02682,0.0008583,0.0009108,0.02396,0.000104,5.627e-05,0.2224,0.004356,4.222,0.01357,0,0,0.08398
142800000000,143100000000,4969889774,29,3312795286,0.04785,0.0239,0.02682,0.001371,0.001425,0.02396,0.0001068,5.627e-05,0.1768,0.005997,3.272,0.01012,0,0,0.03369
143100000000,143400000000,4969889774,29,3312795286,0.04657,0.0239,0.02682,0.002174,0.002228,0.02393,0.0001059,5.722e-05,0.1541,0.003857,4.107,0.01332,0,0,0.03986
143400000000,143700000000,4969889774,29,3312795286,0.04877,0.0239,0.02686,0.002594,0.002647,0.02402,0.0001469,5.627e-05,0.1943,0.007431,3.869,0.01272,0,0,0.03876
143700000000,144000000000,4969889774,29,3312795286,0.04834,0.02386,0.02686,0.00259,0.002644,0.02393,0.0001307,5.627e-05,0.1899,0.008423,4.39,0.01402,0,0,0.1729
144000000000,144300000000,4969889774,29,3312795286,0.04663,0.02393,0.02682,0.003105,0.003159,0.02393,0.0001059,5.722e-05,0.1826,0.004929,4.439,0.01427,0,0,0.04517
144300000000,144600000000,4969889774,29,3312795286,0.05237,0.02393,0.02679,0.002415,0.002468,0.02402,0.0001469,5.627e-05,0.2156,0.008575,2.938,0.00783,0,0,0.02441
144600000000,144900000000,4969889774,29,3312795286,0.04669,0.02393,0.02679,0.001173,0.001223,0.02396,8.392e-05,5.627e-05,0.5195,0.003502,2.315,0.00562,0,0,0.02905
144900000000,145200000000,4969889774,29,3312795286,0.05914,0.02399,0.02679,0.0008059,0.0008574,0.02411,0.0003338,5.627e-05,0.1926,0.01265,4.468,0.01441,0,0,0.07776
145200000000,145500000000,4969889774,29,3312795286,0.05719,0.02405,0.02682,0.001909,0.001961,0.02411,0.0001583,5.627e-05,0.1985,0.01007,4.261,0.01341,0,0,0.05774
145500000000,145800000000,4969889774,29,3312795286,0.06812,0.02411,0.02679,0.002022,0.002071,0.02423,0.000206,5.627e-05,0.2822,0.01479,4.465,0.01436,0,0,0.0567
145800000000,146100000000,4969889774,29,3312795286,0.05933,0.02402,0.02679,0.001177,0.001226,0.02408,0.0001707,5.627e-05,0.2051,0.009354,2.708,0.007122,0,0,0.04565
151200000000,151500000000,4969889774,29,3312795286,0.05945,0.02399,0.02679,0.00194,0.001991,0.02408,0.0001783,5.627e-05,0.2322,0.008636,4.286,0.01361,0,0,0.04486
151500000000,151800000000,4969889774,29,3312795286,0.0592,0.02399,0.02679,0.001801,0.001852,0.02405,0.0001507,5.627e-05,0.1885,0.005783,4.294,0.01374,0,0,0.06244
151800000000,152100000000,4969889774,29,3312795286,0.05902,0.02402,0.02679,0.001795,0.001844,0.02405,0.0002022,5.627e-05,0.1987,0.007935,4.311,0.01344,0,0,0.03979
152100000000,152400000000,4969889774,29,3312795286,0.06799,0.02402,0.02679,0.001146,0.0012,0.02405,0.000206,5.627e-05,0.2534,0.008575,3.477,0.01023,0,0,0.05945
152400000000,152700000000,4969889774,29,3312795286,0.06134,0.02402,0.02679,0.000988,0.001041,0.02408,0.0001841,5.627e-05,0.292,0.005783,2.71,0.007162,0,0,0.07153
152700000000,153000000000,4969889774,29,3312795286,0.06085,0.02408,0.02679,0.001509,0.001562,0.02411,0.0001745,5.627e-05,0.2881,0.008636,2.598,0.006818,0,0,0.06958
153000000000,153300000000,4969889774,29,3312795286,0.05914,0.02408,0.02679,0.0009604,0.001015,0.02411,0.0001259,5.627e-05,0.2373,0.005928,2.719,0.007326,0,0,0.06555
153300000000,153600000000,4969889774,29,3312795286,0.05707,0.02402,0.02679,0.00176,0.001814,0.02408,0.0001364,5.627e-05,0.1836,0.006142,3.265,0.00962,0,0,0.07678
153600000000,153900000000,4969889774,29,3312795286,0.06519,0.02402,0.02679,0.002052,0.002106,0.02414,0.0001822,5.627e-05,0.272,0.01143,2.795,0.007783,0,0,0.05756
153900000000,154200000000,4969889774,29,3312795286,0.05981,0.02405,0.02679,0.002514,0.002567,0.02408,0.000144,5.627e-05,0.2246,0.005714,3.633,0.01136,0,0,0.05371
154200000000,154500000000,4969889774,29,3312795286,0.05908,0.02408,0.02679,0.003006,0.003059,0.02411,0.0001879,5.627e-05,0.2056,0.008209,2.986,0.008569,0,0,0.04346
154500000000,154800000000,4969889774,29,3312795286,0.06311,0.02408,0.02679,0.003029,0.003082,0.02414,0.0001926,5.627e-05,0.2107,0.008926,2.617,0.007003,0,0,0.05566
154800000000,155100000000,4969889774,29,3312795286,0.06787,0.02408,0.02679,0.002403,0.002457,0.02414,0.0001926,5.627e-05,0.2422,0.007141,2.685,0.007355,0,0,0.03601
155100000000,155400000000,4969889774,29,3312795286,0.06812,0.02408,0.02679,0.002953,0.003006,0.02414,0.0002127,5.627e-05,0.2046,0.006432,2.425,0.006257,0,0,0.09851
155400000000,155700000000,4969889774,29,3312795286,0.06506,0.02405,0.02679,0.001802,0.001856,0.02414,0.0001984,5.627e-05,0.2126,0.00885,4.266,0.01372,0,0,0.07715
155700000000,156000000000,4969889774,29,3312795286,0.0611,0.02405,0.02679,0.002274,0.002327,0.02408,0.0001764,5.627e-05,0.2041,0.007072,3.594,0.01092,0,0,0.03784
161100000000,161400000000,4969889774,29,3312795286,0.06042,0.02408,0.02679,0.002815,0.002869,0.02411,0.0001898,5.627e-05,0.2385,0.00885,2.434,0.006008,0,0,0.04468
161400000000,161700000000,4969889774,29,3312795286,0.06494,0.02408,0.02679,0.002541,0.002598,0.0242,0.0002375,5.627e-05,0.2278,0.00972,4.283,0.01343,0,0,0.06616
161700000000,162000000000,4969889774,29,3312795286,0.06396,0.02411,0.02679,0.002544,0.002598,0.02414,0.0002289,5.627e-05,0.2637,0.00885,2.75,0.007542,0,0,0.03412
162000000000,162300000000,4969889774,29,3312795286,0.06738,0.02405,0.02679,0.0023,0.002354,0.02411,0.0001574,5.627e-05,0.3984,0.008499,2.46,0.006137,0,0,0.06934
162300000000,162600000000,4969889774,29,3312795286,0.06061,0.02405,0.02679,0.001463,0.001518,0.02408,0.0002003,5.627e-05,0.2012,0.01636,3.061,0.008447,0,0,0.05768
162600000000,162900000000,4969889774,29,3312795286,0.05817,0.02402,0.02679,0.0009394,0.0009956,0.02405,0.0001917,5.627e-05,0.2253,0.007431,3.941,0.01221,0,0,0.0907
162900000000,163200000000,4969889774,29,3312795286,0.06116,0.02405,0.02679,0.001484,0.001539,0.02426,0.0002108,5.627e-05,0.2646,0.007355,3.544,0.01066,0,0,0.05475
163200000000,163500000000,4969889774,29,3312795286,0.05908,0.02408,0.02679,0.001432,0.001488,0.02423,0.0001879,5.627e-05,0.2019,0.01228,2.455,0.006169,0,0,0.05292
163500000000,163800000000,4969889774,29,3312795286,0.05713,0.02402,0.02679,0.001263,0.001318,0.02405,0.0001354,5.627e-05,0.1924,0.005432,3.398,0.009951,0,0,0.039
163800000000,164100000000,4969889774,29,3312795286,0.05511,0.02405,0.02679,0.0009537,0.001009,0.02411,0.0001364,5.627e-05,0.2744,0.005783,2.732,0.007323,0,0,0.06171
164100000000,164400000000,4969889774,29,3312795286,0.05273,0.02405,0.02679,0.0008621,0.0009174,0.02408,0.0001259,5.627e-05,0.2039,0.005783,4.229,0.01374,0,0,0.01721
164400000000,164700000000,4969889774,29,3312795286,0.05554,0.02411,0.02679,0.0008678,0.0009232,0.02414,0.0001421,5.627e-05,0.2217,0.005714,3.965,0.01235,0,0,0.04169
164700000000,165000000000,4969889774,29,3312795286,0.05365,0.02414,0.02682,0.001652,0.001707,0.0242,0.0001335,5.627e-05,0.1826,0.005928,2.625,0.006812,0,0,0.08899
165000000000,165300000000,4969889774,29,3312795286,0.05298,0.02414,0.02679,0.002323,0.002377,0.0242,0.0001621,5.627e-05,0.1887,0.005783,3.464,0.01036,0,0,0.05365
165300000000,165600000000,4969889774,29,3312795286,0.04572,0.02405,0.02679,0.001486,0.001541,0.02414,0.000123,5.627e-05,0.1892,0.007217,3.003,0.008445,0,0,0.04431
165600000000,165900000000,4969889774,29,3312795286,0.04901,0.02402,0.02679,0.0009232,0.0009785,0.02408,0.0001659,5.627e-05,0.188,0.005783,4.352,0.01412,0,0,0.03802
165900000000,166200000000,4969889774,29,3312795286,0.0509,0.02402,0.02679,0.0008001,0.0008554,0.02408,0.0001831,5.627e-05,0.1829,0.0065,4.638,0.01509,0,0,0.06665
166200000000,166500000000,4969889774,29,3312795286,0.05072,0.02408,0.02682,0.001471,0.001526,0.02411,0.0001421,5.627e-05,0.188,0.008362,4.424,0.01422,0,0,0.03827
166500000000,166800000000,4969889774,29,3312795286,0.04614,0.02402,0.02679,0.002129,0.002182,0.02408,0.0001173,5.627e-05,0.1609,0.0065,4.073,0.01281,0,0,0.01889
166800000000,167100000000,4969889774,29,3312795286,0.04657,0.0239,0.02679,0.000576,0.0006313,0.02396,0.0001135,5.722e-05,0.1963,0.004143,4.16,0.01328,0,0,0.02341
167100000000,167400000000,4969889774,29,3312795286,0.05255,0.02399,0.02679,0.000741,0.0007963,0.02405,0.0001402,5.627e-05,0.1799,0.007713,4.59,0.01558,0,0,0.05103
167400000000,167700000000,4969889774,29,3312795286,0.04926,0.02396,0.02679,0.0008354,0.0008898,0.02402,0.0001106,5.627e-05,0.1826,0.005714,4.625,0.01572,0,0,0.03741
167700000000,168000000000,4969889774,29,3312795286,0.04785,0.02399,0.02679,0.0009975,0.001051,0.02402,0.0001125,5.722e-05,0.2014,0.005714,4.771,0.01621,0,0,0.05164
168000000000,168300000000,4969889774,29,3312795286,0.0437,0.02396,0.02679,0.0008421,0.0008955,0.02399,0.000102,5.627e-05,0.1531,0.005714,4.178,0.01317,0,0,0.06097
168300000000,168600000000,4969889774,29,3312795286,0.04919,0.02402,0.02679,0.0009089,0.0009632,0.02408,0.0001326,5.627e-05,0.2095,0.0075,3.862,0.01185,0,0,0.05756
168600000000,168900000000,4969889774,29,3312795286,0.04059,0.02393,0.02679,0.0005789,0.0006332,0.02408,0.0001392,5.627e-05,0.1807,0.008636,3.775,0.01142,0,0,0.06665
168900000000,169200000000,4969889774,29,3312795286,0.04437,0.02396,0.02682,0.001175,0.001228,0.02399,0.000104,5.627e-05,0.1807,0.003857,2.706,0.007052,0,0,0.03284
169500000000,169800000000,4969889774,29,3312795286,0.04114,0.02396,0.02682,0.001287,0.001343,0.02396,7.248e-05,5.627e-05,0.1809,0.003071,2.834,0.007485,0,0,0.02164
169800000000,170100000000,4969889774,29,3312795286,0.04236,0.02393,0.02679,0.000906,0.0009604,0.02396,9.632e-05,5.722e-05,0.1895,0.002998,3.683,0.01087,0,0,0.02896
170100000000,170400000000,4969889774,29,3312795286,0.04413,0.02396,0.02679,0.0007448,0.0007992,0.02399,0.0001307,5.627e-05,0.1692,0.003216,3.357,0.01038,0,0,0.02341
170400000000,170700000000,4969889774,29,3312795286,0.04028,0.02399,0.02682,0.0009022,0.0009565,0.02402,0.0001173,5.627e-05,0.1716,0.005569,2.812,0.008106,0,0,0.0379
171000000000,171300000000,4969889774,29,3312795286,0.04095,0.02393,0.02682,0.001097,0.00115,0.02396,0.000144,5.627e-05,0.2764,0.00293,4.647,0.01493,0,0,0.06213
171300000000,171600000000,4969889774,29,3312795286,0.04114,0.0239,0.02679,0.0006056,0.0006609,0.02396,0.000123,5.722e-05,0.3037,0.006569,4.247,0.01325,0,0,0.02057
172200000000,172500000000,4969889774,29,3312795286,0.04022,0.02396,0.02682,0.001146,0.001198,0.02399,7.915e-05,5.627e-05,0.1638,0.002857,4.5,0.01458,0,0,0.02563
172500000000,172800000000,4969889774,29,3312795286,0.04108,0.02396,0.02682,0.0007324,0.0007868,0.02399,0.0001078,5.722e-05,0.2048,0.005432,4.209,0.0131,0,0,0.02228
173100000000,173400000000,4969889774,29,3312795286,0.04016,0.02393,0.02682,0.0008984,0.0009537,0.02396,7.82e-05,5.722e-05,0.1987,0.002357,4.147,0.01285,0,0,0.039
173400000000,173700000000,4969889774,29,3312795286,0.04175,0.02393,0.02682,0.001385,0.00144,0.02393,0.0001001,5.627e-05,0.2195,0.003716,4.134,0.01278,0,0,0.03284
173700000000,174000000000,4969889774,29,3312795286,0.03772,0.02393,0.02682,0.00172,0.001776,0.02399,0.0001087,5.722e-05,0.2083,0.003929,4.159,0.013,0,0,0.01981
174000000000,174300000000,4969889774,29,3312795286,0.04071,0.02396,0.02682,0.00132,0.001373,0.02405,8.392e-05,5.627e-05,0.166,0.003929,2.778,0.007872,0,0,0.05072
174300000000,174600000000,4969889774,29,3312795286,0.04059,0.02399,0.02682,0.0009146,0.0009699,0.02405,8.869e-05,5.627e-05,0.1726,0.00293,3.852,0.01202,0,0,0.1453
174600000000,174900000000,4969889774,29,3312795286,0.04102,0.02393,0.02682,0.0009956,0.001051,0.02399,8.011e-05,5.627e-05,0.1584,0.00293,3.86,0.01189,0,0,0.01813
174900000000,175200000000,4969889774,29,3312795286,0.03992,0.02393,0.02682,0.0009861,0.001041,0.02396,8.106e-05,5.627e-05,0.1621,0.002857,3.654,0.01111,0,0,0.1027
175500000000,175800000000,4969889774,29,3312795286,0.03937,0.0239,0.02679,0.0009527,0.001007,0.02393,8.488e-05,5.627e-05,0.1897,0.005928,3.984,0.01255,0,0,0.03064
175800000000,176100000000,4969889774,29,3312795286,0.0412,0.0239,0.02682,0.001423,0.001478,0.02393,6.58e-05,5.627e-05,0.1995,0.002357,2.555,0.006813,0,0,0.0658
186300000000,186600000000,4969889774,29,317495555,0.05078,0.01941,0.02484,0.004089,0.004433,0.01962,0.0001125,1.621e-05,0.2007,0.003998,4.365,0.014,0,0,0.02356
186600000000,186900000000,4969889774,29,317495555,0.04901,0.01968,0.02573,0.004562,0.004913,0.01984,0.000102,1.812e-05,0.2112,0.003143,4.073,0.01279,0,0,0.09644
186900000000,187200000000,4969889774,29,317495555,0.05066,0.0199,0.02676,0.004875,0.005234,0.02011,0.0002871,2.003e-05,0.179,0.03,4.194,0.01314,0,0,0.07019
187200000000,187500000000,4969889774,29,317495555,0.04718,0.02002,0.02676,0.005005,0.005348,0.02011,0.000103,2.193e-05,0.1814,0.006714,4.197,0.0131,0,0,0.06128
187500000000,187800000000,4969889774,29,317495555,0.04718,0.01996,0.02676,0.00573,0.006065,0.02002,8.774e-05,2.384e-05,0.1824,0.003502,4.638,0.01492,0,0,0.03448
187800000000,188100000000,4969889774,29,317495555,0.04559,0.01999,0.02676,0.005119,0.00547,0.02005,8.774e-05,2.48e-05,0.1641,0.004074,4.358,0.01374,0,0,0.05188
188100000000,188400000000,4969889774,29,317495555,0.04651,0.01999,0.02676,0.0047,0.005043,0.02008,0.0001011,2.67e-05,0.1663,0.003143,4.825,0.01577,0,0,0.03186
188400000000,188700000000,4969889774,29,317495555,0.04523,0.0202,0.02676,0.0047,0.005035,0.02026,0.000103,2.861e-05,0.1968,0.005783,2.261,0.005765,0,0,0.03961
188700000000,189000000000,4969889774,29,317495555,0.04163,0.0202,0.02676,0.004776,0.005127,0.02023,7.343e-05,3.052e-05,0.1519,0.002644,4.521,0.0145,0,0,0.05896
189000000000,189300000000,4969889774,29,317495555,0.04443,0.02017,0.02676,0.005043,0.005386,0.02023,9.918e-05,3.147e-05,0.2949,0.003784,4.747,0.01526,0,0,0.02982
189300000000,189600000000,4969889774,29,317495555,0.04364,0.0202,0.02676,0.004745,0.005096,0.02026,8.678e-05,3.338e-05,0.1372,0.003429,4.305,0.01356,0,0,0.04633
189600000000,189900000000,4969889774,29,317495555,0.04132,0.0202,0.02676,0.00428,0.004623,0.02026,7.629e-05,3.529e-05,0.2004,0.002499,4.731,0.01514,0,0,0.03473
189900000000,190200000000,4969889774,29,317495555,0.04291,0.0202,0.02676,0.004868,0.005211,0.02026,8.869e-05,3.624e-05,0.1731,0.00293,4.905,0.01614,0,0,0.06287
190200000000,190500000000,4969889774,29,317495555,0.04449,0.02023,0.02676,0.005486,0.005836,0.02029,8.678e-05,3.815e-05,0.1782,0.005783,4.178,0.01321,0,0,0.02408
190500000000,190800000000,4969889774,29,317495555,0.04694,0.02023,0.02676,0.004639,0.004982,0.02029,8.488e-05,3.91e-05,0.1785,0.00293,4.259,0.01373,0,0,0.06543
190800000000,191100000000,4969889774,29,317495555,0.04492,0.02026,0.02676,0.004326,0.004677,0.02029,8.869e-05,4.101e-05,0.1443,0.004288,4.271,0.01394,0,0,0.06079
191100000000,191400000000,4969889774,29,317495555,0.0426,0.02026,0.02676,0.00415,0.004494,0.02032,9.251e-05,4.292e-05,0.1426,0.003071,4.152,0.01345,0,0,0.03503
191400000000,191700000000,4969889774,29,317495555,0.0434,0.02023,0.02676,0.004364,0.0047,0.02029,6.866e-05,4.387e-05,0.2915,0.002785,4.757,0.01561,0,0,0.05688
191700000000,192000000000,4969889774,29,317495555,0.04163,0.02023,0.02676,0.004333,0.004677,0.02032,9.632e-05,4.578e-05,2.016,0.002644,5.044,0.01663,0,0,0.04517
192000000000,192300000000,4969889774,29,317495555,0.04352,0.02023,0.02676,0.004364,0.004707,0.02029,0.000123,4.673e-05,0.1672,0.00243,4.981,0.01636,0,0,0.0368
192300000000,192600000000,4969889774,29,317495555,0.04565,0.02026,0.02676,0.004242,0.004593,0.02032,8.297e-05,4.864e-05,0.1724,0.002857,5.337,0.01797,0,0,0.08459
192600000000,192900000000,4969889774,29,317495555,0.04016,0.02023,0.02676,0.004341,0.004692,0.02032,6.866e-05,4.959e-05,0.1389,0.002213,5.295,0.01764,0,0,0.02625
192900000000,193200000000,4969889774,29,317495555,0.03943,0.02023,0.02676,0.004875,0.005219,0.02029,6.676e-05,5.15e-05,0.1663,0.002499,5.508,0.0185,0,0,0.02408
193500000000,193800000000,4969889774,29,317495555,0.04181,0.02029,0.02676,0.004333,0.004684,0.02036,9.06e-05,5.436e-05,0.2058,0.003216,4.605,0.01462,0,0,0.03693
194100000000,194400000000,4969889774,29,317495555,0.04346,0.02032,0.02676,0.004852,0.005196,0.02039,7.725e-05,5.722e-05,0.1792,0.003071,4.954,0.0164,0,0,0.03638
194400000000,194700000000,4969889774,29,317495555,0.04358,0.02032,0.02676,0.004242,0.004585,0.02039,8.678e-05,5.627e-05,0.179,0.003284,4.966,0.0165,0,0,0.04633
194700000000,195000000000,4969889774,29,317495555,0.04578,0.02039,0.02676,0.004654,0.005005,0.02042,8.583e-05,5.722e-05,0.1631,0.003998,4.987,0.01664,0,0,0.01898
195000000000,195300000000,4969889774,29,317495555,0.04126,0.02036,0.02676,0.004272,0.004623,0.02039,8.965e-05,5.531e-05,0.2021,0.003357,4.04,0.01289,0,0,0.08228
195300000000,195600000000,4969889774,29,317495555,0.04059,0.02036,0.02676,0.004883,0.005226,0.02039,8.678e-05,5.722e-05,0.1648,0.002998,4.542,0.01487,0,0,0.06836
201300000000,201600000000,4969889774,29,317495555,0.0437,0.02112,0.02679,0.005066,0.005409,0.02118,9.632e-05,5.627e-05,0.1704,0.003357,4.375,0.01441,0,0,0.03754
201600000000,201900000000,4969889774,29,317495555,0.04071,0.02112,0.02676,0.005257,0.005608,0.02115,8.678e-05,5.722e-05,0.1741,0.004356,4.734,0.01556,0,0,0.03381
201900000000,202200000000,4969889774,29,317495555,0.03992,0.02112,0.02676,0.004669,0.005013,0.02115,8.965e-05,5.627e-05,0.1975,0.005074,4.636,0.01506,0,0,0.02832
202500000000,202800000000,4969889774,29,317495555,0.04218,0.02112,0.02676,0.005081,0.005417,0.02115,8.106e-05,5.627e-05,0.1548,0.003071,5.304,0.01824,0,0,0.05762
202800000000,203100000000,4969889774,29,317495555,0.04218,0.02112,0.02679,0.004745,0.005089,0.02118,8.202e-05,5.722e-05,0.1833,0.003571,4.928,0.0166,0,0,0.03217
203100000000,203400000000,4969889774,29,317495555,0.04626,0.02115,0.02682,0.004906,0.005249,0.02118,7.439e-05,5.531e-05,0.2061,0.002998,5.62,0.0195,0,0,0.06
203400000000,203700000000,4969889774,29,317495555,0.04266,0.02112,0.02679,0.004684,0.00502,0.02118,8.392e-05,5.722e-05,0.1968,0.002571,4.861,0.01652,0,0,0.02979
203700000000,204000000000,4969889774,29,317495555,0.04395,0.02115,0.02676,0.004616,0.004959,0.02118,8.011e-05,5.531e-05,0.1577,0.003071,6.12,0.02156,0,0,0.04572
204000000000,204300000000,4969889774,29,317495555,0.04559,0.02115,0.02676,0.00457,0.004921,0.02121,7.534e-05,5.722e-05,0.1689,0.003143,2.366,0.006177,0,0,0.03168
204300000000,204600000000,4969889774,29,317495555,0.04321,0.02112,0.02676,0.004005,0.004356,0.02121,7.343e-05,5.627e-05,0.1555,0.002644,5.598,0.01906,0,0,0.04425
204600000000,204900000000,4969889774,29,317495555,0.03973,0.02112,0.02676,0.00457,0.004921,0.02115,7.343e-05,5.722e-05,0.1909,0.002213,5.187,0.01736,0,0,0.04089
204900000000,205200000000,4969889774,29,317495555,0.04108,0.02112,0.02679,0.004349,0.004692,0.02115,7.629e-05,5.627e-05,0.1851,0.00243,5.659,0.01962,0,0,0.09119
205200000000,205500000000,4969889774,29,317495555,0.0387,0.02109,0.02679,0.004471,0.004807,0.02115,8.488e-05,5.627e-05,0.1609,0.002644,4.866,0.01644,0,0,0.07007
205500000000,205800000000,4969889774,29,317495555,0.03992,0.02112,0.02679,0.005058,0.005394,0.02118,7.153e-05,5.627e-05,0.2368,0.002644,4.368,0.0141,0,0,0.02454
205800000000,206100000000,4969889774,29,317495555,0.04364,0.02112,0.02676,0.005226,0.005562,0.02118,7.248e-05,5.627e-05,0.1904,0.002785,4.746,0.01566,0,0,0.03967
206100000000,206400000000,4969889774,29,317495555,0.04425,0.02118,0.02676,0.004471,0.004814,0.02121,9.537e-05,5.627e-05,0.2061,0.002998,4.202,0.01367,0,0,0.04395
206400000000,206700000000,4969889774,29,317495555,0.04474,0.02115,0.02676,0.004326,0.004669,0.02121,9.346e-05,5.722e-05,0.176,0.002998,2.67,0.007411,0,0,0.0351
206700000000,207000000000,4969889774,29,317495555,0.04272,0.02115,0.02676,0.004547,0.004898,0.02121,9.632e-05,5.627e-05,0.158,0.003857,3.893,0.01233,0,0,0.03552
207000000000,207300000000,4969889774,29,317495555,0.04156,0.02115,0.02676,0.004372,0.004715,0.02118,7.725e-05,5.722e-05,0.1318,0.002785,4.127,0.01332,0,0,0.01877
207300000000,207600000000,4969889774,29,317495555,0.04407,0.02112,0.02676,0.004562,0.004906,0.02118,0.0001078,5.627e-05,0.1763,0.003216,3.008,0.008807,0,0,0.04559
207900000000,208200000000,4969889774,29,317495555,0.05103,0.02142,0.02676,0.003899,0.004242,0.02228,8.774e-05,5.627e-05,0.2764,0.004356,2.516,0.006758,0,0,0.03149
208200000000,208500000000,4969889774,29,317495555,0.04266,0.02219,0.02679,0.00444,0.004791,0.02225,8.011e-05,5.627e-05,0.179,0.003716,5.047,0.01688,0,0,0.03516
208500000000,208800000000,4969889774,29,317495555,0.04321,0.02213,0.02676,0.004379,0.004715,0.02219,8.869e-05,5.627e-05,0.1587,0.002857,5.334,0.01813,0,0,0.03036
208800000000,209100000000,4969889774,29,317495555,0.04364,0.02216,0.02676,0.004471,0.004807,0.02222,9.727e-05,5.627e-05,0.1736,0.003216,4.42,0.01423,0,0,0.03436
209100000000,209400000000,4969889774,29,317495555,0.04498,0.02219,0.02676,0.003685,0.004036,0.02222,9.06e-05,5.627e-05,0.1965,0.003143,5.267,0.01793,0,0,0.04028
209400000000,209700000000,4969889774,29,317495555,0.04938,0.02219,0.02676,0.003689,0.004036,0.02222,9.155e-05,5.627e-05,0.179,0.004074,5.164,0.01745,0,0,0.02988
209700000000,210000000000,4969889774,29,317495555,0.04755,0.02216,0.02676,0.003227,0.003567,0.02222,9.823e-05,5.627e-05,0.1682,0.003429,5.372,0.01827,0,0,0.02094
210000000000,210300000000,4969889774,29,317495555,0.05054,0.02219,0.02676,0.003613,0.003952,0.02225,9.632e-05,5.627e-05,0.1946,0.004715,5.312,0.01802,0,0,0.0304
210300000000,210600000000,4969889774,29,317495555,0.04376,0.02219,0.02679,0.004303,0.004639,0.02225,9.441e-05,5.722e-05,0.1455,0.003143,5.044,0.01703,0,0,0.07703
210600000000,210900000000,4969889774,29,317495555,0.04834,0.02216,0.02676,0.004486,0.004822,0.02222,9.632e-05,5.627e-05,0.2219,0.003571,4.919,0.01627,0,0,0.02829
211200000000,211500000000,4969889774,29,317495555,0.08215,0.01338,0.01941,0.004814,0.00515,0.0146,0.001234,7.629e-06,0.3247,0.03351,2.367,0.005572,0,0,0.005447
211500000000,211800000000,4969889774,29,317495555,0.06873,0.01654,0.02237,0.004959,0.00531,0.01764,0.0001602,9.537e-06,0.188,0.01279,3.428,0.009891,0,0,0.0957
211800000000,212100000000,4969889774,29,317495555,0.06396,0.01901,0.02454,0.005005,0.005341,0.01929,0.0001249,1.24e-05,0.2495,0.006073,3.544,0.01045,0,0,0.05872
212100000000,212400000000,4969889774,29,317495555,0.0658,0.01923,0.02469,0.00528,0.005615,0.01932,0.0001287,1.431e-05,0.2273,0.005646,3.567,0.01111,0,0,0.09033
212400000000,212700000000,4969889774,29,317495555,0.05707,0.01923,0.02478,0.004143,0.004478,0.01932,0.0001211,1.621e-05,0.1475,0.004288,4.021,0.01269,0,0,0.04785
212700000000,213000000000,4969889774,29,317495555,0.05743,0.01935,0.02484,0.004753,0.005096,0.01944,0.0001221,1.812e-05,0.2166,0.004715,4.376,0.01387,0,0,0.05206
213000000000,213300000000,4969889774,29,317495555,0.0556,0.01971,0.02576,0.005089,0.005432,0.02005,0.0001526,2.003e-05,0.2483,0.008209,4.588,0.01502,0,0,0.05371
213300000000,213600000000,4969889774,29,317495555,0.0495,0.01984,0.02661,0.005531,0.005867,0.0199,0.000104,2.193e-05,0.1892,0.003998,4.475,0.01466,0,0,0.04346
213600000000,213900000000,4969889774,29,317495555,0.05255,0.01987,0.0267,0.005379,0.005714,0.0199,0.0001011,2.384e-05,0.2002,0.00486,3.478,0.01031,0,0,0.05426
213900000000,214200000000,4969889774,29,317495555,0.05066,0.02002,0.02676,0.005409,0.005753,0.02014,9.537e-05,2.575e-05,0.2083,0.003571,4.529,0.0147,0,0,0.09302
214200000000,214500000000,4969889774,29,317495555,0.05084,0.02005,0.02676,0.005119,0.00547,0.02011,0.000104,2.766e-05,0.2095,0.005432,4.071,0.01254,0,0,0.04736
214500000000,214800000000,4969889774,29,317495555,0.05035,0.02008,0.02676,0.004784,0.005135,0.02017,8.583e-05,2.956e-05,0.1897,0.003284,3.069,0.008749,0,0,0.02667
214800000000,215100000000,4969889774,29,317495555,0.04785,0.02011,0.02676,0.004578,0.004929,0.02017,0.0001049,3.147e-05,0.1846,0.004074,4.361,0.01426,0,0,0.0271
215100000000,215400000000,4969889774,29,317495555,0.05219,0.02011,0.02676,0.005013,0.005356,0.0202,9.06e-05,3.242e-05,0.1975,0.003571,4.372,0.01392,0,0,0.05017
215400000000,215700000000,4969889774,29,317495555,0.04932,0.02014,0.02676,0.004585,0.004929,0.0202,0.0001125,3.433e-05,0.2085,0.004997,4.04,0.01274,0,0,0.02072
215700000000,216000000000,4969889774,29,317495555,0.0484,0.02011,0.02676,0.004608,0.004944,0.02017,0.0001106,3.624e-05,0.2954,0.005142,3.775,0.01168,0,0,0.03265
216000000000,216300000000,4969889774,29,317495555,0.04742,0.02017,0.02676,0.004807,0.00515,0.02023,9.346e-05,3.815e-05,0.1787,0.004143,3.655,0.01142,0,0,0.06073
221100000000,221400000000,4969889774,29,317495555,0.05444,0.02087,0.02676,0.005775,0.006111,0.02094,9.155e-05,5.627e-05,0.2493,0.003357,5.147,0.01762,0,0,0.04138
221400000000,221700000000,4969889774,29,317495555,0.05432,0.02084,0.02676,0.005806,0.006149,0.0209,0.0001049,5.722e-05,0.2173,0.003784,2.527,0.006876,0,0,0.06909
221700000000,222000000000,4969889774,29,317495555,0.05591,0.02084,0.02676,0.005066,0.005409,0.0209,8.678e-05,5.531e-05,0.2073,0.002998,4.626,0.01547,0,0,0.0351
222000000000,222300000000,4969889774,29,317495555,0.05267,0.02081,0.02676,0.00322,0.003563,0.0209,0.0001078,5.722e-05,0.1851,0.003857,3.98,0.01287,0,0,0.02988
222300000000,222600000000,4969889774,29,317495555,0.05298,0.02075,0.02676,0.003101,0.003452,0.02081,8.106e-05,5.627e-05,0.2344,0.002998,3.975,0.013,0,0,0.04956
222600000000,222900000000,4969889774,29,317495555,0.05219,0.02081,0.02676,0.00338,0.003731,0.02087,0.0001173,5.627e-05,0.2007,0.004288,4.123,0.0136,0,0,0.03436
222900000000,223200000000,4969889774,29,317495555,0.04962,0.02081,0.02676,0.003548,0.003891,0.02087,9.727e-05,5.627e-05,0.2324,0.003716,4.181,0.0137,0,0,0.1331
223200000000,223500000000,4969889774,29,317495555,0.04865,0.02081,0.02676,0.003529,0.003864,0.02087,9.441e-05,5.627e-05,0.1992,0.003284,4.011,0.013,0,0,0.04236
223500000000,223800000000,4969889774,29,317495555,0.05359,0.02078,0.02676,0.003521,0.003868,0.02094,0.0001001,5.722e-05,0.1809,0.003284,4.405,0.01473,0,0,0.05206
223800000000,224100000000,4969889774,29,317495555,0.05841,0.02103,0.02676,0.003044,0.003387,0.02109,0.0001211,5.627e-05,0.3008,0.004425,4.628,0.01577,0,0,0.08215
224100000000,224400000000,4969889774,29,317495555,0.05493,0.021,0.02676,0.003326,0.00367,0.02106,9.537e-05,5.627e-05,0.2024,0.003998,3.818,0.01232,0,0,0.09143
224400000000,224700000000,4969889774,29,317495555,0.04865,0.021,0.02676,0.002914,0.00325,0.02106,0.0001068,5.627e-05,0.197,0.005432,2.942,0.008748,0,0,0.0459
224700000000,225000000000,4969889774,29,317495555,0.04974,0.02097,0.02676,0.003521,0.003872,0.021,9.346e-05,5.627e-05,0.2034,0.003216,5.091,0.01755,0,0,0.05347
225000000000,225300000000,4969889774,29,317495555,0.05219,0.02097,0.02676,0.003548,0.003891,0.02103,0.0001059,5.722e-05,0.2271,0.003071,4.665,0.01608,0,0,0.04712
225300000000,225600000000,4969889774,29,317495555,0.05902,0.02103,0.02676,0.003044,0.003384,0.02112,0.0001116,5.627e-05,0.1931,0.003502,3.344,0.01052,0,0,0.07812
225600000000,225900000000,4969889774,29,317495555,0.05975,0.02106,0.02676,0.002998,0.003338,0.02112,9.918e-05,5.627e-05,0.199,0.003784,3.905,0.01285,0,0,0.04779
225900000000,226200000000,4969889774,29,317495555,0.05676,0.02106,0.02676,0.002991,0.00333,0.02112,0.0001402,5.627e-05,0.2544,0.009567,4.526,0.01541,0,0,0.04956
226200000000,226500000000,4969889774,29,317495555,0.05048,0.02106,0.02676,0.0033,0.003639,0.02109,9.155e-05,5.627e-05,0.1799,0.003429,4.793,0.01653,0,0,0.06323
226500000000,226800000000,4969889774,29,317495555,0.05402,0.021,0.02676,0.00322,0.003559,0.02106,0.0001049,5.627e-05,0.1797,0.004425,4.67,0.01603,0,0,0.1367
226800000000,227100000000,4969889774,29,317495555,0.05267,0.021,0.02676,0.003944,0.004272,0.02106,8.965e-05,5.722e-05,0.2087,0.003143,4.74,0.01624,0,0,0.02563
227100000000,227400000000,4969889774,29,317495555,0.04846,0.021,0.02676,0.004494,0.004822,0.02109,8.965e-05,5.627e-05,0.1736,0.003502,4.706,0.01602,0,0,0.03864
227400000000,227700000000,4969889774,29,317495555,0.05011,0.021,0.02676,0.004166,0.004501,0.02106,9.918e-05,5.627e-05,0.1931,0.004646,4.069,0.01343,0,0,0.03448
227700000000,228000000000,4969889774,29,317495555,0.05396,0.02097,0.02676,0.004372,0.004707,0.02106,0.0001011,5.627e-05,0.2285,0.003071,4.206,0.01414,0,0,0.02032
228000000000,228300000000,4969889774,29,317495555,0.05811,0.02106,0.02676,0.003395,0.00375,0.02112,0.000104,5.627e-05,0.2014,0.003643,3.395,0.01049,0,0,0.0719
228300000000,228600000000,4969889774,29,317495555,0.05499,0.02103,0.02676,0.003952,0.004295,0.02109,0.0001268,5.627e-05,0.1895,0.003929,4.162,0.01345,0,0,0.03223
228600000000,228900000000,4969889774,29,317495555,0.05078,0.02103,0.02676,0.004501,0.004852,0.02106,9.537e-05,5.627e-05,0.1399,0.004501,4.561,0.01523,0,0,0.03967
228900000000,229200000000,4969889774,29,317495555,0.05023,0.02097,0.02676,0.003387,0.003723,0.02103,8.106e-05,5.627e-05,0.2197,0.002857,5.215,0.01836,0,0,0.073
229200000000,229500000000,4969889774,29,317495555,0.06024,0.02106,0.02676,0.003735,0.004066,0.02115,0.0001316,5.627e-05,0.1582,0.007217,4.897,0.01663,0,0,0.03845
229500000000,229800000000,4969889774,29,317495555,0.05792,0.02109,0.02676,0.003902,0.004242,0.02115,0.0001078,5.627e-05,0.208,0.004646,2.502,0.006922,0,0,0.09424
229800000000,230100000000,4969889774,29,317495555,0.05457,0.02106,0.02676,0.003944,0.00428,0.02112,9.727e-05,5.627e-05,0.187,0.003429,4.667,0.01551,0,0,0.06055
230100000000,230400000000,4969889774,29,317495555,0.05334,0.02103,0.02676,0.003799,0.004135,0.02109,0.0001154,5.722e-05,0.199,0.005287,3.757,0.01203,0,0,0.03308
230400000000,230700000000,4969889774,29,317495555,0.0509,0.02103,0.02676,0.003811,0.004143,0.02109,0.0001163,5.627e-05,0.1836,0.003571,3.613,0.01141,0,0,0.04382
230700000000,231000000000,4969889774,29,317495555,0.0542,0.02103,0.02676,0.003815,0.00415,0.02109,0.0001154,5.627e-05,0.2793,0.004074,2.574,0.007176,0,0,0.09839
231000000000,231300000000,4969889774,29,317495555,0.052,0.02103,0.02676,0.003719,0.004059,0.02109,0.0001001,5.722e-05,0.2263,0.004356,4.325,0.0144,0,0,0.03839
231300000000,231600000000,4969889774,29,317495555,0.05194,0.021,0.02676,0.004173,0.004517,0.02103,0.000104,5.627e-05,0.1729,0.002716,3.409,0.01076,0,0,0.09521
231600000000,231900000000,4969889774,29,317495555,0.04956,0.021,0.02676,0.003838,0.004189,0.02103,8.392e-05,5.722e-05,0.1467,0.003429,4.632,0.01591,0,0,0.04413
231900000000,232200000000,4969889774,29,317495555,0.05402,0.02103,0.02676,0.003727,0.004074,0.02109,8.392e-05,5.627e-05,0.186,0.004425,2.645,0.007415,0,0,0.04645
232200000000,232500000000,4969889774,29,317495555,0.05206,0.02103,0.02676,0.003853,0.004196,0.02106,0.0001001,5.722e-05,0.178,0.005211,5.722,0.02038,0,0,0.05542
232500000000,232800000000,4969889774,29,317495555,0.04749,0.02103,0.02676,0.003365,0.003708,0.02106,9.155e-05,5.627e-05,0.1824,0.002785,5.13,0.01798,0,0,0.05536
232800000000,233100000000,4969889774,29,317495555,0.05322,0.02106,0.02676,0.004074,0.00441,0.02112,8.678e-05,5.627e-05,0.2078,0.003071,3.82,0.01234,0,0,0.03345
233100000000,233400000000,4969889774,29,317495555,0.0545,0.02106,0.02676,0.00378,0.00412,0.02112,9.06e-05,5.627e-05,0.1877,0.003216,4.414,0.01464,0,0,0.04468
233400000000,233700000000,4969889774,29,317495555,0.06152,0.02109,0.02676,0.004318,0.004662,0.02115,0.0001135,5.627e-05,0.2151,0.003929,2.699,0.007918,0,0,0.06506
233700000000,234000000000,4969889774,29,317495555,0.05835,0.02112,0.02676,0.004486,0.004829,0.02118,0.0001116,5.627e-05,0.1797,0.005211,4.619,0.01571,0,0,0.08618
234000000000,234300000000,4969889774,29,317495555,0.05481,0.02106,0.02676,0.004799,0.005142,0.02112,9.918e-05,5.722e-05,0.2117,0.003071,4.47,0.01493,0,0,0.06567
234300000000,234600000000,4969889774,29,317495555,0.04913,0.021,0.02676,0.003872,0.004204,0.02109,9.727e-05,5.627e-05,0.1775,0.003857,4.826,0.01635,0,0,0.05542
234600000000,234900000000,4969889774,29,317495555,0.05322,0.02103,0.02676,0.003944,0.004288,0.02109,9.155e-05,5.722e-05,0.1824,0.003284,4.631,0.01552,0,0,0.04596
234900000000,235200000000,4969889774,29,317495555,0.05658,0.02121,0.02676,0.004242,0.004593,0.02127,0.0001211,5.627e-05,0.2424,0.006355,4.438,0.01478,0,0,0.03662
235200000000,235500000000,4969889774,29,317495555,0.05054,0.02118,0.02676,0.003563,0.003906,0.02127,9.155e-05,5.627e-05,0.1724,0.003143,4.479,0.01488,0,0,0.03351
235500000000,235800000000,4969889774,29,317495555,0.04822,0.02118,0.02676,0.002518,0.002857,0.02127,7.82e-05,5.627e-05,0.1672,0.002785,5.005,0.01709,0,0,0.0296
235800000000,236100000000,4969889774,29,317495555,0.05182,0.02121,0.02676,0.003071,0.003407,0.02124,9.727e-05,5.627e-05,0.1826,0.002857,4.328,0.01434,0,0,0.05023
236100000000,236400000000,4969889774,29,317495555,0.04974,0.02121,0.02676,0.002682,0.003029,0.0213,8.678e-05,5.722e-05,0.1785,0.003716,4.877,0.01677,0,0,0.03223
241200000000,241500000000,4969889774,29,317495555,0.05615,0.02267,0.02676,0.002953,0.003288,0.02274,0.0001068,5.627e-05,0.1931,0.004715,2.461,0.006986,0,0,0.04456
241500000000,241800000000,4969889774,29,317495555,0.05945,0.02267,0.02676,0.003777,0.004112,0.02277,0.0001087,5.627e-05,0.2075,0.003716,3.875,0.01259,0,0,0.05939
241800000000,242100000000,4969889774,29,317495555,0.05444,0.02264,0.02676,0.00346,0.003803,0.02271,0.0001078,5.722e-05,3.254,0.003502,3.953,0.01279,0,0,0.04175
242100000000,242400000000,4969889774,29,317495555,0.05829,0.02264,0.02676,0.002003,0.002342,0.02274,0.0001316,5.627e-05,0.1997,0.006927,4.573,0.01545,0,0,0.03265
242400000000,242700000000,4969889774,29,317495555,0.05316,0.02261,0.02676,0.002178,0.002514,0.02267,0.000102,5.627e-05,0.1904,0.003998,4.742,0.01614,0,0,0.08325
242700000000,243000000000,4969889774,29,317495555,0.05273,0.02261,0.02676,0.002708,0.003052,0.02267,9.251e-05,5.627e-05,0.1899,0.004211,4.787,0.01631,0,0,0.03839
243000000000,243300000000,4969889774,29,317495555,0.05182,0.02261,0.02676,0.002411,0.002754,0.02267,9.918e-05,5.627e-05,0.1638,0.003502,4.603,0.01539,0,0,0.03711
243300000000,243600000000,4969889774,29,317495555,0.05145,0.02261,0.02676,0.001984,0.002327,0.02267,0.0001011,5.722e-05,0.2642,0.003716,4.723,0.01598,0,0,0.06036
243600000000,243900000000,4969889774,29,317495555,0.05164,0.02261,0.02676,0.00214,0.002487,0.02267,9.251e-05,5.531e-05,0.2009,0.003571,5.239,0.01818,0,0,0.1084
243900000000,244200000000,4969889774,29,317495555,0.05194,0.02261,0.02676,0.002003,0.002354,0.02267,9.727e-05,5.627e-05,0.2217,0.00293,3.467,0.01068,0,0,0.06848
244200000000,244500000000,4969889774,29,317495555,0.06372,0.02271,0.02676,0.002819,0.003162,0.02286,0.0001163,5.627e-05,0.1912,0.003429,4.881,0.01647,0,0,0.04565
244500000000,244800000000,4969889774,29,317495555,0.06409,0.02274,0.02676,0.002754,0.003086,0.02286,0.0001478,5.627e-05,0.2024,0.008148,2.559,0.00702,0,0,0.04932
244800000000,245100000000,4969889774,29,317495555,0.05884,0.02267,0.02676,0.002277,0.002625,0.02274,0.0001049,5.627e-05,0.1719,0.003284,2.573,0.007159,0,0,0.0553
245100000000,245400000000,4969889774,29,317495555,0.05823,0.02271,0.02676,0.002941,0.003281,0.02277,0.000102,5.627e-05,0.1865,0.00457,4.034,0.01335,0,0,0.06183
245400000000,245700000000,4969889774,29,317495555,0.05316,0.02271,0.02676,0.002575,0.002926,0.02277,9.06e-05,5.627e-05,0.2319,0.003502,4.45,0.01498,0,0,0.07996
245700000000,246000000000,4969889774,29,317495555,0.05322,0.02267,0.02676,0.003063,0.003414,0.02274,9.918e-05,5.627e-05,0.2168,0.002857,4.8,0.01618,0,0,0.05164
246000000000,246300000000,4969889774,29,317495555,0.05151,0.02267,0.02676,0.002922,0.003265,0.02277,8.869e-05,5.722e-05,0.196,0.003998,4.599,0.01532,0,0,0.03809
251400000000,251700000000,4969889774,29,317495555,0.05219,0.02274,0.02676,0.002071,0.002419,0.0228,0.0001125,5.627e-05,0.2119,0.003998,4.662,0.01546,0,0,0.04022
251700000000,252000000000,4969889774,29,317495555,0.05188,0.02271,0.02676,0.001572,0.001917,0.02277,0.0001011,5.722e-05,0.2998,0.003284,4.521,0.01501,0,0,0.03821
252000000000,252300000000,4969889774,29,317495555,0.05109,0.02271,0.02676,0.001766,0.002106,0.02277,0.0001173,5.627e-05,0.1965,0.004143,4.243,0.0139,0,0,0.07556
252300000000,252600000000,4969889774,29,317495555,0.05048,0.02274,0.02676,0.001793,0.002144,0.02277,9.441e-05,5.627e-05,0.1809,0.003429,4.28,0.01398,0,0,0.04095
252600000000,252900000000,4969889774,29,317495555,0.05115,0.02274,0.02676,0.002354,0.002705,0.0228,9.632e-05,5.627e-05,0.1655,0.002857,4.742,0.01585,0,0,0.02124
252900000000,253200000000,4969889774,29,317495555,0.05292,0.02271,0.02676,0.002007,0.002342,0.0228,0.000104,5.627e-05,0.1885,0.004929,4.506,0.01483,0,0,0.1174
253200000000,253500000000,4969889774,29,317495555,0.05042,0.02274,0.02676,0.001722,0.002068,0.02277,0.000103,5.722e-05,0.1592,0.003571,3.328,0.0101,0,0,0.0434
253500000000,253800000000,4969889774,29,317495555,0.05353,0.02274,0.02676,0.002171,0.002514,0.02277,0.0001078,5.627e-05,0.1958,0.004143,4.85,0.01616,0,0,0.1146
253800000000,254100000000,4969889774,29,317495555,0.05322,0.02274,0.02676,0.002033,0.002377,0.02283,9.537e-05,5.627e-05,0.1855,0.003784,4.616,0.01524,0,0,0.04852
254100000000,254400000000,4969889774,29,317495555,0.04974,0.02274,0.02676,0.00194,0.002281,0.0228,9.441e-05,5.627e-05,0.1748,0.003429,4.125,0.01329,0,0,0.02377
254400000000,254700000000,4969889774,29,317495555,0.05017,0.02274,0.02676,0.001957,0.002289,0.02283,9.346e-05,5.627e-05,0.1809,0.002857,3.107,0.009182,0,0,0.09631
254700000000,255000000000,4969889774,29,317495555,0.05469,0.02277,0.02676,0.001614,0.001957,0.02283,9.632e-05,5.722e-05,0.2197,0.003502,3.742,0.01161,0,0,0.04993
255000000000,255300000000,4969889774,29,317495555,0.05475,0.02277,0.02676,0.001928,0.002266,0.02289,0.0001268,5.627e-05,0.2905,0.00914,4.449,0.01467,0,0,0.04706
255300000000,255600000000,4969889774,29,317495555,0.04742,0.02274,0.02676,0.001806,0.002148,0.02286,9.727e-05,5.627e-05,0.1716,0.003643,4.894,0.01632,0,0,0.02573
255600000000,255900000000,4969889774,29,317495555,0.04901,0.02271,0.02676,0.001724,0.00206,0.0228,0.0001221,5.627e-05,0.2156,0.003216,5.03,0.01698,0,0,0.02304
255900000000,256200000000,4969889774,29,317495555,0.05487,0.0228,0.02676,0.001961,0.002304,0.02286,0.0001745,5.627e-05,0.2019,0.004211,5.04,0.01695,0,0,0.0708
256200000000,256500000000,4969889774,29,317495555,0.05066,0.02277,0.02676,0.00248,0.002819,0.02286,9.918e-05,5.722e-05,0.1829,0.003998,4.645,0.01541,0,0,0.05457
256500000000,256800000000,4969889774,29,317495555,0.04895,0.02274,0.02676,0.002121,0.002457,0.0228,9.632e-05,5.627e-05,0.166,0.003643,5.479,0.01894,0,0,0.03973
256800000000,257100000000,4969889774,29,317495555,0.04486,0.02274,0.02676,0.001553,0.001884,0.0228,7.439e-05,5.722e-05,0.1941,0.00243,4.958,0.01702,0,0,0.03516
257100000000,257400000000,4969889774,29,317495555,0.04388,0.02267,0.02676,0.001976,0.002316,0.02277,8.297e-05,5.627e-05,0.2129,0.002998,4.992,0.01703,0,0,0.03546
257400000000,257700000000,4969889774,29,317495555,0.04578,0.02267,0.02676,0.002487,0.002827,0.02277,8.202e-05,5.722e-05,0.2087,0.003216,2.371,0.006337,0,0,0.03845
257700000000,258000000000,4969889774,29,317495555,0.0451,0.02274,0.02676,0.003078,0.003429,0.0228,8.583e-05,5.627e-05,0.1614,0.002998,3.995,0.01302,0,0,0.08875
258000000000,258300000000,4969889774,29,317495555,0.04736,0.02277,0.02676,0.003075,0.003422,0.02283,6.199e-05,5.722e-05,0.2031,0.002071,4.397,0.01484,0,0,0.04852
258300000000,258600000000,4969889774,29,317495555,0.04559,0.02277,0.02676,0.002975,0.003311,0.02283,6.962e-05,5.627e-05,0.2373,0.002213,4.431,0.01481,0,0,0.03845
258600000000,258900000000,4969889774,29,317495555,0.0451,0.0228,0.02676,0.00351,0.003845,0.02283,0.0001144,5.627e-05,0.1799,0.01108,4.292,0.01413,0,0,0.03381
258900000000,259200000000,4969889774,29,317495555,0.04431,0.02274,0.02676,0.003185,0.003525,0.02283,8.202e-05,5.627e-05,0.207,0.002144,5.068,0.01761,0,0,0.0481
259200000000,259500000000,4969889774,29,317495555,0.0451,0.02271,0.02676,0.00325,0.003593,0.0228,7.343e-05,5.627e-05,0.2104,0.003357,5.223,0.01813,0,0,0.04126
259500000000,259800000000,4969889774,29,317495555,0.04852,0.02274,0.02676,0.003429,0.003769,0.02277,7.915e-05,5.627e-05,0.2856,0.004356,4.897,0.01677,0,0,0.04639
259800000000,260100000000,4969889774,29,317495555,0.04706,0.02274,0.02676,0.003189,0.003521,0.02283,7.725e-05,5.627e-05,0.1731,0.00293,4.86,0.01664,0,0,0.0267
260100000000,260400000000,4969889774,29,317495555,0.04523,0.02274,0.02676,0.003712,0.004036,0.0228,7.82e-05,5.722e-05,0.1675,0.00293,5.721,0.02015,0,0,0.06036
260400000000,260700000000,4969889774,29,317495555,0.04504,0.02274,0.02676,0.003529,0.003887,0.02283,8.774e-05,5.627e-05,0.2146,0.002644,5.154,0.01785,0,0,0.03049
260700000000,261000000000,4969889774,29,317495555,0.04327,0.02267,0.02676,0.002811,0.003151,0.02274,8.488e-05,5.722e-05,0.1995,0.00243,4.623,0.0155,0,0,0.0351
261000000000,261300000000,4969889774,29,317495555,0.04974,0.02267,0.02676,0.002499,0.002831,0.02274,8.392e-05,5.627e-05,0.2317,0.003502,2.471,0.006714,0,0,0.02048
261300000000,261600000000,4969889774,29,317495555,0.05609,0.02277,0.02676,0.002083,0.002422,0.02283,8.297e-05,5.627e-05,0.1787,0.003216,4.522,0.01532,0,0,0.0271
261600000000,261900000000,4969889774,29,317495555,0.04907,0.02271,0.02676,0.002422,0.002766,0.0228,8.583e-05,5.627e-05,0.2063,0.002499,4.683,0.01597,0,0,0.05389
261900000000,262200000000,4969889774,29,317495555,0.04633,0.02274,0.02676,0.002148,0.002487,0.02277,7.629e-05,5.722e-05,0.1807,0.00243,4.531,0.01518,0,0,0.05334
262200000000,262500000000,4969889774,29,317495555,0.04285,0.02271,0.02676,0.002747,0.003082,0.02277,7.057e-05,5.627e-05,0.1692,0.002998,4.816,0.01637,0,0,0.03241
262500000000,262800000000,4969889774,29,317495555,0.04352,0.02271,0.02676,0.003216,0.003544,0.02277,8.488e-05,5.722e-05,0.168,0.002285,4.439,0.0149,0,0,0.08521
262800000000,263100000000,4969889774,29,317495555,0.04315,0.02271,0.02676,0.003674,0.004013,0.02274,8.678e-05,5.627e-05,0.1646,0.003857,3.462,0.01089,0,0,0.02914
263100000000,263400000000,4969889774,29,317495555,0.04395,0.02271,0.02676,0.003056,0.003403,0.02274,8.488e-05,5.722e-05,0.1462,0.00293,3.973,0.01303,0,0,0.04034
263400000000,263700000000,4969889774,29,317495555,0.05145,0.02274,0.02676,0.003426,0.003761,0.0228,0.0001068,5.627e-05,0.189,0.003216,4.127,0.01344,0,0,0.05994
263700000000,264000000000,4969889774,29,317495555,0.05164,0.02274,0.02676,0.003014,0.003361,0.0228,8.202e-05,5.627e-05,0.1924,0.002785,2.49,0.006623,0,0,0.08337
264000000000,264300000000,4969889774,29,317495555,0.05084,0.02274,0.02676,0.003651,0.003998,0.02283,9.537e-05,5.627e-05,0.187,0.004288,4.197,0.01346,0,0,0.05682
264300000000,264600000000,4969889774,29,317495555,0.04529,0.02271,0.02676,0.003094,0.003433,0.02277,8.011e-05,5.627e-05,0.2583,0.003071,4.468,0.01455,0,0,0.02542
264600000000,264900000000,4969889774,29,317495555,0.04462,0.02274,0.02676,0.003513,0.003853,0.02283,7.057e-05,5.627e-05,0.1982,0.002499,4.463,0.01445,0,0,0.03882
264900000000,265200000000,4969889774,29,317495555,0.04437,0.02271,0.02676,0.003155,0.003487,0.02277,6.39e-05,5.722e-05,0.2358,0.00243,2.192,0.00536,0,0,0.04938
265200000000,265500000000,4969889774,29,317495555,0.04242,0.0228,0.02676,0.003227,0.003574,0.02289,7.153e-05,5.627e-05,0.1614,0.002285,5.194,0.01764,0,0,0.03448
265500000000,265800000000,4969889774,29,317495555,0.04614,0.02283,0.02676,0.002754,0.003101,0.02286,8.392e-05,5.722e-05,0.1736,0.003071,5.126,0.01718,0,0,0.02496
266700000000,267000000000,4969889774,29,317495555,0.04181,0.02267,0.02676,0.002789,0.003128,0.02277,7.248e-05,5.627e-05,0.1907,0.002716,4.963,0.01658,0,0,0.02628
267000000000,267300000000,4969889774,29,317495555,0.04407,0.02277,0.02676,0.002316,0.002659,0.02283,6.39e-05,5.722e-05,0.2002,0.00243,2.624,0.007346,0,0,0.02747
267300000000,267600000000,4969889774,29,317495555,0.04156,0.02274,0.02676,0.002728,0.003071,0.02277,7.343e-05,5.531e-05,0.1401,0.002071,4.462,0.01486,0,0,0.04547
267600000000,267900000000,4969889774,29,317495555,0.04608,0.02277,0.02676,0.002785,0.003132,0.0228,9.251e-05,5.722e-05,0.1853,0.003502,4.221,0.01373,0,0,0.04437
267900000000,268200000000,4969889774,29,317495555,0.04694,0.02277,0.02676,0.002499,0.002842,0.02283,8.488e-05,5.627e-05,0.156,0.002571,4.239,0.01379,0,0,0.02835
268200000000,268500000000,4969889774,29,317495555,0.04358,0.02277,0.02676,0.003021,0.003361,0.02283,7.82e-05,5.627e-05,0.1619,0.004288,4.366,0.01441,0,0,0.06543
269400000000,269700000000,4969889774,29,317495555,0.03833,0.02267,0.02676,0.001593,0.001934,0.02274,7.439e-05,5.531e-05,0.2017,0.00293,5.106,0.01711,0,0,0.03497
269700000000,270000000000,4969889774,29,317495555,0.03833,0.02264,0.02679,0.002033,0.002377,0.02271,7.343e-05,5.627e-05,0.2261,0.003284,5.025,0.01672,0,0,0.04077
270300000000,270600000000,4969889774,29,317495555,0.04333,0.02274,0.02676,0.001816,0.002155,0.0228,6.962e-05,5.627e-05,0.2461,0.002144,4.94,0.01641,0,0,0.06128
270600000000,270900000000,4969889774,29,317495555,0.03857,0.02274,0.02676,0.00214,0.002476,0.0228,6.866e-05,5.722e-05,0.1729,0.003502,5.498,0.01871,0,0,0.04126
271200000000,271500000000,4969889774,29,317495555,0.0448,0.02274,0.02676,0.001984,0.002319,0.02283,8.106e-05,5.627e-05,0.1707,0.003716,4.496,0.01458,0,0,0.02963
281400000000,281700000000,4969889774,29,317495555,0.03992,0.02271,0.02676,0.001995,0.002335,0.02277,8.488e-05,5.722e-05,0.2031,0.003216,4.663,0.0154,0,0,0.04449
281700000000,282000000000,4969889774,29,317495555,0.04486,0.02271,0.02676,0.002468,0.002796,0.02277,8.202e-05,5.627e-05,0.1775,0.002785,4.95,0.01637,0,0,0.1599
282000000000,282300000000,4969889774,29,317495555,0.04016,0.02271,0.02676,0.002926,0.003265,0.0228,6.676e-05,5.627e-05,0.186,0.003216,4.687,0.01535,0,0,0.02457
282300000000,282600000000,4969889774,29,317495555,0.04242,0.02271,0.02676,0.003376,0.003716,0.02277,7.82e-05,5.722e-05,0.1611,0.002285,3.798,0.01166,0,0,0.05957
282600000000,282900000000,4969889774,29,317495555,0.03766,0.02267,0.02676,0.003212,0.003544,0.02274,6.962e-05,5.531e-05,0.1895,0.002644,4.037,0.01279,0,0,0.02084
282900000000,283200000000,4969889774,29,317495555,0.03705,0.02267,0.02676,0.002987,0.003323,0.02271,6.008e-05,5.627e-05,0.1848,0.002144,3.906,0.01221,0,0,0.03699
284400000000,284700000000,4969889774,29,317495555,0.039,0.02274,0.02676,0.002651,0.002998,0.0228,6.008e-05,5.531e-05,0.1829,0.002144,4.037,0.01261,0,0,0.01871
284700000000,285000000000,4969889774,29,317495555,0.03644,0.02274,0.02676,0.003063,0.00341,0.0228,7.725e-05,5.627e-05,0.1636,0.002644,4.715,0.01535,0,0,0.01929
285300000000,285600000000,4969889774,29,317495555,0.03815,0.02267,0.02679,0.002762,0.003098,0.02274,6.58e-05,5.531e-05,0.2004,0.001715,4.891,0.0161,0,0,0.05927
285900000000,286200000000,4969889774,29,317495555,0.04388,0.02274,0.02676,0.003548,0.003883,0.0228,7.057e-05,5.627e-05,0.2095,0.003143,3.066,0.008598,0,0,0.03024
286200000000,286500000000,4969889774,29,317495555,0.04279,0.02274,0.02676,0.003048,0.003395,0.02277,7.057e-05,5.627e-05,0.1794,0.00293,4.459,0.01427,0,0,0.04059
286500000000,286800000000,4969889774,29,317495555,0.03711,0.02271,0.02676,0.003536,0.003883,0.02274,8.297e-05,5.627e-05,0.1794,0.002857,5.007,0.01645,0,0,0.0256
286800000000,287100000000,4969889774,29,317495555,0.04175,0.02271,0.02676,0.003178,0.003529,0.02274,6.771e-05,5.627e-05,0.2349,0.002644,4.417,0.0141,0,0,0.03156
287700000000,288000000000,4969889774,29,317495555,0.04303,0.02277,0.02676,0.003056,0.003403,0.0228,5.913e-05,5.627e-05,0.155,0.001642,4.224,0.01348,0,0,0.0228
288000000000,288300000000,4969889774,29,317495555,0.04584,0.02277,0.02676,0.002922,0.003269,0.02283,7.629e-05,5.627e-05,0.2383,0.002571,3.932,0.01237,0,0,0.0451
288300000000,288600000000,4969889774,29,317495555,0.04364,0.02274,0.02676,0.002766,0.003117,0.0228,6.866e-05,5.627e-05,0.176,0.00293,2.442,0.00636,0,0,0.01895
288600000000,288900000000,4969889774,29,317495555,0.04211,0.02271,0.02676,0.003216,0.003548,0.02286,8.965e-05,5.722e-05,0.1741,0.005501,4.96,0.0165,0,0,0.08569
288900000000,289200000000,4969889774,29,317495555,0.0415,0.02271,0.02676,0.003609,0.003952,0.0228,8.106e-05,5.531e-05,0.1936,0.002785,4.804,0.01577,0,0,0.05914
289200000000,289500000000,4969889774,29,317495555,0.0387,0.02271,0.02676,0.003849,0.004181,0.02277,7.343e-05,5.722e-05,0.1171,0.002571,4.377,0.01391,0,0,0.01855
289500000000,289800000000,4969889774,29,317495555,0.04156,0.02274,0.02676,0.003864,0.004204,0.02277,7.629e-05,5.627e-05,0.2375,0.002499,4.842,0.01597,0,0,0.05005
289800000000,290100000000,4969889774,29,317495555,0.04321,0.02274,0.02676,0.003334,0.003677,0.0228,7.153e-05,5.627e-05,0.1841,0.002998,4.573,0.01478,0,0,0.1038
290100000000,290400000000,4969889774,29,317495555,0.04346,0.02277,0.02676,0.002373,0.002708,0.02286,8.011e-05,5.722e-05,0.1941,0.00293,4.547,0.01492,0,0,0.03583
290400000000,290700000000,4969889774,29,317495555,0.0459,0.02277,0.02676,0.002289,0.002628,0.02283,6.676e-05,5.531e-05,0.2827,0.002857,2.424,0.006548,0,0,0.04071
290700000000,291000000000,4969889774,29,317495555,0.04663,0.02277,0.02676,0.002201,0.002533,0.02286,7.915e-05,5.722e-05,0.2195,0.002357,4.651,0.01537,0,0,0.03271
291000000000,291300000000,4969889774,29,317495555,0.04675,0.0228,0.02676,0.002804,0.003147,0.02286,8.774e-05,5.627e-05,0.251,0.00293,3.648,0.01088,0,0,0.06702
291300000000,291600000000,4969889774,29,317495555,0.04535,0.02277,0.02676,0.002392,0.002743,0.0228,8.869e-05,5.722e-05,0.1846,0.003284,4.145,0.01336,0,0,0.02496
291600000000,291900000000,4969889774,29,317495555,0.04279,0.02277,0.02676,0.002758,0.003109,0.0228,8.392e-05,5.531e-05,0.2881,0.003357,3.623,0.01105,0,0,0.08411
291900000000,292200000000,4969889774,29,317495555,0.04395,0.02274,0.02676,0.002087,0.002426,0.0228,7.057e-05,5.722e-05,0.1968,0.003716,4.248,0.01358,0,0,0.04413
292200000000,292500000000,4969889774,29,317495555,0.04413,0.02277,0.02676,0.002293,0.002628,0.0228,8.011e-05,5.627e-05,0.1675,0.003284,4.29,0.01386,0,0,0.03766
292500000000,292800000000,4969889774,29,317495555,0.0437,0.02277,0.02676,0.001381,0.001726,0.0228,9.155e-05,5.627e-05,0.1841,0.002285,2.745,0.007421,0,0,0.03668
292800000000,293100000000,4969889774,29,317495555,0.04248,0.02274,0.02676,0.001816,0.002159,0.02277,7.915e-05,5.627e-05,0.2139,0.00243,4.812,0.01601,0,0,0.0365
293100000000,293400000000,4969889774,29,317495555,0.04138,0.02271,0.02676,0.00141,0.001749,0.02277,6.485e-05,5.627e-05,0.2361,0.002357,4.25,0.01364,0,0,0.05707
293400000000,293700000000,4969889774,29,317495555,0.04346,0.02274,0.02676,0.001635,0.001972,0.0228,7.248e-05,5.722e-05,0.2312,0.002285,4.151,0.01321,0,0,0.03241
293700000000,294000000000,4969889774,29,317495555,0.04529,0.02274,0.02676,0.002022,0.002365,0.0228,8.965e-05,5.531e-05,0.2949,0.002857,4.608,0.015,0,0,0.01065
294000000000,294300000000,4969889774,29,317495555,0.04999,0.0228,0.02676,0.002636,0.002979,0.02286,0.0001011,5.627e-05,0.2024,0.003357,4.536,0.01463,0,0,0.04828
294300000000,294600000000,4969889774,29,317495555,0.04694,0.0228,0.02676,0.002579,0.002926,0.02286,7.439e-05,5.627e-05,0.1912,0.003502,4.245,0.01357,0,0,0.0484
294600000000,294900000000,4969889774,29,317495555,0.04382,0.02274,0.02676,0.002094,0.002438,0.0228,9.06e-05,5.722e-05,0.2837,0.003216,4.132,0.01331,0,0,0.02798
294900000000,295200000000,4969889774,29,317495555,0.04352,0.02274,0.02676,0.002254,0.00259,0.0228,7.248e-05,5.627e-05,0.1638,0.003716,4.238,0.01343,0,0,0.03113
295200000000,295500000000,4969889774,29,317495555,0.03937,0.02274,0.02676,0.001724,0.002071,0.02277,7.534e-05,5.722e-05,0.1633,0.00243,4.536,0.01472,0,0,0.04041
295500000000,295800000000,4969889774,29,317495555,0.04181,0.02274,0.02676,0.001635,0.001984,0.02277,7.439e-05,5.531e-05,0.1609,0.002716,3.937,0.01254,0,0,0.02176
295800000000,296100000000,4969889774,29,317495555,0.04291,0.02274,0.02676,0.001402,0.001747,0.02277,8.011e-05,5.722e-05,0.252,0.003502,4.189,0.01325,0,0,0.03998
296700000000,297000000000,4969889774,29,317495555,0.05072,0.0228,0.02676,0.001759,0.00211,0.02286,0.000103,5.627e-05,0.1982,0.002998,4.491,0.01477,0,0,0.05579
297000000000,297300000000,4969889774,29,317495555,0.05383,0.02283,0.02676,0.001446,0.001793,0.02292,9.441e-05,5.722e-05,0.2415,0.003857,5.062,0.01702,0,0,0.05737
297300000000,297600000000,4969889774,29,317495555,0.05115,0.0228,0.02676,0.0012,0.001541,0.02286,8.011e-05,5.531e-05,0.228,0.002716,2.592,0.006937,0,0,0.04846
297600000000,297900000000,4969889774,29,317495555,0.05127,0.02283,0.02676,0.001532,0.001875,0.02289,8.774e-05,5.722e-05,0.1912,0.002857,5.041,0.01687,0,0,0.1162
297900000000,298200000000,4969889774,29,317495555,0.04962,0.0228,0.02676,0.001839,0.002186,0.02286,7.725e-05,5.531e-05,0.2239,0.002785,2.715,0.007496,0,0,0.0448
298200000000,298500000000,4969889774,29,317495555,0.05121,0.02286,0.02676,0.001549,0.001898,0.02295,8.583e-05,5.722e-05,0.1963,0.003216,4.177,0.01348,0,0,0.03497
298500000000,298800000000,4969889774,29,317495555,0.05035,0.0228,0.02676,0.001419,0.001753,0.02286,8.011e-05,5.627e-05,0.2131,0.002785,2.455,0.006656,0,0,0.0426
298800000000,299100000000,4969889774,29,317495555,0.04895,0.02277,0.02676,0.001579,0.001909,0.02283,7.439e-05,5.722e-05,0.1768,0.002357,4.109,0.01313,0,0,0.05737
299100000000,299400000000,4969889774,29,317495555,0.0459,0.0228,0.02676,0.00211,0.002449,0.02286,7.725e-05,5.627e-05,0.1826,0.002785,4.297,0.01384,0,0,0.03473
299400000000,299700000000,4969889774,29,317495555,0.04779,0.02277,0.02676,0.001595,0.001934,0.02283,9.06e-05,5.722e-05,0.2012,0.002716,4.398,0.01422,0,0,0.04535
299700000000,300000000000,4969889774,29,317495555,0.05316,0.0228,0.02676,0.002087,0.002419,0.02286,0.0001202,5.627e-05,0.178,0.005074,3.807,0.01148,0,0,0.02533
