151200000000,151500000000,4969889774,86,257495866,0.07275,0.0249,0.02673,0.001337,0.00139,0.02496,0.0001612,5.627e-05,0.2451,0.0075,2.506,0.006831,0,0,0.1416
151500000000,151800000000,4969889774,86,257495866,0.07495,0.02493,0.02673,0.001522,0.001577,0.02499,0.0001431,5.627e-05,0.3003,0.006927,2.509,0.006651,0,0,0.06158
151800000000,152100000000,4969889774,86,257495866,0.06024,0.0249,0.02673,0.001028,0.001083,0.02493,0.0001469,5.627e-05,2.578,0.00486,3.071,0.008916,0,0,0.03006
152100000000,152400000000,4969889774,86,257495866,0.0556,0.02487,0.02673,0.001549,0.001602,0.02493,0.0001297,5.627e-05,0.1995,0.003571,3.137,0.008789,0,0,0.03876
152400000000,152700000000,4969889774,86,257495866,0.07166,0.0249,0.02673,0.00209,0.002144,0.02496,0.0001593,5.627e-05,0.3418,0.005432,2.464,0.006226,0,0,0.04474
152700000000,153000000000,4969889774,86,257495866,0.06775,0.02487,0.02673,0.0008059,0.0008574,0.02496,0.0001421,5.627e-05,0.2681,0.004715,2.665,0.007395,0,0,0.04358
153000000000,153300000000,4969889774,86,257495866,0.0686,0.02487,0.0267,0.0005341,0.0005846,0.02496,0.000247,5.627e-05,0.2754,0.004784,3.729,0.01181,0,0,0.1262
153300000000,153600000000,4969889774,86,257495866,0.06506,0.02487,0.02673,0.0007563,0.0008059,0.02493,0.0006638,5.627e-05,0.2588,0.007568,4.09,0.01322,0,0,0.05804
153600000000,153900000000,4969889774,86,257495866,0.07141,0.0249,0.02673,0.0008116,0.0008612,0.02493,0.0001621,5.627e-05,0.3008,0.006714,3.853,0.012,0,0,0.04663
153900000000,154200000000,4969889774,86,257495866,0.05939,0.0249,0.02673,0.001047,0.001097,0.02493,0.0001364,5.627e-05,0.2161,0.004501,3.826,0.01208,0,0,0.0495
154200000000,154500000000,4969889774,86,257495866,0.06885,0.02499,0.02673,0.001392,0.001442,0.02505,0.0001965,5.627e-05,0.4639,0.007217,2.056,0.005081,0,0,0.07458
154500000000,154800000000,4969889774,86,257495866,0.07031,0.02493,0.02673,0.001226,0.001276,0.02499,0.0001602,5.627e-05,0.2524,0.003571,4.03,0.01315,0,0,0.04761
154800000000,155100000000,4969889774,86,257495866,0.06372,0.0249,0.02673,0.0008154,0.0008659,0.02496,0.0001554,5.627e-05,0.1907,0.005928,3.525,0.01083,0,0,0.05872
155100000000,155400000000,4969889774,86,257495866,0.07129,0.02493,0.02673,0.001507,0.001556,0.02502,0.0001392,5.627e-05,0.2637,0.005859,4.256,0.01395,0,0,0.1168
155400000000,155700000000,4969889774,86,257495866,0.0929,0.02493,0.02673,0.001091,0.001144,0.02515,0.0002089,5.627e-05,0.3989,0.01114,2.318,0.005727,0,0,0.06274
155700000000,156000000000,4969889774,86,257495866,0.07068,0.02475,0.02673,0.001772,0.001825,0.02481,0.000164,5.627e-05,0.2219,0.004929,3.006,0.009013,0,0,0.0578
120900000000,121200000000,4969889774,86,257495866,0.0462,0.02472,0.02676,0.001219,0.00127,0.02487,0.0001106,5.627e-05,0.2053,0.004074,3.534,0.01108,0,0,0.01736
121200000000,121500000000,4969889774,86,257495866,0.0459,0.02469,0.02676,0.00178,0.001831,0.02472,8.774e-05,5.627e-05,0.29,0.003284,4.399,0.01414,0,0,0.047
121500000000,121800000000,4969889774,86,257495866,0.04865,0.02472,0.02676,0.002029,0.002083,0.02478,9.155e-05,5.627e-05,0.2253,0.002998,4.15,0.01328,0,0,0.03644
121800000000,122100000000,4969889774,86,257495866,0.04877,0.02466,0.02676,0.001261,0.001312,0.02469,8.774e-05,5.722e-05,0.1875,0.002857,3.99,0.01296,0,0,0.03949
122100000000,122400000000,4969889774,86,257495866,0.0451,0.02472,0.02676,0.001043,0.001095,0.02478,9.06e-05,5.627e-05,0.1917,0.0065,4.013,0.01299,0,0,0.02106
122400000000,122700000000,4969889774,86,257495866,0.04718,0.02472,0.02676,0.001709,0.00176,0.02472,0.0001259,5.722e-05,0.2373,0.006783,4.197,0.01361,0,0,0.06311
122700000000,123000000000,4969889774,86,257495866,0.04602,0.02472,0.02676,0.001434,0.001488,0.02475,0.0001068,5.627e-05,0.3374,0.003071,4.026,0.01258,0,0,0.05286
123000000000,123300000000,4969889774,86,257495866,0.04657,0.02475,0.02676,0.0006819,0.0007343,0.02478,9.441e-05,5.627e-05,0.2222,0.003429,3.976,0.01213,0,0,0.04041
123300000000,123600000000,4969889774,86,257495866,0.03741,0.02469,0.02676,0.001303,0.001354,0.02475,9.918e-05,5.627e-05,0.2161,0.004356,3.91,0.01187,0,0,0.04529
123900000000,124200000000,4969889774,86,257495866,0.039,0.02466,0.02676,0.00104,0.001091,0.02469,9.155e-05,5.627e-05,0.1982,0.003429,3.915,0.01183,0,0,0.0257
124200000000,124500000000,4969889774,86,257495866,0.04199,0.02463,0.02676,0.0005655,0.000618,0.02463,8.202e-05,5.627e-05,0.2131,0.002716,4.602,0.01452,0,0,0.06409
124500000000,124800000000,4969889774,86,257495866,0.04102,0.02466,0.02676,0.001133,0.001186,0.02469,0.0001011,5.627e-05,0.1904,0.00457,3.331,0.009522,0,0,0.02426
124800000000,125100000000,4969889774,86,257495866,0.03784,0.02463,0.02676,0.001749,0.001802,0.02466,8.392e-05,5.627e-05,0.2239,0.003998,3.33,0.009395,0,0,0.04626
125700000000,126000000000,4969889774,86,257495866,0.04065,0.02463,0.02676,0.001854,0.001905,0.02472,9.155e-05,5.627e-05,0.2161,0.002998,3.096,0.008384,0,0,0.03
26100000000,26400000000,4969889774,86,257495866,0.03729,0.02371,0.02679,0.001293,0.00135,0.02374,6.866e-05,5.722e-05,0.1685,0.003502,4.558,0.01447,0,0,0.02002
26400000000,26700000000,4969889774,86,257495866,0.03534,0.02371,0.02682,0.001333,0.001392,0.02377,6.866e-05,5.531e-05,0.2195,0.003784,4.362,0.01386,0,0,0.03363
27000000000,27300000000,4969889774,86,257495866,0.03436,0.02371,0.02682,0.001078,0.001135,0.02374,7.629e-05,5.627e-05,0.3052,0.003784,3.706,0.01127,0,0,0.02277
27300000000,27600000000,4969889774,86,257495866,0.03229,0.02368,0.02682,0.001474,0.001534,0.02371,6.294e-05,5.627e-05,0.1963,0.002571,4.057,0.01328,0,0,0.02603
27600000000,27900000000,4969889774,86,257495866,0.04022,0.02371,0.02679,0.000864,0.0009232,0.02377,7.057e-05,5.722e-05,0.1777,0.00243,4.03,0.01302,0,0,0.02692
29400000000,29700000000,4969889774,86,257495866,0.03699,0.02377,0.02676,0.002167,0.002224,0.02383,7.534e-05,5.531e-05,0.1882,0.003571,3.72,0.0116,0,0,0.02869
29700000000,30000000000,4969889774,86,257495866,0.03546,0.0238,0.02676,0.001045,0.001104,0.0238,6.676e-05,5.722e-05,0.1689,0.002998,3.644,0.01135,0,0,0.02069
30000000000,30300000000,4969889774,86,257495866,0.04022,0.0238,0.02676,0.0008764,0.0009356,0.02386,7.725e-05,5.627e-05,0.2439,0.00293,3.776,0.01202,0,0,0.06494
30300000000,30600000000,4969889774,86,257495866,0.03479,0.0238,0.02676,0.001308,0.001366,0.02383,7.725e-05,5.627e-05,0.1687,0.002499,3.759,0.01159,0,0,0.02502
30600000000,30900000000,4969889774,86,257495866,0.03339,0.02374,0.02676,0.0007963,0.0008545,0.02377,6.771e-05,5.722e-05,0.1587,0.00293,2.023,0.004735,0,0,0.0143
70800000000,71100000000,4969889774,86,257495866,0.05951,0.02423,0.02676,0.001528,0.001585,0.02429,0.0001125,5.627e-05,0.2627,0.003143,2.499,0.006442,0,0,0.05634
71100000000,71400000000,4969889774,86,257495866,0.05688,0.0242,0.02673,0.0009804,0.001038,0.02429,0.0002584,5.627e-05,0.2234,0.003643,4.367,0.0142,0,0,0.07202
71400000000,71700000000,4969889774,86,257495866,0.05695,0.02423,0.02673,0.0008068,0.0008631,0.02432,0.0001812,5.627e-05,0.314,0.007141,4.319,0.01379,0,0,0.02914
71700000000,72000000000,4969889774,86,257495866,0.0611,0.02423,0.02673,0.0008087,0.000864,0.02432,0.0003119,5.627e-05,0.2788,0.006927,4.01,0.01265,0,0,0.06653
72000000000,72300000000,4969889774,86,257495866,0.05725,0.02423,0.02673,0.0008984,0.0009546,0.02429,0.0001125,5.627e-05,0.1758,0.004143,4.013,0.01292,0,0,0.05249
72300000000,72600000000,4969889774,86,257495866,0.06323,0.02429,0.02676,0.001322,0.001377,0.02435,0.0001354,5.627e-05,0.2058,0.004646,3.985,0.01278,0,0,0.1216
72600000000,72900000000,4969889774,86,257495866,0.05939,0.02426,0.02676,0.000946,0.001001,0.02435,0.0001364,5.627e-05,0.1924,0.005356,3.691,0.01141,0,0,0.03607
72900000000,73200000000,4969889774,86,257495866,0.06287,0.02429,0.02673,0.0009394,0.0009956,0.02435,0.0001335,5.627e-05,0.209,0.004143,4.383,0.0146,0,0,0.06531
73200000000,73500000000,4969889774,86,257495866,0.06555,0.02429,0.02673,0.000906,0.0009623,0.02432,0.0002775,5.627e-05,0.2078,0.006645,4.429,0.01496,0,0,0.08508
73500000000,73800000000,4969889774,86,257495866,0.06274,0.02423,0.02673,0.0006504,0.0007057,0.02429,0.0001364,5.627e-05,0.2095,0.003429,3.767,0.01177,0,0,0.08044
73800000000,74100000000,4969889774,86,257495866,0.06219,0.02423,0.02673,0.0008116,0.0008678,0.02432,0.0001221,5.627e-05,0.3271,0.005928,4.032,0.01311,0,0,0.03748
74100000000,74400000000,4969889774,86,257495866,0.06299,0.02426,0.02673,0.001045,0.001101,0.02432,0.0001593,5.627e-05,0.2109,0.01385,4.508,0.01496,0,0,0.06128
74400000000,74700000000,4969889774,86,257495866,0.06531,0.02423,0.02673,0.001022,0.00108,0.02432,0.000288,5.627e-05,0.1907,0.006783,4.388,0.01431,0,0,0.08435
74700000000,75000000000,4969889774,86,257495866,0.05817,0.0242,0.02673,0.0007792,0.0008354,0.02423,0.0001078,5.627e-05,0.2529,0.00457,2.682,0.007835,0,0,0.06873
75000000000,75300000000,4969889774,86,257495866,0.05945,0.02426,0.02673,0.001194,0.001251,0.02432,0.0001354,5.627e-05,0.2083,0.006432,2.651,0.0073,0,0,0.05646
75300000000,75600000000,4969889774,86,257495866,0.05688,0.02423,0.02673,0.001236,0.001291,0.02429,0.0001135,5.627e-05,0.2141,0.003571,3.073,0.009117,0,0,0.03802
75600000000,75900000000,4969889774,86,257495866,0.05817,0.02426,0.02676,0.001383,0.001438,0.02429,0.0001163,5.627e-05,0.2019,0.004211,2.744,0.007885,0,0,0.05219
5700000000,6000000000,4969889774,86,257495866,0.04138,0.02344,0.02676,0.001711,0.001766,0.02347,9.346e-05,5.627e-05,0.1938,0.00243,3.832,0.01227,0,0,0.07495
6000000000,6300000000,4969889774,86,257495866,0.04028,0.02341,0.02676,0.001148,0.001205,0.02347,6.58e-05,5.627e-05,0.3384,0.00293,4.088,0.01337,0,0,0.04797
6900000000,7200000000,4969889774,86,257495866,0.03882,0.02344,0.02676,0.001225,0.00128,0.02347,7.629e-05,5.627e-05,0.1982,0.003502,3.377,0.01046,0,0,0.0423
7200000000,7500000000,4969889774,86,257495866,0.03528,0.02341,0.02676,0.001001,0.001057,0.02347,9.251e-05,5.627e-05,0.2344,0.004929,4.109,0.01343,0,0,0.01862
7500000000,7800000000,4969889774,86,257495866,0.03851,0.02341,0.02676,0.001101,0.001156,0.02377,7.057e-05,5.722e-05,0.229,0.002499,3.738,0.01169,0,0,0.03693
8100000000,8400000000,4969889774,86,257495866,0.03766,0.02371,0.02676,0.0009041,0.0009604,0.02374,7.725e-05,5.722e-05,0.1821,0.003143,3.575,0.01096,0,0,0.0271
8700000000,9000000000,4969889774,86,257495866,0.03619,0.02377,0.02676,0.0006981,0.0007544,0.02386,7.82e-05,5.627e-05,0.2417,0.003929,3.497,0.01084,0,0,0.0376
9000000000,9300000000,4969889774,86,257495866,0.03638,0.02386,0.02676,0.0012,0.001257,0.02393,0.0001049,5.627e-05,0.1987,0.007217,4.773,0.01631,0,0,0.02902
9600000000,9900000000,4969889774,86,257495866,0.03711,0.02377,0.02676,0.001053,0.001112,0.0238,7.534e-05,5.722e-05,0.2488,0.003716,2.716,0.00783,0,0,0.02457
9900000000,10200000000,4969889774,86,257495866,0.03625,0.0238,0.02676,0.001368,0.001425,0.02383,8.869e-05,5.531e-05,0.1921,0.002213,2.321,0.006139,0,0,0.03137
10500000000,10800000000,4969889774,86,257495866,0.04596,0.0238,0.02676,0.001396,0.001455,0.02383,9.537e-05,5.627e-05,0.2483,0.003429,4.846,0.01636,0,0,0.01846
96000000000,96300000000,4969889774,86,257495866,0.0401,0.02414,0.02676,0.001154,0.001211,0.0242,8.869e-05,5.627e-05,0.4033,0.00293,4.365,0.01406,0,0,0.03033
96300000000,96600000000,4969889774,86,257495866,0.03851,0.02414,0.02676,0.0007219,0.0007792,0.02417,9.155e-05,5.627e-05,0.2358,0.002716,4.103,0.01302,0,0,0.03
96600000000,96900000000,4969889774,86,257495866,0.03973,0.02414,0.02676,0.001238,0.001295,0.02417,7.82e-05,5.627e-05,0.2876,0.003071,3.607,0.01105,0,0,0.01511
96900000000,97200000000,4969889774,86,257495866,0.03809,0.02411,0.02676,0.001753,0.00181,0.02414,7.725e-05,5.627e-05,0.2041,0.002998,3.409,0.01027,0,0,0.01828
97200000000,97500000000,4969889774,86,257495866,0.04132,0.02411,0.02676,0.001186,0.001244,0.02417,8.774e-05,5.627e-05,0.2476,0.002571,3.448,0.01035,0,0,0.0296
97500000000,97800000000,4969889774,86,257495866,0.03986,0.02411,0.02676,0.0009604,0.001017,0.02414,6.962e-05,5.722e-05,0.3232,0.002571,3.814,0.012,0,0,0.02634
98100000000,98400000000,4969889774,86,257495866,0.04156,0.02411,0.02676,0.001291,0.001348,0.02414,7.057e-05,5.627e-05,0.2754,0.002144,3.897,0.01282,0,0,0.03387
98400000000,98700000000,4969889774,86,257495866,0.0376,0.02414,0.02676,0.0008478,0.000905,0.02417,7.439e-05,5.627e-05,0.2043,0.003571,3.773,0.01221,0,0,0.01706
98700000000,99000000000,4969889774,86,257495866,0.03485,0.02411,0.02676,0.00107,0.001127,0.02414,6.39e-05,5.627e-05,0.1794,0.002213,3.879,0.0126,0,0,0.03815
99000000000,99300000000,4969889774,86,257495866,0.03656,0.02411,0.02676,0.001118,0.001175,0.02414,7.629e-05,5.722e-05,0.2949,0.003216,3.67,0.01182,0,0,0.1516
99600000000,99900000000,4969889774,86,257495866,0.03619,0.02411,0.02676,0.001289,0.001347,0.02414,6.962e-05,5.627e-05,0.2373,0.003284,4.159,0.01354,0,0,0.02832
100200000000,100500000000,4969889774,86,257495866,0.03308,0.02408,0.02676,0.0009718,0.001028,0.02411,7.439e-05,5.627e-05,0.3203,0.002499,4.29,0.01425,0,0,0.06152
100500000000,100800000000,4969889774,86,257495866,0.03149,0.02408,0.02676,0.001404,0.001461,0.02411,7.629e-05,5.722e-05,0.2368,0.002857,3.798,0.0122,0,0,0.01788
100800000000,101100000000,4969889774,86,257495866,0.03448,0.02414,0.02676,0.0007057,0.0007629,0.02414,7.534e-05,5.627e-05,0.2817,0.004288,3.427,0.01062,0,0,0.02151
171000000000,171300000000,4969889774,86,257495866,0.04932,0.02454,0.02676,0.001799,0.001846,0.02463,8.774e-05,5.627e-05,0.2739,0.00293,4.495,0.01587,0,0,0.02304
171300000000,171600000000,4969889774,86,257495866,0.04358,0.02457,0.02676,0.001574,0.001623,0.02463,9.155e-05,5.627e-05,0.2488,0.004074,4.241,0.01453,0,0,0.03949
171600000000,171900000000,4969889774,86,257495866,0.0473,0.02457,0.02676,0.001823,0.001873,0.0246,9.727e-05,5.627e-05,0.1846,0.003929,3.867,0.01218,0,0,0.05316
171900000000,172200000000,4969889774,86,257495866,0.0434,0.02451,0.02676,0.001677,0.001726,0.02457,7.915e-05,5.627e-05,0.1929,0.002716,4.155,0.01358,0,0,0.09814
172200000000,172500000000,4969889774,86,257495866,0.04779,0.02451,0.02676,0.0014,0.00145,0.02457,9.727e-05,5.722e-05,0.1941,0.00293,4.185,0.01359,0,0,0.04443
172500000000,172800000000,4969889774,86,257495866,0.04333,0.02448,0.02676,0.001669,0.001719,0.02451,8.202e-05,5.627e-05,0.2104,0.003216,3.789,0.01192,0,0,0.02512
172800000000,173100000000,4969889774,86,257495866,0.04431,0.02444,0.02676,0.001211,0.001259,0.02451,0.000102,5.722e-05,0.1851,0.003143,3.138,0.009293,0,0,0.03223
173100000000,173400000000,4969889774,86,257495866,0.04559,0.02448,0.02676,0.001671,0.00172,0.02451,9.441e-05,5.627e-05,0.2166,0.003357,3.718,0.01183,0,0,0.03467
173400000000,173700000000,4969889774,86,257495866,0.04797,0.02451,0.02676,0.001431,0.001478,0.02454,7.725e-05,5.722e-05,0.2681,0.002644,3.94,0.01268,0,0,0.06641
173700000000,174000000000,4969889774,86,257495866,0.04266,0.02448,0.02676,0.001722,0.00177,0.02451,8.392e-05,5.627e-05,0.1812,0.002644,4.789,0.01595,0,0,0.0271
174000000000,174300000000,4969889774,86,257495866,0.04309,0.02448,0.02676,0.001637,0.001686,0.02454,8.297e-05,5.722e-05,0.1755,0.005432,4.227,0.01376,0,0,0.08667
174300000000,174600000000,4969889774,86,257495866,0.04401,0.02451,0.02676,0.001673,0.001722,0.02451,8.774e-05,5.531e-05,0.1956,0.003643,3.932,0.01242,0,0,0.1489
174600000000,174900000000,4969889774,86,257495866,0.04254,0.02448,0.02676,0.001286,0.001337,0.02451,7.725e-05,5.722e-05,0.231,0.002213,2.346,0.005985,0,0,0.05933
174900000000,175200000000,4969889774,86,257495866,0.04688,0.02451,0.02676,0.00165,0.001699,0.02451,9.441e-05,5.627e-05,0.1921,0.005074,4.377,0.01441,0,0,0.04047
175200000000,175500000000,4969889774,86,257495866,0.04315,0.02444,0.02676,0.001156,0.001207,0.02451,0.0001001,5.722e-05,0.2092,0.002998,3.468,0.0102,0,0,0.02563
175500000000,175800000000,4969889774,86,257495866,0.04492,0.02444,0.02673,0.001261,0.001312,0.02448,8.869e-05,5.531e-05,0.1794,0.002357,4.262,0.01401,0,0,0.05286
175800000000,176100000000,4969889774,86,257495866,0.04425,0.02444,0.02673,0.0008869,0.0009384,0.02451,9.06e-05,5.722e-05,0.2014,0.002571,4.116,0.01371,0,0,0.05145
166200000000,166500000000,4969889774,86,257495866,0.05505,0.02454,0.02673,0.001272,0.001318,0.0246,0.0001154,5.627e-05,0.3525,0.004143,3.794,0.01184,0,0,0.05719
166500000000,166800000000,4969889774,86,257495866,0.05414,0.0246,0.02673,0.0008001,0.0008469,0.02463,0.0001192,5.627e-05,0.2305,0.003784,3.981,0.01241,0,0,0.1211
166800000000,167100000000,4969889774,86,257495866,0.05481,0.02457,0.02673,0.0006752,0.0007219,0.02463,0.0001259,5.722e-05,0.2734,0.005928,3.703,0.01147,0,0,0.04071
167100000000,167400000000,4969889774,86,257495866,0.05823,0.02463,0.02673,0.0009642,0.001013,0.02466,0.000124,5.627e-05,0.2109,0.006287,2.321,0.006012,0,0,0.08557
167400000000,167700000000,4969889774,86,257495866,0.05658,0.0246,0.02673,0.0009937,0.001024,0.02466,0.0001211,5.627e-05,0.2236,0.004143,3.687,0.01187,0,0,0.02609
167700000000,168000000000,4969889774,86,257495866,0.05347,0.02457,0.02673,0.0008364,0.0008593,0.0246,0.0001917,5.627e-05,0.218,0.01378,4.369,0.01462,0,0,0.05212
168000000000,168300000000,4969889774,86,257495866,0.04944,0.02454,0.02673,0.0007067,0.0007534,0.0246,0.0001135,5.627e-05,0.2498,0.004646,2.915,0.009074,0,0,0.02615
168300000000,168600000000,4969889774,86,257495866,0.05157,0.02457,0.02673,0.0009995,0.001047,0.0246,0.0001049,5.627e-05,0.2129,0.003571,3.336,0.009849,0,0,0.05145
168600000000,168900000000,4969889774,86,257495866,0.04633,0.02454,0.02673,0.0007372,0.0007849,0.0246,9.06e-05,5.722e-05,0.2256,0.002857,2.356,0.005946,0,0,0.04877
168900000000,169200000000,4969889774,86,257495866,0.04828,0.02454,0.02673,0.0009708,0.001019,0.02463,0.0001135,5.627e-05,0.2383,0.005783,2.633,0.007065,0,0,0.05927
169200000000,169500000000,4969889774,86,257495866,0.04559,0.02451,0.02676,0.0008078,0.0008554,0.02457,8.488e-05,5.627e-05,0.2307,0.00293,4.138,0.01311,0,0,0.02142
169500000000,169800000000,4969889774,86,257495866,0.04633,0.02448,0.02673,0.0005674,0.0006142,0.02454,0.0001249,5.627e-05,0.1895,0.01093,4.235,0.01353,0,0,0.02628
169800000000,170100000000,4969889774,86,257495866,0.04657,0.02451,0.02673,0.000948,0.0009956,0.02457,0.0001135,5.627e-05,0.2598,0.003998,3.952,0.01246,0,0,0.04602
170100000000,170400000000,4969889774,86,257495866,0.05304,0.02451,0.02673,0.001253,0.001303,0.02454,0.000102,5.722e-05,0.271,0.003143,3.449,0.01091,0,0,0.07678
170400000000,170700000000,4969889774,86,257495866,0.04755,0.02454,0.02676,0.001856,0.001904,0.0246,0.0001049,5.627e-05,0.2529,0.003643,2.739,0.007628,0,0,0.03424
170700000000,171000000000,4969889774,86,257495866,0.04388,0.02454,0.02676,0.001446,0.001495,0.02457,9.537e-05,5.722e-05,0.2019,0.00293,4.29,0.01487,0,0,0.03461
101100000000,101400000000,4969889774,86,257495866,0.03363,0.02411,0.02676,0.000926,0.0009823,0.02414,6.008e-05,5.627e-05,0.1973,0.002285,2.134,0.00534,0,0,0.02078
101400000000,101700000000,4969889774,86,257495866,0.03571,0.02448,0.02676,0.0009708,0.001028,0.02463,7.248e-05,5.722e-05,0.2119,0.003429,3.71,0.01199,0,0,0.02118
101700000000,102000000000,4969889774,86,257495866,0.03729,0.02454,0.02676,0.0007172,0.0007753,0.02457,7.725e-05,5.531e-05,0.1868,0.002716,4.048,0.0133,0,0,0.02432
102000000000,102300000000,4969889774,86,257495866,0.03522,0.02454,0.02676,0.001104,0.001162,0.02457,6.39e-05,5.627e-05,0.1345,0.002571,4.161,0.01363,0,0,0.01657
102300000000,102600000000,4969889774,86,257495866,0.03516,0.02454,0.02676,0.001123,0.001181,0.02457,5.436e-05,5.722e-05,0.2939,0.001642,4.086,0.01345,0,0,0.02322
102600000000,102900000000,4969889774,86,257495866,0.03424,0.02457,0.02676,0.0007725,0.0008087,0.0246,0.0001202,5.531e-05,0.1721,0.01071,3.778,0.01219,0,0,0.1208
102900000000,103200000000,4969889774,86,257495866,0.03125,0.02454,0.02676,0.001186,0.00124,0.02457,7.343e-05,5.627e-05,0.2168,0.003716,4.015,0.01306,0,0,0.03656
103500000000,103800000000,4969889774,86,257495866,0.03442,0.02457,0.02676,0.0008917,0.000946,0.02457,6.962e-05,5.531e-05,0.1826,0.003716,4.294,0.01436,0,0,0.0152
104100000000,104400000000,4969889774,86,257495866,0.03296,0.02454,0.02676,0.001732,0.001787,0.02457,5.817e-05,5.627e-05,0.3384,0.001928,3.319,0.01014,0,0,0.05664
104400000000,104700000000,4969889774,86,257495866,0.03369,0.02454,0.02676,0.002132,0.002186,0.02457,6.294e-05,5.627e-05,0.187,0.002571,2.732,0.007732,0,0,0.01788
104700000000,105000000000,4969889774,86,257495866,0.03723,0.02457,0.02676,0.002296,0.00235,0.0246,6.485e-05,5.722e-05,0.1499,0.002357,3.177,0.009657,0,0,0.02985
105300000000,105600000000,4969889774,86,257495866,0.0415,0.0246,0.02676,0.001869,0.001923,0.02463,8.297e-05,5.627e-05,0.2205,0.005714,4.08,0.01314,0,0,0.04053
105600000000,105900000000,4969889774,86,257495866,0.04962,0.02463,0.02676,0.001719,0.001774,0.02469,0.0001001,5.627e-05,0.1826,0.004211,4.098,0.0131,0,0,0.08154
51000000000,51300000000,4969889774,86,257495866,0.04926,0.0239,0.02676,0.001587,0.001642,0.02393,9.251e-05,5.627e-05,0.21,0.003357,4.259,0.01405,0,0,0.05908
51300000000,51600000000,4969889774,86,257495866,0.0506,0.0239,0.02676,0.002094,0.002151,0.02396,9.918e-05,5.627e-05,0.2764,0.003502,4.078,0.01288,0,0,0.03345
51600000000,51900000000,4969889774,86,257495866,0.05255,0.0239,0.02673,0.001875,0.00193,0.02396,0.0001993,5.722e-05,0.1919,0.004288,3.653,0.01117,0,0,0.052
51900000000,52200000000,4969889774,86,257495866,0.0506,0.02393,0.02673,0.001652,0.001707,0.02396,0.0001125,5.627e-05,0.3203,0.005714,3.994,0.01276,0,0,0.02423
52200000000,52500000000,4969889774,86,257495866,0.05127,0.02393,0.02676,0.001806,0.001862,0.02396,0.0001354,5.627e-05,0.1943,0.003643,3.624,0.01125,0,0,0.02762
52500000000,52800000000,4969889774,86,257495866,0.04999,0.0239,0.02676,0.001623,0.001678,0.02396,9.632e-05,5.627e-05,0.2119,0.002998,2.415,0.00652,0,0,0.02203
52800000000,53100000000,4969889774,86,257495866,0.04999,0.02393,0.02676,0.001081,0.001139,0.02399,0.0001955,5.627e-05,0.2969,0.005142,3.689,0.01131,0,0,0.04358
53100000000,53400000000,4969889774,86,257495866,0.04871,0.02393,0.02676,0.001287,0.001343,0.02399,0.0001135,5.722e-05,0.2317,0.004288,2.931,0.00823,0,0,0.05139
53400000000,53700000000,4969889774,86,257495866,0.05054,0.02393,0.02676,0.001196,0.001251,0.02396,0.0001049,5.627e-05,0.2148,0.004784,3.979,0.01268,0,0,0.06824
53700000000,54000000000,4969889774,86,257495866,0.05164,0.0239,0.02673,0.0008249,0.0008802,0.02393,0.000103,5.627e-05,0.1921,0.003216,4.19,0.0137,0,0,0.03149
54000000000,54300000000,4969889774,86,257495866,0.04889,0.02386,0.02676,0.0008335,0.0008888,0.02393,0.0001125,5.722e-05,0.1875,0.003143,3.989,0.01284,0,0,0.04071
54300000000,54600000000,4969889774,86,257495866,0.04956,0.02393,0.02676,0.001192,0.001245,0.02396,9.155e-05,5.531e-05,0.2034,0.003357,3.86,0.01225,0,0,0.05573
54600000000,54900000000,4969889774,86,257495866,0.05481,0.02396,0.02676,0.001066,0.00112,0.02402,0.0001163,5.627e-05,0.2397,0.003784,4.166,0.01347,0,0,0.0495
54900000000,55200000000,4969889774,86,257495866,0.05743,0.02396,0.02676,0.001133,0.001188,0.02408,0.0001259,5.722e-05,0.2705,0.006432,2.287,0.005874,0,0,0.07727
55200000000,55500000000,4969889774,86,257495866,0.05591,0.02402,0.02676,0.001076,0.001131,0.02411,0.0001211,5.627e-05,0.2812,0.004715,2.672,0.007423,0,0,0.06421
55500000000,55800000000,4969889774,86,257495866,0.05377,0.02399,0.02676,0.001253,0.001308,0.02405,0.000123,5.627e-05,0.208,0.003502,2.964,0.008452,0,0,0.0343
90900000000,91200000000,4969889774,86,257495866,0.04425,0.02414,0.02673,0.0009174,0.0009708,0.02417,7.248e-05,5.722e-05,0.23,0.003143,5.163,0.01808,0,0,0.04791
91200000000,91500000000,4969889774,86,257495866,0.04266,0.02417,0.02676,0.0007267,0.0007801,0.0242,8.392e-05,5.627e-05,0.1924,0.002499,4.543,0.01516,0,0,0.01558
91500000000,91800000000,4969889774,86,257495866,0.04114,0.02414,0.02676,0.001228,0.001282,0.02417,9.441e-05,5.627e-05,0.1763,0.004288,4.649,0.01559,0,0,0.01712
91800000000,92100000000,4969889774,86,257495866,0.04327,0.02414,0.02676,0.0006952,0.0007496,0.02417,7.915e-05,5.627e-05,0.1982,0.003357,4.446,0.01534,0,0,0.04376
92100000000,92400000000,4969889774,86,257495866,0.04675,0.02417,0.02676,0.001259,0.001314,0.02417,8.392e-05,5.627e-05,0.2219,0.002644,4.207,0.01405,0,0,0.03088
92400000000,92700000000,4969889774,86,257495866,0.05011,0.02417,0.02673,0.0006409,0.0006943,0.02423,8.488e-05,5.627e-05,0.1792,0.003429,4.741,0.01639,0,0,0.04865
92700000000,93000000000,4969889774,86,257495866,0.04413,0.02414,0.02676,0.0008554,0.0009108,0.02417,8.202e-05,5.627e-05,0.1616,0.003784,2.919,0.00896,0,0,0.03857
93000000000,93300000000,4969889774,86,257495866,0.04767,0.02417,0.02676,0.0006857,0.0007401,0.0242,7.725e-05,5.627e-05,0.2134,0.003357,4.4,0.01501,0,0,0.0556
93300000000,93600000000,4969889774,86,257495866,0.04376,0.02414,0.02676,0.001057,0.001112,0.02417,8.011e-05,5.627e-05,0.1758,0.002357,2.541,0.007054,0,0,0.03711
93600000000,93900000000,4969889774,86,257495866,0.04395,0.02414,0.02676,0.001623,0.001677,0.02417,9.727e-05,5.722e-05,0.1946,0.003429,3.847,0.01281,0,0,0.0434
93900000000,94200000000,4969889774,86,257495866,0.04541,0.02414,0.02676,0.001638,0.001694,0.02417,8.678e-05,5.627e-05,0.292,0.003857,4.172,0.01399,0,0,0.04193
94200000000,94500000000,4969889774,86,257495866,0.04236,0.02414,0.02676,0.0008945,0.0009499,0.02417,7.915e-05,5.722e-05,0.1794,0.003357,2.523,0.00677,0,0,0.03021
94800000000,95100000000,4969889774,86,257495866,0.04272,0.02417,0.02676,0.001013,0.001066,0.02432,0.0001278,5.722e-05,0.1855,0.006645,2.448,0.006639,0,0,0.02698
95100000000,95400000000,4969889774,86,257495866,0.04272,0.0242,0.02676,0.0008736,0.0009289,0.02429,0.0001144,5.627e-05,0.2432,0.003857,4.236,0.01391,0,0,0.04071
95700000000,96000000000,4969889774,86,257495866,0.04279,0.02414,0.02676,0.001015,0.001072,0.02417,7.439e-05,5.627e-05,0.252,0.002213,2.283,0.005557,0,0,0.01819
85800000000,86100000000,4969889774,86,257495866,0.04596,0.0242,0.02676,0.001005,0.001059,0.02423,8.297e-05,5.627e-05,0.1973,0.003284,4.364,0.01441,0,0,0.05737
86100000000,86400000000,4969889774,86,257495866,0.04688,0.02417,0.02676,0.001074,0.001127,0.0242,8.297e-05,5.722e-05,0.1772,0.002571,3.973,0.01257,0,0,0.0824
86400000000,86700000000,4969889774,86,257495866,0.04608,0.02417,0.02676,0.001038,0.001091,0.02423,9.251e-05,5.531e-05,0.2041,0.002998,2.276,0.005824,0,0,0.02487
86700000000,87000000000,4969889774,86,257495866,0.04584,0.02417,0.02676,0.0007696,0.000824,0.0242,9.155e-05,5.722e-05,0.189,0.002785,2.784,0.008178,0,0,0.02887
87000000000,87300000000,4969889774,86,257495866,0.0451,0.0242,0.02676,0.001019,0.001072,0.02423,0.0001049,5.531e-05,0.2156,0.003143,2.187,0.005265,0,0,0.08887
87600000000,87900000000,4969889774,86,257495866,0.04688,0.02423,0.02676,0.001114,0.001167,0.02426,8.297e-05,5.627e-05,0.2048,0.003143,3.204,0.009666,0,0,0.06238
87900000000,88200000000,4969889774,86,257495866,0.04889,0.02423,0.02676,0.0005674,0.0006237,0.02429,0.0001059,5.722e-05,0.2061,0.008926,2.227,0.005665,0,0,0.02942
88200000000,88500000000,4969889774,86,257495866,0.04834,0.0242,0.02676,0.001114,0.001169,0.02423,7.915e-05,5.627e-05,0.2764,0.003284,3.535,0.01102,0,0,0.03497
88500000000,88800000000,4969889774,86,257495866,0.05011,0.02417,0.02673,0.0008659,0.0009222,0.0242,0.0002031,5.722e-05,0.2349,0.003716,4.073,0.01319,0,0,0.02777
88800000000,89100000000,4969889774,86,257495866,0.04572,0.02417,0.02676,0.0009003,0.0009565,0.02423,7.057e-05,5.627e-05,0.1602,0.002716,4.048,0.01288,0,0,0.021
89100000000,89400000000,4969889774,86,257495866,0.04254,0.02414,0.02676,0.0007877,0.000843,0.02417,8.011e-05,5.722e-05,0.21,0.002144,4.157,0.01349,0,0,0.02563
89400000000,89700000000,4969889774,86,257495866,0.0434,0.02417,0.02676,0.0009708,0.001026,0.02423,8.965e-05,5.627e-05,0.1611,0.002785,4.112,0.01332,0,0,0.04077
89700000000,90000000000,4969889774,86,257495866,0.04352,0.02417,0.02676,0.001007,0.001062,0.02423,9.155e-05,5.722e-05,0.2063,0.003071,4.2,0.01389,0,0,0.03235
90000000000,90300000000,4969889774,86,257495866,0.04541,0.02417,0.02676,0.0009785,0.001034,0.02423,9.823e-05,5.531e-05,0.1829,0.003143,4.451,0.0151,0,0,0.04309
90300000000,90600000000,4969889774,86,257495866,0.04376,0.02417,0.02676,0.001574,0.001631,0.0242,8.011e-05,5.722e-05,0.2161,0.002785,4.905,0.01748,0,0,0.03955
66000000000,66300000000,4969889774,86,257495866,0.06372,0.02411,0.02676,0.001595,0.001648,0.02414,0.0001268,5.627e-05,0.2122,0.004288,2.761,0.00763,0,0,0.1467
66300000000,66600000000,4969889774,86,257495866,0.06665,0.02408,0.02676,0.0008526,0.0009079,0.02414,0.0001373,5.627e-05,0.3154,0.004501,4.43,0.01445,0,0,0.05042
66600000000,66900000000,4969889774,86,257495866,0.06677,0.02414,0.02673,0.001204,0.001259,0.02417,0.0001917,5.627e-05,0.2324,0.006569,3.223,0.009437,0,0,0.1738
66900000000,67200000000,4969889774,86,257495866,0.06628,0.02414,0.02673,0.001822,0.001877,0.02417,0.0001631,5.627e-05,0.252,0.006355,2.674,0.007274,0,0,0.09387
67200000000,67500000000,4969889774,86,257495866,0.0719,0.02411,0.02673,0.001162,0.001217,0.02417,0.000123,5.627e-05,0.3691,0.003998,2.418,0.006127,0,0,0.02347
67500000000,67800000000,4969889774,86,257495866,0.06799,0.02411,0.02673,0.001081,0.001137,0.02417,0.0001478,5.627e-05,0.3413,0.006073,2.506,0.00659,0,0,0.09167
67800000000,68100000000,4969889774,86,257495866,0.06738,0.02411,0.02676,0.00111,0.001165,0.02414,0.0001307,5.627e-05,0.2312,0.003998,3.72,0.01173,0,0,0.04688
68100000000,68400000000,4969889774,86,257495866,0.0611,0.02408,0.02676,0.0008307,0.000885,0.02414,0.0001259,5.627e-05,0.2671,0.003071,3.271,0.009553,0,0,0.06116
68400000000,68700000000,4969889774,86,257495866,0.06409,0.02414,0.02676,0.0009432,0.0009995,0.02423,0.0001383,5.627e-05,0.2009,0.008575,2.152,0.005105,0,0,0.08008
68700000000,69000000000,4969889774,86,257495866,0.06213,0.02408,0.02676,0.0008831,0.0009384,0.02414,0.0001278,5.627e-05,0.188,0.006073,4.136,0.0131,0,0,0.02963
69000000000,69300000000,4969889774,86,257495866,0.05951,0.02411,0.02676,0.000845,0.0009003,0.02414,0.0001287,5.627e-05,0.2029,0.004074,3.018,0.008553,0,0,0.06567
69300000000,69600000000,4969889774,86,257495866,0.05872,0.02405,0.02676,0.0007877,0.000844,0.02411,0.0001154,5.627e-05,0.2021,0.003929,2.421,0.006239,0,0,0.04761
69600000000,69900000000,4969889774,86,257495866,0.05981,0.02405,0.02676,0.001522,0.001577,0.02414,0.000123,5.627e-05,0.3057,0.003998,4.096,0.01324,0,0,0.05542
69900000000,70200000000,4969889774,86,257495866,0.05792,0.02408,0.02676,0.002312,0.002369,0.02411,0.0001087,5.627e-05,0.2195,0.003643,3.017,0.008603,0,0,0.03143
70200000000,70500000000,4969889774,86,257495866,0.0611,0.02408,0.02676,0.00219,0.002243,0.02411,0.0001192,5.627e-05,0.2402,0.003571,4.503,0.01547,0,0,0.06372
70500000000,70800000000,4969889774,86,257495866,0.0589,0.02417,0.02676,0.001976,0.002033,0.02435,0.0001202,5.627e-05,0.2141,0.006927,3.681,0.01178,0,0,0.1396
146100000000,146400000000,4969889774,86,257495866,0.06885,0.02487,0.02673,0.001745,0.001789,0.0249,0.0001488,5.627e-05,0.1982,0.006432,4.041,0.01258,0,0,0.08313
146400000000,146700000000,4969889774,86,257495866,0.07092,0.0249,0.02673,0.001648,0.001698,0.02496,0.0001888,5.627e-05,0.2178,0.007935,4.253,0.0134,0,0,0.1511
146700000000,147000000000,4969889774,86,257495866,0.06934,0.0249,0.02673,0.001431,0.00148,0.02493,0.000165,5.627e-05,0.248,0.005783,2.468,0.006265,0,0,0.08276
147000000000,147300000000,4969889774,86,257495866,0.06995,0.0249,0.02673,0.001471,0.001522,0.02493,0.0001478,5.627e-05,0.2554,0.007141,4.571,0.01463,0,0,0.08008
147300000000,147600000000,4969889774,86,257495866,0.07874,0.0249,0.02673,0.001068,0.00112,0.02499,0.0001688,5.627e-05,0.4365,0.009216,2.336,0.005343,0,0,0.05383
147600000000,147900000000,4969889774,86,257495866,0.06238,0.0249,0.02673,0.001051,0.001102,0.02493,0.0001192,5.627e-05,0.2129,0.004211,2.604,0.006978,0,0,0.05347
147900000000,148200000000,4969889774,86,257495866,0.06433,0.0249,0.02673,0.001209,0.001263,0.02496,0.000205,5.627e-05,0.2029,0.01215,3.334,0.009939,0,0,0.0614
148200000000,148500000000,4969889774,86,257495866,0.06134,0.02484,0.02673,0.0008402,0.0008945,0.0249,0.0001287,5.627e-05,0.2356,0.005142,3.173,0.00934,0,0,0.04919
148500000000,148800000000,4969889774,86,257495866,0.06885,0.0249,0.02673,0.001074,0.001129,0.02496,0.0001411,5.627e-05,0.2808,0.005569,2.726,0.007504,0,0,0.07068
148800000000,149100000000,4969889774,86,257495866,0.07349,0.02493,0.02673,0.001696,0.001751,0.02502,0.0001802,5.627e-05,0.2725,0.005356,2.462,0.006333,0,0,0.07666
149100000000,149400000000,4969889774,86,257495866,0.06909,0.02487,0.02673,0.001518,0.001572,0.02496,0.0001526,5.627e-05,0.1975,0.006355,3.891,0.01203,0,0,0.04895
149400000000,149700000000,4969889774,86,257495866,0.06384,0.02484,0.02673,0.001589,0.001642,0.0249,0.0001745,5.627e-05,0.208,0.008789,2.799,0.007483,0,0,0.06592
149700000000,150000000000,4969889774,86,257495866,0.06897,0.02484,0.02673,0.001595,0.00165,0.02493,0.0006056,5.627e-05,0.2375,0.006714,4.335,0.01412,0,0,0.04236
150000000000,150300000000,4969889774,86,257495866,0.06799,0.02487,0.02673,0.001535,0.001589,0.02493,0.0001545,5.627e-05,0.2312,0.004425,4.079,0.01291,0,0,0.06763
150300000000,150600000000,4969889774,86,257495866,0.06689,0.02487,0.02673,0.001558,0.001612,0.02493,0.0001879,5.627e-05,0.2778,0.01364,3.975,0.01254,0,0,0.05511
150600000000,150900000000,4969889774,86,257495866,0.06409,0.0249,0.02673,0.001566,0.001619,0.02493,0.0001469,5.627e-05,0.2314,0.006073,3.891,0.01232,0,0,0.05878
150900000000,151200000000,4969889774,86,257495866,0.0647,0.0249,0.02673,0.001638,0.001692,0.02493,0.0001335,5.627e-05,0.208,0.007072,2.645,0.007388,0,0,0.07043
213000000000,213300000000,4969889774,86,904766,0.04688,0.01311,0.01907,0.004662,0.004974,0.0148,0.0001526,7.629e-06,0.2056,0.009079,2.506,0.00561,0,0,0.03558
213300000000,213600000000,4969889774,86,904766,0.04132,0.01559,0.02155,0.00489,0.005196,0.01697,0.0002403,9.537e-06,0.1655,0.04504,3.292,0.008637,0,0,0.03003
213600000000,213900000000,4969889774,86,904766,0.04309,0.01776,0.02353,0.004364,0.004677,0.01947,7.629e-05,1.049e-05,0.1863,0.004211,4.16,0.01177,0,0,0.01608
213900000000,214200000000,4969889774,86,904766,0.04193,0.01959,0.02487,0.004929,0.005249,0.01968,0.0001144,1.24e-05,0.1936,0.009293,3.427,0.009049,0,0,0.02014
214200000000,214500000000,4969889774,86,904766,0.04224,0.0199,0.02628,0.004379,0.0047,0.02011,8.678e-05,1.335e-05,0.1531,0.006783,4.199,0.01185,0,0,0.01974
214500000000,214800000000,4969889774,86,904766,0.04114,0.02017,0.02679,0.004539,0.00486,0.02026,0.0001211,1.526e-05,0.2302,0.008636,4.241,0.01232,0,0,0.05365
214800000000,215100000000,4969889774,86,904766,0.04211,0.02023,0.02679,0.004486,0.004799,0.02029,9.251e-05,1.717e-05,0.218,0.004997,4.306,0.01252,0,0,0.03955
215100000000,215400000000,4969889774,86,904766,0.04077,0.0202,0.02679,0.004555,0.004845,0.02032,8.106e-05,1.812e-05,0.2139,0.006142,4.619,0.01348,0,0,0.02725
215700000000,216000000000,4969889774,86,904766,0.04126,0.02023,0.02679,0.004326,0.004631,0.02032,8.774e-05,2.193e-05,0.1826,0.005859,2.504,0.006296,0,0,0.08655
216000000000,216300000000,4969889774,86,904766,0.0365,0.02023,0.02679,0.004471,0.004784,0.02032,7.534e-05,2.289e-05,0.09998,0.002571,3.374,0.009115,0,0,0.05615
141000000000,141300000000,4969889774,86,257495866,0.0473,0.02475,0.02676,0.000845,0.0008965,0.02478,0.0001135,5.627e-05,0.219,0.003857,3.789,0.01173,0,0,0.1014
141300000000,141600000000,4969889774,86,257495866,0.04749,0.02475,0.02676,0.0009804,0.001034,0.02478,9.537e-05,5.722e-05,0.2471,0.003216,3.86,0.01202,0,0,0.08411
141600000000,141900000000,4969889774,86,257495866,0.05255,0.02472,0.02676,0.0006075,0.0006599,0.02478,0.0001459,5.627e-05,0.1743,0.004715,4.503,0.0144,0,0,0.03473
141900000000,142200000000,4969889774,86,257495866,0.06396,0.02481,0.02676,0.001471,0.001522,0.02496,0.000124,5.627e-05,0.2117,0.003502,4.87,0.01579,0,0,0.04449
142200000000,142500000000,4969889774,86,257495866,0.05908,0.02478,0.02676,0.002167,0.002216,0.02487,0.0001335,5.722e-05,0.2769,0.006714,3.138,0.008476,0,0,0.0675
142500000000,142800000000,4969889774,86,257495866,0.05762,0.02478,0.02676,0.001642,0.001696,0.02481,0.0001297,5.627e-05,0.1975,0.01129,3.516,0.01018,0,0,0.02753
142800000000,143100000000,4969889774,86,257495866,0.05756,0.02478,0.02676,0.002064,0.002117,0.02484,0.0001307,5.627e-05,0.1997,0.004211,2.812,0.007555,0,0,0.06396
143100000000,143400000000,4969889774,86,257495866,0.05359,0.02478,0.02673,0.001575,0.001629,0.02484,0.0001354,5.722e-05,0.2341,0.005211,4.002,0.01238,0,0,0.03326
143400000000,143700000000,4969889774,86,257495866,0.04913,0.02472,0.02676,0.0008602,0.0009146,0.02478,0.000103,5.627e-05,0.1887,0.005714,4.134,0.01315,0,0,0.1641
143700000000,144000000000,4969889774,86,257495866,0.05286,0.02475,0.02676,0.00116,0.001213,0.02478,0.0001307,5.627e-05,0.1875,0.004074,4.265,0.0138,0,0,0.03473
144000000000,144300000000,4969889774,86,257495866,0.05334,0.02478,0.02676,0.001221,0.001276,0.02484,9.251e-05,5.722e-05,0.3203,0.003216,4.035,0.01294,0,0,0.0224
144300000000,144600000000,4969889774,86,257495866,0.05151,0.02475,0.02676,0.001085,0.001141,0.02481,0.0001163,5.627e-05,0.1885,0.00486,2.493,0.006423,0,0,0.0379
144600000000,144900000000,4969889774,86,257495866,0.0473,0.02475,0.02676,0.001577,0.001633,0.02475,0.000103,5.627e-05,0.2061,0.003929,2.659,0.007233,0,0,0.03253
144900000000,145200000000,4969889774,86,257495866,0.05884,0.02481,0.02673,0.002163,0.002216,0.0249,0.0001516,5.627e-05,0.2095,0.005714,3.41,0.009792,0,0,0.03116
145200000000,145500000000,4969889774,86,257495866,0.06006,0.02487,0.02673,0.001471,0.001522,0.0249,0.0001392,5.627e-05,0.1858,0.005287,3.443,0.009768,0,0,0.1606
145500000000,145800000000,4969889774,86,257495866,0.0611,0.0249,0.02673,0.001425,0.001469,0.02496,0.0001583,5.627e-05,0.2212,0.005287,3.909,0.01201,0,0,0.06677
145800000000,146100000000,4969889774,86,257495866,0.06177,0.0249,0.02673,0.001991,0.002014,0.02496,0.0002089,5.627e-05,0.2109,0.01407,3.841,0.01172,0,0,0.1792
46200000000,46500000000,4969889774,86,257495866,0.04559,0.02383,0.02676,0.003017,0.003075,0.02386,8.583e-05,5.627e-05,0.2085,0.002857,4.409,0.01411,0,0,0.0495
46500000000,46800000000,4969889774,86,257495866,0.04309,0.02383,0.02676,0.002659,0.002716,0.02386,8.678e-05,5.722e-05,0.1577,0.00293,4.657,0.01513,0,0,0.01657
46800000000,47100000000,4969889774,86,257495866,0.04688,0.02386,0.02676,0.002224,0.002281,0.0239,9.441e-05,5.627e-05,0.3779,0.002998,3.048,0.008883,0,0,0.03992
47100000000,47400000000,4969889774,86,257495866,0.05463,0.02393,0.02676,0.002426,0.00248,0.02396,0.0001144,5.627e-05,0.2817,0.005714,2.691,0.007704,0,0,0.05872
47400000000,47700000000,4969889774,86,257495866,0.05322,0.0239,0.02676,0.002449,0.002502,0.02396,0.000102,5.627e-05,0.2205,0.002998,4.195,0.014,0,0,0.04041
47700000000,48000000000,4969889774,86,257495866,0.05219,0.02386,0.02676,0.002068,0.002121,0.02393,0.0001116,5.627e-05,0.2515,0.003716,4.586,0.0156,0,0,0.0434
48000000000,48300000000,4969889774,86,257495866,0.05469,0.02386,0.02676,0.002213,0.00227,0.0239,8.678e-05,5.722e-05,0.3159,0.004074,4.587,0.01537,0,0,0.05438
48300000000,48600000000,4969889774,86,257495866,0.05493,0.0239,0.02676,0.002205,0.002262,0.02393,8.583e-05,5.627e-05,0.2144,0.003784,4.697,0.01605,0,0,0.03796
48600000000,48900000000,4969889774,86,257495866,0.04968,0.0239,0.02676,0.001953,0.00201,0.02396,0.0001049,5.627e-05,0.1958,0.00457,3.702,0.01143,0,0,0.03699
48900000000,49200000000,4969889774,86,257495866,0.0462,0.02386,0.02676,0.001869,0.001925,0.0239,9.441e-05,5.627e-05,0.3345,0.004211,3.949,0.01331,0,0,0.0509
49200000000,49500000000,4969889774,86,257495866,0.04883,0.02386,0.02676,0.001593,0.00165,0.02393,9.632e-05,5.627e-05,0.3389,0.004288,4.156,0.01368,0,0,0.07312
49500000000,49800000000,4969889774,86,257495866,0.05182,0.0239,0.02676,0.002026,0.002083,0.02393,8.869e-05,5.722e-05,0.2036,0.003502,4.688,0.01545,0,0,0.06171
49800000000,50100000000,4969889774,86,257495866,0.05029,0.0239,0.02676,0.001591,0.001646,0.02393,9.632e-05,5.627e-05,0.2009,0.003784,4.838,0.01622,0,0,0.02228
50100000000,50400000000,4969889774,86,257495866,0.04993,0.02386,0.02676,0.002132,0.002186,0.0239,0.0001049,5.722e-05,0.1992,0.003284,4.703,0.01586,0,0,0.05963
50400000000,50700000000,4969889774,86,257495866,0.0506,0.02386,0.02676,0.001776,0.001831,0.0239,0.0001745,5.627e-05,0.1943,0.003216,2.379,0.006213,0,0,0.05994
50700000000,51000000000,4969889774,86,257495866,0.04913,0.02386,0.02673,0.001461,0.001516,0.02393,0.0001669,5.627e-05,0.2939,0.004425,4.517,0.0151,0,0,0.03967
105900000000,106200000000,4969889774,86,257495866,0.05737,0.02469,0.02676,0.001886,0.00194,0.02472,0.0001211,5.722e-05,0.3154,0.003357,2.404,0.006264,0,0,0.02011
106200000000,106500000000,4969889774,86,257495866,0.06616,0.02478,0.02673,0.002003,0.002056,0.0249,0.0001812,5.627e-05,0.251,0.01007,3.34,0.009743,0,0,0.06567
106500000000,106800000000,4969889774,86,257495866,0.0636,0.02478,0.02676,0.001188,0.001245,0.02484,0.0001221,5.627e-05,0.2078,0.004143,3.48,0.01047,0,0,0.05579
106800000000,107100000000,4969889774,86,257495866,0.0636,0.02484,0.02676,0.0009441,0.001001,0.02493,0.0001907,5.627e-05,0.2554,0.009506,3.947,0.0123,0,0,0.04865
107100000000,107400000000,4969889774,86,257495866,0.07068,0.02493,0.02676,0.001589,0.001648,0.02502,0.0001869,5.627e-05,0.3623,0.006927,3.736,0.01147,0,0,0.04718
107400000000,107700000000,4969889774,86,257495866,0.0686,0.0249,0.02676,0.001122,0.001179,0.02496,0.0001736,5.627e-05,0.2622,0.005859,3.576,0.01068,0,0,0.08203
107700000000,108000000000,4969889774,86,257495866,0.06689,0.02493,0.02673,0.001175,0.001232,0.02496,0.0001793,5.627e-05,0.2212,0.00885,2.937,0.008094,0,0,0.157
108000000000,108300000000,4969889774,86,257495866,0.07068,0.02493,0.02673,0.0009604,0.001019,0.02499,0.0002232,5.627e-05,0.2258,0.008362,3.261,0.009467,0,0,0.06049
108300000000,108600000000,4969889774,86,257495866,0.06628,0.02487,0.02676,0.001104,0.001162,0.02496,0.0002022,5.627e-05,0.2764,0.008636,3.485,0.01034,0,0,0.04578
108600000000,108900000000,4969889774,86,257495866,0.06519,0.02487,0.02676,0.001125,0.001184,0.02493,0.0001831,5.627e-05,0.2646,0.006714,2.266,0.005663,0,0,0.1584
108900000000,109200000000,4969889774,86,257495866,0.06982,0.02493,0.02676,0.00153,0.001587,0.02499,0.0002422,5.627e-05,0.291,0.008072,2.42,0.00615,0,0,0.0318
109200000000,109500000000,4969889774,86,257495866,0.06592,0.02493,0.02676,0.001209,0.001266,0.02499,0.0001707,5.627e-05,0.251,0.007355,2.899,0.007986,0,0,0.04456
109500000000,109800000000,4969889774,86,257495866,0.06836,0.02484,0.02673,0.0008545,0.0009003,0.0249,0.0001736,5.627e-05,0.3486,0.005501,4.071,0.01292,0,0,0.08594
109800000000,110100000000,4969889774,86,257495866,0.07263,0.02487,0.02673,0.0007925,0.0008478,0.02496,0.0001793,5.627e-05,0.3066,0.007072,2.903,0.007999,0,0,0.05945
110100000000,110400000000,4969889774,86,257495866,0.07483,0.02496,0.02673,0.001238,0.001295,0.02499,0.0002079,5.627e-05,0.219,0.008423,4.109,0.0127,0,0,0.09106
110400000000,110700000000,4969889774,86,257495866,0.07556,0.02487,0.02673,0.0007906,0.0008488,0.02499,0.0002108,5.627e-05,0.2617,0.005783,4.39,0.01366,0,0,0.07666
110700000000,111000000000,4969889774,86,257495866,0.06812,0.0249,0.02676,0.001137,0.001194,0.02493,0.0001478,5.627e-05,0.2437,0.007568,4.408,0.01382,0,0,0.07727
161100000000,161400000000,4969889774,86,257495866,0.06958,0.02475,0.02673,0.00119,0.001242,0.02481,0.0001507,5.627e-05,0.2178,0.004288,3.237,0.009575,0,0,0.04877
161400000000,161700000000,4969889774,86,257495866,0.0708,0.02475,0.02673,0.0008869,0.0009375,0.02478,0.0001869,5.627e-05,0.2263,0.006218,2.555,0.006938,0,0,0.05707
161700000000,162000000000,4969889774,86,257495866,0.06506,0.02472,0.02673,0.0008001,0.0008507,0.02481,0.0001612,5.627e-05,0.1931,0.005928,3.743,0.01176,0,0,0.09021
162000000000,162300000000,4969889774,86,257495866,0.06372,0.02469,0.02673,0.0009365,0.0009861,0.02481,0.0001545,5.627e-05,0.2603,0.008286,4.135,0.0133,0,0,0.05981
162300000000,162600000000,4969889774,86,257495866,0.06653,0.02469,0.02673,0.0008364,0.0008879,0.02475,0.0001621,5.627e-05,0.2124,0.01028,3.332,0.01002,0,0,0.0556
162600000000,162900000000,4969889774,86,257495866,0.0636,0.02472,0.02673,0.00104,0.001093,0.02475,0.0001392,5.627e-05,0.1951,0.003998,2.862,0.008245,0,0,0.06152
162900000000,163200000000,4969889774,86,257495866,0.06409,0.02475,0.02673,0.001364,0.001417,0.02478,0.0001574,5.627e-05,0.1965,0.005928,2.402,0.005977,0,0,0.05786
163200000000,163500000000,4969889774,86,257495866,0.0636,0.02472,0.02673,0.001429,0.001484,0.02475,0.0001364,5.627e-05,0.2998,0.003857,2.844,0.007974,0,0,0.04059
163500000000,163800000000,4969889774,86,257495866,0.0625,0.02469,0.02673,0.0008678,0.0009222,0.02472,0.0001221,5.627e-05,0.2656,0.004646,4.174,0.01328,0,0,0.06024
163800000000,164100000000,4969889774,86,257495866,0.06219,0.02469,0.02673,0.0009556,0.001009,0.02475,0.0001278,5.627e-05,0.1948,0.004425,2.848,0.007798,0,0,0.03217
164100000000,164400000000,4969889774,86,257495866,0.06024,0.02469,0.02673,0.001213,0.001266,0.02472,0.0001459,5.627e-05,0.2073,0.004211,2.619,0.006909,0,0,0.08484
164400000000,164700000000,4969889774,86,257495866,0.05811,0.02469,0.02673,0.001055,0.00111,0.02472,0.0001287,5.627e-05,0.2268,0.004143,3.887,0.01239,0,0,0.04102
164700000000,165000000000,4969889774,86,257495866,0.05652,0.02463,0.02673,0.0008278,0.0008554,0.02472,0.0001192,5.627e-05,0.2002,0.004784,2.323,0.005808,0,0,0.1863
165000000000,165300000000,4969889774,86,257495866,0.06104,0.02466,0.02673,0.0009098,0.0009327,0.02469,0.0001707,5.627e-05,0.3447,0.009995,3.641,0.01109,0,0,0.08252
165300000000,165600000000,4969889774,86,257495866,0.05066,0.0246,0.02673,0.0009613,0.0009899,0.02469,0.0001202,5.627e-05,0.1719,0.00486,3.88,0.01214,0,0,0.04633
165600000000,165900000000,4969889774,86,257495866,0.06,0.02463,0.02673,0.0008049,0.0008421,0.02469,0.0001783,5.627e-05,0.2083,0.0125,2.043,0.004708,0,0,0.05261
165900000000,166200000000,4969889774,86,257495866,0.05908,0.02463,0.02673,0.001474,0.001516,0.02469,0.0001345,5.627e-05,0.2637,0.005646,2.834,0.007525,0,0,0.03912
136200000000,136500000000,4969889774,86,257495866,0.0495,0.02469,0.02676,0.0009899,0.001041,0.02475,0.0001192,5.627e-05,0.2307,0.003643,3.159,0.008844,0,0,0.03461
136500000000,136800000000,4969889774,86,257495866,0.04596,0.02472,0.02676,0.0008621,0.0009136,0.02475,9.155e-05,5.627e-05,0.2346,0.002998,3.523,0.01066,0,0,0.02615
136800000000,137100000000,4969889774,86,257495866,0.04614,0.02472,0.02676,0.0007362,0.0007887,0.02475,0.0001135,5.627e-05,0.2036,0.00293,2.316,0.005745,0,0,0.03473
137100000000,137400000000,4969889774,86,257495866,0.04492,0.02469,0.02676,0.001163,0.001215,0.02472,0.0001001,5.722e-05,0.2095,0.003784,3.746,0.01156,0,0,0.03754
137400000000,137700000000,4969889774,86,257495866,0.05017,0.02472,0.02676,0.001558,0.00161,0.02475,0.0001106,5.627e-05,0.1855,0.003857,2.802,0.007832,0,0,0.05054
137700000000,138000000000,4969889774,86,257495866,0.04938,0.02472,0.02676,0.00156,0.001612,0.02478,9.632e-05,5.627e-05,0.1909,0.003284,4.013,0.01247,0,0,0.06885
138000000000,138300000000,4969889774,86,257495866,0.04895,0.02472,0.02676,0.002148,0.002201,0.02475,0.0001278,5.627e-05,0.2202,0.003071,2.573,0.006978,0,0,0.03363
138300000000,138600000000,4969889774,86,257495866,0.0531,0.02472,0.02676,0.001444,0.001495,0.02475,0.0001106,5.627e-05,0.2097,0.002998,4.207,0.01376,0,0,0.03467
138600000000,138900000000,4969889774,86,257495866,0.05084,0.02475,0.02676,0.002094,0.002144,0.02481,0.0001011,5.627e-05,0.2048,0.003284,3.526,0.011,0,0,0.03326
138900000000,139200000000,4969889774,86,257495866,0.05127,0.02478,0.02676,0.001291,0.001343,0.02484,0.0001106,5.627e-05,0.1892,0.003643,3.773,0.01192,0,0,0.04742
139200000000,139500000000,4969889774,86,257495866,0.05499,0.02481,0.02676,0.001001,0.001053,0.02484,0.0001116,5.627e-05,0.293,0.006073,3.993,0.01273,0,0,0.07788
139500000000,139800000000,4969889774,86,257495866,0.04797,0.02478,0.02676,0.001101,0.001152,0.02481,0.0001249,5.627e-05,0.2891,0.003716,3.953,0.01269,0,0,0.01614
139800000000,140100000000,4969889774,86,257495866,0.04901,0.02475,0.02676,0.001196,0.001249,0.02478,8.774e-05,5.627e-05,0.1965,0.003429,4.144,0.01338,0,0,0.05048
140100000000,140400000000,4969889774,86,257495866,0.04993,0.02472,0.02673,0.0007172,0.0007696,0.02478,0.0001125,5.627e-05,0.2256,0.003571,3.014,0.008971,0,0,0.0896
140400000000,140700000000,4969889774,86,257495866,0.04602,0.02475,0.02673,0.001102,0.001154,0.02481,0.0001125,5.722e-05,0.2019,0.004211,2.379,0.006555,0,0,0.04681
140700000000,141000000000,4969889774,86,257495866,0.04797,0.02475,0.02676,0.0006676,0.00072,0.02475,9.823e-05,5.627e-05,0.1973,0.003857,2.342,0.006124,0,0,0.05646
20700000000,21000000000,4969889774,86,257495866,0.03314,0.02374,0.02676,0.002193,0.002254,0.02377,7.439e-05,5.627e-05,0.1646,0.002998,3.997,0.01248,0,0,0.01509
21000000000,21300000000,4969889774,86,257495866,0.03711,0.02374,0.02676,0.001524,0.001583,0.02374,6.771e-05,5.722e-05,0.2202,0.001999,4.058,0.01274,0,0,0.01898
22200000000,22500000000,4969889774,86,257495866,0.03351,0.02374,0.02676,0.002625,0.002682,0.02374,5.436e-05,5.627e-05,0.1641,0.002716,3.885,0.01207,0,0,0.01724
22500000000,22800000000,4969889774,86,257495866,0.02911,0.02368,0.02676,0.00227,0.002327,0.02374,6.104e-05,5.627e-05,0.2249,0.001858,4.337,0.01374,0,0,0.01746
22800000000,23100000000,4969889774,86,257495866,0.03079,0.02371,0.02679,0.002205,0.002262,0.02374,5.15e-05,5.722e-05,0.189,0.001499,4.099,0.01299,0,0,0.03125
23100000000,23400000000,4969889774,86,257495866,0.03061,0.02368,0.02682,0.001816,0.001873,0.02371,5.436e-05,5.627e-05,0.2209,0.002071,3.983,0.01245,0,0,0.03412
23400000000,23700000000,4969889774,86,257495866,0.02786,0.02368,0.02679,0.00222,0.002277,0.02371,7.629e-05,5.627e-05,0.1614,0.003216,3.613,0.01078,0,0,0.03229
23700000000,24000000000,4969889774,86,257495866,0.03827,0.02374,0.02676,0.001696,0.001755,0.02383,9.441e-05,5.722e-05,0.2095,0.003357,4.492,0.01413,0,0,0.02466
24000000000,24300000000,4969889774,86,257495866,0.03546,0.02377,0.02676,0.001965,0.002026,0.02383,6.485e-05,5.627e-05,0.1626,0.002213,2.442,0.006114,0,0,0.02914
24300000000,24600000000,4969889774,86,257495866,0.03253,0.02374,0.02676,0.002426,0.002483,0.02377,7.439e-05,5.627e-05,0.1873,0.002785,4.238,0.01297,0,0,0.02759
24900000000,25200000000,4969889774,86,257495866,0.03705,0.02377,0.02676,0.002419,0.002476,0.0238,7.057e-05,5.627e-05,0.2817,0.003071,3.901,0.01167,0,0,0.02081
25200000000,25500000000,4969889774,86,257495866,0.03809,0.02374,0.02676,0.0007849,0.000843,0.02377,7.248e-05,5.722e-05,0.2126,0.002285,2.471,0.006169,0,0,0.03174
25500000000,25800000000,4969889774,86,257495866,0.03632,0.02374,0.02676,0.001259,0.001316,0.02377,7.439e-05,5.531e-05,0.1865,0.002071,4.451,0.01382,0,0,0.02313
60900000000,61200000000,4969889774,86,257495866,0.05914,0.02399,0.02673,0.001076,0.00112,0.02402,0.0001402,5.627e-05,0.2488,0.007996,2.634,0.007032,0,0,0.03796
61200000000,61500000000,4969889774,86,257495866,0.06555,0.02402,0.02673,0.001068,0.001108,0.02408,0.0001564,5.627e-05,0.2222,0.004997,3.094,0.008781,0,0,0.0658
61500000000,61800000000,4969889774,86,257495866,0.06018,0.02399,0.02676,0.001534,0.001577,0.02402,0.0001602,5.627e-05,0.1968,0.01079,4.135,0.01326,0,0,0.06238
61800000000,62100000000,4969889774,86,257495866,0.05597,0.02399,0.02676,0.0007496,0.0008001,0.02402,0.0001402,5.627e-05,0.2715,0.004715,2.412,0.006221,0,0,0.04126
62100000000,62400000000,4969889774,86,257495866,0.06024,0.02402,0.02676,0.0008345,0.0008869,0.02417,0.0001373,5.627e-05,0.2466,0.004501,3.598,0.01087,0,0,0.05121
62400000000,62700000000,4969889774,86,257495866,0.05664,0.02396,0.02676,0.001511,0.001562,0.02402,0.0001192,5.627e-05,0.3452,0.004715,3.947,0.01229,0,0,0.04962
62700000000,63000000000,4969889774,86,257495866,0.05231,0.02396,0.02676,0.0008926,0.0009451,0.02399,0.0001135,5.627e-05,0.2324,0.005859,4.03,0.01279,0,0,0.05469
63000000000,63300000000,4969889774,86,257495866,0.06024,0.02396,0.02673,0.000824,0.0008764,0.02399,0.0001554,5.627e-05,0.2837,0.003998,4.156,0.0133,0,0,0.04669
63300000000,63600000000,4969889774,86,257495866,0.06335,0.02402,0.02676,0.001743,0.001795,0.02411,0.0001507,5.627e-05,0.2393,0.004715,4.181,0.01329,0,0,0.06873
63600000000,63900000000,4969889774,86,257495866,0.06421,0.02405,0.02676,0.002182,0.002232,0.02414,0.0001335,5.627e-05,0.2212,0.004784,3.832,0.01191,0,0,0.06189
63900000000,64200000000,4969889774,86,257495866,0.0625,0.02402,0.02676,0.002411,0.00246,0.02405,0.0001564,5.627e-05,0.1846,0.006783,4.409,0.01437,0,0,0.1177
64200000000,64500000000,4969889774,86,257495866,0.08093,0.02411,0.02673,0.002247,0.002293,0.02441,0.0002499,5.627e-05,0.3364,0.0188,3.438,0.01005,0,0,0.04932
64500000000,64800000000,4969889774,86,257495866,0.06738,0.02429,0.02673,0.001637,0.001692,0.02441,0.0001383,5.627e-05,0.2607,0.005859,2.428,0.00592,0,0,0.04968
64800000000,65100000000,4969889774,86,257495866,0.06061,0.02429,0.02676,0.001577,0.001633,0.02432,0.0001335,5.627e-05,0.2812,0.005569,4.213,0.01356,0,0,0.03717
65100000000,65400000000,4969889774,86,257495866,0.07068,0.02417,0.02676,0.002502,0.00256,0.02444,0.0001631,5.627e-05,0.3276,0.009506,4.406,0.01437,0,0,0.073
65400000000,65700000000,4969889774,86,257495866,0.05951,0.02411,0.02676,0.001667,0.001722,0.02414,0.0001316,5.627e-05,0.25,0.004425,4.424,0.01427,0,0,0.04602
65700000000,66000000000,4969889774,86,257495866,0.05798,0.02411,0.02676,0.001459,0.001513,0.02414,0.0001497,5.627e-05,0.2058,0.005646,3.959,0.01243,0,0,0.05389
126000000000,126300000000,4969889774,86,257495866,0.04431,0.02466,0.02676,0.001602,0.001656,0.02472,8.488e-05,5.627e-05,0.2207,0.003643,3.329,0.009682,0,0,0.05658
126300000000,126600000000,4969889774,86,257495866,0.0423,0.02466,0.02676,0.001984,0.002033,0.02472,0.000103,5.627e-05,0.3418,0.004074,3.973,0.01205,0,0,0.03699
126600000000,126900000000,4969889774,86,257495866,0.04169,0.02463,0.02676,0.00149,0.001541,0.02466,7.057e-05,5.627e-05,0.1748,0.002644,2.282,0.005385,0,0,0.02423
126900000000,127200000000,4969889774,86,257495866,0.04309,0.02466,0.02676,0.001928,0.00198,0.02469,0.000104,5.627e-05,0.1641,0.003571,3.926,0.01188,0,0,0.03558
127500000000,127800000000,4969889774,86,257495866,0.04327,0.02466,0.02676,0.002083,0.002136,0.02472,9.06e-05,5.722e-05,0.3315,0.00293,3.793,0.01138,0,0,0.08838
127800000000,128100000000,4969889774,86,257495866,0.0437,0.02466,0.02676,0.00149,0.001541,0.02469,8.774e-05,5.531e-05,0.3418,0.003643,3.802,0.01128,0,0,0.02802
128100000000,128400000000,4969889774,86,257495866,0.0401,0.02469,0.02676,0.001991,0.002045,0.02472,9.441e-05,5.722e-05,0.3696,0.00293,2.842,0.007447,0,0,0.02655
129000000000,129300000000,4969889774,86,257495866,0.04443,0.02469,0.02676,0.001562,0.001617,0.02475,0.0001183,5.627e-05,0.207,0.003857,4.094,0.01265,0,0,0.04297
129300000000,129600000000,4969889774,86,257495866,0.04303,0.02469,0.02676,0.00135,0.001404,0.02472,9.918e-05,5.627e-05,0.2783,0.003502,2.602,0.006669,0,0,0.05896
129600000000,129900000000,4969889774,86,257495866,0.03973,0.02466,0.02676,0.001667,0.00172,0.02469,9.441e-05,5.627e-05,0.2832,0.003502,2.055,0.004816,0,0,0.06073
129900000000,130200000000,4969889774,86,257495866,0.03955,0.02466,0.02676,0.001478,0.001532,0.02469,8.583e-05,5.627e-05,0.2424,0.002571,3.543,0.01059,0,0,0.01883
130500000000,130800000000,4969889774,86,257495866,0.0462,0.02469,0.02676,0.001362,0.001415,0.02472,0.000102,5.627e-05,0.1936,0.003429,2.76,0.007121,0,0,0.0564
130800000000,131100000000,4969889774,86,257495866,0.04657,0.02469,0.02676,0.001879,0.00193,0.02469,0.000103,5.722e-05,0.1807,0.004784,2.363,0.005717,0,0,0.04572
181200000000,181500000000,4969889774,86,257495866,0.04242,0.02448,0.02676,0.0007324,0.0007858,0.02451,8.106e-05,5.722e-05,0.1782,0.00293,4.3,0.01383,0,0,0.02493
181500000000,181800000000,4969889774,86,257495866,0.04987,0.02451,0.02676,0.001047,0.001099,0.0246,0.0001202,5.627e-05,0.1831,0.004211,2.284,0.005814,0,0,0.0769
181800000000,182100000000,4969889774,86,257495866,0.04773,0.02451,0.02676,0.0008936,0.000946,0.02457,0.0001068,5.722e-05,0.1855,0.005142,4.149,0.01329,0,0,0.0246
182100000000,182400000000,4969889774,86,257495866,0.04419,0.02457,0.02676,0.001179,0.001232,0.02463,0.0001211,5.627e-05,0.1699,0.003071,4.013,0.01268,0,0,0.03253
182400000000,182700000000,4969889774,86,257495866,0.04144,0.02454,0.02676,0.001003,0.001057,0.0246,8.202e-05,5.627e-05,0.231,0.003571,4.108,0.01314,0,0,0.02991
182700000000,183000000000,4969889774,86,257495866,0.04144,0.02451,0.02676,0.00115,0.001202,0.02457,8.488e-05,5.627e-05,0.2004,0.003929,3.38,0.009933,0,0,0.01451
183000000000,183300000000,4969889774,86,257495866,0.047,0.02454,0.02676,0.000824,0.0008764,0.02457,9.251e-05,5.627e-05,0.2205,0.00293,2.829,0.007933,0,0,0.04254
183300000000,183600000000,4969889774,86,257495866,0.04413,0.02451,0.02676,0.001333,0.001385,0.02454,8.774e-05,5.627e-05,0.3569,0.003071,4.194,0.01352,0,0,0.04346
183600000000,183900000000,4969889774,86,257495866,0.04333,0.02454,0.02676,0.0008421,0.0008945,0.02457,0.0001049,5.627e-05,0.2222,0.003929,3.776,0.01189,0,0,0.03717
183900000000,184200000000,4969889774,86,257495866,0.04443,0.02454,0.02676,0.0009069,0.0009604,0.0246,0.0001116,5.722e-05,0.2061,0.003857,3.653,0.01133,0,0,0.03436
184200000000,184500000000,4969889774,86,257495866,0.04498,0.02451,0.02676,0.001051,0.001104,0.02454,9.441e-05,5.627e-05,0.2068,0.002499,3.413,0.01044,0,0,0.03986
184500000000,184800000000,4969889774,86,257495866,0.04639,0.02451,0.02676,0.001316,0.001369,0.02454,9.251e-05,5.627e-05,0.2212,0.002857,3.293,0.009396,0,0,0.04779
184800000000,185100000000,4969889774,86,257495866,0.05084,0.02454,0.02676,0.001135,0.001188,0.02457,0.0001144,5.627e-05,0.2583,0.00486,4.239,0.01357,0,0,0.03308
185100000000,185400000000,4969889774,86,257495866,0.05072,0.02457,0.02676,0.0007181,0.0007715,0.02463,0.000102,5.627e-05,0.2097,0.004288,2.309,0.005539,0,0,0.05957
185400000000,185700000000,4969889774,86,257495866,0.04956,0.02457,0.02676,0.001036,0.001087,0.02463,0.0001059,5.722e-05,0.2002,0.003857,3.624,0.01108,0,0,0.05164
185700000000,186000000000,4969889774,86,257495866,0.0473,0.0246,0.02676,0.001099,0.001152,0.0246,0.0001249,5.627e-05,0.1855,0.007286,2.933,0.00807,0,0,0.05212
186000000000,186300000000,4969889774,86,257495866,0.04883,0.02457,0.02676,0.001875,0.001928,0.0246,0.0001163,5.627e-05,0.2319,0.002998,4.187,0.01361,0,0,0.07886
40800000000,41100000000,4969889774,86,257495866,0.03723,0.02377,0.02676,0.002293,0.00235,0.0238,7.153e-05,5.531e-05,0.1738,0.002144,3.612,0.01111,0,0,0.02808
41100000000,41400000000,4969889774,86,257495866,0.03748,0.0238,0.02676,0.002602,0.002659,0.02383,8.202e-05,5.722e-05,0.1909,0.005074,3.998,0.01267,0,0,0.01855
41400000000,41700000000,4969889774,86,257495866,0.03882,0.0238,0.02676,0.002083,0.00214,0.02383,6.771e-05,5.627e-05,0.2087,0.002644,3.905,0.01224,0,0,0.02237
42300000000,42600000000,4969889774,86,257495866,0.04376,0.0239,0.02676,0.001934,0.001991,0.02396,0.0001011,5.722e-05,0.2163,0.005859,2.984,0.008479,0,0,0.03308
42600000000,42900000000,4969889774,86,257495866,0.04462,0.02383,0.02676,0.0007839,0.0008402,0.0239,9.346e-05,5.627e-05,0.2295,0.002998,4.631,0.01523,0,0,0.02206
43500000000,43800000000,4969889774,86,257495866,0.04065,0.02383,0.02676,0.001101,0.001156,0.02386,8.583e-05,5.722e-05,0.2505,0.003143,4.135,0.01325,0,0,0.04413
43800000000,44100000000,4969889774,86,257495866,0.04266,0.02383,0.02676,0.001646,0.001703,0.02383,7.534e-05,5.627e-05,0.177,0.00293,2.547,0.00689,0,0,0.05377
44100000000,44400000000,4969889774,86,257495866,0.04205,0.02386,0.02676,0.002041,0.002094,0.0239,9.727e-05,5.722e-05,0.3218,0.004143,2.671,0.007132,0,0,0.04681
44400000000,44700000000,4969889774,86,257495866,0.03973,0.0238,0.02676,0.00189,0.001945,0.02383,7.915e-05,5.627e-05,0.1687,0.003357,3.802,0.01148,0,0,0.03857
44700000000,45000000000,4969889774,86,257495866,0.04065,0.02383,0.02676,0.002487,0.002544,0.02383,9.346e-05,5.722e-05,0.1882,0.005211,4.182,0.01296,0,0,0.03894
45000000000,45300000000,4969889774,86,257495866,0.04053,0.02383,0.02676,0.002361,0.002419,0.02383,8.583e-05,5.627e-05,0.228,0.002571,3.797,0.01146,0,0,0.01843
31500000000,31800000000,4969889774,86,257495866,0.03351,0.02374,0.02676,0.001814,0.001873,0.02377,6.39e-05,5.531e-05,0.1865,0.002071,2.753,0.007451,0,0,0.1692
31800000000,32100000000,4969889774,86,257495866,0.03674,0.02377,0.02676,0.001463,0.001522,0.0238,7.153e-05,5.627e-05,0.2056,0.002644,4.289,0.01388,0,0,0.0426
32100000000,32400000000,4969889774,86,257495866,0.03735,0.0238,0.02676,0.001406,0.001463,0.02383,6.008e-05,5.627e-05,0.2427,0.001999,4.089,0.01284,0,0,0.0329
32400000000,32700000000,4969889774,86,257495866,0.04309,0.0238,0.02676,0.00112,0.001177,0.02383,8.869e-05,5.627e-05,0.3354,0.002857,4.687,0.01563,0,0,0.1017
33300000000,33600000000,4969889774,86,257495866,0.04199,0.0238,0.02676,0.001799,0.001858,0.02386,8.678e-05,5.627e-05,0.229,0.002857,4.343,0.0149,0,0,0.01599
33600000000,33900000000,4969889774,86,257495866,0.03998,0.0238,0.02676,0.001696,0.001753,0.02383,9.823e-05,5.627e-05,0.2166,0.003071,4.191,0.01374,0,0,0.04175
33900000000,34200000000,4969889774,86,257495866,0.039,0.02377,0.02676,0.001961,0.002022,0.0238,7.343e-05,5.627e-05,0.3452,0.002716,2.116,0.005344,0,0,0.03369
34800000000,35100000000,4969889774,86,257495866,0.04224,0.02377,0.02679,0.00116,0.001219,0.02383,9.251e-05,5.531e-05,0.219,0.003784,2.902,0.008523,0,0,0.07812
176100000000,176400000000,4969889774,86,257495866,0.04901,0.02451,0.02673,0.001131,0.001183,0.02454,8.583e-05,5.627e-05,0.2266,0.003284,3.89,0.0126,0,0,0.02957
176400000000,176700000000,4969889774,86,257495866,0.05426,0.02451,0.02676,0.00102,0.001072,0.02463,0.000103,5.722e-05,0.2607,0.008072,3.241,0.009787,0,0,0.1616
176700000000,177000000000,4969889774,86,257495866,0.04755,0.02448,0.02676,0.0009756,0.001028,0.02454,7.248e-05,5.531e-05,0.1892,0.002499,3.452,0.01098,0,0,0.09229
177000000000,177300000000,4969889774,86,257495866,0.0451,0.02451,0.02676,0.0005417,0.0005922,0.02454,9.727e-05,5.722e-05,0.1619,0.003571,3.256,0.009766,0,0,0.06482
177300000000,177600000000,4969889774,86,257495866,0.04761,0.02448,0.02676,0.001053,0.001102,0.0246,0.000102,5.531e-05,0.2473,0.005142,3.266,0.009719,0,0,0.03088
177600000000,177900000000,4969889774,86,257495866,0.04205,0.02457,0.02676,0.001036,0.001087,0.0246,0.0001011,5.722e-05,0.1912,0.004501,3.684,0.01151,0,0,0.03845
177900000000,178200000000,4969889774,86,257495866,0.04034,0.02451,0.02676,0.001057,0.00111,0.02457,8.678e-05,5.531e-05,0.3179,0.002857,3.814,0.0121,0,0,0.02237
178200000000,178500000000,4969889774,86,257495866,0.04279,0.02448,0.02676,0.001572,0.001623,0.02451,8.583e-05,5.722e-05,0.2939,0.003571,2.067,0.004783,0,0,0.03079
178500000000,178800000000,4969889774,86,257495866,0.04199,0.02448,0.02676,0.001194,0.001245,0.02454,0.0001135,5.531e-05,0.1968,0.005432,3.823,0.0119,0,0,0.06
178800000000,179100000000,4969889774,86,257495866,0.04364,0.02451,0.02676,0.001638,0.001692,0.02454,8.297e-05,5.722e-05,0.2744,0.002357,2.24,0.005542,0,0,0.05389
179100000000,179400000000,4969889774,86,257495866,0.03979,0.02444,0.02676,0.001431,0.001484,0.02448,7.153e-05,5.531e-05,0.1924,0.002998,4.264,0.01378,0,0,0.03949
179400000000,179700000000,4969889774,86,257495866,0.04553,0.02448,0.02676,0.0006437,0.0006971,0.0246,8.583e-05,5.722e-05,0.3296,0.003571,2.952,0.007969,0,0,0.02057
179700000000,180000000000,4969889774,86,257495866,0.04413,0.02457,0.02676,0.0007591,0.0008125,0.0246,8.965e-05,5.627e-05,0.2124,0.002716,2.635,0.006936,0,0,0.03394
180000000000,180300000000,4969889774,86,257495866,0.04633,0.02457,0.02676,0.0008554,0.0009089,0.0246,8.488e-05,5.722e-05,0.2361,0.003502,2.505,0.006568,0,0,0.06384
180300000000,180600000000,4969889774,86,257495866,0.04449,0.02454,0.02676,0.001047,0.001101,0.02454,0.0001059,5.627e-05,0.1755,0.003071,3.307,0.009912,0,0,0.0162
180600000000,180900000000,4969889774,86,257495866,0.04211,0.02448,0.02676,0.00104,0.001093,0.02454,8.202e-05,5.722e-05,0.1997,0.00293,3.482,0.01049,0,0,0.02982
131100000000,131400000000,4969889774,86,257495866,0.04755,0.02472,0.02676,0.001497,0.001551,0.02478,9.441e-05,5.627e-05,0.1946,0.003216,2.613,0.006878,0,0,0.04834
131400000000,131700000000,4969889774,86,257495866,0.04102,0.02466,0.02676,0.001184,0.001238,0.02469,9.537e-05,5.627e-05,0.2156,0.003143,3.541,0.01046,0,0,0.0415
131700000000,132000000000,4969889774,86,257495866,0.04138,0.02466,0.02676,0.001778,0.001829,0.02469,8.297e-05,5.627e-05,0.1826,0.00293,3.587,0.01075,0,0,0.02179
132000000000,132300000000,4969889774,86,257495866,0.04242,0.02469,0.02676,0.00112,0.001173,0.02472,0.0001287,5.627e-05,0.356,0.006783,2.578,0.006518,0,0,0.07666
132300000000,132600000000,4969889774,86,257495866,0.04297,0.02469,0.02676,0.0008163,0.0008717,0.02475,9.632e-05,5.627e-05,0.1924,0.003071,3.852,0.01148,0,0,0.03302
132600000000,132900000000,4969889774,86,257495866,0.05249,0.02469,0.02673,0.0009899,0.001043,0.02475,0.0001106,5.627e-05,0.3037,0.003998,3.828,0.01162,0,0,0.03064
132900000000,133200000000,4969889774,86,257495866,0.04852,0.02469,0.02676,0.001068,0.00112,0.02472,9.918e-05,5.627e-05,0.2292,0.003071,4.214,0.01316,0,0,0.07971
133200000000,133500000000,4969889774,86,257495866,0.05267,0.02469,0.02676,0.0008583,0.0009108,0.02478,0.0001135,5.627e-05,0.217,0.003784,4.109,0.01274,0,0,0.02216
133500000000,133800000000,4969889774,86,257495866,0.04907,0.02472,0.02673,0.0009651,0.001019,0.02475,0.0001421,5.627e-05,0.2515,0.003502,3.83,0.012,0,0,0.02328
133800000000,134100000000,4969889774,86,257495866,0.05377,0.02472,0.02673,0.0006895,0.000742,0.02481,9.346e-05,5.627e-05,0.2217,0.003143,3.152,0.009338,0,0,0.1208
134100000000,134400000000,4969889774,86,257495866,0.0509,0.02478,0.02676,0.0008812,0.0009336,0.02481,0.0001192,5.627e-05,0.2227,0.003643,2.402,0.006012,0,0,0.03589
134400000000,134700000000,4969889774,86,257495866,0.05298,0.02478,0.02673,0.0009632,0.001015,0.02484,0.0001087,5.627e-05,0.2422,0.004425,2.538,0.006688,0,0,0.04462
134700000000,135000000000,4969889774,86,257495866,0.05029,0.02478,0.02676,0.0009003,0.0009527,0.02481,0.0001297,5.627e-05,0.2583,0.006645,2.398,0.0064,0,0,0.02542
135000000000,135300000000,4969889774,86,257495866,0.04993,0.02472,0.02676,0.0008593,0.0009117,0.02475,0.0001097,5.627e-05,0.2622,0.003429,2.499,0.006695,0,0,0.04327
135300000000,135600000000,4969889774,86,257495866,0.04785,0.02472,0.02676,0.001009,0.00106,0.02475,0.0001211,5.627e-05,0.3135,0.00457,3.506,0.01059,0,0,0.02771
135600000000,135900000000,4969889774,86,257495866,0.04517,0.02469,0.02676,0.0009604,0.001013,0.02475,0.0001001,5.627e-05,0.2764,0.003143,3.63,0.01102,0,0,0.04578
135900000000,136200000000,4969889774,86,257495866,0.04883,0.02472,0.02676,0.001734,0.001787,0.02478,0.0001106,5.627e-05,0.2656,0.003857,3.427,0.01019,0,0,0.04218
186300000000,186600000000,4969889774,86,257495866,0.04779,0.02463,0.02676,0.00153,0.001581,0.02469,0.0001106,5.722e-05,0.208,0.002998,2.651,0.007353,0,0,0.04626
186600000000,186900000000,4969889774,86,257495866,0.04993,0.02463,0.02676,0.001205,0.001253,0.02469,0.000124,5.627e-05,0.2322,0.005714,2.721,0.007408,0,0,0.0343
55800000000,56100000000,4969889774,86,257495866,0.05005,0.02393,0.02676,0.001417,0.001472,0.02399,0.0001049,5.627e-05,0.1816,0.002998,2.63,0.007151,0,0,0.03516
56100000000,56400000000,4969889774,86,257495866,0.05463,0.02396,0.02676,0.002266,0.002323,0.02399,0.0001078,5.627e-05,0.3032,0.004425,2.858,0.007978,0,0,0.03198
56400000000,56700000000,4969889774,86,257495866,0.05249,0.02393,0.02676,0.001713,0.001768,0.02399,0.0001335,5.627e-05,0.2109,0.005356,3.805,0.01233,0,0,0.05499
56700000000,57000000000,4969889774,86,257495866,0.05371,0.02396,0.02676,0.001453,0.001476,0.02399,0.0001936,5.627e-05,0.3262,0.01036,3.421,0.01036,0,0,0.02179
57000000000,57300000000,4969889774,86,257495866,0.05084,0.02393,0.02676,0.00116,0.001192,0.02396,0.0001011,5.627e-05,0.2112,0.003143,3.387,0.01023,0,0,0.03601
57300000000,57600000000,4969889774,86,257495866,0.04968,0.02393,0.02676,0.001942,0.001972,0.02396,0.000102,5.627e-05,0.1689,0.003643,4.504,0.01486,0,0,0.02771
57600000000,57900000000,4969889774,86,257495866,0.04987,0.02393,0.02676,0.001648,0.00168,0.02396,0.0001135,5.627e-05,0.3301,0.003216,4.224,0.0137,0,0,0.05511
57900000000,58200000000,4969889774,86,257495866,0.05316,0.02396,0.02676,0.001188,0.001223,0.02402,0.0001211,5.627e-05,0.2036,0.009567,4.029,0.01294,0,0,0.06506
58200000000,58500000000,4969889774,86,257495866,0.05646,0.02396,0.02676,0.002007,0.002048,0.02399,0.0001078,5.627e-05,0.1943,0.003716,2.678,0.007308,0,0,0.03687
58500000000,58800000000,4969889774,86,257495866,0.05579,0.02396,0.02676,0.002575,0.002617,0.02402,0.0001173,5.627e-05,0.1943,0.00486,2.608,0.007006,0,0,0.1621
58800000000,59100000000,4969889774,86,257495866,0.05713,0.02393,0.02676,0.002155,0.002201,0.02399,0.0001135,5.627e-05,0.208,0.003929,2.526,0.007135,0,0,0.078
59100000000,59400000000,4969889774,86,257495866,0.05963,0.02399,0.02676,0.001999,0.002052,0.02402,0.000164,5.627e-05,0.2346,0.01436,3.38,0.01024,0,0,0.03888
59400000000,59700000000,4969889774,86,257495866,0.05481,0.02396,0.02676,0.001717,0.001772,0.02402,0.0001144,5.627e-05,0.2097,0.002998,3.002,0.008741,0,0,0.06628
59700000000,60000000000,4969889774,86,257495866,0.05151,0.02393,0.02676,0.002193,0.002251,0.02399,0.0001221,5.627e-05,0.197,0.003998,2.451,0.0065,0,0,0.06042
60000000000,60300000000,4969889774,86,257495866,0.05103,0.02393,0.02676,0.002033,0.00209,0.02396,0.0001135,5.627e-05,0.2114,0.003784,3.685,0.01147,0,0,0.06799
60300000000,60600000000,4969889774,86,257495866,0.05365,0.02393,0.02676,0.002689,0.002743,0.02399,0.0001011,5.627e-05,0.2607,0.004211,3.843,0.0119,0,0,0.03259
60600000000,60900000000,4969889774,86,257495866,0.05597,0.02399,0.02676,0.0006084,0.0006542,0.02405,0.0001249,5.627e-05,0.199,0.005432,4.134,0.01304,0,0,0.04144
111000000000,111300000000,4969889774,86,257495866,0.06506,0.02484,0.02676,0.001825,0.001883,0.02499,0.0002022,5.627e-05,0.251,0.006432,3.14,0.008932,0,0,0.04175
111300000000,111600000000,4969889774,86,257495866,0.07031,0.02493,0.02676,0.001686,0.001743,0.02502,0.0002079,5.627e-05,0.2734,0.008499,2.605,0.006679,0,0,0.04889
111600000000,111900000000,4969889774,86,257495866,0.07349,0.02499,0.02673,0.002098,0.002155,0.02502,0.0002165,5.627e-05,0.2627,0.009567,2.955,0.008021,0,0,0.07288
111900000000,112200000000,4969889774,86,257495866,0.06787,0.02487,0.02676,0.001387,0.001444,0.02502,0.0002022,5.627e-05,0.2354,0.008636,3.805,0.01152,0,0,0.06445
112200000000,112500000000,4969889774,86,257495866,0.07544,0.0249,0.02676,0.001547,0.001602,0.02499,0.0001841,5.627e-05,0.2549,0.006714,3.992,0.01224,0,0,0.103
112500000000,112800000000,4969889774,86,257495866,0.06958,0.02493,0.02673,0.001667,0.001722,0.02499,0.000206,5.627e-05,0.2251,0.006355,3.166,0.008977,0,0,0.1038
112800000000,113100000000,4969889774,86,257495866,0.06812,0.0249,0.02676,0.001446,0.001501,0.02499,0.0002098,5.627e-05,0.2224,0.007431,2.563,0.006603,0,0,0.124
113100000000,113400000000,4969889774,86,257495866,0.06531,0.0249,0.02676,0.002125,0.002178,0.02499,0.0001869,5.627e-05,0.2268,0.007141,3.257,0.009479,0,0,0.03802
113400000000,113700000000,4969889774,86,257495866,0.07361,0.02487,0.02676,0.001755,0.001806,0.02499,0.0002117,5.627e-05,0.2798,0.00972,2.845,0.007457,0,0,0.0675
113700000000,114000000000,4969889774,86,257495866,0.07556,0.02484,0.02676,0.001251,0.001305,0.02493,0.0001831,5.627e-05,0.2158,0.01286,2.678,0.007214,0,0,0.121
114000000000,114300000000,4969889774,86,257495866,0.06909,0.02484,0.02676,0.001228,0.001284,0.02496,0.0001869,5.627e-05,0.2354,0.006073,4.156,0.01304,0,0,0.04309
114300000000,114600000000,4969889774,86,257495866,0.06641,0.02484,0.02676,0.001223,0.001278,0.02493,0.0001602,5.627e-05,0.219,0.009079,2.551,0.00662,0,0,0.1465
114600000000,114900000000,4969889774,86,257495866,0.06494,0.02484,0.02676,0.001938,0.001991,0.0249,0.0001535,5.627e-05,0.2812,0.006073,2.641,0.007198,0,0,0.05487
114900000000,115200000000,4969889774,86,257495866,0.06824,0.02487,0.02676,0.001028,0.001081,0.02493,0.0001802,5.627e-05,0.2205,0.008713,3.812,0.01146,0,0,0.04449
115200000000,115500000000,4969889774,86,257495866,0.05389,0.02478,0.02676,0.001015,0.00107,0.0249,0.0001249,5.627e-05,0.208,0.003857,3.286,0.00912,0,0,0.07642
115500000000,115800000000,4969889774,86,257495866,0.05206,0.02472,0.02676,0.001554,0.00161,0.02478,0.0001373,5.627e-05,0.2058,0.007713,2.421,0.005855,0,0,0.03027
115800000000,116100000000,4969889774,86,257495866,0.05115,0.02475,0.02676,0.001326,0.001381,0.02484,0.0001402,5.627e-05,0.2959,0.007141,3.79,0.01123,0,0,0.09241
81000000000,81300000000,4969889774,86,257495866,0.05334,0.02423,0.02676,0.001474,0.001528,0.02426,0.0001106,5.627e-05,0.189,0.004356,3.777,0.01256,0,0,0.02563
81300000000,81600000000,4969889774,86,257495866,0.0506,0.0242,0.02676,0.0007477,0.0008011,0.02423,9.251e-05,5.722e-05,0.2024,0.003284,2.725,0.008099,0,0,0.02356
81600000000,81900000000,4969889774,86,257495866,0.05115,0.02423,0.02676,0.001223,0.001276,0.02426,0.0001249,5.627e-05,0.1851,0.0065,4.073,0.01383,0,0,0.02249
81900000000,82200000000,4969889774,86,257495866,0.05426,0.0242,0.02676,0.00161,0.001665,0.02423,0.0001097,5.627e-05,0.2061,0.004211,4.693,0.01637,0,0,0.04181
82200000000,82500000000,4969889774,86,257495866,0.05066,0.0242,0.02676,0.001394,0.001448,0.02423,7.439e-05,5.627e-05,0.1904,0.002785,4.49,0.01539,0,0,0.02594
82500000000,82800000000,4969889774,86,257495866,0.05121,0.02423,0.02676,0.001011,0.001064,0.02426,0.0001125,5.627e-05,0.1792,0.00486,2.45,0.006774,0,0,0.07593
82800000000,83100000000,4969889774,86,257495866,0.05396,0.0242,0.02676,0.001728,0.001781,0.02426,0.0001106,5.722e-05,0.271,0.004929,3.947,0.01316,0,0,0.02667
83100000000,83400000000,4969889774,86,257495866,0.05298,0.02423,0.02676,0.001537,0.001591,0.02429,0.000103,5.627e-05,0.1865,0.005287,4.332,0.01464,0,0,0.06641
83400000000,83700000000,4969889774,86,257495866,0.04968,0.0242,0.02676,0.0007524,0.0008059,0.0242,0.000104,5.627e-05,0.21,0.004143,2.285,0.006265,0,0,0.05286
83700000000,84000000000,4969889774,86,257495866,0.04736,0.02417,0.02676,0.001295,0.00135,0.0242,6.485e-05,5.627e-05,0.1899,0.003071,2.652,0.008,0,0,0.06787
84000000000,84300000000,4969889774,86,257495866,0.04749,0.0242,0.02676,0.0008678,0.0009212,0.02423,7.82e-05,5.627e-05,0.2478,0.002857,5.096,0.01828,0,0,0.03314
84300000000,84600000000,4969889774,86,257495866,0.04706,0.0242,0.02676,0.001032,0.001085,0.02423,0.0001011,5.627e-05,0.271,0.003502,3.246,0.01,0,0,0.05011
84600000000,84900000000,4969889774,86,257495866,0.05042,0.0242,0.02676,0.0007496,0.000803,0.02432,0.000104,5.627e-05,0.2261,0.007782,3.899,0.01259,0,0,0.06079
84900000000,85200000000,4969889774,86,257495866,0.04932,0.0242,0.02676,0.001369,0.001423,0.02429,0.0001202,5.722e-05,0.3359,0.005859,4.587,0.01544,0,0,0.05121
85200000000,85500000000,4969889774,86,257495866,0.04834,0.0242,0.02676,0.0009184,0.0009718,0.02423,9.06e-05,5.627e-05,0.2102,0.00293,4.524,0.01496,0,0,0.03979
85500000000,85800000000,4969889774,86,257495866,0.04987,0.0242,0.02676,0.0007935,0.0008478,0.02423,9.346e-05,5.722e-05,0.2097,0.003429,1.826,0.004077,0,0,0.03796
156000000000,156300000000,4969889774,86,257495866,0.07043,0.02481,0.02673,0.00189,0.001945,0.0249,0.0001497,5.627e-05,2.871,0.005142,4.205,0.01391,0,0,0.09534
156300000000,156600000000,4969889774,86,257495866,0.07483,0.02478,0.02673,0.001284,0.001337,0.02484,0.0001698,5.627e-05,0.2117,0.005859,4.337,0.01393,0,0,0.08838
156600000000,156900000000,4969889774,86,257495866,0.08105,0.0249,0.02673,0.001467,0.001518,0.02496,0.0001812,5.627e-05,0.2705,0.004997,2.476,0.006248,0,0,0.04376
156900000000,157200000000,4969889774,86,257495866,0.08276,0.02493,0.02673,0.001675,0.001726,0.02512,0.0001869,5.627e-05,0.3018,0.00885,2.371,0.00587,0,0,0.1226
157200000000,157500000000,4969889774,86,257495866,0.07703,0.02487,0.02673,0.00176,0.001812,0.0249,0.0001936,5.627e-05,0.2173,0.007355,3.712,0.01154,0,0,0.2024
157500000000,157800000000,4969889774,86,257495866,0.07861,0.02481,0.02673,0.0009823,0.001034,0.02487,0.0001726,5.627e-05,0.2351,0.006783,2.952,0.008738,0,0,0.04376
157800000000,158100000000,4969889774,86,257495866,0.07861,0.02481,0.02673,0.001125,0.001175,0.02487,0.0001926,5.627e-05,0.2988,0.007782,3.97,0.01292,0,0,0.1628
158100000000,158400000000,4969889774,86,257495866,0.08276,0.02484,0.02673,0.0009842,0.001036,0.02493,0.0001974,5.627e-05,0.2327,0.006287,3.589,0.01112,0,0,0.06219
158400000000,158700000000,4969889774,86,257495866,0.08496,0.02484,0.02673,0.001482,0.001534,0.02487,0.0001974,5.627e-05,0.2871,0.01428,3.281,0.009817,0,0,0.1335
158700000000,159000000000,4969889774,86,257495866,0.07507,0.02484,0.02673,0.001894,0.001947,0.0249,0.0001984,5.627e-05,0.2324,0.006355,3.352,0.01017,0,0,0.04797
159000000000,159300000000,4969889774,86,257495866,0.07886,0.02481,0.02673,0.001356,0.00141,0.0249,0.000186,5.627e-05,0.2085,0.007072,3.353,0.01044,0,0,0.07214
159300000000,159600000000,4969889774,86,257495866,0.08447,0.0249,0.02673,0.001158,0.001211,0.02496,0.0001783,5.627e-05,0.2773,0.007713,2.953,0.008618,0,0,0.1199
159600000000,159900000000,4969889774,86,257495866,0.07703,0.02484,0.02673,0.001715,0.001768,0.02493,0.0001688,5.627e-05,0.2449,0.005783,4.028,0.01272,0,0,0.1985
159900000000,160200000000,4969889774,86,257495866,0.07703,0.02481,0.02673,0.001797,0.00185,0.02487,0.0001736,5.627e-05,0.4111,0.006714,2.453,0.006497,0,0,0.07227
160200000000,160500000000,4969889774,86,257495866,0.07227,0.02472,0.02673,0.002098,0.002151,0.02478,0.0001469,5.627e-05,0.2214,0.004288,3.069,0.008934,0,0,0.03802
160500000000,160800000000,4969889774,86,257495866,0.06982,0.02472,0.02673,0.001543,0.001595,0.02475,0.0001354,5.627e-05,0.3008,0.004356,4.677,0.01579,0,0,0.06335
160800000000,161100000000,4969889774,86,257495866,0.07043,0.02472,0.02673,0.00149,0.001541,0.02478,0.000124,5.627e-05,0.1934,0.004288,3.241,0.00985,0,0,0.0509
900000000,1200000000,4969889774,86,257495866,0.0379,0.02338,0.02676,0.00214,0.002254,0.02341,7.248e-05,5.627e-05,0.1663,0.002357,3.804,0.01235,0,0,0.0415
1500000000,1800000000,4969889774,86,257495866,0.03912,0.02338,0.02676,0.001995,0.002102,0.02344,6.676e-05,5.627e-05,0.2214,0.002998,2.637,0.007476,0,0,0.04297
2100000000,2400000000,4969889774,86,257495866,0.03943,0.02338,0.02676,0.002758,0.00285,0.02341,6.39e-05,5.531e-05,0.1719,0.002998,3.327,0.01034,0,0,0.04395
2700000000,3000000000,4969889774,86,257495866,0.03479,0.02338,0.02676,0.003384,0.003445,0.02341,7.725e-05,5.722e-05,0.2302,0.002285,4.394,0.01418,0,0,0.01797
5100000000,5400000000,4969889774,86,257495866,0.04187,0.02338,0.02676,0.001987,0.002045,0.02344,0.0001898,5.722e-05,0.3232,0.004143,3.256,0.009302,0,0,0.03436
5400000000,5700000000,4969889774,86,257495866,0.03644,0.02341,0.02676,0.002209,0.002266,0.02347,8.011e-05,5.627e-05,0.1873,0.003357,2.846,0.007771,0,0,0.04211
116100000000,116400000000,4969889774,86,257495866,0.05109,0.02472,0.02676,0.001745,0.001801,0.02475,0.0001125,5.722e-05,0.4785,0.003857,2.279,0.005518,0,0,0.03973
116400000000,116700000000,4969889774,86,257495866,0.04858,0.02472,0.02676,0.001186,0.00124,0.02478,0.0001717,5.436e-05,0.3379,0.008362,2.937,0.007871,0,0,0.02936
116700000000,117000000000,4969889774,86,257495866,0.05487,0.02478,0.02676,0.001596,0.00165,0.02481,0.0001593,5.627e-05,0.2083,0.005211,2.418,0.005904,0,0,0.06995
117000000000,117300000000,4969889774,86,257495866,0.0567,0.02478,0.02676,0.001476,0.001532,0.02484,0.0001516,5.627e-05,0.2886,0.006645,2.78,0.007148,0,0,0.04443
117300000000,117600000000,4969889774,86,257495866,0.05865,0.02484,0.02676,0.001368,0.001421,0.02487,0.0001726,5.627e-05,0.2993,0.007568,3.639,0.01054,0,0,0.09021
117600000000,117900000000,4969889774,86,257495866,0.06848,0.02484,0.02673,0.001297,0.001348,0.0249,0.0001574,5.627e-05,0.2397,0.005142,3.275,0.009456,0,0,0.04016
117900000000,118200000000,4969889774,86,257495866,0.06195,0.02481,0.02673,0.001596,0.001648,0.02487,0.0001316,5.627e-05,0.2407,0.005074,2.19,0.005573,0,0,0.05017
118200000000,118500000000,4969889774,86,257495866,0.05957,0.02484,0.02676,0.001715,0.001766,0.02493,0.0001354,5.627e-05,0.2205,0.005287,3.834,0.01207,0,0,0.1636
118500000000,118800000000,4969889774,86,257495866,0.04498,0.02472,0.02676,0.001545,0.001593,0.02478,0.0001001,5.627e-05,0.189,0.003857,3.513,0.01066,0,0,0.04645
118800000000,119100000000,4969889774,86,257495866,0.04993,0.02472,0.02676,0.001865,0.001915,0.02475,0.0001259,5.722e-05,0.2078,0.008499,3.556,0.01053,0,0,0.116
119100000000,119400000000,4969889774,86,257495866,0.04596,0.02469,0.02676,0.001799,0.00185,0.02472,0.0001059,5.627e-05,0.2427,0.003502,3.115,0.008715,0,0,0.0376
119400000000,119700000000,4969889774,86,257495866,0.04462,0.02469,0.02676,0.00145,0.001501,0.02478,0.0001059,5.627e-05,0.1907,0.003929,3.628,0.01142,0,0,0.03036
119700000000,120000000000,4969889774,86,257495866,0.04529,0.02469,0.02676,0.001766,0.001818,0.02472,8.774e-05,5.627e-05,0.2397,0.003143,3.974,0.01282,0,0,0.04456
120000000000,120300000000,4969889774,86,257495866,0.04694,0.02469,0.02676,0.0014,0.001451,0.02475,0.000103,5.627e-05,0.3169,0.002857,3.943,0.01266,0,0,0.03192
120300000000,120600000000,4969889774,86,257495866,0.04724,0.02469,0.02676,0.001911,0.001965,0.02472,9.918e-05,5.722e-05,0.1768,0.003143,2.576,0.006997,0,0,0.07251
120600000000,120900000000,4969889774,86,257495866,0.04718,0.02469,0.02676,0.001455,0.001507,0.02475,0.0002041,5.627e-05,0.3677,0.003784,3.472,0.0108,0,0,0.04456
16500000000,16800000000,4969889774,86,257495866,0.03656,0.02371,0.02676,0.001564,0.001621,0.02377,7.057e-05,5.722e-05,0.3013,0.003429,3.128,0.008892,0,0,0.02621
16800000000,17100000000,4969889774,86,257495866,0.05573,0.02393,0.02676,0.001772,0.001831,0.02411,0.000144,5.627e-05,0.3975,0.01108,2.269,0.005097,0,0,0.02011
17100000000,17400000000,4969889774,86,257495866,0.0354,0.02377,0.02676,0.001528,0.001587,0.02383,7.439e-05,5.722e-05,0.3564,0.002285,3.328,0.009823,0,0,0.01572
18000000000,18300000000,4969889774,86,257495866,0.03055,0.02371,0.02676,0.001717,0.001776,0.02374,7.343e-05,5.722e-05,0.1968,0.002785,1.823,0.00403,0,0,0.01834
18300000000,18600000000,4969889774,86,257495866,0.03229,0.02371,0.02676,0.001884,0.001942,0.02377,6.008e-05,5.531e-05,0.1736,0.00293,3.096,0.009017,0,0,0.02945
18600000000,18900000000,4969889774,86,257495866,0.03363,0.02377,0.02676,0.001352,0.00141,0.0238,7.248e-05,5.722e-05,0.229,0.002357,3.137,0.008935,0,0,0.02554
19500000000,19800000000,4969889774,86,257495866,0.03406,0.02377,0.02676,0.001614,0.001673,0.0238,7.057e-05,5.722e-05,0.2209,0.002357,3.661,0.01125,0,0,0.02606
20400000000,20700000000,4969889774,86,257495866,0.03424,0.02374,0.02676,0.002045,0.002106,0.02374,6.39e-05,5.627e-05,0.176,0.002144,4.04,0.01272,0,0,0.01688
35700000000,36000000000,4969889774,86,257495866,0.0343,0.02377,0.02676,0.001265,0.001324,0.0238,8.011e-05,5.722e-05,0.1738,0.00243,3.016,0.009093,0,0,0.04779
36000000000,36300000000,4969889774,86,257495866,0.03455,0.02374,0.02676,0.000988,0.001047,0.0238,6.39e-05,5.531e-05,0.2095,0.001999,3.141,0.009623,0,0,0.03522
36300000000,36600000000,4969889774,86,257495866,0.03534,0.0238,0.02679,0.001547,0.001606,0.02386,8.583e-05,5.722e-05,0.2583,0.005714,3.39,0.01065,0,0,0.02176
36600000000,36900000000,4969889774,86,257495866,0.0387,0.02383,0.02682,0.002167,0.002224,0.02393,8.392e-05,5.627e-05,0.2275,0.004211,3.089,0.00895,0,0,0.02628
37200000000,37500000000,4969889774,86,257495866,0.03748,0.02377,0.02686,0.00206,0.002121,0.02383,6.199e-05,5.627e-05,0.272,0.002213,3.82,0.01238,0,0,0.0343
38100000000,38400000000,4969889774,86,257495866,0.03595,0.02377,0.02676,0.001205,0.001263,0.0238,6.104e-05,5.627e-05,0.2083,0.002644,3.723,0.01145,0,0,0.01408
38400000000,38700000000,4969889774,86,257495866,0.03845,0.02377,0.02676,0.001038,0.001095,0.0238,9.727e-05,5.722e-05,0.1519,0.003284,4.157,0.01319,0,0,0.02872
38700000000,39000000000,4969889774,86,257495866,0.04218,0.02374,0.02679,0.0006247,0.0006819,0.02377,0.0001192,5.531e-05,0.2019,0.003998,4.914,0.01677,0,0,0.09033
39300000000,39600000000,4969889774,86,257495866,0.04395,0.02383,0.02676,0.0007925,0.0008497,0.02386,8.869e-05,5.627e-05,0.3242,0.002499,4.927,0.01652,0,0,0.0387
39600000000,39900000000,4969889774,86,257495866,0.04553,0.02383,0.02676,0.001133,0.00119,0.0239,8.488e-05,5.627e-05,0.1895,0.002285,4.645,0.01574,0,0,0.06189
39900000000,40200000000,4969889774,86,257495866,0.03906,0.0238,0.02676,0.001112,0.001169,0.02386,7.343e-05,5.627e-05,0.2063,0.003357,4.313,0.01442,0,0,0.02982
40200000000,40500000000,4969889774,86,257495866,0.03754,0.0238,0.02676,0.001198,0.001255,0.02383,8.011e-05,5.627e-05,0.2246,0.002571,3.777,0.01168,0,0,0.03943
75900000000,76200000000,4969889774,86,257495866,0.06299,0.02426,0.02676,0.002335,0.002392,0.02432,0.0001144,5.627e-05,0.2087,0.003643,2.944,0.008568,0,0,0.09485
76200000000,76500000000,4969889774,86,257495866,0.05682,0.02426,0.02673,0.002018,0.002071,0.02429,0.0001516,5.627e-05,0.2244,0.004715,2.95,0.008405,0,0,0.04175
76500000000,76800000000,4969889774,86,257495866,0.05798,0.02423,0.02676,0.002102,0.002155,0.02429,0.0001307,5.722e-05,0.1853,0.003284,3.869,0.01243,0,0,0.0412
76800000000,77100000000,4969889774,86,257495866,0.05811,0.02423,0.02676,0.002533,0.00259,0.02432,0.0001221,5.627e-05,0.1997,0.003784,3.897,0.01245,0,0,0.04889
77100000000,77400000000,4969889774,86,257495866,0.05359,0.0242,0.02676,0.00165,0.001705,0.02429,0.0001202,5.627e-05,0.1873,0.004356,4.052,0.01305,0,0,0.03748
77400000000,77700000000,4969889774,86,257495866,0.05695,0.02426,0.02676,0.001699,0.001755,0.02426,0.0001173,5.627e-05,0.3018,0.004211,2.555,0.006879,0,0,0.0575
77700000000,78000000000,4969889774,86,257495866,0.05658,0.02426,0.02673,0.001543,0.001598,0.02432,0.0001707,5.627e-05,0.2495,0.0125,3.856,0.01215,0,0,0.04187
78000000000,78300000000,4969889774,86,257495866,0.06012,0.02426,0.02676,0.001789,0.001846,0.02432,0.0001497,5.627e-05,0.2349,0.005928,2.527,0.0068,0,0,0.04248
78300000000,78600000000,4969889774,86,257495866,0.06372,0.02429,0.02673,0.00178,0.001835,0.02435,0.0001287,5.627e-05,0.208,0.003429,4.528,0.01524,0,0,0.1224
78600000000,78900000000,4969889774,86,257495866,0.06311,0.02429,0.02673,0.001715,0.001747,0.02432,0.0001707,5.627e-05,0.2183,0.01015,4.949,0.01719,0,0,0.1232
78900000000,79200000000,4969889774,86,257495866,0.0592,0.02426,0.02676,0.001629,0.001682,0.02432,0.0001163,5.627e-05,0.1855,0.003143,2.696,0.007744,0,0,0.05121
79200000000,79500000000,4969889774,86,257495866,0.05896,0.02426,0.02676,0.001968,0.002022,0.02432,0.0001173,5.627e-05,0.2227,0.004784,3.138,0.009536,0,0,0.1022
79500000000,79800000000,4969889774,86,257495866,0.0589,0.02429,0.02676,0.002277,0.002331,0.02429,0.0001345,5.627e-05,0.1941,0.0065,4.217,0.0144,0,0,0.07166
79800000000,80100000000,4969889774,86,257495866,0.05524,0.02426,0.02676,0.001965,0.002018,0.02429,0.0001087,5.627e-05,0.2295,0.003216,3.923,0.01279,0,0,0.0658
80100000000,80400000000,4969889774,86,257495866,0.05365,0.02426,0.02676,0.001871,0.001926,0.02429,0.0001087,5.627e-05,0.2129,0.003429,4.571,0.0158,0,0,0.03278
80400000000,80700000000,4969889774,86,257495866,0.05591,0.02426,0.02676,0.002396,0.002449,0.02429,0.0001154,5.627e-05,0.2471,0.002857,4.45,0.01536,0,0,0.05109
80700000000,81000000000,4969889774,86,257495866,0.05518,0.02426,0.02676,0.002117,0.002171,0.02432,0.0001059,5.627e-05,0.2253,0.005211,4.008,0.01355,0,0,0.02301
10800000000,11100000000,4969889774,86,257495866,0.03986,0.02377,0.02676,0.001171,0.001228,0.0238,7.057e-05,5.627e-05,0.1682,0.002499,2.529,0.007112,0,0,0.01974
11100000000,11400000000,4969889774,86,257495866,0.03601,0.02377,0.02676,0.001226,0.001284,0.0238,7.343e-05,5.627e-05,0.3018,0.00243,2.655,0.007219,0,0,0.02878
11400000000,11700000000,4969889774,86,257495866,0.03717,0.02374,0.02676,0.0005388,0.000596,0.02377,6.39e-05,5.627e-05,0.2207,0.002285,4.465,0.01473,0,0,0.06494
12900000000,13200000000,4969889774,86,257495866,0.04376,0.02383,0.02676,0.0007801,0.0008373,0.02386,9.06e-05,5.627e-05,0.2219,0.003216,4.403,0.014,0,0,0.04407
13200000000,13500000000,4969889774,86,257495866,0.03876,0.02383,0.02676,0.001326,0.001383,0.0239,7.343e-05,5.627e-05,0.1917,0.003143,4.103,0.01273,0,0,0.02951
13500000000,13800000000,4969889774,86,257495866,0.04071,0.02383,0.02676,0.001141,0.001198,0.02386,8.392e-05,5.627e-05,0.207,0.002998,2.596,0.007072,0,0,0.02322
13800000000,14100000000,4969889774,86,257495866,0.04083,0.0238,0.02676,0.001106,0.001163,0.02383,8.583e-05,5.627e-05,0.2205,0.003071,3.671,0.01126,0,0,0.02188
14100000000,14400000000,4969889774,86,257495866,0.03772,0.02377,0.02676,0.001564,0.001621,0.0238,8.869e-05,5.627e-05,0.1978,0.003857,3.177,0.009362,0,0,0.05475
14400000000,14700000000,4969889774,86,257495866,0.04199,0.02377,0.02676,0.002056,0.002117,0.0238,0.0001745,5.722e-05,0.1951,0.004501,4.05,0.0126,0,0,0.02866
14700000000,15000000000,4969889774,86,257495866,0.03772,0.02377,0.02676,0.00214,0.002197,0.0238,9.823e-05,5.531e-05,0.1885,0.003429,4.363,0.01343,0,0,0.01636
15000000000,15300000000,4969889774,86,257495866,0.04236,0.02377,0.02676,0.001637,0.001694,0.0238,0.0001078,5.722e-05,0.2278,0.003857,5.044,0.01585,0,0,0.0791
15300000000,15600000000,4969889774,86,257495866,0.04114,0.02377,0.02676,0.002151,0.002209,0.0238,8.869e-05,5.627e-05,0.1858,0.002998,4.379,0.01318,0,0,0.03815
15600000000,15900000000,4969889774,86,257495866,0.039,0.0238,0.02676,0.002491,0.002548,0.02383,8.965e-05,5.627e-05,0.1963,0.003071,3.3,0.008901,0,0,0.04016
