5700000000,6000000000,501114088,0,711969,7.534e-05,0.0004587,0.001938,0.000185,0.0004053,0.0004587,0,0,0.0002737,0,10.97,0.04843,0,0,8.106e-05
6000000000,6300000000,501114088,0,711969,7.439e-05,0.0004625,0.001938,0.000185,0.0004053,0.0004673,0,0,0.0003223,7.153e-05,10.98,0.04901,0,0,7.629e-06
6300000000,6600000000,501114088,0,711969,7.343e-05,0.0004635,0.001938,0.000185,0.0004053,0.0004749,0,0,0.0003529,0,10.78,0.04835,0,0,1.431e-05
6600000000,6900000000,501114088,0,711969,7.439e-05,0.0004625,0.001938,0.000185,0.0004053,0.0004673,0,0,0.00033,7.153e-05,10.64,0.04782,0,0,2.48e-05
6900000000,7200000000,501114088,0,711969,7.725e-05,0.0004587,0.001938,0.000185,0.0004053,0.0004587,0,0,0.0003204,0,11.39,0.04965,0,0,3.815e-06
7200000000,7500000000,501114088,0,711969,7.343e-05,0.0004625,0.001938,0.000185,0.0004053,0.0004673,0,0,0.0003777,7.153e-05,10.86,0.0481,0,0,3.052e-05
7500000000,7800000000,501114088,0,711969,7.343e-05,0.0004587,0.001938,0.000185,0.0004053,0.0004587,0,0,0.0003309,0,10.74,0.04848,0,0,3.242e-05
7800000000,8100000000,501114088,0,711969,7.343e-05,0.0004616,0.001938,0.000185,0.0004053,0.0004673,0,0,0.0002899,7.153e-05,11.06,0.04803,0,0,0.0001125
8100000000,8400000000,501114088,0,711969,6.866e-05,0.0004587,0.001938,0.000185,0.0004053,0.0004587,0,0,0.0002613,0,9.979,0.04618,0,0,6.58e-05
8400000000,8700000000,501114088,0,711969,7.534e-05,0.0004616,0.001938,0.000185,0.0004053,0.0004673,0,0,0.0003128,7.153e-05,10.93,0.04906,0,0,7.82e-05
8700000000,9000000000,501114088,0,711969,8.011e-05,0.0004587,0.001938,0.000185,0.0004053,0.0004587,0,0,0.0003157,0,11.7,0.04945,0,0,0.0001955
9000000000,9300000000,501114088,0,711969,7.915e-05,0.0004616,0.001938,0.000185,0.0004053,0.0004673,0,0,0.0003643,7.153e-05,11.66,0.04965,0,0,5.436e-05
9300000000,9600000000,501114088,0,711969,8.011e-05,0.0004587,0.001938,0.000185,0.0004063,0.0004587,0,0,0.0004044,0,11.68,0.04975,0,0,8.869e-05
9600000000,9900000000,501114088,0,711969,8.297e-05,0.0004673,0.001938,0.000185,0.0004063,0.0004835,0,0,0.0002995,7.153e-05,11.86,0.04993,0,0,4.005e-05
9900000000,10200000000,501114088,0,711969,8.011e-05,0.0004625,0.001938,0.000185,0.0004063,0.0004692,0,0,0.000371,7.153e-05,11.98,0.04947,0,0,6.771e-05
10200000000,10500000000,501114088,0,711969,7.82e-05,0.0004625,0.001938,0.000185,0.0004063,0.0004683,0,0,0.0004559,7.153e-05,11.77,0.0498,0,0,2.956e-05
10500000000,10800000000,501114088,0,711969,7.725e-05,0.0004587,0.001938,0.000185,0.0004063,0.0004587,0,0,0.0003166,0,11.36,0.04905,0,0,5.817e-05
10800000000,11100000000,501114088,0,711969,7.915e-05,0.0004616,0.001938,0.000185,0.0004063,0.0004673,0,0,0.0003204,7.153e-05,11.6,0.04915,0,0,4.387e-05
11100000000,11400000000,501114088,0,711969,7.629e-05,0.0004587,0.001938,0.000185,0.0004063,0.0004587,0,0,0.001995,0,11.29,0.04887,0,0,3.719e-05
11400000000,11700000000,501114088,0,711969,7.725e-05,0.0004616,0.001938,0.000185,0.0004063,0.0004673,0,0,0.0004759,7.153e-05,11.25,0.04915,0,0,4.196e-05
11700000000,12000000000,501114088,0,711969,7.534e-05,0.0004587,0.001938,0.000185,0.0004063,0.0004587,0,0,0.0005302,0,11.05,0.04823,0,0,0.0001192
12000000000,12300000000,501114088,0,711969,7.343e-05,0.0004616,0.001938,0.000185,0.0004063,0.0004673,0,0,0.0005388,7.153e-05,11.37,0.04829,0,0,3.433e-05
12300000000,12600000000,501114088,0,711969,7.82e-05,0.0004587,0.001938,0.000185,0.0004063,0.0004587,0,0,0.0004873,0,11.47,0.04953,0,0,6.962e-05
12600000000,12900000000,501114088,0,711969,7.915e-05,0.0004625,0.001938,0.000185,0.0004063,0.0004683,0,0,0.0005093,7.153e-05,11.8,0.05007,0,0,0.0001326
12900000000,13200000000,501114088,0,711969,7.534e-05,0.0004587,0.001938,0.000185,0.0004063,0.0004587,0,0,0.0002403,0,11.1,0.04874,0,0,0.0001011
13200000000,13500000000,501114088,0,711969,7.915e-05,0.0004625,0.001938,0.000185,0.0004063,0.0004673,0,0,0.0002613,7.153e-05,11.38,0.04879,0,0,1.717e-05
13500000000,13800000000,501114088,0,711969,8.011e-05,0.0004587,0.001938,0.000185,0.0004063,0.0004587,0,0,0.0002785,0,11.63,0.04964,0,0,4.005e-05
13800000000,14100000000,501114088,0,711969,7.629e-05,0.0004616,0.001938,0.000185,0.0004063,0.0004673,0,0,0.0004091,7.153e-05,11.17,0.04904,0,0,3.052e-05
14100000000,14400000000,501114088,0,711969,7.439e-05,0.0004587,0.001938,0.000185,0.0004063,0.0004587,0,0,0.0003176,0,10.79,0.04786,0,0,0.0001621
14400000000,14700000000,501114088,0,711969,7.439e-05,0.0004616,0.001938,0.000185,0.0004063,0.0004673,0,0,0.0002489,7.153e-05,11.26,0.04912,0,0,3.052e-05
14700000000,15000000000,501114088,0,711969,7.439e-05,0.0004578,0.001938,0.000185,0.0004063,0.0004578,0,0,0.0002594,0,11.21,0.04904,0,0,9.537e-06
15000000000,15300000000,501114088,0,711969,7.534e-05,0.0004616,0.001938,0.000185,0.0004063,0.0004673,0,0,0.0005817,7.153e-05,11.32,0.04926,0,0,4.196e-05
15300000000,15600000000,501114088,0,711969,7.439e-05,0.0004578,0.001938,0.000185,0.0004063,0.0004578,0,0,0.0002451,0,11.35,0.04904,0,0,0.0001631
15600000000,15900000000,501114088,0,711969,7.629e-05,0.0004616,0.001938,0.000185,0.0004063,0.0004673,0,0,0.0009384,7.153e-05,11.69,0.0501,0,0,3.815e-05
15900000000,16200000000,501114088,0,711969,7.343e-05,0.0004578,0.001938,0.000185,0.0004063,0.0004578,0,0,0.0002642,0,11.18,0.04941,0,0,0.0001049
16200000000,16500000000,501114088,0,711969,7.439e-05,0.0004616,0.001938,0.000185,0.0004063,0.0004673,0,0,0.0005188,7.153e-05,11.09,0.04901,0,0,3.529e-05
16500000000,16800000000,501114088,0,711969,7.534e-05,0.0004578,0.001938,0.000185,0.0004063,0.0004587,0,0,0.00033,0,11.07,0.04875,0,0,3.529e-05
16800000000,17100000000,501114088,0,711969,7.725e-05,0.0004644,0.001938,0.000185,0.0004063,0.0004787,0,0,0.0003586,7.153e-05,11.33,0.04897,0,0,5.054e-05
17100000000,17400000000,501114088,0,711969,7.534e-05,0.0004663,0.001938,0.000185,0.0004063,0.0004826,0,0,0.0006857,7.153e-05,11.06,0.04891,0,0,0.0001116
17400000000,17700000000,501114088,0,711969,7.534e-05,0.0004635,0.001938,0.000185,0.0004063,0.0004692,0,0,0.0002623,7.153e-05,11.44,0.04938,0,0,8.869e-05
17700000000,18000000000,501114088,0,711969,7.439e-05,0.0004597,0.001938,0.000185,0.0004063,0.0004597,0,0,0.0002785,0,11.04,0.04907,0,0,2.384e-05
18000000000,18300000000,501114088,0,711969,7.439e-05,0.0004635,0.001938,0.000185,0.0004063,0.0004683,0,0,0.001469,7.153e-05,11.11,0.04939,0,0,0.0001049
18300000000,18600000000,501114088,0,711969,7.629e-05,0.0004597,0.001938,0.000185,0.0004063,0.0004597,0,0,0.0002785,0,11.28,0.04909,0,0,3.147e-05
18600000000,18900000000,501114088,0,711969,7.629e-05,0.0004635,0.001938,0.000185,0.0004063,0.0004683,0,0,0.0002966,7.153e-05,11.51,0.04984,0,0,8.106e-05
18900000000,19200000000,501114088,0,711969,7.248e-05,0.0004597,0.001938,0.000185,0.0004063,0.0004597,0,0,0.0002317,0,10.78,0.04793,0,0,1.812e-05
19200000000,19500000000,501114088,0,711969,7.343e-05,0.0004635,0.001938,0.000185,0.0004063,0.0004692,0,0,0.0002708,7.153e-05,11.15,0.04868,0,0,1.526e-05
19500000000,19800000000,501114088,0,711969,7.248e-05,0.0004597,0.001938,0.000185,0.0004063,0.0004597,0,0,0.0002289,0,10.98,0.04753,0,0,3.338e-05
19800000000,20100000000,501114088,0,711969,7.153e-05,0.0004635,0.001938,0.000185,0.0004063,0.0004683,0,0,0.0002928,7.153e-05,10.56,0.04762,0,0,5.436e-05
20100000000,20400000000,501114088,0,711969,7.343e-05,0.0004597,0.001938,0.000185,0.0004063,0.0004597,0,0,0.0002556,0,10.68,0.0477,0,0,3.719e-05
20400000000,20700000000,501114088,0,711969,7.343e-05,0.0004683,0.001938,0.000185,0.0004063,0.0004807,0,0,0.0002642,7.153e-05,11.06,0.04858,0,0,0.0001192
20700000000,21000000000,501114088,0,711969,7.057e-05,0.0004597,0.001938,0.000185,0.0004063,0.0004597,0,0,0.0003862,0,10.42,0.04746,0,0,6.866e-05
21000000000,21300000000,501114088,0,711969,7.153e-05,0.0004635,0.001938,0.000185,0.0004063,0.0004692,0,0,0.0004892,7.153e-05,10.52,0.04739,0,0,4.768e-06
21300000000,21600000000,501114088,0,711969,7.153e-05,0.0004597,0.001938,0.000185,0.0004063,0.0004597,0,0,0.0006046,0,10.53,0.0472,0,0,0.0001612
21600000000,21900000000,501114088,0,711969,7.343e-05,0.0004635,0.001938,0.000185,0.0004063,0.0004692,0,0,0.0006695,7.153e-05,11.01,0.04871,0,0,3.338e-05
21900000000,22200000000,501114088,0,711969,7.248e-05,0.0004597,0.001938,0.000185,0.0004063,0.0004597,0,0,0.000495,0,10.89,0.04822,0,0,0.0001612
22200000000,22500000000,501114088,0,711969,7.439e-05,0.0004635,0.001938,0.000185,0.0004063,0.0004692,0,0,0.0005198,7.153e-05,10.82,0.04791,0,0,0.0001755
22500000000,22800000000,501114088,0,711969,7.439e-05,0.0004597,0.001938,0.000185,0.0004063,0.0004597,0,0,0.0005722,0,11.15,0.0486,0,0,2.48e-05
22800000000,23100000000,501114088,0,711969,7.343e-05,0.0004635,0.001938,0.000185,0.0004063,0.0004692,0,0,0.000432,7.153e-05,10.81,0.04778,0,0,1.907e-06
23100000000,23400000000,501114088,0,711969,7.534e-05,0.0004597,0.001938,0.000185,0.0004063,0.0004606,0,0,0.0002718,0,11.34,0.0491,0,0,1.049e-05
23400000000,23700000000,501114088,0,711969,7.439e-05,0.0004635,0.001938,0.000185,0.0004063,0.0004683,0,0,0.0003347,7.153e-05,11.2,0.0487,0,0,4.864e-05
23700000000,24000000000,501114088,0,711969,7.343e-05,0.0004597,0.001938,0.000185,0.0004063,0.0004597,0,0,0.0002747,0,10.82,0.04801,0,0,0.0001631
24000000000,24300000000,501114088,0,711969,7.439e-05,0.0004635,0.001938,0.000185,0.0004063,0.0004692,0,0,0.0002766,7.153e-05,10.8,0.04779,0,0,0.0001345
24300000000,24600000000,501114088,0,711969,7.534e-05,0.0004644,0.001938,0.000185,0.0004063,0.0004702,9.537e-07,0,0.0003328,7.153e-05,11.16,0.04855,0,0,2.289e-05
24600000000,24900000000,501114088,0,711969,7.343e-05,0.0004635,0.001938,0.000185,0.0004063,0.0004692,0,0,0.0002489,7.153e-05,10.82,0.04796,0,0,3.719e-05
24900000000,25200000000,501114088,0,711969,7.439e-05,0.0004597,0.001938,0.000185,0.0004063,0.0004597,0,0,0.0002213,0,11.05,0.04851,0,0,8.583e-06
25200000000,25500000000,501114088,0,711969,7.534e-05,0.0004635,0.001938,0.000185,0.0004063,0.0004692,0,0,0.0002623,7.153e-05,10.9,0.04804,0,0,6.771e-05
25500000000,25800000000,501114088,0,711969,7.629e-05,0.0004597,0.001938,0.000185,0.0004063,0.0004597,0,0,0.0002899,0,11.25,0.04902,0,0,1.144e-05
25800000000,26100000000,501114088,0,711969,7.725e-05,0.0004635,0.001938,0.000185,0.0004063,0.0004692,0,0,0.0002832,7.153e-05,11.22,0.04845,0,0,5.436e-05
26100000000,26400000000,501114088,0,711969,7.343e-05,0.0004597,0.001938,0.000185,0.0004063,0.0004597,0,0,0.0002546,0,11,0.04797,0,0,9.251e-05
26400000000,26700000000,501114088,0,711969,7.439e-05,0.0004635,0.001938,0.000185,0.0004063,0.0004683,0,0,0.0002947,7.153e-05,10.75,0.04757,0,0,7.248e-05
26700000000,27000000000,501114088,0,711969,7.82e-05,0.0004597,0.001938,0.000185,0.0004063,0.0004606,0,0,0.000351,0,11.23,0.04894,0,0,0.0002775
27000000000,27300000000,501114088,0,711969,7.725e-05,0.0004635,0.001938,0.000185,0.0004063,0.0004692,2.861e-06,0,0.0003166,0.0008574,11.51,0.04965,0,0,0.0001373
27300000000,27600000000,501114088,0,711969,7.439e-05,0.0004597,0.001938,0.000185,0.0004063,0.0004597,0,0,0.0002861,0,11.2,0.04906,0,0,0.0001335
27600000000,27900000000,501114088,0,711969,7.629e-05,0.0004683,0.001938,0.000185,0.0004063,0.0004854,0,0,0.0003633,7.153e-05,11.34,0.04949,0,0,2.575e-05
27900000000,28200000000,501114088,0,711969,7.534e-05,0.0004597,0.001938,0.000185,0.0004063,0.0004597,0,0,0.0002823,0,11.09,0.04958,0,0,2.289e-05
28200000000,28500000000,501114088,0,711969,7.629e-05,0.0004635,0.001938,0.000185,0.0004063,0.0004692,0,0,0.002743,7.153e-05,11.09,0.0494,0,0,5.531e-05
28500000000,28800000000,501114088,0,711969,7.534e-05,0.0004597,0.001938,0.000185,0.0004063,0.0004597,0,0,0.0003433,0,11.44,0.04989,0,0,2.575e-05
28800000000,29100000000,501114088,0,711969,7.725e-05,0.0004635,0.001938,0.000185,0.0004063,0.0004692,0,0,0.002762,7.153e-05,11.2,0.04928,0,0,3.242e-05
29100000000,29400000000,501114088,0,711969,7.725e-05,0.0004597,0.001938,0.000185,0.0004063,0.0004597,0,0,0.0003395,0,11.5,0.04972,0,0,4.673e-05
29400000000,29700000000,501114088,0,711969,7.725e-05,0.0004635,0.001938,0.000185,0.0004063,0.0004692,0,0,0.0002756,7.153e-05,11.74,0.04944,0,0,4.578e-05
29700000000,30000000000,501114088,0,711969,7.534e-05,0.0004597,0.001938,0.000185,0.0004063,0.0004597,0,0,0.00033,0,11.31,0.05001,0,0,0.0001402
30000000000,30300000000,501114088,0,711969,8.011e-05,0.0004635,0.001938,0.000185,0.0004063,0.0004692,0,0,0.0002804,7.153e-05,11.66,0.04985,0,0,7.057e-05
30300000000,30600000000,501114088,0,711969,7.439e-05,0.0004597,0.001938,0.000185,0.0004063,0.0004597,0,0,0.0002413,0,11.57,0.0497,0,0,0.0001421
30600000000,30900000000,501114088,0,711969,7.439e-05,0.0004635,0.001938,0.000185,0.0004063,0.0004683,0,0,0.0006304,7.153e-05,11.2,0.04968,0,0,3.719e-05
30900000000,31200000000,501114088,0,711969,7.629e-05,0.0004616,0.001938,0.000185,0.0004063,0.0004759,0,0,0.0003109,0,11.63,0.05035,0,0,3.815e-05
31200000000,31500000000,501114088,0,711969,7.534e-05,0.0004663,0.001938,0.000186,0.0004063,0.0004759,0,0,0.0002918,7.153e-05,11.4,0.04915,0,0,2.098e-05
31500000000,31800000000,501114088,0,711969,7.534e-05,0.0004635,0.001938,0.000186,0.0004063,0.0004702,0,0,0.0005684,7.153e-05,11.24,0.04975,0,0,0.000164
31800000000,32100000000,501114088,0,711969,7.725e-05,0.0004635,0.001938,0.000186,0.0004063,0.0004692,0,0,0.0005493,7.153e-05,11.6,0.04988,0,0,6.866e-05
32100000000,32400000000,501114088,0,711969,7.629e-05,0.0004597,0.001938,0.000186,0.0004063,0.0004597,0,0,0.0005093,0,11.69,0.04997,0,0,0.000124
32400000000,32700000000,501114088,0,711969,7.82e-05,0.0004635,0.001938,0.000186,0.0004063,0.0004683,0,0,0.001028,7.153e-05,11.54,0.05,0,0,2.003e-05
32700000000,33000000000,501114088,0,711969,7.725e-05,0.0004597,0.001938,0.000186,0.0004063,0.0004606,0,0,0.0006695,0,11.67,0.05028,0,0,0.0001154
33000000000,33300000000,501114088,0,711969,7.725e-05,0.0004635,0.001938,0.000186,0.0004063,0.0004683,0,0,0.0004234,7.153e-05,11.41,0.05015,0,0,3.624e-05
33300000000,33600000000,501114088,0,711969,7.629e-05,0.0004597,0.001938,0.000186,0.0004063,0.0004597,0,0,0.000433,0,11.27,0.05055,0,0,0.0001001
33600000000,33900000000,501114088,0,711969,7.82e-05,0.0004635,0.001938,0.000186,0.0004063,0.0004683,0,0,0.0004759,7.153e-05,11.68,0.05045,0,0,9.823e-05
33900000000,34200000000,501114088,0,711969,7.534e-05,0.0004597,0.001938,0.000186,0.0004063,0.0004597,0,0,0.0006714,0,11.26,0.05008,0,0,0.0001326
34200000000,34500000000,501114088,0,711969,7.439e-05,0.0004625,0.001938,0.000186,0.0004063,0.0004683,0,0,0.0002413,7.153e-05,11.29,0.05005,0,0,1.144e-05
34500000000,34800000000,501114088,0,711969,7.534e-05,0.0004597,0.001938,0.000186,0.0004063,0.0004597,0,0,0.0002613,0,11.13,0.04952,0,0,0.0001974
34800000000,35100000000,501114088,0,711969,7.534e-05,0.0004625,0.001938,0.000186,0.0004063,0.0004683,0,0,0.0002584,7.153e-05,11.2,0.0499,0,0,1.24e-05
35100000000,35400000000,501114088,0,711969,7.439e-05,0.0004597,0.001938,0.000186,0.0004063,0.0004597,0,0,0.0002508,0,11.29,0.05003,0,0,3.624e-05
35400000000,35700000000,501114088,0,711969,7.439e-05,0.0004635,0.001938,0.000186,0.0004063,0.0004692,0,0,0.0002851,7.153e-05,11.11,0.04986,0,0,7.439e-05
35700000000,36000000000,501114088,0,711969,7.629e-05,0.0004597,0.001938,0.000186,0.0004063,0.0004597,0,0,0.0002613,0,11.52,0.04992,0,0,1.049e-05
36000000000,36300000000,501114088,0,711969,7.534e-05,0.0004635,0.001938,0.000186,0.0004063,0.0004692,0,0,0.0003538,7.153e-05,11.41,0.05051,0,0,0.0001249
36300000000,36600000000,501114088,0,711969,7.534e-05,0.0004597,0.001938,0.000186,0.0004063,0.0004597,0,0,0.0002699,0,11.37,0.05021,0,0,3.242e-05
36600000000,36900000000,501114088,0,711969,7.82e-05,0.0004625,0.001938,0.000186,0.0004063,0.0004683,0,0,0.0003195,7.153e-05,11.58,0.04995,0,0,4.482e-05
36900000000,37200000000,501114088,0,711969,7.629e-05,0.0004597,0.001938,0.000186,0.0004063,0.0004597,0,0,0.0002871,0,11.4,0.05031,0,0,4.482e-05
37200000000,37500000000,501114088,0,711969,7.534e-05,0.0004635,0.001938,0.000186,0.0004063,0.0004683,0,0,0.0002499,7.153e-05,11.18,0.04985,0,0,3.433e-05
37500000000,37800000000,501114088,0,711969,7.725e-05,0.0004597,0.001938,0.000186,0.0004063,0.0004597,0,0,0.0002508,0,11.4,0.05096,0,0,0.0001745
37800000000,38100000000,501114088,0,711969,8.011e-05,0.0004635,0.001938,0.000186,0.0004063,0.0004683,0,0,0.0002861,7.153e-05,11.83,0.05236,0,0,0.0001841
38100000000,38400000000,501114088,0,711969,7.629e-05,0.0004597,0.001938,0.000186,0.0004063,0.0004597,0,0,0.0002432,0,11.65,0.0518,0,0,1.907e-05
38400000000,38700000000,501114088,0,711969,7.248e-05,0.0004683,0.001938,0.000186,0.0004063,0.0004845,0,0,0.0002518,0.0001431,11.17,0.05052,0,0,2.48e-05
38700000000,39000000000,501114088,0,711969,0.0001183,0.0004644,0.001938,0.000186,0.0004072,0.0004721,9.537e-07,0,0.0005846,0.0001431,10.87,0.04859,0,0,1.526e-05
39000000000,39300000000,501114088,0,711969,0.0001326,0.0004644,0.001938,0.000186,0.0004072,0.0004692,0,0,0.00068,7.153e-05,11.45,0.05034,0,0,0.0001793
39300000000,39600000000,501114088,0,711969,0.0001249,0.0004606,0.001938,0.000186,0.0004072,0.0004606,0,0,0.0005455,0,10.84,0.0493,0,0,0.0002518
39600000000,39900000000,501114088,0,711969,0.0001307,0.0004635,0.001938,0.000186,0.0004072,0.0004692,0,0,0.000371,7.153e-05,11.34,0.04972,0,0,0.0001564
39900000000,40200000000,501114088,0,711969,0.0001297,0.0004606,0.001938,0.000186,0.0004072,0.0004606,0,0,0.0003748,0,11.28,0.04977,0,0,4.864e-05
40200000000,40500000000,501114088,0,711969,0.0001221,0.0004635,0.001938,0.000186,0.0004072,0.0004692,0,0,0.0003757,7.153e-05,10.56,0.0481,0,0,5.722e-05
40500000000,40800000000,501114088,0,711969,0.000123,0.0004597,0.001938,0.000186,0.0004072,0.0004597,0,0,0.001257,0,10.6,0.04777,0,0,0.0002079
51000000000,51300000000,501114088,0,32065056,7.248e-05,0.0005274,0.001928,0.0001917,0.0004168,0.0005379,0,0,0.0006075,7.153e-05,10.55,0.04858,0,0,4.864e-05
51300000000,51600000000,501114088,0,32065056,6.676e-05,0.0005236,0.001928,0.0001917,0.0004168,0.0005302,0,0,0.0002661,7.153e-05,9.997,0.04626,0,0,1.24e-05
51600000000,51900000000,501114088,0,32065056,6.39e-05,0.0005226,0.001928,0.0001917,0.0004158,0.0005302,0,0,0.001051,0,9.802,0.04634,0,0,0.0001001
51900000000,52200000000,501114088,0,32065056,6.485e-05,0.0005217,0.001928,0.0001907,0.0004158,0.0005283,0,0,0.0002766,7.153e-05,9.498,0.04499,0,0,0.000145
52200000000,52500000000,501114088,0,32065056,6.485e-05,0.0005217,0.001928,0.0001907,0.0004158,0.0005283,0,0,0.0002899,0,9.99,0.0471,0,0,6.676e-05
52500000000,52800000000,501114088,0,32065056,7.057e-05,0.0005207,0.001928,0.0001907,0.0004158,0.0005283,0,0,0.0003872,7.153e-05,10.41,0.04877,0,0,3.052e-05
52800000000,53100000000,501114088,0,32065056,6.485e-05,0.0005217,0.001928,0.0001812,0.0004063,0.0005283,0,0,0.0003834,0,9.952,0.04806,0,0,0.0001135
53100000000,53400000000,501114088,0,32065056,6.485e-05,0.0005207,0.001928,0.0001812,0.0004063,0.0005274,0,0,0.0004072,7.153e-05,9.867,0.04777,0,0,6.294e-05
53400000000,53700000000,501114088,0,32065056,6.58e-05,0.0005207,0.001928,0.0001812,0.0004063,0.0005274,0,0,0.0002985,0,10.51,0.04924,0,0,0.0001001
53700000000,54000000000,501114088,0,32065056,6.771e-05,0.0005207,0.001928,0.0001812,0.0004063,0.0005341,4.768e-06,0,0.0003586,0.001286,9.788,0.04643,0,0,1.049e-05
54000000000,54300000000,501114088,0,32065056,6.866e-05,0.0005226,0.001928,0.0001812,0.0004063,0.0005341,0,0,0.0002222,0,10.55,0.04916,0,0,0.0001469
54300000000,54600000000,501114088,0,32065056,6.676e-05,0.0005198,0.001928,0.0001812,0.0004063,0.0005264,0,0,0.0004625,7.153e-05,10.89,0.05009,0,0,4.768e-06
54600000000,54900000000,501114088,0,32065056,7.534e-05,0.0005217,0.001928,0.0001812,0.0004063,0.0005283,0,0,0.0003233,0,11.07,0.0503,0,0,0.0001297
54900000000,55200000000,501114088,0,32065056,6.962e-05,0.0005188,0.001928,0.0001812,0.0004063,0.0005264,0,0,0.0004444,7.153e-05,10.63,0.04868,0,0,4.387e-05
55200000000,55500000000,501114088,0,32065056,6.866e-05,0.0005226,0.001928,0.0001812,0.0004063,0.000535,0,0,0.0002441,0,10.48,0.04915,0,0,7.629e-06
55500000000,55800000000,501114088,0,32065056,6.485e-05,0.0005226,0.001928,0.0001812,0.0004063,0.000536,0,0,0.0002289,7.153e-05,9.96,0.04795,0,0,3.147e-05
55800000000,56100000000,501114088,0,32065056,7.057e-05,0.0005207,0.001928,0.0001812,0.0004063,0.0005264,0,0,0.0003519,0,10.09,0.04784,0,0,4.196e-05
56100000000,56400000000,501114088,0,32065056,6.771e-05,0.0005198,0.001928,0.0001812,0.0004063,0.0005274,0,0,0.0005407,7.153e-05,10.57,0.04865,0,0,0.0001249
56400000000,56700000000,501114088,0,32065056,6.866e-05,0.0005207,0.001928,0.0001812,0.0004063,0.0005274,0,0,0.0006332,0,10.43,0.04923,0,0,9.06e-05
56700000000,57000000000,501114088,0,32065056,6.485e-05,0.0005198,0.001928,0.0001812,0.0004063,0.0005274,0,0,0.0004253,7.153e-05,9.962,0.04763,0,0,0.0001202
57000000000,57300000000,501114088,0,32065056,6.58e-05,0.0005217,0.001928,0.0001812,0.0004063,0.0005283,0,0,0.0002556,0,10.31,0.04841,0,0,5.436e-05
57300000000,57600000000,501114088,0,32065056,6.962e-05,0.0005207,0.001928,0.0001812,0.0004063,0.0005283,4.768e-06,0,0.0002718,0.001572,10.12,0.04879,0,0,8.297e-05
57600000000,57900000000,501114088,0,32065056,8.774e-05,0.0005236,0.001928,0.0001812,0.0004063,0.0005283,1.907e-06,0,0.0003471,0.0005713,10.1,0.0478,0,0,3.529e-05
57900000000,58200000000,501114088,0,32065056,0.0001135,0.0005207,0.001928,0.0001812,0.0004063,0.0005283,0,0,0.0004482,0.0001431,10.05,0.04787,0,0,0.000144
58200000000,58500000000,501114088,0,32065056,0.0001116,0.0005226,0.001928,0.0001812,0.0004063,0.0005283,0,0,0.0003977,0,10.08,0.04791,0,0,4.768e-05
58500000000,58800000000,501114088,0,32065056,0.0001144,0.0005207,0.001928,0.0001812,0.0004063,0.0005283,0,0,0.0003662,7.153e-05,9.996,0.04764,0,0,3.529e-05
58800000000,59100000000,501114088,0,32065056,0.0001116,0.0005217,0.001928,0.0001812,0.0004063,0.0005283,0,0,0.0003929,0,10.25,0.04796,0,0,0.0001163
59100000000,59400000000,501114088,0,32065056,0.0001135,0.0005207,0.001928,0.0001812,0.0004063,0.0005274,0,0,0.0003519,7.153e-05,10,0.04767,0,0,0.000124
59400000000,59700000000,501114088,0,32065056,0.0001125,0.0005217,0.001928,0.0001812,0.0004063,0.0005274,0,0,0.0003443,0,10.26,0.04827,0,0,2.193e-05
59700000000,60000000000,501114088,0,32065056,0.0001154,0.0005264,0.001928,0.0001812,0.0004063,0.0005312,9.537e-07,0,0.0003252,7.153e-05,10.46,0.04804,0,0,5.817e-05
60000000000,60300000000,501114088,0,32065056,0.0001116,0.0005255,0.001928,0.0001812,0.0004063,0.0005312,0,0,0.0003176,0,10.09,0.04775,0,0,3.433e-05
60300000000,60600000000,501114088,0,32065056,0.0001183,0.0005226,0.001928,0.0001812,0.0004063,0.0005302,0,0,0.0004025,7.153e-05,10.31,0.04819,0,0,3.338e-05
60600000000,60900000000,501114088,0,32065056,0.0001163,0.0005245,0.001928,0.0001812,0.0004063,0.0005302,0,0,0.0006123,0,10.1,0.04738,0,0,4.673e-05
70800000000,71100000000,501114088,0,32065056,0.0001125,0.0005236,0.001928,0.0001841,0.0004082,0.0005302,0,0,0.0003815,0,9.982,0.04773,0,0,0.0001907
71100000000,71400000000,501114088,0,32065056,0.0001202,0.0005217,0.001928,0.0001841,0.0004082,0.0005293,0,0,0.0004349,7.153e-05,11.21,0.04928,0,0,0.0002174
71400000000,71700000000,501114088,0,32065056,0.0001202,0.0005226,0.001928,0.0001841,0.0004082,0.0005293,0,0,0.001022,0,10.76,0.04871,0,0,0.0002375
71700000000,72000000000,501114088,0,32065056,0.0001221,0.0005207,0.001928,0.0001841,0.0004082,0.0005302,0,0,0.0004644,7.153e-05,10.64,0.04913,0,0,0.0001335
72000000000,72300000000,501114088,0,32065056,0.0001135,0.0005236,0.001928,0.0001841,0.0004082,0.0005302,0,0,0.0008955,0,9.884,0.04733,0,0,0.0002031
72300000000,72600000000,501114088,0,32065056,0.0001163,0.0005264,0.001928,0.0001841,0.0004082,0.0005369,0,0,0.0004206,7.153e-05,10.18,0.04763,0,0,0.0001516
72600000000,72900000000,501114088,0,32065056,0.0001154,0.0005226,0.001928,0.0001841,0.0004082,0.0005302,0,0,0.0004406,0,10.13,0.04815,0,0,0.0002079
72900000000,73200000000,501114088,0,32065056,0.0001259,0.0005198,0.001928,0.0001841,0.0004082,0.0005274,0,0,0.0004816,7.153e-05,10.98,0.04933,0,0,0.0002289
73200000000,73500000000,501114088,0,32065056,0.0001183,0.0005217,0.001928,0.0001841,0.0004082,0.0005293,0,0,0.0004711,0,10.47,0.04787,0,0,0.0001726
73500000000,73800000000,501114088,0,32065056,0.0001173,0.0005198,0.001928,0.0001841,0.0004082,0.0005274,0,0,0.0004759,0.0001431,10.32,0.04829,0,0,0.000185
73800000000,74100000000,501114088,0,32065056,0.0001211,0.0005217,0.001928,0.0001841,0.0004082,0.0005274,0,0,0.0003986,0,11.07,0.04919,0,0,1.049e-05
74100000000,74400000000,501114088,0,32065056,0.0001278,0.0005236,0.001928,0.0001841,0.0004082,0.0005398,1.907e-06,0,0.0005245,0.0003567,10.76,0.04792,0,0,0.000123
74400000000,74700000000,501114088,0,32065056,0.0001154,0.0005255,0.001928,0.0001841,0.0004091,0.0005398,0,0,0.0003824,0,10.7,0.04915,0,0,4.768e-05
74700000000,75000000000,501114088,0,32065056,0.0001163,0.0005236,0.001928,0.0001841,0.0004091,0.0005312,0,0,0.0003948,7.153e-05,10.03,0.04773,0,0,0.000185
75000000000,75300000000,501114088,0,32065056,0.0001163,0.0005255,0.001928,0.0001841,0.0004091,0.0005322,0,0,0.0003662,0,10.52,0.04889,0,0,3.147e-05
75300000000,75600000000,501114088,0,32065056,0.0001183,0.0005226,0.001928,0.0001841,0.0004091,0.0005312,0,0,0.0005932,7.153e-05,10.21,0.04769,0,0,8.583e-05
75600000000,75900000000,501114088,0,32065056,0.0001173,0.0005255,0.001928,0.0001841,0.0004091,0.0005312,0,0,0.0003891,0,10.24,0.04881,0,0,6.771e-05
75900000000,76200000000,501114088,0,32065056,0.0001202,0.0005226,0.001928,0.0001841,0.0004091,0.0005302,0,0,0.0003424,7.153e-05,10.48,0.04871,0,0,0.0001364
76200000000,76500000000,501114088,0,32065056,0.0001163,0.0005245,0.001928,0.0001841,0.0004091,0.0005302,0,0,0.0004492,0,10.29,0.04799,0,0,4.673e-05
76500000000,76800000000,501114088,0,32065056,0.0001211,0.0005226,0.001928,0.0001841,0.0004091,0.0005302,0,0,0.0005245,7.153e-05,10.67,0.04846,0,0,0.0002241
76800000000,77100000000,501114088,0,32065056,0.0001163,0.0005245,0.001928,0.0001841,0.0004091,0.0005322,0,0,0.0004911,0,10.18,0.04778,0,0,0.0001736
77400000000,77700000000,501114088,0,4713385074,8.965e-05,0.0005054,0.001938,0.0001888,0.0004129,0.0007162,8.583e-06,0,0.0007763,0.001858,12.8,0.05327,0,0,0.000124
77700000000,78000000000,501114088,0,4713385074,8.678e-05,0.000392,0.00194,0.0001888,0.0004129,0.0004177,4.768e-06,0,0.0008421,0.001286,12.44,0.05282,0,0,0.0001307
78000000000,78300000000,501114088,0,4713385074,9.346e-05,0.0004244,0.001938,0.000186,0.0004129,0.0004387,0,0,0.0003214,0,13.29,0.05449,0,0,0.000103
78300000000,78600000000,501114088,0,4713385074,0.000104,0.0004358,0.00194,0.000186,0.0004129,0.0004425,9.537e-07,0,0.000701,0.0001431,13.2,0.05355,0,0,0.0002136
78600000000,78900000000,501114088,0,4713385074,9.823e-05,0.0004377,0.00194,0.000186,0.0004129,0.0004435,0,0,0.0007772,0,13.27,0.05588,0,0,0.0001373
78900000000,79200000000,501114088,0,4713385074,0.000102,0.0004368,0.00194,0.000186,0.0004129,0.000452,9.537e-07,0,0.0003595,0.0001431,12.9,0.05575,0,0,1.144e-05
79200000000,79500000000,501114088,0,4713385074,9.823e-05,0.0004473,0.00194,0.000186,0.0004129,0.0004578,0,0,0.0005713,7.153e-05,13.02,0.05497,0,0,0.0001192
79800000000,80100000000,501114088,0,8055063,8.106e-05,0.0003986,0.001932,0.0001917,0.0004158,0.0004053,9.537e-07,0,0.001326,7.153e-05,12.08,0.0532,0,0,1.907e-05
80100000000,80400000000,501114088,0,8055063,8.392e-05,0.0004168,0.001932,0.0001888,0.0004148,0.0004368,4.768e-06,0,0.001307,0.001215,12.29,0.05339,0,0,4.005e-05
80400000000,80700000000,501114088,0,8055063,8.011e-05,0.0004358,0.001934,0.000186,0.0004139,0.0004501,7.629e-06,0,0.001455,0.002357,12.11,0.0533,0,0,0.0001278
80700000000,81000000000,501114088,0,8055063,9.251e-05,0.0004463,0.001934,0.000186,0.0004139,0.0004511,1.907e-06,0,0.001324,0.0005713,12.49,0.05418,0,0,3.242e-05
85800000000,86100000000,501114088,0,665484,7.725e-05,0.0004177,0.00194,0.0001898,0.0004129,0.0006552,1.907e-06,0,0.0006552,0.0002146,11.61,0.05191,0,0,4.482e-05
86100000000,86400000000,501114088,0,665484,7.439e-05,0.0003757,0.00194,0.0001812,0.0004044,0.0004005,1.907e-06,0,0.0004711,0.0005713,11.2,0.0501,0,0,5.627e-05
86400000000,86700000000,501114088,0,665484,7.534e-05,0.0004129,0.001938,0.0001793,0.0004044,0.0004187,9.537e-07,0,0.0002956,0.0001431,11.63,0.05176,0,0,0.0001049
86700000000,87000000000,501114088,0,665484,7.725e-05,0.000411,0.00194,0.0001793,0.0004044,0.0004177,0,0,0.0003548,7.153e-05,11.58,0.05147,0,0,0.0001068
87000000000,87300000000,501114088,0,665484,7.343e-05,0.0004158,0.00194,0.0001793,0.0004044,0.0004292,0,0,0.0002565,7.153e-05,10.99,0.0504,0,0,6.199e-05
87300000000,87600000000,501114088,0,665484,7.248e-05,0.0004263,0.00194,0.0001793,0.0004044,0.0004311,1.907e-06,0,0.0003052,0.0004997,10.87,0.05067,0,0,2.098e-05
87600000000,87900000000,501114088,0,665484,7.248e-05,0.0004244,0.00194,0.0001793,0.0004044,0.0004311,0,0,0.0002832,0,11.04,0.05108,0,0,5.913e-05
87900000000,88200000000,501114088,0,665484,7.057e-05,0.0004234,0.00194,0.0001793,0.0004044,0.0004311,0,0,0.0002527,7.153e-05,10.92,0.05031,0,0,5.245e-05
88200000000,88500000000,501114088,0,665484,7.153e-05,0.0004244,0.00194,0.0001793,0.0004044,0.0004311,0,0,0.0002556,0,10.88,0.05058,0,0,6.104e-05
88500000000,88800000000,501114088,0,665484,6.962e-05,0.0004244,0.00194,0.0001793,0.0004044,0.0004387,0,0,0.0002365,7.153e-05,10.66,0.05048,0,0,9.823e-05
88800000000,89100000000,501114088,0,665484,6.866e-05,0.0004263,0.00194,0.0001793,0.0004044,0.0004387,0,0,0.000227,7.153e-05,10.65,0.05148,0,0,2.766e-05
89100000000,89400000000,501114088,0,665484,6.962e-05,0.0004234,0.00194,0.0001793,0.0004044,0.0004311,0,0,0.001339,7.153e-05,10.68,0.05129,0,0,7.629e-05
89400000000,89700000000,501114088,0,665484,6.962e-05,0.0004244,0.00194,0.0001793,0.0004044,0.0004311,0,0,0.0002327,0,10.66,0.05132,0,0,8.583e-06
89700000000,90000000000,501114088,0,665484,7.248e-05,0.0004234,0.00194,0.0001793,0.0004044,0.0004311,0,0,0.0005484,7.153e-05,10.75,0.0499,0,0,1.621e-05
90000000000,90300000000,501114088,0,665484,7.534e-05,0.0004292,0.00194,0.0001793,0.0004044,0.0004473,0,0,0.0005865,0,11.1,0.04988,0,0,6.866e-05
90300000000,90600000000,501114088,0,665484,7.343e-05,0.0004244,0.00194,0.0001793,0.0004044,0.0004311,0,0,0.0005627,7.153e-05,10.9,0.05013,0,0,5.627e-05
90600000000,90900000000,501114088,0,665484,8.392e-05,0.0004244,0.00194,0.0001793,0.0004044,0.0004311,0,0,0.0002842,0,12.09,0.05208,0,0,6.104e-05
101100000000,101400000000,501114088,0,1340153,7.629e-05,0.0004358,0.001936,0.0001898,0.0004168,0.0004416,0,0,0.0009527,7.153e-05,10.75,0.05014,0,0,0.0001574
101400000000,101700000000,501114088,0,1340153,7.534e-05,0.000432,0.001936,0.0001898,0.0004168,0.000433,0,0,0.0007,0,10.72,0.04979,0,0,3.529e-05
101700000000,102000000000,501114088,0,1340153,7.534e-05,0.0004358,0.001936,0.0001898,0.0004168,0.0004416,0,0,0.0009918,7.153e-05,11.04,0.05074,0,0,0.0002089
102000000000,102300000000,501114088,0,1340153,7.439e-05,0.000432,0.001936,0.0001898,0.0004168,0.000433,0,0,0.001221,0,10.67,0.05015,0,0,6.58e-05
102300000000,102600000000,501114088,0,1340153,7.534e-05,0.0004358,0.001936,0.0001898,0.0004168,0.0004416,0,0,0.001362,7.153e-05,10.78,0.04987,0,0,3.91e-05
102600000000,102900000000,501114088,0,1340153,7.439e-05,0.000433,0.001936,0.0001898,0.0004168,0.0004377,0,0,0.001198,0,10.45,0.04939,0,0,0.0001192
102900000000,103200000000,501114088,0,1340153,7.439e-05,0.0004377,0.001936,0.0001898,0.0004168,0.0004416,0,0,0.001066,7.153e-05,10.56,0.04938,0,0,0.0002022
103200000000,103500000000,501114088,0,1340153,7.439e-05,0.000432,0.001936,0.0001898,0.0004168,0.000432,0,0,0.001293,0,10.48,0.04924,0,0,6.962e-05
103500000000,103800000000,501114088,0,1340153,7.153e-05,0.0004358,0.001936,0.0001898,0.0004168,0.0004416,0,0,0.0009823,7.153e-05,10.41,0.04926,0,0,4.673e-05
103800000000,104100000000,501114088,0,1340153,7.153e-05,0.000432,0.001936,0.0001898,0.0004168,0.0004387,0,0,0.0014,0,10.39,0.04952,0,0,2.766e-05
104100000000,104400000000,501114088,0,1340153,7.248e-05,0.0004435,0.001936,0.0001898,0.0004168,0.000453,0,0,0.001287,7.153e-05,10.33,0.04911,0,0,9.537e-06
105000000000,105300000000,501114088,0,288787213,7.248e-05,0.0004244,0.00193,0.0001974,0.0004187,0.0004301,0,0,0.001543,7.153e-05,10.71,0.05017,0,0,0.0001287
105300000000,105600000000,501114088,0,288787213,7.439e-05,0.0004606,0.00193,0.0001945,0.0004187,0.0004873,4.768e-06,0,0.002735,0.001215,10.91,0.04934,0,0,3.338e-05
105600000000,105900000000,501114088,0,288787213,7.153e-05,0.0004673,0.00193,0.0001945,0.0004196,0.0004673,0,0,0.00161,0,10.83,0.05005,0,0,3.624e-05
105900000000,106200000000,501114088,0,288787213,7.153e-05,0.0004768,0.00193,0.0001879,0.0004129,0.0004873,9.537e-07,0,0.001654,0.0001431,10.71,0.04944,0,0,2.003e-05
106200000000,106500000000,501114088,0,288787213,7.248e-05,0.0004759,0.001932,0.0001783,0.0004034,0.0004883,0,0,0.002144,0,10.93,0.05007,0,0,1.621e-05
106500000000,106800000000,501114088,0,288787213,7.057e-05,0.000474,0.001932,0.0001783,0.0004034,0.0004797,1.907e-06,0,0.001831,0.0005713,10.74,0.04932,0,0,0.001352
106800000000,107100000000,501114088,0,288787213,6.962e-05,0.0004702,0.001932,0.0001783,0.0004034,0.0004711,0,0,0.001089,0,10.68,0.04932,0,0,3.529e-05
107100000000,107400000000,501114088,0,288787213,7.057e-05,0.0004854,0.001932,0.0001783,0.0004034,0.0004969,9.537e-07,0,0.00123,0.0001431,10.98,0.05001,0,0,1.431e-05
107400000000,107700000000,501114088,0,288787213,7.057e-05,0.0004816,0.001932,0.0001783,0.0004034,0.0004816,0,0,0.001633,0,10.68,0.04932,0,0,5.054e-05
107700000000,108000000000,501114088,0,288787213,6.866e-05,0.0004845,0.001932,0.0001783,0.0004034,0.0004902,3.815e-06,0,0.001081,0.001286,10.44,0.04799,0,0,4.196e-05
108000000000,108300000000,501114088,0,288787213,6.962e-05,0.0004816,0.001932,0.0001783,0.0004034,0.0004816,0,0,0.001108,0,10.44,0.04806,0,0,2.956e-05
108300000000,108600000000,501114088,0,288787213,7.057e-05,0.0004845,0.001932,0.0001783,0.0004034,0.0004902,0,0,0.001566,7.153e-05,10.3,0.04742,0,0,5.054e-05
108600000000,108900000000,501114088,0,288787213,7.057e-05,0.0004807,0.001932,0.0001783,0.0004034,0.0004807,0,0,0.001369,0,10.31,0.04848,0,0,8.488e-05
108900000000,109200000000,501114088,0,288787213,6.962e-05,0.0004835,0.001932,0.0001783,0.0004034,0.0004892,0,0,0.00111,7.153e-05,10.63,0.04859,0,0,0.0001326
109200000000,109500000000,501114088,0,288787213,6.866e-05,0.0004807,0.001932,0.0001783,0.0004034,0.0004807,0,0,0.001364,0,10.57,0.04794,0,0,8.583e-06
109500000000,109800000000,501114088,0,288787213,7.153e-05,0.0004902,0.001932,0.0001783,0.0004034,0.0005007,9.537e-07,0,0.001196,0.0002861,10.47,0.04788,0,0,1.24e-05
109800000000,110100000000,501114088,0,288787213,6.962e-05,0.0004835,0.001932,0.0001783,0.0004034,0.0004835,0,0,0.000864,0,10.42,0.04771,0,0,4.578e-05
110100000000,110400000000,501114088,0,288787213,7.057e-05,0.0004873,0.001932,0.0001783,0.0004034,0.000493,0,0,0.0006895,7.153e-05,10.44,0.04751,0,0,0.0001173
110400000000,110700000000,501114088,0,288787213,7.057e-05,0.0004835,0.001932,0.0001783,0.0004034,0.0004835,0,0,0.001299,0,10.45,0.04826,0,0,1.24e-05
110700000000,111000000000,501114088,0,288787213,7.057e-05,0.0004873,0.001932,0.0001783,0.0004034,0.0004921,0,0,0.0009117,7.153e-05,10.07,0.0468,0,0,3.719e-05
116100000000,116400000000,501114088,0,4134904838,7.057e-05,0.0004501,0.001936,0.0001802,0.0004063,0.0004787,0,0,0.0003223,7.153e-05,4.835,0.01971,0,0,1.431e-05
116400000000,116700000000,501114088,0,4134904838,7.057e-05,0.000452,0.001936,0.0001802,0.0004063,0.0004787,0,0,0.003712,0,5.395,0.02234,0,0,0.0001249
116700000000,117000000000,501114088,0,4134904838,7.057e-05,0.0004473,0.001936,0.0001802,0.0004063,0.000453,0,0,0.0003004,7.153e-05,4.618,0.01879,0,0,4.292e-05
117000000000,117300000000,501114088,0,4134904838,7.248e-05,0.0004473,0.001936,0.0001802,0.0004063,0.0004539,0,0,0.0003061,0,4.263,0.01646,0,0,9.823e-05
117300000000,117600000000,501114088,0,4134904838,7.057e-05,0.0004463,0.001936,0.0001793,0.0004063,0.000453,0,0,0.0003052,7.153e-05,4.493,0.01837,0,0,7.629e-06
117600000000,117900000000,501114088,0,4134904838,7.057e-05,0.0004463,0.001936,0.0001793,0.0004053,0.000453,0,0,0.0002871,0,5.092,0.02124,0,0,0.0001001
117900000000,118200000000,501114088,0,4134904838,7.153e-05,0.0004463,0.001936,0.0001793,0.0004053,0.000453,0,0,0.0002623,7.153e-05,5.893,0.02474,0,0,1.812e-05
118200000000,118500000000,501114088,0,4134904838,7.057e-05,0.0004463,0.001936,0.0001793,0.0004053,0.000453,0,0,0.0002775,0,5.482,0.02311,0,0,8.583e-06
118500000000,118800000000,501114088,0,4134904838,7.153e-05,0.0004463,0.001936,0.0001793,0.0004053,0.000453,0,0,0.0005407,7.153e-05,5.546,0.02321,0,0,0.0001822
118800000000,119100000000,501114088,0,4134904838,7.343e-05,0.0004463,0.001936,0.0001793,0.0004053,0.000453,0,0,0.0003357,0,4.143,0.01596,0,0,9.537e-06
119100000000,119400000000,501114088,0,4134904838,7.343e-05,0.0004463,0.001936,0.0001793,0.0004053,0.000453,0,0,0.0003128,7.153e-05,4.693,0.01828,0,0,3.338e-05
119400000000,119700000000,501114088,0,4134904838,7.248e-05,0.0004463,0.001936,0.0001793,0.0004053,0.000453,0,0,0.0003662,0,4.816,0.01931,0,0,6.294e-05
119700000000,120000000000,501114088,0,4134904838,7.343e-05,0.000453,0.001936,0.0001793,0.0004053,0.0004702,0,0,0.0005035,7.153e-05,5.123,0.02084,0,0,0.0004158
120000000000,120300000000,501114088,0,4134904838,7.057e-05,0.0004482,0.001936,0.0001793,0.0004053,0.0004683,0,0,0.0003891,0,5.024,0.02068,0,0,4.101e-05
120300000000,120600000000,501114088,0,4134904838,6.866e-05,0.0004463,0.001936,0.0001793,0.0004053,0.000453,0,0,0.0004215,7.153e-05,7.022,0.03169,0,0,9.727e-05
120600000000,120900000000,501114088,0,4134904838,6.962e-05,0.0004463,0.001936,0.0001793,0.0004053,0.000453,0,0,0.0004482,0,4.793,0.01953,0,0,6.39e-05
126000000000,126300000000,501114088,0,4134904838,6.485e-05,0.0004435,0.001936,0.0001802,0.0004063,0.0004511,0,0,0.0002661,0,6.531,0.03004,0,0,4.387e-05
126300000000,126600000000,501114088,0,4134904838,6.485e-05,0.0004435,0.001936,0.0001802,0.0004063,0.0004549,9.537e-07,0,0.0002222,0.0002146,5.329,0.0232,0,0,5.722e-06
126600000000,126900000000,501114088,0,4134904838,6.58e-05,0.0004473,0.001936,0.0001802,0.0004072,0.0004597,0,0,0.0002756,7.153e-05,5.987,0.02742,0,0,3.719e-05
126900000000,127200000000,501114088,0,4134904838,7.057e-05,0.0004482,0.001936,0.0001802,0.0004072,0.0004635,0,0,0.0003319,7.153e-05,5.675,0.02428,0,0,4.768e-05
127200000000,127500000000,501114088,0,4134904838,6.676e-05,0.0004454,0.001936,0.0001802,0.0004072,0.000452,0,0,0.0003824,0,5.184,0.02179,0,0,7.057e-05
127500000000,127800000000,501114088,0,4134904838,6.485e-05,0.0004435,0.001936,0.0001802,0.0004072,0.0004511,0,0,0.0002527,7.153e-05,5.819,0.02603,0,0,3.052e-05
127800000000,128100000000,501114088,0,4134904838,6.676e-05,0.0004435,0.001936,0.0001802,0.0004072,0.0004511,0,0,0.0002899,0,4.7,0.02008,0,0,0.0001364
128100000000,128400000000,501114088,0,4134904838,6.485e-05,0.0004435,0.001936,0.0001802,0.0004072,0.0004511,0,0,0.0002804,7.153e-05,6.432,0.02888,0,0,8.488e-05
128400000000,128700000000,501114088,0,4134904838,6.58e-05,0.0004444,0.001936,0.0001802,0.0004072,0.0004511,0,0,0.0002346,0,5.615,0.02407,0,0,7.439e-05
128700000000,129000000000,501114088,0,4134904838,6.676e-05,0.0004435,0.001936,0.0001802,0.0004072,0.0004511,0,0,0.0002899,7.153e-05,5.394,0.02345,0,0,1.24e-05
129000000000,129300000000,501114088,0,4134904838,6.676e-05,0.0004444,0.001936,0.0001802,0.0004072,0.0004511,0,0,0.0003023,0,4.96,0.02096,0,0,0.0001116
129300000000,129600000000,501114088,0,4134904838,6.676e-05,0.0004435,0.001936,0.0001802,0.0004072,0.0004511,0,0,0.0002441,7.153e-05,5.388,0.02375,0,0,5.054e-05
129600000000,129900000000,501114088,0,4134904838,6.58e-05,0.0004435,0.001936,0.0001802,0.0004072,0.0004511,0,0,0.000246,0,5.533,0.02468,0,0,1.24e-05
129900000000,130200000000,501114088,0,4134904838,6.676e-05,0.0004435,0.001936,0.0001802,0.0004072,0.0004501,0,0,0.0002499,7.153e-05,5.316,0.02303,0,0,4.864e-05
130500000000,130800000000,501114088,0,4134904838,6.866e-05,0.0003729,0.001936,0.0001841,0.0004072,0.0003862,9.537e-07,0,0.001173,7.153e-05,10.09,0.04933,0,0,3.815e-06
130800000000,131100000000,501114088,0,4134904838,7.248e-05,0.0003996,0.001936,0.0001822,0.0004072,0.0004406,1.907e-06,0,0.003075,0.0004282,10.29,0.04975,0,0,2.766e-05
141000000000,141300000000,501114088,0,4302111877,6.676e-05,0.0004072,0.00194,9.537e-06,0.0002346,0.0004129,0,0,0.0002899,7.153e-05,9.96,0.05009,0,0,2.766e-05
141600000000,141900000000,501114088,0,4302111877,7.343e-05,0.0003767,0.00194,9.537e-06,0.0002308,0.0004883,9.537e-07,0,0.0002842,7.153e-05,10.61,0.05111,0,0,0.0001049
141900000000,142200000000,501114088,0,4302111877,7.153e-05,0.0003672,0.00194,9.537e-06,0.0002317,0.0003891,2.861e-06,0,0.001032,0.0006428,10.39,0.05076,0,0,0.0001078
142200000000,142500000000,501114088,0,4302111877,6.866e-05,0.0004034,0.001938,9.537e-06,0.0002346,0.0004091,0,0,0.0008421,7.153e-05,10.36,0.05053,0,0,0.0001669
142500000000,142800000000,501114088,0,4302111877,6.962e-05,0.0004082,0.00194,9.537e-06,0.0002346,0.0004168,0,0,0.0003901,7.153e-05,10.39,0.0498,0,0,6.676e-06
142800000000,143100000000,501114088,0,4302111877,6.866e-05,0.0004148,0.00194,9.537e-06,0.0002346,0.0004234,0,0,0.0009785,0.0001431,10.04,0.04865,0,0,4.864e-05
143100000000,143400000000,501114088,0,4302111877,6.866e-05,0.0004158,0.00194,9.537e-06,0.0002346,0.0004225,0,0,0.0005455,7.153e-05,10.12,0.05024,0,0,4.864e-05
143400000000,143700000000,501114088,0,4302111877,6.866e-05,0.0004168,0.00194,9.537e-06,0.0002346,0.0004225,0,0,0.0005856,0,10.21,0.05007,0,0,2.003e-05
143700000000,144000000000,501114088,0,4302111877,6.771e-05,0.0004148,0.00194,9.537e-06,0.0002346,0.0004234,0,0,0.0009432,7.153e-05,10.13,0.04984,0,0,2.289e-05
144000000000,144300000000,501114088,0,4302111877,6.866e-05,0.0004206,0.00194,9.537e-06,0.0002346,0.0004272,0,0,0.001072,7.153e-05,9.904,0.0499,0,0,6.294e-05
144300000000,144600000000,501114088,0,4302111877,6.962e-05,0.0004206,0.00194,9.537e-06,0.0002346,0.0004272,0,0,0.0006733,7.153e-05,10.26,0.04975,0,0,3.719e-05
144600000000,144900000000,501114088,0,4302111877,6.962e-05,0.0004206,0.00194,9.537e-06,0.0002346,0.0004272,0,0,0.001017,0,10.03,0.0491,0,0,0.000165
144900000000,145200000000,501114088,0,4302111877,7.534e-05,0.0004187,0.00194,9.537e-06,0.0002346,0.0004272,0,0,0.00104,7.153e-05,10.67,0.04986,0,0,9.537e-06
145200000000,145500000000,501114088,0,4302111877,7.248e-05,0.0004206,0.00194,9.537e-06,0.0002346,0.0004272,0,0,0.00108,0,11.32,0.05079,0,0,0.0001154
145500000000,145800000000,501114088,0,4302111877,7.057e-05,0.0004187,0.00194,9.537e-06,0.0002346,0.0004272,0,0,0.001053,7.153e-05,10.86,0.04996,0,0,6.58e-05
145800000000,146100000000,501114088,0,4302111877,6.962e-05,0.0004253,0.00194,9.537e-06,0.0002346,0.0004349,0,0,0.0012,0,10.14,0.04944,0,0,5.436e-05
151200000000,151500000000,501114088,0,4361029809,0.0001068,0.0004416,0.00194,0.0001831,0.000411,0.0004425,0,0,0.000639,0,7.648,0.02989,0,0,1.812e-05
151500000000,151800000000,501114088,0,4361029809,8.965e-05,0.0004454,0.00194,0.0001831,0.000411,0.0004511,0,0,0.0003672,7.153e-05,5.696,0.02186,0,0,0.000288
151800000000,152100000000,501114088,0,4361029809,8.011e-05,0.0004463,0.00194,0.0001831,0.000411,0.0004539,0,0,0.0004025,7.153e-05,4.692,0.01724,0,0,8.583e-06
152100000000,152400000000,501114088,0,4361029809,8.583e-05,0.0004473,0.00194,0.0001831,0.000411,0.000453,0,0,0.0003023,7.153e-05,5.633,0.02153,0,0,2.003e-05
152700000000,153000000000,501114088,0,6566577,7.82e-05,0.0005236,0.00193,0.000206,0.000433,0.0007458,7.629e-06,0,0.0007238,0.001785,11.18,0.05051,0,0,4.196e-05
153600000000,153900000000,501114088,0,573595422,8.011e-05,0.0005293,0.001804,0.0001974,0.0004206,0.0007954,2.861e-06,0,0.00106,0.0005713,11.45,0.05054,0,0,8.297e-05
154200000000,154500000000,501114088,0,216841516,8.106e-05,0.000701,0.001629,0.0001936,0.0004187,0.0007095,9.537e-07,0,0.000412,7.153e-05,11.83,0.05228,0,0,3.433e-05
154500000000,154800000000,501114088,0,216841516,8.297e-05,0.0007048,0.001667,0.0001917,0.0004187,0.0007486,1.907e-06,0,0.003056,0.0003567,11.57,0.05135,0,0,1.717e-05
154800000000,155100000000,501114088,0,216841516,7.82e-05,0.0005445,0.001808,0.0001907,0.0004196,0.0006084,0,0,0.0002661,0,11.56,0.05101,0,0,4.101e-05
155100000000,155400000000,501114088,0,216841516,8.106e-05,0.0005331,0.00181,0.0001907,0.0004196,0.0005465,0,0,0.0004044,7.153e-05,11.86,0.05204,0,0,3.815e-05
155400000000,155700000000,501114088,0,216841516,7.82e-05,0.0005226,0.00181,0.0001907,0.0004196,0.0005274,0,0,0.0005846,0,11.7,0.05231,0,0,5.341e-05
155700000000,156000000000,501114088,0,216841516,8.011e-05,0.0005226,0.00181,0.0001907,0.0004196,0.0005274,0,0,0.0005131,7.153e-05,11.58,0.05177,0,0,3.338e-05
161100000000,161400000000,501114088,0,216841516,8.202e-05,0.0005159,0.00181,0.0001907,0.0004196,0.0005207,0,0,0.0003805,7.153e-05,11.96,0.05115,0,0,5.15e-05
161400000000,161700000000,501114088,0,216841516,8.011e-05,0.0005121,0.00181,0.0001907,0.0004196,0.0005131,0,0,0.0003328,0,11.5,0.05079,0,0,5.531e-05
161700000000,162000000000,501114088,0,216841516,8.106e-05,0.000514,0.00181,0.0001907,0.0004196,0.0005198,0,0,0.0004492,7.153e-05,11.82,0.05156,0,0,5.436e-05
162300000000,162600000000,501114088,0,38707777,7.248e-05,0.0004902,0.001936,0.0002041,0.0004301,0.0007639,9.537e-07,0,0.0006475,7.153e-05,10.42,0.05112,0,0,0.0001087
162600000000,162900000000,501114088,0,38707777,7.248e-05,0.0004072,0.001936,0.0002031,0.0004301,0.0004358,1.907e-06,0,0.0007334,0.0003567,10.27,0.0502,0,0,0.0001335
162900000000,163200000000,501114088,0,38707777,6.962e-05,0.0004416,0.001936,0.0002003,0.0004301,0.0004625,0,0,0.00033,7.153e-05,10.41,0.04989,0,0,3.242e-05
163200000000,163500000000,501114088,0,38707777,6.676e-05,0.0004463,0.001936,0.0002003,0.0004301,0.0004616,0,0,0.000761,7.153e-05,10.13,0.04942,0,0,0.0001717
163500000000,163800000000,501114088,0,38707777,6.58e-05,0.0004559,0.001936,0.0002003,0.0004301,0.0004644,0,0,0.0002804,0,9.61,0.04975,0,0,3.338e-05
163800000000,164100000000,501114088,0,38707777,6.485e-05,0.0004463,0.001936,0.0002003,0.0004301,0.0004539,0,0,0.000329,7.153e-05,9.534,0.04915,0,0,2.384e-05
164100000000,164400000000,501114088,0,38707777,6.676e-05,0.0004501,0.001936,0.0002003,0.0004301,0.0004559,0,0,0.0003576,0,9.666,0.04907,0,0,0.000103
164400000000,164700000000,501114088,0,38707777,6.866e-05,0.0004597,0.001936,0.0002003,0.0004301,0.0004663,9.537e-07,0,0.0003748,7.153e-05,9.939,0.04867,0,0,3.052e-05
164700000000,165000000000,501114088,0,38707777,6.771e-05,0.0004587,0.001936,0.0001955,0.0004253,0.0004654,0,0,0.0003119,0,10.03,0.04832,0,0,0.000165
165000000000,165300000000,501114088,0,38707777,7.248e-05,0.0004559,0.001936,0.0001917,0.0004206,0.0004625,0,0,0.0003605,7.153e-05,10.14,0.04908,0,0,0.0001669
165300000000,165600000000,501114088,0,38707777,7.153e-05,0.0004587,0.001936,0.0001917,0.0004206,0.0004644,0,0,0.0003462,0,10.21,0.04882,0,0,0.0001469
165600000000,165900000000,501114088,0,38707777,6.866e-05,0.0004559,0.001936,0.0001917,0.0004206,0.0004635,0,0,0.0003729,7.153e-05,9.897,0.04894,0,0,3.815e-05
165900000000,166200000000,501114088,0,38707777,6.676e-05,0.0004587,0.001936,0.0001917,0.0004206,0.0004644,0,0,0.0003395,0,9.713,0.04862,0,0,4.005e-05
166200000000,166500000000,501114088,0,38707777,6.866e-05,0.0004559,0.001936,0.0001917,0.0004206,0.0004635,0,0,0.000741,7.153e-05,9.761,0.04816,0,0,2.861e-05
166500000000,166800000000,501114088,0,38707777,7.153e-05,0.0004644,0.001936,0.0001917,0.0004206,0.0004749,0,0,0.0003977,7.153e-05,10.12,0.04889,0,0,2.766e-05
166800000000,167100000000,501114088,0,38707777,7.057e-05,0.0004587,0.001936,0.0001917,0.0004206,0.0004654,0,0,0.0004072,7.153e-05,10.01,0.04893,0,0,3.91e-05
167100000000,167400000000,501114088,0,38707777,6.771e-05,0.0004606,0.001936,0.0001917,0.0004206,0.0004673,0,0,0.0004606,0,9.631,0.04835,0,0,6.866e-05
167400000000,167700000000,501114088,0,38707777,6.866e-05,0.0004587,0.001936,0.0001917,0.0004206,0.0004654,0,0,0.0004616,7.153e-05,9.862,0.04902,0,0,6.676e-05
167700000000,168000000000,501114088,0,38707777,6.771e-05,0.0004606,0.001936,0.0001917,0.0004215,0.0004673,0,0,0.0004454,0,9.755,0.04853,0,0,0.0001116
168000000000,168300000000,501114088,0,38707777,6.771e-05,0.0004587,0.001936,0.0001917,0.0004215,0.0004663,0,0,0.0003672,7.153e-05,9.916,0.04829,0,0,7.915e-05
168300000000,168600000000,501114088,0,38707777,7.057e-05,0.0004606,0.001936,0.0001917,0.0004215,0.0004663,0,0,0.0002604,0,9.994,0.04814,0,0,5.15e-05
168600000000,168900000000,501114088,0,38707777,6.771e-05,0.0004578,0.001936,0.0001917,0.0004215,0.0004644,0,0,0.000248,7.153e-05,9.83,0.04846,0,0,7.248e-05
168900000000,169200000000,501114088,0,38707777,6.771e-05,0.0004606,0.001936,0.0001917,0.0004215,0.0004663,0,0,0.0002508,0,9.832,0.04845,0,0,8.965e-05
169200000000,169500000000,501114088,0,38707777,6.771e-05,0.0004578,0.001936,0.0001917,0.0004215,0.0004644,0,0,0.0002575,7.153e-05,9.723,0.04827,0,0,7.534e-05
169500000000,169800000000,501114088,0,38707777,6.962e-05,0.0004606,0.001936,0.0001917,0.0004215,0.0004663,0,0,0.0002527,0,10.01,0.04876,0,0,2.575e-05
169800000000,170100000000,501114088,0,38707777,6.866e-05,0.0004578,0.001936,0.0001917,0.0004215,0.0004644,0,0,0.0003099,7.153e-05,9.842,0.04888,0,0,3.624e-05
170100000000,170400000000,501114088,0,38707777,6.771e-05,0.0004597,0.001936,0.0001917,0.0004215,0.0004663,0,0,0.0002565,0,9.813,0.04835,0,0,8.583e-06
170400000000,170700000000,501114088,0,38707777,6.962e-05,0.0004644,0.001936,0.0001917,0.0004215,0.0004778,9.537e-07,0,0.0002489,7.153e-05,10.09,0.04904,0,0,5.436e-05
170700000000,171000000000,501114088,0,38707777,6.771e-05,0.000473,0.001936,0.0001917,0.0004215,0.000494,0,0,0.0002651,0,10.01,0.04951,0,0,8.583e-06
171000000000,171300000000,501114088,0,38707777,7.057e-05,0.0004644,0.001936,0.0001917,0.0004215,0.0004711,0,0,0.0008059,7.153e-05,10.06,0.04909,0,0,0.0002422
171300000000,171600000000,501114088,0,38707777,6.771e-05,0.0004663,0.001936,0.0001917,0.0004215,0.000473,0,0,0.001575,0,10.35,0.0492,0,0,3.433e-05
171600000000,171900000000,501114088,0,38707777,6.676e-05,0.0004644,0.001936,0.0001917,0.0004215,0.0004721,0,0,0.0005836,7.153e-05,9.841,0.04906,0,0,2.289e-05
171900000000,172200000000,501114088,0,38707777,7.057e-05,0.0004663,0.001936,0.0001917,0.0004215,0.000473,0,0,0.0003052,0,10.33,0.04958,0,0,3.624e-05
172200000000,172500000000,501114088,0,38707777,6.771e-05,0.0004644,0.001936,0.0001917,0.0004215,0.0004702,0,0,0.0004282,7.153e-05,10.05,0.04909,0,0,0.0001564
172500000000,172800000000,501114088,0,38707777,6.771e-05,0.0004663,0.001936,0.0001917,0.0004215,0.0004721,0,0,0.000267,0,10.03,0.0502,0,0,0.0001049
172800000000,173100000000,501114088,0,38707777,6.676e-05,0.0004644,0.001936,0.0001917,0.0004215,0.0004711,0,0,0.0002441,7.153e-05,9.769,0.04978,0,0,1.717e-05
173100000000,173400000000,501114088,0,38707777,6.866e-05,0.0004663,0.001936,0.0001917,0.0004215,0.000473,0,0,0.0003004,0,10.09,0.04998,0,0,4.578e-05
173400000000,173700000000,501114088,0,38707777,7.057e-05,0.0004644,0.001936,0.0001917,0.0004215,0.0004711,0,0,0.0003347,7.153e-05,10.14,0.04947,0,0,3.815e-05
173700000000,174000000000,501114088,0,38707777,6.866e-05,0.0004663,0.001936,0.0001917,0.0004215,0.000473,0,0,0.0002165,0,10.4,0.0496,0,0,3.433e-05
174000000000,174300000000,501114088,0,38707777,7.057e-05,0.0004692,0.001936,0.0001917,0.0004215,0.0004807,0,0,0.0002546,7.153e-05,10.34,0.04957,0,0,2.193e-05
174300000000,174600000000,501114088,0,38707777,6.962e-05,0.0004721,0.001936,0.0001917,0.0004215,0.0004902,0,0,0.0003042,0,10.2,0.04924,0,0,4.292e-05
174600000000,174900000000,501114088,0,38707777,6.866e-05,0.0004644,0.001936,0.0001917,0.0004215,0.0004711,2.861e-06,0,0.0003872,0.0008574,10.12,0.04946,0,0,4.101e-05
174900000000,175200000000,501114088,0,38707777,6.771e-05,0.0004663,0.001936,0.0001917,0.0004215,0.0004721,0,0,0.0005112,0,10.02,0.0497,0,0,1.526e-05
175200000000,175500000000,501114088,0,38707777,7.057e-05,0.0004635,0.001936,0.0001917,0.0004215,0.0004711,0,0,0.0004663,7.153e-05,10.41,0.05043,0,0,3.433e-05
175500000000,175800000000,501114088,0,38707777,6.962e-05,0.0004663,0.001936,0.0001917,0.0004215,0.0004721,0,0,0.0005083,0,10.2,0.04946,0,0,4.101e-05
175800000000,176100000000,501114088,0,38707777,6.962e-05,0.0004635,0.001936,0.0001917,0.0004215,0.0004692,0,0,0.001577,7.153e-05,10.31,0.05058,0,0,0.000144
186300000000,186600000000,501114088,0,38707777,6.676e-05,0.000474,0.001936,0.0001945,0.0004234,0.0004797,0,0,0.0002689,0,9.913,0.04933,0,0,3.624e-05
186600000000,186900000000,501114088,0,38707777,6.676e-05,0.0004711,0.001936,0.0001945,0.0004234,0.0004778,0,0,0.0002661,7.153e-05,9.666,0.04845,0,0,4.101e-05
186900000000,187200000000,501114088,0,38707777,6.771e-05,0.000474,0.001936,0.0001945,0.0004234,0.0004797,0,0,0.0003309,0,9.809,0.04884,0,0,4.864e-05
187200000000,187500000000,501114088,0,38707777,6.676e-05,0.0004711,0.001936,0.0001945,0.0004234,0.0004778,0,0,0.0002489,7.153e-05,9.921,0.04871,0,0,2.861e-06
187500000000,187800000000,501114088,0,38707777,6.771e-05,0.000474,0.001936,0.0001945,0.0004234,0.0004797,0,0,0.0002518,0,9.627,0.04863,0,0,0.0001392
187800000000,188100000000,501114088,0,38707777,6.676e-05,0.0004711,0.001936,0.0001945,0.0004234,0.0004778,0,0,0.000268,7.153e-05,9.952,0.04958,0,0,6.39e-05
188100000000,188400000000,501114088,0,38707777,6.58e-05,0.000474,0.001936,0.0001945,0.0004234,0.0004797,0,0,0.0002213,0,10.1,0.0491,0,0,3.815e-05
188400000000,188700000000,501114088,0,38707777,6.771e-05,0.0004711,0.001936,0.0001945,0.0004234,0.0004778,0,0,0.0006161,7.153e-05,9.964,0.04886,0,0,2.384e-05
188700000000,189000000000,501114088,0,38707777,6.58e-05,0.000474,0.001936,0.0001945,0.0004234,0.0004797,0,0,0.0002661,0,9.606,0.04848,0,0,2.193e-05
189000000000,189300000000,501114088,0,38707777,7.057e-05,0.0004711,0.001936,0.0001945,0.0004234,0.0004778,0,0,0.0005713,7.153e-05,10.32,0.04956,0,0,1.621e-05
189300000000,189600000000,501114088,0,38707777,6.771e-05,0.000474,0.001936,0.0001945,0.0004234,0.0004797,0,0,0.0003042,0,9.918,0.04845,0,0,5.913e-05
189600000000,189900000000,501114088,0,38707777,6.771e-05,0.0004711,0.001936,0.0001945,0.0004234,0.0004787,0,0,0.0003214,7.153e-05,9.678,0.04782,0,0,3.433e-05
189900000000,190200000000,501114088,0,38707777,6.676e-05,0.000474,0.001936,0.0001945,0.0004234,0.0004797,0,0,0.0003414,0,9.66,0.04875,0,0,5.531e-05
190200000000,190500000000,501114088,0,38707777,6.676e-05,0.0004711,0.001936,0.0001945,0.0004234,0.0004778,0,0,0.0003061,7.153e-05,9.705,0.04841,0,0,6.676e-06
190500000000,190800000000,501114088,0,38707777,6.676e-05,0.000474,0.001936,0.0001945,0.0004234,0.0004797,0,0,0.0002413,0,9.945,0.04872,0,0,3.147e-05
190800000000,191100000000,501114088,0,38707777,6.58e-05,0.0004711,0.001936,0.0001945,0.0004234,0.0004778,0,0,0.0002584,7.153e-05,9.858,0.04892,0,0,7.629e-06
191100000000,191400000000,501114088,0,38707777,6.866e-05,0.000474,0.001936,0.0001945,0.0004234,0.0004797,0,0,0.0003366,0,9.875,0.04881,0,0,1.907e-06
191400000000,191700000000,501114088,0,38707777,6.485e-05,0.0004711,0.001936,0.0001945,0.0004234,0.0004768,0,0,0.0003233,7.153e-05,9.727,0.04895,0,0,6.676e-06
191700000000,192000000000,501114088,0,38707777,6.58e-05,0.0004787,0.001936,0.0001945,0.0004244,0.0004873,0,0,0.0003939,0,9.647,0.04879,0,0,1.907e-05
192000000000,192300000000,501114088,0,38707777,6.962e-05,0.0004749,0.001936,0.0001945,0.0004244,0.000495,0,0,0.0005255,7.153e-05,10.1,0.04949,0,0,0.0001183
192300000000,192600000000,501114088,0,38707777,6.485e-05,0.0004787,0.001936,0.0001945,0.0004244,0.000495,0,0,0.0003586,7.153e-05,9.733,0.049,0,0,3.052e-05
192600000000,192900000000,501114088,0,38707777,6.866e-05,0.0004711,0.001936,0.0001945,0.0004244,0.0004778,0,0,0.0004749,7.153e-05,10.05,0.0492,0,0,1.812e-05
192900000000,193200000000,501114088,0,38707777,6.58e-05,0.000474,0.001936,0.0001945,0.0004244,0.0004797,0,0,0.0003643,0,9.838,0.0499,0,0,3.529e-05
193200000000,193500000000,501114088,0,38707777,6.58e-05,0.0004711,0.001936,0.0001945,0.0004244,0.0004787,0,0,0.0002384,7.153e-05,9.707,0.04893,0,0,4.673e-05
193500000000,193800000000,501114088,0,38707777,6.58e-05,0.000473,0.001936,0.0001945,0.0004244,0.0004787,0,0,0.0002918,0,9.545,0.0483,0,0,2.48e-05
193800000000,194100000000,501114088,0,38707777,6.58e-05,0.0004702,0.001936,0.0001945,0.0004244,0.0004768,1.907e-06,0,0.0003242,0.0005713,9.823,0.04865,0,0,9.632e-05
194100000000,194400000000,501114088,0,38707777,6.39e-05,0.000473,0.001936,0.0001945,0.0004244,0.0004787,0,0,0.0002737,0,9.448,0.04786,0,0,3.052e-05
194400000000,194700000000,501114088,0,38707777,6.485e-05,0.0004702,0.001936,0.0001945,0.0004244,0.0004768,0,0,0.0002661,7.153e-05,9.564,0.04847,0,0,0.0001307
194700000000,195000000000,501114088,0,38707777,6.485e-05,0.000473,0.001936,0.0001945,0.0004244,0.0004787,0,0,0.000248,0,9.432,0.04774,0,0,8.774e-05
195000000000,195300000000,501114088,0,38707777,6.58e-05,0.0004702,0.001936,0.0001945,0.0004244,0.0004759,0,0,0.0002556,7.153e-05,9.651,0.04786,0,0,1.431e-05
195300000000,195600000000,501114088,0,38707777,6.58e-05,0.0004778,0.001936,0.0001945,0.0004244,0.0004864,0,0,0.0003929,0,9.603,0.04735,0,0,0.0002127
195600000000,195900000000,501114088,0,38707777,6.676e-05,0.0004749,0.001936,0.0001945,0.0004244,0.000493,0,0,0.0004377,7.153e-05,9.586,0.04787,0,0,9.06e-05
195900000000,196200000000,501114088,0,38707777,6.39e-05,0.000473,0.001936,0.0001945,0.0004244,0.0004902,0,0,0.0004587,0,9.558,0.04796,0,0,1.24e-05
201300000000,201600000000,501114088,0,38707777,6.485e-05,0.0004721,0.001936,0.0001945,0.0004244,0.0004778,0,0,0.0006056,0,9.41,0.0479,0,0,3.433e-05
201600000000,201900000000,501114088,0,38707777,6.39e-05,0.0004692,0.001936,0.0001945,0.0004244,0.0004759,0,0,0.0009718,7.153e-05,9.351,0.04762,0,0,0.0001316
201900000000,202200000000,501114088,0,38707777,6.39e-05,0.0004721,0.001936,0.0001945,0.0004244,0.0004778,0,0,0.0003233,0,9.537,0.04758,0,0,8.106e-05
202200000000,202500000000,501114088,0,38707777,6.485e-05,0.0004692,0.001936,0.0001945,0.0004244,0.0004749,0,0,0.000351,7.153e-05,9.455,0.04855,0,0,3.242e-05
202500000000,202800000000,501114088,0,38707777,6.39e-05,0.0004768,0.001936,0.0001945,0.0004244,0.0004864,0,0,0.0009689,0,9.23,0.0476,0,0,5.531e-05
202800000000,203100000000,501114088,0,38707777,6.294e-05,0.000474,0.001936,0.0001945,0.0004244,0.0004864,0,0,0.0002632,7.153e-05,9.44,0.04765,0,0,2.48e-05
203100000000,203400000000,501114088,0,38707777,6.39e-05,0.0004721,0.001936,0.0001945,0.0004244,0.0004778,0,0,0.0002737,0,9.373,0.04831,0,0,6.676e-05
203400000000,203700000000,501114088,0,38707777,6.58e-05,0.0004692,0.001936,0.0001945,0.0004244,0.0004759,0,0,0.0003548,7.153e-05,9.482,0.04781,0,0,2.575e-05
203700000000,204000000000,501114088,0,38707777,6.485e-05,0.0004721,0.001936,0.0001945,0.0004244,0.0004778,0,0,0.0003977,0,9.42,0.04672,0,0,9.918e-05
204000000000,204300000000,501114088,0,38707777,6.485e-05,0.0004692,0.001936,0.0001945,0.0004244,0.0004759,0,0,0.0003042,7.153e-05,9.394,0.04766,0,0,8.869e-05
204300000000,204600000000,501114088,0,38707777,6.485e-05,0.0004711,0.001936,0.0001945,0.0004244,0.0004778,0,0,0.0003595,0,9.736,0.04832,0,0,1.526e-05
204600000000,204900000000,501114088,0,38707777,6.39e-05,0.0004692,0.001936,0.0001945,0.0004244,0.0004759,0,0,0.0002651,7.153e-05,9.595,0.04763,0,0,0.0001583
204900000000,205200000000,501114088,0,38707777,6.58e-05,0.0004721,0.001936,0.0001945,0.0004244,0.0004778,0,0,0.0007124,0,9.601,0.04769,0,0,4.387e-05
205200000000,205500000000,501114088,0,38707777,6.294e-05,0.0004692,0.001936,0.0001945,0.0004244,0.0004749,0,0,0.0004911,7.153e-05,9.326,0.04694,0,0,8.678e-05
205500000000,205800000000,501114088,0,38707777,6.199e-05,0.0004711,0.001936,0.0001945,0.0004244,0.0004778,0,0,0.0002794,0,9.226,0.0475,0,0,3.624e-05
205800000000,206100000000,501114088,0,38707777,6.485e-05,0.0004692,0.001936,0.0001945,0.0004244,0.0004749,0,0,0.0004225,7.153e-05,9.577,0.04748,0,0,3.338e-05
206100000000,206400000000,501114088,0,38707777,6.485e-05,0.0004759,0.001936,0.0001945,0.0004244,0.0004854,0,0,0.0003366,0,9.506,0.048,0,0,2.289e-05
206400000000,206700000000,501114088,0,38707777,6.39e-05,0.000473,0.001936,0.0001945,0.0004244,0.0004854,0,0,0.0003328,7.153e-05,9.171,0.04749,0,0,9.632e-05
206700000000,207000000000,501114088,0,38707777,6.39e-05,0.0004749,0.001936,0.0001945,0.0004244,0.0004797,0,0,0.0002804,7.153e-05,9.287,0.04662,0,0,4.768e-06
207000000000,207300000000,501114088,0,38707777,6.294e-05,0.0004683,0.001936,0.0001945,0.0004244,0.000474,0,0,0.0003176,7.153e-05,9.193,0.04691,0,0,2.766e-05
207300000000,207600000000,501114088,0,38707777,6.39e-05,0.0004702,0.001936,0.0001945,0.0004244,0.0004768,0,0,0.000268,0,9.563,0.04763,0,0,0.0001307
207600000000,207900000000,501114088,0,38707777,6.485e-05,0.0004683,0.001936,0.0001945,0.0004244,0.0004749,0,0,0.0003166,7.153e-05,9.829,0.04837,0,0,0.0001078
207900000000,208200000000,501114088,0,38707777,6.294e-05,0.0004702,0.001936,0.0001945,0.0004244,0.0004768,0,0,0.0002918,0,9.368,0.04783,0,0,0.0001001
208200000000,208500000000,501114088,0,38707777,6.485e-05,0.0004683,0.001936,0.0001945,0.0004244,0.0004749,0,0,0.0002813,7.153e-05,9.688,0.04776,0,0,0.0001278
208500000000,208800000000,501114088,0,38707777,6.485e-05,0.0004702,0.001936,0.0001945,0.0004244,0.0004768,0,0,0.0002632,0,9.777,0.04845,0,0,7.439e-05
208800000000,209100000000,501114088,0,38707777,6.485e-05,0.0004673,0.001936,0.0001945,0.0004244,0.000474,0,0,0.0003157,7.153e-05,9.547,0.04817,0,0,9.537e-05
209100000000,209400000000,501114088,0,38707777,6.485e-05,0.0004702,0.001936,0.0001945,0.0004244,0.0004759,0,0,0.0003481,0,9.454,0.04766,0,0,2.48e-05
209400000000,209700000000,501114088,0,38707777,6.485e-05,0.0004683,0.001936,0.0001945,0.0004244,0.000474,0,0,0.0003271,7.153e-05,9.235,0.04641,0,0,4.482e-05
209700000000,210000000000,501114088,0,38707777,6.58e-05,0.0004702,0.001936,0.0001945,0.0004244,0.0004759,0,0,0.000268,0,9.604,0.04696,0,0,0.0001001
210000000000,210300000000,501114088,0,38707777,6.485e-05,0.0004683,0.001936,0.0001945,0.0004244,0.000474,0,0,0.0002241,7.153e-05,9.889,0.04822,0,0,2.956e-05
210300000000,210600000000,501114088,0,38707777,6.866e-05,0.0004702,0.001936,0.0001955,0.0004244,0.0004759,0,0,0.0002851,0,10.03,0.04854,0,0,5.817e-05
210600000000,210900000000,501114088,0,38707777,6.39e-05,0.0004673,0.001936,0.0001955,0.0004244,0.000474,0,0,0.0003071,7.153e-05,9.491,0.0478,0,0,9.537e-06
210900000000,211200000000,501114088,0,38707777,6.39e-05,0.0004702,0.001936,0.0001955,0.0004244,0.0004759,0,0,0.0002642,0,9.574,0.04784,0,0,2.766e-05
211200000000,211500000000,501114088,0,38707777,6.485e-05,0.0004673,0.001936,0.0001955,0.0004244,0.0004749,0,0,0.0003405,7.153e-05,9.186,0.04657,0,0,1.144e-05
211500000000,211800000000,501114088,0,38707777,6.485e-05,0.0004702,0.001936,0.0001955,0.0004244,0.0004759,0,0,0.0003119,0,9.421,0.04704,0,0,2.575e-05
211800000000,212100000000,501114088,0,38707777,6.676e-05,0.0004673,0.001936,0.0001955,0.0004244,0.0004749,0,0,0.0003643,7.153e-05,9.579,0.04833,0,0,4.959e-05
212100000000,212400000000,501114088,0,38707777,6.771e-05,0.0004702,0.001936,0.0001955,0.0004244,0.0004759,0,0,0.0003633,0,9.865,0.04807,0,0,2.956e-05
212400000000,212700000000,501114088,0,38707777,6.58e-05,0.0004683,0.001936,0.0001955,0.0004244,0.000474,0,0,0.0002756,7.153e-05,9.259,0.04718,0,0,1.907e-05
212700000000,213000000000,501114088,0,38707777,6.294e-05,0.0004702,0.001936,0.0001955,0.0004244,0.0004759,0,0,0.0002728,0,9.371,0.04743,0,0,3.529e-05
213000000000,213300000000,501114088,0,38707777,6.485e-05,0.0004683,0.001936,0.0001955,0.0004244,0.000474,0,0,0.0003119,7.153e-05,9.418,0.04795,0,0,3.147e-05
213300000000,213600000000,501114088,0,38707777,6.58e-05,0.0004749,0.001936,0.0001955,0.0004244,0.000493,0,0,0.0003109,0,9.13,0.04765,0,0,0.0001097
213600000000,213900000000,501114088,0,38707777,6.58e-05,0.000473,0.001936,0.0001955,0.0004244,0.0004854,0,0,0.000267,7.153e-05,9.423,0.0479,0,0,3.242e-05
213900000000,214200000000,501114088,0,38707777,6.676e-05,0.000474,0.001936,0.0001955,0.0004244,0.0004778,0,0,0.0002947,7.153e-05,9.412,0.04654,0,0,7.915e-05
214200000000,214500000000,501114088,0,38707777,6.58e-05,0.0004683,0.001936,0.0001955,0.0004244,0.000474,0,0,0.0002928,7.153e-05,9.72,0.04776,0,0,4.387e-05
214500000000,214800000000,501114088,0,38707777,6.294e-05,0.0004702,0.001936,0.0001955,0.0004244,0.0004759,0,0,0.0002766,0,9.498,0.04813,0,0,1.526e-05
214800000000,215100000000,501114088,0,38707777,6.485e-05,0.0004683,0.001936,0.0001955,0.0004244,0.000474,0,0,0.0003223,7.153e-05,9.509,0.04759,0,0,7.629e-06
215100000000,215400000000,501114088,0,38707777,6.39e-05,0.0004702,0.001936,0.0001955,0.0004244,0.0004759,0,0,0.0002346,0,9.506,0.04773,0,0,8.297e-05
215400000000,215700000000,501114088,0,38707777,6.39e-05,0.0004683,0.001936,0.0001955,0.0004244,0.0004749,0,0,0.000268,7.153e-05,9.63,0.04813,0,0,7.629e-05
215700000000,216000000000,501114088,0,38707777,6.58e-05,0.0004702,0.001936,0.0001955,0.0004244,0.0004759,0,0,0.0003004,0,9.723,0.04816,0,0,1.717e-05
216000000000,216300000000,501114088,0,38707777,6.39e-05,0.0004673,0.001936,0.0001955,0.0004244,0.000474,0,0,0.0003071,7.153e-05,9.306,0.04719,0,0,8.965e-05
221100000000,221400000000,501114088,0,38707777,6.866e-05,0.000474,0.001936,0.0001955,0.0004253,0.0004778,0,0,0.0004759,7.153e-05,9.429,0.04708,0,0,2.193e-05
221400000000,221700000000,501114088,0,38707777,6.676e-05,0.0004683,0.001936,0.0001955,0.0004253,0.000474,0,0,0.0006227,7.153e-05,10,0.04852,0,0,0.000104
221700000000,222000000000,501114088,0,38707777,6.676e-05,0.0004702,0.001936,0.0001955,0.0004253,0.0004759,0,0,0.0002766,0,9.8,0.04899,0,0,0.000124
222000000000,222300000000,501114088,0,38707777,6.676e-05,0.0004673,0.001936,0.0001955,0.0004253,0.000474,0,0,0.000535,7.153e-05,9.885,0.04837,0,0,5.722e-05
222300000000,222600000000,501114088,0,38707777,6.485e-05,0.0004702,0.001936,0.0001955,0.0004253,0.0004759,0,0,0.0002508,0,9.684,0.04821,0,0,3.91e-05
222600000000,222900000000,501114088,0,38707777,6.485e-05,0.0004673,0.001936,0.0001955,0.0004253,0.0004749,0,0,0.0002451,7.153e-05,9.604,0.04825,0,0,5.245e-05
222900000000,223200000000,501114088,0,38707777,6.58e-05,0.0004702,0.001936,0.0001955,0.0004253,0.0004759,0,0,0.0002317,0,9.712,0.04802,0,0,2.384e-05
223200000000,223500000000,501114088,0,38707777,6.39e-05,0.0004673,0.001936,0.0001955,0.0004253,0.000473,0,0,0.0004873,7.153e-05,9.639,0.0482,0,0,6.676e-06
223500000000,223800000000,501114088,0,38707777,6.58e-05,0.0004702,0.001936,0.0001955,0.0004253,0.0004759,0,0,0.000248,0,9.811,0.04869,0,0,1.049e-05
223800000000,224100000000,501114088,0,38707777,6.771e-05,0.0004673,0.001936,0.0001955,0.0004253,0.000473,0,0,0.0002794,7.153e-05,9.596,0.04791,0,0,0.0001001
224100000000,224400000000,501114088,0,38707777,6.58e-05,0.0004749,0.001936,0.0001955,0.0004253,0.000493,0,0,0.0002365,0,10.14,0.04926,0,0,6.104e-05
224400000000,224700000000,501114088,0,38707777,6.771e-05,0.0004721,0.001936,0.0001955,0.0004253,0.0004854,0,0,0.0002069,7.153e-05,10.03,0.04957,0,0,2.193e-05
224700000000,225000000000,501114088,0,38707777,6.771e-05,0.0004702,0.001936,0.0001955,0.0004253,0.0004759,0,0,0.0002594,0,10.21,0.04934,0,0,6.962e-05
225000000000,225300000000,501114088,0,38707777,6.771e-05,0.0004673,0.001936,0.0001955,0.0004253,0.000474,0,0,0.0002575,7.153e-05,10.01,0.04881,0,0,3.147e-05
225300000000,225600000000,501114088,0,38707777,6.676e-05,0.0004702,0.001936,0.0001955,0.0004253,0.0004759,0,0,0.0002575,0,9.89,0.04937,0,0,6.676e-06
225600000000,225900000000,501114088,0,38707777,7.057e-05,0.0004673,0.001936,0.0001955,0.0004253,0.000474,0,0,0.0002766,7.153e-05,9.899,0.04851,0,0,3.242e-05
225900000000,226200000000,501114088,0,38707777,7.343e-05,0.0004702,0.001936,0.0001955,0.0004253,0.0004759,0,0,0.0002308,0,10.9,0.05013,0,0,1.812e-05
226200000000,226500000000,501114088,0,38707777,7.439e-05,0.0004673,0.001936,0.0001955,0.0004253,0.0004749,0,0,0.0003576,7.153e-05,10.75,0.05031,0,0,0.0001535
226500000000,226800000000,501114088,0,38707777,7.343e-05,0.0004702,0.001936,0.0001955,0.0004253,0.0004759,0,0,0.0005293,0,10.67,0.04948,0,0,8.965e-05
226800000000,227100000000,501114088,0,38707777,7.248e-05,0.0004673,0.001936,0.0001955,0.0004253,0.000473,0,0,0.0002441,7.153e-05,10.47,0.04961,0,0,2.861e-05
227100000000,227400000000,501114088,0,38707777,7.153e-05,0.0004702,0.001936,0.0001955,0.0004253,0.0004759,0,0,0.0002451,0,10.36,0.04933,0,0,8.583e-06
227400000000,227700000000,501114088,0,38707777,7.248e-05,0.0004683,0.001936,0.0001955,0.0004253,0.0004902,0,0,0.0002823,7.153e-05,10.68,0.04992,0,0,2.48e-05
227700000000,228000000000,501114088,0,38707777,7.534e-05,0.0004749,0.001936,0.0001955,0.0004253,0.000493,0,0,0.0002432,0,10.71,0.04974,0,0,7.248e-05
228000000000,228300000000,501114088,0,38707777,7.725e-05,0.000473,0.001936,0.0001955,0.0004253,0.0004854,0,0,0.0003109,7.153e-05,10.95,0.05011,0,0,7.629e-05
228300000000,228600000000,501114088,0,38707777,7.439e-05,0.000473,0.001936,0.0001955,0.0004253,0.0004778,0,0,0.0005798,7.153e-05,10.84,0.04998,0,0,0.0001278
228600000000,228900000000,501114088,0,38707777,7.153e-05,0.0004692,0.001936,0.0001955,0.0004253,0.0004778,0,0,0.0004549,7.153e-05,10.6,0.05004,0,0,0.0001535
228900000000,229200000000,501114088,0,38707777,7.248e-05,0.0004702,0.001936,0.0001955,0.0004253,0.0004759,0,0,0.0005579,0,10.49,0.04979,0,0,2.575e-05
229200000000,229500000000,501114088,0,38707777,7.439e-05,0.0004673,0.001936,0.0001955,0.0004253,0.000474,0,0,0.0006571,7.153e-05,11.05,0.05016,0,0,5.436e-05
229500000000,229800000000,501114088,0,38707777,7.629e-05,0.0004702,0.001936,0.0001955,0.0004253,0.0004759,0,0,0.000536,0,10.98,0.05026,0,0,3.624e-05
229800000000,230100000000,501114088,0,38707777,7.057e-05,0.0004683,0.001936,0.0001955,0.0004253,0.0004749,0,0,0.0004215,7.153e-05,10.4,0.04982,0,0,0.0001745
230100000000,230400000000,501114088,0,38707777,7.153e-05,0.0004702,0.001936,0.0001955,0.0004253,0.0004759,0,0,0.0003719,0,10.31,0.04953,0,0,4.196e-05
230400000000,230700000000,501114088,0,38707777,7.534e-05,0.0004673,0.001936,0.0001955,0.0004253,0.000473,0,0,0.0003538,7.153e-05,10.72,0.05009,0,0,7.82e-05
230700000000,231000000000,501114088,0,38707777,7.534e-05,0.0004702,0.001936,0.0001955,0.0004253,0.0004759,0,0,0.0003281,0,10.63,0.05006,0,0,4.959e-05
231000000000,231300000000,501114088,0,38707777,6.962e-05,0.0004683,0.001936,0.0001955,0.0004253,0.000474,0,0,0.000391,7.153e-05,10.45,0.04998,0,0,3.624e-05
231300000000,231600000000,501114088,0,38707777,7.248e-05,0.0004702,0.001936,0.0001955,0.0004253,0.0004759,0,0,0.0002794,0,10.52,0.04972,0,0,4.387e-05
231600000000,231900000000,501114088,0,38707777,7.725e-05,0.0004673,0.001936,0.0001955,0.0004253,0.000474,0,0,0.0004864,7.153e-05,10.78,0.05028,0,0,3.91e-05
231900000000,232200000000,501114088,0,38707777,7.153e-05,0.0004702,0.001936,0.0001955,0.0004253,0.0004759,0,0,0.0002966,0,10.76,0.0504,0,0,0.0001097
232200000000,232500000000,501114088,0,38707777,6.866e-05,0.0004673,0.001936,0.0001955,0.0004253,0.000474,0,0,0.0003443,7.153e-05,10.26,0.04945,0,0,8.583e-05
232500000000,232800000000,501114088,0,38707777,6.676e-05,0.0004702,0.001936,0.0001955,0.0004253,0.0004759,0,0,0.0003824,0,9.937,0.04963,0,0,4.578e-05
232800000000,233100000000,501114088,0,38707777,6.771e-05,0.0004683,0.001936,0.0001955,0.0004253,0.000474,0,0,0.0003109,7.153e-05,9.971,0.04863,0,0,7.629e-06
233100000000,233400000000,501114088,0,38707777,6.58e-05,0.0004702,0.001936,0.0001955,0.0004253,0.0004759,0,0,0.0002642,0,9.833,0.04869,0,0,4.959e-05
233400000000,233700000000,501114088,0,38707777,6.676e-05,0.0004673,0.001936,0.0001955,0.0004253,0.0004749,0,0,0.0002375,7.153e-05,9.702,0.04883,0,0,8.583e-06
233700000000,234000000000,501114088,0,38707777,7.248e-05,0.0004702,0.001936,0.0001955,0.0004253,0.0004759,0,0,0.0005693,0,10.09,0.04867,0,0,6.485e-05
234000000000,234300000000,501114088,0,38707777,7.629e-05,0.0004673,0.001936,0.0001955,0.0004253,0.000473,0,0,0.0003929,7.153e-05,11.09,0.05036,0,0,1.049e-05
234300000000,234600000000,501114088,0,38707777,7.439e-05,0.0004702,0.001936,0.0001955,0.0004253,0.0004759,0,0,0.0003195,0,10.7,0.05025,0,0,0.0002184
234600000000,234900000000,501114088,0,38707777,7.248e-05,0.0004711,0.001936,0.0001955,0.0004253,0.0004911,0,0,0.00106,7.153e-05,10.74,0.05026,0,0,8.488e-05
234900000000,235200000000,501114088,0,38707777,7.439e-05,0.000474,0.001936,0.0001955,0.0004253,0.0004921,0,0,0.0007114,0,10.71,0.04962,0,0,5.627e-05
235200000000,235500000000,501114088,0,38707777,7.343e-05,0.0004711,0.001936,0.0001955,0.0004253,0.0004854,0,0,0.0004654,7.153e-05,10.58,0.05001,0,0,6.008e-05
235500000000,235800000000,501114088,0,38707777,7.629e-05,0.0004721,0.001936,0.0001955,0.0004253,0.0004778,0,0,0.0004454,7.153e-05,10.74,0.04994,0,0,0.0001192
235800000000,236100000000,501114088,0,38707777,7.439e-05,0.0004702,0.001936,0.0001955,0.0004253,0.0004778,0,0,0.0003195,7.153e-05,10.68,0.04978,0,0,1.24e-05
236100000000,236400000000,501114088,0,38707777,7.343e-05,0.0004702,0.001936,0.0001955,0.0004253,0.0004759,0,0,0.0005665,0,10.64,0.0498,0,0,7.153e-05
241200000000,241500000000,501114088,0,38707777,6.485e-05,0.0004654,0.001936,0.0001965,0.0004253,0.0004711,0,0,0.0007954,7.153e-05,9.811,0.04897,0,0,9.537e-06
241500000000,241800000000,501114088,0,38707777,6.676e-05,0.0004673,0.001936,0.0001965,0.0004253,0.000474,0,0,0.0008078,0,9.754,0.04875,0,0,2.098e-05
241800000000,242100000000,501114088,0,38707777,6.866e-05,0.0004654,0.001936,0.0001965,0.0004253,0.0004711,0,0,0.0009193,7.153e-05,10.05,0.04876,0,0,3.815e-06
242100000000,242400000000,501114088,0,38707777,6.866e-05,0.0004683,0.001936,0.0001965,0.0004253,0.000474,0,0,0.0009117,0,10.35,0.04916,0,0,0.0001497
242400000000,242700000000,501114088,0,38707777,6.962e-05,0.0004654,0.001936,0.0001965,0.0004253,0.0004711,0,0,0.001219,7.153e-05,10.12,0.04871,0,0,1.049e-05
242700000000,243000000000,501114088,0,38707777,6.771e-05,0.0004683,0.001936,0.0001965,0.0004253,0.000474,0,0,0.001474,0,9.772,0.04894,0,0,2.766e-05
243000000000,243300000000,501114088,0,38707777,6.39e-05,0.0004692,0.001936,0.0001965,0.0004253,0.0004749,9.537e-07,0,0.001282,7.153e-05,9.411,0.04887,0,0,3.815e-05
243300000000,243600000000,501114088,0,38707777,6.39e-05,0.0004683,0.001936,0.0001965,0.0004253,0.000474,0,0,0.0008268,0,9.269,0.04766,0,0,2.48e-05
243600000000,243900000000,501114088,0,38707777,6.58e-05,0.0004654,0.001936,0.0001965,0.0004253,0.000473,0,0,0.001341,7.153e-05,9.696,0.04938,0,0,4.864e-05
243900000000,244200000000,501114088,0,38707777,6.58e-05,0.0004683,0.001936,0.0001965,0.0004253,0.0004759,0,0,0.001215,0,9.803,0.04917,0,0,4.196e-05
244200000000,244500000000,501114088,0,38707777,6.771e-05,0.0004654,0.001936,0.0001965,0.0004253,0.000473,0,0,0.0007601,7.153e-05,9.788,0.04866,0,0,7.629e-05
244500000000,244800000000,501114088,0,38707777,6.771e-05,0.0004683,0.001936,0.0001965,0.0004253,0.000474,0,0,0.0005932,0,9.948,0.04887,0,0,9.537e-06
244800000000,245100000000,501114088,0,38707777,6.771e-05,0.0004654,0.001936,0.0001965,0.0004253,0.0004711,0,0,0.0003376,7.153e-05,9.863,0.04956,0,0,2.766e-05
245100000000,245400000000,501114088,0,38707777,6.676e-05,0.0004683,0.001936,0.0001965,0.0004253,0.000474,0,0,0.00124,0,10.17,0.04955,0,0,2.384e-05
245400000000,245700000000,501114088,0,38707777,6.771e-05,0.0004702,0.001936,0.0001965,0.0004253,0.0004816,0,0,0.0008202,7.153e-05,10.01,0.04918,0,0,6.294e-05
245700000000,246000000000,501114088,0,38707777,6.962e-05,0.000473,0.001936,0.0001965,0.0004263,0.0004826,0,0,0.00132,0,10.16,0.05002,0,0,1.335e-05
246000000000,246300000000,501114088,0,38707777,6.866e-05,0.0004654,0.001936,0.0001965,0.0004263,0.0004711,0,0,0.001513,7.153e-05,10.24,0.04999,0,0,0.0001097
251400000000,251700000000,501114088,0,38707777,6.676e-05,0.0004644,0.001936,0.0001965,0.0004263,0.0004721,0,0,0.0009222,7.153e-05,9.792,0.04961,0,0,0.0001192
251700000000,252000000000,501114088,0,38707777,6.866e-05,0.0004673,0.001936,0.0001965,0.0004263,0.000473,0,0,0.001514,0,9.929,0.04969,0,0,4.578e-05
252000000000,252300000000,501114088,0,38707777,6.866e-05,0.0004644,0.001936,0.0001965,0.0004263,0.0004711,0,0,0.001116,7.153e-05,9.81,0.04903,0,0,9.823e-05
252600000000,252900000000,501114088,0,277452053,8.011e-05,0.0004034,0.001936,0.0001888,0.0004025,0.0005474,9.537e-07,0,0.0002546,7.153e-05,6.664,0.02664,0,0,0.0001974
252900000000,253200000000,501114088,0,277452053,8.392e-05,0.0004034,0.001934,0.0001841,0.0003986,0.0004473,5.722e-06,0,0.002724,0.001642,4.807,0.01744,0,0,1.717e-05
253200000000,253500000000,501114088,0,277452053,8.106e-05,0.0004406,0.001936,0.0001688,0.0003862,0.0004473,0,0,0.0004368,7.153e-05,5.614,0.02173,0,0,0.0001755
253500000000,253800000000,501114088,0,277452053,8.106e-05,0.0004416,0.001936,0.0001688,0.0003862,0.0004482,0,0,0.0004358,7.153e-05,5.53,0.02131,0,0,0.0001183
253800000000,254100000000,501114088,0,277452053,8.106e-05,0.0004511,0.001936,0.0001688,0.0003862,0.0004559,0,0,0.0002689,7.153e-05,5.59,0.02159,0,0,4.196e-05
254100000000,254400000000,501114088,0,277452053,8.106e-05,0.0004501,0.001936,0.0001688,0.0003862,0.0004559,0,0,0.0003099,7.153e-05,5.736,0.02232,0,0,8.583e-06
254400000000,254700000000,501114088,0,277452053,8.106e-05,0.0004482,0.001936,0.0001688,0.0003862,0.0004559,0,0,0.0002975,0,5.456,0.02086,0,0,0.0001707
254700000000,255000000000,501114088,0,277452053,8.011e-05,0.0004501,0.001936,0.0001688,0.0003862,0.0004559,0,0,0.0002613,7.153e-05,7.13,0.02888,0,0,9.06e-05
255000000000,255300000000,501114088,0,277452053,7.915e-05,0.0004568,0.001936,0.0001688,0.0003862,0.0004625,0,0,0.0003681,7.153e-05,7.305,0.03,0,0,4.673e-05
255300000000,255600000000,501114088,0,277452053,7.534e-05,0.0004559,0.001936,0.0001688,0.0003862,0.0004625,0,0,0.0003386,7.153e-05,5.651,0.02219,0,0,4.292e-05
255600000000,255900000000,501114088,0,277452053,7.439e-05,0.0004549,0.001936,0.0001688,0.0003862,0.0004625,0,0,0.0003414,0,5.261,0.02098,0,0,1.049e-05
255900000000,256200000000,501114088,0,277452053,7.439e-05,0.0004549,0.001936,0.0001688,0.0003862,0.0004616,0,0,0.0006342,7.153e-05,4.451,0.01727,0,0,0.0001335
256200000000,256500000000,501114088,0,277452053,7.629e-05,0.0004539,0.001936,0.0001688,0.0003862,0.0004606,0,0,0.0004663,0,5.04,0.01999,0,0,6.58e-05
256500000000,256800000000,501114088,0,277452053,8.106e-05,0.0004549,0.001936,0.0001688,0.0003862,0.0004616,0,0,0.0008993,7.153e-05,5.725,0.02199,0,0,0.000123
256800000000,257100000000,501114088,0,277452053,7.629e-05,0.000453,0.001936,0.0001688,0.0003862,0.0004578,0,0,0.0005331,0,8.279,0.03547,0,0,4.768e-05
257100000000,257400000000,501114088,0,277452053,7.439e-05,0.0004549,0.001936,0.0001688,0.0003862,0.0004606,0,0,0.000474,7.153e-05,6.809,0.02868,0,0,9.06e-05
257400000000,257700000000,501114088,0,277452053,7.534e-05,0.0004587,0.001936,0.0001688,0.0003862,0.0004644,9.537e-07,0,0.0004511,7.153e-05,5.888,0.02402,0,0,2.861e-05
257700000000,258000000000,501114088,0,277452053,7.534e-05,0.0004587,0.001936,0.0001688,0.0003862,0.0004644,0,0,0.0004539,7.153e-05,5.195,0.0205,0,0,0.0001411
258000000000,258300000000,501114088,0,277452053,7.629e-05,0.0004559,0.001936,0.0001688,0.0003862,0.0004644,0,0,0.0005293,0,6.33,0.0264,0,0,8.583e-06
258300000000,258600000000,501114088,0,277452053,7.534e-05,0.0004587,0.001936,0.0001688,0.0003862,0.0004644,0,0,0.0002909,7.153e-05,5.277,0.02108,0,0,9.537e-06
258600000000,258900000000,501114088,0,277452053,7.534e-05,0.0004559,0.001936,0.0001688,0.0003862,0.0004635,0,0,0.0003166,0,4.751,0.01849,0,0,2.67e-05
258900000000,259200000000,501114088,0,277452053,7.343e-05,0.0004578,0.001936,0.0001688,0.0003862,0.0004644,0,0,0.0003195,7.153e-05,6.089,0.02519,0,0,0.0001221
259200000000,259500000000,501114088,0,277452053,7.439e-05,0.0004559,0.001936,0.0001688,0.0003862,0.0004644,0,0,0.0002794,0,6.998,0.02948,0,0,0.000145
259500000000,259800000000,501114088,0,277452053,7.343e-05,0.0004578,0.001936,0.0001688,0.0003862,0.0004644,0,0,0.0002689,7.153e-05,6.664,0.02753,0,0,8.488e-05
259800000000,260100000000,501114088,0,277452053,7.343e-05,0.0004568,0.001936,0.0001688,0.0003862,0.0004644,0,0,0.0002413,0,6.481,0.02705,0,0,2.67e-05
260100000000,260400000000,501114088,0,277452053,7.343e-05,0.0004578,0.001936,0.0001688,0.0003862,0.0004644,0,0,0.0002346,7.153e-05,7.363,0.03159,0,0,3.719e-05
260400000000,260700000000,501114088,0,277452053,7.343e-05,0.0004568,0.001936,0.0001688,0.0003862,0.0004625,0,0,0.0002527,0,7.494,0.03182,0,0,4.005e-05
260700000000,261000000000,501114088,0,277452053,7.439e-05,0.0004587,0.001936,0.0001688,0.0003862,0.0004644,0,0,0.0002728,7.153e-05,5.895,0.02435,0,0,8.583e-06
261000000000,261300000000,501114088,0,277452053,7.439e-05,0.0004559,0.001936,0.0001688,0.0003862,0.0004644,0,0,0.0002403,0,5.943,0.02444,0,0,0.0002079
261300000000,261600000000,501114088,0,277452053,7.534e-05,0.0004587,0.001936,0.0001688,0.0003862,0.0004644,0,0,0.0003777,7.153e-05,5.178,0.02048,0,0,3.815e-05
261600000000,261900000000,501114088,0,277452053,7.534e-05,0.0004559,0.001936,0.0001688,0.0003862,0.0004644,0,0,0.0002747,0,6.456,0.0267,0,0,0.0001774
261900000000,262200000000,501114088,0,277452053,7.534e-05,0.0004587,0.001936,0.0001688,0.0003862,0.0004644,3.815e-06,0,0.0003424,0.001215,5.387,0.0214,0,0,4.578e-05
262200000000,262500000000,501114088,0,277452053,7.534e-05,0.0004597,0.001936,0.0001698,0.0003862,0.0004702,1.907e-06,0,0.0003424,0.0005713,6.402,0.02657,0,0,0.000164
262500000000,262800000000,501114088,0,277452053,7.534e-05,0.0004644,0.001936,0.0001707,0.0003881,0.0004702,0,0,0.0004835,7.153e-05,6.237,0.02579,0,0,9.537e-06
262800000000,263100000000,501114088,0,277452053,7.439e-05,0.0004606,0.001936,0.0001707,0.0003881,0.0004683,0,0,0.0002518,0,6.6,0.02734,0,0,2.861e-05
263100000000,263400000000,501114088,0,277452053,7.629e-05,0.0004616,0.001936,0.0001707,0.0003881,0.0004683,0,0,0.0003138,7.153e-05,5.671,0.02273,0,0,8.011e-05
263400000000,263700000000,501114088,0,277452053,7.534e-05,0.0004606,0.001936,0.0001707,0.0003881,0.0004683,0,0,0.0003414,0,4.974,0.01952,0,0,2.289e-05
263700000000,264000000000,501114088,0,277452053,7.534e-05,0.0004616,0.001936,0.0001707,0.0003881,0.0004683,0,0,0.000699,0.0001431,5.433,0.0216,0,0,0.0001669
264000000000,264300000000,501114088,0,277452053,7.534e-05,0.0004606,0.001936,0.0001707,0.0003881,0.0004673,0,0,0.0002823,0,5.833,0.02352,0,0,9.823e-05
264300000000,264600000000,501114088,0,277452053,7.439e-05,0.0004625,0.001936,0.0001707,0.0003881,0.0004683,0,0,0.0004959,7.153e-05,6.634,0.02803,0,0,0.000104
264600000000,264900000000,501114088,0,277452053,7.534e-05,0.0004606,0.001936,0.0001707,0.0003881,0.0004683,0,0,0.0004873,0,5.728,0.02349,0,0,1.144e-05
264900000000,265200000000,501114088,0,277452053,7.534e-05,0.0004625,0.001936,0.0001707,0.0003881,0.0004683,0,0,0.0004864,7.153e-05,5.031,0.01983,0,0,0.0001583
265200000000,265500000000,501114088,0,277452053,7.534e-05,0.0004597,0.001936,0.0001707,0.0003881,0.0004683,0,0,0.0005341,0,5.468,0.02163,0,0,7.343e-05
265500000000,265800000000,501114088,0,277452053,7.629e-05,0.0004625,0.001936,0.0001707,0.0003881,0.0004683,1.907e-06,0,0.0004578,0.0004997,6.178,0.02537,0,0,4.768e-05
265800000000,266100000000,501114088,0,277452053,7.439e-05,0.0004606,0.001936,0.0001707,0.0003881,0.0004683,0,0,0.0004187,0,5.438,0.02183,0,0,5.913e-05
266100000000,266400000000,501114088,0,277452053,7.534e-05,0.0004625,0.001936,0.0001707,0.0003881,0.0004683,0,0,0.0003853,7.153e-05,6.13,0.02549,0,0,6.104e-05
266400000000,266700000000,501114088,0,277452053,7.534e-05,0.0004606,0.001936,0.0001707,0.0003881,0.0004683,0,0,0.0003023,0,6.346,0.02639,0,0,3.719e-05
266700000000,267000000000,501114088,0,277452053,7.439e-05,0.0004616,0.001936,0.0001707,0.0003881,0.0004683,0,0,0.0002584,7.153e-05,6.411,0.02684,0,0,0.0001221
267000000000,267300000000,501114088,0,277452053,7.343e-05,0.0004606,0.001936,0.0001707,0.0003881,0.0004683,0,0,0.0002699,0,7.341,0.03147,0,0,5.341e-05
267300000000,267600000000,501114088,0,277452053,7.629e-05,0.0004616,0.001936,0.0001707,0.0003881,0.0004683,0,0,0.0002518,7.153e-05,6.633,0.02807,0,0,2.48e-05
267600000000,267900000000,501114088,0,277452053,7.343e-05,0.0004606,0.001936,0.0001717,0.0003881,0.0004683,0,0,0.000288,0,6.62,0.02797,0,0,4.482e-05
267900000000,268200000000,501114088,0,277452053,7.629e-05,0.0004625,0.001936,0.0001717,0.0003881,0.0004683,0,0,0.0003052,7.153e-05,5.984,0.02436,0,0,2.384e-05
268200000000,268500000000,501114088,0,277452053,7.629e-05,0.0004597,0.001936,0.0001717,0.0003881,0.0004683,0,0,0.0004005,0,4.656,0.01779,0,0,4.673e-05
268500000000,268800000000,501114088,0,277452053,7.343e-05,0.0004625,0.001936,0.0001717,0.0003881,0.0004683,0,0,0.0002661,7.153e-05,6.16,0.02539,0,0,3.242e-05
268800000000,269100000000,501114088,0,277452053,7.343e-05,0.0004597,0.001936,0.0001717,0.0003881,0.0004683,0,0,0.0002747,0,6.728,0.0282,0,0,4.292e-05
269100000000,269400000000,501114088,0,277452053,7.343e-05,0.0004625,0.001936,0.0001717,0.0003881,0.0004683,1.907e-06,0,0.0002909,0.0005713,5.66,0.0229,0,0,5.817e-05
269400000000,269700000000,501114088,0,277452053,7.343e-05,0.0004616,0.001936,0.0001717,0.0003881,0.0004683,0,0,0.0002251,7.153e-05,6.68,0.02819,0,0,5.722e-05
269700000000,270000000000,501114088,0,277452053,7.343e-05,0.0004644,0.001936,0.0001717,0.0003881,0.0004683,0,0,0.0002775,7.153e-05,5.221,0.02073,0,0,1.144e-05
270000000000,270300000000,501114088,0,277452053,7.439e-05,0.0004606,0.001936,0.0001717,0.0003881,0.0004683,0,0,0.0003071,0,5.267,0.02074,0,0,4.387e-05
270300000000,270600000000,501114088,0,277452053,7.343e-05,0.0004616,0.001936,0.0001717,0.0003881,0.0004683,0,0,0.0002317,7.153e-05,6.847,0.02879,0,0,2.861e-05
270600000000,270900000000,501114088,0,277452053,7.343e-05,0.0004606,0.001936,0.0001717,0.0003881,0.0004683,0,0,0.0002689,0,6.248,0.02618,0,0,6.008e-05
270900000000,271200000000,501114088,0,277452053,7.343e-05,0.0004616,0.001936,0.0001717,0.0003881,0.0004683,0,0,0.0002651,7.153e-05,5.36,0.02177,0,0,4.768e-05
271200000000,271500000000,501114088,0,277452053,7.343e-05,0.0004606,0.001936,0.0001717,0.0003881,0.0004683,0,0,0.0002832,0,6.535,0.02732,0,0,0.0001192
281400000000,281700000000,501114088,0,277452053,7.248e-05,0.0004597,0.001936,0.0001717,0.0003891,0.0004683,0,0,0.0003309,0,4.143,0.01601,0,0,5.054e-05
281700000000,282000000000,501114088,0,277452053,7.248e-05,0.0004616,0.001936,0.0001717,0.0003891,0.0004673,0,0,0.000308,7.153e-05,4.74,0.01906,0,0,5.817e-05
282000000000,282300000000,501114088,0,277452053,7.153e-05,0.0004606,0.001936,0.0001717,0.0003891,0.0004673,0,0,0.0002737,0,5.24,0.02129,0,0,3.529e-05
282300000000,282600000000,501114088,0,277452053,7.248e-05,0.0004616,0.001936,0.0001717,0.0003891,0.0004683,0,0,0.0003109,7.153e-05,4.657,0.01853,0,0,2.575e-05
282600000000,282900000000,501114088,0,277452053,7.153e-05,0.0004597,0.001936,0.0001717,0.0003891,0.0004673,0,0,0.0003004,0,4.663,0.01853,0,0,3.815e-06
282900000000,283200000000,501114088,0,277452053,7.057e-05,0.0004616,0.001936,0.0001717,0.0003891,0.0004673,0,0,0.0003138,7.153e-05,5.57,0.02319,0,0,8.583e-06
283200000000,283500000000,501114088,0,277452053,7.153e-05,0.0004597,0.001936,0.0001717,0.0003891,0.0004673,0,0,0.0002651,0,5.414,0.02205,0,0,0.0001335
283500000000,283800000000,501114088,0,277452053,7.153e-05,0.0004616,0.001936,0.0001717,0.0003891,0.0004673,0,0,0.000268,7.153e-05,5.601,0.0231,0,0,5.817e-05
283800000000,284100000000,501114088,0,277452053,7.153e-05,0.0004597,0.001936,0.0001717,0.0003891,0.0004673,0,0,0.0002708,0,6.041,0.02573,0,0,1.049e-05
284100000000,284400000000,501114088,0,277452053,7.057e-05,0.0004654,0.001936,0.0001717,0.0003891,0.0004683,9.537e-07,0,0.0002575,7.153e-05,5.423,0.02232,0,0,3.719e-05
284400000000,284700000000,501114088,0,277452053,7.153e-05,0.0004597,0.001936,0.0001717,0.0003891,0.0004673,0,0,0.0002546,0,5.092,0.0207,0,0,9.632e-05
284700000000,285000000000,501114088,0,277452053,7.153e-05,0.0004616,0.001936,0.0001717,0.0003891,0.0004673,0,0,0.0002909,7.153e-05,5.157,0.02116,0,0,0.0001249
285000000000,285300000000,501114088,0,277452053,7.153e-05,0.0004597,0.001936,0.0001717,0.0003891,0.0004673,0,0,0.0002832,0,5.472,0.02298,0,0,2.956e-05
285300000000,285600000000,501114088,0,277452053,6.962e-05,0.0004606,0.001936,0.0001717,0.0003891,0.0004673,0,0,0.0002155,7.153e-05,5.929,0.02555,0,0,4.387e-05
285600000000,285900000000,501114088,0,277452053,7.057e-05,0.0004597,0.001936,0.0001717,0.0003891,0.0004673,0,0,0.000247,0,5.171,0.02179,0,0,5.054e-05
285900000000,286200000000,501114088,0,277452053,7.153e-05,0.0004616,0.001936,0.0001717,0.0003891,0.0004673,0,0,0.000576,7.153e-05,5.264,0.02161,0,0,0.0001144
286200000000,286500000000,501114088,0,277452053,7.153e-05,0.0004597,0.001936,0.0001717,0.0003891,0.0004673,0,0,0.0004597,0,4.816,0.01948,0,0,0.0002136
286500000000,286800000000,501114088,0,277452053,8.392e-05,0.0004625,0.001936,0.0001717,0.0003891,0.0004711,9.537e-07,0,0.000474,7.153e-05,6.137,0.02639,0,0,3.815e-05
286800000000,287100000000,501114088,0,277452053,0.0001135,0.0004606,0.001936,0.0001717,0.0003891,0.0004711,0,0,0.0004597,0,7.203,0.03216,0,0,0.0001545
287100000000,287400000000,501114088,0,277452053,0.0001163,0.0004625,0.001936,0.0001717,0.0003891,0.0004683,0,0,0.000577,7.153e-05,6.696,0.02964,0,0,0.0002279
287400000000,287700000000,501114088,0,277452053,0.0001173,0.0004606,0.001936,0.0001717,0.0003891,0.0004683,0,0,0.0005322,0,7.752,0.03422,0,0,5.627e-05
287700000000,288000000000,501114088,0,277452053,0.0001192,0.0004625,0.001936,0.0001717,0.0003891,0.0004683,0,0,0.0005608,7.153e-05,7.89,0.035,0,0,0.0002003
288000000000,288300000000,501114088,0,277452053,0.0001183,0.0004606,0.001936,0.0001717,0.0003891,0.0004683,0,0,0.000514,0,7.038,0.03062,0,0,8.202e-05
288300000000,288600000000,501114088,0,277452053,0.0001173,0.0004625,0.001936,0.0001717,0.0003891,0.0004683,0,0,0.0004587,7.153e-05,6.836,0.02952,0,0,6.104e-05
288600000000,288900000000,501114088,0,277452053,0.0001163,0.0004606,0.001936,0.0001717,0.0003891,0.0004683,0,0,0.0005302,0,7.351,0.033,0,0,0.0004034
288900000000,289200000000,501114088,0,277452053,0.0001183,0.0004625,0.001936,0.0001717,0.0003891,0.0004683,0,0,0.0004959,7.153e-05,7.351,0.03202,0,0,4.101e-05
289200000000,289500000000,501114088,0,277452053,0.0001259,0.0004606,0.001936,0.0001717,0.0003891,0.0004683,0,0,0.0005045,0,8.238,0.03552,0,0,0.0001822
289500000000,289800000000,501114088,0,277452053,0.0001154,0.0004625,0.001936,0.0001717,0.0003891,0.0004683,0,0,0.0004263,7.153e-05,7.68,0.03414,0,0,9.537e-06
289800000000,290100000000,501114088,0,277452053,0.0001173,0.0004606,0.001936,0.0001717,0.0003891,0.0004683,0,0,0.0002832,0,7.249,0.03161,0,0,4.673e-05
290100000000,290400000000,501114088,0,277452053,0.0001173,0.0004625,0.001936,0.0001717,0.0003891,0.0004683,0,0,0.0007658,7.153e-05,8.511,0.03802,0,0,0.000165
290400000000,290700000000,501114088,0,277452053,0.0001163,0.0004606,0.001936,0.0001717,0.0003891,0.0004683,0,0,0.0003157,0,8.213,0.03654,0,0,3.719e-05
290700000000,291000000000,501114088,0,277452053,0.0001154,0.0004625,0.001936,0.0001717,0.0003891,0.0004683,0,0,0.0002785,7.153e-05,7.79,0.03501,0,0,4.101e-05
291000000000,291300000000,501114088,0,277452053,0.0001154,0.0004606,0.001936,0.0001717,0.0003891,0.0004683,0,0,0.0002565,0,8.071,0.03632,0,0,0.0001774
291300000000,291600000000,501114088,0,277452053,0.0001163,0.0004663,0.001936,0.0001726,0.0003891,0.0004683,9.537e-07,0,0.0003576,7.153e-05,7.967,0.03571,0,0,2.384e-05
291600000000,291900000000,501114088,0,277452053,0.0001173,0.0004606,0.001936,0.0001726,0.0003891,0.0004683,0,0,0.000268,0,7.144,0.03168,0,0,4.101e-05
291900000000,292200000000,501114088,0,277452053,0.0001183,0.0004625,0.001936,0.0001726,0.0003891,0.0004683,0,0,0.0005293,7.153e-05,6.928,0.03039,0,0,3.529e-05
292200000000,292500000000,501114088,0,277452053,0.0001154,0.0004606,0.001936,0.0001726,0.0003891,0.0004683,0,0,0.0002871,0,6.686,0.02917,0,0,0.0001383
292500000000,292800000000,501114088,0,277452053,0.0001135,0.0004616,0.001936,0.0001726,0.0003891,0.0004683,0,0,0.0002708,7.153e-05,6.719,0.02958,0,0,3.433e-05
292800000000,293100000000,501114088,0,277452053,0.0001144,0.0004606,0.001936,0.0001726,0.0003891,0.0004683,0,0,0.0002775,0,6.516,0.02887,0,0,0.0001049
293100000000,293400000000,501114088,0,277452053,0.0001135,0.0004625,0.001936,0.0001726,0.0003891,0.0004683,0,0,0.0003099,7.153e-05,7.238,0.03239,0,0,6.39e-05
293400000000,293700000000,501114088,0,277452053,0.0001144,0.0004606,0.001936,0.0001726,0.0003891,0.0004673,0,0,0.0002642,0,6.918,0.03143,0,0,0.0001583
293700000000,294000000000,501114088,0,277452053,0.0001135,0.0004625,0.001936,0.0001726,0.0003891,0.0004683,0,0,0.0002756,7.153e-05,8.304,0.03766,0,0,4.578e-05
294000000000,294300000000,501114088,0,277452053,0.0001144,0.0004606,0.001936,0.0001726,0.0003891,0.0004683,0,0,0.0002832,0,6.789,0.03037,0,0,0.0001259
294300000000,294600000000,501114088,0,277452053,0.0001154,0.0004625,0.001936,0.0001726,0.0003891,0.0004683,0,0,0.0002918,7.153e-05,6.801,0.02994,0,0,0.0001993
294600000000,294900000000,501114088,0,277452053,0.0001144,0.0004606,0.001936,0.0001726,0.0003891,0.0004683,0,0,0.0003166,0,6.615,0.02926,0,0,1.526e-05
294900000000,295200000000,501114088,0,277452053,0.0001154,0.0004625,0.001936,0.0001726,0.0003891,0.0004683,0,0,0.0003443,7.153e-05,5.881,0.02498,0,0,1.621e-05
295200000000,295500000000,501114088,0,277452053,0.0001163,0.0004606,0.001936,0.0001726,0.0003891,0.0004683,0,0,0.0003281,0,6.047,0.02579,0,0,9.918e-05
295500000000,295800000000,501114088,0,277452053,0.0001163,0.0004625,0.001936,0.0001726,0.0003891,0.0004683,0,0,0.0003185,7.153e-05,6.057,0.02593,0,0,5.245e-05
295800000000,296100000000,501114088,0,277452053,0.0001154,0.0004606,0.001936,0.0001726,0.0003891,0.0004683,0,0,0.0004129,0,5.852,0.02517,0,0,0.0001602
296100000000,296400000000,501114088,0,277452053,0.0001154,0.0004616,0.001936,0.0001726,0.0003891,0.0004683,0,0,0.0003042,7.153e-05,6.112,0.02673,0,0,0.0001583
296400000000,296700000000,501114088,0,277452053,0.0001163,0.0004606,0.001936,0.0001726,0.0003891,0.0004683,0,0,0.0002689,0,7.536,0.03379,0,0,3.433e-05
296700000000,297000000000,501114088,0,277452053,0.0001173,0.0004625,0.001936,0.0001726,0.0003891,0.0004683,0,0,0.0002947,7.153e-05,7.488,0.03341,0,0,0.0002947
297000000000,297300000000,501114088,0,277452053,0.0001163,0.0004606,0.001936,0.0001726,0.0003891,0.0004683,0,0,0.0006533,0,7.497,0.03349,0,0,4.292e-05
297300000000,297600000000,501114088,0,277452053,0.0001154,0.0004625,0.001936,0.0001726,0.0003891,0.0004683,0,0,0.0002966,7.153e-05,7.658,0.03474,0,0,7.725e-05
297600000000,297900000000,501114088,0,277452053,0.0001173,0.0004597,0.001936,0.0001726,0.0003891,0.0004683,0,0,0.0003157,0,6.204,0.02701,0,0,0.0001078
297900000000,298200000000,501114088,0,277452053,0.0001163,0.0004625,0.001936,0.0001726,0.0003891,0.0004683,0,0,0.000349,7.153e-05,6.672,0.02958,0,0,0.0001392
298200000000,298500000000,501114088,0,277452053,0.0001173,0.0004597,0.001936,0.0001726,0.0003891,0.0004683,0,0,0.0002956,0,6.137,0.02653,0,0,0.0001783
298500000000,298800000000,501114088,0,277452053,0.0001163,0.0004654,0.001936,0.0001726,0.0003891,0.0004711,1.907e-06,0,0.0003366,0.0004997,6.904,0.03041,0,0,0.0001411
298800000000,299100000000,501114088,0,277452053,0.0001154,0.0004606,0.001936,0.0001726,0.0003891,0.0004683,0,0,0.0003119,0,7.194,0.03164,0,0,2.289e-05
299100000000,299400000000,501114088,0,277452053,0.0001154,0.0004616,0.001936,0.0001726,0.0003891,0.0004683,0,0,0.0002851,7.153e-05,6.775,0.02978,0,0,5.531e-05
299400000000,299700000000,501114088,0,277452053,0.0001163,0.0004606,0.001936,0.0001726,0.0003891,0.0004683,0,0,0.0004864,0,7.67,0.03414,0,0,3.91e-05
299700000000,300000000000,501114088,0,277452053,0.000123,0.0004616,0.001936,0.0001726,0.0003891,0.0004683,0,0,0.0003529,7.153e-05,6.699,0.02698,0,0,4.101e-05
