120900000000,121200000000,5656479838,0,37,0.0001459,0.002338,0.003872,0.001499,0.001577,0.002342,2.861e-06,0.0002546,0.00182,7.153e-05,9.172,0.04312,0,0,0.0005445
121200000000,121500000000,5656479838,0,37,0.000145,0.002338,0.003872,0.001505,0.001583,0.002342,2.861e-06,0.0002546,0.001476,0.0002146,8.464,0.03961,0,0,2.193e-05
121500000000,121800000000,5656479838,0,37,0.0001469,0.002338,0.003872,0.001509,0.001587,0.002342,6.676e-06,0.0002546,0.001118,0.001429,9.357,0.04446,0,0,0.0001316
121800000000,122100000000,5656479838,0,37,0.0001459,0.00235,0.004257,0.001509,0.001587,0.00238,2.861e-06,0.0002546,0.001568,0.0003567,9.258,0.04472,0,0,4.768e-06
122100000000,122400000000,5656479838,0,37,0.0001497,0.002346,0.003998,0.001507,0.001585,0.002377,1.907e-06,0.0002546,0.001492,7.153e-05,9.67,0.04525,0,0,4.196e-05
122400000000,122700000000,5656479838,0,37,0.0001488,0.002346,0.00412,0.001505,0.001583,0.002411,1.907e-06,0.0002546,0.001793,7.153e-05,9.929,0.04764,0,0,7.534e-05
122700000000,123000000000,5656479838,0,37,0.000144,0.00235,0.00412,0.001505,0.001583,0.002411,2.861e-06,0.0002546,0.0009823,7.153e-05,9.052,0.04325,0,0,0.0001192
123000000000,123300000000,5656479838,0,37,0.0001459,0.002346,0.00399,0.001501,0.001579,0.002407,1.907e-06,0.0002546,0.001274,7.153e-05,9.089,0.0429,0,0,3.91e-05
123300000000,123600000000,5656479838,0,37,0.000144,0.002346,0.003998,0.001505,0.001583,0.002365,2.861e-06,0.0002546,0.001562,7.153e-05,9.479,0.04623,0,0,5.722e-05
123600000000,123900000000,5656479838,0,37,0.000144,0.002369,0.004593,0.001507,0.001585,0.002407,1.907e-06,0.0002546,0.00111,7.153e-05,9.071,0.04358,0,0,3.624e-05
123900000000,124200000000,5656479838,0,37,0.0001497,0.002346,0.003872,0.001495,0.001574,0.00235,1.907e-06,0.0002546,0.001169,0.0001431,9.446,0.04554,0,0,4.768e-05
124200000000,124500000000,5656479838,0,37,0.0001459,0.002346,0.003998,0.001499,0.001577,0.002361,1.907e-06,0.0002546,0.001179,7.153e-05,9.916,0.04759,0,0,5.15e-05
124500000000,124800000000,5656479838,0,37,0.000144,0.002354,0.00399,0.001501,0.001579,0.002403,1.907e-06,0.0002546,0.001301,7.153e-05,10.01,0.04945,0,0,3.338e-05
124800000000,125100000000,5656479838,0,37,0.0001497,0.002357,0.003998,0.001488,0.001566,0.00238,1.907e-06,0.0002546,0.001839,0.0001431,9.074,0.043,0,0,1.526e-05
125100000000,125400000000,5656479838,0,37,0.0001431,0.00235,0.003872,0.001472,0.001551,0.002354,2.861e-06,0.0002546,0.001364,7.153e-05,10.1,0.04808,0,0,0.001076
125400000000,125700000000,5656479838,0,37,0.0001431,0.00235,0.003872,0.001478,0.001556,0.00235,1.907e-06,0.0002546,0.00131,7.153e-05,9.75,0.0464,0,0,6.962e-05
125700000000,126000000000,5656479838,0,37,0.0001488,0.002354,0.003872,0.001482,0.00156,0.002354,1.907e-06,0.0002546,0.001245,7.153e-05,10.17,0.04915,0,0,4.005e-05
25800000000,26100000000,5656479838,0,37,0.0001488,0.002048,0.003872,0.0009241,0.001001,0.002052,1.907e-06,0.0002508,0.001913,7.153e-05,10.17,0.04803,0,0,0.0002556
26100000000,26400000000,5656479838,0,37,0.0001431,0.002052,0.003872,0.0009298,0.001005,0.002056,3.815e-06,0.0002508,0.001177,0.0005713,9.464,0.04455,0,0,8.774e-05
26400000000,26700000000,5656479838,0,37,0.0001469,0.002052,0.003872,0.0009346,0.001011,0.002056,2.861e-06,0.0002508,0.001017,0.0002861,8.917,0.04149,0,0,3.052e-05
26700000000,27000000000,5656479838,0,37,0.0001516,0.002052,0.003872,0.0009394,0.001017,0.002056,2.861e-06,0.0002508,0.001869,0.0002861,9.615,0.04395,0,0,0.0001297
27000000000,27300000000,5656479838,0,37,0.0001478,0.002052,0.003872,0.0009451,0.00102,0.002056,1.907e-06,0.0002508,0.001514,7.153e-05,9.258,0.043,0,0,0.0004063
27300000000,27600000000,5656479838,0,37,0.0001488,0.002056,0.003872,0.0009499,0.001026,0.002056,1.907e-06,0.0002508,0.001516,0.0001431,10.19,0.04796,0,0,4.578e-05
27600000000,27900000000,5656479838,0,37,0.0001488,0.00206,0.003872,0.0009546,0.001032,0.00206,1.907e-06,0.0002508,0.001415,7.153e-05,9.859,0.04619,0,0,8.202e-05
27900000000,28200000000,5656479838,0,37,0.0001488,0.002056,0.003872,0.0009604,0.001036,0.00206,3.815e-06,0.0002508,0.001152,0.0005713,9.981,0.04639,0,0,3.433e-05
28200000000,28500000000,5656479838,0,37,0.0001488,0.00206,0.003872,0.0009651,0.001041,0.002064,4.768e-06,0.0002508,0.001165,0.0006428,9.966,0.04691,0,0,3.052e-05
28500000000,28800000000,5656479838,0,37,0.0001507,0.00206,0.003872,0.0009708,0.001047,0.002064,1.907e-06,0.0002508,0.001461,7.153e-05,9.957,0.04656,0,0,4.768e-05
28800000000,29100000000,5656479838,0,37,0.0001526,0.00206,0.003872,0.0009756,0.001053,0.002064,1.907e-06,0.0002508,0.001097,0.0001431,10.13,0.04692,0,0,3.052e-05
29100000000,29400000000,5656479838,0,37,0.0001535,0.00206,0.003872,0.0009804,0.001057,0.002064,1.907e-06,0.0002508,0.001369,7.153e-05,9.869,0.04456,0,0,6.962e-05
29400000000,29700000000,5656479838,0,37,0.0001497,0.002064,0.003872,0.0009861,0.001062,0.002068,1.907e-06,0.0002508,0.00103,7.153e-05,9.731,0.04543,0,0,0.0002546
29700000000,30000000000,5656479838,0,37,0.0001497,0.002064,0.003872,0.0009918,0.001068,0.002068,1.907e-06,0.0002508,0.001291,7.153e-05,9.495,0.04358,0,0,8.965e-05
30000000000,30300000000,5656479838,0,37,0.0001469,0.002064,0.003872,0.0009956,0.001072,0.002064,1.907e-06,0.0002508,0.001352,7.153e-05,9.379,0.04441,0,0,1.24e-05
30300000000,30600000000,5656479838,0,37,0.0001478,0.002064,0.003872,0.001001,0.001078,0.002068,7.629e-06,0.0002508,0.00124,0.001642,9.645,0.04507,0,0,0.0003576
30600000000,30900000000,5656479838,0,37,0.0001469,0.002064,0.003872,0.001007,0.001083,0.002068,9.537e-06,0.0002508,0.001711,0.001572,9.344,0.04406,0,0,3.719e-05
70800000000,71100000000,5656479838,0,37,0.0001431,0.002193,0.003998,0.001621,0.001698,0.002243,1.907e-06,0.0002527,0.001274,7.153e-05,9.72,0.04754,0,0,3.91e-05
71100000000,71400000000,5656479838,0,37,0.0001593,0.00219,0.003872,0.001614,0.00169,0.00219,1.907e-06,0.0002527,0.001137,7.153e-05,10.4,0.04937,0,0,6.866e-05
71400000000,71700000000,5656479838,0,37,0.0001793,0.00219,0.003872,0.001619,0.001696,0.00219,1.907e-06,0.0002527,0.001673,7.153e-05,11.76,0.05345,0,0,0.000103
71700000000,72000000000,5656479838,0,37,0.0001831,0.00219,0.003872,0.001625,0.001701,0.002193,9.537e-07,0.0002527,0.002098,7.153e-05,11.55,0.0511,0,0,7.629e-06
72000000000,72300000000,5656479838,0,37,0.0001726,0.00219,0.003872,0.001629,0.001707,0.002193,1.907e-06,0.0002527,0.002014,7.153e-05,11.36,0.05199,0,0,5.341e-05
72300000000,72600000000,5656479838,0,37,0.0001717,0.002193,0.003872,0.001635,0.001711,0.002193,1.907e-06,0.0002527,0.00164,7.153e-05,11.01,0.05123,0,0,6.676e-05
72600000000,72900000000,5656479838,0,37,0.0001659,0.002193,0.003872,0.00164,0.001717,0.002197,2.861e-06,0.0002527,0.001221,0.0001431,10.36,0.04872,0,0,6.866e-05
72900000000,73200000000,5656479838,0,37,0.0001488,0.002193,0.003872,0.001646,0.001722,0.002197,1.907e-06,0.0002527,0.001242,7.153e-05,10.02,0.04916,0,0,6.39e-05
73200000000,73500000000,5656479838,0,37,0.0001507,0.002193,0.003872,0.00165,0.001728,0.002197,1.907e-06,0.0002527,0.001242,7.153e-05,9.571,0.04611,0,0,0.0006475
73500000000,73800000000,5656479838,0,37,0.0001526,0.002197,0.003872,0.001652,0.001728,0.002205,1.907e-06,0.0002527,0.001392,7.153e-05,9.584,0.04565,0,0,0.0008631
73800000000,74100000000,5656479838,0,37,0.0001535,0.002201,0.004128,0.001654,0.001732,0.002235,2.861e-06,0.0002527,0.001497,7.153e-05,9.238,0.04313,0,0,6.676e-06
74100000000,74400000000,5656479838,0,37,0.0001535,0.002201,0.003998,0.001654,0.00173,0.002224,1.907e-06,0.0002527,0.00573,7.153e-05,9.501,0.04474,0,0,5.436e-05
74400000000,74700000000,5656479838,0,37,0.0001545,0.002205,0.004341,0.001654,0.001732,0.002247,1.907e-06,0.0002527,0.001852,7.153e-05,9.517,0.04545,0,0,6.39e-05
74700000000,75000000000,5656479838,0,37,0.0001535,0.002201,0.004044,0.001652,0.001728,0.002243,1.907e-06,0.0002527,0.001841,7.153e-05,9.083,0.04261,0,0,0.001148
75000000000,75300000000,5656479838,0,37,0.0001554,0.002201,0.003998,0.001648,0.001724,0.002243,1.907e-06,0.0002527,0.002098,7.153e-05,9.921,0.04724,0,0,7.725e-05
75300000000,75600000000,5656479838,0,37,0.0001497,0.002213,0.004128,0.001652,0.001728,0.002346,1.907e-06,0.0002527,0.001957,7.153e-05,9.307,0.04436,0,0,0.0001497
75600000000,75900000000,5656479838,0,37,0.0001526,0.002209,0.003998,0.001646,0.001724,0.002346,1.907e-06,0.0002527,0.001429,7.153e-05,9.828,0.04746,0,0,5.245e-05
5700000000,6000000000,5656479838,0,37,0.0001345,0.001991,0.003872,0.0005751,0.0006504,0.001995,1.907e-06,0.0002499,0.001171,7.153e-05,8.83,0.04258,0,0,3.242e-05
6000000000,6300000000,5656479838,0,37,0.0001383,0.001991,0.003872,0.0005798,0.0006552,0.001995,5.722e-06,0.0002499,0.001135,0.001215,9.103,0.04408,0,0,0.0001068
6300000000,6600000000,5656479838,0,37,0.0001364,0.001995,0.003872,0.0005856,0.0006609,0.001999,2.861e-06,0.0002499,0.001814,7.153e-05,8.169,0.03827,0,0,1.812e-05
6600000000,6900000000,5656479838,0,37,0.0001345,0.001995,0.003872,0.0005903,0.0006657,0.001999,1.907e-06,0.0002499,0.001741,7.153e-05,9.033,0.04362,0,0,0.0002689
6900000000,7200000000,5656479838,0,37,0.0001345,0.001995,0.003872,0.000596,0.0006714,0.001999,1.907e-06,0.0002499,0.001371,7.153e-05,8.521,0.04067,0,0,4.387e-05
7200000000,7500000000,5656479838,0,37,0.0001354,0.001995,0.003872,0.0006008,0.0006762,0.001999,1.907e-06,0.0002499,0.00107,0.0001431,8.27,0.03888,0,0,0.0001907
7500000000,7800000000,5656479838,0,37,0.0001364,0.001999,0.003872,0.0006056,0.0006809,0.001999,1.907e-06,0.0002499,0.001217,7.153e-05,9.462,0.04577,0,0,0.0001888
7800000000,8100000000,5656479838,0,37,0.0001326,0.001999,0.003872,0.0006113,0.0006866,0.001999,1.907e-06,0.0002499,0.001442,7.153e-05,8.76,0.04259,0,0,0.0003309
8100000000,8400000000,5656479838,0,37,0.0001345,0.001999,0.003872,0.0006161,0.0006914,0.002003,1.907e-06,0.0002499,0.00153,7.153e-05,8.914,0.04275,0,0,6.008e-05
8400000000,8700000000,5656479838,0,37,0.0001354,0.001999,0.003872,0.0006208,0.0006962,0.002003,1.907e-06,0.0002499,0.001015,7.153e-05,8.759,0.04167,0,0,3.052e-05
8700000000,9000000000,5656479838,0,37,0.0001297,0.002003,0.003872,0.0006266,0.0007019,0.002003,1.907e-06,0.0002499,0.001238,7.153e-05,8.996,0.04338,0,0,0.0004339
9000000000,9300000000,5656479838,0,37,0.0001307,0.002003,0.003872,0.0006313,0.0007067,0.002007,9.537e-07,0.0002499,0.00141,7.153e-05,9.275,0.04573,0,0,5.531e-05
9300000000,9600000000,5656479838,0,37,0.0001316,0.002003,0.003872,0.0006361,0.0007114,0.002007,1.907e-06,0.0002499,0.001644,7.153e-05,8.053,0.03849,0,0,1.717e-05
9600000000,9900000000,5656479838,0,37,0.0001326,0.002003,0.003872,0.0006418,0.0007172,0.002007,1.907e-06,0.0002499,0.00168,7.153e-05,8.753,0.04142,0,0,0.0002184
9900000000,10200000000,5656479838,0,37,0.0001335,0.002003,0.003872,0.0006466,0.0007219,0.002007,1.907e-06,0.0002499,0.001623,7.153e-05,9.009,0.04249,0,0,0.0002203
10200000000,10500000000,5656479838,0,37,0.0001373,0.002007,0.003872,0.0006514,0.0007267,0.002007,1.907e-06,0.0002499,0.001575,7.153e-05,9.257,0.0426,0,0,2.575e-05
10500000000,10800000000,5656479838,0,37,0.0001335,0.002007,0.003872,0.0006571,0.0007324,0.002007,1.907e-06,0.0002499,0.001541,7.153e-05,8.519,0.04017,0,0,0.0005159
96000000000,96300000000,5656479838,0,37,0.0001526,0.00227,0.003998,0.001572,0.001661,0.002316,1.907e-06,0.0002537,0.001381,7.153e-05,9.348,0.04282,0,0,8.297e-05
96300000000,96600000000,5656479838,0,37,0.0001459,0.002274,0.003872,0.001566,0.001654,0.002277,1.907e-06,0.0002537,0.00108,7.153e-05,8.782,0.04157,0,0,0.0006599
96600000000,96900000000,5656479838,0,37,0.0001431,0.00227,0.003872,0.001568,0.001657,0.002277,1.907e-06,0.0002537,0.001244,7.153e-05,9.356,0.04413,0,0,0.001036
96900000000,97200000000,5656479838,0,37,0.000144,0.002274,0.003998,0.00157,0.001659,0.002323,3.433e-05,0.0002537,0.001604,0.006859,9.808,0.04748,0,0,3.529e-05
97200000000,97500000000,5656479838,0,37,0.0001431,0.002277,0.004089,0.001568,0.001657,0.002304,1.907e-06,0.0002537,0.00136,7.153e-05,9.916,0.04834,0,0,4.959e-05
97500000000,97800000000,5656479838,0,37,0.0001431,0.002277,0.004036,0.00157,0.001657,0.002316,1.907e-06,0.0002537,0.001268,7.153e-05,9.624,0.04617,0,0,0.0003586
97800000000,98100000000,5656479838,0,37,0.0001497,0.00227,0.003872,0.001566,0.001654,0.002285,1.907e-06,0.0002537,0.001307,7.153e-05,9.565,0.0449,0,0,9.918e-05
98100000000,98400000000,5656479838,0,37,0.0001497,0.002277,0.004128,0.00157,0.001657,0.002312,2.861e-06,0.0002537,0.001205,0.0003567,9.829,0.0444,0,0,5.341e-05
98400000000,98700000000,5656479838,0,37,0.0001535,0.002274,0.003998,0.001568,0.001654,0.002304,1.907e-06,0.0002537,0.001446,7.153e-05,9.694,0.04477,0,0,8.774e-05
98700000000,99000000000,5656479838,0,37,0.0001497,0.002274,0.004128,0.001568,0.001656,0.002308,2.861e-06,0.0002537,0.001183,7.153e-05,9.85,0.04607,0,0,2.193e-05
99000000000,99300000000,5656479838,0,37,0.0001516,0.002277,0.004128,0.00157,0.001656,0.002312,1.907e-06,0.0002537,0.001392,7.153e-05,9.277,0.04289,0,0,2.766e-05
99300000000,99600000000,5656479838,0,37,0.0001488,0.002277,0.003998,0.001566,0.001654,0.002319,1.907e-06,0.0002537,0.001156,7.153e-05,9.517,0.04429,0,0,4.292e-05
99600000000,99900000000,5656479838,0,37,0.000144,0.002281,0.00415,0.001566,0.001654,0.002319,1.907e-06,0.0002537,0.001423,7.153e-05,9.568,0.04512,0,0,6.58e-05
99900000000,100200000000,5656479838,0,37,0.0001459,0.0023,0.004822,0.001564,0.00165,0.002319,1.907e-06,0.0002537,0.001402,7.153e-05,9.439,0.04509,0,0,1.144e-05
100200000000,100500000000,5656479838,0,37,0.0001431,0.002293,0.004562,0.001562,0.001648,0.002323,1.907e-06,0.0002537,0.001289,7.153e-05,10.15,0.04835,0,0,0.0009031
100500000000,100800000000,5656479838,0,37,0.0001431,0.002281,0.003872,0.001556,0.001644,0.002289,2.861e-06,0.0002537,0.001125,7.153e-05,9.738,0.04601,0,0,0.0002432
100800000000,101100000000,5656479838,0,37,0.0001431,0.002293,0.003998,0.001556,0.001642,0.002342,1.907e-06,0.0002537,0.001184,7.153e-05,8.809,0.04184,0,0,0.0001221
101100000000,101400000000,5656479838,0,37,0.0001459,0.002281,0.003872,0.001553,0.001638,0.002281,1.907e-06,0.0002537,0.001305,7.153e-05,9.413,0.04345,0,0,3.624e-05
101400000000,101700000000,5656479838,0,37,0.000144,0.002293,0.004219,0.001558,0.001646,0.002338,4.768e-06,0.0002537,0.001078,0.0006428,8.518,0.03934,0,0,3.719e-05
101700000000,102000000000,5656479838,0,37,0.0001459,0.002289,0.00412,0.001556,0.001644,0.002331,1.907e-06,0.0002537,0.001186,7.153e-05,8.968,0.04191,0,0,4.005e-05
102000000000,102300000000,5656479838,0,37,0.0001469,0.002289,0.004257,0.001558,0.001646,0.002319,3.815e-06,0.0002537,0.001198,0.0006428,9.647,0.04587,0,0,2.003e-05
102300000000,102600000000,5656479838,0,37,0.000145,0.0023,0.004578,0.001556,0.001642,0.002323,1.907e-06,0.0002537,0.00106,7.153e-05,9.308,0.0442,0,0,2.67e-05
102600000000,102900000000,5656479838,0,37,0.0001469,0.002285,0.003872,0.001545,0.001633,0.002285,1.907e-06,0.0002537,0.00128,7.153e-05,9.689,0.04585,0,0,7.343e-05
102900000000,103200000000,5656479838,0,37,0.0001431,0.002285,0.003872,0.001547,0.001635,0.002285,1.907e-06,0.0002537,0.001379,7.153e-05,9.327,0.04452,0,0,4.578e-05
103200000000,103500000000,5656479838,0,37,0.0001421,0.002285,0.003872,0.001551,0.001638,0.002289,1.907e-06,0.0002537,0.001276,7.153e-05,8.987,0.04257,0,0,5.817e-05
103500000000,103800000000,5656479838,0,37,0.0001431,0.002293,0.003998,0.001545,0.001633,0.002338,1.907e-06,0.0002537,0.001432,7.153e-05,9.177,0.04309,0,0,1.526e-05
103800000000,104100000000,5656479838,0,37,0.0001478,0.002285,0.003872,0.001543,0.001631,0.002289,1.907e-06,0.0002537,0.001177,7.153e-05,10.21,0.04802,0,0,4.101e-05
104100000000,104400000000,5656479838,0,37,0.0001459,0.002289,0.003872,0.001549,0.001637,0.002289,1.907e-06,0.0002537,0.0009699,7.153e-05,10.15,0.04763,0,0,1.526e-05
104400000000,104700000000,5656479838,0,37,0.0001488,0.002293,0.004128,0.001551,0.001637,0.002308,1.907e-06,0.0002537,0.001019,7.153e-05,9.845,0.04593,0,0,4.005e-05
104700000000,105000000000,5656479838,0,37,0.0001497,0.002293,0.003872,0.001543,0.001621,0.002293,1.907e-06,0.0002537,0.001133,7.153e-05,9.338,0.04439,0,0,1.431e-05
105000000000,105300000000,5656479838,0,37,0.0001478,0.002289,0.003872,0.001547,0.001625,0.002293,1.907e-06,0.0002546,0.001984,7.153e-05,9.524,0.04433,0,0,0.0001469
105300000000,105600000000,5656479838,0,37,0.0001497,0.002293,0.003872,0.001553,0.001631,0.002293,2.861e-06,0.0002546,0.00135,7.153e-05,9.879,0.04539,0,0,0.0001326
105600000000,105900000000,5656479838,0,37,0.0001516,0.002293,0.003872,0.001556,0.001635,0.002296,2.861e-06,0.0002546,0.00135,7.153e-05,9.545,0.04441,0,0,0.0001745
51000000000,51300000000,5656479838,0,37,0.0001431,0.002129,0.003872,0.001364,0.00144,0.002129,2.861e-06,0.0002518,0.001106,7.153e-05,10.18,0.04735,0,0,2.48e-05
51300000000,51600000000,5656479838,0,37,0.0001469,0.002129,0.003872,0.001369,0.001446,0.002129,2.861e-06,0.0002518,0.001167,0.0002146,9.035,0.04174,0,0,7.248e-05
51600000000,51900000000,5656479838,0,37,0.0001535,0.002129,0.003872,0.001373,0.001451,0.002129,1.907e-06,0.0002518,0.00131,7.153e-05,9.634,0.04404,0,0,3.052e-05
51900000000,52200000000,5656479838,0,37,0.0001488,0.002132,0.003872,0.001379,0.001457,0.002136,5.722e-06,0.0002518,0.001661,0.0009995,10.17,0.04787,0,0,4.578e-05
52200000000,52500000000,5656479838,0,37,0.0001469,0.002129,0.003872,0.001385,0.001461,0.002132,5.722e-06,0.0002518,0.001181,0.001429,10.34,0.04838,0,0,8.774e-05
52500000000,52800000000,5656479838,0,37,0.000145,0.002132,0.003872,0.00139,0.001467,0.00214,1.907e-06,0.0002518,0.001354,7.153e-05,10.16,0.04699,0,0,4.864e-05
52800000000,53100000000,5656479838,0,37,0.0001497,0.002132,0.003872,0.001394,0.001472,0.00214,1.907e-06,0.0002518,0.001181,7.153e-05,10.2,0.04754,0,0,4.768e-05
53100000000,53400000000,5656479838,0,37,0.0001488,0.002132,0.003872,0.0014,0.001476,0.002136,9.537e-07,0.0002518,0.001116,7.153e-05,9.976,0.04593,0,0,1.717e-05
53400000000,53700000000,5656479838,0,37,0.0001478,0.002132,0.003872,0.001406,0.001482,0.002136,1.907e-06,0.0002518,0.001259,7.153e-05,9.986,0.04639,0,0,0.0008821
53700000000,54000000000,5656479838,0,37,0.0001507,0.002136,0.003872,0.001411,0.001488,0.002136,1.907e-06,0.0002518,0.001356,7.153e-05,9.962,0.04617,0,0,4.578e-05
54000000000,54300000000,5656479838,0,37,0.0001507,0.002132,0.003872,0.001415,0.001493,0.002136,7.629e-06,0.0002518,0.002052,0.001715,9.824,0.04547,0,0,5.627e-05
54300000000,54600000000,5656479838,0,37,0.0001535,0.00214,0.003872,0.001421,0.001497,0.002144,2.861e-06,0.0002518,0.0009565,0.0002146,10.36,0.04897,0,0,0.000658
54600000000,54900000000,5656479838,0,37,0.0001497,0.002136,0.003872,0.001427,0.001503,0.00214,1.907e-06,0.0002518,0.001633,7.153e-05,10.44,0.04893,0,0,4.005e-05
54900000000,55200000000,5656479838,0,37,0.0001497,0.00214,0.003872,0.001431,0.001509,0.002144,2.861e-06,0.0002518,0.001364,0.0002861,10.44,0.0491,0,0,7.439e-05
55200000000,55500000000,5656479838,0,37,0.0001411,0.00214,0.003872,0.001436,0.001513,0.002144,1.907e-06,0.0002518,0.001135,7.153e-05,9.297,0.04409,0,0,2.67e-05
55500000000,55800000000,5656479838,0,37,0.0001431,0.00214,0.003872,0.001442,0.001518,0.002144,1.907e-06,0.0002518,0.001093,7.153e-05,8.952,0.04315,0,0,3.529e-05
90900000000,91200000000,5656479838,0,37,0.0001345,0.002247,0.003998,0.001604,0.001678,0.002266,9.537e-07,0.0002537,0.001179,7.153e-05,8.118,0.03938,0,0,0.0002623
91200000000,91500000000,5656479838,0,37,0.0001402,0.002254,0.004257,0.001602,0.001677,0.002289,2.861e-06,0.0002537,0.001181,7.153e-05,8.477,0.04043,0,0,0.0006599
91500000000,91800000000,5656479838,0,37,0.0001392,0.002251,0.003998,0.0016,0.001677,0.002285,2.861e-06,0.0002537,0.001135,7.153e-05,8.817,0.04267,0,0,0.0006886
91800000000,92100000000,5656479838,0,37,0.0001402,0.002247,0.003872,0.001598,0.001675,0.002251,1.907e-06,0.0002537,0.001331,7.153e-05,8.666,0.04123,0,0,0.0001211
92100000000,92400000000,5656479838,0,37,0.000145,0.002254,0.004128,0.0016,0.001675,0.002266,2.861e-06,0.0002537,0.001253,7.153e-05,8.638,0.04042,0,0,4.578e-05
92400000000,92700000000,5656479838,0,37,0.0001392,0.002251,0.003998,0.001598,0.001675,0.002274,1.907e-06,0.0002537,0.001146,7.153e-05,8.755,0.04217,0,0,4.292e-05
92700000000,93000000000,5656479838,0,37,0.0001364,0.002254,0.003998,0.0016,0.001675,0.002327,1.907e-06,0.0002537,0.001034,7.153e-05,8.62,0.04174,0,0,4.387e-05
93000000000,93300000000,5656479838,0,37,0.0001373,0.002266,0.004234,0.0016,0.001677,0.002327,1.907e-06,0.0002537,0.0009308,7.153e-05,8.876,0.04326,0,0,3.052e-05
93300000000,93600000000,5656479838,0,37,0.0001431,0.002258,0.004128,0.001598,0.001675,0.002312,1.907e-06,0.0002537,0.001507,7.153e-05,8.765,0.04174,0,0,0.0003366
93600000000,93900000000,5656479838,0,37,0.0001421,0.002262,0.003998,0.001596,0.001673,0.002361,1.907e-06,0.0002537,0.001513,7.153e-05,9.5,0.04627,0,0,0.0001345
93900000000,94200000000,5656479838,0,37,0.0001411,0.002266,0.00399,0.001593,0.001669,0.002407,1.907e-06,0.0002537,0.001249,0.0001431,9.316,0.04621,0,0,3.052e-05
94200000000,94500000000,5656479838,0,37,0.0001459,0.00227,0.004112,0.001593,0.001669,0.002411,1.907e-06,0.0002537,0.001314,0.0001431,9.39,0.04508,0,0,4.482e-05
94500000000,94800000000,5656479838,0,37,0.000145,0.002262,0.003998,0.001593,0.001667,0.002319,1.907e-06,0.0002537,0.0009289,7.153e-05,8.969,0.04261,0,0,9.251e-05
94800000000,95100000000,5656479838,0,37,0.0001469,0.002262,0.003998,0.001591,0.001667,0.002342,1.907e-06,0.0002537,0.001474,7.153e-05,9.619,0.04601,0,0,2.861e-05
95100000000,95400000000,5656479838,0,37,0.000145,0.002285,0.004372,0.001579,0.001667,0.002419,1.907e-06,0.0002537,0.001184,7.153e-05,9.021,0.04314,0,0,0.0003614
95400000000,95700000000,5656479838,0,37,0.0001488,0.002266,0.00399,0.001575,0.001663,0.002296,1.907e-06,0.0002537,0.001343,7.153e-05,8.908,0.04219,0,0,3.242e-05
95700000000,96000000000,5656479838,0,37,0.0001497,0.00227,0.00412,0.001572,0.001661,0.002304,1.907e-06,0.0002537,0.001087,7.153e-05,9.077,0.04216,0,0,2.48e-05
85800000000,86100000000,5656479838,0,37,0.0001411,0.002235,0.003872,0.001608,0.001684,0.002243,2.861e-06,0.0002537,0.001202,7.153e-05,9.205,0.04465,0,0,4.101e-05
86100000000,86400000000,5656479838,0,37,0.0001402,0.002232,0.003872,0.001614,0.00169,0.002235,1.907e-06,0.0002537,0.0009747,7.153e-05,9.06,0.04344,0,0,3.338e-05
86400000000,86700000000,5656479838,0,37,0.0001392,0.002235,0.004128,0.001616,0.001694,0.002251,1.907e-06,0.0002537,0.001133,7.153e-05,8.529,0.04138,0,0,1.526e-05
86700000000,87000000000,5656479838,0,37,0.0001402,0.002235,0.003998,0.001614,0.001692,0.002251,1.907e-06,0.0002537,0.001652,7.153e-05,8.834,0.04244,0,0,3.052e-05
87000000000,87300000000,5656479838,0,37,0.000144,0.002235,0.003998,0.001612,0.00169,0.002266,2.861e-06,0.0002537,0.001163,7.153e-05,8.411,0.03976,0,0,4.673e-05
87300000000,87600000000,5656479838,0,37,0.0001431,0.002247,0.003872,0.001596,0.001675,0.002251,1.907e-06,0.0002537,0.001211,7.153e-05,8.011,0.03747,0,0,3.91e-05
87600000000,87900000000,5656479838,0,37,0.0001402,0.002239,0.003872,0.001602,0.001678,0.002247,1.907e-06,0.0002537,0.00156,7.153e-05,8.855,0.04264,0,0,4.101e-05
87900000000,88200000000,5656479838,0,37,0.0001612,0.002239,0.003872,0.001606,0.001684,0.002239,2.861e-06,0.0002537,0.001307,7.153e-05,9.643,0.04464,0,0,2.289e-05
88200000000,88500000000,5656479838,0,37,0.0001841,0.002239,0.003998,0.00161,0.001688,0.002254,1.907e-06,0.0002537,0.001482,7.153e-05,11.49,0.05263,0,0,1.335e-05
88500000000,88800000000,5656479838,0,37,0.0001822,0.002239,0.003872,0.00161,0.001688,0.002239,1.907e-06,0.0002537,0.001879,7.153e-05,10.92,0.04969,0,0,4.005e-05
88800000000,89100000000,5656479838,0,37,0.000186,0.002243,0.004128,0.00161,0.001686,0.002274,1.907e-06,0.0002537,0.001287,7.153e-05,11,0.04951,0,0,7.439e-05
89100000000,89400000000,5656479838,0,37,0.000186,0.002247,0.004128,0.001608,0.001686,0.002308,2.861e-06,0.0002537,0.001406,0.0001431,10.91,0.04953,0,0,0.0009899
89400000000,89700000000,5656479838,0,37,0.0001698,0.002247,0.003872,0.001606,0.001682,0.002254,1.907e-06,0.0002537,0.00131,7.153e-05,10.49,0.04834,0,0,9.346e-05
89700000000,90000000000,5656479838,0,37,0.0001459,0.002251,0.004257,0.001608,0.001684,0.002304,1.907e-06,0.0002537,0.001108,7.153e-05,9.074,0.04226,0,0,8.202e-05
90000000000,90300000000,5656479838,0,37,0.000144,0.002243,0.003872,0.001606,0.00168,0.002243,1.907e-06,0.0002537,0.00127,7.153e-05,9.674,0.04554,0,0,3.433e-05
90300000000,90600000000,5656479838,0,37,0.0001345,0.002251,0.00412,0.001606,0.001682,0.002289,1.907e-06,0.0002537,0.0009766,7.153e-05,9.182,0.04462,0,0,3.242e-05
90600000000,90900000000,5656479838,0,37,0.0001345,0.002254,0.00425,0.001606,0.001682,0.002289,1.907e-06,0.0002537,0.001245,7.153e-05,8.493,0.04101,0,0,8.678e-05
66000000000,66300000000,5656479838,0,37,0.0001497,0.002174,0.003872,0.001625,0.001701,0.002174,1.907e-06,0.0002527,0.001087,7.153e-05,9.879,0.04703,0,0,4.292e-05
66300000000,66600000000,5656479838,0,37,0.0001478,0.002174,0.003872,0.001629,0.001707,0.002174,1.907e-06,0.0002527,0.001366,7.153e-05,10.23,0.04951,0,0,4.768e-06
66600000000,66900000000,5656479838,0,37,0.0001516,0.002174,0.003872,0.001635,0.001711,0.002182,1.907e-06,0.0002527,0.001183,7.153e-05,9.657,0.04523,0,0,0.0001316
66900000000,67200000000,5656479838,0,37,0.0001516,0.002178,0.003872,0.00164,0.001717,0.002182,1.907e-06,0.0002527,0.001286,7.153e-05,9.325,0.04357,0,0,9.155e-05
67200000000,67500000000,5656479838,0,37,0.0001888,0.002178,0.003872,0.001644,0.001722,0.002178,1.907e-06,0.0002527,0.001432,7.153e-05,11.35,0.05131,0,0,0.0006294
67500000000,67800000000,5656479838,0,37,0.0001945,0.002182,0.003872,0.00165,0.001728,0.002186,2.861e-06,0.0002527,0.001728,7.153e-05,11.97,0.05341,0,0,2.766e-05
67800000000,68100000000,5656479838,0,37,0.0001926,0.002178,0.003872,0.001656,0.001732,0.002178,1.907e-06,0.0002527,0.00185,7.153e-05,11.67,0.05303,0,0,3.433e-05
68100000000,68400000000,5656479838,0,37,0.0001926,0.002178,0.003872,0.001657,0.001734,0.002182,1.144e-05,0.0002527,0.001463,0.001715,11.81,0.05333,0,0,8.488e-05
68400000000,68700000000,5656479838,0,37,0.0001907,0.002178,0.003872,0.001659,0.001738,0.002182,1.907e-06,0.0002527,0.002411,0.0001431,11.65,0.0533,0,0,0.002411
68700000000,69000000000,5656479838,0,37,0.0001898,0.002182,0.003872,0.001663,0.00174,0.002182,1.907e-06,0.0002527,0.00157,7.153e-05,11.95,0.05432,0,0,3.052e-05
69000000000,69300000000,5656479838,0,37,0.0001526,0.002182,0.003872,0.001665,0.001743,0.002186,1.907e-06,0.0002527,0.001198,7.153e-05,10.11,0.04681,0,0,2.956e-05
69300000000,69600000000,5656479838,0,37,0.0001459,0.00219,0.003998,0.001659,0.001736,0.002224,1.907e-06,0.0002527,0.001022,7.153e-05,9.423,0.04466,0,0,2.575e-05
69600000000,69900000000,5656479838,0,37,0.000144,0.002182,0.003872,0.001663,0.00174,0.002186,2.861e-06,0.0002527,0.001295,0.0002146,8.952,0.04329,0,0,5.627e-05
69900000000,70200000000,5656479838,0,37,0.0001431,0.002186,0.003998,0.001661,0.00174,0.002224,2.861e-06,0.0002527,0.001434,0.0001431,9.059,0.04367,0,0,3.815e-05
70200000000,70500000000,5656479838,0,37,0.0001411,0.002193,0.003998,0.001661,0.001738,0.002228,1.907e-06,0.0002527,0.001842,7.153e-05,10.19,0.04965,0,0,0.0002317
70500000000,70800000000,5656479838,0,37,0.0001383,0.00219,0.004128,0.001663,0.00174,0.002228,2.861e-06,0.0002527,0.001417,7.153e-05,9.722,0.04672,0,0,6.485e-05
45900000000,46200000000,5656479838,0,37,0.0001869,0.002113,0.003872,0.001274,0.001352,0.002113,1.907e-06,0.0002518,0.00116,7.153e-05,11.71,0.05237,0,0,8.488e-05
46200000000,46500000000,5656479838,0,37,0.0001822,0.002113,0.003872,0.00128,0.001356,0.002113,1.907e-06,0.0002518,0.001694,7.153e-05,11.33,0.05094,0,0,7.725e-05
46500000000,46800000000,5656479838,0,37,0.0001431,0.002113,0.003872,0.001286,0.001362,0.002117,1.907e-06,0.0002518,0.001175,7.153e-05,9.969,0.04676,0,0,7.057e-05
46800000000,47100000000,5656479838,0,37,0.0001507,0.002113,0.003872,0.001291,0.001368,0.002113,1.907e-06,0.0002518,0.001549,7.153e-05,10.71,0.04706,0,0,4.768e-05
47100000000,47400000000,5656479838,0,37,0.0001421,0.002113,0.003872,0.001295,0.001373,0.002117,1.907e-06,0.0002518,0.001076,7.153e-05,8.575,0.03861,0,0,4.387e-05
47400000000,47700000000,5656479838,0,37,0.0001392,0.002113,0.003872,0.001301,0.001377,0.002117,1.907e-06,0.0002518,0.0009594,7.153e-05,8.413,0.03791,0,0,7.439e-05
47700000000,48000000000,5656479838,0,37,0.0001383,0.002117,0.003872,0.001307,0.001383,0.002121,1.907e-06,0.0002518,0.001448,7.153e-05,8.471,0.03996,0,0,5.436e-05
48000000000,48300000000,5656479838,0,37,0.0001431,0.002117,0.003872,0.001312,0.001389,0.002121,1.907e-06,0.0002518,0.001274,7.153e-05,9.274,0.04402,0,0,2.384e-05
48300000000,48600000000,5656479838,0,37,0.0001354,0.002117,0.003872,0.001316,0.001394,0.002121,1.907e-06,0.0002518,0.001127,7.153e-05,9.478,0.04566,0,0,1.431e-05
48600000000,48900000000,5656479838,0,37,0.0001554,0.002121,0.003872,0.001322,0.001398,0.002121,1.907e-06,0.0002518,0.002609,7.153e-05,10.55,0.04828,0,0,0.0006714
48900000000,49200000000,5656479838,0,37,0.0001545,0.002121,0.003872,0.001328,0.001404,0.002125,1.907e-06,0.0002518,0.0012,7.153e-05,10.12,0.04564,0,0,6.294e-05
49200000000,49500000000,5656479838,0,37,0.0001526,0.002121,0.003872,0.001331,0.00141,0.002121,1.907e-06,0.0002518,0.001368,7.153e-05,10.5,0.04801,0,0,5.054e-05
49500000000,49800000000,5656479838,0,37,0.0001516,0.002121,0.003872,0.001337,0.001415,0.002125,1.907e-06,0.0002518,0.001255,7.153e-05,10.28,0.04653,0,0,8.202e-05
49800000000,50100000000,5656479838,0,37,0.0001516,0.002125,0.003872,0.001343,0.001419,0.002125,1.907e-06,0.0002518,0.001472,7.153e-05,10.12,0.04627,0,0,2.48e-05
50100000000,50400000000,5656479838,0,37,0.0001526,0.002125,0.003872,0.001348,0.001425,0.002129,1.907e-06,0.0002518,0.001228,7.153e-05,9.929,0.04574,0,0,2.766e-05
50400000000,50700000000,5656479838,0,37,0.0001478,0.002125,0.003872,0.001352,0.001431,0.002129,1.907e-06,0.0002518,0.001411,7.153e-05,10.33,0.04685,0,0,2.289e-05
50700000000,51000000000,5656479838,0,37,0.0001488,0.002125,0.003872,0.001358,0.001436,0.002129,1.907e-06,0.0002518,0.001553,7.153e-05,9.833,0.04566,0,0,0.001356
105900000000,106200000000,5656479838,0,37,0.0001516,0.002296,0.003998,0.001554,0.001633,0.002323,1.907e-06,0.0002546,0.001293,7.153e-05,10.08,0.04696,0,0,3.242e-05
106200000000,106500000000,5656479838,0,37,0.0001831,0.0023,0.003872,0.001551,0.001629,0.002304,2.861e-06,0.0002546,0.02811,0.0001431,10.08,0.04696,0,0,0.0002575
106500000000,106800000000,5656479838,0,37,0.0001535,0.0023,0.003998,0.001553,0.001629,0.002331,2.861e-06,0.0002546,0.001394,7.153e-05,10.3,0.04785,0,0,3.719e-05
106800000000,107100000000,5656479838,0,37,0.0001488,0.0023,0.003998,0.001553,0.001631,0.002335,2.861e-06,0.0002546,0.001347,7.153e-05,10.67,0.05116,0,0,2.766e-05
107100000000,107400000000,5656479838,0,37,0.0001478,0.0023,0.003998,0.001549,0.001627,0.002335,1.907e-06,0.0002546,0.001266,7.153e-05,10.21,0.04894,0,0,3.719e-05
107400000000,107700000000,5656479838,0,37,0.0001459,0.002308,0.00399,0.001551,0.001629,0.002392,1.907e-06,0.0002546,0.001413,7.153e-05,9.35,0.04457,0,0,0.0001326
107700000000,108000000000,5656479838,0,37,0.0001459,0.002308,0.004257,0.001549,0.001627,0.002338,2.861e-06,0.0002546,0.001429,7.153e-05,8.928,0.0425,0,0,0.0001163
108000000000,108300000000,5656479838,0,37,0.0001421,0.0023,0.003872,0.001547,0.001625,0.002304,1.907e-06,0.0002546,0.001146,7.153e-05,9.732,0.0465,0,0,7.629e-06
108300000000,108600000000,5656479838,0,37,0.0001488,0.0023,0.003998,0.001549,0.001627,0.002316,2.861e-06,0.0002546,0.001089,7.153e-05,9.782,0.04578,0,0,7.82e-05
108600000000,108900000000,5656479838,0,37,0.0001469,0.002308,0.004005,0.001543,0.001621,0.002335,2.861e-06,0.0002546,0.001356,7.153e-05,9.639,0.04571,0,0,0.0001888
108900000000,109200000000,5656479838,0,37,0.0001469,0.0023,0.003872,0.001541,0.001619,0.002304,2.861e-06,0.0002546,0.001377,7.153e-05,9.383,0.04533,0,0,3.433e-05
109200000000,109500000000,5656479838,0,37,0.000144,0.0023,0.003872,0.001541,0.001619,0.002304,2.861e-06,0.0002546,0.001228,7.153e-05,9.261,0.04448,0,0,0.0001535
109500000000,109800000000,5656479838,0,37,0.0001526,0.0023,0.003872,0.001539,0.001617,0.002304,2.861e-06,0.0002546,0.001513,7.153e-05,9.355,0.04399,0,0,7.82e-05
109800000000,110100000000,5656479838,0,37,0.000185,0.0023,0.003872,0.001543,0.001621,0.002304,1.907e-06,0.0002546,0.001556,7.153e-05,11.27,0.05087,0,0,4.578e-05
110100000000,110400000000,5656479838,0,37,0.000185,0.002304,0.004128,0.001543,0.001621,0.002319,6.676e-06,0.0002546,0.00243,0.001286,11.52,0.053,0,0,0.000123
110400000000,110700000000,5656479838,0,37,0.0001841,0.002304,0.003998,0.001539,0.001617,0.002316,2.861e-06,0.0002546,0.002022,0.0001431,11.02,0.04984,0,0,0.0001106
110700000000,111000000000,5656479838,0,37,0.0001841,0.002308,0.003998,0.001541,0.001619,0.002338,7.629e-06,0.0002546,0.00211,0.001785,10.79,0.04874,0,0,4.387e-05
20700000000,21000000000,5656479838,0,37,0.0001822,0.002037,0.003872,0.0008364,0.0009127,0.002041,1.907e-06,0.0002508,0.002003,7.153e-05,11.66,0.05179,0,0,1.526e-05
21000000000,21300000000,5656479838,0,37,0.0001831,0.002037,0.003872,0.0008411,0.0009174,0.002037,1.907e-06,0.0002508,0.00248,7.153e-05,10.52,0.04665,0,0,0.00128
21300000000,21600000000,5656479838,0,37,0.0001841,0.002037,0.003872,0.0008469,0.0009232,0.002041,1.907e-06,0.0002508,0.001324,0.0001431,10.21,0.04502,0,0,7.915e-05
21600000000,21900000000,5656479838,0,37,0.000185,0.002037,0.003872,0.0008516,0.0009279,0.002041,1.907e-06,0.0002508,0.001665,7.153e-05,11.8,0.05292,0,0,8.202e-05
21900000000,22200000000,5656479838,0,37,0.0001888,0.002041,0.003872,0.0008574,0.0009336,0.002045,1.907e-06,0.0002508,0.001528,7.153e-05,11.64,0.05108,0,0,6.866e-05
22200000000,22500000000,5656479838,0,37,0.000185,0.002041,0.003872,0.0008621,0.0009384,0.002045,1.907e-06,0.0002508,0.001535,7.153e-05,11.19,0.04967,0,0,8.678e-05
22500000000,22800000000,5656479838,0,37,0.0001869,0.002041,0.003872,0.0008678,0.0009432,0.002045,1.907e-06,0.0002508,0.001509,7.153e-05,11.81,0.05281,0,0,9.441e-05
22800000000,23100000000,5656479838,0,37,0.0001907,0.002048,0.003872,0.0008726,0.0009489,0.002052,2.861e-06,0.0002508,0.002468,0.0002146,11.91,0.05372,0,0,3.719e-05
23100000000,23400000000,5656479838,0,37,0.0001583,0.002045,0.003872,0.0008774,0.0009537,0.002045,3.815e-06,0.0002508,0.001331,0.0007143,10.99,0.05131,0,0,6.962e-05
23400000000,23700000000,5656479838,0,37,0.0001478,0.002045,0.003872,0.0008831,0.0009594,0.002045,2.861e-06,0.0002508,0.0008917,0.0002146,9.767,0.04673,0,0,6.104e-05
23700000000,24000000000,5656479838,0,37,0.000144,0.002045,0.003872,0.0008879,0.0009642,0.002048,1.907e-06,0.0002508,0.001036,7.153e-05,9.3,0.04453,0,0,2.861e-05
24000000000,24300000000,5656479838,0,37,0.0001459,0.002045,0.003872,0.0008926,0.0009689,0.002048,1.907e-05,0.0002508,0.001438,0.002857,9.244,0.04384,0,0,8.106e-05
24300000000,24600000000,5656479838,0,37,0.0001402,0.002048,0.003872,0.0008984,0.0009747,0.002048,2.861e-06,0.0002508,0.0009651,0.0003567,8.942,0.04296,0,0,5.913e-05
24600000000,24900000000,5656479838,0,37,0.0001411,0.002048,0.003872,0.0009031,0.0009804,0.002052,5.722e-06,0.0002508,0.001808,0.0009995,8.916,0.04303,0,0,8.869e-05
24900000000,25200000000,5656479838,0,37,0.0001402,0.002048,0.003872,0.0009089,0.0009842,0.002052,5.722e-06,0.0002508,0.001472,0.001215,8.345,0.03946,0,0,6.104e-05
25200000000,25500000000,5656479838,0,37,0.0001392,0.002048,0.003872,0.0009136,0.0009899,0.002052,1.907e-06,0.0002508,0.001591,7.153e-05,8.747,0.04091,0,0,5.913e-05
25500000000,25800000000,5656479838,0,37,0.0001411,0.002048,0.003872,0.0009193,0.0009956,0.002052,3.815e-06,0.0002508,0.001152,0.0004997,9.247,0.04414,0,0,1.907e-05
60900000000,61200000000,5656479838,0,37,0.0001431,0.002159,0.003872,0.001535,0.001612,0.002159,1.907e-06,0.0002527,0.001152,7.153e-05,9.43,0.0459,0,0,0.0001106
61200000000,61500000000,5656479838,0,37,0.0001402,0.002159,0.003872,0.001541,0.001617,0.002163,1.907e-06,0.0002527,0.001213,7.153e-05,8.376,0.03984,0,0,0.000165
61500000000,61800000000,5656479838,0,37,0.0001392,0.002159,0.003872,0.001547,0.001623,0.002163,2.861e-06,0.0002527,0.001255,0.0001431,7.845,0.03812,0,0,0.0001421
61800000000,62100000000,5656479838,0,37,0.0001383,0.002159,0.003872,0.001551,0.001629,0.002159,1.907e-06,0.0002527,0.001102,7.153e-05,7.743,0.03699,0,0,2.861e-06
62100000000,62400000000,5656479838,0,37,0.0001402,0.002159,0.003872,0.001556,0.001633,0.002163,1.907e-06,0.0002527,0.0008411,7.153e-05,7.938,0.0374,0,0,8.869e-05
62400000000,62700000000,5656479838,0,37,0.0001392,0.002163,0.003872,0.001562,0.001638,0.002163,1.907e-06,0.0002527,0.0009766,7.153e-05,8.768,0.04212,0,0,0.0005255
62700000000,63000000000,5656479838,0,37,0.0001431,0.002163,0.003872,0.001568,0.001644,0.002163,1.907e-06,0.0002527,0.001219,7.153e-05,8.716,0.04131,0,0,3.052e-05
63000000000,63300000000,5656479838,0,37,0.0001497,0.002163,0.003872,0.001572,0.00165,0.002163,1.907e-06,0.0002527,0.0012,7.153e-05,9.508,0.0449,0,0,2.384e-05
63300000000,63600000000,5656479838,0,37,0.0001431,0.002167,0.003872,0.001577,0.001654,0.002167,2.861e-06,0.0002527,0.001143,7.153e-05,9.103,0.04387,0,0,0.0002184
63600000000,63900000000,5656479838,0,37,0.0001383,0.002163,0.003872,0.001583,0.001659,0.002167,1.907e-06,0.0002527,0.0009956,7.153e-05,9.427,0.04552,0,0,0.0002365
63900000000,64200000000,5656479838,0,37,0.0001354,0.002171,0.003872,0.001587,0.001665,0.002174,9.537e-07,0.0002527,0.000968,7.153e-05,8.919,0.04359,0,0,0.0001717
64200000000,64500000000,5656479838,0,37,0.0001364,0.002167,0.003872,0.001593,0.001669,0.002171,1.907e-06,0.0002527,0.001097,7.153e-05,8.766,0.04228,0,0,2.098e-05
64500000000,64800000000,5656479838,0,37,0.0001431,0.002171,0.003872,0.001598,0.001675,0.002174,9.537e-07,0.0002527,0.001122,7.153e-05,8.761,0.04204,0,0,4.292e-05
64800000000,65100000000,5656479838,0,37,0.0001459,0.002167,0.003872,0.001604,0.00168,0.002171,1.907e-06,0.0002527,0.001541,0.0001431,10.08,0.0483,0,0,2.003e-05
65100000000,65400000000,5656479838,0,37,0.0001478,0.002171,0.003872,0.001608,0.001686,0.002171,8.583e-06,0.0002527,0.001205,0.001928,10.1,0.04868,0,0,3.147e-05
65400000000,65700000000,5656479838,0,37,0.0001535,0.002174,0.003872,0.001614,0.00169,0.002178,1.907e-06,0.0002527,0.001259,7.153e-05,9.775,0.04584,0,0,4.387e-05
65700000000,66000000000,5656479838,0,37,0.0001516,0.002171,0.003872,0.001619,0.001696,0.002174,1.907e-06,0.0002527,0.001137,7.153e-05,10.13,0.04879,0,0,4.578e-05
126000000000,126300000000,5656479838,0,37,0.0001507,0.002354,0.003872,0.001486,0.001564,0.002354,1.907e-06,0.0002546,0.001083,0.0001431,10.75,0.05069,0,0,3.719e-05
126300000000,126600000000,5656479838,0,37,0.0001478,0.002354,0.003872,0.00149,0.001568,0.002357,1.907e-06,0.0002546,0.001478,7.153e-05,9.796,0.04753,0,0,7.82e-05
126600000000,126900000000,5656479838,0,37,0.000144,0.002357,0.00399,0.001493,0.001572,0.002407,7.629e-06,0.0002546,0.001163,0.001642,9.628,0.04668,0,0,0.000102
126900000000,127200000000,5656479838,0,37,0.0001698,0.002357,0.003998,0.001493,0.00157,0.002365,1.907e-06,0.0002546,0.001957,7.153e-05,10.41,0.04661,0,0,0.0001163
127200000000,127500000000,5656479838,0,37,0.0001745,0.002354,0.004128,0.001492,0.00157,0.002361,1.907e-06,0.0002546,0.001276,7.153e-05,10.82,0.04826,0,0,5.245e-05
127500000000,127800000000,5656479838,0,37,0.0001469,0.002377,0.00412,0.00149,0.001568,0.002522,1.907e-06,0.0002546,0.001204,7.153e-05,9.592,0.04456,0,0,6.962e-05
127800000000,128100000000,5656479838,0,37,0.0001554,0.002365,0.003998,0.001486,0.001564,0.002384,1.907e-06,0.0002546,0.001305,7.153e-05,10.47,0.04636,0,0,1.812e-05
128100000000,128400000000,5656479838,0,37,0.000144,0.002357,0.003872,0.001474,0.001553,0.002361,1.907e-06,0.0002556,0.001041,7.153e-05,9.383,0.04298,0,0,3.052e-05
128400000000,128700000000,5656479838,0,37,0.0001526,0.002357,0.003872,0.001472,0.001551,0.002361,1.907e-06,0.0002556,0.001293,7.153e-05,10.37,0.04771,0,0,5.913e-05
40800000000,41100000000,5656479838,0,37,0.0001612,0.002094,0.003872,0.001186,0.001263,0.002098,1.907e-06,0.0002518,0.001274,7.153e-05,9.576,0.04418,0,0,0.0001831
41100000000,41400000000,5656479838,0,37,0.0001612,0.002098,0.003872,0.001192,0.001268,0.002098,1.24e-05,0.0002518,0.00131,0.002857,10.33,0.04849,0,0,8.678e-05
41400000000,41700000000,5656479838,0,37,0.0001516,0.002098,0.003872,0.001196,0.001274,0.002098,2.861e-06,0.0002518,0.00115,7.153e-05,9.517,0.04345,0,0,0.0007801
41700000000,42000000000,5656479838,0,37,0.0001488,0.002098,0.003872,0.001202,0.001278,0.002102,4.768e-06,0.0002518,0.001066,0.0009995,9.344,0.04302,0,0,2.098e-05
42000000000,42300000000,5656479838,0,37,0.0001535,0.002102,0.003872,0.001207,0.001284,0.002102,1.907e-06,0.0002518,0.001261,7.153e-05,9.249,0.04217,0,0,0.0003643
42300000000,42600000000,5656479838,0,37,0.0001516,0.002102,0.003872,0.001213,0.001289,0.002102,1.907e-06,0.0002518,0.001364,7.153e-05,9.246,0.04217,0,0,4.101e-05
42600000000,42900000000,5656479838,0,37,0.0001535,0.002102,0.003872,0.001217,0.001295,0.002102,1.907e-06,0.0002518,0.001066,7.153e-05,9.504,0.04437,0,0,3.815e-05
42900000000,43200000000,5656479838,0,37,0.0001507,0.002102,0.003872,0.001223,0.001299,0.002106,2.861e-06,0.0002518,0.00112,7.153e-05,9.466,0.04327,0,0,0.000123
43200000000,43500000000,5656479838,0,37,0.0001507,0.002102,0.003872,0.001228,0.001305,0.002106,9.537e-07,0.0002518,0.001339,7.153e-05,8.981,0.0406,0,0,0.0001488
43500000000,43800000000,5656479838,0,37,0.0001526,0.002106,0.003872,0.001234,0.00131,0.002106,1.907e-06,0.0002518,0.001184,7.153e-05,9.154,0.04302,0,0,0.0003529
43800000000,44100000000,5656479838,0,37,0.0001516,0.002106,0.003872,0.001238,0.001316,0.002106,1.907e-06,0.0002518,0.001297,7.153e-05,10.34,0.04771,0,0,6.104e-05
44100000000,44400000000,5656479838,0,37,0.0001497,0.002106,0.003872,0.001244,0.00132,0.00211,5.722e-06,0.0002518,0.001194,0.001072,10.34,0.0494,0,0,0.0001802
44400000000,44700000000,5656479838,0,37,0.0001469,0.002106,0.003872,0.001249,0.001326,0.00211,1.907e-06,0.0002518,0.001427,7.153e-05,10.21,0.04752,0,0,0.0001717
44700000000,45000000000,5656479838,0,37,0.0001907,0.00211,0.003872,0.001255,0.001331,0.002113,2.861e-06,0.0002518,0.001331,0.0004282,11.39,0.05141,0,0,0.0001402
45000000000,45300000000,5656479838,0,37,0.0001888,0.00211,0.003872,0.001259,0.001337,0.00211,1.907e-06,0.0002518,0.001406,7.153e-05,11.1,0.04941,0,0,0.001024
45300000000,45600000000,5656479838,0,37,0.0001898,0.00211,0.003872,0.001265,0.001341,0.002113,2.861e-06,0.0002518,0.001329,7.153e-05,11.47,0.0511,0,0,0.0001211
45600000000,45900000000,5656479838,0,37,0.0001869,0.00211,0.003872,0.00127,0.001347,0.002113,9.537e-07,0.0002518,0.00176,7.153e-05,11.69,0.05211,0,0,1.812e-05
30900000000,31200000000,5656479838,0,37,0.0001469,0.002068,0.003872,0.001013,0.001087,0.002071,1.907e-06,0.0002508,0.001389,0.0001431,9.431,0.04494,0,0,1.431e-05
31200000000,31500000000,5656479838,0,37,0.000145,0.002068,0.003872,0.001017,0.001093,0.002071,1.907e-06,0.0002508,0.001387,7.153e-05,9.923,0.04568,0,0,3.147e-05
31500000000,31800000000,5656479838,0,37,0.000145,0.002068,0.003872,0.001022,0.001099,0.002071,8.583e-06,0.0002508,0.00123,0.001928,9.219,0.04286,0,0,4.768e-06
31800000000,32100000000,5656479838,0,37,0.0001526,0.002071,0.003872,0.001028,0.001104,0.002071,1.907e-06,0.0002508,0.001438,0.0001431,10.07,0.04584,0,0,5.054e-05
32100000000,32400000000,5656479838,0,37,0.0001526,0.002071,0.003872,0.001032,0.001108,0.002071,1.907e-06,0.0002508,0.001194,7.153e-05,10.74,0.04953,0,0,6.199e-05
32400000000,32700000000,5656479838,0,37,0.0001411,0.002071,0.003872,0.001038,0.001114,0.002075,1.907e-06,0.0002508,0.00135,7.153e-05,9.529,0.04442,0,0,3.242e-05
32700000000,33000000000,5656479838,0,37,0.0001507,0.002071,0.003872,0.001043,0.00112,0.002075,9.537e-07,0.0002508,0.001003,7.153e-05,9.217,0.042,0,0,5.722e-05
33000000000,33300000000,5656479838,0,37,0.0001516,0.002075,0.003872,0.001049,0.001123,0.002079,1.907e-06,0.0002508,0.001007,7.153e-05,10.07,0.04624,0,0,1.717e-05
33300000000,33600000000,5656479838,0,37,0.0001554,0.002075,0.003872,0.001053,0.001129,0.002079,1.907e-06,0.0002508,0.001287,7.153e-05,9.928,0.04533,0,0,5.531e-05
33600000000,33900000000,5656479838,0,37,0.0001507,0.002075,0.003872,0.001059,0.001135,0.002075,1.907e-06,0.0002508,0.001148,7.153e-05,9.991,0.04727,0,0,2.289e-05
33900000000,34200000000,5656479838,0,37,0.0001507,0.002079,0.003872,0.001064,0.001141,0.002079,1.907e-06,0.0002508,0.001278,7.153e-05,9.484,0.04444,0,0,0.000186
34200000000,34500000000,5656479838,0,37,0.0001574,0.002079,0.003872,0.001068,0.001144,0.002079,1.907e-06,0.0002508,0.001606,7.153e-05,9.656,0.04321,0,0,3.719e-05
34500000000,34800000000,5656479838,0,37,0.0001526,0.002079,0.003872,0.001074,0.00115,0.002079,1.907e-06,0.0002508,0.001305,7.153e-05,9.203,0.04105,0,0,0.0001049
34800000000,35100000000,5656479838,0,37,0.0001545,0.002079,0.003872,0.00108,0.001156,0.002083,1.907e-06,0.0002508,0.001183,7.153e-05,10.82,0.04934,0,0,9.537e-06
35100000000,35400000000,5656479838,0,37,0.0001545,0.002079,0.003872,0.001085,0.001162,0.002083,1.907e-06,0.0002508,0.001265,7.153e-05,10.06,0.04537,0,0,7.343e-05
35400000000,35700000000,5656479838,0,37,0.0001554,0.002079,0.003872,0.001089,0.001165,0.002083,1.907e-06,0.0002518,0.001371,7.153e-05,10.01,0.04472,0,0,9.441e-05
55800000000,56100000000,5656479838,0,37,0.0001431,0.00214,0.003872,0.001448,0.001524,0.00214,1.907e-06,0.0002518,0.001133,7.153e-05,8.567,0.04161,0,0,0.0001097
56100000000,56400000000,5656479838,0,37,0.0001459,0.002144,0.003872,0.001451,0.00153,0.002144,1.907e-06,0.0002518,0.001089,7.153e-05,9.119,0.04426,0,0,3.719e-05
56400000000,56700000000,5656479838,0,37,0.0001431,0.002144,0.003872,0.001457,0.001534,0.002144,3.815e-06,0.0002518,0.001026,0.0007858,8.759,0.04278,0,0,0.000186
56700000000,57000000000,5656479838,0,37,0.0001402,0.002144,0.003872,0.001463,0.001539,0.002148,1.907e-06,0.0002518,0.001001,7.153e-05,9.704,0.04847,0,0,8.583e-06
57000000000,57300000000,5656479838,0,37,0.0001411,0.002144,0.003872,0.001469,0.001545,0.002148,2.861e-06,0.0002518,0.001057,0.0003567,10,0.04945,0,0,8.678e-05
57300000000,57600000000,5656479838,0,37,0.0001421,0.002148,0.003872,0.001472,0.001551,0.002148,2.861e-06,0.0002518,0.001234,7.153e-05,9.694,0.0485,0,0,0.0003853
57600000000,57900000000,5656479838,0,37,0.0001421,0.002151,0.003872,0.001478,0.001554,0.002155,1.907e-06,0.0002518,0.001234,7.153e-05,9.375,0.04598,0,0,3.815e-05
57900000000,58200000000,5656479838,0,37,0.0001411,0.002148,0.003872,0.001484,0.00156,0.002151,2.861e-06,0.0002518,0.00104,7.153e-05,9.09,0.04423,0,0,4.005e-05
58200000000,58500000000,5656479838,0,37,0.0001431,0.002148,0.003872,0.00149,0.001566,0.002151,1.907e-06,0.0002518,0.0009737,7.153e-05,9.023,0.04405,0,0,2.384e-05
58500000000,58800000000,5656479838,0,37,0.0001411,0.002151,0.003872,0.001493,0.001572,0.002151,2.861e-06,0.0002527,0.001585,0.0001431,8.946,0.04394,0,0,0.0007734
58800000000,59100000000,5656479838,0,37,0.000144,0.002151,0.003872,0.001499,0.001575,0.002151,1.907e-06,0.0002527,0.001205,7.153e-05,9.39,0.04601,0,0,3.338e-05
59100000000,59400000000,5656479838,0,37,0.0001431,0.002151,0.003872,0.001505,0.001581,0.002155,2.861e-06,0.0002527,0.001003,7.153e-05,9.771,0.04873,0,0,3.624e-05
59400000000,59700000000,5656479838,0,37,0.0001411,0.002151,0.003872,0.001509,0.001587,0.002155,1.907e-06,0.0002527,0.002083,7.153e-05,9.52,0.04695,0,0,4.292e-05
59700000000,60000000000,5656479838,0,37,0.0001411,0.002155,0.003872,0.001514,0.001593,0.002155,1.907e-06,0.0002527,0.001453,7.153e-05,8.341,0.04046,0,0,0.0001907
60000000000,60300000000,5656479838,0,37,0.000144,0.002155,0.003872,0.00152,0.001596,0.002155,1.907e-06,0.0002527,0.000946,7.153e-05,8.415,0.04081,0,0,4.959e-05
60300000000,60600000000,5656479838,0,37,0.0001411,0.002155,0.003872,0.001526,0.001602,0.002159,1.907e-06,0.0002527,0.00108,7.153e-05,8.629,0.04219,0,0,4.673e-05
60600000000,60900000000,5656479838,0,37,0.000144,0.002155,0.003872,0.00153,0.001608,0.002159,1.907e-06,0.0002527,0.001158,7.153e-05,9.85,0.04835,0,0,8.106e-05
111000000000,111300000000,5656479838,0,37,0.000185,0.002304,0.003872,0.001539,0.001616,0.002308,2.861e-06,0.0002546,0.002415,7.153e-05,11.06,0.05085,0,0,0.0001116
111300000000,111600000000,5656479838,0,37,0.0001459,0.002308,0.003872,0.001537,0.001616,0.002312,1.907e-06,0.0002546,0.001919,7.153e-05,10.19,0.04918,0,0,3.815e-05
111600000000,111900000000,5656479838,0,37,0.0001392,0.002312,0.003998,0.001537,0.001616,0.002338,6.676e-06,0.0002546,0.001316,0.001215,9.023,0.04461,0,0,0.000864
111900000000,112200000000,5656479838,0,37,0.0001421,0.002312,0.003998,0.001537,0.001616,0.002331,6.676e-06,0.0002546,0.001638,0.001429,9.475,0.04578,0,0,5.627e-05
112200000000,112500000000,5656479838,0,37,0.0001364,0.002312,0.003998,0.001537,0.001616,0.002331,4.768e-06,0.0002546,0.001448,0.0007143,8.835,0.04327,0,0,0.0008945
112500000000,112800000000,5656479838,0,37,0.0001354,0.002319,0.004128,0.001537,0.001616,0.002357,1.907e-06,0.0002546,0.00136,7.153e-05,8.526,0.04185,0,0,0.0006647
112800000000,113100000000,5656479838,0,37,0.0001411,0.002312,0.003872,0.00153,0.001608,0.002327,1.907e-06,0.0002546,0.001654,7.153e-05,8.913,0.04184,0,0,0.0004349
113100000000,113400000000,5656479838,0,37,0.0001326,0.002316,0.003998,0.00153,0.001608,0.002342,1.907e-06,0.0002546,0.007828,7.153e-05,9.532,0.04654,0,0,0.000392
113400000000,113700000000,5656479838,0,37,0.0001373,0.002316,0.003872,0.00153,0.001606,0.002319,2.861e-06,0.0002546,0.001375,0.0001431,9.344,0.04493,0,0,0.0008326
113700000000,114000000000,5656479838,0,37,0.0001469,0.002316,0.003872,0.00153,0.00161,0.002319,1.907e-06,0.0002546,0.0014,7.153e-05,9.356,0.0444,0,0,1.144e-05
114000000000,114300000000,5656479838,0,37,0.0001526,0.002316,0.003872,0.001528,0.001606,0.002319,1.907e-06,0.0002546,0.001724,7.153e-05,9.714,0.0448,0,0,5.531e-05
114300000000,114600000000,5656479838,0,37,0.0001526,0.002319,0.003952,0.00153,0.001608,0.002361,1.907e-06,0.0002546,0.001371,7.153e-05,9.477,0.04357,0,0,2.289e-05
114600000000,114900000000,5656479838,0,37,0.0001583,0.002319,0.004044,0.00153,0.001608,0.002361,2.861e-06,0.0002546,0.001396,7.153e-05,10.94,0.05069,0,0,0.001076
114900000000,115200000000,5656479838,0,37,0.0001564,0.002323,0.004257,0.001528,0.001606,0.002346,2.861e-06,0.0002546,0.001547,7.153e-05,10.33,0.04765,0,0,0.0002327
115200000000,115500000000,5656479838,0,37,0.0001583,0.002319,0.003872,0.001524,0.001602,0.002327,1.907e-06,0.0002546,0.001818,7.153e-05,10.54,0.04863,0,0,0.0005198
115500000000,115800000000,5656479838,0,37,0.0001545,0.002323,0.003998,0.001528,0.001606,0.002346,1.907e-06,0.0002546,0.001694,7.153e-05,10.3,0.0479,0,0,0.0001698
115800000000,116100000000,5656479838,0,37,0.0001554,0.002323,0.003998,0.001526,0.001604,0.002335,1.907e-06,0.0002546,0.001545,7.153e-05,10.08,0.04795,0,0,3.624e-05
81000000000,81300000000,5656479838,0,37,0.0001411,0.00222,0.004128,0.001631,0.001709,0.002239,1.907e-06,0.0002527,0.0009594,7.153e-05,8.866,0.0424,0,0,0.0003748
81300000000,81600000000,5656479838,0,37,0.0001402,0.00222,0.003998,0.001631,0.001707,0.002239,1.907e-06,0.0002527,0.001019,7.153e-05,8.708,0.04196,0,0,6.485e-05
81600000000,81900000000,5656479838,0,37,0.0001411,0.00222,0.004128,0.001629,0.001705,0.002239,1.907e-06,0.0002527,0.001135,7.153e-05,8.493,0.0413,0,0,5.722e-05
81900000000,82200000000,5656479838,0,37,0.000144,0.00222,0.003872,0.001627,0.001703,0.002228,2.861e-06,0.0002537,0.001013,7.153e-05,8.425,0.03973,0,0,1.049e-05
82200000000,82500000000,5656479838,0,37,0.0001431,0.002224,0.003998,0.001629,0.001705,0.002239,2.861e-06,0.0002537,0.001099,7.153e-05,8.983,0.04406,0,0,4.768e-05
82500000000,82800000000,5656479838,0,37,0.000144,0.002224,0.003998,0.001627,0.001703,0.002251,1.907e-06,0.0002537,0.001259,7.153e-05,8.992,0.04352,0,0,0.0002136
82800000000,83100000000,5656479838,0,37,0.0001392,0.002228,0.00425,0.001629,0.001705,0.002277,1.907e-06,0.0002537,0.001091,7.153e-05,9.411,0.04594,0,0,7.248e-05
83100000000,83400000000,5656479838,0,37,0.0001431,0.00222,0.003872,0.001627,0.001703,0.002224,2.861e-06,0.0002537,0.001205,7.153e-05,8.657,0.041,0,0,0.0001202
83400000000,83700000000,5656479838,0,37,0.0001421,0.002224,0.004128,0.001627,0.001703,0.002239,1.907e-06,0.0002537,0.0009546,7.153e-05,8.895,0.04214,0,0,7.153e-05
83700000000,84000000000,5656479838,0,37,0.0001411,0.002232,0.004356,0.001627,0.001703,0.002266,2.861e-06,0.0002537,0.001087,7.153e-05,8.339,0.03951,0,0,4.101e-05
84000000000,84300000000,5656479838,0,37,0.0001373,0.002232,0.004021,0.001619,0.001696,0.002254,1.907e-06,0.0002537,0.001102,7.153e-05,8.831,0.0422,0,0,7.629e-06
84300000000,84600000000,5656479838,0,37,0.0001392,0.002232,0.004517,0.001623,0.001699,0.002239,2.861e-06,0.0002537,0.001177,7.153e-05,8.374,0.03982,0,0,2.003e-05
84600000000,84900000000,5656479838,0,37,0.0001402,0.002239,0.004311,0.001621,0.001699,0.0023,1.907e-06,0.0002537,0.001759,7.153e-05,8.581,0.04141,0,0,2.48e-05
84900000000,85200000000,5656479838,0,37,0.0001392,0.002232,0.004066,0.001619,0.001696,0.002274,1.907e-06,0.0002537,0.004059,7.153e-05,8.509,0.04078,0,0,3.529e-05
85200000000,85500000000,5656479838,0,37,0.0001383,0.002235,0.004257,0.001619,0.001698,0.002296,9.537e-07,0.0002537,0.001019,7.153e-05,9.313,0.04509,0,0,0.0003538
85500000000,85800000000,5656479838,0,37,0.0001411,0.002254,0.004639,0.001616,0.001692,0.002296,1.907e-06,0.0002537,0.001005,7.153e-05,8.512,0.04074,0,0,6.199e-05
600000000,900000000,5656479838,0,37,0.0001345,0.001976,0.003872,0.0004358,0.0005016,0.001976,1.907e-06,0.0002499,0.001347,7.153e-05,9.168,0.04407,0,0,5.341e-05
900000000,1200000000,5656479838,0,37,0.0001316,0.00198,0.003872,0.0004406,0.0005074,0.00198,2.861e-06,0.0002499,0.001196,7.153e-05,8.383,0.03942,0,0,7.629e-06
1200000000,1500000000,5656479838,0,37,0.0001287,0.00198,0.003872,0.0004454,0.0005121,0.001984,1.907e-06,0.0002499,0.001108,7.153e-05,7.691,0.03782,0,0,0.0002346
1500000000,1800000000,5656479838,0,37,0.0001268,0.00198,0.003872,0.0004511,0.0005169,0.001987,1.907e-06,0.0002499,0.0009556,7.153e-05,8.934,0.04355,0,0,7.629e-05
1800000000,2100000000,5656479838,0,37,0.0001278,0.00198,0.003872,0.0004559,0.0005226,0.00198,2.861e-06,0.0002499,0.001417,0.0002146,9.18,0.04496,0,0,0.0002451
2100000000,2400000000,5656479838,0,37,0.0001326,0.00198,0.003872,0.0004616,0.0005274,0.001984,1.907e-06,0.0002499,0.001226,7.153e-05,8.962,0.04319,0,0,2.098e-05
2400000000,2700000000,5656479838,0,37,0.000144,0.001991,0.003872,0.000473,0.0005398,0.002029,7.153e-05,0.0002499,0.001257,0.01321,9.546,0.04511,0,0,3.052e-05
2700000000,3000000000,5656479838,0,37,0.0001402,0.001991,0.003872,0.0005064,0.0005779,0.002029,1.907e-06,0.0002499,0.001282,7.153e-05,8.783,0.0421,0,0,0.0003061
3000000000,3300000000,5656479838,0,37,0.0001402,0.001984,0.003872,0.0005112,0.0005827,0.001984,1.144e-05,0.0002499,0.001335,0.002857,8.805,0.04018,0,0,1.24e-05
3300000000,3600000000,5656479838,0,37,0.0001411,0.001984,0.003872,0.0005169,0.0005884,0.001987,1.907e-06,0.0002499,0.001362,7.153e-05,8.347,0.03791,0,0,0.0007772
3600000000,3900000000,5656479838,0,37,0.0001402,0.001984,0.003872,0.0005217,0.0005932,0.001987,1.907e-06,0.0002499,0.001547,7.153e-05,8.323,0.0377,0,0,0.0002966
3900000000,4200000000,5656479838,0,37,0.0001373,0.001987,0.003872,0.0005264,0.000598,0.001987,1.907e-06,0.0002499,0.001255,7.153e-05,8.539,0.03977,0,0,2.289e-05
4200000000,4500000000,5656479838,0,37,0.0001354,0.001987,0.003872,0.0005322,0.0006037,0.001991,1.907e-06,0.0002499,0.001303,7.153e-05,8.376,0.03961,0,0,4.768e-05
4500000000,4800000000,5656479838,0,37,0.0001326,0.001999,0.003872,0.0005474,0.0006218,0.002007,4.005e-05,0.0002499,0.001038,0.004425,7.818,0.03642,0,0,1.431e-05
4800000000,5100000000,5656479838,0,37,0.0001316,0.001991,0.003872,0.0005598,0.0006351,0.002003,1.907e-06,0.0002499,0.00135,7.153e-05,7.739,0.03656,0,0,1.335e-05
5100000000,5400000000,5656479838,0,37,0.0001354,0.001991,0.003872,0.0005646,0.0006399,0.001995,1.907e-06,0.0002499,0.001499,7.153e-05,8.619,0.04133,0,0,3.624e-05
5400000000,5700000000,5656479838,0,37,0.0001335,0.001991,0.003872,0.0005703,0.0006447,0.001995,1.907e-06,0.0002499,0.001162,7.153e-05,8.747,0.04228,0,0,4.196e-05
116100000000,116400000000,5656479838,0,37,0.0001497,0.002335,0.004128,0.001522,0.0016,0.002377,1.907e-06,0.0002546,0.001127,7.153e-05,10.09,0.04783,0,0,0.000186
116400000000,116700000000,5656479838,0,37,0.0001526,0.002323,0.003872,0.001505,0.001583,0.002338,1.907e-06,0.0002546,0.001175,7.153e-05,10.6,0.04964,0,0,0.0001554
116700000000,117000000000,5656479838,0,37,0.0001507,0.002323,0.003872,0.001509,0.001587,0.002327,4.768e-06,0.0002546,0.001324,0.0008574,10.22,0.04772,0,0,9.537e-05
117000000000,117300000000,5656479838,0,37,0.0001488,0.002331,0.003872,0.001514,0.001593,0.002338,1.907e-06,0.0002546,0.001484,7.153e-05,9.267,0.04314,0,0,3.815e-06
117300000000,117600000000,5656479838,0,37,0.0001497,0.002331,0.003872,0.00152,0.001598,0.002342,1.335e-05,0.0002546,0.001375,0.002857,9.493,0.04472,0,0,7.629e-06
117600000000,117900000000,5656479838,0,37,0.0001516,0.002335,0.00412,0.001522,0.0016,0.002373,1.907e-06,0.0002546,0.001057,7.153e-05,10.52,0.0499,0,0,0.001057
117900000000,118200000000,5656479838,0,37,0.0001488,0.002331,0.004044,0.00152,0.001598,0.002373,2.861e-06,0.0002546,0.001135,7.153e-05,10.94,0.05248,0,0,0.0001955
118200000000,118500000000,5656479838,0,37,0.0001497,0.002338,0.004333,0.001522,0.0016,0.002369,2.861e-06,0.0002546,0.001219,7.153e-05,10.44,0.04974,0,0,2.098e-05
118500000000,118800000000,5656479838,0,37,0.0001554,0.002357,0.004898,0.001522,0.0016,0.002392,9.537e-07,0.0002546,0.001957,7.153e-05,9.371,0.04375,0,0,4.292e-05
118800000000,119100000000,5656479838,0,37,0.0001507,0.002357,0.004883,0.001516,0.001595,0.002384,1.907e-06,0.0002546,0.001209,7.153e-05,9.879,0.04696,0,0,4.005e-05
119100000000,119400000000,5656479838,0,37,0.0001564,0.00235,0.004723,0.001518,0.001596,0.002373,1.907e-06,0.0002546,0.002018,7.153e-05,10.57,0.04907,0,0,0.0008211
119400000000,119700000000,5656479838,0,37,0.0001526,0.002361,0.004608,0.001518,0.001596,0.002445,1.907e-06,0.0002546,0.001514,7.153e-05,10.42,0.04874,0,0,0.0001364
119700000000,120000000000,5656479838,0,37,0.0001469,0.002346,0.004128,0.001511,0.001589,0.002384,1.907e-06,0.0002546,0.001991,7.153e-05,9.73,0.04607,0,0,2.384e-05
120000000000,120300000000,5656479838,0,37,0.0001526,0.002342,0.004128,0.001503,0.001581,0.00238,9.537e-07,0.0002546,0.002304,7.153e-05,10.48,0.05019,0,0,5.15e-05
120300000000,120600000000,5656479838,0,37,0.0001526,0.002335,0.003872,0.00149,0.001568,0.002338,2.861e-06,0.0002546,0.001247,7.153e-05,9.809,0.04591,0,0,1.049e-05
120600000000,120900000000,5656479838,0,37,0.0001507,0.002335,0.003872,0.001495,0.001574,0.002338,2.861e-06,0.0002546,0.001455,7.153e-05,9.73,0.04758,0,0,2.575e-05
15900000000,16200000000,5656479838,0,37,0.0001364,0.002022,0.003872,0.0007496,0.0008249,0.002026,1.907e-06,0.0002508,0.001637,0.0001431,8.148,0.03811,0,0,0.0006847
16200000000,16500000000,5656479838,0,37,0.0001326,0.002022,0.003872,0.0007544,0.0008297,0.002026,1.907e-06,0.0002508,0.001884,7.153e-05,8.386,0.03973,0,0,1.335e-05
16500000000,16800000000,5656479838,0,37,0.0001326,0.002026,0.003872,0.0007601,0.0008354,0.002026,1.907e-06,0.0002508,0.001411,7.153e-05,9.418,0.04473,0,0,1.526e-05
16800000000,17100000000,5656479838,0,37,0.0001345,0.002026,0.003872,0.0007648,0.0008402,0.002029,1.907e-06,0.0002508,0.001377,7.153e-05,9.2,0.0442,0,0,6.676e-05
17100000000,17400000000,5656479838,0,37,0.0001364,0.002026,0.003872,0.0007706,0.0008459,0.002029,6.676e-06,0.0002508,0.001925,0.001572,9.276,0.04463,0,0,8.583e-05
17400000000,17700000000,5656479838,0,37,0.0001335,0.002026,0.003872,0.0007753,0.0008507,0.002029,1.907e-06,0.0002508,0.001358,7.153e-05,9.351,0.04538,0,0,0.001358
17700000000,18000000000,5656479838,0,37,0.0001316,0.002029,0.003872,0.0007801,0.0008564,0.002029,1.907e-06,0.0002508,0.001348,7.153e-05,9.209,0.04412,0,0,0.0003185
18000000000,18300000000,5656479838,0,37,0.0001316,0.002029,0.003872,0.0007858,0.0008612,0.002033,5.722e-06,0.0002508,0.001535,0.001358,9.035,0.04426,0,0,9.537e-07
18300000000,18600000000,5656479838,0,37,0.0001364,0.002029,0.003872,0.0007906,0.0008659,0.002033,2.861e-06,0.0002508,0.001595,7.153e-05,8.282,0.03962,0,0,1.431e-05
18600000000,18900000000,5656479838,0,37,0.0001392,0.002033,0.003872,0.0007963,0.0008717,0.002033,1.907e-06,0.0002508,0.001863,0.0001431,8.864,0.04211,0,0,6.676e-06
18900000000,19200000000,5656479838,0,37,0.0001364,0.002033,0.003872,0.0008011,0.0008764,0.002037,1.144e-05,0.0002508,0.001265,0.002857,8.246,0.03924,0,0,4.959e-05
19200000000,19500000000,5656479838,0,37,0.0001392,0.002033,0.003872,0.0008059,0.0008812,0.002033,1.907e-06,0.0002508,0.001671,7.153e-05,9.195,0.04459,0,0,7.82e-05
19500000000,19800000000,5656479838,0,37,0.0001354,0.002033,0.003872,0.0008116,0.0008869,0.002033,1.144e-05,0.0002508,0.001453,0.002857,9.145,0.04395,0,0,0.0001431
19800000000,20100000000,5656479838,0,37,0.0001755,0.002041,0.003872,0.0008202,0.0008965,0.002045,8.583e-06,0.0002508,0.01007,0.001715,8.97,0.04252,0,0,3.338e-05
20100000000,20400000000,5656479838,0,37,0.0001373,0.002037,0.003872,0.0008259,0.0009022,0.002041,1.907e-06,0.0002508,0.001558,7.153e-05,8.632,0.04054,0,0,0.0008087
20400000000,20700000000,5656479838,0,37,0.0001392,0.002037,0.003872,0.0008307,0.0009069,0.002037,9.537e-07,0.0002508,0.001076,7.153e-05,9.676,0.04571,0,0,3.719e-05
35700000000,36000000000,5656479838,0,37,0.0001497,0.002083,0.003872,0.001095,0.001171,0.002083,1.907e-06,0.0002518,0.001032,7.153e-05,9.771,0.04516,0,0,0.0005007
36000000000,36300000000,5656479838,0,37,0.0001469,0.002083,0.003872,0.001101,0.001177,0.002083,5.722e-06,0.0002518,0.001621,0.001286,9.464,0.04334,0,0,8.297e-05
36300000000,36600000000,5656479838,0,37,0.000145,0.002083,0.003872,0.001106,0.001183,0.002087,1.907e-06,0.0002518,0.001017,7.153e-05,8.817,0.03987,0,0,9.537e-06
36600000000,36900000000,5656479838,0,37,0.0001459,0.002083,0.003872,0.00111,0.001186,0.002087,1.907e-06,0.0002518,0.001173,7.153e-05,9.593,0.0435,0,0,7.725e-05
36900000000,37200000000,5656479838,0,37,0.0001469,0.002087,0.003872,0.001116,0.001192,0.002087,2.861e-06,0.0002518,0.001074,7.153e-05,10.03,0.04569,0,0,2.289e-05
37200000000,37500000000,5656479838,0,37,0.0001497,0.002087,0.003872,0.001122,0.001198,0.002087,1.907e-06,0.0002518,0.001303,7.153e-05,10.96,0.04936,0,0,8.297e-05
37500000000,37800000000,5656479838,0,37,0.0001478,0.00209,0.003872,0.001127,0.001202,0.00209,1.907e-06,0.0002518,0.001091,7.153e-05,10.35,0.04686,0,0,0.0003395
37800000000,38100000000,5656479838,0,37,0.0001459,0.002087,0.003872,0.001131,0.001207,0.00209,1.907e-06,0.0002518,0.001316,7.153e-05,8.778,0.03983,0,0,2.67e-05
38100000000,38400000000,5656479838,0,37,0.0001497,0.00209,0.003872,0.001137,0.001213,0.00209,1.907e-06,0.0002518,0.001173,7.153e-05,9.407,0.04196,0,0,3.052e-05
38400000000,38700000000,5656479838,0,37,0.000145,0.00209,0.003872,0.001143,0.001219,0.00209,1.907e-06,0.0002518,0.001175,7.153e-05,9.851,0.04623,0,0,0.0001612
38700000000,39000000000,5656479838,0,37,0.0001459,0.002094,0.003872,0.001146,0.001223,0.002102,1.907e-06,0.0002518,0.001087,7.153e-05,9.301,0.04342,0,0,5.722e-05
39000000000,39300000000,5656479838,0,37,0.000144,0.00209,0.003872,0.001152,0.001228,0.002094,1.907e-06,0.0002518,0.0009146,7.153e-05,9.823,0.04583,0,0,6.199e-05
39300000000,39600000000,5656479838,0,37,0.0001469,0.002094,0.003872,0.001158,0.001234,0.002102,1.431e-05,0.0002518,0.001692,0.002571,9.673,0.04446,0,0,0.000164
39600000000,39900000000,5656479838,0,37,0.0001593,0.002098,0.003872,0.001165,0.001242,0.002106,2.861e-06,0.0002518,0.001095,7.153e-05,9.615,0.04503,0,0,0.000104
39900000000,40200000000,5656479838,0,37,0.0001593,0.002094,0.003872,0.001171,0.001247,0.002094,1.907e-06,0.0002518,0.001368,7.153e-05,10.09,0.04713,0,0,4.578e-05
40200000000,40500000000,5656479838,0,37,0.0001574,0.002094,0.003872,0.001175,0.001253,0.002094,1.907e-06,0.0002518,0.001225,7.153e-05,10.02,0.04669,0,0,9.441e-05
40500000000,40800000000,5656479838,0,37,0.0001583,0.002094,0.003872,0.001181,0.001259,0.002098,1.907e-06,0.0002518,0.00168,7.153e-05,9.627,0.04524,0,0,7.534e-05
75900000000,76200000000,5656479838,0,37,0.0001507,0.002205,0.003998,0.001648,0.001724,0.002239,1.907e-06,0.0002527,0.001093,7.153e-05,9.919,0.0466,0,0,3.052e-05
76200000000,76500000000,5656479838,0,37,0.0001478,0.00222,0.004112,0.001646,0.001722,0.002468,1.907e-06,0.0002527,0.001202,7.153e-05,9.367,0.04451,0,0,7.915e-05
76500000000,76800000000,5656479838,0,37,0.0001478,0.002247,0.004242,0.001644,0.00172,0.002441,1.907e-06,0.0002527,0.001392,7.153e-05,9.079,0.04311,0,0,0.0001478
76800000000,77100000000,5656479838,0,37,0.0001497,0.00222,0.004242,0.001644,0.00172,0.002296,1.907e-06,0.0002527,0.002548,7.153e-05,9.922,0.04622,0,0,0.0001163
77100000000,77400000000,5656479838,0,37,0.0001507,0.002205,0.003872,0.001637,0.001713,0.002209,1.907e-06,0.0002527,0.001444,7.153e-05,9.331,0.04367,0,0,7.153e-05
77400000000,77700000000,5656479838,0,37,0.0001488,0.002216,0.00399,0.00164,0.001717,0.002338,2.861e-06,0.0002527,0.001734,7.153e-05,8.591,0.04063,0,0,0.0001421
77700000000,78000000000,5656479838,0,37,0.0001469,0.002213,0.003998,0.001638,0.001717,0.002281,1.907e-06,0.0002527,0.001242,7.153e-05,9.387,0.04491,0,0,9.155e-05
78000000000,78300000000,5656479838,0,37,0.0001526,0.002213,0.003872,0.001637,0.001713,0.002232,1.907e-06,0.0002527,0.001205,7.153e-05,9.274,0.04394,0,0,0.0004387
78300000000,78600000000,5656479838,0,37,0.0001507,0.002232,0.003998,0.001627,0.001703,0.002415,1.907e-06,0.0002527,0.001453,7.153e-05,9.726,0.04779,0,0,6.294e-05
78600000000,78900000000,5656479838,0,37,0.0001526,0.002209,0.003872,0.0016,0.001677,0.002213,1.907e-06,0.0002527,0.00141,7.153e-05,9.682,0.04702,0,0,5.817e-05
78900000000,79200000000,5656479838,0,37,0.0001516,0.002213,0.003872,0.001606,0.001682,0.002216,4.768e-06,0.0002527,0.001152,0.0009289,9.585,0.04469,0,0,0.0001354
79200000000,79500000000,5656479838,0,37,0.0001469,0.002213,0.003872,0.00161,0.001688,0.002213,1.907e-06,0.0002527,0.001308,7.153e-05,9.021,0.04272,0,0,4.387e-05
79500000000,79800000000,5656479838,0,37,0.0001478,0.002213,0.003872,0.001616,0.001694,0.002213,1.907e-06,0.0002527,0.001503,7.153e-05,8.624,0.04058,0,0,8.869e-05
79800000000,80100000000,5656479838,0,37,0.0001469,0.002213,0.003872,0.001621,0.001698,0.002216,1.907e-06,0.0002527,0.001175,7.153e-05,8.743,0.04156,0,0,0.000124
80100000000,80400000000,5656479838,0,37,0.0001497,0.002216,0.003872,0.001627,0.001703,0.002216,1.907e-06,0.0002527,0.001232,7.153e-05,9.489,0.0454,0,0,8.297e-05
80400000000,80700000000,5656479838,0,37,0.0001478,0.002216,0.003872,0.001631,0.001709,0.002216,1.907e-06,0.0002527,0.001043,7.153e-05,9.236,0.04419,0,0,4.959e-05
80700000000,81000000000,5656479838,0,37,0.0001431,0.00222,0.004128,0.001633,0.001709,0.002262,1.907e-06,0.0002527,0.00189,7.153e-05,8.687,0.04066,0,0,7.248e-05
10800000000,11100000000,5656479838,0,37,0.0001354,0.002007,0.003872,0.0006618,0.0007372,0.002007,1.907e-06,0.0002499,0.001671,7.153e-05,8.47,0.03928,0,0,0.0001192
11100000000,11400000000,5656479838,0,37,0.0001335,0.002007,0.003872,0.0006676,0.0007429,0.00201,1.907e-06,0.0002499,0.001415,7.153e-05,8.946,0.04281,0,0,0.0004349
11400000000,11700000000,5656479838,0,37,0.0001364,0.00201,0.003872,0.0006723,0.0007477,0.00201,1.907e-06,0.0002499,0.001871,7.153e-05,9.533,0.04545,0,0,3.338e-05
11700000000,12000000000,5656479838,0,37,0.0001364,0.00201,0.003872,0.0006781,0.0007534,0.002014,1.907e-06,0.0002499,0.001385,7.153e-05,9.015,0.04287,0,0,0.0006838
12000000000,12300000000,5656479838,0,37,0.0001354,0.00201,0.003872,0.0006828,0.0007582,0.00201,1.907e-06,0.0002508,0.001884,0.0001431,9.552,0.04583,0,0,1.526e-05
12300000000,12600000000,5656479838,0,37,0.0001373,0.00201,0.003872,0.0006876,0.0007629,0.002014,1.907e-06,0.0002508,0.001406,7.153e-05,8.557,0.03998,0,0,0.0008574
12600000000,12900000000,5656479838,0,37,0.0001364,0.002014,0.003872,0.0006933,0.0007687,0.002018,1.907e-06,0.0002508,0.002022,7.153e-05,8.529,0.04015,0,0,0.0008564
12900000000,13200000000,5656479838,0,37,0.0001354,0.002014,0.003872,0.0006981,0.0007734,0.002014,1.907e-06,0.0002508,0.00182,7.153e-05,9.646,0.04658,0,0,3.91e-05
13200000000,13500000000,5656479838,0,37,0.0001373,0.002014,0.003872,0.0007029,0.0007782,0.002018,1.907e-06,0.0002508,0.001877,7.153e-05,9.52,0.04547,0,0,5.722e-06
13500000000,13800000000,5656479838,0,37,0.0001326,0.002014,0.003872,0.0007086,0.0007839,0.002018,1.907e-06,0.0002508,0.001474,7.153e-05,9.215,0.04546,0,0,1.431e-05
13800000000,14100000000,5656479838,0,37,0.0001326,0.002018,0.003872,0.0007133,0.0007887,0.002022,1.907e-06,0.0002508,0.001734,7.153e-05,9.52,0.04611,0,0,1.049e-05
14100000000,14400000000,5656479838,0,37,0.0001335,0.002018,0.003872,0.0007191,0.0007944,0.002018,1.907e-06,0.0002508,0.001656,7.153e-05,9.358,0.04428,0,0,2.289e-05
14400000000,14700000000,5656479838,0,37,0.0001316,0.002018,0.003872,0.0007238,0.0007992,0.002018,1.907e-06,0.0002508,0.001547,7.153e-05,8.704,0.04158,0,0,6.199e-05
14700000000,15000000000,5656479838,0,37,0.0001316,0.002018,0.003872,0.0007296,0.0008049,0.002022,1.907e-06,0.0002508,0.001299,7.153e-05,9.23,0.04427,0,0,4.673e-05
15000000000,15300000000,5656479838,0,37,0.0001326,0.002022,0.003872,0.0007343,0.0008097,0.002022,1.907e-06,0.0002508,0.001541,7.153e-05,9.262,0.04436,0,0,0.0002527
15300000000,15600000000,5656479838,0,37,0.0001316,0.002022,0.003872,0.0007391,0.0008144,0.002026,1.907e-06,0.0002508,0.001532,7.153e-05,8.686,0.04213,0,0,0.0007629
15600000000,15900000000,5656479838,0,37,0.0001307,0.002022,0.003872,0.0007448,0.0008202,0.002022,1.907e-06,0.0002508,0.01476,7.153e-05,7.859,0.03696,0,0,0.0007477
