6000000000,6300000000,6226140072,10,4478967491,0.01779,0.07898,0.0813,0.002399,0.002499,0.07922,9.537e-05,9.346e-05,0.1196,0.008209,2.787,0.006129,0,0,0.01343
6300000000,6600000000,6226140072,10,4478967491,0.02423,0.0791,0.0813,0.002441,0.002541,0.07922,0.0001364,9.441e-05,0.1638,0.008575,2.228,0.004741,0,0,0.09082
6600000000,6900000000,6226140072,10,4478967491,0.01944,0.0791,0.0813,0.00246,0.00256,0.07922,0.0002251,9.346e-05,0.09875,0.01428,1.824,0.003638,0,0,0.002441
6900000000,7200000000,6226140072,10,4478967491,0.02087,0.07898,0.0813,0.002476,0.002575,0.0791,0.0001411,9.346e-05,0.1016,0.008575,1.89,0.003835,0,0,0.04156
7200000000,7500000000,6226140072,10,4478967491,0.02133,0.0791,0.0813,0.002441,0.002537,0.0791,0.0001402,9.537e-05,0.108,0.01151,1.987,0.004028,0,0,0.01543
7500000000,7800000000,6226140072,10,4478967491,0.01974,0.07898,0.0813,0.00243,0.002525,0.07922,0.0001793,9.251e-05,0.1445,0.01172,2.114,0.004417,0,0,0.00222
7800000000,8100000000,6226140072,10,4478967491,0.02286,0.07898,0.08154,0.002449,0.002544,0.07922,0.0001583,9.537e-05,0.1384,0.01143,2.797,0.006235,0,0,0.02173
8100000000,8400000000,6226140072,10,4478967491,0.02005,0.0791,0.0813,0.002472,0.002567,0.07922,0.000144,9.346e-05,0.1482,0.01521,2.082,0.004392,0,0,0.01329
8400000000,8700000000,6226140072,10,4478967491,0.02298,0.07898,0.08142,0.002457,0.002556,0.07922,0.0001431,9.441e-05,0.196,0.01401,1.889,0.003994,0,0,0.01984
8700000000,9000000000,6226140072,10,4478967491,0.02173,0.0791,0.08142,0.002419,0.002518,0.07935,0.0001898,9.346e-05,0.176,0.01279,2.041,0.004266,0,0,0.0181
9000000000,9300000000,6226140072,10,4478967491,0.02121,0.0791,0.0813,0.002415,0.00251,0.07922,0.0001211,9.346e-05,0.158,0.008575,2.17,0.004507,0,0,0.02191
9600000000,9900000000,6226140072,10,4478967491,0.01935,0.07898,0.0813,0.00209,0.00219,0.07922,0.0001459,9.346e-05,0.1172,0.01428,2.35,0.004823,0,0,0.002686
9900000000,10200000000,6226140072,10,4478967491,0.02216,0.0791,0.0813,0.001905,0.002003,0.07922,0.0001431,9.441e-05,0.1238,0.007004,1.795,0.003387,0,0,0.07166
10200000000,10500000000,6226140072,10,4478967491,0.02319,0.0791,0.0813,0.002438,0.002537,0.07922,0.0001211,9.251e-05,0.1523,0.01129,2.221,0.004448,0,0,0.002731
10500000000,10800000000,6226140072,10,4478967491,0.02164,0.0791,0.0813,0.002399,0.002495,0.07935,0.0001554,9.537e-05,0.2097,0.01093,2.044,0.004003,0,0,0.005898
10800000000,11100000000,6226140072,10,4478967491,0.02194,0.07898,0.0813,0.002422,0.002522,0.07922,0.0001488,9.346e-05,0.1401,0.01143,2.48,0.005119,0,0,0.01749
11100000000,11400000000,6226140072,10,4478967491,0.0206,0.07898,0.0813,0.001753,0.001852,0.07922,0.000206,9.441e-05,0.1104,0.01143,2.148,0.004194,0,0,0.003822
11400000000,11700000000,6226140072,10,4478967491,0.01996,0.07898,0.0813,0.002228,0.002327,0.07922,0.0001583,9.346e-05,0.2305,0.01172,2.203,0.00444,0,0,0.0423
12300000000,12600000000,6226140072,10,4478967491,0.02112,0.0791,0.0813,0.0009975,0.001099,0.07922,0.0001545,9.346e-05,0.09888,0.01143,2.24,0.004696,0,0,0.008911
13200000000,13500000000,6226140072,10,4478967491,0.01862,0.07898,0.0813,0.001495,0.001595,0.07922,0.0001507,9.441e-05,0.1401,0.008636,2.077,0.004141,0,0,0.01941
13500000000,13800000000,6226140072,10,4478967491,0.02258,0.0791,0.0813,0.002232,0.002331,0.07922,0.0001202,9.441e-05,0.1921,0.005714,1.849,0.003659,0,0,0.03394
13800000000,14100000000,6226140072,10,4478967491,0.02066,0.07898,0.0813,0.002415,0.002514,0.07922,0.0001612,9.346e-05,0.1458,0.0125,2.711,0.005838,0,0,0.02676
14100000000,14400000000,6226140072,10,4478967491,0.01962,0.07898,0.0813,0.002365,0.002464,0.0791,0.0001144,9.537e-05,0.1343,0.0125,2.172,0.004402,0,0,0.001816
14400000000,14700000000,6226140072,10,4478967491,0.01981,0.07898,0.0813,0.0008392,0.0009365,0.07922,0.0001354,9.251e-05,0.08972,0.01114,2.4,0.004868,0,0,0.009293
15000000000,15300000000,6226140072,10,4478967491,0.01862,0.07898,0.0813,0.002384,0.002483,0.07922,0.0001411,9.346e-05,0.1052,0.00914,1.776,0.003377,0,0,0.026
15300000000,15600000000,6226140072,10,4478967491,0.02072,0.07898,0.0813,0.001507,0.001606,0.07922,0.0002098,9.441e-05,0.1094,0.01428,2.064,0.00414,0,0,0.02399
15600000000,15900000000,6226140072,10,4478967491,0.01965,0.0791,0.0813,0.002079,0.002178,0.07922,0.0001364,9.537e-05,0.09729,0.009003,2.137,0.004146,0,0,0.01633
15900000000,16200000000,6226140072,10,4478967491,0.02036,0.0791,0.08154,0.001833,0.00193,0.07922,0.0001421,9.346e-05,0.1455,0.01172,2.027,0.004009,0,0,0.01019
16200000000,16500000000,6226140072,10,4478967491,0.01956,0.07898,0.0813,0.001759,0.001856,0.07922,0.0001106,9.537e-05,0.1094,0.006859,2.476,0.005218,0,0,0.02576
16500000000,16800000000,6226140072,10,4478967491,0.01923,0.07898,0.08142,0.002407,0.002506,0.07922,0.0001278,9.346e-05,0.09399,0.009857,2.247,0.004573,0,0,0.02835
16800000000,17100000000,6226140072,10,4478967491,0.01831,0.07898,0.0813,0.002476,0.002575,0.0791,0.0001135,9.441e-05,0.08142,0.006142,1.606,0.002917,0,0,0.01593
17100000000,17400000000,6226140072,10,4478967491,0.01849,0.0791,0.08142,0.002426,0.002525,0.07922,0.0001135,9.441e-05,0.07373,0.007935,2.142,0.004205,0,0,0.03979
17400000000,17700000000,6226140072,10,4478967491,0.01758,0.07898,0.08142,0.002426,0.002525,0.07922,0.0001402,9.346e-05,0.09497,0.008575,2.196,0.004371,0,0,0.01053
17700000000,18000000000,6226140072,10,4478967491,0.01846,0.07898,0.0813,0.002426,0.002525,0.07922,0.0001411,9.537e-05,0.1348,0.008575,1.904,0.003734,0,0,0.006172
18000000000,18300000000,6226140072,10,4478967491,0.01767,0.07898,0.0813,0.00238,0.00248,0.07922,0.0001411,9.346e-05,0.1157,0.008636,2.259,0.004528,0,0,0.01926
18300000000,18600000000,6226140072,10,4478967491,0.02139,0.0791,0.0813,0.001432,0.00153,0.07922,0.0001574,9.441e-05,0.1724,0.01143,2.035,0.00425,0,0,0.02527
18600000000,18900000000,6226140072,10,4478967491,0.01956,0.0791,0.0813,0.002098,0.002197,0.07922,0.000145,9.346e-05,0.1328,0.01151,1.851,0.003558,0,0,0.02261
18900000000,19200000000,6226140072,10,4478967491,0.021,0.07898,0.0813,0.002396,0.002495,0.07922,0.0001726,9.346e-05,0.3066,0.01279,2.197,0.004363,0,0,0.07166
19200000000,19500000000,6226140072,10,4478967491,0.01944,0.07898,0.0813,0.001875,0.001972,0.07922,0.0001564,9.537e-05,0.1169,0.01151,2.132,0.004283,0,0,0.01088
19500000000,19800000000,6226140072,10,4478967491,0.01779,0.0791,0.08167,0.002411,0.00251,0.07922,0.0001163,9.346e-05,0.08838,0.01465,2.253,0.00451,0,0,0.04694
19800000000,20100000000,6226140072,10,4478967491,0.02191,0.0791,0.0813,0.002449,0.002548,0.07922,0.0002203,9.537e-05,0.1643,0.011,2.638,0.00598,0,0,0.02048
20100000000,20400000000,6226140072,10,4478967491,0.01819,0.07898,0.08154,0.002308,0.002407,0.07922,0.0001106,9.346e-05,0.1526,0.009995,1.741,0.003285,0,0,0.00946
20400000000,20700000000,6226140072,10,4478967491,0.01761,0.07898,0.0813,0.001209,0.001308,0.07922,9.918e-05,9.441e-05,0.09766,0.004715,1.888,0.003571,0,0,0.07288
20700000000,21000000000,6226140072,10,4478967491,0.02051,0.0791,0.0813,0.001999,0.002094,0.07922,0.0001602,9.441e-05,0.1648,0.01164,1.611,0.002986,0,0,0.04962
21000000000,21300000000,6226140072,10,4478967491,0.0166,0.07898,0.08142,0.002464,0.002563,0.07922,0.0001001,9.346e-05,0.1274,0.006927,1.772,0.003311,0,0,0.003498
21300000000,21600000000,6226140072,10,4478967491,0.0192,0.07898,0.08142,0.002476,0.002575,0.0791,0.0001125,9.537e-05,0.1548,0.005714,2.142,0.004193,0,0,0.002148
21600000000,21900000000,6226140072,10,4478967491,0.02029,0.07898,0.0813,0.002464,0.002563,0.07922,0.0001507,9.251e-05,0.1584,0.01057,2.262,0.004538,0,0,0.01605
22500000000,22800000000,6226140072,10,4478967491,0.01883,0.07898,0.0802,0.0009375,0.001036,0.0791,0.0001755,9.346e-05,0.1282,0.01015,1.681,0.00318,0,0,0.02457
22800000000,23100000000,6226140072,10,4478967491,0.01788,0.07898,0.08081,0.0008888,0.000988,0.07922,0.0001307,9.441e-05,0.1365,0.01157,1.96,0.003722,0,0,0.06812
23100000000,23400000000,6226140072,10,4478967491,0.021,0.0791,0.0813,0.00172,0.001818,0.07922,0.0001307,9.251e-05,0.165,0.0145,2.404,0.004947,0,0,0.004547
23700000000,24000000000,6226140072,10,4478967491,0.01962,0.0791,0.08142,0.002419,0.002518,0.07922,0.0001202,9.346e-05,0.1313,0.008575,1.782,0.003285,0,0,0.02286
24300000000,24600000000,6226140072,10,4478967491,0.01828,0.0791,0.0813,0.002373,0.002468,0.07935,0.0001869,9.346e-05,0.1143,0.01186,1.525,0.002743,0,0,0.002132
24600000000,24900000000,6226140072,10,4478967491,0.02225,0.0791,0.0813,0.002426,0.002525,0.07922,0.0001459,9.346e-05,0.155,0.01108,2.069,0.004062,0,0,0.01917
24900000000,25200000000,6226140072,10,4478967491,0.01901,0.0791,0.0813,0.002453,0.002552,0.07922,0.0001497,9.441e-05,0.1729,0.01143,2.016,0.003821,0,0,0.002842
25200000000,25500000000,6226140072,10,4478967491,0.01971,0.0791,0.0813,0.002426,0.002525,0.07922,0.0001097,9.346e-05,0.1205,0.008286,1.806,0.003449,0,0,0.00296
25800000000,26100000000,6226140072,10,4478967491,0.01999,0.0791,0.0813,0.002392,0.002491,0.07922,0.0001717,9.251e-05,0.1001,0.01151,2.403,0.004852,0,0,0.001848
26400000000,26700000000,6226140072,10,4478967491,0.02008,0.0791,0.0813,0.002419,0.002514,0.07935,0.0001612,9.346e-05,0.1052,0.01157,2.399,0.004856,0,0,0.007126
27300000000,27600000000,6226140072,10,4478967491,0.02176,0.0791,0.08142,0.002354,0.002449,0.07922,0.0001965,9.441e-05,0.1548,0.01143,2.288,0.004656,0,0,0.02975
28200000000,28500000000,6226140072,10,4478967491,0.1328,0.08105,0.08325,0.003452,0.003548,0.08203,0.001097,9.441e-05,0.3101,0.02887,4.156,0.0096,0,0,0.09668
28500000000,28800000000,6226140072,10,4478967491,0.08179,0.07996,0.08142,0.002094,0.00219,0.08032,0.0006018,9.441e-05,0.2441,0.01436,3.59,0.008299,0,0,0.06836
28800000000,29100000000,6226140072,10,4478967491,0.1538,0.08057,0.08203,0.002518,0.002613,0.08118,0.0009241,9.441e-05,0.271,0.02573,4.244,0.01015,0,0,0.2368
29100000000,29400000000,6226140072,10,4478967491,0.1233,0.08057,0.08252,0.003117,0.003212,0.08093,0.0009155,9.441e-05,0.2612,0.02542,3.826,0.009194,0,0,0.08862
29400000000,29700000000,6226140072,10,4478967491,0.1516,0.08032,0.0813,0.00201,0.002106,0.08069,0.0007229,9.441e-05,0.2764,0.01892,4.184,0.0102,0,0,0.147
29700000000,30000000000,6226140072,10,4478967491,0.1401,0.08032,0.08142,0.001801,0.001898,0.08105,0.0007896,9.441e-05,0.272,0.01651,4.009,0.009549,0,0,0.1177
30000000000,30300000000,6226140072,10,4478967491,0.1306,0.08044,0.08228,0.002491,0.00259,0.08105,0.0007229,9.441e-05,0.2563,0.02292,4.243,0.01045,0,0,0.09119
30300000000,30600000000,6226140072,10,4478967491,0.1421,0.08044,0.08154,0.001839,0.001934,0.08081,0.0007029,9.441e-05,0.3105,0.01479,4.152,0.01013,0,0,0.1055
30600000000,30900000000,6226140072,10,4478967491,0.1205,0.08057,0.08228,0.002098,0.002193,0.08105,0.0005474,9.441e-05,0.2705,0.02292,4.308,0.01103,0,0,0.08655
30900000000,31200000000,6226140072,10,4478967491,0.1101,0.07996,0.08118,0.001942,0.002037,0.0802,0.000536,9.441e-05,0.2666,0.01663,3.914,0.009896,0,0,0.111
31200000000,31500000000,6226140072,10,4478967491,0.1252,0.08008,0.08105,0.001812,0.001907,0.08032,0.0006294,9.441e-05,0.2603,0.01791,4.207,0.01062,0,0,0.1343
31500000000,31800000000,6226140072,10,4478967491,0.1306,0.08008,0.08118,0.001509,0.001602,0.08032,0.0006485,9.346e-05,0.251,0.01715,3.994,0.01005,0,0,0.1716
31800000000,32100000000,6226140072,10,4478967491,0.1418,0.08044,0.08179,0.002045,0.00214,0.08081,0.0006571,9.346e-05,0.2515,0.02222,4.383,0.01096,0,0,0.2056
32100000000,32400000000,6226140072,10,4478967491,0.1536,0.08044,0.08167,0.002125,0.00222,0.08093,0.0007257,9.441e-05,0.2617,0.02008,4.256,0.01061,0,0,0.1039
32400000000,32700000000,6226140072,10,4478967491,0.127,0.0802,0.08167,0.00186,0.001953,0.08093,0.000453,9.441e-05,1.225,0.01636,4.091,0.01036,0,0,0.1521
32700000000,33000000000,6226140072,10,4478967491,0.1082,0.07971,0.0813,0.001871,0.001965,0.0802,0.0003662,9.441e-05,0.3828,0.01157,4.453,0.01158,0,0,0.07922
33000000000,33300000000,6226140072,10,4478967491,0.1249,0.07983,0.08118,0.001841,0.001936,0.07996,0.0004311,9.346e-05,0.2417,0.01314,4.194,0.01095,0,0,0.1311
33300000000,33600000000,6226140072,10,4478967491,0.1215,0.0802,0.0813,0.001745,0.001839,0.08044,0.0005407,9.441e-05,0.2146,0.01715,4.096,0.0106,0,0,0.1003
33600000000,33900000000,6226140072,10,4478967491,0.1073,0.07996,0.08118,0.001808,0.001902,0.0802,0.0005484,9.346e-05,0.2422,0.01749,4.005,0.01014,0,0,0.1318
33900000000,34200000000,6226140072,10,4478967491,0.1365,0.0802,0.08118,0.00148,0.001575,0.08044,0.0004997,9.441e-05,0.2681,0.01329,4.256,0.01077,0,0,0.1277
34200000000,34500000000,6226140072,10,4478967491,0.1079,0.07996,0.08118,0.001816,0.001911,0.08044,0.0003948,9.346e-05,0.2478,0.01321,4.251,0.01051,0,0,0.1545
34500000000,34800000000,6226140072,10,4478967491,0.136,0.08032,0.08118,0.001846,0.00194,0.08081,0.0006361,9.441e-05,0.2632,0.01642,4.145,0.009845,0,0,0.1392
34800000000,35100000000,6226140072,10,4478967491,0.1252,0.08008,0.08118,0.001772,0.001863,0.08093,0.0004463,9.346e-05,0.2554,0.01721,4.474,0.01099,0,0,0.052
35100000000,35400000000,6226140072,10,4478967491,0.08398,0.07971,0.08142,0.001858,0.001951,0.07983,0.0003138,9.346e-05,0.1809,0.01236,3.815,0.009207,0,0,0.1199
35400000000,35700000000,6226140072,10,4478967491,0.127,0.08008,0.0813,0.001774,0.001869,0.08057,0.0004692,9.441e-05,0.2559,0.01672,4.413,0.01104,0,0,0.05536
35700000000,36000000000,6226140072,10,4478967491,0.09229,0.07971,0.08118,0.001366,0.001461,0.07983,0.0003214,9.346e-05,0.2092,0.01727,4.282,0.01087,0,0,0.2021
36000000000,36300000000,6226140072,10,4478967491,0.136,0.07996,0.08118,0.001816,0.001911,0.08044,0.0005598,9.441e-05,0.2744,0.02029,4.373,0.01064,0,0,0.1107
36300000000,36600000000,6226140072,10,4478967491,0.124,0.07983,0.08105,0.001842,0.001938,0.08008,0.0004673,9.346e-05,0.2395,0.01892,4.392,0.01102,0,0,0.1301
36600000000,36900000000,6226140072,10,4478967491,0.1267,0.07983,0.08105,0.001806,0.001902,0.0802,0.0004492,9.441e-05,0.2637,0.01721,4.348,0.01072,0,0,0.1215
36900000000,37200000000,6226140072,10,4478967491,0.1248,0.07983,0.08118,0.001808,0.001905,0.08008,0.0004234,9.441e-05,0.2468,0.01407,4.359,0.01079,0,0,0.05786
37200000000,37500000000,6226140072,10,4478967491,0.08557,0.07971,0.0813,0.00185,0.001945,0.07983,0.0004025,9.441e-05,0.1953,0.01329,3.745,0.009229,0,0,0.1287
37500000000,37800000000,6226140072,10,4478967491,0.1257,0.07996,0.0813,0.001694,0.001793,0.08057,0.0005198,9.346e-05,0.2671,0.0195,4.29,0.01053,0,0,0.1912
37800000000,38100000000,6226140072,10,4478967491,0.09778,0.07983,0.08118,0.00172,0.001818,0.0802,0.00037,9.346e-05,0.21,0.01642,4.022,0.01053,0,0,0.134
38100000000,38400000000,6226140072,10,4478967491,0.1066,0.07983,0.08118,0.001799,0.001896,0.07996,0.0004158,9.441e-05,0.3164,0.01721,3.735,0.009364,0,0,0.1895
38400000000,38700000000,6226140072,10,4478967491,0.1055,0.07983,0.08105,0.001715,0.00181,0.08008,0.0004349,9.441e-05,0.2695,0.01436,3.795,0.009398,0,0,0.1487
38700000000,39000000000,6226140072,10,4478967491,0.09656,0.07971,0.08105,0.001801,0.001898,0.08008,0.0004673,9.441e-05,0.2078,0.01779,4.124,0.01055,0,0,0.1377
39000000000,39300000000,6226140072,10,4478967491,0.0979,0.07971,0.08105,0.001802,0.0019,0.07983,0.0003977,9.441e-05,0.2249,0.01721,4.324,0.01089,0,0,0.05603
39300000000,39600000000,6226140072,10,4478967491,0.1069,0.07983,0.08105,0.001556,0.001654,0.0802,0.0004225,9.441e-05,0.2256,0.01321,4.427,0.01097,0,0,0.1462
39600000000,39900000000,6226140072,10,4478967491,0.09619,0.07971,0.08105,0.001337,0.001432,0.08008,0.0004835,9.441e-05,0.2773,0.01178,4.162,0.01061,0,0,0.05823
39900000000,40200000000,6226140072,10,4478967491,0.07971,0.07959,0.08105,0.001129,0.001226,0.07996,0.0003862,9.346e-05,0.189,0.01143,4.087,0.01075,0,0,0.02658
40200000000,40500000000,6226140072,10,4478967491,0.1134,0.07971,0.08118,0.001816,0.001913,0.0802,0.0003862,9.441e-05,0.2285,0.01257,4.207,0.01065,0,0,0.08691
40500000000,40800000000,6226140072,10,4478967491,0.1292,0.08008,0.08118,0.001551,0.001646,0.08044,0.0005217,9.346e-05,0.2241,0.01151,4.161,0.01074,0,0,0.1501
51000000000,51300000000,6226140072,10,4478967491,0.09766,0.07971,0.08105,0.001825,0.001925,0.07996,0.0003347,9.441e-05,0.2168,0.01357,4.197,0.01101,0,0,0.09351
51300000000,51600000000,6226140072,10,4478967491,0.09827,0.07959,0.08118,0.001856,0.001953,0.07971,0.000267,9.346e-05,0.2251,0.01151,3.911,0.01031,0,0,0.06274
51600000000,51900000000,6226140072,10,4478967491,0.137,0.07971,0.08118,0.001787,0.001886,0.07996,0.0003567,9.441e-05,0.2314,0.01672,4.38,0.01143,0,0,0.1418
51900000000,52200000000,6226140072,10,4478967491,0.09521,0.07959,0.08105,0.001211,0.001307,0.07983,0.0002966,9.346e-05,0.1851,0.01436,4.035,0.01087,0,0,0.158
52200000000,52500000000,6226140072,10,4478967491,0.08154,0.07959,0.08105,0.001434,0.001532,0.0802,0.0002317,9.441e-05,0.1792,0.00972,4.144,0.01112,0,0,0.09814
52500000000,52800000000,6226140072,10,4478967491,0.0835,0.07947,0.0813,0.001854,0.001951,0.07971,0.0002117,9.537e-05,0.2637,0.006714,3.983,0.01078,0,0,0.03955
52800000000,53100000000,6226140072,10,4478967491,0.1035,0.07971,0.08118,0.001804,0.001902,0.07996,0.0003748,9.346e-05,0.2322,0.01143,3.822,0.01019,0,0,0.03735
53100000000,53400000000,6226140072,10,4478967491,0.1086,0.07971,0.0813,0.001781,0.001881,0.07996,0.0002823,9.441e-05,0.2275,0.01151,4.003,0.01046,0,0,0.1448
53400000000,53700000000,6226140072,10,4478967491,0.1162,0.07971,0.08105,0.001272,0.001369,0.08008,0.0002851,9.346e-05,0.3691,0.01157,4.273,0.0111,0,0,0.2441
53700000000,54000000000,6226140072,10,4478967491,0.1062,0.07959,0.08105,0.00181,0.001905,0.07983,0.0002918,9.346e-05,0.6523,0.01178,4.138,0.01073,0,0,0.06726
54000000000,54300000000,6226140072,10,4478967491,0.09021,0.07947,0.08118,0.001873,0.001968,0.07971,0.0002966,9.441e-05,0.2012,0.01428,3.773,0.009942,0,0,0.04694
54300000000,54600000000,6226140072,10,4478967491,0.1107,0.07971,0.08105,0.00149,0.001585,0.07996,0.0003138,9.346e-05,0.21,0.01186,3.961,0.01027,0,0,0.1667
54600000000,54900000000,6226140072,10,4478967491,0.1095,0.07971,0.08105,0.001822,0.001917,0.07971,0.0003834,9.346e-05,0.2617,0.01457,4.161,0.01083,0,0,0.2061
54900000000,55200000000,6226140072,10,4478967491,0.1227,0.07983,0.0813,0.001625,0.001722,0.08008,0.0003643,9.441e-05,0.2515,0.01614,4.295,0.0112,0,0,0.07312
55200000000,55500000000,6226140072,10,4478967491,0.1183,0.07983,0.08105,0.001694,0.001789,0.08032,0.0003901,9.346e-05,0.3086,0.01587,4.394,0.01153,0,0,0.06287
55500000000,55800000000,6226140072,10,4478967491,0.1201,0.07971,0.08118,0.001596,0.001692,0.07996,0.00033,9.441e-05,0.272,0.01457,4.206,0.01108,0,0,0.1694
55800000000,56100000000,6226140072,10,4478967491,0.1279,0.07983,0.0813,0.00169,0.001785,0.07996,0.0003662,9.346e-05,0.2656,0.01436,4.328,0.0113,0,0,0.2004
56100000000,56400000000,6226140072,10,4478967491,0.126,0.07971,0.08118,0.001749,0.001846,0.07983,0.0003128,9.346e-05,0.238,0.01157,4.367,0.01145,0,0,0.1453
56400000000,56700000000,6226140072,10,4478967491,0.1042,0.07971,0.08118,0.001755,0.00185,0.08008,0.0003757,9.346e-05,0.2261,0.01436,4.245,0.01091,0,0,0.07544
56700000000,57000000000,6226140072,10,4478967491,0.1149,0.07983,0.08105,0.001522,0.001617,0.0802,0.0003624,9.441e-05,0.3301,0.01236,4.107,0.01066,0,0,0.2144
57000000000,57300000000,6226140072,10,4478967491,0.09497,0.07971,0.08105,0.001753,0.00185,0.07996,0.0003433,9.346e-05,0.2126,0.01428,4.035,0.01059,0,0,0.09302
57300000000,57600000000,6226140072,10,4478967491,0.1038,0.07971,0.08118,0.001822,0.001919,0.07983,0.0003796,9.441e-05,0.2375,0.01244,4.365,0.01137,0,0,0.1146
57600000000,57900000000,6226140072,10,4478967491,0.1172,0.07983,0.0813,0.001764,0.00186,0.0802,0.0003843,9.346e-05,0.2432,0.01556,4.237,0.01111,0,0,0.06409
57900000000,58200000000,6226140072,10,4478967491,0.09058,0.07959,0.08118,0.001776,0.001873,0.07983,0.0003023,9.441e-05,0.1877,0.00972,3.733,0.009974,0,0,0.0968
58200000000,58500000000,6226140072,10,4478967491,0.1155,0.07971,0.0813,0.001814,0.001911,0.07996,0.0003567,9.441e-05,0.2456,0.01086,4.267,0.01137,0,0,0.1075
58500000000,58800000000,6226140072,10,4478967491,0.1132,0.07971,0.08105,0.001789,0.001884,0.07996,0.0003033,9.441e-05,0.251,0.01428,4.399,0.01149,0,0,0.06036
58800000000,59100000000,6226140072,10,4478967491,0.09985,0.07971,0.08105,0.001808,0.001904,0.07983,0.000268,9.441e-05,0.2019,0.008636,4.174,0.01089,0,0,0.09741
59100000000,59400000000,6226140072,10,4478967491,0.1183,0.07971,0.08118,0.001774,0.001869,0.07996,0.0003376,9.441e-05,0.2329,0.01244,4.182,0.01108,0,0,0.06445
59400000000,59700000000,6226140072,10,4478967491,0.1021,0.07971,0.08105,0.001698,0.001793,0.07983,0.000288,9.441e-05,0.2222,0.01157,4.279,0.01135,0,0,0.08447
59700000000,60000000000,6226140072,10,4478967491,0.1255,0.07971,0.08105,0.001577,0.001673,0.07996,0.000308,9.441e-05,0.2373,0.01143,4.292,0.01105,0,0,0.178
60000000000,60300000000,6226140072,10,4478967491,0.1024,0.07971,0.08118,0.001801,0.001898,0.07983,0.0003405,9.346e-05,0.2122,0.01364,4.168,0.0108,0,0,0.08789
60300000000,60600000000,6226140072,10,4478967491,0.1289,0.07983,0.08118,0.001724,0.001822,0.0802,0.0004101,9.441e-05,0.2563,0.01143,4.354,0.01127,0,0,0.114
60600000000,60900000000,6226140072,10,4478967491,0.1121,0.07996,0.08118,0.001709,0.001806,0.08008,0.0004044,9.441e-05,0.2346,0.01407,4.128,0.01067,0,0,0.09473
70800000000,71100000000,6226140072,10,4478967491,0.1057,0.07971,0.08118,0.00132,0.001415,0.08008,0.0002718,9.346e-05,0.2891,0.01543,3.848,0.0102,0,0,0.07849
71100000000,71400000000,6226140072,10,4478967491,0.103,0.07983,0.08105,0.001606,0.001698,0.08008,0.0002785,9.346e-05,0.2832,0.01321,4.12,0.01094,0,0,0.07629
71400000000,71700000000,6226140072,10,4478967491,0.08008,0.07971,0.08118,0.001642,0.00174,0.07996,0.0003471,9.346e-05,0.2148,0.009354,4.131,0.01091,0,0,0.1008
71700000000,72000000000,6226140072,10,4478967491,0.123,0.07983,0.0813,0.001669,0.001766,0.0802,0.0003643,9.441e-05,0.3516,0.01849,4.148,0.01064,0,0,0.167
72000000000,72300000000,6226140072,10,4478967491,0.1189,0.08008,0.08118,0.001509,0.001606,0.0802,0.000433,9.441e-05,0.3184,0.01157,4.045,0.01039,0,0,0.1641
72300000000,72600000000,6226140072,10,4478967491,0.09888,0.07996,0.08118,0.00139,0.001486,0.08044,0.0004511,9.346e-05,0.2339,0.01672,4.149,0.01063,0,0,0.07739
72600000000,72900000000,6226140072,10,4478967491,0.1257,0.0802,0.08105,0.00156,0.001656,0.08044,0.0005188,9.441e-05,0.3379,0.01436,4.493,0.01139,0,0,0.2009
72900000000,73200000000,6226140072,10,4478967491,0.1127,0.07996,0.08105,0.001541,0.001638,0.0802,0.0004253,9.346e-05,0.2261,0.01715,4.328,0.01141,0,0,0.1335
73200000000,73500000000,6226140072,10,4478967491,0.08948,0.07983,0.08105,0.001633,0.00173,0.08008,0.0004597,9.346e-05,0.2871,0.01428,4.215,0.01111,0,0,0.06567
73500000000,73800000000,6226140072,10,4478967491,0.09912,0.07971,0.08118,0.001667,0.001764,0.07996,0.000289,9.441e-05,0.2266,0.009933,3.94,0.01018,0,0,0.1938
73800000000,74100000000,6226140072,10,4478967491,0.0968,0.07971,0.08105,0.001049,0.001148,0.07996,0.0002995,9.441e-05,0.252,0.01257,4.218,0.01088,0,0,0.08875
74100000000,74400000000,6226140072,10,4478967491,0.1085,0.07971,0.08105,0.001686,0.001785,0.08008,0.0003824,9.346e-05,0.2734,0.01636,4.337,0.01125,0,0,0.05396
74400000000,74700000000,6226140072,10,4478967491,0.1051,0.07983,0.08118,0.001661,0.001759,0.08008,0.0004072,9.346e-05,0.2197,0.01157,4.51,0.01196,0,0,0.08887
74700000000,75000000000,6226140072,10,4478967491,0.1024,0.07983,0.08118,0.001259,0.001356,0.08008,0.0002956,9.346e-05,0.2122,0.01428,4.123,0.01071,0,0,0.147
75000000000,75300000000,6226140072,10,4478967491,0.07446,0.07959,0.08105,0.001331,0.001429,0.07983,0.0002756,9.441e-05,0.1699,0.01151,4.111,0.01123,0,0,0.08594
75300000000,75600000000,6226140072,10,4478967491,0.1055,0.07983,0.08118,0.001537,0.001635,0.08008,0.000351,9.346e-05,0.2676,0.01372,3.835,0.009969,0,0,0.06824
75600000000,75900000000,6226140072,10,4478967491,0.1053,0.07971,0.08105,0.00169,0.001787,0.08008,0.0003223,9.441e-05,0.228,0.01436,4.042,0.0105,0,0,0.1226
75900000000,76200000000,6226140072,10,4478967491,0.1066,0.07971,0.08118,0.001669,0.001766,0.0802,0.0002985,9.346e-05,0.2366,0.01372,4.083,0.01052,0,0,0.1763
76200000000,76500000000,6226140072,10,4478967491,0.1051,0.07971,0.08118,0.00168,0.001778,0.07996,0.0002937,9.441e-05,0.208,0.01193,4.183,0.01092,0,0,0.101
76500000000,76800000000,6226140072,10,4478967491,0.1024,0.07971,0.0813,0.001747,0.001842,0.08008,0.0002642,9.346e-05,0.2253,0.01428,3.958,0.0101,0,0,0.1384
76800000000,77100000000,6226140072,10,4478967491,0.1064,0.07996,0.08142,0.001669,0.001762,0.0802,0.0003548,9.441e-05,0.2112,0.01599,4.11,0.01051,0,0,0.1826
77100000000,77400000000,6226140072,10,4478967491,0.1183,0.07996,0.0813,0.001316,0.001411,0.08044,0.0003891,9.441e-05,0.2617,0.01642,4.087,0.01044,0,0,0.06433
77400000000,77700000000,6226140072,10,4478967491,0.1083,0.07971,0.08142,0.0016,0.001698,0.07996,0.0003014,9.441e-05,0.2151,0.01436,4.196,0.01089,0,0,0.04102
77700000000,78000000000,6226140072,10,4478967491,0.1038,0.07971,0.08105,0.001751,0.001846,0.07983,0.000289,9.346e-05,0.2117,0.01436,4.082,0.01092,0,0,0.09631
78000000000,78300000000,6226140072,10,4478967491,0.09802,0.07959,0.08105,0.001141,0.001238,0.07983,0.0002785,9.441e-05,0.2773,0.01186,4.481,0.01206,0,0,0.07104
78300000000,78600000000,6226140072,10,4478967491,0.08777,0.07959,0.08105,0.001034,0.001129,0.07996,0.0002804,9.441e-05,0.2754,0.008636,4.248,0.01137,0,0,0.02582
78600000000,78900000000,6226140072,10,4478967491,0.08154,0.07959,0.08105,0.001492,0.001589,0.07983,0.0002899,9.346e-05,0.2063,0.01143,4.332,0.01138,0,0,0.05933
78900000000,79200000000,6226140072,10,4478967491,0.1082,0.07971,0.08105,0.001785,0.001884,0.07983,0.0003176,9.441e-05,0.2393,0.01286,4.426,0.01185,0,0,0.07458
79200000000,79500000000,6226140072,10,4478967491,0.1106,0.07971,0.08105,0.00173,0.001827,0.08008,0.000268,9.441e-05,0.3242,0.01428,4.583,0.01238,0,0,0.07764
79500000000,79800000000,6226140072,10,4478967491,0.1021,0.07983,0.08118,0.001715,0.001812,0.07996,0.0003204,9.441e-05,0.3008,0.01028,4.316,0.01129,0,0,0.0907
79800000000,80100000000,6226140072,10,4478967491,0.1227,0.07971,0.0813,0.001715,0.001812,0.08008,0.0003471,9.346e-05,0.3965,0.01157,4.697,0.01242,0,0,0.144
80100000000,80400000000,6226140072,10,4478967491,0.08179,0.07959,0.08118,0.001806,0.001905,0.07971,0.0002375,9.441e-05,0.188,0.01335,4.239,0.01098,0,0,0.05219
80400000000,80700000000,6226140072,10,4478967491,0.1011,0.07971,0.0813,0.001772,0.001871,0.07983,0.0003233,9.441e-05,0.2209,0.01407,4.278,0.01104,0,0,0.06848
80700000000,81000000000,6226140072,10,4478967491,0.09973,0.07983,0.0813,0.001701,0.001799,0.07996,0.0003872,9.346e-05,0.2134,0.01465,4.438,0.01171,0,0,0.1902
85800000000,86100000000,6226140072,10,4478967491,0.08044,0.07959,0.08118,0.001757,0.001854,0.07971,0.0003138,9.441e-05,0.209,0.01286,3.839,0.009994,0,0,0.06836
86100000000,86400000000,6226140072,10,4478967491,0.09937,0.07971,0.0813,0.001505,0.001602,0.07996,0.0003357,9.441e-05,0.2009,0.01457,4.149,0.01091,0,0,0.0658
86400000000,86700000000,6226140072,10,4478967491,0.08142,0.07959,0.08105,0.001556,0.001654,0.07983,0.0002699,9.346e-05,0.1912,0.0135,3.768,0.009893,0,0,0.07104
86700000000,87000000000,6226140072,10,4478967491,0.09216,0.07971,0.08118,0.001694,0.001791,0.07996,0.0004158,9.441e-05,0.3096,0.01764,4.285,0.01124,0,0,0.0332
87000000000,87300000000,6226140072,10,4478967491,0.09265,0.07959,0.08105,0.001732,0.001829,0.07983,0.0003424,9.537e-05,0.2053,0.01715,4.214,0.01091,0,0,0.05151
87300000000,87600000000,6226140072,10,4478967491,0.08301,0.07959,0.08118,0.001814,0.001911,0.07983,0.000248,9.441e-05,0.2219,0.01401,4.329,0.01146,0,0,0.05865
87600000000,87900000000,6226140072,10,4478967491,0.1014,0.07971,0.0813,0.001759,0.001856,0.07996,0.00033,9.346e-05,0.2024,0.01543,4.399,0.01147,0,0,0.1063
87900000000,88200000000,6226140072,10,4478967491,0.1047,0.07983,0.08118,0.001417,0.001514,0.08008,0.0003681,9.441e-05,0.2161,0.01286,3.945,0.01042,0,0,0.2034
88200000000,88500000000,6226140072,10,4478967491,0.0885,0.07971,0.08118,0.001179,0.001276,0.07996,0.0002899,9.346e-05,0.2156,0.008789,3.985,0.01056,0,0,0.1031
88500000000,88800000000,6226140072,10,4478967491,0.08435,0.07959,0.0813,0.001751,0.001848,0.07983,0.0003424,9.346e-05,0.1887,0.01236,3.778,0.009984,0,0,0.07141
88800000000,89100000000,6226140072,10,4478967491,0.05719,0.07959,0.08105,0.001736,0.001833,0.07983,0.0001831,9.441e-05,0.1436,0.01143,3.743,0.01022,0,0,0.05206
89100000000,89400000000,6226140072,10,4478967491,0.04694,0.07947,0.08142,0.001764,0.001862,0.07959,0.0001602,9.346e-05,0.1323,0.01151,2.885,0.007698,0,0,0.02365
89400000000,89700000000,6226140072,10,4478967491,0.07349,0.07959,0.08105,0.001459,0.001554,0.07983,0.0002289,9.346e-05,0.1619,0.0135,3.672,0.009993,0,0,0.09753
89700000000,90000000000,6226140072,10,4478967491,0.08911,0.07971,0.08105,0.001745,0.001842,0.07996,0.0002708,9.441e-05,0.1877,0.01236,3.958,0.0104,0,0,0.09009
90000000000,90300000000,6226140072,10,4478967491,0.08569,0.07971,0.0813,0.001766,0.001863,0.08008,0.0003376,9.441e-05,0.2166,0.01143,4.191,0.01103,0,0,0.09351
90300000000,90600000000,6226140072,10,4478967491,0.07935,0.07959,0.08118,0.001423,0.00152,0.07983,0.0002432,9.346e-05,0.2026,0.01086,3.715,0.009649,0,0,0.1223
90600000000,90900000000,6226140072,10,4478967491,0.09094,0.07971,0.08105,0.001392,0.00149,0.07996,0.0002756,9.346e-05,0.2461,0.01021,4.057,0.0107,0,0,0.05023
101100000000,101400000000,6226140072,10,4478967491,0.08984,0.07983,0.08118,0.001448,0.001545,0.08008,0.0003881,9.346e-05,0.2285,0.01599,4.084,0.01077,0,0,0.05737
101400000000,101700000000,6226140072,10,4478967491,0.07166,0.07959,0.08105,0.001453,0.001551,0.07983,0.0003672,9.441e-05,0.2168,0.01479,4.17,0.01134,0,0,0.1296
101700000000,102000000000,6226140072,10,4478967491,0.0968,0.07983,0.08118,0.001675,0.001772,0.08008,0.0003672,9.346e-05,0.2227,0.01721,4.233,0.01142,0,0,0.04102
102000000000,102300000000,6226140072,10,4478967491,0.07715,0.07971,0.08118,0.001656,0.001751,0.07996,0.0003328,9.346e-05,0.1797,0.01657,4.291,0.01147,0,0,0.09302
102300000000,102600000000,6226140072,10,4478967491,0.07959,0.07971,0.08105,0.001394,0.001493,0.07983,0.0003786,9.441e-05,0.2676,0.01364,4.214,0.01128,0,0,0.07397
102600000000,102900000000,6226140072,10,4478967491,0.0979,0.07983,0.08105,0.001392,0.00149,0.07996,0.0003357,9.441e-05,0.2012,0.01428,4.365,0.01177,0,0,0.1289
102900000000,103200000000,6226140072,10,4478967491,0.1129,0.07983,0.08105,0.001339,0.001434,0.08008,0.0005112,9.441e-05,0.3672,0.01721,4.295,0.01109,0,0,0.1024
103200000000,103500000000,6226140072,10,4478967491,0.08252,0.07971,0.08118,0.001348,0.001446,0.07996,0.0003119,9.441e-05,0.1973,0.01428,3.839,0.01017,0,0,0.07446
103500000000,103800000000,6226140072,10,4478967491,0.05859,0.07959,0.08105,0.0008116,0.0009069,0.07983,0.0002317,9.441e-05,0.1519,0.01151,3.803,0.009937,0,0,0.03436
103800000000,104100000000,6226140072,10,4478967491,0.08704,0.07971,0.08105,0.001514,0.001612,0.07983,0.0002985,9.441e-05,0.2637,0.01436,4.601,0.01221,0,0,0.06177
104100000000,104400000000,6226140072,10,4478967491,0.0791,0.07959,0.08105,0.001482,0.001579,0.07983,0.0002718,9.346e-05,0.2344,0.01157,4.195,0.01095,0,0,0.07141
104400000000,104700000000,6226140072,10,4478967491,0.05011,0.07947,0.08118,0.001787,0.001884,0.07959,0.0002241,9.441e-05,0.1873,0.01215,3.715,0.009547,0,0,0.04974
104700000000,105000000000,6226140072,10,4478967491,0.06433,0.07959,0.08105,0.001665,0.001762,0.07983,0.0002594,9.346e-05,0.2305,0.01292,4.018,0.01043,0,0,0.1672
105000000000,105300000000,6226140072,10,4478967491,0.04785,0.07947,0.08105,0.001745,0.001841,0.07971,0.0001669,9.537e-05,0.1777,0.008636,4.272,0.0112,0,0,0.1191
105300000000,105600000000,6226140072,10,4478967491,0.04846,0.07935,0.08118,0.001656,0.001753,0.07971,0.0001755,9.346e-05,0.1531,0.005783,3.939,0.01033,0,0,0.02963
105600000000,105900000000,6226140072,10,4478967491,0.04633,0.07947,0.08105,0.0009127,0.001009,0.07971,0.000185,9.537e-05,0.1809,0.01151,3.852,0.009878,0,0,0.0188
105900000000,106200000000,6226140072,10,4478967491,0.05615,0.07947,0.08105,0.001591,0.001686,0.07971,0.0001459,9.346e-05,0.2051,0.006142,3.593,0.009082,0,0,0.03851
106200000000,106500000000,6226140072,10,4478967491,0.04858,0.07947,0.08105,0.001019,0.001116,0.07959,0.000205,9.441e-05,0.1743,0.009216,3.43,0.008697,0,0,0.009964
106500000000,106800000000,6226140072,10,4478967491,0.04248,0.07935,0.08118,0.001747,0.001842,0.07959,0.0001183,9.346e-05,0.2119,0.01151,3.259,0.008335,0,0,0.01173
106800000000,107100000000,6226140072,10,4478967491,0.05994,0.07947,0.08118,0.001768,0.001865,0.07971,0.000226,9.441e-05,0.1494,0.01357,3.673,0.009315,0,0,0.0708
107100000000,107400000000,6226140072,10,4478967491,0.0448,0.07947,0.08105,0.00102,0.001118,0.07959,0.0001297,9.346e-05,0.1636,0.008423,3.309,0.008444,0,0,0.02899
107400000000,107700000000,6226140072,10,4478967491,0.05243,0.07959,0.08105,0.001253,0.00135,0.07971,0.000206,9.441e-05,0.2209,0.01244,4.036,0.01053,0,0,0.0506
107700000000,108000000000,6226140072,10,4478967491,0.04712,0.07947,0.08105,0.001726,0.001822,0.07959,0.0001631,9.346e-05,0.1655,0.01028,3.286,0.008347,0,0,0.04059
108000000000,108300000000,6226140072,10,4478967491,0.0556,0.07959,0.0813,0.001728,0.001827,0.07971,0.0001984,9.441e-05,0.1814,0.01079,3.276,0.008358,0,0,0.05585
108300000000,108600000000,6226140072,10,4478967491,0.05609,0.07959,0.08105,0.001213,0.00131,0.07971,0.0002165,9.441e-05,0.1599,0.01436,3.636,0.009331,0,0,0.03589
108600000000,108900000000,6226140072,10,4478967491,0.0462,0.07947,0.08105,0.001507,0.001604,0.07971,0.0001755,9.251e-05,0.1641,0.007782,3.069,0.007653,0,0,0.0275
108900000000,109200000000,6226140072,10,4478967491,0.05902,0.07959,0.08105,0.001707,0.001804,0.07983,0.0002604,9.441e-05,0.2207,0.01436,3.267,0.00824,0,0,0.167
109200000000,109500000000,6226140072,10,4478967491,0.03857,0.07947,0.08118,0.00153,0.001627,0.07971,0.0001545,9.346e-05,0.188,0.01143,3.226,0.008026,0,0,0.009872
109500000000,109800000000,6226140072,10,4478967491,0.0575,0.07959,0.08105,0.0008764,0.0009756,0.07983,0.0001678,9.441e-05,0.2146,0.008423,3.72,0.009744,0,0,0.05042
109800000000,110100000000,6226140072,10,4478967491,0.05127,0.07959,0.08118,0.001652,0.001749,0.07983,0.0002584,9.346e-05,0.2034,0.01743,3.596,0.009175,0,0,0.02838
110100000000,110400000000,6226140072,10,4478967491,0.0506,0.07959,0.08105,0.001373,0.001471,0.07971,0.0002899,9.346e-05,0.1504,0.01428,3.329,0.008341,0,0,0.05066
110400000000,110700000000,6226140072,10,4478967491,0.04657,0.07947,0.08105,0.001726,0.001823,0.07959,0.0002012,9.441e-05,0.1689,0.01143,2.849,0.00721,0,0,0.05328
110700000000,111000000000,6226140072,10,4478967491,0.04547,0.07959,0.08118,0.001753,0.001852,0.07971,0.0002365,9.346e-05,0.1528,0.01122,3.645,0.00949,0,0,0.01416
116700000000,117000000000,6226140072,10,4478967491,0.02383,0.07935,0.08142,0.001961,0.00206,0.07959,0.0001583,9.441e-05,0.1641,0.01036,2.181,0.004957,0,0,0.01344
117000000000,117300000000,6226140072,10,4478967491,0.02231,0.07935,0.0813,0.001076,0.001173,0.07959,0.0001135,9.346e-05,0.1887,0.008575,3.133,0.007609,0,0,0.002148
117300000000,117600000000,6226140072,10,4478967491,0.0278,0.07935,0.0813,0.001806,0.001904,0.07959,0.0001411,9.346e-05,0.1731,0.01436,2.275,0.005215,0,0,0.08191
117600000000,117900000000,6226140072,10,4478967491,0.02151,0.07935,0.08142,0.002033,0.002132,0.07947,0.0001469,9.537e-05,0.1919,0.008636,2.132,0.00488,0,0,0.006073
117900000000,118200000000,6226140072,10,4478967491,0.02429,0.07935,0.0813,0.002033,0.002132,0.07947,0.0001478,9.346e-05,0.1663,0.01822,2.584,0.00604,0,0,0.01472
118200000000,118500000000,6226140072,10,4478967491,0.0275,0.07935,0.0813,0.001366,0.001465,0.07947,0.0001278,9.537e-05,0.1523,0.01151,2.548,0.005944,0,0,0.03369
118500000000,118800000000,6226140072,10,4478967491,0.02295,0.07935,0.0813,0.001131,0.001228,0.07947,0.0001745,9.346e-05,0.2034,0.01428,1.763,0.003851,0,0,0.01122
118800000000,119100000000,6226140072,10,4478967491,0.02408,0.07935,0.0813,0.001858,0.001957,0.07947,0.0001192,9.441e-05,0.1987,0.01151,2.441,0.005782,0,0,0.004898
119100000000,119400000000,6226140072,10,4478967491,0.02747,0.07935,0.0813,0.001137,0.001234,0.07959,0.0001583,9.441e-05,0.1472,0.01143,2.905,0.006732,0,0,0.1129
119400000000,119700000000,6226140072,10,4478967491,0.02084,0.07935,0.0813,0.001484,0.001581,0.07959,0.0001307,9.346e-05,0.1875,0.01151,2.462,0.005761,0,0,0.003887
119700000000,120000000000,6226140072,10,4478967491,0.02783,0.07935,0.08142,0.001284,0.001381,0.07959,0.0001268,9.537e-05,0.2031,0.011,2.101,0.004866,0,0,0.01268
120000000000,120300000000,6226140072,10,4478967491,0.02435,0.07935,0.0813,0.001074,0.001173,0.07959,0.0002213,9.251e-05,0.1367,0.011,2.315,0.005395,0,0,0.01242
120300000000,120600000000,6226140072,10,4478967491,0.03085,0.07947,0.0813,0.001471,0.001568,0.07983,0.000206,9.441e-05,0.1919,0.01207,2.725,0.006332,0,0,0.05634
120600000000,120900000000,6226140072,10,4478967491,0.05536,0.07959,0.08118,0.001118,0.001219,0.07983,0.0004644,9.346e-05,0.2036,0.01436,3.475,0.008495,0,0,0.05005
126000000000,126300000000,6226140072,10,4478967491,0.0979,0.07996,0.08154,0.001654,0.001749,0.0802,0.000351,9.346e-05,0.24,0.01151,4.527,0.01154,0,0,0.0437
126300000000,126600000000,6226140072,10,4478967491,0.08118,0.07983,0.08142,0.00174,0.001835,0.07996,0.0003433,9.346e-05,0.2288,0.01715,4.307,0.01116,0,0,0.0506
126600000000,126900000000,6226140072,10,4478967491,0.08984,0.07983,0.08105,0.001392,0.001488,0.08008,0.0002995,9.441e-05,0.2029,0.01178,3.984,0.01019,0,0,0.08704
126900000000,127200000000,6226140072,10,4478967491,0.08325,0.07983,0.08105,0.00169,0.001787,0.0802,0.0003901,9.346e-05,0.2852,0.01343,4.214,0.01042,0,0,0.1217
127200000000,127500000000,6226140072,10,4478967491,0.07007,0.07971,0.08142,0.001686,0.001785,0.0802,0.0002661,9.441e-05,0.1965,0.01151,4.371,0.01084,0,0,0.07141
127500000000,127800000000,6226140072,10,4478967491,0.07654,0.07983,0.08118,0.001116,0.001213,0.0802,0.0004473,9.441e-05,0.2505,0.01715,4.042,0.009992,0,0,0.05829
127800000000,128100000000,6226140072,10,4478967491,0.07996,0.07983,0.0813,0.001638,0.001736,0.08008,0.0003443,9.441e-05,0.2344,0.01457,4.26,0.01055,0,0,0.04431
128100000000,128400000000,6226140072,10,4478967491,0.07532,0.07971,0.08142,0.001736,0.001833,0.07996,0.0003233,9.441e-05,0.2222,0.01086,3.799,0.009471,0,0,0.03729
128400000000,128700000000,6226140072,10,4478967491,0.07056,0.07983,0.08118,0.001713,0.001812,0.08008,0.0003719,9.441e-05,0.23,0.01428,3.912,0.009825,0,0,0.08374
128700000000,129000000000,6226140072,10,4478967491,0.07166,0.07971,0.08142,0.001488,0.001585,0.08008,0.0002928,9.441e-05,0.2041,0.01207,4.07,0.01024,0,0,0.03259
129000000000,129300000000,6226140072,10,4478967491,0.07715,0.07983,0.08105,0.001595,0.001692,0.08008,0.0002546,9.441e-05,0.2168,0.008575,3.992,0.01026,0,0,0.07629
129300000000,129600000000,6226140072,10,4478967491,0.07507,0.07959,0.08105,0.001678,0.001776,0.07983,0.0003242,9.441e-05,0.1707,0.01407,3.933,0.009855,0,0,0.0636
129600000000,129900000000,6226140072,10,4478967491,0.06604,0.07959,0.08118,0.001551,0.001646,0.07983,0.0002823,9.346e-05,0.1907,0.01207,3.96,0.009961,0,0,0.03394
129900000000,130200000000,6226140072,10,4478967491,0.06995,0.07971,0.08118,0.001549,0.001644,0.08008,0.0003347,9.441e-05,0.1819,0.01164,3.73,0.009441,0,0,0.05951
130200000000,130500000000,6226140072,10,4478967491,0.0686,0.07971,0.08105,0.001413,0.001509,0.07983,0.000268,9.441e-05,0.2676,0.01642,3.841,0.009552,0,0,0.05542
130500000000,130800000000,6226140072,10,4478967491,0.07617,0.07971,0.08105,0.00128,0.001377,0.07996,0.0003366,9.441e-05,0.2092,0.01308,4.036,0.01035,0,0,0.03601
130800000000,131100000000,6226140072,10,4478967491,0.07251,0.07971,0.08118,0.001087,0.001184,0.07996,0.0002928,9.441e-05,0.2363,0.01407,3.939,0.009837,0,0,0.1255
141000000000,141300000000,6226140072,10,4478967491,0.1156,0.08008,0.08105,0.001595,0.001692,0.08032,0.0003653,9.441e-05,0.2734,0.01244,4.923,0.0119,0,0,0.06207
141300000000,141600000000,6226140072,10,4478967491,0.07971,0.07983,0.08105,0.001112,0.001209,0.08008,0.0003042,9.441e-05,0.1982,0.013,4.263,0.01042,0,0,0.06519
141600000000,141900000000,6226140072,10,4478967491,0.08875,0.07996,0.0813,0.00157,0.001667,0.0802,0.0003633,9.441e-05,0.2046,0.01779,4.671,0.01171,0,0,0.08093
141900000000,142200000000,6226140072,10,4478967491,0.09363,0.07996,0.08105,0.001541,0.001638,0.0802,0.0003538,9.441e-05,0.2156,0.01215,4.775,0.01223,0,0,0.04486
142200000000,142500000000,6226140072,10,4478967491,0.09094,0.07996,0.0813,0.001501,0.001602,0.08044,0.0006962,9.346e-05,0.2126,0.01492,4.472,0.01178,0,0,0.1516
142500000000,142800000000,6226140072,10,4478967491,0.08887,0.07983,0.08105,0.001152,0.001251,0.07996,0.0003519,9.346e-05,0.3047,0.0162,4.569,0.01211,0,0,0.05664
142800000000,143100000000,6226140072,10,4478967491,0.07471,0.07971,0.08118,0.001604,0.001703,0.07996,0.0003052,9.346e-05,0.2188,0.01164,4.296,0.01144,0,0,0.1169
143100000000,143400000000,6226140072,10,4478967491,0.09961,0.07996,0.08105,0.001545,0.001642,0.0802,0.0003319,9.346e-05,0.2251,0.01157,4.662,0.01265,0,0,0.1086
143400000000,143700000000,6226140072,10,4478967491,0.0874,0.07971,0.08105,0.001562,0.001659,0.08008,0.0003815,9.441e-05,0.2578,0.01428,4.605,0.01238,0,0,0.1592
143700000000,144000000000,6226140072,10,4478967491,0.09546,0.07996,0.08105,0.001404,0.001501,0.0802,0.0002928,9.346e-05,0.2412,0.008636,4.505,0.0117,0,0,0.09534
144000000000,144300000000,6226140072,10,4478967491,0.0929,0.07983,0.08105,0.001339,0.001436,0.07996,0.0003519,9.441e-05,0.2617,0.01151,4.703,0.01228,0,0,0.07703
144300000000,144600000000,6226140072,10,4478967491,0.09265,0.07983,0.08105,0.001659,0.001755,0.07996,0.0003433,9.346e-05,0.3203,0.00972,4.886,0.01266,0,0,0.06848
144600000000,144900000000,6226140072,10,4478967491,0.1193,0.08008,0.08105,0.001347,0.001444,0.08032,0.0005646,9.346e-05,0.2969,0.01721,4.908,0.01287,0,0,0.1267
144900000000,145200000000,6226140072,10,4478967491,0.05981,0.07959,0.08118,0.001228,0.001328,0.07983,0.000246,9.441e-05,0.2061,0.008926,4.294,0.0113,0,0,0.1631
145200000000,145500000000,6226140072,10,4478967491,0.119,0.07996,0.08118,0.001581,0.001678,0.0802,0.0003691,9.346e-05,0.2344,0.01143,4.963,0.01286,0,0,0.1333
145500000000,145800000000,6226140072,10,4478967491,0.0791,0.07983,0.08105,0.001104,0.001202,0.07996,0.0002728,9.441e-05,0.1831,0.01151,4.476,0.0117,0,0,0.0802
145800000000,146100000000,6226140072,10,4478967491,0.09558,0.07996,0.08105,0.001396,0.001493,0.0802,0.0003471,9.441e-05,0.3867,0.01236,4.534,0.01182,0,0,0.04907
151200000000,151500000000,6226140072,10,4478967491,0.05621,0.07971,0.08105,0.001345,0.001442,0.07983,0.0001793,9.346e-05,0.1987,0.01151,4.07,0.01038,0,0,0.06384
151500000000,151800000000,6226140072,10,4478967491,0.08179,0.07983,0.08142,0.001541,0.001638,0.08008,0.0003414,9.441e-05,0.2114,0.01521,3.553,0.009046,0,0,0.05334
151800000000,152100000000,6226140072,10,4478967491,0.1002,0.07996,0.08105,0.001305,0.001404,0.0802,0.0004673,9.346e-05,0.2285,0.0318,4.506,0.01172,0,0,0.07214
152100000000,152400000000,6226140072,10,4478967491,0.1062,0.07983,0.08105,0.00156,0.001656,0.0802,0.0004206,9.441e-05,0.2253,0.01436,4.222,0.01078,0,0,0.1262
152400000000,152700000000,6226140072,10,4478967491,0.0675,0.07971,0.08105,0.001219,0.001316,0.07996,0.000247,9.441e-05,0.2112,0.01199,4.031,0.01032,0,0,0.06506
152700000000,153000000000,6226140072,10,4478967491,0.1097,0.07983,0.08105,0.001432,0.00153,0.08008,0.0003796,9.441e-05,0.2539,0.01436,4.369,0.01133,0,0,0.1162
153000000000,153300000000,6226140072,10,4478967491,0.09753,0.07983,0.08118,0.001633,0.00173,0.08008,0.0005007,9.441e-05,0.4453,0.01715,4.596,0.01213,0,0,0.09521
153300000000,153600000000,6226140072,10,4478967491,0.08337,0.07983,0.08105,0.001446,0.001545,0.08008,0.0003033,9.346e-05,0.3008,0.008926,4.361,0.01135,0,0,0.1128
153600000000,153900000000,6226140072,10,4478967491,0.08252,0.07971,0.08105,0.001369,0.001469,0.07996,0.0002985,9.441e-05,0.198,0.01436,3.999,0.01046,0,0,0.05505
153900000000,154200000000,6226140072,10,4478967491,0.09058,0.07983,0.08105,0.001308,0.001406,0.08008,0.0003166,9.346e-05,0.3164,0.01114,4.313,0.01122,0,0,0.07312
154200000000,154500000000,6226140072,10,4478967491,0.1136,0.07996,0.08118,0.001499,0.001596,0.08008,0.0004082,9.441e-05,0.3281,0.01199,4.813,0.01261,0,0,0.1543
154500000000,154800000000,6226140072,10,4478967491,0.07178,0.07983,0.08118,0.001064,0.001163,0.0802,0.0004396,9.346e-05,0.2617,0.01143,4.29,0.01112,0,0,0.06921
154800000000,155100000000,6226140072,10,4478967491,0.07458,0.07971,0.08105,0.001627,0.001726,0.07983,0.0002394,9.346e-05,0.1914,0.01164,4.353,0.01104,0,0,0.06055
155100000000,155400000000,6226140072,10,4478967491,0.08801,0.07983,0.08118,0.001585,0.001682,0.07996,0.0004072,9.346e-05,0.6914,0.01164,4.626,0.01198,0,0,0.05475
155400000000,155700000000,6226140072,10,4478967491,0.1128,0.07983,0.08105,0.001459,0.001556,0.08008,0.0004015,9.441e-05,0.208,0.01308,4.971,0.01293,0,0,0.1445
155700000000,156000000000,6226140072,10,4478967491,0.07727,0.07971,0.0813,0.001417,0.001514,0.07983,0.0002899,9.441e-05,0.2188,0.01193,4.431,0.0114,0,0,0.1097
161100000000,161400000000,6226140072,10,4478967491,0.02991,0.07959,0.08105,0.0008631,0.0009613,0.07971,0.0001745,9.346e-05,0.1362,0.01378,2.651,0.006444,0,0,0.06763
161400000000,161700000000,6226140072,10,4478967491,0.03302,0.07959,0.08118,0.001223,0.00132,0.07983,0.000247,9.441e-05,0.2019,0.01436,2.175,0.005072,0,0,0.0023
161700000000,162000000000,6226140072,10,4478967491,0.02783,0.07959,0.08105,0.001091,0.001188,0.07971,0.0001936,9.441e-05,0.1641,0.01143,2.752,0.006755,0,0,0.05261
162000000000,162300000000,6226140072,10,4478967491,0.03357,0.07947,0.08105,0.001171,0.001268,0.07983,0.0002108,9.346e-05,0.1794,0.008926,3.215,0.007813,0,0,0.04938
162300000000,162600000000,6226140072,10,4478967491,0.0321,0.07959,0.08105,0.0008678,0.000967,0.07983,0.000164,9.441e-05,0.1431,0.008575,3.307,0.008131,0,0,0.06177
162600000000,162900000000,6226140072,10,4478967491,0.02896,0.07959,0.08105,0.001535,0.001633,0.07983,0.0002108,9.441e-05,0.1406,0.01436,2.596,0.006105,0,0,0.02744
162900000000,163200000000,6226140072,10,4478967491,0.03137,0.07947,0.0813,0.001776,0.001877,0.07959,0.0002165,9.441e-05,0.1797,0.01151,2.221,0.005172,0,0,0.04004
163200000000,163500000000,6226140072,10,4478967491,0.02646,0.07947,0.0813,0.001745,0.001846,0.07959,0.0002365,9.346e-05,0.1726,0.01143,2.296,0.005263,0,0,0.006264
163500000000,163800000000,6226140072,10,4478967491,0.02655,0.07947,0.0813,0.001778,0.001879,0.07971,0.000186,9.441e-05,0.1106,0.007431,2.875,0.006726,0,0,0.04138
163800000000,164100000000,6226140072,10,4478967491,0.02911,0.07947,0.0813,0.001581,0.001682,0.07971,0.0001717,9.346e-05,0.1406,0.008636,2.984,0.00697,0,0,0.004036
164100000000,164400000000,6226140072,10,4478967491,0.02786,0.07947,0.0813,0.001081,0.001183,0.07971,0.0002174,9.441e-05,0.1174,0.007004,2.883,0.006978,0,0,0.02475
164400000000,164700000000,6226140072,10,4478967491,0.02756,0.07947,0.0813,0.001522,0.001621,0.07971,0.0001917,9.346e-05,0.1133,0.008575,2.317,0.005513,0,0,0.02542
164700000000,165000000000,6226140072,10,4478967491,0.02646,0.07947,0.0813,0.001204,0.001303,0.07959,0.0001764,9.441e-05,0.1367,0.01151,2.405,0.005633,0,0,0.04364
165000000000,165300000000,6226140072,10,4478967491,0.02722,0.07947,0.0813,0.001394,0.001493,0.07983,0.0001535,9.346e-05,0.1636,0.01329,2.987,0.007143,0,0,0.0047
165300000000,165600000000,6226140072,10,4478967491,0.03143,0.07947,0.08142,0.00131,0.001408,0.07971,0.0001793,9.441e-05,0.1716,0.01228,3.077,0.007386,0,0,0.01346
165600000000,165900000000,6226140072,10,4478967491,0.02353,0.07947,0.0813,0.001291,0.00139,0.07959,0.0001278,9.441e-05,0.1541,0.01265,2.638,0.006415,0,0,0.05481
165900000000,166200000000,6226140072,10,4478967491,0.02621,0.07947,0.0813,0.001322,0.001421,0.07959,0.0001488,9.346e-05,0.1667,0.01151,2.501,0.005915,0,0,0.002605
