151200000000,151500000000,6232606948,4,1303514,0.01512,0.01929,0.02057,0.0001869,0.000288,0.02084,0.001257,4.864e-05,0.1208,0.06738,1.821,0.00299,0,0,0.0007229
151500000000,151800000000,6232606948,4,1303514,0.02542,0.02075,0.02191,0.0002842,0.000391,0.02307,0.00136,4.864e-05,0.2524,0.07275,1.591,0.001762,0,0,0.002937
151800000000,152100000000,6232606948,4,1303514,0.02362,0.01602,0.01727,0.0001545,0.0002594,0.01984,0.000824,4.864e-05,0.1396,0.02734,1.916,0.003108,0,0,0.06274
152100000000,152400000000,6232606948,4,1303514,0.01715,0.02008,0.02112,0.0001736,0.0002632,0.02383,0.00182,4.864e-05,0.2346,0.07336,1.906,0.003126,0,0,0.0004282
152400000000,152700000000,6232606948,4,1303514,0.02597,0.01445,0.01593,0.0002613,0.0003624,0.02597,0.001856,4.864e-05,0.4644,0.1022,1.291,0.0007032,0,0,0.0001688
152700000000,153000000000,6232606948,4,1303514,0.0177,0.01694,0.01801,0.0001726,0.0002737,0.01923,0.001003,4.864e-05,0.1699,0.0498,2.058,0.004045,0,0,0.06232
153000000000,153300000000,6232606948,4,1303514,0.0282,0.02032,0.02148,0.0001431,0.0002451,0.02213,0.001184,4.864e-05,0.1262,0.03006,1.936,0.003358,0,0,0.0003624
153300000000,153600000000,6232606948,4,1303514,0.0184,0.0188,0.02005,0.0008106,0.0009184,0.02316,0.001263,5.054e-05,0.1655,0.1003,1.359,0.0007988,0,0,0.0003128
153600000000,153900000000,6232606948,4,1303514,0.02133,0.0162,0.01718,0.0001583,0.0002518,0.01944,0.00144,4.864e-05,0.1404,0.04144,4.047,0.01391,0,0,0.06232
153900000000,154200000000,6232606948,4,1303514,0.01543,0.01993,0.02139,0.0002375,0.0003328,0.0213,0.001442,4.864e-05,0.1384,0.04913,1.949,0.003447,0,0,0.0005026
154200000000,154500000000,6232606948,4,1303514,0.03522,0.02072,0.02164,0.0003405,0.0004444,0.02399,0.001059,4.959e-05,0.2351,0.06299,1.442,0.001291,0,0,0.0007515
154500000000,154800000000,6232606948,4,1303514,0.01755,0.01779,0.01907,0.0001965,0.0003004,0.022,0.001781,4.864e-05,0.1313,0.05188,1.55,0.001895,0,0,0.05688
154800000000,155100000000,6232606948,4,1303514,0.01804,0.01852,0.01987,0.0001945,0.0002956,0.02023,0.001066,4.864e-05,0.1587,0.0528,1.893,0.003247,0,0,0.0005913
155100000000,155400000000,6232606948,4,1303514,0.03412,0.02109,0.02231,0.0002518,0.0003567,0.02386,0.0009584,4.959e-05,0.2332,0.06024,1.886,0.003134,0,0,0.06506
155400000000,155700000000,6232606948,4,1303514,0.02148,0.01703,0.01816,0.000248,0.0003443,0.02454,0.001587,4.959e-05,0.229,0.07593,1.847,0.003048,0,0,0.008057
155700000000,156000000000,6232606948,4,1303514,0.03894,0.02124,0.02237,0.0003185,0.0004234,0.02625,0.001837,4.959e-05,0.2466,0.07288,1.857,0.003099,0,0,0.0004148
120900000000,121200000000,6232606948,4,1303514,0.01761,0.01596,0.01712,0.000206,0.0003042,0.01852,0.001575,4.482e-05,0.1423,0.05005,1.875,0.003139,0,0,0.0003996
122100000000,122400000000,6232606948,4,1303514,0.009384,0.01736,0.01874,0.0001631,0.0002708,0.01901,0.0008774,4.578e-05,0.1399,0.04407,1.926,0.003184,0,0,0.0005074
122700000000,123000000000,6232606948,4,1303514,0.01286,0.0144,0.01538,0.0001154,0.000226,0.01718,0.0007496,4.578e-05,0.1318,0.05707,1.978,0.003249,0,0,0.0004482
123000000000,123300000000,6232606948,4,1303514,0.01141,0.01801,0.01929,0.0001965,0.0003014,0.01981,0.0006151,4.578e-05,0.1224,0.05939,1.864,0.003057,0,0,0.0004911
123300000000,123600000000,6232606948,4,1303514,0.01938,0.02075,0.02213,0.0003319,0.0004244,0.02359,0.001522,4.578e-05,0.239,0.07483,3.777,0.0125,0,0,0.0004253
124500000000,124800000000,6232606948,4,1303514,0.01654,0.01363,0.01503,0.0002737,0.0003614,0.02185,0.001709,4.578e-05,0.2363,0.09253,1.521,0.001495,0,0,0.000227
124800000000,125100000000,6232606948,4,1303514,0.007935,0.01538,0.01651,0.0001287,0.0002241,0.01736,0.0006123,4.578e-05,0.1272,0.04694,3.714,0.01233,0,0,0.0005875
125100000000,125400000000,6232606948,4,1303514,0.008896,0.01761,0.01892,0.0002146,0.0003147,0.01913,0.001169,4.578e-05,0.1093,0.05133,2.066,0.003988,0,0,0.0002508
125400000000,125700000000,6232606948,4,1303514,0.02237,0.01367,0.01495,0.0002422,0.0003433,0.02002,0.002113,4.578e-05,0.2375,0.08484,1.954,0.003285,0,0,0.0006247
125700000000,126000000000,6232606948,4,1303514,0.008804,0.01559,0.01678,0.000145,0.0002508,0.01718,0.0005198,4.578e-05,0.1279,0.04248,1.889,0.003138,0,0,0.0003977
25800000000,26100000000,6232606948,4,1303514,0.02219,0.01797,0.01898,0.0001926,0.0002661,0.02057,0.00102,3.433e-05,0.2568,0.05188,1.548,0.001314,0,0,0.0003824
26100000000,26400000000,6232606948,4,1303514,0.01352,0.01715,0.01837,0.0001173,0.0001812,0.02032,0.001051,3.433e-05,0.1367,0.03192,1.889,0.002896,0,0,0.02542
26400000000,26700000000,6232606948,4,1303514,0.008209,0.01971,0.02145,5.817e-05,0.0001488,0.02145,0.0003204,3.433e-05,0.1234,0.02573,1.901,0.003172,0,0,0.0002775
26700000000,27000000000,6232606948,4,1303514,0.01953,0.01572,0.01688,0.0001411,0.0002432,0.02161,0.001268,3.433e-05,0.2429,0.05951,1.911,0.003518,0,0,0.2302
27000000000,27300000000,6232606948,4,1303514,0.009323,0.01445,0.01596,8.202e-05,0.0001488,0.01624,0.0006657,3.433e-05,0.1392,0.02393,1.744,0.002796,0,0,0.000267
27300000000,27600000000,6232606948,4,1303514,0.01228,0.01608,0.01733,0.0001011,0.0001802,0.01791,0.0005312,3.433e-05,0.1267,0.02936,1.778,0.002919,0,0,0.0002289
27600000000,27900000000,6232606948,4,1303514,0.01321,0.01776,0.01944,0.0001554,0.0002518,0.01935,0.001122,3.433e-05,0.251,0.06787,1.804,0.00308,0,0,0.0002995
27900000000,28200000000,6232606948,4,1303514,0.008698,0.01384,0.01498,0.0001011,0.0001869,0.01736,0.0005627,3.433e-05,0.1282,0.03577,3.135,0.009709,0,0,0.0003376
28200000000,28500000000,6232606948,4,1303514,0.004501,0.01372,0.01511,0.0001421,0.0002489,0.01498,0.0003891,3.433e-05,0.1172,0.02063,3.286,0.01022,0,0,0.0004015
28800000000,29100000000,6232606948,4,1303514,0.005287,0.0105,0.01161,4.387e-05,0.0001125,0.01379,0.0005503,3.433e-05,0.09229,0.03705,2.024,0.00377,0,0,0.0003366
29100000000,29400000000,6232606948,4,1303514,0.00943,0.01416,0.01511,9.346e-05,0.0001669,0.01617,0.0008087,3.433e-05,0.1157,0.03741,1.792,0.00282,0,0,0.0002708
29400000000,29700000000,6232606948,4,1303514,0.01675,0.01639,0.01758,0.0001278,0.0002127,0.01752,0.0006571,3.433e-05,0.2339,0.05524,1.823,0.003074,0,0,0.0002146
29700000000,30000000000,6232606948,4,1303514,0.0004835,0.01448,0.01572,0.0001078,0.0001698,0.01657,0.0003891,3.433e-05,0.01198,0.01749,3.453,0.01101,0,0,0.005234
30000000000,30300000000,6232606948,4,1303514,0.000433,0.01015,0.01112,0.0001345,0.0001984,0.01222,7.439e-05,3.433e-05,0.008347,0.011,3.183,0.009861,0,0,0.0002155
30300000000,30600000000,6232606948,4,1303514,0.03113,0.01572,0.01678,0.0001268,0.0001869,0.02164,0.00141,3.433e-05,0.2412,0.0462,1.807,0.003,0,0,0.0003939
30600000000,30900000000,6232606948,4,1303514,0.01953,0.01447,0.01578,0.0001411,0.0002079,0.02255,0.001196,3.529e-05,0.2358,0.04797,2.012,0.003635,0,0,0.04865
70800000000,71100000000,6232606948,4,1303514,0.0139,0.01724,0.01825,0.0001059,0.0001841,0.0188,0.0007849,3.91e-05,0.1477,0.03784,1.614,0.002544,0,0,0.0001707
71100000000,71400000000,6232606948,4,1303514,0.01503,0.01877,0.02002,0.0001373,0.0002117,0.02029,0.0008144,3.91e-05,0.1399,0.03491,3.341,0.01082,0,0,0.09241
71400000000,71700000000,6232606948,4,1303514,0.02344,0.0145,0.01611,0.0001545,0.0002451,0.02161,0.001181,4.005e-05,0.24,0.04407,2.892,0.008099,0,0,0.000802
71700000000,72000000000,6232606948,4,1303514,0.0134,0.01639,0.0177,5.627e-05,0.0001621,0.01794,0.0001631,3.91e-05,0.1292,0.005928,3.549,0.0114,0,0,0.0004578
72000000000,72300000000,6232606948,4,1303514,0.02219,0.0184,0.01959,0.000165,0.0002499,0.02124,0.0016,3.91e-05,0.1241,0.03381,1.721,0.002944,0,0,0.05511
72300000000,72600000000,6232606948,4,1303514,0.03595,0.01846,0.01987,0.000185,0.0002851,0.02252,0.001579,4.005e-05,0.2432,0.06171,1.817,0.00302,0,0,0.004654
72600000000,72900000000,6232606948,4,1303514,0.01947,0.01871,0.01987,0.0001841,0.0002851,0.01993,0.0009499,4.005e-05,0.1343,0.04944,1.884,0.003251,0,0,0.0005445
72900000000,73200000000,6232606948,4,1303514,0.03061,0.02274,0.02411,0.000246,0.0002947,0.02631,0.001215,4.005e-05,0.2385,0.06219,1.482,0.001585,0,0,0.0002956
73200000000,73500000000,6232606948,4,1303514,0.02087,0.01913,0.02066,0.0001125,0.0002041,0.02414,0.001081,4.005e-05,0.1326,0.04944,1.521,0.001856,0,0,0.04626
73500000000,73800000000,6232606948,4,1303514,0.01378,0.01776,0.01892,0.0001984,0.0003052,0.01892,0.0008316,4.005e-05,0.1333,0.03894,1.781,0.003015,0,0,0.0008335
73800000000,74100000000,6232606948,4,1303514,0.0304,0.01987,0.02136,9.727e-05,0.0001698,0.02185,0.0005207,4.005e-05,0.2405,0.02328,1.774,0.003073,0,0,0.0592
74100000000,74400000000,6232606948,4,1303514,0.02234,0.01904,0.02023,0.0001326,0.0002298,0.02271,0.0004053,4.005e-05,0.2349,0.03043,1.894,0.003252,0,0,0.0769
74400000000,74700000000,6232606948,4,1303514,0.0173,0.01764,0.01901,0.0001202,0.0001945,0.01871,0.0006208,4.005e-05,0.1416,0.02878,1.808,0.003078,0,0,0.0003815
74700000000,75000000000,6232606948,4,1303514,0.02399,0.0199,0.02121,0.0001707,0.0002613,0.0217,0.0008907,4.005e-05,0.1428,0.01816,1.892,0.003028,0,0,0.0006304
75000000000,75300000000,6232606948,4,1303514,0.0304,0.01506,0.01648,0.0001345,0.0002136,0.02316,0.0009995,4.005e-05,0.2405,0.04419,1.809,0.002854,0,0,0.04498
75300000000,75600000000,6232606948,4,1303514,0.01764,0.01749,0.01898,0.0001106,0.0001965,0.01913,0.0006008,4.005e-05,0.1394,0.03107,1.753,0.002988,0,0,0.0005541
75600000000,75900000000,6232606948,4,1303514,0.01895,0.01901,0.02023,0.0002136,0.0003061,0.02094,0.001175,4.005e-05,0.1428,0.03833,1.791,0.003184,0,0,0.03186
5700000000,6000000000,6232606948,4,1303514,0.01355,0.01642,0.01755,0.0001631,0.0002489,0.01712,0.0003719,3.242e-05,0.1394,0.03613,1.842,0.003125,0,0,0.06274
6000000000,6300000000,6232606948,4,1303514,0.01468,0.01761,0.01862,0.0001249,0.0002079,0.0191,0.0005484,3.242e-05,0.1484,0.02185,1.86,0.00329,0,0,0.0001287
6300000000,6600000000,6232606948,4,1303514,0.02692,0.01437,0.0155,0.0001516,0.0002079,0.0199,0.001675,3.242e-05,0.4673,0.06641,1.247,0.0006282,0,0,0.0006886
6600000000,6900000000,6232606948,4,1303514,0.01572,0.01614,0.01733,0.0001259,0.0002193,0.01804,0.0008078,3.242e-05,0.1414,0.03107,1.807,0.00298,0,0,0.0005274
6900000000,7200000000,6232606948,4,1303514,0.01312,0.01794,0.01898,9.727e-05,0.0001745,0.01889,0.0005226,3.242e-05,0.1462,0.0293,1.871,0.00303,0,0,0.0006571
7200000000,7500000000,6232606948,4,1303514,0.02188,0.01552,0.01669,0.0001087,0.000206,0.01959,0.001036,3.242e-05,0.2329,0.04187,1.72,0.002809,0,0,0.0003281
7500000000,7800000000,6232606948,4,1303514,0.01399,0.01575,0.01688,0.0001268,0.0001926,0.01694,0.001263,3.242e-05,0.1453,0.06653,1.797,0.002974,0,0,0.0003805
7800000000,8100000000,6232606948,4,1303514,0.01862,0.0174,0.01855,0.0001297,0.0002089,0.01938,0.0008087,3.242e-05,0.1392,0.02942,1.781,0.002927,0,0,0.0004072
8100000000,8400000000,6232606948,4,1303514,0.03204,0.01978,0.02136,0.0001249,0.0002069,0.02148,0.001032,3.242e-05,0.24,0.04834,1.751,0.002883,0,0,0.0004797
8400000000,8700000000,6232606948,4,1303514,0.01349,0.01691,0.01816,0.0001068,0.0001822,0.01852,0.0007524,3.242e-05,0.09802,0.04437,1.858,0.003194,0,0,0.05609
8700000000,9000000000,6232606948,4,1303514,0.01831,0.0192,0.02057,0.0001335,0.0002279,0.02054,0.0006094,3.242e-05,0.1482,0.04694,2.493,0.006707,0,0,0.001099
9000000000,9300000000,6232606948,4,1303514,0.02148,0.0181,0.0195,0.0001106,0.0002041,0.0224,0.0009012,3.242e-05,0.2395,0.03912,1.923,0.003517,0,0,0.0004559
9300000000,9600000000,6232606948,4,1303514,0.01437,0.01408,0.01546,0.0001087,0.0001774,0.01537,0.000638,3.242e-05,0.1389,0.02435,1.839,0.003374,0,0,0.0002995
9600000000,9900000000,6232606948,4,1303514,0.0134,0.01558,0.01666,0.0001335,0.0002098,0.01703,0.0006628,3.242e-05,0.1277,0.02658,1.89,0.003361,0,0,0.0005341
9900000000,10200000000,6232606948,4,1303514,0.01831,0.017,0.01816,0.000145,0.0002174,0.01913,0.0008526,3.242e-05,0.293,0.0506,1.822,0.002921,0,0,0.0003672
10200000000,10500000000,6232606948,4,1303514,0.01736,0.01411,0.01524,6.199e-05,0.0001526,0.01682,0.0008612,3.242e-05,0.1577,0.05249,1.75,0.002735,0,0,0.0006227
10500000000,10800000000,6232606948,4,1303514,0.01678,0.01654,0.01788,0.0001545,0.0002584,0.01788,0.000247,3.242e-05,0.1436,0.01521,1.875,0.003005,0,0,0.0004292
96000000000,96300000000,6232606948,4,1303514,0.02298,0.01852,0.01953,0.0002642,0.000371,0.02063,0.000741,4.292e-05,0.4624,0.05157,1.824,0.003085,0,0,0.0614
96300000000,96600000000,6232606948,4,1303514,0.01401,0.01447,0.01562,0.0001478,0.0002642,0.0188,0.0003996,4.292e-05,0.1484,0.03864,1.618,0.002814,0,0,0.06299
96600000000,96900000000,6232606948,4,1303514,0.01324,0.01636,0.01755,0.0002232,0.00033,0.01752,0.001089,4.292e-05,0.1304,0.05511,1.783,0.003297,0,0,0.0004072
96900000000,97200000000,6232606948,4,1303514,0.02609,0.01797,0.01904,0.0001602,0.0002708,0.0209,0.0007133,4.292e-05,0.2385,0.0528,1.589,0.002531,0,0,0.0005388
97200000000,97500000000,6232606948,4,1303514,0.01758,0.015,0.01627,0.0001926,0.0002975,0.01935,0.0009995,4.292e-05,0.1304,0.04584,1.636,0.002854,0,0,0.0004034
97500000000,97800000000,6232606948,4,1303514,0.01361,0.01639,0.01797,0.0001173,0.0002213,0.01773,0.0008898,4.292e-05,0.1141,0.05109,1.651,0.003049,0,0,0.0004025
97800000000,98100000000,6232606948,4,1303514,0.01247,0.01767,0.0188,0.000185,0.0002899,0.01895,0.0007391,4.292e-05,0.1299,0.03577,1.673,0.003037,0,0,0.0005827
98100000000,98400000000,6232606948,4,1303514,0.02957,0.01755,0.01877,0.0001307,0.0002403,0.01959,0.001312,4.292e-05,0.4214,0.06604,1.262,0.0007241,0,0,0.05847
98400000000,98700000000,6232606948,4,1303514,0.01219,0.0181,0.0191,0.0002651,0.0003681,0.0192,0.0005131,4.292e-05,0.1414,0.04126,2.095,0.00336,0,0,0.06299
98700000000,99000000000,6232606948,4,1303514,0.01268,0.01959,0.02094,0.000206,0.000309,0.0209,0.0008755,4.292e-05,0.1277,0.04834,2.014,0.003113,0,0,0.06287
99000000000,99300000000,6232606948,4,1303514,0.02951,0.01476,0.01617,0.0002794,0.0003796,0.02115,0.001932,4.387e-05,0.2385,0.08252,1.946,0.002898,0,0,0.06262
99300000000,99600000000,6232606948,4,1303514,0.01213,0.01547,0.01691,0.0001945,0.0002937,0.01651,0.0008965,4.292e-05,0.1362,0.05865,1.93,0.002975,0,0,0.06299
99600000000,99900000000,6232606948,4,1303514,0.01581,0.01669,0.01779,0.0002146,0.0003128,0.01788,0.001221,4.292e-05,0.1431,0.04785,2.009,0.003371,0,0,0.003651
99900000000,100200000000,6232606948,4,1303514,0.01877,0.01329,0.01448,0.0002146,0.0003176,0.01898,0.001667,4.387e-05,0.2388,0.07776,1.658,0.002005,0,0,0.00103
100200000000,100500000000,6232606948,4,1303514,0.00515,0.01195,0.01317,0.0002537,0.0003471,0.01421,0.001131,4.292e-05,0.1465,0.05841,1.742,0.0028,0,0,0.0005636
100500000000,100800000000,6232606948,4,1303514,0.02097,0.01517,0.01645,0.0002508,0.000349,0.01727,0.001585,4.292e-05,0.1411,0.06665,2.033,0.003122,0,0,0.0005016
100800000000,101100000000,6232606948,4,1303514,0.01422,0.01639,0.01752,0.0002317,0.0003386,0.01801,0.0007296,4.387e-05,0.2366,0.04767,2.286,0.00491,0,0,0.0002069
166200000000,166500000000,6232606948,4,1303514,0.007782,0.01752,0.01932,0.0001688,0.0002165,0.0181,0.0005312,5.054e-05,0.1433,0.03448,1.851,0.003271,0,0,0.000597
166500000000,166800000000,6232606948,4,1303514,0.0004902,0.01755,0.01944,0.0001802,0.0002394,0.01758,1.907e-05,5.054e-05,0.004379,0.002499,3.005,0.009546,0,0,7.153e-05
167100000000,167400000000,6232606948,4,1303514,0.0007238,0.01758,0.01944,0.0001907,0.0002365,0.01767,2.956e-05,5.054e-05,0.02798,0.0004282,3.059,0.01018,0,0,4.578e-05
167400000000,167700000000,6232606948,4,1303514,0.0007811,0.01749,0.01917,0.0001879,0.0002356,0.01767,3.338e-05,5.054e-05,0.0603,0.001499,2.686,0.0079,0,0,0.001244
167700000000,168000000000,6232606948,4,1303514,0.000514,0.01593,0.01709,6.676e-05,0.000145,0.01688,2.384e-05,5.15e-05,0.004532,0.0007143,3.02,0.009723,0,0,0.0001478
168000000000,168300000000,6232606948,4,1303514,0.0005045,0.01424,0.01552,6.199e-05,0.0001202,0.0148,2.193e-05,5.15e-05,0.005249,0.0007143,2.996,0.009572,0,0,0.0008068
101100000000,101400000000,6232606948,4,1303514,0.0101,0.01375,0.01506,0.0001373,0.000246,0.01572,0.0005398,4.387e-05,0.1304,0.06677,1.848,0.003008,0,0,0.0003815
101400000000,101700000000,6232606948,4,1303514,0.01428,0.01515,0.01645,0.0002117,0.0003109,0.01877,0.001614,4.387e-05,0.1333,0.06,2.003,0.003408,0,0,0.0007811
101700000000,102000000000,6232606948,4,1303514,0.02481,0.01727,0.01874,0.0002708,0.0003748,0.0213,0.001341,4.387e-05,0.2397,0.06738,1.403,0.001025,0,0,0.06934
102000000000,102300000000,6232606948,4,1303514,0.01402,0.01421,0.0155,0.0001669,0.0002661,0.01602,0.000824,4.387e-05,0.1514,0.02872,1.798,0.003086,0,0,0.06323
102300000000,102600000000,6232606948,4,1303514,0.01244,0.01599,0.01715,0.0001459,0.0002499,0.01749,0.0003996,4.387e-05,0.1467,0.03113,1.838,0.003062,0,0,0.0005884
102600000000,102900000000,6232606948,4,1303514,0.03073,0.01691,0.01828,0.0002165,0.0003223,0.01889,0.001387,4.387e-05,0.4683,0.07312,1.368,0.001123,0,0,0.0004635
102900000000,103200000000,6232606948,4,1303514,0.01369,0.01476,0.0162,0.0001554,0.0002613,0.01617,0.0006247,4.387e-05,0.1475,0.04315,1.518,0.001735,0,0,0.0003824
103200000000,103500000000,6232606948,4,1303514,0.01117,0.01651,0.01764,0.0002108,0.0003099,0.01791,0.00128,4.387e-05,0.1577,0.06653,1.849,0.003365,0,0,0.0004826
103500000000,103800000000,6232606948,4,1303514,0.01871,0.0173,0.01852,0.0002832,0.0003786,0.01962,0.0006094,4.387e-05,0.4468,0.04926,1.843,0.003128,0,0,0.0004759
103800000000,104100000000,6232606948,4,1303514,0.008194,0.01131,0.0128,0.0001755,0.0002813,0.01913,0.001387,4.387e-05,0.147,0.05945,1.721,0.002929,0,0,0.0006399
104100000000,104400000000,6232606948,4,1303514,0.0155,0.01535,0.01669,0.0002518,0.0003424,0.01666,0.001621,4.387e-05,0.147,0.06152,1.767,0.00253,0,0,0.02444
104400000000,104700000000,6232606948,4,1303514,0.005699,0.01566,0.01678,0.0002069,0.000308,0.01709,0.0004997,4.387e-05,0.1421,0.03815,3.78,0.01218,0,0,0.000246
104700000000,105000000000,6232606948,4,1303514,0.01761,0.01299,0.01428,0.000227,0.0003242,0.01518,0.002148,4.387e-05,0.4673,0.09082,1.9,0.00311,0,0,0.0004501
105000000000,105300000000,6232606948,4,1303514,0.01572,0.01556,0.01663,0.0001888,0.000288,0.01785,0.00111,4.387e-05,0.1602,0.03998,1.852,0.003195,0,0,0.0004826
105300000000,105600000000,6232606948,4,1303514,0.01045,0.01883,0.02002,0.0001526,0.0002546,0.0217,0.0007181,4.387e-05,0.1392,0.03284,1.806,0.003179,0,0,0.0006475
105600000000,105900000000,6232606948,4,1303514,0.02487,0.01776,0.01913,0.0002337,0.0003424,0.02487,0.001625,4.387e-05,0.4565,0.08789,1.685,0.001989,0,0,0.0006161
51000000000,51300000000,6232606948,4,1303514,0.01251,0.01694,0.01791,0.0001364,0.0002155,0.01923,0.0008297,3.624e-05,0.09924,0.02393,4.327,0.01503,0,0,0.0009937
51300000000,51600000000,6232606948,4,1303514,0.01451,0.02155,0.02264,0.0001059,0.0001564,0.02426,0.001127,3.624e-05,0.2434,0.02914,1.87,0.003253,0,0,0.0005474
51600000000,51900000000,6232606948,4,1303514,0.02313,0.02264,0.02393,0.0001802,0.0002689,0.02618,0.001066,3.719e-05,0.2405,0.0575,1.376,0.001103,0,0,0.0001659
51900000000,52200000000,6232606948,4,1303514,0.01027,0.01843,0.0195,0.0001459,0.0002489,0.02075,0.00033,3.719e-05,0.1165,0.0379,1.95,0.0032,0,0,0.001526
52200000000,52500000000,6232606948,4,1303514,0.01801,0.01843,0.01956,0.0001259,0.0001936,0.01993,0.0008574,3.719e-05,0.1335,0.02792,1.906,0.003154,0,0,0.0003872
52500000000,52800000000,6232606948,4,1303514,0.02405,0.01341,0.01454,0.000186,0.0002623,0.02045,0.001413,3.719e-05,0.2341,0.06995,2.003,0.003603,0,0,0.0005798
52800000000,53100000000,6232606948,4,1303514,0.01566,0.01675,0.01794,0.0001526,0.000246,0.01871,0.0009317,3.719e-05,0.1377,0.03967,1.841,0.003301,0,0,0.0009375
53100000000,53400000000,6232606948,4,1303514,0.0173,0.01944,0.02084,9.441e-05,0.0001545,0.02142,0.0006561,3.719e-05,0.1343,0.0267,1.884,0.003115,0,0,0.0005093
53400000000,53700000000,6232606948,4,1303514,0.03351,0.01552,0.01709,0.0001087,0.0001736,0.02304,0.001419,3.719e-05,0.2383,0.06262,1.471,0.001514,0,0,0.09741
53700000000,54000000000,6232606948,4,1303514,0.01239,0.01651,0.01764,9.823e-05,0.0001898,0.01828,0.001001,3.719e-05,0.1091,0.03079,1.95,0.003775,0,0,0.0007753
54000000000,54300000000,6232606948,4,1303514,0.01981,0.01932,0.02072,0.0001545,0.000226,0.0209,0.0007563,3.719e-05,0.1338,0.04083,2.389,0.005865,0,0,0.0625
54300000000,54600000000,6232606948,4,1303514,0.02435,0.01593,0.01697,0.0002117,0.000268,0.02194,0.00164,3.719e-05,0.2437,0.04822,1.907,0.003077,0,0,0.008942
54600000000,54900000000,6232606948,4,1303514,0.01706,0.01666,0.01825,0.0001554,0.0002422,0.01852,0.000865,3.719e-05,0.1348,0.02771,1.821,0.002964,0,0,0.06262
54900000000,55200000000,6232606948,4,1303514,0.04248,0.02155,0.02295,0.000206,0.0002804,0.02554,0.001703,3.719e-05,0.2446,0.06134,1.364,0.001061,0,0,0.0224
55200000000,55500000000,6232606948,4,1303514,0.01195,0.01877,0.02005,8.583e-05,0.0001707,0.02277,0.001003,3.719e-05,0.1233,0.03931,1.963,0.003487,0,0,0.0002756
55500000000,55800000000,6232606948,4,1303514,0.01993,0.01923,0.02039,0.0001593,0.0002556,0.02097,0.0005999,3.719e-05,0.1379,0.03717,1.821,0.003124,0,0,0.06274
90900000000,91200000000,6232606948,4,1303514,0.01895,0.01782,0.01917,0.0001011,0.0001822,0.02069,0.0008459,4.196e-05,0.1523,0.03687,1.935,0.002977,0,0,0.06262
91200000000,91500000000,6232606948,4,1303514,0.03009,0.02234,0.02347,6.866e-05,0.0001659,0.02454,0.001066,4.196e-05,0.2974,0.04224,1.819,0.002989,0,0,0.0004978
91500000000,91800000000,6232606948,4,1303514,0.02429,0.01508,0.01666,0.0002842,0.0003719,0.02539,0.002056,4.292e-05,0.231,0.07837,1.512,0.001547,0,0,0.06274
91800000000,92100000000,6232606948,4,1303514,0.01225,0.01624,0.01755,0.0001268,0.0001869,0.01767,0.0006495,4.196e-05,0.1182,0.04871,1.922,0.003544,0,0,0.000453
92100000000,92400000000,6232606948,4,1303514,0.01813,0.01767,0.01898,0.0001745,0.000246,0.01907,0.0009155,4.196e-05,0.1152,0.02692,1.956,0.00324,0,0,0.01804
92400000000,92700000000,6232606948,4,1303514,0.01981,0.01422,0.01541,0.000165,0.0002356,0.01996,0.0008974,4.292e-05,0.252,0.04492,1.351,0.0009139,0,0,0.0003796
92700000000,93000000000,6232606948,4,1303514,0.01538,0.01466,0.01587,0.0001307,0.0002117,0.01657,0.001034,4.196e-05,0.1426,0.0343,1.862,0.003215,0,0,0.01424
93000000000,93300000000,6232606948,4,1303514,0.01648,0.01697,0.01779,0.0001822,0.000227,0.01862,0.001038,4.292e-05,0.144,0.03296,1.907,0.003216,0,0,0.0005217
93300000000,93600000000,6232606948,4,1303514,0.02609,0.01506,0.01672,0.0002537,0.0003529,0.02063,0.002396,4.292e-05,0.2373,0.09204,1.824,0.002948,0,0,0.0056
93600000000,93900000000,6232606948,4,1303514,0.02243,0.01549,0.01694,0.0002384,0.0003443,0.01736,0.0006762,4.292e-05,0.2021,0.02322,1.832,0.003019,0,0,0.0006351
93900000000,94200000000,6232606948,4,1303514,0.01476,0.01773,0.01877,0.0001574,0.0002594,0.01904,0.0006504,4.292e-05,0.1255,0.04156,1.616,0.002534,0,0,0.1034
94200000000,94500000000,6232606948,4,1303514,0.02545,0.01526,0.01669,0.0001841,0.000289,0.01981,0.001427,4.292e-05,0.2417,0.08276,1.918,0.003513,0,0,0.0002499
94500000000,94800000000,6232606948,4,1303514,0.01685,0.01709,0.01862,0.0001659,0.0002642,0.01965,0.001427,4.292e-05,0.1445,0.06445,1.867,0.003109,0,0,0.0005579
94800000000,95100000000,6232606948,4,1303514,0.01231,0.01974,0.02081,0.0002546,0.0003548,0.02112,0.0008755,4.292e-05,0.1396,0.05469,1.85,0.00311,0,0,0.0005112
95100000000,95400000000,6232606948,4,1303514,0.03296,0.01926,0.02072,0.0003109,0.0004158,0.02408,0.001123,4.292e-05,0.4673,0.07263,1.352,0.001069,0,0,0.008194
95400000000,95700000000,6232606948,4,1303514,0.01514,0.01422,0.01547,0.0001612,0.000267,0.01605,0.00104,4.292e-05,0.186,0.05414,1.813,0.002976,0,0,0.000248
95700000000,96000000000,6232606948,4,1303514,0.02094,0.01709,0.01828,0.0001297,0.0002289,0.01831,0.001289,4.292e-05,0.1394,0.04895,2.025,0.003873,0,0,0.0005102
85800000000,86100000000,6232606948,4,1303514,0.03131,0.0191,0.02039,0.0002079,0.0003033,0.02176,0.001196,4.196e-05,0.2378,0.05237,1.434,0.001319,0,0,0.0006466
86100000000,86400000000,6232606948,4,1303514,0.02036,0.01706,0.01813,0.0001726,0.0002756,0.0188,0.0008831,4.196e-05,0.137,0.03186,2.049,0.003206,0,0,0.0003395
86400000000,86700000000,6232606948,4,1303514,0.01831,0.01843,0.01981,0.0001211,0.0001822,0.01993,0.0004654,4.196e-05,0.1272,0.02963,2.007,0.003651,0,0,0.0005169
86700000000,87000000000,6232606948,4,1303514,0.02133,0.01923,0.02023,0.0001373,0.000205,0.02127,0.000598,4.196e-05,0.2395,0.05115,2.031,0.003738,0,0,0.0004559
87000000000,87300000000,6232606948,4,1303514,0.01353,0.01584,0.01709,5.817e-05,0.0001688,0.01819,0.0001488,4.196e-05,0.144,0.006073,1.872,0.002833,0,0,0.0004625
87300000000,87600000000,6232606948,4,1303514,0.01414,0.01917,0.02036,6.008e-05,0.0001249,0.02155,0.001064,4.196e-05,0.1379,0.03265,1.615,0.002488,0,0,0.06323
87600000000,87900000000,6232606948,4,1303514,0.02682,0.01724,0.01855,0.0002108,0.0002871,0.02322,0.001854,4.196e-05,0.2393,0.05359,1.29,0.0008373,0,0,0.06433
87900000000,88200000000,6232606948,4,1303514,0.00946,0.01431,0.01555,0.000123,0.0002136,0.01617,0.001108,4.196e-05,0.135,0.04095,2.02,0.003954,0,0,0.0002651
88200000000,88500000000,6232606948,4,1303514,0.01186,0.01627,0.01736,0.000103,0.0001745,0.01782,0.0008974,4.196e-05,0.1152,0.03302,1.894,0.003363,0,0,0.005608
88500000000,88800000000,6232606948,4,1303514,0.03491,0.01855,0.01962,0.0002489,0.000349,0.02081,0.001518,4.196e-05,0.1492,0.05652,1.6,0.002268,0,0,0.06195
88800000000,89100000000,6232606948,4,1303514,0.0184,0.01797,0.01935,0.0002699,0.00035,0.01883,0.0003576,4.196e-05,0.1279,0.02435,1.72,0.003176,0,0,0.0004787
89100000000,89400000000,6232606948,4,1303514,0.01907,0.01898,0.02014,0.0001554,0.0002403,0.02011,0.0009108,4.196e-05,0.126,0.03717,1.756,0.00338,0,0,0.000392
89400000000,89700000000,6232606948,4,1303514,0.03314,0.02054,0.02176,0.0002222,0.0003042,0.02231,0.001238,4.196e-05,0.2078,0.05963,1.723,0.003107,0,0,0.0003347
89700000000,90000000000,6232606948,4,1303514,0.01672,0.017,0.0184,7.439e-05,0.0001411,0.02057,0.0005875,4.196e-05,0.1482,0.02835,1.803,0.003763,0,0,0.06335
90000000000,90300000000,6232606948,4,1303514,0.01497,0.01785,0.01907,0.0001602,0.0002518,0.01895,0.001013,4.196e-05,0.1694,0.03058,3.928,0.01272,0,0,0.0004892
90300000000,90600000000,6232606948,4,1303514,0.02567,0.01898,0.02026,0.0001593,0.0002546,0.02106,0.0007563,4.196e-05,0.2441,0.05872,1.904,0.003083,0,0,0.06287
90600000000,90900000000,6232606948,4,1303514,0.01195,0.01344,0.01494,0.0001221,0.0002022,0.01538,0.0008898,4.196e-05,0.1382,0.03949,1.897,0.002916,0,0,0.000453
66000000000,66300000000,6232606948,4,1303514,0.02136,0.01746,0.01892,0.0002069,0.0002937,0.02615,0.0007753,3.91e-05,0.1243,0.06592,1.752,0.00292,0,0,0.0008402
66300000000,66600000000,6232606948,4,1303514,0.01892,0.01843,0.01978,9.251e-05,0.0001936,0.01974,0.0007277,3.91e-05,0.1365,0.02829,1.88,0.003161,0,0,0.0004835
66600000000,66900000000,6232606948,4,1303514,0.02026,0.02054,0.02173,0.0001316,0.0001793,0.02155,0.0006475,3.91e-05,0.1394,0.02521,1.826,0.003095,0,0,0.06287
66900000000,67200000000,6232606948,4,1303514,0.03284,0.01675,0.01788,0.0001955,0.0002823,0.02283,0.001207,3.91e-05,0.238,0.05005,1.78,0.002874,0,0,0.0005302
67200000000,67500000000,6232606948,4,1303514,0.02072,0.01843,0.01947,0.0002155,0.0003176,0.01999,0.0009975,3.91e-05,0.1338,0.04059,2.887,0.008837,0,0,0.05298
67500000000,67800000000,6232606948,4,1303514,0.017,0.02029,0.02142,0.0001755,0.0002413,0.02164,0.0008774,3.91e-05,0.1338,0.03198,1.979,0.003341,0,0,0.0007095
67800000000,68100000000,6232606948,4,1303514,0.02094,0.0143,0.01584,0.0001669,0.0002613,0.02246,0.0006847,3.91e-05,0.2395,0.04395,1.331,0.001003,0,0,0.0006104
68100000000,68400000000,6232606948,4,1303514,0.0206,0.01593,0.01697,0.0001211,0.0002108,0.01871,0.001045,3.91e-05,0.1262,0.03204,1.668,0.002725,0,0,0.06262
68400000000,68700000000,6232606948,4,1303514,0.0125,0.01834,0.01974,0.0001316,0.0002089,0.02008,0.0007019,3.91e-05,0.1355,0.026,1.99,0.003376,0,0,0.0002069
68700000000,69000000000,6232606948,4,1303514,0.03308,0.02023,0.02133,0.0003347,0.0004349,0.02277,0.0009918,3.91e-05,0.2405,0.05737,1.742,0.00298,0,0,0.0007162
69000000000,69300000000,6232606948,4,1303514,0.01126,0.01846,0.01971,0.0001373,0.000248,0.01965,0.0003643,3.91e-05,0.1458,0.02536,1.749,0.002941,0,0,0.0004978
69300000000,69600000000,6232606948,4,1303514,0.03278,0.02173,0.02295,0.0002756,0.0003519,0.02609,0.002071,3.91e-05,0.2439,0.06165,1.804,0.003149,0,0,0.05719
69600000000,69900000000,6232606948,4,1303514,0.02625,0.01965,0.02097,9.251e-05,0.0001907,0.02353,0.0005636,3.91e-05,0.1377,0.03314,1.875,0.003312,0,0,0.0005302
69900000000,70200000000,6232606948,4,1303514,0.01648,0.02063,0.02182,0.0001278,0.000205,0.02209,0.001043,3.91e-05,0.1141,0.03448,1.838,0.00308,0,0,0.0006275
70200000000,70500000000,6232606948,4,1303514,0.02771,0.02225,0.02332,0.0002527,0.0003328,0.02423,0.001009,3.91e-05,0.2424,0.05524,1.826,0.003199,0,0,0.001072
70500000000,70800000000,6232606948,4,1303514,0.0144,0.01938,0.02078,9.441e-05,0.0001831,0.0242,0.000246,3.91e-05,0.1267,0.01071,1.709,0.002716,0,0,0.0004768
146100000000,146400000000,6232606948,4,1303514,0.03937,0.01804,0.01935,0.0002508,0.0003452,0.02283,0.002495,4.768e-05,0.2434,0.07861,1.853,0.003026,0,0,0.0005541
146400000000,146700000000,6232606948,4,1303514,0.01176,0.01749,0.01892,0.000185,0.0002861,0.0195,0.001059,4.768e-05,0.1345,0.04816,1.867,0.003181,0,0,0.0002356
146700000000,147000000000,6232606948,4,1303514,0.01859,0.01971,0.02087,0.0001898,0.0002937,0.02078,0.0008812,4.768e-05,0.1465,0.0307,1.851,0.003019,0,0,0.0004139
147000000000,147300000000,6232606948,4,1303514,0.01813,0.01552,0.01682,0.0002708,0.00037,0.02155,0.001139,4.864e-05,0.2334,0.06262,1.971,0.003353,0,0,0.0003834
147300000000,147600000000,6232606948,4,1303514,0.02411,0.0159,0.01697,0.0001125,0.0002117,0.01865,0.001617,4.768e-05,0.1484,0.04144,1.865,0.003045,0,0,0.0007286
147600000000,147900000000,6232606948,4,1303514,0.01538,0.01901,0.02045,0.000165,0.0002689,0.02029,0.0007582,4.768e-05,0.115,0.0567,2.093,0.003879,0,0,0.0005531
147900000000,148200000000,6232606948,4,1303514,0.01971,0.02029,0.02136,0.0002909,0.0003986,0.02277,0.0009489,4.864e-05,0.2434,0.06555,1.653,0.002016,0,0,0.06274
148200000000,148500000000,6232606948,4,1303514,0.01678,0.01433,0.01575,0.0001497,0.0002499,0.01981,0.001238,4.768e-05,0.1182,0.03979,1.842,0.003017,0,0,0.07495
148500000000,148800000000,6232606948,4,1303514,0.01503,0.02045,0.02148,0.0001516,0.0002375,0.02304,0.001297,4.864e-05,0.1335,0.05328,1.901,0.003198,0,0,0.0005016
148800000000,149100000000,6232606948,4,1303514,0.03412,0.01526,0.01651,0.0002813,0.0003834,0.02676,0.002209,4.864e-05,0.2378,0.0791,2.226,0.003758,0,0,0.04395
149100000000,149400000000,6232606948,4,1303514,0.01544,0.01694,0.01797,0.0001326,0.0002327,0.01898,0.0008917,4.864e-05,0.1487,0.04315,2.377,0.005342,0,0,0.0005178
149400000000,149700000000,6232606948,4,1303514,0.01996,0.01895,0.02008,0.0002022,0.0003042,0.02118,0.001148,4.864e-05,0.1497,0.05884,1.887,0.00319,0,0,0.0004969
149700000000,150000000000,6232606948,4,1303514,0.02698,0.01886,0.0202,0.0002356,0.0003443,0.02304,0.0009766,4.864e-05,0.2415,0.0929,1.896,0.002891,0,0,0.06335
150000000000,150300000000,6232606948,4,1303514,0.02145,0.01749,0.01892,0.0001497,0.0002489,0.01938,0.001352,4.864e-05,0.1318,0.05426,2.12,0.004775,0,0,0.006439
150300000000,150600000000,6232606948,4,1303514,0.01505,0.01981,0.02109,0.0001888,0.0002871,0.02115,0.0009899,4.864e-05,0.1172,0.0509,1.988,0.003658,0,0,0.0003223
150600000000,150900000000,6232606948,4,1303514,0.03009,0.02048,0.02155,0.0001993,0.0003138,0.02194,0.0007753,4.864e-05,0.24,0.04614,1.942,0.003257,0,0,0.000639
150900000000,151200000000,6232606948,4,1303514,0.01846,0.01678,0.01804,0.0001678,0.0002604,0.01837,0.001451,4.864e-05,0.1365,0.05554,1.835,0.00295,0,0,0.0003557
141000000000,141300000000,6232606948,4,1303514,0.0217,0.02029,0.02164,0.0002737,0.0003805,0.02264,0.0009747,4.768e-05,0.241,0.05902,2.171,0.005206,0,0,0.0005188
141300000000,141600000000,6232606948,4,1303514,0.01608,0.01852,0.01987,0.0001764,0.0002813,0.02151,0.001596,4.768e-05,0.136,0.06244,1.941,0.003435,0,0,0.0004501
141600000000,141900000000,6232606948,4,1303514,0.03339,0.02359,0.02457,0.0002546,0.0003662,0.02646,0.001127,4.768e-05,0.2429,0.06409,1.499,0.001635,0,0,0.0006571
141900000000,142200000000,6232606948,4,1303514,0.02164,0.01688,0.01797,6.294e-05,0.0001812,0.02353,0.0006342,4.768e-05,0.1445,0.04022,1.855,0.003311,0,0,0.0007401
142200000000,142500000000,6232606948,4,1303514,0.01633,0.01929,0.02039,0.0001431,0.000247,0.02094,0.0004683,4.768e-05,0.1416,0.02014,4.286,0.01534,0,0,0.0005159
142500000000,142800000000,6232606948,4,1303514,0.03012,0.0217,0.02298,0.0002432,0.0003471,0.02359,0.001028,4.768e-05,0.228,0.05194,1.262,0.0006635,0,0,0.05524
142800000000,143100000000,6232606948,4,1303514,0.006561,0.01602,0.01746,8.965e-05,0.0002031,0.02182,0.000494,4.768e-05,0.1257,0.03693,1.48,0.001562,0,0,0.0003567
143100000000,143400000000,6232606948,4,1303514,0.01981,0.01749,0.01865,0.0002241,0.0003223,0.02005,0.002026,4.768e-05,0.1241,0.05151,1.772,0.003027,0,0,0.0006523
143400000000,143700000000,6232606948,4,1303514,0.02921,0.01971,0.02094,0.0002365,0.0003386,0.02347,0.001188,4.768e-05,0.2385,0.07947,2.477,0.006545,0,0,0.0006962
143700000000,144000000000,6232606948,4,1303514,0.0162,0.01651,0.01819,0.0001802,0.0002871,0.0235,0.001419,4.768e-05,0.1382,0.06006,1.746,0.003004,0,0,0.0625
144000000000,144300000000,6232606948,4,1303514,0.01117,0.01749,0.01868,0.0001545,0.0002556,0.0188,0.0007868,4.768e-05,0.1331,0.0567,2.262,0.003941,0,0,0.0006094
144300000000,144600000000,6232606948,4,1303514,0.01837,0.01947,0.02063,0.0001354,0.0002375,0.02069,0.001074,4.768e-05,0.1418,0.03021,1.864,0.002979,0,0,0.06335
144600000000,144900000000,6232606948,4,1303514,0.02908,0.01825,0.01959,0.0001907,0.0002995,0.02185,0.001345,4.768e-05,0.2412,0.07947,1.883,0.003148,0,0,0.06299
144900000000,145200000000,6232606948,4,1303514,0.01491,0.021,0.02206,0.0002012,0.0003014,0.02335,0.0009642,4.768e-05,0.1353,0.04395,4.467,0.0152,0,0,0.0007238
145200000000,145500000000,6232606948,4,1303514,0.03278,0.02255,0.02399,0.0002222,0.0003366,0.02618,0.001123,4.768e-05,0.241,0.05377,1.643,0.00178,0,0,0.1047
145500000000,145800000000,6232606948,4,1303514,0.01718,0.01791,0.01938,0.0001564,0.0002613,0.01947,0.00116,4.768e-05,0.1482,0.05255,1.862,0.003092,0,0,0.0003824
145800000000,146100000000,6232606948,4,1303514,0.01459,0.01926,0.02051,0.000144,0.000248,0.02048,0.0005665,4.768e-05,0.1416,0.02808,1.925,0.003179,0,0,0.000742
45900000000,46200000000,6232606948,4,1303514,0.004875,0.01691,0.01797,0.0001297,0.0002222,0.01907,0.0004015,3.624e-05,0.1029,0.02094,1.965,0.003821,0,0,0.001566
46200000000,46500000000,6232606948,4,1303514,0.022,0.01868,0.02008,0.0001249,0.0002108,0.02115,0.0005951,3.624e-05,0.2397,0.03326,1.437,0.001335,0,0,0.2327
46500000000,46800000000,6232606948,4,1303514,0.01025,0.01639,0.0177,4.005e-05,0.0001297,0.01785,0.0001459,3.624e-05,0.1409,0.008286,1.935,0.003158,0,0,0.00035
46800000000,47100000000,6232606948,4,1303514,0.01125,0.01648,0.01746,0.0001278,0.0002117,0.01889,0.001183,3.624e-05,0.1154,0.04187,1.729,0.002849,0,0,0.0007
47100000000,47400000000,6232606948,4,1303514,0.02338,0.01837,0.01974,0.0001459,0.0002213,0.02097,0.001606,3.624e-05,0.2351,0.06946,2.081,0.003874,0,0,0.06238
47400000000,47700000000,6232606948,4,1303514,0.01076,0.01614,0.01724,0.0001869,0.0002775,0.01791,0.0004187,3.624e-05,0.1338,0.03448,1.953,0.003609,0,0,0.0005684
47700000000,48000000000,6232606948,4,1303514,0.03192,0.02231,0.0235,0.0002289,0.0003185,0.02652,0.001316,3.624e-05,0.2388,0.0415,1.505,0.001787,0,0,0.0003672
48000000000,48300000000,6232606948,4,1303514,0.01529,0.01424,0.01562,8.965e-05,0.0001698,0.02353,0.0006599,3.624e-05,0.1362,0.02307,1.842,0.002996,0,0,0.0006227
48300000000,48600000000,6232606948,4,1303514,0.009247,0.01703,0.01855,0.0001326,0.0002203,0.01859,0.0008888,3.624e-05,0.1101,0.02856,1.905,0.003075,0,0,0.06287
48600000000,48900000000,6232606948,4,1303514,0.02103,0.01874,0.02008,0.0001822,0.0002794,0.02032,0.001057,3.624e-05,0.2368,0.06396,3.279,0.01019,0,0,0.0003557
48900000000,49200000000,6232606948,4,1303514,0.01445,0.01605,0.01736,0.0001612,0.0002298,0.01886,0.001551,3.624e-05,0.1421,0.04266,3.266,0.01046,0,0,0.0003176
49200000000,49500000000,6232606948,4,1303514,0.01633,0.01767,0.01889,0.0001974,0.0002899,0.01865,0.0008402,3.624e-05,0.1255,0.03479,1.847,0.003037,0,0,0.0004539
49500000000,49800000000,6232606948,4,1303514,0.02481,0.01953,0.02081,0.0001621,0.0002623,0.02258,0.0005083,3.624e-05,0.241,0.03326,1.936,0.00299,0,0,0.0006943
49800000000,50100000000,6232606948,4,1303514,0.02124,0.01599,0.01736,0.0001726,0.0002394,0.02335,0.001175,3.624e-05,0.2344,0.05847,2.777,0.006616,0,0,0.0006437
50100000000,50400000000,6232606948,4,1303514,0.01743,0.01843,0.01993,0.0001469,0.0002146,0.02005,0.0009785,3.624e-05,0.1416,0.0387,1.785,0.003138,0,0,0.0005054
50400000000,50700000000,6232606948,4,1303514,0.01257,0.01935,0.02048,0.0001717,0.000267,0.02109,0.001013,3.624e-05,0.1382,0.03497,1.811,0.00306,0,0,0.0003777
50700000000,51000000000,6232606948,4,1303514,0.02933,0.01724,0.01877,0.0001812,0.0002651,0.02335,0.001595,3.719e-05,0.2361,0.07153,1.974,0.003379,0,0,0.0004377
105900000000,106200000000,6232606948,4,1303514,0.007729,0.01297,0.01407,0.0001364,0.0002375,0.01512,0.0006313,4.387e-05,0.137,0.05243,1.829,0.002999,0,0,0.001175
106500000000,106800000000,6232606948,4,1303514,0.01761,0.01733,0.01871,0.0002098,0.0003195,0.01938,0.001083,4.387e-05,0.2378,0.08838,1.712,0.003189,0,0,0.0007114
106800000000,107100000000,6232606948,4,1303514,0.01231,0.015,0.01624,0.0001411,0.0002613,0.0163,0.0004511,4.387e-05,0.1357,0.04926,1.9,0.004003,0,0,0.03577
107100000000,107400000000,6232606948,4,1303514,0.006844,0.01648,0.01788,0.0001507,0.0002518,0.01761,0.0002537,4.387e-05,0.1289,0.01736,1.828,0.003635,0,0,0.0002441
107400000000,107700000000,6232606948,4,1303514,0.02173,0.01334,0.0146,0.000145,0.0002584,0.01944,0.001131,4.387e-05,0.2397,0.08789,1.458,0.001875,0,0,0.2119
107700000000,108000000000,6232606948,4,1303514,0.01477,0.01454,0.01558,0.000206,0.000309,0.01715,0.0008154,4.387e-05,0.127,0.06519,1.689,0.003083,0,0,0.06287
108000000000,108300000000,6232606948,4,1303514,0.01147,0.01697,0.01822,0.0002089,0.0002995,0.01907,0.001329,4.387e-05,0.136,0.03809,1.793,0.003217,0,0,0.06299
108300000000,108600000000,6232606948,4,1303514,0.02411,0.01837,0.0195,0.000248,0.0003548,0.0199,0.00102,4.387e-05,0.24,0.06555,1.478,0.001393,0,0,0.0004158
108600000000,108900000000,6232606948,4,1303514,0.008698,0.01566,0.01688,0.000145,0.0002613,0.0177,0.0002642,4.387e-05,0.106,0.01694,1.998,0.003566,0,0,0.0005379
108900000000,109200000000,6232606948,4,1303514,0.01331,0.01816,0.01923,0.000102,0.0002174,0.02197,0.0005894,4.387e-05,0.1277,0.03638,2.034,0.00329,0,0,0.0004778
109200000000,109500000000,6232606948,4,1303514,0.02432,0.01981,0.02124,0.00033,0.0004339,0.02509,0.001499,4.482e-05,0.2397,0.06848,1.975,0.00325,0,0,0.2307
109500000000,109800000000,6232606948,4,1303514,0.01587,0.01421,0.0153,0.0002041,0.0003033,0.01666,0.001575,4.387e-05,0.1443,0.06567,1.608,0.00241,0,0,0.0004425
109800000000,110100000000,6232606948,4,1303514,0.01149,0.0173,0.01849,0.0001755,0.0002775,0.01831,0.0007143,4.387e-05,0.1636,0.05817,2.167,0.004393,0,0,0.0002327
110700000000,111000000000,6232606948,4,1303514,0.01175,0.0154,0.01663,0.0002222,0.0003128,0.01773,0.001112,4.482e-05,0.1345,0.04663,3.602,0.01153,0,0,0.0003548
161100000000,161400000000,6232606948,4,1303514,0.03131,0.02036,0.02145,0.0002127,0.0002851,0.02264,0.0008364,5.054e-05,0.4199,0.03467,2.011,0.003606,0,0,0.0005045
161400000000,161700000000,6232606948,4,1303514,0.01993,0.01712,0.01819,0.000165,0.0002289,0.0231,0.001148,5.054e-05,0.1318,0.03845,1.831,0.003091,0,0,0.0009384
161700000000,162000000000,6232606948,4,1303514,0.01935,0.01846,0.01959,9.823e-05,0.0001774,0.0199,0.0003805,5.054e-05,0.1533,0.03302,1.861,0.003101,0,0,0.000433
162000000000,162300000000,6232606948,4,1303514,0.02084,0.02026,0.02145,6.58e-05,0.000123,0.02173,0.0004358,5.054e-05,0.135,0.01999,1.985,0.003191,0,0,0.06348
162300000000,162600000000,6232606948,4,1303514,0.02841,0.01439,0.01578,0.0002098,0.0002813,0.02252,0.002064,5.054e-05,0.231,0.07678,1.299,0.0009284,0,0,0.0003395
162600000000,162900000000,6232606948,4,1303514,0.0163,0.01736,0.01837,0.0001307,0.0002117,0.01883,0.0008049,5.054e-05,0.1177,0.03674,1.868,0.003212,0,0,0.06226
162900000000,163200000000,6232606948,4,1303514,0.03143,0.02188,0.02307,0.000186,0.0002537,0.02686,0.001493,5.054e-05,0.2434,0.05878,1.884,0.003136,0,0,0.0003443
163200000000,163500000000,6232606948,4,1303514,0.01831,0.0192,0.02054,8.297e-05,0.0001631,0.02414,0.001238,5.054e-05,0.1394,0.03729,1.809,0.00307,0,0,0.0002584
163500000000,163800000000,6232606948,4,1303514,0.01669,0.01834,0.01947,0.0001469,0.0002222,0.01962,0.001036,5.054e-05,0.1465,0.0285,1.849,0.003074,0,0,0.06238
163800000000,164100000000,6232606948,4,1303514,0.02872,0.01947,0.02087,0.0001879,0.0002632,0.02145,0.001289,5.054e-05,0.2385,0.06494,3.781,0.01192,0,0,0.0005932
164100000000,164400000000,6232606948,4,1303514,0.02213,0.01526,0.01682,0.0001202,0.0002089,0.01785,0.001368,5.054e-05,0.1421,0.04388,1.862,0.003247,0,0,0.06335
164400000000,164700000000,6232606948,4,1303514,0.01678,0.01828,0.01941,0.0001354,0.0002108,0.01981,0.000802,5.054e-05,0.1299,0.03979,1.857,0.003149,0,0,0.0004816
164700000000,165000000000,6232606948,4,1303514,0.03156,0.02014,0.02155,0.0001202,0.000185,0.0228,0.0009136,5.054e-05,0.2388,0.0545,1.919,0.003098,0,0,0.03162
165000000000,165300000000,6232606948,4,1303514,0.01825,0.01904,0.02063,0.0001183,0.0001755,0.02365,0.0008774,5.054e-05,0.2339,0.05884,2.051,0.003467,0,0,0.06274
165300000000,165600000000,6232606948,4,1303514,0.02124,0.01685,0.01816,0.0001574,0.0002279,0.01868,0.001173,5.054e-05,0.135,0.03137,3.967,0.01362,0,0,0.0003805
165600000000,165900000000,6232606948,4,1303514,0.01166,0.01852,0.01996,0.0001364,0.000206,0.0199,0.0009499,5.054e-05,0.1134,0.04114,1.891,0.003546,0,0,0.004547
165900000000,166200000000,6232606948,4,1303514,0.03186,0.0163,0.01743,0.0002251,0.0003157,0.02084,0.001631,5.054e-05,0.2412,0.0575,1.787,0.003067,0,0,0.06311
136200000000,136500000000,6232606948,4,1303514,0.01044,0.01944,0.02084,0.0001526,0.0002432,0.02075,0.00107,4.673e-05,0.1465,0.0592,1.779,0.002993,0,0,0.0004444
136500000000,136800000000,6232606948,4,1303514,0.02631,0.01913,0.02063,0.0002165,0.0003138,0.02356,0.002178,4.673e-05,0.2334,0.08203,1.797,0.002935,0,0,0.0005283
136800000000,137100000000,6232606948,4,1303514,0.02045,0.01599,0.01706,0.0001869,0.0002851,0.0191,0.001043,4.673e-05,0.1433,0.05609,1.785,0.002926,0,0,0.0005064
137100000000,137400000000,6232606948,4,1303514,0.01489,0.01941,0.02063,0.0001678,0.0002699,0.02072,0.000927,4.673e-05,0.1394,0.06219,1.857,0.003109,0,0,0.0007772
137400000000,137700000000,6232606948,4,1303514,0.02261,0.02072,0.02194,0.0002251,0.0003338,0.02335,0.0009756,4.673e-05,0.25,0.0813,1.86,0.003326,0,0,0.0003843
137700000000,138000000000,6232606948,4,1303514,0.02374,0.0192,0.02051,0.000145,0.000247,0.02335,0.001915,4.673e-05,0.1448,0.05444,1.827,0.003135,0,0,0.05347
138000000000,138300000000,6232606948,4,1303514,0.01289,0.02264,0.02399,0.0002155,0.0003166,0.0238,0.0006552,4.673e-05,0.1072,0.0448,1.886,0.003466,0,0,0.06323
138300000000,138600000000,6232606948,4,1303514,0.02756,0.02036,0.02173,0.0002785,0.000391,0.0264,0.0008678,4.673e-05,0.2417,0.07434,1.784,0.002959,0,0,0.0005198
138600000000,138900000000,6232606948,4,1303514,0.01697,0.01715,0.01813,0.0002003,0.0002985,0.01984,0.00124,4.673e-05,0.1382,0.04529,3.936,0.01381,0,0,0.0004692
138900000000,139200000000,6232606948,4,1303514,0.01239,0.01999,0.02112,0.0001688,0.0002718,0.02124,0.0004797,4.673e-05,0.1304,0.04773,2.107,0.004806,0,0,0.0004168
139200000000,139500000000,6232606948,4,1303514,0.02811,0.02081,0.02209,0.0002165,0.0003309,0.02374,0.001091,4.673e-05,0.2388,0.06702,1.507,0.001803,0,0,0.0002661
139500000000,139800000000,6232606948,4,1303514,0.01076,0.01813,0.01929,0.0001373,0.0002356,0.0199,0.0008249,4.673e-05,0.1367,0.05444,1.799,0.00305,0,0,0.0005608
139800000000,140100000000,6232606948,4,1303514,0.01962,0.01923,0.02066,0.0001755,0.0002756,0.02124,0.001118,4.673e-05,0.1458,0.04724,1.965,0.003376,0,0,0.001127
140100000000,140400000000,6232606948,4,1303514,0.02606,0.01846,0.01984,0.0001869,0.0002937,0.02185,0.001213,4.768e-05,0.2375,0.05957,2.288,0.005168,0,0,0.06201
140400000000,140700000000,6232606948,4,1303514,0.01651,0.01727,0.01822,0.000186,0.0002851,0.01959,0.001171,4.673e-05,0.1479,0.04413,1.829,0.003253,0,0,0.0006742
140700000000,141000000000,6232606948,4,1303514,0.01561,0.01956,0.02075,0.0001316,0.0002317,0.02151,0.001383,4.673e-05,0.1353,0.06311,2.009,0.003683,0,0,0.0006027
20700000000,21000000000,6232606948,4,1303514,0.01436,0.01617,0.01724,0.0001535,0.0002441,0.0174,0.001062,3.433e-05,0.1333,0.03778,1.751,0.002854,0,0,0.0003405
21000000000,21300000000,6232606948,4,1303514,0.02441,0.01801,0.01926,0.0001774,0.0002594,0.02029,0.001085,3.433e-05,0.2568,0.06799,1.824,0.0031,0,0,0.0004444
21300000000,21600000000,6232606948,4,1303514,0.01537,0.01767,0.01889,0.000104,0.0002041,0.01892,0.0004616,3.433e-05,0.1487,0.026,1.947,0.003021,0,0,0.0003223
21600000000,21900000000,6232606948,4,1303514,0.01074,0.0162,0.01767,0.000123,0.0001965,0.01697,0.0006847,3.433e-05,0.1272,0.02951,1.919,0.003166,0,0,0.0003481
21900000000,22200000000,6232606948,4,1303514,0.01375,0.01694,0.01837,8.869e-05,0.0001783,0.01877,0.0007811,3.433e-05,0.1301,0.02509,1.871,0.003113,0,0,0.0003462
22200000000,22500000000,6232606948,4,1303514,0.01706,0.01617,0.01752,0.0001192,0.0002289,0.02051,0.0003815,3.433e-05,0.2383,0.04266,1.352,0.0009663,0,0,0.0004816
22500000000,22800000000,6232606948,4,1303514,0.008499,0.0155,0.01663,0.000104,0.0001907,0.01828,0.0007391,3.433e-05,0.1265,0.03748,1.72,0.002742,0,0,0.0004091
22800000000,23100000000,6232606948,4,1303514,0.01373,0.01904,0.02048,6.199e-05,0.0001221,0.02042,0.0003948,3.433e-05,0.1333,0.04254,2.636,0.00741,0,0,0.0002718
23100000000,23400000000,6232606948,4,1303514,0.02237,0.01578,0.01709,9.441e-05,0.0001965,0.02173,0.0005245,3.433e-05,0.2449,0.03162,3.454,0.01055,0,0,0.0003567
23400000000,23700000000,6232606948,4,1303514,0.01479,0.01492,0.01642,9.251e-05,0.0001431,0.01645,0.001131,3.433e-05,0.1174,0.03601,1.778,0.00302,0,0,0.0003328
23700000000,24000000000,6232606948,4,1303514,0.006409,0.0163,0.01752,4.768e-05,0.0001125,0.01797,0.0007687,3.433e-05,0.1116,0.04193,2.821,0.00746,0,0,0.06262
24000000000,24300000000,6232606948,4,1303514,0.02106,0.0141,0.01532,0.0002003,0.0002918,0.01816,0.001291,3.433e-05,0.2424,0.06335,1.396,0.001126,0,0,0.001085
24300000000,24600000000,6232606948,4,1303514,0.01184,0.01584,0.01697,0.0001059,0.0001802,0.01743,0.0008078,3.433e-05,0.1538,0.03143,1.754,0.002767,0,0,0.0002651
24600000000,24900000000,6232606948,4,1303514,0.01167,0.01715,0.01837,8.011e-05,0.000164,0.0188,0.0008039,3.433e-05,0.1384,0.03204,1.84,0.002967,0,0,0.0002346
24900000000,25200000000,6232606948,4,1303514,0.01993,0.01801,0.01929,0.000123,0.000205,0.01941,0.0005646,3.433e-05,0.2395,0.04498,2.134,0.004972,0,0,0.0002565
25200000000,25500000000,6232606948,4,1303514,0.01463,0.01486,0.01617,9.155e-05,0.0001717,0.01791,0.00131,3.433e-05,0.1506,0.05707,1.894,0.003044,0,0,0.0002937
25500000000,25800000000,6232606948,4,1303514,0.01108,0.01804,0.01947,8.965e-05,0.0001755,0.0192,0.0007715,3.433e-05,0.1355,0.02664,1.935,0.002993,0,0,0.0002851
60900000000,61200000000,6232606948,4,1303514,0.02002,0.01791,0.01932,0.0001459,0.0002155,0.01959,0.0009403,3.815e-05,0.1282,0.02328,1.953,0.003141,0,0,0.0004454
61200000000,61500000000,6232606948,4,1303514,0.01877,0.01978,0.02103,0.0001802,0.0002718,0.02072,0.0006275,3.815e-05,0.2197,0.04419,1.759,0.00282,0,0,0.06323
61500000000,61800000000,6232606948,4,1303514,0.0296,0.01694,0.01819,0.000186,0.0002728,0.02173,0.001101,3.815e-05,0.2346,0.06409,1.469,0.001474,0,0,0.06335
61800000000,62100000000,6232606948,4,1303514,0.01855,0.01794,0.01929,0.000123,0.0002117,0.0202,0.0006218,3.815e-05,0.1367,0.02936,2.291,0.00453,0,0,0.02704
62100000000,62400000000,6232606948,4,1303514,0.02853,0.02228,0.02362,0.0002413,0.00033,0.02631,0.001316,3.815e-05,0.2402,0.0647,1.682,0.002101,0,0,0.0002546
62400000000,62700000000,6232606948,4,1303514,0.02197,0.01923,0.02032,9.632e-05,0.0001802,0.02332,0.0006704,3.815e-05,0.1241,0.03278,1.951,0.002976,0,0,0.0003643
62700000000,63000000000,6232606948,4,1303514,0.01321,0.01871,0.02002,0.0001411,0.0002117,0.02005,0.0006056,3.815e-05,0.1343,0.02994,1.807,0.002924,0,0,0.0003338
63000000000,63300000000,6232606948,4,1303514,0.03589,0.02084,0.022,0.0001955,0.0002766,0.02277,0.001194,3.815e-05,0.2529,0.06982,1.263,0.0007466,0,0,0.0005646
63300000000,63600000000,6232606948,4,1303514,0.02527,0.01984,0.02115,0.0001726,0.0002699,0.02148,0.000555,3.815e-05,0.1357,0.02713,1.616,0.002134,0,0,0.0004377
63600000000,63900000000,6232606948,4,1303514,0.02045,0.01938,0.02081,0.0001163,0.0002012,0.02063,0.000268,3.815e-05,0.1367,0.01314,1.922,0.003599,0,0,0.03625
63900000000,64200000000,6232606948,4,1303514,0.02371,0.0209,0.02225,0.000185,0.0002651,0.0224,0.0006618,3.815e-05,0.2468,0.03687,1.868,0.003219,0,0,0.05957
64200000000,64500000000,6232606948,4,1303514,0.0202,0.01422,0.01584,0.0002403,0.000309,0.02365,0.001455,3.91e-05,0.2192,0.06067,1.618,0.002173,0,0,0.00033
64500000000,64800000000,6232606948,4,1303514,0.02432,0.01782,0.01926,0.0001516,0.0002365,0.02011,0.0009956,3.815e-05,0.1438,0.02908,1.727,0.00288,0,0,0.000349
64800000000,65100000000,6232606948,4,1303514,0.01712,0.02029,0.02145,0.0002003,0.0002718,0.02191,0.0009661,3.815e-05,0.1348,0.03607,1.895,0.003239,0,0,0.06238
65100000000,65400000000,6232606948,4,1303514,0.02423,0.02106,0.0224,0.000392,0.0004921,0.02347,0.0007057,4.005e-05,0.2588,0.05573,1.73,0.002919,0,0,0.001207
65400000000,65700000000,6232606948,4,1303514,0.02142,0.01819,0.0195,0.0001287,0.0002117,0.02066,0.001175,3.91e-05,0.144,0.03497,1.783,0.002969,0,0,0.0007181
65700000000,66000000000,6232606948,4,1303514,0.0246,0.0217,0.02307,0.0001612,0.0002136,0.02567,0.0008612,3.91e-05,0.2393,0.03906,3.924,0.01283,0,0,0.000555
126000000000,126300000000,6232606948,4,1303514,0.01306,0.01788,0.01917,0.0002251,0.00033,0.01947,0.0004406,4.578e-05,0.1377,0.04065,1.826,0.003136,0,0,0.0004234
126300000000,126600000000,6232606948,4,1303514,0.01373,0.01318,0.01433,0.0002356,0.0003338,0.01947,0.001814,4.578e-05,0.2397,0.07373,3.466,0.01152,0,0,0.0002565
126600000000,126900000000,6232606948,4,1303514,0.008453,0.01389,0.0152,0.0001879,0.0002851,0.0159,0.0007601,4.578e-05,0.1132,0.05029,2.02,0.003666,0,0,0.0004416
126900000000,127200000000,6232606948,4,1303514,0.01237,0.01974,0.02081,0.0002518,0.0003519,0.02188,0.001034,4.578e-05,0.1558,0.04321,1.88,0.003126,0,0,0.0003757
127200000000,127500000000,6232606948,4,1303514,0.0246,0.02213,0.0231,0.0002422,0.0003529,0.02448,0.001003,4.578e-05,0.2419,0.06494,1.904,0.003225,0,0,0.005058
127500000000,127800000000,6232606948,4,1303514,0.01346,0.01834,0.01984,8.392e-05,0.0001965,0.02136,0.0004683,4.578e-05,0.1438,0.03992,3.936,0.01267,0,0,0.0003662
127800000000,128100000000,6232606948,4,1303514,0.006378,0.01727,0.01855,0.0002098,0.000309,0.01895,0.001106,4.578e-05,0.1235,0.05267,1.985,0.003454,0,0,0.0004873
128700000000,129000000000,6232606948,4,1303514,0.01486,0.0173,0.01865,0.0002403,0.0003424,0.01892,0.001101,4.578e-05,0.1519,0.06201,1.861,0.002955,0,0,0.0006037
129000000000,129300000000,6232606948,4,1303514,0.0242,0.01874,0.02011,0.0002708,0.0003738,0.02158,0.001341,4.578e-05,0.2415,0.05908,3.847,0.01251,0,0,0.0008459
129300000000,129600000000,6232606948,4,1303514,0.008392,0.01384,0.015,0.0002651,0.0003672,0.01485,0.0006418,4.578e-05,0.1255,0.03632,2.035,0.003744,0,0,0.0003548
129600000000,129900000000,6232606948,4,1303514,0.01488,0.01718,0.01855,0.0002441,0.0003386,0.01886,0.001476,4.578e-05,0.1362,0.06091,1.928,0.0033,0,0,0.000473
129900000000,130200000000,6232606948,4,1303514,0.01694,0.01883,0.02032,0.0002012,0.0003042,0.02087,0.0008669,4.578e-05,0.2332,0.04773,1.94,0.003113,0,0,0.0005741
130200000000,130500000000,6232606948,4,1303514,0.01807,0.01816,0.01978,0.0002213,0.0003319,0.02182,0.001141,4.578e-05,0.2268,0.05859,2.128,0.003895,0,0,0.000802
130500000000,130800000000,6232606948,4,1303514,0.007355,0.0181,0.01929,0.0002031,0.0003061,0.02054,0.0009594,4.578e-05,0.1024,0.05219,2.09,0.004101,0,0,0.0006084
130800000000,131100000000,6232606948,4,1303514,0.009369,0.02206,0.02335,0.0001659,0.0002565,0.02368,0.001005,4.578e-05,0.123,0.06384,1.977,0.003359,0,0,0.01521
40800000000,41100000000,6232606948,4,1303514,0.02014,0.02179,0.02301,5.627e-05,0.0001326,0.02393,0.0001717,3.529e-05,0.145,0.004997,1.384,0.001016,0,0,0.06226
41100000000,41400000000,6232606948,4,1303514,0.004738,0.01813,0.01953,2.575e-05,0.0001135,0.0202,7.725e-05,3.529e-05,0.1107,0.004356,1.787,0.003097,0,0,0.0002909
41400000000,41700000000,6232606948,4,1303514,0.01266,0.01706,0.01831,8.678e-05,0.0001726,0.01834,0.0006075,3.529e-05,0.2341,0.039,1.812,0.003031,0,0,0.0004482
41700000000,42000000000,6232606948,4,1303514,0.02032,0.01524,0.01657,0.0001888,0.000248,0.01883,0.00157,3.624e-05,0.241,0.06848,1.927,0.003148,0,0,0.0007563
42000000000,42300000000,6232606948,4,1303514,0.01207,0.01688,0.01797,8.488e-05,0.000165,0.01871,0.000824,3.529e-05,0.125,0.03638,1.792,0.003164,0,0,0.01105
42300000000,42600000000,6232606948,4,1303514,0.01413,0.0188,0.02014,0.000124,0.000206,0.02051,0.0008287,3.529e-05,0.1219,0.03296,1.83,0.003118,0,0,0.0003815
42600000000,42900000000,6232606948,4,1303514,0.02847,0.0174,0.01868,0.000164,0.0002356,0.02216,0.001476,3.624e-05,0.239,0.07935,1.888,0.003091,0,0,0.0006809
42900000000,43200000000,6232606948,4,1303514,0.01263,0.01694,0.01804,0.0001202,0.0001745,0.01907,0.000701,3.624e-05,0.1211,0.03217,1.837,0.003043,0,0,0.0005951
43200000000,43500000000,6232606948,4,1303514,0.008682,0.01898,0.02017,0.0001364,0.0001917,0.02029,0.001287,3.624e-05,0.1282,0.05084,3.715,0.01191,0,0,0.0002041
43500000000,43800000000,6232606948,4,1303514,0.02664,0.01865,0.0199,0.0001869,0.0002718,0.02103,0.001013,3.624e-05,0.2368,0.05963,1.474,0.001442,0,0,0.0006323
43800000000,44100000000,6232606948,4,1303514,0.00882,0.01712,0.01831,0.0001402,0.0002317,0.01886,0.0005045,3.624e-05,0.1038,0.03058,1.929,0.003257,0,0,0.0007219
44100000000,44400000000,6232606948,4,1303514,0.02454,0.02173,0.02298,0.0001669,0.0002384,0.02563,0.001141,3.624e-05,0.2434,0.04681,1.621,0.002463,0,0,0.0006466
44400000000,44700000000,6232606948,4,1303514,0.01593,0.01404,0.01546,0.0002403,0.0003119,0.02652,0.00178,3.624e-05,0.2295,0.05469,4.626,0.01122,0,0,0.0004559
44700000000,45000000000,6232606948,4,1303514,0.009659,0.01691,0.01819,0.0001469,0.0002394,0.01855,0.0007381,3.624e-05,0.1211,0.03717,2.341,0.004433,0,0,0.00035
45000000000,45300000000,6232606948,4,1303514,0.0195,0.01913,0.02032,7.725e-05,0.0001488,0.02066,0.001112,3.624e-05,0.135,0.04083,1.892,0.003094,0,0,0.06299
45300000000,45600000000,6232606948,4,1303514,0.02087,0.01491,0.01627,0.0001783,0.0002403,0.02176,0.00124,3.624e-05,0.2322,0.0636,1.909,0.003067,0,0,0.0005388
45600000000,45900000000,6232606948,4,1303514,0.01366,0.01624,0.0173,7.057e-05,0.0001564,0.0184,0.0006008,3.624e-05,0.1328,0.02121,1.712,0.002986,0,0,0.06299
31200000000,31500000000,6232606948,4,1303514,0.009155,0.0184,0.01978,0.0001888,0.0002651,0.01984,0.001099,3.529e-05,0.1321,0.03998,2.15,0.003903,0,0,0.06299
31500000000,31800000000,6232606948,4,1303514,0.01892,0.0173,0.01871,0.0001211,0.0002041,0.02136,0.00068,3.529e-05,0.2412,0.03876,1.831,0.003256,0,0,0.0003815
31800000000,32100000000,6232606948,4,1303514,0.007843,0.0132,0.01431,0.0001783,0.0002489,0.01549,0.0007868,3.529e-05,0.137,0.02344,1.804,0.003279,0,0,0.0008545
32100000000,32400000000,6232606948,4,1303514,0.01154,0.0163,0.01743,0.0001431,0.0002346,0.01859,0.001049,3.529e-05,0.1394,0.04126,1.727,0.002931,0,0,0.0004025
32400000000,32700000000,6232606948,4,1303514,0.01608,0.01393,0.01537,0.0001678,0.0002565,0.01877,0.001102,3.529e-05,0.2422,0.05957,1.41,0.001177,0,0,0.0005207
32700000000,33000000000,6232606948,4,1303514,0.008133,0.01537,0.01651,5.054e-05,0.0001259,0.01663,0.0006552,3.529e-05,0.1416,0.02429,3.754,0.01176,0,0,0.06219
33300000000,33600000000,6232606948,4,1303514,0.02188,0.01761,0.01895,0.0002317,0.0003157,0.0213,0.001633,3.529e-05,0.2422,0.07617,1.717,0.002737,0,0,0.0007439
33900000000,34200000000,6232606948,4,1303514,0.002274,0.01642,0.01776,6.866e-05,0.0001554,0.01791,0.0002337,3.529e-05,0.08984,0.02701,2.049,0.004313,0,0,0.000597
34200000000,34500000000,6232606948,4,1303514,0.01929,0.01752,0.01904,0.0001259,0.0002012,0.01944,0.001057,3.529e-05,0.2393,0.05273,1.992,0.003235,0,0,0.000988
34500000000,34800000000,6232606948,4,1303514,0.01273,0.01569,0.01654,9.727e-05,0.0001631,0.01746,0.001474,3.529e-05,0.1384,0.04224,1.713,0.002778,0,0,0.0001535
34800000000,35100000000,6232606948,4,1303514,0.009384,0.01755,0.01871,8.965e-05,0.0001812,0.01868,0.0005283,3.529e-05,0.1328,0.02722,1.921,0.00296,0,0,0.0001593
35100000000,35400000000,6232606948,4,1303514,0.01721,0.01445,0.01584,0.0001392,0.0002012,0.01959,0.001846,3.529e-05,0.2378,0.07446,2.254,0.005672,0,0,0.0002995
131100000000,131400000000,6232606948,4,1303514,0.0318,0.01825,0.01971,0.0002947,0.0003948,0.02628,0.001705,4.673e-05,0.2434,0.08032,1.816,0.003045,0,0,0.0002995
131400000000,131700000000,6232606948,4,1303514,0.009613,0.01733,0.01877,0.0001192,0.0002184,0.01816,0.0008926,4.578e-05,0.1499,0.04224,1.83,0.003208,0,0,0.0003605
131700000000,132000000000,6232606948,4,1303514,0.008759,0.01849,0.01968,0.0002184,0.0003157,0.02002,0.000968,4.578e-05,0.1201,0.06274,4.008,0.01401,0,0,0.0003328
132000000000,132300000000,6232606948,4,1303514,0.02341,0.01433,0.01544,0.000248,0.00035,0.0228,0.001911,4.673e-05,0.2437,0.07837,1.523,0.001683,0,0,0.0005474
132300000000,132600000000,6232606948,4,1303514,0.011,0.01581,0.01685,0.0001564,0.0002432,0.01831,0.001038,4.578e-05,0.1357,0.04572,1.895,0.003172,0,0,0.0003986
132600000000,132900000000,6232606948,4,1303514,0.0107,0.01776,0.01917,0.0002413,0.0003338,0.0195,0.001087,4.578e-05,0.1396,0.03595,2.169,0.004437,0,0,0.004265
132900000000,133200000000,6232606948,4,1303514,0.02301,0.01825,0.01938,0.000289,0.0003948,0.02097,0.001211,4.673e-05,0.2117,0.07544,2.211,0.004568,0,0,0.0006952
133200000000,133500000000,6232606948,4,1303514,0.0114,0.01666,0.0181,0.0001793,0.0002708,0.01813,0.001245,4.673e-05,0.1184,0.04694,2.096,0.003769,0,0,0.0003834
133500000000,133800000000,6232606948,4,1303514,0.01694,0.01932,0.02048,0.0001745,0.0002718,0.02054,0.001005,4.673e-05,0.1321,0.03986,1.961,0.003347,0,0,0.0005636
133800000000,134100000000,6232606948,4,1303514,0.02591,0.02094,0.022,0.0002823,0.0003929,0.02274,0.0008926,4.673e-05,0.2415,0.09314,1.413,0.001336,0,0,0.0006886
134100000000,134400000000,6232606948,4,1303514,0.01195,0.0184,0.01981,0.0001869,0.0002871,0.0213,0.001295,4.673e-05,0.1387,0.04462,4.053,0.01422,0,0,0.000721
134400000000,134700000000,6232606948,4,1303514,0.01199,0.02173,0.02316,0.0001869,0.0002842,0.02374,0.001003,4.673e-05,0.1387,0.04443,2.212,0.004224,0,0,0.0004444
134700000000,135000000000,6232606948,4,1303514,0.02856,0.02359,0.02487,0.0002451,0.000351,0.02609,0.001133,4.673e-05,0.241,0.06519,1.622,0.001953,0,0,0.2273
135000000000,135300000000,6232606948,4,1303514,0.01262,0.01782,0.01904,9.537e-05,0.0002098,0.02206,0.0003843,4.673e-05,0.1353,0.02914,2.197,0.004159,0,0,0.0002813
135300000000,135600000000,6232606948,4,1303514,0.02014,0.01959,0.02087,0.0001612,0.0002613,0.02155,0.001158,4.673e-05,0.1379,0.04895,1.864,0.003108,0,0,0.0003605
135600000000,135900000000,6232606948,4,1303514,0.02551,0.02139,0.02274,0.0002508,0.0003605,0.0238,0.0008392,4.673e-05,0.2422,0.04108,1.342,0.001024,0,0,0.0002947
135900000000,136200000000,6232606948,4,1303514,0.01883,0.01813,0.01907,0.000144,0.0002537,0.02115,0.000823,4.673e-05,0.1284,0.06567,1.823,0.003131,0,0,0.06738
55800000000,56100000000,6232606948,4,1303514,0.02808,0.0209,0.02237,0.000248,0.0003233,0.0231,0.0009699,3.719e-05,0.2383,0.07324,1.804,0.003016,0,0,0.0007105
56100000000,56400000000,6232606948,4,1303514,0.01329,0.01709,0.01819,0.0001192,0.0002079,0.02072,0.0005198,3.719e-05,0.1443,0.02216,1.826,0.002967,0,0,0.0006104
56400000000,56700000000,6232606948,4,1303514,0.01347,0.0177,0.01898,0.0001545,0.0002165,0.01941,0.001215,3.719e-05,0.1367,0.03644,1.818,0.002922,0,0,0.0004759
56700000000,57000000000,6232606948,4,1303514,0.02692,0.0202,0.02112,0.0002928,0.0003624,0.02301,0.001369,3.815e-05,0.2412,0.05756,1.443,0.001259,0,0,0.06299
57000000000,57300000000,6232606948,4,1303514,0.01862,0.0173,0.01846,0.0001297,0.0002117,0.02112,0.0008163,3.719e-05,0.1377,0.0351,1.675,0.002277,0,0,0.000246
57300000000,57600000000,6232606948,4,1303514,0.01669,0.01776,0.01898,0.0001869,0.0002708,0.01962,0.0004644,3.719e-05,0.1299,0.03265,1.83,0.003122,0,0,0.0004578
57600000000,57900000000,6232606948,4,1303514,0.02057,0.01993,0.02139,0.0001097,0.0001659,0.02179,0.0008736,3.719e-05,0.2437,0.02872,2.494,0.005034,0,0,0.0003805
57900000000,58200000000,6232606948,4,1303514,0.02426,0.01575,0.01682,0.0003815,0.0004692,0.02316,0.001291,3.815e-05,0.241,0.05383,1.567,0.001837,0,0,0.06128
58200000000,58500000000,6232606948,4,1303514,0.01434,0.01746,0.0184,0.000165,0.0002527,0.01907,0.001131,3.719e-05,0.1034,0.0401,1.895,0.003192,0,0,0.0005674
58500000000,58800000000,6232606948,4,1303514,0.0379,0.02264,0.02399,0.0001793,0.0002699,0.02618,0.001209,3.815e-05,0.2393,0.05566,1.822,0.002913,0,0,0.0005817
58800000000,59100000000,6232606948,4,1303514,0.01633,0.01831,0.01959,5.913e-05,0.0001354,0.02258,0.0003309,3.815e-05,0.1392,0.02271,1.902,0.003601,0,0,0.0625
59100000000,59400000000,6232606948,4,1303514,0.01733,0.0192,0.02054,0.0001135,0.0001593,0.02039,0.001402,3.815e-05,0.1414,0.04364,2.037,0.003876,0,0,0.000391
59400000000,59700000000,6232606948,4,1303514,0.02966,0.02075,0.02191,0.0002384,0.0003214,0.02264,0.0008097,3.815e-05,0.2407,0.03369,1.921,0.003272,0,0,0.06885
59700000000,60000000000,6232606948,4,1303514,0.02576,0.01791,0.01938,0.0001659,0.0002327,0.02023,0.00116,3.815e-05,0.1511,0.034,1.794,0.003048,0,0,0.0008717
60000000000,60300000000,6232606948,4,1303514,0.02255,0.01959,0.02103,0.0001965,0.0002804,0.02142,0.001135,3.815e-05,0.1257,0.03442,1.952,0.003265,0,0,0.06348
60300000000,60600000000,6232606948,4,1303514,0.02322,0.02115,0.02246,0.0001717,0.0002689,0.02322,0.00131,3.815e-05,0.2402,0.06604,1.533,0.001636,0,0,0.0009222
60600000000,60900000000,6232606948,4,1303514,0.02014,0.01572,0.01697,8.965e-05,0.0001659,0.02121,0.001209,3.815e-05,0.1379,0.03278,1.643,0.002287,0,0,0.06091
111000000000,111300000000,6232606948,4,1303514,0.01862,0.01831,0.01978,0.0002079,0.0003099,0.01938,0.0006971,4.482e-05,0.1543,0.03534,1.924,0.002988,0,0,0.0005074
111300000000,111600000000,6232606948,4,1303514,0.01907,0.01672,0.01785,0.0002956,0.0004091,0.02106,0.001167,4.482e-05,0.459,0.06775,1.774,0.003055,0,0,0.0004692
111600000000,111900000000,6232606948,4,1303514,0.01048,0.01479,0.01581,0.0002203,0.0003204,0.01672,0.000659,4.482e-05,0.1187,0.02765,1.917,0.003174,0,0,0.0003662
111900000000,112200000000,6232606948,4,1303514,0.007591,0.01624,0.01767,0.0002222,0.0003119,0.01736,0.001129,4.482e-05,0.1328,0.0459,1.948,0.003557,0,0,0.0003824
112200000000,112500000000,6232606948,4,1303514,0.02213,0.01736,0.01846,0.0001764,0.000289,0.02014,0.0006924,4.482e-05,0.4585,0.04865,3.925,0.01265,0,0,0.118
112500000000,112800000000,6232606948,4,1303514,0.01028,0.01685,0.01825,0.0001698,0.0002832,0.01996,0.0006952,4.482e-05,0.1299,0.04987,1.972,0.003389,0,0,0.004707
112800000000,113100000000,6232606948,4,1303514,0.009201,0.02036,0.02133,0.0001183,0.0002241,0.02121,0.0002327,4.482e-05,0.1331,0.02164,1.813,0.003293,0,0,0.0002375
113400000000,113700000000,6232606948,4,1303514,0.008179,0.01299,0.01413,0.0001822,0.0002728,0.01485,0.0008278,4.482e-05,0.1499,0.04797,3.516,0.0119,0,0,0.0005493
113700000000,114000000000,6232606948,4,1303514,0.01459,0.01617,0.01715,0.0001583,0.0002642,0.01807,0.0005045,4.482e-05,0.1543,0.04767,2.076,0.004218,0,0,0.0002384
114000000000,114300000000,6232606948,4,1303514,0.015,0.01773,0.01895,0.0001698,0.0002804,0.01923,0.0007963,4.482e-05,0.2239,0.05438,3.679,0.01263,0,0,0.05798
114300000000,114600000000,6232606948,4,1303514,0.007454,0.01314,0.0143,0.000164,0.0002594,0.01483,0.001148,4.482e-05,0.1316,0.06641,1.94,0.003702,0,0,0.000411
114600000000,114900000000,6232606948,4,1303514,0.008179,0.01578,0.01691,0.0001898,0.000288,0.01712,0.0006914,4.482e-05,0.1169,0.05872,1.841,0.003303,0,0,0.0006685
114900000000,115200000000,6232606948,4,1303514,0.03131,0.01767,0.01941,0.0002851,0.000391,0.02103,0.001493,4.482e-05,0.2017,0.07825,1.426,0.001167,0,0,0.0006905
115500000000,115800000000,6232606948,4,1303514,0.0174,0.01672,0.01804,0.0001478,0.000246,0.0188,0.00068,4.482e-05,0.1592,0.04236,1.855,0.002974,0,0,0.0003061
115800000000,116100000000,6232606948,4,1303514,0.02222,0.01904,0.0206,0.0002956,0.0004015,0.02112,0.001284,4.482e-05,0.2473,0.0791,1.737,0.002968,0,0,0.0437
81000000000,81300000000,6232606948,4,1303514,0.02643,0.01889,0.02017,0.0001249,0.0002136,0.02118,0.0006771,4.101e-05,0.2339,0.05377,1.801,0.002976,0,0,0.0002747
81300000000,81600000000,6232606948,4,1303514,0.0228,0.01483,0.01627,0.0001211,0.000205,0.02118,0.001026,4.101e-05,0.1309,0.04321,1.678,0.002704,0,0,0.06116
81600000000,81900000000,6232606948,4,1303514,0.01614,0.01755,0.01883,5.341e-05,0.0001411,0.01886,0.0004377,4.101e-05,0.1482,0.03864,1.834,0.003218,0,0,0.06219
81900000000,82200000000,6232606948,4,1303514,0.01498,0.01895,0.0202,0.0001049,0.0001898,0.02014,0.0004349,4.101e-05,0.1414,0.0253,1.824,0.003079,0,0,0.0004511
82200000000,82500000000,6232606948,4,1303514,0.02496,0.01566,0.01675,0.0001745,0.0002432,0.02026,0.001568,4.101e-05,0.2429,0.06158,3.529,0.01132,0,0,0.052
82500000000,82800000000,6232606948,4,1303514,0.01694,0.01614,0.01733,9.537e-05,0.0001936,0.01788,0.0003824,4.101e-05,0.135,0.01608,1.929,0.003652,0,0,0.0004625
82800000000,83100000000,6232606948,4,1303514,0.01608,0.01837,0.01965,0.0001059,0.0001812,0.01993,0.0006905,4.101e-05,0.1299,0.02356,1.831,0.003095,0,0,0.001036
83100000000,83400000000,6232606948,4,1303514,0.0318,0.01871,0.02032,0.0001621,0.0002451,0.02124,0.0008421,4.101e-05,0.2405,0.0495,1.385,0.00121,0,0,0.0004644
83400000000,83700000000,6232606948,4,1303514,0.01006,0.01639,0.01761,7.82e-05,0.0001431,0.01797,0.0004921,4.101e-05,0.1475,0.05573,1.758,0.002868,0,0,0.000699
83700000000,84000000000,6232606948,4,1303514,0.02441,0.02072,0.02209,0.0001402,0.0002232,0.02423,0.001326,4.101e-05,0.1428,0.03339,1.77,0.003008,0,0,0.0007029
84000000000,84300000000,6232606948,4,1303514,0.03308,0.01758,0.01898,0.0002155,0.0003004,0.02634,0.00164,4.196e-05,0.241,0.06995,1.389,0.001132,0,0,0.23
84300000000,84600000000,6232606948,4,1303514,0.01422,0.01675,0.01794,0.0001354,0.0002193,0.01819,0.001184,4.101e-05,0.1431,0.03473,1.772,0.002972,0,0,0.0007448
84600000000,84900000000,6232606948,4,1303514,0.02106,0.01874,0.02017,0.0001507,0.0002222,0.02023,0.0007954,4.101e-05,0.1382,0.0285,1.867,0.002775,0,0,0.0006456
84900000000,85200000000,6232606948,4,1303514,0.02817,0.01773,0.01923,0.0001936,0.0002766,0.02118,0.001253,4.196e-05,0.2439,0.0647,1.775,0.002955,0,0,0.000927
85200000000,85500000000,6232606948,4,1303514,0.01782,0.01672,0.01782,0.0001068,0.0001917,0.01898,0.0004396,4.101e-05,0.1243,0.02823,1.818,0.003059,0,0,0.0006599
85500000000,85800000000,6232606948,4,1303514,0.01546,0.01855,0.01971,0.0001278,0.0002022,0.01993,0.0009098,4.196e-05,0.1318,0.04431,1.872,0.003215,0,0,0.0007668
156000000000,156300000000,6232606948,4,1303514,0.01965,0.01944,0.02078,0.0001707,0.0002823,0.02356,0.0009012,4.959e-05,0.1301,0.05212,1.755,0.003006,0,0,0.0002718
156300000000,156600000000,6232606948,4,1303514,0.01242,0.0191,0.02072,0.0001926,0.0002975,0.02051,0.001057,4.959e-05,0.1021,0.04797,1.838,0.003235,0,0,0.001026
156600000000,156900000000,6232606948,4,1303514,0.02118,0.02063,0.02191,0.0003023,0.0004005,0.0228,0.001778,4.959e-05,0.2461,0.09924,1.897,0.003192,0,0,0.0003109
156900000000,157200000000,6232606948,4,1303514,0.02127,0.01746,0.01883,0.0001497,0.0002594,0.02106,0.0007935,4.959e-05,0.1418,0.03296,2.043,0.003881,0,0,0.0006208
157200000000,157500000000,6232606948,4,1303514,0.01718,0.01874,0.01984,0.0002031,0.0003071,0.02002,0.0005732,4.959e-05,0.1353,0.04407,1.822,0.003064,0,0,0.06323
157500000000,157800000000,6232606948,4,1303514,0.02277,0.02048,0.02191,0.0001917,0.0002842,0.02237,0.001823,4.959e-05,0.2141,0.07312,1.859,0.003124,0,0,0.0005941
157800000000,158100000000,6232606948,4,1303514,0.01892,0.01801,0.01932,0.0002136,0.0003242,0.0235,0.001051,4.959e-05,0.2234,0.06274,1.423,0.001104,0,0,0.0004988
158100000000,158400000000,6232606948,4,1303514,0.02267,0.01672,0.01797,0.0001822,0.0002871,0.01923,0.0006876,4.959e-05,0.1401,0.04352,1.969,0.003259,0,0,0.0004168
158400000000,158700000000,6232606948,4,1303514,0.01855,0.01974,0.02081,0.0001335,0.0001869,0.02142,0.0009956,4.959e-05,0.1326,0.02707,1.891,0.003119,0,0,0.06335
158700000000,159000000000,6232606948,4,1303514,0.03662,0.02069,0.02203,0.0002737,0.0003538,0.0239,0.001127,4.959e-05,0.2405,0.05542,1.748,0.00302,0,0,0.0005789
159000000000,159300000000,6232606948,4,1303514,0.01414,0.01779,0.01904,0.0001383,0.0002165,0.01947,0.001225,4.959e-05,0.1309,0.03308,4.029,0.01318,0,0,0.0003662
159300000000,159600000000,6232606948,4,1303514,0.02927,0.02228,0.02356,0.000289,0.0003681,0.02634,0.001675,5.054e-05,0.2427,0.06848,1.695,0.002306,0,0,0.0006685
159600000000,159900000000,6232606948,4,1303514,0.02505,0.02005,0.0213,6.58e-05,0.0001602,0.02322,0.0004377,4.959e-05,0.1477,0.03424,1.777,0.00305,0,0,0.0009861
159900000000,160200000000,6232606948,4,1303514,0.02121,0.0199,0.02118,0.0001211,0.0001974,0.02191,0.000845,4.959e-05,0.1299,0.03497,1.787,0.003063,0,0,0.08118
160200000000,160500000000,6232606948,4,1303514,0.0304,0.02188,0.0231,0.0002098,0.0002832,0.02435,0.001087,5.054e-05,0.4702,0.06116,1.41,0.001328,0,0,0.06287
160500000000,160800000000,6232606948,4,1303514,0.02005,0.01843,0.01974,0.0001307,0.0002184,0.02206,0.0008583,4.959e-05,0.1401,0.03064,1.274,0.0007388,0,0,0.06274
160800000000,161100000000,6232606948,4,1303514,0.01654,0.01831,0.01956,0.000165,0.0002403,0.01968,0.0008392,4.959e-05,0.1533,0.04242,2.169,0.003477,0,0,0.06274
600000000,900000000,6232606948,4,1303514,0.01636,0.01825,0.01965,0.0002747,0.0003653,0.01999,0.0008669,3.147e-05,0.2424,0.0647,3.747,0.01146,0,0,0.0006828
900000000,1200000000,6232606948,4,1303514,0.009338,0.01639,0.01743,0.0002356,0.0003185,0.01721,9.632e-05,3.147e-05,0.1375,0.003071,1.713,0.002754,0,0,0.004318
1200000000,1500000000,6232606948,4,1303514,0.01578,0.01746,0.01877,0.0001202,0.0001955,0.01956,0.0008621,3.147e-05,0.1409,0.0481,1.838,0.00306,0,0,0.06299
1500000000,1800000000,6232606948,4,1303514,0.02115,0.01944,0.02075,0.0001745,0.0002642,0.02051,0.001404,3.147e-05,0.2478,0.08997,1.248,0.0005652,0,0,0.0002718
1800000000,2100000000,6232606948,4,1303514,0.01682,0.01752,0.01868,0.0001278,0.0002174,0.01877,0.0002213,3.147e-05,0.1487,0.017,1.869,0.003108,0,0,0.0003061
2100000000,2400000000,6232606948,4,1303514,0.01306,0.01691,0.01831,8.869e-05,0.0001717,0.01785,0.0003529,3.147e-05,0.1241,0.01901,2.021,0.00376,0,0,0.0005598
2400000000,2700000000,6232606948,4,1303514,0.02008,0.01846,0.01944,9.918e-05,0.0001802,0.02072,0.0008383,3.147e-05,0.2419,0.0481,1.592,0.002379,0,0,0.2346
2700000000,3000000000,6232606948,4,1303514,0.0163,0.01596,0.01712,0.0001202,0.0002108,0.01877,0.001146,3.147e-05,0.1333,0.03644,1.894,0.003342,0,0,0.0003099
3000000000,3300000000,6232606948,4,1303514,0.01688,0.01663,0.01794,0.0001392,0.0002317,0.01813,0.0009937,3.147e-05,0.1436,0.02878,1.806,0.002956,0,0,0.0006704
3300000000,3600000000,6232606948,4,1303514,0.01746,0.01746,0.01868,0.0001526,0.0002356,0.01859,0.0005655,3.242e-05,0.2378,0.04956,1.858,0.003299,0,0,0.06274
3600000000,3900000000,6232606948,4,1303514,0.007301,0.01396,0.01509,0.000104,0.0001888,0.01721,0.0006018,3.242e-05,0.1091,0.03284,1.67,0.002627,0,0,0.0002718
3900000000,4200000000,6232606948,4,1303514,0.02124,0.01556,0.01672,0.0001755,0.000267,0.01743,0.001316,3.242e-05,0.1443,0.03998,1.763,0.002944,0,0,0.004143
4200000000,4500000000,6232606948,4,1303514,0.02231,0.0174,0.01874,0.0001526,0.0002117,0.01871,0.001186,3.242e-05,0.2429,0.05579,1.559,0.001725,0,0,0.06238
4500000000,4800000000,6232606948,4,1303514,0.01459,0.0174,0.01886,0.0001459,0.0002451,0.01791,0.0004444,3.242e-05,0.1423,0.02441,1.734,0.002561,0,0,0.0003185
4800000000,5100000000,6232606948,4,1303514,0.01318,0.01779,0.01883,0.0001307,0.0002327,0.01993,0.000638,3.242e-05,0.1462,0.04285,1.855,0.003291,0,0,0.0002155
5100000000,5400000000,6232606948,4,1303514,0.02197,0.01978,0.02103,0.0001011,0.0001783,0.02243,0.0004816,3.242e-05,0.2427,0.03424,2.135,0.004076,0,0,0.0006189
5400000000,5700000000,6232606948,4,1303514,0.01343,0.01923,0.02032,2.67e-05,0.0001087,0.02097,0.0003824,3.242e-05,0.1453,0.03912,2.7,0.008229,0,0,0.0004396
116100000000,116400000000,6232606948,4,1303514,0.0004101,0.017,0.01813,0.0001535,0.0002604,0.01926,2.956e-05,4.482e-05,0.004623,0.005646,3.089,0.01002,0,0,0.0003777
116700000000,117000000000,6232606948,4,1303514,0.02441,0.0177,0.01892,0.0002851,0.0003843,0.02161,0.001818,4.482e-05,0.2129,0.07263,1.248,0.0006437,0,0,0.07703
117000000000,117300000000,6232606948,4,1303514,0.01523,0.01788,0.01953,0.0001211,0.0002289,0.02002,0.0007076,4.482e-05,0.1362,0.06616,1.583,0.002331,0,0,0.006248
117600000000,117900000000,6232606948,4,1303514,0.008575,0.01932,0.02048,0.0001478,0.0002537,0.02075,0.0002203,4.482e-05,0.1292,0.00914,1.999,0.004233,0,0,0.0006266
117900000000,118200000000,6232606948,4,1303514,0.017,0.01874,0.02011,0.0001822,0.0003004,0.02142,0.0005808,4.482e-05,0.2261,0.04034,1.24,0.0006336,0,0,0.001467
118200000000,118500000000,6232606948,4,1303514,0.01028,0.01599,0.01715,0.0001373,0.000247,0.01724,0.000514,4.482e-05,0.1372,0.04785,1.783,0.003252,0,0,0.0005484
118800000000,119100000000,6232606948,4,1303514,0.02304,0.01715,0.01852,0.000186,0.0002909,0.01965,0.00139,4.482e-05,0.2393,0.08118,3.887,0.01222,0,0,0.05005
119400000000,119700000000,6232606948,4,1303514,0.007477,0.01724,0.01852,0.0001478,0.0002489,0.01947,0.0009308,4.482e-05,0.1406,0.0506,1.952,0.003367,0,0,0.0542
119700000000,120000000000,6232606948,4,1303514,0.02814,0.01736,0.0188,0.0002213,0.0003233,0.02197,0.001751,4.482e-05,0.2358,0.08167,1.943,0.00309,0,0,0.0002213
120000000000,120300000000,6232606948,4,1303514,0.006683,0.0159,0.01721,0.000165,0.0002661,0.01764,0.0008583,4.482e-05,0.1479,0.04987,2.061,0.004148,0,0,0.0005779
120600000000,120900000000,6232606948,4,1303514,0.01791,0.01485,0.01608,0.0001965,0.0003014,0.02032,0.001286,4.578e-05,0.4634,0.07141,1.349,0.0011,0,0,0.003704
15900000000,16200000000,6232606948,4,1303514,0.01224,0.01483,0.01596,0.0001268,0.0002136,0.01605,0.0007839,3.338e-05,0.1375,0.02573,1.819,0.003244,0,0,0.0006008
16200000000,16500000000,6232606948,4,1303514,0.008865,0.01578,0.01718,4.387e-05,0.0001049,0.0177,0.0001421,3.338e-05,0.1178,0.008789,3.176,0.009631,0,0,0.0005283
16800000000,17100000000,6232606948,4,1303514,0.01596,0.01518,0.0162,0.000144,0.0002413,0.01678,0.0007944,3.338e-05,0.1248,0.02722,1.812,0.003064,0,0,0.0003519
17400000000,17700000000,6232606948,4,1303514,0.01801,0.01764,0.01901,7.534e-05,0.0001678,0.0202,0.0005903,3.338e-05,0.2446,0.05536,1.739,0.002857,0,0,0.0001583
17700000000,18000000000,6232606948,4,1303514,0.0134,0.01355,0.01469,8.297e-05,0.0001335,0.01605,0.0007677,3.338e-05,0.135,0.04211,1.741,0.002814,0,0,0.01382
18000000000,18300000000,6232606948,4,1303514,0.007713,0.01581,0.01706,0.0001011,0.0001841,0.01694,0.0004797,3.338e-05,0.1147,0.026,1.731,0.00275,0,0,0.0002537
18300000000,18600000000,6232606948,4,1303514,0.02005,0.01773,0.0192,6.58e-05,0.0001659,0.01935,0.0003614,3.338e-05,0.2363,0.03162,1.941,0.00362,0,0,0.0006819
18600000000,18900000000,6232606948,4,1303514,0.007248,0.01437,0.01559,5.054e-05,0.0001354,0.01727,0.0004492,3.338e-05,0.1218,0.04785,1.758,0.002834,0,0,0.06348
18900000000,19200000000,6232606948,4,1303514,0.01018,0.0166,0.01782,6.866e-05,0.0001307,0.01868,0.0008774,3.338e-05,0.1056,0.02979,1.68,0.002637,0,0,0.0002594
19200000000,19500000000,6232606948,4,1303514,0.02048,0.01935,0.02075,0.0001421,0.0002279,0.02109,0.0007753,3.338e-05,0.241,0.05579,1.809,0.003188,0,0,0.0005875
19500000000,19800000000,6232606948,4,1303514,0.02444,0.01624,0.01749,0.0001125,0.0002127,0.01904,0.0006227,3.338e-05,0.1431,0.04303,1.86,0.003071,0,0,0.06262
19800000000,20100000000,6232606948,4,1303514,0.01358,0.01706,0.01828,7.057e-05,0.0001411,0.01883,0.0003624,3.338e-05,0.1301,0.02951,1.892,0.003359,0,0,0.0003262
20100000000,20400000000,6232606948,4,1303514,0.02078,0.01672,0.01785,0.0002127,0.0002947,0.02203,0.001144,3.433e-05,0.2417,0.06848,1.885,0.003323,0,0,0.0006428
20400000000,20700000000,6232606948,4,1303514,0.015,0.01407,0.01535,7.82e-05,0.0001411,0.01569,0.001186,3.433e-05,0.1345,0.04657,1.694,0.00263,0,0,0.0001745
36300000000,36600000000,6232606948,4,1303514,0.007797,0.01413,0.01559,8.488e-05,0.0001612,0.01666,0.0008335,3.529e-05,0.1282,0.04095,1.763,0.003143,0,0,0.0003281
37200000000,37500000000,6232606948,4,1303514,0.009995,0.01859,0.01993,8.011e-05,0.0001736,0.02023,0.000309,3.529e-05,0.1191,0.02536,1.773,0.00305,0,0,0.06219
37500000000,37800000000,6232606948,4,1303514,0.0162,0.01712,0.01825,0.0001411,0.0002079,0.01889,0.000639,3.529e-05,0.1249,0.01978,1.711,0.002841,0,0,0.04846
37800000000,38100000000,6232606948,4,1303514,0.01929,0.01837,0.01978,0.000226,0.0003176,0.02136,0.00124,3.529e-05,0.249,0.05267,1.883,0.003517,0,0,0.06244
38100000000,38400000000,6232606948,4,1303514,0.007843,0.01164,0.0128,0.0001192,0.0002079,0.01442,0.001049,3.529e-05,0.1187,0.0567,2.082,0.003418,0,0,0.0002851
38400000000,38700000000,6232606948,4,1303514,0.009399,0.01495,0.01596,0.0001049,0.0001516,0.01743,0.0009079,3.529e-05,0.1185,0.04456,1.847,0.003208,0,0,0.0003414
38700000000,39000000000,6232606948,4,1303514,0.00827,0.017,0.01846,0.0001135,0.0001822,0.01816,0.001041,3.529e-05,0.1304,0.03802,1.882,0.003118,0,0,0.06323
39000000000,39300000000,6232606948,4,1303514,0.01587,0.01071,0.0119,0.0001726,0.0002813,0.01843,0.0007124,3.529e-05,0.46,0.03339,1.374,0.0008696,0,0,0.0002041
39300000000,39600000000,6232606948,4,1303514,0.009369,0.01414,0.01535,0.0001135,0.0001831,0.01636,0.000289,3.529e-05,0.1287,0.01978,4.11,0.0138,0,0,0.0003757
39600000000,39900000000,6232606948,4,1303514,0.01068,0.01691,0.01797,5.913e-05,0.0001364,0.0188,0.000659,3.529e-05,0.1301,0.03528,2.368,0.005109,0,0,0.0002203
39900000000,40200000000,6232606948,4,1303514,0.0217,0.01241,0.01376,0.0001402,0.0002155,0.0206,0.001554,3.529e-05,0.2249,0.04926,1.833,0.002871,0,0,0.2068
40200000000,40500000000,6232606948,4,1303514,0.02219,0.01678,0.01794,0.0001698,0.0002489,0.02087,0.0006742,3.529e-05,0.1255,0.03485,1.77,0.002954,0,0,0.06287
40500000000,40800000000,6232606948,4,1303514,0.0249,0.02194,0.02313,0.000205,0.000288,0.02628,0.001017,3.624e-05,0.2383,0.07251,1.294,0.0007485,0,0,0.2275
75900000000,76200000000,6232606948,4,1303514,0.0242,0.0188,0.02023,0.0002584,0.0003223,0.02167,0.0009575,4.005e-05,0.2424,0.0545,1.752,0.003091,0,0,0.0004225
76200000000,76500000000,6232606948,4,1303514,0.01358,0.01654,0.01785,0.000123,0.0002012,0.01825,0.0004549,4.005e-05,0.1323,0.03778,1.815,0.003054,0,0,0.0003738
76500000000,76800000000,6232606948,4,1303514,0.03943,0.01965,0.02094,0.0001736,0.0002718,0.02606,0.0009489,4.005e-05,0.2417,0.04126,1.877,0.003081,0,0,0.0625
76800000000,77100000000,6232606948,4,1303514,0.021,0.01617,0.01791,7.725e-05,0.000144,0.02414,0.0008574,4.005e-05,0.1619,0.04053,1.843,0.002953,0,0,0.0625
77100000000,77400000000,6232606948,4,1303514,0.0209,0.0192,0.02045,9.537e-05,0.0001831,0.0209,0.001019,4.005e-05,0.1282,0.03571,1.761,0.002799,0,0,0.0006075
77400000000,77700000000,6232606948,4,1303514,0.01529,0.02094,0.02219,0.0001421,0.0002289,0.0217,0.0008059,4.005e-05,0.1287,0.0307,3.936,0.01312,0,0,0.001823
77700000000,78000000000,6232606948,4,1303514,0.03723,0.02032,0.02173,0.0002794,0.0003567,0.02274,0.001053,4.101e-05,0.2439,0.05841,1.379,0.001223,0,0,0.06287
78000000000,78300000000,6232606948,4,1303514,0.01633,0.01785,0.0195,0.0001001,0.000186,0.01996,0.0009451,4.005e-05,0.125,0.04962,1.813,0.003225,0,0,0.06219
78300000000,78600000000,6232606948,4,1303514,0.01509,0.01968,0.02087,0.0001497,0.0002279,0.02094,0.001095,4.005e-05,0.1249,0.04559,1.939,0.003853,0,0,0.0005836
78600000000,78900000000,6232606948,4,1303514,0.03107,0.01627,0.0177,0.0002337,0.0003328,0.02274,0.00172,4.101e-05,0.2393,0.06873,3.234,0.009907,0,0,0.0005083
78900000000,79200000000,6232606948,4,1303514,0.02081,0.01794,0.01917,0.0001926,0.000288,0.01993,0.0006294,4.101e-05,0.1309,0.03271,1.906,0.003404,0,0,0.06287
79200000000,79500000000,6232606948,4,1303514,0.01195,0.01941,0.0206,0.0001917,0.0002546,0.02081,0.00123,4.101e-05,0.1353,0.03497,1.93,0.003449,0,0,0.0003567
79500000000,79800000000,6232606948,4,1303514,0.02841,0.01575,0.01703,0.0001259,0.0002146,0.01984,0.001402,4.101e-05,0.24,0.06287,1.407,0.001261,0,0,0.06299
79800000000,80100000000,6232606948,4,1303514,0.01749,0.01715,0.01822,9.346e-05,0.0001869,0.0191,0.0006676,4.101e-05,0.126,0.03085,1.76,0.003046,0,0,0.0009499
80100000000,80400000000,6232606948,4,1303514,0.02942,0.02115,0.02219,0.0002165,0.0002728,0.02652,0.001324,4.101e-05,0.2554,0.03955,1.235,0.0005905,0,0,0.000432
80400000000,80700000000,6232606948,4,1303514,0.01804,0.01965,0.02112,7.153e-05,0.0001459,0.02435,0.0007629,4.101e-05,0.1375,0.03043,1.52,0.001971,0,0,0.001421
80700000000,81000000000,6232606948,4,1303514,0.01999,0.01721,0.0184,0.000144,0.0002527,0.01877,0.0004435,4.101e-05,0.147,0.02216,1.808,0.003101,0,0,0.06183
10800000000,11100000000,6232606948,4,1303514,0.02798,0.0184,0.01947,0.0001755,0.0002546,0.02063,0.001106,3.338e-05,0.2439,0.05792,1.281,0.0007017,0,0,0.0003567
11100000000,11400000000,6232606948,4,1303514,0.0181,0.01712,0.01828,9.06e-05,0.0001802,0.01837,0.0002089,3.242e-05,0.1426,0.008713,1.846,0.002902,0,0,0.000515
11400000000,11700000000,6232606948,4,1303514,0.01457,0.0163,0.01779,0.0001335,0.0002308,0.01871,0.0007019,3.338e-05,0.1221,0.03571,2.065,0.004073,0,0,0.0003643
11700000000,12000000000,6232606948,4,1303514,0.03259,0.02072,0.02167,0.0001526,0.0002232,0.02277,0.0008898,3.338e-05,0.2563,0.04492,1.868,0.003313,0,0,0.0004873
12000000000,12300000000,6232606948,4,1303514,0.00914,0.01907,0.02036,9.632e-05,0.0001659,0.02069,0.0004034,3.338e-05,0.1206,0.02313,1.895,0.003015,0,0,0.004463
12300000000,12600000000,6232606948,4,1303514,0.02597,0.01685,0.01822,0.0001316,0.0002003,0.01797,0.0005493,3.338e-05,0.1484,0.03784,1.904,0.002957,0,0,0.06049
12600000000,12900000000,6232606948,4,1303514,0.02206,0.01834,0.01959,0.0001431,0.0002193,0.0206,0.0008936,3.338e-05,0.2412,0.06653,1.745,0.002559,0,0,0.0001955
12900000000,13200000000,6232606948,4,1303514,0.02332,0.01654,0.01764,5.913e-05,0.0001526,0.01889,0.0007629,3.338e-05,0.1382,0.04102,1.783,0.002574,0,0,0.06287
13200000000,13500000000,6232606948,4,1303514,0.01672,0.01709,0.01883,0.0001163,0.0001974,0.01843,0.0008898,3.338e-05,0.1462,0.03485,1.931,0.002913,0,0,0.0003719
13500000000,13800000000,6232606948,4,1303514,0.02097,0.01779,0.01923,0.000144,0.0002203,0.01935,0.001194,3.338e-05,0.2646,0.07397,1.672,0.00292,0,0,0.0005913
13800000000,14100000000,6232606948,4,1303514,0.01366,0.01724,0.01862,8.202e-05,0.0001917,0.01852,0.0001259,3.338e-05,0.147,0.004425,3.306,0.01029,0,0,0.0003901
14100000000,14400000000,6232606948,4,1303514,0.009277,0.01488,0.01627,0.0001068,0.0001898,0.01691,0.00127,3.338e-05,0.1031,0.0379,2.034,0.003325,0,0,0.0005369
14400000000,14700000000,6232606948,4,1303514,0.01831,0.01712,0.01831,0.0001078,0.0001841,0.01843,0.0005646,3.338e-05,0.2329,0.01843,3.778,0.01154,0,0,0.0003548
14700000000,15000000000,6232606948,4,1303514,0.01886,0.0174,0.01862,8.678e-05,0.0001812,0.01959,0.0004568,3.338e-05,0.2393,0.0379,1.56,0.001799,0,0,0.0003538
15000000000,15300000000,6232606948,4,1303514,0.009064,0.01498,0.01614,6.866e-05,0.0001669,0.01627,0.0004358,3.338e-05,0.1106,0.01935,1.978,0.003001,0,0,0.0005007
15300000000,15600000000,6232606948,4,1303514,0.01457,0.01917,0.02036,0.0001183,0.0001717,0.02151,0.001074,3.338e-05,0.1257,0.02844,3.376,0.01007,0,0,0.0001469
15600000000,15900000000,6232606948,4,1303514,0.02029,0.01895,0.02026,0.0001402,0.0002289,0.02316,0.0008001,3.338e-05,0.24,0.05505,1.757,0.002937,0,0,0.0005789
