5700000000,6000000000,6239416246,79,908016,0.0001593,0.007507,0.008499,6.294e-05,0.0001478,0.009171,3.433e-05,6.676e-06,0.001648,0.001928,2.348,0.00725,0,0,8.392e-05
6000000000,6300000000,6239416246,79,908016,0.0001364,0.006798,0.007774,6.294e-05,0.0001478,0.006798,3.242e-05,6.676e-06,0.001709,0.001429,2.334,0.007347,0,0,4.959e-05
6300000000,6600000000,6239416246,79,908016,0.05286,0.0106,0.01205,0.001459,0.001543,0.02548,0.005104,1.144e-05,0.3594,0.05646,0.9628,0.001098,0,0,6.104e-05
6600000000,6900000000,6239416246,79,908016,0.008163,0.01309,0.01443,7.248e-05,0.0001574,0.01501,0.0003786,6.676e-06,0.3101,0.02393,0.9934,0.001226,0,0,5.054e-05
6900000000,7200000000,6239416246,79,908016,0.004234,0.009354,0.01047,6.39e-05,0.0001497,0.01135,0.0001764,6.676e-06,0.2964,0.01529,2.629,0.008777,0,0,3.338e-05
7200000000,7500000000,6239416246,79,908016,0.0001402,0.006866,0.007774,5.913e-05,0.0001459,0.007149,2.861e-05,6.676e-06,0.001831,0.0009995,2.263,0.007102,0,0,9.727e-05
7500000000,7800000000,6239416246,79,908016,0.0001383,0.006851,0.007774,5.913e-05,0.0001459,0.006851,2.289e-05,6.676e-06,0.001526,0.001215,2.323,0.007373,0,0,6.866e-05
8100000000,8400000000,6239416246,79,908016,0.0001373,0.006859,0.007774,6.771e-05,0.0001554,0.006859,2.384e-05,6.676e-06,0.001587,0.0009289,2.276,0.007014,0,0,6.866e-05
8400000000,8700000000,6239416246,79,908016,0.0001354,0.006859,0.007774,6.771e-05,0.0001554,0.006859,2.289e-05,6.676e-06,0.001709,0.001072,2.324,0.007045,0,0,0.0001554
8700000000,9000000000,6239416246,79,908016,0.02719,0.009583,0.01085,0.0003119,0.0003948,0.01691,0.002285,7.629e-06,0.3633,0.05701,1.252,0.002119,0,0,0.2974
9000000000,9300000000,6239416246,79,908016,0.0001593,0.009628,0.01085,0.0001354,0.0002193,0.01175,2.193e-05,7.629e-06,0.001526,0.0003567,2.723,0.008553,0,0,7.439e-05
9300000000,9600000000,6239416246,79,908016,0.004166,0.00695,0.007889,9.823e-05,0.0001831,0.00798,0.0001907,7.629e-06,0.2817,0.01521,2.425,0.007616,0,0,6.771e-05
9600000000,9900000000,6239416246,79,908016,0.0001373,0.006859,0.007774,7.057e-05,0.0001554,0.006859,3.052e-05,7.629e-06,0.001709,0.0008574,2.329,0.007053,0,0,4.864e-05
9900000000,10200000000,6239416246,79,908016,0.0001402,0.006851,0.007774,7.057e-05,0.0001554,0.006859,2.861e-05,7.629e-06,0.001587,0.001499,2.307,0.007086,0,0,8.488e-05
10200000000,10500000000,6239416246,79,908016,0.004929,0.006859,0.007889,4.387e-05,0.0001287,0.007965,0.0002327,7.629e-06,0.2803,0.01578,2.563,0.008157,0,0,7.82e-05
10500000000,10800000000,6239416246,79,908016,0.0289,0.009293,0.01047,0.0002861,0.0003691,0.01627,0.002075,7.629e-06,0.395,0.05731,1.187,0.001861,0,0,7.534e-05
10800000000,11100000000,6239416246,79,908016,0.0001717,0.009399,0.01053,0.0001268,0.0002117,0.01152,3.147e-05,7.629e-06,0.001709,0.001999,2.804,0.009102,0,0,8.678e-05
11100000000,11400000000,6239416246,79,908016,0.0001431,0.006958,0.007774,0.0001287,0.0002155,0.007141,4.101e-05,7.629e-06,0.001587,0.001572,2.276,0.006998,0,0,8.106e-05
11400000000,11700000000,6239416246,79,908016,0.0001383,0.00695,0.007774,0.0001287,0.0002155,0.006958,3.624e-05,7.629e-06,0.001648,0.001429,2.393,0.007413,0,0,4.864e-05
11700000000,12000000000,6239416246,79,908016,0.0001383,0.00695,0.007774,0.0001297,0.0002174,0.00695,3.433e-05,7.629e-06,0.001648,0.002213,2.324,0.007444,0,0,6.676e-05
12000000000,12300000000,6239416246,79,908016,0.005714,0.006897,0.007904,8.106e-05,0.0001717,0.008148,0.0002356,7.629e-06,0.2954,0.02307,2.398,0.007659,0,0,7.153e-05
12300000000,12600000000,6239416246,79,908016,0.0001326,0.006836,0.007774,5.913e-05,0.0001497,0.006836,4.101e-05,7.629e-06,0.001526,0.003284,2.211,0.006909,0,0,7.153e-05
12600000000,12900000000,6239416246,79,908016,0.0001259,0.006836,0.007774,6.485e-05,0.0001554,0.006836,3.242e-05,7.629e-06,0.001404,0.001785,2.11,0.00662,0,0,5.15e-05
12900000000,13200000000,6239416246,79,908016,0.0343,0.01134,0.01262,0.0004625,0.0005474,0.01959,0.003922,8.583e-06,0.373,0.06433,4.748,0.01499,0,0,0.2803
13200000000,13500000000,6239416246,79,908016,0.0001535,0.008636,0.009766,6.294e-05,0.0001478,0.01082,2.861e-05,7.629e-06,0.001587,0.001215,2.176,0.006657,0,0,0.0001936
13500000000,13800000000,6239416246,79,908016,0.0001316,0.006866,0.007774,6.294e-05,0.0001488,0.006866,2.003e-05,7.629e-06,0.001709,0.0004282,2.123,0.006524,0,0,3.719e-05
13800000000,14100000000,6239416246,79,908016,0.0001516,0.006866,0.007774,6.58e-05,0.0001516,0.006866,3.338e-05,7.629e-06,0.001831,0.002785,2.444,0.007182,0,0,5.436e-05
14100000000,14400000000,6239416246,79,908016,0.0001516,0.006866,0.007774,6.771e-05,0.0001535,0.006866,2.384e-05,7.629e-06,0.001831,0.0007858,2.432,0.0072,0,0,7.057e-05
14400000000,14700000000,6239416246,79,908016,0.0001354,0.006859,0.007774,6.771e-05,0.0001535,0.006859,1.907e-05,7.629e-06,0.001709,0.0002861,2.237,0.006924,0,0,4.196e-05
14700000000,15000000000,6239416246,79,908016,0.0001335,0.006866,0.007774,6.866e-05,0.0001545,0.006866,2.193e-05,7.629e-06,0.001709,0.001072,2.227,0.006893,0,0,3.529e-05
15000000000,15300000000,6239416246,79,908016,0.0001335,0.006866,0.007774,6.866e-05,0.0001545,0.006866,2.67e-05,7.629e-06,0.001831,0.0009995,2.266,0.007048,0,0,0.0001221
15300000000,15600000000,6239416246,79,908016,0.0001316,0.006866,0.007774,6.962e-05,0.0001545,0.006866,2.384e-05,7.629e-06,0.00177,0.001286,2.26,0.006808,0,0,5.245e-05
15600000000,15900000000,6239416246,79,908016,0.0001297,0.006866,0.007774,6.962e-05,0.0001554,0.006866,3.147e-05,7.629e-06,0.001709,0.0009995,2.258,0.006992,0,0,5.15e-05
15900000000,16200000000,6239416246,79,908016,0.0001297,0.006859,0.007774,6.962e-05,0.0001554,0.006866,2.384e-05,7.629e-06,0.001648,0.0005713,2.187,0.006879,0,0,8.869e-05
16200000000,16500000000,6239416246,79,908016,0.0001268,0.006859,0.007774,7.057e-05,0.0001564,0.006859,2.003e-05,7.629e-06,0.001526,0.0003567,2.21,0.006909,0,0,7.915e-05
16500000000,16800000000,6239416246,79,908016,0.0001345,0.006851,0.007774,7.057e-05,0.0001564,0.006866,2.098e-05,7.629e-06,0.001587,0.0005713,2.24,0.006879,0,0,4.959e-05
16800000000,17100000000,6239416246,79,908016,0.0001249,0.006851,0.007774,7.057e-05,0.0001564,0.006851,1.907e-05,7.629e-06,0.001465,0.0002861,2.17,0.006741,0,0,5.054e-05
17100000000,17400000000,6239416246,79,908016,0.0001297,0.006844,0.007774,7.153e-05,0.0001574,0.006851,2.003e-05,7.629e-06,0.001789,0.0004282,2.207,0.006892,0,0,0.0002079
17400000000,17700000000,6239416246,79,908016,0.0001287,0.006836,0.007774,7.153e-05,0.0001574,0.006844,2.48e-05,7.629e-06,0.001526,0.0007858,2.236,0.00695,0,0,5.436e-05
17700000000,18000000000,6239416246,79,908016,0.0001383,0.006836,0.007774,7.343e-05,0.0001583,0.006836,2.861e-05,7.629e-06,0.001892,0.0009289,2.301,0.006812,0,0,6.008e-05
18000000000,18300000000,6239416246,79,908016,0.0001287,0.006828,0.007774,7.343e-05,0.0001593,0.006828,2.193e-05,7.629e-06,0.001831,0.0004282,2.26,0.00672,0,0,0.0001373
18300000000,18600000000,6239416246,79,908016,0.0001307,0.006821,0.007774,7.343e-05,0.0001593,0.006821,2.289e-05,7.629e-06,0.001648,0.001286,2.186,0.006736,0,0,8.774e-05
18600000000,18900000000,6239416246,79,908016,0.0001326,0.006813,0.007774,7.439e-05,0.0001593,0.006813,3.052e-05,7.629e-06,0.00177,0.001286,2.236,0.006757,0,0,1.144e-05
18900000000,19200000000,6239416246,79,908016,0.0001316,0.006805,0.007774,7.439e-05,0.0001602,0.006813,2.575e-05,7.629e-06,0.001526,0.001143,2.185,0.006875,0,0,3.624e-05
19200000000,19500000000,6239416246,79,908016,0.0001278,0.006798,0.007774,7.439e-05,0.0001602,0.006805,2.098e-05,7.629e-06,0.001465,0.0004282,2.175,0.006935,0,0,4.578e-05
19500000000,19800000000,6239416246,79,908016,0.02283,0.008667,0.00975,0.0002861,0.00037,0.01459,0.001938,7.629e-06,0.4287,0.07214,1.129,0.001629,0,0,0.002087
19800000000,20100000000,6239416246,79,908016,0.0001516,0.008026,0.009064,0.0001574,0.0002441,0.009918,2.48e-05,7.629e-06,0.001648,0.001286,2.476,0.007714,0,0,0.0001307
20100000000,20400000000,6239416246,79,908016,0.0001335,0.006882,0.007774,0.0001574,0.0002441,0.006889,2.575e-05,7.629e-06,0.001587,0.0007858,2.221,0.006991,0,0,0.0001183
20400000000,20700000000,6239416246,79,908016,0.0001278,0.006882,0.007774,0.0001574,0.0002451,0.006882,2.193e-05,7.629e-06,0.001587,0.0004282,2.256,0.007026,0,0,4.387e-05
20700000000,21000000000,6239416246,79,908016,0.0001316,0.006882,0.007774,0.0001574,0.0002451,0.006882,2.48e-05,7.629e-06,0.001587,0.0007858,2.254,0.007057,0,0,8.392e-05
21000000000,21300000000,6239416246,79,908016,0.0001268,0.006882,0.007774,0.0001583,0.000247,0.006882,2.003e-05,7.629e-06,0.001587,0.0003567,2.236,0.00704,0,0,9.918e-05
21300000000,21600000000,6239416246,79,908016,0.0001364,0.006882,0.007774,0.0001602,0.000248,0.006882,2.289e-05,7.629e-06,0.003811,0.0007858,2.334,0.007158,0,0,4.101e-05
21600000000,21900000000,6239416246,79,908016,0.0001307,0.006882,0.007774,0.0001602,0.000248,0.006882,2.003e-05,7.629e-06,0.00177,0.0007143,2.284,0.007158,0,0,5.817e-05
21900000000,22200000000,6239416246,79,908016,0.0001364,0.006882,0.007774,0.0001602,0.0002489,0.006882,3.052e-05,7.629e-06,0.001648,0.001072,2.248,0.006915,0,0,0.0001574
22200000000,22500000000,6239416246,79,908016,0.0001326,0.006882,0.007774,0.0001612,0.0002489,0.006882,2.67e-05,7.629e-06,0.001709,0.0008574,2.286,0.007005,0,0,6.676e-05
22500000000,22800000000,6239416246,79,908016,0.0001469,0.006889,0.007774,0.0001612,0.0002489,0.006889,2.861e-05,7.629e-06,0.001953,0.0009995,2.405,0.007132,0,0,0.000104
22800000000,23100000000,6239416246,79,908016,0.0001278,0.006874,0.007774,0.0001488,0.0002365,0.006889,2.48e-05,7.629e-06,0.001587,0.001072,2.184,0.006716,0,0,5.341e-05
23100000000,23400000000,6239416246,79,908016,0.02353,0.008926,0.009949,0.0003223,0.0004091,0.01486,0.001493,8.583e-06,0.3584,0.04785,1.139,0.001649,0,0,3.719e-05
23400000000,23700000000,6239416246,79,908016,0.0001564,0.00824,0.009323,0.0001106,0.0001965,0.01024,2.193e-05,7.629e-06,0.001648,0.001072,2.536,0.007775,0,0,0.000144
23700000000,24000000000,6239416246,79,908016,0.0001431,0.006874,0.007774,0.0001097,0.0001965,0.006874,3.433e-05,7.629e-06,0.001648,0.003429,2.317,0.006971,0,0,8.106e-05
24000000000,24300000000,6239416246,79,908016,0.0001411,0.006874,0.007774,0.0001116,0.0001993,0.006874,3.529e-05,7.629e-06,0.00177,0.001286,2.429,0.007018,0,0,5.15e-05
24300000000,24600000000,6239416246,79,908016,0.0001488,0.006866,0.007774,0.0001135,0.0002012,0.006874,2.384e-05,7.629e-06,0.001892,0.0006428,2.536,0.00736,0,0,5.436e-05
24600000000,24900000000,6239416246,79,908016,0.0001469,0.006866,0.007774,0.0001144,0.0002022,0.006874,2.956e-05,7.629e-06,0.002075,0.0009289,2.55,0.00754,0,0,3.242e-05
24900000000,25200000000,6239416246,79,908016,0.0001411,0.006866,0.007774,0.0001144,0.0002022,0.006866,2.193e-05,7.629e-06,0.001831,0.0006428,2.303,0.007266,0,0,0.0001268
25200000000,25500000000,6239416246,79,908016,0.0001373,0.006866,0.007774,0.0001144,0.0002022,0.006874,2.766e-05,7.629e-06,0.001648,0.001286,2.428,0.007537,0,0,8.965e-05
25500000000,25800000000,6239416246,79,908016,0.000145,0.006866,0.007774,0.0001154,0.0002031,0.006874,2.766e-05,7.629e-06,0.001709,0.001143,2.399,0.007325,0,0,0.0001116
25800000000,26100000000,6239416246,79,908016,0.0001383,0.006866,0.007774,0.0001154,0.0002031,0.006874,2.193e-05,7.629e-06,0.001648,0.0005713,2.388,0.007455,0,0,2.766e-05
26100000000,26400000000,6239416246,79,908016,0.0001421,0.006874,0.007774,0.0001154,0.0002041,0.006874,2.48e-05,7.629e-06,0.001709,0.001143,2.445,0.007497,0,0,4.959e-05
26400000000,26700000000,6239416246,79,908016,0.0001402,0.006874,0.007774,0.0001163,0.0002041,0.006874,2.289e-05,7.629e-06,0.00177,0.0006428,2.471,0.007501,0,0,5.245e-05
26700000000,27000000000,6239416246,79,908016,0.02783,0.01103,0.01218,0.00035,0.000433,0.01788,0.003139,8.583e-06,0.3608,0.05573,1.25,0.001619,0,0,6.866e-05
27000000000,27300000000,6239416246,79,908016,0.000165,0.008255,0.009369,0.0001078,0.0001926,0.01041,3.147e-05,7.629e-06,0.001648,0.001143,2.311,0.006986,0,0,0.0003309
27300000000,27600000000,6239416246,79,908016,0.0001469,0.006813,0.007774,0.0001087,0.0001936,0.006813,2.766e-05,7.629e-06,0.001709,0.0006428,2.397,0.007164,0,0,4.292e-05
27600000000,27900000000,6239416246,79,908016,0.000144,0.006813,0.007774,0.0001087,0.0001945,0.006813,2.48e-05,7.629e-06,0.001709,0.001429,2.418,0.007415,0,0,6.866e-05
27900000000,28200000000,6239416246,79,908016,0.0001421,0.006813,0.007774,0.0001097,0.0001955,0.006813,2.861e-05,7.629e-06,0.001831,0.001858,2.339,0.007283,0,0,8.202e-05
28200000000,28500000000,6239416246,79,908016,0.0001383,0.006813,0.007774,0.0001097,0.0001955,0.006813,3.052e-05,7.629e-06,0.00177,0.001358,2.454,0.007266,0,0,7.153e-05
28500000000,28800000000,6239416246,79,908016,0.0001459,0.006813,0.007774,0.0001106,0.0001955,0.006813,3.147e-05,7.629e-06,0.001709,0.0009995,2.511,0.007489,0,0,2.48e-05
28800000000,29100000000,6239416246,79,908016,0.0001421,0.006813,0.007774,0.0001106,0.0001965,0.006813,2.48e-05,7.629e-06,0.001709,0.001072,2.416,0.007452,0,0,3.815e-05
29100000000,29400000000,6239416246,79,908016,0.000145,0.006813,0.007774,0.0001125,0.0001984,0.006821,2.67e-05,7.629e-06,0.00177,0.001785,2.419,0.007349,0,0,8.297e-05
29400000000,29700000000,6239416246,79,908016,0.000144,0.006821,0.007774,0.0001144,0.0002003,0.006821,2.48e-05,7.629e-06,0.001648,0.0008574,2.386,0.007424,0,0,4.292e-05
29700000000,30000000000,6239416246,79,908016,0.0001497,0.006821,0.007774,0.0001154,0.0002012,0.006821,2.766e-05,7.629e-06,0.001831,0.001286,2.425,0.007258,0,0,4.482e-05
30000000000,30300000000,6239416246,79,908016,0.0001593,0.006821,0.007774,0.0001154,0.0002012,0.006821,2.575e-05,7.629e-06,0.002258,0.001215,2.53,0.007392,0,0,6.104e-05
30300000000,30600000000,6239416246,79,908016,0.0318,0.01141,0.0126,0.0004301,0.0005121,0.01889,0.003078,8.583e-06,0.3682,0.05743,5.091,0.01623,0,0,0.0001211
30600000000,30900000000,6239416246,79,908016,0.0001822,0.008789,0.009857,0.0001383,0.0002213,0.01099,3.052e-05,7.629e-06,0.001953,0.001072,2.616,0.007747,0,0,0.0004101
30900000000,31200000000,6239416246,79,908016,0.0001554,0.006805,0.007774,0.0001383,0.0002213,0.006805,3.052e-05,7.629e-06,0.001892,0.001143,2.505,0.007497,0,0,3.433e-05
31200000000,31500000000,6239416246,79,908016,0.0001497,0.006805,0.007774,0.0001392,0.0002222,0.006805,3.147e-05,7.629e-06,0.001831,0.001358,2.489,0.00764,0,0,4.005e-05
31500000000,31800000000,6239416246,79,908016,0.000144,0.006805,0.007774,0.0001411,0.0002251,0.006813,3.338e-05,7.629e-06,0.00177,0.002716,2.327,0.007254,0,0,7.057e-05
31800000000,32100000000,6239416246,79,908016,0.07275,0.01135,0.01283,0.002136,0.002216,0.02621,0.008606,1.526e-05,0.3716,0.06433,0.8448,0.0005399,0,0,4.101e-05
32400000000,32700000000,6239416246,79,908016,0.0001507,0.007011,0.008072,4.578e-05,0.0001326,0.008347,2.193e-05,8.583e-06,0.001709,0.0005713,2.239,0.006806,0,0,5.341e-05
32700000000,33000000000,6239416246,79,908016,0.000144,0.006729,0.007774,4.578e-05,0.0001335,0.006729,3.052e-05,8.583e-06,0.001587,0.002857,2.297,0.007186,0,0,6.866e-05
33000000000,33300000000,6239416246,79,908016,0.0001411,0.006729,0.007774,4.959e-05,0.0001373,0.006729,1.907e-05,8.583e-06,0.001709,0.0002861,2.364,0.007472,0,0,4.864e-05
33600000000,33900000000,6239416246,79,908016,0.0001354,0.006729,0.007774,4.959e-05,0.0001383,0.006729,2.003e-05,8.583e-06,0.001587,0.0003567,2.332,0.007139,0,0,8.202e-05
33900000000,34200000000,6239416246,79,908016,0.0001383,0.006729,0.007774,5.054e-05,0.0001383,0.006729,2.098e-05,8.583e-06,0.001526,0.0005713,2.293,0.007041,0,0,3.815e-05
34200000000,34500000000,6239416246,79,908016,0.0001364,0.006729,0.007774,5.054e-05,0.0001383,0.006729,1.907e-05,8.583e-06,0.001709,0.0002861,2.273,0.006984,0,0,8.106e-05
34500000000,34800000000,6239416246,79,908016,0.0001459,0.006729,0.007774,5.15e-05,0.0001392,0.006729,2.289e-05,8.583e-06,0.002014,0.0007143,2.439,0.007345,0,0,5.341e-05
34800000000,35100000000,6239416246,79,908016,0.047,0.01398,0.01529,0.0008373,0.0009193,0.02325,0.006287,1.144e-05,0.3716,0.05688,1.248,0.0021,0,0,0.000103
35700000000,36000000000,6239416246,79,908016,0.0001402,0.00666,0.007774,2.67e-05,0.0001144,0.00666,2.384e-05,8.583e-06,0.001709,0.0009289,2.228,0.006978,0,0,2.48e-05
36000000000,36300000000,6239416246,79,908016,0.05273,0.008774,0.01009,0.0005522,0.0006361,0.01929,0.003113,1.049e-05,0.3721,0.05774,0.8807,0.0007584,0,0,7.439e-05
36600000000,36900000000,6239416246,79,908016,0.0001564,0.007225,0.008316,0.0001144,0.0002003,0.008835,3.433e-05,8.583e-06,0.001587,0.001785,2.247,0.006874,0,0,3.242e-05
36900000000,37200000000,6239416246,79,908016,0.0001411,0.006737,0.007774,0.0001154,0.0002003,0.006737,2.766e-05,8.583e-06,0.001587,0.001499,2.38,0.007533,0,0,0.000102
37500000000,37800000000,6239416246,79,908016,0.0001392,0.006737,0.007774,0.0001163,0.0002022,0.006737,2.289e-05,8.583e-06,0.001709,0.0005713,2.382,0.007515,0,0,0.0001183
37800000000,38100000000,6239416246,79,908016,0.0001373,0.006737,0.007774,0.0001163,0.0002022,0.006737,2.48e-05,8.583e-06,0.001587,0.0009995,2.368,0.007495,0,0,3.91e-05
38100000000,38400000000,6239416246,79,908016,0.0001411,0.006737,0.007774,0.0001173,0.0002031,0.006737,2.575e-05,8.583e-06,0.001587,0.001499,2.344,0.007371,0,0,5.722e-05
38400000000,38700000000,6239416246,79,908016,0.0001364,0.006729,0.007774,0.0001173,0.0002031,0.006737,2.861e-05,8.583e-06,0.001709,0.0009995,2.287,0.006985,0,0,0.0003042
38700000000,39000000000,6239416246,79,908016,0.0001526,0.006729,0.007774,0.0001183,0.0002031,0.006729,3.052e-05,8.583e-06,0.001587,0.001358,2.446,0.007381,0,0,4.387e-05
39000000000,39300000000,6239416246,79,908016,0.0001545,0.006729,0.007774,0.0001183,0.0002041,0.006729,2.098e-05,8.583e-06,0.001709,0.0004997,2.444,0.007389,0,0,4.768e-05
39300000000,39600000000,6239416246,79,908016,0.0001612,0.006729,0.007774,0.0001183,0.0002041,0.006737,3.052e-05,8.583e-06,0.001831,0.002144,2.526,0.007813,0,0,6.008e-05
39600000000,39900000000,6239416246,79,908016,0.0001545,0.006729,0.007774,0.0001192,0.000205,0.006737,2.861e-05,8.583e-06,0.001953,0.001429,2.6,0.007923,0,0,0.000102
39900000000,40200000000,6239416246,79,908016,0.0001478,0.006729,0.007774,0.0001192,0.000205,0.006729,3.052e-05,8.583e-06,0.001709,0.001286,2.398,0.007274,0,0,7.915e-05
40200000000,40500000000,6239416246,79,908016,0.0001345,0.006729,0.007774,0.0001192,0.000205,0.006729,2.48e-05,8.583e-06,0.001587,0.0007858,2.218,0.006795,0,0,7.915e-05
40500000000,40800000000,6239416246,79,908016,0.0001354,0.006721,0.007774,0.0001221,0.0002079,0.006729,3.624e-05,8.583e-06,0.001587,0.001215,2.15,0.006674,0,0,0.0005455
51000000000,51300000000,6239416246,79,908016,0.000164,0.01266,0.01382,3.815e-05,0.0001211,0.01485,4.387e-05,9.537e-06,0.001831,0.00457,1.277,0.002215,0,0,0.0001535
51300000000,51600000000,6239416246,79,908016,0.0001841,0.008331,0.009506,4.578e-05,0.0001307,0.01054,2.956e-05,9.537e-06,0.001953,0.001286,2.43,0.007454,0,0,0.0001011
51600000000,51900000000,6239416246,79,908016,0.0001421,0.006737,0.007774,4.768e-05,0.0001326,0.006737,4.101e-05,9.537e-06,0.001709,0.003357,2.422,0.007577,0,0,4.196e-05
51900000000,52200000000,6239416246,79,908016,0.05743,0.01506,0.01703,0.001904,0.001984,0.02588,0.006592,1.621e-05,0.4287,0.05585,0.9391,0.0007741,0,0,0.0002422
52200000000,52500000000,6239416246,79,908016,0.0001497,0.01198,0.01326,6.771e-05,0.0001497,0.01411,2.67e-05,9.537e-06,0.001587,0.0009995,2.4,0.007508,0,0,0.0003996
52500000000,52800000000,6239416246,79,908016,0.000164,0.007782,0.00882,6.771e-05,0.0001497,0.009781,2.956e-05,9.537e-06,0.001709,0.001286,2.244,0.006855,0,0,6.485e-05
52800000000,53100000000,6239416246,79,908016,0.0001373,0.006912,0.007774,7.534e-05,0.0001602,0.006912,6.771e-05,9.537e-06,0.001709,0.004501,2.244,0.007012,0,0,0.000102
53100000000,53400000000,6239416246,79,908016,0.007324,0.006973,0.007889,0.0001087,0.0001955,0.008591,0.0002966,9.537e-06,0.292,0.02057,2.369,0.007603,0,0,6.008e-05
53700000000,54000000000,6239416246,79,908016,0.05328,0.01544,0.01709,0.0009594,0.00104,0.0249,0.005608,1.335e-05,0.4653,0.05823,1.054,0.001415,0,0,0.01213
54000000000,54300000000,6239416246,79,908016,0.0001707,0.01189,0.01306,6.58e-05,0.0001488,0.01382,4.292e-05,9.537e-06,0.001953,0.001572,2.734,0.008236,0,0,4.196e-05
54300000000,54600000000,6239416246,79,908016,0.0001745,0.007721,0.008759,6.58e-05,0.0001488,0.009705,4.101e-05,9.537e-06,0.001831,0.002499,2.427,0.007324,0,0,5.913e-05
54600000000,54900000000,6239416246,79,908016,0.0001411,0.006813,0.007774,6.676e-05,0.0001507,0.006813,3.242e-05,9.537e-06,0.001709,0.002213,2.327,0.007294,0,0,0.0001411
54900000000,55200000000,6239416246,79,908016,0.0001402,0.006813,0.007774,6.866e-05,0.0001526,0.006813,3.147e-05,9.537e-06,0.001587,0.001286,2.313,0.007179,0,0,5.531e-05
55500000000,55800000000,6239416246,79,908016,0.05743,0.01556,0.01675,0.001209,0.001291,0.02573,0.005859,1.431e-05,0.3467,0.05865,1.035,0.001226,0,0,0.2891
55800000000,56100000000,6239416246,79,908016,0.0004883,0.01469,0.01614,9.537e-05,0.0001783,0.01709,3.242e-05,9.537e-06,0.006714,0.001715,1.104,0.001488,0,0,7.057e-05
56100000000,56400000000,6239416246,79,908016,0.08203,0.01706,0.01846,0.002235,0.002316,0.02689,0.01111,2.003e-05,0.437,0.06592,0.8762,0.0008275,0,0,4.196e-05
57000000000,57300000000,6239416246,79,908016,0.0001307,0.006775,0.007774,6.676e-05,0.0001535,0.006783,2.098e-05,1.049e-05,0.001709,0.0005713,2.295,0.00718,0,0,4.005e-05
57300000000,57600000000,6239416246,79,908016,0.0001354,0.006775,0.007774,6.771e-05,0.0001535,0.006783,3.052e-05,1.049e-05,0.001709,0.003502,2.253,0.007173,0,0,5.722e-05
57900000000,58200000000,6239416246,79,908016,0.0001335,0.00679,0.007774,7.629e-05,0.000164,0.00679,2.48e-05,1.049e-05,0.001587,0.001429,2.293,0.007241,0,0,3.529e-05
58200000000,58500000000,6239416246,79,908016,0.0001364,0.00679,0.007774,7.725e-05,0.000165,0.00679,2.48e-05,1.049e-05,0.001831,0.0006428,2.37,0.007342,0,0,4.292e-05
58500000000,58800000000,6239416246,79,908016,0.000144,0.00679,0.007774,7.725e-05,0.000165,0.00679,2.193e-05,1.049e-05,0.001831,0.0008574,2.395,0.007244,0,0,7.343e-05
58800000000,59100000000,6239416246,79,908016,0.0001345,0.00679,0.007774,7.82e-05,0.000165,0.00679,1.812e-05,1.049e-05,0.001709,0.0002861,2.322,0.007111,0,0,0.0001287
59100000000,59400000000,6239416246,79,908016,0.0001507,0.00679,0.007774,7.82e-05,0.0001659,0.00679,2.48e-05,1.049e-05,0.001709,0.0005713,2.473,0.007388,0,0,0.0001097
59400000000,59700000000,6239416246,79,908016,0.0001392,0.00679,0.007774,7.82e-05,0.0001659,0.00679,2.193e-05,1.049e-05,0.001709,0.0004282,2.409,0.007383,0,0,4.005e-05
59700000000,60000000000,6239416246,79,908016,0.000144,0.00679,0.007774,7.915e-05,0.0001659,0.00679,2.289e-05,1.049e-05,0.001709,0.0008574,2.359,0.007153,0,0,7.82e-05
60000000000,60300000000,6239416246,79,908016,0.0001411,0.00679,0.007774,7.915e-05,0.0001669,0.00679,2.193e-05,1.049e-05,0.001709,0.0007858,2.351,0.007083,0,0,4.482e-05
60300000000,60600000000,6239416246,79,908016,0.0001411,0.006783,0.007774,7.915e-05,0.0001669,0.00679,1.907e-05,1.049e-05,0.001709,0.0004282,2.217,0.006802,0,0,4.959e-05
60600000000,60900000000,6239416246,79,908016,0.0001383,0.006775,0.007774,8.011e-05,0.0001678,0.006783,2.003e-05,1.049e-05,0.001587,0.0004282,2.317,0.007101,0,0,5.341e-05
71100000000,71400000000,6239416246,79,908016,0.0001764,0.006775,0.007774,6.58e-05,0.0001554,0.006783,2.289e-05,1.144e-05,0.001953,0.0007143,2.769,0.008318,0,0,7.248e-05
71400000000,71700000000,6239416246,79,908016,0.0001659,0.006775,0.007774,6.58e-05,0.0001554,0.006775,2.384e-05,1.144e-05,0.002075,0.001358,2.791,0.008068,0,0,0.000144
71700000000,72000000000,6239416246,79,908016,0.0001574,0.006775,0.007774,6.676e-05,0.0001564,0.006775,3.052e-05,1.144e-05,0.001831,0.002213,2.499,0.007638,0,0,8.106e-05
72000000000,72300000000,6239416246,79,908016,0.0001526,0.006775,0.007774,6.676e-05,0.0001564,0.006775,2.48e-05,1.144e-05,0.001953,0.0009995,2.481,0.007638,0,0,7.057e-05
72300000000,72600000000,6239416246,79,908016,0.0001612,0.006721,0.007774,5.722e-05,0.0001059,0.006775,2.384e-05,1.144e-05,0.002197,0.0009995,2.605,0.00785,0,0,0.0001249
72600000000,72900000000,6239416246,79,908016,0.0001507,0.006683,0.007774,4.864e-05,6.866e-05,0.006752,1.812e-05,1.144e-05,0.001831,0.0002861,2.537,0.007284,0,0,6.676e-05
72900000000,73200000000,6239416246,79,908016,0.0001574,0.006683,0.007774,4.959e-05,7.153e-05,0.006752,2.48e-05,1.144e-05,0.001953,0.0007858,2.488,0.00719,0,0,6.866e-05
73200000000,73500000000,6239416246,79,908016,0.0001507,0.006683,0.007774,4.959e-05,6.485e-05,0.006752,1.049e-05,1.144e-05,0.002197,0.0002146,2.411,0.007004,0,0,0.0001259
73500000000,73800000000,6239416246,79,908016,0.0001554,0.006683,0.007774,4.959e-05,6.771e-05,0.006752,1.717e-05,1.144e-05,0.001709,0.0003567,2.441,0.007151,0,0,4.959e-05
73800000000,74100000000,6239416246,79,908016,0.0001431,0.006683,0.007774,5.054e-05,6.866e-05,0.006752,2.48e-05,1.144e-05,0.002087,0.0009289,2.42,0.006993,0,0,4.959e-05
74100000000,74400000000,6239416246,79,908016,0.0001364,0.006676,0.007774,5.054e-05,6.676e-05,0.006752,2.384e-05,1.144e-05,0.001587,0.0004997,2.276,0.006727,0,0,0.0001087
74400000000,74700000000,6239416246,79,908016,0.004936,0.006798,0.007904,0.0001488,0.0001659,0.007805,0.0001688,1.144e-05,0.2729,0.01135,2.289,0.006903,0,0,0.000124
74700000000,75000000000,6239416246,79,908016,0.0002537,0.006729,0.007767,0.0001535,0.0001717,0.007431,3.052e-05,1.144e-05,0.006516,0.001215,2.505,0.007024,0,0,8.106e-05
75000000000,75300000000,6239416246,79,908016,0.0001411,0.006615,0.007774,5.627e-05,6.962e-05,0.006699,2.193e-05,1.144e-05,0.001709,0.0007143,2.319,0.006844,0,0,6.962e-05
75300000000,75600000000,6239416246,79,908016,0.0001431,0.006622,0.007774,5.627e-05,7.629e-05,0.006691,2.48e-05,1.144e-05,0.04993,0.0009995,2.328,0.007014,0,0,7.534e-05
75600000000,75900000000,6239416246,79,908016,0.0001411,0.006615,0.007774,5.627e-05,7.343e-05,0.006691,2.48e-05,1.144e-05,0.001587,0.001928,2.29,0.006818,0,0,0.0001001
75900000000,76200000000,6239416246,79,908016,0.0001488,0.006607,0.007774,5.722e-05,7.248e-05,0.006691,2.098e-05,1.144e-05,0.002075,0.0005713,2.498,0.007321,0,0,0.0001802
76200000000,76500000000,6239416246,79,908016,0.0001335,0.006615,0.007774,5.722e-05,7.725e-05,0.006683,2.289e-05,1.144e-05,0.001709,0.001072,2.314,0.006982,0,0,3.338e-05
76500000000,76800000000,6239416246,79,908016,0.0001345,0.006607,0.007774,5.722e-05,7.534e-05,0.006683,2.098e-05,1.144e-05,0.001587,0.0007858,2.279,0.006938,0,0,7.82e-05
76800000000,77100000000,6239416246,79,908016,0.0001335,0.006607,0.007774,5.817e-05,7.534e-05,0.006676,2.575e-05,1.144e-05,0.001709,0.001143,2.337,0.007017,0,0,4.578e-05
77100000000,77400000000,6239416246,79,908016,0.1145,0.01666,0.01834,0.002426,0.002445,0.02664,0.008148,1.907e-05,0.3696,0.05493,0.9007,0.0009236,0,0,4.387e-05
77700000000,78000000000,6239416246,79,908016,0.000185,0.009186,0.01031,2.67e-05,4.387e-05,0.01158,2.861e-05,1.144e-05,0.001953,0.001215,2.552,0.007443,0,0,0.0001326
78000000000,78300000000,6239416246,79,908016,0.0001497,0.006783,0.007774,2.766e-05,4.578e-05,0.006859,2.193e-05,1.144e-05,0.001831,0.0008574,2.355,0.007099,0,0,4.673e-05
78300000000,78600000000,6239416246,79,908016,0.0001507,0.006783,0.007774,2.766e-05,4.578e-05,0.006851,2.193e-05,1.144e-05,0.001953,0.0009289,2.384,0.00704,0,0,5.913e-05
78900000000,79200000000,6239416246,79,908016,0.0001497,0.006783,0.007774,2.861e-05,4.482e-05,0.006851,2.289e-05,1.144e-05,0.002075,0.0007143,2.503,0.007387,0,0,9.441e-05
79200000000,79500000000,6239416246,79,908016,0.0001421,0.006783,0.007774,2.861e-05,4.864e-05,0.006851,2.48e-05,1.144e-05,0.001587,0.001358,2.415,0.007285,0,0,0.000308
79500000000,79800000000,6239416246,79,908016,0.0001392,0.006775,0.007774,2.956e-05,4.292e-05,0.006851,2.098e-05,1.144e-05,0.001709,0.0003567,2.372,0.007151,0,0,8.392e-05
79800000000,80100000000,6239416246,79,908016,0.000144,0.006775,0.007774,2.956e-05,5.054e-05,0.006844,2.289e-05,1.144e-05,0.001831,0.0006428,2.312,0.006834,0,0,0.000103
80100000000,80400000000,6239416246,79,908016,0.0001535,0.006767,0.007774,2.956e-05,4.196e-05,0.006844,1.907e-05,1.144e-05,0.001953,0.0009995,2.517,0.007063,0,0,8.106e-05
80400000000,80700000000,6239416246,79,908016,0.0001421,0.006783,0.007774,3.052e-05,5.245e-05,0.006844,2.575e-05,1.144e-05,0.001709,0.001215,2.33,0.006814,0,0,0.0001049
80700000000,81000000000,6239416246,79,908016,0.0001402,0.006767,0.007774,3.052e-05,4.673e-05,0.006844,2.003e-05,1.144e-05,0.001831,0.0004997,2.306,0.006605,0,0,6.58e-05
86100000000,86400000000,6239416246,79,908016,0.03754,0.01279,0.01425,0.0005074,0.0005445,0.02066,0.00378,1.335e-05,0.3696,0.05151,5.087,0.01603,0,0,8.392e-05
86400000000,86700000000,6239416246,79,908016,0.0001698,0.009247,0.01033,2.956e-05,6.771e-05,0.01144,3.242e-05,1.144e-05,0.001709,0.002285,2.308,0.006914,0,0,7.153e-05
86700000000,87000000000,6239416246,79,908016,0.0001411,0.006897,0.007774,2.956e-05,6.962e-05,0.006958,2.289e-05,1.144e-05,0.001587,0.0009995,2.241,0.006725,0,0,9.441e-05
87000000000,87300000000,6239416246,79,908016,0.0001364,0.006897,0.007774,2.956e-05,6.771e-05,0.006943,2.384e-05,1.144e-05,0.001831,0.0007858,2.239,0.006694,0,0,5.15e-05
87900000000,88200000000,6239416246,79,908016,0.0001669,0.01019,0.01141,1.049e-05,5.054e-05,0.01244,2.575e-05,1.24e-05,0.002113,0.0009995,2.348,0.006894,0,0,6.294e-05
88500000000,88800000000,6239416246,79,908016,0.0001402,0.007095,0.007774,1.24e-05,5.245e-05,0.007149,3.338e-05,1.24e-05,0.001587,0.003429,2.302,0.006865,0,0,7.82e-05
88800000000,89100000000,6239416246,79,908016,0.0001326,0.007088,0.007774,1.335e-05,4.768e-05,0.007149,2.575e-05,1.24e-05,0.001709,0.0009289,2.275,0.006774,0,0,2.48e-05
89100000000,89400000000,6239416246,79,908016,0.0001383,0.007095,0.007774,1.335e-05,5.341e-05,0.007149,2.289e-05,1.24e-05,0.001831,0.0008574,2.345,0.006886,0,0,7.439e-05
89400000000,89700000000,6239416246,79,908016,0.0001335,0.007088,0.007774,1.335e-05,4.864e-05,0.007149,2.289e-05,1.24e-05,0.001709,0.001072,2.268,0.006764,0,0,9.251e-05
89700000000,90000000000,6239416246,79,908016,0.03229,0.01228,0.01347,0.0003014,0.0003395,0.01843,0.002636,1.335e-05,0.3706,0.05176,0.8713,0.0007749,0,0,6.008e-05
90300000000,90600000000,6239416246,79,908016,0.0005074,0.01321,0.01433,3.052e-05,6.58e-05,0.01555,2.766e-05,1.24e-05,0.004272,0.001143,0.958,0.0008983,0,0,7.439e-05
90600000000,90900000000,6239416246,79,908016,0.0001669,0.008652,0.009689,3.147e-05,6.676e-05,0.01089,2.384e-05,1.24e-05,0.001709,0.001286,2.359,0.007061,0,0,4.292e-05
101100000000,101400000000,6239416246,79,908016,0.0001545,0.006927,0.007774,3.242e-05,6.962e-05,0.007004,3.147e-05,1.24e-05,0.001953,0.001143,2.632,0.007882,0,0,0.0001326
101400000000,101700000000,6239416246,79,908016,0.05457,0.01102,0.01233,0.001484,0.00152,0.02539,0.005501,1.717e-05,0.5586,0.0517,0.987,0.001165,0,0,0.0001259
102000000000,102300000000,6239416246,79,908016,0.005074,0.01105,0.01213,6.485e-05,0.000102,0.01305,0.0002441,1.24e-05,0.3032,0.0155,2.494,0.007847,0,0,0.0002069
102300000000,102600000000,6239416246,79,908016,0.005211,0.007523,0.008453,2.48e-05,6.771e-05,0.008972,0.0002947,1.24e-05,0.2671,0.02356,0.7764,0.0003123,0,0,0.000103
102600000000,102900000000,6239416246,79,908016,0.02701,0.01047,0.01164,0.0002832,0.0003204,0.01611,0.002239,1.335e-05,0.3623,0.06433,1.151,0.001713,0,0,0.002354
102900000000,103200000000,6239416246,79,908016,0.0001612,0.007431,0.008377,2.48e-05,6.294e-05,0.008942,3.719e-05,1.24e-05,0.001831,0.001572,2.296,0.006856,0,0,7.629e-05
103500000000,103800000000,6239416246,79,908016,0.05377,0.01419,0.01556,0.00145,0.001488,0.02499,0.005516,1.812e-05,0.375,0.05719,0.9256,0.0008348,0,0,0.0001125
103800000000,104100000000,6239416246,79,908016,0.0001526,0.0105,0.01169,9.537e-06,4.864e-05,0.01265,2.193e-05,1.335e-05,0.002075,0.0007143,2.225,0.006777,0,0,0.0001106
104100000000,104400000000,6239416246,79,908016,0.04449,0.01016,0.01134,0.00102,0.001064,0.02112,0.004395,1.621e-05,0.377,0.047,0.822,0.0006193,0,0,0.002781
104700000000,105000000000,6239416246,79,908016,0.0001526,0.007149,0.00798,1.621e-05,5.627e-05,0.008118,2.098e-05,1.335e-05,0.001953,0.0004282,2.363,0.006998,0,0,0.0001268
105000000000,105300000000,6239416246,79,908016,0.0001364,0.007011,0.007774,1.717e-05,5.531e-05,0.007057,3.815e-05,1.335e-05,0.001587,0.004715,2.337,0.007148,0,0,6.104e-05
105300000000,105600000000,6239416246,79,908016,0.0001402,0.007011,0.007774,1.812e-05,6.199e-05,0.007057,2.766e-05,1.335e-05,0.001709,0.001072,2.293,0.006894,0,0,3.91e-05
105900000000,106200000000,6239416246,79,908016,0.0001411,0.007011,0.007774,1.907e-05,5.913e-05,0.007057,2.289e-05,1.335e-05,0.001709,0.0009995,2.334,0.007117,0,0,4.482e-05
106200000000,106500000000,6239416246,79,908016,0.0001383,0.007011,0.007774,1.907e-05,5.913e-05,0.007057,2.956e-05,1.335e-05,0.001709,0.001215,2.424,0.007343,0,0,6.771e-05
106500000000,106800000000,6239416246,79,908016,0.0001402,0.007004,0.007774,2.003e-05,5.627e-05,0.007057,2.193e-05,1.335e-05,0.001831,0.0005713,2.286,0.007038,0,0,6.199e-05
106800000000,107100000000,6239416246,79,908016,0.000144,0.007011,0.007774,2.003e-05,6.008e-05,0.007057,2.289e-05,1.335e-05,0.001709,0.0009289,2.475,0.007622,0,0,0.0001154
107100000000,107400000000,6239416246,79,908016,0.000145,0.007011,0.007774,2.003e-05,5.913e-05,0.007057,2.003e-05,1.335e-05,0.001587,0.0004282,2.39,0.007392,0,0,0.0001163
107400000000,107700000000,6239416246,79,908016,0.0001431,0.007004,0.007774,2.098e-05,5.627e-05,0.007057,2.098e-05,1.335e-05,0.001869,0.0004282,2.379,0.007381,0,0,0.0001144
107700000000,108000000000,6239416246,79,908016,0.0001411,0.007011,0.007774,2.098e-05,6.294e-05,0.007057,2.48e-05,1.335e-05,0.001709,0.0009289,2.315,0.006991,0,0,7.439e-05
108000000000,108300000000,6239416246,79,908016,0.0001354,0.007004,0.007774,2.098e-05,5.913e-05,0.007057,3.052e-05,1.335e-05,0.001587,0.0009289,2.271,0.006817,0,0,0.0003309
108300000000,108600000000,6239416246,79,908016,0.0001373,0.007004,0.007774,2.193e-05,5.913e-05,0.007057,3.052e-05,1.335e-05,0.001709,0.001572,2.262,0.006752,0,0,0.000103
108600000000,108900000000,6239416246,79,908016,0.0001297,0.007004,0.007774,2.193e-05,6.39e-05,0.00705,2.193e-05,1.335e-05,0.001587,0.0007143,2.143,0.006496,0,0,4.292e-05
108900000000,109200000000,6239416246,79,908016,0.0001392,0.006996,0.007774,2.289e-05,5.913e-05,0.00705,2.67e-05,1.335e-05,0.001709,0.001072,2.255,0.006795,0,0,5.15e-05
109200000000,109500000000,6239416246,79,908016,0.0001364,0.006996,0.007774,2.289e-05,6.39e-05,0.00705,3.052e-05,1.335e-05,0.001831,0.0008574,2.375,0.007031,0,0,3.242e-05
109500000000,109800000000,6239416246,79,908016,0.0001373,0.006996,0.007774,2.289e-05,6.199e-05,0.007042,2.67e-05,1.335e-05,0.001709,0.001072,2.239,0.006834,0,0,3.719e-05
109800000000,110100000000,6239416246,79,908016,0.0001364,0.006989,0.007774,2.384e-05,5.913e-05,0.007042,3.338e-05,1.335e-05,0.001587,0.001785,2.319,0.007074,0,0,6.962e-05
110100000000,110400000000,6239416246,79,908016,0.0001364,0.006996,0.007774,2.384e-05,6.676e-05,0.007042,2.766e-05,1.335e-05,0.001709,0.001143,2.275,0.006763,0,0,5.245e-05
110400000000,110700000000,6239416246,79,908016,0.0001278,0.006989,0.007774,2.384e-05,6.294e-05,0.007034,2.48e-05,1.335e-05,0.001587,0.001072,2.178,0.006567,0,0,4.482e-05
110700000000,111000000000,6239416246,79,908016,0.0001335,0.006981,0.007774,2.48e-05,6.104e-05,0.007034,2.67e-05,1.335e-05,0.001709,0.001072,2.262,0.006826,0,0,6.771e-05
116400000000,116700000000,6239416246,79,908016,0.0001526,0.006958,0.007774,2.575e-05,6.485e-05,0.007011,2.48e-05,1.335e-05,0.001953,0.0007143,0.8264,0.0004605,0,0,0.0002022
116700000000,117000000000,6239416246,79,908016,0.03522,0.00827,0.009109,0.000658,0.0006933,0.02289,0.00378,1.621e-05,0.3667,0.0545,2.419,0.007254,0,0,3.242e-05
117300000000,117600000000,6239416246,79,908016,0.0001612,0.01024,0.01144,1.335e-05,3.815e-05,0.01248,2.766e-05,1.335e-05,0.001709,0.001358,2.294,0.006828,0,0,5.436e-05
117600000000,117900000000,6239416246,79,908016,0.0001421,0.007164,0.007904,1.431e-05,3.529e-05,0.007935,3.052e-05,1.335e-05,0.001587,0.001572,2.253,0.006822,0,0,0.00068
117900000000,118200000000,6239416246,79,908016,0.0001326,0.007095,0.007774,1.621e-05,4.387e-05,0.007141,3.624e-05,1.335e-05,0.001587,0.003643,2.264,0.006788,0,0,3.433e-05
118500000000,118800000000,6239416246,79,908016,0.0001402,0.007088,0.007774,1.717e-05,4.005e-05,0.007133,2.193e-05,1.335e-05,0.001953,0.001143,2.398,0.007029,0,0,5.531e-05
118800000000,119100000000,6239416246,79,908016,0.0001354,0.007088,0.007774,1.717e-05,4.578e-05,0.007133,2.193e-05,1.335e-05,0.001709,0.0005713,2.31,0.007157,0,0,7.343e-05
119100000000,119400000000,6239416246,79,908016,0.0001392,0.007088,0.007774,1.717e-05,4.101e-05,0.007133,3.052e-05,1.335e-05,0.001709,0.001785,2.243,0.006773,0,0,7.057e-05
119400000000,119700000000,6239416246,79,908016,0.06042,0.01076,0.01181,0.001637,0.001665,0.02408,0.005394,1.812e-05,0.3589,0.05444,0.9075,0.0008648,0,0,0.2695
120000000000,120300000000,6239416246,79,908016,0.05615,0.01465,0.01639,0.001488,0.001528,0.02612,0.005852,1.907e-05,0.356,0.05615,1.176,0.001854,0,0,0.0009251
120300000000,120600000000,6239416246,79,908016,0.0001535,0.01149,0.0127,1.24e-05,5.341e-05,0.01361,3.052e-05,1.335e-05,0.001709,0.0009995,2.274,0.007037,0,0,3.91e-05
120600000000,120900000000,6239416246,79,908016,0.0001669,0.007607,0.008453,1.24e-05,5.436e-05,0.009216,1.907e-05,1.335e-05,0.001953,0.0004282,2.302,0.006889,0,0,8.202e-05
126000000000,126300000000,6239416246,79,908016,0.0001364,0.007095,0.007774,2.003e-05,5.913e-05,0.007141,2.575e-05,1.335e-05,0.001709,0.001215,2.341,0.006712,0,0,5.054e-05
126300000000,126600000000,6239416246,79,908016,0.0001421,0.007095,0.007774,2.003e-05,6.199e-05,0.007141,2.289e-05,1.335e-05,0.001831,0.0007858,2.31,0.007003,0,0,8.202e-05
126600000000,126900000000,6239416246,79,908016,0.0001316,0.007088,0.007774,2.098e-05,5.817e-05,0.007141,3.052e-05,1.335e-05,0.001587,0.0009995,2.27,0.006849,0,0,5.817e-05
126900000000,127200000000,6239416246,79,908016,0.0001373,0.007088,0.007774,2.098e-05,6.008e-05,0.007133,2.384e-05,1.335e-05,0.001953,0.0009995,2.342,0.006995,0,0,0.0001373
127200000000,127500000000,6239416246,79,908016,0.0001354,0.007088,0.007774,2.098e-05,6.199e-05,0.007133,2.193e-05,1.335e-05,0.002075,0.0009289,2.335,0.007117,0,0,3.91e-05
127500000000,127800000000,6239416246,79,908016,0.000144,0.00708,0.007774,2.193e-05,5.817e-05,0.007133,2.098e-05,1.335e-05,0.001831,0.0004997,2.388,0.007116,0,0,4.482e-05
127800000000,128100000000,6239416246,79,908016,0.0001402,0.00708,0.007774,2.193e-05,6.294e-05,0.007126,2.48e-05,1.335e-05,0.001709,0.0009995,2.296,0.006739,0,0,8.583e-05
128100000000,128400000000,6239416246,79,908016,0.0001383,0.00708,0.007774,2.193e-05,6.199e-05,0.007126,2.289e-05,1.335e-05,0.002232,0.0009289,2.277,0.006733,0,0,7.343e-05
128400000000,128700000000,6239416246,79,908016,0.0001411,0.007072,0.007774,2.289e-05,5.913e-05,0.007126,2.48e-05,1.335e-05,0.001953,0.0009289,2.363,0.006958,0,0,5.627e-05
128700000000,129000000000,6239416246,79,908016,0.0001526,0.00708,0.007774,2.289e-05,6.39e-05,0.007126,3.529e-05,1.335e-05,0.001953,0.001642,2.51,0.007365,0,0,0.000186
129000000000,129300000000,6239416246,79,908016,0.0001459,0.00708,0.007774,2.384e-05,6.39e-05,0.007126,2.956e-05,1.335e-05,0.001953,0.0009289,2.443,0.007412,0,0,0.0002031
129300000000,129600000000,6239416246,79,908016,0.0001507,0.00708,0.007774,2.384e-05,6.104e-05,0.007126,3.147e-05,1.335e-05,0.001953,0.001572,2.454,0.007454,0,0,0.0001173
129600000000,129900000000,6239416246,79,908016,0.0001383,0.00708,0.007774,2.384e-05,6.676e-05,0.007126,2.575e-05,1.335e-05,0.001831,0.0009995,2.314,0.007179,0,0,0.0001755
129900000000,130200000000,6239416246,79,908016,0.0001402,0.00708,0.007774,2.48e-05,6.485e-05,0.007126,3.91e-05,1.335e-05,0.001831,0.002998,2.292,0.006982,0,0,4.673e-05
130200000000,130500000000,6239416246,79,908016,0.0001364,0.007072,0.007774,2.48e-05,6.199e-05,0.007126,2.67e-05,1.335e-05,0.001831,0.001499,2.341,0.007086,0,0,0.0002422
130800000000,131100000000,6239416246,79,908016,0.05536,0.01228,0.01385,0.001692,0.00173,0.02567,0.00518,1.907e-05,0.355,0.05151,0.9841,0.001184,0,0,0.0002337
141300000000,141600000000,6239416246,79,908016,0.0001736,0.007889,0.008804,4.292e-05,8.869e-05,0.009781,2.575e-05,1.431e-05,0.001831,0.001499,2.41,0.007278,0,0,5.627e-05
141600000000,141900000000,6239416246,79,908016,0.0001469,0.007095,0.007774,4.387e-05,8.583e-05,0.007141,2.861e-05,1.431e-05,0.001709,0.002144,2.348,0.007052,0,0,8.011e-05
141900000000,142200000000,6239416246,79,908016,0.1396,0.01886,0.02017,0.003983,0.004021,0.02872,0.01578,2.956e-05,0.3696,0.05505,1.131,0.001605,0,0,0.2061
142200000000,142500000000,6239416246,79,908016,0.0002861,0.0143,0.01559,1.049e-05,4.768e-05,0.01651,3.242e-05,1.431e-05,0.004761,0.001358,1.308,0.002221,0,0,0.0001097
142500000000,142800000000,6239416246,79,908016,0.0001745,0.009827,0.01108,1.144e-05,5.436e-05,0.01208,3.529e-05,1.431e-05,0.001709,0.001499,2.378,0.007165,0,0,0.0003471
142800000000,143100000000,6239416246,79,908016,0.0001526,0.007118,0.007767,1.144e-05,5.15e-05,0.007545,3.338e-05,1.431e-05,0.001709,0.002716,2.309,0.00675,0,0,7.248e-05
143100000000,143400000000,6239416246,79,908016,0.0001526,0.007103,0.007774,1.335e-05,5.436e-05,0.007149,2.289e-05,1.431e-05,0.001953,0.0008574,2.522,0.007554,0,0,9.632e-05
143400000000,143700000000,6239416246,79,908016,0.0001516,0.007103,0.007774,1.335e-05,5.627e-05,0.007149,2.003e-05,1.431e-05,0.001953,0.0002861,2.511,0.007576,0,0,5.245e-05
144000000000,144300000000,6239416246,79,908016,0.000145,0.007103,0.007774,1.431e-05,5.722e-05,0.007149,2.384e-05,1.431e-05,0.001709,0.001143,2.438,0.007448,0,0,6.008e-05
144300000000,144600000000,6239416246,79,908016,0.0001459,0.007095,0.007774,1.431e-05,5.531e-05,0.007149,2.193e-05,1.431e-05,0.001587,0.0007858,2.42,0.00747,0,0,6.866e-05
144600000000,144900000000,6239416246,79,908016,0.000144,0.007088,0.007774,1.431e-05,5.054e-05,0.007141,2.48e-05,1.431e-05,0.001953,0.001143,2.453,0.007125,0,0,0.0001278
144900000000,145200000000,6239416246,79,908016,0.0001402,0.007095,0.007774,1.431e-05,5.817e-05,0.007141,2.67e-05,1.431e-05,0.001831,0.001358,2.268,0.006761,0,0,7.82e-05
145200000000,145500000000,6239416246,79,908016,0.0001364,0.007095,0.007774,1.526e-05,5.436e-05,0.007141,2.384e-05,1.431e-05,0.001831,0.0007143,2.237,0.006827,0,0,0.000329
145500000000,145800000000,6239416246,79,908016,0.0001488,0.007088,0.007774,1.526e-05,5.341e-05,0.007141,3.147e-05,1.431e-05,0.001831,0.0009289,2.362,0.006957,0,0,9.823e-05
145800000000,146100000000,6239416246,79,908016,0.0001421,0.007095,0.007774,1.621e-05,5.817e-05,0.007141,3.147e-05,1.431e-05,0.002197,0.0009289,2.436,0.007233,0,0,5.245e-05
151200000000,151500000000,6239416246,79,908016,0.0001698,0.00946,0.01068,1.526e-05,4.959e-05,0.01175,2.289e-05,1.526e-05,0.001953,0.001215,2.423,0.007214,0,0,0.0001726
151500000000,151800000000,6239416246,79,908016,0.0001392,0.00724,0.007774,1.526e-05,5.341e-05,0.007278,2.575e-05,1.526e-05,0.001709,0.001215,2.237,0.006828,0,0,9.537e-05
151800000000,152100000000,6239416246,79,908016,0.000144,0.00724,0.007774,1.717e-05,5.531e-05,0.007286,3.529e-05,1.526e-05,0.001831,0.002144,2.489,0.007431,0,0,0.000104
152400000000,152700000000,6239416246,79,908016,0.0001411,0.00724,0.007774,1.717e-05,5.627e-05,0.007286,2.193e-05,1.526e-05,0.002075,0.0005713,2.325,0.006819,0,0,5.436e-05
152700000000,153000000000,6239416246,79,908016,0.000164,0.007233,0.007774,1.812e-05,5.341e-05,0.007286,3.433e-05,1.526e-05,0.002197,0.001642,2.48,0.007048,0,0,4.005e-05
153000000000,153300000000,6239416246,79,908016,0.000165,0.00724,0.007774,1.907e-05,5.817e-05,0.007286,2.098e-05,1.526e-05,0.001953,0.0008574,2.623,0.00761,0,0,5.341e-05
153300000000,153600000000,6239416246,79,908016,0.0001736,0.00724,0.007774,1.907e-05,5.722e-05,0.007286,3.433e-05,1.526e-05,0.002075,0.0009995,2.744,0.007795,0,0,5.627e-05
153600000000,153900000000,6239416246,79,908016,0.0001698,0.00724,0.007774,1.907e-05,5.913e-05,0.007286,3.91e-05,1.526e-05,0.002075,0.001715,2.68,0.007655,0,0,9.537e-05
154200000000,154500000000,6239416246,79,908016,0.000329,0.01376,0.01497,8.583e-06,4.673e-05,0.01599,2.861e-05,1.526e-05,0.004761,0.0009995,1.391,0.002471,0,0,0.000102
154500000000,154800000000,6239416246,79,908016,0.000205,0.00943,0.01054,8.583e-06,4.959e-05,0.01167,2.48e-05,1.526e-05,0.002197,0.0006428,2.674,0.007777,0,0,4.101e-05
154800000000,155100000000,6239416246,79,908016,0.0001574,0.007202,0.007774,8.583e-06,4.578e-05,0.007256,3.719e-05,1.526e-05,0.002197,0.001358,2.514,0.007585,0,0,4.196e-05
155100000000,155400000000,6239416246,79,908016,0.0001583,0.00721,0.007774,9.537e-06,5.15e-05,0.007256,2.48e-05,1.526e-05,0.001953,0.001286,2.501,0.007483,0,0,7.629e-05
155700000000,156000000000,6239416246,79,908016,0.06036,0.01096,0.01189,0.001539,0.001575,0.02567,0.005836,2.098e-05,0.481,0.05151,1.014,0.001252,0,0,6.199e-05
161100000000,161400000000,6239416246,79,908016,0.009613,0.01331,0.01465,0.000205,0.0002432,0.02188,0.001232,1.621e-05,0.3584,0.05658,0.8909,0.0008262,0,0,9.918e-05
161400000000,161700000000,6239416246,79,908016,0.0001802,0.008804,0.009857,1.621e-05,5.341e-05,0.01097,2.193e-05,1.526e-05,0.001953,0.0004282,2.354,0.006929,0,0,0.0001307
162000000000,162300000000,6239416246,79,908016,0.00634,0.00737,0.007904,4.196e-05,8.392e-05,0.008789,0.0002775,1.621e-05,0.2969,0.02057,2.523,0.007639,0,0,0.2969
162300000000,162600000000,6239416246,79,908016,0.0001583,0.007301,0.007774,2.575e-05,6.676e-05,0.007355,2.575e-05,1.621e-05,0.002075,0.001215,2.468,0.007183,0,0,7.153e-05
162600000000,162900000000,6239416246,79,908016,0.0001497,0.007301,0.007774,2.575e-05,6.771e-05,0.007355,2.48e-05,1.621e-05,0.001831,0.0007858,2.463,0.007283,0,0,4.482e-05
162900000000,163200000000,6239416246,79,908016,0.0001535,0.007301,0.007774,2.67e-05,7.057e-05,0.007355,2.193e-05,1.621e-05,0.001831,0.0007858,2.426,0.007037,0,0,9.06e-05
163200000000,163500000000,6239416246,79,908016,0.006836,0.007347,0.007904,4.768e-05,8.678e-05,0.008759,0.0004559,1.621e-05,0.2905,0.02878,2.488,0.00768,0,0,4.387e-05
163500000000,163800000000,6239416246,79,908016,0.0001583,0.007286,0.007774,2.48e-05,6.676e-05,0.007332,2.003e-05,1.621e-05,0.001709,0.0003567,2.483,0.007307,0,0,8.965e-05
163800000000,164100000000,6239416246,79,908016,0.005905,0.007301,0.007889,3.815e-05,7.534e-05,0.008591,0.000412,1.621e-05,0.3135,0.02301,2.517,0.007593,0,0,0.0002089
164100000000,164400000000,6239416246,79,908016,0.0001583,0.007225,0.007774,2.193e-05,6.008e-05,0.007278,2.384e-05,1.621e-05,0.001953,0.0007143,2.445,0.007139,0,0,5.245e-05
164400000000,164700000000,6239416246,79,908016,0.0001564,0.007225,0.007774,2.193e-05,6.104e-05,0.007278,3.433e-05,1.621e-05,0.001953,0.003071,2.46,0.007123,0,0,0.0001411
164700000000,165000000000,6239416246,79,908016,0.0001545,0.007225,0.007774,2.289e-05,5.913e-05,0.007278,3.147e-05,1.621e-05,0.001831,0.001928,2.39,0.006971,0,0,9.441e-05
165000000000,165300000000,6239416246,79,908016,0.0001497,0.007233,0.007774,2.289e-05,6.294e-05,0.007278,2.575e-05,1.621e-05,0.001831,0.0009289,2.409,0.007051,0,0,8.202e-05
165300000000,165600000000,6239416246,79,908016,0.0001593,0.007225,0.007774,2.384e-05,6.104e-05,0.007278,3.719e-05,1.621e-05,0.002075,0.001358,2.623,0.007782,0,0,6.104e-05
165600000000,165900000000,6239416246,79,908016,0.0001526,0.007233,0.007774,2.384e-05,6.39e-05,0.007278,2.289e-05,1.621e-05,0.001953,0.0007858,2.493,0.007464,0,0,8.011e-05
165900000000,166200000000,6239416246,79,908016,0.0001593,0.007233,0.007774,2.384e-05,6.294e-05,0.007278,2.861e-05,1.621e-05,0.001831,0.001429,2.537,0.007591,0,0,0.000103
166200000000,166500000000,6239416246,79,908016,0.0001545,0.007225,0.007774,2.48e-05,6.199e-05,0.007278,2.098e-05,1.621e-05,0.001831,0.0005713,2.567,0.007411,0,0,6.866e-05
166500000000,166800000000,6239416246,79,908016,0.0001621,0.007233,0.007774,2.48e-05,6.58e-05,0.007278,2.289e-05,1.621e-05,0.001953,0.0009995,2.714,0.007717,0,0,0.0002947
166800000000,167100000000,6239416246,79,908016,0.0001545,0.007233,0.007774,2.48e-05,6.294e-05,0.007278,2.193e-05,1.621e-05,0.001953,0.0006428,2.504,0.007446,0,0,6.199e-05
167100000000,167400000000,6239416246,79,908016,0.0001526,0.007233,0.007774,2.575e-05,6.485e-05,0.007278,2.48e-05,1.621e-05,0.001709,0.001499,2.43,0.007187,0,0,0.0001612
167400000000,167700000000,6239416246,79,908016,0.0001526,0.007233,0.007774,2.575e-05,6.39e-05,0.007278,2.956e-05,1.621e-05,0.001953,0.001072,2.393,0.007059,0,0,0.0001125
167700000000,168000000000,6239416246,79,908016,0.0001516,0.007225,0.007774,2.575e-05,6.294e-05,0.007278,2.098e-05,1.621e-05,0.001831,0.0004282,2.357,0.006842,0,0,6.962e-05
168000000000,168300000000,6239416246,79,908016,0.0001497,0.007233,0.007774,2.67e-05,6.771e-05,0.007278,3.338e-05,1.621e-05,0.002075,0.001215,2.302,0.006821,0,0,4.768e-05
168300000000,168600000000,6239416246,79,908016,0.0001564,0.007225,0.007774,2.67e-05,6.39e-05,0.007278,3.338e-05,1.621e-05,0.001709,0.001072,2.517,0.007422,0,0,6.104e-05
168600000000,168900000000,6239416246,79,908016,0.0001478,0.007225,0.007774,2.67e-05,6.58e-05,0.007278,3.624e-05,1.621e-05,0.001709,0.001072,2.401,0.007234,0,0,7.248e-05
168900000000,169200000000,6239416246,79,908016,0.0001535,0.007225,0.007774,2.766e-05,6.771e-05,0.007271,4.101e-05,1.621e-05,0.001831,0.001143,2.417,0.007377,0,0,9.251e-05
169200000000,169500000000,6239416246,79,908016,0.0001507,0.007217,0.007774,2.766e-05,6.294e-05,0.007271,2.48e-05,1.621e-05,0.001831,0.0009995,2.505,0.007487,0,0,9.632e-05
169500000000,169800000000,6239416246,79,908016,0.0001516,0.007225,0.007774,2.861e-05,6.676e-05,0.007271,2.289e-05,1.621e-05,0.001831,0.0008574,2.467,0.007523,0,0,8.965e-05
169800000000,170100000000,6239416246,79,908016,0.0001488,0.007217,0.007774,2.861e-05,6.58e-05,0.007271,2.384e-05,1.621e-05,0.001709,0.0009289,2.411,0.007508,0,0,0.0001154
170100000000,170400000000,6239416246,79,908016,0.0001574,0.007217,0.007774,2.861e-05,6.866e-05,0.007271,5.054e-05,1.621e-05,0.001831,0.001715,2.496,0.007566,0,0,0.0001192
170400000000,170700000000,6239416246,79,908016,0.0001564,0.007217,0.007774,2.956e-05,6.676e-05,0.007271,3.052e-05,1.621e-05,0.001953,0.001286,2.479,0.007505,0,0,5.341e-05
170700000000,171000000000,6239416246,79,908016,0.0001545,0.007217,0.007774,2.956e-05,6.58e-05,0.007263,2.766e-05,1.621e-05,0.001953,0.0007858,2.396,0.007437,0,0,8.392e-05
171000000000,171300000000,6239416246,79,908016,0.0001583,0.007217,0.007774,2.956e-05,6.771e-05,0.007263,2.289e-05,1.621e-05,0.001831,0.0008574,2.523,0.007635,0,0,0.0001373
171300000000,171600000000,6239416246,79,908016,0.0001583,0.00721,0.007774,3.052e-05,6.676e-05,0.007263,2.289e-05,1.621e-05,0.002075,0.001072,2.487,0.007283,0,0,5.054e-05
171600000000,171900000000,6239416246,79,908016,0.0001583,0.00721,0.007774,3.052e-05,6.962e-05,0.007263,2.48e-05,1.621e-05,0.001953,0.0008574,2.532,0.007195,0,0,0.000104
171900000000,172200000000,6239416246,79,908016,0.0001631,0.00721,0.007774,3.052e-05,6.676e-05,0.007256,2.766e-05,1.621e-05,0.002319,0.0007143,2.629,0.007237,0,0,2.956e-05
172200000000,172500000000,6239416246,79,908016,0.0001459,0.007202,0.007774,3.147e-05,6.866e-05,0.007256,2.289e-05,1.621e-05,0.001831,0.0007143,2.393,0.006883,0,0,5.054e-05
172500000000,172800000000,6239416246,79,908016,0.0001431,0.007202,0.007774,3.147e-05,7.057e-05,0.007256,2.098e-05,1.621e-05,0.001709,0.0007143,2.345,0.007084,0,0,4.673e-05
172800000000,173100000000,6239416246,79,908016,0.0001421,0.007195,0.007774,3.242e-05,6.771e-05,0.007248,2.193e-05,1.621e-05,0.001831,0.0004997,2.425,0.007341,0,0,6.866e-05
173100000000,173400000000,6239416246,79,908016,0.0001469,0.007202,0.007774,3.242e-05,7.153e-05,0.007248,2.48e-05,1.621e-05,0.001831,0.0009995,2.433,0.007446,0,0,5.817e-05
173400000000,173700000000,6239416246,79,908016,0.0001402,0.007195,0.007774,3.242e-05,7.057e-05,0.007248,2.575e-05,1.621e-05,0.001953,0.001286,2.423,0.00704,0,0,7.439e-05
173700000000,174000000000,6239416246,79,908016,0.0001478,0.007195,0.007774,3.242e-05,6.962e-05,0.007248,2.003e-05,1.621e-05,0.001831,0.0006428,2.412,0.007134,0,0,0.0001488
174000000000,174300000000,6239416246,79,908016,0.0001469,0.007195,0.007774,3.338e-05,7.248e-05,0.00724,2.289e-05,1.621e-05,0.001953,0.0009995,2.469,0.007384,0,0,4.864e-05
174300000000,174600000000,6239416246,79,908016,0.000145,0.007187,0.007774,3.338e-05,6.866e-05,0.00724,2.384e-05,1.621e-05,0.001709,0.0007143,2.386,0.007067,0,0,3.147e-05
174600000000,174900000000,6239416246,79,908016,0.0001402,0.007187,0.007774,3.338e-05,7.248e-05,0.00724,2.193e-05,1.621e-05,0.001709,0.0006428,2.321,0.006675,0,0,5.817e-05
174900000000,175200000000,6239416246,79,908016,0.000145,0.007187,0.007774,3.433e-05,7.248e-05,0.00724,2.48e-05,1.621e-05,0.001831,0.001072,2.324,0.006697,0,0,4.101e-05
175200000000,175500000000,6239416246,79,908016,0.000145,0.007187,0.007774,3.433e-05,7.153e-05,0.00724,2.575e-05,1.621e-05,0.001831,0.0008574,2.29,0.006722,0,0,7.82e-05
175500000000,175800000000,6239416246,79,908016,0.0001602,0.007187,0.007774,3.529e-05,7.343e-05,0.00724,2.575e-05,1.621e-05,0.001831,0.001072,2.57,0.007563,0,0,0.0001183
175800000000,176100000000,6239416246,79,908016,0.0001612,0.007187,0.007774,3.529e-05,7.248e-05,0.00724,2.956e-05,1.621e-05,0.001953,0.001286,2.729,0.007817,0,0,4.673e-05
186300000000,186600000000,6239416246,79,908016,0.0001535,0.007187,0.007774,4.768e-05,8.488e-05,0.00724,2.861e-05,1.621e-05,0.001953,0.001072,2.427,0.007243,0,0,0.0001268
186600000000,186900000000,6239416246,79,908016,0.0001583,0.007195,0.007774,4.768e-05,8.678e-05,0.00724,2.67e-05,1.621e-05,0.001953,0.001072,2.646,0.00752,0,0,4.673e-05
186900000000,187200000000,6239416246,79,908016,0.0001574,0.007187,0.007774,4.768e-05,8.583e-05,0.00724,2.861e-05,1.621e-05,0.001709,0.001499,2.53,0.007324,0,0,7.248e-05
187200000000,187500000000,6239416246,79,908016,0.0001516,0.007187,0.007774,4.864e-05,8.488e-05,0.00724,2.67e-05,1.621e-05,0.001953,0.001143,2.52,0.007507,0,0,9.441e-05
187500000000,187800000000,6239416246,79,908016,0.0001535,0.007187,0.007774,4.864e-05,8.678e-05,0.00724,3.052e-05,1.621e-05,0.001953,0.001143,2.599,0.007499,0,0,5.722e-05
187800000000,188100000000,6239416246,79,908016,0.0001526,0.007187,0.007774,4.864e-05,8.392e-05,0.00724,2.766e-05,1.621e-05,0.002197,0.001429,2.56,0.00748,0,0,0.0001602
188100000000,188400000000,6239416246,79,908016,0.0001526,0.007195,0.007774,4.959e-05,8.965e-05,0.00724,2.48e-05,1.621e-05,0.001953,0.001072,2.529,0.007034,0,0,9.155e-05
188400000000,188700000000,6239416246,79,908016,0.0001469,0.007187,0.007774,4.959e-05,8.583e-05,0.00724,2.67e-05,1.621e-05,0.001953,0.001358,2.461,0.006921,0,0,4.768e-05
188700000000,189000000000,6239416246,79,908016,0.0001459,0.007187,0.007774,5.054e-05,8.774e-05,0.00724,1.812e-05,1.621e-05,0.001709,0.0002861,2.377,0.006901,0,0,4.387e-05
189000000000,189300000000,6239416246,79,908016,0.0001354,0.007195,0.007774,5.054e-05,8.965e-05,0.00724,2.575e-05,1.621e-05,0.001709,0.0009289,2.358,0.00681,0,0,6.104e-05
189300000000,189600000000,6239416246,79,908016,0.0001392,0.007187,0.007774,5.054e-05,8.583e-05,0.00724,2.289e-05,1.621e-05,0.001709,0.0009289,2.416,0.006645,0,0,8.011e-05
189600000000,189900000000,6239416246,79,908016,0.0001364,0.007195,0.007774,5.15e-05,9.06e-05,0.00724,2.384e-05,1.621e-05,0.001709,0.0009995,2.419,0.006856,0,0,7.057e-05
189900000000,190200000000,6239416246,79,908016,0.000144,0.007195,0.007774,5.15e-05,9.06e-05,0.00724,2.575e-05,1.621e-05,0.001953,0.001072,2.462,0.006899,0,0,0.0001316
190200000000,190500000000,6239416246,79,908016,0.0001478,0.007187,0.007774,5.15e-05,8.869e-05,0.00724,3.719e-05,1.621e-05,0.001953,0.001286,2.454,0.007078,0,0,4.864e-05
190500000000,190800000000,6239416246,79,908016,0.0001354,0.007195,0.007774,5.245e-05,9.06e-05,0.00724,2.861e-05,1.621e-05,0.001709,0.001572,2.262,0.006614,0,0,5.627e-05
190800000000,191100000000,6239416246,79,908016,0.0001316,0.007187,0.007774,5.245e-05,8.869e-05,0.00724,2.193e-05,1.621e-05,0.001709,0.0005713,2.273,0.006738,0,0,0.0001144
191100000000,191400000000,6239416246,79,908016,0.000144,0.007187,0.007774,5.245e-05,9.06e-05,0.00724,2.193e-05,1.621e-05,0.001953,0.001215,2.405,0.006878,0,0,2.861e-05
191400000000,191700000000,6239416246,79,908016,0.0001373,0.007187,0.007774,5.341e-05,9.155e-05,0.00724,2.003e-05,1.621e-05,0.001953,0.0005713,2.418,0.006913,0,0,6.104e-05
191700000000,192000000000,6239416246,79,908016,0.0001364,0.007187,0.007774,5.341e-05,8.869e-05,0.00724,2.003e-05,1.621e-05,0.001709,0.0002861,2.332,0.006708,0,0,0.0001163
192000000000,192300000000,6239416246,79,908016,0.0001345,0.007187,0.007774,5.436e-05,9.346e-05,0.00724,2.289e-05,1.621e-05,0.001709,0.0008574,2.253,0.006439,0,0,0.0001106
192300000000,192600000000,6239416246,79,908016,0.0001392,0.007187,0.007774,5.436e-05,9.251e-05,0.00724,2.861e-05,1.621e-05,0.001709,0.001286,2.258,0.006538,0,0,0.000103
192600000000,192900000000,6239416246,79,908016,0.0001354,0.007187,0.007774,5.436e-05,9.155e-05,0.00724,2.384e-05,1.621e-05,0.001953,0.0009289,2.272,0.006523,0,0,7.725e-05
192900000000,193200000000,6239416246,79,908016,0.0001364,0.007187,0.007774,5.531e-05,9.346e-05,0.00724,2.003e-05,1.621e-05,0.001709,0.0002861,2.3,0.006635,0,0,5.913e-05
193200000000,193500000000,6239416246,79,908016,0.0001402,0.007187,0.007774,5.531e-05,9.251e-05,0.00724,2.861e-05,1.621e-05,0.001709,0.0009995,2.39,0.006857,0,0,4.005e-05
193500000000,193800000000,6239416246,79,908016,0.0001411,0.007187,0.007774,5.531e-05,9.441e-05,0.00724,2.384e-05,1.621e-05,0.001953,0.001358,2.492,0.007075,0,0,7.629e-05
193800000000,194100000000,6239416246,79,908016,0.0001411,0.007187,0.007774,5.627e-05,9.346e-05,0.00724,3.433e-05,1.621e-05,0.001953,0.001215,2.337,0.006939,0,0,7.439e-05
194100000000,194400000000,6239416246,79,908016,0.0001507,0.007187,0.007774,5.627e-05,9.251e-05,0.00724,2.193e-05,1.621e-05,0.001953,0.0007143,2.589,0.007329,0,0,3.91e-05
194400000000,194700000000,6239416246,79,908016,0.0001431,0.007187,0.007774,5.627e-05,9.441e-05,0.00724,2.48e-05,1.621e-05,0.001953,0.001072,2.479,0.007369,0,0,7.629e-05
194700000000,195000000000,6239416246,79,908016,0.0001364,0.007187,0.007774,5.722e-05,9.346e-05,0.00724,2.289e-05,1.621e-05,0.002693,0.0009289,2.223,0.00657,0,0,0.0001831
195000000000,195300000000,6239416246,79,908016,0.0001297,0.007187,0.007774,5.722e-05,9.537e-05,0.00724,1.907e-05,1.621e-05,0.001465,0.0002861,2.207,0.006388,0,0,2.575e-05
195300000000,195600000000,6239416246,79,908016,0.0001287,0.007187,0.007774,5.722e-05,9.441e-05,0.00724,2.003e-05,1.621e-05,0.001465,0.0004997,2.15,0.006248,0,0,2.766e-05
195600000000,195900000000,6239416246,79,908016,0.000124,0.007187,0.007774,5.817e-05,9.346e-05,0.00724,1.907e-05,1.621e-05,0.001709,0.0003567,2.137,0.006304,0,0,7.915e-05
195900000000,196200000000,6239416246,79,908016,0.0001259,0.007187,0.007774,5.817e-05,9.823e-05,0.00724,2.575e-05,1.621e-05,0.001465,0.001358,2.166,0.006575,0,0,7.153e-05
201300000000,201600000000,6239416246,79,908016,0.0001411,0.007187,0.007774,6.485e-05,0.000102,0.00724,2.289e-05,1.621e-05,0.001709,0.001143,2.299,0.006883,0,0,0.0001192
201600000000,201900000000,6239416246,79,908016,0.0001469,0.007187,0.007774,6.485e-05,0.000102,0.00724,2.575e-05,1.621e-05,0.001709,0.0005713,2.45,0.007094,0,0,7.343e-05
201900000000,202200000000,6239416246,79,908016,0.0001383,0.007187,0.007774,6.58e-05,0.000104,0.00724,2.575e-05,1.621e-05,0.001709,0.001429,2.435,0.006961,0,0,0.0001192
202200000000,202500000000,6239416246,79,908016,0.0001335,0.007187,0.007774,6.58e-05,0.000103,0.00724,2.861e-05,1.621e-05,0.001709,0.0009995,2.339,0.006759,0,0,7.915e-05
202500000000,202800000000,6239416246,79,908016,0.0001278,0.007187,0.007774,6.58e-05,0.000102,0.00724,2.956e-05,1.621e-05,0.001953,0.001429,2.176,0.00636,0,0,7.343e-05
202800000000,203100000000,6239416246,79,908016,0.0001459,0.007187,0.007774,6.676e-05,0.0001068,0.00724,2.48e-05,1.621e-05,0.001709,0.001358,2.453,0.006989,0,0,4.387e-05
203100000000,203400000000,6239416246,79,908016,0.0001478,0.007187,0.007774,6.676e-05,0.000103,0.00724,2.003e-05,1.621e-05,0.001709,0.0003567,2.363,0.006605,0,0,0.0002451
203400000000,203700000000,6239416246,79,908016,0.0001554,0.007187,0.007774,6.676e-05,0.0001049,0.00724,3.815e-05,1.621e-05,0.001953,0.001429,2.542,0.007042,0,0,8.297e-05
203700000000,204000000000,6239416246,79,908016,0.0001526,0.007187,0.007774,6.771e-05,0.0001049,0.00724,2.956e-05,1.621e-05,0.001953,0.001215,2.534,0.006874,0,0,0.000165
204000000000,204300000000,6239416246,79,908016,0.0001402,0.007187,0.007774,6.771e-05,0.0001049,0.00724,2.003e-05,1.621e-05,0.001953,0.0003567,2.361,0.00642,0,0,0.0001307
204300000000,204600000000,6239416246,79,908016,0.02036,0.007858,0.008453,0.0003843,0.0004215,0.01736,0.004181,1.717e-05,0.311,0.0636,2.366,0.006665,0,0,7.057e-05
204900000000,205200000000,6239416246,79,908016,0.000165,0.01207,0.01328,9.537e-06,4.482e-05,0.01436,2.67e-05,1.621e-05,0.001953,0.001286,2.484,0.007203,0,0,9.155e-05
205200000000,205500000000,6239416246,79,908016,0.0001631,0.007935,0.008789,9.537e-06,3.815e-05,0.009766,3.147e-05,1.621e-05,0.001709,0.0008574,2.383,0.007055,0,0,0.0001116
205500000000,205800000000,6239416246,79,908016,0.0001411,0.00721,0.007774,1.144e-05,4.005e-05,0.007271,2.861e-05,1.621e-05,0.001953,0.002785,2.357,0.006868,0,0,5.15e-05
205800000000,206100000000,6239416246,79,908016,0.06189,0.01433,0.01581,0.001797,0.001825,0.0271,0.005791,2.289e-05,0.3516,0.05438,1.045,0.001077,0,0,0.2891
206100000000,206400000000,6239416246,79,908016,0.0001545,0.01357,0.01477,9.537e-06,3.91e-05,0.01584,3.052e-05,1.621e-05,0.001953,0.0009995,2.331,0.00671,0,0,0.0002871
207000000000,207300000000,6239416246,79,908016,0.0001411,0.007385,0.007774,1.144e-05,4.101e-05,0.007446,3.147e-05,1.717e-05,0.002441,0.001143,2.582,0.007243,0,0,2.956e-05
207300000000,207600000000,6239416246,79,908016,0.0001373,0.007385,0.007774,1.24e-05,4.101e-05,0.007446,2.766e-05,1.717e-05,0.001709,0.001072,2.355,0.006943,0,0,6.866e-05
207600000000,207900000000,6239416246,79,908016,0.0001354,0.007385,0.007774,1.24e-05,4.196e-05,0.007446,2.67e-05,1.717e-05,0.002441,0.0007858,2.292,0.006688,0,0,4.387e-05
207900000000,208200000000,6239416246,79,908016,0.000145,0.007385,0.007774,1.24e-05,4.196e-05,0.007454,2.193e-05,1.717e-05,0.001709,0.001072,2.426,0.006994,0,0,3.719e-05
208200000000,208500000000,6239416246,79,908016,0.0001411,0.007385,0.007774,1.335e-05,4.482e-05,0.007446,2.003e-05,1.717e-05,0.001709,0.0004997,2.407,0.00705,0,0,6.008e-05
208500000000,208800000000,6239416246,79,908016,0.0001411,0.007385,0.007774,1.335e-05,4.196e-05,0.007446,2.575e-05,1.717e-05,0.001709,0.001072,2.385,0.00681,0,0,4.482e-05
208800000000,209100000000,6239416246,79,908016,0.0001364,0.007385,0.007774,1.431e-05,4.196e-05,0.007446,2.861e-05,1.717e-05,0.001953,0.001143,2.358,0.006984,0,0,4.387e-05
209100000000,209400000000,6239416246,79,908016,0.000144,0.007385,0.007774,1.431e-05,4.196e-05,0.007446,3.052e-05,1.717e-05,0.001709,0.0009289,2.387,0.006888,0,0,5.15e-05
209400000000,209700000000,6239416246,79,908016,0.0001411,0.007385,0.007774,1.431e-05,4.482e-05,0.007446,2.193e-05,1.717e-05,0.002197,0.0003567,2.431,0.006887,0,0,4.578e-05
209700000000,210000000000,6239416246,79,908016,0.0001411,0.007385,0.007774,1.526e-05,4.482e-05,0.007446,2.098e-05,1.717e-05,0.001709,0.0007143,2.333,0.006747,0,0,7.915e-05
210000000000,210300000000,6239416246,79,908016,0.0001421,0.007385,0.007774,1.526e-05,4.482e-05,0.007446,2.098e-05,1.717e-05,0.001953,0.0004282,2.477,0.007063,0,0,0.0001259
210300000000,210600000000,6239416246,79,908016,0.0001392,0.007385,0.007774,1.526e-05,4.387e-05,0.007446,2.098e-05,1.717e-05,0.001709,0.0004997,2.362,0.006822,0,0,0.000104
210600000000,210900000000,6239416246,79,908016,0.000145,0.007385,0.007774,1.621e-05,4.673e-05,0.007439,2.289e-05,1.717e-05,0.001953,0.0004997,2.486,0.006736,0,0,8.106e-05
210900000000,211200000000,6239416246,79,908016,0.000145,0.007378,0.007774,1.621e-05,4.482e-05,0.007439,2.193e-05,1.717e-05,0.001953,0.0004282,2.375,0.006621,0,0,3.91e-05
211200000000,211500000000,6239416246,79,908016,0.0001364,0.007378,0.007774,1.621e-05,4.387e-05,0.007439,2.289e-05,1.717e-05,0.001465,0.0006428,2.262,0.006644,0,0,2.861e-05
211800000000,212100000000,6239416246,79,908016,0.0001383,0.007347,0.007774,2.384e-05,5.245e-05,0.007408,2.003e-05,1.717e-05,0.001709,0.0003567,2.251,0.006575,0,0,0.000103
212100000000,212400000000,6239416246,79,908016,0.007698,0.007401,0.007889,5.436e-05,8.297e-05,0.008896,0.0004044,1.717e-05,0.311,0.01736,0.7585,0.0002639,0,0,3.242e-05
212400000000,212700000000,6239416246,79,908016,0.0001497,0.007332,0.007774,2.384e-05,5.341e-05,0.007393,2.67e-05,1.717e-05,0.001953,0.001143,2.52,0.007275,0,0,0.0001678
212700000000,213000000000,6239416246,79,908016,0.007469,0.007454,0.007996,0.0001411,0.000165,0.008713,0.0004225,1.717e-05,0.3213,0.0242,0.7528,0.0002615,0,0,9.823e-05
213300000000,213600000000,6239416246,79,908016,0.1061,0.02261,0.02615,0.004951,0.004982,0.03473,0.01419,3.624e-05,0.3794,0.06494,0.9672,0.001056,0,0,0.3022
213600000000,213900000000,6239416246,79,908016,0.0001554,0.01376,0.01495,1.144e-05,4.005e-05,0.01599,2.575e-05,1.717e-05,0.001953,0.001215,2.556,0.007279,0,0,5.245e-05
213900000000,214200000000,6239416246,79,908016,0.06348,0.01749,0.01877,0.00209,0.002117,0.02951,0.00547,2.384e-05,0.3677,0.0545,1.033,0.001312,0,0,0.3291
214200000000,214500000000,6239416246,79,908016,0.0001526,0.01477,0.01593,1.144e-05,3.815e-05,0.01694,2.575e-05,1.717e-05,0.001709,0.001286,2.436,0.007076,0,0,6.104e-05
214500000000,214800000000,6239416246,79,908016,0.0001831,0.01022,0.01144,1.24e-05,3.719e-05,0.01251,2.67e-05,1.717e-05,0.002441,0.001429,2.522,0.006782,0,0,6.962e-05
214800000000,215100000000,6239416246,79,908016,0.0001469,0.007698,0.00798,1.144e-05,3.624e-05,0.00798,2.956e-05,1.717e-05,0.001953,0.001286,2.243,0.006511,0,0,0.0001049
215100000000,215400000000,6239416246,79,908016,0.0001507,0.007683,0.007774,8.583e-06,2.956e-05,0.007744,1.907e-05,1.717e-05,0.001709,0.0004282,2.493,0.00712,0,0,8.965e-05
215700000000,216000000000,6239416246,79,908016,0.0001411,0.007683,0.007774,8.583e-06,3.052e-05,0.007744,2.575e-05,1.717e-05,0.001709,0.0008574,2.286,0.006793,0,0,0.0001001
216000000000,216300000000,6239416246,79,908016,0.0001364,0.007683,0.007774,9.537e-06,3.242e-05,0.007744,2.289e-05,1.717e-05,0.001709,0.0007143,2.343,0.007049,0,0,4.292e-05
221100000000,221400000000,6239416246,79,908016,0.0001535,0.01524,0.01648,1.335e-05,4.196e-05,0.01749,2.575e-05,1.717e-05,0.001709,0.001143,2.426,0.007206,0,0,3.91e-05
221400000000,221700000000,6239416246,79,908016,0.0001764,0.01073,0.01187,1.335e-05,4.482e-05,0.01299,2.098e-05,1.717e-05,0.001709,0.0002146,2.476,0.007085,0,0,0.0001106
221700000000,222000000000,6239416246,79,908016,0.0001554,0.007965,0.009705,1.431e-05,4.101e-05,0.008423,2.575e-05,1.717e-05,0.001709,0.001429,2.287,0.006518,0,0,8.774e-05
222000000000,222300000000,6239416246,79,908016,0.0001469,0.00795,0.00972,1.431e-05,4.387e-05,0.008011,2.003e-05,1.717e-05,0.001953,0.0003567,2.449,0.006895,0,0,9.06e-05
222300000000,222600000000,6239416246,79,908016,0.1062,0.0177,0.01935,0.003136,0.003162,0.03326,0.01143,3.338e-05,0.3721,0.05774,0.9356,0.000954,0,0,5.341e-05
222600000000,222900000000,6239416246,79,908016,0.01904,0.01555,0.01672,0.0002785,0.0003061,0.02277,0.003765,1.907e-05,0.3057,0.05713,2.559,0.00753,0,0,9.155e-05
222900000000,223200000000,6239416246,79,908016,0.1753,0.02576,0.02692,0.006248,0.006279,0.03461,0.02051,5.054e-05,0.3745,0.05878,0.9146,0.0008323,0,0,6.771e-05
223200000000,223500000000,6239416246,79,908016,0.02576,0.01947,0.02109,0.001385,0.001417,0.03461,0.003212,2.384e-05,0.3667,0.06433,1.079,0.001532,0,0,0.0001783
224100000000,224400000000,6239416246,79,908016,0.0001507,0.008148,0.00972,1.144e-05,4.482e-05,0.008209,3.242e-05,1.812e-05,0.001953,0.002785,2.578,0.007592,0,0,0.0005398
224400000000,224700000000,6239416246,79,908016,0.0001507,0.008133,0.00972,1.24e-05,3.624e-05,0.008209,2.67e-05,1.812e-05,0.001953,0.0007858,2.468,0.007289,0,0,4.768e-05
225000000000,225300000000,6239416246,79,908016,0.0001488,0.008148,0.00972,1.24e-05,4.387e-05,0.008209,2.861e-05,1.812e-05,0.001953,0.001072,2.493,0.007073,0,0,0.0001717
225300000000,225600000000,6239416246,79,908016,0.0001545,0.008148,0.00972,1.335e-05,3.815e-05,0.008209,3.624e-05,1.812e-05,0.001953,0.001358,2.48,0.007257,0,0,6.294e-05
225600000000,225900000000,6239416246,79,908016,0.0001431,0.008148,0.00972,1.335e-05,4.101e-05,0.008209,2.575e-05,1.812e-05,0.001709,0.001143,2.471,0.007382,0,0,0.0003815
225900000000,226200000000,6239416246,79,908016,0.0001488,0.008148,0.00972,1.335e-05,4.482e-05,0.008209,2.575e-05,1.812e-05,0.001953,0.0006428,2.514,0.007439,0,0,0.0001144
226200000000,226500000000,6239416246,79,908016,0.0001469,0.008133,0.00972,1.431e-05,3.91e-05,0.008194,2.193e-05,1.812e-05,0.001953,0.0007143,2.514,0.007247,0,0,4.387e-05
226500000000,226800000000,6239416246,79,908016,0.003452,0.008194,0.009766,2.289e-05,4.959e-05,0.0134,0.0006218,1.812e-05,0.2827,0.04865,2.538,0.007335,0,0,0.0001125
227100000000,227400000000,6239416246,79,908016,0.0001612,0.01617,0.01736,1.812e-05,4.387e-05,0.01846,2.48e-05,1.907e-05,0.001709,0.0009995,2.487,0.007462,0,0,6.58e-05
227400000000,227700000000,6239416246,79,908016,0.0001745,0.01172,0.013,1.812e-05,4.482e-05,0.01398,2.193e-05,1.907e-05,0.001953,0.0004282,2.503,0.007178,0,0,9.727e-05
227700000000,228000000000,6239416246,79,908016,0.0001669,0.008423,0.009705,1.907e-05,4.959e-05,0.00946,2.575e-05,1.907e-05,0.001709,0.001642,2.413,0.006747,0,0,8.583e-05
228000000000,228300000000,6239416246,79,908016,0.0002537,0.008286,0.00972,2.003e-05,4.959e-05,0.008347,4.387e-05,1.907e-05,0.1038,0.005783,2.422,0.007032,0,0,6.39e-05
228300000000,228600000000,6239416246,79,908016,0.1105,0.01804,0.01932,0.002739,0.002762,0.02881,0.00705,2.956e-05,0.3735,0.05444,0.9415,0.000888,0,0,8.488e-05
228600000000,228900000000,6239416246,79,908016,0.02582,0.01344,0.01463,0.0004549,0.0004826,0.02112,0.003498,2.098e-05,0.3579,0.05457,2.654,0.00736,0,0,0.0001087
228900000000,229200000000,6239416246,79,908016,0.03131,0.0159,0.0173,0.0009899,0.001019,0.02655,0.001968,2.193e-05,0.3438,0.02985,0.9368,0.000977,0,0,6.58e-05
229200000000,229500000000,6239416246,79,908016,0.0001888,0.01056,0.01169,1.24e-05,3.624e-05,0.0128,3.242e-05,1.907e-05,0.001953,0.001358,2.549,0.007318,0,0,0.0001888
229500000000,229800000000,6239416246,79,908016,0.0001583,0.008316,0.00972,1.335e-05,4.196e-05,0.008377,2.956e-05,1.907e-05,0.001953,0.001072,2.508,0.007133,0,0,3.147e-05
229800000000,230100000000,6239416246,79,908016,0.0001469,0.008316,0.00972,1.335e-05,4.482e-05,0.008377,2.575e-05,1.907e-05,0.001953,0.001572,2.501,0.007223,0,0,6.676e-05
230100000000,230400000000,6239416246,79,908016,0.07361,0.01323,0.01472,0.001457,0.001482,0.02557,0.004707,2.384e-05,0.3735,0.05444,0.9225,0.0009998,0,0,0.0001144
230400000000,230700000000,6239416246,79,908016,0.0001612,0.01385,0.01509,1.812e-05,4.959e-05,0.01602,2.766e-05,1.907e-05,0.001953,0.0009995,2.883,0.00879,0,0,5.245e-05
230700000000,231000000000,6239416246,79,908016,0.06311,0.01682,0.01816,0.001734,0.001766,0.02838,0.005943,2.48e-05,0.373,0.05316,0.9606,0.001089,0,0,8.202e-05
231000000000,231300000000,6239416246,79,908016,0.0001564,0.01332,0.01454,1.335e-05,5.341e-05,0.01558,3.815e-05,1.907e-05,0.001953,0.001715,2.42,0.007185,0,0,0.0001402
231300000000,231600000000,6239416246,79,908016,0.0001736,0.00914,0.01041,1.335e-05,5.817e-05,0.01105,3.052e-05,1.907e-05,0.001953,0.001072,2.392,0.006913,0,0,8.965e-05
231600000000,231900000000,6239416246,79,908016,0.0001402,0.008316,0.00972,1.335e-05,5.341e-05,0.008362,3.052e-05,1.907e-05,0.001709,0.001928,2.346,0.006959,0,0,8.583e-05
231900000000,232200000000,6239416246,79,908016,0.0001526,0.008316,0.00972,1.431e-05,5.531e-05,0.008362,2.575e-05,1.907e-05,0.002441,0.001215,2.326,0.006821,0,0,0.0002146
232500000000,232800000000,6239416246,79,908016,0.0001402,0.008316,0.00972,1.431e-05,5.436e-05,0.008362,3.052e-05,1.907e-05,0.002197,0.001143,2.381,0.007002,0,0,6.104e-05
232800000000,233100000000,6239416246,79,908016,0.0001364,0.008316,0.00972,1.526e-05,5.627e-05,0.008362,2.289e-05,1.907e-05,0.001709,0.001072,2.34,0.007031,0,0,2.67e-05
233100000000,233400000000,6239416246,79,908016,0.0001478,0.008316,0.00972,1.526e-05,5.913e-05,0.008362,2.766e-05,1.907e-05,0.002197,0.0009995,2.523,0.007154,0,0,9.918e-05
233400000000,233700000000,6239416246,79,908016,0.0001411,0.008316,0.00972,1.526e-05,5.913e-05,0.008362,2.575e-05,1.907e-05,0.001953,0.001215,2.388,0.006991,0,0,9.727e-05
233700000000,234000000000,6239416246,79,908016,0.0001421,0.008316,0.00972,1.621e-05,5.817e-05,0.008362,2.384e-05,1.907e-05,0.001709,0.0008574,2.356,0.007038,0,0,0.000165
234000000000,234300000000,6239416246,79,908016,0.0001431,0.008316,0.00972,1.621e-05,6.008e-05,0.008362,2.956e-05,1.907e-05,0.001709,0.0008574,2.368,0.00705,0,0,3.242e-05
234300000000,234600000000,6239416246,79,908016,0.0001364,0.008316,0.00972,1.717e-05,6.008e-05,0.008362,2.289e-05,1.907e-05,0.001709,0.0009995,2.294,0.006781,0,0,2.766e-05
234600000000,234900000000,6239416246,79,908016,0.0001383,0.008316,0.00972,1.717e-05,5.817e-05,0.008362,2.003e-05,1.907e-05,0.001953,0.0002861,2.234,0.006366,0,0,4.196e-05
234900000000,235200000000,6239416246,79,908016,0.0001421,0.008316,0.00972,1.717e-05,6.294e-05,0.008362,2.575e-05,1.907e-05,0.001709,0.001072,2.297,0.006594,0,0,7.439e-05
235200000000,235500000000,6239416246,79,908016,0.0001497,0.008316,0.00972,1.812e-05,5.913e-05,0.008362,2.67e-05,1.907e-05,0.001953,0.001143,2.443,0.006812,0,0,7.439e-05
235500000000,235800000000,6239416246,79,908016,0.000144,0.008301,0.00972,1.812e-05,6.104e-05,0.008362,2.48e-05,1.907e-05,0.001709,0.001143,2.389,0.00696,0,0,6.485e-05
235800000000,236100000000,6239416246,79,908016,0.0001431,0.008301,0.00972,1.812e-05,6.199e-05,0.008347,2.766e-05,1.907e-05,0.002197,0.001215,2.366,0.006825,0,0,0.0001678
236100000000,236400000000,6239416246,79,908016,0.0567,0.01393,0.01553,0.001587,0.001627,0.02667,0.004997,2.384e-05,0.3647,0.05438,1.206,0.001739,0,0,0.0009642
241800000000,242100000000,6239416246,79,288806452,0.0005827,0.001802,0.003864,0.0002146,0.0003853,0.003044,0.0001841,0,0.09143,0.02185,10.22,0.04345,0,0,8.678e-05
242100000000,242400000000,6239416246,79,288806452,0.06702,0.01134,0.01289,0.002522,0.002659,0.02502,0.006348,8.583e-06,0.2959,0.05408,1.176,0.001952,0,0,0.29
242400000000,242700000000,6239416246,79,288806452,0.0001411,0.009094,0.01019,3.338e-05,0.0001593,0.01144,3.242e-05,0,0.001083,0.001999,7.667,0.03174,0,0,0.0001097
242700000000,243000000000,6239416246,79,288806452,0.0001411,0.004616,0.005554,3.338e-05,0.0001593,0.006744,2.289e-05,0,0.001045,0.0006428,12.05,0.05236,0,0,6.676e-05
243000000000,243300000000,6239416246,79,288806452,0.04449,0.01201,0.01331,0.0006466,0.0007324,0.01935,0.003281,2.861e-06,0.3418,0.07349,1.042,0.001096,0,0,0.2405
243300000000,243600000000,6239416246,79,288806452,0.0001478,0.008713,0.009857,8.011e-05,0.000165,0.01096,2.67e-05,9.537e-07,0.001377,0.001215,10.82,0.04583,0,0,6.676e-05
243600000000,243900000000,6239416246,79,288806452,0.000144,0.004883,0.006111,8.106e-05,0.000165,0.006409,2.575e-05,9.537e-07,0.001217,0.001072,5.575,0.02268,0,0,0.0001364
243900000000,244200000000,6239416246,79,288806452,0.05554,0.008667,0.01033,0.001638,0.001722,0.02499,0.005379,5.722e-06,0.3228,0.09412,0.9718,0.0007999,0,0,0.0001173
244200000000,244500000000,6239416246,79,288806452,0.001091,0.01205,0.01335,4.101e-05,0.0001268,0.0144,0.0001059,9.537e-07,0.2383,0.01807,1.36,0.002257,0,0,9.727e-05
244500000000,244800000000,6239416246,79,288806452,0.07397,0.01474,0.0163,0.001444,0.001528,0.02286,0.005173,5.722e-06,0.355,0.08435,0.9632,0.001136,0,0,0.01314
244800000000,245100000000,6239416246,79,288806452,0.02502,0.01021,0.01128,0.0002222,0.000309,0.01324,0.0005131,9.537e-07,0.272,0.01956,6.786,0.02763,0,0,6.294e-05
245100000000,245400000000,6239416246,79,288806452,0.000165,0.005844,0.006882,7.153e-05,0.0001593,0.007904,2.67e-05,9.537e-07,0.001549,0.0009995,8.932,0.03685,0,0,9.346e-05
245400000000,245700000000,6239416246,79,288806452,0.05731,0.01273,0.01389,0.001471,0.001554,0.02426,0.005783,6.676e-06,0.5762,0.101,1.029,0.001337,0,0,0.1162
245700000000,246000000000,6239416246,79,288806452,0.0001564,0.01036,0.01154,3.052e-05,0.0001154,0.01263,2.67e-05,9.537e-07,0.001564,0.001572,8.609,0.03608,0,0,0.0001078
246000000000,246300000000,6239416246,79,288806452,0.0001631,0.006073,0.007004,2.956e-05,0.0001154,0.008087,2.861e-05,9.537e-07,0.00148,0.001928,4.616,0.0174,0,0,6.771e-05
251400000000,251700000000,6239416246,79,288806452,0.0001564,0.005287,0.005821,8.011e-05,0.0001688,0.005287,2.575e-05,9.537e-07,0.001556,0.001072,5.042,0.0189,0,0,4.196e-05
251700000000,252000000000,6239416246,79,288806452,0.0001516,0.005287,0.005821,8.011e-05,0.0001698,0.005287,2.384e-05,9.537e-07,0.001633,0.0006428,10.22,0.04382,0,0,5.913e-05
252000000000,252300000000,6239416246,79,288806452,0.0001535,0.005287,0.005821,8.106e-05,0.0001698,0.005287,2.384e-05,9.537e-07,0.001556,0.0006428,5.503,0.0219,0,0,0.0002613
252300000000,252600000000,6239416246,79,288806452,0.0001516,0.005287,0.005821,8.297e-05,0.0001717,0.005295,3.624e-05,9.537e-07,0.002052,0.004143,13.38,0.05835,0,0,9.632e-05
252600000000,252900000000,6239416246,79,288806452,0.0001526,0.005287,0.005821,8.678e-05,0.0001764,0.005295,2.098e-05,9.537e-07,0.001648,0.0004997,4.666,0.01747,0,0,8.583e-05
252900000000,253200000000,6239416246,79,288806452,0.000145,0.005287,0.005821,8.774e-05,0.0001764,0.005287,2.575e-05,9.537e-07,0.001495,0.0009995,12.24,0.05347,0,0,0.0001011
253200000000,253500000000,6239416246,79,288806452,0.0001497,0.005287,0.005821,8.774e-05,0.0001774,0.005287,2.67e-05,9.537e-07,0.00148,0.001572,5.132,0.02006,0,0,6.58e-05
253500000000,253800000000,6239416246,79,288806452,0.0001478,0.00528,0.005821,8.774e-05,0.0001774,0.005287,2.289e-05,9.537e-07,0.001564,0.0004997,8.238,0.03411,0,0,0.0003929
253800000000,254100000000,6239416246,79,288806452,0.0001488,0.005272,0.005821,8.869e-05,0.0001783,0.00528,2.289e-05,9.537e-07,0.001541,0.001429,4.897,0.01908,0,0,8.678e-05
254100000000,254400000000,6239416246,79,288806452,0.000144,0.005264,0.005821,8.869e-05,0.0001783,0.005264,2.384e-05,9.537e-07,0.001442,0.0008574,9.327,0.03886,0,0,6.866e-05
254400000000,254700000000,6239416246,79,288806452,0.0001488,0.005257,0.005821,8.869e-05,0.0001783,0.005257,2.193e-05,9.537e-07,0.001541,0.0006428,5.228,0.02078,0,0,8.869e-05
254700000000,255000000000,6239416246,79,288806452,0.0002823,0.005257,0.005821,9.06e-05,0.0001802,0.005585,8.106e-05,9.537e-07,0.03729,0.01436,9.312,0.03955,0,0,4.101e-05
255000000000,255300000000,6239416246,79,288806452,0.0001593,0.005196,0.005821,9.918e-05,0.0001926,0.005203,3.91e-05,9.537e-07,0.001572,0.002998,5.149,0.02036,0,0,0.0001717
255600000000,255900000000,6239416246,79,288806452,0.0332,0.01373,0.01488,0.0009651,0.001049,0.02405,0.003735,4.768e-06,0.314,0.06116,1.067,0.001494,0,0,7.534e-05
255900000000,256200000000,6239416246,79,288806452,0.02682,0.01688,0.01825,0.001293,0.001371,0.02682,0.00178,5.722e-06,0.25,0.04315,1.168,0.001773,0,0,0.1252
256200000000,256500000000,6239416246,79,288806452,0.0001678,0.01112,0.01219,5.817e-05,0.0001383,0.01344,5.245e-05,1.907e-06,0.00174,0.005646,4.967,0.02009,0,0,8.965e-05
256500000000,256800000000,6239416246,79,288806452,0.0001726,0.006935,0.00827,6.199e-05,0.0001459,0.008835,4.387e-05,1.907e-06,0.001938,0.005859,9.236,0.03955,0,0,4.005e-05
256800000000,257100000000,6239416246,79,288806452,0.0001583,0.006172,0.007759,6.676e-05,0.0001507,0.00618,3.529e-05,1.907e-06,0.00209,0.003784,4.973,0.01933,0,0,4.482e-05
257100000000,257400000000,6239416246,79,288806452,0.0001507,0.006172,0.007759,6.866e-05,0.0001526,0.00618,2.48e-05,1.907e-06,0.001862,0.0007143,11.86,0.05276,0,0,7.439e-05
257700000000,258000000000,6239416246,79,288806452,0.000144,0.00618,0.007759,7.248e-05,0.0001583,0.00618,3.338e-05,1.907e-06,0.001648,0.003784,11.76,0.05337,0,0,5.15e-05
258000000000,258300000000,6239416246,79,288806452,0.0001612,0.00618,0.007759,7.439e-05,0.0001602,0.00618,2.098e-05,1.907e-06,0.001663,0.0004997,5.154,0.01959,0,0,9.727e-05
258300000000,258600000000,6239416246,79,288806452,0.0001564,0.00618,0.007759,7.439e-05,0.0001602,0.00618,2.575e-05,1.907e-06,0.001755,0.0008574,14.53,0.06379,0,0,8.583e-05
258600000000,258900000000,6239416246,79,288806452,0.0001583,0.00618,0.007759,7.439e-05,0.0001602,0.00618,3.529e-05,1.907e-06,0.001678,0.001072,5.368,0.021,0,0,6.008e-05
258900000000,259200000000,6239416246,79,288806452,0.0001554,0.00618,0.007759,7.534e-05,0.0001612,0.00618,2.861e-05,1.907e-06,0.001709,0.001858,12.56,0.05461,0,0,0.0002613
259200000000,259500000000,6239416246,79,288806452,0.0001478,0.00618,0.007759,7.534e-05,0.0001612,0.00618,3.338e-05,1.907e-06,0.001572,0.001572,4.509,0.01754,0,0,7.915e-05
259500000000,259800000000,6239416246,79,288806452,0.0509,0.01047,0.01193,0.0009403,0.001024,0.02301,0.00425,4.768e-06,0.3599,0.07227,1.328,0.002549,0,0,4.578e-05
259800000000,260100000000,6239416246,79,288806452,0.0001583,0.01376,0.01497,8.774e-05,0.0001736,0.01596,2.861e-05,1.907e-06,0.001572,0.002213,9.52,0.03534,0,0,8.011e-05
260100000000,260400000000,6239416246,79,288806452,0.03577,0.0141,0.01523,0.0004988,0.0005817,0.02054,0.002457,2.861e-06,0.3521,0.09167,0.8541,0.0007708,0,0,0.002094
260400000000,260700000000,6239416246,79,288806452,0.000164,0.01031,0.01152,9.155e-05,0.0001774,0.0126,6.962e-05,1.907e-06,0.001694,0.007782,4.402,0.01793,0,0,7.057e-05
260700000000,261000000000,6239416246,79,288806452,0.0001593,0.006569,0.007919,9.251e-05,0.0001793,0.008026,1.621e-05,1.907e-06,0.001633,0.0003567,7.668,0.03241,0,0,9.06e-05
261000000000,261300000000,6239416246,79,288806452,0.0001526,0.00621,0.007759,9.632e-05,0.0001831,0.00621,3.147e-05,1.907e-06,0.002197,0.003784,4.503,0.01798,0,0,8.202e-05
261300000000,261600000000,6239416246,79,288806452,0.0001392,0.00621,0.007759,9.727e-05,0.000185,0.00621,2.003e-05,1.907e-06,0.001602,0.0003567,9.796,0.04447,0,0,5.245e-05
261600000000,261900000000,6239416246,79,288806452,0.0001431,0.00621,0.007759,9.823e-05,0.000185,0.00621,2.193e-05,1.907e-06,0.001587,0.0004997,4.598,0.0188,0,0,5.15e-05
261900000000,262200000000,6239416246,79,288806452,0.0001402,0.006203,0.007759,9.823e-05,0.000185,0.00621,1.812e-05,1.907e-06,0.001587,0.0002861,9.586,0.04322,0,0,0.0003662
262200000000,262500000000,6239416246,79,288806452,0.04871,0.009781,0.01118,0.0008821,0.000967,0.01865,0.002514,3.815e-06,0.3652,0.06006,0.9704,0.0007121,0,0,8.583e-05
262500000000,262800000000,6239416246,79,288806452,0.0001783,0.009399,0.01048,9.155e-05,0.0001793,0.01164,2.384e-05,1.907e-06,0.001923,0.001499,13.73,0.05973,0,0,0.0003605
262800000000,263100000000,6239416246,79,288806452,0.0001631,0.006317,0.007751,9.251e-05,0.0001793,0.007095,3.147e-05,1.907e-06,0.001755,0.001215,4.621,0.01761,0,0,7.725e-05
263100000000,263400000000,6239416246,79,288806452,0.0001488,0.006233,0.007759,9.346e-05,0.0001812,0.006233,3.052e-05,1.907e-06,0.001648,0.001999,10.69,0.04703,0,0,0.0003605
263400000000,263700000000,6239416246,79,288806452,0.0001507,0.006233,0.007759,9.727e-05,0.0001841,0.006233,2.193e-05,1.907e-06,0.001816,0.0004997,4.789,0.01896,0,0,4.959e-05
263700000000,264000000000,6239416246,79,288806452,0.0001488,0.006233,0.007759,9.727e-05,0.000185,0.006233,2.098e-05,1.907e-06,0.001648,0.0002146,9.955,0.04349,0,0,4.578e-05
264000000000,264300000000,6239416246,79,288806452,0.04535,0.01076,0.01222,0.0009995,0.001083,0.02191,0.006081,5.722e-06,0.3398,0.09448,0.9216,0.0006437,0,0,0.003216
264600000000,264900000000,6239416246,79,288806452,0.0001745,0.007111,0.008347,6.866e-05,0.0001535,0.009064,3.624e-05,1.907e-06,0.001816,0.003357,4.895,0.01835,0,0,5.627e-05
264900000000,265200000000,6239416246,79,288806452,0.0001488,0.006241,0.007759,7.248e-05,0.0001574,0.006248,2.861e-05,1.907e-06,0.001617,0.002499,12.29,0.05523,0,0,4.673e-05
265500000000,265800000000,6239416246,79,288806452,0.0001526,0.006248,0.007759,8.011e-05,0.0001659,0.006256,4.196e-05,1.907e-06,0.001755,0.005859,12.87,0.05801,0,0,0.0001402
265800000000,266100000000,6239416246,79,288806452,0.0001516,0.006256,0.007759,8.392e-05,0.0001698,0.006256,3.052e-05,1.907e-06,0.001617,0.002998,4.483,0.01715,0,0,9.251e-05
266100000000,266400000000,6239416246,79,288806452,0.0001516,0.006256,0.007759,8.392e-05,0.0001698,0.006256,2.193e-05,1.907e-06,0.001617,0.0005713,9.259,0.03905,0,0,7.153e-05
266400000000,266700000000,6239416246,79,288806452,0.0001535,0.006256,0.007759,8.392e-05,0.0001707,0.006256,2.766e-05,1.907e-06,0.001709,0.001499,4.732,0.01826,0,0,0.0002127
266700000000,267000000000,6239416246,79,288806452,0.0001488,0.006256,0.007759,8.678e-05,0.0001745,0.006264,2.766e-05,1.907e-06,0.001663,0.002144,11.64,0.05114,0,0,7.629e-05
267000000000,267300000000,6239416246,79,288806452,0.0001564,0.006256,0.007759,8.869e-05,0.0001774,0.006264,3.052e-05,1.907e-06,0.001678,0.001785,5.153,0.0204,0,0,6.485e-05
267300000000,267600000000,6239416246,79,288806452,0.0001497,0.006256,0.007759,8.965e-05,0.0001774,0.006264,3.242e-05,1.907e-06,0.001724,0.001429,12,0.05234,0,0,0.0001049
267600000000,267900000000,6239416246,79,288806452,0.0001516,0.006256,0.007759,8.965e-05,0.0001774,0.006264,2.003e-05,1.907e-06,0.001648,0.0002861,4.756,0.0189,0,0,6.866e-05
267900000000,268200000000,6239416246,79,288806452,0.0001516,0.006256,0.007759,8.965e-05,0.0001783,0.006264,2.098e-05,1.907e-06,0.001648,0.0003567,9.505,0.04075,0,0,9.06e-05
268200000000,268500000000,6239416246,79,288806452,0.0001478,0.006256,0.007759,9.06e-05,0.0001783,0.006256,2.193e-05,1.907e-06,0.001572,0.0008574,4.907,0.01907,0,0,8.011e-05
268500000000,268800000000,6239416246,79,288806452,0.0001402,0.006248,0.007759,9.06e-05,0.0001783,0.006248,2.766e-05,1.907e-06,0.001511,0.001286,9.333,0.04077,0,0,5.436e-05
268800000000,269100000000,6239416246,79,288806452,0.0001469,0.006241,0.007759,9.06e-05,0.0001793,0.006241,2.67e-05,1.907e-06,0.001694,0.0009289,4.099,0.01526,0,0,6.485e-05
269100000000,269400000000,6239416246,79,288806452,0.0001392,0.006233,0.007759,9.155e-05,0.0001793,0.006233,2.098e-05,1.907e-06,0.001663,0.0005713,10.6,0.04624,0,0,7.915e-05
269400000000,269700000000,6239416246,79,288806452,0.0001459,0.006226,0.007759,9.155e-05,0.0001802,0.006226,2.48e-05,1.907e-06,0.001617,0.001072,4.22,0.01625,0,0,6.008e-05
269700000000,270000000000,6239416246,79,288806452,0.0001411,0.006218,0.007759,9.251e-05,0.0001802,0.006218,2.384e-05,1.907e-06,0.001648,0.0009995,8.68,0.0375,0,0,6.008e-05
270000000000,270300000000,6239416246,79,288806452,0.000144,0.006203,0.007759,9.251e-05,0.0001802,0.00621,2.098e-05,1.907e-06,0.00174,0.0004282,4.698,0.01897,0,0,5.341e-05
270300000000,270600000000,6239416246,79,288806452,0.0001411,0.006195,0.007759,9.251e-05,0.0001812,0.006203,2.48e-05,1.907e-06,0.001617,0.0008574,8.166,0.03494,0,0,6.199e-05
270600000000,270900000000,6239416246,79,288806452,0.000145,0.006187,0.007759,9.346e-05,0.0001812,0.006195,2.098e-05,1.907e-06,0.001572,0.0004282,4.639,0.01766,0,0,0.0004787
270900000000,271200000000,6239416246,79,288806452,0.0001469,0.00618,0.007759,9.346e-05,0.0001812,0.006187,2.384e-05,1.907e-06,0.002045,0.0007143,10.55,0.04633,0,0,0.0003538
271200000000,271500000000,6239416246,79,288806452,0.0001526,0.006172,0.007759,9.346e-05,0.0001822,0.006172,2.289e-05,1.907e-06,0.001755,0.0004997,4.748,0.01879,0,0,0.0001822
281400000000,281700000000,6239416246,79,288806452,0.0001516,0.006126,0.007759,0.0001183,0.0002108,0.006134,2.575e-05,1.907e-06,0.001633,0.001286,4.723,0.01788,0,0,8.297e-05
281700000000,282000000000,6239416246,79,288806452,0.0001459,0.006126,0.007759,0.0001192,0.0002117,0.006126,3.815e-05,1.907e-06,0.001709,0.002144,10.54,0.04639,0,0,6.676e-05
282000000000,282300000000,6239416246,79,288806452,0.0001488,0.006126,0.007759,0.0001192,0.0002117,0.006126,2.575e-05,1.907e-06,0.001617,0.0007858,4.994,0.01993,0,0,0.0004416
282300000000,282600000000,6239416246,79,288806452,0.0001421,0.006119,0.007759,0.0001192,0.0002127,0.006119,2.193e-05,1.907e-06,0.001556,0.0007143,11.7,0.05183,0,0,3.052e-05
282600000000,282900000000,6239416246,79,288806452,0.000145,0.006119,0.007759,0.0001202,0.0002127,0.006119,2.575e-05,1.907e-06,0.001877,0.0008574,4.391,0.01743,0,0,6.39e-05
282900000000,283200000000,6239416246,79,288806452,0.0001373,0.006111,0.007759,0.0001202,0.0002127,0.006119,2.193e-05,1.907e-06,0.001724,0.0008574,10.64,0.04786,0,0,0.0001478
283200000000,283500000000,6239416246,79,288806452,0.0001421,0.006111,0.007759,0.0001202,0.0002136,0.006111,2.193e-05,1.907e-06,0.001556,0.0006428,4.405,0.01667,0,0,4.959e-05
283500000000,283800000000,6239416246,79,288806452,0.000145,0.006111,0.007759,0.0001211,0.0002136,0.006111,2.098e-05,1.907e-06,0.001801,0.0003567,12.11,0.05387,0,0,4.292e-05
283800000000,284100000000,6239416246,79,288806452,0.0001497,0.006104,0.007759,0.0001211,0.0002136,0.006104,2.289e-05,1.907e-06,0.001648,0.0007858,4.873,0.0189,0,0,8.583e-05
284100000000,284400000000,6239416246,79,288806452,0.0001526,0.006104,0.007759,0.0001211,0.0002146,0.006104,2.098e-05,1.907e-06,0.001694,0.0004282,10.79,0.04635,0,0,0.0001154
284400000000,284700000000,6239416246,79,288806452,0.0001516,0.006104,0.007759,0.0001221,0.0002146,0.006104,2.48e-05,1.907e-06,0.001694,0.0006428,5.117,0.01988,0,0,5.531e-05
284700000000,285000000000,6239416246,79,288806452,0.000145,0.006104,0.007759,0.0001221,0.0002155,0.006104,3.242e-05,1.907e-06,0.001572,0.0009995,12.06,0.05353,0,0,9.155e-05
285000000000,285300000000,6239416246,79,288806452,0.0001497,0.006104,0.007759,0.000123,0.0002155,0.006119,2.193e-05,1.907e-06,0.001663,0.001072,4.949,0.01959,0,0,9.346e-05
285300000000,285600000000,6239416246,79,288806452,0.0001459,0.006119,0.007759,0.000123,0.0002155,0.006119,2.289e-05,1.907e-06,0.001633,0.0005713,10.87,0.04755,0,0,6.58e-05
285600000000,285900000000,6239416246,79,288806452,0.0001478,0.006119,0.007759,0.000123,0.0002165,0.006119,2.289e-05,1.907e-06,0.001694,0.0004997,4.075,0.01514,0,0,0.0001383
285900000000,286200000000,6239416246,79,288806452,0.0001431,0.006119,0.007759,0.000124,0.0002165,0.006119,2.098e-05,1.907e-06,0.001617,0.0003567,8.606,0.03683,0,0,6.676e-05
286200000000,286500000000,6239416246,79,288806452,0.0001469,0.006119,0.007759,0.000124,0.0002165,0.006119,2.289e-05,1.907e-06,0.001587,0.001072,4.608,0.01774,0,0,9.155e-05
286500000000,286800000000,6239416246,79,288806452,0.000145,0.006119,0.007759,0.000124,0.0002174,0.006119,2.384e-05,1.907e-06,0.00177,0.001143,12.04,0.05311,0,0,8.106e-05
286800000000,287100000000,6239416246,79,288806452,0.0001516,0.006119,0.007759,0.0001249,0.0002174,0.006119,3.433e-05,1.907e-06,0.001816,0.001572,4.75,0.01825,0,0,4.578e-05
287100000000,287400000000,6239416246,79,288806452,0.0001478,0.006119,0.007759,0.0001249,0.0002174,0.006119,2.289e-05,1.907e-06,0.001617,0.0008574,10.76,0.04631,0,0,9.346e-05
287400000000,287700000000,6239416246,79,288806452,0.0001507,0.006119,0.007759,0.0001249,0.0002184,0.006119,2.48e-05,1.907e-06,0.001648,0.001215,4.782,0.01802,0,0,0.0001173
287700000000,288000000000,6239416246,79,288806452,0.0001497,0.006119,0.007759,0.0001259,0.0002184,0.006119,2.384e-05,1.907e-06,0.001663,0.0005713,11.05,0.04768,0,0,6.676e-05
288000000000,288300000000,6239416246,79,288806452,0.0001583,0.006119,0.007759,0.0001259,0.0002184,0.006119,2.384e-05,1.907e-06,0.00177,0.0008574,4.857,0.0177,0,0,0.000124
288300000000,288600000000,6239416246,79,288806452,0.0001535,0.006119,0.007759,0.0001268,0.0002193,0.006119,2.193e-05,1.907e-06,0.001892,0.0004282,10.48,0.04403,0,0,0.0001469
288600000000,288900000000,6239416246,79,288806452,0.0001535,0.006119,0.007759,0.0001268,0.0002193,0.006119,2.289e-05,1.907e-06,0.001877,0.0009995,4.417,0.01636,0,0,6.104e-05
288900000000,289200000000,6239416246,79,288806452,0.0001516,0.006111,0.007759,0.0001268,0.0002203,0.006119,2.289e-05,1.907e-06,0.001987,0.0008574,8.844,0.03739,0,0,0.0001583
289200000000,289500000000,6239416246,79,288806452,0.0001402,0.006111,0.007759,0.0001278,0.0002203,0.006111,2.67e-05,1.907e-06,0.001709,0.0009995,4.046,0.01552,0,0,6.294e-05
289500000000,289800000000,6239416246,79,288806452,0.0001402,0.006111,0.007759,0.0001278,0.0002203,0.006111,2.193e-05,1.907e-06,0.001617,0.0004997,10.9,0.04947,0,0,5.531e-05
289800000000,290100000000,6239416246,79,288806452,0.0001421,0.006111,0.007759,0.0001278,0.0002213,0.006111,2.575e-05,1.907e-06,0.001511,0.001499,4.494,0.01734,0,0,0.0001001
290100000000,290400000000,6239416246,79,288806452,0.0001402,0.006111,0.007759,0.0001287,0.0002213,0.006111,2.193e-05,1.907e-06,0.001938,0.0007858,8.363,0.03554,0,0,3.242e-05
290400000000,290700000000,6239416246,79,288806452,0.0001459,0.006104,0.007759,0.0001287,0.0002213,0.006111,2.575e-05,1.907e-06,0.001648,0.0009995,4.402,0.01646,0,0,5.436e-05
290700000000,291000000000,6239416246,79,288806452,0.0001402,0.006104,0.007759,0.0001287,0.0002222,0.006104,2.003e-05,1.907e-06,0.001694,0.0002146,8.779,0.03707,0,0,7.915e-05
291000000000,291300000000,6239416246,79,288806452,0.0001488,0.006111,0.007759,0.0001297,0.0002222,0.006111,2.384e-05,1.907e-06,0.001709,0.0008574,3.866,0.01362,0,0,0.0003834
291300000000,291600000000,6239416246,79,288806452,0.0001431,0.006111,0.007759,0.0001297,0.0002232,0.006111,2.098e-05,1.907e-06,0.001724,0.001143,8.048,0.03344,0,0,6.294e-05
291600000000,291900000000,6239416246,79,288806452,0.01083,0.006195,0.007751,0.0001726,0.0002651,0.007324,0.0004177,1.907e-06,0.3047,0.01401,0.7787,0.0003254,0,0,8.678e-05
291900000000,292200000000,6239416246,79,288806452,0.0001488,0.006119,0.007759,0.0001497,0.0002432,0.006126,2.289e-05,1.907e-06,0.001648,0.0007143,10.62,0.04603,0,0,8.011e-05
292200000000,292500000000,6239416246,79,288806452,0.03571,0.01338,0.01469,0.000474,0.0005589,0.01993,0.002342,3.815e-06,0.3457,0.09375,1.017,0.001108,0,0,4.101e-05
292500000000,292800000000,6239416246,79,288806452,0.0001707,0.01019,0.0114,8.583e-05,0.0001726,0.01225,2.098e-05,2.861e-06,0.00174,0.0004997,16.08,0.06976,0,0,3.91e-05
292800000000,293100000000,6239416246,79,288806452,0.0001736,0.006538,0.007874,8.583e-05,0.0001736,0.007904,2.289e-05,2.861e-06,0.001678,0.0007858,4.849,0.01771,0,0,6.771e-05
293100000000,293400000000,6239416246,79,288806452,0.0001593,0.006241,0.007759,8.869e-05,0.0001764,0.006241,2.956e-05,2.861e-06,0.001755,0.001715,11.71,0.04886,0,0,4.673e-05
293400000000,293700000000,6239416246,79,288806452,0.0001535,0.006241,0.007759,8.965e-05,0.0001774,0.006241,2.289e-05,2.861e-06,0.001785,0.0007143,5.335,0.02099,0,0,5.627e-05
293700000000,294000000000,6239416246,79,288806452,0.0005941,0.006248,0.007759,0.0001106,0.0002022,0.007408,0.0002031,2.861e-06,0.06775,0.0332,9.806,0.04278,0,0,0.0001678
294000000000,294300000000,6239416246,79,288806452,0.0001545,0.00621,0.007759,0.0001001,0.0001926,0.00621,2.193e-05,2.861e-06,0.001846,0.0005713,4.768,0.01838,0,0,0.0002747
294300000000,294600000000,6239416246,79,288806452,0.0001507,0.00621,0.007759,0.0001011,0.0001936,0.00621,2.193e-05,2.861e-06,0.001678,0.001072,9.488,0.03982,0,0,0.0001116
294600000000,294900000000,6239416246,79,288806452,0.0001507,0.00621,0.007759,0.0001011,0.0001936,0.00621,2.766e-05,2.861e-06,0.001617,0.001642,4.435,0.01686,0,0,7.534e-05
294900000000,295200000000,6239416246,79,288806452,0.05585,0.009842,0.01137,0.001621,0.001707,0.02542,0.005341,7.629e-06,0.3237,0.08374,0.9663,0.0007825,0,0,6.771e-05
295500000000,295800000000,6239416246,79,288806452,0.0001717,0.009018,0.01009,9.346e-05,0.0001793,0.01131,2.003e-05,2.861e-06,0.001678,0.0003567,11.31,0.04831,0,0,9.155e-05
295800000000,296100000000,6239416246,79,288806452,0.0001583,0.006462,0.007759,9.346e-05,0.0001802,0.006706,3.242e-05,2.861e-06,0.001831,0.00293,4.728,0.01797,0,0,0.0001106
296100000000,296400000000,6239416246,79,288806452,0.0001497,0.006462,0.007759,9.537e-05,0.0001822,0.006462,3.242e-05,2.861e-06,0.001709,0.002499,14.58,0.06369,0,0,5.341e-05
296700000000,297000000000,6239416246,79,288806452,0.0611,0.01257,0.01392,0.001909,0.001991,0.02365,0.005226,8.583e-06,0.3101,0.07898,1.017,0.00109,0,0,0.0002527
297300000000,297600000000,6239416246,79,288806452,0.007561,0.00663,0.007874,0.0001078,0.0001955,0.007812,0.0002918,2.861e-06,0.2429,0.01122,0.7998,0.0004244,0,0,0.0001688
297600000000,297900000000,6239416246,79,288806452,0.05817,0.01466,0.01624,0.002041,0.002121,0.02591,0.005135,9.537e-06,0.3232,0.08289,1.231,0.001961,0,0,0.2175
297900000000,298200000000,6239416246,79,288806452,0.0001707,0.01195,0.0132,0.0001001,0.0001831,0.01416,2.575e-05,2.861e-06,0.001892,0.0007858,12.48,0.05271,0,0,0.0001116
298200000000,298500000000,6239416246,79,288806452,0.0001774,0.007683,0.008728,0.000102,0.000185,0.009735,4.482e-05,2.861e-06,0.00173,0.005859,4.906,0.01832,0,0,0.0001926
298500000000,298800000000,6239416246,79,288806452,0.00547,0.006691,0.007889,0.0001221,0.0002089,0.007858,0.0002785,2.861e-06,0.2607,0.01849,10.24,0.04283,0,0,9.06e-05
298800000000,299100000000,6239416246,79,288806452,0.000164,0.00663,0.007759,0.000103,0.0001926,0.006638,3.052e-05,2.861e-06,0.00618,0.002785,4.927,0.01848,0,0,6.962e-05
299400000000,299700000000,6239416246,79,288806452,0.0001612,0.00663,0.007759,0.0001049,0.0001955,0.00663,1.717e-05,2.861e-06,0.00174,0.0004282,4.724,0.01776,0,0,6.199e-05
