201300000000,201600000000,6273211450,2088,1093829,5.722e-05,0.0002451,0.001799,0.0002127,0.0003986,0.0002508,0,0,0.0003672,7.153e-05,35.1,0.1648,0,0,3.815e-05
201600000000,201900000000,6273211450,2088,1093829,5.531e-05,0.000248,0.001799,0.0002117,0.0003986,0.0002565,9.537e-07,0,0.0003853,0.0001431,33.06,0.1609,0,0,4.196e-05
201900000000,202200000000,6273211450,2088,1093829,4.005e-05,0.0002451,0.001799,0.0002108,0.0003986,0.0002499,0,0,0.0004559,7.153e-05,31.71,0.1519,0,0,3.242e-05
202200000000,202500000000,6273211450,2088,1093829,3.338e-05,0.0002441,0.001799,0.0002108,0.0003986,0.000246,0,0,0.0007811,0.0001431,30.5,0.1448,0,0,4.387e-05
202500000000,202800000000,6273211450,2088,1093829,3.242e-05,0.0002394,0.001799,0.0002108,0.0003986,0.0002403,0,0,0.0002003,0,30.78,0.1438,0,0,2.575e-05
202800000000,203100000000,6273211450,2088,1093829,3.242e-05,0.0002413,0.001799,0.0002108,0.0003986,0.000246,0,0,0.0002375,7.153e-05,30.33,0.1431,0,0,3.624e-05
203100000000,203400000000,6273211450,2088,1093829,3.242e-05,0.0002422,0.001799,0.0002108,0.0003986,0.000246,0,0,0.0002079,7.153e-05,30.55,0.1451,0,0,8.583e-06
203400000000,203700000000,6273211450,2088,1093829,3.242e-05,0.0002403,0.001799,0.0002108,0.0003986,0.0002432,0,0,0.0003109,7.153e-05,28.99,0.1422,0,0,3.529e-05
203700000000,204000000000,6273211450,2088,1093829,3.242e-05,0.0002375,0.001799,0.0002108,0.0003986,0.0002384,0,0,0.0003147,0,29.1,0.1415,0,0,2.48e-05
204000000000,204300000000,6273211450,2088,1093829,3.338e-05,0.0002394,0.001799,0.0002108,0.0003986,0.0002432,0,0,0.0002508,7.153e-05,30.68,0.1436,0,0,3.242e-05
204300000000,204600000000,6273211450,2088,1093829,3.338e-05,0.0002375,0.001799,0.0002108,0.0003986,0.0002375,0,0,0.0002451,0,30.32,0.1429,0,0,0.0001163
204600000000,204900000000,6273211450,2088,1093829,3.242e-05,0.0002394,0.001799,0.0002108,0.0003986,0.0002422,0,0,0.0003386,7.153e-05,29.34,0.1416,0,0,2.48e-05
204900000000,205200000000,6273211450,2088,1093829,3.242e-05,0.0002365,0.001799,0.0002108,0.0003986,0.0002375,0,0,0.0007038,0,29.47,0.1425,0,0,7.153e-05
205200000000,205500000000,6273211450,2088,1093829,3.147e-05,0.0002413,0.001799,0.0002108,0.0003986,0.000247,0,0,0.0001755,0.0001431,28.63,0.1384,0,0,2.766e-05
205800000000,206100000000,6273211450,2088,2238221923,8.678e-05,0.0002108,0.001934,0.000206,0.000391,0.0002136,1.907e-06,0,0.0004473,0.0002861,17.77,0.07931,0,0,5.15e-05
172200000000,172500000000,6273211450,2088,317497834,5.341e-05,0.0002947,0.001934,0.0002222,0.0004082,0.0005951,1.907e-06,0,0.0002909,0.0002861,29.94,0.1404,0,0,0.0001249
172500000000,172800000000,6273211450,2088,317497834,5.341e-05,0.0002146,0.001934,0.0002213,0.0004082,0.0002232,2.861e-06,0,0.0003891,0.0006428,32.27,0.1495,0,0,2.575e-05
172800000000,173100000000,6273211450,2088,317497834,5.245e-05,0.0002203,0.001934,0.0002203,0.0004082,0.0002289,9.537e-07,0,0.0005798,0.0002146,32.77,0.1533,0,0,0.0001497
173100000000,173400000000,6273211450,2088,317497834,3.719e-05,0.0002146,0.001934,0.0002203,0.0004082,0.0002213,0,0,0.0003376,0.0001431,31.07,0.1438,0,0,6.294e-05
173400000000,173700000000,6273211450,2088,317497834,3.624e-05,0.0002165,0.001934,0.0002203,0.0004082,0.0002213,0,0,0.0001326,7.153e-05,30.34,0.1392,0,0,2.289e-05
173700000000,174000000000,6273211450,2088,317497834,3.719e-05,0.0002127,0.001934,0.0002193,0.0004082,0.0002174,0,0,0.0002193,7.153e-05,31.48,0.1445,0,0,2.67e-05
174000000000,174300000000,6273211450,2088,317497834,3.815e-05,0.0002146,0.001934,0.0002193,0.0004082,0.0002174,0,0,0.0002394,7.153e-05,31.02,0.1401,0,0,5.722e-06
174300000000,174600000000,6273211450,2088,317497834,3.624e-05,0.0002127,0.001934,0.0002193,0.0004082,0.0002174,9.537e-07,0,0.0001955,0.0002861,31.09,0.1429,0,0,5.722e-06
174600000000,174900000000,6273211450,2088,317497834,3.433e-05,0.0002165,0.001934,0.0002193,0.0004082,0.0002213,0,0,0.0002565,7.153e-05,19.54,0.08802,0,0,8.583e-06
174900000000,175200000000,6273211450,2088,317497834,3.529e-05,0.0002127,0.001934,0.0002193,0.0004082,0.0002174,0,0,0.0002174,7.153e-05,14.99,0.06508,0,0,5.054e-05
175200000000,175500000000,6273211450,2088,317497834,3.433e-05,0.0002136,0.001934,0.0002193,0.0004082,0.0002174,0,0,0.0001297,0,30.46,0.1411,0,0,6.676e-06
175500000000,175800000000,6273211450,2088,317497834,3.624e-05,0.0002127,0.001934,0.0002193,0.0004082,0.0002174,0,0,0.0002384,7.153e-05,31.57,0.1425,0,0,4.196e-05
175800000000,176100000000,6273211450,2088,317497834,3.719e-05,0.0002136,0.001934,0.0002193,0.0004082,0.0002174,0,0,0.0002394,0,31.45,0.1417,0,0,5.722e-06
196200000000,196500000000,6273211450,2088,317497834,3.433e-05,0.0002127,0.001934,0.0002232,0.000412,0.0002193,1.907e-06,0,0.0004158,0.0005713,32.36,0.1494,0,0,8.583e-06
196500000000,196800000000,6273211450,2088,317497834,3.529e-05,0.0002089,0.001934,0.0002232,0.0004129,0.0002127,2.861e-06,0,0.0003519,0.0008574,33,0.1515,0,0,4.101e-05
196800000000,197100000000,6273211450,2088,317497834,4.005e-05,0.0002098,0.001934,0.0002232,0.0004129,0.0002127,0,0,0.0002165,0,34.46,0.1572,0,0,4.387e-05
197100000000,197400000000,6273211450,2088,317497834,4.292e-05,0.0002079,0.001934,0.0002232,0.0004129,0.0002127,0,0,0.0002317,7.153e-05,35.72,0.1626,0,0,1.907e-05
197400000000,197700000000,6273211450,2088,317497834,4.196e-05,0.0002089,0.001934,0.0002241,0.0004129,0.0002127,0,0,0.0002365,0,35.68,0.1611,0,0,1.717e-05
197700000000,198000000000,6273211450,2088,317497834,4.196e-05,0.0002079,0.001934,0.0002241,0.0004129,0.0002127,0,0,0.0002098,7.153e-05,35.32,0.1624,0,0,3.433e-05
198000000000,198300000000,6273211450,2088,317497834,4.292e-05,0.0002089,0.001934,0.0002241,0.0004129,0.0002127,0,0,0.0002546,0,35.83,0.1633,0,0,4.673e-05
198300000000,198600000000,6273211450,2088,317497834,4.292e-05,0.0002079,0.001934,0.0002241,0.0004129,0.0002127,0,0,0.0002737,7.153e-05,35.65,0.1632,0,0,5.341e-05
198600000000,198900000000,6273211450,2088,317497834,4.292e-05,0.0002089,0.001934,0.0002241,0.0004129,0.0002127,0,0,0.004333,0,35.85,0.1645,0,0,5.627e-05
198900000000,199200000000,6273211450,2088,317497834,4.292e-05,0.0002079,0.001934,0.0002241,0.0004129,0.0002127,0,0,0.0002966,7.153e-05,36.25,0.165,0,0,3.242e-05
199200000000,199500000000,6273211450,2088,317497834,3.91e-05,0.0002089,0.001934,0.0002241,0.0004129,0.0002127,0,0,0.0002317,0,32.25,0.1471,0,0,1.526e-05
199500000000,199800000000,6273211450,2088,317497834,4.101e-05,0.0002079,0.001934,0.0002241,0.0004129,0.0002127,0,0,0.0006227,7.153e-05,29.12,0.1313,0,0,1.335e-05
199800000000,200100000000,6273211450,2088,317497834,4.101e-05,0.0002089,0.001934,0.0002241,0.0004129,0.0002127,0,0,0.0001898,0,16.96,0.07137,0,0,5.627e-05
200100000000,200400000000,6273211450,2088,317497834,3.91e-05,0.0002079,0.001934,0.0002241,0.0004129,0.0002127,0,0,0.0002489,7.153e-05,36.33,0.1644,0,0,5.15e-05
200400000000,200700000000,6273211450,2088,317497834,3.91e-05,0.0002089,0.001934,0.0002241,0.0004129,0.0002127,0,0,0.0002384,0,37.77,0.1621,0,0,9.537e-06
200700000000,201000000000,6273211450,2088,317497834,3.91e-05,0.0002079,0.001934,0.0002241,0.0004129,0.0002117,0,0,0.0003185,1.431e-05,37.03,0.159,0,0,1.049e-05
191100000000,191400000000,6273211450,2088,317497834,3.91e-05,0.0002127,0.001934,0.0002222,0.0004101,0.0002174,9.537e-07,0,0.0002785,0.0002146,35.35,0.1618,0,0,2.289e-05
191400000000,191700000000,6273211450,2088,317497834,4.101e-05,0.0002136,0.001934,0.0002222,0.0004101,0.0002174,0,0,0.0002012,0,35.07,0.159,0,0,6.39e-05
191700000000,192000000000,6273211450,2088,317497834,4.101e-05,0.0002089,0.001934,0.0002222,0.0004101,0.0002127,0,0,0.0002356,7.153e-05,33.91,0.155,0,0,4.482e-05
192000000000,192300000000,6273211450,2088,317497834,4.101e-05,0.0002098,0.001934,0.0002222,0.0004101,0.0002127,0,0,0.0002117,0,35.56,0.1616,0,0,1.049e-05
192300000000,192600000000,6273211450,2088,317497834,3.815e-05,0.0002079,0.001934,0.0002222,0.0004101,0.0002127,2.861e-06,0,0.0003138,0.0007858,34.9,0.1597,0,0,2.48e-05
192600000000,192900000000,6273211450,2088,317497834,3.815e-05,0.0002098,0.001934,0.0002222,0.0004101,0.0002127,0,0,0.0003595,0,34.23,0.1577,0,0,0.0001888
192900000000,193200000000,6273211450,2088,317497834,3.242e-05,0.0002089,0.001934,0.0002222,0.0004101,0.0002127,0,0,0.0003805,7.153e-05,32.13,0.1492,0,0,4.101e-05
193200000000,193500000000,6273211450,2088,317497834,3.242e-05,0.0002098,0.001934,0.0002222,0.000411,0.0002127,0,0,0.0003471,0,30.84,0.1425,0,0,3.719e-05
193500000000,193800000000,6273211450,2088,317497834,3.433e-05,0.0002089,0.001934,0.0002222,0.000411,0.0002127,0,0,0.0005255,7.153e-05,32.15,0.1443,0,0,1.335e-05
193800000000,194100000000,6273211450,2088,317497834,3.529e-05,0.0002098,0.001934,0.0002222,0.000411,0.0002127,0,0,0.000392,0,32.78,0.1475,0,0,1.144e-05
194100000000,194400000000,6273211450,2088,317497834,3.91e-05,0.0002079,0.001934,0.0002222,0.000411,0.0002127,0,0,0.0004225,7.153e-05,36.66,0.1558,0,0,4.005e-05
194400000000,194700000000,6273211450,2088,317497834,3.815e-05,0.0002089,0.001934,0.0002222,0.000411,0.0002127,0,0,0.0001364,0,33.2,0.152,0,0,0
194700000000,195000000000,6273211450,2088,317497834,3.815e-05,0.0002098,0.001934,0.0002222,0.000411,0.0002165,9.537e-07,0,0.000349,0.0001431,33.33,0.1538,0,0,1.049e-05
195000000000,195300000000,6273211450,2088,317497834,3.624e-05,0.0002098,0.001934,0.0002222,0.000411,0.0002165,0,0,0.0005598,0,32.29,0.1484,0,0,1.717e-05
195300000000,195600000000,6273211450,2088,317497834,3.338e-05,0.0002079,0.001934,0.0002222,0.000411,0.0002127,0,0,0.0003605,7.153e-05,30.14,0.1426,0,0,1.907e-06
195600000000,195900000000,6273211450,2088,317497834,3.433e-05,0.0002098,0.001934,0.0002222,0.000411,0.0002136,0,0,0.0004368,0,32.06,0.147,0,0,1.049e-05
195900000000,196200000000,6273211450,2088,317497834,3.529e-05,0.0002089,0.001934,0.0002222,0.000411,0.0002127,2.861e-06,0,0.0001907,0.0008574,32.43,0.1503,0,0,5.722e-06
206100000000,206400000000,6273211450,2088,2238221923,8.583e-05,0.0002136,0.001934,0.0002041,0.000391,0.0002184,9.537e-07,0,0.0005465,0.0002146,13.93,0.06128,0,0,8.202e-05
206400000000,206700000000,6273211450,2088,2238221923,6.008e-05,0.0002117,0.001934,0.0002041,0.000391,0.0002155,0,0,0.000371,7.153e-05,14.05,0.05964,0,0,6.676e-05
206700000000,207000000000,6273211450,2088,2238221923,5.531e-05,0.0002089,0.001934,0.0002041,0.000391,0.0002127,0,0,0.0002422,7.153e-05,12.42,0.05254,0,0,6.676e-05
207000000000,207300000000,6273211450,2088,2238221923,5.436e-05,0.0002079,0.001934,0.0002041,0.000391,0.0002136,0,0,0.0003214,7.153e-05,11.9,0.04921,0,0,7.629e-05
207300000000,207600000000,6273211450,2088,2238221923,5.627e-05,0.0002079,0.001934,0.0002041,0.000391,0.0002117,0,0,0.0002022,7.153e-05,9.649,0.0386,0,0,1.717e-05
207600000000,207900000000,6273211450,2088,2238221923,5.722e-05,0.000206,0.001934,0.0002041,0.000391,0.0002069,0,0,0.000267,0,13.12,0.05409,0,0,7.343e-05
207900000000,208200000000,6273211450,2088,2238221923,5.722e-05,0.0002089,0.001934,0.0002041,0.000391,0.0002127,4.768e-06,0,0.0003004,0.001358,16.02,0.0669,0,0,1.049e-05
208200000000,208500000000,6273211450,2088,2238221923,5.436e-05,0.0002079,0.001934,0.0002041,0.000391,0.0002127,1.907e-06,0,0.0007734,0.0004997,20.53,0.08854,0,0,1.24e-05
208500000000,208800000000,6273211450,2088,2238221923,5.15e-05,0.0002089,0.001934,0.0002041,0.000391,0.0002117,0,0,0.000309,7.153e-05,14.38,0.06214,0,0,3.624e-05
208800000000,209100000000,6273211450,2088,2238221923,5.627e-05,0.0002069,0.001934,0.0002041,0.000391,0.0002069,0,0,0.0003748,0,17.04,0.07257,0,0,2.003e-05
209100000000,209400000000,6273211450,2088,2238221923,5.436e-05,0.0002089,0.001934,0.0002041,0.000391,0.0002117,0,0,0.0002413,7.153e-05,13.07,0.05546,0,0,3.719e-05
209400000000,209700000000,6273211450,2088,2238221923,5.436e-05,0.0002069,0.001934,0.0002041,0.000391,0.0002069,0,0,0.0001993,0,11.17,0.04583,0,0,4.005e-05
209700000000,210000000000,6273211450,2088,2238221923,5.722e-05,0.0002089,0.001934,0.0002041,0.000392,0.0002117,0,0,0.0003481,7.153e-05,11.42,0.04698,0,0,4.578e-05
210000000000,210300000000,6273211450,2088,2238221923,6.199e-05,0.0002069,0.001934,0.0002041,0.000392,0.0002069,0,0,0.0002537,0,13.56,0.05481,0,0,2.956e-05
210300000000,210600000000,6273211450,2088,2238221923,6.485e-05,0.0002089,0.001934,0.0002041,0.000392,0.0002117,0,0,0.0003929,7.153e-05,13.85,0.05612,0,0,2.575e-05
210600000000,210900000000,6273211450,2088,2238221923,6.485e-05,0.0002089,0.001934,0.0002041,0.000392,0.0002127,0,0,0.0003471,7.153e-05,14.11,0.05765,0,0,0.0003262
210900000000,211200000000,6273211450,2088,2238221923,6.58e-05,0.0002089,0.001934,0.0002041,0.000392,0.0002117,0,0,0.0002337,7.153e-05,8.717,0.0331,0,0,6.294e-05
211200000000,211500000000,6273211450,2088,2238221923,6.39e-05,0.000206,0.001934,0.0002041,0.000392,0.0002069,0,0,0.0002832,0,10.12,0.04011,0,0,7.153e-05
211500000000,211800000000,6273211450,2088,2238221923,6.199e-05,0.0002089,0.001934,0.0002041,0.000392,0.0002117,0,0,0.0005875,7.153e-05,22.7,0.09673,0,0,1.24e-05
211800000000,212100000000,6273211450,2088,2238221923,6.199e-05,0.0002069,0.001934,0.0002041,0.000392,0.0002069,0,0,0.0006742,0,14.27,0.05949,0,0,0.0001268
212100000000,212400000000,6273211450,2088,2238221923,5.531e-05,0.0002089,0.001934,0.0002041,0.000392,0.0002117,0,0,0.0002995,7.153e-05,10.92,0.04591,0,0,3.91e-05
212400000000,212700000000,6273211450,2088,2238221923,5.341e-05,0.000206,0.001934,0.0002041,0.000392,0.0002069,0,0,0.0002098,0,13.66,0.05762,0,0,5.913e-05
212700000000,213000000000,6273211450,2088,2238221923,5.245e-05,0.0002089,0.001934,0.0002041,0.000392,0.0002117,0,0,0.0002489,7.153e-05,10.46,0.03543,0,0,3.242e-05
213000000000,213300000000,6273211450,2088,2238221923,5.245e-05,0.000206,0.001934,0.0002041,0.000392,0.0002069,0,0,0.000226,0,15.24,0.05331,0,0,3.052e-05
213300000000,213600000000,6273211450,2088,2238221923,5.054e-05,0.0002089,0.001934,0.0002041,0.000392,0.0002117,0,0,0.000185,7.153e-05,10.86,0.03594,0,0,6.58e-05
213600000000,213900000000,6273211450,2088,2238221923,5.054e-05,0.000206,0.001934,0.0002041,0.000392,0.000206,0,0,0.0004234,0,8.425,0.02732,0,0,3.91e-05
213900000000,214200000000,6273211450,2088,2238221923,5.054e-05,0.0002079,0.001934,0.0002041,0.000392,0.0002117,0,0,0.000246,7.153e-05,6.885,0.02274,0,0,2.098e-05
214200000000,214500000000,6273211450,2088,2238221923,4.673e-05,0.000206,0.001934,0.0002041,0.000392,0.000206,0,0,0.000246,0,5.61,0.01902,0,0,3.433e-05
214500000000,214800000000,6273211450,2088,2238221923,4.864e-05,0.0002079,0.001934,0.000205,0.000392,0.0002108,1.907e-06,0,0.0002823,0.0005713,9.86,0.03555,0,0,5.531e-05
214800000000,215100000000,6273211450,2088,2238221923,5.054e-05,0.000206,0.001934,0.000205,0.000392,0.000206,0,0,0.0004253,0,16.05,0.06337,0,0,6.676e-06
215100000000,215400000000,6273211450,2088,2238221923,4.959e-05,0.0002079,0.001934,0.000205,0.000392,0.0002108,1.907e-06,0,0.0004177,0.0007143,9.335,0.0342,0,0,7.248e-05
215400000000,215700000000,6273211450,2088,2238221923,4.387e-05,0.0002089,0.001934,0.0002069,0.0003939,0.0002146,0,0,0.0002851,7.153e-05,5.799,0.02019,0,0,6.294e-05
215700000000,216000000000,6273211450,2088,2238221923,5.341e-05,0.0002098,0.001934,0.0002069,0.0003939,0.0002146,3.815e-06,0,0.0002728,0.0009289,11.32,0.04407,0,0,1.144e-05
181200000000,181500000000,6273211450,2088,317497834,3.719e-05,0.0002136,0.001934,0.0002203,0.0004091,0.0002165,0,0,0.0001593,0,16.78,0.07309,0,0,1.717e-05
181500000000,181800000000,6273211450,2088,317497834,3.91e-05,0.0002222,0.001934,0.0002203,0.0004091,0.0002308,9.537e-07,0,0.0002451,0.0001431,21.97,0.09527,0,0,0.0001421
181800000000,182100000000,6273211450,2088,317497834,3.91e-05,0.0002213,0.001934,0.0002203,0.0004091,0.0002346,0,0,0.0001936,7.153e-05,35.77,0.1551,0,0,1.526e-05
182100000000,182400000000,6273211450,2088,317497834,3.624e-05,0.0002127,0.001934,0.0002203,0.0004091,0.0002165,9.537e-07,0,0.0002747,0.0003567,33.45,0.1514,0,0,2.098e-05
182400000000,182700000000,6273211450,2088,317497834,3.719e-05,0.0002136,0.001934,0.0002203,0.0004091,0.0002165,0,0,0.0001974,0,33.94,0.1546,0,0,0.0001526
182700000000,183000000000,6273211450,2088,317497834,3.815e-05,0.0002127,0.001934,0.0002203,0.0004091,0.0002165,0,0,0.0001612,7.153e-05,34.12,0.1569,0,0,0.0001612
183000000000,183300000000,6273211450,2088,317497834,3.815e-05,0.0002136,0.001934,0.0002203,0.0004091,0.0002165,0,0,0.0002165,0,34.5,0.1569,0,0,2.098e-05
183300000000,183600000000,6273211450,2088,317497834,3.719e-05,0.0002203,0.001934,0.0002213,0.0004091,0.0002308,9.537e-07,0,0.0003624,0.0001431,30.59,0.1413,0,0,5.531e-05
183600000000,183900000000,6273211450,2088,317497834,3.815e-05,0.0002203,0.001934,0.0002213,0.0004091,0.0002308,0,0,0.0004606,7.153e-05,15.55,0.06874,0,0,3.147e-05
183900000000,184200000000,6273211450,2088,317497834,4.482e-05,0.0002127,0.001934,0.0002213,0.0004091,0.0002232,0,0,0.001234,7.153e-05,23.1,0.104,0,0,5.15e-05
184200000000,184500000000,6273211450,2088,317497834,4.101e-05,0.0002136,0.001934,0.0002213,0.0004091,0.0002174,0,0,0.0004349,0,26.41,0.1194,0,0,9.251e-05
184500000000,184800000000,6273211450,2088,317497834,4.196e-05,0.0002117,0.001934,0.0002213,0.0004091,0.0002165,0,0,0.0005102,7.153e-05,34.88,0.1591,0,0,0.0001173
184800000000,185100000000,6273211450,2088,317497834,4.292e-05,0.0002203,0.001934,0.0002213,0.0004091,0.0002317,0,0,0.0006495,7.153e-05,35.22,0.162,0,0,1.144e-05
185100000000,185400000000,6273211450,2088,317497834,4.101e-05,0.0002136,0.001934,0.0002213,0.0004101,0.000226,0,0,0.0003195,7.153e-05,35.12,0.163,0,0,1.24e-05
185400000000,185700000000,6273211450,2088,317497834,4.101e-05,0.0002136,0.001934,0.0002213,0.0004101,0.0002165,0,0,0.0003567,0,20.87,0.09224,0,0,1.431e-05
185700000000,186000000000,6273211450,2088,317497834,4.196e-05,0.0002222,0.001934,0.0002213,0.0004101,0.0002308,9.537e-07,0,0.001009,0.0001431,22.28,0.1001,0,0,3.242e-05
186000000000,186300000000,6273211450,2088,317497834,4.101e-05,0.0002136,0.001934,0.0002213,0.0004101,0.0002184,0,0,0.0001554,0,34.3,0.1551,0,0,1.526e-05
176100000000,176400000000,6273211450,2088,317497834,4.864e-05,0.0002127,0.001934,0.0002193,0.0004082,0.0002174,9.537e-07,0,0.0003872,0.0002146,33.69,0.1519,0,0,3.338e-05
176400000000,176700000000,6273211450,2088,317497834,5.15e-05,0.0002146,0.001934,0.0002193,0.0004082,0.0002174,0,0,0.0005331,0,33.88,0.1495,0,0,4.578e-05
176700000000,177000000000,6273211450,2088,317497834,4.292e-05,0.0002193,0.001934,0.0002193,0.0004082,0.0002327,9.537e-07,0,0.0002584,0.0001431,26.83,0.1194,0,0,7.629e-06
177000000000,177300000000,6273211450,2088,317497834,3.91e-05,0.0002184,0.001934,0.0002193,0.0004082,0.0002327,0,0,0.0003443,7.153e-05,30.92,0.141,0,0,6.771e-05
177300000000,177600000000,6273211450,2088,317497834,4.101e-05,0.0002127,0.001934,0.0002193,0.0004082,0.0002251,0,0,0.001291,7.153e-05,31.85,0.1437,0,0,3.815e-06
177600000000,177900000000,6273211450,2088,317497834,4.101e-05,0.0002251,0.001934,0.0002203,0.0004082,0.0002337,9.537e-07,0,0.0002518,7.153e-05,27.94,0.1263,0,0,5.722e-06
177900000000,178200000000,6273211450,2088,317497834,3.91e-05,0.0002155,0.001934,0.0002203,0.0004082,0.0002337,9.537e-07,0,0.0002375,0.0001431,26.65,0.1237,0,0,5.531e-05
178200000000,178500000000,6273211450,2088,317497834,4.005e-05,0.0002203,0.001934,0.0002203,0.0004091,0.0002337,0,0,0.0003271,7.153e-05,31.1,0.14,0,0,1.049e-05
178500000000,178800000000,6273211450,2088,317497834,4.005e-05,0.0002127,0.001934,0.0002203,0.0004091,0.0002174,0,0,0.0001841,7.153e-05,32.62,0.1453,0,0,2.766e-05
178800000000,179100000000,6273211450,2088,317497834,4.005e-05,0.0002136,0.001934,0.0002203,0.0004091,0.0002174,0,0,0.0001554,0,33.32,0.1468,0,0,9.537e-06
179100000000,179400000000,6273211450,2088,317497834,4.387e-05,0.0002127,0.001934,0.0002203,0.0004091,0.0002174,0,0,0.0001898,7.153e-05,36.63,0.1548,0,0,1.049e-05
179400000000,179700000000,6273211450,2088,317497834,3.719e-05,0.0002136,0.001934,0.0002203,0.0004091,0.0002174,0,0,0.0002499,0,34.25,0.1525,0,0,2.384e-05
179700000000,180000000000,6273211450,2088,317497834,3.624e-05,0.0002127,0.001934,0.0002203,0.0004091,0.0002174,0,0,0.0004635,7.153e-05,34.13,0.1533,0,0,2.956e-05
180000000000,180300000000,6273211450,2088,317497834,3.815e-05,0.0002136,0.001934,0.0002203,0.0004091,0.0002174,0,0,0.0002127,0,33.79,0.1532,0,0,7.629e-06
180300000000,180600000000,6273211450,2088,317497834,4.005e-05,0.0002127,0.001934,0.0002203,0.0004091,0.0002174,0,0,0.000473,7.153e-05,34.95,0.1525,0,0,3.529e-05
180600000000,180900000000,6273211450,2088,317497834,4.196e-05,0.0002136,0.001934,0.0002203,0.0004091,0.0002174,0,0,0.0002003,0,36.73,0.1525,0,0,2.861e-05
180900000000,181200000000,6273211450,2088,317497834,3.719e-05,0.0002127,0.001934,0.0002203,0.0004091,0.0002165,0,0,0.0004797,7.153e-05,34.95,0.1546,0,0,4.387e-05
186300000000,186600000000,6273211450,2088,317497834,3.91e-05,0.0002127,0.001934,0.0002213,0.0004101,0.0002165,9.537e-07,0,0.0002651,0.0002146,35.12,0.1589,0,0,4.101e-05
186600000000,186900000000,6273211450,2088,317497834,4.196e-05,0.0002136,0.001934,0.0002213,0.0004101,0.0002174,0,0,0.0002251,0,36.78,0.1642,0,0,4.864e-05
186900000000,187200000000,6273211450,2088,317497834,3.529e-05,0.0002127,0.001934,0.0002213,0.0004101,0.0002165,0,0,0.0004168,7.153e-05,33.92,0.153,0,0,9.537e-06
187200000000,187500000000,6273211450,2088,317497834,3.815e-05,0.0002136,0.001934,0.0002213,0.0004101,0.0002165,0,0,0.0002804,0,28.26,0.1231,0,0,0.0001001
187500000000,187800000000,6273211450,2088,317497834,4.196e-05,0.0002127,0.001934,0.0002213,0.0004101,0.0002174,0,0,0.0002108,7.153e-05,36.37,0.1597,0,0,6.39e-05
187800000000,188100000000,6273211450,2088,317497834,4.196e-05,0.0002136,0.001934,0.0002213,0.0004101,0.0002174,0,0,0.0003319,0,34.56,0.1549,0,0,1.621e-05
188100000000,188400000000,6273211450,2088,317497834,3.815e-05,0.0002127,0.001934,0.0002213,0.0004101,0.0002165,0,0,0.000205,7.153e-05,32.9,0.1515,0,0,5.341e-05
188400000000,188700000000,6273211450,2088,317497834,3.624e-05,0.0002136,0.001934,0.0002213,0.0004101,0.0002174,0,0,0.0002823,0,32.42,0.1504,0,0,3.719e-05
188700000000,189000000000,6273211450,2088,317497834,3.338e-05,0.0002127,0.001934,0.0002213,0.0004101,0.0002184,0,0,0.0003042,7.153e-05,31.25,0.1445,0,0,3.242e-05
189000000000,189300000000,6273211450,2088,317497834,3.529e-05,0.0002155,0.001934,0.0002213,0.0004101,0.0002222,0,0,0.0002985,7.153e-05,31.82,0.1463,0,0,5.245e-05
189300000000,189600000000,6273211450,2088,317497834,3.719e-05,0.0002127,0.001934,0.0002213,0.0004101,0.0002165,0,0,0.0003233,7.153e-05,32.59,0.1483,0,0,9.537e-06
189600000000,189900000000,6273211450,2088,317497834,4.196e-05,0.0002136,0.001934,0.0002213,0.0004101,0.0002174,0,0,0.0002069,0,35.99,0.1632,0,0,5.913e-05
189900000000,190200000000,6273211450,2088,317497834,4.101e-05,0.0002127,0.001934,0.0002213,0.0004101,0.0002174,0,0,0.0003681,7.153e-05,34.8,0.1591,0,0,7.629e-06
190200000000,190500000000,6273211450,2088,317497834,4.005e-05,0.0002136,0.001934,0.0002213,0.0004101,0.0002174,0,0,0.0004749,0,35.08,0.1599,0,0,0.0001335
190500000000,190800000000,6273211450,2088,317497834,4.101e-05,0.0002127,0.001934,0.0002213,0.0004101,0.0002165,0,0,0.000205,7.153e-05,36.36,0.1659,0,0,2.289e-05
190800000000,191100000000,6273211450,2088,317497834,4.101e-05,0.0002136,0.001934,0.0002222,0.0004101,0.0002174,0,0,0.0002136,0,36.13,0.1646,0,0,2.289e-05
