5700000000,6000000000,793288025,0,906647,0.01141,0.007904,0.01164,0.001339,0.001459,0.008484,3.815e-06,1.526e-05,0.1455,0.0001431,0.9894,0.0005438,0,0,0.01476
6000000000,6300000000,793288025,0,906647,0.0118,0.008148,0.0125,0.001331,0.00145,0.009033,0.0002623,1.526e-05,0.1234,0.04773,1.006,0.0006235,0,0,0.0001087
6300000000,6600000000,793288025,0,906647,0.01199,0.007935,0.01169,0.001343,0.001461,0.008484,3.815e-06,1.526e-05,0.1677,0.0001431,1.017,0.0005831,0,0,0.06012
7200000000,7500000000,793288025,0,906647,0.01201,0.007919,0.01167,0.001347,0.001461,0.008438,7.629e-06,1.526e-05,0.1222,0.0008574,1.021,0.0005921,0,0,0.0001402
7500000000,7800000000,793288025,0,906647,0.01166,0.007904,0.01176,0.001347,0.001461,0.008759,1.049e-05,1.526e-05,0.1177,0.001143,0.9992,0.0005699,0,0,0.0001173
7800000000,8100000000,793288025,0,906647,0.01169,0.008148,0.01216,0.001345,0.001465,0.008728,3.815e-06,1.526e-05,0.1222,0.0001431,0.997,0.0006552,0,0,6.676e-05
9000000000,9300000000,793288025,0,906647,0.0116,0.007919,0.01164,0.001345,0.001461,0.008392,3.815e-06,1.526e-05,0.1443,7.153e-05,0.997,0.000637,0,0,9.823e-05
9300000000,9600000000,793288025,0,906647,0.01143,0.007904,0.01164,0.001341,0.001461,0.008499,3.815e-06,1.526e-05,0.1226,0.0002146,0.9878,0.000582,0,0,0.0001011
9600000000,9900000000,793288025,0,906647,0.01154,0.007904,0.01164,0.001337,0.001461,0.008453,5.722e-06,1.526e-05,0.1013,0.0002861,0.9875,0.0005463,0,0,0.04895
10500000000,10800000000,793288025,0,906647,0.01172,0.007919,0.01164,0.001339,0.001461,0.008484,5.722e-06,1.526e-05,0.1241,0.0002146,0.9867,0.0005524,0,0,0.04651
10800000000,11100000000,793288025,0,906647,0.01146,0.008163,0.01189,0.001347,0.001461,0.008789,4.768e-06,1.526e-05,0.1501,0.0004997,0.9834,0.0005333,0,0,0.001694
11700000000,12000000000,793288025,0,906647,0.01169,0.008209,0.01215,0.001337,0.001461,0.008865,3.815e-06,1.526e-05,0.1227,0.0001431,0.9857,0.0005376,0,0,0.000123
12000000000,12300000000,793288025,0,906647,0.01149,0.007996,0.01163,0.001345,0.001461,0.008484,3.815e-06,1.526e-05,0.1239,0.0001431,0.9817,0.0005397,0,0,6.962e-05
12300000000,12600000000,793288025,0,906647,0.01208,0.00798,0.01202,0.00135,0.001469,0.008621,1.621e-05,1.526e-05,0.1272,0.0009995,1.012,0.0005668,0,0,0.000123
13500000000,13800000000,793288025,0,906647,0.01187,0.008163,0.01192,0.001322,0.001438,0.008759,1.144e-05,1.526e-05,0.1237,0.001286,0.9939,0.0005578,0,0,0.0001278
14100000000,14400000000,793288025,0,906647,0.01151,0.007935,0.01184,0.001339,0.001459,0.009125,4.768e-06,1.526e-05,0.165,0.0005713,0.9823,0.0005414,0,0,9.537e-05
14700000000,15000000000,793288025,0,906647,0.01167,0.008163,0.01189,0.001341,0.001459,0.008774,3.815e-06,1.526e-05,0.1154,0.0001431,0.994,0.0005674,0,0,9.632e-05
15900000000,16200000000,793288025,0,906647,0.01154,0.007965,0.01176,0.001339,0.001459,0.009079,4.768e-06,1.526e-05,0.2351,0.0002861,0.9843,0.0005337,0,0,0.0001192
16200000000,16500000000,793288025,0,906647,0.01146,0.007919,0.01176,0.001339,0.001459,0.008682,3.815e-06,1.526e-05,0.1191,0.0002146,0.9775,0.0005205,0,0,0.002628
16500000000,16800000000,793288025,0,906647,0.01176,0.008133,0.01227,0.00135,0.001463,0.008759,3.815e-06,1.526e-05,0.118,0.0001431,0.9912,0.0005624,0,0,0.01234
16800000000,17100000000,793288025,0,906647,0.01146,0.00795,0.01163,0.001339,0.001457,0.008484,5.722e-06,1.526e-05,0.1594,0.0005713,0.9798,0.0005317,0,0,8.011e-05
18600000000,18900000000,793288025,0,906647,0.01157,0.00798,0.01176,0.001337,0.001453,0.008575,6.676e-06,1.526e-05,0.1672,0.0009995,0.9868,0.0005528,0,0,0.03821
18900000000,19200000000,793288025,0,906647,0.01125,0.007935,0.01176,0.001339,0.001453,0.008804,3.815e-06,1.526e-05,0.2114,0.0002861,0.9965,0.0005667,0,0,0.06232
19500000000,19800000000,793288025,0,906647,0.01143,0.008011,0.01176,0.001329,0.001453,0.008636,9.537e-06,1.526e-05,0.1229,0.0009995,1.006,0.0006144,0,0,4.673e-05
20100000000,20400000000,793288025,0,906647,0.01172,0.008163,0.01189,0.001341,0.001457,0.009048,0.0002708,1.526e-05,0.1133,0.04999,0.9971,0.0005753,0,0,0.0002346
20400000000,20700000000,793288025,0,906647,0.01161,0.00798,0.01175,0.00135,0.001467,0.008621,3.815e-06,1.526e-05,0.1158,0.0002861,0.9902,0.0005565,0,0,6.199e-05
20700000000,21000000000,793288025,0,906647,0.0118,0.008163,0.01201,0.001347,0.001467,0.00885,5.722e-06,1.526e-05,0.1182,0.0007143,0.9963,0.0005716,0,0,0.05817
21300000000,21600000000,793288025,0,906647,0.01195,0.007965,0.01189,0.001347,0.001467,0.00853,8.965e-05,1.526e-05,0.175,0.002716,1.035,0.0006852,0,0,4.673e-05
21600000000,21900000000,793288025,0,906647,0.01181,0.007965,0.01176,0.001328,0.001446,0.008591,0.0002737,1.526e-05,0.1248,0.05713,1.015,0.0006319,0,0,0.0001698
22200000000,22500000000,793288025,0,906647,0.01131,0.008011,0.01163,0.001316,0.001444,0.008514,3.815e-06,1.526e-05,0.12,0.0001431,0.9812,0.0005189,0,0,5.436e-05
22800000000,23100000000,793288025,0,906647,0.01169,0.008163,0.01176,0.001324,0.001444,0.008774,2.67e-05,1.526e-05,0.1122,0.004929,0.984,0.0005396,0,0,8.583e-05
23100000000,23400000000,793288025,0,906647,0.01147,0.007996,0.01175,0.001324,0.001444,0.008896,2.098e-05,1.526e-05,0.1141,0.003143,0.9864,0.0005443,0,0,5.341e-05
23700000000,24000000000,793288025,0,906647,0.01186,0.008163,0.01201,0.001326,0.001444,0.00882,4.768e-06,1.526e-05,0.1704,0.0004282,0.9969,0.0005542,0,0,6.866e-05
24000000000,24300000000,793288025,0,906647,0.01155,0.007996,0.01163,0.001328,0.001444,0.008514,4.768e-06,1.526e-05,0.1235,0.0002146,0.9938,0.0005545,0,0,4.578e-05
24600000000,24900000000,793288025,0,906647,0.01138,0.008026,0.01201,0.001335,0.001453,0.008545,3.815e-06,1.526e-05,0.09888,7.153e-05,0.9831,0.0005396,0,0,0.0001602
26700000000,27000000000,793288025,0,906647,0.01155,0.00798,0.01164,0.001377,0.001501,0.008514,3.815e-06,1.526e-05,0.1216,7.153e-05,1.004,0.0005956,0,0,6.58e-05
27000000000,27300000000,793288025,0,906647,0.01195,0.008179,0.01202,0.001385,0.001501,0.008987,2.861e-06,1.526e-05,0.123,7.153e-05,1.009,0.0006613,0,0,0.001831
27300000000,27600000000,793288025,0,906647,0.01143,0.008041,0.01176,0.001381,0.001499,0.008545,3.815e-06,1.526e-05,0.1235,0.0001431,0.9873,0.0005824,0,0,0.02417
28200000000,28500000000,793288025,0,906647,0.01163,0.008057,0.01192,0.001335,0.001453,0.008652,0.0008087,1.526e-05,0.1384,0.05713,1.021,0.0006363,0,0,4.959e-05
28500000000,28800000000,793288025,0,906647,0.0121,0.00798,0.01176,0.001341,0.001463,0.00853,0.0002899,1.526e-05,0.1318,0.03571,1.037,0.0006633,0,0,0.0001621
29100000000,29400000000,793288025,0,906647,0.01263,0.008041,0.01216,0.001295,0.001417,0.009094,0.001179,1.526e-05,0.208,0.05713,1.052,0.0006585,0,0,0.0001802
29400000000,29700000000,793288025,0,906647,0.01236,0.008209,0.01242,0.001339,0.001463,0.008881,0.0003557,1.526e-05,0.1162,0.04999,1.007,0.0006415,0,0,8.297e-05
31800000000,32100000000,793288025,0,906647,0.01237,0.00798,0.01176,0.00135,0.001467,0.008575,0.0003157,1.526e-05,0.1195,0.02866,1.033,0.0006426,0,0,0.01112
33600000000,33900000000,793288025,0,906647,0.0123,0.008026,0.01176,0.001354,0.001478,0.008667,0.001074,1.526e-05,0.1218,0.05713,1.033,0.0006713,0,0,8.678e-05
33900000000,34200000000,793288025,0,906647,0.01291,0.00827,0.01283,0.001329,0.00145,0.009186,0.001972,1.526e-05,0.1198,0.04999,1.063,0.0006736,0,0,0.0001192
34200000000,34500000000,793288025,0,906647,0.01228,0.008087,0.01225,0.001379,0.001501,0.008865,2.956e-05,1.526e-05,0.1219,0.001858,1.005,0.0006052,0,0,5.627e-05
34500000000,34800000000,793288025,0,906647,0.01172,0.008041,0.01202,0.001366,0.001492,0.008682,0.0007744,1.526e-05,0.1477,0.06433,1,0.0006101,0,0,0.0003147
35100000000,35400000000,793288025,0,906647,0.01234,0.008087,0.01215,0.001238,0.001356,0.008942,0.001463,1.526e-05,0.1506,0.06433,1.039,0.0006415,0,0,0.05707
35400000000,35700000000,793288025,0,906647,0.01172,0.008041,0.0121,0.001328,0.001446,0.008636,0.0002728,1.526e-05,0.1316,0.04022,1.014,0.0006183,0,0,0.0001383
36000000000,36300000000,793288025,0,906647,0.01239,0.008133,0.01237,0.001305,0.001425,0.009048,0.0008955,1.526e-05,0.1282,0.05713,1.035,0.0006539,0,0,0.0001001
36300000000,36600000000,793288025,0,906647,0.01175,0.008057,0.01216,0.001276,0.001394,0.008911,0.001183,1.526e-05,0.1208,0.05713,1.023,0.0006198,0,0,0.001062
36900000000,37200000000,793288025,0,906647,0.01253,0.008118,0.01222,0.001217,0.001339,0.008636,0.0002747,1.526e-05,0.1421,0.04285,1.047,0.000642,0,0,0.06219
37800000000,38100000000,793288025,0,906647,0.01228,0.008148,0.01254,0.001278,0.001398,0.008743,1.335e-05,1.526e-05,0.1196,0.001928,1.035,0.0006314,0,0,0.0001192
38400000000,38700000000,793288025,0,906647,0.01234,0.008133,0.01244,0.00124,0.001375,0.008957,0.001431,1.526e-05,0.1807,0.05713,1.028,0.000627,0,0,0.0003223
39600000000,39900000000,793288025,0,906647,0.01256,0.008224,0.01245,0.001234,0.001352,0.009171,0.0003729,1.526e-05,0.1255,0.03571,1.054,0.0007738,0,0,6.294e-05
40200000000,40500000000,793288025,0,906647,0.01277,0.008469,0.01305,0.001257,0.001377,0.009064,0.0006266,1.526e-05,0.1553,0.04358,1.055,0.0007252,0,0,0.06232
40500000000,40800000000,793288025,0,906647,0.01205,0.008194,0.01233,0.001251,0.001375,0.009171,0.0004263,1.526e-05,0.1023,0.02386,1.035,0.0006816,0,0,0.00618
51300000000,51600000000,793288025,0,906647,0.01244,0.00824,0.01242,0.001175,0.001293,0.009674,0.001245,1.526e-05,0.1191,0.04327,1.164,0.00137,0,0,0.0001707
52200000000,52500000000,793288025,0,906647,0.01218,0.008347,0.01271,0.00111,0.00124,0.01038,0.00193,1.526e-05,0.2256,0.04285,1.031,0.0007927,0,0,0.02792
52800000000,53100000000,793288025,0,906647,0.01201,0.008118,0.01225,0.001183,0.001303,0.009033,0.00103,1.526e-05,0.12,0.04999,1.023,0.0007157,0,0,9.251e-05
53100000000,53400000000,793288025,0,906647,0.01241,0.00827,0.01268,0.001204,0.001328,0.009232,0.0008154,1.526e-05,0.1243,0.04779,1.094,0.000914,0,0,0.0001068
53400000000,53700000000,793288025,0,906647,0.01212,0.008148,0.01251,0.001219,0.001345,0.008987,1.907e-05,1.526e-05,0.1211,0.001429,20.52,0.09899,0,0,0.0005817
53700000000,54000000000,793288025,0,906647,0.01195,0.008026,0.01208,0.001198,0.001312,0.008667,0.0004377,1.526e-05,0.1704,0.03906,1.138,0.001428,0,0,0.0001516
54300000000,54600000000,793288025,0,906647,0.01233,0.008331,0.0128,0.001156,0.00128,0.00943,0.001665,1.526e-05,0.1624,0.05548,1.084,0.001061,0,0,9.346e-05
54600000000,54900000000,793288025,0,906647,0.01212,0.008179,0.01253,0.001127,0.001257,0.009644,0.002041,1.526e-05,0.1212,0.04285,1.04,0.0008226,0,0,0.0001907
54900000000,55200000000,793288025,0,906647,0.01196,0.008072,0.01231,0.001202,0.001324,0.008972,0.0006285,1.526e-05,0.1235,0.05426,1.04,0.0008066,0,0,0.0002403
55200000000,55500000000,793288025,0,906647,0.01222,0.00827,0.01266,0.001156,0.001274,0.009583,0.001392,1.526e-05,0.2588,0.04492,1.042,0.0008212,0,0,0.005219
55500000000,55800000000,793288025,0,906647,0.0121,0.008102,0.01268,0.001026,0.001143,0.00946,0.002224,1.526e-05,0.2012,0.05737,1.016,0.0007597,0,0,0.0001421
55800000000,56100000000,793288025,0,906647,0.01212,0.008102,0.01231,0.001135,0.001257,0.00882,0.001249,1.526e-05,0.207,0.05005,1.052,0.000749,0,0,8.297e-05
56100000000,56400000000,793288025,0,906647,0.01205,0.008072,0.01207,0.001123,0.001245,0.009171,0.001873,1.526e-05,0.1494,0.04999,1.038,0.000746,0,0,0.02649
56400000000,56700000000,793288025,0,906647,0.01183,0.008072,0.01224,0.001184,0.001303,0.009033,0.00102,1.526e-05,0.1821,0.04883,1.027,0.0007235,0,0,0.0001612
56700000000,57000000000,793288025,0,906647,0.01251,0.00827,0.01288,0.001198,0.001318,0.008896,0.001089,1.526e-05,0.1232,0.04999,1.035,0.0007048,0,0,0.0001011
57000000000,57300000000,793288025,0,906647,0.01166,0.008194,0.01242,0.001215,0.001331,0.008774,0.001028,1.526e-05,0.1545,0.05273,1.019,0.0007083,0,0,0.0001431
57300000000,57600000000,793288025,0,906647,0.01212,0.008072,0.01215,0.001198,0.001318,0.008682,0.001062,1.526e-05,0.1041,0.05157,1.028,0.0007541,0,0,8.106e-05
57600000000,57900000000,793288025,0,906647,0.01207,0.008087,0.01205,0.001205,0.001329,0.008652,0.001177,1.526e-05,0.1165,0.05377,1.027,0.0006972,0,0,0.000164
58500000000,58800000000,793288025,0,906647,0.01213,0.008179,0.01215,0.001219,0.001343,0.00882,0.001251,1.526e-05,0.1428,0.04999,1.026,0.0007114,0,0,9.346e-05
59400000000,59700000000,793288025,0,906647,0.01198,0.008255,0.01256,0.001148,0.001276,0.009003,0.0009346,1.526e-05,0.1714,0.03986,1.037,0.0007095,0,0,6.485e-05
59700000000,60000000000,793288025,0,906647,0.01176,0.008179,0.01225,0.001179,0.001305,0.00885,0.001305,1.526e-05,0.1239,0.05713,1.006,0.0006712,0,0,0.0007572
60000000000,60300000000,793288025,0,906647,0.01221,0.008179,0.01208,0.001184,0.001308,0.008759,0.001471,1.526e-05,0.1204,0.05713,1.017,0.0006974,0,0,0.02502
60300000000,60600000000,793288025,0,906647,0.01216,0.008347,0.01305,0.001169,0.001291,0.009094,0.00148,1.526e-05,0.127,0.05713,1.011,0.0006723,0,0,0.006989
60600000000,60900000000,793288025,0,906647,0.0119,0.00824,0.01262,0.001184,0.001308,0.008911,0.0004845,1.526e-05,0.1228,0.04285,1.021,0.0007051,0,0,0.0001802
70800000000,71100000000,793288025,0,906647,0.01202,0.008133,0.01201,0.001265,0.001383,0.008591,4.482e-05,1.526e-05,0.111,0.003429,1.012,0.0006305,0,0,8.678e-05
71100000000,71400000000,793288025,0,906647,0.01227,0.008316,0.01273,0.001179,0.001303,0.008987,0.00124,1.526e-05,0.1207,0.05469,1.017,0.0006482,0,0,0.0001965
72000000000,72300000000,793288025,0,906647,0.01205,0.008255,0.01291,0.00123,0.001354,0.008957,0.0004425,1.526e-05,0.1785,0.04999,1.034,0.0006877,0,0,0.0001516
72600000000,72900000000,793288025,0,906647,0.01213,0.008057,0.01204,0.001177,0.001297,0.008972,0.001144,1.526e-05,0.1462,0.05585,1.028,0.0006632,0,0,0.04266
72900000000,73200000000,793288025,0,906647,0.01231,0.008163,0.01256,0.001127,0.001251,0.009323,0.001301,1.526e-05,0.1611,0.05249,1.034,0.0006825,0,0,0.0001211
73200000000,73500000000,793288025,0,906647,0.01239,0.008224,0.01242,0.001238,0.00136,0.009277,0.0009441,1.526e-05,0.123,0.04285,1.037,0.0006774,0,0,0.0002155
73500000000,73800000000,793288025,0,906647,0.01189,0.008118,0.01227,0.001266,0.00139,0.009064,0.0003958,1.526e-05,0.1387,0.04352,0.9992,0.0005985,0,0,0.0002337
73800000000,74100000000,793288025,0,906647,0.01215,0.00827,0.01244,0.001255,0.001379,0.008972,0.0005913,1.526e-05,0.1406,0.03937,1.021,0.0006369,0,0,0.06201
74100000000,74400000000,793288025,0,906647,0.01207,0.008255,0.01289,0.00123,0.001358,0.008911,0.0009441,1.526e-05,0.1233,0.04999,1.013,0.0006478,0,0,8.106e-05
74400000000,74700000000,793288025,0,906647,0.01227,0.008133,0.0126,0.001244,0.001368,0.008972,0.001528,1.526e-05,0.1216,0.04999,1.051,0.0007244,0,0,6.294e-05
74700000000,75000000000,793288025,0,906647,0.01219,0.008118,0.0121,0.001255,0.001379,0.008942,0.0007181,1.526e-05,0.1141,0.04999,1.048,0.0006942,0,0,0.0001602
75000000000,75300000000,793288025,0,906647,0.01245,0.008316,0.01268,0.00124,0.001368,0.008987,0.0005713,1.526e-05,0.1243,0.04572,1.025,0.000681,0,0,0.0001011
76200000000,76500000000,793288025,0,906647,0.01273,0.008286,0.01251,0.001255,0.001377,0.009277,0.0005655,1.526e-05,0.1411,0.052,1.056,0.0007152,0,0,0.1053
76500000000,76800000000,793288025,0,906647,0.01241,0.008286,0.01276,0.001265,0.001387,0.009018,0.001057,1.526e-05,0.1741,0.02908,1.042,0.0007268,0,0,0.0001583
76800000000,77100000000,793288025,0,906647,0.01227,0.008118,0.01233,0.001242,0.001362,0.008789,0.001764,1.526e-05,0.1239,0.04999,1.047,0.0006781,0,0,0.03918
77700000000,78000000000,793288025,0,906647,0.01295,0.008194,0.01253,0.001247,0.001375,0.009125,0.0007095,1.526e-05,0.1621,0.04327,1.066,0.000691,0,0,0.04205
78000000000,78300000000,793288025,0,906647,0.0119,0.00827,0.0127,0.00123,0.001364,0.00946,0.00106,1.526e-05,0.1689,0.02856,1.026,0.0006633,0,0,0.0001669
78300000000,78600000000,793288025,0,906647,0.01282,0.008347,0.01282,0.001287,0.001406,0.009033,6.485e-05,1.526e-05,0.1211,0.006432,1.044,0.000668,0,0,0.0002871
78900000000,79200000000,793288025,0,906647,0.01222,0.00827,0.01219,0.001232,0.001356,0.009415,0.001194,1.526e-05,0.158,0.04285,1.049,0.0007004,0,0,0.01271
79200000000,79500000000,793288025,0,906647,0.01207,0.008179,0.01239,0.001209,0.001335,0.009048,0.00136,1.526e-05,0.1648,0.04999,1.019,0.0006456,0,0,0.0001888
79500000000,79800000000,793288025,0,906647,0.01273,0.008316,0.01256,0.001291,0.001404,0.008987,0.0001097,1.526e-05,0.1249,0.007713,1.062,0.0006971,0,0,6.104e-05
79800000000,80100000000,793288025,0,906647,0.01219,0.008316,0.01262,0.00119,0.001314,0.009293,0.001282,1.526e-05,0.09546,0.05328,1.016,0.0006389,0,0,0.05786
85800000000,86100000000,793288025,0,906647,0.01259,0.008377,0.01291,0.001209,0.001343,0.009354,0.0007172,1.526e-05,0.178,0.0177,1.058,0.0007737,0,0,0.003166
86100000000,86400000000,793288025,0,906647,0.01263,0.008408,0.01334,0.001114,0.001244,0.009918,0.005363,1.526e-05,0.1758,0.04999,1.051,0.0006857,0,0,0.0001745
86400000000,86700000000,793288025,0,906647,0.01224,0.00824,0.01234,0.001221,0.001345,0.008804,0.002125,1.526e-05,0.1228,0.05206,1.014,0.0006455,0,0,0.0001001
86700000000,87000000000,793288025,0,906647,0.01234,0.008331,0.01268,0.001194,0.001314,0.009033,0.000351,1.526e-05,0.1274,0.05713,1.029,0.0007478,0,0,0.0001144
87000000000,87300000000,793288025,0,906647,0.01234,0.008301,0.01241,0.001116,0.001238,0.008987,0.0006437,1.526e-05,0.09814,0.04999,1.048,0.0007058,0,0,0.0001917
87600000000,87900000000,793288025,0,906647,0.01248,0.008316,0.01262,0.001192,0.001312,0.009094,0.001528,1.526e-05,0.1401,0.05017,1.037,0.0007379,0,0,0.0003777
89100000000,89400000000,793288025,0,906647,0.01199,0.008209,0.01216,0.001219,0.001341,0.009354,0.001253,1.526e-05,0.1229,0.04285,1.019,0.0007639,0,0,0.06097
89400000000,89700000000,793288025,0,906647,0.01239,0.008316,0.01288,0.001204,0.001326,0.009232,0.0008621,1.526e-05,0.1399,0.04999,1.042,0.0008734,0,0,0.047
89700000000,90000000000,793288025,0,906647,0.01259,0.008377,0.0128,0.001148,0.001272,0.008911,0.00144,1.526e-05,0.1228,0.04913,1.053,0.0007221,0,0,0.02917
90000000000,90300000000,793288025,0,906647,0.01207,0.008209,0.0123,0.001223,0.001347,0.009094,0.0008907,1.526e-05,0.1249,0.04999,1.012,0.0006492,0,0,0.001665
90300000000,90600000000,793288025,0,906647,0.01225,0.008163,0.01178,0.001202,0.001316,0.008789,0.0008736,1.526e-05,0.1758,0.04669,1.04,0.0006551,0,0,0.06018
90600000000,90900000000,793288025,0,906647,0.01283,0.008377,0.01317,0.001213,0.001333,0.009094,0.001501,1.526e-05,0.1257,0.04651,1.054,0.0006925,0,0,0.0001621
101100000000,101400000000,793288025,0,906647,0.01221,0.008194,0.01216,0.001169,0.001286,0.00885,0.00169,1.526e-05,0.1185,0.04999,1.039,0.0006537,0,0,7.725e-05
101400000000,101700000000,793288025,0,906647,0.01251,0.008194,0.01215,0.001205,0.001324,0.00885,0.0009718,1.526e-05,0.1187,0.03876,1.051,0.0006574,0,0,0.06104
101700000000,102000000000,793288025,0,906647,0.01256,0.008316,0.01265,0.001192,0.00131,0.009048,0.001312,1.526e-05,0.1272,0.05713,1.048,0.0006771,0,0,0.06146
102000000000,102300000000,793288025,0,906647,0.01245,0.008392,0.01305,0.001148,0.001272,0.009079,0.001022,1.526e-05,0.1267,0.04285,1.033,0.0006832,0,0,9.346e-05
102300000000,102600000000,793288025,0,906647,0.01233,0.008224,0.01196,0.001186,0.001305,0.008865,0.0006514,1.526e-05,0.1246,0.04285,1.029,0.0006801,0,0,0.001287
102600000000,102900000000,793288025,0,906647,0.01234,0.00824,0.01263,0.001135,0.001263,0.009033,0.001839,1.526e-05,0.1234,0.04999,1.039,0.0006892,0,0,0.04865
102900000000,103200000000,793288025,0,906647,0.01239,0.008194,0.01242,0.001228,0.00135,0.00885,0.0006428,1.526e-05,0.1151,0.03571,1.051,0.0007215,0,0,0.05902
103200000000,103500000000,793288025,0,906647,0.01169,0.00827,0.013,0.001125,0.001257,0.01099,0.003593,1.526e-05,0.1387,0.05951,1.022,0.0007322,0,0,7.629e-05
103500000000,103800000000,793288025,0,906647,0.01276,0.008362,0.01271,0.001244,0.001366,0.009705,0.001921,1.526e-05,0.106,0.05511,1.042,0.0007072,0,0,0.04309
104100000000,104400000000,793288025,0,906647,0.0121,0.008163,0.0119,0.001209,0.001333,0.009079,0.00149,1.526e-05,0.1132,0.06433,1.042,0.0006861,0,0,0.05341
104400000000,104700000000,793288025,0,906647,0.01233,0.008331,0.0128,0.001232,0.001354,0.008972,0.001471,1.526e-05,0.1224,0.05713,1.023,0.0006653,0,0,9.155e-05
105000000000,105300000000,793288025,0,906647,0.01154,0.008194,0.01233,0.001253,0.001369,0.008987,0.0006208,1.526e-05,0.08704,0.04712,1.005,0.0006339,0,0,0.04065
105600000000,105900000000,793288025,0,906647,0.01248,0.008377,0.01291,0.001242,0.001362,0.008911,0.001528,1.526e-05,0.1497,0.04645,1.027,0.0006721,0,0,0.0003481
107100000000,107400000000,793288025,0,906647,0.01176,0.008163,0.01202,0.001194,0.001312,0.00882,0.0003443,1.526e-05,0.166,0.04999,1.002,0.0006083,0,0,0.0005875
107700000000,108000000000,793288025,0,906647,0.01154,0.008377,0.01299,0.001137,0.001249,0.009308,0.001301,1.526e-05,0.1843,0.04999,0.9844,0.0005571,0,0,0.0001316
108600000000,108900000000,793288025,0,906647,0.01167,0.008362,0.01283,0.001226,0.001348,0.009109,5.722e-06,1.526e-05,0.1702,0.0006428,0.979,0.0005388,0,0,3.91e-05
108900000000,109200000000,793288025,0,906647,0.01146,0.008408,0.01331,0.001228,0.001347,0.009323,0.000186,1.526e-05,0.1205,0.01479,0.9864,0.0005606,0,0,0.000123
109200000000,109500000000,793288025,0,906647,0.01154,0.00824,0.01254,0.001186,0.001307,0.009079,0.001028,1.526e-05,0.1309,0.05713,0.9938,0.0005846,0,0,7.725e-05
109500000000,109800000000,793288025,0,906647,0.01202,0.008301,0.01265,0.001179,0.001295,0.009064,0.001364,1.526e-05,0.1226,0.05713,1.003,0.0006203,0,0,0.02295
109800000000,110100000000,793288025,0,906647,0.01205,0.008392,0.01288,0.001139,0.001257,0.009094,0.00119,1.526e-05,0.1151,0.04999,1.018,0.0006657,0,0,0.000102
110400000000,110700000000,793288025,0,906647,0.01157,0.00824,0.01224,0.001219,0.001337,0.009079,0.0005198,1.526e-05,0.1205,0.04456,0.999,0.0006276,0,0,0.03302
116400000000,116700000000,793288025,0,906647,0.01173,0.008331,0.01282,0.001114,0.00124,0.009415,4.768e-06,1.526e-05,0.1179,0.0002146,1.014,0.0006021,0,0,0.0004768
117300000000,117600000000,793288025,0,906647,0.01216,0.008331,0.01266,0.001114,0.00124,0.009094,6.676e-06,1.526e-05,0.1216,0.0004282,1.019,0.0005852,0,0,0.000102
117600000000,117900000000,793288025,0,906647,0.0118,0.008392,0.01308,0.00112,0.00124,0.008789,3.815e-06,1.526e-05,0.1792,0.0002146,1.007,0.0005736,0,0,0.003365
118800000000,119100000000,793288025,0,906647,0.01219,0.008194,0.01202,0.001137,0.001261,0.008774,3.815e-06,1.526e-05,0.1431,0.0002146,1.037,0.000598,0,0,0.0553
119100000000,119400000000,793288025,0,906647,0.01204,0.008331,0.01276,0.001146,0.00127,0.009109,4.768e-06,1.526e-05,0.1274,0.0001431,1.012,0.0005765,0,0,6.39e-05
120300000000,120600000000,793288025,0,906647,0.01204,0.008347,0.0127,0.001137,0.001259,0.009064,5.722e-06,1.526e-05,0.1062,0.0004282,1.005,0.0005823,0,0,6.104e-05
126000000000,126300000000,793288025,0,906647,0.01254,0.008377,0.01288,0.001158,0.001278,0.009277,0.00102,1.526e-05,0.1392,0.05713,1.05,0.0006794,0,0,0.001436
126300000000,126600000000,793288025,0,906647,0.01254,0.008499,0.01329,0.001152,0.001276,0.009933,0.002125,1.526e-05,0.1233,0.04999,1.052,0.0007517,0,0,0.0001869
126900000000,127200000000,793288025,0,906647,0.0128,0.008392,0.01286,0.001196,0.001316,0.009155,0.000905,1.526e-05,0.1217,0.04907,1.062,0.0007367,0,0,0.0001192
127200000000,127500000000,793288025,0,906647,0.01245,0.00853,0.01314,0.001076,0.001213,0.009354,0.003242,1.526e-05,0.1217,0.052,1.037,0.0006705,0,0,0.001904
127500000000,127800000000,793288025,0,906647,0.01192,0.008362,0.01317,0.001173,0.001307,0.009064,0.001921,1.526e-05,0.1208,0.05951,1.026,0.0006418,0,0,0.0005865
127800000000,128100000000,793288025,0,906647,0.01158,0.008316,0.01285,0.001221,0.001339,0.008926,0.0008783,1.526e-05,0.1232,0.04614,1.008,0.0006341,0,0,0.0005245
129900000000,130200000000,793288025,0,906647,0.01302,0.008408,0.01324,0.001204,0.001328,0.009232,0.001442,1.526e-05,0.1212,0.05713,1.091,0.0006948,0,0,0.0625
130500000000,130800000000,793288025,0,906647,0.01187,0.00827,0.01279,0.001234,0.001354,0.008881,0.0006008,1.526e-05,0.1241,0.03571,1.003,0.0005898,0,0,0.02298
130800000000,131100000000,793288025,0,906647,0.01279,0.008331,0.01231,0.001162,0.00128,0.009186,0.0004101,1.526e-05,0.1309,0.04895,1.082,0.0006966,0,0,8.583e-05
141000000000,141300000000,793288025,0,906647,0.01184,0.008362,0.01306,0.0012,0.00132,0.008972,0.001331,1.526e-05,0.137,0.05713,1.002,0.0006233,0,0,0.000186
141900000000,142200000000,793288025,0,906647,0.0123,0.00853,0.01343,0.001259,0.001381,0.009155,4.005e-05,1.526e-05,0.1183,0.003357,1.026,0.000645,0,0,0.00721
142500000000,142800000000,793288025,0,906647,0.01196,0.008301,0.01289,0.001259,0.001379,0.008896,3.242e-05,1.526e-05,0.119,0.002357,1.019,0.0006167,0,0,0.0001249
143700000000,144000000000,793288025,0,906647,0.0119,0.008316,0.01279,0.00116,0.00128,0.0103,0.001431,1.526e-05,0.1211,0.04315,1.021,0.0006385,0,0,8.297e-05
144000000000,144300000000,793288025,0,906647,0.01088,0.008545,0.01317,0.001106,0.001251,0.0105,0.001902,1.526e-05,0.08875,0.02899,1.063,0.0007116,0,0,0.05255
144300000000,144600000000,793288025,0,906647,0.01228,0.008514,0.01309,0.001139,0.001287,0.01053,0.001892,1.526e-05,0.2317,0.05713,1.041,0.0006627,0,0,0.0001287
144600000000,144900000000,793288025,0,906647,0.01247,0.008377,0.01305,0.001219,0.001343,0.009048,0.001245,1.526e-05,0.1531,0.05005,1.019,0.0006236,0,0,8.965e-05
144900000000,145200000000,793288025,0,906647,0.01242,0.008514,0.01331,0.001255,0.001373,0.009079,1.144e-05,1.526e-05,0.1211,0.0009289,1.067,0.0006566,0,0,0.0001001
145200000000,145500000000,793288025,0,906647,0.01195,0.008301,0.01285,0.001228,0.001348,0.008911,0.00037,1.526e-05,0.1215,0.04999,0.9987,0.0005805,0,0,0.0001822
145500000000,145800000000,793288025,0,906647,0.0123,0.008316,0.01288,0.001219,0.001348,0.008911,0.0004807,1.526e-05,0.1166,0.02142,1.038,0.0006687,0,0,0.0001354
145800000000,146100000000,793288025,0,906647,0.01225,0.008423,0.01318,0.001204,0.001333,0.01006,0.002186,1.526e-05,0.1438,0.04285,1.027,0.0006543,0,0,0.04889
151500000000,151800000000,793288025,0,906647,0.01195,0.008316,0.01292,0.001202,0.001324,0.008911,0.0006742,1.526e-05,0.1882,0.05029,1.018,0.0006502,0,0,0.0001097
152100000000,152400000000,793288025,0,906647,0.0126,0.008392,0.01306,0.001179,0.001299,0.009262,0.001284,1.526e-05,0.1704,0.05713,1.053,0.0007134,0,0,0.01224
152700000000,153000000000,793288025,0,906647,0.01221,0.00827,0.0127,0.001162,0.001282,0.008926,0.0009651,1.526e-05,0.1482,0.04999,1.022,0.0006573,0,0,0.03552
153600000000,153900000000,793288025,0,906647,0.01221,0.008377,0.01315,0.001213,0.001331,0.009033,0.0006685,1.526e-05,0.1235,0.04999,1.027,0.0006384,0,0,0.000206
153900000000,154200000000,793288025,0,906647,0.01248,0.008545,0.01341,0.001226,0.001348,0.009201,0.0003281,1.526e-05,0.1548,0.04529,1.035,0.0006515,0,0,0.000123
154200000000,154500000000,793288025,0,906647,0.01205,0.008347,0.01303,0.001207,0.001326,0.009262,0.001249,1.526e-05,0.1797,0.04517,1.031,0.0006572,0,0,0.0002327
154500000000,154800000000,793288025,0,906647,0.01244,0.008331,0.013,0.001102,0.001234,0.009766,0.002693,1.526e-05,0.1238,0.04822,1.036,0.0006291,0,0,0.0002222
154800000000,155100000000,793288025,0,906647,0.01205,0.008408,0.01308,0.001247,0.001368,0.008911,0.0003061,1.526e-05,0.1243,0.04865,1.011,0.0006151,0,0,0.0001049
155100000000,155400000000,793288025,0,906647,0.01237,0.00856,0.0134,0.00116,0.001286,0.01057,0.001904,1.526e-05,0.2856,0.05499,1.016,0.0006541,0,0,0.000495
155400000000,155700000000,793288025,0,906647,0.01215,0.008331,0.01292,0.00112,0.001249,0.01022,0.002438,1.526e-05,0.2053,0.05719,1.049,0.0007061,0,0,0.0001144
161100000000,161400000000,793288025,0,906647,0.0125,0.008392,0.01312,0.001221,0.001343,0.009293,0.000268,1.526e-05,0.1223,0.05457,1.033,0.0007067,0,0,9.441e-05
161700000000,162000000000,793288025,0,906647,0.0123,0.008331,0.01289,0.001114,0.001232,0.009003,5.722e-05,1.526e-05,0.1223,0.006714,1.044,0.0007002,0,0,0.0002985
162000000000,162300000000,793288025,0,906647,0.01212,0.008331,0.01266,0.00112,0.001238,0.008942,1.812e-05,1.526e-05,0.124,0.002716,1.034,0.0006439,0,0,0.000123
162900000000,163200000000,793288025,0,906647,0.009766,0.008804,0.01334,0.001036,0.001175,0.01042,0.0009356,1.526e-05,0.1174,0.01007,1.04,0.0006948,0,0,0.0002356
163500000000,163800000000,793288025,0,906647,0.01273,0.008423,0.01317,0.001198,0.001316,0.009201,1.049e-05,1.526e-05,0.1239,0.0002146,1.036,0.0006129,0,0,0.06195
163800000000,164100000000,793288025,0,906647,0.01234,0.008636,0.01347,0.0012,0.001314,0.009186,1.526e-05,1.526e-05,0.1758,0.0002146,1.037,0.0006145,0,0,0.0001078
164100000000,164400000000,793288025,0,906647,0.01157,0.008438,0.01295,0.001144,0.001266,0.009857,0.0004902,1.526e-05,0.1602,0.01566,1.04,0.000646,0,0,0.0002041
165000000000,165300000000,793288025,0,906647,0.01237,0.008408,0.01321,0.00119,0.00131,0.01009,0.0008469,1.526e-05,0.1243,0.02158,1.016,0.0006025,0,0,0.0001678
165300000000,165600000000,793288025,0,906647,0.01239,0.008636,0.01352,0.001234,0.00135,0.009323,0.0003252,1.526e-05,0.1309,0.02856,1.048,0.0006343,0,0,0.01303
165600000000,165900000000,793288025,0,906647,0.01233,0.008347,0.01299,0.00124,0.001354,0.00914,6.676e-06,1.526e-05,0.1348,0.0008574,1.037,0.0005909,0,0,0.09082
166800000000,167100000000,793288025,0,906647,0.0123,0.008667,0.01346,0.00124,0.001377,0.009705,0.0006924,1.526e-05,0.127,0.02856,1.057,0.0006397,0,0,6.485e-05
167400000000,167700000000,793288025,0,906647,0.01295,0.008392,0.01318,0.001284,0.001406,0.008911,3.815e-06,1.526e-05,0.1782,0.0001431,1.057,0.0006614,0,0,0.0001125
168000000000,168300000000,793288025,0,906647,0.01271,0.008392,0.01323,0.001209,0.00136,0.008942,2.098e-05,1.526e-05,0.1316,0.0005713,1.063,0.0006478,0,0,0.0001984
168300000000,168600000000,793288025,0,906647,0.01297,0.008408,0.013,0.001228,0.001362,0.009186,9.537e-06,1.526e-05,0.1311,0.0007143,1.051,0.0006402,0,0,0.0002327
168600000000,168900000000,793288025,0,906647,0.01225,0.008575,0.01344,0.00123,0.001348,0.009369,0.0003471,1.526e-05,0.1387,0.02142,1.036,0.0006176,0,0,0.0001745
168900000000,169200000000,793288025,0,906647,0.01224,0.008453,0.01309,0.001156,0.001282,0.01077,0.00136,1.526e-05,0.1497,0.02856,1.034,0.0006457,0,0,0.07751
169200000000,169500000000,793288025,0,906647,0.01266,0.008408,0.013,0.001198,0.001318,0.009338,0.0003796,1.526e-05,0.1956,0.02856,1.036,0.0006194,0,0,0.05963
170400000000,170700000000,793288025,0,906647,0.0125,0.008682,0.01343,0.001184,0.00131,0.01041,0.001154,1.526e-05,0.1418,0.02151,1.038,0.0006257,0,0,6.866e-05
171000000000,171300000000,793288025,0,906647,0.01295,0.008484,0.01332,0.001226,0.001335,0.009567,0.0004425,1.526e-05,0.1195,0.02142,1.074,0.000777,0,0,8.392e-05
171300000000,171600000000,793288025,0,906647,0.01324,0.008652,0.01352,0.001244,0.001358,0.009232,2.003e-05,1.526e-05,0.0929,0.001928,1.098,0.0007506,0,0,0.0009766
171600000000,171900000000,793288025,0,906647,0.01283,0.008469,0.01328,0.001165,0.001289,0.01088,0.001526,1.526e-05,0.1421,0.02856,1.082,0.0006853,0,0,0.0002537
172200000000,172500000000,793288025,0,906647,0.01332,0.008652,0.01352,0.001207,0.001326,0.009277,0.0003376,1.526e-05,0.1238,0.02142,1.106,0.0008041,0,0,8.392e-05
173700000000,174000000000,793288025,0,906647,0.01291,0.008423,0.01315,0.001245,0.001356,0.009048,7.629e-06,1.526e-05,0.1136,0.0007858,1.072,0.0007218,0,0,0.0003633
175200000000,175500000000,793288025,0,906647,0.01277,0.008453,0.01318,0.001251,0.001366,0.009201,5.913e-05,1.526e-05,0.1249,0.003716,1.051,0.0006408,0,0,4.196e-05
175500000000,175800000000,793288025,0,906647,0.01271,0.008636,0.0135,0.001217,0.001333,0.009232,0.0004234,1.526e-05,0.1216,0.01529,1.062,0.0006898,0,0,0.0002556
175800000000,176100000000,793288025,0,906647,0.01273,0.008377,0.01309,0.001236,0.001345,0.008972,3.147e-05,1.526e-05,0.1326,0.0009995,1.061,0.0006758,0,0,7.725e-05
186300000000,186600000000,793288025,0,906647,0.01176,0.008652,0.01358,0.001299,0.001415,0.009232,8.583e-06,1.526e-05,0.1036,0.0009289,1,0.0005505,0,0,0.0002174
186900000000,187200000000,793288025,0,906647,0.01193,0.008408,0.01303,0.001299,0.001411,0.008987,1.526e-05,1.526e-05,0.1238,0.001143,1.005,0.0005659,0,0,0.0001621
187200000000,187500000000,793288025,0,906647,0.01198,0.008652,0.01358,0.001301,0.00141,0.009216,1.335e-05,1.526e-05,0.1212,0.001928,1.017,0.0005978,0,0,4.292e-05
187500000000,187800000000,793288025,0,906647,0.01183,0.008408,0.01315,0.001297,0.001411,0.009048,1.717e-05,1.526e-05,0.1499,0.00293,1.011,0.0005781,0,0,0.0001488
188100000000,188400000000,793288025,0,906647,0.0117,0.008652,0.01358,0.001303,0.001413,0.009232,9.537e-06,1.526e-05,0.1185,0.001499,0.99,0.0005393,0,0,0.0001307
188400000000,188700000000,793288025,0,906647,0.01149,0.008438,0.01321,0.001301,0.001419,0.008987,3.815e-06,1.526e-05,0.124,7.153e-05,0.9812,0.0005448,0,0,5.054e-05
189000000000,189300000000,793288025,0,906647,0.01143,0.008682,0.01358,0.001261,0.001371,0.009216,3.815e-06,1.621e-05,0.114,7.153e-05,0.9838,0.0005626,0,0,8.774e-05
189300000000,189600000000,793288025,0,906647,0.01143,0.008423,0.01321,0.001265,0.001375,0.008972,7.629e-06,1.621e-05,0.1243,0.001072,0.9711,0.0005279,0,0,5.817e-05
189600000000,189900000000,793288025,0,906647,0.01146,0.008423,0.01321,0.001257,0.001377,0.009003,5.722e-06,1.621e-05,0.1201,0.0004997,0.9833,0.0005955,0,0,0.0001116
190200000000,190500000000,793288025,0,906647,0.01152,0.008698,0.01358,0.001272,0.001383,0.009201,3.815e-06,1.621e-05,0.1158,7.153e-05,0.9821,0.0005786,0,0,0.0002632
190500000000,190800000000,793288025,0,906647,0.01146,0.008423,0.01315,0.001266,0.001383,0.009003,1.24e-05,1.621e-05,0.1194,0.002785,0.9844,0.0005717,0,0,0.0001297
190800000000,191100000000,793288025,0,906647,0.01146,0.008423,0.01294,0.001266,0.001379,0.009064,3.815e-06,1.621e-05,0.1638,0.0001431,0.9936,0.0006205,0,0,0.0001602
191400000000,191700000000,793288025,0,906647,0.0112,0.008789,0.01349,0.001245,0.001377,0.01003,0.001217,1.621e-05,0.121,0.02856,0.9914,0.0005782,0,0,4.101e-05
191700000000,192000000000,793288025,0,906647,0.01186,0.008423,0.01315,0.001312,0.001423,0.009171,7.629e-06,1.621e-05,0.1091,0.0005713,0.9878,0.0005402,0,0,0.00304
192000000000,192300000000,793288025,0,906647,0.01227,0.008408,0.013,0.001289,0.001398,0.009399,0.0006647,1.621e-05,0.1132,0.03571,1.03,0.00074,0,0,5.15e-05
192300000000,192600000000,793288025,0,906647,0.01175,0.008698,0.01358,0.001308,0.001421,0.009521,7.629e-06,1.621e-05,0.1755,0.001072,1.018,0.0006596,0,0,5.913e-05
192600000000,192900000000,793288025,0,906647,0.01192,0.008438,0.01303,0.001146,0.001259,0.009109,6.676e-06,1.621e-05,0.1475,0.0007858,1.015,0.0006351,0,0,8.297e-05
192900000000,193200000000,793288025,0,906647,0.01195,0.008698,0.01358,0.001144,0.001259,0.009293,4.768e-06,1.621e-05,0.1239,0.0002146,1.02,0.0006184,0,0,0.0001097
193200000000,193500000000,793288025,0,906647,0.01178,0.008469,0.01324,0.001152,0.001259,0.009064,8.583e-06,1.621e-05,0.1191,0.0009995,1.008,0.0005797,0,0,0.1132
195600000000,195900000000,793288025,0,906647,0.01143,0.008743,0.01358,0.001108,0.001219,0.009323,7.629e-06,1.621e-05,0.121,0.0005713,0.9799,0.0005791,0,0,0.0001068
195900000000,196200000000,793288025,0,906647,0.0116,0.008499,0.01344,0.001091,0.001205,0.009308,4.578e-05,1.621e-05,0.1255,0.005928,0.9948,0.0005676,0,0,0.03687
201300000000,201600000000,793288025,0,906647,0.01172,0.008743,0.01358,0.001091,0.0012,0.009354,4.196e-05,1.621e-05,0.1223,0.007713,0.9828,0.000578,0,0,0.0001001
202500000000,202800000000,793288025,0,906647,0.01173,0.008484,0.01332,0.001085,0.001202,0.009277,2.861e-06,1.621e-05,0.1035,7.153e-05,1.001,0.0005691,0,0,0.09143
202800000000,203100000000,793288025,0,906647,0.01157,0.008469,0.01332,0.001104,0.001215,0.009277,3.815e-06,1.621e-05,0.11,0.0001431,0.9927,0.000564,0,0,7.343e-05
203100000000,203400000000,793288025,0,906647,0.01202,0.008743,0.01358,0.001104,0.001217,0.009354,8.583e-06,1.621e-05,0.1235,0.0007143,0.9983,0.0005679,0,0,0.0005598
203400000000,203700000000,793288025,0,906647,0.0117,0.008514,0.01358,0.001108,0.001217,0.00914,8.583e-06,1.621e-05,0.1157,0.0009995,0.9927,0.0005539,0,0,0.006119
203700000000,204000000000,793288025,0,906647,0.0119,0.008774,0.01358,0.001143,0.001253,0.009445,0.00033,1.621e-05,0.1193,0.04236,0.9983,0.0005915,0,0,0.000246
204000000000,204300000000,793288025,0,906647,0.01173,0.008514,0.01358,0.001152,0.001261,0.009079,3.815e-06,1.621e-05,0.147,0.0002146,0.9865,0.0005764,0,0,9.823e-05
207000000000,207300000000,793288025,0,906647,0.01178,0.008545,0.01352,0.001072,0.001184,0.009064,4.768e-06,1.621e-05,0.1741,0.0002861,1.003,0.0006107,0,0,0.0001469
207300000000,207600000000,793288025,0,906647,0.0119,0.008514,0.01353,0.00107,0.001184,0.009308,5.722e-06,1.621e-05,0.1151,0.0004997,1.008,0.0006081,0,0,0.04614
208500000000,208800000000,793288025,0,906647,0.01184,0.008804,0.01355,0.001074,0.001186,0.009659,8.583e-06,1.621e-05,0.1217,0.001286,1.013,0.0006616,0,0,0.0001259
208800000000,209100000000,793288025,0,906647,0.01199,0.00856,0.01349,0.001072,0.001184,0.009109,0.0003319,1.621e-05,0.1506,0.05377,1.003,0.0006092,0,0,0.0001183
209100000000,209400000000,793288025,0,906647,0.01178,0.008545,0.01355,0.001125,0.001238,0.009064,4.768e-06,1.621e-05,0.1194,0.0001431,0.9993,0.0005772,0,0,0.02994
209400000000,209700000000,793288025,0,906647,0.01196,0.008789,0.01355,0.001127,0.001238,0.009399,6.676e-06,1.621e-05,0.1125,0.0005713,1.032,0.0007126,0,0,0.0001507
210300000000,210600000000,793288025,0,906647,0.01213,0.008545,0.01349,0.001104,0.001221,0.009354,0.0002556,1.621e-05,0.1184,0.05322,1.028,0.000659,0,0,6.104e-05
210600000000,210900000000,793288025,0,906647,0.01241,0.008545,0.0135,0.00119,0.001307,0.00914,0.0008183,1.621e-05,0.1234,0.04742,1.043,0.0006593,0,0,6.199e-05
210900000000,211200000000,793288025,0,906647,0.01231,0.00853,0.01355,0.001148,0.001265,0.01047,0.002621,1.621e-05,0.1375,0.04999,1.024,0.0006627,0,0,0.007965
211200000000,211500000000,793288025,0,906647,0.01208,0.008759,0.01349,0.001186,0.001295,0.009369,0.0006599,1.621e-05,0.1514,0.03571,1.036,0.0007271,0,0,0.0004301
211500000000,211800000000,793288025,0,906647,0.01212,0.008591,0.01335,0.001183,0.001305,0.009155,0.00136,1.621e-05,0.1465,0.04999,1.051,0.00075,0,0,0.03436
211800000000,212100000000,793288025,0,906647,0.01228,0.00853,0.01337,0.001219,0.001331,0.009262,0.000411,1.621e-05,0.123,0.02856,1.05,0.0007415,0,0,0.03326
212100000000,212400000000,793288025,0,906647,0.01216,0.008774,0.0134,0.001223,0.001337,0.009338,2.861e-05,1.621e-05,0.1122,0.003716,1.096,0.000907,0,0,0.000144
212400000000,212700000000,793288025,0,906647,0.01213,0.00856,0.01341,0.001226,0.001339,0.009323,4.482e-05,1.621e-05,0.1238,0.005859,1.051,0.0007559,0,0,9.346e-05
213000000000,213300000000,793288025,0,906647,0.01233,0.008789,0.01338,0.001179,0.001287,0.00943,0.0006199,1.621e-05,0.123,0.05817,1.036,0.0007225,0,0,0.06061
213600000000,213900000000,793288025,0,906647,0.01201,0.008514,0.0134,0.001198,0.001312,0.009079,4.768e-06,1.621e-05,0.1143,0.0003567,1.008,0.0005876,0,0,6.771e-05
213900000000,214200000000,793288025,0,906647,0.01225,0.008743,0.0134,0.001205,0.001312,0.009354,3.815e-06,1.621e-05,0.168,0.0001431,1.02,0.0006285,0,0,0.0001802
214800000000,215100000000,793288025,0,906647,0.01219,0.008728,0.01341,0.0012,0.001312,0.009232,6.676e-06,1.621e-05,0.2034,0.0005713,1.002,0.0005944,0,0,0.0001354
215100000000,215400000000,793288025,0,906647,0.01196,0.008499,0.01292,0.001112,0.001225,0.00914,3.242e-05,1.621e-05,0.1204,0.001858,1.023,0.0006296,0,0,8.392e-05
216000000000,216300000000,793288025,0,906647,0.01198,0.008484,0.01332,0.001099,0.001211,0.009079,0.0001049,1.621e-05,0.1191,0.002357,1.019,0.0005987,0,0,0.01366
221400000000,221700000000,793288025,0,906647,0.01256,0.00853,0.01338,0.001162,0.001274,0.009186,0.00201,1.621e-05,0.1221,0.06934,1.07,0.0008786,0,0,6.866e-05
222000000000,222300000000,793288025,0,906647,0.01242,0.008545,0.01349,0.001186,0.001299,0.009338,7.629e-06,1.621e-05,0.1235,0.0002861,1.056,0.0007579,0,0,9.632e-05
222300000000,222600000000,793288025,0,906647,0.01259,0.008469,0.01332,0.001085,0.001196,0.009369,0.0006218,1.621e-05,0.1531,0.06372,1.048,0.0007586,0,0,0.1095
222600000000,222900000000,793288025,0,906647,0.01277,0.008728,0.01355,0.001139,0.001253,0.009293,0.0006475,1.621e-05,0.1176,0.0459,1.035,0.0007363,0,0,0.0001144
223200000000,223500000000,793288025,0,906647,0.01129,0.00853,0.0135,0.001173,0.001284,0.009308,0.0003633,1.621e-05,0.1719,0.05017,0.9803,0.0005768,0,0,0.04486
223500000000,223800000000,793288025,0,906647,0.01181,0.008743,0.01357,0.001188,0.001297,0.009323,3.815e-06,1.621e-05,0.1234,0.0002146,0.9847,0.0005644,0,0,0.0001163
223800000000,224100000000,793288025,0,906647,0.01166,0.00856,0.01358,0.00119,0.001299,0.009277,7.629e-06,1.621e-05,0.1173,0.001143,0.9832,0.0005493,0,0,0.06232
224400000000,224700000000,793288025,0,906647,0.01199,0.008743,0.0135,0.001154,0.001265,0.009689,0.0002899,1.621e-05,0.1348,0.04346,1.032,0.0006043,0,0,0.04907
225000000000,225300000000,793288025,0,906647,0.0116,0.008545,0.01355,0.001209,0.001324,0.009293,0.0002794,1.621e-05,0.1058,0.05713,0.9894,0.0006117,0,0,0.0001583
225300000000,225600000000,793288025,0,906647,0.01161,0.008591,0.01331,0.001207,0.001316,0.009521,0.0003252,1.621e-05,0.1206,0.05005,0.9948,0.0006339,0,0,9.155e-05
225600000000,225900000000,793288025,0,906647,0.0121,0.008789,0.0134,0.001211,0.001322,0.009415,4.768e-06,1.621e-05,0.1202,0.0001431,0.995,0.0006379,0,0,0.05243
225900000000,226200000000,793288025,0,906647,0.01178,0.008606,0.0134,0.001213,0.001322,0.009537,3.815e-06,1.621e-05,0.1213,7.153e-05,1.012,0.0006492,0,0,0.000103
226200000000,226500000000,793288025,0,906647,0.01181,0.00856,0.0134,0.001209,0.001322,0.00914,6.676e-06,1.621e-05,0.1526,0.0007143,1.001,0.0006235,0,0,9.251e-05
226500000000,226800000000,793288025,0,906647,0.01192,0.008789,0.0134,0.001213,0.001322,0.009338,5.722e-06,1.621e-05,0.1523,0.0006428,0.9932,0.0005997,0,0,0.08716
227100000000,227400000000,793288025,0,906647,0.01213,0.008575,0.01334,0.001188,0.001301,0.00943,0.0003824,1.621e-05,0.1499,0.02542,1.022,0.0006424,0,0,0.0001526
227700000000,228000000000,793288025,0,906647,0.01196,0.008606,0.01335,0.001179,0.001293,0.009186,0.0008612,1.621e-05,0.08777,0.05719,0.9931,0.000601,0,0,7.248e-05
228600000000,228900000000,793288025,0,906647,0.01207,0.008621,0.01358,0.001226,0.001347,0.009338,8.583e-06,1.621e-05,0.1144,0.0007858,1.007,0.0006466,0,0,6.676e-05
228900000000,229200000000,793288025,0,906647,0.01178,0.008575,0.01346,0.001177,0.001291,0.009613,0.001913,1.621e-05,0.1309,0.04285,1.012,0.0006743,0,0,0.01266
229200000000,229500000000,793288025,0,906647,0.01202,0.008606,0.01343,0.001183,0.001299,0.009293,0.00152,1.621e-05,0.1345,0.05499,1.01,0.0006576,0,0,0.0001907
229500000000,229800000000,793288025,0,906647,0.01228,0.008804,0.01357,0.001213,0.001328,0.009445,0.0006857,1.621e-05,0.1204,0.04608,1.016,0.0006634,0,0,0.0002279
230100000000,230400000000,793288025,0,906647,0.01213,0.00856,0.01358,0.001221,0.001335,0.009125,1.144e-05,1.621e-05,0.1199,0.001286,1.015,0.0006764,0,0,0.0001259
230700000000,231000000000,793288025,0,906647,0.01248,0.008743,0.01357,0.001228,0.001335,0.009628,9.537e-06,1.621e-05,0.1194,0.001358,1.024,0.0006973,0,0,0.003468
231000000000,231300000000,793288025,0,906647,0.01186,0.008606,0.01357,0.001217,0.001326,0.009094,0.0002747,1.621e-05,0.1646,0.06177,1.003,0.0006376,0,0,8.678e-05
231300000000,231600000000,793288025,0,906647,0.01169,0.008575,0.01358,0.001209,0.001322,0.009125,3.815e-06,1.621e-05,0.1592,0.0001431,1.003,0.0006387,0,0,0.0001497
231600000000,231900000000,793288025,0,906647,0.01221,0.008774,0.01358,0.001202,0.001312,0.009369,0.0003595,1.621e-05,0.1736,0.04291,1.006,0.0006475,0,0,6.485e-05
231900000000,232200000000,793288025,0,906647,0.01186,0.008606,0.01358,0.001209,0.001322,0.009369,3.815e-06,1.621e-05,0.1237,0.0002146,0.9945,0.0006149,0,0,0.003086
232200000000,232500000000,793288025,0,906647,0.0117,0.008545,0.01358,0.001213,0.001322,0.009109,5.722e-06,1.621e-05,0.1316,0.0005713,0.9913,0.0006076,0,0,0.0001173
233400000000,233700000000,793288025,0,906647,0.01198,0.008759,0.01358,0.001247,0.00136,0.009293,3.815e-06,1.621e-05,0.1677,7.153e-05,0.9901,0.0005974,0,0,0.01511
234300000000,234600000000,793288025,0,906647,0.01186,0.008759,0.01358,0.001245,0.00136,0.009338,4.768e-06,1.621e-05,0.1252,0.0002861,0.9927,0.0006122,0,0,0.0001431
235200000000,235500000000,793288025,0,906647,0.01184,0.00853,0.01358,0.001247,0.00136,0.009125,3.815e-06,1.621e-05,0.118,0.0001431,0.998,0.0006105,0,0,0.0614
235500000000,235800000000,793288025,0,906647,0.01199,0.008728,0.01358,0.001253,0.00136,0.009338,4.768e-06,1.621e-05,0.1234,0.0004282,1.001,0.0006231,0,0,6.866e-05
235800000000,236100000000,793288025,0,906647,0.01169,0.008591,0.01358,0.001249,0.00136,0.009354,4.768e-06,1.621e-05,0.1156,0.0004997,1,0.0006222,0,0,0.0001278
236100000000,236400000000,793288025,0,906647,0.01172,0.00853,0.01358,0.001236,0.00135,0.009048,3.815e-06,1.621e-05,0.1636,0.0002146,0.9924,0.0005984,0,0,0.0002394
241800000000,242100000000,793288025,0,906647,0.01176,0.008636,0.01347,0.001211,0.001324,0.009308,0.001034,1.621e-05,0.1228,0.02872,1,0.0006049,0,0,0.0001392
242100000000,242400000000,793288025,0,906647,0.01266,0.008804,0.01357,0.001223,0.001335,0.00943,0.0004749,1.621e-05,0.3867,0.02856,1.018,0.0006388,0,0,0.0003157
242400000000,242700000000,793288025,0,906647,0.01195,0.008713,0.01353,0.001221,0.001333,0.009415,0.00123,1.621e-05,0.1201,0.02856,1.003,0.0006033,0,0,7.057e-05
242700000000,243000000000,793288025,0,906647,0.01158,0.008591,0.0134,0.001198,0.001308,0.00946,0.0009003,1.621e-05,0.1201,0.02866,1.008,0.0006019,0,0,8.106e-05
243000000000,243300000000,793288025,0,906647,0.01212,0.00882,0.01357,0.001234,0.001347,0.009659,5.913e-05,1.621e-05,0.136,0.003784,1.014,0.0006504,0,0,0.01173
243600000000,243900000000,793288025,0,906647,0.01166,0.008606,0.01346,0.001118,0.001234,0.00946,0.002056,1.621e-05,0.177,0.02856,0.9881,0.0006039,0,0,0.0001211
243900000000,244200000000,793288025,0,906647,0.01218,0.008789,0.01357,0.001228,0.001337,0.00975,3.719e-05,1.621e-05,0.1475,0.003571,1,0.0006105,0,0,0.0004873
244500000000,244800000000,793288025,0,906647,0.01167,0.008591,0.01344,0.001204,0.00132,0.009125,0.0009937,1.621e-05,0.1106,0.02856,0.9966,0.0006021,0,0,0.0006809
244800000000,245100000000,793288025,0,906647,0.01176,0.008575,0.01343,0.001165,0.001278,0.009674,0.001383,1.621e-05,0.1382,0.02856,1.013,0.000655,0,0,0.0001469
245100000000,245400000000,793288025,0,906647,0.01244,0.008804,0.01335,0.00115,0.001266,0.01003,0.001465,1.621e-05,0.1489,0.02856,1.016,0.0006422,0,0,0.05359
245400000000,245700000000,793288025,0,906647,0.01207,0.008652,0.01341,0.001204,0.001316,0.009628,0.0003281,1.621e-05,0.1187,0.02142,1.016,0.0006404,0,0,0.0001488
245700000000,246000000000,793288025,0,906647,0.01195,0.008606,0.01337,0.001167,0.001282,0.009888,0.001371,1.621e-05,0.1555,0.02856,1.015,0.0006767,0,0,0.02133
246000000000,246300000000,793288025,0,906647,0.01241,0.008759,0.01344,0.001083,0.0012,0.01013,0.002823,1.621e-05,0.1289,0.03571,1.025,0.0007305,0,0,0.0001802
251700000000,252000000000,793288025,0,906647,0.01181,0.008759,0.01352,0.001245,0.001352,0.009842,0.0003815,1.621e-05,0.1968,0.026,1.006,0.0006293,0,0,9.727e-05
252000000000,252300000000,793288025,0,906647,0.01196,0.008896,0.01346,0.001183,0.001293,0.009583,0.0006905,1.621e-05,0.1226,0.02856,1.014,0.0006808,0,0,0.00193
252600000000,252900000000,793288025,0,906647,0.01219,0.008743,0.01338,0.001169,0.001287,0.009689,0.001589,1.621e-05,0.1096,0.02856,1.008,0.0006654,0,0,0.001045
252900000000,253200000000,793288025,0,906647,0.01207,0.008957,0.01355,0.001213,0.001326,0.009644,0.000371,1.621e-05,0.1223,0.02856,1.018,0.0007219,0,0,0.0001326
253200000000,253500000000,793288025,0,906647,0.0117,0.008865,0.0135,0.001207,0.001322,0.009583,0.0007725,1.621e-05,0.1134,0.03571,1.01,0.0006864,0,0,5.054e-05
253500000000,253800000000,793288025,0,906647,0.01192,0.008804,0.0135,0.001162,0.001276,0.009567,0.002834,1.621e-05,0.1758,0.02856,1.005,0.0006492,0,0,7.629e-05
253800000000,254100000000,793288025,0,906647,0.01184,0.008804,0.01349,0.001192,0.001297,0.00975,0.001753,1.621e-05,0.126,0.03406,1.007,0.0006483,0,0,0.002029
254400000000,254700000000,793288025,0,906647,0.0119,0.008743,0.01343,0.001221,0.001331,0.009766,0.0006332,1.621e-05,0.1255,0.03577,1.008,0.000653,0,0,9.632e-05
255600000000,255900000000,793288025,0,906647,0.01199,0.00885,0.01349,0.001162,0.001276,0.01003,0.002235,1.621e-05,0.1172,0.02856,0.9997,0.000636,0,0,0.0002298
255900000000,256200000000,793288025,0,906647,0.0117,0.008743,0.01343,0.001192,0.001305,0.009567,0.0003929,1.621e-05,0.1296,0.02435,1.003,0.0006494,0,0,0.09814
256200000000,256500000000,793288025,0,906647,0.004364,0.009094,0.01315,0.0005941,0.00072,0.0117,0.002113,1.621e-05,0.1069,0.02142,0.9833,0.0006295,0,0,5.722e-05
256500000000,256800000000,793288025,0,906647,0.01187,0.008682,0.01338,0.001152,0.001263,0.009277,0.001469,1.621e-05,0.119,0.02856,0.998,0.0005885,0,0,6.104e-05
256800000000,257100000000,793288025,0,906647,0.01207,0.008804,0.01352,0.001162,0.001274,0.01024,0.001162,1.621e-05,0.1267,0.02872,1.008,0.0006093,0,0,0.0001097
257100000000,257400000000,793288025,0,906647,0.01219,0.008804,0.01375,0.001207,0.001318,0.01079,0.0008812,1.621e-05,0.1448,0.01428,1.014,0.0006402,0,0,5.913e-05
257400000000,257700000000,793288025,0,906647,0.01208,0.008591,0.01317,0.001102,0.001215,0.01006,0.001297,1.621e-05,0.1594,0.02856,1.002,0.0006344,0,0,7.439e-05
257700000000,258000000000,793288025,0,906647,0.009399,0.008957,0.01355,0.0009699,0.00111,0.01073,0.0008259,1.621e-05,0.1731,0.01428,1.008,0.0006584,0,0,0.0001612
258000000000,258300000000,793288025,0,906647,0.01208,0.008835,0.01346,0.001152,0.001272,0.0119,0.001059,1.621e-05,0.1514,0.02856,1.02,0.0006867,0,0,0.0001068
259200000000,259500000000,793288025,0,906647,0.01202,0.008621,0.01331,0.001177,0.001289,0.00943,0.001158,1.621e-05,0.1831,0.02872,1.015,0.0006599,0,0,6.199e-05
259800000000,260100000000,793288025,0,906647,0.01193,0.008743,0.01341,0.001192,0.001303,0.009216,3.242e-05,1.621e-05,0.1194,0.004425,1.007,0.0006485,0,0,0.03363
260100000000,260400000000,793288025,0,906647,0.0117,0.008652,0.01341,0.00119,0.001303,0.009216,2.861e-05,1.621e-05,0.1609,0.001286,1,0.0006263,0,0,0.0009499
260400000000,260700000000,793288025,0,906647,0.01201,0.008698,0.01324,0.001118,0.001238,0.01021,0.002583,1.621e-05,0.1406,0.02856,1.02,0.0007033,0,0,0.0001907
260700000000,261000000000,793288025,0,906647,0.01224,0.008896,0.01335,0.001158,0.001276,0.01022,0.001797,1.621e-05,0.179,0.02856,1.013,0.0006813,0,0,0.179
261000000000,261300000000,793288025,0,906647,0.01172,0.008728,0.01335,0.001221,0.001326,0.009201,0.0003738,1.621e-05,0.1216,0.02692,1.005,0.0006607,0,0,0.0001125
261300000000,261600000000,793288025,0,906647,0.01196,0.008682,0.01337,0.001188,0.00131,0.009506,0.001051,1.621e-05,0.1572,0.02258,1.014,0.0006746,0,0,0.008148
261600000000,261900000000,793288025,0,906647,0.01198,0.008865,0.01357,0.001204,0.001316,0.01007,0.001329,1.621e-05,0.1545,0.02856,1.01,0.0006746,0,0,0.005066
261900000000,262200000000,793288025,0,906647,0.01169,0.008743,0.01349,0.001234,0.00135,0.009491,0.0004978,1.621e-05,0.1235,0.02856,0.9927,0.0006228,0,0,0.0001106
262500000000,262800000000,793288025,0,906647,0.01199,0.008804,0.0134,0.001217,0.001328,0.009659,0.00033,1.621e-05,0.1113,0.02371,1.008,0.0006711,0,0,0.0001087
263100000000,263400000000,793288025,0,906647,0.01152,0.008591,0.01338,0.001225,0.001335,0.009186,0.0003929,1.621e-05,0.145,0.02142,0.9855,0.0005929,0,0,7.439e-05
263400000000,263700000000,793288025,0,906647,0.01167,0.008606,0.01337,0.001223,0.001333,0.009216,0.0003977,1.621e-05,0.1215,0.02856,0.9985,0.0006338,0,0,2.861e-05
264300000000,264600000000,793288025,0,906647,0.01202,0.008789,0.0134,0.001232,0.001343,0.009445,1.335e-05,1.621e-05,0.1145,0.001215,0.9911,0.0006265,0,0,0.0002623
264900000000,265200000000,793288025,0,906647,0.0116,0.008606,0.01341,0.00123,0.001341,0.008987,3.052e-05,1.621e-05,0.12,0.004288,0.9801,0.0005961,0,0,0.002758
265500000000,265800000000,793288025,0,906647,0.01149,0.008698,0.01337,0.001211,0.001326,0.009369,0.0003777,1.621e-05,0.1047,0.02856,0.9808,0.000606,0,0,0.002525
265800000000,266100000000,793288025,0,906647,0.01149,0.008621,0.01353,0.001238,0.001345,0.009506,0.00035,1.621e-05,0.1223,0.02142,0.9796,0.0006089,0,0,5.436e-05
266100000000,266400000000,793288025,0,906647,0.01149,0.008575,0.01324,0.00112,0.001234,0.00946,0.001566,1.621e-05,0.1241,0.02866,0.9711,0.0005679,0,0,5.722e-05
266400000000,266700000000,793288025,0,906647,0.01144,0.008789,0.01335,0.001184,0.001291,0.009552,0.001253,1.621e-05,0.1348,0.02856,0.9798,0.0005924,0,0,0.0001431
266700000000,267000000000,793288025,0,906647,0.01181,0.008698,0.01341,0.001238,0.001347,0.009354,1.335e-05,1.621e-05,0.1621,0.0006428,0.9825,0.0005613,0,0,0.04956
267300000000,267600000000,793288025,0,906647,0.01199,0.008682,0.01343,0.001169,0.001287,0.00943,0.0003452,1.621e-05,0.1246,0.02856,1.016,0.0005919,0,0,0.0001383
267900000000,268200000000,793288025,0,906647,0.0117,0.008682,0.01352,0.001223,0.001347,0.009903,0.001436,1.621e-05,0.1934,0.02856,0.999,0.0005781,0,0,0.006508
268800000000,269100000000,793288025,0,906647,0.01161,0.008652,0.01349,0.001234,0.001345,0.009567,0.001045,1.621e-05,0.1533,0.02856,0.9992,0.0006076,0,0,0.01996
269700000000,270000000000,793288025,0,906647,0.0118,0.008804,0.01343,0.00119,0.001305,0.009933,0.001528,1.621e-05,0.1238,0.02866,0.9944,0.0005836,0,0,0.0002165
270000000000,270300000000,793288025,0,906647,0.01129,0.008713,0.01358,0.001257,0.001366,0.009735,2.003e-05,1.621e-05,0.1492,0.0008574,0.9821,0.0005558,0,0,0.0001631
270300000000,270600000000,793288025,0,906647,0.01151,0.008621,0.01343,0.001204,0.00132,0.009644,0.001377,1.621e-05,0.1112,0.02551,0.9948,0.0005822,0,0,5.722e-05
270600000000,270900000000,793288025,0,906647,0.01151,0.008606,0.01358,0.001265,0.001375,0.009186,3.815e-06,1.621e-05,0.115,0.0002146,0.9863,0.0005786,0,0,7.343e-05
270900000000,271200000000,793288025,0,906647,0.01122,0.008575,0.01353,0.001221,0.001333,0.009171,0.0005655,1.621e-05,0.1238,0.02856,0.99,0.0005968,0,0,0.000144
271200000000,271500000000,793288025,0,906647,0.01183,0.00882,0.0134,0.001122,0.001244,0.01013,0.002323,1.621e-05,0.1237,0.02856,1.023,0.000727,0,0,0.003017
281400000000,281700000000,793288025,0,906647,0.01143,0.008667,0.01358,0.001266,0.001377,0.009216,1.335e-05,1.621e-05,0.1079,0.001715,0.9847,0.000566,0,0,0.06146
281700000000,282000000000,793288025,0,906647,0.01143,0.008743,0.01358,0.001209,0.001326,0.01111,0.001425,1.621e-05,0.1289,0.04285,0.9983,0.0005994,0,0,9.441e-05
282900000000,283200000000,793288025,0,906647,0.01167,0.008667,0.01358,0.001255,0.001364,0.009262,6.676e-06,1.621e-05,0.1907,0.0007143,0.9964,0.0005907,0,0,0.0001869
283200000000,283500000000,793288025,0,906647,0.01175,0.008682,0.01358,0.001253,0.001366,0.009567,5.531e-05,1.621e-05,0.1228,0.004646,1.001,0.000608,0,0,0.0001574
284100000000,284400000000,793288025,0,906647,0.01195,0.008682,0.01358,0.001278,0.001387,0.009247,1.049e-05,1.621e-05,0.1226,0.0009995,1.003,0.0006156,0,0,0.06171
285000000000,285300000000,793288025,0,906647,0.01189,0.008667,0.01358,0.001282,0.001396,0.009232,4.768e-06,1.621e-05,0.1079,0.0002146,1.007,0.0006319,0,0,0.03851
285300000000,285600000000,793288025,0,906647,0.01193,0.008789,0.01355,0.001261,0.001368,0.009491,0.0002785,1.621e-05,0.1218,0.05365,0.9924,0.0005826,0,0,0.0001488
285900000000,286200000000,793288025,0,906647,0.01186,0.008652,0.01358,0.001253,0.001364,0.009567,2.956e-05,1.621e-05,0.124,0.003429,0.9942,0.0005793,0,0,5.436e-05
286200000000,286500000000,793288025,0,906647,0.01169,0.008652,0.01358,0.001259,0.001366,0.009491,5.722e-06,1.621e-05,0.1222,0.0005713,0.999,0.0005864,0,0,8.774e-05
286500000000,286800000000,793288025,0,906647,0.01198,0.008835,0.01358,0.001249,0.001358,0.009354,0.0002823,1.621e-05,0.1223,0.03894,0.9921,0.0005765,0,0,0.0002613
286800000000,287100000000,793288025,0,906647,0.01183,0.008804,0.01358,0.001255,0.001366,0.009537,6.676e-06,1.621e-05,0.1462,0.0007858,0.9926,0.0005756,0,0,0.0001392
287400000000,287700000000,793288025,0,906647,0.01172,0.008667,0.01358,0.001259,0.001366,0.009277,3.815e-06,1.621e-05,0.1243,0.0002146,0.9939,0.0005809,0,0,7.915e-05
287700000000,288000000000,793288025,0,906647,0.01202,0.00885,0.01353,0.001245,0.00136,0.009872,0.0003166,1.621e-05,0.1365,0.06592,1.003,0.0006032,0,0,0.0001287
288000000000,288300000000,793288025,0,906647,0.01187,0.008804,0.01358,0.001257,0.001368,0.009491,3.624e-05,1.621e-05,0.1171,0.007431,1.001,0.0005941,0,0,0.005287
288300000000,288600000000,793288025,0,906647,0.01205,0.008728,0.01357,0.001238,0.00135,0.01024,0.0004482,1.621e-05,0.1274,0.01428,1.018,0.0006304,0,0,0.0001478
288600000000,288900000000,793288025,0,906647,0.01204,0.00885,0.01358,0.001259,0.001368,0.009872,4.768e-06,1.621e-05,0.1218,0.0002146,0.9986,0.0006696,0,0,8.678e-05
288900000000,289200000000,793288025,0,906647,0.01164,0.00882,0.01358,0.001263,0.001368,0.009323,3.815e-06,1.621e-05,0.1711,7.153e-05,1.007,0.0007011,0,0,0.0001345
289800000000,290100000000,793288025,0,906647,0.01193,0.008865,0.01358,0.001249,0.00136,0.009583,0.0002804,1.621e-05,0.1953,0.04303,0.9913,0.0006694,0,0,0.05408
290100000000,290400000000,793288025,0,906647,0.01161,0.008835,0.01358,0.001265,0.001371,0.009735,6.676e-06,1.621e-05,0.1234,0.0004282,1.001,0.0006875,0,0,0.01503
290400000000,290700000000,793288025,0,906647,0.01192,0.008667,0.01358,0.001278,0.001389,0.009232,9.537e-06,1.621e-05,0.1179,0.0009289,0.9982,0.0006037,0,0,0.008545
291600000000,291900000000,793288025,0,906647,0.01181,0.008682,0.01358,0.001278,0.001389,0.009216,6.676e-06,1.621e-05,0.1193,0.001143,0.996,0.000586,0,0,0.0005255
291900000000,292200000000,793288025,0,906647,0.01195,0.008835,0.01358,0.001274,0.001389,0.009354,7.629e-06,1.621e-05,0.1233,0.0007858,1.005,0.0005983,0,0,7.248e-05
293100000000,293400000000,793288025,0,906647,0.01204,0.008804,0.01358,0.001284,0.001389,0.009659,0.0002708,1.621e-05,0.1816,0.04346,1.012,0.0006334,0,0,8.965e-05
293400000000,293700000000,793288025,0,906647,0.01189,0.008652,0.01358,0.001284,0.00139,0.009537,3.815e-06,1.621e-05,0.1234,0.0001431,0.995,0.0005827,0,0,0.0001974
294000000000,294300000000,793288025,0,906647,0.01227,0.008835,0.01358,0.001276,0.001387,0.009506,0.0003195,1.621e-05,0.1819,0.05731,1.018,0.0006719,0,0,0.01923
295800000000,296100000000,793288025,0,906647,0.01192,0.00882,0.01358,0.001266,0.001375,0.009277,0.0002747,1.621e-05,0.1614,0.05511,1.005,0.0006154,0,0,5.627e-05
296100000000,296400000000,793288025,0,906647,0.01166,0.008682,0.01358,0.001282,0.00139,0.009247,2.766e-05,1.621e-05,0.1185,0.003784,0.9964,0.0005799,0,0,0.0001278
296400000000,296700000000,793288025,0,906647,0.01202,0.008835,0.01358,0.001282,0.001389,0.009369,0.0002594,1.621e-05,0.1239,0.05713,1.015,0.0006746,0,0,0.0002737
296700000000,297000000000,793288025,0,906647,0.01207,0.008835,0.01358,0.001255,0.001369,0.009583,0.0003014,1.621e-05,0.1139,0.03802,1.018,0.0006575,0,0,3.815e-05
297000000000,297300000000,793288025,0,906647,0.01201,0.008682,0.01358,0.00128,0.00139,0.009552,3.815e-06,1.621e-05,0.1179,0.0001431,0.9976,0.0005856,0,0,0.0625
297300000000,297600000000,793288025,0,906647,0.01187,0.008835,0.01358,0.001284,0.00139,0.009262,4.768e-06,1.621e-05,0.1168,0.0002146,1.01,0.0006353,0,0,9.632e-05
297600000000,297900000000,793288025,0,906647,0.01205,0.00882,0.01347,0.001177,0.001291,0.009552,0.001589,1.621e-05,0.166,0.04999,1.014,0.0006326,0,0,0.000308
297900000000,298200000000,793288025,0,906647,0.01215,0.008774,0.01352,0.001181,0.001305,0.009888,0.001711,1.621e-05,0.1394,0.04944,1.031,0.0007366,0,0,0.0004892
298200000000,298500000000,793288025,0,906647,0.01231,0.008698,0.01346,0.001175,0.001282,0.009613,0.001432,1.621e-05,0.1423,0.06433,1.033,0.0007035,0,0,9.346e-05
298500000000,298800000000,793288025,0,906647,0.01221,0.00885,0.01358,0.001259,0.001364,0.009262,5.722e-06,1.621e-05,0.1123,0.0007143,1.04,0.0007229,0,0,0.0001774
299400000000,299700000000,793288025,0,906647,0.01231,0.008896,0.01346,0.0012,0.001312,0.0101,0.002487,1.621e-05,0.1348,0.05713,1.028,0.0007155,0,0,0.0004683
299700000000,300000000000,793288025,0,906647,0.01225,0.008835,0.01358,0.001265,0.001375,0.009552,1.431e-05,1.621e-05,0.1229,0.001215,1.021,0.0006557,0,0,0.0001001
