5700000000,6000000000,1202636597,0,257413178,0.001183,0.002575,0.005753,0.002499,0.002785,0.002579,2.098e-05,9.537e-06,0.05328,0.001858,8.037,0.03604,0,0,0.0008955
6000000000,6300000000,1202636597,0,257413178,0.001064,0.002575,0.005753,0.002499,0.002785,0.002575,1.717e-05,9.537e-06,0.009216,0.002357,7.332,0.03219,0,0,0.0009432
6300000000,6600000000,1202636597,0,257413178,0.001072,0.002575,0.005753,0.002499,0.002785,0.002575,1.144e-05,9.537e-06,0.01405,0.0004997,7.189,0.03161,0,0,0.001053
6600000000,6900000000,1202636597,0,257413178,0.001118,0.002575,0.005753,0.002499,0.002789,0.002575,2.861e-05,9.537e-06,0.009079,0.002357,7.164,0.03133,0,0,0.0008326
6900000000,7200000000,1202636597,0,257413178,0.001143,0.002575,0.005753,0.002502,0.002789,0.002579,2.384e-05,9.537e-06,0.01259,0.002499,7.287,0.03074,0,0,0.000679
7200000000,7500000000,1202636597,0,257413178,0.001364,0.002567,0.005753,0.002502,0.002789,0.002575,1.907e-05,9.537e-06,0.06055,0.0009289,9.101,0.04044,0,0,0.0005903
7500000000,7800000000,1202636597,0,257413178,0.001286,0.002556,0.005753,0.002502,0.002789,0.00256,2.861e-05,9.537e-06,0.01451,0.002144,8.957,0.03975,0,0,0.0008163
7800000000,8100000000,1202636597,0,257413178,0.001127,0.002556,0.005753,0.002502,0.002789,0.002556,2.67e-05,9.537e-06,0.004951,0.001642,8.739,0.03915,0,0,0.00072
8100000000,8400000000,1202636597,0,257413178,0.001141,0.002556,0.005753,0.002502,0.002792,0.002556,2.098e-05,9.537e-06,0.008377,0.001642,8.673,0.03938,0,0,0.0008726
8400000000,8700000000,1202636597,0,257413178,0.001326,0.002556,0.005753,0.002506,0.002792,0.00256,1.526e-05,9.537e-06,0.05969,0.0008574,4.167,0.01584,0,0,0.00072
8700000000,9000000000,1202636597,0,257413178,0.001207,0.002556,0.005753,0.002506,0.002792,0.00256,2.289e-05,9.537e-06,0.01132,0.001499,7.391,0.03151,0,0,0.000906
9000000000,9300000000,1202636597,0,257413178,0.001146,0.002556,0.005753,0.002506,0.002792,0.00256,2.098e-05,9.537e-06,0.00853,0.001572,7.053,0.03011,0,0,0.0007648
9300000000,9600000000,1202636597,0,257413178,0.001226,0.002563,0.005753,0.002506,0.002796,0.002571,2.289e-05,9.537e-06,0.01254,0.001358,8.229,0.03661,0,0,0.001513
9600000000,9900000000,1202636597,0,257413178,0.001284,0.002571,0.005753,0.00251,0.002796,0.002583,2.384e-05,9.537e-06,0.02722,0.001072,8.011,0.03517,0,0,0.001469
9900000000,10200000000,1202636597,0,257413178,0.00115,0.002571,0.005753,0.00251,0.002796,0.002575,2.384e-05,9.537e-06,0.008682,0.001429,9.718,0.04351,0,0,0.001112
10200000000,10500000000,1202636597,0,257413178,0.001143,0.002571,0.005753,0.00251,0.002796,0.002571,2.48e-05,9.537e-06,0.008835,0.001143,7.587,0.03322,0,0,0.001024
10500000000,10800000000,1202636597,0,257413178,0.001211,0.002571,0.005753,0.00251,0.0028,0.002571,2.098e-05,9.537e-06,0.007858,0.002857,8.577,0.03776,0,0,0.0009012
10800000000,11100000000,1202636597,0,257413178,0.001204,0.002571,0.005753,0.002514,0.0028,0.002575,3.242e-05,9.537e-06,0.06189,0.002357,7.478,0.0333,0,0,0.001253
11100000000,11400000000,1202636597,0,257413178,0.001169,0.002598,0.005753,0.002514,0.0028,0.002644,3.624e-05,9.537e-06,0.01012,0.001928,9.815,0.0457,0,0,0.001572
11400000000,11700000000,1202636597,0,257413178,0.001202,0.002621,0.005753,0.00251,0.0028,0.002644,1.907e-05,9.537e-06,0.02551,0.0009995,9.674,0.04508,0,0,0.001482
11700000000,12000000000,1202636597,0,257413178,0.001162,0.002594,0.005753,0.002514,0.0028,0.002605,3.242e-05,9.537e-06,0.01038,0.002857,7.764,0.03418,0,0,0.0007906
12000000000,12300000000,1202636597,0,257413178,0.001179,0.002563,0.005753,0.002514,0.0028,0.002579,2.289e-05,9.537e-06,0.004417,0.001072,10.98,0.05137,0,0,0.0006571
12300000000,12600000000,1202636597,0,257413178,0.001101,0.002556,0.005753,0.002514,0.0028,0.002556,9.537e-06,9.537e-06,0.009537,0.0007143,8.938,0.03997,0,0,0.001143
12600000000,12900000000,1202636597,0,257413178,0.001081,0.002556,0.005753,0.002514,0.002804,0.00256,2.193e-05,9.537e-06,0.01018,0.001572,8.855,0.04022,0,0,0.0006886
12900000000,13200000000,1202636597,0,257413178,0.001163,0.002556,0.005753,0.002518,0.002804,0.00256,9.537e-06,9.537e-06,0.0614,0.0009995,7.445,0.03203,0,0,0.001219
13200000000,13500000000,1202636597,0,257413178,0.001013,0.002556,0.00576,0.002518,0.002804,0.00256,9.537e-06,9.537e-06,0.009628,0.0007143,7.096,0.03113,0,0,0.001251
13500000000,13800000000,1202636597,0,257413178,0.001007,0.002556,0.00576,0.002518,0.002804,0.002556,1.526e-05,9.537e-06,0.006294,0.001358,7.457,0.03283,0,0,0.0006943
13800000000,14100000000,1202636597,0,257413178,0.001038,0.002556,0.00576,0.002518,0.002804,0.00256,2.766e-05,9.537e-06,0.01045,0.001072,6.938,0.03022,0,0,0.0004759
14100000000,14400000000,1202636597,0,257413178,0.001019,0.002556,0.00576,0.002518,0.002804,0.00256,1.717e-05,9.537e-06,0.007645,0.0009289,8.076,0.03671,0,0,0.001432
14400000000,14700000000,1202636597,0,257413178,0.001059,0.002556,0.00576,0.002518,0.002804,0.00256,3.719e-05,9.537e-06,0.01389,0.003429,7.135,0.03173,0,0,0.0008135
14700000000,15000000000,1202636597,0,257413178,0.001085,0.002563,0.00576,0.002518,0.002804,0.002567,2.193e-05,9.537e-06,0.02454,0.001286,8.459,0.03921,0,0,0.0009193
15000000000,15300000000,1202636597,0,257413178,0.00119,0.002571,0.00576,0.002518,0.002804,0.002605,3.242e-05,9.537e-06,0.0238,0.002785,3.812,0.01406,0,0,0.0007563
15300000000,15600000000,1202636597,0,257413178,0.001101,0.002617,0.00576,0.002518,0.002804,0.002628,1.812e-05,9.537e-06,0.007133,0.001642,9.097,0.04129,0,0,0.0009422
15600000000,15900000000,1202636597,0,257413178,0.001057,0.002613,0.00576,0.002518,0.002804,0.002625,1.335e-05,9.537e-06,0.007545,0.0009995,9.033,0.04195,0,0,0.001287
15900000000,16200000000,1202636597,0,257413178,0.0009413,0.002575,0.005753,0.002518,0.002804,0.002594,1.431e-05,9.537e-06,0.009277,0.001143,8.192,0.03732,0,0,0.0006132
16200000000,16500000000,1202636597,0,257413178,0.0009546,0.002563,0.00576,0.002518,0.002808,0.002567,7.629e-06,9.537e-06,0.009659,0.0004282,7.591,0.03405,0,0,0.001232
16500000000,16800000000,1202636597,0,257413178,0.0009937,0.002571,0.00576,0.002518,0.002808,0.002571,1.144e-05,9.537e-06,0.00972,0.0004997,7.991,0.03625,0,0,0.0007439
16800000000,17100000000,1202636597,0,257413178,0.001041,0.002567,0.00576,0.002518,0.002804,0.002571,2.193e-05,9.537e-06,0.008881,0.001715,7.102,0.0311,0,0,0.0009127
17100000000,17400000000,1202636597,0,257413178,0.001131,0.002548,0.005753,0.002518,0.002804,0.002571,2.003e-05,9.537e-06,0.05896,0.001286,7.607,0.03405,0,0,0.0006723
17400000000,17700000000,1202636597,0,257413178,0.0009937,0.002552,0.00576,0.002518,0.002808,0.002567,1.335e-05,9.537e-06,0.007721,0.0009995,5.994,0.02548,0,0,0.0009155
17700000000,18000000000,1202636597,0,257413178,0.001022,0.002548,0.00576,0.002522,0.002808,0.002552,1.335e-05,9.537e-06,0.007271,0.0007143,8.1,0.03679,0,0,0.0008211
18000000000,18300000000,1202636597,0,257413178,0.0009899,0.002544,0.00576,0.002522,0.002808,0.002548,1.526e-05,9.537e-06,0.007637,0.0008574,5.482,0.02178,0,0,0.0009422
18300000000,18600000000,1202636597,0,257413178,0.001005,0.002544,0.00576,0.002522,0.002808,0.002548,2.003e-05,9.537e-06,0.01596,0.001358,7.096,0.03132,0,0,0.001329
18600000000,18900000000,1202636597,0,257413178,0.001049,0.002544,0.00576,0.002522,0.002808,0.002548,1.717e-05,9.537e-06,0.02222,0.001928,7.598,0.03398,0,0,0.0006485
18900000000,19200000000,1202636597,0,257413178,0.001001,0.002544,0.00576,0.002522,0.002811,0.002552,4.768e-06,9.537e-06,0.004028,0.0002861,7.033,0.03052,0,0,0.0006294
19200000000,19500000000,1202636597,0,257413178,0.0009995,0.002544,0.00576,0.002522,0.002811,0.002544,6.676e-06,9.537e-06,0.008301,0.0009995,7.065,0.03026,0,0,0.0004797
19500000000,19800000000,1202636597,0,257413178,0.001156,0.002548,0.00576,0.002525,0.002811,0.002586,1.049e-05,9.537e-06,0.05359,0.0006428,7.227,0.03194,0,0,0.0001974
19800000000,20100000000,1202636597,0,257413178,0.001425,0.002571,0.005753,0.002525,0.002815,0.002586,3.242e-05,9.537e-06,0.008682,0.001928,6.487,0.02784,0,0,0.001186
20100000000,20400000000,1202636597,0,257413178,0.001129,0.002563,0.00576,0.002529,0.002815,0.002567,9.537e-06,9.537e-06,0.006943,0.0006428,7.607,0.03406,0,0,0.00103
20400000000,20700000000,1202636597,0,257413178,0.001137,0.002571,0.00576,0.002529,0.002815,0.002575,1.526e-05,9.537e-06,0.01904,0.0006428,6.556,0.02777,0,0,0.001635
20700000000,21000000000,1202636597,0,257413178,0.001179,0.002575,0.00576,0.002529,0.002815,0.002579,9.537e-06,9.537e-06,0.006134,0.0009995,7.546,0.03324,0,0,0.001162
21000000000,21300000000,1202636597,0,257413178,0.001274,0.002579,0.00576,0.002529,0.002815,0.002586,8.583e-06,9.537e-06,0.02527,0.0006428,4.034,0.0146,0,0,0.001209
21300000000,21600000000,1202636597,0,257413178,0.001076,0.002567,0.005753,0.002529,0.002815,0.002567,9.537e-06,9.537e-06,0.00766,0.0007143,6.582,0.02868,0,0,0.001089
21600000000,21900000000,1202636597,0,257413178,0.0009899,0.002567,0.005753,0.002529,0.002815,0.002567,1.144e-05,9.537e-06,0.008667,0.001499,7.179,0.032,0,0,0.001352
21900000000,22200000000,1202636597,0,257413178,0.000968,0.002567,0.005753,0.002529,0.002819,0.002567,7.629e-06,9.537e-06,0.002701,0.0008574,6.999,0.03126,0,0,0.0009975
22200000000,22500000000,1202636597,0,257413178,0.0009193,0.002563,0.00576,0.002533,0.002819,0.002567,2.289e-05,9.537e-06,0.01785,0.001572,6.25,0.02712,0,0,0.0007915
22500000000,22800000000,1202636597,0,257413178,0.00111,0.002556,0.005753,0.002533,0.002819,0.002567,1.526e-05,9.537e-06,0.05524,0.001286,7.297,0.03149,0,0,0.000493
22800000000,23100000000,1202636597,0,257413178,0.001066,0.002544,0.005753,0.002533,0.002819,0.002548,1.907e-05,9.537e-06,0.01112,0.001785,6.923,0.03014,0,0,0.0007935
23100000000,23400000000,1202636597,0,257413178,0.001015,0.002544,0.005753,0.002533,0.002823,0.002544,6.676e-06,9.537e-06,0.005707,0.0004282,6.852,0.02936,0,0,0.0009251
23400000000,23700000000,1202636597,0,257413178,0.0009508,0.002541,0.00576,0.002537,0.002823,0.002544,1.526e-05,9.537e-06,0.007439,0.001143,6.408,0.02746,0,0,0.0008259
23700000000,24000000000,1202636597,0,257413178,0.001045,0.002541,0.00576,0.002537,0.002823,0.002544,1.144e-05,9.537e-06,0.003418,0.001143,7.052,0.03067,0,0,0.0009642
24000000000,24300000000,1202636597,0,257413178,0.001064,0.002541,0.00576,0.002537,0.002823,0.002544,2.098e-05,9.537e-06,0.04956,0.001858,3.697,0.01332,0,0,0.001148
24300000000,24600000000,1202636597,0,257413178,0.0009394,0.002541,0.00576,0.002537,0.002823,0.002541,1.049e-05,9.537e-06,0.002808,0.0008574,9.35,0.04382,0,0,0.0007029
24600000000,24900000000,1202636597,0,257413178,0.0008783,0.002541,0.00576,0.002537,0.002827,0.002541,1.717e-05,9.537e-06,0.02408,0.001715,8.704,0.04085,0,0,0.0004568
24900000000,25200000000,1202636597,0,257413178,0.000886,0.002556,0.00576,0.002537,0.002827,0.002575,1.812e-05,9.537e-06,0.008301,0.002785,6.713,0.03,0,0,0.0003748
25200000000,25500000000,1202636597,0,257413178,0.001127,0.002556,0.00576,0.002537,0.002823,0.002567,2.48e-05,9.537e-06,0.05884,0.001286,8.468,0.03841,0,0,0.0006428
25500000000,25800000000,1202636597,0,257413178,0.001053,0.002556,0.00576,0.002537,0.002823,0.002556,1.907e-05,9.537e-06,0.009338,0.002285,11.06,0.05113,0,0,0.002415
25800000000,26100000000,1202636597,0,257413178,0.001047,0.002556,0.00576,0.002537,0.002823,0.00256,9.537e-06,9.537e-06,0.007889,0.0007143,8.353,0.03679,0,0,0.0006008
26100000000,26400000000,1202636597,0,257413178,0.001049,0.00256,0.00576,0.002537,0.002827,0.00256,1.049e-05,9.537e-06,0.02521,0.001072,8.038,0.0353,0,0,0.0007057
26400000000,26700000000,1202636597,0,257413178,0.001146,0.00256,0.00576,0.002537,0.002827,0.002563,1.812e-05,9.537e-06,0.006226,0.001499,9.25,0.04148,0,0,0.001085
26700000000,27000000000,1202636597,0,257413178,0.001215,0.00256,0.00576,0.002537,0.002827,0.002567,1.431e-05,9.537e-06,0.026,0.0008574,5.014,0.01971,0,0,0.001085
27000000000,27300000000,1202636597,0,257413178,0.001099,0.00256,0.00576,0.002541,0.002827,0.002563,2.956e-05,9.537e-06,0.006538,0.001928,9.506,0.04381,0,0,0.0008917
27300000000,27600000000,1202636597,0,257413178,0.001062,0.00256,0.00576,0.002537,0.002823,0.002563,6.676e-06,9.537e-06,0.005898,0.0004282,8.564,0.03884,0,0,0.001226
27600000000,27900000000,1202636597,0,257413178,0.00106,0.00256,0.00576,0.002537,0.002823,0.002563,1.812e-05,9.537e-06,0.008728,0.001715,7.357,0.03276,0,0,0.0007839
27900000000,28200000000,1202636597,0,257413178,0.0009699,0.002563,0.00576,0.002537,0.002823,0.002563,6.676e-06,9.537e-06,0.008194,0.0004282,8.523,0.03911,0,0,0.001308
28200000000,28500000000,1202636597,0,257413178,0.001055,0.002552,0.00576,0.002537,0.002823,0.00256,6.676e-06,9.537e-06,0.02307,0.0003567,7.994,0.03535,0,0,0.001486
28500000000,28800000000,1202636597,0,257413178,0.001009,0.002544,0.00576,0.002537,0.002823,0.002548,7.629e-06,9.537e-06,0.01222,0.0004282,9.693,0.04468,0,0,0.001301
28800000000,29100000000,1202636597,0,257413178,0.0009556,0.002548,0.00576,0.002537,0.002823,0.002571,1.907e-05,9.537e-06,0.005249,0.001928,8.561,0.03868,0,0,0.001133
29100000000,29400000000,1202636597,0,257413178,0.000948,0.002567,0.00576,0.002537,0.002827,0.002575,1.335e-05,9.537e-06,0.003174,0.0007858,7.638,0.03396,0,0,0.000886
29400000000,29700000000,1202636597,0,257413178,0.00107,0.002544,0.00576,0.002541,0.002827,0.002556,1.812e-05,9.537e-06,0.03424,0.001072,7.679,0.03416,0,0,0.001297
29700000000,30000000000,1202636597,0,257413178,0.0009899,0.002541,0.00576,0.002541,0.002827,0.002541,1.431e-05,9.537e-06,0.007179,0.0007143,7.362,0.03217,0,0,0.0009031
30000000000,30300000000,1202636597,0,257413178,0.001022,0.002541,0.00576,0.002541,0.002827,0.002544,1.24e-05,9.537e-06,0.005234,0.001286,8.803,0.03922,0,0,0.001289
30300000000,30600000000,1202636597,0,257413178,0.0009413,0.002548,0.00576,0.002533,0.002819,0.002552,9.537e-06,9.537e-06,0.01018,0.0007143,7.671,0.03409,0,0,0.0007286
30600000000,30900000000,1202636597,0,257413178,0.001078,0.002556,0.00576,0.002533,0.002819,0.00256,1.144e-05,9.537e-06,0.02975,0.0008574,6.261,0.02648,0,0,0.0005531
30900000000,31200000000,1202636597,0,257413178,0.00108,0.00256,0.00576,0.002533,0.002819,0.002563,1.335e-05,9.537e-06,0.007339,0.0007858,5.238,0.02136,0,0,0.0008879
31200000000,31500000000,1202636597,0,257413178,0.001013,0.00256,0.00576,0.002533,0.002823,0.002563,2.193e-05,9.537e-06,0.006493,0.00243,7.718,0.03506,0,0,0.0005608
31500000000,31800000000,1202636597,0,257413178,0.0009527,0.00256,0.00576,0.002533,0.002819,0.002563,1.526e-05,9.537e-06,0.008133,0.001286,9.13,0.04262,0,0,0.0008478
31800000000,32100000000,1202636597,0,257413178,0.00103,0.00256,0.00576,0.002529,0.002815,0.002563,1.621e-05,9.537e-06,0.003174,0.001858,8.812,0.04002,0,0,0.0004921
32100000000,32400000000,1202636597,0,257413178,0.001078,0.00256,0.00576,0.002529,0.002819,0.00256,9.537e-06,9.537e-06,0.02454,0.001072,8.084,0.0359,0,0,0.0008717
32400000000,32700000000,1202636597,0,257413178,0.001087,0.002556,0.00576,0.002533,0.002819,0.00256,3.242e-05,9.537e-06,0.00827,0.001286,6.738,0.02873,0,0,0.001478
32700000000,33000000000,1202636597,0,257413178,0.001062,0.002556,0.00576,0.002533,0.002819,0.002556,7.629e-06,9.537e-06,0.003937,0.0005713,9.482,0.04332,0,0,0.001129
33000000000,33300000000,1202636597,0,257413178,0.001074,0.002556,0.00576,0.002533,0.002819,0.00256,2.48e-05,9.537e-06,0.00695,0.001572,8.296,0.03731,0,0,0.0008278
33300000000,33600000000,1202636597,0,257413178,0.00107,0.002556,0.00576,0.002533,0.002823,0.00256,1.812e-05,9.537e-06,0.0128,0.0006428,6.981,0.02931,0,0,0.0008278
33600000000,33900000000,1202636597,0,257413178,0.001167,0.002552,0.00576,0.002533,0.002819,0.002563,1.335e-05,9.537e-06,0.05206,0.0009995,8.277,0.03685,0,0,0.001043
33900000000,34200000000,1202636597,0,257413178,0.001022,0.002541,0.00576,0.002533,0.002819,0.002541,1.526e-05,9.537e-06,0.006035,0.001072,7.014,0.03069,0,0,0.001326
34200000000,34500000000,1202636597,0,257413178,0.001053,0.002541,0.00576,0.002533,0.002823,0.002541,1.144e-05,9.537e-06,0.01547,0.001143,9.429,0.04429,0,0,0.0006771
34500000000,34800000000,1202636597,0,257413178,0.0009031,0.002541,0.00576,0.002537,0.002823,0.002541,2.67e-05,9.537e-06,0.006813,0.002857,8.721,0.03968,0,0,0.0004625
34800000000,35100000000,1202636597,0,257413178,0.001104,0.002541,0.005753,0.002537,0.002823,0.002544,3.052e-05,9.537e-06,0.008682,0.001999,7.257,0.03102,0,0,0.001036
35100000000,35400000000,1202636597,0,257413178,0.001162,0.002541,0.005753,0.002537,0.002823,0.002544,2.193e-05,9.537e-06,0.0553,0.001143,10.01,0.04562,0,0,0.001137
35400000000,35700000000,1202636597,0,257413178,0.001022,0.002541,0.00576,0.002537,0.002823,0.002544,1.907e-05,9.537e-06,0.004929,0.001499,8.425,0.03866,0,0,0.0006771
35700000000,36000000000,1202636597,0,257413178,0.001051,0.002541,0.00576,0.002537,0.002827,0.002541,1.717e-05,9.537e-06,0.007904,0.001358,7.893,0.03543,0,0,0.0007515
36000000000,36300000000,1202636597,0,257413178,0.0009899,0.002541,0.00576,0.002541,0.002827,0.002541,2.098e-05,9.537e-06,0.007904,0.00293,8.745,0.04065,0,0,0.001064
36300000000,36600000000,1202636597,0,257413178,0.001085,0.002544,0.00576,0.002541,0.002827,0.002548,2.098e-05,9.537e-06,0.00853,0.001143,10.04,0.04679,0,0,0.00107
36600000000,36900000000,1202636597,0,257413178,0.001137,0.002556,0.005753,0.002533,0.002823,0.002563,2.098e-05,9.537e-06,0.02478,0.001715,7.461,0.03279,0,0,0.0008469
36900000000,37200000000,1202636597,0,257413178,0.001022,0.00256,0.00576,0.002529,0.002819,0.002563,2.861e-05,9.537e-06,0.008087,0.003143,8.618,0.03856,0,0,0.0005856
37200000000,37500000000,1202636597,0,257413178,0.00111,0.00256,0.005753,0.002529,0.002815,0.00256,2.48e-05,9.537e-06,0.006783,0.001286,8.75,0.03887,0,0,0.0008526
37500000000,37800000000,1202636597,0,257413178,0.001062,0.002556,0.00576,0.002529,0.002815,0.00256,1.144e-05,9.537e-06,0.006622,0.001072,10.03,0.04642,0,0,0.0007372
37800000000,38100000000,1202636597,0,257413178,0.0009499,0.002556,0.00576,0.002529,0.002819,0.00256,3.147e-05,9.537e-06,0.006432,0.00293,7.145,0.03127,0,0,0.0006447
38100000000,38400000000,1202636597,0,257413178,0.0009785,0.00256,0.00576,0.002529,0.002819,0.00256,1.431e-05,9.537e-06,0.02295,0.001642,8.052,0.03672,0,0,0.001354
38400000000,38700000000,1202636597,0,257413178,0.0009356,0.00256,0.00576,0.002533,0.002819,0.00256,1.717e-05,9.537e-06,0.008667,0.002213,7.639,0.03408,0,0,0.00169
38700000000,39000000000,1202636597,0,257413178,0.00102,0.00256,0.00576,0.002529,0.002819,0.00256,1.24e-05,9.537e-06,0.005867,0.001286,6.449,0.02619,0,0,0.0008755
39000000000,39300000000,1202636597,0,257413178,0.001165,0.00259,0.005753,0.002525,0.002811,0.002605,1.717e-05,9.537e-06,0.06012,0.001499,7.667,0.0326,0,0,0.001055
39300000000,39600000000,1202636597,0,257413178,0.001175,0.002579,0.005753,0.002441,0.002728,0.002594,1.717e-05,9.537e-06,0.007874,0.001143,9.201,0.04033,0,0,0.0007915
39600000000,39900000000,1202636597,0,257413178,0.001141,0.002552,0.005753,0.002274,0.00256,0.00256,2.289e-05,9.537e-06,0.008438,0.00293,8.461,0.03715,0,0,0.0007887
39900000000,40200000000,1202636597,0,257413178,0.001125,0.002548,0.005753,0.002274,0.00256,0.002548,2.289e-05,9.537e-06,0.007782,0.002644,7.607,0.03349,0,0,0.001162
40200000000,40500000000,1202636597,0,257413178,0.00107,0.002548,0.00576,0.002274,0.00256,0.002548,1.335e-05,9.537e-06,0.009689,0.001072,9.779,0.04501,0,0,0.0007381
40500000000,40800000000,1202636597,0,257413178,0.00106,0.002548,0.00576,0.002274,0.002563,0.002552,8.583e-06,9.537e-06,0.0249,0.001143,3.895,0.01415,0,0,0.000741
51000000000,51300000000,1202636597,0,257413178,0.001223,0.002548,0.005753,0.002304,0.002594,0.002556,3.529e-05,9.537e-06,0.005531,0.002571,7.798,0.03169,0,0,0.001074
51300000000,51600000000,1202636597,0,257413178,0.001213,0.002548,0.005753,0.002304,0.002594,0.002556,8.583e-06,9.537e-06,0.007584,0.0002861,8.818,0.03701,0,0,0.0008583
51600000000,51900000000,1202636597,0,257413178,0.001249,0.002548,0.00576,0.002308,0.002594,0.002548,1.431e-05,9.537e-06,0.01097,0.0009289,9.493,0.04033,0,0,0.001026
51900000000,52200000000,1202636597,0,257413178,0.001167,0.002548,0.00576,0.002308,0.002594,0.002552,9.537e-06,9.537e-06,0.06085,0.0004997,7.669,0.03323,0,0,0.001883
52200000000,52500000000,1202636597,0,257413178,0.001226,0.002548,0.005753,0.002308,0.002598,0.002556,2.098e-05,9.537e-06,0.0121,0.001999,7.75,0.03246,0,0,0.0009289
52500000000,52800000000,1202636597,0,257413178,0.001226,0.002548,0.005753,0.002312,0.002598,0.002552,1.526e-05,9.537e-06,0.01923,0.001358,9.162,0.0411,0,0,0.001047
52800000000,53100000000,1202636597,0,257413178,0.00115,0.002552,0.005753,0.002312,0.002598,0.002556,2.193e-05,9.537e-06,0.0177,0.001715,6.838,0.02821,0,0,0.0007563
53100000000,53400000000,1202636597,0,257413178,0.001137,0.00256,0.005753,0.002312,0.002598,0.002563,1.431e-05,9.537e-06,0.04205,0.0008574,8.246,0.0371,0,0,0.001307
53400000000,53700000000,1202636597,0,257413178,0.00108,0.002563,0.005753,0.002312,0.002602,0.002563,2.67e-05,9.537e-06,0.00396,0.00293,7.299,0.03275,0,0,0.0008087
53700000000,54000000000,1202636597,0,257413178,0.001106,0.00256,0.005753,0.002312,0.002602,0.002563,1.24e-05,9.537e-06,0.003174,0.0007858,7.006,0.03002,0,0,0.001469
54000000000,54300000000,1202636597,0,257413178,0.001127,0.002563,0.005753,0.002316,0.002602,0.002563,2.003e-05,9.537e-06,0.01212,0.00293,7.234,0.03107,0,0,0.0009861
54300000000,54600000000,1202636597,0,257413178,0.001015,0.002563,0.005753,0.002316,0.002602,0.002563,1.812e-05,9.537e-06,0.004166,0.002144,6.728,0.02857,0,0,0.0009298
54600000000,54900000000,1202636597,0,257413178,0.001146,0.002567,0.005753,0.002316,0.002602,0.002575,1.621e-05,9.537e-06,0.05975,0.001358,6.895,0.0301,0,0,0.001226
54900000000,55200000000,1202636597,0,257413178,0.001017,0.002567,0.005753,0.002316,0.002605,0.002567,1.621e-05,9.537e-06,0.01007,0.0009289,8.44,0.03828,0,0,0.0009918
55200000000,55500000000,1202636597,0,257413178,0.0009203,0.002563,0.00576,0.002319,0.002605,0.002567,1.24e-05,9.537e-06,0.00708,0.0006428,6.39,0.02765,0,0,0.0009012
55500000000,55800000000,1202636597,0,257413178,0.001038,0.002563,0.00576,0.002319,0.002605,0.002567,1.049e-05,9.537e-06,0.03192,0.0006428,6.612,0.02934,0,0,0.0008202
55800000000,56100000000,1202636597,0,257413178,0.000947,0.002541,0.00576,0.002319,0.002609,0.002544,1.049e-05,9.537e-06,0.006607,0.0008574,7.508,0.03365,0,0,0.0006323
56100000000,56400000000,1202636597,0,257413178,0.0009136,0.002541,0.00576,0.002323,0.002609,0.002544,1.717e-05,9.537e-06,0.009247,0.001358,7.061,0.03292,0,0,0.00116
56400000000,56700000000,1202636597,0,257413178,0.000948,0.002544,0.005753,0.002323,0.002609,0.002544,1.717e-05,9.537e-06,0.007904,0.001143,7.815,0.03714,0,0,0.001028
56700000000,57000000000,1202636597,0,257413178,0.001062,0.002541,0.00576,0.002323,0.002609,0.002541,1.049e-05,9.537e-06,0.06067,0.0005713,8.49,0.03953,0,0,0.0008135
57000000000,57300000000,1202636597,0,257413178,0.000968,0.002541,0.005753,0.002323,0.002613,0.002544,1.526e-05,9.537e-06,0.005997,0.001572,8.335,0.03825,0,0,0.001108
57300000000,57600000000,1202636597,0,257413178,0.000927,0.002541,0.00576,0.002323,0.002613,0.002544,7.629e-06,9.537e-06,0.007278,0.0004282,8.562,0.03989,0,0,0.0005426
57600000000,57900000000,1202636597,0,257413178,0.001015,0.002548,0.005753,0.002327,0.002613,0.002556,3.338e-05,9.537e-06,0.008667,0.00243,7.602,0.03383,0,0,0.0008049
57900000000,58200000000,1202636597,0,257413178,0.00104,0.00256,0.005753,0.002327,0.002613,0.002563,1.526e-05,9.537e-06,0.0153,0.001215,8.544,0.03832,0,0,0.0007534
58200000000,58500000000,1202636597,0,257413178,0.001087,0.002563,0.005753,0.002327,0.002613,0.002567,1.526e-05,9.537e-06,0.03104,0.0006428,7.512,0.03228,0,0,0.001177
58500000000,58800000000,1202636597,0,257413178,0.0009918,0.002563,0.005753,0.002327,0.002617,0.002563,1.621e-05,9.537e-06,0.003216,0.001429,7.583,0.03301,0,0,0.0008669
58800000000,59100000000,1202636597,0,257413178,0.001032,0.002563,0.005753,0.002331,0.002617,0.002567,2.48e-05,9.537e-06,0.007996,0.003643,7.308,0.03169,0,0,0.001408
59100000000,59400000000,1202636597,0,257413178,0.001041,0.002563,0.005753,0.002331,0.002617,0.002563,3.242e-05,9.537e-06,0.0105,0.00293,8.958,0.04111,0,0,0.0006142
59400000000,59700000000,1202636597,0,257413178,0.001087,0.002563,0.00576,0.002331,0.002621,0.002567,2.289e-05,9.537e-06,0.02197,0.001143,7.999,0.03653,0,0,0.0009041
59700000000,60000000000,1202636597,0,257413178,0.001118,0.002563,0.005753,0.002331,0.002621,0.002571,2.861e-05,9.537e-06,0.006439,0.00293,9.425,0.04333,0,0,0.001093
60000000000,60300000000,1202636597,0,257413178,0.001186,0.002563,0.005753,0.002335,0.002621,0.002567,2.575e-05,9.537e-06,0.007919,0.001572,7.954,0.03482,0,0,0.001205
60300000000,60600000000,1202636597,0,257413178,0.001148,0.002563,0.005753,0.002335,0.002621,0.002567,2.48e-05,9.537e-06,0.004601,0.001928,7.724,0.03397,0,0,0.000761
60600000000,60900000000,1202636597,0,257413178,0.00115,0.002556,0.005753,0.002335,0.002621,0.002571,1.335e-05,9.537e-06,0.06079,0.0008574,8.767,0.03991,0,0,0.0006256
70800000000,71100000000,1202636597,0,257413178,0.0004148,0.002464,0.005806,0.002369,0.002655,0.002563,9.537e-06,9.537e-06,0.05341,0.0006428,3.074,0.009848,0,0,0.0001411
71100000000,71400000000,1202636597,0,257413178,0.0003586,0.002468,0.005806,0.002361,0.002651,0.00256,8.583e-06,9.537e-06,0.00222,0.0009289,11.03,0.04843,0,0,0.0003786
71400000000,71700000000,1202636597,0,257413178,0.0003366,0.002415,0.005806,0.002361,0.002647,0.002449,1.24e-05,9.537e-06,0.009018,0.0009995,12.85,0.05695,0,0,0.0001068
71700000000,72000000000,1202636597,0,257413178,0.0003109,0.002407,0.005806,0.002361,0.002647,0.002411,1.049e-05,9.537e-06,0.001953,0.001642,8.487,0.03752,0,0,0.0001097
72000000000,72300000000,1202636597,0,257413178,0.0003529,0.002419,0.005806,0.002361,0.002647,0.002438,2.384e-05,9.537e-06,0.00415,0.002857,13.54,0.06267,0,0,0.0001307
72300000000,72600000000,1202636597,0,257413178,0.0003624,0.002434,0.005806,0.002361,0.002647,0.002445,1.431e-05,9.537e-06,0.002075,0.002285,12.42,0.05681,0,0,0.0004406
72600000000,72900000000,1202636597,0,257413178,0.0003443,0.002445,0.005806,0.002361,0.002651,0.002449,1.717e-05,9.537e-06,0.001831,0.00243,14.85,0.06967,0,0,0.0001707
72900000000,73200000000,1202636597,0,257413178,0.0003119,0.002441,0.005806,0.002361,0.002651,0.002441,1.049e-05,9.537e-06,0.001831,0.001072,16.02,0.07501,0,0,0.001194
73200000000,73500000000,1202636597,0,257413178,0.0003109,0.002434,0.005806,0.002365,0.002651,0.002438,5.722e-06,9.537e-06,0.001831,0.0004997,14.55,0.06685,0,0,0.0004225
73500000000,73800000000,1202636597,0,257413178,0.0003166,0.002426,0.005806,0.002365,0.002651,0.00243,6.676e-06,9.537e-06,0.002075,0.0004282,10.81,0.04853,0,0,0.0002403
73800000000,74100000000,1202636597,0,257413178,0.0003185,0.002419,0.005806,0.002365,0.002651,0.002422,6.676e-06,9.537e-06,0.001587,0.0004282,11.11,0.04961,0,0,0.0001698
74100000000,74400000000,1202636597,0,257413178,0.0003242,0.002411,0.005806,0.002365,0.002651,0.002415,7.629e-06,9.537e-06,0.002319,0.0007858,15.74,0.0726,0,0,0.0006237
74400000000,74700000000,1202636597,0,257413178,0.0003214,0.002403,0.005806,0.002365,0.002655,0.002411,8.583e-06,9.537e-06,0.002075,0.001072,13.83,0.06301,0,0,0.0002623
74700000000,75000000000,1202636597,0,257413178,0.0003004,0.002407,0.005806,0.002365,0.002655,0.002411,1.144e-05,9.537e-06,0.0047,0.001286,10.82,0.04892,0,0,0.0004196
75000000000,75300000000,1202636597,0,257413178,0.000308,0.002403,0.005806,0.002369,0.002655,0.002403,1.907e-05,9.537e-06,0.001831,0.001858,13.77,0.06459,0,0,0.0002518
75300000000,75600000000,1202636597,0,257413178,0.0003109,0.002403,0.005806,0.002369,0.002655,0.002407,1.621e-05,9.537e-06,0.001831,0.00293,14.32,0.06778,0,0,0.0001688
75600000000,75900000000,1202636597,0,257413178,0.0003138,0.002403,0.005806,0.002369,0.002655,0.002403,6.676e-06,9.537e-06,0.001923,0.0008574,8.247,0.0353,0,0,0.0001135
75900000000,76200000000,1202636597,0,257413178,0.0003195,0.002403,0.005806,0.002369,0.002655,0.002407,6.676e-06,9.537e-06,0.001831,0.0003567,14.17,0.06576,0,0,0.0001659
76200000000,76500000000,1202636597,0,257413178,0.00033,0.002403,0.005806,0.002369,0.002659,0.002407,1.049e-05,9.537e-06,0.004601,0.001072,11.01,0.04927,0,0,0.0001745
76500000000,76800000000,1202636597,0,257413178,0.0003376,0.002407,0.005806,0.002369,0.002659,0.002415,7.629e-06,9.537e-06,0.001953,0.0004282,15.95,0.07411,0,0,0.0008211
76800000000,77100000000,1202636597,0,257413178,0.0003309,0.002403,0.005806,0.002373,0.002659,0.002407,9.537e-06,9.537e-06,0.002686,0.0009289,14.69,0.06673,0,0,0.0002041
77100000000,77400000000,1202636597,0,257413178,0.0003119,0.002403,0.005806,0.002373,0.002659,0.002407,9.537e-06,9.537e-06,0.001709,0.0006428,14.36,0.06903,0,0,9.441e-05
77400000000,77700000000,1202636597,0,257413178,0.0003738,0.002415,0.005806,0.002373,0.002659,0.002438,1.431e-05,9.537e-06,0.004272,0.001143,14.2,0.06904,0,0,9.823e-05
77700000000,78000000000,1202636597,0,257413178,0.0003204,0.002426,0.005806,0.002373,0.002663,0.002438,1.049e-05,9.537e-06,0.001953,0.001215,10.37,0.0486,0,0,0.0004091
78000000000,78300000000,1202636597,0,257413178,0.0003853,0.002426,0.005806,0.002373,0.002663,0.002449,5.722e-06,9.537e-06,0.05621,0.0003567,14.51,0.06893,0,0,0.0004606
78300000000,78600000000,1202636597,0,257413178,0.0003109,0.002457,0.005806,0.002377,0.002651,0.002548,8.583e-06,9.537e-06,0.003036,0.0009289,13.52,0.06191,0,0,0.0001802
78600000000,78900000000,1202636597,0,257413178,0.0002975,0.002434,0.005806,0.002377,0.002651,0.002449,7.629e-06,9.537e-06,0.001953,0.0006428,9.753,0.04304,0,0,0.0004034
78900000000,79200000000,1202636597,0,257413178,0.0002956,0.002411,0.005806,0.002377,0.002663,0.00243,6.676e-06,9.537e-06,0.001587,0.0004997,15.06,0.07178,0,0,0.0002499
79200000000,79500000000,1202636597,0,257413178,0.0002966,0.002399,0.005806,0.002377,0.002663,0.002415,1.144e-05,9.537e-06,0.001709,0.001715,13.82,0.06608,0,0,0.0007696
79500000000,79800000000,1202636597,0,257413178,0.0003023,0.002403,0.005806,0.002377,0.002663,0.002419,1.526e-05,9.537e-06,0.003052,0.0007143,14.8,0.07109,0,0,0.0003586
79800000000,80100000000,1202636597,0,257413178,0.00033,0.002392,0.005806,0.002377,0.002666,0.002399,1.812e-05,9.537e-06,0.001831,0.001642,13.39,0.06093,0,0,0.0002203
80100000000,80400000000,1202636597,0,257413178,0.0003777,0.002388,0.005806,0.00238,0.002666,0.002399,2.48e-05,9.537e-06,0.01172,0.001358,9.965,0.04398,0,0,0.0007524
80400000000,80700000000,1202636597,0,257413178,0.0003824,0.002373,0.005806,0.00238,0.002666,0.002377,1.335e-05,9.537e-06,0.001612,0.001143,10.72,0.04807,0,0,0.0001698
80700000000,81000000000,1202636597,0,257413178,0.0003147,0.002369,0.005806,0.00238,0.002666,0.002369,2.193e-05,9.537e-06,0.002075,0.002571,15.19,0.07258,0,0,0.0002441
85800000000,86100000000,1202636597,0,257413178,0.0003023,0.002369,0.005806,0.002392,0.002678,0.002369,1.24e-05,9.537e-06,0.002075,0.001785,11.91,0.05449,0,0,0.0004482
86100000000,86400000000,1202636597,0,257413178,0.0003252,0.002369,0.005806,0.002392,0.002678,0.002373,5.722e-06,9.537e-06,0.003052,0.0002146,16.26,0.07669,0,0,0.0002947
86400000000,86700000000,1202636597,0,257413178,0.0003481,0.002369,0.005806,0.002392,0.002678,0.002369,8.583e-06,9.537e-06,0.013,0.0007858,8.441,0.03428,0,0,0.0001631
86700000000,87000000000,1202636597,0,257413178,0.0003452,0.002369,0.005806,0.002392,0.002678,0.002373,2.098e-05,9.537e-06,0.002319,0.001358,16.76,0.07774,0,0,0.0008163
87000000000,87300000000,1202636597,0,257413178,0.0003223,0.002369,0.005806,0.002392,0.002682,0.002369,5.722e-06,9.537e-06,0.001831,0.0007143,15.48,0.07132,0,0,0.0002632
87300000000,87600000000,1202636597,0,257413178,0.0003109,0.002369,0.005806,0.002396,0.002682,0.002377,8.583e-06,9.537e-06,0.004272,0.001143,10.7,0.04849,0,0,8.106e-05
87600000000,87900000000,1202636597,0,257413178,0.0003138,0.002369,0.005806,0.002396,0.002682,0.002369,1.24e-05,9.537e-06,0.001587,0.0008574,15.82,0.0744,0,0,0.0001698
87900000000,88200000000,1202636597,0,257413178,0.0002928,0.002369,0.005806,0.002396,0.002682,0.002369,7.629e-06,9.537e-06,0.001953,0.0005713,17.12,0.08328,0,0,0.000535
88200000000,88500000000,1202636597,0,257413178,0.0002985,0.002369,0.005806,0.002396,0.002682,0.002369,1.049e-05,9.537e-06,0.001953,0.001286,15.41,0.07435,0,0,7.82e-05
88500000000,88800000000,1202636597,0,257413178,0.0003309,0.002369,0.005806,0.002396,0.002682,0.002369,1.24e-05,9.537e-06,0.00293,0.0009289,16.17,0.07495,0,0,0.0003681
88800000000,89100000000,1202636597,0,257413178,0.0003815,0.002373,0.005806,0.002396,0.002686,0.00238,1.24e-05,9.537e-06,0.00647,0.0008574,11.85,0.05342,0,0,0.0001783
89100000000,89400000000,1202636597,0,257413178,0.0003796,0.002392,0.005806,0.002399,0.002686,0.002403,1.144e-05,9.537e-06,0.002563,0.001143,19.06,0.08895,0,0,0.0002232
89400000000,89700000000,1202636597,0,257413178,0.0003319,0.002407,0.005806,0.002399,0.002686,0.002411,1.335e-05,9.537e-06,0.002075,0.002499,16.51,0.07848,0,0,0.0002699
89700000000,90000000000,1202636597,0,257413178,0.0002956,0.002415,0.005806,0.002399,0.002686,0.002415,9.537e-06,9.537e-06,0.001143,0.0005713,17.66,0.08451,0,0,0.0004578
90000000000,90300000000,1202636597,0,257413178,0.0003023,0.002415,0.005806,0.002399,0.002686,0.002415,1.24e-05,9.537e-06,0.002075,0.002071,15.49,0.07337,0,0,0.0001297
90300000000,90600000000,1202636597,0,257413178,0.0003109,0.002415,0.005806,0.002399,0.002686,0.002434,1.621e-05,9.537e-06,0.02725,0.002571,16.58,0.08162,0,0,0.0003815
90600000000,90900000000,1202636597,0,257413178,0.0003147,0.002415,0.005806,0.002403,0.002689,0.002441,1.431e-05,9.537e-06,0.002686,0.002213,16.21,0.07604,0,0,0.0002737
101100000000,101400000000,1202636597,0,257413178,0.0003338,0.002373,0.005806,0.002426,0.002712,0.002377,1.24e-05,9.537e-06,0.003662,0.001499,15.59,0.07696,0,0,0.0004492
101400000000,101700000000,1202636597,0,257413178,0.0003214,0.002373,0.005806,0.002426,0.002712,0.002377,2.289e-05,9.537e-06,0.005806,0.001858,7.698,0.03506,0,0,0.0002394
101700000000,102000000000,1202636597,0,257413178,0.0003796,0.002373,0.005806,0.002426,0.002712,0.002377,5.722e-06,9.537e-06,0.001953,0.0004997,17.69,0.08504,0,0,0.0003099
102000000000,102300000000,1202636597,0,257413178,0.0004015,0.002373,0.005806,0.002426,0.002712,0.002373,1.144e-05,9.537e-06,0.002197,0.0009289,17.42,0.08091,0,0,0.0004597
102300000000,102600000000,1202636597,0,257413178,0.0003405,0.002369,0.005806,0.002426,0.002716,0.002373,8.583e-06,9.537e-06,0.002075,0.0005713,12.56,0.05706,0,0,0.0001001
102600000000,102900000000,1202636597,0,257413178,0.0003061,0.002369,0.005806,0.002426,0.002716,0.002369,1.144e-05,9.537e-06,0.00293,0.001572,15.52,0.07406,0,0,0.0001822
102900000000,103200000000,1202636597,0,257413178,0.000308,0.002369,0.005806,0.00243,0.002716,0.002373,1.24e-05,9.537e-06,0.00354,0.001286,17.02,0.08196,0,0,0.0003939
103200000000,103500000000,1202636597,0,257413178,0.000309,0.002373,0.005806,0.00243,0.002716,0.002377,2.575e-05,9.537e-06,0.001831,0.002857,8.368,0.03687,0,0,0.0003366
103500000000,103800000000,1202636597,0,257413178,0.0003281,0.002373,0.005806,0.00243,0.002716,0.002373,1.049e-05,9.537e-06,0.001965,0.0009995,15.24,0.07068,0,0,0.0001373
103800000000,104100000000,1202636597,0,257413178,0.0004158,0.002373,0.005806,0.00243,0.002716,0.002377,9.537e-06,9.537e-06,0.01468,0.0007143,9.215,0.04009,0,0,0.0002899
104100000000,104400000000,1202636597,0,257413178,0.0003223,0.002373,0.005806,0.00243,0.00272,0.002377,1.24e-05,9.537e-06,0.001709,0.001499,17.61,0.08303,0,0,0.0002041
104400000000,104700000000,1202636597,0,257413178,0.0002966,0.002373,0.005806,0.002434,0.00272,0.002373,1.621e-05,9.537e-06,0.001831,0.001072,16.06,0.07665,0,0,0.0001383
104700000000,105000000000,1202636597,0,257413178,0.0003281,0.002373,0.005806,0.002434,0.00272,0.002373,2.003e-05,9.537e-06,0.01736,0.002285,15.88,0.07309,0,0,0.0004711
105000000000,105300000000,1202636597,0,257413178,0.0003242,0.002373,0.005806,0.002434,0.00272,0.002373,6.676e-06,9.537e-06,0.002563,0.0004997,11.56,0.05186,0,0,0.000248
105300000000,105600000000,1202636597,0,257413178,0.0003185,0.002373,0.005806,0.002434,0.00272,0.002377,5.722e-06,9.537e-06,0.002033,0.0005713,18.48,0.08559,0,0,0.0001612
105600000000,105900000000,1202636597,0,257413178,0.0003109,0.002373,0.005806,0.002434,0.00272,0.002377,7.629e-06,9.537e-06,0.002686,0.0005713,15.05,0.06873,0,0,0.0001554
105900000000,106200000000,1202636597,0,257413178,0.0003071,0.002373,0.005806,0.002434,0.002724,0.002373,1.431e-05,9.537e-06,0.005699,0.001572,13.12,0.05867,0,0,0.0001564
106200000000,106500000000,1202636597,0,257413178,0.0003357,0.002373,0.005806,0.002438,0.002724,0.002373,5.722e-06,9.537e-06,0.002441,0.0002861,16.25,0.07525,0,0,0.0002613
106500000000,106800000000,1202636597,0,257413178,0.0003777,0.002373,0.005806,0.002438,0.002724,0.002373,9.537e-06,9.537e-06,0.002319,0.0008574,14.97,0.07255,0,0,0.0007248
106800000000,107100000000,1202636597,0,257413178,0.0003576,0.002373,0.005806,0.002438,0.002724,0.002373,7.629e-06,9.537e-06,0.001831,0.0009995,15.76,0.07905,0,0,0.0001726
107100000000,107400000000,1202636597,0,257413178,0.0003662,0.002373,0.005806,0.002438,0.002724,0.002373,1.431e-05,9.537e-06,0.002254,0.001785,9.088,0.04392,0,0,0.0005999
107400000000,107700000000,1202636597,0,257413178,0.0003414,0.002373,0.005806,0.002438,0.002728,0.002373,1.335e-05,9.537e-06,0.002335,0.001429,15.9,0.07969,0,0,0.0001755
107700000000,108000000000,1202636597,0,257413178,0.0002813,0.002373,0.005806,0.002438,0.002728,0.002373,1.431e-05,9.537e-06,0.007408,0.002857,10.93,0.0532,0,0,0.0008144
108000000000,108300000000,1202636597,0,257413178,0.0002861,0.002373,0.005806,0.002441,0.002728,0.002373,4.768e-06,9.537e-06,0.001709,0.0003567,14.72,0.07301,0,0,0.000227
