5700000000,6000000000,1843579567,0,351650065,0.004227,0.06433,0.0835,0.001024,0.02689,0.06433,3.815e-06,0.0002785,0.03387,0.0005713,4.329,0.0138,0,1,0
6000000000,6300000000,1843579567,0,351650065,0.004105,0.06433,0.0835,0.001055,0.02692,0.06433,4.768e-06,0.0002785,0.08484,0.0007143,4.337,0.01432,0,1,0
6300000000,6600000000,1843579567,0,351650065,0.004227,0.06433,0.0835,0.001085,0.02695,0.06433,2.861e-06,0.0002785,0.03729,0.0004282,4.284,0.01349,0,1,0
6600000000,6900000000,1843579567,0,351650065,0.004486,0.06433,0.0835,0.001116,0.02698,0.06433,3.815e-06,0.0002785,0.03149,0.0004282,4.497,0.01439,0,1,0
6900000000,7200000000,1843579567,0,351650065,0.004646,0.06433,0.0835,0.001154,0.02701,0.06433,2.861e-06,0.0002785,0.04156,0.0002861,4.28,0.01417,0,1,0
7200000000,7500000000,1843579567,0,351650065,0.004402,0.06433,0.0835,0.001188,0.02704,0.06433,4.768e-06,0.0002785,0.03723,0.0004997,4.514,0.01581,0,1,0
7500000000,7800000000,1843579567,0,351650065,0.004074,0.06433,0.0835,0.001219,0.02707,0.06433,4.768e-06,0.0002766,0.02911,0.0004282,4.525,0.0159,0,1,0
7800000000,8100000000,1843579567,0,351650065,0.003937,0.06433,0.0835,0.001116,0.02698,0.06433,4.768e-06,0.0002766,0.01874,0.0007858,4.42,0.01513,0,1,0
8100000000,8400000000,1843579567,0,351650065,0.003822,0.06433,0.0835,0.0004845,0.02634,0.06433,6.676e-06,0.0002766,0.02164,0.001072,4.484,0.01566,0,1,0
8400000000,8700000000,1843579567,0,351650065,0.004189,0.06433,0.0835,0.000515,0.02637,0.06433,4.768e-06,0.0002775,0.02823,0.0008574,4.445,0.01515,0,1,0
8700000000,9000000000,1843579567,0,351650065,0.004196,0.06433,0.0835,0.0005512,0.0264,0.06433,4.768e-06,0.0002775,0.06122,0.0004282,4.413,0.01565,0,1,0
9000000000,9300000000,1843579567,0,351650065,0.004089,0.06433,0.0835,0.0005846,0.02643,0.06433,2.861e-06,0.0002775,0.03497,0.0003567,4.171,0.01417,0,1,0
9300000000,9600000000,1843579567,0,351650065,0.004013,0.06433,0.0835,0.0006132,0.02646,0.06433,1.335e-05,0.0002775,0.03784,0.00293,4.309,0.01448,0,1,0
9600000000,9900000000,1843579567,0,351650065,0.003616,0.06433,0.0835,0.0006428,0.02649,0.06433,1.907e-06,0.0002775,0.03668,0.0002146,4.173,0.0139,0,1,0
9900000000,10200000000,1843579567,0,351650065,0.003464,0.06433,0.0835,0.0006695,0.02652,0.06433,1.621e-05,0.0002775,0.03,0.002071,4.37,0.01498,0,1,0
10200000000,10500000000,1843579567,0,351650065,0.003593,0.06433,0.0835,0.0006943,0.02655,0.06433,1.144e-05,0.0002775,0.03668,0.002785,4.295,0.01478,0,1,0
10500000000,10800000000,1843579567,0,351650065,0.003395,0.06433,0.0835,0.00072,0.02658,0.06433,1.907e-06,0.0002775,0.02985,0.0002861,4.269,0.01421,0,1,0
10800000000,11100000000,1843579567,0,351650065,0.003067,0.06433,0.0835,0.0007477,0.02661,0.06433,8.583e-06,0.0002775,0.03546,0.001429,4.165,0.01472,0,1,0
11100000000,11400000000,1843579567,0,351650065,0.002937,0.06433,0.0835,0.0007744,0.02664,0.06433,7.629e-06,0.0002775,0.01491,0.001072,4.321,0.01614,0,1,0
11400000000,11700000000,1843579567,0,351650065,0.003025,0.06433,0.0835,0.0007982,0.02664,0.06433,5.722e-06,0.0002775,0.02219,0.0007143,4.147,0.0148,0,1,0
11700000000,12000000000,1843579567,0,351650065,0.002949,0.06433,0.0835,0.0008221,0.02667,0.06433,9.537e-06,0.0002775,0.02402,0.001642,4.223,0.01537,0,1,0
12000000000,12300000000,1843579567,0,351650065,0.00288,0.06433,0.0835,0.000844,0.0267,0.06433,6.676e-06,0.0002775,0.0239,0.0007143,4.4,0.01573,0,1,0
12300000000,12600000000,1843579567,0,351650065,0.002876,0.06433,0.0835,0.0008669,0.02673,0.06433,5.722e-06,0.0002775,0.02969,0.0007143,4.2,0.015,0,1,0
12600000000,12900000000,1843579567,0,351650065,0.002998,0.06433,0.0835,0.000886,0.02673,0.06433,1.907e-06,0.0002775,0.02765,0.0003567,4.482,0.01641,0,1,0
12900000000,13200000000,1843579567,0,351650065,0.002586,0.06433,0.0835,0.0008907,0.02676,0.06433,4.768e-06,0.0002785,0.01923,0.0006428,4.226,0.01481,0,1,0
13200000000,13500000000,1843579567,0,351650065,0.002625,0.06433,0.0835,0.0009117,0.02676,0.06433,1.431e-05,0.0002785,0.01472,0.00293,4.096,0.01463,0,1,0
13500000000,13800000000,1843579567,0,351650065,0.002602,0.06433,0.0835,0.0009317,0.02679,0.06433,1.24e-05,0.0002785,0.034,0.0009995,4.302,0.01556,0,1,0
13800000000,14100000000,1843579567,0,351650065,0.002628,0.06433,0.0835,0.0009518,0.02682,0.06433,6.676e-06,0.0002785,0.0163,0.0007858,4.045,0.01433,0,1,0
14100000000,14400000000,1843579567,0,351650065,0.002476,0.06433,0.0835,0.0009708,0.02682,0.06433,1.907e-06,0.0002785,0.05103,0.0001431,4.539,0.01659,0,1,0
14400000000,14700000000,1843579567,0,351650065,0.002251,0.06433,0.0835,0.0009899,0.02686,0.06433,5.722e-06,0.0002785,0.01392,0.0007858,4.296,0.01529,0,1,0
14700000000,15000000000,1843579567,0,351650065,0.002602,0.06433,0.0835,0.001005,0.02686,0.06433,2.861e-06,0.0002785,0.02707,0.0004282,4.478,0.01688,0,1,0
15000000000,15300000000,1843579567,0,351650065,0.003727,0.06433,0.0835,0.001028,0.02689,0.06433,3.815e-06,0.0002785,0.03418,0.0005713,4.223,0.014,0,1,0
15300000000,15600000000,1843579567,0,351650065,0.002876,0.06433,0.0835,0.001051,0.02692,0.06433,1.144e-05,0.0002785,0.02698,0.00293,4.304,0.01458,0,1,0
15600000000,15900000000,1843579567,0,351650065,0.002766,0.06433,0.0835,0.001068,0.02692,0.06433,5.722e-06,0.0002785,0.02167,0.0009289,4.207,0.01396,0,1,0
15900000000,16200000000,1843579567,0,351650065,0.002365,0.06433,0.0835,0.001091,0.02695,0.06433,8.583e-06,0.0002785,0.03278,0.001143,4.287,0.01567,0,1,0
16200000000,16500000000,1843579567,0,351650065,0.002262,0.06433,0.08362,0.001108,0.02698,0.06433,1.907e-06,0.0002785,0.03271,0.0001431,4.406,0.01608,0,1,0
16500000000,16800000000,1843579567,0,351650065,0.002327,0.06433,0.08362,0.001125,0.02698,0.06433,2.861e-06,0.0002785,0.03784,0.0002861,4.227,0.01525,0,1,0
16800000000,17100000000,1843579567,0,351650065,0.002293,0.06433,0.08362,0.001143,0.02701,0.06433,9.537e-06,0.0002785,0.02826,0.001286,4.365,0.01567,0,1,0
17100000000,17400000000,1843579567,0,351650065,0.001972,0.06433,0.08362,0.001158,0.02701,0.06433,2.861e-06,0.0002785,0.0249,0.0003567,4.224,0.01481,0,1,0
17400000000,17700000000,1843579567,0,351650065,0.002331,0.06433,0.08362,0.001171,0.02704,0.06433,3.815e-06,0.0002785,0.02139,0.0005713,4.627,0.01703,0,1,0
17700000000,18000000000,1843579567,0,351650065,0.002312,0.06433,0.08362,0.001184,0.02704,0.06433,1.907e-06,0.0002785,0.0481,0.0004997,4.175,0.01434,0,1,0
18000000000,18300000000,1843579567,0,351650065,0.002007,0.06433,0.08362,0.001198,0.02707,0.06433,9.537e-07,0.0002766,0.01418,0.0003567,4.674,0.01628,0,1,0
18300000000,18600000000,1843579567,0,351650065,0.00182,0.06433,0.08362,0.001211,0.02707,0.06433,9.537e-07,0.0002766,0.01648,0.0001431,4.603,0.01601,0,1,0
18600000000,18900000000,1843579567,0,351650065,0.00181,0.06433,0.08362,0.001226,0.02707,0.06433,4.768e-06,0.0002766,0.05084,0.0008574,4.191,0.015,0,1,0
18900000000,19200000000,1843579567,0,351650065,0.001711,0.06433,0.08362,0.00124,0.0271,0.06433,1.907e-06,0.0002766,0.01602,0.0003567,4.55,0.01684,0,1,0
19200000000,19500000000,1843579567,0,351650065,0.001743,0.06433,0.0835,0.0009699,0.02682,0.06433,7.629e-06,0.0002766,0.0188,0.001642,4.504,0.01676,0,1,0
19500000000,19800000000,1843579567,0,351650065,0.001614,0.06433,0.0835,0.0004883,0.02634,0.06433,9.537e-07,0.0002766,0.04913,0.0002146,4.224,0.01513,0,1,0
19800000000,20100000000,1843579567,0,351650065,0.001556,0.06433,0.0835,0.0004988,0.02637,0.06433,4.768e-06,0.0002766,0.01128,0.001143,4.607,0.01696,0,1,0
20100000000,20400000000,1843579567,0,351650065,0.001514,0.06433,0.0835,0.0005093,0.02637,0.06433,9.537e-07,0.0002775,0.01941,0.0001431,5.203,0.01972,0,1,0
20400000000,20700000000,1843579567,0,351650065,0.001629,0.06433,0.0835,0.0005178,0.02637,0.06433,1.907e-06,0.0002775,0.02234,0.0002861,5.044,0.01859,0,1,0
20700000000,21000000000,1843579567,0,351650065,0.001326,0.06433,0.0835,0.0005274,0.0264,0.06433,2.861e-06,0.0002775,0.02371,0.0006428,4.515,0.01621,0,1,0
21000000000,21300000000,1843579567,0,351650065,0.001295,0.06433,0.0835,0.0005379,0.0264,0.06433,1.907e-06,0.0002775,0.01025,0.0003567,4.688,0.01774,0,1,0
21300000000,21600000000,1843579567,0,351650065,0.001272,0.06433,0.0835,0.0005465,0.0264,0.06433,9.537e-07,0.0002775,0.0199,0.0001431,4.828,0.01822,0,1,0
21600000000,21900000000,1843579567,0,351650065,0.001263,0.06433,0.0835,0.000555,0.02643,0.06433,6.676e-06,0.0002775,0.02057,0.0007143,4.625,0.01753,0,1,0
21900000000,22200000000,1843579567,0,351650065,0.00127,0.06433,0.0835,0.0005636,0.02643,0.06433,1.907e-06,0.0002775,0.01228,0.0004282,4.957,0.01864,0,1,0
22200000000,22500000000,1843579567,0,351650065,0.001202,0.06433,0.0835,0.0005713,0.02643,0.06433,1.907e-06,0.0002775,0.01442,0.0002146,4.932,0.01839,0,1,0
22500000000,22800000000,1843579567,0,351650065,0.001328,0.06433,0.0835,0.0005779,0.02643,0.06433,1.907e-06,0.0002775,0.0148,0.0007143,5.222,0.01941,0,1,0
22800000000,23100000000,1843579567,0,351650065,0.00106,0.06433,0.0835,0.0005846,0.02643,0.06433,1.907e-06,0.0002775,0.009598,0.0004997,4.645,0.01715,0,1,0
23100000000,23400000000,1843579567,0,351650065,0.00116,0.06433,0.0835,0.0005941,0.02646,0.06433,1.335e-05,0.0002775,0.01479,0.001642,4.861,0.01824,0,1,0
23400000000,23700000000,1843579567,0,351650065,0.00106,0.06433,0.0835,0.0006008,0.02646,0.06433,9.537e-07,0.0002775,0.006874,0.0002861,4.699,0.01757,0,1,0
23700000000,24000000000,1843579567,0,351650065,0.001038,0.06433,0.0835,0.0006075,0.02646,0.06433,9.537e-07,0.0002775,0.01825,0.0001431,4.829,0.01809,0,1,0
24000000000,24300000000,1843579567,0,351650065,0.001013,0.06433,0.0835,0.0006132,0.02646,0.06433,9.537e-07,0.0002775,0.01035,0.0001431,4.971,0.01881,0,1,0
24300000000,24600000000,1843579567,0,351650065,0.001019,0.06433,0.0835,0.0006199,0.02649,0.06433,0,0.0002775,0.02774,7.153e-05,5.091,0.01878,0,1,0
24600000000,24900000000,1843579567,0,351650065,0.001146,0.06433,0.0835,0.0006237,0.02649,0.06433,9.537e-07,0.0002775,0.02649,0.0001431,5.124,0.01928,0,1,0
24900000000,25200000000,1843579567,0,351650065,0.001038,0.06433,0.0835,0.0006294,0.02649,0.06433,0,0.0002775,0.02206,0,5.259,0.01979,0,1,0
25200000000,25500000000,1843579567,0,351650065,0.001028,0.06433,0.0835,0.0006361,0.02649,0.06433,9.537e-07,0.0002775,0.01448,0.0003567,4.887,0.0176,0,1,0
25500000000,25800000000,1843579567,0,351650065,0.0009899,0.06433,0.0835,0.0006399,0.02649,0.06433,0,0.0002775,0.02094,0,4.902,0.01709,0,1,0
25800000000,26100000000,1843579567,0,351650065,0.0009937,0.06433,0.0835,0.0006466,0.02652,0.06433,9.537e-07,0.0002775,0.01807,0.0002146,6.112,0.02303,0,1,0
26100000000,26400000000,1843579567,0,351650065,0.0009804,0.06433,0.0835,0.0006905,0.02655,0.06433,0,0.0002775,0.0143,7.153e-05,6.058,0.02403,0,1,0
26400000000,26700000000,1843579567,0,351650065,0.0009346,0.06433,0.0835,0.0008869,0.02673,0.06433,0,0.0002775,0.06409,7.153e-05,5.359,0.01975,0,1,0
26700000000,27000000000,1843579567,0,351650065,0.00107,0.06433,0.0835,0.0009146,0.02676,0.06433,9.537e-07,0.0002775,0.01968,0.0001431,6.175,0.0228,0,1,0
27000000000,27300000000,1843579567,0,351650065,0.0008593,0.06433,0.0835,0.0009203,0.02676,0.06433,3.815e-06,0.0002775,0.01271,0.0009289,4.829,0.018,0,1,0
27300000000,27600000000,1843579567,0,351650065,0.0009117,0.06433,0.0835,0.000926,0.02679,0.06433,6.676e-06,0.0002775,0.01198,0.0009289,4.724,0.01731,0,1,0
27600000000,27900000000,1843579567,0,351650065,0.0007515,0.06433,0.0835,0.0009308,0.02679,0.06433,9.537e-07,0.0002775,0.0256,0.0001431,5.127,0.01957,0,1,0
27900000000,28200000000,1843579567,0,351650065,0.0007582,0.06433,0.0835,0.0009356,0.02679,0.06433,5.722e-06,0.0002775,0.007011,0.001429,6.18,0.02453,0,1,0
28200000000,28500000000,1843579567,0,351650065,0.000762,0.06433,0.0835,0.0009384,0.02679,0.06433,1.907e-06,0.0002775,0.02621,0.0002146,5.657,0.02165,0,1,0
28500000000,28800000000,1843579567,0,351650065,0.000947,0.06433,0.0835,0.0009422,0.02679,0.06433,0,0.0002775,0.02606,0,6.081,0.02441,0,1,0
28800000000,29100000000,1843579567,0,351650065,0.0009117,0.06433,0.0835,0.0009403,0.02679,0.06433,9.537e-07,0.0002775,0.01761,0.0001431,5.959,0.02176,0,1,0
29100000000,29400000000,1843579567,0,351650065,0.0008268,0.06433,0.0835,0.0009413,0.02679,0.06433,0,0.0002775,0.0143,7.153e-05,5.985,0.02245,0,1,0
29400000000,29700000000,1843579567,0,351650065,0.0008726,0.06433,0.0835,0.000946,0.02679,0.06433,0,0.0002775,0.01126,0.0001431,5.997,0.02281,0,1,0
29700000000,30000000000,1843579567,0,351650065,0.0008726,0.06433,0.0835,0.000948,0.02679,0.06433,0,0.0002775,0.01974,7.153e-05,5.364,0.01895,0,1,0
30000000000,30300000000,1843579567,0,351650065,0.0008917,0.06433,0.0835,0.0009537,0.02682,0.06433,9.537e-07,0.0002775,0.01161,0.0002861,6.162,0.02316,0,1,0
30300000000,30600000000,1843579567,0,351650065,0.0007944,0.06433,0.0835,0.0009565,0.02682,0.06433,0,0.0002775,0.02097,0,5.464,0.02018,0,1,0
30600000000,30900000000,1843579567,0,351650065,0.0007715,0.06433,0.0835,0.0009565,0.02682,0.06433,9.537e-07,0.0002775,0.02426,7.153e-05,6.559,0.02462,0,1,0
30900000000,31200000000,1843579567,0,351650065,0.0009861,0.06433,0.0835,0.0009661,0.02682,0.06433,9.537e-07,0.0002775,0.03278,0.0001431,5.903,0.02207,0,1,0
31200000000,31500000000,1843579567,0,351650065,0.0008106,0.06433,0.0835,0.0009661,0.02682,0.06433,2.861e-06,0.0002775,0.01151,0.0008574,6.404,0.0239,0,1,0
31500000000,31800000000,1843579567,0,351650065,0.0008011,0.06433,0.0835,0.0009727,0.02682,0.06433,0,0.0002775,0.03351,7.153e-05,5.718,0.02177,0,1,0
31800000000,32100000000,1843579567,0,351650065,0.0008755,0.06433,0.0835,0.0009766,0.02682,0.06433,2.861e-06,0.0002775,0.0136,0.0007858,5.792,0.02095,0,1,0
32100000000,32400000000,1843579567,0,351650065,0.0007906,0.06433,0.0835,0.0009661,0.02682,0.06433,2.861e-06,0.0002775,0.01981,0.0009289,6.914,0.02679,0,1,0
32400000000,32700000000,1843579567,0,351650065,0.0008821,0.06433,0.0835,0.0009613,0.02682,0.06433,5.722e-06,0.0002775,0.01341,0.0006428,5.168,0.01845,0,1,0
32700000000,33000000000,1843579567,0,351650065,0.0008888,0.06433,0.0835,0.0009575,0.02682,0.06433,1.907e-06,0.0002775,0.02426,0.0002146,6.064,0.02311,0,1,0
33000000000,33300000000,1843579567,0,351650065,0.0008564,0.06433,0.0835,0.0009604,0.02682,0.06433,0,0.0002775,0.01561,7.153e-05,5.652,0.02081,0,1,0
33300000000,33600000000,1843579567,0,351650065,0.0009012,0.06433,0.0835,0.0009661,0.02682,0.06433,0,0.0002775,0.02509,7.153e-05,6.012,0.0212,0,1,0
33600000000,33900000000,1843579567,0,351650065,0.0007486,0.06433,0.0835,0.0009604,0.02682,0.06433,0,0.0002775,0.01385,7.153e-05,5.882,0.02207,0,1,0
33900000000,34200000000,1843579567,0,351650065,0.0007582,0.06433,0.0835,0.0009623,0.02682,0.06433,2.861e-06,0.0002775,0.01868,0.0003567,5.936,0.02328,0,1,0
34200000000,34500000000,1843579567,0,351650065,0.0007782,0.06433,0.0835,0.0009661,0.02682,0.06433,3.815e-06,0.0002775,0.01611,0.0009289,5.19,0.01961,0,1,0
34500000000,34800000000,1843579567,0,351650065,0.0007133,0.06433,0.0835,0.0009651,0.02682,0.06433,9.537e-07,0.0002775,0.008789,0.0002146,5.805,0.02282,0,1,0
34800000000,35100000000,1843579567,0,351650065,0.00068,0.06433,0.0835,0.000968,0.02682,0.06433,0,0.0002775,0.01295,7.153e-05,6.163,0.02425,0,1,0
35100000000,35400000000,1843579567,0,351650065,0.0007973,0.06433,0.0835,0.0009718,0.02682,0.06433,9.537e-07,0.0002775,0.01134,0.0003567,5.977,0.02303,0,1,0
35400000000,35700000000,1843579567,0,351650065,0.0008984,0.06433,0.0835,0.0009747,0.02682,0.06433,1.907e-06,0.0002775,0.02945,0.0003567,6.352,0.02506,0,1,0
35700000000,36000000000,1843579567,0,351650065,0.0009537,0.06433,0.0835,0.0009785,0.02682,0.06433,4.768e-06,0.0002775,0.01828,0.001286,6.225,0.02369,0,1,0
36000000000,36300000000,1843579567,0,351650065,0.0009308,0.06433,0.0835,0.0009823,0.02686,0.06433,9.537e-07,0.0002775,0.01297,0.0001431,5.819,0.02057,0,1,0
36300000000,36600000000,1843579567,0,351650065,0.0008659,0.06433,0.0835,0.000988,0.02686,0.06433,0,0.0002775,0.03412,0,5.738,0.02092,0,1,0
36600000000,36900000000,1843579567,0,351650065,0.0009632,0.06433,0.0835,0.0009918,0.02686,0.06433,9.537e-07,0.0002775,0.01395,0.0001431,6.369,0.02462,0,1,0
36900000000,37200000000,1843579567,0,351650065,0.000947,0.06433,0.0835,0.0009899,0.02686,0.06433,1.907e-06,0.0002775,0.02005,0.0004997,5.701,0.02166,0,1,0
37200000000,37500000000,1843579567,0,351650065,0.0009937,0.06433,0.0835,0.000988,0.02686,0.06433,9.537e-07,0.0002775,0.02277,7.153e-05,5.777,0.01969,0,1,0
37500000000,37800000000,1843579567,0,351650065,0.001074,0.06433,0.0835,0.0009823,0.02686,0.06433,1.907e-06,0.0002775,0.02731,0.0002861,5.137,0.01751,0,1,0
37800000000,38100000000,1843579567,0,351650065,0.001036,0.06433,0.0835,0.0009899,0.02686,0.06433,0,0.0002775,0.009766,7.153e-05,5.01,0.01726,0,1,0
38100000000,38400000000,1843579567,0,351650065,0.0009737,0.06433,0.0835,0.0009975,0.02686,0.06433,9.537e-07,0.0002775,0.01416,0.0002146,5.762,0.02211,0,1,0
38400000000,38700000000,1843579567,0,351650065,0.001137,0.06433,0.0835,0.001001,0.02686,0.06433,2.861e-06,0.0002775,0.0495,0.0003567,6.595,0.0265,0,1,0
38700000000,39000000000,1843579567,0,351650065,0.001101,0.06433,0.0835,0.0009937,0.02686,0.06433,9.537e-07,0.0002775,0.034,7.153e-05,6.058,0.02264,0,1,0
39000000000,39300000000,1843579567,0,351650065,0.001129,0.06433,0.0835,0.0009956,0.02686,0.06433,8.583e-06,0.0002775,0.02454,0.001358,5.947,0.02337,0,1,0
39300000000,39600000000,1843579567,0,351650065,0.001276,0.06433,0.0835,0.0009918,0.02686,0.06433,1.907e-06,0.0002775,0.03204,0.0001431,5.962,0.02291,0,1,0
39600000000,39900000000,1843579567,0,351650065,0.001127,0.06433,0.0835,0.0009975,0.02686,0.06433,1.907e-06,0.0002775,0.01236,0.0002146,6.216,0.02231,0,1,0
39900000000,40200000000,1843579567,0,351650065,0.001005,0.06433,0.0835,0.0009975,0.02686,0.06433,4.768e-06,0.0002775,0.01376,0.0007858,4.504,0.01676,0,1,0
40200000000,40500000000,1843579567,0,351650065,0.000947,0.06433,0.0835,0.0009956,0.02686,0.06433,9.537e-07,0.0002775,0.0127,0.0002146,4.509,0.01613,0,1,0
40500000000,40800000000,1843579567,0,351650065,0.001009,0.06433,0.0835,0.0009975,0.02686,0.06433,9.537e-07,0.0002775,0.01764,0.0002146,5.322,0.02115,0,1,0
51000000000,51300000000,1843579567,0,351650065,0.005524,0.06433,0.0835,0.0008583,0.0267,0.06433,6.676e-06,0.0002775,0.03845,0.0005713,4.975,0.01729,0,1,0
51300000000,51600000000,1843579567,0,351650065,0.005493,0.06433,0.0835,0.0008917,0.02676,0.06433,1.431e-05,0.0002775,0.03705,0.001928,4.852,0.01648,0,1,0
51600000000,51900000000,1843579567,0,351650065,0.005302,0.06433,0.0835,0.0009251,0.02679,0.06433,1.24e-05,0.0002775,0.04175,0.0007143,5.12,0.01682,0,1,0
51900000000,52200000000,1843579567,0,351650065,0.004532,0.06433,0.0835,0.0009594,0.02682,0.06433,1.431e-05,0.0002775,0.0423,0.001072,4.353,0.01455,0,1,0
52200000000,52500000000,1843579567,0,351650065,0.004974,0.06433,0.0835,0.0009918,0.02686,0.06433,1.907e-05,0.0002775,0.05194,0.001072,4.185,0.01296,0,1,0
52500000000,52800000000,1843579567,0,351650065,0.004723,0.06433,0.0835,0.00102,0.02689,0.06433,1.431e-05,0.0002775,0.03741,0.0008574,4.519,0.01443,0,1,0
52800000000,53100000000,1843579567,0,351650065,0.005447,0.06433,0.0835,0.001003,0.02686,0.06433,2.384e-05,0.0002775,0.04053,0.001715,4.582,0.01542,0,1,0
53100000000,53400000000,1843579567,0,351650065,0.005653,0.06433,0.0835,0.0009995,0.02686,0.06433,2.003e-05,0.0002775,0.04382,0.001642,4.816,0.01588,0,1,0
53400000000,53700000000,1843579567,0,351650065,0.005386,0.06433,0.0835,0.001009,0.02686,0.06433,2.956e-05,0.0002775,0.05219,0.002857,4.519,0.01492,0,1,0
53700000000,54000000000,1843579567,0,351650065,0.006271,0.06433,0.0835,0.001013,0.02689,0.06433,6.104e-05,0.0002785,0.04352,0.004356,4.791,0.01595,0,1,0
54000000000,54300000000,1843579567,0,351650065,0.005531,0.06433,0.0835,0.00104,0.02689,0.06433,5.722e-06,0.0002785,0.147,0.0004997,4.655,0.01565,0,1,0
54300000000,54600000000,1843579567,0,351650065,0.005188,0.06433,0.0835,0.001074,0.02695,0.06433,1.049e-05,0.0002785,0.06885,0.001499,4.445,0.01546,0,1,0
54600000000,54900000000,1843579567,0,351650065,0.005157,0.06433,0.0835,0.00111,0.02698,0.06433,1.621e-05,0.0002785,0.0412,0.002285,4.274,0.01441,0,1,0
54900000000,55200000000,1843579567,0,351650065,0.005493,0.06433,0.0835,0.001141,0.02701,0.06433,4.768e-06,0.0002785,0.04089,0.0009289,4.504,0.01455,0,1,0
55200000000,55500000000,1843579567,0,351650065,0.005394,0.06433,0.0835,0.001177,0.02704,0.06433,5.722e-06,0.0002785,0.0387,0.0006428,4.203,0.01309,0,1,0
55500000000,55800000000,1843579567,0,351650065,0.004929,0.06433,0.0835,0.001207,0.02707,0.06433,3.815e-06,0.0002785,0.03906,0.0004997,4.141,0.01305,0,1,0
55800000000,56100000000,1843579567,0,351650065,0.005264,0.06433,0.0835,0.00116,0.02701,0.06433,6.676e-06,0.0002785,0.0434,0.0008574,4.341,0.01395,0,1,0
56100000000,56400000000,1843579567,0,351650065,0.005287,0.06433,0.0835,0.001171,0.02704,0.06433,3.815e-06,0.0002775,0.05103,0.0004997,4.264,0.01334,0,1,0
56400000000,56700000000,1843579567,0,351650065,0.005508,0.06433,0.0835,0.001207,0.02707,0.06433,1.335e-05,0.0002766,0.0437,0.002998,4.225,0.01316,0,1,0
56700000000,57000000000,1843579567,0,351650065,0.005188,0.06433,0.0835,0.0006323,0.02649,0.06433,2.861e-06,0.0002766,0.03012,0.0006428,4.375,0.01364,0,1,0
57000000000,57300000000,1843579567,0,351650065,0.005051,0.06433,0.0835,0.0006638,0.02652,0.06433,6.676e-06,0.0002775,0.03229,0.001286,4.34,0.0137,0,1,0
57300000000,57600000000,1843579567,0,351650065,0.005478,0.06433,0.0835,0.000701,0.02655,0.06433,3.815e-06,0.0002775,0.04663,0.0004997,4.189,0.01295,0,1,0
57600000000,57900000000,1843579567,0,351650065,0.005501,0.06433,0.0835,0.0007401,0.02661,0.06433,3.815e-06,0.0002775,0.04407,0.0004997,4.128,0.01275,0,1,0
57900000000,58200000000,1843579567,0,351650065,0.004845,0.06433,0.0835,0.0007811,0.02664,0.06433,1.144e-05,0.0002775,0.04846,0.001785,4.276,0.01448,0,1,0
58200000000,58500000000,1843579567,0,351650065,0.005127,0.06433,0.0835,0.0008154,0.02667,0.06433,1.812e-05,0.0002775,0.04291,0.001143,4.319,0.01488,0,1,0
58500000000,58800000000,1843579567,0,351650065,0.004929,0.06433,0.0835,0.0008507,0.0267,0.06433,1.431e-05,0.0002775,0.04297,0.002144,4.462,0.01548,0,1,0
58800000000,59100000000,1843579567,0,351650065,0.005081,0.06433,0.0835,0.0008812,0.02673,0.06433,1.049e-05,0.0002775,0.05951,0.001143,4.63,0.01559,0,1,0
59100000000,59400000000,1843579567,0,351650065,0.004677,0.06433,0.0835,0.0009098,0.02676,0.06433,6.676e-06,0.0002775,0.04144,0.0006428,4.399,0.01534,0,1,0
59400000000,59700000000,1843579567,0,351650065,0.005417,0.06433,0.0835,0.0009308,0.02679,0.06433,6.676e-06,0.0002775,0.04376,0.0004282,4.627,0.01643,0,1,0
59700000000,60000000000,1843579567,0,351650065,0.005646,0.06433,0.0835,0.0009661,0.02682,0.06433,8.583e-06,0.0002775,0.0401,0.0009995,4.362,0.01512,0,1,0
60000000000,60300000000,1843579567,0,351650065,0.005768,0.06433,0.0835,0.001005,0.02686,0.06433,2.193e-05,0.0002775,0.04034,0.004501,4.556,0.01523,0,1,0
60300000000,60600000000,1843579567,0,351650065,0.0056,0.06433,0.0835,0.001041,0.02692,0.06433,1.907e-06,0.0002785,0.07458,0.0002146,4.718,0.01588,0,1,0
60600000000,60900000000,1843579567,0,351650065,0.005501,0.06433,0.0835,0.00108,0.02695,0.06433,2.098e-05,0.0002785,0.0542,0.002857,4.494,0.01493,0,1,0
70800000000,71100000000,1843579567,0,351650065,0.005501,0.06433,0.0835,0.001215,0.02707,0.06433,5.722e-06,0.0002785,0.06097,0.0004282,4.47,0.01532,0,1,0
71100000000,71400000000,1843579567,0,351650065,0.005402,0.06433,0.0835,0.001228,0.0271,0.06433,3.815e-06,0.0002766,0.06494,0.0005713,4.39,0.01512,0,1,0
71400000000,71700000000,1843579567,0,351650065,0.005394,0.06433,0.0835,0.0006056,0.02646,0.06433,4.768e-06,0.0002766,0.04852,0.0008574,4.264,0.01421,0,1,0
71700000000,72000000000,1843579567,0,351650065,0.005455,0.06433,0.0835,0.0006456,0.02652,0.06433,5.722e-06,0.0002775,0.03485,0.0006428,4.456,0.0152,0,1,0
72000000000,72300000000,1843579567,0,351650065,0.006111,0.06433,0.0835,0.0006857,0.02655,0.06433,4.768e-06,0.0002775,0.04071,0.0005713,4.602,0.01651,0,1,0
72300000000,72600000000,1843579567,0,351650065,0.005791,0.06433,0.0835,0.0007315,0.02658,0.06433,1.049e-05,0.0002775,0.0647,0.0008574,4.384,0.01539,0,1,0
72600000000,72900000000,1843579567,0,351650065,0.005707,0.06433,0.0835,0.0008879,0.02673,0.06433,1.049e-05,0.0002775,0.02795,0.0008574,4.369,0.01535,0,1,0
72900000000,73200000000,1843579567,0,351650065,0.005608,0.06433,0.0835,0.001032,0.02689,0.06433,9.537e-06,0.0002775,0.04205,0.0009289,4.382,0.01572,0,1,0
73200000000,73500000000,1843579567,0,351650065,0.00547,0.06433,0.0835,0.001078,0.02695,0.06433,5.722e-06,0.0002775,0.02533,0.0004997,4.357,0.0152,0,1,0
73500000000,73800000000,1843579567,0,351650065,0.005569,0.06433,0.0835,0.001123,0.02698,0.06433,2.384e-05,0.0002775,0.04645,0.002716,4.409,0.01571,0,1,0
73800000000,74100000000,1843579567,0,351650065,0.005447,0.06433,0.0835,0.001163,0.02701,0.06433,1.144e-05,0.0002775,0.04828,0.001572,4.501,0.0159,0,1,0
74100000000,74400000000,1843579567,0,351650065,0.005531,0.06433,0.0835,0.001204,0.02707,0.06433,1.24e-05,0.0002775,0.03625,0.001928,4.501,0.01588,0,1,0
74400000000,74700000000,1843579567,0,351650065,0.006042,0.06433,0.0835,0.00124,0.0271,0.06433,5.722e-06,0.0002775,0.05957,0.0006428,4.602,0.01579,0,1,0
74700000000,75000000000,1843579567,0,351650065,0.005585,0.06433,0.0835,0.00128,0.02713,0.06433,1.526e-05,0.0002785,0.05438,0.002285,4.335,0.01519,0,1,0
75000000000,75300000000,1843579567,0,351650065,0.005356,0.06433,0.0835,0.00132,0.02719,0.06433,5.722e-06,0.0002785,0.05945,0.0004997,4.25,0.015,0,1,0
75300000000,75600000000,1843579567,0,351650065,0.005089,0.06433,0.0835,0.001356,0.02722,0.06433,4.768e-06,0.0002785,0.03363,0.0004282,4.356,0.01553,0,1,0
75600000000,75900000000,1843579567,0,351650065,0.005424,0.06433,0.0835,0.001396,0.02725,0.06433,7.629e-06,0.0002785,0.04846,0.001429,4.308,0.01511,0,1,0
75900000000,76200000000,1843579567,0,351650065,0.005257,0.06433,0.0835,0.001411,0.02728,0.06433,9.537e-06,0.0002785,0.04932,0.001072,4.147,0.0145,0,1,0
76200000000,76500000000,1843579567,0,351650065,0.004974,0.06433,0.0835,0.001387,0.02725,0.06433,7.629e-06,0.0002785,0.04535,0.0006428,4.338,0.01551,0,1,0
76500000000,76800000000,1843579567,0,351650065,0.005096,0.06433,0.0835,0.001421,0.02728,0.06433,1.335e-05,0.0002785,0.04144,0.003071,4.224,0.01477,0,1,0
76800000000,77100000000,1843579567,0,351650065,0.005173,0.06433,0.0835,0.001455,0.02731,0.06433,2.861e-06,0.0002785,0.03845,0.0004997,4.262,0.01443,0,1,0
77100000000,77400000000,1843579567,0,351650065,0.005035,0.06433,0.0835,0.001493,0.02734,0.06433,3.815e-06,0.0002775,0.03528,0.0005713,4.133,0.01409,0,1,0
77400000000,77700000000,1843579567,0,351650065,0.005432,0.06433,0.0835,0.001532,0.0274,0.06433,4.768e-06,0.0002766,0.03894,0.0005713,4.161,0.01396,0,1,0
77700000000,78000000000,1843579567,0,351650065,0.005623,0.06433,0.0835,0.001297,0.02716,0.06433,4.768e-06,0.0002766,0.04053,0.0006428,4.326,0.01469,0,1,0
78000000000,78300000000,1843579567,0,351650065,0.005409,0.06433,0.0835,0.0008602,0.02673,0.06433,4.768e-06,0.0002775,0.04956,0.0007143,4.401,0.0148,0,1,0
78300000000,78600000000,1843579567,0,351650065,0.005226,0.06433,0.0835,0.0008993,0.02676,0.06433,4.768e-06,0.0002775,0.0354,0.0004997,4.278,0.01476,0,1,0
78600000000,78900000000,1843579567,0,351650065,0.005302,0.06433,0.0835,0.0009384,0.02679,0.06433,4.768e-06,0.0002775,0.02972,0.0004997,4.427,0.01521,0,1,0
78900000000,79200000000,1843579567,0,351650065,0.005615,0.06433,0.0835,0.0009785,0.02682,0.06433,3.815e-06,0.0002775,0.05133,0.0004997,4.455,0.01513,0,1,0
79200000000,79500000000,1843579567,0,351650065,0.00547,0.06433,0.0835,0.001019,0.02689,0.06433,1.907e-06,0.0002775,0.0545,0.0004997,4.425,0.01502,0,1,0
79500000000,79800000000,1843579567,0,351650065,0.005531,0.06433,0.0835,0.00106,0.02692,0.06433,5.722e-06,0.0002775,0.05347,0.0005713,4.337,0.01497,0,1,0
79800000000,80100000000,1843579567,0,351650065,0.005318,0.06433,0.0835,0.001101,0.02695,0.06433,1.144e-05,0.0002775,0.06299,0.001572,4.27,0.01473,0,1,0
80100000000,80400000000,1843579567,0,351650065,0.005463,0.06433,0.0835,0.001141,0.02701,0.06433,2.48e-05,0.0002775,0.04559,0.003571,4.315,0.01519,0,1,0
80400000000,80700000000,1843579567,0,351650065,0.005463,0.06433,0.0835,0.001179,0.02704,0.06433,2.861e-06,0.0002775,0.0318,0.0002861,4.407,0.01586,0,1,0
80700000000,81000000000,1843579567,0,351650065,0.005768,0.06433,0.0835,0.001219,0.02707,0.06433,1.812e-05,0.0002775,0.02988,0.003857,4.496,0.01596,0,1,0
85800000000,86100000000,1843579567,0,351650065,0.007454,0.06433,0.0835,0.001066,0.02692,0.06433,4.768e-06,0.0002785,0.03595,0.0006428,3.976,0.01253,0,1,0
86100000000,86400000000,1843579567,0,351650065,0.007675,0.06433,0.0835,0.001068,0.02692,0.06433,8.583e-06,0.0002785,0.06702,0.0009289,3.994,0.01223,0,1,0
86400000000,86700000000,1843579567,0,351650065,0.007996,0.06433,0.0835,0.001078,0.02695,0.06433,6.676e-06,0.0002785,0.09619,0.0006428,4.116,0.0134,0,1,0
86700000000,87000000000,1843579567,0,351650065,0.007599,0.06433,0.0835,0.001081,0.02695,0.06433,1.335e-05,0.0002785,0.03204,0.002998,4.088,0.01417,0,1,0
87000000000,87300000000,1843579567,0,351650065,0.008881,0.06433,0.0835,0.001116,0.02698,0.06433,1.049e-05,0.0002766,0.06506,0.0009289,4.077,0.0133,0,1,0
87300000000,87600000000,1843579567,0,351650065,0.007919,0.06433,0.0835,0.000721,0.02658,0.06433,5.722e-06,0.0002775,0.02567,0.0007143,4.13,0.01293,0,1,0
87600000000,87900000000,1843579567,0,351650065,0.008423,0.06433,0.0835,0.0007868,0.02664,0.06433,8.583e-06,0.0002775,0.0636,0.001072,4.043,0.01335,0,1,0
87900000000,88200000000,1843579567,0,351650065,0.008408,0.06433,0.0835,0.0008516,0.0267,0.06433,6.676e-06,0.0002775,0.03796,0.0007143,3.965,0.01261,0,1,0
88200000000,88500000000,1843579567,0,351650065,0.008942,0.06433,0.0835,0.0009184,0.02676,0.06433,2.289e-05,0.0002775,0.06165,0.004074,4.118,0.01308,0,1,0
88500000000,88800000000,1843579567,0,351650065,0.009186,0.06433,0.0835,0.000988,0.02686,0.06433,9.537e-06,0.0002775,0.04065,0.0005713,4.272,0.01397,0,1,0
88800000000,89100000000,1843579567,0,351650065,0.009125,0.06433,0.0835,0.001059,0.02692,0.06433,1.144e-05,0.0002775,0.04132,0.0007858,4.243,0.01415,0,1,0
89100000000,89400000000,1843579567,0,351650065,0.008698,0.06433,0.0835,0.001125,0.02698,0.06433,1.335e-05,0.0002785,0.03778,0.001715,4.216,0.01463,0,1,0
89400000000,89700000000,1843579567,0,351650065,0.01004,0.06433,0.0835,0.001188,0.02704,0.06433,8.583e-06,0.0002785,0.06335,0.0004997,4.386,0.01424,0,1,0
89700000000,90000000000,1843579567,0,351650065,0.009201,0.06433,0.0835,0.001209,0.02707,0.06433,1.907e-05,0.0002785,0.06958,0.001572,4.454,0.01502,0,1,0
90000000000,90300000000,1843579567,0,351650065,0.009598,0.06433,0.0835,0.001257,0.02713,0.06433,1.431e-05,0.0002785,0.05499,0.0009995,4.344,0.01495,0,1,0
90300000000,90600000000,1843579567,0,351650065,0.009109,0.06433,0.0835,0.001228,0.0271,0.06433,1.717e-05,0.0002785,0.03619,0.002357,4.077,0.01345,0,1,0
90600000000,90900000000,1843579567,0,351650065,0.008484,0.06433,0.0835,0.001139,0.02701,0.06433,1.049e-05,0.0002766,0.05054,0.0007858,3.884,0.01252,0,1,0
101100000000,101400000000,1843579567,0,351650065,0.003788,0.06433,0.0835,0.0007162,0.02658,0.06433,1.907e-06,0.0002775,0.03925,0.0004997,4.269,0.01472,0,1,0
101400000000,101700000000,1843579567,0,351650065,0.006439,0.06433,0.0835,0.0007582,0.02661,0.06433,7.629e-06,0.0002775,0.05664,0.0007143,4.048,0.01342,0,1,0
101700000000,102000000000,1843579567,0,351650065,0.004547,0.06433,0.0835,0.0007982,0.02667,0.06433,2.098e-05,0.0002775,0.0484,0.002785,4.044,0.01382,0,1,0
102000000000,102300000000,1843579567,0,351650065,0.004898,0.06433,0.0835,0.0008259,0.02667,0.06445,1.526e-05,0.0002775,0.04999,0.003357,4.212,0.01453,0,1,0
102300000000,102600000000,1843579567,0,351650065,0.004562,0.06433,0.0835,0.0008535,0.0267,0.06433,1.049e-05,0.0002775,0.06311,0.001785,4.407,0.01558,0,1,0
102600000000,102900000000,1843579567,0,351650065,0.003811,0.06433,0.0835,0.0008698,0.02673,0.06433,1.049e-05,0.0002775,0.04095,0.001143,4.111,0.01424,0,1,0
102900000000,103200000000,1843579567,0,351650065,0.003983,0.06433,0.0835,0.0008926,0.02676,0.06433,1.907e-06,0.0002775,0.04633,0.0003567,4.404,0.01523,0,1,0
103200000000,103500000000,1843579567,0,351650065,0.004181,0.06433,0.0835,0.0009193,0.02679,0.06433,7.629e-06,0.0002775,0.05469,0.001715,4.466,0.01552,0,1,0
103500000000,103800000000,1843579567,0,351650065,0.004288,0.06433,0.0835,0.0009499,0.02682,0.06433,7.629e-06,0.0002775,0.04895,0.001215,4.42,0.01523,0,1,0
103800000000,104100000000,1843579567,0,351650065,0.004105,0.06433,0.0835,0.0009279,0.02679,0.06433,7.629e-06,0.0002785,0.03595,0.0009289,4.604,0.01641,0,1,0
104100000000,104400000000,1843579567,0,351650065,0.004021,0.06433,0.0835,0.0009317,0.02679,0.06433,8.583e-06,0.0002785,0.04474,0.0007143,4.387,0.01543,0,1,0
104400000000,104700000000,1843579567,0,351650065,0.003929,0.06433,0.0835,0.000947,0.02679,0.06433,5.722e-06,0.0002785,0.0401,0.0007858,4.899,0.01687,0,1,0
104700000000,105000000000,1843579567,0,351650065,0.003902,0.06433,0.0835,0.0009565,0.02682,0.06433,6.676e-06,0.0002785,0.06555,0.0009995,4.301,0.01463,0,1,0
105000000000,105300000000,1843579567,0,351650065,0.003502,0.06433,0.0835,0.0009556,0.02682,0.06433,2.861e-06,0.0002785,0.03937,0.0002861,4.536,0.01593,0,1,0
105300000000,105600000000,1843579567,0,351650065,0.003628,0.06433,0.0835,0.0009651,0.02682,0.06433,1.907e-06,0.0002785,0.05249,0.0001431,4.625,0.01625,0,1,0
105600000000,105900000000,1843579567,0,351650065,0.003651,0.06433,0.0835,0.0009737,0.02682,0.06433,6.676e-06,0.0002785,0.04272,0.0008574,4.497,0.01604,0,1,0
105900000000,106200000000,1843579567,0,351650065,0.00322,0.06433,0.0835,0.0009565,0.02682,0.06445,1.907e-06,0.0002785,0.02252,0.0002146,4.443,0.01525,0,1,0
106200000000,106500000000,1843579567,0,351650065,0.002796,0.06433,0.0835,0.0009613,0.02682,0.06445,1.907e-06,0.0002785,0.02939,0.0004282,4.204,0.01433,0,1,0
106500000000,106800000000,1843579567,0,351650065,0.002872,0.06433,0.0835,0.0009527,0.02682,0.06445,1.907e-06,0.0002785,0.02515,0.0003567,4.531,0.01589,0,1,0
106800000000,107100000000,1843579567,0,351650065,0.002712,0.06433,0.0835,0.0009661,0.02682,0.06445,4.768e-06,0.0002785,0.04919,0.0006428,4.217,0.01447,0,1,0
107100000000,107400000000,1843579567,0,351650065,0.002697,0.06433,0.0835,0.0009651,0.02682,0.06445,3.815e-06,0.0002785,0.01953,0.0005713,4.648,0.01661,0,1,0
107400000000,107700000000,1843579567,0,351650065,0.003006,0.06433,0.0835,0.0009737,0.02682,0.06445,3.815e-06,0.0002785,0.06158,0.0007143,4.408,0.01535,0,1,0
107700000000,108000000000,1843579567,0,351650065,0.002808,0.06433,0.0835,0.0009718,0.02682,0.06445,1.907e-06,0.0002785,0.05121,0.0004282,4.742,0.01646,0,1,0
108000000000,108300000000,1843579567,0,351650065,0.002522,0.06433,0.0835,0.0009546,0.02682,0.06445,1.907e-06,0.0002775,0.03558,0.0004997,4.242,0.01461,0,1,0
108300000000,108600000000,1843579567,0,351650065,0.002277,0.06433,0.0835,0.0009651,0.02682,0.06445,1.049e-05,0.0002766,0.01846,0.002857,4.372,0.01556,0,1,0
108600000000,108900000000,1843579567,0,351650065,0.002129,0.06433,0.0835,0.000968,0.02682,0.06445,2.861e-06,0.0002766,0.02853,0.0003567,4.643,0.01705,0,1,0
108900000000,109200000000,1843579567,0,351650065,0.002102,0.06433,0.0835,0.0006123,0.02646,0.06445,1.049e-05,0.0002766,0.01675,0.002857,4.558,0.01609,0,1,0
109200000000,109500000000,1843579567,0,351650065,0.002171,0.06445,0.0835,0.0005779,0.02643,0.06445,1.907e-06,0.0002766,0.02237,0.0003567,4.638,0.01682,0,1,0
109500000000,109800000000,1843579567,0,351650065,0.002258,0.06433,0.0835,0.0005922,0.02646,0.06445,1.907e-06,0.0002766,0.0257,0.0002861,4.726,0.01629,0,1,0
109800000000,110100000000,1843579567,0,351650065,0.001957,0.06445,0.0835,0.0006056,0.02646,0.06445,1.144e-05,0.0002775,0.03931,0.001642,4.575,0.01587,0,1,0
110100000000,110400000000,1843579567,0,351650065,0.001869,0.06445,0.0835,0.0006237,0.02649,0.06445,4.768e-06,0.0002775,0.02078,0.0003567,4.659,0.01754,0,1,0
110400000000,110700000000,1843579567,0,351650065,0.00168,0.06433,0.0835,0.0006361,0.02649,0.06445,3.815e-06,0.0002775,0.02197,0.0009289,4.665,0.01767,0,1,0
110700000000,111000000000,1843579567,0,351650065,0.001713,0.06445,0.0835,0.0006475,0.02652,0.06445,4.768e-06,0.0002775,0.01682,0.001215,4.657,0.01747,0,1,0
116100000000,116400000000,1843579567,0,351650065,0.001415,0.06433,0.0835,0.0008383,0.0267,0.06433,1.907e-06,0.0002775,0.04321,0.0002146,4.708,0.01713,0,1,0
116400000000,116700000000,1843579567,0,351650065,0.001465,0.06433,0.0835,0.0008421,0.0267,0.06433,6.676e-06,0.0002775,0.02469,0.001499,4.811,0.0175,0,1,0
116700000000,117000000000,1843579567,0,351650065,0.001348,0.06433,0.0835,0.0008411,0.0267,0.06433,3.815e-06,0.0002775,0.0127,0.0002861,5.021,0.01902,0,1,0
117000000000,117300000000,1843579567,0,351650065,0.001358,0.06433,0.0835,0.0008488,0.0267,0.06433,1.907e-06,0.0002775,0.02054,0.0003567,5.116,0.01993,0,1,0
117300000000,117600000000,1843579567,0,351650065,0.001266,0.06433,0.0835,0.0008488,0.0267,0.06433,2.861e-06,0.0002775,0.01442,0.0002146,5.04,0.01979,0,1,0
117600000000,117900000000,1843579567,0,351650065,0.001171,0.06433,0.0835,0.0008535,0.0267,0.06433,9.537e-07,0.0002775,0.01378,0.0001783,5.06,0.01987,0,1,0
117900000000,118200000000,1843579567,0,351650065,0.001165,0.06433,0.0835,0.0008488,0.0267,0.06433,1.907e-06,0.0002775,0.02628,0.0006428,5.397,0.02131,0,1,0
118200000000,118500000000,1843579567,0,351650065,0.001341,0.06433,0.0835,0.0008535,0.0267,0.06433,7.629e-06,0.0002775,0.03055,0.0006428,4.617,0.01726,0,1,0
118500000000,118800000000,1843579567,0,351650065,0.001253,0.06433,0.0835,0.0008554,0.0267,0.06433,4.768e-06,0.0002775,0.01813,0.0007858,5.149,0.02021,0,1,0
118800000000,119100000000,1843579567,0,351650065,0.001423,0.06433,0.0835,0.0008564,0.0267,0.06433,9.537e-07,0.0002775,0.01527,0.0001431,4.663,0.01726,0,1,0
119100000000,119400000000,1843579567,0,351650065,0.001303,0.06433,0.0835,0.0008631,0.02673,0.06433,3.815e-06,0.0002775,0.0107,0.0007143,5.234,0.02051,0,1,0
119400000000,119700000000,1843579567,0,351650065,0.001478,0.06433,0.0835,0.000865,0.02673,0.06433,9.537e-07,0.0002775,0.02188,0.0002146,4.788,0.01604,0,1,0
119700000000,120000000000,1843579567,0,351650065,0.001511,0.06433,0.0835,0.0008669,0.02673,0.06433,1.24e-05,0.0002775,0.01227,0.0007143,4.991,0.01932,0,1,0
120000000000,120300000000,1843579567,0,351650065,0.00157,0.06433,0.0835,0.0008717,0.02673,0.06433,4.768e-06,0.0002775,0.01131,0.0005713,4.783,0.01814,0,1,0
120300000000,120600000000,1843579567,0,351650065,0.001781,0.06433,0.0835,0.0008812,0.02673,0.06433,7.629e-06,0.0002775,0.006241,0.0006428,5.223,0.02054,0,1,0
120600000000,120900000000,1843579567,0,351650065,0.001659,0.06433,0.08362,0.0008917,0.02676,0.06433,4.768e-06,0.0002775,0.01068,0.0005713,4.999,0.01961,0,1,0
126000000000,126300000000,1843579567,0,351650065,0.001104,0.06433,0.0835,0.0009089,0.02676,0.06433,9.537e-07,0.0002785,0.01685,0.0001431,4.936,0.01882,0,1,0
126300000000,126600000000,1843579567,0,351650065,0.001184,0.06433,0.0835,0.0009079,0.02676,0.06433,9.537e-07,0.0002785,0.02225,0.0001431,5.047,0.02028,0,1,0
126600000000,126900000000,1843579567,0,351650065,0.00123,0.06433,0.0835,0.0009089,0.02676,0.06433,3.815e-06,0.0002785,0.03491,0.001072,4.827,0.01863,0,1,0
126900000000,127200000000,1843579567,0,351650065,0.001276,0.06433,0.0835,0.0009108,0.02676,0.06433,5.722e-06,0.0002785,0.02814,0.001785,4.755,0.01756,0,1,0
127200000000,127500000000,1843579567,0,351650065,0.001179,0.06433,0.0835,0.0009136,0.02676,0.06433,3.815e-06,0.0002785,0.02216,0.0007143,4.594,0.01705,0,1,0
127500000000,127800000000,1843579567,0,351650065,0.001257,0.06433,0.0835,0.0009184,0.02679,0.06433,3.815e-06,0.0002785,0.02576,0.0005713,4.784,0.01818,0,1,0
127800000000,128100000000,1843579567,0,351650065,0.001204,0.06433,0.0835,0.0009222,0.02679,0.06433,2.861e-06,0.0002785,0.0202,0.0007143,4.617,0.01692,0,1,0
128100000000,128400000000,1843579567,0,351650065,0.001276,0.06433,0.0835,0.000927,0.02679,0.06433,2.098e-05,0.0002785,0.02194,0.004211,4.404,0.0164,0,1,0
128400000000,128700000000,1843579567,0,351650065,0.001308,0.06433,0.0835,0.0009308,0.02679,0.06433,5.722e-06,0.0002785,0.0107,0.0009289,4.572,0.01687,0,1,0
128700000000,129000000000,1843579567,0,351650065,0.001448,0.06433,0.0835,0.0009298,0.02679,0.06433,6.676e-06,0.0002785,0.03931,0.0007143,4.348,0.01575,0,1,0
129000000000,129300000000,1843579567,0,351650065,0.001501,0.06433,0.0835,0.0009298,0.02679,0.06433,2.861e-06,0.0002785,0.02411,0.0003567,4.386,0.01561,0,1,0
129300000000,129600000000,1843579567,0,351650065,0.001644,0.06433,0.0835,0.000926,0.02679,0.06433,4.768e-06,0.0002785,0.01895,0.0006428,4.712,0.01741,0,1,0
129600000000,129900000000,1843579567,0,351650065,0.001497,0.06433,0.0835,0.0009279,0.02679,0.06433,3.815e-06,0.0002785,0.03418,0.0006428,4.475,0.01603,0,1,0
129900000000,130200000000,1843579567,0,351650065,0.001558,0.06433,0.0835,0.0009346,0.02679,0.06433,1.907e-06,0.0002785,0.01555,0.0004282,4.984,0.01825,0,1,0
130200000000,130500000000,1843579567,0,351650065,0.001747,0.06433,0.0835,0.0009451,0.02679,0.06433,2.861e-06,0.0002785,0.04279,0.0006428,4.406,0.01529,0,1,0
130500000000,130800000000,1843579567,0,351650065,0.00176,0.06433,0.0835,0.0009489,0.02682,0.06433,2.861e-06,0.0002785,0.03113,0.0006428,4.466,0.0157,0,1,0
130800000000,131100000000,1843579567,0,351650065,0.001865,0.06433,0.0835,0.0009537,0.02682,0.06445,3.815e-06,0.0002785,0.02945,0.0007858,4.734,0.01708,0,1,0
141000000000,141300000000,1843579567,0,351650065,0.003113,0.06433,0.0835,0.0009499,0.02682,0.06433,1.24e-05,0.0002785,0.04218,0.0008574,4.338,0.01582,0,1,0
141300000000,141600000000,1843579567,0,351650065,0.003162,0.06433,0.0835,0.0009661,0.02682,0.06433,1.621e-05,0.0002785,0.02246,0.001143,4.123,0.01438,0,1,0
141600000000,141900000000,1843579567,0,351650065,0.003242,0.06433,0.0835,0.0009785,0.02682,0.06433,2.003e-05,0.0002785,0.0481,0.001715,4.226,0.01502,0,1,0
141900000000,142200000000,1843579567,0,351650065,0.003036,0.06433,0.0835,0.001001,0.02686,0.06433,3.815e-06,0.0002785,0.02164,0.0006428,4.359,0.01561,0,1,0
142200000000,142500000000,1843579567,0,351650065,0.003159,0.06433,0.0835,0.0009975,0.02686,0.06433,6.676e-06,0.0002785,0.03546,0.0006428,4.229,0.01478,0,1,0
142500000000,142800000000,1843579567,0,351650065,0.003494,0.06433,0.0835,0.0009937,0.02686,0.06433,1.049e-05,0.0002785,0.03918,0.001785,4.375,0.01541,0,1,0
142800000000,143100000000,1843579567,0,351650065,0.003429,0.06433,0.0835,0.0009956,0.02686,0.06433,2.861e-06,0.0002785,0.03067,0.0002861,4.532,0.01576,0,1,0
143100000000,143400000000,1843579567,0,351650065,0.003426,0.06433,0.0835,0.001015,0.02689,0.06433,2.861e-06,0.0002785,0.03412,0.0001431,4.431,0.01563,0,1,0
143400000000,143700000000,1843579567,0,351650065,0.003742,0.06433,0.0835,0.0009975,0.02686,0.06433,6.676e-06,0.0002785,0.03116,0.0004282,4.488,0.01518,0,1,0
143700000000,144000000000,1843579567,0,351650065,0.003426,0.06433,0.0835,0.0009956,0.02686,0.06433,5.722e-06,0.0002785,0.01965,0.0006428,4.641,0.01639,0,1,0
144000000000,144300000000,1843579567,0,351650065,0.003632,0.06433,0.0835,0.0009785,0.02682,0.06433,5.722e-06,0.0002766,0.03406,0.0004282,4.274,0.01543,0,1,0
144300000000,144600000000,1843579567,0,351650065,0.003315,0.06433,0.0835,0.0009193,0.02679,0.06433,4.768e-06,0.0002766,0.02417,0.0004997,4.407,0.01613,0,1,0
144600000000,144900000000,1843579567,0,351650065,0.003578,0.06433,0.0835,0.0005503,0.0264,0.06433,3.815e-06,0.0002766,0.03235,0.0003567,4.356,0.01554,0,1,0
144900000000,145200000000,1843579567,0,351650065,0.003437,0.06433,0.0835,0.0005751,0.02643,0.06433,4.768e-06,0.0002775,0.02429,0.0006428,4.177,0.01504,0,1,0
145200000000,145500000000,1843579567,0,351650065,0.003483,0.06433,0.0835,0.000598,0.02646,0.06433,4.768e-06,0.0002775,0.03369,0.0004282,4.066,0.01332,0,1,0
145500000000,145800000000,1843579567,0,351650065,0.003376,0.06433,0.0835,0.0006285,0.02649,0.06433,2.861e-06,0.0002775,0.03571,0.0002861,4.228,0.01464,0,1,0
145800000000,146100000000,1843579567,0,351650065,0.00346,0.06433,0.0835,0.0006533,0.02652,0.06433,5.722e-06,0.0002775,0.03833,0.0007143,4.499,0.0157,0,1,0
151200000000,151500000000,1843579567,0,351650065,0.004074,0.06433,0.0835,0.001162,0.02704,0.06433,1.144e-05,0.0002785,0.02716,0.001358,4.19,0.0145,0,1,0
151500000000,151800000000,1843579567,0,351650065,0.004242,0.06433,0.0835,0.001196,0.02707,0.06433,1.431e-05,0.0002785,0.01855,0.001143,4.078,0.01405,0,1,0
151800000000,152100000000,1843579567,0,351650065,0.003975,0.06433,0.08362,0.001226,0.0271,0.06433,1.717e-05,0.0002785,0.02914,0.001785,4.232,0.01484,0,1,0
152100000000,152400000000,1843579567,0,351650065,0.00415,0.06433,0.08362,0.001257,0.02713,0.06433,5.722e-06,0.0002766,0.0275,0.0005713,4.218,0.01419,0,1,0
152400000000,152700000000,1843579567,0,351650065,0.004097,0.06433,0.0835,0.0008593,0.02673,0.06433,6.676e-06,0.0002766,0.03906,0.0004997,4.183,0.01446,0,1,0
152700000000,153000000000,1843579567,0,351650065,0.004059,0.06433,0.0835,0.000535,0.0264,0.06433,3.815e-06,0.0002766,0.03259,0.0003567,4.285,0.01472,0,1,0
153000000000,153300000000,1843579567,0,351650065,0.003418,0.06433,0.0835,0.0005617,0.02643,0.06433,7.629e-06,0.0002775,0.0289,0.001072,4.648,0.01659,0,1,0
153300000000,153600000000,1843579567,0,351650065,0.003281,0.06433,0.0835,0.0005856,0.02646,0.06433,4.768e-06,0.0002775,0.01233,0.0004997,4.403,0.01525,0,1,0
153600000000,153900000000,1843579567,0,351650065,0.003304,0.06433,0.0835,0.0006084,0.02646,0.06433,2.861e-06,0.0002775,0.0264,0.0002861,4.502,0.01584,0,1,0
153900000000,154200000000,1843579567,0,351650065,0.003345,0.06433,0.0835,0.0006323,0.02649,0.06433,3.815e-06,0.0002775,0.01593,0.0002146,4.633,0.01699,0,1,0
154200000000,154500000000,1843579567,0,351650065,0.003227,0.06433,0.0835,0.0006561,0.02652,0.06433,6.676e-06,0.0002775,0.0376,0.0009995,4.775,0.01795,0,1,0
154500000000,154800000000,1843579567,0,351650065,0.002872,0.06433,0.0835,0.0006781,0.02655,0.06433,2.861e-06,0.0002775,0.0437,0.0002861,4.838,0.01825,0,1,0
154800000000,155100000000,1843579567,0,351650065,0.002754,0.06433,0.0835,0.0006933,0.02655,0.06433,9.537e-07,0.0002775,0.01073,0.0001431,4.773,0.01727,0,1,0
155100000000,155400000000,1843579567,0,351650065,0.002903,0.06433,0.0835,0.0007181,0.02658,0.06433,7.629e-06,0.0002775,0.01935,0.0009289,4.446,0.01585,0,1,0
155400000000,155700000000,1843579567,0,351650065,0.003181,0.06433,0.0835,0.000741,0.02661,0.06433,1.812e-05,0.0002775,0.03174,0.003998,4.629,0.01672,0,1,0
155700000000,156000000000,1843579567,0,351650065,0.003098,0.06433,0.0835,0.0007639,0.02661,0.06433,1.907e-06,0.0002775,0.02545,0.0001431,4.382,0.01555,0,1,0
161100000000,161400000000,1843579567,0,351650065,0.003006,0.06433,0.0835,0.001019,0.02689,0.06433,7.629e-06,0.0002785,0.03534,0.0007143,4.39,0.01589,0,1,0
161400000000,161700000000,1843579567,0,351650065,0.003181,0.06433,0.08362,0.00104,0.02689,0.06433,4.768e-06,0.0002785,0.03577,0.0009289,4.762,0.01702,0,1,0
161700000000,162000000000,1843579567,0,351650065,0.003033,0.06433,0.08362,0.001062,0.02692,0.06433,1.907e-06,0.0002785,0.02652,0.0002146,4.587,0.01587,0,1,0
162000000000,162300000000,1843579567,0,351650065,0.003128,0.06433,0.08362,0.001085,0.02695,0.06433,2.861e-06,0.0002785,0.03687,0.0002861,4.202,0.01379,0,1,0
162300000000,162600000000,1843579567,0,351650065,0.002945,0.06433,0.0835,0.001089,0.02695,0.06433,3.815e-06,0.0002775,0.03809,0.0002146,4.46,0.01545,0,1,0
162600000000,162900000000,1843579567,0,351650065,0.003132,0.06433,0.0835,0.001101,0.02695,0.06433,2.861e-06,0.0002766,0.02707,0.0002146,4.575,0.01535,0,1,0
162900000000,163200000000,1843579567,0,351650065,0.003128,0.06433,0.08362,0.001123,0.02698,0.06433,4.768e-06,0.0002766,0.01819,0.0005713,4.504,0.01502,0,1,0
163200000000,163500000000,1843579567,0,351650065,0.002945,0.06433,0.08362,0.001144,0.02701,0.06433,6.676e-06,0.0002766,0.04895,0.0006428,4.498,0.01539,0,1,0
163500000000,163800000000,1843579567,0,351650065,0.00304,0.06433,0.08362,0.001165,0.02704,0.06433,1.907e-06,0.0002775,0.02692,0.0001431,4.522,0.01673,0,1,0
163800000000,164100000000,1843579567,0,351650065,0.002926,0.06433,0.08362,0.001186,0.02704,0.06433,3.815e-06,0.0002775,0.009674,0.0003567,4.722,0.01749,0,1,0
164100000000,164400000000,1843579567,0,351650065,0.003014,0.06433,0.08362,0.001207,0.02707,0.06433,2.861e-06,0.0002775,0.08154,0.0003567,4.618,0.01717,0,1,0
164400000000,164700000000,1843579567,0,351650065,0.003227,0.06433,0.08362,0.001228,0.0271,0.06433,1.24e-05,0.0002775,0.02527,0.001928,4.33,0.01492,0,1,0
164700000000,165000000000,1843579567,0,351650065,0.002987,0.06433,0.0835,0.0009613,0.02682,0.06433,9.537e-06,0.0002775,0.02792,0.001072,4.412,0.01493,0,1,0
165000000000,165300000000,1843579567,0,351650065,0.003006,0.06433,0.0835,0.0006599,0.02652,0.06433,7.629e-06,0.0002775,0.02646,0.0008574,4.291,0.01484,0,1,0
165300000000,165600000000,1843579567,0,351650065,0.002941,0.06433,0.0835,0.0006838,0.02655,0.06433,4.768e-06,0.0002775,0.03046,0.0004282,4.483,0.01583,0,1,0
165600000000,165900000000,1843579567,0,351650065,0.002884,0.06433,0.0835,0.0007057,0.02658,0.06433,9.537e-06,0.0002775,0.02313,0.0008574,4.385,0.01575,0,1,0
165900000000,166200000000,1843579567,0,351650065,0.003021,0.06433,0.0835,0.0007286,0.02658,0.06433,2.861e-06,0.0002775,0.02451,0.0002146,4.518,0.0164,0,1,0
166200000000,166500000000,1843579567,0,351650065,0.002937,0.06433,0.0835,0.0007515,0.02661,0.06433,8.583e-06,0.0002775,0.04871,0.0009289,4.493,0.01631,0,1,0
166500000000,166800000000,1843579567,0,351650065,0.00304,0.06433,0.0835,0.0007734,0.02664,0.06433,1.24e-05,0.0002775,0.05121,0.001072,4.361,0.01534,0,1,0
166800000000,167100000000,1843579567,0,351650065,0.00317,0.06433,0.0835,0.0007944,0.02664,0.06433,9.537e-06,0.0002775,0.03058,0.001215,4.674,0.01697,0,1,0
167100000000,167400000000,1843579567,0,351650065,0.003281,0.06433,0.0835,0.0008163,0.02667,0.06433,7.629e-06,0.0002775,0.02954,0.001143,4.388,0.01586,0,1,0
167400000000,167700000000,1843579567,0,351650065,0.003613,0.06433,0.0835,0.0008421,0.0267,0.06433,7.629e-06,0.0002775,0.03699,0.0007858,4.263,0.01522,0,1,0
167700000000,168000000000,1843579567,0,351650065,0.003513,0.06433,0.0835,0.0008698,0.02673,0.06433,1.049e-05,0.0002775,0.04895,0.001215,4.32,0.01541,0,1,0
168000000000,168300000000,1843579567,0,351650065,0.003658,0.06433,0.0835,0.0008984,0.02676,0.06433,2.003e-05,0.0002775,0.03473,0.002213,4.06,0.01415,0,1,0
168300000000,168600000000,1843579567,0,351650065,0.003819,0.06433,0.0835,0.0009289,0.02679,0.06433,1.24e-05,0.0002775,0.03,0.0009289,4.067,0.01457,0,1,0
168600000000,168900000000,1843579567,0,351650065,0.003834,0.06433,0.0835,0.0009594,0.02682,0.06433,1.621e-05,0.0002785,0.04041,0.001072,4.091,0.01462,0,1,0
168900000000,169200000000,1843579567,0,351650065,0.003696,0.06433,0.0835,0.000988,0.02686,0.06433,7.629e-06,0.0002785,0.03424,0.001143,4.083,0.0147,0,1,0
169200000000,169500000000,1843579567,0,351650065,0.003883,0.06433,0.0835,0.00102,0.02689,0.06433,1.907e-05,0.0002785,0.02612,0.001286,4.003,0.01417,0,1,0
169500000000,169800000000,1843579567,0,351650065,0.003929,0.06433,0.0835,0.001053,0.02692,0.06433,1.144e-05,0.0002785,0.04053,0.001215,4.063,0.01435,0,1,0
169800000000,170100000000,1843579567,0,351650065,0.004211,0.06433,0.0835,0.00108,0.02695,0.06433,1.621e-05,0.0002785,0.04932,0.001358,4.281,0.0149,0,1,0
170100000000,170400000000,1843579567,0,351650065,0.004524,0.06433,0.0835,0.001053,0.02692,0.06433,1.144e-05,0.0002785,0.05017,0.0007858,4.537,0.01616,0,1,0
170400000000,170700000000,1843579567,0,351650065,0.004456,0.06433,0.0835,0.001076,0.02695,0.06433,4.768e-06,0.0002785,0.01718,0.0004282,4.365,0.01518,0,1,0
170700000000,171000000000,1843579567,0,351650065,0.0047,0.06433,0.0835,0.001106,0.02698,0.06433,5.722e-06,0.0002785,0.03345,0.0007143,4.174,0.01433,0,1,0
171000000000,171300000000,1843579567,0,351650065,0.00457,0.06433,0.0835,0.001133,0.02701,0.06433,4.768e-06,0.0002785,0.03906,0.0002861,4.373,0.01558,0,1,0
171300000000,171600000000,1843579567,0,351650065,0.004738,0.06433,0.0835,0.001169,0.02704,0.06433,6.676e-06,0.0002775,0.03461,0.0007143,4.339,0.01468,0,1,0
171600000000,171900000000,1843579567,0,351650065,0.004578,0.06433,0.0835,0.00119,0.02704,0.06433,5.722e-06,0.0002766,0.02411,0.0006428,4.42,0.01499,0,1,0
171900000000,172200000000,1843579567,0,351650065,0.005348,0.06433,0.0835,0.0005341,0.0264,0.06433,3.815e-06,0.0002766,0.03595,0.0002146,4.476,0.01516,0,1,0
172200000000,172500000000,1843579567,0,351650065,0.00502,0.06433,0.0835,0.0005713,0.02643,0.06433,3.815e-06,0.0002775,0.02109,0.0001431,4.506,0.01515,0,1,0
172500000000,172800000000,1843579567,0,351650065,0.005028,0.06433,0.0835,0.0006075,0.02646,0.06433,2.861e-06,0.0002775,0.04077,0.0002146,4.654,0.01612,0,1,0
172800000000,173100000000,1843579567,0,351650065,0.005585,0.06433,0.0835,0.0006456,0.02652,0.06433,9.537e-06,0.0002775,0.02356,0.001286,4.62,0.01628,0,1,0
173100000000,173400000000,1843579567,0,351650065,0.005516,0.06433,0.0835,0.0006847,0.02655,0.06433,8.583e-06,0.0002775,0.03619,0.001143,4.582,0.01645,0,1,0
173400000000,173700000000,1843579567,0,351650065,0.005806,0.06433,0.0835,0.0007238,0.02658,0.06433,3.815e-06,0.0002775,0.03687,0.0003567,4.435,0.01534,0,1,0
173700000000,174000000000,1843579567,0,351650065,0.005264,0.06433,0.0835,0.000762,0.02661,0.06433,7.629e-06,0.0002775,0.0278,0.0007858,4.587,0.01579,0,1,0
174000000000,174300000000,1843579567,0,351650065,0.005951,0.06433,0.0835,0.0008001,0.02667,0.06433,7.629e-06,0.0002775,0.04523,0.0007143,4.525,0.01559,0,1,0
174300000000,174600000000,1843579567,0,351650065,0.006317,0.06433,0.0835,0.0008421,0.0267,0.06433,3.815e-06,0.0002775,0.03104,0.0002861,4.462,0.01513,0,1,0
174600000000,174900000000,1843579567,0,351650065,0.005943,0.06433,0.0835,0.0008888,0.02676,0.06433,1.049e-05,0.0002775,0.0531,0.0008574,4.222,0.01414,0,1,0
174900000000,175200000000,1843579567,0,351650065,0.006081,0.06433,0.0835,0.0009327,0.02679,0.06433,1.335e-05,0.0002775,0.03552,0.0009995,4.334,0.01452,0,1,0
175200000000,175500000000,1843579567,0,351650065,0.00592,0.06433,0.0835,0.0009708,0.02682,0.06433,1.431e-05,0.0002785,0.02579,0.001429,4.131,0.01382,0,1,0
175500000000,175800000000,1843579567,0,351650065,0.007118,0.06433,0.0835,0.0009375,0.02679,0.06433,1.621e-05,0.0002785,0.04175,0.0009289,4.334,0.01468,0,1,0
175800000000,176100000000,1843579567,0,351650065,0.006813,0.06433,0.0835,0.0009651,0.02682,0.06433,3.815e-06,0.0002785,0.06653,0.0002861,4.468,0.015,0,1,0
186300000000,186600000000,1843579567,0,351650065,0.002705,0.06433,0.0835,0.0006638,0.02652,0.06433,1.717e-05,0.0002775,0.03619,0.001642,4.615,0.01677,0,1,0
186600000000,186900000000,1843579567,0,351650065,0.002762,0.06433,0.0835,0.0006819,0.02655,0.06433,3.815e-06,0.0002775,0.04333,0.0007858,4.504,0.01606,0,1,0
186900000000,187200000000,1843579567,0,351650065,0.002769,0.06433,0.0835,0.000699,0.02655,0.06433,7.629e-06,0.0002775,0.02112,0.001572,4.711,0.01694,0,1,0
187200000000,187500000000,1843579567,0,351650065,0.002544,0.06433,0.0835,0.0007162,0.02658,0.06433,4.768e-06,0.0002775,0.01672,0.0009995,4.695,0.01663,0,1,0
187500000000,187800000000,1843579567,0,351650065,0.002346,0.06433,0.0835,0.0007353,0.02661,0.06433,6.676e-06,0.0002775,0.01904,0.0007858,4.548,0.0162,0,1,0
187800000000,188100000000,1843579567,0,351650065,0.003067,0.06433,0.0835,0.0007563,0.02661,0.06433,5.722e-06,0.0002775,0.03644,0.0004997,4.235,0.01498,0,1,0
188100000000,188400000000,1843579567,0,351650065,0.00267,0.06433,0.0835,0.0007763,0.02664,0.06433,8.583e-06,0.0002775,0.03613,0.0006428,4.318,0.01552,0,1,0
188400000000,188700000000,1843579567,0,351650065,0.00264,0.06433,0.0835,0.0007954,0.02664,0.06433,8.583e-06,0.0002775,0.02466,0.0009995,4.347,0.01537,0,1,0
188700000000,189000000000,1843579567,0,351650065,0.002468,0.06433,0.0835,0.0008135,0.02667,0.06433,6.676e-06,0.0002775,0.03534,0.001429,4.229,0.01463,0,1,0
189000000000,189300000000,1843579567,0,351650065,0.002483,0.06433,0.0835,0.0008307,0.0267,0.06433,4.768e-06,0.0002775,0.02478,0.0007143,4.343,0.01515,0,1,0
189300000000,189600000000,1843579567,0,351650065,0.002533,0.06433,0.0835,0.000845,0.0267,0.06433,6.676e-06,0.0002775,0.03284,0.001429,4.528,0.01595,0,1,0
189600000000,189900000000,1843579567,0,351650065,0.002186,0.06433,0.0835,0.0008602,0.02673,0.06433,9.537e-07,0.0002775,0.03607,0.0001431,4.842,0.01701,0,1,0
189900000000,190200000000,1843579567,0,351650065,0.002007,0.06433,0.0835,0.0008755,0.02673,0.06433,1.907e-06,0.0002775,0.04474,0.0002146,4.295,0.01452,0,1,0
190200000000,190500000000,1843579567,0,351650065,0.002022,0.06433,0.0835,0.0008659,0.02673,0.06433,4.768e-06,0.0002775,0.05157,0.0003567,4.537,0.01599,0,1,0
190500000000,190800000000,1843579567,0,351650065,0.001823,0.06433,0.0835,0.0008783,0.02673,0.06433,9.537e-07,0.0002775,0.02463,7.153e-05,4.613,0.01648,0,1,0
190800000000,191100000000,1843579567,0,351650065,0.001898,0.06433,0.0835,0.0008917,0.02676,0.06433,1.907e-06,0.0002775,0.02328,0.0001431,4.848,0.01684,0,1,0
191100000000,191400000000,1843579567,0,351650065,0.002022,0.06433,0.0835,0.000885,0.02673,0.06433,9.537e-07,0.0002775,0.03748,0.0001431,4.557,0.01613,0,1,0
191400000000,191700000000,1843579567,0,351650065,0.001976,0.06433,0.0835,0.0008955,0.02676,0.06433,6.676e-06,0.0002775,0.03833,0.001499,4.417,0.01581,0,1,0
191700000000,192000000000,1843579567,0,351650065,0.001722,0.06433,0.0835,0.0009079,0.02676,0.06433,9.537e-07,0.0002775,0.02588,0.0001431,5.102,0.01949,0,1,0
192000000000,192300000000,1843579567,0,351650065,0.001774,0.06433,0.0835,0.0009155,0.02676,0.06433,2.861e-06,0.0002785,0.02475,0.0004282,4.847,0.01807,0,1,0
192300000000,192600000000,1843579567,0,351650065,0.00177,0.06433,0.0835,0.0009165,0.02676,0.06433,9.537e-07,0.0002785,0.02145,0.0001431,4.932,0.01791,0,1,0
192600000000,192900000000,1843579567,0,351650065,0.001667,0.06433,0.0835,0.0009212,0.02679,0.06433,3.815e-06,0.0002785,0.04016,0.0007143,4.875,0.01749,0,1,0
192900000000,193200000000,1843579567,0,351650065,0.001497,0.06433,0.0835,0.0009298,0.02679,0.06433,0,0.0002785,0.06714,0.0001431,4.843,0.01773,0,1,0
193200000000,193500000000,1843579567,0,351650065,0.001608,0.06433,0.0835,0.0009298,0.02679,0.06433,4.768e-06,0.0002785,0.02777,0.0004282,4.688,0.01616,0,1,0
193500000000,193800000000,1843579567,0,351650065,0.001474,0.06433,0.0835,0.0009346,0.02679,0.06433,5.722e-06,0.0002785,0.02457,0.001215,4.802,0.0174,0,1,0
193800000000,194100000000,1843579567,0,351650065,0.001471,0.06433,0.0835,0.0009422,0.02679,0.06433,4.768e-06,0.0002785,0.01648,0.0007143,4.824,0.01736,0,1,0
194100000000,194400000000,1843579567,0,351650065,0.001575,0.06433,0.0835,0.0009518,0.02682,0.06433,9.537e-07,0.0002785,0.02618,0.0001431,4.735,0.01649,0,1,0
194400000000,194700000000,1843579567,0,351650065,0.001257,0.06433,0.0835,0.0009546,0.02682,0.06433,9.537e-07,0.0002785,0.0107,0.0002146,5.209,0.01952,0,1,0
194700000000,195000000000,1843579567,0,351650065,0.001156,0.06433,0.0835,0.0009623,0.02682,0.06433,9.537e-07,0.0002785,0.02676,0.0001431,4.401,0.0158,0,1,0
195000000000,195300000000,1843579567,0,351650065,0.001217,0.06433,0.0835,0.0009699,0.02682,0.06433,3.815e-06,0.0002785,0.01245,0.0004282,4.817,0.018,0,1,0
195300000000,195600000000,1843579567,0,351650065,0.001184,0.06433,0.0835,0.000968,0.02682,0.06433,9.537e-06,0.0002785,0.009766,0.001215,5.337,0.02105,0,1,0
195600000000,195900000000,1843579567,0,351650065,0.001137,0.06433,0.0835,0.0009718,0.02682,0.06433,5.722e-06,0.0002785,0.01578,0.001072,4.983,0.01889,0,1,0
195900000000,196200000000,1843579567,0,351650065,0.001068,0.06433,0.0835,0.0009737,0.02682,0.06433,9.537e-07,0.0002785,0.02121,0.0002861,5.904,0.02366,0,1,0
201300000000,201600000000,1843579567,0,351650065,0.0007486,0.06433,0.0835,0.0009842,0.02686,0.06433,5.722e-06,0.0002785,0.008072,0.001429,6.137,0.02492,0,1,0
201600000000,201900000000,1843579567,0,351650065,0.0008202,0.06433,0.0835,0.0009785,0.02682,0.06433,1.621e-05,0.0002785,0.01546,0.001572,4.903,0.01838,0,1,0
201900000000,202200000000,1843579567,0,351650065,0.0007715,0.06433,0.0835,0.0009823,0.02686,0.06433,0,0.0002785,0.01025,0,5.442,0.02119,0,1,0
202200000000,202500000000,1843579567,0,351650065,0.0008135,0.06433,0.0835,0.0009842,0.02686,0.06433,1.907e-06,0.0002785,0.01715,0.0002861,6.394,0.02607,0,1,0
202500000000,202800000000,1843579567,0,351650065,0.000762,0.06433,0.0835,0.000988,0.02686,0.06433,0,0.0002785,0.008163,7.153e-05,5.403,0.02097,0,1,0
202800000000,203100000000,1843579567,0,351650065,0.0007391,0.06433,0.0835,0.0009861,0.02686,0.06433,9.537e-07,0.0002785,0.007591,0.0001431,6.533,0.02709,0,1,0
203100000000,203400000000,1843579567,0,351650065,0.0007486,0.06433,0.0835,0.0009861,0.02686,0.06433,0,0.0002785,0.02008,0,5.696,0.02258,0,1,0
203400000000,203700000000,1843579567,0,351650065,0.0007849,0.06433,0.0835,0.0009899,0.02686,0.06433,9.537e-07,0.0002785,0.01816,0.0001431,5.653,0.02229,0,1,0
203700000000,204000000000,1843579567,0,351650065,0.0006742,0.06433,0.0835,0.0009899,0.02686,0.06433,3.815e-06,0.0002785,0.0136,0.0008574,7.111,0.02982,0,1,0
204000000000,204300000000,1843579567,0,351650065,0.0007515,0.06433,0.0835,0.0009918,0.02686,0.06433,0,0.0002785,0.01843,0.0001431,5.355,0.02025,0,1,0
204300000000,204600000000,1843579567,0,351650065,0.0007229,0.06433,0.0835,0.0009937,0.02686,0.06433,0,0.0002785,0.01724,0,6.275,0.02533,0,1,0
204600000000,204900000000,1843579567,0,351650065,0.0007029,0.06433,0.0835,0.0009937,0.02686,0.06433,1.907e-06,0.0002785,0.005394,0.0004997,6.913,0.02813,0,1,0
204900000000,205200000000,1843579567,0,351650065,0.0007458,0.06433,0.0835,0.0009975,0.02686,0.06433,3.815e-06,0.0002785,0.005859,0.001072,5.431,0.02092,0,1,0
205200000000,205500000000,1843579567,0,351650065,0.0007782,0.06433,0.0835,0.0009995,0.02686,0.06433,4.768e-06,0.0002785,0.02991,0.0009995,5.602,0.02164,0,1,0
205500000000,205800000000,1843579567,0,351650065,0.0006933,0.06433,0.0835,0.001001,0.02686,0.06433,0,0.0002785,0.009003,7.153e-05,6.442,0.02577,0,1,0
205800000000,206100000000,1843579567,0,351650065,0.0006609,0.06433,0.0835,0.0009995,0.02686,0.06433,9.537e-07,0.0002785,0.01506,0.0001431,6.38,0.02533,0,1,0
206100000000,206400000000,1843579567,0,351650065,0.0007744,0.06433,0.0835,0.001001,0.02686,0.06433,0,0.0002785,0.006836,7.153e-05,5.733,0.02154,0,1,0
206400000000,206700000000,1843579567,0,351650065,0.0007515,0.06433,0.0835,0.001005,0.02686,0.06433,9.537e-07,0.0002785,0.009766,0.0001431,6.215,0.02526,0,1,0
206700000000,207000000000,1843579567,0,351650065,0.0006514,0.06433,0.0835,0.001007,0.02686,0.06433,1.907e-06,0.0002785,0.01099,0.0002861,6.463,0.02606,0,1,0
207000000000,207300000000,1843579567,0,351650065,0.0007324,0.06433,0.0835,0.001001,0.02686,0.06433,2.861e-06,0.0002785,0.02304,0.0006428,6.998,0.02828,0,1,0
207300000000,207600000000,1843579567,0,351650065,0.0007191,0.06433,0.0835,0.001005,0.02686,0.06433,0,0.0002785,0.01422,0,5.704,0.02165,0,1,0
207600000000,207900000000,1843579567,0,351650065,0.0007553,0.06433,0.0835,0.001009,0.02689,0.06433,9.537e-07,0.0002785,0.005859,0.0001431,6.058,0.02398,0,1,0
207900000000,208200000000,1843579567,0,351650065,0.0007515,0.06433,0.0835,0.001011,0.02689,0.06433,9.537e-07,0.0002785,0.01332,0.0001431,6.01,0.02391,0,1,0
208200000000,208500000000,1843579567,0,351650065,0.0008593,0.06433,0.0835,0.001017,0.02689,0.06433,9.537e-07,0.0002785,0.03625,0.0002861,6.13,0.02432,0,1,0
208500000000,208800000000,1843579567,0,351650065,0.0008497,0.06433,0.0835,0.001019,0.02689,0.06433,1.907e-06,0.0002785,0.0401,0.0003567,5.986,0.02357,0,1,0
208800000000,209100000000,1843579567,0,351650065,0.0009604,0.06433,0.08362,0.001022,0.02689,0.06433,9.537e-07,0.0002785,0.03497,0.0002146,6.081,0.02177,0,1,0
209100000000,209400000000,1843579567,0,351650065,0.0008955,0.06433,0.08362,0.001026,0.02689,0.06433,9.537e-07,0.0002785,0.009979,0.0001431,6.035,0.02445,0,1,0
209400000000,209700000000,1843579567,0,351650065,0.000762,0.06433,0.08362,0.00103,0.02689,0.06433,0,0.0002785,0.03662,7.153e-05,5.7,0.02188,0,1,0
209700000000,210000000000,1843579567,0,351650065,0.0008593,0.06433,0.08362,0.001036,0.02689,0.06433,1.907e-06,0.0002775,0.01251,0.0002861,5.262,0.01956,0,1,0
210000000000,210300000000,1843579567,0,351650065,0.001078,0.06433,0.08362,0.00104,0.02689,0.06433,2.861e-06,0.0002766,0.02216,0.0007858,4.678,0.01608,0,1,0
210300000000,210600000000,1843579567,0,351650065,0.0009508,0.06433,0.0835,0.001007,0.02686,0.06433,4.768e-06,0.0002766,0.01497,0.0007858,5.62,0.02093,0,1,0
210600000000,210900000000,1843579567,0,351650065,0.001005,0.06433,0.0835,0.001003,0.02686,0.06433,1.907e-06,0.0002766,0.0108,0.0002146,5.891,0.02235,0,1,0
210900000000,211200000000,1843579567,0,351650065,0.0009737,0.06433,0.0835,0.001007,0.02686,0.06433,1.335e-05,0.0002766,0.02905,0.002144,5.819,0.02271,0,1,0
211200000000,211500000000,1843579567,0,351650065,0.0009279,0.06433,0.0835,0.001009,0.02686,0.06433,4.768e-06,0.0002766,0.01077,0.0009995,6.169,0.02429,0,1,0
211500000000,211800000000,1843579567,0,351650065,0.0009508,0.06433,0.0835,0.001005,0.02686,0.06433,1.907e-06,0.0002766,0.005859,0.0003567,5.585,0.02143,0,1,0
211800000000,212100000000,1843579567,0,351650065,0.001059,0.06433,0.0835,0.0009995,0.02686,0.06433,1.907e-06,0.0002766,0.02628,0.0002146,6.214,0.02415,0,1,0
212100000000,212400000000,1843579567,0,351650065,0.001087,0.06433,0.0835,0.001001,0.02686,0.06433,1.907e-06,0.0002766,0.02237,0.0003567,5.744,0.02153,0,1,0
212400000000,212700000000,1843579567,0,351650065,0.001152,0.06433,0.0835,0.001005,0.02686,0.06433,5.722e-06,0.0002766,0.01312,0.001215,6.433,0.02518,0,1,0
212700000000,213000000000,1843579567,0,351650065,0.001217,0.06433,0.0835,0.001011,0.02689,0.06433,3.815e-06,0.0002766,0.01237,0.0008574,6.126,0.02417,0,1,0
213000000000,213300000000,1843579567,0,351650065,0.001179,0.06433,0.0835,0.0007601,0.02661,0.06433,6.676e-06,0.0002766,0.01189,0.001499,5.241,0.01916,0,1,0
213300000000,213600000000,1843579567,0,351650065,0.001293,0.06433,0.0835,0.0005302,0.0264,0.06433,3.815e-06,0.0002766,0.01788,0.0009289,6.095,0.02329,0,1,0
213600000000,213900000000,1843579567,0,351650065,0.001276,0.06433,0.0835,0.0005369,0.0264,0.06433,1.144e-05,0.0002766,0.03339,0.001928,5.777,0.02223,0,1,0
213900000000,214200000000,1843579567,0,351650065,0.00141,0.06433,0.0835,0.0005445,0.0264,0.06433,9.537e-07,0.0002766,0.039,0.0001431,5.492,0.01995,0,1,0
214200000000,214500000000,1843579567,0,351650065,0.001465,0.06433,0.0835,0.0005522,0.02643,0.06433,1.907e-06,0.0002766,0.01515,0.0004997,4.889,0.01755,0,1,0
214500000000,214800000000,1843579567,0,351650065,0.00139,0.06433,0.0835,0.0005589,0.02643,0.06433,9.537e-07,0.0002766,0.01544,7.153e-05,5.312,0.01951,0,1,0
214800000000,215100000000,1843579567,0,351650065,0.001364,0.06433,0.0835,0.0005665,0.02643,0.06433,9.537e-07,0.0002775,0.01501,0.0002146,5.897,0.02181,0,1,0
215100000000,215400000000,1843579567,0,351650065,0.001383,0.06433,0.0835,0.0005722,0.02643,0.06433,1.907e-06,0.0002775,0.01822,0.0003567,5.288,0.01944,0,1,0
215400000000,215700000000,1843579567,0,351650065,0.001469,0.06433,0.0835,0.0005789,0.02643,0.06433,8.583e-06,0.0002775,0.01562,0.002213,5.271,0.01956,0,1,0
215700000000,216000000000,1843579567,0,351650065,0.001598,0.06433,0.0835,0.0005884,0.02646,0.06433,7.629e-06,0.0002775,0.02368,0.001286,4.711,0.01689,0,1,0
216000000000,216300000000,1843579567,0,351650065,0.001667,0.06433,0.0835,0.000598,0.02646,0.06433,5.722e-06,0.0002775,0.02243,0.0006428,5.042,0.01834,0,1,0
221100000000,221400000000,1843579567,0,351650065,0.026,0.03052,0.04431,0.01114,0.01672,0.08057,0.01157,0.0003138,0.1292,0.07739,0.9893,0.0008329,0,1,0
221400000000,221700000000,1843579567,0,351650065,0.007019,0.06262,0.08289,0.002205,0.0275,0.06799,0.00235,0.0003138,0.1248,0.07153,1.608,0.002054,0,1,0
221700000000,222000000000,1843579567,0,351650065,0.00333,0.06219,0.08167,0.001972,0.02777,0.06226,5.722e-06,0.0003138,0.03308,0.0006428,4.2,0.01514,0,1,0
222000000000,222300000000,1843579567,0,351650065,0.003231,0.06226,0.08167,0.001987,0.02777,0.06232,1.526e-05,0.0003138,0.02267,0.0009995,4.222,0.01477,0,1,0
222300000000,222600000000,1843579567,0,351650065,0.003078,0.06232,0.08167,0.002014,0.0278,0.06232,1.335e-05,0.0003138,0.03485,0.001642,3.539,0.01198,0,1,0
222600000000,222900000000,1843579567,0,351650065,0.003204,0.06232,0.08167,0.002033,0.02783,0.06232,1.907e-05,0.0003138,0.02121,0.001499,4.026,0.01441,0,1,0
222900000000,223200000000,1843579567,0,351650065,0.003094,0.06232,0.08154,0.002045,0.02783,0.06238,3.815e-06,0.0003138,0.02701,0.0002146,3.93,0.01359,0,1,0
223200000000,223500000000,1843579567,0,351650065,0.002998,0.06238,0.08154,0.002052,0.02783,0.06238,2.098e-05,0.0003138,0.03424,0.001286,3.858,0.01341,0,1,0
223500000000,223800000000,1843579567,0,351650065,0.002483,0.06238,0.08154,0.002064,0.02786,0.06238,1.24e-05,0.0003138,0.03485,0.0009289,4.039,0.01438,0,1,0
224100000000,224400000000,1843579567,0,351650065,0.002934,0.06238,0.08154,0.001526,0.02731,0.06238,1.144e-05,0.0003138,0.02243,0.0007858,3.973,0.01388,0,1,0
224400000000,224700000000,1843579567,0,351650065,0.003071,0.06244,0.08154,0.001516,0.02731,0.06244,5.722e-06,0.0003138,0.02231,0.0005713,3.852,0.01354,0,1,0
224700000000,225000000000,1843579567,0,351650065,0.002941,0.06244,0.08154,0.001535,0.02731,0.06244,1.24e-05,0.0003138,0.03992,0.001286,3.963,0.01368,0,1,0
225000000000,225300000000,1843579567,0,351650065,0.002903,0.06244,0.08154,0.001545,0.02734,0.06244,9.537e-06,0.0003138,0.02679,0.0007143,3.903,0.0135,0,1,0
225300000000,225600000000,1843579567,0,351650065,0.002914,0.06244,0.08154,0.001547,0.02734,0.06244,1.717e-05,0.0003138,0.02988,0.0008574,4.013,0.01383,0,1,0
225600000000,225900000000,1843579567,0,351650065,0.002949,0.06244,0.08154,0.001562,0.02734,0.06244,1.526e-05,0.0003138,0.03601,0.001572,3.83,0.01334,0,1,0
225900000000,226200000000,1843579567,0,351650065,0.002716,0.06244,0.08154,0.001577,0.02737,0.06244,8.583e-06,0.0003138,0.01862,0.0009289,4.172,0.0151,0,1,0
226200000000,226500000000,1843579567,0,351650065,0.002857,0.06244,0.08154,0.001595,0.02737,0.0625,5.722e-06,0.0003138,0.03223,0.0004997,3.909,0.01357,0,1,0
226500000000,226800000000,1843579567,0,351650065,0.002918,0.0625,0.08154,0.001612,0.0274,0.0625,6.676e-06,0.0003147,0.02795,0.0006428,3.787,0.013,0,1,0
226800000000,227100000000,1843579567,0,351650065,0.002758,0.0625,0.08154,0.001619,0.0274,0.0625,2.289e-05,0.0003147,0.02014,0.001858,3.774,0.01303,0,1,0
227100000000,227400000000,1843579567,0,351650065,0.002872,0.0625,0.08154,0.001629,0.02744,0.0625,1.907e-05,0.0003147,0.0238,0.002857,3.56,0.0114,0,1,0
227400000000,227700000000,1843579567,0,351650065,0.003086,0.0625,0.08154,0.00165,0.02744,0.0625,8.583e-06,0.0003147,0.04828,0.0009995,3.166,0.01029,0,1,0
227700000000,228000000000,1843579567,0,351650065,0.003376,0.0625,0.08154,0.001671,0.02747,0.0625,9.537e-06,0.0003147,0.03314,0.0007858,3.872,0.01289,0,1,0
228000000000,228300000000,1843579567,0,351650065,0.003239,0.0625,0.08154,0.001686,0.02747,0.0625,5.722e-06,0.0003147,0.02875,0.0005713,3.555,0.01163,0,1,0
228300000000,228600000000,1843579567,0,351650065,0.003304,0.0625,0.08154,0.001703,0.0275,0.0625,8.583e-06,0.0003147,0.02271,0.0006428,3.76,0.01183,0,1,0
228600000000,228900000000,1843579567,0,351650065,0.00272,0.0625,0.08154,0.00172,0.02753,0.0625,3.815e-06,0.0003147,0.02774,0.0003567,3.552,0.01207,0,1,0
228900000000,229200000000,1843579567,0,351650065,0.002865,0.0625,0.08154,0.001738,0.02753,0.0625,9.537e-06,0.0003147,0.04193,0.0009995,3.06,0.009609,0,1,0
229200000000,229500000000,1843579567,0,351650065,0.002827,0.0625,0.08154,0.001747,0.02753,0.0625,4.768e-06,0.0003147,0.04041,0.0007858,3.537,0.0117,0,1,0
229500000000,229800000000,1843579567,0,351650065,0.002506,0.0625,0.08154,0.001764,0.02756,0.0625,5.722e-06,0.0003147,0.02997,0.0007143,3.802,0.01258,0,1,0
229800000000,230100000000,1843579567,0,351650065,0.002567,0.0625,0.08167,0.001781,0.02759,0.0625,5.722e-06,0.0003147,0.0354,0.0002861,3.626,0.01222,0,1,0
230100000000,230400000000,1843579567,0,351650065,0.002789,0.0625,0.08154,0.001801,0.02759,0.0625,3.815e-06,0.0003147,0.03436,0.0003567,3.587,0.01172,0,1,0
230400000000,230700000000,1843579567,0,351650065,0.002476,0.0625,0.08154,0.001814,0.02762,0.0625,5.722e-06,0.0003147,0.01575,0.0008574,3.293,0.01022,0,1,0
230700000000,231000000000,1843579567,0,351650065,0.002682,0.0625,0.08154,0.001816,0.02762,0.0625,2.861e-06,0.0003147,0.03705,0.0002146,2.996,0.008556,0,1,0
231000000000,231300000000,1843579567,0,351650065,0.002522,0.0625,0.08154,0.001825,0.02762,0.0625,6.676e-06,0.0003147,0.02228,0.0009995,3.512,0.01101,0,1,0
231300000000,231600000000,1843579567,0,351650065,0.002689,0.0625,0.08154,0.001842,0.02765,0.0625,1.335e-05,0.0003147,0.04065,0.00293,3.376,0.01016,0,1,0
231600000000,231900000000,1843579567,0,351650065,0.002834,0.0625,0.08154,0.001846,0.02765,0.0625,8.583e-06,0.0003147,0.0213,0.0007858,3.47,0.01057,0,1,0
231900000000,232200000000,1843579567,0,351650065,0.003086,0.0625,0.08154,0.00186,0.02765,0.0625,1.24e-05,0.0003147,0.034,0.0009289,3.879,0.01383,0,1,0
232200000000,232500000000,1843579567,0,351650065,0.003246,0.0625,0.08154,0.001875,0.02765,0.0625,6.676e-06,0.0003147,0.02161,0.0007143,3.528,0.01196,0,1,0
232500000000,232800000000,1843579567,0,351650065,0.00301,0.0625,0.08154,0.001896,0.02768,0.0625,1.144e-05,0.0003157,0.01791,0.001358,3.841,0.01353,0,1,0
232800000000,233100000000,1843579567,0,351650065,0.003197,0.0625,0.08154,0.001917,0.02771,0.0625,5.722e-06,0.0003157,0.0206,0.0003567,3.597,0.01216,0,1,0
233100000000,233400000000,1843579567,0,351650065,0.003426,0.0625,0.08167,0.00194,0.02771,0.0625,1.144e-05,0.0003157,0.02728,0.0007143,3.885,0.01344,0,1,0
233400000000,233700000000,1843579567,0,351650065,0.003227,0.0625,0.08154,0.001829,0.02762,0.0625,1.335e-05,0.0003157,0.02158,0.001072,3.693,0.01277,0,1,0
233700000000,234000000000,1843579567,0,351650065,0.00359,0.0625,0.08154,0.001337,0.02713,0.0625,1.24e-05,0.0003157,0.02521,0.001286,3.525,0.01193,0,1,0
234000000000,234300000000,1843579567,0,351650065,0.003429,0.0625,0.08154,0.001364,0.02713,0.0625,1.144e-05,0.0003157,0.02628,0.0008574,3.64,0.01256,0,1,0
234300000000,234600000000,1843579567,0,351650065,0.003433,0.0625,0.08154,0.001389,0.02716,0.0625,1.049e-05,0.0003157,0.03784,0.0007858,3.77,0.01283,0,1,0
234600000000,234900000000,1843579567,0,351650065,0.003414,0.0625,0.08154,0.001411,0.02719,0.0625,1.144e-05,0.0003157,0.02335,0.0008574,3.895,0.01353,0,1,0
234900000000,235200000000,1843579567,0,351650065,0.003448,0.0625,0.08167,0.001436,0.02722,0.0625,1.431e-05,0.0003157,0.02463,0.001928,3.657,0.01246,0,1,0
235200000000,235500000000,1843579567,0,351650065,0.003563,0.0625,0.08167,0.001461,0.02725,0.0625,1.526e-05,0.0003157,0.01538,0.001642,3.729,0.0128,0,1,0
235500000000,235800000000,1843579567,0,351650065,0.003334,0.0625,0.08167,0.001486,0.02728,0.0625,1.335e-05,0.0003157,0.02435,0.001499,3.764,0.0131,0,1,0
235800000000,236100000000,1843579567,0,351650065,0.003475,0.06262,0.08167,0.001511,0.02728,0.06262,1.335e-05,0.0003157,0.03143,0.001999,3.811,0.01317,0,1,0
236100000000,236400000000,1843579567,0,351650065,0.003662,0.06262,0.08167,0.001534,0.02731,0.06262,9.537e-06,0.0003157,0.04852,0.0005713,3.327,0.0109,0,1,0
241200000000,241500000000,1843579567,0,351650065,0.003315,0.06262,0.08154,0.00181,0.02756,0.06262,9.537e-06,0.0003166,0.05145,0.001286,3.175,0.009801,0,1,0
241500000000,241800000000,1843579567,0,351650065,0.003223,0.06262,0.08154,0.001814,0.02756,0.06262,5.722e-06,0.0003166,0.02213,0.0007143,3.299,0.01065,0,1,0
241800000000,242100000000,1843579567,0,351650065,0.00317,0.0625,0.08154,0.001822,0.02756,0.06262,6.676e-06,0.0003166,0.01299,0.0002861,3.508,0.01116,0,1,0
242100000000,242400000000,1843579567,0,351650065,0.003082,0.0625,0.08154,0.001823,0.02756,0.0625,1.526e-05,0.0003166,0.02222,0.002571,3.291,0.009962,0,1,0
242400000000,242700000000,1843579567,0,351650065,0.003056,0.0625,0.08154,0.001822,0.02756,0.0625,4.768e-06,0.0003176,0.04047,0.0002146,3.08,0.009075,0,1,0
242700000000,243000000000,1843579567,0,351650065,0.002953,0.0625,0.08154,0.001823,0.02756,0.0625,4.768e-06,0.0003176,0.03259,0.0002146,3.466,0.01041,0,1,0
243000000000,243300000000,1843579567,0,351650065,0.002701,0.0625,0.08154,0.001545,0.02728,0.0625,5.722e-06,0.0003176,0.03986,0.0002146,2.994,0.009016,0,1,0
243300000000,243600000000,1843579567,0,351650065,0.002769,0.0625,0.08154,0.001307,0.02704,0.0625,4.768e-06,0.0003176,0.03943,0.0002861,2.836,0.008194,0,1,0
243600000000,243900000000,1843579567,0,351650065,0.002834,0.0625,0.08154,0.001322,0.02704,0.0625,3.815e-06,0.0003176,0.02762,0.0001497,3.012,0.009213,0,1,0
243900000000,244200000000,1843579567,0,351650065,0.00285,0.0625,0.08154,0.001324,0.02704,0.0625,5.722e-06,0.0003176,0.02112,0.0002146,3.047,0.009716,0,1,0
244200000000,244500000000,1843579567,0,351650065,0.002987,0.0625,0.08154,0.001329,0.02707,0.0625,5.722e-06,0.0003176,0.01448,0.0004997,3.025,0.009306,0,1,0
244500000000,244800000000,1843579567,0,351650065,0.003117,0.0625,0.08154,0.001337,0.02707,0.0625,9.537e-06,0.0003176,0.02176,0.001215,3.347,0.01038,0,1,0
244800000000,245100000000,1843579567,0,351650065,0.003101,0.0625,0.08154,0.001345,0.02707,0.0625,9.537e-06,0.0003176,0.0249,0.001072,3.349,0.01086,0,1,0
245100000000,245400000000,1843579567,0,351650065,0.003212,0.0625,0.08154,0.00135,0.02707,0.0625,8.583e-06,0.0003176,0.02557,0.0003567,3.313,0.01049,0,1,0
245400000000,245700000000,1843579567,0,351650065,0.002865,0.0625,0.08154,0.001352,0.02707,0.0625,5.722e-06,0.0003176,0.0401,0.0002861,3.253,0.01018,0,1,0
245700000000,246000000000,1843579567,0,351650065,0.002644,0.0625,0.08154,0.001356,0.02707,0.0625,4.768e-06,0.0003176,0.01968,0.0002861,3.185,0.01006,0,1,0
246000000000,246300000000,1843579567,0,351650065,0.002674,0.0625,0.08154,0.00136,0.02707,0.0625,6.676e-06,0.0003176,0.0293,0.0004282,2.903,0.0092,0,1,0
251400000000,251700000000,1843579567,0,351650065,0.003391,0.0625,0.08154,0.00139,0.0271,0.0625,1.621e-05,0.0003185,0.04272,0.001286,3.532,0.01154,0,1,0
251700000000,252000000000,1843579567,0,351650065,0.003239,0.0625,0.08154,0.00139,0.0271,0.0625,7.629e-06,0.0003185,0.0174,0.0006428,3.602,0.01171,0,1,0
252000000000,252300000000,1843579567,0,351650065,0.0033,0.0625,0.08154,0.0014,0.0271,0.0625,6.676e-06,0.0003185,0.02301,0.0007143,3.615,0.01202,0,1,0
252300000000,252600000000,1843579567,0,351650065,0.003353,0.0625,0.08154,0.0014,0.0271,0.0625,5.722e-06,0.0003195,0.02509,0.0003567,3.388,0.01081,0,1,0
252600000000,252900000000,1843579567,0,351650065,0.00304,0.0625,0.08154,0.001392,0.0271,0.0625,1.049e-05,0.0003195,0.01524,0.001429,3.43,0.01082,0,1,0
252900000000,253200000000,1843579567,0,351650065,0.002922,0.0625,0.08154,0.001389,0.0271,0.0625,7.629e-06,0.0003195,0.01709,0.0008574,3.493,0.0113,0,1,0
253200000000,253500000000,1843579567,0,351650065,0.003162,0.0625,0.08154,0.001272,0.02698,0.0625,8.583e-06,0.0003195,0.02292,0.0005713,3.465,0.0112,0,1,0
253500000000,253800000000,1843579567,0,351650065,0.003254,0.0625,0.08154,0.001295,0.02701,0.0625,7.629e-06,0.0003195,0.04053,0.0009995,3.276,0.009695,0,1,0
253800000000,254100000000,1843579567,0,351650065,0.003452,0.0625,0.08154,0.001307,0.02701,0.0625,1.431e-05,0.0003195,0.02795,0.0008574,3.366,0.01074,0,1,0
254100000000,254400000000,1843579567,0,351650065,0.00354,0.0625,0.08154,0.00132,0.02704,0.0625,1.24e-05,0.0003195,0.02066,0.001358,3.738,0.01234,0,1,0
254400000000,254700000000,1843579567,0,351650065,0.003273,0.0625,0.08154,0.001335,0.02704,0.0625,5.722e-06,0.0003195,0.01968,0.0006428,3.271,0.009517,0,1,0
254700000000,255000000000,1843579567,0,351650065,0.003117,0.0625,0.08154,0.001341,0.02704,0.0625,6.676e-06,0.0003195,0.02646,0.001072,2.963,0.008534,0,1,0
255000000000,255300000000,1843579567,0,351650065,0.003082,0.0625,0.08154,0.001343,0.02704,0.0625,5.722e-06,0.0003195,0.03412,0.0002861,2.926,0.008689,0,1,0
255300000000,255600000000,1843579567,0,351650065,0.003338,0.0625,0.08154,0.001348,0.02707,0.0625,5.722e-06,0.0003195,0.01993,0.0002146,2.98,0.008741,0,1,0
255600000000,255900000000,1843579567,0,351650065,0.003529,0.0625,0.08154,0.001356,0.02707,0.0625,7.629e-06,0.0003195,0.01404,0.0007143,3.114,0.009123,0,1,0
255900000000,256200000000,1843579567,0,351650065,0.0037,0.0625,0.08154,0.001356,0.02707,0.0625,6.676e-06,0.0003195,0.02591,0.0003567,3.011,0.009043,0,1,0
256200000000,256500000000,1843579567,0,351650065,0.004074,0.0625,0.08154,0.00136,0.02707,0.06262,1.049e-05,0.0003195,0.02283,0.0009995,3.069,0.008827,0,1,0
256500000000,256800000000,1843579567,0,351650065,0.004143,0.06262,0.08154,0.001368,0.02707,0.06262,8.583e-06,0.0003204,0.03036,0.0002861,3.058,0.008835,0,1,0
256800000000,257100000000,1843579567,0,351650065,0.004303,0.06262,0.08154,0.001368,0.02707,0.06262,5.722e-06,0.0003204,0.04193,0.0002861,3.136,0.009501,0,1,0
257100000000,257400000000,1843579567,0,351650065,0.003826,0.0625,0.08154,0.001369,0.02707,0.06262,6.676e-06,0.0003204,0.03104,0.0004282,3.039,0.009236,0,1,0
257400000000,257700000000,1843579567,0,351650065,0.004128,0.06262,0.08154,0.001375,0.02707,0.06262,5.722e-06,0.0003204,0.03595,0.0002861,2.912,0.008487,0,1,0
257700000000,258000000000,1843579567,0,351650065,0.004044,0.06262,0.08154,0.001373,0.02707,0.06262,1.24e-05,0.0003204,0.04211,0.001143,2.83,0.008072,0,1,0
258000000000,258300000000,1843579567,0,351650065,0.003796,0.06262,0.08154,0.001375,0.02707,0.06262,6.676e-06,0.0003204,0.04443,0.0003567,2.992,0.008792,0,1,0
258300000000,258600000000,1843579567,0,351650065,0.003761,0.06262,0.08154,0.001377,0.02707,0.06262,1.144e-05,0.0003204,0.0224,0.0008574,2.878,0.008117,0,1,0
258600000000,258900000000,1843579567,0,351650065,0.004364,0.06262,0.08154,0.001368,0.02707,0.06262,1.049e-05,0.0003204,0.03424,0.0003567,3.231,0.009622,0,1,0
258900000000,259200000000,1843579567,0,351650065,0.004234,0.06262,0.08154,0.001366,0.02707,0.06262,9.537e-06,0.0003204,0.03381,0.0006428,3.092,0.008921,0,1,0
259200000000,259500000000,1843579567,0,351650065,0.004196,0.06262,0.08154,0.001369,0.02707,0.06262,8.583e-06,0.0003204,0.01614,0.0004282,2.893,0.008391,0,1,0
259500000000,259800000000,1843579567,0,351650065,0.004158,0.0625,0.08154,0.001371,0.02707,0.06262,1.049e-05,0.0003204,0.03018,0.0003567,2.895,0.008889,0,1,0
259800000000,260100000000,1843579567,0,351650065,0.004128,0.0625,0.08154,0.001381,0.02707,0.0625,5.722e-06,0.0003204,0.02173,0.0002861,2.917,0.008657,0,1,0
260100000000,260400000000,1843579567,0,351650065,0.004021,0.0625,0.08154,0.001381,0.02707,0.0625,7.629e-06,0.0003214,0.05011,0.0003567,2.85,0.008824,0,1,0
260400000000,260700000000,1843579567,0,351650065,0.004707,0.0625,0.08154,0.001387,0.02707,0.06262,1.335e-05,0.0003214,0.03632,0.0009289,2.924,0.008669,0,1,0
260700000000,261000000000,1843579567,0,351650065,0.00515,0.0625,0.08154,0.001265,0.02695,0.06262,7.629e-06,0.0003214,0.03943,0.0002861,3.035,0.008275,0,1,0
261000000000,261300000000,1843579567,0,351650065,0.004845,0.0625,0.08154,0.00128,0.02698,0.06262,1.526e-05,0.0003214,0.034,0.0003567,3.143,0.00909,0,1,0
261300000000,261600000000,1843579567,0,351650065,0.005066,0.06262,0.08154,0.001286,0.02698,0.06262,1.431e-05,0.0003214,0.05017,0.0006428,2.953,0.008433,0,1,0
261600000000,261900000000,1843579567,0,351650065,0.005104,0.06262,0.08154,0.00131,0.02701,0.06262,1.144e-05,0.0003214,0.05145,0.0007143,2.998,0.008441,0,1,0
261900000000,262200000000,1843579567,0,351650065,0.005394,0.0625,0.08154,0.001318,0.02701,0.06262,1.335e-05,0.0003214,0.03094,0.0004997,2.928,0.00792,0,1,0
262200000000,262500000000,1843579567,0,351650065,0.005371,0.0625,0.08154,0.001326,0.02701,0.06262,1.049e-05,0.0003214,0.03351,0.0004997,2.98,0.008342,0,1,0
262500000000,262800000000,1843579567,0,351650065,0.005386,0.06262,0.08154,0.001341,0.02704,0.06262,1.717e-05,0.0003214,0.02521,0.0007143,2.95,0.008384,0,1,0
262800000000,263100000000,1843579567,0,351650065,0.005173,0.06262,0.08154,0.001339,0.02704,0.06262,7.629e-06,0.0003223,0.03162,0.0003567,2.769,0.00792,0,1,0
263100000000,263400000000,1843579567,0,351650065,0.004959,0.06262,0.08154,0.001343,0.02704,0.06262,7.629e-06,0.0003223,0.03711,0.0002861,2.668,0.007656,0,1,0
263400000000,263700000000,1843579567,0,351650065,0.004692,0.06262,0.08154,0.001347,0.02704,0.06262,1.144e-05,0.0003223,0.02908,0.0004282,2.713,0.00768,0,1,0
263700000000,264000000000,1843579567,0,351650065,0.00489,0.06262,0.08154,0.00135,0.02704,0.06262,1.049e-05,0.0003223,0.0365,0.001286,2.776,0.008349,0,1,0
264000000000,264300000000,1843579567,0,351650065,0.00502,0.06262,0.08154,0.001352,0.02704,0.06262,8.583e-06,0.0003223,0.0307,0.0006428,2.753,0.007565,0,1,0
264300000000,264600000000,1843579567,0,351650065,0.004677,0.06262,0.08154,0.001352,0.02704,0.06262,1.717e-05,0.0003223,0.03644,0.002144,2.816,0.007694,0,1,0
264600000000,264900000000,1843579567,0,351650065,0.004517,0.06262,0.08154,0.001354,0.02704,0.06262,5.722e-06,0.0003223,0.03375,0.0004997,2.773,0.00767,0,1,0
264900000000,265200000000,1843579567,0,351650065,0.004265,0.06262,0.08154,0.001352,0.02704,0.06262,8.583e-06,0.0003223,0.02286,0.0007143,2.899,0.008121,0,1,0
265200000000,265500000000,1843579567,0,351650065,0.004852,0.06262,0.08154,0.001354,0.02704,0.06262,6.676e-06,0.0003223,0.03503,0.0002861,3.081,0.008656,0,1,0
265500000000,265800000000,1843579567,0,351650065,0.004189,0.06262,0.08154,0.001358,0.02704,0.06262,6.676e-06,0.0003233,0.02368,0.0002861,2.852,0.007938,0,1,0
265800000000,266100000000,1843579567,0,351650065,0.00412,0.06262,0.08154,0.00136,0.02704,0.06262,9.537e-06,0.0003233,0.02942,0.0002861,2.87,0.008173,0,1,0
266100000000,266400000000,1843579567,0,351650065,0.004082,0.06262,0.08154,0.001358,0.02704,0.06262,1.526e-05,0.0003233,0.02802,0.001642,2.904,0.008489,0,1,0
266400000000,266700000000,1843579567,0,351650065,0.004501,0.06262,0.08154,0.001287,0.02698,0.06262,2.003e-05,0.0003233,0.04156,0.00293,2.729,0.007572,0,1,0
266700000000,267000000000,1843579567,0,351650065,0.004402,0.06262,0.08154,0.001293,0.02698,0.06262,7.629e-06,0.0003233,0.03217,0.001072,2.766,0.007805,0,1,0
267000000000,267300000000,1843579567,0,351650065,0.004311,0.06262,0.08154,0.001307,0.02701,0.06262,6.676e-06,0.0003233,0.02911,0.0004282,3.093,0.00916,0,1,0
267300000000,267600000000,1843579567,0,351650065,0.004356,0.06262,0.08154,0.001305,0.02701,0.06262,6.676e-06,0.0003233,0.02853,0.0002146,3.142,0.009722,0,1,0
267600000000,267900000000,1843579567,0,351650065,0.004166,0.06262,0.08154,0.001308,0.02701,0.06262,5.722e-06,0.0003233,0.02631,0.0002861,2.914,0.008305,0,1,0
267900000000,268200000000,1843579567,0,351650065,0.004028,0.06262,0.08154,0.001307,0.02701,0.06262,1.335e-05,0.0003233,0.03162,0.001215,2.981,0.008792,0,1,0
268200000000,268500000000,1843579567,0,351650065,0.003834,0.06262,0.08154,0.001308,0.02701,0.06262,9.537e-06,0.0003233,0.0332,0.001143,2.87,0.008139,0,1,0
268500000000,268800000000,1843579567,0,351650065,0.00338,0.06262,0.08154,0.001312,0.02701,0.06262,1.24e-05,0.0003233,0.02951,0.001072,3,0.009174,0,1,0
268800000000,269100000000,1843579567,0,351650065,0.003716,0.06262,0.08154,0.00132,0.02701,0.06262,9.537e-06,0.0003242,0.03137,0.0003567,2.821,0.008143,0,1,0
269100000000,269400000000,1843579567,0,351650065,0.003353,0.06262,0.08154,0.001318,0.02701,0.06262,6.676e-06,0.0003242,0.02237,0.0002861,2.818,0.008368,0,1,0
269400000000,269700000000,1843579567,0,351650065,0.003326,0.06262,0.08154,0.001314,0.02701,0.06262,7.629e-06,0.0003242,0.03766,0.0002861,2.992,0.008949,0,1,0
269700000000,270000000000,1843579567,0,351650065,0.00349,0.06262,0.08154,0.001322,0.02701,0.06262,1.907e-05,0.0003242,0.02371,0.001785,3.271,0.01049,0,1,0
270000000000,270300000000,1843579567,0,351650065,0.003635,0.06262,0.08154,0.001343,0.02704,0.06262,3.052e-05,0.0003242,0.01932,0.002998,3.395,0.0114,0,1,0
270300000000,270600000000,1843579567,0,351650065,0.003735,0.06262,0.08154,0.00135,0.02704,0.06262,2.289e-05,0.0003242,0.03156,0.001215,3.557,0.01216,0,1,0
270600000000,270900000000,1843579567,0,351650065,0.00351,0.06262,0.08154,0.001373,0.02707,0.06262,2.098e-05,0.0003242,0.02979,0.0009995,3.58,0.01226,0,1,0
270900000000,271200000000,1843579567,0,351650065,0.003468,0.06262,0.08154,0.001396,0.02707,0.06262,1.526e-05,0.0003242,0.04755,0.001499,3.562,0.01232,0,1,0
271200000000,271500000000,1843579567,0,351650065,0.003468,0.06262,0.08154,0.001411,0.0271,0.06262,2.003e-05,0.0003242,0.02936,0.0007858,3.293,0.01084,0,1,0
281400000000,281700000000,1843579567,0,351650065,0.003029,0.06262,0.08167,0.001772,0.02747,0.06262,1.621e-05,0.0003271,0.04303,0.002499,3.22,0.01017,0,1,0
281700000000,282000000000,1843579567,0,351650065,0.002892,0.06262,0.08167,0.001789,0.02747,0.06262,1.335e-05,0.0003271,0.02344,0.001358,3.286,0.01061,0,1,0
282000000000,282300000000,1843579567,0,351650065,0.002644,0.06262,0.08154,0.001482,0.02716,0.06262,1.049e-05,0.0003271,0.02151,0.0009995,3.549,0.01204,0,1,0
282300000000,282600000000,1843579567,0,351650065,0.002682,0.06262,0.08154,0.001139,0.02682,0.06262,1.144e-05,0.0003271,0.02554,0.002785,3.608,0.01177,0,1,0
282600000000,282900000000,1843579567,0,351650065,0.002567,0.06262,0.08154,0.001158,0.02686,0.06262,9.537e-06,0.0003271,0.02945,0.0007143,3.812,0.0128,0,1,0
282900000000,283200000000,1843579567,0,351650065,0.00235,0.06262,0.08154,0.001169,0.02686,0.06262,4.768e-06,0.0003271,0.02438,0.0004997,4.051,0.01419,0,1,0
283200000000,283500000000,1843579567,0,351650065,0.002327,0.06262,0.08154,0.001179,0.02686,0.06262,1.24e-05,0.0003271,0.0199,0.00293,3.575,0.01202,0,1,0
283500000000,283800000000,1843579567,0,351650065,0.002106,0.06262,0.08154,0.001188,0.02689,0.06262,9.537e-07,0.0003271,0.009964,0.0001431,4.122,0.01448,0,1,0
283800000000,284100000000,1843579567,0,351650065,0.002037,0.06262,0.08167,0.0012,0.02689,0.06262,6.676e-06,0.0003271,0.01524,0.001358,3.78,0.01288,0,1,0
284100000000,284400000000,1843579567,0,351650065,0.002254,0.06262,0.08167,0.001215,0.02692,0.06262,2.861e-06,0.0003271,0.01895,0.0002861,3.819,0.01263,0,1,0
284400000000,284700000000,1843579567,0,351650065,0.00176,0.06262,0.08167,0.001228,0.02692,0.06262,7.629e-06,0.0003271,0.02634,0.0008574,3.295,0.01125,0,1,0
284700000000,285000000000,1843579567,0,351650065,0.00182,0.06262,0.08167,0.001242,0.02695,0.06262,1.907e-06,0.0003271,0.0495,0.0001431,3.906,0.01401,0,1,0
285000000000,285300000000,1843579567,0,351650065,0.001768,0.06262,0.08167,0.001255,0.02695,0.06262,2.861e-06,0.0003271,0.01791,0.0002861,3.904,0.01389,0,1,0
285300000000,285600000000,1843579567,0,351650065,0.001698,0.06262,0.08167,0.001266,0.02695,0.06262,2.861e-06,0.0003271,0.0137,0.0002146,3.79,0.0128,0,1,0
285600000000,285900000000,1843579567,0,351650065,0.001619,0.06262,0.08167,0.001278,0.02698,0.06262,3.815e-06,0.0003271,0.02744,0.0005713,3.734,0.0127,0,1,0
285900000000,286200000000,1843579567,0,351650065,0.001608,0.06262,0.08167,0.001272,0.02698,0.06262,6.676e-06,0.0003271,0.02979,0.0007143,3.596,0.01235,0,1,0
286200000000,286500000000,1843579567,0,351650065,0.00157,0.06262,0.08167,0.001282,0.02698,0.06262,8.583e-06,0.0003271,0.0126,0.0007143,3.805,0.01332,0,1,0
286500000000,286800000000,1843579567,0,351650065,0.001503,0.06262,0.08167,0.001291,0.02698,0.06262,4.768e-06,0.0003271,0.01614,0.0009995,3.656,0.01248,0,1,0
286800000000,287100000000,1843579567,0,351650065,0.001423,0.06262,0.08167,0.001303,0.02701,0.06262,1.24e-05,0.0003271,0.01056,0.001999,3.812,0.01318,0,1,0
287100000000,287400000000,1843579567,0,351650065,0.001499,0.06262,0.08167,0.001312,0.02701,0.06262,2.861e-06,0.0003271,0.01227,0.0005713,4.031,0.01393,0,1,0
287400000000,287700000000,1843579567,0,351650065,0.00148,0.06262,0.08167,0.00132,0.02701,0.06262,6.676e-06,0.0003271,0.02802,0.0009289,3.955,0.0135,0,1,0
287700000000,288000000000,1843579567,0,351650065,0.001499,0.06262,0.08167,0.001328,0.02701,0.06262,1.907e-06,0.0003271,0.04779,0.0002146,3.881,0.01265,0,1,0
288000000000,288300000000,1843579567,0,351650065,0.00136,0.06262,0.08167,0.001337,0.02704,0.06262,1.144e-05,0.0003271,0.0213,0.001928,3.832,0.01336,0,1,0
288300000000,288600000000,1843579567,0,351650065,0.001347,0.06262,0.08167,0.001345,0.02704,0.06262,1.907e-06,0.0003271,0.01727,0.0002861,3.76,0.01285,0,1,0
288600000000,288900000000,1843579567,0,351650065,0.001352,0.06262,0.08167,0.001354,0.02704,0.06262,1.907e-06,0.0003271,0.02087,0.0002146,3.657,0.01233,0,1,0
288900000000,289200000000,1843579567,0,351650065,0.001276,0.06262,0.08167,0.001364,0.02707,0.06262,1.907e-06,0.0003271,0.01773,0.0001431,3.914,0.01308,0,1,0
289200000000,289500000000,1843579567,0,351650065,0.001163,0.06262,0.08167,0.001371,0.02707,0.06262,9.537e-07,0.0003271,0.01474,0.0001431,3.963,0.01358,0,1,0
289500000000,289800000000,1843579567,0,351650065,0.001286,0.06262,0.08167,0.001358,0.02704,0.06262,5.722e-06,0.0003281,0.02444,0.0007143,4.098,0.01426,0,1,0
289800000000,290100000000,1843579567,0,351650065,0.001364,0.06262,0.08167,0.001362,0.02704,0.06262,1.049e-05,0.0003281,0.01886,0.001286,4.298,0.01536,0,1,0
290100000000,290400000000,1843579567,0,351650065,0.001169,0.06262,0.08167,0.001368,0.02707,0.06262,5.722e-06,0.0003281,0.009277,0.001358,3.721,0.01272,0,1,0
290400000000,290700000000,1843579567,0,351650065,0.001188,0.06262,0.08167,0.001371,0.02707,0.06262,1.907e-06,0.0003281,0.02432,0.0002146,4.41,0.01601,0,1,0
290700000000,291000000000,1843579567,0,351650065,0.001228,0.06262,0.08167,0.001379,0.02707,0.06262,6.676e-06,0.0003281,0.01883,0.0006428,3.807,0.01275,0,1,0
291000000000,291300000000,1843579567,0,351650065,0.001192,0.06262,0.08167,0.001387,0.02707,0.06262,9.537e-06,0.0003281,0.03278,0.001785,4.497,0.01592,0,1,0
291300000000,291600000000,1843579567,0,351650065,0.00119,0.06262,0.08167,0.001394,0.0271,0.06262,2.861e-06,0.0003281,0.01184,0.0004997,4.407,0.01587,0,1,0
291600000000,291900000000,1843579567,0,351650065,0.00103,0.06262,0.08167,0.001402,0.0271,0.06262,9.537e-07,0.0003281,0.02094,0.0002146,4.061,0.01411,0,1,0
291900000000,292200000000,1843579567,0,351650065,0.001085,0.06262,0.08167,0.00141,0.0271,0.06262,3.815e-06,0.0003281,0.01901,0.0009289,3.33,0.01073,0,1,0
292200000000,292500000000,1843579567,0,351650065,0.001101,0.06262,0.08167,0.001415,0.0271,0.06262,7.629e-06,0.0003281,0.01642,0.001429,4.423,0.01599,0,1,0
292500000000,292800000000,1843579567,0,351650065,0.001095,0.06262,0.08167,0.001425,0.02713,0.06262,3.815e-06,0.0003281,0.01312,0.0003567,3.986,0.01415,0,1,0
292800000000,293100000000,1843579567,0,351650065,0.001112,0.06262,0.08167,0.001431,0.02713,0.06262,3.815e-06,0.0003281,0.006569,0.0006428,3.868,0.01331,0,1,0
293100000000,293400000000,1843579567,0,351650065,0.001064,0.06262,0.08167,0.001438,0.02713,0.06262,7.629e-06,0.0003281,0.007111,0.0009995,3.564,0.01201,0,1,0
293400000000,293700000000,1843579567,0,351650065,0.00111,0.06262,0.08167,0.001446,0.02713,0.06262,5.722e-06,0.0003281,0.01537,0.0007143,4.665,0.01755,0,1,0
293700000000,294000000000,1843579567,0,351650065,0.00103,0.06262,0.08167,0.001453,0.02713,0.06262,2.861e-06,0.0003281,0.01479,0.0002861,4.028,0.01402,0,1,0
294000000000,294300000000,1843579567,0,351650065,0.0008411,0.06262,0.08167,0.001459,0.02716,0.06262,9.537e-07,0.0003281,0.01483,0.0002861,3.177,0.01041,0,1,0
294300000000,294600000000,1843579567,0,351650065,0.001095,0.06262,0.08167,0.001465,0.02716,0.06262,3.815e-06,0.0003281,0.01672,0.0007858,3.952,0.01375,0,1,0
294600000000,294900000000,1843579567,0,351650065,0.001278,0.06262,0.08167,0.001472,0.02716,0.06262,9.537e-06,0.0003281,0.0343,0.002357,3.959,0.01349,0,1,0
294900000000,295200000000,1843579567,0,351650065,0.00139,0.06262,0.08167,0.001482,0.02716,0.06262,6.676e-06,0.0003281,0.01682,0.001215,3.69,0.01188,0,1,0
295200000000,295500000000,1843579567,0,351650065,0.001308,0.06262,0.08167,0.00149,0.02719,0.06262,2.861e-06,0.0003281,0.02151,0.0004282,4.613,0.01603,0,1,0
295500000000,295800000000,1843579567,0,351650065,0.001284,0.06262,0.08167,0.001499,0.02719,0.06262,4.768e-06,0.0003281,0.0242,0.0004282,3.418,0.01051,0,1,0
295800000000,296100000000,1843579567,0,351650065,0.001488,0.06262,0.08167,0.001509,0.02719,0.06262,4.768e-06,0.0003281,0.01926,0.0003567,3.235,0.009965,0,1,0
296100000000,296400000000,1843579567,0,351650065,0.001371,0.06262,0.08167,0.001518,0.02722,0.06262,1.907e-06,0.0003281,0.02899,0.0002146,4.016,0.01352,0,1,0
296400000000,296700000000,1843579567,0,351650065,0.001492,0.06262,0.08167,0.001526,0.02722,0.06262,1.049e-05,0.0003281,0.01944,0.002213,4.028,0.01362,0,1,0
296700000000,297000000000,1843579567,0,351650065,0.001596,0.06262,0.08167,0.001534,0.02722,0.06262,2.861e-06,0.0003281,0.02588,0.0003567,4.37,0.01507,0,1,0
297000000000,297300000000,1843579567,0,351650065,0.001999,0.06262,0.08167,0.00153,0.02722,0.06262,9.537e-06,0.0003281,0.03345,0.001215,3.947,0.01257,0,1,0
297300000000,297600000000,1843579567,0,351650065,0.001724,0.06262,0.08167,0.001543,0.02722,0.06262,2.861e-06,0.0003281,0.01987,0.0002146,3.892,0.01303,0,1,0
297600000000,297900000000,1843579567,0,351650065,0.001968,0.06262,0.08167,0.001549,0.02725,0.06262,2.861e-06,0.0003281,0.0376,0.0002861,3.728,0.01254,0,1,0
297900000000,298200000000,1843579567,0,351650065,0.002098,0.06262,0.08167,0.001537,0.02722,0.06262,2.861e-06,0.0003281,0.02887,0.0003567,3.417,0.01084,0,1,0
298200000000,298500000000,1843579567,0,351650065,0.002182,0.06262,0.08154,0.001532,0.02722,0.06262,2.861e-06,0.0003281,0.03333,0.0002146,3.49,0.01051,0,1,0
298500000000,298800000000,1843579567,0,351650065,0.002312,0.06262,0.08154,0.001528,0.02722,0.06262,1.335e-05,0.0003281,0.04785,0.001215,3.607,0.01135,0,1,0
298800000000,299100000000,1843579567,0,351650065,0.002422,0.06262,0.08167,0.001532,0.02722,0.06262,6.676e-06,0.0003281,0.03552,0.0004997,3.265,0.01035,0,1,0
299100000000,299400000000,1843579567,0,351650065,0.002342,0.06262,0.08154,0.001528,0.02722,0.06262,5.722e-06,0.0003281,0.03247,0.0009995,3.717,0.01255,0,1,0
299400000000,299700000000,1843579567,0,351650065,0.002247,0.06262,0.08167,0.001534,0.02722,0.06262,2.861e-06,0.0003281,0.03882,0.0002861,3.27,0.009942,0,1,0
299700000000,300000000000,1843579567,0,351650065,0.001598,0.06262,0.08167,0.001547,0.02725,0.06262,5.722e-06,0.0003281,0.02701,0.0006428,3.458,0.01141,0,1,0
