5700000000,6000000000,2436304513,0,998338022,0.01082,0.01164,0.01553,0.0003757,0.0008745,0.01169,3.242e-05,4.387e-05,0.02939,0.003716,5.206,0.01775,0,1,0
6000000000,6300000000,2436304513,0,998338022,0.01045,0.01166,0.01553,0.0005054,0.001005,0.01172,2.575e-05,4.387e-05,0.02942,0.001572,5.15,0.01762,0,1,0
6300000000,6600000000,2436304513,0,998338022,0.01208,0.01166,0.01553,0.0006447,0.001144,0.0117,2.193e-05,4.387e-05,0.0329,0.001358,5.071,0.01697,0,1,0
6600000000,6900000000,2436304513,0,998338022,0.01279,0.01167,0.01553,0.000493,0.0009918,0.01173,2.575e-05,4.387e-05,0.034,0.002071,5.074,0.01727,0,1,0
6900000000,7200000000,2436304513,0,998338022,0.01164,0.01169,0.01553,0.0005741,0.001074,0.01173,2.575e-05,4.387e-05,0.02954,0.003143,5.074,0.01724,0,1,0
7200000000,7500000000,2436304513,0,998338022,0.01147,0.01172,0.01553,0.000721,0.001221,0.01181,3.815e-05,4.387e-05,0.03125,0.003716,5.202,0.01747,0,1,0
7500000000,7800000000,2436304513,0,998338022,0.01094,0.0117,0.01553,0.0008507,0.00135,0.01178,2.67e-05,4.387e-05,0.03174,0.003071,5.162,0.01818,0,1,0
7800000000,8100000000,2436304513,0,998338022,0.01091,0.01169,0.01553,0.0005684,0.001068,0.01172,2.766e-05,4.387e-05,0.02573,0.002644,5.443,0.01968,0,1,0
8100000000,8400000000,2436304513,0,998338022,0.01122,0.0117,0.01553,0.0003967,0.0008965,0.01175,2.193e-05,4.387e-05,0.02502,0.0009995,5.401,0.01951,0,1,0
8400000000,8700000000,2436304513,0,998338022,0.01259,0.01172,0.01553,0.0004072,0.000906,0.01176,6.294e-05,4.387e-05,0.03006,0.006714,5.112,0.01769,0,1,0
8700000000,9000000000,2436304513,0,998338022,0.0126,0.01172,0.01553,0.0003824,0.0008821,0.01175,5.531e-05,4.387e-05,0.03064,0.006569,5.184,0.01787,0,1,0
9000000000,9300000000,2436304513,0,998338022,0.01195,0.01173,0.01553,0.0003395,0.0008383,0.01176,2.193e-05,4.387e-05,0.02945,0.001785,5.07,0.01747,0,1,0
9300000000,9600000000,2436304513,0,998338022,0.01173,0.01172,0.01553,0.0004864,0.0009861,0.01178,1.907e-05,4.387e-05,0.02911,0.0009289,5.128,0.01764,0,1,0
9600000000,9900000000,2436304513,0,998338022,0.0112,0.01172,0.01553,0.0003004,0.0008001,0.01176,3.719e-05,4.387e-05,0.02893,0.00293,5.152,0.01781,0,1,0
9900000000,10200000000,2436304513,0,998338022,0.011,0.01173,0.01553,0.0003691,0.0008688,0.0118,2.67e-05,4.387e-05,0.03967,0.001928,5.202,0.01813,0,1,0
10200000000,10500000000,2436304513,0,998338022,0.0105,0.01173,0.01553,0.0004559,0.0009546,0.01178,2.193e-05,4.387e-05,0.04114,0.001642,5.057,0.01753,0,1,0
10500000000,10800000000,2436304513,0,998338022,0.01064,0.01176,0.01553,0.0002356,0.0007353,0.01186,1.717e-05,4.387e-05,0.03937,0.0009289,5.564,0.0192,0,1,0
10800000000,11100000000,2436304513,0,998338022,0.009857,0.01175,0.01553,0.0003548,0.0008545,0.0118,1.907e-05,4.387e-05,0.03278,0.001572,5.211,0.01797,0,1,0
11100000000,11400000000,2436304513,0,998338022,0.009079,0.01181,0.01553,0.000473,0.0009718,0.01195,2.003e-05,4.387e-05,0.02802,0.001429,4.874,0.0167,0,1,0
11400000000,11700000000,2436304513,0,998338022,0.009399,0.01208,0.01552,0.0006065,0.001255,0.01221,0.0003796,4.387e-05,0.0332,0.03955,5.34,0.01892,0,1,0
11700000000,12000000000,2436304513,0,998338022,0.009338,0.01212,0.01553,0.0005054,0.001181,0.01215,2.098e-05,4.387e-05,0.02811,0.001358,5.26,0.0184,0,1,0
12000000000,12300000000,2436304513,0,998338022,0.009613,0.01212,0.01553,0.0006161,0.001291,0.01216,1.526e-05,4.387e-05,0.04999,0.0009289,5.492,0.01916,0,1,0
12300000000,12600000000,2436304513,0,998338022,0.01001,0.0119,0.01553,0.0006056,0.001163,0.01218,5.722e-05,4.387e-05,0.498,0.003998,5.674,0.0196,0,1,0
12600000000,12900000000,2436304513,0,998338022,0.009506,0.01178,0.01553,0.000638,0.001137,0.01181,5.15e-05,4.387e-05,0.02695,0.005501,5.671,0.01944,0,1,0
13200000000,13500000000,2436304513,0,998338022,0.007408,0.003212,0.006447,0.0008497,0.001707,0.005882,0.0001783,2.575e-05,0.07104,0.01007,1.797,0.004981,0,1,0
13500000000,13800000000,2436304513,0,998338022,0.008102,0.003059,0.005806,0.0008411,0.001709,0.003143,3.433e-05,2.575e-05,0.02472,0.00293,4.951,0.0175,0,1,0
13800000000,14100000000,2436304513,0,998338022,0.008728,0.003273,0.005806,0.0009193,0.001793,0.003429,2.956e-05,2.575e-05,0.03064,0.002499,4.646,0.01615,0,1,0
14100000000,14400000000,2436304513,0,998338022,0.008926,0.0033,0.005798,0.0009708,0.001844,0.003361,2.575e-05,2.575e-05,0.03815,0.003929,4.778,0.01702,0,1,0
14400000000,14700000000,2436304513,0,998338022,0.008911,0.003284,0.005798,0.0006943,0.001568,0.003372,2.098e-05,2.67e-05,0.0238,0.001429,4.836,0.01726,0,1,0
14700000000,15000000000,2436304513,0,998338022,0.008606,0.003319,0.005806,0.0007887,0.001661,0.003433,1.335e-05,2.67e-05,0.03766,0.0007858,5.093,0.01818,0,1,0
15000000000,15300000000,2436304513,0,998338022,0.01149,0.003426,0.006783,0.0009165,0.001789,0.00351,2.67e-05,2.67e-05,0.03363,0.003284,4.584,0.01564,0,1,0
15300000000,15600000000,2436304513,0,998338022,0.007668,0.00341,0.005798,0.0009031,0.001776,0.00346,2.098e-05,2.766e-05,0.0246,0.00293,5.289,0.01875,0,1,0
15600000000,15900000000,2436304513,0,998338022,0.009811,0.003437,0.005798,0.0007124,0.001585,0.003487,2.48e-05,2.766e-05,0.03351,0.002644,5.665,0.01997,0,1,0
15900000000,16200000000,2436304513,0,998338022,0.009125,0.003937,0.007538,0.0008202,0.001694,0.004066,2.384e-05,2.766e-05,0.03961,0.002144,5.172,0.01829,0,1,0
16200000000,16500000000,2436304513,0,998338022,0.009201,0.004028,0.007736,0.0008478,0.00172,0.004112,1.812e-05,2.766e-05,0.03033,0.001358,5.29,0.01858,0,1,0
16500000000,16800000000,2436304513,0,998338022,0.008499,0.004036,0.007744,0.0006533,0.001526,0.004089,1.526e-05,2.861e-05,0.02115,0.0008574,5.12,0.01791,0,1,0
16800000000,17100000000,2436304513,0,998338022,0.008453,0.004028,0.007744,0.0007544,0.001629,0.004089,1.335e-05,2.861e-05,0.02307,0.0007858,5.303,0.01859,0,1,0
17100000000,17400000000,2436304513,0,998338022,0.008087,0.004028,0.007744,0.0008631,0.001738,0.004082,1.431e-05,2.861e-05,0.02298,0.001143,4.986,0.01763,0,1,0
17400000000,17700000000,2436304513,0,998338022,0.007874,0.004028,0.007744,0.0008011,0.001675,0.004074,1.717e-05,2.861e-05,0.02032,0.001499,5.286,0.01864,0,1,0
17700000000,18000000000,2436304513,0,998338022,0.009048,0.004074,0.007744,0.0006762,0.001549,0.004135,1.717e-05,2.956e-05,0.0228,0.001785,5.245,0.01829,0,1,0
18000000000,18300000000,2436304513,0,998338022,0.008957,0.004173,0.007736,0.0008478,0.00177,0.004494,0.0003996,2.956e-05,0.03625,0.02921,5.428,0.01895,0,1,0
18300000000,18600000000,2436304513,0,998338022,0.007935,0.004402,0.007736,0.001013,0.00206,0.004478,1.907e-05,2.956e-05,0.02289,0.001499,5.201,0.01794,0,1,0
18600000000,18900000000,2436304513,0,998338022,0.007774,0.004456,0.007736,0.000823,0.001871,0.004524,1.907e-05,3.052e-05,0.02347,0.001143,5.094,0.01822,0,1,0
18900000000,19200000000,2436304513,0,998338022,0.00779,0.004433,0.007736,0.0009432,0.001984,0.004494,1.717e-05,3.052e-05,0.01929,0.001143,5.111,0.018,0,1,0
19200000000,19500000000,2436304513,0,998338022,0.007874,0.004105,0.007744,0.0009346,0.001808,0.004166,2.003e-05,3.052e-05,0.02353,0.001499,5.145,0.01837,0,1,0
19500000000,19800000000,2436304513,0,998338022,0.008499,0.004158,0.007744,0.0006161,0.00149,0.004204,1.717e-05,3.147e-05,0.02264,0.001642,5.143,0.01797,0,1,0
19800000000,20100000000,2436304513,0,998338022,0.00769,0.00412,0.007744,0.0006571,0.001532,0.00415,1.431e-05,3.147e-05,0.01865,0.001358,4.896,0.01735,0,1,0
20100000000,20400000000,2436304513,0,998338022,0.007286,0.004105,0.007744,0.0007648,0.001638,0.004128,1.431e-05,3.147e-05,0.02612,0.001072,5.029,0.01807,0,1,0
20400000000,20700000000,2436304513,0,998338022,0.007523,0.004128,0.007744,0.0008726,0.001747,0.004166,1.335e-05,3.147e-05,0.02402,0.0009289,4.992,0.01791,0,1,0
20700000000,21000000000,2436304513,0,998338022,0.007698,0.004112,0.007744,0.0009689,0.001842,0.00415,1.335e-05,3.242e-05,0.0275,0.0007143,5.45,0.01917,0,1,0
21000000000,21300000000,2436304513,0,998338022,0.007492,0.004128,0.007744,0.0009861,0.001862,0.004204,1.526e-05,3.242e-05,0.01791,0.001072,5.448,0.01949,0,1,0
21300000000,21600000000,2436304513,0,998338022,0.006729,0.004135,0.007744,0.000783,0.001657,0.004204,1.621e-05,3.242e-05,0.02444,0.0007143,5.35,0.01897,0,1,0
21600000000,21900000000,2436304513,0,998338022,0.006454,0.004196,0.007744,0.0007944,0.001669,0.004242,2.193e-05,3.242e-05,0.02393,0.003071,5.449,0.0189,0,1,0
21900000000,22200000000,2436304513,0,998338022,0.006424,0.004219,0.007744,0.0005751,0.00145,0.004265,1.907e-05,3.338e-05,0.02054,0.001572,5.162,0.01813,0,1,0
22200000000,22500000000,2436304513,0,998338022,0.005867,0.004219,0.007744,0.0006638,0.001537,0.004288,1.049e-05,3.338e-05,0.02002,0.0006428,4.961,0.01743,0,1,0
22500000000,22800000000,2436304513,0,998338022,0.006218,0.004333,0.007744,0.000742,0.001616,0.004402,1.144e-05,3.338e-05,0.02023,0.0006428,5.65,0.01991,0,1,0
22800000000,23100000000,2436304513,0,998338022,0.005531,0.004356,0.007751,0.0007896,0.001663,0.00441,2.098e-05,3.338e-05,0.02704,0.002785,5.039,0.01761,0,1,0
23100000000,23400000000,2436304513,0,998338022,0.004951,0.004379,0.007751,0.0004921,0.001368,0.004425,2.193e-05,3.433e-05,0.03284,0.002998,4.918,0.0176,0,1,0
23400000000,23700000000,2436304513,0,998338022,0.005424,0.004356,0.007744,0.0005674,0.001442,0.004395,2.48e-05,3.433e-05,0.01541,0.003502,5.391,0.01937,0,1,0
23700000000,24000000000,2436304513,0,998338022,0.00576,0.004356,0.007744,0.000639,0.001514,0.004379,1.24e-05,3.433e-05,0.01562,0.0009289,5.529,0.02007,0,1,0
24000000000,24300000000,2436304513,0,998338022,0.005661,0.004349,0.007744,0.0007143,0.001589,0.004379,1.431e-05,3.433e-05,0.01636,0.001286,5.718,0.02096,0,1,0
24300000000,24600000000,2436304513,0,998338022,0.005135,0.004356,0.007751,0.0004826,0.001358,0.00441,1.24e-05,3.433e-05,0.02002,0.001143,5.228,0.01908,0,1,0
24600000000,24900000000,2436304513,0,998338022,0.004929,0.004341,0.007751,0.0004663,0.001341,0.004372,1.049e-05,3.529e-05,0.02393,0.0006428,5.043,0.01821,0,1,0
24900000000,25200000000,2436304513,0,998338022,0.004997,0.004356,0.007744,0.0005484,0.001423,0.004425,1.049e-05,3.529e-05,0.01454,0.0004997,5.049,0.01829,0,1,0
25200000000,25500000000,2436304513,0,998338022,0.005119,0.004471,0.007744,0.0006943,0.001625,0.004738,0.000371,3.529e-05,0.03412,0.04462,5.655,0.02112,0,1,0
25500000000,25800000000,2436304513,0,998338022,0.004959,0.0047,0.007736,0.0009089,0.001957,0.004738,1.717e-05,3.529e-05,0.01715,0.001143,5.55,0.02069,0,1,0
25800000000,26100000000,2436304513,0,998338022,0.005196,0.004707,0.007736,0.0009737,0.002022,0.004753,1.431e-05,3.529e-05,0.02249,0.0007858,5.722,0.02137,0,1,0
26100000000,26400000000,2436304513,0,998338022,0.00486,0.004677,0.007744,0.001072,0.002098,0.004753,1.335e-05,3.624e-05,0.01611,0.0009289,5.859,0.02185,0,1,0
26400000000,26700000000,2436304513,0,998338022,0.004936,0.004387,0.007744,0.001083,0.001957,0.004417,1.144e-05,3.624e-05,0.01791,0.0007858,5.799,0.02148,0,1,0
26700000000,27000000000,2436304513,0,998338022,0.00473,0.004387,0.007751,0.0006428,0.001518,0.00444,1.812e-05,3.624e-05,0.03845,0.002571,5.581,0.02024,0,1,0
27000000000,27300000000,2436304513,0,998338022,0.004898,0.004395,0.007751,0.000659,0.001534,0.004448,9.537e-06,3.624e-05,0.02045,0.0006428,5.577,0.02073,0,1,0
27300000000,27600000000,2436304513,0,998338022,0.0047,0.004425,0.007744,0.0007296,0.001604,0.004494,1.049e-05,3.624e-05,0.01724,0.0007143,5.257,0.01922,0,1,0
27600000000,27900000000,2436304513,0,998338022,0.004227,0.00441,0.007751,0.0004845,0.001358,0.00444,1.144e-05,3.719e-05,0.02026,0.0008574,5.386,0.01946,0,1,0
27900000000,28200000000,2436304513,0,998338022,0.004463,0.004417,0.007751,0.0004711,0.001347,0.004433,8.583e-06,3.719e-05,0.01678,0.0005713,5.756,0.02068,0,1,0
28200000000,28500000000,2436304513,0,998338022,0.004791,0.004448,0.007744,0.0005283,0.001402,0.004478,1.24e-05,3.719e-05,0.01852,0.0007143,6.028,0.02185,0,1,0
28500000000,28800000000,2436304513,0,998338022,0.005539,0.004478,0.007744,0.0005608,0.001434,0.004562,1.335e-05,3.719e-05,0.01587,0.0007,5.839,0.02158,0,1,0
28800000000,29100000000,2436304513,0,998338022,0.005959,0.004486,0.007744,0.0006008,0.001474,0.004532,1.335e-05,3.719e-05,0.02759,0.0008574,6.15,0.02254,0,1,0
29100000000,29400000000,2436304513,0,998338022,0.005547,0.004555,0.007751,0.0003128,0.001188,0.004623,1.335e-05,3.815e-05,0.02036,0.0008574,6.009,0.02218,0,1,0
29400000000,29700000000,2436304513,0,998338022,0.005615,0.004524,0.007744,0.0003929,0.001268,0.004547,1.431e-05,3.815e-05,0.02002,0.001143,6.076,0.0222,0,1,0
29700000000,30000000000,2436304513,0,998338022,0.00354,0.004517,0.007751,0.0004539,0.001329,0.004555,9.537e-06,3.815e-05,0.01497,0.0009995,6.124,0.02289,0,1,0
30000000000,30300000000,2436304513,0,998338022,0.004295,0.004517,0.007751,0.0005093,0.001383,0.004547,9.537e-06,3.815e-05,0.02094,0.0008574,5.683,0.02081,0,1,0
30300000000,30600000000,2436304513,0,998338022,0.004494,0.004509,0.007751,0.0005646,0.00144,0.004532,1.049e-05,3.815e-05,0.02414,0.001072,6.006,0.02231,0,1,0
30600000000,30900000000,2436304513,0,998338022,0.004578,0.004509,0.007751,0.000618,0.001492,0.004524,1.526e-05,3.815e-05,0.01953,0.001642,5.959,0.02219,0,1,0
30900000000,31200000000,2436304513,0,998338022,0.003952,0.004494,0.007751,0.0003366,0.001211,0.004517,8.583e-06,3.91e-05,0.02374,0.0004282,5.903,0.02151,0,1,0
31200000000,31500000000,2436304513,0,998338022,0.003429,0.004524,0.007751,0.0003433,0.001219,0.004555,8.583e-06,3.91e-05,0.01947,0.0006428,6.165,0.02336,0,1,0
31500000000,31800000000,2436304513,0,998338022,0.003826,0.004509,0.007751,0.0003891,0.001265,0.004555,8.583e-06,3.91e-05,0.01834,0.0004282,6.057,0.02267,0,1,0
31800000000,32100000000,2436304513,0,998338022,0.003983,0.004517,0.007751,0.0004396,0.001314,0.004547,8.583e-06,3.91e-05,0.01569,0.0005713,5.86,0.02158,0,1,0
32100000000,32400000000,2436304513,0,998338022,0.004509,0.004509,0.007751,0.0004959,0.001371,0.004539,1.049e-05,3.91e-05,0.01978,0.0006428,6.013,0.02197,0,1,0
32400000000,32700000000,2436304513,0,998338022,0.004822,0.004639,0.007744,0.0006123,0.001535,0.004951,0.0003767,3.91e-05,0.03094,0.02301,5.787,0.02125,0,1,0
32700000000,33000000000,2436304513,0,998338022,0.005478,0.005005,0.007744,0.000824,0.001873,0.005058,2.384e-05,3.91e-05,0.02203,0.002071,5.775,0.02057,0,1,0
33000000000,33300000000,2436304513,0,998338022,0.005554,0.004959,0.007736,0.0009069,0.001957,0.005005,2.098e-05,4.005e-05,0.02213,0.003216,6.284,0.02251,0,1,0
33300000000,33600000000,2436304513,0,998338022,0.005081,0.004898,0.007736,0.001001,0.002037,0.004951,1.717e-05,4.005e-05,0.02084,0.001358,6.279,0.02256,0,1,0
33600000000,33900000000,2436304513,0,998338022,0.004982,0.004578,0.007751,0.001238,0.002113,0.004601,2.384e-05,4.005e-05,0.02396,0.003643,5.632,0.01995,0,1,0
33900000000,34200000000,2436304513,0,998338022,0.005394,0.004555,0.007744,0.001253,0.002129,0.004578,1.717e-05,4.005e-05,0.01804,0.001429,6.193,0.02181,0,1,0
34200000000,34500000000,2436304513,0,998338022,0.005341,0.00457,0.007751,0.0006218,0.001497,0.004593,2.098e-05,4.005e-05,0.02325,0.003143,5.674,0.02037,0,1,0
34500000000,34800000000,2436304513,0,998338022,0.004929,0.00457,0.007751,0.0007038,0.001579,0.004585,1.24e-05,4.101e-05,0.01317,0.0006428,5.492,0.01958,0,1,0
34800000000,35100000000,2436304513,0,998338022,0.00499,0.004555,0.007744,0.0007849,0.001659,0.00457,9.537e-06,4.101e-05,0.02051,0.0005713,5.737,0.02038,0,1,0
35100000000,35400000000,2436304513,0,998338022,0.004974,0.00457,0.007751,0.0007706,0.001646,0.004608,1.049e-05,4.101e-05,0.02072,0.0005713,5.27,0.01874,0,1,0
35400000000,35700000000,2436304513,0,998338022,0.004921,0.004616,0.007744,0.0005474,0.001423,0.004654,1.907e-05,4.101e-05,0.01797,0.002285,5.119,0.01835,0,1,0
35700000000,36000000000,2436304513,0,998338022,0.004562,0.004616,0.007744,0.0006199,0.001495,0.004654,8.583e-06,4.101e-05,0.01323,0.0005713,5.725,0.02067,0,1,0
36000000000,36300000000,2436304513,0,998338022,0.005417,0.004585,0.007744,0.0004349,0.00131,0.004608,1.717e-05,4.196e-05,0.02115,0.001572,5.904,0.02113,0,1,0
36300000000,36600000000,2436304513,0,998338022,0.004288,0.004578,0.007751,0.0003891,0.001265,0.004601,1.335e-05,4.196e-05,0.03131,0.0009995,5.955,0.02119,0,1,0
36600000000,36900000000,2436304513,0,998338022,0.004425,0.004585,0.007751,0.0004425,0.001318,0.004601,1.526e-05,4.196e-05,0.02045,0.001358,5.974,0.02155,0,1,0
36900000000,37200000000,2436304513,0,998338022,0.005402,0.004601,0.007744,0.0005159,0.001392,0.004616,2.003e-05,4.196e-05,0.02426,0.002357,6.048,0.02154,0,1,0
37200000000,37500000000,2436304513,0,998338022,0.005463,0.004593,0.007744,0.0005684,0.001444,0.004608,1.717e-05,4.196e-05,0.02954,0.002144,5.583,0.01978,0,1,0
37500000000,37800000000,2436304513,0,998338022,0.005501,0.004578,0.007751,0.0002861,0.001162,0.004608,1.335e-05,4.292e-05,0.02063,0.0005713,5.754,0.02046,0,1,0
37800000000,38100000000,2436304513,0,998338022,0.005424,0.004593,0.007751,0.0003719,0.001247,0.004608,1.24e-05,4.292e-05,0.03973,0.0007143,5.345,0.0193,0,1,0
38100000000,38400000000,2436304513,0,998338022,0.00544,0.004585,0.007744,0.0004568,0.001331,0.004616,1.144e-05,4.292e-05,0.0542,0.0009289,5.511,0.0201,0,1,0
38400000000,38700000000,2436304513,0,998338022,0.00576,0.004578,0.007744,0.0005198,0.001394,0.004608,1.144e-05,4.292e-05,0.01749,0.0008574,5.819,0.02127,0,1,0
38700000000,39000000000,2436304513,0,998338022,0.006203,0.004608,0.007751,0.0002089,0.001085,0.004639,3.052e-05,4.292e-05,0.0202,0.005356,6.074,0.02187,0,1,0
39000000000,39300000000,2436304513,0,998338022,0.006325,0.004601,0.007751,0.0002985,0.001173,0.004623,2.098e-05,4.387e-05,0.02179,0.003998,6.106,0.02272,0,1,0
39300000000,39600000000,2436304513,0,998338022,0.005867,0.004654,0.007744,0.0003757,0.001251,0.0047,1.24e-05,4.387e-05,0.02542,0.0007143,6.145,0.02197,0,1,0
39600000000,39900000000,2436304513,0,998338022,0.006378,0.004707,0.007744,0.0005007,0.001419,0.004982,0.0004044,4.387e-05,0.02896,0.02173,6.124,0.02238,0,1,0
39900000000,40200000000,2436304513,0,998338022,0.006104,0.004967,0.007736,0.0007191,0.001768,0.004982,1.812e-05,4.387e-05,0.0686,0.003143,6.172,0.02241,0,1,0
40200000000,40500000000,2436304513,0,998338022,0.005791,0.004959,0.007744,0.0007944,0.001844,0.004982,3.529e-05,4.482e-05,0.01917,0.003716,6.211,0.02244,0,1,0
40500000000,40800000000,2436304513,0,998338022,0.00547,0.004944,0.007744,0.0006237,0.001665,0.004982,4.482e-05,4.387e-05,0.02127,0.003357,5.855,0.02123,0,1,0
51000000000,51300000000,2436304513,0,998338022,0.01251,0.00486,0.007744,0.000288,0.001163,0.004898,1.812e-05,4.387e-05,0.02954,0.0009403,5.262,0.01839,0,1,0
51300000000,51600000000,2436304513,0,998338022,0.01233,0.004852,0.007744,0.0004358,0.001312,0.004906,1.812e-05,4.387e-05,0.02737,0.001072,4.945,0.01718,0,1,0
51600000000,51900000000,2436304513,0,998338022,0.01352,0.004868,0.007744,0.0005865,0.001463,0.004936,2.384e-05,4.387e-05,0.03217,0.001072,5.433,0.01917,0,1,0
51900000000,52200000000,2436304513,0,998338022,0.01213,0.005043,0.007744,0.0004082,0.001286,0.005287,2.384e-05,4.387e-05,0.0274,0.001715,4.952,0.01752,0,1,0
52200000000,52500000000,2436304513,0,998338022,0.0128,0.004944,0.007744,0.0005121,0.001389,0.005066,2.098e-05,4.387e-05,0.02817,0.001642,5.112,0.01818,0,1,0
52500000000,52800000000,2436304513,0,998338022,0.01221,0.004921,0.007744,0.0004015,0.001278,0.004974,3.624e-05,4.387e-05,0.03546,0.003784,5.174,0.01829,0,1,0
52800000000,53100000000,2436304513,0,998338022,0.01228,0.004921,0.007744,0.0004005,0.001278,0.004974,1.907e-05,4.387e-05,0.05621,0.001143,5.112,0.01808,0,1,0
53100000000,53400000000,2436304513,0,998338022,0.01117,0.004921,0.007744,0.0005398,0.001415,0.004982,1.907e-05,4.387e-05,0.02762,0.0009289,4.883,0.01706,0,1,0
53400000000,53700000000,2436304513,0,998338022,0.01129,0.00531,0.007744,0.0006733,0.001551,0.005432,1.907e-05,4.387e-05,0.02979,0.001072,4.839,0.01667,0,1,0
53700000000,54000000000,2436304513,0,998338022,0.01213,0.005363,0.007744,0.0004826,0.00136,0.005424,2.003e-05,4.387e-05,0.05463,0.001215,5.25,0.01853,0,1,0
54000000000,54300000000,2436304513,0,998338022,0.01212,0.005447,0.00824,0.0002575,0.001177,0.005783,0.0004129,4.387e-05,0.04694,0.03049,4.978,0.01761,0,1,0
54300000000,54600000000,2436304513,0,998338022,0.01268,0.005707,0.009659,0.0005541,0.001606,0.005783,1.812e-05,4.387e-05,0.02817,0.001143,5.388,0.01901,0,1,0
54600000000,54900000000,2436304513,0,998338022,0.01143,0.005737,0.009659,0.0006981,0.001749,0.005814,1.812e-05,4.387e-05,0.03918,0.0009289,5.095,0.01846,0,1,0
54900000000,55200000000,2436304513,0,998338022,0.01176,0.005737,0.009659,0.000843,0.001888,0.005844,3.052e-05,4.387e-05,0.02682,0.003784,5.051,0.01822,0,1,0
55200000000,55500000000,2436304513,0,998338022,0.01219,0.005775,0.009674,0.001167,0.002045,0.005974,4.482e-05,4.387e-05,0.02789,0.002571,4.91,0.01693,0,1,0
55500000000,55800000000,2436304513,0,998338022,0.01187,0.005585,0.009674,0.0007067,0.001583,0.005692,2.575e-05,4.387e-05,0.03104,0.003216,4.897,0.01688,0,1,0
55800000000,56100000000,2436304513,0,998338022,0.01144,0.005562,0.009674,0.0003271,0.001204,0.005661,2.193e-05,4.387e-05,0.02994,0.001358,4.732,0.0163,0,1,0
56100000000,56400000000,2436304513,0,998338022,0.01328,0.005554,0.009674,0.000474,0.001352,0.005608,2.575e-05,4.387e-05,0.02988,0.002571,5.439,0.01912,0,1,0
56400000000,56700000000,2436304513,0,998338022,0.01305,0.005539,0.009674,0.0006294,0.001507,0.005592,1.717e-05,4.387e-05,0.04047,0.001358,5.033,0.01784,0,1,0
56700000000,57000000000,2436304513,0,998338022,0.01324,0.005539,0.009674,0.0007811,0.001657,0.005577,3.338e-05,4.387e-05,0.04895,0.004288,5.243,0.01831,0,1,0
57000000000,57300000000,2436304513,0,998338022,0.01305,0.005539,0.009674,0.0004835,0.00136,0.005577,1.812e-05,4.387e-05,0.06506,0.001215,5.036,0.01773,0,1,0
57300000000,57600000000,2436304513,0,998338022,0.01329,0.005577,0.009674,0.0003271,0.001204,0.005646,2.003e-05,4.387e-05,0.04602,0.002857,4.893,0.01712,0,1,0
57600000000,57900000000,2436304513,0,998338022,0.01392,0.005577,0.009674,0.0003061,0.001183,0.005623,5.341e-05,4.387e-05,0.05243,0.0065,5.089,0.01753,0,1,0
57900000000,58200000000,2436304513,0,998338022,0.01247,0.005608,0.009674,0.0002546,0.001131,0.005745,2.766e-05,4.387e-05,0.04541,0.001572,4.878,0.01731,0,1,0
58200000000,58500000000,2436304513,0,998338022,0.01312,0.005623,0.009674,0.000309,0.001186,0.005684,2.766e-05,4.387e-05,0.03143,0.002716,5.146,0.01858,0,1,0
58500000000,58800000000,2436304513,0,998338022,0.01295,0.005623,0.009674,0.000165,0.001041,0.005692,2.956e-05,4.387e-05,0.0289,0.003571,5.344,0.01882,0,1,0
58800000000,59100000000,2436304513,0,998338022,0.01225,0.005623,0.009674,0.0002995,0.001177,0.005692,4.101e-05,4.387e-05,0.03619,0.003357,4.999,0.01751,0,1,0
59100000000,59400000000,2436304513,0,998338022,0.01184,0.005615,0.009674,0.0004444,0.001322,0.005653,2.193e-05,4.387e-05,0.02594,0.001143,4.873,0.01703,0,1,0
59400000000,59700000000,2436304513,0,998338022,0.01215,0.005661,0.009689,0.0003691,0.001245,0.005722,2.861e-05,4.387e-05,0.09729,0.003357,4.869,0.01685,0,1,0
59700000000,60000000000,2436304513,0,998338022,0.01338,0.005753,0.009689,0.0004091,0.001286,0.005997,2.098e-05,4.387e-05,0.03833,0.001215,4.946,0.0174,0,1,0
60000000000,60300000000,2436304513,0,998338022,0.01471,0.005768,0.009689,0.0003519,0.00123,0.005989,4.864e-05,4.387e-05,0.04053,0.003643,5.38,0.01908,0,1,0
60300000000,60600000000,2436304513,0,998338022,0.0144,0.005684,0.009674,0.0003538,0.00123,0.005737,3.147e-05,4.387e-05,0.0343,0.003143,5.305,0.01857,0,1,0
60600000000,60900000000,2436304513,0,998338022,0.0143,0.005676,0.009689,0.0005217,0.001398,0.005707,2.956e-05,4.387e-05,0.02982,0.002785,5.165,0.01827,0,1,0
70800000000,71100000000,2436304513,0,998338022,0.0116,0.005959,0.009689,0.0002728,0.001081,0.006012,3.719e-05,4.387e-05,0.04077,0.002571,5.181,0.01769,0,1,0
71100000000,71400000000,2436304513,0,998338022,0.01305,0.005974,0.009674,0.0003738,0.001183,0.006073,4.005e-05,4.387e-05,0.03571,0.004211,5.617,0.01887,0,1,0
71400000000,71700000000,2436304513,0,998338022,0.01341,0.005974,0.009689,0.0002079,0.001015,0.006081,2.193e-05,4.387e-05,0.05115,0.001642,5.28,0.01761,0,1,0
71700000000,72000000000,2436304513,0,998338022,0.01302,0.005974,0.009689,0.0003214,0.001127,0.006027,2.67e-05,4.387e-05,0.02856,0.001358,5.194,0.01736,0,1,0
72000000000,72300000000,2436304513,0,998338022,0.01291,0.005981,0.009689,0.0004683,0.001274,0.006042,2.575e-05,4.387e-05,0.04639,0.002571,5.217,0.01733,0,1,0
72300000000,72600000000,2436304513,0,998338022,0.01306,0.005997,0.009689,0.0002708,0.001072,0.006088,3.147e-05,4.387e-05,0.04675,0.003284,5.186,0.01754,0,1,0
72600000000,72900000000,2436304513,0,998338022,0.01341,0.005997,0.009689,0.0003805,0.001179,0.006058,3.242e-05,4.387e-05,0.03857,0.001715,5.178,0.01756,0,1,0
72900000000,73200000000,2436304513,0,998338022,0.01315,0.006004,0.009689,0.0003386,0.001131,0.006073,3.242e-05,4.387e-05,0.03156,0.003643,5.053,0.01695,0,1,0
73200000000,73500000000,2436304513,0,998338022,0.01306,0.005997,0.009689,0.0003014,0.001093,0.006035,1.812e-05,4.387e-05,0.0267,0.001072,5.232,0.01776,0,1,0
73500000000,73800000000,2436304513,0,998338022,0.01364,0.005997,0.009689,0.000452,0.001242,0.006042,2.48e-05,4.387e-05,0.02988,0.001429,5.341,0.01796,0,1,0
73800000000,74100000000,2436304513,0,998338022,0.01363,0.006012,0.009689,0.0003948,0.001183,0.006134,4.768e-05,4.387e-05,0.03271,0.003216,5.347,0.01786,0,1,0
74100000000,74400000000,2436304513,0,998338022,0.01331,0.005997,0.009689,0.0003786,0.00116,0.006058,2.48e-05,4.387e-05,0.03,0.001715,5.121,0.01712,0,1,0
74400000000,74700000000,2436304513,0,998338022,0.01355,0.006035,0.009689,0.0002155,0.0009975,0.006081,2.193e-05,4.387e-05,0.03259,0.001928,5.134,0.01722,0,1,0
74700000000,75000000000,2436304513,0,998338022,0.01315,0.006035,0.009689,0.0003014,0.001081,0.006081,2.575e-05,4.387e-05,0.03516,0.001429,5.022,0.01677,0,1,0
75000000000,75300000000,2436304513,0,998338022,0.01346,0.00602,0.009689,0.0003929,0.001173,0.006096,3.529e-05,4.387e-05,0.03284,0.003571,5.188,0.01775,0,1,0
75300000000,75600000000,2436304513,0,998338022,0.01321,0.006035,0.009689,0.0002222,0.0009995,0.006088,2.384e-05,4.387e-05,0.03198,0.002213,5.005,0.01661,0,1,0
75600000000,75900000000,2436304513,0,998338022,0.01328,0.006035,0.009689,0.0003786,0.001154,0.006119,3.052e-05,4.387e-05,0.04553,0.001928,5.061,0.01682,0,1,0
75900000000,76200000000,2436304513,0,998338022,0.0132,0.00605,0.009689,0.0003166,0.001085,0.006149,2.861e-05,4.387e-05,0.03278,0.001572,4.957,0.01626,0,1,0
76200000000,76500000000,2436304513,0,998338022,0.01338,0.00605,0.009689,0.0003138,0.001083,0.006104,3.338e-05,4.387e-05,0.03018,0.002213,5.185,0.01718,0,1,0
76500000000,76800000000,2436304513,0,998338022,0.01337,0.006058,0.009689,0.0003662,0.001131,0.006111,4.005e-05,4.387e-05,0.03448,0.003429,4.982,0.01638,0,1,0
76800000000,77100000000,2436304513,0,998338022,0.01393,0.006042,0.009689,0.0002394,0.001001,0.006096,2.289e-05,4.387e-05,0.0303,0.001286,5.197,0.01732,0,1,0
77100000000,77400000000,2436304513,0,998338022,0.01419,0.00605,0.009689,0.0003967,0.001158,0.006104,2.289e-05,4.387e-05,0.03717,0.001715,5.428,0.01793,0,1,0
77400000000,77700000000,2436304513,0,998338022,0.01366,0.006058,0.009689,0.0003767,0.001131,0.006134,3.242e-05,4.387e-05,0.02972,0.002571,5.141,0.01705,0,1,0
77700000000,78000000000,2436304513,0,998338022,0.01433,0.006058,0.009689,0.0003357,0.001089,0.006126,3.529e-05,4.387e-05,0.04449,0.002213,5.192,0.01711,0,1,0
78000000000,78300000000,2436304513,0,998338022,0.01477,0.00634,0.009674,0.0005674,0.001459,0.006447,0.0004282,4.387e-05,0.04144,0.03308,5.314,0.01769,0,1,0
78300000000,78600000000,2436304513,0,998338022,0.01372,0.006409,0.009674,0.0004768,0.001398,0.00647,2.67e-05,4.387e-05,0.03094,0.001642,5.051,0.01697,0,1,0
78600000000,78900000000,2436304513,0,998338022,0.01437,0.006432,0.009674,0.0006151,0.001537,0.006516,2.956e-05,4.387e-05,0.03235,0.002499,5.144,0.01701,0,1,0
78900000000,79200000000,2436304513,0,998338022,0.01466,0.006447,0.009674,0.000412,0.001335,0.006523,3.624e-05,4.387e-05,0.02847,0.004211,5.076,0.01683,0,1,0
79200000000,79500000000,2436304513,0,998338022,0.01498,0.006203,0.009674,0.00068,0.001474,0.006538,3.815e-05,4.387e-05,0.03925,0.003998,5.268,0.01759,0,1,0
79500000000,79800000000,2436304513,0,998338022,0.01379,0.006126,0.009689,0.0002756,0.001022,0.006271,2.956e-05,4.482e-05,0.03326,0.001858,5.05,0.01668,0,1,0
79800000000,80100000000,2436304513,0,998338022,0.01477,0.006111,0.009689,0.0003395,0.001083,0.006157,3.242e-05,4.387e-05,0.03796,0.001642,5.133,0.01713,0,1,0
80100000000,80400000000,2436304513,0,998338022,0.01424,0.006126,0.009689,0.0002613,0.0009918,0.00621,3.719e-05,4.387e-05,0.03552,0.003643,5.113,0.01702,0,1,0
80400000000,80700000000,2436304513,0,998338022,0.01552,0.006104,0.009674,0.0002899,0.001013,0.006149,2.193e-05,4.387e-05,0.03497,0.002644,5.294,0.01756,0,1,0
80700000000,81000000000,2436304513,0,998338022,0.01498,0.006104,0.009674,0.0004396,0.001154,0.006172,4.673e-05,4.387e-05,0.03784,0.005928,5.263,0.01739,0,1,0
85800000000,86100000000,2436304513,0,998338022,0.01669,0.006248,0.009674,0.0006351,0.001272,0.006302,4.101e-05,4.387e-05,0.06946,0.004074,5.259,0.01709,0,1,0
86100000000,86400000000,2436304513,0,998338022,0.01596,0.006294,0.009689,0.0003757,0.001013,0.00647,5.245e-05,4.387e-05,0.06482,0.008575,4.97,0.01626,0,1,0
86400000000,86700000000,2436304513,0,998338022,0.0163,0.006287,0.009689,0.0004272,0.001064,0.006371,5.245e-05,4.387e-05,0.07837,0.004929,5.081,0.01678,0,1,0
86700000000,87000000000,2436304513,0,998338022,0.01562,0.006256,0.009689,0.0002394,0.0008764,0.00631,3.815e-05,4.387e-05,0.03314,0.003571,5.062,0.01667,0,1,0
87000000000,87300000000,2436304513,0,998338022,0.015,0.006287,0.009689,0.0003614,0.0009975,0.006355,2.766e-05,4.387e-05,0.03595,0.001429,4.847,0.0161,0,1,0
87300000000,87600000000,2436304513,0,998338022,0.01599,0.006348,0.009689,0.000288,0.0009241,0.006737,3.815e-05,4.387e-05,0.06433,0.003506,5.061,0.01669,0,1,0
87600000000,87900000000,2436304513,0,998338022,0.01837,0.006538,0.009689,0.0003786,0.001015,0.006683,6.199e-05,4.387e-05,0.047,0.003784,5.147,0.01757,0,1,0
87900000000,88200000000,2436304513,0,998338022,0.01749,0.006432,0.009689,0.0002632,0.0008984,0.006485,2.67e-05,4.387e-05,0.07568,0.001858,5.113,0.01763,0,1,0
88200000000,88500000000,2436304513,0,998338022,0.01724,0.006424,0.009689,0.0004902,0.001125,0.00647,4.578e-05,4.387e-05,0.04224,0.002357,4.943,0.01632,0,1,0
88500000000,88800000000,2436304513,0,998338022,0.01874,0.006424,0.009674,0.0006905,0.001324,0.006493,3.338e-05,4.387e-05,0.03845,0.00243,5.316,0.01813,0,1,0
88800000000,89100000000,2436304513,0,998338022,0.01743,0.006599,0.009674,0.0008745,0.001507,0.006767,4.292e-05,4.482e-05,0.05762,0.003571,5.205,0.01795,0,1,0
89100000000,89400000000,2436304513,0,998338022,0.01755,0.006531,0.009674,0.001091,0.001722,0.006592,2.289e-05,4.387e-05,0.08411,0.001358,5.22,0.01855,0,1,0
89400000000,89700000000,2436304513,0,998338022,0.01703,0.0065,0.009674,0.001307,0.00194,0.006561,3.338e-05,4.387e-05,0.04504,0.001429,5.082,0.01717,0,1,0
89700000000,90000000000,2436304513,0,998338022,0.01715,0.006866,0.01018,0.0008688,0.001492,0.007332,8.583e-05,4.387e-05,0.07507,0.006432,4.989,0.01718,0,1,0
90000000000,90300000000,2436304513,0,998338022,0.01678,0.00666,0.00975,0.000658,0.001278,0.007118,0.0003824,4.387e-05,0.05042,0.05237,5.209,0.01824,0,1,0
90300000000,90600000000,2436304513,0,998338022,0.01642,0.006935,0.01031,0.0006104,0.001398,0.006996,2.766e-05,4.387e-05,0.05859,0.002071,5.124,0.01795,0,1,0
90600000000,90900000000,2436304513,0,998338022,0.01733,0.006935,0.009674,0.0004616,0.001245,0.006996,4.673e-05,4.387e-05,0.03674,0.004784,5.35,0.01869,0,1,0
101100000000,101400000000,2436304513,0,998338022,0.01176,0.006752,0.009689,0.0001936,0.0007343,0.00679,3.815e-05,4.387e-05,0.03979,0.003857,5.738,0.02016,0,1,0
101400000000,101700000000,2436304513,0,998338022,0.01495,0.00676,0.009674,0.0003786,0.0009193,0.006851,3.719e-05,4.387e-05,0.03345,0.002857,4.486,0.01462,0,1,0
101700000000,102000000000,2436304513,0,998338022,0.008087,0.006744,0.009689,0.0002356,0.0007763,0.006767,1.717e-05,4.482e-05,0.02121,0.0009995,4.956,0.01721,0,1,0
102000000000,102300000000,2436304513,0,998338022,0.007362,0.006744,0.009689,0.0002308,0.0007715,0.00679,2.289e-05,4.387e-05,0.06299,0.001785,5.13,0.01797,0,1,0
102300000000,102600000000,2436304513,0,998338022,0.008835,0.006744,0.009689,0.0003061,0.0008402,0.006828,2.193e-05,4.387e-05,0.03558,0.001858,5.053,0.01721,0,1,0
102600000000,102900000000,2436304513,0,998338022,0.008575,0.006805,0.009689,0.0004053,0.0009375,0.006897,2.956e-05,4.387e-05,0.05231,0.004143,4.814,0.01658,0,1,0
102900000000,103200000000,2436304513,0,998338022,0.009293,0.006767,0.009689,0.0003653,0.0008974,0.006813,3.052e-05,4.482e-05,0.02448,0.004356,4.889,0.01677,0,1,0
103200000000,103500000000,2436304513,0,998338022,0.009964,0.006775,0.009689,0.0002623,0.0007944,0.006836,2.48e-05,4.387e-05,0.02945,0.002357,4.823,0.01625,0,1,0
103500000000,103800000000,2436304513,0,998338022,0.01134,0.00679,0.009674,0.0003815,0.0009136,0.006836,1.621e-05,4.387e-05,0.02902,0.001286,5.839,0.01994,0,1,0
103800000000,104100000000,2436304513,0,998338022,0.01013,0.006783,0.009689,0.0004034,0.0009356,0.006821,2.861e-05,4.482e-05,0.02789,0.004501,5.508,0.01887,0,1,0
104100000000,104400000000,2436304513,0,998338022,0.01106,0.006798,0.009689,0.0002184,0.0007505,0.006851,1.812e-05,4.387e-05,0.0303,0.001358,5.78,0.01955,0,1,0
104400000000,104700000000,2436304513,0,998338022,0.01044,0.006889,0.01019,0.0003872,0.0009651,0.007202,0.0003548,4.387e-05,0.03558,0.04834,5.664,0.0195,0,1,0
104700000000,105000000000,2436304513,0,998338022,0.01161,0.007141,0.01047,0.0005932,0.001299,0.007172,2.003e-05,4.387e-05,0.03406,0.001572,6.161,0.02104,0,1,0
105000000000,105300000000,2436304513,0,998338022,0.0106,0.007149,0.009689,0.0006428,0.001348,0.007179,4.101e-05,4.482e-05,0.02924,0.004288,6.315,0.0216,0,1,0
105300000000,105600000000,2436304513,0,998338022,0.0106,0.007103,0.009689,0.0006504,0.001341,0.007164,5.245e-05,4.387e-05,0.03006,0.004288,6.319,0.02198,0,1,0
105600000000,105900000000,2436304513,0,998338022,0.008896,0.006798,0.009689,0.0003996,0.0009298,0.006828,2.766e-05,4.387e-05,0.02524,0.002251,5.468,0.01913,0,1,0
105900000000,106200000000,2436304513,0,998338022,0.007996,0.006813,0.009689,0.0003977,0.0009289,0.006866,1.812e-05,4.387e-05,0.02615,0.001286,4.963,0.01702,0,1,0
106200000000,106500000000,2436304513,0,998338022,0.007416,0.00679,0.009689,0.0002203,0.0007515,0.006821,2.098e-05,4.482e-05,0.02185,0.001286,4.98,0.01724,0,1,0
106500000000,106800000000,2436304513,0,998338022,0.006821,0.006798,0.009689,0.0001831,0.0007133,0.006844,2.003e-05,4.387e-05,0.04169,0.001286,5.085,0.01763,0,1,0
106800000000,107100000000,2436304513,0,998338022,0.008026,0.006813,0.009689,0.000267,0.0007973,0.006874,3.052e-05,4.387e-05,0.03632,0.003716,5.087,0.01754,0,1,0
107100000000,107400000000,2436304513,0,998338022,0.008102,0.006821,0.009689,0.0003366,0.0008621,0.006882,2.384e-05,4.387e-05,0.1154,0.001785,5.221,0.01914,0,1,0
107400000000,107700000000,2436304513,0,998338022,0.007561,0.006813,0.009689,0.0004129,0.0009365,0.006859,1.335e-05,4.482e-05,0.01865,0.001072,5.153,0.01991,0,1,0
107700000000,108000000000,2436304513,0,998338022,0.007393,0.006821,0.009689,0.0002527,0.0007763,0.006866,2.766e-05,4.482e-05,0.0274,0.003071,5.16,0.0201,0,1,0
108000000000,108300000000,2436304513,0,998338022,0.007042,0.006821,0.009689,0.0002031,0.00072,0.006859,1.431e-05,4.387e-05,0.02216,0.0009995,5.087,0.01994,0,1,0
108300000000,108600000000,2436304513,0,998338022,0.00631,0.006828,0.009689,0.0002747,0.0007896,0.006866,2.193e-05,4.387e-05,0.02399,0.00243,5.211,0.02044,0,1,0
108600000000,108900000000,2436304513,0,998338022,0.005997,0.006813,0.009689,0.0003433,0.0008574,0.006836,1.144e-05,4.387e-05,0.01654,0.0005236,5.278,0.02083,0,1,0
108900000000,109200000000,2436304513,0,998338022,0.005554,0.006836,0.009689,0.0004063,0.0009203,0.006897,1.049e-05,4.387e-05,0.03079,0.0007858,5.007,0.01851,0,1,0
109200000000,109500000000,2436304513,0,998338022,0.005402,0.006805,0.009689,0.0004635,0.0009718,0.006851,1.24e-05,4.482e-05,0.02493,0.0009995,4.909,0.01767,0,1,0
109500000000,109800000000,2436304513,0,998338022,0.005013,0.006798,0.009689,0.0001984,0.0007076,0.006844,8.583e-06,4.387e-05,0.01999,0.0004282,5.206,0.01862,0,1,0
109800000000,110100000000,2436304513,0,998338022,0.005325,0.006805,0.009689,0.0001993,0.0007019,0.006859,2.003e-05,4.387e-05,0.02298,0.00243,5.334,0.0189,0,1,0
110100000000,110400000000,2436304513,0,998338022,0.005249,0.006821,0.009689,0.000246,0.000742,0.006874,1.907e-05,4.387e-05,0.02206,0.001358,5.463,0.01951,0,1,0
110400000000,110700000000,2436304513,0,998338022,0.004822,0.006798,0.009689,0.000289,0.0007849,0.006828,1.621e-05,4.387e-05,0.02689,0.001215,5.335,0.01944,0,1,0
110700000000,111000000000,2436304513,0,998338022,0.004471,0.006813,0.009705,0.0003214,0.0008183,0.006844,1.526e-05,4.387e-05,0.017,0.001215,5.286,0.02015,0,1,0
116100000000,116400000000,2436304513,0,998338022,0.005104,0.006836,0.009689,0.000289,0.0007792,0.006874,7.629e-06,4.482e-05,0.0173,0.0004997,5.801,0.02031,0,1,0
116400000000,116700000000,2436304513,0,998338022,0.004601,0.006828,0.009689,0.0001383,0.0006285,0.006897,1.049e-05,4.387e-05,0.02704,0.0007143,5.403,0.01901,0,1,0
116700000000,117000000000,2436304513,0,998338022,0.004395,0.006859,0.009689,0.0001907,0.0006809,0.006912,7.629e-06,4.387e-05,0.02216,0.0005713,5.634,0.02027,0,1,0
117000000000,117300000000,2436304513,0,998338022,0.003937,0.006844,0.009689,0.0002069,0.0006962,0.006874,5.722e-06,4.387e-05,0.02002,0.0002861,5.467,0.01975,0,1,0
117300000000,117600000000,2436304513,0,998338022,0.003693,0.006836,0.009689,0.0002375,0.0007277,0.006866,1.144e-05,4.387e-05,0.02121,0.0009995,5.641,0.02191,0,1,0
117600000000,117900000000,2436304513,0,998338022,0.003368,0.006851,0.009705,0.0002689,0.0007591,0.006874,7.629e-06,4.387e-05,0.02493,0.0007858,5.704,0.0231,0,1,0
117900000000,118200000000,2436304513,0,998338022,0.003326,0.006859,0.009705,0.0002995,0.0007887,0.006889,1.431e-05,4.387e-05,0.02365,0.0009995,5.754,0.02314,0,1,0
118200000000,118500000000,2436304513,0,998338022,0.003681,0.006851,0.009689,0.0003338,0.000824,0.006889,6.676e-06,4.387e-05,0.026,0.0003567,5.543,0.02235,0,1,0
118500000000,118800000000,2436304513,0,998338022,0.004013,0.006851,0.009689,0.0003595,0.0008497,0.006882,8.583e-06,4.482e-05,0.01338,0.0006428,5.326,0.02061,0,1,0
118800000000,119100000000,2436304513,0,998338022,0.00499,0.006927,0.01013,0.0001469,0.0006742,0.007286,0.0003891,4.482e-05,0.03625,0.01721,6.155,0.02158,0,1,0
119100000000,119400000000,2436304513,0,998338022,0.004822,0.007195,0.01163,0.0003729,0.001036,0.007225,2.098e-05,4.387e-05,0.02094,0.003857,6.265,0.02214,0,1,0
119400000000,119700000000,2436304513,0,998338022,0.005341,0.007217,0.01163,0.0004253,0.001089,0.007263,2.098e-05,4.387e-05,0.02997,0.002144,6.144,0.02184,0,1,0
119700000000,120000000000,2436304513,0,998338022,0.005577,0.007217,0.01163,0.0004921,0.001146,0.007317,2.766e-05,4.387e-05,0.02802,0.004211,5.647,0.02021,0,1,0
120000000000,120300000000,2436304513,0,998338022,0.00705,0.006958,0.01163,0.0007238,0.001215,0.007317,3.529e-05,4.387e-05,0.05084,0.00486,5.311,0.01874,0,1,0
120300000000,120600000000,2436304513,0,998338022,0.01019,0.007149,0.01163,0.0008755,0.001368,0.007339,5.627e-05,4.482e-05,0.02747,0.005211,5.222,0.01801,0,1,0
120600000000,120900000000,2436304513,0,998338022,0.009247,0.007004,0.01163,0.001036,0.001528,0.007065,4.673e-05,4.387e-05,0.02704,0.006569,5.401,0.01867,0,1,0
126000000000,126300000000,2436304513,0,998338022,0.00618,0.007088,0.01163,0.001053,0.001596,0.00737,0.0003614,4.387e-05,0.04095,0.05151,5.064,0.01763,0,1,0
126300000000,126600000000,2436304513,0,998338022,0.005989,0.007324,0.01161,0.001293,0.001957,0.007339,1.812e-05,4.387e-05,0.02118,0.002144,5.183,0.01792,0,1,0
126600000000,126900000000,2436304513,0,998338022,0.006248,0.007317,0.01161,0.0007401,0.001406,0.007347,1.431e-05,4.482e-05,0.0195,0.0009289,5.162,0.01778,0,1,0
126900000000,127200000000,2436304513,0,998338022,0.005074,0.007317,0.01163,0.0003929,0.001053,0.007355,1.24e-05,4.387e-05,0.01749,0.001072,5.131,0.01807,0,1,0
127200000000,127500000000,2436304513,0,998338022,0.005272,0.007004,0.01163,0.0003195,0.0008106,0.00705,1.431e-05,4.387e-05,0.02536,0.001572,5.068,0.01767,0,1,0
127500000000,127800000000,2436304513,0,998338022,0.006065,0.007027,0.01163,0.0003433,0.0008354,0.007065,1.049e-05,4.387e-05,0.0192,0.0006428,5.675,0.0198,0,1,0
127800000000,128100000000,2436304513,0,998338022,0.006508,0.007004,0.01163,0.0004272,0.0009193,0.007019,1.144e-05,4.387e-05,0.01791,0.0007143,5.706,0.01991,0,1,0
128100000000,128400000000,2436304513,0,998338022,0.006111,0.007004,0.01163,0.0003519,0.0008421,0.007034,3.529e-05,4.482e-05,0.02161,0.001358,5.031,0.01786,0,1,0
128400000000,128700000000,2436304513,0,998338022,0.008179,0.006996,0.01163,0.0002069,0.0006962,0.007019,2.098e-05,4.387e-05,0.01971,0.002998,6.52,0.02305,0,1,0
128700000000,129000000000,2436304513,0,998338022,0.008255,0.007019,0.01163,0.0002804,0.0007696,0.007103,1.24e-05,4.387e-05,0.0209,0.0007858,6.222,0.02164,0,1,0
129000000000,129300000000,2436304513,0,998338022,0.007843,0.007042,0.01163,0.0003757,0.0008659,0.007088,5.15e-05,4.387e-05,0.02075,0.006218,6.318,0.02211,0,1,0
129300000000,129600000000,2436304513,0,998338022,0.007812,0.007034,0.01163,0.0001602,0.0006456,0.00708,2.766e-05,4.482e-05,0.0278,0.003929,5.856,0.02016,0,1,0
129600000000,129900000000,2436304513,0,998338022,0.007736,0.007019,0.01163,0.0002356,0.0007162,0.00705,1.431e-05,4.387e-05,0.03174,0.0007858,5.742,0.02006,0,1,0
129900000000,130200000000,2436304513,0,998338022,0.007858,0.007027,0.01163,0.0003233,0.0008001,0.007072,1.335e-05,4.387e-05,0.02679,0.0009289,6.013,0.02093,0,1,0
130200000000,130500000000,2436304513,0,998338022,0.007568,0.007034,0.01163,0.0003633,0.0008392,0.007072,3.719e-05,4.387e-05,0.01944,0.005142,5.391,0.01899,0,1,0
130500000000,130800000000,2436304513,0,998338022,0.006958,0.007034,0.01163,0.0001621,0.000638,0.007072,2.003e-05,4.482e-05,0.02377,0.003071,4.771,0.0166,0,1,0
130800000000,131100000000,2436304513,0,998338022,0.008392,0.007034,0.01163,0.0002546,0.0007267,0.007065,2.575e-05,4.387e-05,0.02484,0.003143,5.268,0.01831,0,1,0
141000000000,141300000000,2436304513,0,998338022,0.01289,0.007492,0.01161,0.0005169,0.001076,0.00753,2.575e-05,4.482e-05,0.03546,0.002144,5.707,0.01942,0,1,0
141300000000,141600000000,2436304513,0,998338022,0.01244,0.007423,0.01161,0.0004873,0.001007,0.007637,2.575e-05,4.387e-05,0.07153,0.002998,5.759,0.02012,0,1,0
141600000000,141900000000,2436304513,0,998338022,0.01225,0.007187,0.01163,0.0007563,0.001141,0.007248,4.578e-05,4.387e-05,0.0271,0.005859,5.637,0.01967,0,1,0
141900000000,142200000000,2436304513,0,998338022,0.01404,0.007202,0.01161,0.0007782,0.001163,0.007278,3.624e-05,4.482e-05,0.03845,0.003357,5.853,0.02008,0,1,0
142200000000,142500000000,2436304513,0,998338022,0.01332,0.007187,0.01163,0.0006762,0.00106,0.007233,4.101e-05,4.387e-05,0.03284,0.003502,5.74,0.02018,0,1,0
142500000000,142800000000,2436304513,0,998338022,0.01389,0.00721,0.01161,0.0008354,0.001219,0.00724,2.766e-05,4.387e-05,0.03418,0.001358,5.632,0.01946,0,1,0
142800000000,143100000000,2436304513,0,998338022,0.01317,0.00721,0.01161,0.0007401,0.001123,0.007256,2.861e-05,4.387e-05,0.02881,0.003429,5.386,0.01933,0,1,0
143100000000,143400000000,2436304513,0,998338022,0.01335,0.007225,0.01163,0.0005531,0.0009356,0.007271,3.719e-05,4.387e-05,0.03302,0.003429,5.272,0.01826,0,1,0
143400000000,143700000000,2436304513,0,998338022,0.01299,0.007217,0.01163,0.0005865,0.0009689,0.007263,7.153e-05,4.482e-05,0.03699,0.003143,5.214,0.01761,0,1,0
143700000000,144000000000,2436304513,0,998338022,0.01294,0.007248,0.01163,0.0005512,0.0009222,0.007408,6.008e-05,4.387e-05,0.04376,0.003716,5.154,0.01747,0,1,0
144000000000,144300000000,2436304513,0,998338022,0.01302,0.007233,0.01163,0.0003395,0.0006886,0.007301,4.387e-05,4.482e-05,0.04089,0.003716,5.247,0.01763,0,1,0
144300000000,144600000000,2436304513,0,998338022,0.01331,0.007195,0.01163,0.0003262,0.0006704,0.00724,4.864e-05,4.387e-05,0.04688,0.003643,5.278,0.01775,0,1,0
144600000000,144900000000,2436304513,0,998338022,0.01328,0.00721,0.01163,0.0002785,0.0006227,0.007248,2.098e-05,4.482e-05,0.03168,0.001286,5.194,0.01748,0,1,0
144900000000,145200000000,2436304513,0,998338022,0.01256,0.00721,0.01163,0.000288,0.0006323,0.007263,5.054e-05,4.387e-05,0.03073,0.003643,5.094,0.01744,0,1,0
145200000000,145500000000,2436304513,0,998338022,0.01265,0.007217,0.01163,0.0004616,0.0008068,0.007263,4.768e-05,4.387e-05,0.05804,0.003143,4.987,0.01681,0,1,0
145500000000,145800000000,2436304513,0,998338022,0.01228,0.007233,0.01163,0.0003014,0.0006466,0.007286,3.719e-05,4.387e-05,0.03091,0.003071,4.748,0.01553,0,1,0
145800000000,146100000000,2436304513,0,998338022,0.01205,0.007233,0.01163,0.0004253,0.0007706,0.007271,3.719e-05,4.387e-05,0.03461,0.003502,4.649,0.01515,0,1,0
151200000000,151500000000,2436304513,0,998338022,0.01363,0.007401,0.01163,0.0004292,0.0007725,0.007439,2.956e-05,4.387e-05,0.03595,0.003216,5.285,0.01679,0,1,0
151500000000,151800000000,2436304513,0,998338022,0.01305,0.007393,0.01163,0.000535,0.0008726,0.007469,2.575e-05,4.387e-05,0.0368,0.001143,5.306,0.01686,0,1,0
151800000000,152100000000,2436304513,0,998338022,0.01295,0.007401,0.01163,0.0003481,0.0006819,0.007454,2.861e-05,4.387e-05,0.02997,0.002357,5.329,0.01696,0,1,0
152100000000,152400000000,2436304513,0,998338022,0.01202,0.007408,0.01163,0.0005007,0.0008335,0.0075,7.153e-05,4.482e-05,0.05231,0.005997,4.978,0.01642,0,1,0
152400000000,152700000000,2436304513,0,998338022,0.01228,0.007423,0.01163,0.0003347,0.0006666,0.007469,3.624e-05,4.387e-05,0.02869,0.003216,4.82,0.01592,0,1,0
152700000000,153000000000,2436304513,0,998338022,0.01248,0.007446,0.01163,0.0004501,0.0007849,0.007469,9.346e-05,4.387e-05,0.02582,0.001074,5.198,0.01754,0,1,0
153000000000,153300000000,2436304513,0,998338022,0.01042,0.007515,0.01163,0.000308,0.0006447,0.007622,4.768e-05,4.482e-05,0.03094,0.003857,5.461,0.01874,0,1,0
153300000000,153600000000,2436304513,0,998338022,0.01019,0.007561,0.01163,0.0002909,0.0006275,0.00769,1.812e-05,4.387e-05,0.02939,0.001143,5.483,0.01895,0,1,0
153600000000,153900000000,2436304513,0,998338022,0.009903,0.007515,0.01163,0.0003996,0.0007362,0.007591,2.003e-05,4.387e-05,0.02783,0.001715,5.334,0.01828,0,1,0
153900000000,154200000000,2436304513,0,998338022,0.01076,0.007484,0.01163,0.0005207,0.0008574,0.007523,3.147e-05,4.482e-05,0.03015,0.003429,5.184,0.01749,0,1,0
154200000000,154500000000,2436304513,0,998338022,0.01068,0.007484,0.01163,0.0006437,0.0009804,0.007545,4.387e-05,4.387e-05,0.02914,0.003284,5.319,0.01815,0,1,0
154500000000,154800000000,2436304513,0,998338022,0.01028,0.007462,0.01163,0.0007553,0.001089,0.00753,5.436e-05,4.387e-05,0.06946,0.005142,5.373,0.01879,0,1,0
154800000000,155100000000,2436304513,0,998338022,0.01067,0.007561,0.01163,0.0009193,0.001286,0.008026,0.0004225,4.482e-05,0.0264,0.02585,5.485,0.01895,0,1,0
155100000000,155400000000,2436304513,0,998338022,0.01015,0.007858,0.01163,0.0008497,0.001356,0.008072,3.242e-05,4.387e-05,0.02975,0.003357,5.3,0.01853,0,1,0
155400000000,155700000000,2436304513,0,998338022,0.01013,0.007858,0.01163,0.000782,0.001287,0.007919,5.531e-05,4.387e-05,0.02707,0.0065,5.312,0.01868,0,1,0
155700000000,156000000000,2436304513,0,998338022,0.009583,0.007797,0.01163,0.0006809,0.001162,0.007919,3.529e-05,4.387e-05,0.02551,0.003502,5.06,0.01734,0,1,0
161100000000,161400000000,2436304513,0,998338022,0.01009,0.007591,0.01163,0.000474,0.0007963,0.007645,2.48e-05,4.387e-05,0.03156,0.00293,4.943,0.01667,0,1,0
161400000000,161700000000,2436304513,0,998338022,0.009811,0.007591,0.01163,0.0003738,0.0006962,0.007645,3.815e-05,4.387e-05,0.02945,0.003143,4.873,0.01637,0,1,0
161700000000,162000000000,2436304513,0,998338022,0.009537,0.007584,0.01163,0.0004616,0.0007811,0.007607,4.578e-05,4.482e-05,0.02939,0.004143,4.877,0.01638,0,1,0
162000000000,162300000000,2436304513,0,998338022,0.009872,0.007645,0.01163,0.0002594,0.0005932,0.008209,0.0004635,4.387e-05,0.03583,0.01819,5.052,0.01678,0,1,0
162300000000,162600000000,2436304513,0,998338022,0.009735,0.00798,0.01161,0.0005522,0.001041,0.008194,4.005e-05,4.387e-05,0.0271,0.003429,4.916,0.01617,0,1,0
162600000000,162900000000,2436304513,0,998338022,0.009949,0.007965,0.01161,0.0006332,0.001122,0.008041,3.91e-05,4.387e-05,0.02658,0.004646,5.151,0.01728,0,1,0
162900000000,163200000000,2436304513,0,998338022,0.01067,0.00798,0.01161,0.0007448,0.001234,0.008041,3.433e-05,4.482e-05,0.03833,0.003429,5.156,0.01719,0,1,0
163200000000,163500000000,2436304513,0,998338022,0.009903,0.007683,0.01163,0.0007858,0.00111,0.008148,0.0001554,4.387e-05,0.02841,0.02258,5.304,0.01766,0,1,0
163500000000,163800000000,2436304513,0,998338022,0.00972,0.007645,0.01163,0.000823,0.001139,0.007706,4.959e-05,4.387e-05,0.02515,0.005074,4.934,0.01642,0,1,0
163800000000,164100000000,2436304513,0,998338022,0.009689,0.007637,0.01163,0.0007858,0.001101,0.007675,2.003e-05,4.482e-05,0.09497,0.001715,4.958,0.01664,0,1,0
164100000000,164400000000,2436304513,0,998338022,0.00975,0.007645,0.01163,0.0004272,0.0007429,0.00769,1.907e-05,4.387e-05,0.02115,0.001072,4.94,0.01663,0,1,0
164400000000,164700000000,2436304513,0,998338022,0.009476,0.007668,0.01163,0.0004549,0.0007706,0.007759,2.861e-05,4.387e-05,0.04156,0.003143,4.772,0.01593,0,1,0
164700000000,165000000000,2436304513,0,998338022,0.009918,0.00766,0.01163,0.0003223,0.0006361,0.007713,4.292e-05,4.482e-05,0.06024,0.003143,4.782,0.01609,0,1,0
165000000000,165300000000,2436304513,0,998338022,0.01007,0.007645,0.01163,0.0003233,0.0006351,0.007736,4.005e-05,4.387e-05,0.03668,0.003143,4.72,0.01569,0,1,0
165300000000,165600000000,2436304513,0,998338022,0.01018,0.007668,0.01163,0.0004625,0.0007601,0.007744,3.529e-05,4.387e-05,0.03186,0.003143,4.579,0.01521,0,1,0
165600000000,165900000000,2436304513,0,998338022,0.01089,0.007668,0.01163,0.0004358,0.0007324,0.007736,4.673e-05,4.482e-05,0.02521,0.003071,4.964,0.01684,0,1,0
165900000000,166200000000,2436304513,0,998338022,0.01089,0.007668,0.01163,0.0003405,0.0006361,0.007744,5.054e-05,4.387e-05,0.02588,0.003216,4.9,0.01629,0,1,0
166200000000,166500000000,2436304513,0,998338022,0.01048,0.007668,0.01163,0.0004721,0.0007658,0.007744,4.864e-05,4.387e-05,0.02454,0.003216,4.768,0.01592,0,1,0
166500000000,166800000000,2436304513,0,998338022,0.01047,0.00766,0.01163,0.000308,0.0005989,0.007721,5.245e-05,4.387e-05,0.02686,0.003502,4.761,0.0158,0,1,0
166800000000,167100000000,2436304513,0,998338022,0.01085,0.007668,0.01163,0.0003653,0.0006542,0.007729,6.199e-05,4.387e-05,0.02386,0.00457,4.974,0.01658,0,1,0
167100000000,167400000000,2436304513,0,998338022,0.01224,0.007675,0.01161,0.0004902,0.0007782,0.007729,6.008e-05,4.387e-05,0.02936,0.003357,5.07,0.01701,0,1,0
167400000000,167700000000,2436304513,0,998338022,0.01326,0.007721,0.01163,0.0003004,0.0005913,0.007843,0.0001354,4.387e-05,0.0318,0.01286,5.101,0.0172,0,1,0
167700000000,168000000000,2436304513,0,998338022,0.01198,0.00769,0.01163,0.0004387,0.0007315,0.007797,5.817e-05,4.387e-05,0.03448,0.005783,5.197,0.01741,0,1,0
168000000000,168300000000,2436304513,0,998338022,0.01184,0.00769,0.01161,0.000577,0.0008698,0.007759,7.82e-05,4.482e-05,0.02887,0.003929,5.029,0.01647,0,1,0
168300000000,168600000000,2436304513,0,998338022,0.01256,0.007713,0.01161,0.000721,0.001013,0.00779,4.005e-05,4.387e-05,0.03223,0.004143,4.98,0.01618,0,1,0
168600000000,168900000000,2436304513,0,998338022,0.01221,0.007713,0.01161,0.0008717,0.001163,0.007805,7.057e-05,4.482e-05,0.02682,0.005287,4.744,0.01566,0,1,0
168900000000,169200000000,2436304513,0,998338022,0.01193,0.007721,0.01161,0.0008297,0.001122,0.007828,0.0001135,4.387e-05,0.03174,0.01465,4.798,0.01582,0,1,0
169200000000,169500000000,2436304513,0,998338022,0.01271,0.007904,0.01161,0.0008879,0.001232,0.008514,0.0005169,4.387e-05,0.03473,0.02563,4.715,0.0155,0,1,0
169500000000,169800000000,2436304513,0,998338022,0.01256,0.008118,0.01161,0.0007143,0.001202,0.008316,8.583e-05,4.387e-05,0.03229,0.0065,4.75,0.01567,0,1,0
169800000000,170100000000,2436304513,0,998338022,0.01254,0.008118,0.01161,0.0006723,0.00116,0.008194,5.341e-05,4.387e-05,0.02856,0.005356,4.793,0.01574,0,1,0
170100000000,170400000000,2436304513,0,998338022,0.01396,0.008057,0.01161,0.0006018,0.001053,0.008347,0.000104,4.387e-05,0.03333,0.01172,5.232,0.01739,0,1,0
170400000000,170700000000,2436304513,0,998338022,0.01257,0.007774,0.01161,0.0004501,0.0007629,0.007904,7.153e-05,4.387e-05,0.03912,0.0065,4.585,0.01475,0,1,0
170700000000,171000000000,2436304513,0,998338022,0.01305,0.007782,0.01163,0.0004215,0.0007343,0.007858,6.676e-05,4.482e-05,0.02966,0.004143,4.731,0.01619,0,1,0
171000000000,171300000000,2436304513,0,998338022,0.01273,0.00779,0.01163,0.0004215,0.0007343,0.007919,5.15e-05,4.387e-05,0.04303,0.006432,4.747,0.01614,0,1,0
171300000000,171600000000,2436304513,0,998338022,0.01193,0.007904,0.01161,0.000596,0.0009089,0.008041,9.537e-05,4.387e-05,0.03223,0.006645,4.327,0.01393,0,1,0
171600000000,171900000000,2436304513,0,998338022,0.01164,0.007843,0.01163,0.0004072,0.0007191,0.007919,6.008e-05,4.387e-05,0.02939,0.007935,4.333,0.01412,0,1,0
171900000000,172200000000,2436304513,0,998338022,0.01457,0.007874,0.01161,0.0005989,0.0009098,0.007965,5.817e-05,4.482e-05,0.03049,0.005714,4.642,0.01536,0,1,0
172200000000,172500000000,2436304513,0,998338022,0.01236,0.007858,0.01161,0.0007753,0.001085,0.007965,0.0001287,4.387e-05,0.03119,0.01157,4.52,0.01481,0,1,0
172500000000,172800000000,2436304513,0,998338022,0.0123,0.007843,0.01163,0.0004234,0.0007343,0.007919,6.866e-05,4.482e-05,0.03577,0.004784,4.767,0.01559,0,1,0
172800000000,173100000000,2436304513,0,998338022,0.01196,0.007843,0.01163,0.0003824,0.0006943,0.007904,3.719e-05,4.387e-05,0.02844,0.003334,4.415,0.01461,0,1,0
173100000000,173400000000,2436304513,0,998338022,0.01208,0.007858,0.01161,0.0004511,0.0007639,0.007919,5.531e-05,4.482e-05,0.2993,0.004143,4.463,0.01472,0,1,0
173400000000,173700000000,2436304513,0,998338022,0.01173,0.007874,0.01163,0.0003481,0.0006609,0.00795,5.817e-05,4.387e-05,0.02927,0.006073,4.457,0.01485,0,1,0
173700000000,174000000000,2436304513,0,998338022,0.01251,0.007874,0.01161,0.0005226,0.0008354,0.007935,3.624e-05,4.482e-05,0.0343,0.003784,4.445,0.01477,0,1,0
174000000000,174300000000,2436304513,0,998338022,0.01331,0.007874,0.01163,0.0006189,0.0009327,0.00795,6.104e-05,4.387e-05,0.02902,0.006073,4.588,0.01558,0,1,0
174300000000,174600000000,2436304513,0,998338022,0.01294,0.007874,0.01163,0.0004997,0.0008125,0.00798,6.39e-05,4.482e-05,0.03461,0.006569,4.458,0.01479,0,1,0
174600000000,174900000000,2436304513,0,998338022,0.01248,0.007889,0.01163,0.0003242,0.000638,0.007965,5.627e-05,4.387e-05,0.02823,0.003716,4.324,0.01397,0,1,0
174900000000,175200000000,2436304513,0,998338022,0.01289,0.007889,0.01161,0.0004444,0.0007572,0.00795,8.106e-05,4.482e-05,0.02823,0.005432,4.32,0.01392,0,1,0
175200000000,175500000000,2436304513,0,998338022,0.01404,0.007904,0.01163,0.0003281,0.0006418,0.007996,4.578e-05,4.387e-05,0.02881,0.003571,4.512,0.01465,0,1,0
175500000000,175800000000,2436304513,0,998338022,0.01347,0.007919,0.01161,0.0004616,0.0007753,0.008026,5.913e-05,4.482e-05,0.03229,0.003571,4.562,0.01483,0,1,0
175800000000,176100000000,2436304513,0,998338022,0.01352,0.00795,0.01163,0.00035,0.0006638,0.008072,4.768e-05,4.387e-05,0.03534,0.006714,4.488,0.0146,0,1,0
186300000000,186600000000,2436304513,0,998338022,0.008987,0.008209,0.01163,0.0003071,0.0006237,0.00824,5.15e-05,4.387e-05,0.02954,0.003571,5.074,0.01782,0,1,0
186600000000,186900000000,2436304513,0,998338022,0.008438,0.008194,0.01163,0.0004034,0.00072,0.00824,1.812e-05,4.387e-05,0.02307,0.0008574,5.153,0.01793,0,1,0
186900000000,187200000000,2436304513,0,998338022,0.008759,0.008209,0.01163,0.000473,0.0007896,0.00827,2.48e-05,4.387e-05,0.07056,0.002716,5.27,0.01773,0,1,0
187200000000,187500000000,2436304513,0,998338022,0.008224,0.008209,0.01163,0.0003681,0.0006847,0.008255,2.861e-05,4.482e-05,0.02423,0.003429,5.337,0.01803,0,1,0
187500000000,187800000000,2436304513,0,998338022,0.00798,0.00824,0.01163,0.0002985,0.0006151,0.008316,2.193e-05,4.387e-05,0.03766,0.003143,5.343,0.01805,0,1,0
187800000000,188100000000,2436304513,0,998338022,0.01134,0.008224,0.01163,0.0004292,0.0007477,0.00827,6.771e-05,4.387e-05,0.03564,0.006569,5.11,0.01677,0,1,0
188100000000,188400000000,2436304513,0,998338022,0.007874,0.008209,0.01163,0.0005178,0.0008373,0.00824,3.052e-05,4.482e-05,0.02576,0.002499,5.32,0.0179,0,1,0
188400000000,188700000000,2436304513,0,998338022,0.007355,0.008209,0.01163,0.0002413,0.0005598,0.008255,3.338e-05,4.482e-05,0.02527,0.003357,5.25,0.0179,0,1,0
188700000000,189000000000,2436304513,0,998338022,0.007095,0.008209,0.01163,0.0003099,0.0006294,0.00824,1.526e-05,4.387e-05,0.0192,0.001785,5.362,0.01835,0,1,0
189000000000,189300000000,2436304513,0,998338022,0.007225,0.008209,0.01163,0.0003862,0.0007048,0.008224,1.717e-05,4.387e-05,0.02319,0.001072,5.327,0.01846,0,1,0
189300000000,189600000000,2436304513,0,998338022,0.007439,0.008209,0.01163,0.0004644,0.000783,0.00824,2.67e-05,4.387e-05,0.02475,0.003643,5.512,0.01927,0,1,0
189600000000,189900000000,2436304513,0,998338022,0.006264,0.008209,0.01163,0.0005236,0.000843,0.00824,3.052e-05,4.482e-05,0.02097,0.003143,5.351,0.01875,0,1,0
189900000000,190200000000,2436304513,0,998338022,0.005951,0.008255,0.01163,0.0005875,0.0009069,0.008286,2.193e-05,4.482e-05,0.02353,0.003216,5.131,0.01809,0,1,0
190200000000,190500000000,2436304513,0,998338022,0.005692,0.00827,0.01163,0.0006504,0.0009689,0.008347,9.537e-06,4.387e-05,0.02597,0.0005713,5.176,0.01809,0,1,0
190500000000,190800000000,2436304513,0,998338022,0.005783,0.00827,0.01163,0.0005026,0.0008211,0.008316,1.335e-05,4.387e-05,0.02246,0.001358,5.344,0.01843,0,1,0
190800000000,191100000000,2436304513,0,998338022,0.006264,0.008423,0.01219,0.0004759,0.000845,0.00882,0.0004501,4.387e-05,0.03394,0.02615,5.744,0.01966,0,1,0
191100000000,191400000000,2436304513,0,998338022,0.005043,0.008606,0.01186,0.0006876,0.001181,0.008728,3.719e-05,4.387e-05,0.02524,0.003643,5.012,0.01752,0,1,0
191400000000,191700000000,2436304513,0,998338022,0.004974,0.008591,0.01163,0.0007429,0.001236,0.008636,1.907e-05,4.482e-05,0.02341,0.001858,5.334,0.01905,0,1,0
191700000000,192000000000,2436304513,0,998338022,0.004677,0.008514,0.01164,0.0004158,0.0008698,0.008652,2.861e-05,4.482e-05,0.01605,0.003857,5.38,0.01959,0,1,0
192000000000,192300000000,2436304513,0,998338022,0.004684,0.00827,0.01164,0.0002508,0.0005703,0.008316,1.526e-05,4.482e-05,0.02362,0.001928,5.612,0.02015,0,1,0
192300000000,192600000000,2436304513,0,998338022,0.00473,0.008255,0.01164,0.0002975,0.0006161,0.008316,4.673e-05,4.387e-05,0.01917,0.005928,5.53,0.02004,0,1,0
192600000000,192900000000,2436304513,0,998338022,0.004921,0.008377,0.01164,0.0004005,0.0007191,0.008514,9.346e-05,4.387e-05,0.02847,0.01807,5.515,0.02017,0,1,0
192900000000,193200000000,2436304513,0,998338022,0.005424,0.008423,0.01164,0.000452,0.0007706,0.00853,1.24e-05,4.387e-05,0.02927,0.0007858,5.555,0.01974,0,1,0
193200000000,193500000000,2436304513,0,998338022,0.005432,0.008408,0.01164,0.0005026,0.0008211,0.008514,1.144e-05,4.387e-05,0.02399,0.0007143,5.779,0.02039,0,1,0
193500000000,193800000000,2436304513,0,998338022,0.005043,0.008377,0.01164,0.0005512,0.0008698,0.008484,8.583e-06,4.387e-05,0.03094,0.0003567,5.724,0.02049,0,1,0
193800000000,194100000000,2436304513,0,998338022,0.004349,0.008362,0.01164,0.0005932,0.0009117,0.008392,8.583e-06,4.482e-05,0.02496,0.0004997,5.74,0.02041,0,1,0
194100000000,194400000000,2436304513,0,998338022,0.004692,0.008362,0.01164,0.0006351,0.0009537,0.008377,9.537e-06,4.482e-05,0.02356,0.0006428,5.972,0.02127,0,1,0
194400000000,194700000000,2436304513,0,998338022,0.004326,0.008347,0.01164,0.0006771,0.0009956,0.008377,8.583e-06,4.482e-05,0.022,0.0007143,5.989,0.02159,0,1,0
194700000000,195000000000,2436304513,0,998338022,0.004509,0.008362,0.01164,0.0004864,0.0008049,0.008408,1.24e-05,4.387e-05,0.02686,0.001429,5.813,0.02064,0,1,0
195000000000,195300000000,2436304513,0,998338022,0.004143,0.008377,0.01164,0.0003786,0.0006971,0.008438,8.583e-06,4.387e-05,0.02252,0.0004997,6.033,0.02144,0,1,0
195300000000,195600000000,2436304513,0,998338022,0.003777,0.008347,0.01164,0.000411,0.0007305,0.008377,7.629e-06,4.387e-05,0.02441,0.0004997,6.123,0.02185,0,1,0
195600000000,195900000000,2436304513,0,998338022,0.003304,0.008347,0.01164,0.0004396,0.0007582,0.008377,1.431e-05,4.387e-05,0.02509,0.002144,5.479,0.02001,0,1,0
195900000000,196200000000,2436304513,0,998338022,0.003311,0.008331,0.01164,0.0004787,0.0007954,0.008362,0.0001221,4.387e-05,0.02258,0.02194,5.526,0.02012,0,1,0
201300000000,201600000000,2436304513,0,998338022,0.001654,0.008331,0.01164,0.0004539,0.0007725,0.008347,5.722e-06,4.387e-05,0.01978,0.0002146,6.531,0.02578,0,1,0
201600000000,201900000000,2436304513,0,998338022,0.001598,0.008331,0.01164,0.0004673,0.0007868,0.008347,6.676e-06,4.387e-05,0.01439,0.0003567,6.745,0.0261,0,1,0
201900000000,202200000000,2436304513,0,998338022,0.001587,0.008331,0.01164,0.0004816,0.0008011,0.008377,6.676e-06,4.387e-05,0.01599,0.0002861,6.653,0.02626,0,1,0
202200000000,202500000000,2436304513,0,998338022,0.001871,0.008347,0.01164,0.0004978,0.0008163,0.008377,4.768e-06,4.387e-05,0.01498,0.0002861,6.392,0.02512,0,1,0
202500000000,202800000000,2436304513,0,998338022,0.001829,0.008331,0.01164,0.000515,0.0008345,0.008347,6.676e-06,4.387e-05,0.0188,0.0005713,6.442,0.02508,0,1,0
202800000000,203100000000,2436304513,0,998338022,0.001696,0.008331,0.01164,0.0005322,0.0008516,0.008347,5.722e-06,4.387e-05,0.01021,0.0002861,6.52,0.02515,0,1,0
203100000000,203400000000,2436304513,0,998338022,0.001793,0.008331,0.01164,0.0005493,0.0008678,0.008347,8.583e-06,4.387e-05,0.01999,0.0009289,6.545,0.0256,0,1,0
203400000000,203700000000,2436304513,0,998338022,0.001833,0.008331,0.01164,0.0005655,0.000885,0.008347,6.676e-06,4.482e-05,0.02032,0.0004282,6.664,0.02601,0,1,0
203700000000,204000000000,2436304513,0,998338022,0.00174,0.008331,0.01164,0.0005817,0.0009012,0.008347,5.722e-06,4.482e-05,0.01871,0.0002861,6.561,0.02527,0,1,0
204000000000,204300000000,2436304513,0,998338022,0.001755,0.008347,0.01164,0.000598,0.0009174,0.008377,5.722e-06,4.482e-05,0.01201,0.0002861,6.747,0.02626,0,1,0
204300000000,204600000000,2436304513,0,998338022,0.001757,0.008331,0.01164,0.0006132,0.0009317,0.008362,6.676e-06,4.482e-05,0.0162,0.0002861,6.673,0.02565,0,1,0
204600000000,204900000000,2436304513,0,998338022,0.00165,0.008331,0.01164,0.0003738,0.0006933,0.008362,6.676e-06,4.482e-05,0.01907,0.0002861,6.887,0.02705,0,1,0
204900000000,205200000000,2436304513,0,998338022,0.001648,0.008331,0.01164,0.0002937,0.0006132,0.008347,7.629e-06,4.482e-05,0.01184,0.0002861,6.928,0.02748,0,1,0
205200000000,205500000000,2436304513,0,998338022,0.001833,0.008545,0.01208,0.0003719,0.000742,0.009094,0.0003786,4.482e-05,0.04352,0.05792,6.154,0.02331,0,1,0
205500000000,205800000000,2436304513,0,998338022,0.001738,0.008728,0.0132,0.000536,0.00103,0.008972,7.629e-06,4.482e-05,0.02106,0.0003567,6.343,0.02467,0,1,0
205800000000,206100000000,2436304513,0,998338022,0.001776,0.008682,0.01321,0.0005493,0.001043,0.008698,8.583e-06,4.482e-05,0.07703,0.0003567,6.728,0.02627,0,1,0
206100000000,206400000000,2436304513,0,998338022,0.001745,0.008636,0.01302,0.0005789,0.001047,0.008926,8.583e-06,4.482e-05,0.01183,0.0006428,6.461,0.02473,0,1,0
206400000000,206700000000,2436304513,0,998338022,0.001637,0.008331,0.01164,0.0003824,0.000701,0.008362,7.629e-06,4.387e-05,0.01295,0.0004997,6.936,0.02744,0,1,0
206700000000,207000000000,2436304513,0,998338022,0.001734,0.008331,0.01164,0.000329,0.0006485,0.008362,9.537e-06,4.387e-05,0.02112,0.0009995,6.975,0.02787,0,1,0
207000000000,207300000000,2436304513,0,998338022,0.001703,0.008331,0.01164,0.0003443,0.0006638,0.008362,7.629e-06,4.387e-05,0.01978,0.0003567,7.023,0.02749,0,1,0
207300000000,207600000000,2436304513,0,998338022,0.001713,0.008331,0.01164,0.0003595,0.000679,0.008347,5.722e-06,4.387e-05,0.02408,0.0002146,7.3,0.02872,0,1,0
207600000000,207900000000,2436304513,0,998338022,0.001701,0.008331,0.01164,0.0003757,0.0006952,0.008347,6.676e-06,4.387e-05,0.007721,0.0002861,6.84,0.02682,0,1,0
207900000000,208200000000,2436304513,0,998338022,0.00177,0.008331,0.01164,0.0003881,0.0007067,0.008347,6.676e-06,4.387e-05,0.04547,0.0002146,6.826,0.02682,0,1,0
208200000000,208500000000,2436304513,0,998338022,0.001751,0.008331,0.01164,0.0004005,0.0007191,0.008347,9.537e-06,4.387e-05,0.03632,0.0007858,6.78,0.02669,0,1,0
208500000000,208800000000,2436304513,0,998338022,0.001865,0.008331,0.01164,0.0004168,0.0007362,0.008347,6.676e-06,4.387e-05,0.01295,0.0003567,6.846,0.02704,0,1,0
208800000000,209100000000,2436304513,0,998338022,0.00189,0.008331,0.01164,0.0004339,0.0007534,0.008347,8.583e-06,4.387e-05,0.01334,0.0007858,6.762,0.02663,0,1,0
209100000000,209400000000,2436304513,0,998338022,0.00186,0.008331,0.01164,0.0004473,0.0007668,0.008347,1.812e-05,4.387e-05,0.01654,0.001858,6.826,0.02723,0,1,0
209400000000,209700000000,2436304513,0,998338022,0.001862,0.008316,0.01164,0.0004492,0.0007687,0.008347,1.526e-05,4.387e-05,0.01276,0.001499,6.726,0.0266,0,1,0
209700000000,210000000000,2436304513,0,998338022,0.002186,0.008347,0.01164,0.0004683,0.0007868,0.008362,7.629e-06,4.387e-05,0.01617,0.0004282,6.232,0.02401,0,1,0
210000000000,210300000000,2436304513,0,998338022,0.002209,0.008347,0.01164,0.0004797,0.0007992,0.008362,9.537e-06,4.387e-05,0.01999,0.0004997,6.537,0.02532,0,1,0
210300000000,210600000000,2436304513,0,998338022,0.002327,0.008347,0.01164,0.0004883,0.0008078,0.008347,6.676e-06,4.482e-05,0.02167,0.0004282,6.454,0.02468,0,1,0
210600000000,210900000000,2436304513,0,998338022,0.002464,0.008347,0.01164,0.0005102,0.0008297,0.008362,6.676e-06,4.482e-05,0.02176,0.0002861,6.725,0.02583,0,1,0
210900000000,211200000000,2436304513,0,998338022,0.002556,0.008362,0.01164,0.0005341,0.0008535,0.008392,6.676e-06,4.482e-05,0.01846,0.0004282,6.338,0.02398,0,1,0
211200000000,211500000000,2436304513,0,998338022,0.00272,0.008347,0.01164,0.0005569,0.0008764,0.008362,6.676e-06,4.482e-05,0.02478,0.0004282,6.326,0.02426,0,1,0
211500000000,211800000000,2436304513,0,998338022,0.003014,0.008362,0.01164,0.0003147,0.0006342,0.008392,6.676e-06,4.482e-05,0.02142,0.0002861,6.268,0.02371,0,1,0
211800000000,212100000000,2436304513,0,998338022,0.003536,0.008362,0.01164,0.0003138,0.0006332,0.008408,6.676e-06,4.482e-05,0.02213,0.0004282,6.433,0.02413,0,1,0
212100000000,212400000000,2436304513,0,998338022,0.003349,0.008362,0.01164,0.0003376,0.0006571,0.008377,7.629e-06,4.482e-05,0.02188,0.0002861,6.325,0.02334,0,1,0
212400000000,212700000000,2436304513,0,998338022,0.003368,0.008514,0.01208,0.0004168,0.0007782,0.009003,0.0003633,4.387e-05,0.0235,0.05121,6.333,0.02369,0,1,0
212700000000,213000000000,2436304513,0,998338022,0.003662,0.008759,0.0123,0.0005827,0.001076,0.008926,9.537e-06,4.387e-05,0.02689,0.0005713,6.462,0.02414,0,1,0
213000000000,213300000000,2436304513,0,998338022,0.003548,0.008713,0.01164,0.0005875,0.001081,0.008759,9.537e-06,4.387e-05,0.01819,0.0007143,6.621,0.02556,0,1,0
213300000000,213600000000,2436304513,0,998338022,0.003635,0.008698,0.01164,0.0006247,0.001108,0.008759,1.24e-05,4.387e-05,0.01709,0.001286,6.66,0.02511,0,1,0
213600000000,213900000000,2436304513,0,998338022,0.00367,0.008377,0.01164,0.0008211,0.001141,0.008392,1.526e-05,4.387e-05,0.02264,0.002144,5.921,0.02159,0,1,0
213900000000,214200000000,2436304513,0,998338022,0.004051,0.008408,0.01164,0.0007534,0.001074,0.008453,8.583e-06,4.387e-05,0.03241,0.0005713,5.743,0.02108,0,1,0
214200000000,214500000000,2436304513,0,998338022,0.00415,0.008392,0.01164,0.0005388,0.0008583,0.008438,6.676e-06,4.482e-05,0.02267,0.0002861,5.68,0.02075,0,1,0
214500000000,214800000000,2436304513,0,998338022,0.004539,0.008408,0.01164,0.0005808,0.0009003,0.008438,1.049e-05,4.482e-05,0.02411,0.001143,5.988,0.02175,0,1,0
214800000000,215100000000,2436304513,0,998338022,0.004272,0.008377,0.01164,0.0003233,0.0006428,0.008423,8.583e-06,4.482e-05,0.02295,0.0007858,5.763,0.0211,0,1,0
215100000000,215400000000,2436304513,0,998338022,0.004189,0.008377,0.01164,0.0003262,0.0006456,0.008377,6.676e-06,4.482e-05,0.01938,0.0002861,5.733,0.02141,0,1,0
215400000000,215700000000,2436304513,0,998338022,0.004463,0.008377,0.01164,0.0003738,0.0006933,0.008423,7.629e-06,4.387e-05,0.02618,0.0004997,5.569,0.0206,0,1,0
215700000000,216000000000,2436304513,0,998338022,0.004539,0.008377,0.01164,0.0004234,0.0007429,0.008423,8.583e-06,4.387e-05,0.02469,0.0004282,5.681,0.02116,0,1,0
216000000000,216300000000,2436304513,0,998338022,0.00489,0.008392,0.01164,0.0004759,0.0007954,0.008438,7.629e-06,4.387e-05,0.03644,0.0003567,5.693,0.02103,0,1,0
221100000000,221400000000,2436304513,0,998338022,0.005814,0.008453,0.01164,0.0006914,0.001024,0.008499,1.049e-05,4.482e-05,0.02252,0.0005713,5.644,0.02055,0,1,0
221400000000,221700000000,2436304513,0,998338022,0.006142,0.008469,0.01164,0.0006046,0.0009375,0.008514,1.431e-05,4.387e-05,0.02252,0.0008574,5.474,0.01983,0,1,0
221700000000,222000000000,2436304513,0,998338022,0.006332,0.008453,0.01164,0.0004721,0.0008059,0.008499,1.144e-05,4.387e-05,0.02438,0.0004282,5.524,0.01964,0,1,0
222000000000,222300000000,2436304513,0,998338022,0.00647,0.008469,0.01164,0.0005445,0.0008783,0.008499,2.766e-05,4.387e-05,0.02475,0.002644,5.536,0.01962,0,1,0
222300000000,222600000000,2436304513,0,998338022,0.00695,0.008469,0.01164,0.0006161,0.0009499,0.008514,1.717e-05,4.482e-05,0.03204,0.001928,5.584,0.01903,0,1,0
222600000000,222900000000,2436304513,0,998338022,0.006866,0.008484,0.01164,0.0006914,0.001024,0.008514,1.24e-05,4.482e-05,0.02554,0.0007858,5.374,0.01889,0,1,0
222900000000,223200000000,2436304513,0,998338022,0.006477,0.008514,0.01164,0.0004158,0.0007486,0.008575,1.526e-05,4.387e-05,0.05615,0.001642,4.984,0.0175,0,1,0
223200000000,223500000000,2436304513,0,998338022,0.006447,0.00853,0.01164,0.0004597,0.0007935,0.008575,1.144e-05,4.387e-05,0.0278,0.0009995,4.974,0.01755,0,1,0
223500000000,223800000000,2436304513,0,998338022,0.006676,0.008514,0.01164,0.0005398,0.0008726,0.00856,1.144e-05,4.387e-05,0.02206,0.0008574,4.938,0.01733,0,1,0
223800000000,224100000000,2436304513,0,998338022,0.007263,0.008514,0.01164,0.0006218,0.0009556,0.008591,1.24e-05,4.482e-05,0.03436,0.0009995,5.127,0.01803,0,1,0
224100000000,224400000000,2436304513,0,998338022,0.007256,0.008514,0.01164,0.0005817,0.0009155,0.008575,1.144e-05,4.482e-05,0.02917,0.0007143,5.2,0.01812,0,1,0
224400000000,224700000000,2436304513,0,998338022,0.007271,0.008499,0.01164,0.0004072,0.000741,0.00853,1.526e-05,4.387e-05,0.02838,0.0008574,5.228,0.01835,0,1,0
224700000000,225000000000,2436304513,0,998338022,0.00721,0.008514,0.01164,0.000493,0.0008268,0.008591,2.193e-05,4.387e-05,0.0365,0.002785,5.057,0.01791,0,1,0
225000000000,225300000000,2436304513,0,998338022,0.007065,0.008514,0.01164,0.0005817,0.0009155,0.008591,1.144e-05,4.482e-05,0.02502,0.0008574,5.052,0.01813,0,1,0
225300000000,225600000000,2436304513,0,998338022,0.007828,0.00853,0.01164,0.0006647,0.0009975,0.008575,1.621e-05,4.482e-05,0.04199,0.001286,5.391,0.0196,0,1,0
225600000000,225900000000,2436304513,0,998338022,0.008347,0.008514,0.01164,0.0004539,0.0007877,0.00856,8.106e-05,4.387e-05,0.02502,0.01343,5.766,0.02046,0,1,0
225900000000,226200000000,2436304513,0,998338022,0.008347,0.00853,0.01164,0.0004997,0.0008354,0.00856,1.335e-05,4.387e-05,0.02722,0.0006428,5.39,0.01947,0,1,0
226200000000,226500000000,2436304513,0,998338022,0.008102,0.008514,0.01164,0.0005856,0.0009203,0.008545,1.431e-05,4.387e-05,0.04132,0.0009289,5.155,0.0185,0,1,0
226500000000,226800000000,2436304513,0,998338022,0.00827,0.00853,0.01164,0.0004978,0.0008326,0.008575,1.907e-05,4.482e-05,0.02921,0.001928,5.246,0.01875,0,1,0
226800000000,227100000000,2436304513,0,998338022,0.008789,0.008545,0.01164,0.0003862,0.000721,0.008591,2.384e-05,4.387e-05,0.04291,0.002213,5.436,0.0194,0,1,0
227100000000,227400000000,2436304513,0,998338022,0.009735,0.008545,0.01164,0.0004892,0.000824,0.008575,2.48e-05,4.387e-05,0.02563,0.003143,5.412,0.01901,0,1,0
227400000000,227700000000,2436304513,0,998338022,0.01112,0.008545,0.01164,0.0006065,0.0009413,0.008591,2.289e-05,4.482e-05,0.05225,0.002499,5.368,0.01857,0,1,0
227700000000,228000000000,2436304513,0,998338022,0.009079,0.008545,0.01164,0.0007238,0.001059,0.008606,2.384e-05,4.482e-05,0.02811,0.003429,5.328,0.01853,0,1,0
228000000000,228300000000,2436304513,0,998338022,0.0075,0.00856,0.01164,0.0006285,0.0009632,0.008621,1.431e-05,4.387e-05,0.04559,0.0008574,5.241,0.01816,0,1,0
228300000000,228600000000,2436304513,0,998338022,0.009705,0.008606,0.01164,0.0005274,0.0008631,0.008743,5.054e-05,4.387e-05,0.02316,0.004929,5.395,0.01885,0,1,0
228600000000,228900000000,2436304513,0,998338022,0.008591,0.008591,0.01164,0.0006275,0.0009623,0.008652,2.48e-05,4.482e-05,0.03705,0.001785,5.528,0.0195,0,1,0
228900000000,229200000000,2436304513,0,998338022,0.009308,0.008591,0.01164,0.0007315,0.001066,0.008667,2.766e-05,4.482e-05,0.03021,0.003643,5.278,0.01842,0,1,0
229200000000,229500000000,2436304513,0,998338022,0.009598,0.008591,0.01164,0.0008373,0.001173,0.008636,1.717e-05,4.387e-05,0.02585,0.0009289,5.346,0.01886,0,1,0
229500000000,229800000000,2436304513,0,998338022,0.01013,0.008636,0.01164,0.0006399,0.0009756,0.008743,3.052e-05,4.387e-05,0.02811,0.003216,5.477,0.01927,0,1,0
229800000000,230100000000,2436304513,0,998338022,0.01024,0.008667,0.01164,0.0006151,0.0009508,0.008743,1.717e-05,4.482e-05,0.03571,0.001143,5.573,0.01986,0,1,0
230100000000,230400000000,2436304513,0,998338022,0.01016,0.008636,0.01164,0.0004148,0.0007496,0.008667,1.526e-05,4.387e-05,0.02756,0.001143,5.564,0.01989,0,1,0
230400000000,230700000000,2436304513,0,998338022,0.01033,0.008636,0.01164,0.0005264,0.0008621,0.008698,1.526e-05,4.387e-05,0.03223,0.0008574,5.573,0.01979,0,1,0
230700000000,231000000000,2436304513,0,998338022,0.009888,0.008636,0.01164,0.0006304,0.0009661,0.008713,1.526e-05,4.482e-05,0.07288,0.0009289,5.425,0.01913,0,1,0
231000000000,231300000000,2436304513,0,998338022,0.009583,0.008636,0.01164,0.0007477,0.001083,0.008682,1.812e-05,4.387e-05,0.05371,0.0009289,5.417,0.01942,0,1,0
231300000000,231600000000,2436304513,0,998338022,0.01018,0.008652,0.01164,0.0008669,0.001204,0.008682,2.384e-05,4.387e-05,0.02579,0.001858,5.504,0.01954,0,1,0
231600000000,231900000000,2436304513,0,998338022,0.01062,0.008652,0.01164,0.0009642,0.001301,0.008682,1.526e-05,4.482e-05,0.05316,0.0007858,5.489,0.01952,0,1,0
231900000000,232200000000,2436304513,0,998338022,0.01094,0.008636,0.01164,0.0007334,0.00107,0.008698,1.812e-05,4.482e-05,0.02887,0.001858,5.533,0.01903,0,1,0
232200000000,232500000000,2436304513,0,998338022,0.01051,0.008652,0.01164,0.0008564,0.001192,0.008698,1.812e-05,4.387e-05,0.02612,0.001499,5.441,0.01895,0,1,0
232500000000,232800000000,2436304513,0,998338022,0.01056,0.008743,0.01248,0.0009804,0.00132,0.008881,2.861e-05,4.482e-05,0.02545,0.003143,5.143,0.01761,0,1,0
232800000000,233100000000,2436304513,0,998338022,0.01128,0.008713,0.01358,0.0005217,0.0008621,0.008774,1.812e-05,4.482e-05,0.03766,0.001143,5.236,0.01809,0,1,0
233100000000,233400000000,2436304513,0,998338022,0.0116,0.008698,0.01192,0.0003767,0.0007124,0.008743,2.67e-05,4.387e-05,0.03217,0.003429,5.254,0.01784,0,1,0
233400000000,233700000000,2436304513,0,998338022,0.01392,0.008698,0.01163,0.0004911,0.0008268,0.008743,0.0001059,4.482e-05,0.03809,0.01271,6.03,0.02048,0,1,0
233700000000,234000000000,2436304513,0,998338022,0.01324,0.008743,0.01244,0.0004292,0.0007648,0.008835,2.289e-05,4.387e-05,0.0304,0.001358,5.566,0.01951,0,1,0
234000000000,234300000000,2436304513,0,998338022,0.01288,0.008896,0.01357,0.000598,0.0009842,0.009369,0.0004511,4.387e-05,0.04016,0.04126,5.28,0.01796,0,1,0
234300000000,234600000000,2436304513,0,998338022,0.0119,0.009079,0.01357,0.0008717,0.001381,0.009216,2.956e-05,4.482e-05,0.03333,0.00243,4.938,0.01693,0,1,0
234600000000,234900000000,2436304513,0,998338022,0.01186,0.009064,0.01358,0.0009155,0.001425,0.009125,1.812e-05,4.387e-05,0.03156,0.001072,5.196,0.01859,0,1,0
234900000000,235200000000,2436304513,0,998338022,0.01178,0.009003,0.01357,0.0008068,0.001291,0.009247,2.575e-05,4.387e-05,0.02963,0.00293,5.18,0.01841,0,1,0
235200000000,235500000000,2436304513,0,998338022,0.01187,0.008743,0.01358,0.0006132,0.000947,0.008835,3.529e-05,4.482e-05,0.0567,0.003929,4.995,0.01763,0,1,0
235500000000,235800000000,2436304513,0,998338022,0.01126,0.008743,0.01358,0.0004978,0.0008307,0.008835,2.098e-05,4.387e-05,0.03326,0.001143,5.239,0.01815,0,1,0
235800000000,236100000000,2436304513,0,998338022,0.0118,0.008743,0.01358,0.0006218,0.0009546,0.008804,6.771e-05,4.482e-05,0.0289,0.008713,5.35,0.01911,0,1,0
236100000000,236400000000,2436304513,0,998338022,0.01134,0.008743,0.01358,0.000782,0.001116,0.008774,5.722e-05,4.482e-05,0.04767,0.007568,5.341,0.01913,0,1,0
241200000000,241500000000,2436304513,0,998338022,0.01042,0.008881,0.01358,0.0006828,0.001015,0.008957,3.815e-05,4.482e-05,0.03595,0.004929,5.357,0.01918,0,1,0
241500000000,241800000000,2436304513,0,998338022,0.01003,0.009171,0.01358,0.0007048,0.001156,0.009445,0.0005379,4.482e-05,0.04681,0.02127,5.186,0.01815,0,1,0
241800000000,242100000000,2436304513,0,998338022,0.009735,0.009262,0.01357,0.0007572,0.001255,0.009308,2.67e-05,4.387e-05,0.1445,0.002998,5.009,0.01732,0,1,0
242100000000,242400000000,2436304513,0,998338022,0.008606,0.009247,0.01357,0.0008631,0.001358,0.009293,6.104e-05,4.482e-05,0.02609,0.004211,4.805,0.01677,0,1,0
242400000000,242700000000,2436304513,0,998338022,0.009109,0.009216,0.01357,0.0008373,0.00132,0.009293,8.392e-05,4.482e-05,0.04187,0.008423,4.957,0.01747,0,1,0
242700000000,243000000000,2436304513,0,998338022,0.008774,0.008865,0.01358,0.0005836,0.0008965,0.008942,3.147e-05,4.387e-05,0.02325,0.003284,4.847,0.01671,0,1,0
243000000000,243300000000,2436304513,0,998338022,0.008957,0.008865,0.01358,0.0006504,0.0009642,0.008926,4.768e-05,4.387e-05,0.02472,0.005501,4.82,0.01647,0,1,0
243300000000,243600000000,2436304513,0,998338022,0.008606,0.008881,0.01358,0.0005875,0.0009003,0.008926,2.289e-05,4.482e-05,0.02631,0.003216,4.637,0.01583,0,1,0
243600000000,243900000000,2436304513,0,998338022,0.009384,0.008896,0.01358,0.000493,0.0008068,0.008972,5.341e-05,4.387e-05,0.03461,0.008072,4.99,0.01696,0,1,0
243900000000,244200000000,2436304513,0,998338022,0.01021,0.008896,0.01358,0.000596,0.0009108,0.008957,3.624e-05,4.387e-05,0.03546,0.003571,5.641,0.01943,0,1,0
244200000000,244500000000,2436304513,0,998338022,0.009476,0.009109,0.01358,0.0006924,0.001007,0.009445,7.248e-05,4.482e-05,0.02377,0.003284,5.231,0.01793,0,1,0
244500000000,244800000000,2436304513,0,998338022,0.009659,0.009018,0.01358,0.0005808,0.0008965,0.009247,8.583e-06,4.482e-05,0.02493,0.0008669,5.29,0.01874,0,1,0
244800000000,245100000000,2436304513,0,998338022,0.009781,0.009064,0.01358,0.0005865,0.0009031,0.009186,8.202e-05,4.482e-05,0.03137,0.005211,5.015,0.01741,0,1,0
245100000000,245400000000,2436304513,0,998338022,0.008667,0.008987,0.01358,0.000699,0.001017,0.009171,5.15e-05,4.482e-05,0.03229,0.003502,4.628,0.01597,0,1,0
245400000000,245700000000,2436304513,0,998338022,0.008682,0.008972,0.01358,0.0007925,0.001108,0.009048,4.387e-05,4.482e-05,0.02457,0.003502,4.679,0.01613,0,1,0
245700000000,246000000000,2436304513,0,998338022,0.0101,0.008972,0.01358,0.0005436,0.0008602,0.009033,3.147e-05,4.387e-05,0.03528,0.003716,5.239,0.01783,0,1,0
246000000000,246300000000,2436304513,0,998338022,0.009491,0.008987,0.01358,0.0006504,0.0009661,0.009033,2.766e-05,4.387e-05,0.02591,0.003643,5.049,0.01765,0,1,0
251400000000,251700000000,2436304513,0,998338022,0.01068,0.009064,0.01358,0.0006628,0.0009727,0.009094,4.864e-05,4.387e-05,0.0303,0.003716,5.005,0.01797,0,1,0
251700000000,252000000000,2436304513,0,998338022,0.01079,0.009079,0.01358,0.0007124,0.001022,0.009125,2.766e-05,4.482e-05,0.02438,0.002213,5.029,0.01838,0,1,0
252000000000,252300000000,2436304513,0,998338022,0.01042,0.009109,0.01358,0.0005589,0.0008698,0.009155,3.529e-05,4.387e-05,0.02979,0.003643,4.828,0.01745,0,1,0
252300000000,252600000000,2436304513,0,998338022,0.01015,0.009094,0.01358,0.0006962,0.001003,0.009155,5.531e-05,4.387e-05,0.02185,0.006355,4.779,0.01709,0,1,0
252600000000,252900000000,2436304513,0,998338022,0.01082,0.009094,0.01358,0.0006828,0.0009842,0.009155,8.297e-05,4.482e-05,0.03766,0.009003,4.81,0.01719,0,1,0
252900000000,253200000000,2436304513,0,998338022,0.01044,0.009109,0.01358,0.0005989,0.0009022,0.009171,5.436e-05,4.387e-05,0.02859,0.003571,4.735,0.01657,0,1,0
253200000000,253500000000,2436304513,0,998338022,0.01044,0.009109,0.01358,0.0007362,0.00104,0.009155,4.292e-05,4.482e-05,0.02658,0.003284,4.77,0.01649,0,1,0
253500000000,253800000000,2436304513,0,998338022,0.01045,0.009171,0.01358,0.0006561,0.0009565,0.009293,0.0001125,4.387e-05,0.03119,0.01228,4.627,0.01567,0,1,0
253800000000,254100000000,2436304513,0,998338022,0.01091,0.009125,0.01358,0.0006609,0.0009661,0.009216,6.676e-05,4.387e-05,0.07983,0.007072,4.594,0.01541,0,1,0
254100000000,254400000000,2436304513,0,998338022,0.01141,0.009109,0.01358,0.0006962,0.001001,0.009171,4.673e-05,4.482e-05,0.02762,0.003716,4.522,0.01503,0,1,0
254400000000,254700000000,2436304513,0,998338022,0.01125,0.009125,0.01358,0.0005894,0.0008936,0.009216,4.768e-05,4.387e-05,0.03052,0.003643,4.475,0.01498,0,1,0
254700000000,255000000000,2436304513,0,998338022,0.01128,0.00914,0.01358,0.0007687,0.001078,0.009201,7.153e-05,4.482e-05,0.03699,0.01143,4.346,0.01442,0,1,0
255000000000,255300000000,2436304513,0,998338022,0.01047,0.00914,0.01358,0.0009375,0.001249,0.009171,3.719e-05,4.387e-05,0.02768,0.004074,4.471,0.01489,0,1,0
255300000000,255600000000,2436304513,0,998338022,0.01129,0.009155,0.01358,0.0008078,0.001118,0.009216,3.242e-05,4.387e-05,0.07458,0.003284,4.468,0.01487,0,1,0
255600000000,255900000000,2436304513,0,998338022,0.01254,0.009293,0.01358,0.0007267,0.001066,0.009888,0.0006332,4.482e-05,0.1085,0.0285,5.231,0.01804,0,1,0
255900000000,256200000000,2436304513,0,998338022,0.01257,0.009521,0.01357,0.0008602,0.001341,0.00975,9.441e-05,4.387e-05,0.04437,0.006432,4.953,0.01708,0,1,0
256200000000,256500000000,2436304513,0,998338022,0.01216,0.009521,0.01357,0.0009861,0.001463,0.009598,8.678e-05,4.482e-05,0.03784,0.008713,4.746,0.01596,0,1,0
256500000000,256800000000,2436304513,0,998338022,0.01216,0.009537,0.01357,0.0008402,0.001316,0.009674,0.0002604,4.387e-05,0.04279,0.01801,4.696,0.0159,0,1,0
256800000000,257100000000,2436304513,0,998338022,0.01213,0.009186,0.01358,0.0008783,0.001188,0.009308,9.251e-05,4.482e-05,0.02914,0.007568,4.689,0.01577,0,1,0
257100000000,257400000000,2436304513,0,998338022,0.01173,0.009186,0.01358,0.0006285,0.0009413,0.009277,9.155e-05,4.387e-05,0.03137,0.006859,4.493,0.0149,0,1,0
257400000000,257700000000,2436304513,0,998338022,0.01317,0.009216,0.01358,0.0008125,0.001122,0.009354,0.000186,4.482e-05,0.03137,0.01286,4.909,0.01665,0,1,0
257700000000,258000000000,2436304513,0,998338022,0.01317,0.009186,0.01358,0.0007219,0.001032,0.009232,7.82e-05,4.387e-05,0.03174,0.004425,4.967,0.01723,0,1,0
258000000000,258300000000,2436304513,0,998338022,0.01303,0.009186,0.01358,0.0007906,0.001102,0.009232,6.008e-05,4.482e-05,0.03229,0.006073,4.847,0.01655,0,1,0
258300000000,258600000000,2436304513,0,998338022,0.01193,0.009201,0.01358,0.000699,0.001013,0.009232,5.245e-05,4.482e-05,0.03033,0.004425,4.652,0.01544,0,1,0
258600000000,258900000000,2436304513,0,998338022,0.01195,0.009216,0.01358,0.0007715,0.001083,0.009308,0.0002193,4.387e-05,0.02933,0.01923,4.541,0.01505,0,1,0
258900000000,259200000000,2436304513,0,998338022,0.01263,0.009247,0.01358,0.00068,0.0009937,0.009293,0.0001869,4.482e-05,0.3188,0.01193,4.638,0.01526,0,1,0
259200000000,259500000000,2436304513,0,998338022,0.01288,0.009247,0.01358,0.0007544,0.00107,0.009354,0.000165,4.387e-05,0.02786,0.01407,4.64,0.0155,0,1,0
259500000000,259800000000,2436304513,0,998338022,0.01448,0.009247,0.01358,0.000948,0.001265,0.009308,7.629e-05,4.482e-05,0.03049,0.006645,5.202,0.01731,0,1,0
259800000000,260100000000,2436304513,0,998338022,0.01414,0.00943,0.01358,0.001127,0.001446,0.009567,5.913e-05,4.387e-05,0.05884,0.004715,5.252,0.0174,0,1,0
260100000000,260400000000,2436304513,0,998338022,0.01369,0.009323,0.01358,0.001205,0.001528,0.009384,8.297e-05,4.482e-05,0.04584,0.0145,5.211,0.01709,0,1,0
260400000000,260700000000,2436304513,0,998338022,0.01282,0.009338,0.01358,0.001123,0.001448,0.009399,5.436e-05,4.387e-05,0.03558,0.003429,4.671,0.01542,0,1,0
260700000000,261000000000,2436304513,0,998338022,0.01331,0.009354,0.01358,0.00128,0.001604,0.009445,5.913e-05,4.482e-05,0.07422,0.0065,4.444,0.01486,0,1,0
261000000000,261300000000,2436304513,0,998338022,0.01347,0.009369,0.01358,0.001135,0.001459,0.009445,6.199e-05,4.387e-05,0.07373,0.003929,4.828,0.01644,0,1,0
261300000000,261600000000,2436304513,0,998338022,0.01344,0.009369,0.01358,0.00132,0.001644,0.009491,5.627e-05,4.482e-05,0.04626,0.005569,4.508,0.01515,0,1,0
261600000000,261900000000,2436304513,0,998338022,0.01384,0.009384,0.01358,0.001215,0.001539,0.00943,7.057e-05,4.387e-05,0.03424,0.00486,4.533,0.01505,0,1,0
261900000000,262200000000,2436304513,0,998338022,0.01308,0.009369,0.01358,0.0008469,0.001171,0.009445,6.676e-05,4.482e-05,0.03558,0.006073,4.603,0.01546,0,1,0
262200000000,262500000000,2436304513,0,998338022,0.0137,0.009369,0.01358,0.0007591,0.001085,0.00946,4.101e-05,4.387e-05,0.02814,0.0065,4.84,0.01719,0,1,0
262500000000,262800000000,2436304513,0,998338022,0.01288,0.009369,0.01358,0.0007973,0.001123,0.009415,3.91e-05,4.482e-05,0.03015,0.004501,4.57,0.01572,0,1,0
262800000000,263100000000,2436304513,0,998338022,0.01273,0.009369,0.01358,0.0007553,0.001081,0.009415,4.959e-05,4.387e-05,0.03699,0.003284,4.508,0.01509,0,1,0
263100000000,263400000000,2436304513,0,998338022,0.0121,0.009369,0.01358,0.0008326,0.001158,0.00946,6.58e-05,4.482e-05,0.02982,0.008286,4.392,0.01483,0,1,0
263400000000,263700000000,2436304513,0,998338022,0.01205,0.009705,0.01357,0.000905,0.001379,0.009949,0.0004025,4.387e-05,0.02994,0.0253,4.673,0.01603,0,1,0
263700000000,264000000000,2436304513,0,998338022,0.01155,0.009735,0.01357,0.001099,0.001598,0.009811,2.575e-05,4.482e-05,0.03223,0.001215,4.585,0.01572,0,1,0
264000000000,264300000000,2436304513,0,998338022,0.01175,0.009735,0.01357,0.0009031,0.001404,0.009781,5.436e-05,4.387e-05,0.03339,0.004288,4.595,0.01581,0,1,0
264300000000,264600000000,2436304513,0,998338022,0.01248,0.009506,0.01358,0.00104,0.001419,0.009842,6.008e-05,4.482e-05,0.03308,0.003784,4.462,0.01498,0,1,0
264600000000,264900000000,2436304513,0,998338022,0.01202,0.009415,0.01358,0.0007143,0.001041,0.009506,4.387e-05,4.482e-05,0.08105,0.003429,4.573,0.01574,0,1,0
264900000000,265200000000,2436304513,0,998338022,0.01199,0.009384,0.01358,0.0008259,0.001152,0.00943,6.771e-05,4.387e-05,0.03003,0.004997,4.762,0.01629,0,1,0
265200000000,265500000000,2436304513,0,998338022,0.01259,0.009415,0.01358,0.0008097,0.001137,0.009506,4.578e-05,4.482e-05,0.03006,0.003716,4.692,0.01588,0,1,0
265500000000,265800000000,2436304513,0,998338022,0.01205,0.009415,0.01358,0.0007954,0.001123,0.009445,7.057e-05,4.387e-05,0.03485,0.006142,4.771,0.01645,0,1,0
265800000000,266100000000,2436304513,0,998338022,0.01178,0.009415,0.01358,0.0008268,0.001154,0.009491,3.338e-05,4.482e-05,0.02988,0.002857,4.698,0.01605,0,1,0
266100000000,266400000000,2436304513,0,998338022,0.0125,0.009415,0.01358,0.0007401,0.001068,0.009476,4.196e-05,4.387e-05,0.03339,0.003716,4.662,0.01574,0,1,0
266400000000,266700000000,2436304513,0,998338022,0.01257,0.009415,0.01358,0.0009165,0.001244,0.009506,4.673e-05,4.482e-05,0.02493,0.003143,4.765,0.01616,0,1,0
266700000000,267000000000,2436304513,0,998338022,0.01257,0.009445,0.01358,0.0008602,0.001188,0.009506,4.673e-05,4.387e-05,0.02756,0.006714,4.718,0.01611,0,1,0
267000000000,267300000000,2436304513,0,998338022,0.0125,0.009445,0.01358,0.0008812,0.001209,0.009521,7.248e-05,4.482e-05,0.03369,0.006065,4.924,0.01681,0,1,0
267300000000,267600000000,2436304513,0,998338022,0.01175,0.009445,0.01358,0.001043,0.001371,0.009476,3.338e-05,4.482e-05,0.03082,0.003216,4.945,0.01697,0,1,0
267600000000,267900000000,2436304513,0,998338022,0.0117,0.009476,0.01358,0.0008287,0.001156,0.009567,7.057e-05,4.387e-05,0.03,0.004288,4.888,0.01703,0,1,0
267900000000,268200000000,2436304513,0,998338022,0.01117,0.009476,0.01358,0.0009594,0.001287,0.009537,4.196e-05,4.482e-05,0.02609,0.003216,4.829,0.01675,0,1,0
268200000000,268500000000,2436304513,0,998338022,0.0108,0.009476,0.01358,0.0009108,0.00124,0.009521,3.91e-05,4.387e-05,0.02847,0.003143,4.944,0.01711,0,1,0
268500000000,268800000000,2436304513,0,998338022,0.0101,0.00946,0.01358,0.0008526,0.001181,0.009506,4.387e-05,4.482e-05,0.02039,0.003998,4.935,0.01715,0,1,0
268800000000,269100000000,2436304513,0,998338022,0.01112,0.009476,0.01358,0.0009956,0.001324,0.009537,4.673e-05,4.482e-05,0.02966,0.003857,4.842,0.01695,0,1,0
269100000000,269400000000,2436304513,0,998338022,0.01102,0.009521,0.01358,0.001137,0.001467,0.009674,3.815e-05,4.387e-05,0.02875,0.003357,4.808,0.01656,0,1,0
269400000000,269700000000,2436304513,0,998338022,0.01082,0.009491,0.01358,0.001276,0.001606,0.009567,6.294e-05,4.482e-05,0.02466,0.003857,4.814,0.01662,0,1,0
269700000000,270000000000,2436304513,0,998338022,0.0103,0.009476,0.01358,0.001129,0.001457,0.009537,4.768e-05,4.482e-05,0.05981,0.003284,4.847,0.01698,0,1,0
270000000000,270300000000,2436304513,0,998338022,0.009995,0.009476,0.01358,0.00115,0.001478,0.009506,4.101e-05,4.387e-05,0.02246,0.003284,4.912,0.01712,0,1,0
270300000000,270600000000,2436304513,0,998338022,0.009888,0.009491,0.01358,0.001278,0.001608,0.009537,3.815e-05,4.482e-05,0.03271,0.003998,5.004,0.01766,0,1,0
270600000000,270900000000,2436304513,0,998338022,0.01036,0.009857,0.01358,0.001329,0.001818,0.01007,0.000371,4.482e-05,0.03006,0.03015,4.985,0.01757,0,1,0
270900000000,271200000000,2436304513,0,998338022,0.0103,0.009842,0.01358,0.001337,0.001837,0.009872,2.956e-05,4.387e-05,0.0321,0.003071,5.135,0.01814,0,1,0
271200000000,271500000000,2436304513,0,998338022,0.009506,0.009842,0.01358,0.001461,0.001961,0.009903,5.436e-05,4.482e-05,0.02707,0.004211,4.972,0.01748,0,1,0
281400000000,281700000000,2436304513,0,998338022,0.009521,0.009735,0.01358,0.0009556,0.001287,0.009766,4.387e-05,4.482e-05,0.06738,0.003998,5.471,0.0192,0,1,0
281700000000,282000000000,2436304513,0,998338022,0.01068,0.009735,0.01358,0.0007238,0.001057,0.009796,2.575e-05,4.387e-05,0.03296,0.002499,6.034,0.02136,0,1,0
282000000000,282300000000,2436304513,0,998338022,0.009857,0.009766,0.01358,0.000845,0.001177,0.009811,2.098e-05,4.482e-05,0.03046,0.001858,6.1,0.022,0,1,0
282300000000,282600000000,2436304513,0,998338022,0.008926,0.00975,0.01358,0.0009575,0.001291,0.009811,2.098e-05,4.482e-05,0.02859,0.002716,5.818,0.02085,0,1,0
282600000000,282900000000,2436304513,0,998338022,0.009567,0.00975,0.01358,0.0008297,0.001162,0.009781,2.67e-05,4.387e-05,0.0578,0.002285,5.628,0.0201,0,1,0
282900000000,283200000000,2436304513,0,998338022,0.00943,0.009766,0.01358,0.0007982,0.001131,0.009827,2.956e-05,4.387e-05,0.0885,0.001858,5.573,0.01973,0,1,0
283200000000,283500000000,2436304513,0,998338022,0.008408,0.009781,0.01358,0.0009203,0.001253,0.009842,1.621e-05,4.482e-05,0.02896,0.001072,5.269,0.01871,0,1,0
283500000000,283800000000,2436304513,0,998338022,0.00856,0.00975,0.01358,0.001036,0.001368,0.009796,1.621e-05,4.387e-05,0.02362,0.0009995,5.681,0.02037,0,1,0
283800000000,284100000000,2436304513,0,998338022,0.009216,0.009766,0.01358,0.0009184,0.001251,0.009796,1.621e-05,4.387e-05,0.02594,0.0009995,5.821,0.02124,0,1,0
284100000000,284400000000,2436304513,0,998338022,0.009201,0.009781,0.01358,0.0008898,0.001223,0.009857,1.526e-05,4.482e-05,0.03162,0.0009995,5.671,0.0205,0,1,0
284400000000,284700000000,2436304513,0,998338022,0.009079,0.009781,0.01358,0.0007067,0.00104,0.009842,1.907e-05,4.482e-05,0.02747,0.001715,5.651,0.02058,0,1,0
284700000000,285000000000,2436304513,0,998338022,0.009125,0.009811,0.01358,0.0007458,0.00108,0.009857,1.526e-05,4.387e-05,0.0332,0.0008574,5.742,0.02036,0,1,0
285000000000,285300000000,2436304513,0,998338022,0.009338,0.009827,0.01358,0.000864,0.001198,0.009842,7.629e-06,4.482e-05,0.06665,0.0009289,5.959,0.02167,0,1,0
285300000000,285600000000,2436304513,0,998338022,0.008255,0.009811,0.01358,0.0009766,0.00131,0.009842,3.433e-05,4.482e-05,0.02664,0.005142,5.98,0.02148,0,1,0
285600000000,285900000000,2436304513,0,998338022,0.007874,0.009827,0.01358,0.001085,0.001417,0.009888,1.431e-05,4.387e-05,0.02264,0.001143,5.848,0.02124,0,1,0
285900000000,286200000000,2436304513,0,998338022,0.007904,0.009827,0.01358,0.001188,0.00152,0.009888,1.24e-05,4.387e-05,0.06824,0.0008574,5.963,0.02178,0,1,0
286200000000,286500000000,2436304513,0,998338022,0.007568,0.009811,0.01358,0.001286,0.001617,0.009888,2.384e-05,4.482e-05,0.08301,0.002998,5.913,0.02173,0,1,0
286500000000,286800000000,2436304513,0,998338022,0.007278,0.009827,0.01358,0.001381,0.001715,0.009842,1.621e-05,4.482e-05,0.02094,0.0009289,6.08,0.02212,0,1,0
286800000000,287100000000,2436304513,0,998338022,0.006638,0.009811,0.01358,0.001471,0.001802,0.009842,1.24e-05,4.387e-05,0.02853,0.0007858,6.046,0.0222,0,1,0
287100000000,287400000000,2436304513,0,998338022,0.006813,0.009811,0.01358,0.001556,0.00189,0.009872,1.335e-05,4.387e-05,0.03021,0.0005713,6.123,0.02242,0,1,0
287400000000,287700000000,2436304513,0,998338022,0.006393,0.009811,0.01358,0.001307,0.00164,0.009842,1.335e-05,4.482e-05,0.0267,0.0009289,6.016,0.02183,0,1,0
287700000000,288000000000,2436304513,0,998338022,0.006615,0.009827,0.01358,0.001337,0.001669,0.009872,1.431e-05,4.482e-05,0.02213,0.001642,6.132,0.02224,0,1,0
288000000000,288300000000,2436304513,0,998338022,0.006256,0.009811,0.01358,0.001421,0.001755,0.009842,1.431e-05,4.387e-05,0.02502,0.0007858,6.033,0.02195,0,1,0
288300000000,288600000000,2436304513,0,998338022,0.006393,0.009827,0.01358,0.00131,0.001642,0.009857,1.144e-05,4.387e-05,0.02673,0.0006428,5.975,0.02213,0,1,0
288600000000,288900000000,2436304513,0,998338022,0.007378,0.009827,0.01358,0.001211,0.001545,0.009857,1.335e-05,4.482e-05,0.03235,0.0007858,6.134,0.02216,0,1,0
288900000000,289200000000,2436304513,0,998338022,0.006828,0.009827,0.01358,0.001305,0.001637,0.009857,1.24e-05,4.482e-05,0.02316,0.0006428,6.04,0.02208,0,1,0
289200000000,289500000000,2436304513,0,998338022,0.006081,0.009811,0.01358,0.001122,0.001455,0.009842,1.24e-05,4.482e-05,0.02576,0.0007858,6.15,0.02275,0,1,0
289500000000,289800000000,2436304513,0,998338022,0.004921,0.009842,0.01358,0.0006819,0.001015,0.009872,1.717e-05,4.387e-05,0.0217,0.003071,6.422,0.0242,0,1,0
289800000000,290100000000,2436304513,0,998338022,0.005539,0.009827,0.01358,0.0007467,0.00108,0.009872,9.537e-06,4.387e-05,0.02884,0.0008574,6.278,0.0232,0,1,0
290100000000,290400000000,2436304513,0,998338022,0.005661,0.009857,0.01358,0.0008173,0.001152,0.009888,1.812e-05,4.482e-05,0.0321,0.0007143,6.079,0.02265,0,1,0
290400000000,290700000000,2436304513,0,998338022,0.005913,0.009827,0.01358,0.0008993,0.001232,0.009857,1.144e-05,4.482e-05,0.02185,0.0008574,5.987,0.02203,0,1,0
290700000000,291000000000,2436304513,0,998338022,0.005676,0.009842,0.01358,0.0009804,0.001314,0.009872,1.335e-05,4.482e-05,0.02664,0.0009995,6.047,0.02221,0,1,0
291000000000,291300000000,2436304513,0,998338022,0.005905,0.009857,0.01358,0.001059,0.001392,0.009903,1.144e-05,4.387e-05,0.0278,0.0004997,5.838,0.02161,0,1,0
291300000000,291600000000,2436304513,0,998338022,0.005165,0.009842,0.01358,0.001093,0.001427,0.009888,1.144e-05,4.387e-05,0.04547,0.0004997,5.817,0.02156,0,1,0
291600000000,291900000000,2436304513,0,998338022,0.00428,0.009949,0.01358,0.0008717,0.001259,0.01028,0.0003538,4.482e-05,0.03079,0.04749,5.786,0.02119,0,1,0
291900000000,292200000000,2436304513,0,998338022,0.00631,0.01018,0.01358,0.001083,0.001591,0.01022,1.431e-05,4.482e-05,0.02127,0.0007143,5.761,0.02084,0,1,0
292200000000,292500000000,2436304513,0,998338022,0.006508,0.01019,0.01358,0.001177,0.001686,0.01025,1.335e-05,4.482e-05,0.0224,0.0007858,5.729,0.02056,0,1,0
292500000000,292800000000,2436304513,0,998338022,0.006691,0.01018,0.01358,0.001049,0.001539,0.01035,2.289e-05,4.387e-05,0.03833,0.003502,5.713,0.02028,0,1,0
292800000000,293100000000,2436304513,0,998338022,0.006729,0.009903,0.01358,0.001143,0.001476,0.009949,1.144e-05,4.387e-05,0.02875,0.0006428,5.623,0.02018,0,1,0
293100000000,293400000000,2436304513,0,998338022,0.00621,0.009872,0.01358,0.001236,0.00157,0.009903,1.335e-05,4.482e-05,0.02063,0.0007858,5.778,0.02073,0,1,0
293400000000,293700000000,2436304513,0,998338022,0.006943,0.009872,0.01358,0.001003,0.001339,0.009918,1.24e-05,4.482e-05,0.03137,0.0007143,5.788,0.02073,0,1,0
293700000000,294000000000,2436304513,0,998338022,0.00666,0.009872,0.01358,0.001001,0.001335,0.009918,1.335e-05,4.387e-05,0.02173,0.0007143,5.808,0.02068,0,1,0
294000000000,294300000000,2436304513,0,998338022,0.005875,0.009872,0.01358,0.0007782,0.001112,0.009888,1.144e-05,4.387e-05,0.02557,0.0005713,5.881,0.02114,0,1,0
294300000000,294600000000,2436304513,0,998338022,0.00676,0.009872,0.01358,0.0008755,0.001211,0.009903,1.431e-05,4.482e-05,0.02625,0.001143,5.647,0.02035,0,1,0
294600000000,294900000000,2436304513,0,998338022,0.00737,0.009888,0.01358,0.0009108,0.001245,0.009918,1.526e-05,4.482e-05,0.02756,0.001072,5.486,0.01925,0,1,0
294900000000,295200000000,2436304513,0,998338022,0.008057,0.009903,0.01358,0.0007095,0.001043,0.009949,1.526e-05,4.387e-05,0.02493,0.001215,5.76,0.02047,0,1,0
295200000000,295500000000,2436304513,0,998338022,0.007622,0.009888,0.01358,0.0008278,0.001162,0.009903,1.431e-05,4.482e-05,0.02579,0.0007858,5.643,0.02017,0,1,0
295500000000,295800000000,2436304513,0,998338022,0.005394,0.009888,0.01358,0.0009279,0.001263,0.009918,1.144e-05,4.482e-05,0.02481,0.0007143,5.622,0.02012,0,1,0
295800000000,296100000000,2436304513,0,998338022,0.006798,0.009903,0.01358,0.0009546,0.001289,0.009949,1.144e-05,4.482e-05,0.02374,0.0006428,5.586,0.02001,0,1,0
296100000000,296400000000,2436304513,0,998338022,0.008179,0.009903,0.01358,0.0007248,0.001059,0.009964,1.621e-05,4.387e-05,0.03503,0.0009995,5.42,0.0189,0,1,0
296400000000,296700000000,2436304513,0,998338022,0.008575,0.009918,0.01358,0.0008516,0.001186,0.009964,1.907e-05,4.482e-05,0.03314,0.001785,5.58,0.01982,0,1,0
296700000000,297000000000,2436304513,0,998338022,0.008682,0.009933,0.01358,0.0009823,0.001316,0.009964,1.717e-05,4.482e-05,0.02347,0.001072,5.51,0.01945,0,1,0
297000000000,297300000000,2436304513,0,998338022,0.008911,0.009933,0.01358,0.0007544,0.001089,0.009964,1.621e-05,4.387e-05,0.03137,0.0009995,5.386,0.01876,0,1,0
297300000000,297600000000,2436304513,0,998338022,0.01015,0.009949,0.01358,0.0008631,0.001198,0.009979,1.907e-05,4.482e-05,0.03113,0.001143,5.625,0.01973,0,1,0
297600000000,297900000000,2436304513,0,998338022,0.009781,0.009949,0.01358,0.0008507,0.001184,0.009979,1.812e-05,4.482e-05,0.0253,0.001143,5.38,0.01891,0,1,0
297900000000,298200000000,2436304513,0,998338022,0.009567,0.009933,0.01358,0.0007677,0.001102,0.009964,1.907e-05,4.387e-05,0.02533,0.001143,5.415,0.01914,0,1,0
298200000000,298500000000,2436304513,0,998338022,0.009964,0.009964,0.01358,0.0009174,0.001251,0.01001,2.098e-05,4.482e-05,0.02451,0.001286,5.242,0.01804,0,1,0
298500000000,298800000000,2436304513,0,998338022,0.009903,0.009964,0.01358,0.0009079,0.001242,0.01001,2.003e-05,4.387e-05,0.02518,0.001286,5.307,0.01867,0,1,0
298800000000,299100000000,2436304513,0,998338022,0.01053,0.0101,0.01358,0.0008917,0.001276,0.01053,0.0003557,4.482e-05,0.04486,0.04651,5.173,0.0177,0,1,0
299100000000,299400000000,2436304513,0,998338022,0.01012,0.01031,0.01358,0.00119,0.001699,0.01036,2.766e-05,4.482e-05,0.02615,0.001499,5.379,0.01863,0,1,0
299400000000,299700000000,2436304513,0,998338022,0.009109,0.01031,0.01358,0.001066,0.001575,0.01035,2.098e-05,4.387e-05,0.02771,0.001785,5.296,0.01842,0,1,0
299700000000,300000000000,2436304513,0,998338022,0.006317,0.01028,0.01358,0.00108,0.001572,0.01044,1.812e-05,4.482e-05,0.04401,0.001358,5.609,0.02029,0,1,0
