6000000000,6300000000,287653404,0,3811710145,0.0379,0.03387,0.04468,0.00131,0.001596,0.03497,4.101e-05,0.0001869,0.3047,0.0009995,1.535,0.002205,0,0,0.1289
6300000000,6600000000,287653404,0,3811710145,0.04541,0.03442,0.04529,0.00132,0.001606,0.03546,0.0001097,0.0001869,0.3442,0.002499,1.551,0.002198,0,0,0.03625
6600000000,6900000000,287653404,0,3811710145,0.05365,0.03424,0.04517,0.001328,0.001614,0.03546,0.0001068,0.0001869,0.4009,0.001572,1.517,0.002109,0,0,0.007874
7500000000,7800000000,287653404,0,3811710145,0.03528,0.0343,0.04468,0.001329,0.001616,0.03473,4.959e-05,0.0001869,0.3281,0.002071,1.598,0.002351,0,0,0.003929
7800000000,8100000000,287653404,0,3811710145,0.05225,0.03479,0.04553,0.001331,0.001619,0.03564,0.0001469,0.0001869,0.4214,0.002499,1.553,0.002201,0,0,0.0002432
8100000000,8400000000,287653404,0,3811710145,0.05194,0.03442,0.04523,0.001335,0.001623,0.03552,0.0001163,0.0001869,0.3594,0.001715,1.531,0.002142,0,0,0.1265
9000000000,9300000000,287653404,0,3811710145,0.04321,0.03387,0.04468,0.001347,0.001635,0.0351,6.39e-05,0.0001869,0.3359,0.002144,1.587,0.002278,0,0,0.01974
9300000000,9600000000,287653404,0,3811710145,0.04004,0.03418,0.04468,0.001354,0.00164,0.03503,0.0001583,0.0001869,0.3125,0.002285,1.544,0.002153,0,0,0.0006685
9600000000,9900000000,287653404,0,3811710145,0.05188,0.0343,0.04504,0.00136,0.001646,0.03522,0.0001431,0.0001869,0.3516,0.002071,1.582,0.002256,0,0,0.1558
10800000000,11100000000,287653404,0,3811710145,0.0387,0.03448,0.04547,0.001396,0.001684,0.03564,0.0001106,0.0001869,0.2969,0.001858,1.538,0.00204,0,0,0.001104
11400000000,11700000000,287653404,0,3811710145,0.03067,0.03394,0.04468,0.001364,0.001652,0.03442,6.294e-05,0.0001869,0.3047,0.001928,1.545,0.002078,0,0,0.004906
11700000000,12000000000,287653404,0,3811710145,0.05322,0.03442,0.04498,0.00136,0.001648,0.03516,0.0001259,0.0001869,0.3516,0.002644,1.568,0.002221,0,0,0.00243
12000000000,12300000000,287653404,0,3811710145,0.04565,0.03394,0.04474,0.001356,0.001644,0.03534,5.531e-05,0.0001869,0.3516,0.001858,1.573,0.002256,0,0,0.004608
12600000000,12900000000,287653404,0,3811710145,0.05609,0.03424,0.04492,0.001295,0.001581,0.03522,0.0001144,0.0001879,0.3594,0.001499,1.645,0.002336,0,0,0.01012
12900000000,13200000000,287653404,0,3811710145,0.03018,0.03381,0.04468,0.001257,0.001545,0.03442,5.531e-05,0.0001879,0.3047,0.001286,1.57,0.002267,0,0,0.002232
13200000000,13500000000,287653404,0,3811710145,0.0553,0.0343,0.04468,0.001265,0.001551,0.03497,0.0001001,0.0001879,0.3438,0.001358,1.602,0.002199,0,0,0.0003242
13500000000,13800000000,287653404,0,3811710145,0.04779,0.03406,0.0448,0.001266,0.001554,0.0351,7.057e-05,0.0001879,0.3535,0.001499,1.606,0.002359,0,0,0.08521
13800000000,14100000000,287653404,0,3811710145,0.0368,0.034,0.04486,0.001265,0.001551,0.03503,9.06e-05,0.0001879,0.3438,0.002144,1.534,0.002158,0,0,0.001419
14100000000,14400000000,287653404,0,3811710145,0.05389,0.03418,0.04468,0.001268,0.001554,0.03497,0.0001173,0.0001879,0.3594,0.001858,1.628,0.002255,0,0,0.04004
15000000000,15300000000,287653404,0,3811710145,0.05103,0.034,0.04468,0.00127,0.001556,0.03497,8.965e-05,0.0001879,0.3853,0.002144,1.613,0.002161,0,0,0.0008402
15300000000,15600000000,287653404,0,3811710145,0.03412,0.03387,0.04468,0.001278,0.001564,0.03455,7.629e-05,0.0001879,0.3125,0.001642,1.589,0.002114,0,0,0.001568
15600000000,15900000000,287653404,0,3811710145,0.05408,0.0343,0.04468,0.001286,0.001572,0.03503,0.0001154,0.0001879,0.3672,0.001785,1.585,0.00218,0,0,0.001915
15900000000,16200000000,287653404,0,3811710145,0.03491,0.03375,0.04468,0.001291,0.001579,0.03485,5.817e-05,0.0001879,0.3047,0.001999,1.549,0.002155,0,0,0.01184
16200000000,16500000000,287653404,0,3811710145,0.04938,0.03442,0.04504,0.001289,0.001577,0.03528,0.0001211,0.0001879,0.3794,0.001642,1.583,0.002146,0,0,0.09326
16500000000,16800000000,287653404,0,3811710145,0.052,0.0343,0.04517,0.001297,0.001585,0.03558,9.727e-05,0.0001879,0.3667,0.002144,1.609,0.002189,0,0,0.004311
17100000000,17400000000,287653404,0,3811710145,0.05432,0.03448,0.04523,0.001297,0.001583,0.03528,0.0001116,0.0001879,0.3594,0.001928,1.601,0.002193,0,0,0.005791
17400000000,17700000000,287653404,0,3811710145,0.04474,0.03394,0.04468,0.001305,0.001591,0.03516,6.008e-05,0.0001879,0.3271,0.001572,1.64,0.002279,0,0,0.1289
18300000000,18600000000,287653404,0,3811710145,0.03021,0.03394,0.04468,8.011e-05,0.0003672,0.03467,5.817e-05,0.0001879,0.2969,0.002071,1.535,0.002081,0,0,0.01479
18600000000,18900000000,287653404,0,3811710145,0.05396,0.03418,0.04468,8.583e-05,0.0003738,0.03479,0.0001116,0.0001879,0.3672,0.001928,1.614,0.00221,0,0,0.0885
18900000000,19200000000,287653404,0,3811710145,0.04407,0.03387,0.04468,9.441e-05,0.0003815,0.0351,6.485e-05,0.0001879,0.3516,0.00293,1.575,0.002177,0,0,0.002411
19200000000,19500000000,287653404,0,3811710145,0.03833,0.03406,0.04468,9.918e-05,0.0003872,0.03491,0.0001087,0.0001879,0.3359,0.001858,1.514,0.001999,0,0,0.0006733
19500000000,19800000000,287653404,0,3811710145,0.05267,0.0343,0.04468,0.000104,0.000391,0.03503,0.000123,0.0001879,0.3203,0.001999,1.571,0.002118,0,0,0.1007
19800000000,20100000000,287653404,0,3811710145,0.03012,0.03381,0.04468,0.0001144,0.0004015,0.03424,4.482e-05,0.0001879,0.2891,0.001143,1.554,0.002139,0,0,0.1477
20100000000,20400000000,287653404,0,3811710145,0.05426,0.03455,0.04553,0.0001297,0.0004168,0.0354,0.0001116,0.0001879,0.3438,0.001429,1.644,0.002176,0,0,0.0009584
20700000000,21000000000,287653404,0,3811710145,0.04047,0.03424,0.04517,0.0001335,0.0004206,0.03528,0.0001068,0.0001879,0.3281,0.002144,1.636,0.00211,0,0,0.06934
21000000000,21300000000,287653404,0,3811710145,0.05664,0.03448,0.04529,0.0001411,0.0004282,0.03546,0.000104,0.0001879,0.3359,0.001572,1.689,0.002263,0,0,0.1555
21300000000,21600000000,287653404,0,3811710145,0.03131,0.03381,0.04468,0.0001507,0.0004377,0.0343,4.196e-05,0.0001879,0.2969,0.001143,1.655,0.00219,0,0,0.0001564
21600000000,21900000000,287653404,0,3811710145,0.05615,0.03448,0.04468,0.0001545,0.0004425,0.03503,0.000124,0.0001879,0.3555,0.003071,1.665,0.002124,0,0,0.06323
21900000000,22200000000,287653404,0,3811710145,0.04456,0.03394,0.04468,0.0001612,0.0004482,0.03503,6.294e-05,0.0001879,0.3584,0.001358,1.563,0.002054,0,0,0.1304
22200000000,22500000000,287653404,0,3811710145,0.03986,0.034,0.04468,0.0001688,0.0004559,0.03479,0.0001183,0.0001879,0.3281,0.002213,1.64,0.002123,0,0,0.001228
22500000000,22800000000,287653404,0,3811710145,0.0531,0.0343,0.04498,0.0001736,0.0004606,0.03528,0.0001125,0.0001879,0.3672,0.002144,1.64,0.002189,0,0,0.1249
22800000000,23100000000,287653404,0,3811710145,0.03149,0.03387,0.04468,0.0001802,0.0004673,0.03436,6.199e-05,0.0001879,0.3125,0.001358,1.518,0.001925,0,0,0.004242
23100000000,23400000000,287653404,0,3811710145,0.0531,0.03448,0.0451,0.0001888,0.0004759,0.03528,0.0001268,0.0001879,0.3672,0.001358,1.554,0.001997,0,0,0.02365
23700000000,24000000000,287653404,0,3811710145,0.0387,0.03424,0.04517,0.0002022,0.0004892,0.03528,9.346e-05,0.0001888,0.3203,0.001429,1.581,0.002085,0,0,0.001921
24000000000,24300000000,287653404,0,3811710145,0.0509,0.0343,0.04468,0.0002003,0.0004883,0.0351,0.0001249,0.0001888,0.3438,0.001928,1.648,0.002208,0,0,0.01561
24900000000,25200000000,287653404,0,3811710145,0.04108,0.03387,0.04468,0.0002203,0.0005074,0.03503,6.485e-05,0.0001888,0.3281,0.001358,1.615,0.002226,0,0,0.06665
26100000000,26400000000,287653404,0,3811710145,0.05334,0.03455,0.04535,0.000247,0.0005341,0.03528,0.0001183,0.0001888,0.3921,0.002357,1.648,0.002211,0,0,0.003452
26700000000,27000000000,287653404,0,3811710145,0.04797,0.0343,0.04468,0.0002565,0.0005436,0.03491,0.0001411,0.0001888,0.3901,0.002285,1.566,0.002047,0,0,0.1001
27000000000,27300000000,287653404,0,3811710145,0.04492,0.03418,0.04498,0.0002642,0.0005522,0.03522,7.439e-05,0.0001888,0.3789,0.001999,1.613,0.002151,0,0,0.007278
27300000000,27600000000,287653404,0,3811710145,0.03851,0.03394,0.04468,0.0002661,0.0005531,0.03473,0.0001135,0.0001888,0.2969,0.00243,1.556,0.002036,0,0,0.0001965
27900000000,28200000000,287653404,0,3811710145,0.03284,0.03387,0.04468,0.0002785,0.0005655,0.03436,5.245e-05,0.0001888,0.2969,0.002071,1.594,0.002108,0,0,0.00293
28200000000,28500000000,287653404,0,3811710145,0.05188,0.03436,0.04492,0.0002842,0.0005713,0.03522,0.0001278,0.0001888,0.3921,0.002785,1.606,0.002171,0,0,0.06787
28800000000,29100000000,287653404,0,3811710145,0.04028,0.03412,0.04468,0.0002928,0.0005798,0.03491,0.0001268,0.0001888,0.3281,0.002499,1.606,0.002066,0,0,0.01639
29100000000,29400000000,287653404,0,3811710145,0.05139,0.03436,0.04529,0.0002975,0.0005846,0.03534,9.823e-05,0.0001888,0.3462,0.001785,1.613,0.002168,0,0,0.003445
29400000000,29700000000,287653404,0,3811710145,0.03571,0.03381,0.04468,0.0003071,0.0005941,0.0343,7.248e-05,0.0001888,0.2969,0.001715,1.637,0.002177,0,0,0.005661
30000000000,30300000000,287653404,0,3811710145,0.03186,0.03381,0.04468,0.0003223,0.0006094,0.03436,5.531e-05,0.0001888,0.3125,0.001858,1.59,0.002174,0,0,0.000186
30300000000,30600000000,287653404,0,3811710145,0.05585,0.03448,0.04535,0.0003309,0.000618,0.03552,0.0001307,0.0001888,0.335,0.001858,1.639,0.002253,0,0,0.01654
30600000000,30900000000,287653404,0,3811710145,0.05115,0.034,0.04474,0.0003338,0.0006218,0.03528,0.0001154,0.0001888,0.395,0.004425,1.668,0.002286,0,0,0.01755
30900000000,31200000000,287653404,0,3811710145,0.03577,0.03412,0.04492,0.0003452,0.0006323,0.0351,9.346e-05,0.0001888,0.2969,0.002357,1.606,0.002101,0,0,0.006447
31200000000,31500000000,287653404,0,3811710145,0.05676,0.03448,0.04547,0.0003519,0.000639,0.03558,0.0001755,0.0001888,0.3716,0.003071,1.62,0.002149,0,0,0.0108
31500000000,31800000000,287653404,0,3811710145,0.03036,0.03387,0.04474,0.0003519,0.000639,0.03485,5.531e-05,0.0001888,0.3066,0.002285,1.552,0.002105,0,0,0.02005
31800000000,32100000000,287653404,0,3811710145,0.05505,0.03424,0.04468,0.0003576,0.0006456,0.03497,0.0001221,0.0001888,0.4292,0.001572,1.603,0.00216,0,0,0.06812
32100000000,32400000000,287653404,0,3811710145,0.04431,0.03387,0.0448,0.0003653,0.0006533,0.03522,8.583e-05,0.0001888,0.5859,0.001928,1.576,0.002173,0,0,0.02542
32400000000,32700000000,287653404,0,3811710145,0.04047,0.03418,0.04517,0.0003729,0.0006609,0.03522,0.0001001,0.0001888,0.3125,0.002144,1.566,0.002092,0,0,0.0002518
32700000000,33000000000,287653404,0,3811710145,0.05438,0.0343,0.04523,0.0003757,0.0006628,0.03534,0.0001402,0.0001888,0.3623,0.001928,1.619,0.002228,0,0,0.006706
33000000000,33300000000,287653404,0,3811710145,0.02982,0.03387,0.04474,0.0003834,0.0006704,0.03485,6.104e-05,0.0001888,0.3091,0.002213,1.529,0.002189,0,0,0.0004444
33300000000,33600000000,287653404,0,3811710145,0.05408,0.03424,0.04504,0.0003901,0.0006771,0.03534,0.0001526,0.0001888,0.3447,0.002213,1.587,0.002275,0,0,0.0001554
33600000000,33900000000,287653404,0,3811710145,0.04199,0.03381,0.0448,0.0003967,0.0006838,0.03546,7.343e-05,0.0001888,0.375,0.002357,1.551,0.002103,0,0,0.002781
33900000000,34200000000,287653404,0,3811710145,0.04358,0.03442,0.04529,0.0004168,0.0007038,0.03546,0.0001307,0.0001888,0.3638,0.00243,1.552,0.002063,0,0,0.005806
34200000000,34500000000,287653404,0,3811710145,0.0545,0.03424,0.04498,0.0004148,0.0007019,0.03534,0.0001326,0.0001888,0.3862,0.001785,1.584,0.002168,0,0,0.2156
34500000000,34800000000,287653404,0,3811710145,0.02899,0.03387,0.04468,0.0004177,0.0007048,0.03461,5.436e-05,0.0001888,0.2891,0.001499,1.499,0.002012,0,0,0.0008497
34800000000,35100000000,287653404,0,3811710145,0.05487,0.03455,0.04541,0.0004158,0.0007038,0.03546,0.0001459,0.0001888,0.4062,0.002285,1.588,0.002112,0,0,0.004433
35100000000,35400000000,287653404,0,3811710145,0.03693,0.03381,0.04468,0.0004129,0.0007,0.03503,6.294e-05,0.0001898,0.3828,0.002144,1.551,0.002132,0,0,0.004082
35400000000,35700000000,287653404,0,3811710145,0.04761,0.03442,0.0451,0.000433,0.000721,0.03534,0.0001183,0.0001898,0.3389,0.002144,1.586,0.002183,0,0,0.0007458
35700000000,36000000000,287653404,0,3811710145,0.05328,0.0343,0.0451,0.0004444,0.0007324,0.03546,0.0001087,0.0001898,0.3916,0.002144,1.594,0.002175,0,0,0.134
36300000000,36600000000,287653404,0,3811710145,0.0575,0.03436,0.04498,0.0004435,0.0007305,0.03534,0.0001898,0.0001898,0.4453,0.002285,1.671,0.002287,0,0,0.0217
36600000000,36900000000,287653404,0,3811710145,0.03198,0.03381,0.04468,0.000452,0.0007391,0.03436,5.531e-05,0.0001898,0.3594,0.001928,1.609,0.002274,0,0,0.01183
36900000000,37200000000,287653404,0,3811710145,0.05414,0.03448,0.04529,0.0004606,0.0007477,0.03558,0.0001698,0.0001898,0.4023,0.002213,1.604,0.002156,0,0,0.02768
37200000000,37500000000,287653404,0,3811710145,0.05176,0.03412,0.04498,0.0004568,0.0007439,0.03534,0.0001392,0.0001898,0.3364,0.003143,1.575,0.002128,0,0,0.0001659
37500000000,37800000000,287653404,0,3811710145,0.03162,0.03412,0.04504,0.0004406,0.0007286,0.03522,7.343e-05,0.0001898,0.3164,0.001358,1.513,0.002068,0,0,0.01093
37800000000,38100000000,287653404,0,3811710145,0.05328,0.03436,0.04517,0.0004473,0.0007343,0.0354,0.0001488,0.0001898,0.3569,0.001928,1.569,0.002137,0,0,0.1516
38100000000,38400000000,287653404,0,3811710145,0.03043,0.03369,0.04468,0.000453,0.0007401,0.03412,4.959e-05,0.0001898,0.3213,0.001286,1.513,0.002081,0,0,0.007065
38400000000,38700000000,287653404,0,3811710145,0.05475,0.03461,0.04553,0.0004511,0.0007381,0.03546,0.0001812,0.0001898,0.397,0.001715,1.593,0.002216,0,0,0.01274
39000000000,39300000000,287653404,0,3811710145,0.03821,0.03406,0.04486,0.0004606,0.0007477,0.03516,5.722e-05,0.0001898,0.9219,0.001999,1.613,0.002228,0,0,0.002037
39600000000,39900000000,287653404,0,3811710145,0.03174,0.03387,0.04468,0.0004597,0.0007467,0.03436,5.436e-05,0.0001898,0.3047,0.002499,1.511,0.00206,0,0,0.01109
39900000000,40200000000,287653404,0,3811710145,0.05609,0.03467,0.04547,0.0004711,0.0007591,0.03571,0.0001488,0.0001898,0.4155,0.002285,1.654,0.002272,0,0,0.01369
40200000000,40500000000,287653404,0,3811710145,0.04858,0.03412,0.0448,0.0004759,0.0007629,0.03583,9.155e-05,0.0001898,0.4199,0.002857,1.626,0.002229,0,0,0.0004301
40500000000,40800000000,287653404,0,3811710145,0.03668,0.03455,0.04547,0.0004902,0.0007772,0.03577,0.0001011,0.0001898,0.3125,0.002357,1.557,0.002031,0,0,0.0007353
51000000000,51300000000,287653404,0,3811710145,0.05414,0.03442,0.04517,0.0006504,0.0009375,0.03552,0.0001431,0.0001907,0.3916,0.001928,1.702,0.002412,0,0,0.0177
51300000000,51600000000,287653404,0,3811710145,0.05743,0.03455,0.04535,0.0006514,0.0009384,0.03595,0.0001221,0.0001907,0.3716,0.001215,1.625,0.002239,0,0,0.02078
51600000000,51900000000,287653404,0,3811710145,0.03186,0.03406,0.04486,0.0006447,0.0009327,0.03522,6.962e-05,0.0001907,0.3169,0.002213,1.543,0.002026,0,0,0.0002604
52200000000,52500000000,287653404,0,3811710145,0.04834,0.03406,0.0448,0.0006523,0.0009394,0.03534,8.011e-05,0.0001907,0.4297,0.001858,1.604,0.002293,0,0,0.01028
52500000000,52800000000,287653404,0,3811710145,0.03827,0.03418,0.04492,0.0006599,0.000947,0.03528,0.0001183,0.0001907,0.356,0.001715,1.545,0.002032,0,0,0.01041
52800000000,53100000000,287653404,0,3811710145,0.05548,0.0343,0.04517,0.0006704,0.0009584,0.03528,0.0001221,0.0001907,0.3916,0.001928,1.545,0.00206,0,0,0.1113
53100000000,53400000000,287653404,0,3811710145,0.03467,0.03375,0.04468,0.0006838,0.0009708,0.03485,6.676e-05,0.0001907,0.3389,0.001429,1.541,0.002082,0,0,0.009583
53400000000,53700000000,287653404,0,3811710145,0.05151,0.03442,0.04523,0.0006962,0.0009823,0.03534,0.0001411,0.0001907,0.4146,0.003429,1.567,0.002095,0,0,0.0003586
53700000000,54000000000,287653404,0,3811710145,0.05341,0.03418,0.04498,0.0006809,0.0009689,0.03516,0.0001183,0.0001907,0.4053,0.001572,1.643,0.002283,0,0,0.01682
54000000000,54300000000,287653404,0,3811710145,0.03705,0.03394,0.04468,0.0006628,0.0009499,0.03473,9.727e-05,0.0001907,0.3711,0.002071,1.62,0.002152,0,0,0.004578
54300000000,54600000000,287653404,0,3811710145,0.05658,0.03448,0.04529,0.0006762,0.0009632,0.03528,0.0001183,0.0001907,0.3691,0.001858,1.594,0.002152,0,0,0.08679
54600000000,54900000000,287653404,0,3811710145,0.04938,0.034,0.04474,0.0006781,0.0009651,0.03522,6.58e-05,0.0001907,0.3745,0.001499,1.711,0.00229,0,0,0.0006142
54900000000,55200000000,287653404,0,3811710145,0.04193,0.03424,0.04517,0.0006733,0.0009604,0.03522,0.0001249,0.0001907,0.3647,0.002571,1.667,0.002094,0,0,0.01198
55200000000,55500000000,287653404,0,3811710145,0.05878,0.0343,0.04468,0.0006781,0.0009651,0.0351,0.0001268,0.0001907,0.4023,0.001429,1.674,0.002174,0,0,0.003361
55500000000,55800000000,287653404,0,3811710145,0.03729,0.03381,0.04468,0.0006847,0.0009718,0.03491,5.531e-05,0.0001907,0.3535,0.001715,1.637,0.002101,0,0,0.01929
55800000000,56100000000,287653404,0,3811710145,0.05408,0.0343,0.04468,0.0006914,0.0009785,0.03503,0.0001116,0.0001907,0.3496,0.001358,1.692,0.002167,0,0,0.002045
56100000000,56400000000,287653404,0,3811710145,0.0567,0.03418,0.04517,0.0006971,0.0009842,0.03522,0.0001049,0.0001907,0.4258,0.00243,1.716,0.002245,0,0,0.09851
56700000000,57000000000,287653404,0,3811710145,0.05841,0.03455,0.04565,0.0007248,0.001013,0.03534,0.0001297,0.0001907,0.3545,0.001928,1.646,0.002156,0,0,0.01518
57000000000,57300000000,287653404,0,3811710145,0.05182,0.03412,0.04486,0.0007238,0.001011,0.03546,6.962e-05,0.0001917,0.3691,0.001499,1.765,0.002411,0,0,0.03168
57300000000,57600000000,287653404,0,3811710145,0.03979,0.03418,0.04517,0.0007353,0.001022,0.03522,9.537e-05,0.0001917,0.3599,0.001572,1.635,0.002093,0,0,0.06799
57600000000,57900000000,287653404,0,3811710145,0.05823,0.03424,0.04468,0.000741,0.001028,0.03491,0.0001335,0.0001917,0.3618,0.002499,1.632,0.002136,0,0,0.01599
57900000000,58200000000,287653404,0,3811710145,0.04517,0.03394,0.04468,0.0007439,0.00103,0.03516,5.722e-05,0.0001917,0.4243,0.002644,1.645,0.002122,0,0,0.006584
58200000000,58500000000,287653404,0,3811710145,0.04419,0.03436,0.04492,0.0007515,0.00104,0.03522,0.0001173,0.0001917,0.3799,0.001642,1.594,0.002099,0,0,0.008423
58500000000,58800000000,287653404,0,3811710145,0.05859,0.0343,0.04523,0.0007477,0.001036,0.03516,0.0001678,0.0001917,0.3569,0.00293,1.653,0.002234,0,0,0.009933
58800000000,59100000000,287653404,0,3811710145,0.03815,0.03381,0.04468,0.0007439,0.001032,0.03485,7.057e-05,0.0001917,0.3545,0.002071,1.608,0.002165,0,0,0.01865
59100000000,59400000000,287653404,0,3811710145,0.05444,0.03448,0.04523,0.0007515,0.00104,0.03534,0.0001574,0.0001917,0.3335,0.001858,1.664,0.002258,0,0,0.06897
59400000000,59700000000,287653404,0,3811710145,0.05786,0.03424,0.04468,0.0007515,0.00104,0.0351,0.000144,0.0001917,0.3818,0.001785,1.694,0.002333,0,0,0.08618
59700000000,60000000000,287653404,0,3811710145,0.03497,0.03381,0.04468,0.0007553,0.001043,0.03455,9.632e-05,0.0001917,0.3394,0.001572,1.607,0.002234,0,0,0.0004702
60000000000,60300000000,287653404,0,3811710145,0.05988,0.03455,0.04523,0.0007401,0.001028,0.0354,0.000165,0.0001917,0.3506,0.002499,1.707,0.002252,0,0,0.01396
60300000000,60600000000,287653404,0,3811710145,0.05341,0.03424,0.0451,0.000741,0.001028,0.03516,0.0001068,0.0001917,0.3745,0.001928,1.679,0.002292,0,0,0.001003
60600000000,60900000000,287653404,0,3811710145,0.03955,0.03394,0.04474,0.0007439,0.001032,0.03479,0.0001307,0.0001917,0.3735,0.002857,1.624,0.002179,0,0,0.008026
70800000000,71100000000,287653404,0,3811710145,0.04315,0.034,0.04468,0.001041,0.001329,0.03479,0.0001488,0.0001926,0.3828,0.001785,1.584,0.002137,0,0,0.011
71100000000,71400000000,287653404,0,3811710145,0.06262,0.03467,0.04553,0.001057,0.001343,0.03546,0.000103,0.0001926,0.3755,0.001215,1.702,0.002421,0,0,0.00766
71400000000,71700000000,287653404,0,3811710145,0.05084,0.03406,0.0448,0.001059,0.001345,0.03522,5.627e-05,0.0001926,0.3916,0.001642,1.704,0.002466,0,0,0.0004759
71700000000,72000000000,287653404,0,3811710145,0.04718,0.03424,0.04492,0.001057,0.001345,0.0351,9.441e-05,0.0001926,0.3066,0.001358,1.681,0.002382,0,0,0.1013
72000000000,72300000000,287653404,0,3811710145,0.06323,0.03442,0.04498,0.001066,0.001354,0.03528,6.58e-05,0.0001926,0.3872,0.0006428,1.722,0.002464,0,0,0.0874
72300000000,72600000000,287653404,0,3811710145,0.04517,0.03394,0.04468,0.001076,0.001362,0.0351,6.39e-05,0.0001926,0.3574,0.002071,1.655,0.002339,0,0,0.00425
72600000000,72900000000,287653404,0,3811710145,0.05048,0.0343,0.04468,0.001083,0.001371,0.03497,0.0002117,0.0001926,0.3843,0.002144,1.602,0.002296,0,0,0.01189
74100000000,74400000000,287653404,0,3811710145,0.03864,0.03387,0.04468,0.0008183,0.001106,0.03455,0.0001068,0.0001926,0.374,0.001715,1.609,0.002257,0,0,0.0008192
74400000000,74700000000,287653404,0,3811710145,0.05774,0.03461,0.04535,0.0008326,0.00112,0.0354,0.0001726,0.0001926,0.4102,0.002144,1.632,0.002298,0,0,0.06799
74700000000,75000000000,287653404,0,3811710145,0.05322,0.03418,0.04468,0.0008345,0.001122,0.0351,0.0001059,0.0001926,0.3882,0.002998,1.641,0.002311,0,0,0.1326
75000000000,75300000000,287653404,0,3811710145,0.0412,0.03394,0.04468,0.0008459,0.001133,0.03455,0.0001078,0.0001926,0.4028,0.003216,1.614,0.002315,0,0,0.008926
75300000000,75600000000,287653404,0,3811710145,0.05957,0.03442,0.04535,0.0008612,0.001148,0.03528,6.866e-05,0.0001926,0.4062,0.00293,1.679,0.002261,0,0,0.07092
75600000000,75900000000,287653404,0,3811710145,0.05219,0.03424,0.04517,0.000865,0.001152,0.0354,3.719e-05,0.0001841,0.3828,0.001072,1.65,0.0023,0,0,0.0003967
75900000000,76200000000,287653404,0,3811710145,0.04205,0.034,0.04486,0.0008669,0.001154,0.03503,5.341e-05,0.0001831,0.3833,0.0005713,1.626,0.002245,0,0,0.002243
76200000000,76500000000,287653404,0,3811710145,0.06091,0.03473,0.04559,0.0008755,0.001163,0.03546,6.676e-05,0.0001831,0.3589,0.001572,1.619,0.002244,0,0,0.01207
76500000000,76800000000,287653404,0,3811710145,0.05194,0.03424,0.04517,0.000885,0.001173,0.03528,9.155e-05,0.0001831,0.3525,0.002144,1.669,0.002401,0,0,0.1504
76800000000,77100000000,287653404,0,3811710145,0.04407,0.034,0.0448,0.0008945,0.001183,0.03485,0.0002232,0.0001831,0.354,0.002644,1.599,0.002335,0,0,0.0647
77100000000,77400000000,287653404,0,3811710145,0.06189,0.03442,0.04486,0.0009022,0.001188,0.03522,0.0001869,0.0001831,0.3779,0.001999,1.703,0.002462,0,0,0.0217
77400000000,77700000000,287653404,0,3811710145,0.05267,0.03424,0.0451,0.0009117,0.0012,0.03528,8.106e-05,0.0001831,0.3545,0.001572,1.702,0.002465,0,0,0.01146
77700000000,78000000000,287653404,0,3811710145,0.04401,0.03412,0.04486,0.0009232,0.001211,0.0351,0.0001631,0.0001831,0.3804,0.001999,1.61,0.002353,0,0,0.0001869
78000000000,78300000000,287653404,0,3811710145,0.06238,0.03436,0.04468,0.0009298,0.001217,0.0351,0.0002022,0.0001831,0.3774,0.004074,1.711,0.002497,0,0,0.02798
78300000000,78600000000,287653404,0,3811710145,0.05182,0.03424,0.0451,0.0009403,0.00123,0.03528,8.297e-05,0.0001831,0.3481,0.001499,1.72,0.002506,0,0,0.01001
78600000000,78900000000,287653404,0,3811710145,0.04517,0.03412,0.0448,0.0009518,0.001238,0.03497,0.0001774,0.0001831,0.3706,0.002071,1.633,0.002396,0,0,0.002831
78900000000,79200000000,287653404,0,3811710145,0.06158,0.03442,0.04504,0.0009613,0.001249,0.03528,0.0001774,0.0001841,0.3281,0.002144,1.709,0.002504,0,0,0.01364
79200000000,79500000000,287653404,0,3811710145,0.05194,0.03412,0.04504,0.0009708,0.001259,0.03522,8.488e-05,0.0001841,0.3613,0.001499,1.7,0.002468,0,0,0.001085
79500000000,79800000000,287653404,0,3811710145,0.0448,0.03424,0.04492,0.0009804,0.001268,0.03503,0.0001984,0.0001841,0.3882,0.002071,1.629,0.002402,0,0,0.002598
79800000000,80100000000,287653404,0,3811710145,0.06195,0.03461,0.04535,0.000988,0.001276,0.03558,0.0001965,0.0001841,0.3745,0.002285,1.681,0.002424,0,0,0.01587
80100000000,80400000000,287653404,0,3811710145,0.05011,0.03412,0.04517,0.001001,0.001289,0.03522,8.297e-05,0.0001841,0.3955,0.002499,1.695,0.002481,0,0,0.03998
80400000000,80700000000,287653404,0,3811710145,0.04572,0.03418,0.04474,0.001009,0.001297,0.03485,0.0001554,0.0001841,0.3516,0.003857,1.613,0.002344,0,0,0.01074
80700000000,81000000000,287653404,0,3811710145,0.06134,0.03455,0.04535,0.001015,0.001301,0.03534,0.0001602,0.0001841,0.3896,0.001928,1.704,0.002493,0,0,0.07422
85800000000,86100000000,287653404,0,3811710145,0.05853,0.03455,0.04529,0.001156,0.001444,0.03528,0.0001764,0.0001841,0.3726,0.002785,1.626,0.002216,0,0,0.2246
86400000000,86700000000,287653404,0,3811710145,0.04236,0.03406,0.0448,0.001171,0.001457,0.03491,0.0001793,0.0001841,0.3428,0.001999,1.59,0.002184,0,0,0.08423
86700000000,87000000000,287653404,0,3811710145,0.05988,0.03461,0.04559,0.001169,0.001457,0.0354,0.000206,0.0001841,0.3291,0.003284,1.669,0.00236,0,0,0.08618
87600000000,87900000000,287653404,0,3811710145,0.05566,0.03442,0.04529,0.001165,0.001453,0.0354,9.727e-05,0.0001841,0.3896,0.001499,1.667,0.0023,0,0,0.001125
87900000000,88200000000,287653404,0,3811710145,0.03851,0.03387,0.04468,0.001173,0.001461,0.03448,0.0001049,0.0001841,0.3257,0.002499,1.624,0.00221,0,0,0.02066
88200000000,88500000000,287653404,0,3811710145,0.05859,0.03455,0.04535,0.001181,0.001467,0.03528,0.0001431,0.0001841,1.633,0.001785,1.656,0.002261,0,0,0.03387
88500000000,88800000000,287653404,0,3811710145,0.04816,0.03436,0.04523,0.001186,0.001474,0.03564,5.913e-05,0.0001841,0.3364,0.001785,1.63,0.002361,0,0,0.09192
89400000000,89700000000,287653404,0,3811710145,0.04529,0.03406,0.04474,0.001204,0.00149,0.03522,4.959e-05,0.000185,0.3184,0.001429,1.627,0.002446,0,0,0.1409
89700000000,90000000000,287653404,0,3811710145,0.04565,0.03448,0.04523,0.001215,0.001503,0.03528,0.0002174,0.000185,0.3242,0.003357,1.579,0.002262,0,0,0.1597
90000000000,90300000000,287653404,0,3811710145,0.05109,0.03418,0.04468,0.001219,0.001507,0.03497,6.866e-05,0.000185,0.3442,0.001928,1.635,0.002292,0,0,0.007675
90300000000,90600000000,287653404,0,3811710145,0.04114,0.03387,0.04468,0.001228,0.001516,0.03436,0.000102,0.000185,0.3896,0.001499,1.634,0.002289,0,0,0.06055
101700000000,102000000000,287653404,0,3811710145,0.04761,0.03442,0.04529,0.001358,0.001646,0.03546,5.722e-05,0.000186,0.3208,0.0009995,1.622,0.002157,0,0,0.02228
102000000000,102300000000,287653404,0,3811710145,0.04175,0.03394,0.04468,0.001366,0.001654,0.03436,0.0001287,0.000186,0.4062,0.001999,1.536,0.002034,0,0,0.02487
102300000000,102600000000,287653404,0,3811710145,0.05634,0.03448,0.04523,0.001377,0.001663,0.03528,0.0001173,0.000186,0.375,0.001785,1.678,0.002134,0,0,0.137
102600000000,102900000000,287653404,0,3811710145,0.04999,0.03418,0.04517,0.001381,0.001669,0.03528,5.436e-05,0.000186,0.4531,0.001572,1.681,0.002174,0,0,0.09546
102900000000,103200000000,287653404,0,3811710145,0.04291,0.03406,0.04474,0.00139,0.001677,0.03485,0.0001211,0.000186,0.375,0.002213,1.706,0.002085,0,0,0.01587
103200000000,103500000000,287653404,0,3811710145,0.05481,0.03436,0.04523,0.001396,0.001684,0.03522,7.725e-05,0.000186,0.3457,0.001215,1.726,0.002259,0,0,0.1313
103500000000,103800000000,287653404,0,3811710145,0.04993,0.03406,0.04474,0.001408,0.001694,0.03516,0.0001707,0.000186,0.3477,0.002213,1.736,0.002248,0,0,0.0002985
103800000000,104100000000,287653404,0,3811710145,0.04883,0.03436,0.04523,0.001415,0.001703,0.0351,0.000102,0.000186,0.3457,0.001358,1.664,0.002125,0,0,0.01137
104100000000,104400000000,287653404,0,3811710145,0.04828,0.03418,0.04468,0.001425,0.001711,0.03503,6.104e-05,0.000186,0.3193,0.001858,1.746,0.002292,0,0,0.01205
104400000000,104700000000,287653404,0,3811710145,0.04327,0.03394,0.04468,0.001432,0.00172,0.03436,0.0001163,0.000186,0.3325,0.001642,1.639,0.002012,0,0,0.03766
104700000000,105000000000,287653404,0,3811710145,0.0545,0.03442,0.04523,0.00144,0.001728,0.03528,0.0001326,0.000186,0.3618,0.001572,1.564,0.002123,0,0,0.1143
105000000000,105300000000,287653404,0,3811710145,0.04852,0.03406,0.0448,0.001444,0.001732,0.0354,6.676e-05,0.000186,0.4375,0.001785,1.636,0.002213,0,0,0.0004559
105300000000,105600000000,287653404,0,3811710145,0.0401,0.03418,0.04492,0.001451,0.00174,0.03516,0.0001183,0.000186,0.3984,0.002071,1.585,0.002062,0,0,0.09985
105900000000,106200000000,287653404,0,3811710145,0.04492,0.03406,0.04468,0.001461,0.001749,0.03461,0.0001049,0.000186,0.4766,0.002144,1.643,0.002049,0,0,0.007156
106500000000,106800000000,287653404,0,3811710145,0.04718,0.03436,0.04523,0.001471,0.001757,0.03552,5.913e-05,0.000186,0.4219,0.001858,1.585,0.002171,0,0,0.0009232
106800000000,107100000000,287653404,0,3811710145,0.04211,0.03418,0.04474,0.001472,0.00176,0.03485,0.0001411,0.000186,0.3481,0.002499,1.515,0.002018,0,0,0.02594
107100000000,107400000000,287653404,0,3811710145,0.05182,0.03442,0.04468,0.001451,0.00174,0.0351,9.06e-05,0.000186,0.4307,0.001499,1.567,0.002062,0,0,0.2048
107400000000,107700000000,287653404,0,3811710145,0.0528,0.03412,0.0448,0.001451,0.00174,0.03534,9.537e-05,0.000186,0.3311,0.001858,1.597,0.002155,0,0,0.07361
107700000000,108000000000,287653404,0,3811710145,0.04266,0.03442,0.04517,0.001463,0.001749,0.03522,9.727e-05,0.000186,0.9219,0.001286,1.562,0.00205,0,0,0.002018
108000000000,108300000000,287653404,0,3811710145,0.04846,0.0343,0.04468,0.001471,0.001757,0.0351,5.627e-05,0.000186,0.4077,0.001572,1.579,0.002133,0,0,0.05463
108900000000,109200000000,287653404,0,3811710145,0.04663,0.03436,0.04517,0.00149,0.001776,0.03534,4.387e-05,0.000186,0.4609,0.001215,1.612,0.002191,0,0,0.0213
109200000000,109500000000,287653404,0,3811710145,0.0415,0.03418,0.04468,0.00149,0.001778,0.03467,0.0001144,0.000186,0.3574,0.001785,1.497,0.001922,0,0,0.008606
109500000000,109800000000,287653404,0,3811710145,0.05298,0.03436,0.04468,0.001497,0.001785,0.03503,8.678e-05,0.000186,0.3555,0.001642,1.565,0.002084,0,0,0.06897
110100000000,110400000000,287653404,0,3811710145,0.04901,0.03436,0.04498,0.001518,0.001804,0.03522,0.0001278,0.0001869,0.353,0.001499,1.621,0.002028,0,0,0.02167
110400000000,110700000000,287653404,0,3811710145,0.05115,0.03424,0.04468,0.001524,0.001812,0.03497,5.341e-05,0.0001869,0.3633,0.001286,1.638,0.002172,0,0,0.009659
110700000000,111000000000,287653404,0,3811710145,0.0451,0.03394,0.04468,0.001534,0.001822,0.03442,0.000123,0.0001869,0.3516,0.00293,1.645,0.002019,0,0,0.08777
116100000000,116400000000,287653404,0,3811710145,0.03735,0.03467,0.04559,0.001637,0.001925,0.03564,5.531e-05,0.0001869,0.3047,0.001286,1.466,0.001907,0,0,0.003006
116400000000,116700000000,287653404,0,3811710145,0.06262,0.0343,0.04468,0.001646,0.001934,0.03491,0.0001287,0.0001869,0.4023,0.001429,1.618,0.002074,0,0,0.08325
116700000000,117000000000,287653404,0,3811710145,0.0451,0.034,0.04468,0.001656,0.001942,0.03436,0.0001135,0.0001869,0.418,0.002071,1.615,0.002062,0,0,0.01093
117000000000,117300000000,287653404,0,3811710145,0.04761,0.03436,0.04468,0.001659,0.001947,0.0351,6.008e-05,0.0001869,0.3564,0.001715,1.508,0.001996,0,0,0.09033
117300000000,117600000000,287653404,0,3811710145,0.05902,0.03436,0.04517,0.001667,0.001953,0.0354,0.0001173,0.0001869,0.3921,0.001572,1.545,0.002007,0,0,0.001118
117600000000,117900000000,287653404,0,3811710145,0.04224,0.03418,0.04474,0.001673,0.001961,0.03485,0.0001297,0.0001869,0.3877,0.003716,1.427,0.001819,0,0,0.004356
118500000000,118800000000,287653404,0,3811710145,0.03943,0.03424,0.04492,0.001686,0.001972,0.03503,9.823e-05,0.0001869,0.3599,0.003071,1.53,0.001985,0,0,0.01001
118800000000,119100000000,287653404,0,3811710145,0.05548,0.03448,0.04517,0.001698,0.001984,0.03528,6.485e-05,0.0001869,0.3921,0.001572,1.606,0.002078,0,0,0.00415
119100000000,119400000000,287653404,0,3811710145,0.0553,0.03418,0.0448,0.001705,0.001995,0.0354,0.0001154,0.0001869,0.3657,0.002285,1.584,0.002057,0,0,0.007523
119400000000,119700000000,287653404,0,3811710145,0.04175,0.03442,0.04523,0.00172,0.002007,0.03522,6.294e-05,0.0001869,0.3364,0.001499,1.575,0.002061,0,0,0.0005159
119700000000,120000000000,287653404,0,3811710145,0.05707,0.03455,0.04529,0.001724,0.00201,0.03528,0.000102,0.0001879,0.3896,0.0009995,1.541,0.002058,0,0,0.07312
120000000000,120300000000,287653404,0,3811710145,0.04492,0.03412,0.04468,0.001703,0.001991,0.03461,0.0001392,0.0001879,0.3765,0.002285,1.523,0.00202,0,0,0.0004072
120300000000,120600000000,287653404,0,3811710145,0.04871,0.03448,0.04468,0.001711,0.001999,0.03503,6.58e-05,0.0001879,0.3745,0.001928,1.535,0.002109,0,0,0.07483
120600000000,120900000000,287653404,0,3811710145,0.06073,0.03448,0.04517,0.001715,0.002003,0.03528,0.0001841,0.0001879,0.3892,0.002785,1.574,0.002201,0,0,0.01132
126000000000,126300000000,287653404,0,3811710145,0.03552,0.03455,0.04553,0.00115,0.001438,0.03558,5.627e-05,0.0001879,0.3706,0.001286,1.496,0.001944,0,0,0.04254
126300000000,126600000000,287653404,0,3811710145,0.06085,0.03467,0.04559,0.001158,0.001446,0.03564,9.823e-05,0.0001879,0.3574,0.001143,1.62,0.002081,0,0,0.2356
126600000000,126900000000,287653404,0,3811710145,0.0462,0.03412,0.04474,0.001162,0.00145,0.03546,0.0001669,0.0001879,0.3687,0.00243,1.53,0.002014,0,0,0.003029
126900000000,127200000000,287653404,0,3811710145,0.04907,0.03479,0.04565,0.001171,0.001459,0.03558,0.000102,0.0001879,0.3916,0.001358,1.582,0.002147,0,0,0.01175
127200000000,127500000000,287653404,0,3811710145,0.06384,0.03461,0.04559,0.001183,0.001471,0.0354,0.0001364,0.0001879,0.4062,0.002071,1.628,0.002096,0,0,0.04913
127500000000,127800000000,287653404,0,3811710145,0.04437,0.03406,0.04468,0.001188,0.001474,0.03479,0.0001116,0.0001879,0.3921,0.002071,1.665,0.002057,0,0,0.05676
127800000000,128100000000,287653404,0,3811710145,0.05341,0.03467,0.04553,0.001204,0.001492,0.0354,6.199e-05,0.0001879,0.4419,0.001143,1.632,0.00209,0,0,0.1909
128100000000,128400000000,287653404,0,3811710145,0.06189,0.03455,0.04523,0.001215,0.001501,0.03558,0.0001078,0.0001879,0.4048,0.001429,1.625,0.002071,0,0,0.07397
128400000000,128700000000,287653404,0,3811710145,0.03461,0.03418,0.04486,0.001221,0.001509,0.03516,7.82e-05,0.0001879,0.4033,0.001642,1.537,0.001953,0,0,0.004906
128700000000,129000000000,287653404,0,3811710145,0.06494,0.03479,0.04565,0.001226,0.001513,0.03577,0.0001879,0.0001879,0.4072,0.003143,1.671,0.002203,0,0,0.003944
129000000000,129300000000,287653404,0,3811710145,0.06299,0.03436,0.0451,0.001234,0.001522,0.03558,0.0001526,0.0001888,0.3965,0.002785,1.615,0.00209,0,0,0.07544
129300000000,129600000000,287653404,0,3811710145,0.03217,0.03448,0.04547,0.001249,0.001535,0.03552,6.199e-05,0.0001888,0.4297,0.001499,1.521,0.001961,0,0,0.01416
129600000000,129900000000,287653404,0,3811710145,0.06085,0.03461,0.04498,0.001259,0.001549,0.03528,0.0001116,0.0001888,0.4272,0.001215,1.513,0.002021,0,0,0.01648
129900000000,130200000000,287653404,0,3811710145,0.0506,0.03424,0.0448,0.001268,0.001554,0.03534,0.0001326,0.0001888,0.3735,0.002144,1.472,0.002027,0,0,0.1492
130200000000,130500000000,287653404,0,3811710145,0.03998,0.03448,0.04529,0.00128,0.001568,0.03546,6.485e-05,0.0001888,0.3462,0.001286,1.487,0.002038,0,0,0.00399
130500000000,130800000000,287653404,0,3811710145,0.05878,0.03461,0.04553,0.001286,0.001574,0.0354,0.0001459,0.0001888,0.3745,0.00293,1.441,0.001872,0,0,0.05701
130800000000,131100000000,287653404,0,3811710145,0.04425,0.03418,0.04468,0.001289,0.001577,0.03461,0.0001268,0.0001888,0.3398,0.001858,1.442,0.00193,0,0,0.1694
141000000000,141300000000,287653404,0,3811710145,0.06165,0.03473,0.04523,0.001564,0.00185,0.03625,0.0001602,0.0001898,0.4321,0.003716,1.627,0.002276,0,0,0.02689
141300000000,141600000000,287653404,0,3811710145,0.03394,0.0351,0.04596,0.001574,0.00186,0.03632,4.768e-05,0.0001898,0.3892,0.001143,1.512,0.00202,0,0,0.0005865
141600000000,141900000000,287653404,0,3811710145,0.0636,0.03552,0.04596,0.001581,0.001869,0.03662,0.0001783,0.0001898,0.4199,0.001572,1.525,0.002021,0,0,0.1414
141900000000,142200000000,287653404,0,3811710145,0.06232,0.03491,0.04553,0.001596,0.001883,0.03625,0.0001564,0.0001898,0.4185,0.002213,1.57,0.002124,0,0,0.00428
142200000000,142500000000,287653404,0,3811710145,0.03314,0.03497,0.04584,0.001612,0.0019,0.03613,4.673e-05,0.0001898,0.4097,0.001358,1.502,0.002029,0,0,0.006271
142500000000,142800000000,287653404,0,3811710145,0.06055,0.03522,0.04608,0.001614,0.001902,0.03613,0.0001516,0.0001898,0.4536,0.002357,1.478,0.002029,0,0,0.003735
142800000000,143100000000,287653404,0,3811710145,0.06226,0.03473,0.04517,0.001623,0.001911,0.03632,0.0001583,0.0001898,0.7656,0.001928,1.526,0.002143,0,0,0.08398
143100000000,143400000000,287653404,0,3811710145,0.0332,0.03503,0.04584,0.001637,0.001925,0.03619,6.008e-05,0.0001898,0.3794,0.001785,1.497,0.002088,0,0,0.1384
143400000000,143700000000,287653404,0,3811710145,0.06274,0.03546,0.04614,0.001631,0.001919,0.03644,0.0001707,0.0001898,0.4307,0.00243,1.526,0.002049,0,0,0.07129
143700000000,144000000000,287653404,0,3811710145,0.06335,0.03485,0.04535,0.001631,0.001919,0.03625,0.000145,0.0001898,0.4185,0.004425,1.613,0.002142,0,0,0.08411
144000000000,144300000000,287653404,0,3811710145,0.03607,0.03485,0.04559,0.001633,0.001921,0.03607,6.485e-05,0.0001898,0.376,0.002998,1.593,0.002082,0,0,0.001196
144300000000,144600000000,287653404,0,3811710145,0.0658,0.03534,0.04608,0.00165,0.001936,0.03632,0.0001497,0.0001898,0.3916,0.001999,1.636,0.002207,0,0,0.01384
144600000000,144900000000,287653404,0,3811710145,0.06494,0.03491,0.04529,0.001654,0.001942,0.03632,0.0001383,0.0001898,0.3735,0.001858,1.678,0.002352,0,0,0.2915
144900000000,145200000000,287653404,0,3811710145,0.03406,0.03485,0.04559,0.001667,0.001953,0.03613,5.436e-05,0.0001898,0.2578,0.001429,1.555,0.002056,0,0,0.01028
145200000000,145500000000,287653404,0,3811710145,0.06641,0.03534,0.04614,0.001669,0.001957,0.03625,0.0001364,0.0001898,0.3594,0.002213,1.65,0.002159,0,0,0.001947
145500000000,145800000000,287653404,0,3811710145,0.06323,0.03497,0.04547,0.001678,0.001965,0.0365,0.0001411,0.0001898,0.3613,0.00243,1.584,0.002161,0,0,0.01094
145800000000,146100000000,287653404,0,3811710145,0.03412,0.03497,0.04565,0.001694,0.00198,0.03619,6.39e-05,0.0001898,0.313,0.001785,1.502,0.002022,0,0,0.000556
151200000000,151500000000,287653404,0,3811710145,0.06396,0.03528,0.04572,0.0001516,0.0004387,0.03668,0.0001888,0.0001907,0.3105,0.002285,1.61,0.002131,0,0,0.2205
151500000000,151800000000,287653404,0,3811710145,0.04401,0.03491,0.04565,0.0001593,0.0004463,0.03607,8.392e-05,0.0001907,0.3013,0.001358,1.508,0.00197,0,0,0.1914
151800000000,152100000000,287653404,0,3811710145,0.05408,0.0354,0.04602,0.0001669,0.0004549,0.03638,0.000144,0.0001907,0.3516,0.001858,1.593,0.002102,0,0,0.00264
152100000000,152400000000,287653404,0,3811710145,0.06311,0.03534,0.0459,0.0001812,0.0004683,0.03656,0.0001736,0.0001907,0.3594,0.002213,1.603,0.002115,0,0,0.0137
152400000000,152700000000,287653404,0,3811710145,0.06213,0.03485,0.04553,0.0001898,0.0004768,0.0365,0.0001402,0.0001907,0.3721,0.001572,1.554,0.002053,0,0,0.003342
152700000000,153000000000,287653404,0,3811710145,0.03644,0.03522,0.04596,0.0002022,0.0004902,0.03644,6.294e-05,0.0001907,0.2705,0.001572,1.508,0.001997,0,0,0.0004511
153000000000,153300000000,287653404,0,3811710145,0.06702,0.03534,0.0462,0.0001955,0.0004826,0.03638,0.0001497,0.0001907,0.3125,0.002571,1.656,0.00232,0,0,0.0003138
153300000000,153600000000,287653404,0,3811710145,0.06616,0.03503,0.04553,0.0001993,0.0004864,0.0365,0.0001698,0.0001907,0.3657,0.002357,1.681,0.002292,0,0,0.06531
153600000000,153900000000,287653404,0,3811710145,0.03607,0.03497,0.04565,0.0001965,0.0004835,0.03613,6.008e-05,0.0001907,0.2974,0.001999,1.547,0.002069,0,0,0.01396
153900000000,154200000000,287653404,0,3811710145,0.06177,0.03564,0.0462,0.0002031,0.0004911,0.03662,0.000185,0.0001907,0.3672,0.002571,1.598,0.002133,0,0,0.003563
154200000000,154500000000,287653404,0,3811710145,0.06299,0.0351,0.04553,0.0002146,0.0005016,0.03638,0.0001717,0.0001907,0.3672,0.001785,1.602,0.002237,0,0,0.1887
154500000000,154800000000,287653404,0,3811710145,0.04462,0.03461,0.04523,0.0002241,0.0005112,0.03589,0.0001173,0.0001907,0.3013,0.003502,1.52,0.002149,0,0,0.005524
154800000000,155100000000,287653404,0,3811710145,0.05347,0.03528,0.0459,0.0002327,0.0005198,0.03632,0.0001535,0.0001907,0.3042,0.005997,1.554,0.002166,0,0,0.008957
155100000000,155400000000,287653404,0,3811710145,0.06396,0.03534,0.04584,0.0002422,0.0005302,0.03638,0.0002718,0.0001907,0.3452,0.00293,1.594,0.002196,0,0,0.01308
155400000000,155700000000,287653404,0,3811710145,0.0592,0.03491,0.04578,0.0002527,0.0005398,0.03632,0.0001659,0.0001907,0.3594,0.002285,1.619,0.002282,0,0,0.09253
155700000000,156000000000,287653404,0,3811710145,0.03748,0.0351,0.0459,0.0002708,0.0005579,0.03625,7.534e-05,0.0001917,0.3281,0.001286,1.547,0.002092,0,0,0.00152
161100000000,161400000000,287653404,0,3811710145,0.06232,0.0351,0.04578,0.0004005,0.0006876,0.03619,0.0001593,0.0001917,0.374,0.001999,1.499,0.001939,0,0,0.1968
161400000000,161700000000,287653404,0,3811710145,0.04974,0.03473,0.04541,0.000412,0.000699,0.03625,9.823e-05,0.0001917,0.4458,0.002644,1.582,0.00216,0,0,0.2725
161700000000,162000000000,287653404,0,3811710145,0.04724,0.03516,0.04596,0.0004311,0.0007181,0.03619,0.0001268,0.0001917,0.2886,0.001785,1.563,0.002047,0,0,0.08936
162000000000,162300000000,287653404,0,3811710145,0.06372,0.0351,0.04596,0.000432,0.0007191,0.03607,0.0001678,0.0001917,0.3672,0.004715,1.545,0.002069,0,0,0.2178
162300000000,162600000000,287653404,0,3811710145,0.05701,0.03467,0.04523,0.0004435,0.0007305,0.03601,0.0001459,0.0001917,0.3384,0.002857,1.53,0.002058,0,0,0.1938
162600000000,162900000000,287653404,0,3811710145,0.0426,0.03491,0.04559,0.0004616,0.0007486,0.03595,8.869e-05,0.0001917,0.3203,0.001572,1.494,0.001948,0,0,0.005112
162900000000,163200000000,287653404,0,3811710145,0.06323,0.03558,0.0462,0.0004549,0.0007429,0.03662,0.0002937,0.0001917,0.4453,0.003284,1.54,0.002026,0,0,0.1053
163200000000,163500000000,287653404,0,3811710145,0.0636,0.0351,0.04572,0.0004597,0.0007477,0.03625,0.000164,0.0001917,0.3672,0.001999,1.52,0.002064,0,0,0.000802
163500000000,163800000000,287653404,0,3811710145,0.03424,0.03503,0.04578,0.0004644,0.0007524,0.03613,5.054e-05,0.0001917,0.3687,0.001785,1.481,0.002021,0,0,0.0003424
163800000000,164100000000,287653404,0,3811710145,0.06311,0.03552,0.04645,0.0004683,0.0007563,0.03632,0.0001612,0.0001917,0.418,0.002213,1.584,0.00205,0,0,0.2021
164100000000,164400000000,287653404,0,3811710145,0.06311,0.03522,0.04565,0.0004683,0.0007553,0.03656,0.0001507,0.0001926,0.7266,0.001499,1.565,0.002099,0,0,0.0004091
164400000000,164700000000,287653404,0,3811710145,0.03802,0.03485,0.04559,0.0004654,0.0007524,0.03589,6.962e-05,0.0001926,0.3008,0.001928,1.479,0.001973,0,0,0.0006742
164700000000,165000000000,287653404,0,3811710145,0.05853,0.0354,0.04633,0.0004778,0.0007648,0.03625,0.0001488,0.0001926,0.625,0.00243,1.583,0.002104,0,0,0.009613
165000000000,165300000000,287653404,0,3811710145,0.06226,0.03534,0.04578,0.0004826,0.0007696,0.0365,0.0001364,0.0001926,0.3594,0.002998,1.509,0.001982,0,0,0.01126
165300000000,165600000000,287653404,0,3811710145,0.05145,0.0351,0.0459,0.0004768,0.0007639,0.03625,9.823e-05,0.0001926,0.4922,0.001999,1.493,0.002027,0,0,0.001448
165600000000,165900000000,287653404,0,3811710145,0.0451,0.03522,0.04596,0.000495,0.000782,0.03619,0.0001125,0.0001926,0.3589,0.002785,1.512,0.00199,0,0,0.1335
165900000000,166200000000,287653404,0,3811710145,0.06299,0.03522,0.04602,0.000495,0.000782,0.03613,0.0001574,0.0001926,0.3735,0.001642,1.557,0.002141,0,0,0.007713
166200000000,166500000000,287653404,0,3811710145,0.06,0.03497,0.04559,0.0005102,0.0007973,0.03656,0.0001316,0.0001926,0.3716,0.002571,1.572,0.002232,0,0,0.0009613
166500000000,166800000000,287653404,0,3811710145,0.03668,0.03522,0.0459,0.0005293,0.0008173,0.03644,0.0001106,0.0001926,0.2896,0.001858,1.514,0.002082,0,0,0.006622
166800000000,167100000000,287653404,0,3811710145,0.06433,0.03564,0.04626,0.0005302,0.0008173,0.03656,0.0002146,0.0001926,0.4155,0.002857,1.605,0.002223,0,0,0.1494
167100000000,167400000000,287653404,0,3811710145,0.05981,0.03516,0.04584,0.0005436,0.0008307,0.03625,0.0001631,0.0001926,0.4077,0.001858,1.533,0.002093,0,0,0.1504
167400000000,167700000000,287653404,0,3811710145,0.03619,0.03485,0.04559,0.0005522,0.0008402,0.03601,7.248e-05,0.0001926,0.3047,0.001715,1.49,0.002072,0,0,0.01669
167700000000,168000000000,287653404,0,3811710145,0.06079,0.03577,0.04645,0.000556,0.000843,0.03656,0.0001411,0.0001926,0.3599,0.001999,1.51,0.002033,0,0,0.07275
168000000000,168300000000,287653404,0,3811710145,0.0625,0.03522,0.04578,0.0005608,0.0008478,0.03632,0.0001593,0.0001926,0.4116,0.001858,1.555,0.002109,0,0,0.01773
168300000000,168600000000,287653404,0,3811710145,0.03815,0.03479,0.04559,0.0005732,0.0008602,0.03601,5.15e-05,0.0001926,0.3521,0.001499,1.484,0.002003,0,0,0.01801
168600000000,168900000000,287653404,0,3811710145,0.05768,0.03571,0.04639,0.0005941,0.0008812,0.03674,0.0001755,0.0001926,0.5,0.00243,1.552,0.002147,0,0,0.002548
168900000000,169200000000,287653404,0,3811710145,0.06116,0.03534,0.04584,0.0005865,0.0008736,0.03625,0.0001659,0.0001926,0.3794,0.002071,1.536,0.002094,0,0,0.02661
169200000000,169500000000,287653404,0,3811710145,0.05042,0.03497,0.04559,0.000597,0.0008841,0.03638,8.583e-05,0.0001926,0.4194,0.001499,1.483,0.001963,0,0,0.0332
169500000000,169800000000,287653404,0,3811710145,0.04547,0.03528,0.04596,0.0006113,0.0008984,0.03625,0.0001516,0.0001926,0.3125,0.002785,1.517,0.002067,0,0,0.01291
169800000000,170100000000,287653404,0,3811710145,0.06195,0.03528,0.04602,0.0006208,0.0009079,0.03619,0.0002079,0.0001926,0.3535,0.002071,1.536,0.0022,0,0,0.198
170400000000,170700000000,287653404,0,3811710145,0.03882,0.03516,0.04596,0.000124,0.000411,0.03613,0.000102,0.0001926,0.3818,0.001499,1.495,0.002006,0,0,0.002823
170700000000,171000000000,287653404,0,3811710145,0.0611,0.0354,0.0462,0.0001326,0.0004206,0.03625,0.0001698,0.0001888,0.3569,0.001999,1.566,0.00211,0,0,0.2349
171000000000,171300000000,287653404,0,3811710145,0.05884,0.03497,0.04535,0.0001431,0.0004301,0.03625,0.0001144,0.0001831,0.3521,0.001999,1.565,0.002128,0,0,0.1034
171300000000,171600000000,287653404,0,3811710145,0.0368,0.03497,0.04565,0.0001574,0.0004444,0.03613,7.057e-05,0.0001831,0.2915,0.001286,1.512,0.002056,0,0,0.0451
171600000000,171900000000,287653404,0,3811710145,0.06299,0.0354,0.04633,0.0001659,0.0004539,0.03638,0.0001755,0.0001831,0.377,0.001999,1.577,0.002147,0,0,0.0154
171900000000,172200000000,287653404,0,3811710145,0.05908,0.03503,0.04559,0.0001745,0.0004616,0.03632,0.0001402,0.0001831,0.3579,0.001858,1.559,0.002134,0,0,0.03271
172200000000,172500000000,287653404,0,3811710145,0.03821,0.03503,0.0459,0.0001869,0.000474,0.03613,7.534e-05,0.0001831,0.3481,0.001499,1.531,0.002076,0,0,0.06726
172500000000,172800000000,287653404,0,3811710145,0.06055,0.03534,0.04614,0.0001965,0.0004845,0.03619,0.0001459,0.0001831,0.355,0.002857,1.559,0.002123,0,0,0.03491
172800000000,173100000000,287653404,0,3811710145,0.0625,0.0351,0.04541,0.0002117,0.0004988,0.03619,0.0001202,0.0001831,0.3706,0.002144,1.54,0.002027,0,0,0.07397
173100000000,173400000000,287653404,0,3811710145,0.03552,0.03479,0.04553,0.000226,0.0005131,0.03589,5.054e-05,0.0001831,0.3203,0.001072,1.491,0.001981,0,0,6.771e-05
173400000000,173700000000,287653404,0,3811710145,0.06195,0.03534,0.04633,0.0002241,0.0005112,0.03607,0.0001459,0.0001831,0.4189,0.002499,1.57,0.002126,0,0,0.1475
174000000000,174300000000,287653404,0,3811710145,0.03625,0.03479,0.04559,0.0002441,0.0005312,0.03595,8.392e-05,0.0001841,0.3281,0.001572,1.474,0.00196,0,0,0.03656
174300000000,174600000000,287653404,0,3811710145,0.06134,0.03522,0.04614,0.0002565,0.0005436,0.03613,0.0001488,0.0001841,0.4053,0.002213,1.59,0.002201,0,0,0.00441
174600000000,174900000000,287653404,0,3811710145,0.06006,0.03491,0.04523,0.0002642,0.0005522,0.03625,0.000164,0.0001841,0.3828,0.002285,1.562,0.002144,0,0,0.0005817
174900000000,175200000000,287653404,0,3811710145,0.03497,0.03497,0.0459,0.0002766,0.0005636,0.03607,6.39e-05,0.0001841,0.2969,0.001215,1.531,0.002122,0,0,0.002823
175200000000,175500000000,287653404,0,3811710145,0.06201,0.0354,0.04626,0.0002842,0.0005713,0.03625,0.0001755,0.0001841,0.5078,0.00243,1.569,0.002141,0,0,0.01123
175500000000,175800000000,287653404,0,3811710145,0.06177,0.03497,0.04535,0.0002947,0.0005817,0.03656,0.0001383,0.0001841,0.3843,0.002644,1.645,0.002335,0,0,0.07617
175800000000,176100000000,287653404,0,3811710145,0.04083,0.03522,0.04602,0.0002823,0.0005693,0.03632,9.632e-05,0.0001841,0.3696,0.002144,1.636,0.002257,0,0,0.001968
186900000000,187200000000,287653404,0,3811710145,0.03296,0.03424,0.04468,0.0003452,0.0006323,0.03467,0.0001335,0.000185,0.3477,0.002857,1.611,0.002177,0,0,0.03217
187200000000,187500000000,287653404,0,3811710145,0.05042,0.03479,0.04565,0.0003519,0.000639,0.03552,0.0001421,0.000185,0.4141,0.003716,1.652,0.00236,0,0,0.1071
187500000000,187800000000,287653404,0,3811710145,0.03955,0.03461,0.04523,0.0003605,0.0006475,0.03546,5.817e-05,0.000185,0.4141,0.002644,1.571,0.002332,0,0,0.001703
187800000000,188100000000,287653404,0,3811710145,0.03516,0.03436,0.04486,0.0003653,0.0006523,0.03497,0.0001297,0.000185,0.3701,0.002213,1.493,0.002032,0,0,0.1406
188100000000,188400000000,287653404,0,3811710145,0.04852,0.03467,0.04535,0.00037,0.0006571,0.0354,8.774e-05,0.000185,0.353,0.001429,1.587,0.002064,0,0,0.008591
188400000000,188700000000,287653404,0,3811710145,0.03668,0.0343,0.0448,0.0003786,0.0006657,0.03552,4.864e-05,0.000185,0.3569,0.001715,1.55,0.002089,0,0,0.07678
188700000000,189000000000,287653404,0,3811710145,0.03784,0.03461,0.04541,0.000392,0.000679,0.03546,8.488e-05,0.000185,0.3115,0.001215,1.567,0.002053,0,0,0.009293
189000000000,189300000000,287653404,0,3811710145,0.04688,0.03461,0.04529,0.0003967,0.0006838,0.03552,8.202e-05,0.000185,0.4155,0.003857,1.641,0.002203,0,0,0.02646
189300000000,189600000000,287653404,0,3811710145,0.02963,0.03424,0.04468,0.0004034,0.0006905,0.03467,9.918e-05,0.000185,0.3203,0.00243,1.585,0.002197,0,0,0.008438
189600000000,189900000000,287653404,0,3811710145,0.04852,0.03461,0.04523,0.0004139,0.000701,0.03534,8.774e-05,0.000185,0.394,0.001642,1.586,0.002165,0,0,0.00304
189900000000,190200000000,287653404,0,3811710145,0.04022,0.03448,0.04523,0.0004215,0.0007086,0.03546,4.101e-05,0.000185,0.355,0.002144,1.529,0.002091,0,0,0.06616
190200000000,190500000000,287653404,0,3811710145,0.03461,0.03442,0.04486,9.727e-05,0.0003853,0.03497,0.0001011,0.000185,0.3481,0.002071,1.524,0.001991,0,0,0.1458
190500000000,190800000000,287653404,0,3811710145,0.0481,0.03461,0.04529,7.439e-05,0.0003614,0.0354,0.000103,0.000185,0.3418,0.002071,1.586,0.002204,0,0,0.1548
190800000000,191100000000,287653404,0,3811710145,0.03143,0.03418,0.04468,8.106e-05,0.0003691,0.03497,4.768e-05,0.000185,0.3735,0.001286,1.513,0.00207,0,0,0.0835
191700000000,192000000000,287653404,0,3811710145,0.03448,0.0343,0.0448,9.918e-05,0.0003862,0.03479,9.441e-05,0.000185,0.354,0.001642,1.531,0.002068,0,0,0.003189
192000000000,192300000000,287653404,0,3811710145,0.04993,0.03485,0.04553,0.0001049,0.000392,0.03577,9.632e-05,0.000185,0.3286,0.001715,1.594,0.002249,0,0,0.1448
192300000000,192600000000,287653404,0,3811710145,0.03253,0.0343,0.04474,0.0001135,0.0004015,0.03522,4.959e-05,0.000185,0.3267,0.001286,1.554,0.002224,0,0,0.00882
192600000000,192900000000,287653404,0,3811710145,0.04297,0.03455,0.04523,0.0001192,0.0004063,0.03522,0.000104,0.000185,0.3555,0.002071,1.567,0.002167,0,0,0.1304
192900000000,193200000000,287653404,0,3811710145,0.04047,0.03461,0.04529,0.0001278,0.0004148,0.03558,4.387e-05,0.000186,0.3623,0.001358,1.604,0.002325,0,0,0.0321
193200000000,193500000000,287653404,0,3811710145,0.03522,0.03436,0.04474,0.0001316,0.0004187,0.03485,0.0001078,0.000186,0.3047,0.002644,1.499,0.002074,0,0,0.0008001
193800000000,194100000000,287653404,0,3811710145,0.02762,0.03424,0.04468,0.0001307,0.0004177,0.03455,4.673e-05,0.000186,0.2944,0.001286,1.502,0.002053,0,0,0.009933
194100000000,194400000000,287653404,0,3811710145,0.04639,0.03473,0.04541,0.0001364,0.0004234,0.03552,9.346e-05,0.000186,0.3638,0.00243,1.551,0.002086,0,0,0.0008163
194400000000,194700000000,287653404,0,3811710145,0.04059,0.03442,0.04517,0.0001421,0.0004292,0.03528,4.864e-05,0.000186,0.3076,0.001286,1.569,0.002137,0,0,0.008133
194700000000,195000000000,287653404,0,3811710145,0.03436,0.03448,0.04486,0.0001507,0.0004387,0.0351,0.0001011,0.000186,0.3335,0.001999,1.528,0.00202,0,0,0.0003633
195000000000,195300000000,287653404,0,3811710145,0.04413,0.03461,0.04523,0.0001631,0.0004501,0.03534,6.962e-05,0.000186,0.3804,0.001785,1.539,0.00209,0,0,0.001637
195600000000,195900000000,287653404,0,3811710145,0.04791,0.03479,0.04565,0.0001774,0.0004644,0.03546,8.011e-05,0.000186,0.3569,0.001858,1.54,0.002052,0,0,0.08289
201300000000,201600000000,287653404,0,3811710145,0.03534,0.03467,0.04565,0.0003004,0.0005884,0.03558,0.0001001,0.000186,0.436,0.001642,1.573,0.002039,0,0,0.01265
202200000000,202500000000,287653404,0,3811710145,0.06073,0.03491,0.04565,0.0003195,0.0006065,0.03558,9.823e-05,0.000186,0.3779,0.001999,1.622,0.002125,0,0,0.03644
202500000000,202800000000,287653404,0,3811710145,0.02615,0.03418,0.04468,0.0003176,0.0006046,0.03455,4.005e-05,0.000186,0.3169,0.001286,1.504,0.001958,0,0,0.125
203100000000,203400000000,287653404,0,3811710145,0.03394,0.0343,0.0448,0.00033,0.000618,0.03528,4.578e-05,0.000186,0.3569,0.001215,1.516,0.002034,0,0,0.1292
203400000000,203700000000,287653404,0,3811710145,0.0423,0.03473,0.04553,0.0003395,0.0006266,0.03558,0.0001068,0.000186,0.3164,0.002785,1.548,0.002042,0,0,0.006927
204000000000,204300000000,287653404,0,3811710145,0.02875,0.0343,0.04486,0.000329,0.0006161,0.03497,6.104e-05,0.000186,0.4053,0.001572,1.484,0.001972,0,0,0.01347
204300000000,204600000000,287653404,0,3811710145,0.05023,0.03473,0.04565,0.0003338,0.0006208,0.03558,0.0001469,0.000186,0.3765,0.002144,1.591,0.002164,0,0,0.02289
204900000000,205200000000,287653404,0,3811710145,0.04974,0.03503,0.0459,0.0003443,0.0006313,0.03577,0.0001059,0.0001869,0.3701,0.001928,1.584,0.002198,0,0,0.06812
206400000000,206700000000,287653404,0,3811710145,0.05096,0.03485,0.04565,0.0003824,0.0006695,0.03577,0.000103,0.0001869,0.3564,0.002213,1.554,0.002073,0,0,0.039
207000000000,207300000000,287653404,0,3811710145,0.03339,0.03455,0.04523,0.0003958,0.0006828,0.0354,8.583e-05,0.0001869,0.3965,0.002071,1.526,0.002006,0,0,0.05066
207300000000,207600000000,287653404,0,3811710145,0.04987,0.03485,0.04559,0.0003929,0.0006809,0.03583,0.0001078,0.0001869,0.4175,0.001286,1.591,0.00212,0,0,0.0004883
207600000000,207900000000,287653404,0,3811710145,0.02817,0.0343,0.04474,0.0004005,0.0006886,0.03485,4.005e-05,0.0001869,0.3931,0.001358,1.477,0.001934,0,0,0.007584
207900000000,208200000000,287653404,0,3811710145,0.05066,0.03479,0.04565,0.0004148,0.0007019,0.03564,0.0001011,0.0001869,0.4453,0.001785,1.527,0.002037,0,0,0.1129
208200000000,208500000000,287653404,0,3811710145,0.03955,0.03442,0.04492,0.0004148,0.0007019,0.03558,5.627e-05,0.0001869,0.3623,0.001715,1.597,0.002234,0,0,0.135
208800000000,209100000000,287653404,0,3811710145,0.05444,0.03467,0.04547,0.0004063,0.0006933,0.03571,0.0001659,0.0001869,0.4316,0.002213,1.67,0.002252,0,0,0.002777
209100000000,209400000000,287653404,0,3811710145,0.02811,0.03442,0.04486,0.000411,0.0006981,0.0351,5.341e-05,0.0001869,0.3975,0.002071,1.569,0.002102,0,0,0.1499
209400000000,209700000000,287653404,0,3811710145,0.0517,0.03491,0.04578,0.0004168,0.0007038,0.03564,0.0001183,0.0001869,0.3501,0.001928,1.592,0.002109,0,0,0.001793
209700000000,210000000000,287653404,0,3811710145,0.03619,0.03436,0.0448,0.0004244,0.0007124,0.03552,5.15e-05,0.0001869,0.4146,0.002144,1.503,0.001978,0,0,0.02206
210000000000,210300000000,287653404,0,3811710145,0.04242,0.03491,0.04565,0.0004396,0.0007277,0.03564,0.000104,0.0001869,0.4233,0.001785,1.523,0.001956,0,0,0.009018
210300000000,210600000000,287653404,0,3811710145,0.05164,0.03473,0.04541,0.0004396,0.0007267,0.03583,9.918e-05,0.0001869,0.3887,0.001642,1.623,0.002122,0,0,0.0008707
210600000000,210900000000,287653404,0,3811710145,0.02927,0.03442,0.0451,0.0004454,0.0007324,0.03522,0.0001011,0.0001869,0.3149,0.002144,1.584,0.00207,0,0,0.08215
210900000000,211200000000,287653404,0,3811710145,0.05298,0.03473,0.04559,0.0004511,0.0007381,0.03558,0.0001841,0.0001869,0.4502,0.003643,1.682,0.002204,0,0,0.0004387
211200000000,211500000000,287653404,0,3811710145,0.0321,0.03424,0.04468,0.0004473,0.0007353,0.0351,9.632e-05,0.0001869,0.3516,0.003716,1.597,0.002166,0,0,0.004417
212400000000,212700000000,287653404,0,3811710145,0.05286,0.03473,0.04559,0.0004349,0.0007219,0.03552,0.0001907,0.0001869,0.4004,0.003284,1.671,0.002279,0,0,0.07007
212700000000,213000000000,287653404,0,3811710145,0.02902,0.03412,0.04468,0.000433,0.000721,0.03436,8.297e-05,0.0001869,0.3828,0.003071,1.694,0.002306,0,0,0.05676
213300000000,213600000000,287653404,0,3811710145,0.0451,0.03436,0.0448,0.0004044,0.0006924,0.03522,9.251e-05,0.0001869,0.396,0.003143,1.829,0.002486,0,0,0.08496
213900000000,214200000000,287653404,0,3811710145,0.05151,0.03467,0.04535,0.0004196,0.0007086,0.03558,0.0001574,0.0001869,0.3862,0.003929,1.772,0.002308,0,0,0.000329
214200000000,214500000000,287653404,0,3811710145,0.02692,0.03424,0.04468,0.0004282,0.0007153,0.03461,5.627e-05,0.0001869,0.3428,0.002499,1.792,0.002433,0,0,0.0003529
214500000000,214800000000,287653404,0,3811710145,0.04865,0.03461,0.04535,0.0004349,0.0007219,0.03546,0.0001125,0.0001869,0.3667,0.003143,1.732,0.0022,0,0,0.04395
214800000000,215100000000,287653404,0,3811710145,0.03699,0.0343,0.0448,0.0004406,0.0007277,0.03528,6.199e-05,0.0001869,0.3638,0.001858,1.62,0.002221,0,0,0.09204
215100000000,215400000000,287653404,0,3811710145,0.03778,0.03455,0.04492,0.0004501,0.0007381,0.0351,8.106e-05,0.0001869,0.3193,0.001499,1.689,0.002092,0,0,0.01813
215400000000,215700000000,287653404,0,3811710145,0.04382,0.03503,0.04578,0.0004559,0.0007429,0.03601,0.0001068,0.0001869,0.3115,0.001928,1.594,0.002081,0,0,0.03772
216000000000,216300000000,287653404,0,3811710145,0.0473,0.03473,0.04572,0.0004692,0.0007563,0.03552,0.0001097,0.0001869,0.3516,0.001572,1.624,0.00217,0,0,0.08118
221400000000,221700000000,287653404,0,3811710145,0.03375,0.0343,0.04468,0.0005903,0.0008774,0.03467,0.0001001,0.0001879,0.3027,0.003284,1.678,0.002228,0,0,0.003006
221700000000,222000000000,287653404,0,3811710145,0.04974,0.03479,0.04547,0.000598,0.000885,0.03564,0.0001106,0.0001879,0.3037,0.002144,1.672,0.002334,0,0,0.01407
222000000000,222300000000,287653404,0,3811710145,0.034,0.03424,0.0448,0.0006056,0.0008926,0.03534,7.629e-05,0.0001879,0.3525,0.00243,1.606,0.002246,0,0,0.01247
223800000000,224100000000,287653404,0,3811710145,0.04724,0.03473,0.04535,0.0006514,0.0009384,0.03546,0.0001259,0.0001879,0.3057,0.002571,1.634,0.002267,0,0,0.09155
224400000000,224700000000,287653404,0,3811710145,0.03632,0.03448,0.04517,0.0006685,0.0009556,0.03528,0.0001621,0.0001879,0.2666,0.00293,1.554,0.002171,0,0,0.0132
224700000000,225000000000,287653404,0,3811710145,0.05188,0.03461,0.04565,0.000659,0.000946,0.03528,0.0001116,0.0001879,0.3062,0.002071,1.655,0.002217,0,0,0.09302
225000000000,225300000000,287653404,0,3811710145,0.03076,0.03418,0.04468,0.0005436,0.0008307,0.03473,6.008e-05,0.0001879,0.2739,0.001572,1.628,0.002323,0,0,0.002827
225900000000,226200000000,287653404,0,3811710145,0.03461,0.03442,0.0451,0.0004473,0.0007343,0.03534,0.0001154,0.0001879,0.2979,0.003502,1.546,0.002139,0,0,0.1458
226200000000,226500000000,287653404,0,3811710145,0.05347,0.03467,0.04535,0.0004568,0.0007439,0.03534,0.0001268,0.0001879,0.3247,0.002213,1.691,0.002255,0,0,0.01051
226800000000,227100000000,287653404,0,3811710145,0.0401,0.03461,0.04529,0.0004702,0.0007572,0.03546,0.0001373,0.0001879,0.2788,0.003071,1.611,0.002163,0,0,0.07812
227100000000,227400000000,287653404,0,3811710145,0.04919,0.03473,0.04565,0.0004816,0.0007687,0.03564,8.011e-05,0.0001879,0.3335,0.002357,1.644,0.002193,0,0,0.1102
227400000000,227700000000,287653404,0,3811710145,0.03198,0.0343,0.04486,0.0004883,0.0007753,0.03497,8.965e-05,0.0001879,0.3027,0.001999,1.618,0.002183,0,0,0.01968
227700000000,228000000000,287653404,0,3811710145,0.05194,0.03479,0.04565,0.0005016,0.0007887,0.03558,0.0001116,0.0001879,0.375,0.001928,1.688,0.002275,0,0,0.01776
228600000000,228900000000,287653404,0,3811710145,0.0517,0.03479,0.04572,0.0005035,0.0007906,0.03558,0.000104,0.0001879,0.3345,0.001358,1.593,0.002148,0,0,0.003361
228900000000,229200000000,287653404,0,3811710145,0.03369,0.03424,0.04474,0.0005131,0.0008001,0.03534,6.199e-05,0.0001879,0.2871,0.001286,1.656,0.002225,0,0,0.008682
229200000000,229500000000,287653404,0,3811710145,0.04681,0.03461,0.04523,0.0005198,0.0008068,0.03534,0.000124,0.0001879,0.311,0.001499,1.628,0.002156,0,0,0.0007477
229500000000,229800000000,287653404,0,3811710145,0.04651,0.03461,0.04553,0.0005264,0.0008135,0.03558,8.774e-05,0.0001888,0.3286,0.001999,1.589,0.00221,0,0,0.001804
229800000000,230100000000,287653404,0,3811710145,0.03436,0.03436,0.04486,0.0005379,0.0008249,0.03497,9.918e-05,0.0001888,0.3525,0.002644,1.651,0.002182,0,0,0.0008192
230100000000,230400000000,287653404,0,3811710145,0.05054,0.03467,0.04541,0.0005445,0.0008316,0.03528,9.727e-05,0.0001888,0.3672,0.001358,1.613,0.0022,0,0,0.0009899
230400000000,230700000000,287653404,0,3811710145,0.04279,0.03448,0.04517,0.0005522,0.0008392,0.03564,5.722e-05,0.0001888,0.2974,0.001499,1.667,0.002254,0,0,0.0003824
230700000000,231000000000,287653404,0,3811710145,0.03534,0.03461,0.04523,0.0005617,0.0008488,0.0354,9.918e-05,0.0001888,0.3262,0.001642,1.527,0.001999,0,0,0.007202
231600000000,231900000000,287653404,0,3811710145,0.04382,0.03473,0.04553,0.0005865,0.0008736,0.03546,8.297e-05,0.0001888,0.3013,0.001499,1.534,0.002064,0,0,0.0008831
232200000000,232500000000,287653404,0,3811710145,0.03101,0.03424,0.04468,0.0006018,0.0008888,0.03473,7.343e-05,0.0001888,0.3276,0.001429,1.517,0.002043,0,0,0.003216
232500000000,232800000000,287653404,0,3811710145,0.04956,0.03473,0.04541,0.0006094,0.0008965,0.0354,0.0001001,0.0001888,0.377,0.002144,1.571,0.002158,0,0,0.1353
233100000000,233400000000,287653404,0,3811710145,0.03571,0.03455,0.04523,0.0006275,0.0009155,0.03534,9.823e-05,0.0001888,0.3052,0.001286,1.498,0.002014,0,0,0.01111
233400000000,233700000000,287653404,0,3811710145,0.0506,0.03485,0.04565,0.0006428,0.0009298,0.03564,0.0001059,0.0001888,0.3394,0.002071,1.568,0.002163,0,0,0.009552
234000000000,234300000000,287653404,0,3811710145,0.03656,0.03461,0.04553,0.000659,0.000946,0.03546,0.0001078,0.0001888,0.3613,0.001358,1.514,0.002016,0,0,0.0001163
234600000000,234900000000,287653404,0,3811710145,0.03497,0.03436,0.04492,0.0006723,0.0009594,0.0354,4.292e-05,0.0001888,0.2998,0.001286,1.514,0.002075,0,0,0.001799
235200000000,235500000000,287653404,0,3811710145,0.04749,0.03455,0.04553,0.0006914,0.0009785,0.0354,8.774e-05,0.0001888,0.3584,0.0009995,1.51,0.002023,0,0,0.2402
236100000000,236400000000,287653404,0,3811710145,0.04303,0.03467,0.04535,0.000741,0.001028,0.03564,4.673e-05,0.0001888,0.3823,0.0007858,1.541,0.002109,0,0,0.0332
241200000000,241500000000,287653404,0,3811710145,0.04364,0.03461,0.04517,0.0008669,0.001154,0.03577,5.15e-05,0.0001898,0.3438,0.001858,1.577,0.002238,0,0,0.002987
241500000000,241800000000,287653404,0,3811710145,0.03717,0.03461,0.04547,0.0008774,0.001163,0.03552,0.0001106,0.0001898,0.3462,0.001499,1.539,0.002079,0,0,0.0003233
241800000000,242100000000,287653404,0,3811710145,0.052,0.03491,0.04572,0.0008869,0.001175,0.03571,0.0001059,0.0001898,0.3296,0.001572,1.587,0.002209,0,0,0.001205
242100000000,242400000000,287653404,0,3811710145,0.04089,0.03448,0.04492,0.0008917,0.001179,0.03564,5.913e-05,0.0001898,0.3877,0.002144,1.527,0.00213,0,0,0.003742
242400000000,242700000000,287653404,0,3811710145,0.0387,0.03467,0.04529,0.0009031,0.00119,0.03552,0.0001106,0.0001898,0.3135,0.001785,1.525,0.002097,0,0,0.08899
243600000000,243900000000,287653404,0,3811710145,0.05353,0.03473,0.04559,0.0009165,0.001204,0.03564,8.869e-05,0.0001898,0.3726,0.001928,1.683,0.002387,0,0,0.1095
243900000000,244200000000,287653404,0,3811710145,0.03717,0.03436,0.04486,0.0009222,0.001209,0.03485,8.965e-05,0.0001898,0.3149,0.001928,1.68,0.002304,0,0,0.06567
244200000000,244500000000,287653404,0,3811710145,0.05646,0.03503,0.04578,0.0009298,0.001217,0.03577,0.000123,0.0001898,0.3799,0.001429,1.693,0.002339,0,0,0.003517
244500000000,244800000000,287653404,0,3811710145,0.05115,0.03485,0.04547,0.0009365,0.001223,0.03607,0.0001001,0.0001898,0.3877,0.002857,1.764,0.002407,0,0,0.1492
244800000000,245100000000,287653404,0,3811710145,0.04028,0.03461,0.04547,0.0009403,0.001228,0.03546,0.000103,0.0001898,0.3599,0.001499,1.643,0.002152,0,0,0.07263
245100000000,245400000000,287653404,0,3811710145,0.05536,0.03516,0.04608,0.000947,0.001234,0.03607,0.0001287,0.0001898,0.3486,0.001858,1.666,0.002181,0,0,0.0006762
245400000000,245700000000,287653404,0,3811710145,0.04419,0.03473,0.04523,0.0009604,0.001247,0.03583,4.578e-05,0.0001898,0.3848,0.001072,1.551,0.00207,0,0,0.06287
245700000000,246000000000,287653404,0,3811710145,0.03821,0.03461,0.04535,0.0009708,0.001259,0.03546,0.0001049,0.0001898,0.3521,0.001286,1.526,0.001977,0,0,0.01108
246000000000,246300000000,287653404,0,3811710145,0.05389,0.03485,0.04572,0.0009766,0.001263,0.03552,0.0001144,0.0001898,0.4844,0.001642,1.564,0.002082,0,0,0.01375
251400000000,251700000000,287653404,0,3811710145,0.04492,0.03461,0.04529,0.0005064,0.0007935,0.03571,4.673e-05,0.0001907,0.3716,0.001358,1.578,0.002109,0,0,0.004715
252000000000,252300000000,287653404,0,3811710145,0.05444,0.03491,0.04572,0.000411,0.0006981,0.03552,0.0001116,0.0001907,0.3931,0.001499,1.537,0.002008,0,0,0.004807
252300000000,252600000000,287653404,0,3811710145,0.04407,0.03467,0.04517,0.0004139,0.000701,0.03577,5.722e-05,0.0001907,0.3584,0.001429,1.597,0.002218,0,0,0.01111
252900000000,253200000000,287653404,0,3811710145,0.05408,0.03497,0.04596,0.0004358,0.0007229,0.03577,0.0001335,0.0001907,0.3647,0.002071,1.592,0.002225,0,0,0.2156
253200000000,253500000000,287653404,0,3811710145,0.04559,0.03467,0.04517,0.000433,0.00072,0.03571,4.387e-05,0.0001907,0.3193,0.001072,1.603,0.00225,0,0,0.1646
254100000000,254400000000,287653404,0,3811710145,0.04321,0.03467,0.04517,0.0004635,0.0007515,0.03558,5.245e-05,0.0001907,0.3511,0.001858,1.562,0.002122,0,0,0.05682
254400000000,254700000000,287653404,0,3811710145,0.03802,0.03461,0.04529,0.000474,0.000761,0.0354,9.727e-05,0.0001907,0.3213,0.001715,1.5,0.00196,0,0,0.04907
254700000000,255000000000,287653404,0,3811710145,0.04968,0.03485,0.04559,0.0004835,0.0007715,0.03564,0.000102,0.0001907,0.313,0.001286,1.557,0.002106,0,0,0.01688
255000000000,255300000000,287653404,0,3811710145,0.04681,0.03461,0.04517,0.0004883,0.0007763,0.03546,6.866e-05,0.0001907,0.396,0.002998,1.577,0.002119,0,0,0.03043
255300000000,255600000000,287653404,0,3811710145,0.03741,0.03455,0.04492,0.0004959,0.000783,0.03528,0.0001173,0.0001907,0.3164,0.002357,1.487,0.00188,0,0,0.1433
255600000000,255900000000,287653404,0,3811710145,0.05469,0.03479,0.04572,0.000494,0.000782,0.03564,0.0001183,0.0001907,0.4141,0.002716,1.591,0.002191,0,0,0.02069
255900000000,256200000000,287653404,0,3811710145,0.04694,0.03467,0.04492,0.0004826,0.0007706,0.03607,8.011e-05,0.0001907,0.4209,0.001572,1.639,0.002323,0,0,0.1401
256200000000,256500000000,287653404,0,3811710145,0.04138,0.03497,0.04578,0.0004768,0.0007639,0.03595,0.0001249,0.0001907,0.3486,0.003071,1.532,0.001973,0,0,0.01697
257100000000,257400000000,287653404,0,3811710145,0.0448,0.03503,0.04596,0.0005045,0.0007925,0.03589,9.918e-05,0.0001907,0.3472,0.001429,1.555,0.002067,0,0,0.06543
258600000000,258900000000,287653404,0,3811710145,0.0401,0.03455,0.04517,0.0005379,0.0008249,0.03516,0.0001335,0.0001907,0.291,0.001642,1.618,0.00212,0,0,0.003456
258900000000,259200000000,287653404,0,3811710145,0.05273,0.03497,0.04584,0.0005312,0.0008183,0.03583,0.0001192,0.0001907,0.3501,0.00243,1.63,0.00216,0,0,0.07263
259200000000,259500000000,287653404,0,3811710145,0.04456,0.03461,0.04535,0.000536,0.000824,0.03558,5.817e-05,0.0001907,0.314,0.001572,1.615,0.002136,0,0,0.1875
260100000000,260400000000,287653404,0,3811710145,0.0415,0.03467,0.04529,0.0005569,0.000844,0.03589,5.436e-05,0.0001907,0.3022,0.001286,1.533,0.002057,0,0,0.157
261000000000,261300000000,287653404,0,3811710145,0.04303,0.03448,0.0451,0.0005751,0.0008621,0.03522,5.054e-05,0.0001907,0.2974,0.001358,1.634,0.002192,0,0,0.008194
261300000000,261600000000,287653404,0,3811710145,0.0368,0.03442,0.0448,0.0001211,0.0004082,0.03503,0.0001106,0.0001907,0.375,0.003571,1.624,0.002042,0,0,0.002953
261600000000,261900000000,287653404,0,3811710145,0.0481,0.03479,0.04559,7.057e-05,0.0003586,0.03558,7.439e-05,0.0001917,0.3096,0.001499,1.626,0.002182,0,0,0.001722
262800000000,263100000000,287653404,0,3811710145,0.03827,0.03442,0.04474,7.153e-05,0.0003586,0.03491,0.0001059,0.0001917,0.3271,0.001858,1.531,0.001976,0,0,0.0002327
263100000000,263400000000,287653404,0,3811710145,0.05127,0.03473,0.04529,7.629e-05,0.0003633,0.0354,9.823e-05,0.0001917,0.2744,0.001858,1.563,0.002035,0,0,0.07812
264000000000,264300000000,287653404,0,3811710145,0.04767,0.03473,0.04559,8.869e-05,0.0003757,0.03558,7.725e-05,0.0001917,0.2734,0.001215,1.661,0.002212,0,0,0.2288
264300000000,264600000000,287653404,0,3811710145,0.04315,0.03455,0.04492,0.000102,0.0003891,0.03558,6.294e-05,0.0001917,0.2661,0.001286,1.575,0.002125,0,0,0.1023
264600000000,264900000000,287653404,0,3811710145,0.03973,0.03467,0.04523,0.0001135,0.0004015,0.03546,0.0001087,0.0001917,0.2417,0.001785,1.541,0.002004,0,0,0.0007191
264900000000,265200000000,287653404,0,3811710145,0.04224,0.03473,0.04559,0.000123,0.0004101,0.03564,6.676e-05,0.0001917,0.2515,0.001928,1.59,0.00214,0,0,0.002495
265800000000,266100000000,287653404,0,3811710145,0.04266,0.03461,0.04523,0.0001402,0.0004282,0.03564,6.58e-05,0.0001917,0.2578,0.001358,1.575,0.002116,0,0,0.004173
266100000000,266400000000,287653404,0,3811710145,0.03632,0.03448,0.04486,0.0001469,0.0004339,0.03516,0.000102,0.0001917,0.2485,0.002071,1.515,0.001931,0,0,0.001932
266400000000,266700000000,287653404,0,3811710145,0.04706,0.03503,0.04596,0.0001593,0.0004463,0.03601,7.248e-05,0.0001917,0.2734,0.001358,1.665,0.002233,0,0,0.02032
266700000000,267000000000,287653404,0,3811710145,0.04205,0.03442,0.04492,0.0001516,0.0004387,0.03564,9.251e-05,0.0001917,0.25,0.002644,1.565,0.00206,0,0,0.0005598
267300000000,267600000000,287653404,0,3811710145,0.04547,0.03491,0.04559,0.0001669,0.0004539,0.03595,6.485e-05,0.0001917,0.2578,0.001286,1.611,0.002158,0,0,0.09241
267600000000,267900000000,287653404,0,3811710145,0.03906,0.03448,0.04523,0.0001621,0.0004492,0.03522,0.0001221,0.0001917,0.2263,0.002144,1.525,0.002048,0,0,0.001377
267900000000,268200000000,287653404,0,3811710145,0.05322,0.03479,0.04565,0.0001593,0.0004463,0.03552,0.0001059,0.0001917,0.2583,0.001715,1.695,0.002182,0,0,0.001787
268200000000,268500000000,287653404,0,3811710145,0.0426,0.03467,0.04517,0.0001583,0.0004454,0.03595,6.104e-05,0.0001917,0.239,0.001642,1.573,0.002144,0,0,0.009109
269100000000,269400000000,287653404,0,3811710145,0.03979,0.03436,0.0448,0.0001945,0.0004816,0.03491,0.0001125,0.0001917,0.228,0.006783,1.588,0.002101,0,0,0.004501
269400000000,269700000000,287653404,0,3811710145,0.05084,0.03485,0.04547,0.0002089,0.0004959,0.03552,0.0001259,0.0001917,0.2427,0.005646,1.663,0.002147,0,0,0.01155
269700000000,270000000000,287653404,0,3811710145,0.04456,0.03467,0.04541,0.000227,0.000514,0.03583,7.057e-05,0.0001917,0.2483,0.001429,1.688,0.002246,0,0,0.004181
270000000000,270300000000,287653404,0,3811710145,0.03876,0.03473,0.04559,0.0002174,0.0005045,0.03528,0.0001545,0.0001917,0.2109,0.003143,1.566,0.002085,0,0,0.0002298
270300000000,270600000000,287653404,0,3811710145,0.05255,0.03491,0.04572,0.0002127,0.0004997,0.03577,0.000145,0.0001917,0.2734,0.007217,1.737,0.002223,0,0,0.04218
270600000000,270900000000,287653404,0,3811710145,0.04675,0.03448,0.04498,0.0001783,0.0004654,0.03558,0.0001116,0.0001917,0.2954,0.008499,1.691,0.002266,0,0,0.0002089
270900000000,271200000000,287653404,0,3811710145,0.04095,0.03473,0.04535,0.0001945,0.0004816,0.03552,0.0001211,0.0001917,0.2129,0.006859,1.647,0.002106,0,0,0.07349
271200000000,271500000000,287653404,0,3811710145,0.04419,0.03497,0.04565,0.0002136,0.0005007,0.03589,8.965e-05,0.0001917,0.2544,0.006927,1.628,0.002249,0,0,0.078
281400000000,281700000000,287653404,0,3811710145,0.04694,0.03461,0.04529,0.0002146,0.0005016,0.03552,5.627e-05,0.0001926,0.2578,0.001572,1.717,0.00225,0,0,0.09314
281700000000,282000000000,287653404,0,3811710145,0.03741,0.03448,0.04492,0.0002222,0.0005093,0.0351,0.0001192,0.0001879,0.2285,0.002213,1.541,0.002065,0,0,0.0006533
282000000000,282300000000,287653404,0,3811710145,0.04779,0.03497,0.04578,0.0002174,0.0005045,0.03595,6.771e-05,0.0001831,0.2666,0.002285,1.736,0.002206,0,0,0.09656
282300000000,282600000000,287653404,0,3811710145,0.0481,0.03461,0.0448,0.0001774,0.0004654,0.03583,0.0001469,0.0001831,0.2578,0.00914,1.641,0.002241,0,0,0.0636
282600000000,282900000000,287653404,0,3811710145,0.04584,0.03497,0.04565,0.0001879,0.0004749,0.03589,0.000124,0.0001831,0.2393,0.004143,1.644,0.002064,0,0,0.08655
282900000000,283200000000,287653404,0,3811710145,0.0434,0.03479,0.04559,0.0001974,0.0004845,0.03571,8.583e-05,0.0001831,0.2739,0.001999,1.604,0.002197,0,0,0.0002279
283200000000,283500000000,287653404,0,3811710145,0.04065,0.03448,0.04474,0.0002031,0.0004902,0.03491,0.0001202,0.0001831,0.2295,0.001715,1.676,0.002086,0,0,0.003132
283800000000,284100000000,287653404,0,3811710145,0.05408,0.03461,0.04504,7.057e-05,0.0003576,0.03552,0.0001259,0.0001831,0.2505,0.001572,1.708,0.002141,0,0,0.06287
284100000000,284400000000,287653404,0,3811710145,0.03833,0.03467,0.04523,6.104e-05,0.0003481,0.0354,0.0001545,0.0001831,0.2686,0.007141,1.596,0.002123,0,0,0.001486
284400000000,284700000000,287653404,0,3811710145,0.04761,0.03485,0.04565,7.439e-05,0.0003614,0.03583,9.251e-05,0.0001831,0.2578,0.007782,1.673,0.002282,0,0,0.0005846
284700000000,285000000000,287653404,0,3811710145,0.0387,0.03442,0.0448,7.153e-05,0.0003586,0.03485,0.0001497,0.0001831,0.2339,0.007004,1.601,0.002138,0,0,0.0002384
285000000000,285300000000,287653404,0,3811710145,0.04944,0.03473,0.04559,8.392e-05,0.000371,0.0354,0.0001221,0.0001831,0.2422,0.009857,1.701,0.00223,0,0,0.1453
285900000000,286200000000,287653404,0,3811710145,0.04462,0.03467,0.04559,9.918e-05,0.0003862,0.03534,8.011e-05,0.0001841,0.2344,0.005432,1.608,0.002168,0,0,0.1477
286200000000,286500000000,287653404,0,3811710145,0.04083,0.0343,0.04468,0.0001068,0.0003939,0.03467,0.0001354,0.0001841,0.2268,0.006287,1.635,0.002235,0,0,0.01552
286800000000,287100000000,287653404,0,3811710145,0.04938,0.03479,0.04523,0.0001173,0.0004044,0.03577,0.0001116,0.0001841,0.2344,0.007568,1.656,0.002189,0,0,0.1365
287400000000,287700000000,287653404,0,3811710145,0.04596,0.03485,0.04578,0.0001287,0.0004158,0.03577,7.915e-05,0.0001841,0.2544,0.005928,1.664,0.00218,0,0,0.1475
287700000000,288000000000,287653404,0,3811710145,0.03967,0.03448,0.04474,0.0001411,0.0004282,0.03491,0.0001469,0.0001841,0.2249,0.005287,1.585,0.002183,0,0,0.002865
288000000000,288300000000,287653404,0,3811710145,0.05042,0.03491,0.04578,0.0001144,0.0004015,0.03571,0.0001602,0.0001841,0.2593,0.007004,1.649,0.002206,0,0,0.03815
288300000000,288600000000,287653404,0,3811710145,0.04938,0.03467,0.04517,5.913e-05,0.0003462,0.03571,0.0001135,0.0001841,0.2578,0.006927,1.634,0.002241,0,0,0.0123
288600000000,288900000000,287653404,0,3811710145,0.03955,0.03467,0.04517,8.392e-05,0.000371,0.03528,0.0001469,0.0001841,0.2395,0.006355,1.629,0.002164,0,0,0.0009861
289200000000,289500000000,287653404,0,3811710145,0.05737,0.03497,0.04572,0.0001106,0.0003977,0.03583,0.000164,0.0001841,0.3008,0.002357,1.713,0.002243,0,0,0.005745
289500000000,289800000000,287653404,0,3811710145,0.05188,0.03448,0.04504,0.0001163,0.0004034,0.03577,0.0001478,0.0001841,0.3354,0.001785,1.685,0.002293,0,0,0.01146
289800000000,290100000000,287653404,0,3811710145,0.03406,0.03479,0.04565,0.0001259,0.0004129,0.03571,8.488e-05,0.0001841,0.1936,0.001642,1.635,0.002195,0,0,0.01428
290100000000,290400000000,287653404,0,3811710145,0.05585,0.03497,0.04578,0.0001392,0.0004263,0.03607,0.0001278,0.0001841,0.3047,0.001858,1.704,0.00217,0,0,0.06409
291000000000,291300000000,287653404,0,3811710145,0.05225,0.03461,0.04517,0.0001545,0.0004416,0.03583,0.0001211,0.0001841,0.2646,0.002071,1.63,0.002309,0,0,0.002266
291300000000,291600000000,287653404,0,3811710145,0.03149,0.03461,0.04529,0.0001669,0.0004539,0.03558,6.294e-05,0.0001841,0.1733,0.001143,1.562,0.002113,0,0,0.05975
291600000000,291900000000,287653404,0,3811710145,0.05579,0.03479,0.04572,0.0001726,0.0004597,0.03571,0.0001707,0.0001841,0.2578,0.002144,1.606,0.002174,0,0,0.03937
291900000000,292200000000,287653404,0,3811710145,0.03049,0.03436,0.04474,0.0001812,0.0004683,0.03485,7.248e-05,0.0001841,0.1924,0.001715,1.541,0.002184,0,0,0.01323
292200000000,292500000000,287653404,0,3811710145,0.05438,0.03497,0.04584,0.0001888,0.0004759,0.03589,0.000165,0.0001841,0.2891,0.001785,1.628,0.002165,0,0,0.01222
292800000000,293100000000,287653404,0,3811710145,0.03235,0.03491,0.04572,0.0002079,0.000495,0.03601,8.869e-05,0.0001841,0.2083,0.003429,1.609,0.002158,0,0,0.008545
293100000000,293400000000,287653404,0,3811710145,0.05426,0.03497,0.0459,0.0002155,0.0005026,0.03601,0.0001249,0.0001841,0.2944,0.001858,1.622,0.002183,0,0,0.001715
293400000000,293700000000,287653404,0,3811710145,0.03015,0.0343,0.0448,0.0002127,0.0004997,0.03491,7.534e-05,0.0001841,0.2046,0.001858,1.671,0.002226,0,0,0.002903
293700000000,294000000000,287653404,0,3811710145,0.05328,0.03503,0.04572,0.0002022,0.0004892,0.03583,0.0001431,0.0001841,0.2656,0.006287,1.631,0.002109,0,0,0.000349
294000000000,294300000000,287653404,0,3811710145,0.05206,0.03473,0.04517,0.0002136,0.0005007,0.03601,0.0001659,0.0001841,0.2529,0.006355,1.616,0.002181,0,0,0.002579
294300000000,294600000000,287653404,0,3811710145,0.03351,0.03467,0.04529,0.0002337,0.0005207,0.03583,8.392e-05,0.0001841,0.2351,0.0075,1.636,0.00205,0,0,0.01566
294600000000,294900000000,287653404,0,3811710145,0.0542,0.03479,0.0459,0.0002432,0.0005302,0.03583,0.000186,0.0001841,0.3076,0.006714,1.623,0.002152,0,0,0.001678
294900000000,295200000000,287653404,0,3811710145,0.03088,0.0343,0.04474,0.000247,0.0005341,0.03473,9.918e-05,0.0001841,0.2231,0.008362,1.611,0.002133,0,0,0.00885
295200000000,295500000000,287653404,0,3811710145,0.05377,0.03485,0.04572,0.0002575,0.0005445,0.03564,0.000164,0.0001841,0.291,0.007645,1.676,0.002163,0,0,0.06482
295500000000,295800000000,287653404,0,3811710145,0.05426,0.03461,0.04517,0.0002747,0.0005617,0.03601,0.0001326,0.0001841,0.3047,0.001928,1.714,0.002244,0,0,0.0481
295800000000,296100000000,287653404,0,3811710145,0.03192,0.03473,0.04553,0.000289,0.000576,0.03583,8.202e-05,0.0001841,0.2395,0.001429,1.642,0.002108,0,0,0.01593
296100000000,296400000000,287653404,0,3811710145,0.05707,0.03491,0.04584,0.0002871,0.0005741,0.03589,0.0001106,0.0001841,0.3374,0.001999,1.743,0.002207,0,0,0.04926
297300000000,297600000000,287653404,0,3811710145,0.03418,0.03473,0.04559,0.0003099,0.000598,0.03571,8.106e-05,0.000185,0.1875,0.001358,1.585,0.00209,0,0,0.1431
298200000000,298500000000,287653404,0,3811710145,0.05359,0.03491,0.04578,0.0003328,0.0006199,0.03564,0.0001688,0.000185,0.2578,0.002357,1.69,0.002225,0,0,0.1379
298500000000,298800000000,287653404,0,3811710145,0.05237,0.03467,0.0451,0.0003424,0.0006294,0.03638,0.000123,0.000185,0.2969,0.001785,1.724,0.002296,0,0,0.004456
298800000000,299100000000,287653404,0,3811710145,0.03442,0.03503,0.0459,0.0003586,0.0006456,0.03625,9.251e-05,0.000185,0.2017,0.001715,1.636,0.002186,0,0,0.003082
299100000000,299400000000,287653404,0,3811710145,0.05701,0.03485,0.04572,0.0003567,0.0006437,0.03577,0.0001192,0.000185,0.3286,0.003502,1.709,0.00218,0,0,0.08337
299400000000,299700000000,287653404,0,3811710145,0.03104,0.03442,0.0448,0.0003672,0.0006542,0.03497,6.485e-05,0.000185,0.3491,0.001429,1.638,0.002199,0,0,0.001558
299700000000,300000000000,287653404,0,3811710145,0.0556,0.03528,0.04614,0.0003624,0.0006495,0.03613,0.0001278,0.000185,0.2568,0.00243,1.679,0.002212,0,0,0.1853
