5700000000,6000000000,2916101306,0,38679534,9.06e-05,0.0002594,0.003876,0.0001507,0.0003796,0.0002594,0,0,0.0004683,0,6.913,0.03337,0,0,4.673e-05
6000000000,6300000000,2916101306,0,38679534,8.965e-05,0.0002613,0.003876,0.0001507,0.0003796,0.0002651,0,0,0.0005522,7.153e-05,5.779,0.02715,0,0,9.823e-05
6300000000,6600000000,2916101306,0,38679534,8.869e-05,0.0002594,0.003876,0.0001507,0.0003796,0.0002594,0,0,0.000514,0,6.353,0.03045,0,0,8.392e-05
6600000000,6900000000,2916101306,0,38679534,9.06e-05,0.0002623,0.003876,0.0001507,0.0003796,0.0002651,9.537e-07,0,0.0004148,0.0002146,6.227,0.02911,0,0,7.248e-05
6900000000,7200000000,2916101306,0,38679534,8.869e-05,0.0002594,0.003876,0.0001507,0.0003796,0.0002594,0,0,0.0004425,0,6.434,0.0308,0,0,5.531e-05
7200000000,7500000000,2916101306,0,38679534,9.155e-05,0.0002613,0.003876,0.0001507,0.0003796,0.0002651,0,0,0.000617,7.153e-05,7.755,0.03876,0,0,4.101e-05
7500000000,7800000000,2916101306,0,38679534,9.251e-05,0.0002594,0.003876,0.0001507,0.0003796,0.0002594,0,0,0.0003119,0,6.412,0.03023,0,0,3.91e-05
7800000000,8100000000,2916101306,0,38679534,8.869e-05,0.0002613,0.003876,0.0001507,0.0003796,0.0002651,0,0,0.0003633,7.153e-05,6.283,0.02977,0,0,9.823e-05
8100000000,8400000000,2916101306,0,38679534,8.965e-05,0.0002594,0.003876,0.0001507,0.0003796,0.0002594,0,0,0.0006552,0,6.263,0.02998,0,0,5.436e-05
8400000000,8700000000,2916101306,0,38679534,8.965e-05,0.0002613,0.003876,0.0001507,0.0003805,0.0002651,0,0,0.0003443,7.153e-05,6.833,0.03355,0,0,4.578e-05
8700000000,9000000000,2916101306,0,38679534,8.965e-05,0.0002594,0.003876,0.0001507,0.0003805,0.0002594,0,0,0.0004215,0,6.2,0.02937,0,0,0.0004215
9000000000,9300000000,2916101306,0,38679534,8.869e-05,0.0002613,0.003876,0.0001507,0.0003805,0.0002651,0,0,0.0003929,7.153e-05,5.775,0.02724,0,0,0.0001707
9300000000,9600000000,2916101306,0,38679534,9.155e-05,0.0002594,0.003876,0.0001507,0.0003805,0.0002594,0,0,0.00033,0,6.103,0.02849,0,0,7.057e-05
9600000000,9900000000,2916101306,0,38679534,9.155e-05,0.0002613,0.003876,0.0001507,0.0003805,0.0002651,0,0,0.0003843,7.153e-05,6.993,0.0334,0,0,0.0001783
9900000000,10200000000,2916101306,0,38679534,9.06e-05,0.0002642,0.003876,0.0001507,0.0003805,0.0002756,0,0,0.0003872,0,6.825,0.03277,0,0,4.005e-05
10200000000,10500000000,2916101306,0,38679534,9.155e-05,0.0002613,0.003876,0.0001507,0.0003805,0.0002651,0,0,0.000515,7.153e-05,6.217,0.0298,0,0,3.91e-05
10500000000,10800000000,2916101306,0,38679534,9.06e-05,0.0002594,0.003876,0.0001507,0.0003805,0.0002594,0,0,0.0004053,0,6.676,0.03269,0,0,3.624e-05
10800000000,11100000000,2916101306,0,38679534,9.06e-05,0.0002632,0.003876,0.0001507,0.0003805,0.000268,9.537e-07,0,0.0003157,7.153e-05,6.39,0.0307,0,0,9.06e-05
11100000000,11400000000,2916101306,0,38679534,8.965e-05,0.0002594,0.003876,0.0001507,0.0003805,0.0002594,0,0,0.0005236,0,6.184,0.02912,0,0,9.251e-05
11400000000,11700000000,2916101306,0,38679534,8.965e-05,0.0002613,0.003876,0.0001507,0.0003805,0.0002651,0,0,0.0004768,7.153e-05,6.183,0.02934,0,0,4.387e-05
11700000000,12000000000,2916101306,0,38679534,9.155e-05,0.0002594,0.003876,0.0001507,0.0003805,0.0002594,0,0,0.0003147,0,6.465,0.03101,0,0,5.054e-05
12000000000,12300000000,2916101306,0,38679534,9.251e-05,0.0002613,0.003876,0.0001507,0.0003805,0.0002651,0,0,0.0004168,7.153e-05,6.296,0.02967,0,0,3.719e-05
12300000000,12600000000,2916101306,0,38679534,9.06e-05,0.0002594,0.003876,0.0001507,0.0003805,0.0002604,0,0,0.0003529,0,6.684,0.0328,0,0,0.000102
12600000000,12900000000,2916101306,0,38679534,8.774e-05,0.0002651,0.003876,0.0001507,0.0003805,0.0002737,0,0,0.000309,7.153e-05,6.64,0.03336,0,0,4.196e-05
12900000000,13200000000,2916101306,0,38679534,8.774e-05,0.0002594,0.003876,0.0001507,0.0003805,0.0002689,0,0,0.0004177,0,6.058,0.02959,0,0,0.0001736
13200000000,13500000000,2916101306,0,38679534,8.965e-05,0.0002623,0.003876,0.0001507,0.0003805,0.0002661,0,0,0.000371,7.153e-05,6.322,0.03098,0,0,6.104e-05
13500000000,13800000000,2916101306,0,38679534,8.965e-05,0.0002594,0.003876,0.0001507,0.0003805,0.0002594,0,0,0.0005341,0,6.268,0.03065,0,0,3.338e-05
13800000000,14100000000,2916101306,0,38679534,8.869e-05,0.0002613,0.003876,0.0001507,0.0003805,0.0002651,0,0,0.0003748,7.153e-05,6.338,0.0305,0,0,4.101e-05
14100000000,14400000000,2916101306,0,38679534,8.869e-05,0.0002594,0.003876,0.0001507,0.0003805,0.0002594,0,0,0.0003128,0,6.369,0.03176,0,0,7.534e-05
14400000000,14700000000,2916101306,0,38679534,8.678e-05,0.0002623,0.003876,0.0001507,0.0003805,0.0002756,0,0,0.0005312,0.0001431,6.225,0.03117,0,0,5.436e-05
14700000000,15000000000,2916101306,0,38679534,8.678e-05,0.0002642,0.003876,0.0001507,0.0003805,0.0002756,0,0,0.0003567,0,6.044,0.02978,0,0,3.338e-05
15000000000,15300000000,2916101306,0,38679534,8.965e-05,0.0002661,0.003876,0.0001507,0.0003805,0.0002785,0,0,0.0003405,7.153e-05,5.893,0.02878,0,0,6.58e-05
15300000000,15600000000,2916101306,0,38679534,8.869e-05,0.0002594,0.003876,0.0001507,0.0003805,0.0002594,0,0,0.000411,0,6.305,0.03085,0,0,0.0001097
15600000000,15900000000,2916101306,0,38679534,8.869e-05,0.0002613,0.003876,0.0001507,0.0003805,0.0002651,0,0,0.0003414,7.153e-05,5.8,0.0284,0,0,2.861e-05
15900000000,16200000000,2916101306,0,38679534,9.06e-05,0.0002594,0.003876,0.0001507,0.0003805,0.0002594,0,0,0.0003347,0,6.004,0.02906,0,0,0.0001097
16200000000,16500000000,2916101306,0,38679534,9.06e-05,0.0002613,0.003876,0.0001507,0.0003805,0.0002651,0,0,0.0003614,7.153e-05,5.852,0.02846,0,0,5.817e-05
16500000000,16800000000,2916101306,0,38679534,9.06e-05,0.0002594,0.003876,0.0001507,0.0003805,0.0002594,0,0,0.0004854,0,6.287,0.03076,0,0,0.0001469
16800000000,17100000000,2916101306,0,38679534,8.774e-05,0.0002613,0.003876,0.0001507,0.0003805,0.0002651,0,0,0.000433,7.153e-05,6.321,0.03143,0,0,4.196e-05
17100000000,17400000000,2916101306,0,38679534,8.869e-05,0.0002594,0.003876,0.0001507,0.0003805,0.0002594,0,0,0.0002861,0,6.375,0.03144,0,0,0.0001001
17400000000,17700000000,2916101306,0,38679534,8.869e-05,0.0002623,0.003876,0.0001507,0.0003805,0.0002651,0,0,0.0002823,7.153e-05,6.083,0.02951,0,0,4.673e-05
17700000000,18000000000,2916101306,0,38679534,8.583e-05,0.0002594,0.003876,0.0001507,0.0003805,0.0002594,0,0,0.000288,0,5.48,0.02688,0,0,0.0001259
18000000000,18300000000,2916101306,0,38679534,9.06e-05,0.0002632,0.003876,0.0001507,0.0003805,0.0002689,9.537e-07,0,0.0002689,7.153e-05,6.674,0.03349,0,0,5.341e-05
18300000000,18600000000,2916101306,0,38679534,9.346e-05,0.0002594,0.003876,0.0001507,0.0003805,0.0002594,0,0,0.0003042,0,6.607,0.0316,0,0,4.768e-05
18600000000,18900000000,2916101306,0,38679534,9.251e-05,0.0002623,0.003876,0.0001507,0.0003805,0.0002651,0,0,0.0003271,7.153e-05,6.521,0.03242,0,0,0.0001097
18900000000,19200000000,2916101306,0,38679534,9.251e-05,0.0002594,0.003876,0.0001507,0.0003805,0.0002604,0,0,0.0003757,0,6.273,0.03072,0,0,4.387e-05
19200000000,19500000000,2916101306,0,38679534,9.346e-05,0.0002613,0.003876,0.0001507,0.0003805,0.0002651,0,0,0.0003109,7.153e-05,6.005,0.02914,0,0,5.913e-05
19500000000,19800000000,2916101306,0,38679534,9.251e-05,0.0002594,0.003876,0.0001507,0.0003805,0.0002594,0,0,0.0005255,0,6.738,0.03377,0,0,4.196e-05
19800000000,20100000000,2916101306,0,38679534,8.965e-05,0.0002632,0.003876,0.0001507,0.0003805,0.000267,0,0,0.000638,7.153e-05,6.792,0.03456,0,0,6.008e-05
20100000000,20400000000,2916101306,0,38679534,9.346e-05,0.0002594,0.003876,0.0001507,0.0003805,0.0002594,0,0,0.0003834,0,6.114,0.02961,0,0,6.008e-05
20400000000,20700000000,2916101306,0,38679534,9.441e-05,0.0002613,0.003876,0.0001507,0.0003805,0.0002651,0,0,0.0005913,7.153e-05,6.46,0.03126,0,0,5.627e-05
20700000000,21000000000,2916101306,0,38679534,9.918e-05,0.0002642,0.003876,0.0001507,0.0003805,0.0002766,0,0,0.0007067,0,6.892,0.03298,0,0,4.959e-05
21000000000,21300000000,2916101306,0,38679534,9.918e-05,0.0002623,0.003876,0.0001507,0.0003805,0.0002651,0,0,0.0005713,7.153e-05,6.694,0.03187,0,0,8.297e-05
21300000000,21600000000,2916101306,0,38679534,0.0001087,0.0002604,0.003876,0.0001507,0.0003805,0.0002604,0,0,0.0003967,0,8.252,0.0401,0,0,4.482e-05
21600000000,21900000000,2916101306,0,38679534,0.0001211,0.0002623,0.003876,0.0001507,0.0003805,0.0002661,0,0,0.0004158,0.0001431,9.202,0.04147,0,0,7.248e-05
21900000000,22200000000,2916101306,0,38679534,0.000123,0.0002594,0.003876,0.0001507,0.0003805,0.0002604,0,0,0.0007544,0,8.553,0.03753,0,0,0.000226
22200000000,22500000000,2916101306,0,38679534,0.0001192,0.0002613,0.003876,0.0001507,0.0003805,0.0002651,0,0,0.0006542,7.153e-05,8.244,0.03661,0,0,6.866e-05
22500000000,22800000000,2916101306,0,38679534,0.0001059,0.0002594,0.003876,0.0001507,0.0003805,0.0002594,0,0,0.0005951,0,6.715,0.03073,0,0,6.962e-05
22800000000,23100000000,2916101306,0,38679534,9.441e-05,0.0002613,0.003876,0.0001507,0.0003805,0.0002651,0,0,0.0005379,7.153e-05,6.636,0.03264,0,0,0.0002756
23100000000,23400000000,2916101306,0,38679534,9.251e-05,0.0002594,0.003876,0.0001507,0.0003805,0.0002594,0,0,0.0006523,0,5.847,0.02796,0,0,3.624e-05
23400000000,23700000000,2916101306,0,38679534,9.251e-05,0.0002651,0.003876,0.0001507,0.0003805,0.0002737,0,0,0.0007935,7.153e-05,5.992,0.02884,0,0,0.0002165
23700000000,24000000000,2916101306,0,38679534,9.632e-05,0.0002604,0.003876,0.0001507,0.0003805,0.0002718,0,0,0.0009613,0,6.46,0.03085,0,0,4.101e-05
24000000000,24300000000,2916101306,0,38679534,9.251e-05,0.0002613,0.003876,0.0001507,0.0003805,0.0002651,0,0,0.001022,7.153e-05,6.496,0.03183,0,0,0.0001078
24300000000,24600000000,2916101306,0,38679534,9.346e-05,0.0002594,0.003876,0.0001507,0.0003805,0.0002594,0,0,0.0004873,0,6.975,0.03459,0,0,2.289e-05
24600000000,24900000000,2916101306,0,38679534,9.06e-05,0.0002613,0.003876,0.0001507,0.0003805,0.0002651,9.537e-07,0,0.0005178,0.0002146,6.257,0.03089,0,0,2.289e-05
24900000000,25200000000,2916101306,0,38679534,9.346e-05,0.0002594,0.003876,0.0001507,0.0003805,0.0002594,0,0,0.000494,0,6.025,0.02887,0,0,0.0001078
25200000000,25500000000,2916101306,0,38679534,9.441e-05,0.0002632,0.003876,0.0001507,0.0003805,0.0002756,9.537e-07,0,0.0006552,0.0002146,7.212,0.03535,0,0,6.485e-05
25500000000,25800000000,2916101306,0,38679534,9.537e-05,0.0002642,0.003876,0.0001507,0.0003805,0.0002756,0,0,0.0004139,0,6.21,0.03036,0,0,0.0002594
25800000000,26100000000,2916101306,0,38679534,9.346e-05,0.0002661,0.003876,0.0001507,0.0003805,0.0002794,1.907e-06,0,0.0003605,0.0004997,6.771,0.0325,0,0,4.005e-05
26100000000,26400000000,2916101306,0,38679534,9.441e-05,0.0002594,0.003876,0.0001507,0.0003805,0.0002594,0,0,0.0005207,0,6.735,0.03344,0,0,6.962e-05
26400000000,26700000000,2916101306,0,38679534,9.251e-05,0.0002613,0.003876,0.0001507,0.0003805,0.0002651,0,0,0.0004511,0.0001431,6.812,0.03378,0,0,0.0001659
26700000000,27000000000,2916101306,0,38679534,9.251e-05,0.0002594,0.003876,0.0001507,0.0003805,0.0002594,0,0,0.0004969,0,6.37,0.0311,0,0,9.823e-05
27000000000,27300000000,2916101306,0,38679534,9.346e-05,0.0002613,0.003876,0.0001516,0.0003805,0.0002651,0,0,0.0004959,7.153e-05,6.255,0.03108,0,0,0.0001478
27300000000,27600000000,2916101306,0,38679534,9.346e-05,0.0002594,0.003876,0.0001516,0.0003805,0.0002594,0,0,0.0003881,0,6.774,0.03388,0,0,3.719e-05
27600000000,27900000000,2916101306,0,38679534,9.346e-05,0.0002613,0.003876,0.0001516,0.0003805,0.0002651,0,0,0.000638,7.153e-05,6.526,0.03208,0,0,2.956e-05
27900000000,28200000000,2916101306,0,38679534,9.251e-05,0.0002594,0.003876,0.0001516,0.0003805,0.0002594,0,0,0.001087,0,6.241,0.03031,0,0,4.578e-05
28200000000,28500000000,2916101306,0,38679534,9.155e-05,0.0002613,0.003876,0.0001516,0.0003805,0.0002651,0,0,0.0006351,7.153e-05,6.377,0.03114,0,0,0.0001106
28500000000,28800000000,2916101306,0,38679534,9.251e-05,0.0002594,0.003876,0.0001516,0.0003805,0.0002594,0,0,0.001186,0,6.1,0.03014,0,0,8.488e-05
28800000000,29100000000,2916101306,0,38679534,9.346e-05,0.0002613,0.003876,0.0001516,0.0003805,0.0002651,0,0,0.001158,7.153e-05,6.326,0.03088,0,0,0.0001488
29100000000,29400000000,2916101306,0,38679534,9.346e-05,0.0002594,0.003876,0.0001516,0.0003805,0.0002604,0,0,0.0009432,0,6.524,0.03218,0,0,3.815e-05
29400000000,29700000000,2916101306,0,38679534,9.251e-05,0.0002613,0.003876,0.0001516,0.0003805,0.0002651,0,0,0.001116,7.153e-05,6.501,0.03171,0,0,3.529e-05
29700000000,30000000000,2916101306,0,38679534,9.251e-05,0.0002594,0.003876,0.0001516,0.0003805,0.0002594,0,0,0.001129,0,6.301,0.03143,0,0,5.436e-05
30000000000,30300000000,2916101306,0,38679534,9.155e-05,0.0002613,0.003876,0.0001516,0.0003805,0.0002642,0,0,0.000844,7.153e-05,6.314,0.03106,0,0,0.0005255
30300000000,30600000000,2916101306,0,38679534,9.251e-05,0.0002594,0.003876,0.0001516,0.0003805,0.0002594,0,0,0.001232,0,6.255,0.03077,0,0,3.052e-05
30600000000,30900000000,2916101306,0,38679534,9.155e-05,0.0002613,0.003876,0.0001516,0.0003805,0.0002651,3.815e-06,0,0.0008802,0.001143,6.622,0.03292,0,0,2.861e-05
30900000000,31200000000,2916101306,0,38679534,9.346e-05,0.0002594,0.003876,0.0001516,0.0003805,0.0002594,0,0,0.001167,0,6.652,0.03309,0,0,6.199e-05
31200000000,31500000000,2916101306,0,38679534,9.346e-05,0.0002613,0.003876,0.0001516,0.0003805,0.0002651,0,0,0.00108,7.153e-05,6.433,0.03176,0,0,0.0005789
31500000000,31800000000,2916101306,0,38679534,9.251e-05,0.0002642,0.003876,0.0001516,0.0003805,0.0002766,0,0,0.0009012,0,6.185,0.03001,0,0,6.199e-05
31800000000,32100000000,2916101306,0,38679534,9.346e-05,0.0002613,0.003876,0.0001516,0.0003805,0.0002651,0,0,0.0009565,7.153e-05,6.774,0.03347,0,0,4.864e-05
32100000000,32400000000,2916101306,0,38679534,9.441e-05,0.0002594,0.003876,0.0001516,0.0003805,0.0002594,0,0,0.0008755,0,6.257,0.0307,0,0,0.0005369
32400000000,32700000000,2916101306,0,38679534,9.441e-05,0.0002642,0.003876,0.0001516,0.0003805,0.000268,2.861e-06,0,0.0008936,0.0006428,6.373,0.03129,0,0,3.338e-05
32700000000,33000000000,2916101306,0,38679534,9.537e-05,0.0002594,0.003876,0.0001516,0.0003805,0.0002594,0,0,0.000803,0,6.681,0.0333,0,0,0.0005035
33000000000,33300000000,2916101306,0,38679534,9.346e-05,0.0002613,0.003876,0.0001516,0.0003805,0.0002651,0,0,0.0009012,7.153e-05,6.925,0.03434,0,0,3.815e-05
33300000000,33600000000,2916101306,0,38679534,9.346e-05,0.0002594,0.003876,0.0001516,0.0003805,0.0002594,0,0,0.0007524,0,6.73,0.03294,0,0,3.433e-05
33600000000,33900000000,2916101306,0,38679534,9.346e-05,0.0002613,0.003876,0.0001516,0.0003805,0.0002651,0,0,0.0008602,7.153e-05,6.233,0.03029,0,0,6.008e-05
33900000000,34200000000,2916101306,0,38679534,9.537e-05,0.0002594,0.003876,0.0001516,0.0003805,0.0002594,0,0,0.001514,0,6.808,0.03373,0,0,0.0001183
34200000000,34500000000,2916101306,0,38679534,9.346e-05,0.0002642,0.003876,0.0001516,0.0003805,0.0002737,0,0,0.001001,7.153e-05,6.65,0.03287,0,0,4.768e-05
34500000000,34800000000,2916101306,0,38679534,9.537e-05,0.0002632,0.003876,0.0001516,0.0003805,0.0002728,0,0,0.0009918,7.153e-05,6.305,0.03111,0,0,4.768e-05
34800000000,35100000000,2916101306,0,38679534,9.537e-05,0.0002613,0.003876,0.0001516,0.0003805,0.0002651,0,0,0.001017,7.153e-05,6.648,0.03316,0,0,3.147e-05
35100000000,35400000000,2916101306,0,38679534,9.537e-05,0.0002594,0.003876,0.0001516,0.0003805,0.0002604,0,0,0.001247,0,6.471,0.03238,0,0,3.433e-05
35400000000,35700000000,2916101306,0,38679534,9.251e-05,0.0002613,0.003876,0.0001516,0.0003805,0.0002651,0,0,0.0007029,7.153e-05,6.418,0.03115,0,0,2.003e-05
35700000000,36000000000,2916101306,0,38679534,9.346e-05,0.0002594,0.003876,0.0001516,0.0003805,0.0002594,0,0,0.0007496,0,6.243,0.03009,0,0,0.0002232
36000000000,36300000000,2916101306,0,38679534,9.346e-05,0.0002613,0.003876,0.0001516,0.0003805,0.0002651,0,0,0.0005226,7.153e-05,6.144,0.02975,0,0,9.918e-05
36300000000,36600000000,2916101306,0,38679534,9.251e-05,0.0002642,0.003876,0.0001516,0.0003805,0.0002766,0,0,0.0003805,0,6.35,0.03092,0,0,5.531e-05
36600000000,36900000000,2916101306,0,38679534,9.251e-05,0.0002661,0.003876,0.0001516,0.0003805,0.0002794,0,0,0.0004425,7.153e-05,5.927,0.02873,0,0,7.439e-05
36900000000,37200000000,2916101306,0,38679534,9.441e-05,0.0002594,0.003876,0.0001516,0.0003805,0.0002604,0,0,0.000638,0,6.764,0.03364,0,0,4.673e-05
37200000000,37500000000,2916101306,0,38679534,9.632e-05,0.0002613,0.003876,0.0001516,0.0003805,0.0002651,0,0,0.0003815,7.153e-05,6.252,0.03041,0,0,6.104e-05
37500000000,37800000000,2916101306,0,38679534,9.537e-05,0.0002604,0.003876,0.0001516,0.0003805,0.0002604,0,0,0.000638,0,6.56,0.03214,0,0,5.245e-05
37800000000,38100000000,2916101306,0,38679534,9.346e-05,0.0002613,0.003876,0.0001516,0.0003815,0.0002651,0,0,0.0005426,7.153e-05,6.175,0.03039,0,0,7.629e-05
38100000000,38400000000,2916101306,0,38679534,9.441e-05,0.0002613,0.003876,0.0001516,0.0003815,0.0002632,0,0,0.0006695,7.153e-05,6.412,0.03142,0,0,2.861e-05
38400000000,38700000000,2916101306,0,38679534,9.537e-05,0.0002613,0.003876,0.0001516,0.0003815,0.0002651,0,0,0.0007334,7.153e-05,6.245,0.03043,0,0,0.0001011
38700000000,39000000000,2916101306,0,38679534,9.727e-05,0.0002594,0.003876,0.0001516,0.0003815,0.0002594,0,0,0.0007267,0,6.469,0.03148,0,0,3.529e-05
39000000000,39300000000,2916101306,0,38679534,9.632e-05,0.0002632,0.003876,0.0001516,0.0003815,0.000267,0,0,0.0004072,7.153e-05,6.44,0.03113,0,0,0.0002804
39300000000,39600000000,2916101306,0,38679534,9.918e-05,0.0002594,0.003876,0.0001516,0.0003815,0.0002594,0,0,0.0008478,0,6.131,0.02969,0,0,2.384e-05
39600000000,39900000000,2916101306,0,38679534,0.0001001,0.0002632,0.003876,0.0001516,0.0003815,0.000267,9.537e-07,0,0.0009899,7.153e-05,6.762,0.03278,0,0,6.39e-05
39900000000,40200000000,2916101306,0,38679534,9.823e-05,0.0002594,0.003876,0.0001516,0.0003815,0.0002594,0,0,0.001043,0,6.031,0.02921,0,0,4.482e-05
40200000000,40500000000,2916101306,0,38679534,9.823e-05,0.0002613,0.003876,0.0001516,0.0003815,0.0002651,0,0,0.0005665,7.153e-05,6.087,0.02993,0,0,0.0003166
40500000000,40800000000,2916101306,0,38679534,9.727e-05,0.0002594,0.003876,0.0001516,0.0003815,0.0002594,0,0,0.00068,0,6.191,0.03024,0,0,4.387e-05
51000000000,51300000000,2916101306,0,38679534,9.727e-05,0.0002613,0.003876,0.0001516,0.0003815,0.0002651,0,0,0.0009823,7.153e-05,7.032,0.03447,0,0,0.0001917
51300000000,51600000000,2916101306,0,38679534,9.537e-05,0.0002594,0.003876,0.0001516,0.0003815,0.0002594,0,0,0.000433,0,6.708,0.03335,0,0,7.248e-05
51600000000,51900000000,2916101306,0,38679534,9.441e-05,0.0002623,0.003876,0.0001516,0.0003815,0.0002651,0,0,0.0005016,7.153e-05,6.706,0.03251,0,0,0.0002317
51900000000,52200000000,2916101306,0,38679534,9.441e-05,0.0002594,0.003876,0.0001516,0.0003815,0.0002594,0,0,0.0006428,0,7.147,0.03508,0,0,7.343e-05
52200000000,52500000000,2916101306,0,38679534,9.537e-05,0.0002623,0.003876,0.0001516,0.0003815,0.0002651,0,0,0.000618,7.153e-05,6.544,0.03147,0,0,0.0001106
52500000000,52800000000,2916101306,0,38679534,9.441e-05,0.0002594,0.003876,0.0001516,0.0003815,0.0002594,0,0,0.0004959,0,7.044,0.03515,0,0,5.722e-05
52800000000,53100000000,2916101306,0,38679534,9.251e-05,0.0002623,0.003876,0.0001516,0.0003815,0.0002651,0,0,0.0008297,7.153e-05,6.439,0.0314,0,0,6.58e-05
53100000000,53400000000,2916101306,0,38679534,9.537e-05,0.0002651,0.003876,0.0001516,0.0003815,0.0002766,0,0,0.0008574,0,7.344,0.03692,0,0,3.815e-05
53400000000,53700000000,2916101306,0,38679534,9.441e-05,0.0002623,0.003876,0.0001516,0.0003815,0.0002651,0,0,0.0008736,7.153e-05,7.328,0.03647,0,0,4.959e-05
53700000000,54000000000,2916101306,0,38679534,9.537e-05,0.0002594,0.003876,0.0001516,0.0003815,0.0002594,0,0,0.000948,0,7.231,0.03611,0,0,5.913e-05
54000000000,54300000000,2916101306,0,38679534,9.537e-05,0.0002632,0.003876,0.0001526,0.0003815,0.0002651,9.537e-07,0,0.0004864,0.0001431,6.669,0.03245,0,0,4.387e-05
54300000000,54600000000,2916101306,0,38679534,9.441e-05,0.0002594,0.003876,0.0001526,0.0003815,0.0002632,0,0,0.0005341,0,6.867,0.03382,0,0,4.959e-05
54600000000,54900000000,2916101306,0,38679534,9.441e-05,0.0002613,0.003876,0.0001526,0.0003815,0.0002651,0,0,0.000803,7.153e-05,6.752,0.03314,0,0,0.000103
54900000000,55200000000,2916101306,0,38679534,9.632e-05,0.0002594,0.003876,0.0001526,0.0003815,0.0002594,0,0,0.000783,0,6.522,0.03187,0,0,4.196e-05
55200000000,55500000000,2916101306,0,38679534,9.632e-05,0.0002613,0.003876,0.0001526,0.0003815,0.0002651,0,0,0.0007563,7.153e-05,6.432,0.03091,0,0,2.67e-05
55500000000,55800000000,2916101306,0,38679534,9.537e-05,0.0002594,0.003876,0.0001526,0.0003815,0.0002594,0,0,0.0008068,0,6.683,0.03266,0,0,5.722e-05
55800000000,56100000000,2916101306,0,38679534,9.441e-05,0.0002623,0.003876,0.0001526,0.0003815,0.0002737,4.768e-06,0,0.0004463,0.001215,7.306,0.03622,0,0,9.251e-05
56100000000,56400000000,2916101306,0,38679534,9.727e-05,0.0002623,0.003876,0.0001526,0.0003815,0.0002737,0,0,0.001146,0,6.555,0.03159,0,0,4.387e-05
56400000000,56700000000,2916101306,0,38679534,9.632e-05,0.0002613,0.003876,0.0001526,0.0003815,0.0002651,0,0,0.00103,7.153e-05,6.9,0.03361,0,0,8.965e-05
56700000000,57000000000,2916101306,0,38679534,9.632e-05,0.0002594,0.003876,0.0001526,0.0003815,0.0002594,0,0,0.001205,0,6.319,0.0303,0,0,4.387e-05
57000000000,57300000000,2916101306,0,38679534,9.537e-05,0.0002613,0.003876,0.0001526,0.0003815,0.0002651,0,0,0.0006075,7.153e-05,7.271,0.03598,0,0,2.193e-05
57300000000,57600000000,2916101306,0,38679534,9.727e-05,0.0002594,0.003876,0.0001526,0.0003815,0.0002613,0,0,0.0006084,0,6.622,0.03238,0,0,8.011e-05
57600000000,57900000000,2916101306,0,38679534,9.727e-05,0.0002613,0.003876,0.0001526,0.0003815,0.0002642,9.537e-07,0,0.0008936,0.0003567,7.22,0.03568,0,0,4.387e-05
57900000000,58200000000,2916101306,0,38679534,9.537e-05,0.0002642,0.003876,0.0001526,0.0003815,0.0002756,0,0,0.0008392,0,6.693,0.03258,0,0,8.869e-05
58200000000,58500000000,2916101306,0,38679534,9.346e-05,0.0002651,0.003876,0.0001526,0.0003815,0.0002785,0,0,0.000412,7.153e-05,7.101,0.03466,0,0,6.962e-05
58500000000,58800000000,2916101306,0,38679534,9.537e-05,0.0002584,0.003876,0.0001526,0.0003815,0.0002594,0,0,0.0004568,0,6.797,0.03301,0,0,8.297e-05
58800000000,59100000000,2916101306,0,38679534,9.632e-05,0.0002613,0.003876,0.0001526,0.0003815,0.0002642,0,0,0.000536,7.153e-05,6.376,0.03044,0,0,6.199e-05
59100000000,59400000000,2916101306,0,38679534,9.632e-05,0.0002584,0.003876,0.0001526,0.0003815,0.0002584,0,0,0.0006781,0,6.634,0.03193,0,0,6.39e-05
59400000000,59700000000,2916101306,0,38679534,9.823e-05,0.0002632,0.003876,0.0001526,0.0003815,0.0002708,4.768e-06,0,0.002102,0.001358,4.668,0.02155,0,0,8.488e-05
59700000000,60000000000,2916101306,0,38679534,0.0001049,0.0002718,0.003876,0.0001526,0.0003815,0.0002747,1.907e-06,0,0.002064,7.153e-05,7.603,0.0378,0,0,5.913e-05
60000000000,60300000000,2916101306,0,38679534,0.000103,0.0002651,0.003876,0.0001526,0.0003815,0.0002689,9.537e-07,0,0.0004015,7.153e-05,8.111,0.0407,0,0,6.199e-05
60300000000,60600000000,2916101306,0,38679534,0.0001049,0.0002613,0.003876,0.0001526,0.0003815,0.0002642,0,0,0.0005293,7.153e-05,7.018,0.0344,0,0,3.529e-05
60600000000,60900000000,2916101306,0,38679534,0.000102,0.0002623,0.003876,0.0001526,0.0003815,0.0002661,0,0,0.001131,7.153e-05,7.294,0.03639,0,0,9.346e-05
70800000000,71100000000,2916101306,0,38679534,9.537e-05,0.0002613,0.003876,0.0001526,0.0003824,0.0002642,0,0,0.001112,7.153e-05,5.858,0.02752,0,0,8.392e-05
71100000000,71400000000,2916101306,0,38679534,9.346e-05,0.0002594,0.003876,0.0001526,0.0003824,0.0002594,0,0,0.000701,0,5.764,0.02652,0,0,6.485e-05
71400000000,71700000000,2916101306,0,38679534,9.537e-05,0.0002613,0.003876,0.0001526,0.0003824,0.0002651,0,0,0.0007954,7.153e-05,5.581,0.02555,0,0,9.441e-05
71700000000,72000000000,2916101306,0,38679534,9.632e-05,0.0002584,0.003876,0.0001526,0.0003824,0.0002594,0,0,0.0008278,0,5.769,0.02733,0,0,0.000144
72000000000,72300000000,2916101306,0,38679534,9.537e-05,0.0002613,0.003876,0.0001526,0.0003824,0.0002642,0,0,0.0008526,7.153e-05,6.061,0.02844,0,0,4.864e-05
72300000000,72600000000,2916101306,0,38679534,9.441e-05,0.0002594,0.003876,0.0001526,0.0003824,0.0002594,0,0,0.0008068,0,5.109,0.02313,0,0,4.673e-05
72600000000,72900000000,2916101306,0,38679534,9.632e-05,0.0002613,0.003876,0.0001526,0.0003824,0.0002642,0,0,0.0008163,7.153e-05,5.369,0.02482,0,0,0.0001335
72900000000,73200000000,2916101306,0,38679534,9.727e-05,0.0002632,0.003876,0.0001526,0.0003824,0.0002718,0,0,0.0005436,0,5.591,0.0258,0,0,4.673e-05
73200000000,73500000000,2916101306,0,38679534,9.537e-05,0.0002613,0.003876,0.0001526,0.0003824,0.000267,0,0,0.0006056,7.153e-05,5.782,0.02681,0,0,7.057e-05
73500000000,73800000000,2916101306,0,38679534,9.632e-05,0.0002661,0.003876,0.0001526,0.0003824,0.0002728,6.676e-06,0,0.0006857,0.001215,6.451,0.03112,0,0,8.678e-05
73800000000,74100000000,2916101306,0,38679534,9.727e-05,0.0002632,0.003876,0.0001535,0.0003824,0.000268,2.861e-06,0,0.0009108,0.0007143,5.764,0.02692,0,0,5.054e-05
74100000000,74400000000,2916101306,0,38679534,9.823e-05,0.0002613,0.003876,0.0001535,0.0003824,0.0002642,0,0,0.0009203,7.153e-05,5.57,0.02562,0,0,0.0001669
74400000000,74700000000,2916101306,0,38679534,9.632e-05,0.0002632,0.003876,0.0001535,0.0003824,0.0002651,1.907e-06,0,0.0005751,0.0005713,5.707,0.02679,0,0,4.387e-05
74700000000,75000000000,2916101306,0,38679534,9.727e-05,0.0002594,0.003876,0.0001535,0.0003824,0.0002613,0,0,0.0005341,0,5.62,0.02594,0,0,6.676e-05
75000000000,75300000000,2916101306,0,38679534,9.727e-05,0.0002661,0.003876,0.0001535,0.0003824,0.0002813,3.815e-06,0,0.0006285,0.001072,5.972,0.02817,0,0,6.866e-05
75300000000,75600000000,2916101306,0,38679534,9.823e-05,0.0002604,0.003876,0.0001535,0.0003824,0.0002632,0,0,0.0006084,7.153e-05,5.458,0.02507,0,0,0.0001135
75600000000,75900000000,2916101306,0,38679534,9.823e-05,0.0002613,0.003876,0.0001535,0.0003824,0.0002642,0,0,0.0007925,7.153e-05,5.876,0.02763,0,0,7.153e-05
75900000000,76200000000,2916101306,0,38679534,9.727e-05,0.0002584,0.003876,0.0001535,0.0003824,0.0002584,0,0,0.000844,0,5.826,0.02765,0,0,5.913e-05
76200000000,76500000000,2916101306,0,38679534,9.918e-05,0.0002613,0.003876,0.0001535,0.0003824,0.0002642,1.907e-06,0,0.0006495,0.0006428,5.35,0.02435,0,0,7.057e-05
76500000000,76800000000,2916101306,0,38679534,9.632e-05,0.0002594,0.003876,0.0001535,0.0003824,0.0002594,0,0,0.0008163,0,6.476,0.0311,0,0,0.000165
76800000000,77100000000,2916101306,0,38679534,9.537e-05,0.0002613,0.003876,0.0001535,0.0003824,0.0002651,0,0,0.0006294,7.153e-05,5.539,0.02568,0,0,6.58e-05
77100000000,77400000000,2916101306,0,38679534,9.632e-05,0.0002604,0.003876,0.0001535,0.0003824,0.0002632,0,0,0.0008345,7.153e-05,5.842,0.02764,0,0,4.864e-05
77400000000,77700000000,2916101306,0,38679534,9.823e-05,0.0002613,0.003876,0.0001535,0.0003824,0.0002651,0,0,0.0008717,7.153e-05,5.35,0.02438,0,0,0.0001354
77700000000,78000000000,2916101306,0,38679534,9.823e-05,0.0002613,0.003876,0.0001535,0.0003824,0.0002737,0,0,0.0008821,0,5.905,0.02789,0,0,5.15e-05
78000000000,78300000000,2916101306,0,38679534,9.823e-05,0.0002642,0.003876,0.0001535,0.0003824,0.0002737,0,0,0.0009995,7.153e-05,5.215,0.0236,0,0,0.0001259
78300000000,78600000000,2916101306,0,38679534,9.918e-05,0.0002594,0.003876,0.0001535,0.0003824,0.0002651,0,0,0.0008593,0,5.596,0.02568,0,0,3.242e-05
78600000000,78900000000,2916101306,0,38679534,9.823e-05,0.000268,0.003876,0.0001535,0.0003824,0.0002747,1.907e-06,0,0.0008373,0.0002146,5.594,0.02602,0,0,6.39e-05
78900000000,79200000000,2916101306,0,38679534,9.823e-05,0.0002623,0.003876,0.0001535,0.0003824,0.0002642,0,0,0.0007906,7.153e-05,5.724,0.02752,0,0,3.147e-05
79200000000,79500000000,2916101306,0,38679534,9.823e-05,0.0002623,0.003876,0.0001535,0.0003824,0.0002651,0,0,0.0007782,7.153e-05,5.653,0.02693,0,0,5.913e-05
79500000000,79800000000,2916101306,0,38679534,9.727e-05,0.0002613,0.003876,0.0001535,0.0003824,0.0002642,9.537e-07,0,0.0007925,0.0002861,5.45,0.02555,0,0,2.861e-05
79800000000,80100000000,2916101306,0,38679534,9.727e-05,0.000267,0.003876,0.0001535,0.0003824,0.0002823,0,0,0.0005808,7.153e-05,5.511,0.02614,0,0,0.0001822
80100000000,80400000000,2916101306,0,38679534,9.537e-05,0.0002642,0.003876,0.0001535,0.0003824,0.0002747,0,0,0.0008516,0,5.836,0.0282,0,0,7.725e-05
80400000000,80700000000,2916101306,0,38679534,9.918e-05,0.0002642,0.003876,0.0001535,0.0003824,0.0002689,9.537e-07,0,0.001032,7.153e-05,5.727,0.0269,0,0,3.338e-05
80700000000,81000000000,2916101306,0,38679534,9.918e-05,0.0002604,0.003876,0.0001535,0.0003824,0.0002604,0,0,0.0006628,0,5.862,0.02723,0,0,0.0001392
85800000000,86100000000,2916101306,0,38679534,9.823e-05,0.000267,0.003876,0.0001535,0.0003834,0.0002823,0,0,0.001118,7.153e-05,5.99,0.02859,0,0,6.39e-05
86100000000,86400000000,2916101306,0,38679534,9.441e-05,0.0002594,0.003876,0.0001535,0.0003834,0.0002604,0,0,0.0009584,0,6.327,0.03032,0,0,3.529e-05
86400000000,86700000000,2916101306,0,38679534,9.632e-05,0.0002632,0.003876,0.0001535,0.0003834,0.0002689,9.537e-07,0,0.0009031,7.153e-05,5.611,0.02626,0,0,3.91e-05
86700000000,87000000000,2916101306,0,38679534,9.537e-05,0.0002594,0.003876,0.0001535,0.0003834,0.0002594,0,0,0.000824,0,5.576,0.02632,0,0,8.678e-05
87000000000,87300000000,2916101306,0,38679534,9.727e-05,0.0002623,0.003876,0.0001535,0.0003834,0.0002661,0,0,0.0007391,7.153e-05,5.313,0.02404,0,0,5.054e-05
87300000000,87600000000,2916101306,0,38679534,0.0001059,0.0002604,0.003876,0.0001535,0.0003834,0.0002604,0,0,0.001276,0,6.277,0.02902,0,0,4.101e-05
87600000000,87900000000,2916101306,0,38679534,0.0001154,0.0002623,0.003876,0.0001535,0.0003834,0.0002661,0,0,0.001322,7.153e-05,6.323,0.02783,0,0,4.673e-05
87900000000,88200000000,2916101306,0,38679534,0.0001144,0.0002594,0.003876,0.0001535,0.0003834,0.0002604,0,0,0.001444,0,7.217,0.03265,0,0,4.959e-05
88200000000,88500000000,2916101306,0,38679534,0.0001125,0.0002623,0.003876,0.0001535,0.0003834,0.0002661,0,0,0.0006647,7.153e-05,6.387,0.02788,0,0,8.774e-05
88500000000,88800000000,2916101306,0,38679534,0.0001163,0.0002604,0.003876,0.0001535,0.0003834,0.0002737,0,0,0.0007162,0,6.926,0.03033,0,0,7.057e-05
88800000000,89100000000,2916101306,0,38679534,0.0001183,0.0002642,0.003876,0.0001535,0.0003834,0.0002737,0,0,0.001091,7.153e-05,6.956,0.03028,0,0,0.0001106
89100000000,89400000000,2916101306,0,38679534,9.823e-05,0.0002594,0.003876,0.0001535,0.0003834,0.0002594,0,0,0.0007286,0,5.892,0.02715,0,0,0.000165
89400000000,89700000000,2916101306,0,38679534,9.441e-05,0.0002613,0.003876,0.0001535,0.0003834,0.0002651,0,0,0.0004168,7.153e-05,5.483,0.02541,0,0,2.861e-05
89700000000,90000000000,2916101306,0,38679534,9.441e-05,0.0002594,0.003876,0.0001535,0.0003834,0.0002594,0,0,0.0006418,0,5.294,0.02469,0,0,5.245e-05
90000000000,90300000000,2916101306,0,38679534,9.346e-05,0.0002613,0.003876,0.0001535,0.0003834,0.0002642,0,0,0.0005054,7.153e-05,4.926,0.02209,0,0,0.0001564
90300000000,90600000000,2916101306,0,38679534,9.251e-05,0.0002594,0.003876,0.0001535,0.0003834,0.0002594,0,0,0.0005465,0,5.228,0.02409,0,0,0.0001431
90600000000,90900000000,2916101306,0,38679534,9.441e-05,0.000268,0.003876,0.0001535,0.0003834,0.0002813,2.861e-06,0,0.001059,0.0008574,5.588,0.02629,0,0,3.433e-05
101100000000,101400000000,2916101306,0,46274553,0.0001087,0.0003366,0.00388,0.0001488,0.0003748,0.0003529,0,0,0.001472,7.153e-05,9.315,0.04257,0,0,0.0001507
101400000000,101700000000,2916101306,0,46274553,0.0001068,0.0003309,0.00388,0.0001392,0.0003662,0.0003376,0,0,0.0006027,0,6.981,0.03071,0,0,0.0004997
101700000000,102000000000,2916101306,0,46274553,0.0001135,0.0003281,0.00388,0.0001392,0.0003662,0.0003319,0,0,0.0006561,7.153e-05,10.85,0.04998,0,0,4.578e-05
102000000000,102300000000,2916101306,0,46274553,0.0001125,0.0003281,0.00388,0.0001392,0.0003662,0.0003328,0,0,0.0006762,0,13.12,0.06257,0,0,9.346e-05
102300000000,102600000000,2916101306,0,46274553,0.0001125,0.0003271,0.00388,0.0001392,0.0003662,0.0003309,0,0,0.0004206,7.153e-05,11.04,0.05136,0,0,5.722e-05
102600000000,102900000000,2916101306,0,46274553,0.0001183,0.000329,0.00388,0.0001392,0.0003662,0.0003319,0,0,0.0004673,0,10.44,0.04809,0,0,4.578e-05
102900000000,103200000000,2916101306,0,46274553,0.0001192,0.0003271,0.00388,0.0001392,0.0003662,0.00033,0,0,0.0007801,7.153e-05,13.96,0.06754,0,0,0.0001297
103200000000,103500000000,2916101306,0,46274553,0.000124,0.0003271,0.00388,0.0001392,0.0003662,0.0003319,0,0,0.0006323,0,9.804,0.04369,0,0,5.436e-05
103500000000,103800000000,2916101306,0,46274553,0.0001163,0.0003262,0.00388,0.0001392,0.0003662,0.0003309,0,0,0.0004921,7.153e-05,13.49,0.06375,0,0,5.054e-05
103800000000,104100000000,2916101306,0,46274553,0.0001144,0.0003262,0.00388,0.0001392,0.0003662,0.0003309,0,0,0.0006018,0,11.88,0.05635,0,0,0.000103
104100000000,104400000000,2916101306,0,46274553,0.0001116,0.0003262,0.00388,0.0001392,0.0003662,0.00033,0,0,0.0004616,0.0001431,10.73,0.05005,0,0,6.771e-05
104400000000,104700000000,2916101306,0,46274553,0.0001106,0.0003262,0.00388,0.0001392,0.0003662,0.00033,0,0,0.0005598,0,9.279,0.04282,0,0,0.0001106
104700000000,105000000000,2916101306,0,46274553,0.0001192,0.0003242,0.00388,0.0001392,0.0003662,0.000329,0,0,0.0004988,7.153e-05,12.06,0.05534,0,0,0.000145
105000000000,105300000000,2916101306,0,46274553,0.0001268,0.0003242,0.00388,0.0001392,0.0003662,0.00033,0,0,0.0004501,0,12.07,0.05437,0,0,6.39e-05
105300000000,105600000000,2916101306,0,46274553,0.0001249,0.0003242,0.00388,0.0001392,0.0003662,0.0003271,2.861e-06,0,0.0006208,0.0006428,14.43,0.06713,0,0,0.0006208
105600000000,105900000000,2916101306,0,46274553,0.000124,0.0003233,0.00388,0.0001402,0.0003662,0.0003281,0,0,0.0009394,0,12.12,0.05454,0,0,8.011e-05
105900000000,106200000000,2916101306,0,46274553,0.0001173,0.0003204,0.00388,0.0001402,0.0003662,0.0003252,0,0,0.0008774,7.153e-05,9.224,0.04045,0,0,5.436e-05
106200000000,106500000000,2916101306,0,46274553,0.0001163,0.0003214,0.00388,0.0001402,0.0003662,0.0003252,0,0,0.001266,0,8.423,0.03626,0,0,3.624e-05
106500000000,106800000000,2916101306,0,46274553,0.0001116,0.0003185,0.00388,0.0001402,0.0003662,0.0003319,0,0,0.001104,7.153e-05,9.462,0.04267,0,0,5.341e-05
106800000000,107100000000,2916101306,0,46274553,0.0001049,0.0003242,0.00388,0.0001402,0.0003662,0.0003395,0,0,0.0008183,0,9.633,0.04434,0,0,4.005e-05
107100000000,107400000000,2916101306,0,46274553,0.0001144,0.0003185,0.00388,0.0001402,0.0003662,0.0003214,0,0,0.0007744,7.153e-05,8.602,0.03856,0,0,9.346e-05
107400000000,107700000000,2916101306,0,46274553,0.0001221,0.0003176,0.00388,0.0001402,0.0003662,0.0003223,0,0,0.0007162,0,10.1,0.04538,0,0,0.0003862
107700000000,108000000000,2916101306,0,46274553,0.0001259,0.0003157,0.00388,0.0001402,0.0003662,0.0003204,0,0,0.0004778,7.153e-05,15.39,0.07362,0,0,7.82e-05
108000000000,108300000000,2916101306,0,46274553,0.0001221,0.0003166,0.00388,0.0001402,0.0003662,0.0003214,0,0,0.0004139,0,17.61,0.08612,0,0,0.0001326
108300000000,108600000000,2916101306,0,46274553,0.0001211,0.0003147,0.00388,0.0001402,0.0003662,0.0003195,0,0,0.000762,7.153e-05,11.97,0.05579,0,0,8.583e-05
108600000000,108900000000,2916101306,0,46274553,0.0001249,0.0003166,0.00388,0.0001402,0.0003662,0.0003223,0,0,0.0005503,0,12.65,0.06076,0,0,0.0002871
108900000000,109200000000,2916101306,0,46274553,0.0001249,0.0003147,0.00388,0.0001402,0.0003662,0.0003195,0,0,0.000473,7.153e-05,14.78,0.07182,0,0,7.629e-05
109200000000,109500000000,2916101306,0,46274553,0.0001221,0.0003157,0.00388,0.0001402,0.0003672,0.0003204,0,0,0.0007296,0,10.75,0.04871,0,0,0.0007296
109500000000,109800000000,2916101306,0,46274553,0.0001249,0.0003138,0.00388,0.0001402,0.0003672,0.0003185,0,0,0.0005484,7.153e-05,8.755,0.03893,0,0,0.0001678
109800000000,110100000000,2916101306,0,46274553,0.0001221,0.0003147,0.00388,0.0001402,0.0003672,0.0003185,0,0,0.0005379,0,9.658,0.04285,0,0,0.0001183
110100000000,110400000000,2916101306,0,46274553,0.0001135,0.0003147,0.00388,0.0001402,0.0003672,0.0003185,0,0,0.0004845,7.153e-05,11.47,0.05373,0,0,3.338e-05
110400000000,110700000000,2916101306,0,46274553,0.0001135,0.0003147,0.00388,0.0001402,0.0003672,0.0003204,0,0,0.0006361,0,19.67,0.09793,0,0,5.436e-05
110700000000,111000000000,2916101306,0,46274553,0.0001125,0.0003138,0.00388,0.0001402,0.0003672,0.0003185,9.537e-07,0,0.0004635,0.0003567,16.16,0.07984,0,0,8.202e-05
116100000000,116400000000,2916101306,0,46274553,9.537e-05,0.000309,0.00388,0.0001402,0.0003672,0.0003128,0,0,0.0004339,7.153e-05,12.8,0.06278,0,0,0.0001326
116400000000,116700000000,2916101306,0,46274553,0.000103,0.0003109,0.00388,0.0001402,0.0003672,0.0003138,0,0,0.0006227,7.153e-05,13.16,0.06299,0,0,5.054e-05
116700000000,117000000000,2916101306,0,46274553,0.000102,0.000308,0.00388,0.0001402,0.0003672,0.0003128,0,0,0.0006371,0.0001431,12.61,0.0593,0,0,0.0002241
117000000000,117300000000,2916101306,0,46274553,0.0001078,0.000309,0.00388,0.0001402,0.0003672,0.0003128,0,0,0.001179,0,15.95,0.07581,0,0,0.0002279
117300000000,117600000000,2916101306,0,46274553,0.0001087,0.0003099,0.00388,0.0001402,0.0003672,0.0003281,0,0,0.0004425,7.153e-05,9.584,0.04449,0,0,5.817e-05
117600000000,117900000000,2916101306,0,46274553,0.0001144,0.0003119,0.00388,0.0001402,0.0003672,0.000329,0,0,0.0004263,0,7.955,0.03594,0,0,5.15e-05
117900000000,118200000000,2916101306,0,46274553,0.0001154,0.000308,0.00388,0.0001402,0.0003672,0.0003138,0,0,0.0004644,7.153e-05,9.618,0.045,0,0,7.725e-05
118200000000,118500000000,2916101306,0,46274553,0.0001116,0.000309,0.00388,0.0001402,0.0003672,0.0003138,0,0,0.0004597,0,9.321,0.04341,0,0,5.913e-05
118500000000,118800000000,2916101306,0,46274553,0.000102,0.0003061,0.00388,0.0001402,0.0003672,0.0003109,0,0,0.0005541,7.153e-05,8.519,0.03847,0,0,6.008e-05
118800000000,119100000000,2916101306,0,46274553,0.000103,0.0003071,0.00388,0.0001402,0.0003672,0.0003109,0,0,0.0005598,0,15.15,0.07597,0,0,7.82e-05
119100000000,119400000000,2916101306,0,46274553,0.000103,0.0003052,0.00388,0.0001402,0.0003672,0.0003099,0,0,0.0004797,7.153e-05,18.95,0.09665,0,0,5.436e-05
119400000000,119700000000,2916101306,0,46274553,0.0001049,0.0003061,0.00388,0.0001402,0.0003672,0.0003099,0,0,0.000598,0,18.76,0.09484,0,0,9.537e-05
119700000000,120000000000,2916101306,0,46274553,0.0001106,0.0003061,0.00388,0.0001402,0.0003672,0.000309,9.537e-07,0,0.000535,0.0002146,23.33,0.1167,0,0,0.0001431
120000000000,120300000000,2916101306,0,46274553,0.0001068,0.0003052,0.00388,0.0001402,0.0003672,0.000309,0,0,0.001055,0,18.33,0.08888,0,0,7.343e-05
120300000000,120600000000,2916101306,0,46274553,0.0001087,0.0003033,0.00388,0.0001402,0.0003672,0.000308,9.537e-07,0,0.0004797,0.0002146,16.86,0.08374,0,0,5.531e-05
120600000000,120900000000,2916101306,0,46274553,0.0001116,0.0003042,0.00388,0.0001402,0.0003672,0.000309,0,0,0.0007181,0,16.81,0.08375,0,0,6.866e-05
126000000000,126300000000,2916101306,0,46274553,0.0001154,0.0003014,0.00388,0.0001402,0.0003672,0.0003052,0,0,0.0007067,0,14.37,0.06838,0,0,0.0001068
126300000000,126600000000,2916101306,0,46274553,0.0001202,0.0003052,0.00388,0.0001402,0.0003672,0.0003128,9.537e-07,0,0.0005007,0.0001431,7.438,0.03352,0,0,0.0001354
126600000000,126900000000,2916101306,0,46274553,0.000123,0.0003061,0.00388,0.0001402,0.0003672,0.0003119,9.537e-07,0,0.0004082,7.153e-05,14.12,0.06785,0,0,6.676e-05
126900000000,127200000000,2916101306,0,46274553,0.0001221,0.0003023,0.00388,0.0001402,0.0003672,0.0003052,9.537e-07,0,0.0004721,0.0001431,11.61,0.05475,0,0,6.39e-05
127200000000,127500000000,2916101306,0,46274553,0.000124,0.0003023,0.00388,0.0001402,0.0003672,0.0003061,0,0,0.0006666,0,10.63,0.04987,0,0,0.0001259
127500000000,127800000000,2916101306,0,46274553,0.0001173,0.0003023,0.00388,0.0001402,0.0003672,0.0003052,0,0,0.0005569,0.0001431,9.931,0.04572,0,0,4.959e-05
127800000000,128100000000,2916101306,0,46274553,0.0001097,0.0003014,0.00388,0.0001402,0.0003672,0.0003052,0,0,0.0003815,7.153e-05,10.18,0.04848,0,0,5.627e-05
128100000000,128400000000,2916101306,0,46274553,0.0001087,0.0003042,0.00388,0.0001402,0.0003672,0.0003214,0,0,0.0004501,7.153e-05,12.39,0.05967,0,0,4.578e-05
128400000000,128700000000,2916101306,0,46274553,0.0001154,0.0003052,0.00388,0.0001402,0.0003672,0.0003223,9.537e-07,0,0.0004244,0.0001431,11.52,0.05528,0,0,9.155e-05
128700000000,129000000000,2916101306,0,46274553,0.0001173,0.0003014,0.00388,0.0001402,0.0003672,0.0003042,0,0,0.0006351,7.153e-05,16.5,0.08116,0,0,5.054e-05
129000000000,129300000000,2916101306,0,46274553,0.0001211,0.0003004,0.00388,0.0001402,0.0003672,0.0003052,0,0,0.0006132,0,13.95,0.06705,0,0,5.913e-05
129300000000,129600000000,2916101306,0,46274553,0.0001116,0.0002995,0.00388,0.0001402,0.0003672,0.0003042,0,0,0.0003614,7.153e-05,12.4,0.05974,0,0,4.864e-05
129600000000,129900000000,2916101306,0,46274553,0.0001087,0.0003004,0.00388,0.0001402,0.0003672,0.0003042,0,0,0.0004377,0,15.55,0.07836,0,0,7.057e-05
129900000000,130200000000,2916101306,0,46274553,0.0001116,0.0002995,0.00388,0.0001402,0.0003672,0.0003071,0,0,0.000474,7.153e-05,14.45,0.07183,0,0,0.0001602
130200000000,130500000000,2916101306,0,46274553,0.0001163,0.0003014,0.00388,0.0001402,0.0003672,0.000308,0,0,0.0005236,7.153e-05,14.78,0.07159,0,0,4.196e-05
130500000000,130800000000,2916101306,0,46274553,0.0001221,0.0002995,0.00388,0.0001402,0.0003672,0.0003042,0,0,0.0005188,7.153e-05,18.54,0.08955,0,0,0.0001097
130800000000,131100000000,2916101306,0,46274553,0.0001144,0.0003004,0.00388,0.0001402,0.0003672,0.0003052,0,0,0.0005674,0,17.92,0.0862,0,0,4.292e-05
141000000000,141300000000,2916101306,0,46274553,0.0001135,0.0002956,0.00388,0.0001411,0.0003681,0.0003023,0,0,0.0006733,0,11.81,0.05542,0,0,9.632e-05
141300000000,141600000000,2916101306,0,46274553,0.0001154,0.0002947,0.00388,0.0001411,0.0003681,0.0002985,0,0,0.0005112,7.153e-05,8.216,0.03696,0,0,6.485e-05
141600000000,141900000000,2916101306,0,46274553,0.0001097,0.0002947,0.00388,0.0001411,0.0003681,0.0002995,0,0,0.0004625,0,16.31,0.07845,0,0,6.866e-05
141900000000,142200000000,2916101306,0,46274553,0.0001183,0.0002937,0.00388,0.0001411,0.0003681,0.0002985,0,0,0.0005016,7.153e-05,10.92,0.05,0,0,0.0001078
142200000000,142500000000,2916101306,0,46274553,0.0001183,0.0002947,0.00388,0.0001411,0.0003681,0.0002995,0,0,0.0004587,0,12.88,0.05986,0,0,0.0002241
142500000000,142800000000,2916101306,0,46274553,0.0001154,0.0002937,0.00388,0.0001411,0.0003681,0.0002985,0,0,0.0005379,7.153e-05,18.67,0.09123,0,0,0.000186
142800000000,143100000000,2916101306,0,46274553,0.0001144,0.0002947,0.00388,0.0001411,0.0003681,0.0002985,0,0,0.0008583,0,13.26,0.06227,0,0,0.0001965
143100000000,143400000000,2916101306,0,46274553,0.0001202,0.0002937,0.00388,0.0001411,0.0003681,0.0002975,0,0,0.0006113,7.153e-05,9.833,0.04463,0,0,6.58e-05
143400000000,143700000000,2916101306,0,46274553,0.0001116,0.0002947,0.00388,0.0001411,0.0003681,0.0002985,0,0,0.0005064,0,12.54,0.05921,0,0,7.915e-05
143700000000,144000000000,2916101306,0,46274553,0.0001144,0.0002937,0.00388,0.0001411,0.0003681,0.0002985,0,0,0.0004454,7.153e-05,12.02,0.05691,0,0,6.294e-05
144000000000,144300000000,2916101306,0,46274553,0.0001144,0.0002995,0.00388,0.0001411,0.0003681,0.000309,0,0,0.0004749,0,14.95,0.07165,0,0,9.727e-05
144300000000,144600000000,2916101306,0,46274553,0.0001183,0.0002947,0.00388,0.0001411,0.0003681,0.0003042,0,0,0.0005093,7.153e-05,10.35,0.04721,0,0,6.676e-05
144600000000,144900000000,2916101306,0,46274553,0.0001097,0.0002947,0.00388,0.0001411,0.0003681,0.0003023,0,0,0.0009451,0,15.8,0.07672,0,0,5.341e-05
144900000000,145200000000,2916101306,0,46274553,0.0001087,0.0002928,0.00388,0.0001411,0.0003681,0.0002975,0,0,0.0006256,7.153e-05,13.8,0.06654,0,0,0.0002251
145200000000,145500000000,2916101306,0,46274553,0.0001106,0.0002937,0.00388,0.0001411,0.0003681,0.0002975,0,0,0.0004129,0,17.06,0.08351,0,0,5.341e-05
145500000000,145800000000,2916101306,0,46274553,0.0001087,0.0002928,0.00388,0.0001411,0.0003681,0.0002966,0,0,0.0004406,7.153e-05,14.54,0.06995,0,0,0.000123
145800000000,146100000000,2916101306,0,46274553,0.0001097,0.0002937,0.00388,0.0001411,0.0003681,0.0002975,0,0,0.0005312,0,11.97,0.05494,0,0,4.768e-05
151200000000,151500000000,2916101306,0,46274553,0.0001144,0.0002918,0.00388,0.0001411,0.0003681,0.0002956,0,0,0.0005159,0,9.701,0.04395,0,0,0.0001335
151500000000,151800000000,2916101306,0,46274553,0.0001135,0.0002899,0.00388,0.0001411,0.0003681,0.0002947,0,0,0.0007315,7.153e-05,7.833,0.03406,0,0,5.436e-05
151800000000,152100000000,2916101306,0,46274553,0.0001116,0.0002918,0.00388,0.0001411,0.0003681,0.0002956,0,0,0.0007048,0,8.65,0.03822,0,0,0.0001049
152100000000,152400000000,2916101306,0,46274553,0.0001125,0.0002899,0.00388,0.0001411,0.0003681,0.0002947,0,0,0.0005608,7.153e-05,9.301,0.04141,0,0,9.537e-05
152400000000,152700000000,2916101306,0,46274553,0.0001183,0.0002918,0.00388,0.0001411,0.0003681,0.0002956,0,0,0.000596,0,8.986,0.03974,0,0,4.673e-05
152700000000,153000000000,2916101306,0,46274553,0.0001135,0.0002899,0.00388,0.0001411,0.0003681,0.0002947,0,0,0.0003853,7.153e-05,10.31,0.04717,0,0,5.245e-05
153000000000,153300000000,2916101306,0,46274553,0.0001154,0.0002909,0.00388,0.0001411,0.0003681,0.0002956,0,0,0.0003424,0,10.43,0.04667,0,0,5.817e-05
153300000000,153600000000,2916101306,0,46274553,0.0001192,0.0002899,0.00388,0.0001411,0.0003681,0.0002947,0,0,0.0005608,0.0001431,10.14,0.04569,0,0,7.439e-05
153600000000,153900000000,2916101306,0,46274553,0.0001183,0.0002956,0.00388,0.0001411,0.0003681,0.0003014,9.537e-07,0,0.0004587,0.0002146,14.29,0.06745,0,0,0.0001469
153900000000,154200000000,2916101306,0,46274553,0.0001211,0.0002947,0.00388,0.0001411,0.0003681,0.0002995,9.537e-07,0,0.0005531,0.0001431,10.21,0.04676,0,0,8.392e-05
154200000000,154500000000,2916101306,0,46274553,0.0001211,0.0002928,0.00388,0.0001411,0.0003681,0.0002975,0,0,0.0004292,7.153e-05,10.81,0.05024,0,0,4.959e-05
154500000000,154800000000,2916101306,0,46274553,0.0001173,0.0002899,0.00388,0.0001411,0.0003681,0.0002947,0,0,0.0005484,7.153e-05,10.33,0.04771,0,0,6.58e-05
154800000000,155100000000,2916101306,0,46274553,0.0001183,0.0002975,0.00388,0.0001411,0.0003681,0.0003071,0,0,0.0006351,7.153e-05,11.5,0.0531,0,0,3.052e-05
155100000000,155400000000,2916101306,0,46274553,0.000123,0.0002909,0.00388,0.0001411,0.0003681,0.0002995,9.537e-07,0,0.0005121,0.0002146,9.645,0.0443,0,0,7.82e-05
155400000000,155700000000,2916101306,0,46274553,0.0001249,0.0002928,0.00388,0.0001411,0.0003681,0.0002975,0,0,0.0008554,7.153e-05,12.34,0.05814,0,0,5.531e-05
155700000000,156000000000,2916101306,0,46274553,0.0001192,0.0002909,0.00388,0.0001411,0.0003681,0.0002937,9.537e-07,0,0.000802,0.0001431,12.11,0.05754,0,0,9.346e-05
161100000000,161400000000,2916101306,0,46274553,0.0001192,0.000288,0.00388,0.0001411,0.0003681,0.0002928,0,0,0.0005169,7.153e-05,10.1,0.04651,0,0,0.0001307
161400000000,161700000000,2916101306,0,46274553,0.0001183,0.0002909,0.00388,0.0001411,0.0003681,0.0002928,0,0,0.0007153,7.153e-05,9.852,0.04507,0,0,3.433e-05
161700000000,162000000000,2916101306,0,46274553,0.0001116,0.000288,0.00388,0.0001411,0.0003681,0.0002928,0,0,0.0007124,7.153e-05,9.899,0.0455,0,0,0.0001793
162000000000,162300000000,2916101306,0,46274553,0.0001059,0.000289,0.00388,0.0001411,0.0003681,0.0002928,0,0,0.0007858,0,7.894,0.03394,0,0,0.0001459
162300000000,162600000000,2916101306,0,46274553,0.0001097,0.0002871,0.00388,0.0001411,0.0003681,0.0002928,0,0,0.0007143,7.153e-05,9.185,0.0411,0,0,0.0005169
162600000000,162900000000,2916101306,0,46274553,0.0001135,0.0002918,0.00388,0.0001411,0.0003681,0.0002985,0,0,0.0004454,7.153e-05,8.101,0.03538,0,0,3.624e-05
162900000000,163200000000,2916101306,0,46274553,0.0001173,0.0002928,0.00388,0.0001411,0.0003681,0.0002985,1.907e-06,0,0.0003843,0.0001783,8.446,0.03747,0,0,5.15e-05
163200000000,163500000000,2916101306,0,46274553,0.0001106,0.0002909,0.00388,0.0001411,0.0003691,0.0002956,9.537e-07,0,0.0004988,0.0001431,14.94,0.07028,0,0,7.82e-05
163500000000,163800000000,2916101306,0,46274553,0.0001163,0.000289,0.00388,0.0001411,0.0003691,0.0002928,0,0,0.0009212,7.153e-05,7.847,0.0337,0,0,5.436e-05
163800000000,164100000000,2916101306,0,46274553,0.0001173,0.0002899,0.00388,0.0001411,0.0003691,0.0002918,9.537e-07,0,0.0003738,0.0001431,6.76,0.02807,0,0,4.864e-05
164100000000,164400000000,2916101306,0,46274553,0.0001116,0.0002871,0.00388,0.0001411,0.0003691,0.0002918,0,0,0.0003691,7.153e-05,10.32,0.04646,0,0,4.959e-05
164400000000,164700000000,2916101306,0,46274553,0.0001097,0.000288,0.00388,0.0001411,0.0003691,0.0002918,0,0,0.0004139,0,12.48,0.05823,0,0,7.534e-05
164700000000,165000000000,2916101306,0,46274553,0.0001154,0.000289,0.00388,0.0001411,0.0003691,0.0002918,9.537e-07,0,0.0004034,0.0001431,9.675,0.04341,0,0,8.011e-05
165000000000,165300000000,2916101306,0,46274553,0.0001154,0.000288,0.00388,0.0001421,0.0003691,0.0002918,0,0,0.0004129,0,9.418,0.04189,0,0,5.436e-05
165300000000,165600000000,2916101306,0,46274553,0.0001106,0.0002861,0.00388,0.0001421,0.0003691,0.0002909,0,0,0.0005159,7.153e-05,11.98,0.05596,0,0,9.441e-05
165600000000,165900000000,2916101306,0,46274553,0.0001221,0.0002918,0.00388,0.0001421,0.0003691,0.0003033,0,0,0.000597,0,9.801,0.04373,0,0,4.864e-05
165900000000,166200000000,2916101306,0,46274553,0.0001173,0.000288,0.00388,0.0001421,0.0003691,0.0002956,0,0,0.0005722,7.153e-05,14.8,0.06882,0,0,3.242e-05
166200000000,166500000000,2916101306,0,46274553,0.0001183,0.000288,0.00388,0.0001421,0.0003691,0.0002947,0,0,0.000494,0,12,0.05458,0,0,4.578e-05
166500000000,166800000000,2916101306,0,46274553,0.0001135,0.0002871,0.00388,0.0001421,0.0003691,0.0002966,9.537e-07,0,0.0004911,0.0003567,13.77,0.06472,0,0,0.0004911
166800000000,167100000000,2916101306,0,46274553,0.0001125,0.000288,0.00388,0.0001421,0.0003691,0.0002956,0,0,0.0006132,0,20.82,0.1011,0,0,9.155e-05
167100000000,167400000000,2916101306,0,46274553,0.0001125,0.0002861,0.00388,0.0001421,0.0003691,0.0002899,9.537e-07,0,0.000638,0.0002861,20.38,0.09984,0,0,4.959e-05
167400000000,167700000000,2916101306,0,46274553,0.0001135,0.0002861,0.00388,0.0001421,0.0003691,0.0002909,0,0,0.000761,0,17.72,0.08595,0,0,4.292e-05
167700000000,168000000000,2916101306,0,46274553,0.0001106,0.0002851,0.00388,0.0001421,0.0003691,0.0002899,0,0,0.0005274,7.153e-05,18.23,0.08893,0,0,5.436e-05
168000000000,168300000000,2916101306,0,46274553,0.0001116,0.0002871,0.00388,0.0001421,0.0003691,0.0002909,0,0,0.0006113,0,18.91,0.09175,0,0,9.823e-05
168300000000,168600000000,2916101306,0,46274553,0.0001116,0.0002861,0.00388,0.0001421,0.0003691,0.0002909,0,0,0.0007048,7.153e-05,17.92,0.08753,0,0,2.766e-05
168600000000,168900000000,2916101306,0,46274553,0.0001106,0.0002871,0.00388,0.0001421,0.0003691,0.0002909,0,0,0.0005493,0,15.35,0.07405,0,0,6.104e-05
168900000000,169200000000,2916101306,0,46274553,0.0001125,0.0002861,0.00388,0.0001421,0.0003691,0.0002899,9.537e-07,0,0.0004454,0.0001431,12.54,0.05849,0,0,5.627e-05
169200000000,169500000000,2916101306,0,46274553,0.0001125,0.0002871,0.00388,0.0001421,0.0003691,0.0002909,0,0,0.0004072,0,12.05,0.05616,0,0,0.0001202
169500000000,169800000000,2916101306,0,46274553,0.0001106,0.0002861,0.00388,0.0001421,0.0003691,0.0002909,0,0,0.000473,7.153e-05,8.792,0.0387,0,0,5.245e-05
169800000000,170100000000,2916101306,0,46274553,0.0001078,0.0002871,0.00388,0.0001421,0.0003691,0.0002909,0,0,0.0004883,0,8.849,0.04013,0,0,0.0001879
170100000000,170400000000,2916101306,0,46274553,0.0001106,0.0002851,0.00388,0.0001421,0.0003691,0.0002909,0,0,0.001184,7.153e-05,16.75,0.07909,0,0,8.774e-05
170400000000,170700000000,2916101306,0,46274553,0.0001125,0.000288,0.00388,0.0001421,0.0003691,0.0002937,0,0,0.0007467,7.153e-05,13.26,0.06216,0,0,4.005e-05
170700000000,171000000000,2916101306,0,46274553,0.0001173,0.0002851,0.00388,0.0001421,0.0003691,0.0002899,0,0,0.0005474,7.153e-05,16.24,0.07697,0,0,6.58e-05
171000000000,171300000000,2916101306,0,46274553,0.0001211,0.0002871,0.00388,0.0001421,0.0003691,0.0002909,0,0,0.0005894,0,18.68,0.08873,0,0,5.913e-05
171300000000,171600000000,2916101306,0,46274553,0.0001163,0.0002899,0.00388,0.0001421,0.0003691,0.0003042,0,0,0.0007715,7.153e-05,14.68,0.07079,0,0,0.0001059
171600000000,171900000000,2916101306,0,46274553,0.0001144,0.000288,0.00388,0.0001421,0.0003691,0.0002966,1.907e-06,0,0.0004501,0.0004282,12.06,0.05693,0,0,0.0001822
171900000000,172200000000,2916101306,0,46274553,0.0001144,0.0002871,0.00388,0.0001421,0.0003691,0.0002928,0,0,0.0005503,7.153e-05,9.656,0.04504,0,0,6.104e-05
172200000000,172500000000,2916101306,0,46274553,0.0001144,0.0002861,0.00388,0.0001421,0.0003691,0.0002909,0,0,0.0005198,0,10.16,0.04733,0,0,6.294e-05
172500000000,172800000000,2916101306,0,46274553,0.0001116,0.0002851,0.00388,0.0001421,0.0003691,0.0002899,0,0,0.0005178,7.153e-05,12.31,0.05753,0,0,6.771e-05
172800000000,173100000000,2916101306,0,46274553,0.0001135,0.0002861,0.00388,0.0001421,0.0003691,0.0002899,0,0,0.001236,0,14.85,0.07071,0,0,0.0003071
173100000000,173400000000,2916101306,0,46274553,0.0001144,0.0002851,0.00388,0.0001421,0.0003691,0.0002899,0,0,0.0007229,7.153e-05,15,0.07149,0,0,5.913e-05
173400000000,173700000000,2916101306,0,46274553,0.0001163,0.0002861,0.00388,0.0001421,0.0003691,0.0002899,0,0,0.0005512,0,15.47,0.07441,0,0,6.39e-05
173700000000,174000000000,2916101306,0,46274553,0.0001125,0.0002851,0.00388,0.0001421,0.0003691,0.0002899,0,0,0.0005655,7.153e-05,12.31,0.05806,0,0,8.583e-05
174000000000,174300000000,2916101306,0,46274553,0.0001125,0.0002861,0.00388,0.0001421,0.0003691,0.0002899,0,0,0.0005178,0,12.03,0.05595,0,0,0.0001221
174300000000,174600000000,2916101306,0,46274553,0.0001154,0.0002851,0.00388,0.0001421,0.0003691,0.000289,0,0,0.0007982,7.153e-05,20.68,0.1008,0,0,0.0003567
174600000000,174900000000,2916101306,0,46274553,0.0001202,0.0002861,0.00388,0.0001421,0.0003691,0.0002899,0,0,0.0009089,0,18.5,0.09035,0,0,0.0001364
174900000000,175200000000,2916101306,0,46274553,0.0001125,0.0002842,0.00388,0.0001421,0.0003691,0.000289,0,0,0.001308,7.153e-05,12.57,0.05912,0,0,0.0003691
175200000000,175500000000,2916101306,0,46274553,0.0001144,0.0002851,0.00388,0.0001421,0.0003691,0.000289,0,0,0.0006666,0,10.77,0.05008,0,0,8.869e-05
175500000000,175800000000,2916101306,0,46274553,0.0001183,0.0002842,0.00388,0.0001421,0.0003691,0.000289,0,0,0.000535,7.153e-05,14.12,0.06615,0,0,0.0003033
175800000000,176100000000,2916101306,0,46274553,0.0001183,0.0002851,0.00388,0.0001421,0.0003691,0.0002899,0,0,0.0006924,0,17.02,0.08025,0,0,5.054e-05
186300000000,186600000000,2916101306,0,46274553,0.0001087,0.0002794,0.00388,0.0001421,0.0003691,0.0002842,0,0,0.0007172,7.153e-05,18.87,0.09251,0,0,0.0001736
186600000000,186900000000,2916101306,0,46274553,0.0001087,0.0002813,0.00388,0.0001421,0.0003691,0.0002842,0,0,0.0004883,0,18.02,0.08824,0,0,9.918e-05
186900000000,187200000000,2916101306,0,46274553,0.0001106,0.0002794,0.00388,0.0001421,0.0003691,0.0002842,0,0,0.0006218,7.153e-05,16.66,0.08085,0,0,8.488e-05
187200000000,187500000000,2916101306,0,46274553,0.0001163,0.0002851,0.00388,0.0001421,0.0003691,0.0002947,0,0,0.0008059,0,14.74,0.07105,0,0,5.913e-05
187500000000,187800000000,2916101306,0,46274553,0.0001097,0.0002804,0.00388,0.0001421,0.0003691,0.0002871,0,0,0.0006084,7.153e-05,17.33,0.08614,0,0,7.057e-05
187800000000,188100000000,2916101306,0,46274553,0.0001078,0.0002804,0.00388,0.0001421,0.0003691,0.0002871,0,0,0.0007648,0,16.82,0.08288,0,0,0.0001402
188100000000,188400000000,2916101306,0,46274553,0.0001087,0.0002785,0.00388,0.0001421,0.0003691,0.0002823,0,0,0.0007753,7.153e-05,25.02,0.1262,0,0,0.0001049
188400000000,188700000000,2916101306,0,46274553,0.0001106,0.0002813,0.00388,0.0001421,0.0003691,0.0002832,0,0,0.001463,7.153e-05,19.24,0.09505,0,0,0.0001574
188700000000,189000000000,2916101306,0,46274553,0.0001068,0.0002785,0.00388,0.0001421,0.0003691,0.0002832,0,0,0.000947,7.153e-05,19.08,0.09538,0,0,5.15e-05
189000000000,189300000000,2916101306,0,46274553,0.0001087,0.0002794,0.00388,0.0001421,0.0003691,0.0002832,0,0,0.0004702,0,16.37,0.08,0,0,6.39e-05
189300000000,189600000000,2916101306,0,46274553,0.0001059,0.0002785,0.00388,0.0001421,0.0003691,0.0002823,0,0,0.0005217,7.153e-05,11.68,0.05483,0,0,3.624e-05
189600000000,189900000000,2916101306,0,46274553,0.000102,0.0002794,0.00388,0.0001421,0.0003691,0.0002832,0,0,0.0004358,0,18.26,0.0895,0,0,9.346e-05
189900000000,190200000000,2916101306,0,46274553,0.000104,0.0002785,0.00388,0.0001421,0.0003691,0.0002832,5.722e-06,0,0.0004749,0.001715,16.3,0.07834,0,0,0.000144
190200000000,190500000000,2916101306,0,46274553,0.0001087,0.0002794,0.00388,0.0001421,0.0003691,0.0002832,0,0,0.0004406,0,14.37,0.06759,0,0,3.719e-05
190500000000,190800000000,2916101306,0,46274553,0.0001116,0.0002785,0.00388,0.0001421,0.0003691,0.0002832,0,0,0.0006943,7.153e-05,15.23,0.07013,0,0,8.583e-05
190800000000,191100000000,2916101306,0,46274553,0.0001183,0.0002794,0.00388,0.0001421,0.00037,0.0002832,0,0,0.0005741,0,11.7,0.0532,0,0,0.0001698
191100000000,191400000000,2916101306,0,46274553,0.0001125,0.0002785,0.00388,0.0001421,0.00037,0.0002832,1.907e-06,0,0.000783,0.0006428,10.87,0.0509,0,0,0.0001268
191400000000,191700000000,2916101306,0,46274553,0.0001163,0.0002794,0.00388,0.0001421,0.00037,0.0002832,0,0,0.0007296,0,11.73,0.0556,0,0,0.0006914
191700000000,192000000000,2916101306,0,46274553,0.0001106,0.0002775,0.00388,0.0001421,0.00037,0.0002823,0,0,0.0008526,7.153e-05,8.839,0.04062,0,0,0.0005608
192000000000,192300000000,2916101306,0,46274553,0.0001049,0.0002794,0.00388,0.0001421,0.00037,0.0002832,0,0,0.000658,0,9.813,0.04504,0,0,6.866e-05
192300000000,192600000000,2916101306,0,46274553,0.0001068,0.0002775,0.00388,0.0001421,0.00037,0.0002823,0,0,0.0003386,7.153e-05,18.76,0.09174,0,0,0.000144
192600000000,192900000000,2916101306,0,46274553,0.0001106,0.0002785,0.00388,0.0001421,0.00037,0.0002832,0,0,0.0006027,0,16.73,0.08179,0,0,6.39e-05
192900000000,193200000000,2916101306,0,46274553,0.0001078,0.0002832,0.00388,0.0001421,0.00037,0.0002947,0,0,0.0004578,7.153e-05,15.35,0.07544,0,0,9.346e-05
193200000000,193500000000,2916101306,0,46274553,0.0001068,0.0002794,0.00388,0.0001421,0.00037,0.0002842,0,0,0.0006561,0,12.86,0.06229,0,0,0.0001602
193500000000,193800000000,2916101306,0,46274553,0.0001087,0.0002794,0.00388,0.0001431,0.00037,0.0002823,9.537e-07,0,0.0005102,0.0001431,17.8,0.08847,0,0,4.482e-05
193800000000,194100000000,2916101306,0,46274553,0.0001087,0.0002785,0.00388,0.0001431,0.00037,0.0002823,0,0,0.0004902,0,24.79,0.1252,0,0,5.913e-05
194100000000,194400000000,2916101306,0,46274553,0.0001087,0.0002775,0.00388,0.0001431,0.00037,0.0002823,0,0,0.0004549,7.153e-05,19.26,0.09543,0,0,5.341e-05
194400000000,194700000000,2916101306,0,46274553,0.0001125,0.0002785,0.00388,0.0001431,0.00037,0.0002823,0,0,0.0008116,0,17.52,0.08664,0,0,0.0001659
194700000000,195000000000,2916101306,0,46274553,0.0001087,0.0002794,0.00388,0.0001431,0.00037,0.0002823,9.537e-07,0,0.000452,0.0002146,19.96,0.1003,0,0,0.0003548
195000000000,195300000000,2916101306,0,46274553,0.0001068,0.0002785,0.00388,0.0001431,0.00037,0.0002823,0,0,0.0006065,0,14.85,0.07259,0,0,5.531e-05
195300000000,195600000000,2916101306,0,46274553,0.0001087,0.0002766,0.00388,0.0001431,0.00037,0.0002813,0,0,0.000494,7.153e-05,15.62,0.07691,0,0,6.771e-05
195600000000,195900000000,2916101306,0,46274553,0.0001106,0.0002785,0.00388,0.0001431,0.00037,0.0002823,0,0,0.0007477,0,18.79,0.09398,0,0,0.0001078
195900000000,196200000000,2916101306,0,46274553,0.0001078,0.0002775,0.00388,0.0001431,0.00037,0.0002823,0,0,0.0003691,7.153e-05,15.84,0.07846,0,0,7.629e-05
201300000000,201600000000,2916101306,0,46274553,0.0001068,0.0002756,0.00388,0.0001431,0.00037,0.0002804,0,0,0.0004463,7.153e-05,12.49,0.05863,0,0,3.91e-05
201600000000,201900000000,2916101306,0,46274553,0.0001116,0.0002775,0.00388,0.0001431,0.00037,0.0002813,0,0,0.0007725,0,17.93,0.08676,0,0,6.294e-05
201900000000,202200000000,2916101306,0,46274553,0.0001068,0.0002775,0.00388,0.0001431,0.00037,0.0002804,9.537e-07,0,0.00164,0.0001431,17.11,0.0824,0,0,7.439e-05
202200000000,202500000000,2916101306,0,46274553,0.0001097,0.0002766,0.00388,0.0001431,0.00037,0.0002804,0,0,0.0004282,0,12.65,0.05851,0,0,4.387e-05
202500000000,202800000000,2916101306,0,46274553,0.0001116,0.0002756,0.00388,0.0001431,0.00037,0.0002804,0,0,0.000701,7.153e-05,17.86,0.08455,0,0,5.627e-05
202800000000,203100000000,2916101306,0,46274553,0.0001068,0.0002766,0.00388,0.0001431,0.00037,0.0002804,0,0,0.0003824,0,16.32,0.0791,0,0,7.343e-05
203100000000,203400000000,2916101306,0,46274553,0.0001087,0.0002747,0.00388,0.0001431,0.00037,0.0002794,0,0,0.0005798,7.153e-05,19.01,0.094,0,0,4.959e-05
203400000000,203700000000,2916101306,0,46274553,0.0001068,0.0002832,0.00388,0.0001431,0.00037,0.000289,1.907e-06,0,0.0004539,7.153e-05,15.87,0.07815,0,0,0.0002842
203700000000,204000000000,2916101306,0,46274553,0.0001116,0.0002832,0.00388,0.0001431,0.00037,0.0002956,1.907e-06,0,0.0004454,0.0006428,17.76,0.08744,0,0,3.815e-05
204000000000,204300000000,2916101306,0,46274553,0.0001116,0.0002794,0.00388,0.0001431,0.00037,0.0002823,0,0,0.0004683,7.153e-05,21.3,0.1068,0,0,0.0001745
204300000000,204600000000,2916101306,0,46274553,0.0001097,0.0002756,0.00388,0.0001431,0.00037,0.0002794,0,0,0.0007792,7.153e-05,17.51,0.08687,0,0,5.913e-05
204600000000,204900000000,2916101306,0,46274553,0.0001125,0.0002785,0.00388,0.0001431,0.00037,0.0002804,9.537e-07,0,0.0007486,0.0002861,18.65,0.09313,0,0,0.0002508
204900000000,205200000000,2916101306,0,46274553,0.0001097,0.0002756,0.00388,0.0001431,0.00037,0.0002794,0,0,0.0005074,7.153e-05,17.49,0.08705,0,0,9.632e-05
205200000000,205500000000,2916101306,0,46274553,0.0001087,0.0002766,0.00388,0.0001431,0.00037,0.0002804,0,0,0.0004053,0,14.87,0.07235,0,0,7.153e-05
205500000000,205800000000,2916101306,0,46274553,0.0001049,0.0002756,0.00388,0.0001431,0.00037,0.0002794,0,0,0.0007839,7.153e-05,18.6,0.0927,0,0,0.0001087
205800000000,206100000000,2916101306,0,46274553,0.0001087,0.0002785,0.00388,0.0001431,0.00037,0.0002804,9.537e-07,0,0.000555,0.0001431,18.43,0.09173,0,0,3.433e-05
206100000000,206400000000,2916101306,0,46274553,0.0001078,0.0002756,0.00388,0.0001431,0.00037,0.0002804,0,0,0.0006151,7.153e-05,21.97,0.1106,0,0,6.962e-05
206400000000,206700000000,2916101306,0,46274553,0.0001087,0.0002775,0.00388,0.0001431,0.00037,0.0002804,0,0,0.0009975,7.153e-05,17.54,0.08663,0,0,6.199e-05
206700000000,207000000000,2916101306,0,46274553,0.0001059,0.0002756,0.00388,0.0001431,0.00037,0.0002794,0,0,0.0006161,7.153e-05,15.05,0.07336,0,0,7.82e-05
207000000000,207300000000,2916101306,0,46274553,0.0001059,0.0002766,0.00388,0.0001431,0.00037,0.0002804,0,0,0.0005703,0,16.54,0.08083,0,0,0.0001841
207300000000,207600000000,2916101306,0,46274553,0.0001097,0.0002756,0.00388,0.0001431,0.00037,0.0002804,0,0,0.0004282,7.153e-05,10.57,0.04872,0,0,0.0001259
207600000000,207900000000,2916101306,0,46274553,0.0001116,0.0002766,0.00388,0.0001431,0.00037,0.0002804,0,0,0.0004349,0,7.584,0.03219,0,0,0.0001316
207900000000,208200000000,2916101306,0,46274553,0.0001097,0.0002756,0.00388,0.0001431,0.00037,0.0002804,0,0,0.0004044,7.153e-05,15.26,0.07284,0,0,5.15e-05
208200000000,208500000000,2916101306,0,46274553,0.0001068,0.0002785,0.00388,0.0001431,0.00037,0.0002813,0,0,0.0003471,7.153e-05,13.35,0.06193,0,0,0.000104
208500000000,208800000000,2916101306,0,46274553,0.0001059,0.0002756,0.00388,0.0001431,0.00037,0.0002794,0,0,0.0003395,7.153e-05,11.45,0.0528,0,0,0.0001106
208800000000,209100000000,2916101306,0,46274553,0.0001116,0.0002823,0.00388,0.0001431,0.00037,0.0002918,0,0,0.0008564,0,10.64,0.0487,0,0,5.245e-05
209100000000,209400000000,2916101306,0,46274553,0.0001163,0.0002766,0.00388,0.0001431,0.00037,0.0002804,0,0,0.0006208,7.153e-05,13.26,0.06027,0,0,0.000103
209400000000,209700000000,2916101306,0,46274553,0.0001211,0.0002766,0.00388,0.0001431,0.00037,0.0002813,0,0,0.000741,0,9.965,0.04477,0,0,6.58e-05
209700000000,210000000000,2916101306,0,46274553,0.0001211,0.0002756,0.00388,0.0001431,0.00037,0.0002804,0,0,0.0005016,7.153e-05,10.45,0.04704,0,0,8.583e-05
210000000000,210300000000,2916101306,0,46274553,0.0001192,0.0002766,0.00388,0.0001431,0.00037,0.0002804,0,0,0.0007048,0,12.3,0.0567,0,0,0.000124
210300000000,210600000000,2916101306,0,46274553,0.0001125,0.0002756,0.00388,0.0001431,0.00037,0.0002794,0,0,0.0004654,7.153e-05,8.914,0.03991,0,0,0.0001812
210600000000,210900000000,2916101306,0,46274553,0.0001202,0.0002766,0.00388,0.0001431,0.00037,0.0002804,0,0,0.000473,0,8.117,0.03504,0,0,0.0001059
210900000000,211200000000,2916101306,0,46274553,0.0001211,0.0002756,0.00388,0.0001431,0.00037,0.0002794,0,0,0.0004692,7.153e-05,9.004,0.03993,0,0,4.482e-05
211200000000,211500000000,2916101306,0,46274553,0.0001259,0.0002766,0.00388,0.0001431,0.00037,0.0002804,0,0,0.0004587,0,9.455,0.0415,0,0,0.000123
211500000000,211800000000,2916101306,0,46274553,0.0001287,0.0002747,0.00388,0.0001431,0.00037,0.0002794,0,0,0.000741,7.153e-05,13.09,0.0591,0,0,6.104e-05
211800000000,212100000000,2916101306,0,46274553,0.0001345,0.0002766,0.00388,0.0001431,0.00037,0.0002813,0,0,0.0005407,0,11.83,0.05295,0,0,0.0002508
212100000000,212400000000,2916101306,0,46274553,0.000124,0.0002747,0.00388,0.0001431,0.00037,0.0002794,0,0,0.0005226,7.153e-05,15.27,0.07276,0,0,0.0001974
212400000000,212700000000,2916101306,0,46274553,0.0001192,0.0002766,0.00388,0.0001431,0.00037,0.0002804,0,0,0.0004263,0,9.986,0.04472,0,0,9.155e-05
212700000000,213000000000,2916101306,0,46274553,0.0001259,0.0002747,0.00388,0.0001431,0.00037,0.0002794,9.537e-07,0,0.0005198,0.0002861,12.04,0.05548,0,0,0.0003195
213000000000,213300000000,2916101306,0,46274553,0.0001307,0.0002775,0.00388,0.0001431,0.00037,0.0002813,0,0,0.0007381,7.153e-05,10.96,0.04991,0,0,0.000104
213300000000,213600000000,2916101306,0,46274553,0.0001259,0.0002747,0.00388,0.0001431,0.00037,0.0002794,0,0,0.0005722,7.153e-05,13.73,0.0642,0,0,8.869e-05
213600000000,213900000000,2916101306,0,46274553,0.0001335,0.0002756,0.00388,0.0001431,0.00037,0.0002804,0,0,0.0009336,0,12.34,0.05551,0,0,3.91e-05
213900000000,214200000000,2916101306,0,46274553,0.000124,0.0002747,0.00388,0.0001431,0.00037,0.0002794,0,0,0.0004902,7.153e-05,13.92,0.06616,0,0,0.0001669
214200000000,214500000000,2916101306,0,46274553,0.000123,0.0002756,0.00388,0.0001431,0.00037,0.0002794,0,0,0.0009279,0,11.43,0.05398,0,0,6.676e-05
214500000000,214800000000,2916101306,0,46274553,0.0001211,0.0002794,0.00388,0.0001431,0.00037,0.0002909,0,0,0.000555,7.153e-05,11.75,0.05556,0,0,0.0001202
214800000000,215100000000,2916101306,0,46274553,0.0001192,0.0002766,0.00388,0.0001431,0.00037,0.0002804,0,0,0.0005646,0,11.27,0.05314,0,0,5.817e-05
215100000000,215400000000,2916101306,0,46274553,0.0001173,0.0002747,0.00388,0.0001431,0.00037,0.0002794,0,0,0.0005646,7.153e-05,10.65,0.04879,0,0,9.251e-05
215400000000,215700000000,2916101306,0,46274553,0.0001173,0.0002756,0.00388,0.0001431,0.00037,0.0002794,0,0,0.0006113,0,14.27,0.06874,0,0,0.000144
215700000000,216000000000,2916101306,0,46274553,0.0001116,0.0002747,0.00388,0.0001431,0.00037,0.0002794,0,0,0.000494,7.153e-05,15.79,0.07686,0,0,0.000494
216000000000,216300000000,2916101306,0,46274553,0.0001087,0.0002775,0.00388,0.0001431,0.00037,0.0002794,0,0,0.0004578,7.153e-05,21.39,0.1057,0,0,8.392e-05
221100000000,221400000000,2916101306,0,46274553,0.0001097,0.0002737,0.00388,0.000144,0.000371,0.0002785,0,0,0.001606,7.153e-05,8.639,0.03855,0,0,5.627e-05
221400000000,221700000000,2916101306,0,46274553,0.000104,0.0002756,0.00388,0.000144,0.000371,0.0002785,0,0,0.001162,0,15.66,0.07453,0,0,0.0001402
221700000000,222000000000,2916101306,0,46274553,0.0001087,0.0002737,0.00388,0.000144,0.000371,0.0002785,0,0,0.0004091,7.153e-05,12.03,0.05508,0,0,8.583e-05
222000000000,222300000000,2916101306,0,46274553,0.0001116,0.0002747,0.00388,0.000144,0.000371,0.0002794,0,0,0.0005064,0,16.04,0.07572,0,0,0.0002565
222300000000,222600000000,2916101306,0,46274553,0.0001097,0.0002737,0.00388,0.000144,0.000371,0.0002785,0,0,0.0004606,7.153e-05,12.43,0.05658,0,0,9.346e-05
222600000000,222900000000,2916101306,0,46274553,0.0001106,0.0002747,0.00388,0.000144,0.000371,0.0002785,0,0,0.0006304,0,16.12,0.07537,0,0,4.292e-05
222900000000,223200000000,2916101306,0,46274553,0.0001116,0.0002737,0.00388,0.000144,0.000371,0.0002785,0,0,0.0006838,7.153e-05,9.924,0.04661,0,0,0.0005293
223200000000,223500000000,2916101306,0,46274553,0.0001116,0.0002747,0.00388,0.000144,0.000371,0.0002785,0,0,0.0007238,0,12.2,0.058,0,0,7.343e-05
223500000000,223800000000,2916101306,0,46274553,0.0001144,0.0002737,0.00388,0.000144,0.000371,0.0002785,0,0,0.0005569,7.153e-05,11.55,0.0542,0,0,0.0001192
223800000000,224100000000,2916101306,0,46274553,0.0001154,0.0002747,0.00388,0.000144,0.000371,0.0002785,0,0,0.0004578,0,11.67,0.05419,0,0,4.482e-05
224100000000,224400000000,2916101306,0,46274553,0.0001116,0.0002737,0.00388,0.000144,0.000371,0.0002785,0,0,0.0003853,7.153e-05,11.47,0.05253,0,0,8.392e-05
224400000000,224700000000,2916101306,0,46274553,0.0001106,0.0002747,0.00388,0.000144,0.000371,0.0002785,0,0,0.0004425,0,10.92,0.05065,0,0,8.106e-05
224700000000,225000000000,2916101306,0,46274553,0.0001116,0.0002737,0.00388,0.000144,0.000371,0.0002785,0,0,0.0004578,7.153e-05,13.86,0.06481,0,0,8.202e-05
225000000000,225300000000,2916101306,0,46274553,0.0001173,0.0002747,0.00388,0.000144,0.000371,0.0002794,0,0,0.0004187,0,12.54,0.0586,0,0,0.000205
225300000000,225600000000,2916101306,0,46274553,0.0001173,0.0002785,0.00388,0.000144,0.000371,0.0002899,0,0,0.0006056,7.153e-05,13.69,0.06432,0,0,8.678e-05
225600000000,225900000000,2916101306,0,46274553,0.0001192,0.0002756,0.00388,0.000144,0.000371,0.0002785,0,0,0.000658,0,11.57,0.05215,0,0,0.0001402
225900000000,226200000000,2916101306,0,46274553,0.0001097,0.0002737,0.00388,0.000144,0.000371,0.0002785,0,0,0.0008144,7.153e-05,12.87,0.06076,0,0,0.0001593
226200000000,226500000000,2916101306,0,46274553,0.0001087,0.0002794,0.00388,0.000144,0.000371,0.0002842,9.537e-07,0,0.00106,7.153e-05,13.45,0.0658,0,0,0.000104
226500000000,226800000000,2916101306,0,46274553,0.0001078,0.0002775,0.00388,0.000144,0.000371,0.0002823,3.815e-06,0,0.0008039,0.0008574,8.481,0.03927,0,0,0.0001316
226800000000,227100000000,2916101306,0,46274553,0.0001068,0.0002766,0.00388,0.000144,0.000371,0.0002813,9.537e-07,0,0.0009165,0.0002146,9.845,0.0452,0,0,0.0001049
227100000000,227400000000,2916101306,0,46274553,0.0001068,0.0002737,0.00388,0.000144,0.000371,0.0002785,0,0,0.0006809,7.153e-05,13.48,0.06572,0,0,8.774e-05
227400000000,227700000000,2916101306,0,46274553,0.0001078,0.0002756,0.00388,0.000144,0.000371,0.0002785,1.907e-06,0,0.0005445,0.0004282,12.32,0.05957,0,0,0.0001764
227700000000,228000000000,2916101306,0,46274553,0.0001097,0.0002737,0.00388,0.000144,0.000371,0.0002785,0,0,0.0006304,7.153e-05,10.41,0.049,0,0,5.054e-05
228000000000,228300000000,2916101306,0,46274553,0.0001154,0.0002747,0.00388,0.000144,0.000371,0.0002785,0,0,0.0005445,0,13.33,0.06403,0,0,5.15e-05
228300000000,228600000000,2916101306,0,46274553,0.0001135,0.0002728,0.00388,0.000144,0.000371,0.0002775,0,0,0.0004883,7.153e-05,17.3,0.08577,0,0,0.0001364
228600000000,228900000000,2916101306,0,46274553,0.0001144,0.0002766,0.00388,0.000144,0.000371,0.0002794,0,0,0.000392,7.153e-05,19.9,0.09913,0,0,8.869e-05
228900000000,229200000000,2916101306,0,46274553,0.0001173,0.0002737,0.00388,0.000144,0.000371,0.0002775,0,0,0.00104,7.153e-05,13.83,0.0666,0,0,0.0001545
229200000000,229500000000,2916101306,0,46274553,0.0001135,0.0002747,0.00388,0.000144,0.000371,0.0002794,0,0,0.0005808,0,10.07,0.04694,0,0,6.008e-05
229500000000,229800000000,2916101306,0,46274553,0.0001087,0.0002737,0.00388,0.000144,0.000371,0.0002785,0,0,0.000495,0.0001431,10.7,0.0506,0,0,6.771e-05
229800000000,230100000000,2916101306,0,46274553,0.0001097,0.0002747,0.00388,0.000144,0.000371,0.0002785,0,0,0.0005798,0,9.255,0.04332,0,0,0.0001087
230100000000,230400000000,2916101306,0,46274553,0.0001059,0.0002737,0.00388,0.000144,0.000371,0.0002775,0,0,0.0005436,7.153e-05,8.942,0.04174,0,0,8.583e-05
230400000000,230700000000,2916101306,0,46274553,0.0001078,0.0002794,0.00388,0.000144,0.000371,0.0002899,0,0,0.0004349,0,9.814,0.04637,0,0,0.0001411
230700000000,231000000000,2916101306,0,46274553,0.0001125,0.0002766,0.00388,0.000144,0.000371,0.0002813,3.815e-06,0,0.0005312,0.0008574,8.325,0.03818,0,0,7.82e-05
231000000000,231300000000,2916101306,0,46274553,0.0001163,0.0002747,0.00388,0.000144,0.000371,0.0002813,0,0,0.0009289,0,13.16,0.06286,0,0,0.0001497
231300000000,231600000000,2916101306,0,46274553,0.0001173,0.0002737,0.00388,0.000144,0.000371,0.0002785,0,0,0.0008488,7.153e-05,12.73,0.06063,0,0,4.005e-05
231600000000,231900000000,2916101306,0,46274553,0.0001211,0.0002747,0.00388,0.000144,0.000371,0.0002785,0,0,0.0005407,0,10.49,0.04721,0,0,8.106e-05
231900000000,232200000000,2916101306,0,46274553,0.0001183,0.0002728,0.00388,0.000144,0.000371,0.0002775,0,0,0.0006027,7.153e-05,11.19,0.05179,0,0,5.531e-05
232200000000,232500000000,2916101306,0,46274553,0.0001154,0.0002747,0.00388,0.000144,0.000371,0.0002785,0,0,0.0004749,0,11.32,0.05264,0,0,5.054e-05
232500000000,232800000000,2916101306,0,46274553,0.0001087,0.0002728,0.00388,0.000144,0.000371,0.0002775,0,0,0.0004807,7.153e-05,13.55,0.0647,0,0,4.101e-05
232800000000,233100000000,2916101306,0,46274553,0.0001087,0.0002737,0.00388,0.000144,0.000371,0.0002775,0,0,0.0003519,0,10.92,0.05176,0,0,5.054e-05
233100000000,233400000000,2916101306,0,46274553,0.0001078,0.0002728,0.00388,0.000144,0.000371,0.0002775,0,0,0.0005674,7.153e-05,12.35,0.05906,0,0,4.673e-05
233400000000,233700000000,2916101306,0,46274553,0.0001135,0.0002737,0.00388,0.000144,0.000371,0.0002775,0,0,0.0004454,0,14.14,0.06744,0,0,0.0001183
233700000000,234000000000,2916101306,0,46274553,0.0001125,0.0002728,0.00388,0.000144,0.000371,0.0002775,0,0,0.0008192,7.153e-05,11.5,0.05362,0,0,0.0002804
234000000000,234300000000,2916101306,0,46274553,0.0001125,0.0002737,0.00388,0.000144,0.000371,0.0002785,0,0,0.0008993,0,10.07,0.04533,0,0,8.488e-05
234300000000,234600000000,2916101306,0,46274553,0.0001097,0.0002728,0.00388,0.000144,0.000371,0.0002775,0,0,0.0006142,7.153e-05,9.319,0.04276,0,0,6.39e-05
234600000000,234900000000,2916101306,0,46274553,0.0001068,0.0002737,0.00388,0.000144,0.000371,0.0002775,0,0,0.0004845,0,11.54,0.05516,0,0,3.529e-05
234900000000,235200000000,2916101306,0,46274553,0.0001135,0.0002728,0.00388,0.000144,0.000371,0.0002775,0,0,0.0004692,7.153e-05,12.19,0.05872,0,0,5.817e-05
235200000000,235500000000,2916101306,0,46274553,0.0001163,0.0002756,0.00388,0.000144,0.000371,0.0002785,0,0,0.0009918,7.153e-05,10.41,0.04856,0,0,3.719e-05
235500000000,235800000000,2916101306,0,46274553,0.0001173,0.0002718,0.00388,0.000144,0.000371,0.0002766,1.907e-06,0,0.0005884,0.0004997,11.44,0.05319,0,0,8.011e-05
235800000000,236100000000,2916101306,0,46274553,0.0001183,0.0002737,0.00388,0.000144,0.000371,0.0002775,0,0,0.0006399,0,13.36,0.06411,0,0,0.0006008
236100000000,236400000000,2916101306,0,46274553,0.0001125,0.0002775,0.00388,0.000144,0.000371,0.000288,0,0,0.0005455,7.153e-05,9.479,0.04369,0,0,0.0001678
241200000000,241500000000,2916101306,0,1270817,0.0001507,0.0002613,0.00388,5.15e-05,0.0002785,0.0002699,3.815e-06,0,0.0008821,0.0002861,13.45,0.05659,0,0,0.0001678
241500000000,241800000000,2916101306,0,1270817,0.0001154,0.0002565,0.00388,5.15e-05,0.0002785,0.0002594,0,0,0.000576,7.153e-05,10.76,0.04372,0,0,4.482e-05
241800000000,242100000000,2916101306,0,1270817,0.000102,0.0002575,0.00388,5.15e-05,0.0002785,0.0002632,9.537e-07,0,0.0003595,7.153e-05,9.143,0.04035,0,0,6.008e-05
242100000000,242400000000,2916101306,0,1270817,0.0001001,0.0002546,0.00388,5.15e-05,0.0002785,0.0002584,0,0,0.0005274,7.153e-05,8.75,0.03743,0,0,4.101e-05
242400000000,242700000000,2916101306,0,1270817,0.0001049,0.0002575,0.00388,5.15e-05,0.0002785,0.0002594,0,0,0.0003872,7.153e-05,9.722,0.04298,0,0,0.0002031
242700000000,243000000000,2916101306,0,1270817,0.0001001,0.0002537,0.00388,5.15e-05,0.0002785,0.0002546,0,0,0.0004835,0,8.626,0.03679,0,0,4.196e-05
243000000000,243300000000,2916101306,0,1270817,9.537e-05,0.0002565,0.00388,5.15e-05,0.0002785,0.0002594,0,0,0.0004587,7.153e-05,8.12,0.03445,0,0,4.959e-05
243300000000,243600000000,2916101306,0,1270817,0.0001001,0.0002537,0.00388,5.15e-05,0.0002785,0.0002537,0,0,0.0004168,0,9.023,0.03952,0,0,2.956e-05
243600000000,243900000000,2916101306,0,1270817,0.0001087,0.0002594,0.00388,5.15e-05,0.0002785,0.0002737,0,0,0.00107,7.153e-05,8.451,0.03594,0,0,9.251e-05
243900000000,244200000000,2916101306,0,1270817,0.0001154,0.0002575,0.00388,5.15e-05,0.0002785,0.0002699,0,0,0.0004196,7.153e-05,8.513,0.03617,0,0,4.864e-05
244200000000,244500000000,2916101306,0,1270817,0.0001259,0.0002575,0.00388,5.15e-05,0.0002785,0.0002632,0,0,0.0004873,7.153e-05,9.65,0.04176,0,0,4.578e-05
244500000000,244800000000,2916101306,0,1270817,0.0001249,0.0002537,0.00388,5.15e-05,0.0002785,0.0002537,0,0,0.0006475,0,9.733,0.04071,0,0,4.482e-05
244800000000,245100000000,2916101306,0,1270817,0.000103,0.0002565,0.00388,5.15e-05,0.0002785,0.0002604,0,0,0.001678,7.153e-05,8.076,0.0355,0,0,5.15e-05
245100000000,245400000000,2916101306,0,1270817,0.0001078,0.0002546,0.00388,5.15e-05,0.0002785,0.0002546,0,0,0.0009203,0,8.737,0.03851,0,0,0.0001116
245400000000,245700000000,2916101306,0,1270817,9.727e-05,0.0002565,0.00388,5.15e-05,0.0002785,0.0002604,0,0,0.0007448,7.153e-05,8.789,0.03954,0,0,8.011e-05
245700000000,246000000000,2916101306,0,1270817,0.0001278,0.0002546,0.00388,5.15e-05,0.0002785,0.0002546,0,0,0.001162,0,12.33,0.05184,0,0,6.008e-05
246000000000,246300000000,2916101306,0,1270817,0.0001316,0.0002565,0.00388,5.15e-05,0.0002785,0.0002604,0,0,0.0006456,7.153e-05,11.32,0.04475,0,0,0.0001221
251400000000,251700000000,2916101306,0,1270817,0.0001116,0.0002565,0.00388,5.245e-05,0.0002794,0.0002594,5.722e-06,0,0.0006151,0.001715,8.244,0.03552,0,0,0.0001955
251700000000,252000000000,2916101306,0,1270817,0.0001144,0.0002546,0.00388,5.245e-05,0.0002794,0.0002546,0,0,0.000824,0,8.42,0.03546,0,0,2.956e-05
252900000000,253200000000,2916101306,0,5781890,0.000164,0.0002794,0.003876,4.959e-05,0.0002794,0.0002937,9.537e-07,0,0.007118,0.0001431,10.89,0.05846,0,0,4.101e-05
253200000000,253500000000,2916101306,0,5781890,0.0001469,0.0002708,0.003876,4.959e-05,0.0002804,0.0002718,0,0,0.0005188,0,8.013,0.04108,0,0,4.959e-05
253500000000,253800000000,2916101306,0,5781890,0.0001373,0.000268,0.003876,4.959e-05,0.0002804,0.0002737,9.537e-07,0,0.0003567,0.0002861,7.074,0.03616,0,0,4.959e-05
253800000000,254100000000,2916101306,0,5781890,0.0001364,0.0002642,0.003876,4.959e-05,0.0002804,0.0002651,0,0,0.0004234,0,6.946,0.03568,0,0,0.0001345
254100000000,254400000000,2916101306,0,5781890,9.251e-05,0.0002708,0.003876,4.959e-05,0.0002804,0.0002794,4.768e-06,0,0.0004263,0.0007143,5.175,0.02438,0,0,4.005e-05
254400000000,254700000000,2916101306,0,5781890,7.439e-05,0.0002651,0.003876,4.959e-05,0.0002804,0.0002661,0,0,0.0004358,0,4.713,0.02217,0,0,3.052e-05
254700000000,255000000000,2916101306,0,5781890,7.629e-05,0.0002699,0.003876,4.959e-05,0.0002804,0.0002728,9.537e-07,0,0.00256,0.0001431,5.063,0.02376,0,0,3.815e-05
255000000000,255300000000,2916101306,0,5781890,7.82e-05,0.0002651,0.003876,4.959e-05,0.0002804,0.000267,0,0,0.0003958,0,5.026,0.02328,0,0,5.531e-05
255300000000,255600000000,2916101306,0,5781890,7.82e-05,0.000268,0.003876,4.959e-05,0.0002804,0.0002708,0,0,0.000289,7.153e-05,4.645,0.02116,0,0,5.531e-05
255600000000,255900000000,2916101306,0,5781890,8.106e-05,0.0002708,0.003876,4.959e-05,0.0002804,0.0002747,9.537e-07,0,0.0003395,7.153e-05,5.136,0.0239,0,0,2.766e-05
255900000000,256200000000,2916101306,0,5781890,8.392e-05,0.0002689,0.003876,4.959e-05,0.0002804,0.0002728,9.537e-07,0,0.0002632,0.0001431,5.526,0.02522,0,0,4.768e-05
256200000000,256500000000,2916101306,0,5781890,8.297e-05,0.0002699,0.003876,4.959e-05,0.0002804,0.0002813,0,0,0.0003757,7.153e-05,5.114,0.02294,0,0,4.864e-05
256500000000,256800000000,2916101306,0,5781890,8.392e-05,0.0002708,0.003876,4.959e-05,0.0002804,0.0002842,0,0,0.0003519,7.153e-05,5.323,0.02468,0,0,5.436e-05
256800000000,257100000000,2916101306,0,5781890,8.106e-05,0.0002708,0.003876,4.959e-05,0.0002804,0.0002861,0,0,0.0003662,7.153e-05,4.61,0.02062,0,0,4.196e-05
257100000000,257400000000,2916101306,0,5781890,8.011e-05,0.000267,0.003876,4.959e-05,0.0002804,0.0002699,0,0,0.0002956,7.153e-05,4.821,0.02239,0,0,5.245e-05
257400000000,257700000000,2916101306,0,5781890,7.915e-05,0.0002651,0.003876,4.959e-05,0.0002804,0.0002661,0,0,0.0002413,0,4.945,0.02313,0,0,5.817e-05
257700000000,258000000000,2916101306,0,5781890,8.106e-05,0.000268,0.003876,4.959e-05,0.0002804,0.0002708,9.537e-07,0,0.0004625,0.0001431,4.989,0.02322,0,0,3.719e-05
258000000000,258300000000,2916101306,0,5781890,8.011e-05,0.000267,0.003876,4.959e-05,0.0002804,0.0002699,0,0,0.0004387,0,5.388,0.0257,0,0,3.719e-05
258300000000,258600000000,2916101306,0,5781890,8.202e-05,0.000268,0.003876,4.959e-05,0.0002804,0.0002708,0,0,0.0003176,7.153e-05,5.214,0.02431,0,0,9.346e-05
258600000000,258900000000,2916101306,0,5781890,8.869e-05,0.0002651,0.003876,4.959e-05,0.0002804,0.0002651,0,0,0.0002823,0,4.862,0.0225,0,0,9.155e-05
258900000000,259200000000,2916101306,0,5781890,8.488e-05,0.000268,0.003876,4.959e-05,0.0002804,0.0002708,0,0,0.000371,7.153e-05,5.437,0.02471,0,0,0.0001631
259200000000,259500000000,2916101306,0,5781890,8.678e-05,0.0002661,0.003876,4.959e-05,0.0002804,0.000267,0,0,0.0004873,0,5.815,0.0271,0,0,6.294e-05
259500000000,259800000000,2916101306,0,5781890,8.774e-05,0.000267,0.003876,4.959e-05,0.0002804,0.0002708,0,0,0.0003366,7.153e-05,5.419,0.02486,0,0,8.488e-05
259800000000,260100000000,2916101306,0,5781890,8.965e-05,0.0002651,0.003876,4.959e-05,0.0002804,0.0002661,0,0,0.001043,0,5.633,0.02635,0,0,9.441e-05
260100000000,260400000000,2916101306,0,5781890,8.965e-05,0.0002689,0.003876,4.959e-05,0.0002804,0.0002737,9.537e-07,0,0.001318,0.0001431,5.987,0.02781,0,0,7.82e-05
260400000000,260700000000,2916101306,0,5781890,8.488e-05,0.0002651,0.003876,4.959e-05,0.0002804,0.000268,0,0,0.0003023,0,5.815,0.02702,0,0,5.436e-05
260700000000,261000000000,2916101306,0,5781890,8.488e-05,0.000267,0.003876,4.959e-05,0.0002804,0.0002708,0,0,0.000246,7.153e-05,6.026,0.02846,0,0,4.959e-05
261000000000,261300000000,2916101306,0,5781890,8.774e-05,0.0002651,0.003876,4.959e-05,0.0002804,0.0002661,0,0,0.0003691,0,6.326,0.0297,0,0,2.956e-05
261300000000,261600000000,2916101306,0,5781890,9.06e-05,0.000267,0.003876,4.959e-05,0.0002804,0.0002708,0,0,0.0003595,7.153e-05,5.639,0.02573,0,0,9.155e-05
261600000000,261900000000,2916101306,0,5781890,8.869e-05,0.0002651,0.003876,4.959e-05,0.0002804,0.0002651,0,0,0.0004435,0,6.063,0.02827,0,0,5.245e-05
261900000000,262200000000,2916101306,0,5781890,8.869e-05,0.000267,0.003876,4.959e-05,0.0002804,0.0002708,0,0,0.0003777,7.153e-05,5.479,0.02482,0,0,0.0001574
262200000000,262500000000,2916101306,0,5781890,8.869e-05,0.0002651,0.003876,4.959e-05,0.0002804,0.0002661,0,0,0.0003624,0,6.298,0.02951,0,0,5.341e-05
262500000000,262800000000,2916101306,0,5781890,8.678e-05,0.0002718,0.003876,4.959e-05,0.0002804,0.0002813,0,0,0.00033,7.153e-05,5.064,0.02254,0,0,0.0001631
262800000000,263100000000,2916101306,0,5781890,8.678e-05,0.0002708,0.003876,4.959e-05,0.0002804,0.0002842,0,0,0.0002785,0,5.491,0.02526,0,0,4.578e-05
263100000000,263400000000,2916101306,0,5781890,8.678e-05,0.000267,0.003876,4.959e-05,0.0002804,0.0002708,0,0,0.0002689,7.153e-05,5.219,0.02362,0,0,0.0001173
263400000000,263700000000,2916101306,0,5781890,9.06e-05,0.0002651,0.003876,4.959e-05,0.0002804,0.0002661,0,0,0.0005245,0,5.587,0.02535,0,0,8.392e-05
263700000000,264000000000,2916101306,0,5781890,8.869e-05,0.000267,0.003876,4.959e-05,0.0002804,0.0002699,0,0,0.0004797,7.153e-05,5.829,0.02755,0,0,6.771e-05
264000000000,264300000000,2916101306,0,5781890,8.583e-05,0.0002651,0.003876,4.959e-05,0.0002804,0.000267,0,0,0.00035,0,5.951,0.02795,0,0,0.0001898
264300000000,264600000000,2916101306,0,5781890,8.583e-05,0.000267,0.003876,4.959e-05,0.0002804,0.0002699,0,0,0.0004759,7.153e-05,5.544,0.02524,0,0,5.531e-05
264600000000,264900000000,2916101306,0,5781890,8.774e-05,0.000267,0.003876,4.959e-05,0.0002804,0.0002699,0,0,0.000391,7.153e-05,5.526,0.02549,0,0,3.052e-05
264900000000,265200000000,2916101306,0,5781890,8.869e-05,0.000268,0.003876,4.959e-05,0.0002804,0.0002708,9.537e-07,0,0.0004139,0.0001431,5.897,0.02773,0,0,8.678e-05
265200000000,265500000000,2916101306,0,5781890,8.965e-05,0.0002708,0.003876,4.959e-05,0.0002813,0.0002728,9.537e-07,0,0.0006971,7.153e-05,6.129,0.02886,0,0,4.959e-05
265500000000,265800000000,2916101306,0,5781890,9.06e-05,0.0002689,0.003876,4.959e-05,0.0002813,0.0002737,9.537e-07,0,0.0006075,0.0001431,5.925,0.02799,0,0,0.0004616
265800000000,266100000000,2916101306,0,5781890,8.869e-05,0.000267,0.003876,4.959e-05,0.0002813,0.0002699,0,0,0.0006399,0.0001431,5.581,0.02542,0,0,0.000165
266100000000,266400000000,2916101306,0,5781890,8.869e-05,0.000267,0.003876,4.959e-05,0.0002813,0.0002708,0,0,0.0006762,7.153e-05,5.581,0.02537,0,0,3.91e-05
266400000000,266700000000,2916101306,0,5781890,8.965e-05,0.000267,0.003876,4.959e-05,0.0002813,0.0002699,0,0,0.0007458,7.153e-05,6.044,0.02804,0,0,0.0002089
266700000000,267000000000,2916101306,0,5781890,8.869e-05,0.000267,0.003876,4.959e-05,0.0002813,0.0002708,0,0,0.0007591,7.153e-05,5.799,0.02701,0,0,0.0001383
267000000000,267300000000,2916101306,0,5781890,8.965e-05,0.0002699,0.003876,4.959e-05,0.0002813,0.0002813,0,0,0.0007629,0,6.198,0.02859,0,0,0.0002632
267300000000,267600000000,2916101306,0,5781890,8.869e-05,0.0002718,0.003876,4.959e-05,0.0002813,0.0002842,0,0,0.0007019,7.153e-05,5.653,0.02582,0,0,0.0005989
267600000000,267900000000,2916101306,0,5781890,9.06e-05,0.000267,0.003876,4.959e-05,0.0002813,0.0002823,0,0,0.0006161,0,5.818,0.02725,0,0,0.000535
267900000000,268200000000,2916101306,0,5781890,9.06e-05,0.0002689,0.003876,4.959e-05,0.0002813,0.0002718,9.537e-07,0,0.0006981,0.0001431,6.049,0.02879,0,0,2.289e-05
268200000000,268500000000,2916101306,0,5781890,8.869e-05,0.0002651,0.003876,4.959e-05,0.0002813,0.0002661,0,0,0.0006428,0,5.571,0.02552,0,0,0.0001783
268500000000,268800000000,2916101306,0,5781890,8.583e-05,0.000267,0.003876,4.959e-05,0.0002813,0.0002708,0,0,0.000659,7.153e-05,5.332,0.02433,0,0,0.0005188
268800000000,269100000000,2916101306,0,5781890,8.583e-05,0.0002651,0.003876,4.959e-05,0.0002813,0.0002651,0,0,0.000699,0,5.374,0.02447,0,0,8.678e-05
269100000000,269400000000,2916101306,0,5781890,8.583e-05,0.000267,0.003876,4.959e-05,0.0002813,0.0002708,0,0,0.0006409,7.153e-05,5.579,0.02604,0,0,2.861e-05
269400000000,269700000000,2916101306,0,5781890,8.678e-05,0.0002651,0.003876,4.959e-05,0.0002813,0.0002661,0,0,0.0008478,0,5.235,0.02379,0,0,4.578e-05
269700000000,270000000000,2916101306,0,5781890,8.678e-05,0.000268,0.003876,4.959e-05,0.0002813,0.0002718,9.537e-07,0,0.0006542,0.0001431,5.603,0.02579,0,0,5.15e-05
270000000000,270300000000,2916101306,0,5781890,8.488e-05,0.0002708,0.003876,4.959e-05,0.0002813,0.0002728,9.537e-07,0,0.000701,7.153e-05,6.131,0.02885,0,0,0.000104
270300000000,270600000000,2916101306,0,5781890,8.774e-05,0.0002689,0.003876,4.959e-05,0.0002813,0.0002747,9.537e-07,0,0.0007553,0.0001431,5.596,0.02592,0,0,0.0005131
270600000000,270900000000,2916101306,0,5781890,8.583e-05,0.000267,0.003876,4.959e-05,0.0002813,0.0002699,0,0,0.0007296,7.153e-05,6.224,0.02899,0,0,0.0001011
270900000000,271200000000,2916101306,0,5781890,8.488e-05,0.000268,0.003876,4.959e-05,0.0002813,0.0002708,0,0,0.0006685,7.153e-05,5.826,0.02727,0,0,0.0006275
271200000000,271500000000,2916101306,0,5781890,8.583e-05,0.0002651,0.003876,4.959e-05,0.0002813,0.0002651,0,0,0.0006247,0,5.488,0.02548,0,0,4.101e-05
281400000000,281700000000,2916101306,0,5781890,9.06e-05,0.000267,0.003876,5.054e-05,0.0002842,0.000267,0,0,0.0003738,0,7.032,0.03367,0,0,5.054e-05
281700000000,282000000000,2916101306,0,5781890,9.251e-05,0.0002689,0.003876,5.054e-05,0.0002842,0.0002718,0,0,0.0006409,7.153e-05,6.804,0.03283,0,0,4.196e-05
282000000000,282300000000,2916101306,0,5781890,0.0001001,0.0002689,0.003876,5.054e-05,0.0002842,0.0002737,0,0,0.0005245,7.153e-05,7.334,0.03468,0,0,0.0001764
282300000000,282600000000,2916101306,0,5781890,9.727e-05,0.0002689,0.003876,5.054e-05,0.0002842,0.0002718,0,0,0.0004349,7.153e-05,8.235,0.04015,0,0,3.529e-05
282600000000,282900000000,2916101306,0,5781890,9.918e-05,0.000267,0.003876,5.054e-05,0.0002842,0.000268,0,0,0.0003643,0,7.208,0.03415,0,0,5.15e-05
282900000000,283200000000,2916101306,0,5781890,9.251e-05,0.0002699,0.003876,5.054e-05,0.0002842,0.0002728,9.537e-07,0,0.0003967,7.153e-05,6.735,0.03196,0,0,3.815e-05
283200000000,283500000000,2916101306,0,5781890,9.727e-05,0.000268,0.003876,5.054e-05,0.0002842,0.0002708,0,0,0.0003691,0,6.045,0.02797,0,0,4.768e-05
283500000000,283800000000,2916101306,0,5781890,0.000103,0.0002689,0.003876,5.054e-05,0.0002842,0.0002718,9.537e-07,0,0.0007372,0.0002146,8.757,0.04278,0,0,3.624e-05
283800000000,284100000000,2916101306,0,5781890,0.000103,0.0002708,0.003876,5.054e-05,0.0002842,0.0002842,0,0,0.0004444,0,7.94,0.03907,0,0,4.005e-05
284100000000,284400000000,2916101306,0,5781890,0.000103,0.0002728,0.003876,5.054e-05,0.0002842,0.0002861,0,0,0.0004854,7.153e-05,8.205,0.03999,0,0,7.725e-05
284400000000,284700000000,2916101306,0,5781890,0.0001001,0.0002699,0.003876,5.054e-05,0.0002842,0.0002861,0,0,0.0005875,0,7.524,0.0361,0,0,0.000123
284700000000,285000000000,2916101306,0,5781890,0.000104,0.0002689,0.003876,5.054e-05,0.0002842,0.0002728,0,0,0.0007296,7.153e-05,7.597,0.03625,0,0,0.0003195
285000000000,285300000000,2916101306,0,5781890,9.918e-05,0.000267,0.003876,5.054e-05,0.0002842,0.000268,0,0,0.0004206,0,8.002,0.03864,0,0,0.0001173
285300000000,285600000000,2916101306,0,5781890,9.346e-05,0.0002689,0.003876,5.054e-05,0.0002842,0.0002718,0,0,0.0003643,7.153e-05,6.733,0.0323,0,0,0.0001059
285600000000,285900000000,2916101306,0,5781890,9.155e-05,0.0002661,0.003876,5.054e-05,0.0002842,0.0002661,0,0,0.0003433,0,6.08,0.02888,0,0,0.000227
285900000000,286200000000,2916101306,0,5781890,9.346e-05,0.0002689,0.003876,5.054e-05,0.0002842,0.0002718,0,0,0.0002985,7.153e-05,5.83,0.02726,0,0,4.864e-05
286200000000,286500000000,2916101306,0,5781890,9.155e-05,0.0002661,0.003876,5.054e-05,0.0002842,0.000267,0,0,0.0003185,0,6.675,0.03246,0,0,0.0001059
286500000000,286800000000,2916101306,0,5781890,8.678e-05,0.000268,0.003876,5.054e-05,0.0002842,0.0002718,0,0,0.0004015,7.153e-05,6.093,0.02965,0,0,9.251e-05
286800000000,287100000000,2916101306,0,5781890,8.965e-05,0.0002661,0.003876,5.054e-05,0.0002842,0.0002661,0,0,0.0003042,0,5.99,0.02795,0,0,0.0001116
287100000000,287400000000,2916101306,0,5781890,8.869e-05,0.000268,0.003876,5.054e-05,0.0002842,0.0002718,0,0,0.0003357,7.153e-05,6.61,0.03203,0,0,2.003e-05
287400000000,287700000000,2916101306,0,5781890,8.965e-05,0.0002661,0.003876,5.054e-05,0.0002842,0.000267,0,0,0.0005589,0,6.869,0.03368,0,0,2.003e-05
287700000000,288000000000,2916101306,0,5781890,9.346e-05,0.000268,0.003876,5.054e-05,0.0002842,0.0002718,0,0,0.0003958,7.153e-05,6.97,0.0338,0,0,2.67e-05
288000000000,288300000000,2916101306,0,5781890,9.346e-05,0.0002661,0.003876,5.054e-05,0.0002842,0.000268,0,0,0.000514,0,6.844,0.03311,0,0,7.343e-05
288300000000,288600000000,2916101306,0,5781890,9.346e-05,0.000268,0.003876,5.054e-05,0.0002842,0.0002718,0,0,0.0005074,7.153e-05,6.275,0.02971,0,0,9.155e-05
288600000000,288900000000,2916101306,0,5781890,9.06e-05,0.0002708,0.003876,5.054e-05,0.0002842,0.0002832,0,0,0.0002794,0,6.629,0.03234,0,0,3.242e-05
288900000000,289200000000,2916101306,0,5781890,9.251e-05,0.0002737,0.003876,5.054e-05,0.0002842,0.0002899,0,0,0.0003042,7.153e-05,6.031,0.02826,0,0,3.719e-05
289200000000,289500000000,2916101306,0,5781890,8.869e-05,0.000268,0.003876,5.054e-05,0.0002842,0.0002708,0,0,0.0003052,7.153e-05,6.374,0.02996,0,0,7.439e-05
289500000000,289800000000,2916101306,0,5781890,8.965e-05,0.0002689,0.003876,5.054e-05,0.0002842,0.0002718,0,0,0.0003433,7.153e-05,6.237,0.02997,0,0,3.529e-05
289800000000,290100000000,2916101306,0,5781890,9.155e-05,0.0002661,0.003876,5.054e-05,0.0002842,0.000267,0,0,0.0004873,0,6.835,0.03295,0,0,4.101e-05
290100000000,290400000000,2916101306,0,5781890,9.155e-05,0.000268,0.003876,5.054e-05,0.0002842,0.0002718,0,0,0.0003653,7.153e-05,6.697,0.03247,0,0,8.297e-05
290400000000,290700000000,2916101306,0,5781890,9.251e-05,0.0002661,0.003876,5.054e-05,0.0002842,0.0002661,0,0,0.0003624,0,6.692,0.03167,0,0,4.482e-05
290700000000,291000000000,2916101306,0,5781890,9.06e-05,0.000268,0.003876,5.054e-05,0.0002842,0.0002718,0,0,0.0004234,7.153e-05,6.725,0.03292,0,0,6.676e-05
291000000000,291300000000,2916101306,0,5781890,9.06e-05,0.0002661,0.003876,5.054e-05,0.0002842,0.000267,0,0,0.0009403,0,7.075,0.03464,0,0,0.0003233
291300000000,291600000000,2916101306,0,5781890,8.965e-05,0.000268,0.003876,5.054e-05,0.0002842,0.0002718,0,0,0.0003195,7.153e-05,6.662,0.03162,0,0,3.242e-05
291600000000,291900000000,2916101306,0,5781890,8.869e-05,0.0002661,0.003876,5.054e-05,0.0002842,0.000267,0,0,0.0004644,0,6.439,0.0314,0,0,0.0001698
291900000000,292200000000,2916101306,0,5781890,9.06e-05,0.0002689,0.003876,5.054e-05,0.0002842,0.0002718,0,0,0.0003204,7.153e-05,6.406,0.03125,0,0,6.39e-05
292200000000,292500000000,2916101306,0,5781890,9.06e-05,0.000267,0.003876,5.054e-05,0.0002842,0.000267,0,0,0.0006971,0,6.533,0.0312,0,0,8.106e-05
292500000000,292800000000,2916101306,0,5781890,8.869e-05,0.000268,0.003876,5.054e-05,0.0002842,0.0002718,0,0,0.0002708,7.153e-05,6.508,0.0319,0,0,4.101e-05
292800000000,293100000000,2916101306,0,5781890,8.869e-05,0.0002661,0.003876,5.054e-05,0.0002842,0.0002661,0,0,0.000308,0,7.537,0.03745,0,0,6.008e-05
293100000000,293400000000,2916101306,0,5781890,8.678e-05,0.000268,0.003876,5.054e-05,0.0002842,0.0002718,0,0,0.0003738,7.153e-05,5.873,0.02766,0,0,0.0002308
293400000000,293700000000,2916101306,0,5781890,8.583e-05,0.0002661,0.003876,5.054e-05,0.0002842,0.000267,0,0,0.0004368,0,7.11,0.03548,0,0,5.245e-05
293700000000,294000000000,2916101306,0,5781890,9.06e-05,0.000268,0.003876,5.15e-05,0.0002842,0.0002718,0,0,0.0003805,7.153e-05,6.808,0.03305,0,0,3.719e-05
294000000000,294300000000,2916101306,0,5781890,8.774e-05,0.0002661,0.003876,5.15e-05,0.0002842,0.0002661,0,0,0.0004568,0,6.292,0.03015,0,0,0.000329
294300000000,294600000000,2916101306,0,5781890,8.583e-05,0.000268,0.003876,5.15e-05,0.0002842,0.0002718,0,0,0.0003901,7.153e-05,6.476,0.03176,0,0,3.433e-05
294600000000,294900000000,2916101306,0,5781890,8.392e-05,0.0002708,0.003876,5.15e-05,0.0002842,0.0002832,0,0,0.000349,0,6.751,0.03397,0,0,0.0002356
294900000000,295200000000,2916101306,0,5781890,8.869e-05,0.0002737,0.003876,5.15e-05,0.0002842,0.000289,0,0,0.0005922,7.153e-05,6.838,0.03337,0,0,0.0001049
295200000000,295500000000,2916101306,0,5781890,8.392e-05,0.0002661,0.003876,5.15e-05,0.0002842,0.0002728,0,0,0.0003958,0,5.731,0.02735,0,0,7.629e-05
295500000000,295800000000,2916101306,0,5781890,8.488e-05,0.000268,0.003876,5.15e-05,0.0002842,0.0002718,0,0,0.0003719,7.153e-05,5.515,0.02613,0,0,4.959e-05
295800000000,296100000000,2916101306,0,5781890,8.488e-05,0.0002661,0.003876,5.15e-05,0.0002842,0.000267,0,0,0.0002728,0,6.508,0.0323,0,0,4.959e-05
296100000000,296400000000,2916101306,0,5781890,8.488e-05,0.000268,0.003876,5.15e-05,0.0002842,0.0002718,0,0,0.000371,7.153e-05,5.68,0.02666,0,0,2.003e-05
296400000000,296700000000,2916101306,0,5781890,9.155e-05,0.000268,0.003876,5.15e-05,0.0002842,0.0002708,0,0,0.0002642,7.153e-05,6.681,0.03297,0,0,2.956e-05
296700000000,297000000000,2916101306,0,5781890,8.583e-05,0.000268,0.003876,5.15e-05,0.0002842,0.0002718,0,0,0.0003281,7.153e-05,6.416,0.03109,0,0,7.343e-05
297000000000,297300000000,2916101306,0,5781890,9.06e-05,0.000267,0.003876,5.15e-05,0.0002842,0.000268,0,0,0.0004921,0,7.137,0.03557,0,0,4.768e-05
297300000000,297600000000,2916101306,0,5781890,8.678e-05,0.000268,0.003876,5.15e-05,0.0002842,0.0002718,0,0,0.0003481,7.153e-05,6.693,0.0326,0,0,0.0003481
297600000000,297900000000,2916101306,0,5781890,8.774e-05,0.0002661,0.003876,5.15e-05,0.0002842,0.0002661,0,0,0.0003815,0,6.153,0.03031,0,0,0.0001087
297900000000,298200000000,2916101306,0,5781890,9.441e-05,0.0002689,0.003876,5.15e-05,0.0002842,0.0002737,0,0,0.0004292,7.153e-05,7.215,0.03484,0,0,1.812e-05
298200000000,298500000000,2916101306,0,5781890,9.823e-05,0.0002661,0.003876,5.15e-05,0.0002842,0.000267,0,0,0.0004015,0,7.039,0.03445,0,0,0.0001163
298500000000,298800000000,2916101306,0,5781890,9.727e-05,0.000268,0.003876,5.15e-05,0.0002842,0.0002718,0,0,0.0004129,7.153e-05,7.033,0.03285,0,0,4.578e-05
298800000000,299100000000,2916101306,0,5781890,9.823e-05,0.0002661,0.003876,5.15e-05,0.0002842,0.0002661,0,0,0.0005932,0,7.416,0.03703,0,0,3.815e-05
299100000000,299400000000,2916101306,0,5781890,9.251e-05,0.000268,0.003876,5.15e-05,0.0002842,0.0002718,0,0,0.0003538,7.153e-05,6.321,0.03108,0,0,3.719e-05
299400000000,299700000000,2916101306,0,5781890,9.537e-05,0.0002708,0.003876,5.15e-05,0.0002842,0.0002832,0,0,0.000351,0,6,0.02817,0,0,5.436e-05
