5700000000,6000000000,3418432,0,329144835,0.001364,0.0813,0.09326,0.001062,0.001389,0.0813,2.861e-06,0.0002041,0.01984,0.0002146,1.988,0.00506,0,1,0
6000000000,6300000000,3418432,0,329144835,0.001457,0.0813,0.09326,0.00107,0.001394,0.0813,2.861e-06,0.0002041,0.04163,0.0002146,2.289,0.006279,0,1,0
6300000000,6600000000,3418432,0,329144835,0.001402,0.0813,0.09326,0.001078,0.001402,0.0813,1.907e-06,0.0002041,0.01746,7.153e-05,2.202,0.005909,0,1,0
6600000000,6900000000,3418432,0,329144835,0.001455,0.0813,0.09326,0.001085,0.00141,0.0813,2.861e-06,0.0002041,0.02347,0.0002146,2.209,0.006011,0,1,0
6900000000,7200000000,3418432,0,329144835,0.001343,0.0813,0.09326,0.001091,0.001417,0.0813,3.815e-06,0.0002041,0.01126,0.0005713,2.083,0.005312,0,1,0
7200000000,7500000000,3418432,0,329144835,0.001261,0.0813,0.09326,0.001099,0.001423,0.0813,2.861e-06,0.0002041,0.01331,0.0003567,2.218,0.006003,0,1,0
7500000000,7800000000,3418432,0,329144835,0.001257,0.0813,0.09326,0.0008564,0.001181,0.0813,1.907e-06,0.0002041,0.01343,0.0002146,2.198,0.005964,0,1,0
7800000000,8100000000,3418432,0,329144835,0.001225,0.0813,0.09326,0.0003338,0.000659,0.0813,1.907e-06,0.0002041,0.01213,0.0002146,2.282,0.006334,0,1,0
8100000000,8400000000,3418432,0,329144835,0.001286,0.0813,0.09326,0.0003405,0.0006657,0.0813,1.907e-06,0.000205,0.01328,0.0001431,2.14,0.005579,0,1,0
8400000000,8700000000,3418432,0,329144835,0.001358,0.0813,0.09326,0.0003471,0.0006714,0.0813,1.907e-06,0.000205,0.02783,0.0001431,2.296,0.006082,0,1,0
8700000000,9000000000,3418432,0,329144835,0.00145,0.0813,0.09326,0.0003529,0.0006781,0.0813,1.907e-06,0.000205,0.01472,0.0002146,2.156,0.005502,0,1,0
9000000000,9300000000,3418432,0,329144835,0.00141,0.0813,0.09326,0.0003595,0.0006847,0.0813,1.907e-06,0.000205,0.01161,0.0002146,2.387,0.006464,0,1,0
9300000000,9600000000,3418432,0,329144835,0.001411,0.0813,0.09326,0.0003662,0.0006905,0.0813,1.907e-06,0.000205,0.01529,0.0002146,2.281,0.005965,0,1,0
9600000000,9900000000,3418432,0,329144835,0.001312,0.0813,0.09326,0.0003719,0.0006962,0.0813,1.907e-06,0.000205,0.01666,0.0001431,2.271,0.005857,0,1,0
9900000000,10200000000,3418432,0,329144835,0.001461,0.0813,0.09326,0.0003777,0.0007029,0.0813,1.907e-06,0.000205,0.02927,0.0002861,2.149,0.005314,0,1,0
10200000000,10500000000,3418432,0,329144835,0.001308,0.0813,0.09326,0.0003843,0.0007086,0.0813,1.907e-06,0.000205,0.01411,0.0002146,2.247,0.005741,0,1,0
10500000000,10800000000,3418432,0,329144835,0.001314,0.0813,0.09326,0.0003901,0.0007153,0.0813,1.907e-06,0.000205,0.0415,0.0002861,2.325,0.006048,0,1,0
10800000000,11100000000,3418432,0,329144835,0.001177,0.0813,0.09326,0.0003958,0.00072,0.0813,2.861e-06,0.000205,0.0159,0.0002146,2.065,0.005073,0,1,0
11100000000,11400000000,3418432,0,329144835,0.001259,0.0813,0.09326,0.0004015,0.0007257,0.0813,1.907e-06,0.000205,0.05273,0.0002146,2.139,0.00561,0,1,0
11400000000,11700000000,3418432,0,329144835,0.00116,0.0813,0.09326,0.0004072,0.0007315,0.0813,1.907e-06,0.000205,0.01648,0.0002146,2.289,0.005939,0,1,0
11700000000,12000000000,3418432,0,329144835,0.001398,0.0813,0.09326,0.000412,0.0007362,0.0813,9.537e-07,0.000205,0.05896,7.153e-05,2.189,0.005619,0,1,0
12000000000,12300000000,3418432,0,329144835,0.001049,0.0813,0.09326,0.0004168,0.000742,0.0813,1.907e-06,0.000205,0.009354,0.0001431,2.331,0.0062,0,1,0
12300000000,12600000000,3418432,0,329144835,0.001066,0.0813,0.09326,0.0004225,0.0007467,0.0813,1.907e-06,0.000205,0.01282,0.0002146,2.265,0.00568,0,1,0
12600000000,12900000000,3418432,0,329144835,0.001204,0.0813,0.09326,0.0004272,0.0007515,0.0813,1.907e-06,0.000205,0.12,0.0001431,2.308,0.005788,0,1,0
12900000000,13200000000,3418432,0,329144835,0.001028,0.0813,0.09326,0.000432,0.0007572,0.0813,1.907e-06,0.000205,0.00914,0.0002146,2.362,0.006524,0,1,0
13200000000,13500000000,3418432,0,329144835,0.001152,0.0813,0.09326,0.0004368,0.000762,0.0813,1.907e-06,0.000205,0.01364,0.0001431,2.311,0.006196,0,1,0
13500000000,13800000000,3418432,0,329144835,0.001104,0.0813,0.09326,0.0004425,0.0007668,0.0813,1.907e-06,0.000205,0.01213,0.0002146,2.231,0.005817,0,1,0
13800000000,14100000000,3418432,0,329144835,0.001181,0.0813,0.09326,0.0004473,0.0007715,0.0813,1.907e-06,0.000205,0.008774,0.0002146,2.195,0.005619,0,1,0
14100000000,14400000000,3418432,0,329144835,0.001114,0.0813,0.09326,0.000452,0.0007772,0.0813,9.537e-07,0.000205,0.01566,0.0001431,2.134,0.005607,0,1,0
14400000000,14700000000,3418432,0,329144835,0.00115,0.0813,0.09326,0.0004578,0.000783,0.0813,1.907e-06,0.000205,0.009735,0.0001431,2,0.005037,0,1,0
14700000000,15000000000,3418432,0,329144835,0.001066,0.0813,0.09326,0.0004635,0.0007877,0.0813,1.907e-06,0.000205,0.01788,0.0001431,2.049,0.005177,0,1,0
15000000000,15300000000,3418432,0,329144835,0.001116,0.0813,0.09326,0.0004683,0.0007925,0.0813,1.907e-06,0.000205,0.01611,0.0001431,2.196,0.006023,0,1,0
15300000000,15600000000,3418432,0,329144835,0.001074,0.0813,0.09326,0.000473,0.0007982,0.0813,1.907e-06,0.000205,0.0257,0.0002146,2.132,0.005778,0,1,0
15600000000,15900000000,3418432,0,329144835,0.001093,0.0813,0.09326,0.0004778,0.000803,0.0813,1.907e-06,0.000205,0.01627,0.0001431,2.031,0.005359,0,1,0
15900000000,16200000000,3418432,0,329144835,0.001177,0.0813,0.09326,0.0004835,0.0008078,0.0813,1.907e-06,0.000205,0.03131,0.0002146,2.07,0.005262,0,1,0
16200000000,16500000000,3418432,0,329144835,0.001059,0.0813,0.09326,0.0004883,0.0008135,0.0813,1.907e-06,0.000205,0.009216,0.0001431,2.145,0.005588,0,1,0
16500000000,16800000000,3418432,0,329144835,0.001024,0.0813,0.09326,0.000494,0.0008183,0.0813,6.676e-06,0.000205,0.01019,0.001642,2.162,0.005597,0,1,0
16800000000,17100000000,3418432,0,329144835,0.001188,0.0813,0.09326,0.0004988,0.000823,0.0813,1.907e-06,0.000205,0.02002,0.0001431,2.224,0.005973,0,1,0
17100000000,17400000000,3418432,0,329144835,0.001133,0.0813,0.09326,0.0005035,0.0008287,0.0813,4.768e-06,0.000205,0.01233,0.0008574,2.24,0.006007,0,1,0
17400000000,17700000000,3418432,0,329144835,0.001215,0.0813,0.09326,0.0005093,0.0008345,0.0813,1.907e-06,0.000205,0.01389,0.0001431,2.191,0.00575,0,1,0
17700000000,18000000000,3418432,0,329144835,0.001268,0.0813,0.09326,0.000515,0.0008402,0.0813,1.907e-06,0.000205,0.01199,0.0002146,2.249,0.006046,0,1,0
18000000000,18300000000,3418432,0,329144835,0.001141,0.0813,0.09326,0.0005207,0.0008459,0.0813,2.861e-06,0.000205,0.01135,0.0003567,2.23,0.005844,0,1,0
18300000000,18600000000,3418432,0,329144835,0.001209,0.0813,0.09326,0.0005264,0.0008516,0.0813,1.907e-06,0.000205,0.01387,0.0002146,2.293,0.006272,0,1,0
18600000000,18900000000,3418432,0,329144835,0.001183,0.0813,0.09326,0.0005322,0.0008574,0.0813,1.907e-06,0.000205,0.01465,0.0001431,2.42,0.006661,0,1,0
18900000000,19200000000,3418432,0,329144835,0.001202,0.0813,0.09326,0.0005379,0.0008631,0.0813,1.907e-06,0.000205,0.01291,0.0002146,2.143,0.005843,0,1,0
19200000000,19500000000,3418432,0,329144835,0.001337,0.0813,0.09326,0.0005445,0.0008688,0.0813,1.907e-06,0.000205,0.02008,0.0001431,2.122,0.005691,0,1,0
19500000000,19800000000,3418432,0,329144835,0.001341,0.0813,0.09326,0.0005512,0.0008755,0.0813,1.907e-06,0.000205,0.05042,0.0002146,2.101,0.005532,0,1,0
19800000000,20100000000,3418432,0,329144835,0.001356,0.0813,0.09326,0.0005579,0.0008821,0.0813,1.907e-06,0.000205,0.01849,0.0001431,2.154,0.005755,0,1,0
20100000000,20400000000,3418432,0,329144835,0.001228,0.0813,0.09326,0.0005646,0.0008888,0.0813,1.907e-06,0.000205,0.01138,0.0002146,2.111,0.005714,0,1,0
20400000000,20700000000,3418432,0,329144835,0.001507,0.0813,0.09326,0.0005713,0.0008955,0.0813,2.861e-06,0.000205,0.01218,0.0001431,2.168,0.005828,0,1,0
20700000000,21000000000,3418432,0,329144835,0.001543,0.0813,0.09326,0.0005789,0.0009031,0.0813,1.907e-06,0.000205,0.02298,0.0001431,2.045,0.005288,0,1,0
21000000000,21300000000,3418432,0,329144835,0.001598,0.0813,0.09326,0.0005865,0.0009117,0.0813,1.907e-06,0.000205,0.01254,0.0001431,2.013,0.00509,0,1,0
21300000000,21600000000,3418432,0,329144835,0.001509,0.0813,0.09326,0.0005951,0.0009193,0.0813,1.907e-06,0.000205,0.01556,0.0002146,1.941,0.004758,0,1,0
21600000000,21900000000,3418432,0,329144835,0.001568,0.0813,0.09326,0.0006027,0.000927,0.0813,1.907e-06,0.000205,0.03455,0.0001431,1.99,0.005017,0,1,0
21900000000,22200000000,3418432,0,329144835,0.001766,0.0813,0.09326,0.0006113,0.0009356,0.0813,1.907e-06,0.000205,0.03064,0.0002146,2.082,0.005239,0,1,0
22200000000,22500000000,3418432,0,329144835,0.001822,0.0813,0.09326,0.0006199,0.0009451,0.0813,1.907e-06,0.000205,0.01636,0.0001431,2.281,0.006062,0,1,0
22500000000,22800000000,3418432,0,329144835,0.001812,0.0813,0.09326,0.0006294,0.0009537,0.0813,9.537e-07,0.000205,0.01068,0.0001431,2.107,0.005337,0,1,0
22800000000,23100000000,3418432,0,329144835,0.001873,0.0813,0.09326,0.000639,0.0009632,0.0813,9.537e-07,0.000205,0.01703,0.0001431,2.07,0.005357,0,1,0
23100000000,23400000000,3418432,0,329144835,0.001703,0.0813,0.09326,0.0006485,0.0009737,0.0813,1.907e-06,0.000205,0.01183,0.0002146,2.196,0.006064,0,1,0
23400000000,23700000000,3418432,0,329144835,0.001961,0.0813,0.09326,0.000659,0.0009842,0.0813,1.907e-06,0.000205,0.01605,0.0002146,2.122,0.005729,0,1,0
23700000000,24000000000,3418432,0,329144835,0.001957,0.0813,0.09326,0.0006704,0.0009956,0.0813,1.907e-06,0.000205,0.01883,0.0002146,2.111,0.005689,0,1,0
24000000000,24300000000,3418432,0,329144835,0.002064,0.0813,0.09326,0.0006819,0.001007,0.0813,1.907e-06,0.000205,0.02008,0.0001431,2.032,0.005247,0,1,0
24300000000,24600000000,3418432,0,329144835,0.002247,0.0813,0.09326,0.0006943,0.001019,0.0813,1.907e-06,0.000205,0.02411,0.0002861,2.093,0.005491,0,1,0
24600000000,24900000000,3418432,0,329144835,0.002224,0.0813,0.09326,0.0007067,0.001032,0.0813,1.907e-06,0.000205,0.03125,0.0001431,2.056,0.005367,0,1,0
24900000000,25200000000,3418432,0,329144835,0.002113,0.0813,0.09326,0.0007191,0.001043,0.0813,2.861e-06,0.000205,0.01569,0.0002146,2.012,0.005287,0,1,0
25200000000,25500000000,3418432,0,329144835,0.002251,0.0813,0.09326,0.0007324,0.001057,0.0813,1.907e-06,0.000205,0.01877,0.0002146,2.056,0.005356,0,1,0
25500000000,25800000000,3418432,0,329144835,0.002388,0.0813,0.09326,0.0007458,0.00107,0.0813,1.907e-06,0.000206,0.0163,0.0002861,1.944,0.00489,0,1,0
25800000000,26100000000,3418432,0,329144835,0.002415,0.0813,0.09326,0.0007601,0.001085,0.0813,1.907e-06,0.000206,0.01993,0.0001431,2.001,0.005126,0,1,0
26100000000,26400000000,3418432,0,329144835,0.002426,0.0813,0.09326,0.0007753,0.001101,0.0813,2.861e-06,0.000206,0.02408,0.0003567,2.084,0.005445,0,1,0
26400000000,26700000000,3418432,0,329144835,0.002491,0.0813,0.09326,0.0007896,0.001114,0.0813,1.907e-06,0.000206,0.03925,0.0001431,2.138,0.005732,0,1,0
26700000000,27000000000,3418432,0,329144835,0.002602,0.0813,0.09326,0.0008049,0.001129,0.0813,1.907e-06,0.000206,0.02377,0.0002146,1.952,0.004921,0,1,0
27000000000,27300000000,3418432,0,329144835,0.002659,0.0813,0.09326,0.0008202,0.001144,0.0813,3.815e-06,0.000206,0.03577,0.0007143,2.067,0.005416,0,1,0
27300000000,27600000000,3418432,0,329144835,0.002766,0.0813,0.09326,0.0008364,0.001162,0.0813,1.907e-06,0.000206,0.02353,0.0002861,2.282,0.006151,0,1,0
27600000000,27900000000,3418432,0,329144835,0.002987,0.0813,0.09326,0.0008526,0.001177,0.0813,2.861e-06,0.000206,0.03073,0.0002146,2.196,0.005719,0,1,0
27900000000,28200000000,3418432,0,329144835,0.002945,0.0813,0.09326,0.0008688,0.001194,0.0813,1.907e-06,0.000206,0.02234,0.0002861,2.263,0.006036,0,1,0
28200000000,28500000000,3418432,0,329144835,0.002819,0.0813,0.09326,0.000886,0.001211,0.0813,1.907e-06,0.000206,0.01378,0.0002146,2.225,0.005935,0,1,0
28500000000,28800000000,3418432,0,329144835,0.003017,0.0813,0.09326,0.0009022,0.001226,0.0813,1.907e-06,0.000206,0.04688,0.0001431,2.129,0.005249,0,1,0
28800000000,29100000000,3418432,0,329144835,0.003147,0.0813,0.09326,0.0009184,0.001244,0.0813,1.907e-06,0.000206,0.01593,0.0001431,2.311,0.005883,0,1,0
29100000000,29400000000,3418432,0,329144835,0.003006,0.0813,0.09326,0.0009346,0.001259,0.0813,1.907e-06,0.000206,0.03061,0.0001431,2.198,0.005515,0,1,0
29400000000,29700000000,3418432,0,329144835,0.003002,0.0813,0.09326,0.0009508,0.001276,0.0813,2.861e-06,0.000206,0.03503,0.0002146,2.361,0.006237,0,1,0
29700000000,30000000000,3418432,0,329144835,0.00296,0.0813,0.09326,0.000967,0.001291,0.0813,1.907e-06,0.000206,0.04761,0.0002146,2.345,0.005977,0,1,0
30000000000,30300000000,3418432,0,329144835,0.003151,0.0813,0.09326,0.0009842,0.001308,0.0813,2.861e-06,0.000206,0.03162,0.0001431,2.155,0.005174,0,1,0
30300000000,30600000000,3418432,0,329144835,0.003281,0.0813,0.09326,0.0009995,0.001326,0.0813,2.861e-06,0.000206,0.04852,0.0002861,2.239,0.005413,0,1,0
30600000000,30900000000,3418432,0,329144835,0.003387,0.0813,0.09326,0.001017,0.001343,0.0813,1.907e-06,0.000206,0.02478,0.0001431,2.183,0.005479,0,1,0
30900000000,31200000000,3418432,0,329144835,0.003326,0.0813,0.09326,0.001036,0.00136,0.0813,1.907e-06,0.000206,0.02637,0.0002146,2.116,0.005258,0,1,0
31200000000,31500000000,3418432,0,329144835,0.003201,0.0813,0.09326,0.001055,0.001379,0.0813,1.907e-06,0.000206,0.02942,0.0002146,2.166,0.005489,0,1,0
31500000000,31800000000,3418432,0,329144835,0.003021,0.0813,0.09326,0.001072,0.001396,0.0813,1.907e-06,0.000205,0.02875,0.0002146,2.266,0.005967,0,1,0
31800000000,32100000000,3418432,0,329144835,0.003242,0.0813,0.09326,0.001089,0.001413,0.0813,2.861e-06,0.0002041,0.05481,0.0002146,2.104,0.005233,0,1,0
32100000000,32400000000,3418432,0,329144835,0.003105,0.0813,0.09326,0.001106,0.001431,0.0813,1.907e-06,0.0002041,0.02518,0.0001431,2.076,0.005182,0,1,0
32400000000,32700000000,3418432,0,329144835,0.002991,0.0813,0.09326,0.0007,0.001024,0.0813,3.815e-06,0.000205,0.04773,0.0002861,2.032,0.005002,0,1,0
32700000000,33000000000,3418432,0,329144835,0.003124,0.0813,0.09326,0.0003614,0.0006866,0.0813,2.861e-06,0.000205,0.03552,0.0002146,2.066,0.005141,0,1,0
33000000000,33300000000,3418432,0,329144835,0.003162,0.0813,0.09326,0.0003796,0.0007038,0.0813,7.629e-06,0.000205,0.05011,0.001785,2.124,0.005362,0,1,0
33300000000,33600000000,3418432,0,329144835,0.003166,0.0813,0.09326,0.0003977,0.0007219,0.0813,2.861e-06,0.000205,0.02164,0.0001431,2.043,0.005436,0,1,0
33600000000,33900000000,3418432,0,329144835,0.003044,0.0813,0.09326,0.0004158,0.0007401,0.0813,2.861e-06,0.000205,0.02203,0.0002146,2.101,0.005514,0,1,0
33900000000,34200000000,3418432,0,329144835,0.00428,0.0813,0.09326,0.0004368,0.000761,0.0813,1.144e-05,0.000205,0.0401,0.002357,2.011,0.005085,0,1,0
34200000000,34500000000,3418432,0,329144835,0.005745,0.0813,0.09326,0.0004711,0.0007963,0.0813,3.815e-06,0.000205,0.03302,0.0002861,2.028,0.004959,0,1,0
34500000000,34800000000,3418432,0,329144835,0.005737,0.0813,0.09326,0.0005064,0.0008316,0.0813,2.861e-06,0.000205,0.04584,0.0002861,2.051,0.005155,0,1,0
34800000000,35100000000,3418432,0,329144835,0.005592,0.0813,0.09326,0.0005417,0.0008669,0.0813,2.861e-06,0.000205,0.03784,0.0002146,2.078,0.005322,0,1,0
35100000000,35400000000,3418432,0,329144835,0.005516,0.0813,0.09326,0.000576,0.0009012,0.0813,2.861e-06,0.000205,0.02597,0.0002146,2.108,0.005336,0,1,0
35400000000,35700000000,3418432,0,329144835,0.005699,0.0813,0.09326,0.0006094,0.0009346,0.0813,2.861e-06,0.000205,0.04297,0.0002146,2.008,0.005005,0,1,0
35700000000,36000000000,3418432,0,329144835,0.0047,0.0813,0.09326,0.0006437,0.0009689,0.0813,2.861e-06,0.000205,0.03912,0.0002861,2.007,0.005044,0,1,0
36000000000,36300000000,3418432,0,329144835,0.002914,0.0813,0.09326,0.0006657,0.0009899,0.0813,2.861e-06,0.000205,0.01581,0.0002861,2.055,0.005332,0,1,0
36300000000,36600000000,3418432,0,329144835,0.002823,0.0813,0.09326,0.0006828,0.001007,0.0813,1.907e-06,0.000205,0.01767,0.0002146,2.171,0.005898,0,1,0
36600000000,36900000000,3418432,0,329144835,0.002914,0.0813,0.09326,0.000699,0.001024,0.0813,3.815e-06,0.000205,0.01672,0.0007858,2.114,0.005588,0,1,0
36900000000,37200000000,3418432,0,329144835,0.00272,0.0813,0.09326,0.0007162,0.001041,0.0813,3.815e-06,0.000205,0.01401,0.0009289,2.088,0.005416,0,1,0
37200000000,37500000000,3418432,0,329144835,0.002739,0.0813,0.09326,0.0007334,0.001059,0.0813,1.907e-06,0.000205,0.01685,0.0001431,2.112,0.005587,0,1,0
37500000000,37800000000,3418432,0,329144835,0.0028,0.0813,0.09326,0.0007496,0.001074,0.0813,2.861e-06,0.000206,0.03979,0.0002861,2.006,0.005184,0,1,0
37800000000,38100000000,3418432,0,329144835,0.002682,0.0813,0.09326,0.0007648,0.001091,0.0813,1.907e-06,0.000206,0.06848,0.0001431,2.072,0.00549,0,1,0
38100000000,38400000000,3418432,0,329144835,0.002636,0.0813,0.09326,0.0007811,0.001106,0.0813,2.861e-06,0.000206,0.02228,0.0002146,2.205,0.00603,0,1,0
38400000000,38700000000,3418432,0,329144835,0.002682,0.0813,0.09326,0.0007963,0.001122,0.0813,2.861e-06,0.000206,0.01837,0.0002861,2.227,0.005948,0,1,0
38700000000,39000000000,3418432,0,329144835,0.002899,0.0813,0.09326,0.0008116,0.001137,0.0813,2.861e-06,0.000206,0.01846,0.0002146,2.196,0.005668,0,1,0
39000000000,39300000000,3418432,0,329144835,0.003204,0.0813,0.09326,0.0008268,0.001152,0.0813,1.144e-05,0.000206,0.0213,0.002285,2.341,0.006287,0,1,0
39300000000,39600000000,3418432,0,329144835,0.00296,0.0813,0.09326,0.000843,0.001169,0.0813,2.861e-06,0.000206,0.04236,0.0002146,2.188,0.005776,0,1,0
39600000000,39900000000,3418432,0,329144835,0.002907,0.0813,0.09326,0.0008583,0.001184,0.0813,2.861e-06,0.000206,0.05438,0.0001431,2.224,0.005719,0,1,0
39900000000,40200000000,3418432,0,329144835,0.002876,0.0813,0.09326,0.0008745,0.0012,0.0813,2.861e-06,0.000206,0.01642,0.0002146,2.296,0.006117,0,1,0
40200000000,40500000000,3418432,0,329144835,0.002811,0.0813,0.09326,0.0008898,0.001215,0.0813,1.907e-06,0.000206,0.02017,0.0001431,2.249,0.006105,0,1,0
40500000000,40800000000,3418432,0,329144835,0.002827,0.0813,0.09326,0.000906,0.00123,0.0813,1.907e-06,0.000206,0.03931,0.0002146,2.148,0.005481,0,1,0
51000000000,51300000000,3418432,0,329144835,0.003895,0.0813,0.09326,0.0007868,0.001112,0.0813,3.815e-06,0.000206,0.05322,0.0002861,2.288,0.005979,0,1,0
51300000000,51600000000,3418432,0,329144835,0.003452,0.0813,0.09326,0.0008059,0.001131,0.0813,1.907e-06,0.000206,0.04889,0.0001431,2.149,0.005303,0,1,0
51600000000,51900000000,3418432,0,329144835,0.003559,0.0813,0.09326,0.0008249,0.00115,0.0813,1.907e-06,0.000206,0.02621,0.0001431,2.172,0.00548,0,1,0
51900000000,52200000000,3418432,0,329144835,0.003319,0.0813,0.09326,0.000843,0.001169,0.0813,1.907e-06,0.000206,0.0321,0.0003567,2.278,0.005889,0,1,0
52200000000,52500000000,3418432,0,329144835,0.003281,0.0813,0.09326,0.0008621,0.001188,0.0813,2.861e-06,0.000206,0.04858,0.0004997,2.246,0.00583,0,1,0
52500000000,52800000000,3418432,0,329144835,0.003613,0.0813,0.09326,0.0008802,0.001205,0.0813,2.861e-06,0.000206,0.05316,0.0002146,2.173,0.005476,0,1,0
52800000000,53100000000,3418432,0,329144835,0.003613,0.0813,0.09326,0.0008993,0.001225,0.0813,2.861e-06,0.000206,0.02591,0.0002146,2.201,0.005727,0,1,0
53100000000,53400000000,3418432,0,329144835,0.003544,0.0813,0.09326,0.0009184,0.001245,0.0813,2.861e-06,0.000206,0.01485,0.0002146,2.133,0.005374,0,1,0
53400000000,53700000000,3418432,0,329144835,0.003361,0.0813,0.09326,0.0009384,0.001265,0.0813,2.861e-06,0.000206,0.022,0.0001431,2.108,0.005279,0,1,0
53700000000,54000000000,3418432,0,329144835,0.003582,0.0813,0.09326,0.0009575,0.001284,0.0813,1.907e-06,0.000206,0.02139,0.0002146,2.232,0.005749,0,1,0
54000000000,54300000000,3418432,0,329144835,0.003502,0.0813,0.09326,0.0009766,0.001303,0.0813,2.861e-06,0.000206,0.02927,0.0002146,2.314,0.005965,0,1,0
54300000000,54600000000,3418432,0,329144835,0.003468,0.0813,0.09326,0.0009956,0.001322,0.0813,2.861e-06,0.000206,0.04187,0.0002146,2.197,0.005645,0,1,0
54600000000,54900000000,3418432,0,329144835,0.003326,0.0813,0.09326,0.001015,0.001341,0.0813,2.861e-06,0.000206,0.03802,0.0001431,2.255,0.00583,0,1,0
54900000000,55200000000,3418432,0,329144835,0.003262,0.0813,0.09326,0.001032,0.001358,0.0813,4.768e-06,0.000206,0.01498,0.0005713,2.277,0.005965,0,1,0
55200000000,55500000000,3418432,0,329144835,0.003296,0.0813,0.09326,0.001051,0.001377,0.0813,2.861e-06,0.000206,0.02527,0.0002146,2.104,0.005328,0,1,0
55500000000,55800000000,3418432,0,329144835,0.003567,0.0813,0.09326,0.001068,0.001394,0.0813,2.861e-06,0.000206,0.02573,0.0002146,2.119,0.005396,0,1,0
55800000000,56100000000,3418432,0,329144835,0.004089,0.0813,0.09326,0.001087,0.001411,0.0813,3.815e-06,0.000205,0.02939,0.0002861,2.1,0.005074,0,1,0
56100000000,56400000000,3418432,0,329144835,0.003529,0.0813,0.09326,0.001106,0.001432,0.0813,2.861e-06,0.0002041,0.02975,0.0001431,2.169,0.005415,0,1,0
56400000000,56700000000,3418432,0,329144835,0.002022,0.0813,0.09326,0.001122,0.001448,0.0813,3.815e-06,0.0002041,0.02118,0.0002146,2.202,0.005537,0,1,0
56700000000,57000000000,3418432,0,329144835,0.001204,0.0813,0.09326,0.001129,0.001455,0.0813,4.768e-06,0.0002041,0.0144,0.0006428,2.108,0.005311,0,1,0
57000000000,57300000000,3418432,0,329144835,0.0009956,0.0813,0.09326,0.0007696,0.001097,0.0813,1.907e-06,0.000205,0.01375,0.0002146,2.309,0.006198,0,1,0
57300000000,57600000000,3418432,0,329144835,0.001156,0.0813,0.09326,0.0003595,0.0006857,0.0813,9.537e-07,0.000205,0.04266,7.153e-05,2.252,0.006022,0,1,0
57600000000,57900000000,3418432,0,329144835,0.002266,0.0813,0.09326,0.0003653,0.0006905,0.0813,1.907e-06,0.000205,0.02841,0.0002146,2.098,0.005264,0,1,0
57900000000,58200000000,3418432,0,329144835,0.00304,0.0813,0.09326,0.0003805,0.0007057,0.0813,2.861e-06,0.000205,0.03638,0.0001431,2.173,0.005501,0,1,0
58200000000,58500000000,3418432,0,329144835,0.003124,0.0813,0.09326,0.0003967,0.0007229,0.0813,1.907e-06,0.000205,0.0199,0.0002146,2.163,0.005463,0,1,0
58500000000,58800000000,3418432,0,329144835,0.001444,0.0813,0.09326,0.0004091,0.0007353,0.0813,1.907e-06,0.000205,0.01892,0.0002861,2.238,0.005583,0,1,0
58800000000,59100000000,3418432,0,329144835,0.001181,0.0813,0.09326,0.0004139,0.0007401,0.0813,1.907e-06,0.000205,0.01721,0.0001431,2.15,0.005275,0,1,0
59100000000,59400000000,3418432,0,329144835,0.001209,0.0813,0.09326,0.0004187,0.0007448,0.0813,4.768e-06,0.000205,0.01694,0.0007143,2.221,0.005648,0,1,0
59400000000,59700000000,3418432,0,329144835,0.00325,0.0813,0.09326,0.0004339,0.0007744,0.08154,0.0001488,0.000205,0.09314,0.04028,3.153,0.009983,0,1,0
59700000000,60000000000,3418432,0,329144835,0.003258,0.08154,0.09326,0.0005035,0.0009384,0.08154,5.722e-06,0.000205,0.0564,0.0004997,2.447,0.006818,0,1,0
60000000000,60300000000,3418432,0,329144835,0.003185,0.08154,0.09326,0.0005159,0.0009499,0.08154,2.861e-06,0.000205,0.01883,0.0002146,2.286,0.006055,0,1,0
60300000000,60600000000,3418432,0,329144835,0.003128,0.08154,0.09326,0.0005312,0.0009661,0.08154,2.861e-06,0.000205,0.0231,0.0002861,2.251,0.005964,0,1,0
60600000000,60900000000,3418432,0,329144835,0.003117,0.08154,0.09326,0.0005474,0.0009823,0.08154,4.768e-06,0.000205,0.01852,0.0005713,2.26,0.006078,0,1,0
70800000000,71100000000,3418432,0,329144835,0.003056,0.0813,0.09326,0.001007,0.001333,0.0813,1.907e-06,0.000206,0.02383,0.0001431,2.25,0.006038,0,1,0
71100000000,71400000000,3418432,0,329144835,0.002724,0.0813,0.09326,0.001022,0.001348,0.0813,1.907e-06,0.000206,0.01688,0.0002146,2.185,0.005651,0,1,0
71400000000,71700000000,3418432,0,329144835,0.002754,0.0813,0.09326,0.001038,0.001364,0.0813,1.907e-06,0.000206,0.05243,0.0001431,2.213,0.005831,0,1,0
71700000000,72000000000,3418432,0,329144835,0.002903,0.0813,0.09326,0.001053,0.001379,0.0813,1.907e-06,0.000206,0.03571,0.0002146,2.203,0.005839,0,1,0
72000000000,72300000000,3418432,0,329144835,0.002815,0.0813,0.09326,0.001068,0.001394,0.0813,2.861e-06,0.000206,0.01669,0.0002146,2.113,0.005407,0,1,0
72300000000,72600000000,3418432,0,329144835,0.002991,0.0813,0.09326,0.001083,0.00141,0.0813,1.907e-06,0.000206,0.0275,0.0001431,2.158,0.005543,0,1,0
72600000000,72900000000,3418432,0,329144835,0.002907,0.0813,0.09326,0.001099,0.001425,0.0813,1.907e-06,0.0002041,0.0448,0.0002146,2.075,0.005231,0,1,0
72900000000,73200000000,3418432,0,329144835,0.002953,0.0813,0.09326,0.001114,0.00144,0.0813,1.907e-06,0.0002041,0.04926,0.0002146,1.975,0.004873,0,1,0
73200000000,73500000000,3418432,0,329144835,0.002857,0.0813,0.09326,0.001129,0.001455,0.0813,1.907e-06,0.0002041,0.0528,0.0001431,2.26,0.005995,0,1,0
73500000000,73800000000,3418432,0,329144835,0.002911,0.0813,0.09326,0.0009184,0.001245,0.0813,1.907e-06,0.000205,0.02823,0.0002861,2.21,0.005811,0,1,0
73800000000,74100000000,3418432,0,329144835,0.002758,0.0813,0.09326,0.0003815,0.0007067,0.0813,1.907e-06,0.000205,0.02356,0.0002146,2.167,0.005764,0,1,0
74100000000,74400000000,3418432,0,329144835,0.002857,0.0813,0.09326,0.0003958,0.0007219,0.0813,2.861e-06,0.000205,0.02286,0.0004997,2.225,0.005876,0,1,0
74400000000,74700000000,3418432,0,329144835,0.002895,0.0813,0.09326,0.000411,0.0007372,0.0813,2.861e-06,0.000205,0.02219,0.0003567,2.209,0.005799,0,1,0
74700000000,75000000000,3418432,0,329144835,0.002724,0.0813,0.09326,0.0004263,0.0007524,0.0813,2.861e-06,0.000205,0.02423,0.0002861,2.148,0.005505,0,1,0
75000000000,75300000000,3418432,0,329144835,0.002834,0.0813,0.09326,0.0004416,0.0007668,0.0813,2.861e-06,0.000205,0.02118,0.0002146,2.154,0.00564,0,1,0
75300000000,75600000000,3418432,0,329144835,0.002663,0.0813,0.09326,0.0004559,0.0007811,0.0813,1.907e-06,0.000205,0.01788,7.153e-05,2.178,0.00567,0,1,0
75600000000,75900000000,3418432,0,329144835,0.00264,0.0813,0.09326,0.0004692,0.0007954,0.0813,2.861e-06,0.000205,0.0249,0.0001431,2.22,0.005816,0,1,0
75900000000,76200000000,3418432,0,329144835,0.0028,0.0813,0.09326,0.0004826,0.0008087,0.0813,2.861e-06,0.000205,0.05237,0.0002146,2.123,0.005383,0,1,0
76200000000,76500000000,3418432,0,329144835,0.002686,0.0813,0.09326,0.0004969,0.000823,0.0813,2.861e-06,0.000205,0.02133,0.0001431,2.183,0.005635,0,1,0
76500000000,76800000000,3418432,0,329144835,0.002701,0.0813,0.09326,0.0005112,0.0008373,0.0813,2.861e-06,0.000205,0.01562,0.0002146,2.193,0.005699,0,1,0
76800000000,77100000000,3418432,0,329144835,0.002552,0.0813,0.09326,0.0005245,0.0008507,0.0813,2.861e-06,0.000205,0.01405,0.0001431,2.267,0.005935,0,1,0
77100000000,77400000000,3418432,0,329144835,0.002502,0.0813,0.09326,0.0005379,0.000864,0.0813,2.861e-06,0.000205,0.01483,0.0002861,2.22,0.005932,0,1,0
77400000000,77700000000,3418432,0,329144835,0.002167,0.0813,0.09326,0.0005493,0.0008755,0.0813,4.768e-06,0.000205,0.0257,0.0002861,2.116,0.005477,0,1,0
77700000000,78000000000,3418432,0,329144835,0.002346,0.0813,0.09326,0.0005608,0.0008869,0.0813,2.861e-06,0.000205,0.03424,0.0001431,2.06,0.005131,0,1,0
78000000000,78300000000,3418432,0,329144835,0.002201,0.0813,0.09326,0.0005722,0.0008984,0.0813,2.861e-06,0.000205,0.0121,0.0002146,2.325,0.006305,0,1,0
78300000000,78600000000,3418432,0,329144835,0.002323,0.0813,0.09326,0.0005846,0.0009098,0.0813,2.861e-06,0.000205,0.03198,0.0001431,2.177,0.005816,0,1,0
78600000000,78900000000,3418432,0,329144835,0.002235,0.0813,0.09326,0.000596,0.0009222,0.0813,2.861e-06,0.000205,0.02148,0.0001431,2.234,0.006013,0,1,0
78900000000,79200000000,3418432,0,329144835,0.002087,0.0813,0.09326,0.0006075,0.0009336,0.0813,2.861e-06,0.000205,0.01529,0.0002146,2.128,0.005546,0,1,0
79200000000,79500000000,3418432,0,329144835,0.002262,0.0813,0.09326,0.0006189,0.0009451,0.0813,2.861e-06,0.000205,0.01117,0.0001431,2.31,0.00638,0,1,0
79500000000,79800000000,3418432,0,329144835,0.002193,0.0813,0.09326,0.0006304,0.0009565,0.0813,2.861e-06,0.000205,0.02487,0.0002146,2.128,0.005525,0,1,0
79800000000,80100000000,3418432,0,329144835,0.002258,0.0813,0.09326,0.0006418,0.000968,0.0813,1.907e-06,0.000205,0.01291,0.0001431,2.158,0.005647,0,1,0
80100000000,80400000000,3418432,0,329144835,0.002316,0.0813,0.09326,0.0006542,0.0009804,0.0813,2.861e-06,0.000205,0.02386,0.0002146,2.194,0.005782,0,1,0
80400000000,80700000000,3418432,0,329144835,0.002357,0.0813,0.09326,0.0006657,0.0009918,0.0813,2.861e-06,0.000205,0.01987,0.0001431,2.14,0.005512,0,1,0
80700000000,81000000000,3418432,0,329144835,0.002235,0.0813,0.09326,0.0006771,0.001003,0.0813,2.861e-06,0.000205,0.02637,0.0002146,2.266,0.006059,0,1,0
85800000000,86100000000,3418432,0,329144835,0.002316,0.0813,0.09326,0.0008774,0.001204,0.0813,1.907e-06,0.000206,0.01733,0.0001431,2.278,0.006023,0,1,0
86100000000,86400000000,3418432,0,329144835,0.002193,0.0813,0.09326,0.0008879,0.001215,0.0813,9.537e-07,0.000206,0.01831,0.0001431,2.209,0.005763,0,1,0
86400000000,86700000000,3418432,0,329144835,0.002182,0.0813,0.09326,0.0008993,0.001225,0.0813,1.907e-06,0.000206,0.03778,0.0001431,2.155,0.005446,0,1,0
86700000000,87000000000,3418432,0,329144835,0.00214,0.0813,0.09326,0.0009098,0.001236,0.0813,1.907e-06,0.000206,0.02747,0.0002146,2.252,0.005873,0,1,0
87000000000,87300000000,3418432,0,329144835,0.002468,0.0813,0.09326,0.0009212,0.001247,0.0813,1.907e-06,0.000206,0.01501,0.0001431,2.137,0.005352,0,1,0
87300000000,87600000000,3418432,0,329144835,0.002323,0.0813,0.09326,0.0009317,0.001257,0.0813,1.907e-06,0.000206,0.02133,0.0002146,1.995,0.004706,0,1,0
87600000000,87900000000,3418432,0,329144835,0.002048,0.0813,0.09326,0.0009413,0.001268,0.0813,1.907e-06,0.000206,0.0209,0.0001431,2.213,0.005534,0,1,0
87900000000,88200000000,3418432,0,329144835,0.002163,0.0813,0.09326,0.0009508,0.001276,0.0813,2.861e-06,0.000206,0.02734,0.0001431,2.033,0.00481,0,1,0
88200000000,88500000000,3418432,0,329144835,0.002159,0.0813,0.09326,0.0009594,0.001286,0.0813,3.815e-06,0.000206,0.01898,0.0003567,2.092,0.00513,0,1,0
88500000000,88800000000,3418432,0,329144835,0.001787,0.0813,0.09326,0.0009689,0.001295,0.0813,1.907e-06,0.000206,0.0162,0.0002146,2.162,0.00552,0,1,0
88800000000,89100000000,3418432,0,329144835,0.001776,0.0813,0.09326,0.0009766,0.001303,0.0813,2.861e-06,0.000206,0.01645,0.0002146,2.238,0.00578,0,1,0
89100000000,89400000000,3418432,0,329144835,0.00178,0.0813,0.09326,0.0009842,0.00131,0.0813,5.722e-06,0.000206,0.02271,0.0007858,2.151,0.005483,0,1,0
89400000000,89700000000,3418432,0,329144835,0.001759,0.0813,0.09326,0.0009918,0.001318,0.0813,2.861e-06,0.000206,0.02332,0.0002861,2.203,0.005632,0,1,0
89700000000,90000000000,3418432,0,329144835,0.001776,0.0813,0.09326,0.0009995,0.001326,0.0813,2.861e-06,0.000206,0.05664,0.0004282,2.179,0.005548,0,1,0
90000000000,90300000000,3418432,0,329144835,0.00141,0.0813,0.09326,0.001005,0.001331,0.0813,1.907e-06,0.000206,0.01602,0.0002146,2.214,0.005594,0,1,0
90300000000,90600000000,3418432,0,329144835,0.00136,0.0813,0.09326,0.001011,0.001337,0.0813,9.537e-07,0.000206,0.01907,7.153e-05,2.218,0.005676,0,1,0
90600000000,90900000000,3418432,0,329144835,0.001507,0.0813,0.09326,0.001017,0.001343,0.0813,3.815e-06,0.000206,0.01871,0.0007143,2.261,0.005804,0,1,0
101100000000,101400000000,3418432,0,329144835,0.001253,0.0813,0.09326,0.0004234,0.0007496,0.0813,3.815e-06,0.000205,0.02325,0.0006428,2.296,0.006047,0,1,0
101400000000,101700000000,3418432,0,329144835,0.0009937,0.0813,0.09326,0.0004282,0.0007553,0.0813,2.861e-06,0.000205,0.01387,0.0002146,2.151,0.005564,0,1,0
101700000000,102000000000,3418432,0,329144835,0.001106,0.0813,0.09326,0.000432,0.0007582,0.0813,5.722e-06,0.000205,0.009995,0.0009289,2.044,0.004948,0,1,0
102000000000,102300000000,3418432,0,329144835,0.001226,0.0813,0.09326,0.0004368,0.0007629,0.0813,2.861e-06,0.000205,0.02194,0.0002146,2.041,0.005028,0,1,0
102300000000,102600000000,3418432,0,329144835,0.001122,0.0813,0.09326,0.0004416,0.0007677,0.0813,1.907e-06,0.000205,0.01837,7.153e-05,2.128,0.005364,0,1,0
102600000000,102900000000,3418432,0,329144835,0.001009,0.0813,0.09326,0.0004454,0.0007715,0.0813,1.907e-06,0.000205,0.03033,0.0001431,2.285,0.006052,0,1,0
102900000000,103200000000,3418432,0,329144835,0.001019,0.0813,0.09326,0.0004492,0.0007753,0.0813,3.815e-06,0.000205,0.01614,0.0003567,2.115,0.005305,0,1,0
103200000000,103500000000,3418432,0,329144835,0.0009861,0.0813,0.09326,0.000453,0.0007792,0.0813,2.861e-06,0.000205,0.02054,0.0002146,2.244,0.006037,0,1,0
103500000000,103800000000,3418432,0,329144835,0.001005,0.0813,0.09326,0.0004568,0.000783,0.0813,1.907e-06,0.000205,0.01454,0.0001431,2.205,0.005757,0,1,0
103800000000,104100000000,3418432,0,329144835,0.0009155,0.0813,0.09326,0.0004606,0.0007868,0.0813,2.861e-06,0.000205,0.01617,0.0002861,2.322,0.00628,0,1,0
104100000000,104400000000,3418432,0,329144835,0.001143,0.0813,0.09326,0.0004644,0.0007915,0.0813,1.907e-06,0.000205,0.04456,0.0001431,2.307,0.006168,0,1,0
104400000000,104700000000,3418432,0,329144835,0.001125,0.0813,0.09326,0.0004702,0.0007963,0.0813,1.907e-06,0.000205,0.02014,0.0001431,2.27,0.006017,0,1,0
104700000000,105000000000,3418432,0,329144835,0.001261,0.0813,0.09326,0.0004749,0.000802,0.0813,1.907e-06,0.000205,0.01566,0.0001431,2.212,0.005809,0,1,0
105000000000,105300000000,3418432,0,329144835,0.001202,0.0813,0.09326,0.0004807,0.0008078,0.0813,2.861e-06,0.000205,0.01414,0.0001431,2.213,0.005797,0,1,0
105300000000,105600000000,3418432,0,329144835,0.001299,0.0813,0.09326,0.0004873,0.0008135,0.0813,3.815e-06,0.000205,0.0126,0.0003567,2.155,0.005582,0,1,0
105600000000,105900000000,3418432,0,329144835,0.001392,0.0813,0.09326,0.000493,0.0008202,0.0813,2.861e-06,0.000205,0.021,0.0002146,2.237,0.00593,0,1,0
105900000000,106200000000,3418432,0,329144835,0.001213,0.0813,0.09326,0.0004997,0.0008259,0.0813,1.907e-06,0.000205,0.009918,0.0001431,2.307,0.006243,0,1,0
106200000000,106500000000,3418432,0,329144835,0.00123,0.0813,0.09326,0.0005054,0.0008316,0.0813,2.861e-06,0.000205,0.01147,0.0002146,2.28,0.006114,0,1,0
106500000000,106800000000,3418432,0,329144835,0.001137,0.0813,0.09326,0.0005112,0.0008373,0.0813,3.815e-06,0.000205,0.01434,0.0003567,2.142,0.005533,0,1,0
106800000000,107100000000,3418432,0,329144835,0.001209,0.0813,0.09326,0.0005159,0.000843,0.0813,2.861e-06,0.000205,0.01721,0.0001431,2.126,0.005393,0,1,0
107100000000,107400000000,3418432,0,329144835,0.001205,0.0813,0.09326,0.0005217,0.0008478,0.0813,2.861e-06,0.000205,0.01062,0.0001431,2.304,0.006314,0,1,0
107400000000,107700000000,3418432,0,329144835,0.001225,0.0813,0.09326,0.0005264,0.0008535,0.0813,2.861e-06,0.000205,0.01678,0.0002146,2.336,0.00632,0,1,0
107700000000,108000000000,3418432,0,329144835,0.001593,0.0813,0.09326,0.0005331,0.0008593,0.0813,2.861e-06,0.000205,0.01083,0.0001431,2.204,0.00578,0,1,0
108000000000,108300000000,3418432,0,329144835,0.00169,0.0813,0.09326,0.0005417,0.0008678,0.0813,3.815e-06,0.000205,0.04114,0.0004997,2.275,0.006186,0,1,0
108300000000,108600000000,3418432,0,329144835,0.001694,0.0813,0.09326,0.0005503,0.0008774,0.0813,4.768e-06,0.000205,0.01993,0.0008574,2.392,0.006735,0,1,0
108600000000,108900000000,3418432,0,329144835,0.001732,0.0813,0.09326,0.0005598,0.000886,0.0813,2.861e-06,0.000205,0.03668,0.0001431,2.291,0.006269,0,1,0
108900000000,109200000000,3418432,0,329144835,0.001713,0.0813,0.09326,0.0005693,0.0008955,0.0813,2.861e-06,0.000205,0.01791,0.0002861,2.058,0.005271,0,1,0
109200000000,109500000000,3418432,0,329144835,0.001745,0.0813,0.09326,0.0005779,0.000905,0.0813,3.815e-06,0.000205,0.01079,0.0004997,2.279,0.006131,0,1,0
109500000000,109800000000,3418432,0,329144835,0.001699,0.0813,0.09326,0.0005875,0.0009136,0.0813,2.861e-06,0.000205,0.03381,0.0002146,2.318,0.006263,0,1,0
109800000000,110100000000,3418432,0,329144835,0.00186,0.0813,0.09326,0.000597,0.0009241,0.0813,2.861e-06,0.000205,0.03198,0.0001431,2.127,0.005485,0,1,0
110100000000,110400000000,3418432,0,329144835,0.002026,0.0813,0.09326,0.0006075,0.0009336,0.0813,2.861e-06,0.000205,0.01503,0.0002146,2.167,0.005566,0,1,0
110400000000,110700000000,3418432,0,329144835,0.002277,0.0813,0.09326,0.0006189,0.0009451,0.0813,2.861e-06,0.000205,0.01694,0.0001431,2.211,0.00577,0,1,0
110700000000,111000000000,3418432,0,329144835,0.002525,0.0813,0.09326,0.0006313,0.0009584,0.0813,2.861e-06,0.000205,0.02435,0.0002861,2.189,0.005512,0,1,0
116100000000,116400000000,3418432,0,329144835,0.003468,0.0813,0.09326,0.000886,0.001213,0.0813,2.861e-06,0.000206,0.04651,0.0002146,2.086,0.005008,0,1,0
116400000000,116700000000,3418432,0,329144835,0.00359,0.0813,0.09326,0.0009041,0.00123,0.0813,5.722e-06,0.000206,0.02676,0.0007858,2.252,0.005667,0,1,0
116700000000,117000000000,3418432,0,329144835,0.003815,0.0813,0.09326,0.0009241,0.001249,0.0813,2.861e-06,0.000206,0.02893,0.0002146,2.182,0.00536,0,1,0
117000000000,117300000000,3418432,0,329144835,0.003365,0.0813,0.09326,0.0009432,0.00127,0.0813,2.861e-06,0.000206,0.02838,0.0001431,2.308,0.005761,0,1,0
117300000000,117600000000,3418432,0,329144835,0.003296,0.0813,0.09326,0.0009613,0.001287,0.0813,2.861e-06,0.000206,0.02136,0.0002146,2.18,0.005323,0,1,0
117600000000,117900000000,3418432,0,329144835,0.003357,0.0813,0.09326,0.0009804,0.001307,0.0813,3.815e-06,0.000206,0.03314,0.0004282,2.208,0.00554,0,1,0
117900000000,118200000000,3418432,0,329144835,0.002991,0.0813,0.09326,0.0009975,0.001324,0.0813,3.815e-06,0.000206,0.02371,0.0003567,2.133,0.005271,0,1,0
118200000000,118500000000,3418432,0,329144835,0.002945,0.0813,0.09326,0.001015,0.001341,0.0813,3.815e-06,0.000206,0.05988,0.0003567,2.172,0.005624,0,1,0
118500000000,118800000000,3418432,0,329144835,0.002937,0.0813,0.09326,0.001032,0.001358,0.0813,1.907e-06,0.000206,0.02271,0.0001431,1.903,0.004605,0,1,0
118800000000,119100000000,3418432,0,329144835,0.003159,0.0813,0.09326,0.001049,0.001375,0.0813,2.861e-06,0.000206,0.02847,0.0001431,2.116,0.005331,0,1,0
119100000000,119400000000,3418432,0,329144835,0.003155,0.0813,0.09326,0.001066,0.001394,0.0813,2.861e-06,0.000206,0.02271,0.0002146,2.129,0.005481,0,1,0
119400000000,119700000000,3418432,0,329144835,0.003212,0.0813,0.09326,0.001085,0.001411,0.0813,3.815e-06,0.000206,0.06409,0.0002146,2.038,0.005167,0,1,0
119700000000,120000000000,3418432,0,329144835,0.003494,0.0813,0.09326,0.001104,0.001431,0.0813,2.861e-06,0.000205,0.02267,0.0002146,2.058,0.005045,0,1,0
120000000000,120300000000,3418432,0,329144835,0.003242,0.0813,0.09326,0.001122,0.001448,0.0813,3.815e-06,0.0002041,0.03085,0.0002146,2.086,0.005067,0,1,0
120300000000,120600000000,3418432,0,329144835,0.003273,0.0813,0.09326,0.001139,0.001465,0.0813,3.815e-06,0.000205,0.02734,0.0002146,2.26,0.005839,0,1,0
120600000000,120900000000,3418432,0,329144835,0.003399,0.0813,0.09326,0.0004787,0.0008059,0.0813,2.861e-06,0.000205,0.05042,0.0001431,2.135,0.005213,0,1,0
126000000000,126300000000,3418432,0,329144835,0.003075,0.0813,0.09326,0.0006618,0.000988,0.0813,4.768e-06,0.000205,0.02856,0.0005713,2.289,0.00551,0,1,0
126300000000,126600000000,3418432,0,329144835,0.002899,0.0813,0.09326,0.0006771,0.001003,0.0813,8.583e-06,0.000205,0.01651,0.001358,2.28,0.005801,0,1,0
126600000000,126900000000,3418432,0,329144835,0.00325,0.0813,0.09326,0.0006924,0.001019,0.0813,2.861e-06,0.000205,0.03253,0.0002146,2.257,0.005371,0,1,0
126900000000,127200000000,3418432,0,329144835,0.003056,0.0813,0.09326,0.0007076,0.001034,0.0813,6.676e-06,0.000205,0.03284,0.001215,2.424,0.006197,0,1,0
127200000000,127500000000,3418432,0,329144835,0.002941,0.0813,0.09326,0.0007229,0.001051,0.0813,3.815e-06,0.000205,0.02908,0.0003567,2.183,0.005263,0,1,0
127500000000,127800000000,3418432,0,329144835,0.002953,0.0813,0.09326,0.0007391,0.001066,0.0813,2.861e-06,0.000205,0.02475,0.0002146,2.186,0.005506,0,1,0
127800000000,128100000000,3418432,0,329144835,0.003014,0.0813,0.09326,0.0007544,0.001081,0.0813,3.815e-06,0.000206,0.03107,0.0004282,2.241,0.005713,0,1,0
128100000000,128400000000,3418432,0,329144835,0.003208,0.0813,0.09326,0.0007696,0.001097,0.0813,3.815e-06,0.000206,0.03,0.0002861,2.127,0.005204,0,1,0
128400000000,128700000000,3418432,0,329144835,0.003178,0.0813,0.09326,0.0007858,0.001114,0.0813,2.861e-06,0.000206,0.02823,0.0001431,2.187,0.005383,0,1,0
128700000000,129000000000,3418432,0,329144835,0.003044,0.0813,0.09326,0.000802,0.001129,0.0813,3.815e-06,0.000206,0.03345,0.0002146,2.017,0.004765,0,1,0
129000000000,129300000000,3418432,0,329144835,0.003315,0.0813,0.09326,0.0008192,0.001146,0.0813,5.722e-06,0.000206,0.07544,0.0007858,2.194,0.005469,0,1,0
129300000000,129600000000,3418432,0,329144835,0.003262,0.0813,0.09326,0.0008354,0.001163,0.0813,4.768e-06,0.000206,0.02231,0.0006428,2.032,0.004941,0,1,0
129600000000,129900000000,3418432,0,329144835,0.003017,0.0813,0.09326,0.0008526,0.001179,0.0813,3.815e-06,0.000206,0.02548,0.0001431,1.947,0.00487,0,1,0
129900000000,130200000000,3418432,0,329144835,0.003185,0.0813,0.09326,0.0008698,0.001196,0.0813,2.861e-06,0.000206,0.0293,0.0002861,2.098,0.005389,0,1,0
130200000000,130500000000,3418432,0,329144835,0.003014,0.0813,0.09326,0.000886,0.001213,0.0813,2.861e-06,0.000206,0.05615,0.0001431,2.124,0.00559,0,1,0
130500000000,130800000000,3418432,0,329144835,0.003117,0.0813,0.09326,0.0009031,0.00123,0.0813,3.815e-06,0.000206,0.0228,0.0004282,2.073,0.005226,0,1,0
130800000000,131100000000,3418432,0,329144835,0.003105,0.0813,0.09326,0.0009203,0.001247,0.0813,2.861e-06,0.000206,0.04059,0.0001431,2.074,0.005249,0,1,0
141000000000,141300000000,3418432,0,329144835,0.003422,0.0813,0.09326,0.0007391,0.001066,0.0813,4.768e-06,0.000205,0.03748,0.0007143,2.036,0.004971,0,1,0
141300000000,141600000000,3418432,0,329144835,0.003403,0.0813,0.09326,0.0007563,0.001083,0.0813,2.861e-06,0.000206,0.04565,0.0002861,2.042,0.004987,0,1,0
141600000000,141900000000,3418432,0,329144835,0.003288,0.0813,0.09326,0.0007734,0.001101,0.0813,2.861e-06,0.000206,0.0351,0.0001431,2.055,0.00507,0,1,0
141900000000,142200000000,3418432,0,329144835,0.003391,0.0813,0.09326,0.0007915,0.00112,0.0813,4.768e-06,0.000206,0.02255,0.0007143,2.033,0.004897,0,1,0
142200000000,142500000000,3418432,0,329144835,0.003208,0.0813,0.09326,0.0008087,0.001137,0.0813,2.861e-06,0.000206,0.02237,0.0001431,2.169,0.005559,0,1,0
142500000000,142800000000,3418432,0,329144835,0.00325,0.0813,0.09326,0.0008259,0.001152,0.0813,2.861e-06,0.000206,0.0275,0.0002861,2.179,0.005787,0,1,0
142800000000,143100000000,3418432,0,329144835,0.003078,0.0813,0.09326,0.0008421,0.001169,0.0813,3.815e-06,0.000206,0.01865,0.0001431,2.112,0.005563,0,1,0
143100000000,143400000000,3418432,0,329144835,0.00359,0.0813,0.09326,0.0008593,0.001186,0.0813,2.861e-06,0.000206,0.03632,0.0002146,2.066,0.005267,0,1,0
143400000000,143700000000,3418432,0,329144835,0.003372,0.0813,0.09326,0.0008774,0.001204,0.0813,2.861e-06,0.000206,0.02322,0.0002146,2.104,0.005211,0,1,0
143700000000,144000000000,3418432,0,329144835,0.00301,0.0813,0.09326,0.0008936,0.001221,0.0813,2.861e-06,0.000206,0.01944,0.0001431,2.109,0.005328,0,1,0
144000000000,144300000000,3418432,0,329144835,0.003021,0.0813,0.09326,0.0009098,0.001236,0.0813,2.861e-06,0.000206,0.02444,0.0001431,1.997,0.005018,0,1,0
144300000000,144600000000,3418432,0,329144835,0.002987,0.0813,0.09326,0.0009251,0.001253,0.0813,2.861e-06,0.000206,0.04797,0.0002146,2.126,0.005597,0,1,0
144600000000,144900000000,3418432,0,329144835,0.002865,0.0813,0.09326,0.0009403,0.001266,0.0813,5.722e-06,0.000206,0.0376,0.0009289,2.213,0.005837,0,1,0
144900000000,145200000000,3418432,0,329144835,0.002815,0.0813,0.09326,0.0009556,0.001284,0.0813,4.768e-06,0.000206,0.0217,0.0006428,2.227,0.005795,0,1,0
145200000000,145500000000,3418432,0,329144835,0.002834,0.0813,0.09326,0.0009708,0.001297,0.0813,2.861e-06,0.000206,0.01518,0.0001431,2.258,0.005929,0,1,0
145500000000,145800000000,3418432,0,329144835,0.003151,0.0813,0.09326,0.0009861,0.001314,0.0813,7.629e-06,0.000206,0.02307,0.0007143,2.151,0.005513,0,1,0
145800000000,146100000000,3418432,0,329144835,0.003494,0.08142,0.09326,0.001015,0.001373,0.08154,0.0001612,0.000206,0.1039,0.04077,2.046,0.004875,0,1,0
151200000000,151500000000,3418432,0,329144835,0.002956,0.0813,0.09326,0.0004587,0.000782,0.0813,5.722e-06,0.000205,0.02454,0.0009995,2.146,0.005439,0,1,0
151500000000,151800000000,3418432,0,329144835,0.003002,0.0813,0.09326,0.0004749,0.0007982,0.0813,3.815e-06,0.000205,0.02408,0.0004282,2.197,0.005817,0,1,0
151800000000,152100000000,3418432,0,329144835,0.00293,0.0813,0.09326,0.0004902,0.0008144,0.0813,3.815e-06,0.000205,0.02039,0.0003567,2.122,0.005348,0,1,0
152100000000,152400000000,3418432,0,329144835,0.002953,0.0813,0.09326,0.0005064,0.0008297,0.0813,2.861e-06,0.000205,0.02777,0.0002146,2.003,0.004905,0,1,0
152400000000,152700000000,3418432,0,329144835,0.003036,0.0813,0.09326,0.0005207,0.000845,0.0813,3.815e-06,0.000205,0.04559,0.0001431,2.045,0.005122,0,1,0
152700000000,153000000000,3418432,0,329144835,0.003323,0.0813,0.09326,0.0005369,0.0008602,0.0813,3.815e-06,0.000205,0.06665,0.0002146,2.111,0.005323,0,1,0
153000000000,153300000000,3418432,0,329144835,0.00312,0.0813,0.09326,0.0005522,0.0008764,0.0813,3.815e-06,0.000205,0.02896,0.0001431,2.168,0.005506,0,1,0
153300000000,153600000000,3418432,0,329144835,0.003227,0.0813,0.09326,0.0005684,0.0008926,0.0813,2.861e-06,0.000205,0.02081,0.0002146,2.142,0.005413,0,1,0
153600000000,153900000000,3418432,0,329144835,0.003223,0.0813,0.09326,0.0005846,0.0009089,0.0813,3.815e-06,0.000205,0.02588,0.0002146,2.166,0.005468,0,1,0
153900000000,154200000000,3418432,0,329144835,0.003029,0.0813,0.09326,0.0006018,0.0009251,0.0813,2.861e-06,0.000205,0.02499,0.0001431,2.177,0.00561,0,1,0
154200000000,154500000000,3418432,0,329144835,0.001245,0.0813,0.09326,0.0006132,0.0009365,0.0813,2.861e-06,0.000205,0.01596,0.0001431,2.295,0.00613,0,1,0
154500000000,154800000000,3418432,0,329144835,0.001148,0.0813,0.09326,0.000618,0.0009413,0.0813,2.861e-06,0.000205,0.02866,0.0001431,2.07,0.005144,0,1,0
154800000000,155100000000,3418432,0,329144835,0.001081,0.0813,0.09326,0.0006218,0.000946,0.0813,3.815e-06,0.000205,0.01639,0.0001431,2.18,0.005832,0,1,0
155100000000,155400000000,3418432,0,329144835,0.001131,0.0813,0.09326,0.0006266,0.0009499,0.0813,2.861e-06,0.000205,0.03461,0.0002146,1.973,0.004843,0,1,0
155400000000,155700000000,3418432,0,329144835,0.001263,0.0813,0.09326,0.0006313,0.0009546,0.0813,2.861e-06,0.000205,0.01999,0.0002861,2.301,0.005971,0,1,0
155700000000,156000000000,3418432,0,329144835,0.001276,0.0813,0.09326,0.0006361,0.0009594,0.0813,2.861e-06,0.000205,0.02841,0.0002146,2.192,0.005494,0,1,0
161100000000,161400000000,3418432,0,329144835,0.001886,0.0813,0.09326,0.0008087,0.001131,0.0813,2.861e-06,0.000206,0.02744,0.0002146,2.249,0.005924,0,1,0
161400000000,161700000000,3418432,0,329144835,0.001863,0.0813,0.09326,0.0008173,0.001141,0.0813,3.815e-06,0.000206,0.0195,0.0004282,2.207,0.005801,0,1,0
161700000000,162000000000,3418432,0,329144835,0.001907,0.0813,0.09326,0.0008259,0.00115,0.0813,3.815e-06,0.000206,0.01378,0.0002146,1.98,0.004687,0,1,0
162000000000,162300000000,3418432,0,329144835,0.002037,0.0813,0.09326,0.0008354,0.00116,0.0813,3.815e-06,0.000206,0.02148,0.0002861,2.135,0.005433,0,1,0
162300000000,162600000000,3418432,0,329144835,0.001831,0.0813,0.09326,0.000845,0.001167,0.0813,4.768e-06,0.000206,0.01712,0.0007143,2.137,0.00532,0,1,0
162600000000,162900000000,3418432,0,329144835,0.001945,0.0813,0.09326,0.0008535,0.001177,0.0813,3.815e-06,0.000206,0.02316,0.0003567,2.266,0.005913,0,1,0
162900000000,163200000000,3418432,0,329144835,0.002098,0.0813,0.09326,0.0008621,0.001186,0.0813,2.861e-06,0.000206,0.02887,0.0002146,2.052,0.004968,0,1,0
163200000000,163500000000,3418432,0,329144835,0.002018,0.0813,0.09326,0.0008717,0.001196,0.0813,2.861e-06,0.000206,0.01463,0.0002861,2.235,0.005762,0,1,0
163500000000,163800000000,3418432,0,329144835,0.00206,0.0813,0.09326,0.0008812,0.001205,0.0813,2.861e-06,0.000206,0.03125,0.0002146,2.153,0.005531,0,1,0
163800000000,164100000000,3418432,0,329144835,0.001732,0.0813,0.09326,0.0008898,0.001213,0.0813,2.861e-06,0.000206,0.009811,0.0002146,2.274,0.006108,0,1,0
164100000000,164400000000,3418432,0,329144835,0.001995,0.0813,0.09326,0.0008993,0.001223,0.0813,2.861e-06,0.000206,0.02032,0.0002146,2.063,0.005123,0,1,0
164400000000,164700000000,3418432,0,329144835,0.001736,0.0813,0.09326,0.0009079,0.001232,0.0813,3.815e-06,0.000206,0.01218,0.0002861,2.152,0.005504,0,1,0
164700000000,165000000000,3418432,0,329144835,0.0019,0.0813,0.09326,0.0009165,0.00124,0.0813,3.815e-06,0.000206,0.05988,0.0005713,2.138,0.00533,0,1,0
165000000000,165300000000,3418432,0,329144835,0.001703,0.0813,0.09326,0.0009241,0.001247,0.0813,2.861e-06,0.000206,0.01407,0.0002146,2.25,0.005995,0,1,0
165300000000,165600000000,3418432,0,329144835,0.00172,0.0813,0.09326,0.0009327,0.001255,0.0813,2.861e-06,0.000206,0.01512,0.0001431,2.309,0.006254,0,1,0
165600000000,165900000000,3418432,0,329144835,0.001743,0.0813,0.09326,0.0009403,0.001265,0.0813,1.907e-06,0.000206,0.01575,0.0002146,2.185,0.00558,0,1,0
165900000000,166200000000,3418432,0,329144835,0.001652,0.0813,0.09326,0.000948,0.001272,0.0813,2.861e-06,0.000206,0.01532,0.0001431,1.902,0.004547,0,1,0
166200000000,166500000000,3418432,0,329144835,0.00168,0.0813,0.09326,0.0009556,0.00128,0.0813,2.861e-06,0.000206,0.01614,0.0002146,2.288,0.006043,0,1,0
166500000000,166800000000,3418432,0,329144835,0.001413,0.0813,0.09326,0.0009632,0.001287,0.0813,1.907e-06,0.000206,0.008713,0.0001431,2.179,0.005492,0,1,0
166800000000,167100000000,3418432,0,329144835,0.001083,0.0813,0.09326,0.000968,0.001291,0.0813,1.907e-06,0.000206,0.01126,0.0001431,2.075,0.004933,0,1,0
167100000000,167400000000,3418432,0,329144835,0.001024,0.0813,0.09326,0.0009718,0.001295,0.0813,3.815e-06,0.000206,0.02014,0.0004282,2.235,0.005853,0,1,0
167400000000,167700000000,3418432,0,329144835,0.00123,0.0813,0.09326,0.0009756,0.001299,0.0813,8.583e-06,0.000206,0.02332,0.001358,2.04,0.004812,0,1,0
167700000000,168000000000,3418432,0,329144835,0.00135,0.08142,0.09326,0.001001,0.001356,0.08154,0.000165,0.000206,0.05377,0.03217,3.433,0.01144,0,1,0
168000000000,168300000000,3418432,0,329144835,0.001064,0.08154,0.09326,0.001059,0.001478,0.08154,1.049e-05,0.000206,0.06091,0.001999,2.881,0.008991,0,1,0
168300000000,168600000000,3418432,0,329144835,0.001055,0.08154,0.09326,0.001059,0.001474,0.08154,7.629e-06,0.000206,0.0146,0.0004997,2.83,0.008643,0,1,0
168600000000,168900000000,3418432,0,329144835,0.001127,0.08154,0.09326,0.001055,0.001471,0.08154,6.676e-06,0.000206,0.01543,0.0006428,2.818,0.008806,0,1,0
168900000000,169200000000,3418432,0,329144835,0.001034,0.08154,0.09326,0.001053,0.001469,0.08154,7.629e-06,0.000206,0.01706,0.0007143,2.871,0.008961,0,1,0
169200000000,169500000000,3418432,0,329144835,0.000926,0.0813,0.09326,0.001144,0.001463,0.08154,3.815e-06,0.000206,0.01035,0.0003567,2.361,0.006438,0,1,0
169500000000,169800000000,3418432,0,329144835,0.0009537,0.0813,0.09326,0.0009995,0.001307,0.0813,3.815e-06,0.000206,0.02542,0.0002861,2.167,0.00551,0,1,0
169800000000,170100000000,3418432,0,329144835,0.0009623,0.0813,0.09326,0.001003,0.00131,0.0813,2.861e-06,0.000206,0.03098,0.0001431,2.225,0.005803,0,1,0
170100000000,170400000000,3418432,0,329144835,0.0009842,0.0813,0.09326,0.001005,0.001314,0.0813,2.861e-06,0.000206,0.02054,0.0002861,2.195,0.005711,0,1,0
170400000000,170700000000,3418432,0,329144835,0.0009174,0.0813,0.09326,0.001009,0.001316,0.0813,2.861e-06,0.000206,0.02689,0.0002146,1.983,0.00487,0,1,0
170700000000,171000000000,3418432,0,329144835,0.0008707,0.0813,0.09326,0.001013,0.00132,0.0813,2.861e-06,0.000206,0.02417,0.0002146,2.11,0.005398,0,1,0
171000000000,171300000000,3418432,0,329144835,0.0009212,0.0813,0.09326,0.001017,0.001324,0.0813,1.907e-06,0.000206,0.01436,0.0001431,1.935,0.004675,0,1,0
171300000000,171600000000,3418432,0,329144835,0.0009422,0.0813,0.09326,0.00102,0.001328,0.0813,4.768e-06,0.000206,0.01736,0.0007143,2.244,0.005954,0,1,0
171600000000,171900000000,3418432,0,329144835,0.0008459,0.0813,0.09326,0.001022,0.001329,0.0813,2.861e-06,0.000206,0.01216,0.0002146,2.199,0.005727,0,1,0
171900000000,172200000000,3418432,0,329144835,0.0009089,0.0813,0.09326,0.001026,0.001333,0.0813,1.907e-06,0.000206,0.01434,0.0001431,2.089,0.005237,0,1,0
172200000000,172500000000,3418432,0,329144835,0.0009251,0.0813,0.09326,0.00103,0.001337,0.0813,2.861e-06,0.000206,0.02856,0.0001431,2.117,0.005406,0,1,0
172500000000,172800000000,3418432,0,329144835,0.0009995,0.0813,0.09326,0.001034,0.001341,0.0813,2.861e-06,0.000206,0.01482,0.0002146,2.047,0.005084,0,1,0
172800000000,173100000000,3418432,0,329144835,0.0009756,0.0813,0.09326,0.001036,0.001343,0.0813,2.861e-06,0.000206,0.01544,0.0001431,2.162,0.005589,0,1,0
173100000000,173400000000,3418432,0,329144835,0.0009117,0.0813,0.09326,0.00104,0.001347,0.0813,2.861e-06,0.000206,0.01344,0.0002861,2.225,0.005775,0,1,0
173400000000,173700000000,3418432,0,329144835,0.0008993,0.0813,0.09326,0.001043,0.00135,0.0813,2.861e-06,0.000206,0.02548,0.0002861,2.001,0.00496,0,1,0
173700000000,174000000000,3418432,0,329144835,0.0009956,0.0813,0.09326,0.001047,0.001354,0.0813,2.861e-06,0.000206,0.01509,0.0001431,1.98,0.004787,0,1,0
174000000000,174300000000,3418432,0,329144835,0.0009212,0.0813,0.09326,0.001049,0.001356,0.0813,2.861e-06,0.000206,0.01666,0.0002146,2.164,0.005477,0,1,0
174300000000,174600000000,3418432,0,329144835,0.001017,0.0813,0.09326,0.001053,0.00136,0.0813,2.861e-06,0.000206,0.02359,0.0001431,2.056,0.004995,0,1,0
174600000000,174900000000,3418432,0,329144835,0.0008678,0.0813,0.09326,0.001057,0.001364,0.0813,3.815e-06,0.000206,0.007027,0.0002861,2.195,0.005743,0,1,0
174900000000,175200000000,3418432,0,329144835,0.0009165,0.0813,0.09326,0.001059,0.001366,0.0813,2.861e-06,0.000205,0.01096,0.0002146,2.321,0.006217,0,1,0
175200000000,175500000000,3418432,0,329144835,0.0008326,0.0813,0.09326,0.001062,0.001369,0.0813,3.815e-06,0.0002041,0.02032,0.0005713,2.37,0.006629,0,1,0
175500000000,175800000000,3418432,0,329144835,0.000988,0.0813,0.09326,0.001064,0.001371,0.0813,2.861e-06,0.0002041,0.01682,0.0001431,2.328,0.006134,0,1,0
175800000000,176100000000,3418432,0,329144835,0.0009317,0.0813,0.09326,0.001068,0.001375,0.0813,3.815e-06,0.0002041,0.01926,0.0004282,2.218,0.005614,0,1,0
186300000000,186600000000,3418432,0,329144835,0.0008841,0.0813,0.09326,0.0004072,0.0007143,0.0813,2.861e-06,0.000205,0.01324,0.0002146,2.056,0.005009,0,1,0
186600000000,186900000000,3418432,0,329144835,0.0009546,0.0813,0.09326,0.0004101,0.0007172,0.0813,1.907e-06,0.000205,0.01855,0.0001431,2.17,0.005376,0,1,0
186900000000,187200000000,3418432,0,329144835,0.0007992,0.0813,0.09326,0.0004129,0.00072,0.0813,2.861e-06,0.000205,0.01047,0.0002861,2.299,0.005939,0,1,0
187200000000,187500000000,3418432,0,329144835,0.0008078,0.0813,0.09326,0.0004158,0.0007229,0.0813,2.861e-06,0.000205,0.015,0.0001431,2.485,0.006904,0,1,0
187500000000,187800000000,3418432,0,329144835,0.0007248,0.0813,0.09326,0.0004187,0.0007257,0.0813,2.861e-06,0.000205,0.007843,0.0002861,2.326,0.006014,0,1,0
187800000000,188100000000,3418432,0,329144835,0.0007639,0.0813,0.09326,0.0004215,0.0007286,0.0813,2.861e-06,0.000205,0.01366,0.0002146,2.429,0.006351,0,1,0
188100000000,188400000000,3418432,0,329144835,0.0008221,0.0813,0.09326,0.0004244,0.0007315,0.0813,2.861e-06,0.000205,0.01424,0.0002146,2.294,0.005934,0,1,0
188400000000,188700000000,3418432,0,329144835,0.0007782,0.0813,0.09326,0.0004272,0.0007343,0.0813,2.861e-06,0.000205,0.01024,0.0002146,2.216,0.005685,0,1,0
188700000000,189000000000,3418432,0,329144835,0.0008659,0.0813,0.09326,0.0004301,0.0007372,0.0813,2.861e-06,0.000205,0.02512,0.0001431,2.229,0.005673,0,1,0
189000000000,189300000000,3418432,0,329144835,0.0007849,0.0813,0.09326,0.000433,0.0007401,0.0813,2.861e-06,0.000205,0.01459,0.0001431,2.32,0.006121,0,1,0
189300000000,189600000000,3418432,0,329144835,0.000865,0.0813,0.09326,0.0004358,0.0007429,0.0813,2.861e-06,0.000205,0.04315,0.0003567,2.202,0.005673,0,1,0
189600000000,189900000000,3418432,0,329144835,0.0008898,0.0813,0.09326,0.0004387,0.0007458,0.0813,3.815e-06,0.000205,0.01392,0.0005713,2.341,0.006279,0,1,0
189900000000,190200000000,3418432,0,329144835,0.0009623,0.0813,0.09326,0.0004416,0.0007486,0.0813,1.907e-06,0.000205,0.01324,0.0001431,2.114,0.005405,0,1,0
190200000000,190500000000,3418432,0,329144835,0.0008888,0.0813,0.09326,0.0004444,0.0007524,0.0813,2.861e-06,0.000205,0.02576,0.0002146,2.268,0.00615,0,1,0
190500000000,190800000000,3418432,0,329144835,0.0008917,0.0813,0.09326,0.0004473,0.0007553,0.0813,1.907e-06,0.000205,0.0318,7.153e-05,2.23,0.005819,0,1,0
190800000000,191100000000,3418432,0,329144835,0.001055,0.0813,0.09326,0.0004511,0.0007582,0.0813,3.815e-06,0.000205,0.01428,0.0004282,1.691,0.003593,0,1,0
191100000000,191400000000,3418432,0,329144835,0.001045,0.0813,0.09326,0.0004539,0.000762,0.0813,1.907e-06,0.000205,0.008865,0.0001431,2.003,0.004734,0,1,0
191400000000,191700000000,3418432,0,329144835,0.0009279,0.0813,0.09326,0.0004578,0.0007648,0.0813,1.907e-06,0.000205,0.009613,0.0001431,2.265,0.005755,0,1,0
191700000000,192000000000,3418432,0,329144835,0.000802,0.0813,0.09326,0.0004606,0.0007677,0.0813,3.815e-06,0.000205,0.009125,0.0004997,2.303,0.006001,0,1,0
192000000000,192300000000,3418432,0,329144835,0.0009346,0.0813,0.09326,0.0004635,0.0007706,0.0813,2.861e-06,0.000205,0.01236,0.0002146,2.04,0.004937,0,1,0
192300000000,192600000000,3418432,0,329144835,0.0008535,0.0813,0.09326,0.0004663,0.0007734,0.0813,2.861e-06,0.000205,0.01158,0.0001431,2.261,0.005867,0,1,0
192600000000,192900000000,3418432,0,329144835,0.0009394,0.0813,0.09326,0.0004692,0.0007772,0.0813,2.861e-06,0.000205,0.01103,0.0002861,1.95,0.004827,0,1,0
192900000000,193200000000,3418432,0,329144835,0.0008688,0.0813,0.09326,0.000473,0.0007801,0.0813,2.861e-06,0.000205,0.02148,0.0001431,2.235,0.006055,0,1,0
193200000000,193500000000,3418432,0,329144835,0.0008821,0.0813,0.09326,0.0004759,0.000783,0.0813,2.861e-06,0.000205,0.01205,0.0002146,2.225,0.005713,0,1,0
193500000000,193800000000,3418432,0,329144835,0.0008402,0.0813,0.09326,0.0004787,0.0007868,0.0813,2.861e-06,0.000205,0.009781,0.0002146,2.372,0.006414,0,1,0
193800000000,194100000000,3418432,0,329144835,0.000886,0.0813,0.09326,0.0004816,0.0007896,0.0813,2.861e-06,0.000205,0.02023,0.0001431,2.336,0.00643,0,1,0
194100000000,194400000000,3418432,0,329144835,0.0008154,0.0813,0.09326,0.0004854,0.0007925,0.0813,2.861e-06,0.000205,0.008499,0.0002146,2.206,0.005851,0,1,0
194400000000,194700000000,3418432,0,329144835,0.0009098,0.0813,0.09326,0.0004883,0.0007963,0.0813,3.815e-06,0.000205,0.0146,0.0007143,2.055,0.004962,0,1,0
194700000000,195000000000,3418432,0,329144835,0.0008307,0.0813,0.09326,0.0004921,0.0007992,0.0813,2.861e-06,0.000205,0.0105,0.0001431,2.315,0.006301,0,1,0
195000000000,195300000000,3418432,0,329144835,0.0008984,0.0813,0.09326,0.000495,0.000803,0.0813,3.815e-06,0.000205,0.01396,0.0003567,2.228,0.005721,0,1,0
195300000000,195600000000,3418432,0,329144835,0.0008688,0.0813,0.09326,0.0004988,0.0008059,0.0813,2.861e-06,0.000205,0.01031,0.0001431,2.241,0.005587,0,1,0
195600000000,195900000000,3418432,0,329144835,0.0008621,0.0813,0.09326,0.0005016,0.0008097,0.0813,2.861e-06,0.000205,0.01346,0.0002146,2.222,0.005681,0,1,0
195900000000,196200000000,3418432,0,329144835,0.0008669,0.0813,0.09326,0.0005054,0.0008125,0.0813,2.861e-06,0.000205,0.01372,0.0002146,2.165,0.005341,0,1,0
201300000000,201600000000,3418432,0,329144835,0.0009546,0.0813,0.09326,0.0005646,0.0008726,0.0813,3.815e-06,0.000205,0.008926,0.0006428,2.212,0.005803,0,1,0
201600000000,201900000000,3418432,0,329144835,0.0009232,0.0813,0.09326,0.0005684,0.0008755,0.0813,2.861e-06,0.000205,0.01605,0.0002146,2.193,0.005695,0,1,0
201900000000,202200000000,3418432,0,329144835,0.0009785,0.0813,0.09326,0.0005722,0.0008793,0.0813,3.815e-06,0.000205,0.0118,0.0005713,2.096,0.00515,0,1,0
202200000000,202500000000,3418432,0,329144835,0.0009298,0.0813,0.09326,0.0005751,0.0008831,0.0813,2.861e-06,0.000205,0.01584,0.0001431,2.284,0.005926,0,1,0
202500000000,202800000000,3418432,0,329144835,0.001131,0.0813,0.09326,0.0005789,0.0008869,0.0813,2.861e-06,0.000205,0.01323,0.0002146,2.23,0.005512,0,1,0
202800000000,203100000000,3418432,0,329144835,0.0008821,0.0813,0.09326,0.0005827,0.0008907,0.0813,2.861e-06,0.000205,0.01981,0.0002146,2.361,0.006385,0,1,0
203100000000,203400000000,3418432,0,329144835,0.00108,0.0813,0.09326,0.0005865,0.0008936,0.0813,2.861e-06,0.000205,0.02316,0.0001431,2.09,0.00518,0,1,0
203400000000,203700000000,3418432,0,329144835,0.0009737,0.0813,0.09326,0.0005903,0.0008974,0.0813,2.861e-06,0.000205,0.01112,0.0001431,2.332,0.006513,0,1,0
203700000000,204000000000,3418432,0,329144835,0.001217,0.0813,0.09326,0.0005941,0.0009012,0.0813,2.861e-06,0.000205,0.02591,0.0002146,2.226,0.005582,0,1,0
204000000000,204300000000,3418432,0,329144835,0.001015,0.0813,0.09326,0.000598,0.000905,0.0813,1.907e-06,0.000205,0.01178,0.0001431,2.295,0.006148,0,1,0
204300000000,204600000000,3418432,0,329144835,0.00123,0.0813,0.09326,0.0006018,0.0009098,0.0813,2.861e-06,0.000205,0.01562,0.0002146,1.979,0.00477,0,1,0
204600000000,204900000000,3418432,0,329144835,0.00115,0.0813,0.09326,0.0006056,0.0009136,0.0813,2.861e-06,0.000205,0.01491,0.0001431,2.215,0.00542,0,1,0
204900000000,205200000000,3418432,0,329144835,0.001141,0.0813,0.09326,0.0006104,0.0009174,0.0813,4.768e-06,0.000205,0.011,0.0007858,2.008,0.004838,0,1,0
205200000000,205500000000,3418432,0,329144835,0.001099,0.0813,0.09326,0.0006142,0.0009212,0.0813,2.861e-06,0.000205,0.01379,0.0001431,2.206,0.005508,0,1,0
205500000000,205800000000,3418432,0,329144835,0.001282,0.0813,0.09326,0.000618,0.000926,0.0813,3.815e-06,0.000205,0.04083,0.0004997,2.478,0.006181,0,1,0
205800000000,206100000000,3418432,0,329144835,0.0009575,0.0813,0.09326,0.0006218,0.0009298,0.0813,2.861e-06,0.000205,0.01233,0.0003567,2.224,0.005802,0,1,0
206100000000,206400000000,3418432,0,329144835,0.001028,0.0813,0.09326,0.0006256,0.0009336,0.0813,1.907e-06,0.000205,0.0329,0.0001431,2.256,0.005869,0,1,0
206400000000,206700000000,3418432,0,329144835,0.0009174,0.0813,0.09326,0.0006294,0.0009375,0.0813,4.768e-06,0.000205,0.0495,0.0004997,2.279,0.005942,0,1,0
206700000000,207000000000,3418432,0,329144835,0.00107,0.0813,0.09326,0.0006332,0.0009413,0.0813,1.907e-06,0.000205,0.01033,0.0002146,2.165,0.005309,0,1,0
207000000000,207300000000,3418432,0,329144835,0.0009766,0.0813,0.09326,0.0006371,0.0009441,0.0813,2.861e-06,0.000205,0.04132,0.0002146,2.059,0.005267,0,1,0
207300000000,207600000000,3418432,0,329144835,0.001009,0.0813,0.09326,0.0006399,0.000948,0.0813,2.861e-06,0.000205,0.02954,0.0002146,2.044,0.004964,0,1,0
207600000000,207900000000,3418432,0,329144835,0.0008392,0.0813,0.09326,0.0006437,0.0009518,0.0813,3.815e-06,0.000205,0.02417,0.0002861,2.659,0.007842,0,1,0
207900000000,208200000000,3418432,0,329144835,0.0009441,0.0813,0.09326,0.0006475,0.0009546,0.0813,3.815e-06,0.000205,0.01941,0.0002861,2.183,0.00571,0,1,0
208200000000,208500000000,3418432,0,329144835,0.0009079,0.0813,0.09326,0.0006504,0.0009584,0.0813,4.768e-06,0.000205,0.01277,0.0004997,2.459,0.006665,0,1,0
208500000000,208800000000,3418432,0,329144835,0.00102,0.0813,0.09326,0.0006542,0.0009623,0.0813,1.907e-06,0.000205,0.01648,0.0001431,2.229,0.005646,0,1,0
208800000000,209100000000,3418432,0,329144835,0.0008602,0.0813,0.09326,0.000658,0.0009651,0.0813,2.861e-06,0.000205,0.01648,0.0001431,2.4,0.006422,0,1,0
209100000000,209400000000,3418432,0,329144835,0.0009956,0.0813,0.09326,0.0006618,0.0009689,0.0813,2.861e-06,0.000205,0.007248,0.0002146,2.223,0.00556,0,1,0
209400000000,209700000000,3418432,0,329144835,0.0009298,0.0813,0.09326,0.0006647,0.0009727,0.0813,1.907e-06,0.000205,0.04144,0.0002146,2.336,0.006133,0,1,0
209700000000,210000000000,3418432,0,329144835,0.0009499,0.0813,0.09326,0.0006685,0.0009766,0.0813,2.861e-06,0.000205,0.01733,0.0002861,2.289,0.00601,0,1,0
210000000000,210300000000,3418432,0,329144835,0.0008268,0.0813,0.09326,0.0006733,0.0009804,0.0813,5.722e-06,0.000205,0.02185,0.0006428,2.246,0.005894,0,1,0
210300000000,210600000000,3418432,0,329144835,0.001028,0.0813,0.09326,0.0006762,0.0009842,0.0813,6.676e-06,0.000205,0.01221,0.001072,2.135,0.005104,0,1,0
210600000000,210900000000,3418432,0,329144835,0.0009127,0.0813,0.09326,0.00068,0.000988,0.0813,2.861e-06,0.000205,0.02112,0.0002861,2.176,0.00559,0,1,0
210900000000,211200000000,3418432,0,329144835,0.0009718,0.0813,0.09326,0.0006838,0.0009918,0.0813,1.907e-06,0.000205,0.03784,0.0001431,2.273,0.005917,0,1,0
211200000000,211500000000,3418432,0,329144835,0.0009823,0.0813,0.09326,0.0006876,0.0009956,0.0813,3.815e-06,0.000205,0.02396,0.0002146,2.343,0.006182,0,1,0
211500000000,211800000000,3418432,0,329144835,0.0009298,0.0813,0.09326,0.0006905,0.0009995,0.0813,4.768e-06,0.000205,0.01527,0.0007858,2.496,0.00641,0,1,0
211800000000,212100000000,3418432,0,329144835,0.0008917,0.0813,0.09326,0.0006943,0.001001,0.0813,2.861e-06,0.000205,0.01007,0.0002146,2.372,0.006287,0,1,0
212100000000,212400000000,3418432,0,329144835,0.0009184,0.0813,0.09326,0.0006981,0.001005,0.0813,2.861e-06,0.000205,0.01357,0.0002146,2.52,0.007171,0,1,0
212400000000,212700000000,3418432,0,329144835,0.0008574,0.0813,0.09326,0.000701,0.001009,0.0813,3.815e-06,0.000205,0.007767,0.0002861,2.412,0.006377,0,1,0
212700000000,213000000000,3418432,0,329144835,0.0009184,0.0813,0.09326,0.0007048,0.001013,0.0813,2.861e-06,0.000205,0.0242,0.0002146,2.22,0.005692,0,1,0
213000000000,213300000000,3418432,0,329144835,0.0009403,0.0813,0.09326,0.0007086,0.001017,0.0813,1.907e-06,0.000205,0.01492,0.0001431,2.404,0.006193,0,1,0
213300000000,213600000000,3418432,0,329144835,0.0009403,0.0813,0.09326,0.0007124,0.00102,0.0813,2.861e-06,0.000205,0.01889,0.0002861,2.216,0.005637,0,1,0
213600000000,213900000000,3418432,0,329144835,0.0009661,0.0813,0.09326,0.0007153,0.001024,0.0813,2.861e-06,0.000205,0.008408,0.0001431,2.113,0.005279,0,1,0
213900000000,214200000000,3418432,0,329144835,0.00107,0.0813,0.09326,0.00072,0.001028,0.0813,2.861e-06,0.000205,0.01483,0.0002146,2.299,0.00606,0,1,0
214200000000,214500000000,3418432,0,329144835,0.0009756,0.0813,0.09326,0.0007238,0.001032,0.0813,2.861e-06,0.000205,0.02182,0.0003567,2.223,0.005706,0,1,0
214500000000,214800000000,3418432,0,329144835,0.0009956,0.0813,0.09326,0.0007277,0.001036,0.0813,4.768e-06,0.000205,0.02368,0.0004282,2.218,0.005662,0,1,0
214800000000,215100000000,3418432,0,329144835,0.0009546,0.0813,0.09326,0.0007315,0.00104,0.0813,2.861e-06,0.000205,0.03217,0.0002146,2.405,0.006507,0,1,0
215100000000,215400000000,3418432,0,329144835,0.0009298,0.0813,0.09326,0.0007353,0.001043,0.0813,2.861e-06,0.000206,0.01344,0.0002146,2.363,0.006302,0,1,0
215400000000,215700000000,3418432,0,329144835,0.0009613,0.0813,0.09326,0.0007381,0.001045,0.0813,2.861e-06,0.000206,0.009933,0.0001431,2.27,0.005846,0,1,0
215700000000,216000000000,3418432,0,329144835,0.001011,0.0813,0.09326,0.000742,0.001049,0.0813,3.815e-06,0.000206,0.01657,0.0004282,2.192,0.005673,0,1,0
216000000000,216300000000,3418432,0,329144835,0.0009346,0.0813,0.09326,0.0007458,0.001053,0.0813,1.907e-06,0.000206,0.008682,0.0001431,2.402,0.006459,0,1,0
221100000000,221400000000,3418432,0,329144835,0.001026,0.0813,0.09326,0.0008154,0.001123,0.0813,2.861e-06,0.000206,0.01773,0.0001431,2.091,0.005322,0,1,0
221400000000,221700000000,3418432,0,329144835,0.0009508,0.0813,0.09326,0.0008192,0.001127,0.0813,2.861e-06,0.000206,0.02249,0.0001431,2.509,0.007374,0,1,0
221700000000,222000000000,3418432,0,329144835,0.001116,0.0813,0.09326,0.000824,0.001131,0.0813,2.861e-06,0.000206,0.0119,0.0002861,2.202,0.005897,0,1,0
222000000000,222300000000,3418432,0,329144835,0.0009975,0.0813,0.09326,0.0008278,0.001135,0.0813,3.815e-06,0.000206,0.02484,0.0004282,2.215,0.00597,0,1,0
222300000000,222600000000,3418432,0,329144835,0.001078,0.0813,0.09326,0.0008316,0.001139,0.0813,1.907e-06,0.000206,0.0484,7.153e-05,2.284,0.00625,0,1,0
222600000000,222900000000,3418432,0,329144835,0.001047,0.0813,0.09326,0.0008354,0.001143,0.0813,4.768e-06,0.000206,0.02176,0.0007143,2.125,0.005581,0,1,0
222900000000,223200000000,3418432,0,329144835,0.001154,0.0813,0.09326,0.0008402,0.001148,0.0813,2.861e-06,0.000206,0.02499,0.0002861,2.238,0.00604,0,1,0
223200000000,223500000000,3418432,0,329144835,0.001078,0.0813,0.09326,0.000844,0.001152,0.0813,2.861e-06,0.000206,0.01901,0.0001431,2.328,0.006341,0,1,0
223500000000,223800000000,3418432,0,329144835,0.001169,0.0813,0.09326,0.0008488,0.001156,0.0813,2.861e-06,0.000206,0.02585,0.0002146,2.019,0.005053,0,1,0
223800000000,224100000000,3418432,0,329144835,0.001106,0.0813,0.09326,0.0008535,0.001162,0.0813,2.861e-06,0.000206,0.05005,0.0002146,2.216,0.005719,0,1,0
224100000000,224400000000,3418432,0,329144835,0.001068,0.0813,0.09326,0.0008574,0.001165,0.0813,2.861e-06,0.000206,0.02478,0.0001431,2.418,0.006628,0,1,0
224400000000,224700000000,3418432,0,329144835,0.001068,0.0813,0.09326,0.0008612,0.001169,0.0813,5.722e-06,0.000206,0.02081,0.0009995,2.498,0.007013,0,1,0
224700000000,225000000000,3418432,0,329144835,0.001053,0.0813,0.09326,0.0008659,0.001173,0.0813,4.768e-06,0.000206,0.04822,0.0004997,2.354,0.006391,0,1,0
225000000000,225300000000,3418432,0,329144835,0.0009785,0.0813,0.09326,0.0008698,0.001177,0.0813,2.861e-06,0.000206,0.009354,0.0002146,2.131,0.005568,0,1,0
225300000000,225600000000,3418432,0,329144835,0.001049,0.0813,0.09326,0.0008736,0.001181,0.0813,1.907e-06,0.000206,0.02448,7.153e-05,2.312,0.006163,0,1,0
225600000000,225900000000,3418432,0,329144835,0.001122,0.0813,0.09326,0.0008774,0.001184,0.0813,2.861e-06,0.000206,0.02594,0.0001431,1.997,0.004839,0,1,0
225900000000,226200000000,3418432,0,329144835,0.001022,0.0813,0.09326,0.0008812,0.001188,0.0813,2.861e-06,0.000206,0.03412,0.0001431,1.97,0.004692,0,1,0
226200000000,226500000000,3418432,0,329144835,0.000927,0.0813,0.09326,0.000885,0.001192,0.0813,3.815e-06,0.000206,0.02087,0.0002861,2.236,0.005995,0,1,0
226500000000,226800000000,3418432,0,329144835,0.001032,0.0813,0.09326,0.0008888,0.001196,0.0813,2.861e-06,0.000206,0.02225,0.0002146,2.15,0.005515,0,1,0
226800000000,227100000000,3418432,0,329144835,0.0009804,0.0813,0.09326,0.0008926,0.0012,0.0813,1.907e-06,0.000206,0.01288,0.0001431,2.339,0.006324,0,1,0
227100000000,227400000000,3418432,0,329144835,0.001032,0.0813,0.09326,0.0008965,0.001205,0.0813,2.861e-06,0.000206,0.01497,0.0001431,2.349,0.00629,0,1,0
227400000000,227700000000,3418432,0,329144835,0.001106,0.0813,0.09326,0.0009003,0.001209,0.0813,2.861e-06,0.000206,0.01654,0.0002146,2.069,0.00487,0,1,0
227700000000,228000000000,3418432,0,329144835,0.001131,0.0813,0.09326,0.0009041,0.001213,0.0813,2.861e-06,0.000206,0.01657,0.0001431,2.271,0.005668,0,1,0
228000000000,228300000000,3418432,0,329144835,0.001204,0.0813,0.09326,0.0009089,0.001217,0.0813,6.676e-06,0.000206,0.02728,0.001215,2.162,0.005365,0,1,0
228300000000,228600000000,3418432,0,329144835,0.00116,0.0813,0.09326,0.0009127,0.001221,0.0813,3.815e-06,0.000206,0.02905,0.0006428,2.198,0.005485,0,1,0
228600000000,228900000000,3418432,0,329144835,0.001026,0.0813,0.09326,0.0009165,0.001225,0.0813,2.861e-06,0.000206,0.04144,0.0002146,2.412,0.006582,0,1,0
228900000000,229200000000,3418432,0,329144835,0.001055,0.0813,0.09326,0.0009203,0.001228,0.0813,2.861e-06,0.000206,0.01724,0.0002146,2.401,0.00664,0,1,0
229200000000,229500000000,3418432,0,329144835,0.0009937,0.0813,0.09326,0.0009241,0.001232,0.0813,2.861e-06,0.000206,0.02402,0.0002146,1.952,0.004841,0,1,0
229500000000,229800000000,3418432,0,329144835,0.001184,0.0813,0.09326,0.0009279,0.001236,0.0813,2.861e-06,0.000206,0.04742,0.0002146,2.016,0.00487,0,1,0
229800000000,230100000000,3418432,0,329144835,0.001085,0.0813,0.09326,0.0009327,0.00124,0.0813,2.861e-06,0.000206,0.02054,0.0002861,2.312,0.006292,0,1,0
230100000000,230400000000,3418432,0,329144835,0.001213,0.0813,0.09326,0.0009365,0.001244,0.0813,5.722e-06,0.000206,0.01917,0.0009995,2.074,0.0052,0,1,0
230400000000,230700000000,3418432,0,329144835,0.00106,0.0813,0.09326,0.0009413,0.001249,0.0813,2.861e-06,0.000206,0.01453,0.0001431,2.36,0.006384,0,1,0
230700000000,231000000000,3418432,0,329144835,0.001087,0.0813,0.09326,0.0009451,0.001253,0.0813,2.861e-06,0.000206,0.01112,0.0002146,2.116,0.005463,0,1,0
231000000000,231300000000,3418432,0,329144835,0.001163,0.0813,0.09326,0.0009489,0.001257,0.0813,3.815e-06,0.000206,0.01587,0.0003567,1.91,0.004765,0,1,0
231300000000,231600000000,3418432,0,329144835,0.001097,0.0813,0.09326,0.0009537,0.001261,0.0813,3.815e-06,0.000206,0.04822,0.0005713,2.281,0.006073,0,1,0
231600000000,231900000000,3418432,0,329144835,0.001102,0.0813,0.09326,0.0009575,0.001265,0.0813,2.861e-06,0.000206,0.01953,0.0002861,2.215,0.005799,0,1,0
231900000000,232200000000,3418432,0,329144835,0.0009899,0.0813,0.09326,0.0009613,0.001268,0.0813,1.907e-06,0.000206,0.01794,0.0001431,2.382,0.006503,0,1,0
232200000000,232500000000,3418432,0,329144835,0.0009937,0.0813,0.09326,0.0009651,0.001272,0.0813,2.861e-06,0.000206,0.01758,0.0001431,2.248,0.005879,0,1,0
232500000000,232800000000,3418432,0,329144835,0.0009575,0.0813,0.09326,0.0009689,0.001276,0.0813,2.861e-06,0.000206,0.01509,0.0002861,2.233,0.005926,0,1,0
232800000000,233100000000,3418432,0,329144835,0.0009012,0.0813,0.09326,0.0009727,0.00128,0.0813,4.768e-06,0.000206,0.02042,0.0009289,2.094,0.005254,0,1,0
233100000000,233400000000,3418432,0,329144835,0.000885,0.0813,0.09326,0.0009756,0.001284,0.0813,3.815e-06,0.000206,0.01279,0.0003567,2.299,0.006229,0,1,0
233400000000,233700000000,3418432,0,329144835,0.00102,0.0813,0.09326,0.0009804,0.001287,0.0813,2.861e-06,0.000206,0.02307,0.0002146,2.162,0.00564,0,1,0
233700000000,234000000000,3418432,0,329144835,0.0009861,0.0813,0.09326,0.0009842,0.001291,0.0813,2.861e-06,0.000206,0.01682,0.0003567,2.229,0.005676,0,1,0
234000000000,234300000000,3418432,0,329144835,0.001179,0.0813,0.09326,0.000988,0.001295,0.0813,3.815e-06,0.000206,0.03619,0.0004282,1.936,0.004648,0,1,0
234300000000,234600000000,3418432,0,329144835,0.001169,0.0813,0.09326,0.0009918,0.001299,0.0813,2.861e-06,0.000206,0.05212,0.0002146,2.211,0.005886,0,1,0
234600000000,234900000000,3418432,0,329144835,0.001078,0.0813,0.09326,0.0009956,0.001305,0.0813,2.861e-06,0.000206,0.01515,0.0002146,2.169,0.005703,0,1,0
234900000000,235200000000,3418432,0,329144835,0.001045,0.0813,0.09326,0.0009995,0.001308,0.0813,3.815e-06,0.000206,0.03079,0.0004282,2.28,0.00615,0,1,0
235200000000,235500000000,3418432,0,329144835,0.001141,0.0813,0.09326,0.001003,0.001312,0.0813,3.815e-06,0.000206,0.03333,0.0002861,2.316,0.006114,0,1,0
235500000000,235800000000,3418432,0,329144835,0.001131,0.0813,0.09326,0.001007,0.001316,0.0813,3.815e-06,0.000206,0.02075,0.0002861,2.328,0.006285,0,1,0
235800000000,236100000000,3418432,0,329144835,0.001034,0.0813,0.09326,0.001013,0.00132,0.0813,3.815e-06,0.000206,0.0195,0.0003567,2.214,0.005916,0,1,0
236100000000,236400000000,3418432,0,329144835,0.000988,0.0813,0.09326,0.001015,0.001324,0.0813,2.861e-06,0.000206,0.01828,0.0002146,2.218,0.005851,0,1,0
241200000000,241500000000,3418432,0,329144835,0.001104,0.0813,0.09326,0.001081,0.00139,0.0813,2.861e-06,0.000206,0.01724,0.0002146,2.286,0.006006,0,1,0
241500000000,241800000000,3418432,0,329144835,0.001215,0.0813,0.09326,0.001087,0.001394,0.0813,2.861e-06,0.000206,0.01849,0.0002146,2.032,0.005006,0,1,0
241800000000,242100000000,3418432,0,329144835,0.001053,0.0813,0.09326,0.001091,0.001398,0.0813,2.861e-06,0.000206,0.01587,0.0002146,2.09,0.005317,0,1,0
242100000000,242400000000,3418432,0,329144835,0.001272,0.0813,0.09326,0.001095,0.001402,0.0813,2.861e-06,0.000206,0.02307,0.0002861,1.884,0.004467,0,1,0
242400000000,242700000000,3418432,0,329144835,0.001112,0.0813,0.09326,0.001099,0.001408,0.0813,2.861e-06,0.0002041,0.01575,0.0002146,2.287,0.00624,0,1,0
242700000000,243000000000,3418432,0,329144835,0.001049,0.0813,0.09326,0.001104,0.001411,0.0813,2.861e-06,0.0002041,0.01512,0.0002861,2.134,0.005464,0,1,0
243000000000,243300000000,3418432,0,329144835,0.001099,0.0813,0.09326,0.001108,0.001415,0.0813,2.861e-06,0.0002041,0.01115,0.0002146,2.273,0.006069,0,1,0
243300000000,243600000000,3418432,0,329144835,0.00103,0.0813,0.09326,0.001112,0.001419,0.0813,6.676e-06,0.0002041,0.0107,0.001358,2.23,0.005856,0,1,0
243600000000,243900000000,3418432,0,329144835,0.001116,0.0813,0.09326,0.001116,0.001425,0.0813,2.861e-06,0.0002041,0.03247,0.0002146,2.123,0.005497,0,1,0
243900000000,244200000000,3418432,0,329144835,0.001125,0.0813,0.09326,0.001122,0.001429,0.0813,1.907e-06,0.0002041,0.02576,0.0001431,2.149,0.00552,0,1,0
244200000000,244500000000,3418432,0,329144835,0.001156,0.0813,0.09326,0.001125,0.001432,0.0813,2.861e-06,0.0002041,0.04272,0.0001431,2.302,0.006321,0,1,0
244500000000,244800000000,3418432,0,329144835,0.001123,0.0813,0.09326,0.001129,0.001436,0.0813,2.861e-06,0.000205,0.01163,0.0002146,2.245,0.005916,0,1,0
244800000000,245100000000,3418432,0,329144835,0.001089,0.0813,0.09326,0.001133,0.001442,0.0813,2.861e-06,0.000205,0.02545,0.0002146,2.218,0.005843,0,1,0
245100000000,245400000000,3418432,0,329144835,0.001163,0.0813,0.09326,0.001139,0.001446,0.0813,1.907e-06,0.000205,0.03455,0.0001431,2.276,0.006274,0,1,0
245400000000,245700000000,3418432,0,329144835,0.001122,0.0813,0.09326,0.001143,0.001451,0.0813,4.768e-06,0.000205,0.0114,0.0007143,2.215,0.005953,0,1,0
245700000000,246000000000,3418432,0,329144835,0.001137,0.0813,0.09326,0.0004396,0.0007477,0.0813,2.861e-06,0.000205,0.03253,0.0001431,2.158,0.005503,0,1,0
246000000000,246300000000,3418432,0,329144835,0.001186,0.0813,0.09326,0.0003748,0.0006819,0.0813,2.861e-06,0.000205,0.01227,0.0001431,2.298,0.006145,0,1,0
251400000000,251700000000,3418432,0,329144835,0.001055,0.0813,0.09326,0.000453,0.000761,0.0813,6.676e-06,0.000205,0.01205,0.0007143,2.134,0.005523,0,1,0
251700000000,252000000000,3418432,0,329144835,0.001057,0.0813,0.09326,0.0004568,0.0007648,0.0813,1.907e-06,0.000205,0.02844,0.0001431,2.023,0.004996,0,1,0
252000000000,252300000000,3418432,0,329144835,0.00104,0.0813,0.09326,0.0004606,0.0007687,0.0813,2.861e-06,0.000205,0.02533,0.0002146,2.467,0.006663,0,1,0
252300000000,252600000000,3418432,0,329144835,0.0009842,0.0813,0.09326,0.0004644,0.0007725,0.0813,1.907e-06,0.000205,0.02646,0.0001431,2.281,0.006246,0,1,0
252600000000,252900000000,3418432,0,329144835,0.00108,0.0813,0.09326,0.0004683,0.0007763,0.0813,1.907e-06,0.000205,0.02557,0.0001431,2.23,0.005772,0,1,0
252900000000,253200000000,3418432,0,329144835,0.001053,0.0813,0.09326,0.0004721,0.0007801,0.0813,2.861e-06,0.000205,0.007195,0.0002146,2.021,0.004791,0,1,0
253200000000,253500000000,3418432,0,329144835,0.00106,0.0813,0.09326,0.0004759,0.0007839,0.0813,2.861e-06,0.000205,0.02859,0.0001431,2.26,0.005856,0,1,0
253500000000,253800000000,3418432,0,329144835,0.001059,0.0813,0.09326,0.0004797,0.0007877,0.0813,2.861e-06,0.000205,0.02145,0.0001431,2.195,0.005755,0,1,0
253800000000,254100000000,3418432,0,329144835,0.00108,0.0813,0.09326,0.0004845,0.0007915,0.0813,3.815e-06,0.000205,0.04889,0.0002861,2.087,0.005331,0,1,0
254100000000,254400000000,3418432,0,329144835,0.001123,0.0813,0.09326,0.0004883,0.0007963,0.0813,6.676e-06,0.000205,0.01788,0.0007143,2.101,0.005291,0,1,0
254400000000,254700000000,3418432,0,329144835,0.001816,0.0813,0.09326,0.000515,0.0008602,0.08154,0.000145,0.000205,0.073,0.0235,4.861,0.01834,0,1,0
254700000000,255000000000,3418432,0,329144835,0.001028,0.08154,0.09326,0.0005569,0.0009737,0.08154,9.537e-06,0.000205,0.02704,0.001999,2.534,0.007535,0,1,0
255000000000,255300000000,3418432,0,329144835,0.00102,0.08154,0.09326,0.0005598,0.0009756,0.08154,3.815e-06,0.000205,0.02283,0.0002861,2.658,0.0079,0,1,0
255300000000,255600000000,3418432,0,329144835,0.001287,0.08154,0.09326,0.0005636,0.0009804,0.08154,3.815e-06,0.000205,0.0481,0.0003567,2.421,0.006933,0,1,0
255600000000,255900000000,3418432,0,329144835,0.001097,0.08154,0.09326,0.0005674,0.0009842,0.08154,5.722e-06,0.000205,0.01387,0.0006428,2.815,0.00851,0,1,0
255900000000,256200000000,3418432,0,329144835,0.001076,0.08154,0.09326,0.0005703,0.000988,0.08154,4.768e-06,0.000205,0.01895,0.0006428,2.69,0.008123,0,1,0
256200000000,256500000000,3418432,0,329144835,0.0009518,0.08154,0.09326,0.0005741,0.0009918,0.08154,3.815e-06,0.000205,0.00827,0.0002861,2.814,0.008488,0,1,0
256500000000,256800000000,3418432,0,329144835,0.001013,0.08154,0.09326,0.0005779,0.0009956,0.08154,2.861e-06,0.000205,0.02274,0.0002861,2.903,0.008962,0,1,0
256800000000,257100000000,3418432,0,329144835,0.0008993,0.0813,0.09326,0.0006466,0.000967,0.08154,6.676e-06,0.000205,0.009598,0.0007858,2.237,0.005953,0,1,0
257100000000,257400000000,3418432,0,329144835,0.001019,0.0813,0.09326,0.0005264,0.0008335,0.0813,2.861e-06,0.000205,0.01311,0.0002146,2.023,0.004845,0,1,0
257400000000,257700000000,3418432,0,329144835,0.00103,0.0813,0.09326,0.0005293,0.0008373,0.0813,2.861e-06,0.000205,0.02338,0.0002146,2.134,0.005447,0,1,0
257700000000,258000000000,3418432,0,329144835,0.0009632,0.0813,0.09326,0.0005331,0.0008411,0.0813,3.815e-06,0.000205,0.01375,0.0004997,2.194,0.005656,0,1,0
258000000000,258300000000,3418432,0,329144835,0.0009336,0.0813,0.09326,0.0005369,0.000845,0.0813,2.861e-06,0.000205,0.02356,0.0002146,2.268,0.005946,0,1,0
258300000000,258600000000,3418432,0,329144835,0.0009232,0.0813,0.09326,0.0005398,0.0008478,0.0813,2.861e-06,0.000205,0.01941,0.0002146,2.269,0.005907,0,1,0
258600000000,258900000000,3418432,0,329144835,0.0009298,0.0813,0.09326,0.0005436,0.0008516,0.0813,2.861e-06,0.000205,0.01733,0.0002146,2.343,0.006325,0,1,0
258900000000,259200000000,3418432,0,329144835,0.0009413,0.0813,0.09326,0.0005474,0.0008545,0.0813,1.907e-06,0.000205,0.009857,7.153e-05,2.246,0.005877,0,1,0
259200000000,259500000000,3418432,0,329144835,0.000948,0.0813,0.09326,0.0005503,0.0008583,0.0813,2.861e-06,0.000205,0.01675,0.0002861,2.399,0.006693,0,1,0
259500000000,259800000000,3418432,0,329144835,0.0009098,0.0813,0.09326,0.0005541,0.0008621,0.0813,1.907e-06,0.000205,0.02512,7.153e-05,2.213,0.005835,0,1,0
259800000000,260100000000,3418432,0,329144835,0.0008659,0.0813,0.09326,0.0005569,0.000865,0.0813,3.815e-06,0.000205,0.01828,0.0002861,2.028,0.005164,0,1,0
260100000000,260400000000,3418432,0,329144835,0.0008287,0.0813,0.09326,0.0005608,0.0008688,0.0813,1.907e-06,0.000205,0.03036,0.0001431,2.159,0.005855,0,1,0
260400000000,260700000000,3418432,0,329144835,0.0008574,0.0813,0.09326,0.0005636,0.0008717,0.0813,1.907e-06,0.000205,0.03259,0.0002146,1.934,0.004798,0,1,0
260700000000,261000000000,3418432,0,329144835,0.0009031,0.0813,0.09326,0.0005674,0.0008745,0.0813,3.815e-06,0.000205,0.01207,0.0005713,2.127,0.005553,0,1,0
261000000000,261300000000,3418432,0,329144835,0.000844,0.0813,0.09326,0.0005703,0.0008783,0.0813,8.583e-06,0.000205,0.01466,0.001072,2.19,0.00582,0,1,0
261300000000,261600000000,3418432,0,329144835,0.0009203,0.0813,0.09326,0.0005732,0.0008812,0.0813,2.861e-06,0.000205,0.01395,0.0002146,2.324,0.006248,0,1,0
261600000000,261900000000,3418432,0,329144835,0.0008974,0.0813,0.09326,0.000577,0.0008841,0.0813,2.861e-06,0.000205,0.008423,0.0002146,2.311,0.006087,0,1,0
261900000000,262200000000,3418432,0,329144835,0.0009718,0.0813,0.09326,0.0005798,0.0008879,0.0813,1.907e-06,0.000205,0.02368,7.153e-05,2.138,0.005408,0,1,0
262200000000,262500000000,3418432,0,329144835,0.0008755,0.0813,0.09326,0.0005836,0.0008907,0.0813,2.861e-06,0.000205,0.01402,0.0002146,2.274,0.006085,0,1,0
262500000000,262800000000,3418432,0,329144835,0.0009279,0.0813,0.09326,0.0005865,0.0008945,0.0813,2.861e-06,0.000205,0.01312,0.0002861,2.233,0.005923,0,1,0
262800000000,263100000000,3418432,0,329144835,0.0009251,0.0813,0.09326,0.0005894,0.0008974,0.0813,1.907e-06,0.000205,0.01572,0.0001431,2.258,0.005871,0,1,0
263100000000,263400000000,3418432,0,329144835,0.000948,0.0813,0.09326,0.0005932,0.0009012,0.0813,2.861e-06,0.000205,0.01935,0.0001431,2.084,0.005324,0,1,0
263400000000,263700000000,3418432,0,329144835,0.0008831,0.0813,0.09326,0.000596,0.0009041,0.0813,2.861e-06,0.000205,0.01184,0.0003567,2.152,0.005591,0,1,0
263700000000,264000000000,3418432,0,329144835,0.0007944,0.0813,0.09326,0.0005989,0.0009069,0.0813,2.861e-06,0.000205,0.01947,0.0002146,2.334,0.006574,0,1,0
264000000000,264300000000,3418432,0,329144835,0.0008068,0.0813,0.09326,0.0006027,0.0009098,0.0813,4.768e-06,0.000205,0.01427,0.0007143,2.361,0.00653,0,1,0
264300000000,264600000000,3418432,0,329144835,0.0008402,0.0813,0.09326,0.0006056,0.0009136,0.0813,2.861e-06,0.000205,0.0121,0.0002146,2.297,0.00607,0,1,0
264600000000,264900000000,3418432,0,329144835,0.0009165,0.0813,0.09326,0.0006084,0.0009165,0.0813,3.815e-06,0.000205,0.0199,0.0002861,2.051,0.005082,0,1,0
264900000000,265200000000,3418432,0,329144835,0.0008459,0.0813,0.09326,0.0006123,0.0009193,0.0813,2.861e-06,0.000205,0.009293,0.0002861,2.159,0.005751,0,1,0
265200000000,265500000000,3418432,0,329144835,0.0009146,0.0813,0.09326,0.0006151,0.0009232,0.0813,2.861e-06,0.000205,0.02222,0.0001431,2.195,0.005882,0,1,0
265500000000,265800000000,3418432,0,329144835,0.0008564,0.0813,0.09326,0.000618,0.000926,0.0813,1.907e-06,0.000205,0.008331,0.0002146,2.363,0.006624,0,1,0
265800000000,266100000000,3418432,0,329144835,0.0009165,0.0813,0.09326,0.0006208,0.0009289,0.0813,2.861e-06,0.000205,0.02332,0.0002146,2.28,0.00615,0,1,0
266100000000,266400000000,3418432,0,329144835,0.0008497,0.0813,0.09326,0.0006247,0.0009317,0.0813,2.861e-06,0.000205,0.02359,0.0002146,2.331,0.005688,0,1,0
266400000000,266700000000,3418432,0,329144835,0.000886,0.0813,0.09326,0.0006275,0.0009356,0.0813,2.861e-06,0.000205,0.02658,0.0002146,2.149,0.005078,0,1,0
266700000000,267000000000,3418432,0,329144835,0.0009041,0.0813,0.09326,0.0006304,0.0009384,0.0813,2.861e-06,0.000205,0.0145,7.153e-05,2.091,0.005049,0,1,0
267000000000,267300000000,3418432,0,329144835,0.0007715,0.0813,0.09326,0.0006332,0.0009413,0.0813,2.861e-06,0.000205,0.03061,0.0002146,2.24,0.005874,0,1,0
267300000000,267600000000,3418432,0,329144835,0.0008955,0.0813,0.09326,0.0006361,0.0009441,0.0813,1.907e-06,0.000205,0.01559,7.153e-05,2.066,0.005028,0,1,0
267600000000,267900000000,3418432,0,329144835,0.0008812,0.0813,0.09326,0.000639,0.000947,0.0813,2.861e-06,0.000205,0.01558,0.0002146,2.173,0.005423,0,1,0
267900000000,268200000000,3418432,0,329144835,0.0008965,0.0813,0.09326,0.0006418,0.0009499,0.0813,3.815e-06,0.000205,0.01161,0.0004997,2.332,0.006313,0,1,0
268200000000,268500000000,3418432,0,329144835,0.0008755,0.0813,0.09326,0.0006456,0.0009527,0.0813,1.907e-06,0.000205,0.01463,0.0001431,2.324,0.006146,0,1,0
268500000000,268800000000,3418432,0,329144835,0.0008793,0.0813,0.09326,0.0006485,0.0009556,0.0813,5.722e-06,0.000205,0.01219,0.001215,2.205,0.005786,0,1,0
268800000000,269100000000,3418432,0,329144835,0.0008345,0.0813,0.09326,0.0006514,0.0009584,0.0813,2.861e-06,0.000205,0.01125,0.0001431,2.066,0.004948,0,1,0
269100000000,269400000000,3418432,0,329144835,0.0008831,0.0813,0.09326,0.0006542,0.0009613,0.0813,2.861e-06,0.000205,0.009979,0.0002146,2.226,0.005777,0,1,0
269400000000,269700000000,3418432,0,329144835,0.0007219,0.0813,0.09326,0.0006571,0.0009642,0.0813,3.815e-06,0.000205,0.01633,0.0004282,2.526,0.006956,0,1,0
269700000000,270000000000,3418432,0,329144835,0.0007935,0.0813,0.09326,0.000659,0.000967,0.0813,1.907e-06,0.000205,0.02432,0.0001431,2.381,0.006632,0,1,0
270000000000,270300000000,3418432,0,329144835,0.0008087,0.0813,0.09326,0.0006618,0.0009699,0.0813,1.907e-06,0.000205,0.03098,0.0001431,2.17,0.00561,0,1,0
270300000000,270600000000,3418432,0,329144835,0.0008059,0.0813,0.09326,0.0006647,0.0009727,0.0813,2.861e-06,0.000205,0.01788,0.0002146,2.134,0.00535,0,1,0
270600000000,270900000000,3418432,0,329144835,0.0008612,0.0813,0.09326,0.0006676,0.0009756,0.0813,1.907e-06,0.000205,0.04449,0.0001431,2.132,0.005345,0,1,0
270900000000,271200000000,3418432,0,329144835,0.0008068,0.0813,0.09326,0.0006704,0.0009785,0.0813,2.861e-06,0.000205,0.0128,0.0001431,2.354,0.006203,0,1,0
271200000000,271500000000,3418432,0,329144835,0.0007839,0.0813,0.09326,0.0006733,0.0009804,0.0813,2.861e-06,0.000205,0.01207,0.0003567,2.153,0.005456,0,1,0
281400000000,281700000000,3418432,0,329144835,0.0007734,0.0813,0.09326,0.0007668,0.001074,0.0813,1.907e-06,0.000206,0.03033,0.0001431,2.26,0.005879,0,1,0
281700000000,282000000000,3418432,0,329144835,0.0007448,0.0813,0.09326,0.0007696,0.001078,0.0813,2.861e-06,0.000206,0.008362,0.0002861,2.246,0.005947,0,1,0
282000000000,282300000000,3418432,0,329144835,0.0007076,0.0813,0.09326,0.0007715,0.00108,0.0813,2.861e-06,0.000206,0.009933,0.0002146,2.382,0.006646,0,1,0
282300000000,282600000000,3418432,0,329144835,0.0007706,0.0813,0.09326,0.0007744,0.001081,0.0813,2.861e-06,0.000206,0.022,0.0002861,2.306,0.006253,0,1,0
282600000000,282900000000,3418432,0,329144835,0.0007629,0.0813,0.09326,0.0007772,0.001085,0.0813,2.861e-06,0.000206,0.04736,0.0001431,2.048,0.0052,0,1,0
282900000000,283200000000,3418432,0,329144835,0.000741,0.0813,0.09326,0.0007801,0.001087,0.0813,2.861e-06,0.000206,0.02081,0.0002146,2.298,0.006154,0,1,0
283200000000,283500000000,3418432,0,329144835,0.0007219,0.0813,0.09326,0.000782,0.001091,0.0813,2.861e-06,0.000206,0.00798,0.0002861,2.229,0.005809,0,1,0
283500000000,283800000000,3418432,0,329144835,0.0007629,0.0813,0.09326,0.0007849,0.001093,0.0813,1.907e-06,0.000206,0.02185,0.0001431,2.451,0.006988,0,1,0
283800000000,284100000000,3418432,0,329144835,0.0006962,0.0813,0.09326,0.0007877,0.001095,0.0813,2.861e-06,0.000206,0.01443,0.0002861,2.515,0.006736,0,1,0
284100000000,284400000000,3418432,0,329144835,0.0007467,0.0813,0.09326,0.0007896,0.001099,0.0813,1.907e-06,0.000206,0.01794,7.153e-05,2.733,0.007681,0,1,0
284400000000,284700000000,3418432,0,329144835,0.0007477,0.0813,0.09326,0.0007925,0.001101,0.0813,2.861e-06,0.000206,0.01062,0.0001431,2.68,0.007834,0,1,0
284700000000,285000000000,3418432,0,329144835,0.0006857,0.0813,0.09326,0.0007944,0.001102,0.0813,2.861e-06,0.000206,0.01575,0.0002861,2.349,0.006192,0,1,0
285000000000,285300000000,3418432,0,329144835,0.0007753,0.0813,0.09326,0.0007973,0.001104,0.0813,2.861e-06,0.000206,0.02164,0.0001431,2.396,0.00664,0,1,0
285300000000,285600000000,3418432,0,329144835,0.0007887,0.0813,0.09326,0.0008001,0.001108,0.0813,3.815e-06,0.000206,0.0318,0.0005713,2.243,0.005421,0,1,0
285600000000,285900000000,3418432,0,329144835,0.000741,0.0813,0.09326,0.000802,0.00111,0.0813,2.861e-06,0.000206,0.01118,0.0002146,2.335,0.006113,0,1,0
285900000000,286200000000,3418432,0,329144835,0.000741,0.0813,0.09326,0.0008049,0.001112,0.0813,1.907e-06,0.000206,0.03369,7.153e-05,2.384,0.006288,0,1,0
286200000000,286500000000,3418432,0,329144835,0.0006742,0.0813,0.09326,0.0008078,0.001116,0.0813,2.861e-06,0.000206,0.008987,0.0002146,2.468,0.006609,0,1,0
286500000000,286800000000,3418432,0,329144835,0.0006838,0.0813,0.09326,0.0008097,0.001118,0.0813,1.907e-06,0.000206,0.009277,0.0001431,2.249,0.005791,0,1,0
286800000000,287100000000,3418432,0,329144835,0.0007744,0.0813,0.09326,0.0008125,0.00112,0.0813,2.861e-06,0.000206,0.01385,0.0002146,2.447,0.006696,0,1,0
287100000000,287400000000,3418432,0,329144835,0.0007086,0.0813,0.09326,0.0008154,0.001123,0.0813,2.861e-06,0.000206,0.0199,0.0001431,2.494,0.006935,0,1,0
287400000000,287700000000,3418432,0,329144835,0.0007811,0.0813,0.09326,0.0008183,0.001125,0.0813,2.861e-06,0.000206,0.01343,0.0003567,2.172,0.005503,0,1,0
287700000000,288000000000,3418432,0,329144835,0.000824,0.0813,0.09326,0.0008211,0.001129,0.0813,2.861e-06,0.000206,0.01463,0.0002146,2.213,0.005495,0,1,0
288000000000,288300000000,3418432,0,329144835,0.0007467,0.0813,0.09326,0.000824,0.001131,0.0813,2.861e-06,0.000206,0.009918,0.0001431,2.222,0.005524,0,1,0
288300000000,288600000000,3418432,0,329144835,0.0008497,0.0813,0.09326,0.0008259,0.001135,0.0813,1.907e-06,0.000206,0.02386,0.0001431,2.28,0.005976,0,1,0
288600000000,288900000000,3418432,0,329144835,0.0007744,0.0813,0.09326,0.0008287,0.001137,0.0813,2.861e-06,0.000206,0.01154,0.0001431,2.314,0.006013,0,1,0
288900000000,289200000000,3418432,0,329144835,0.0008183,0.0813,0.09326,0.0008316,0.001141,0.0813,1.907e-06,0.000206,0.01602,0.0001431,2.538,0.006961,0,1,0
289200000000,289500000000,3418432,0,329144835,0.0008192,0.0813,0.09326,0.0008345,0.001143,0.0813,1.907e-06,0.000206,0.01338,0.0001431,2.272,0.005974,0,1,0
289500000000,289800000000,3418432,0,329144835,0.0009651,0.0813,0.09326,0.0008383,0.001146,0.0813,2.861e-06,0.000206,0.01071,0.0002146,2.088,0.005192,0,1,0
289800000000,290100000000,3418432,0,329144835,0.0008078,0.0813,0.09326,0.0008411,0.001148,0.0813,3.815e-06,0.000206,0.02634,0.0002146,2.444,0.006597,0,1,0
290100000000,290400000000,3418432,0,329144835,0.0007553,0.0813,0.09326,0.000844,0.001152,0.0813,2.861e-06,0.000206,0.01547,0.0001431,2.56,0.006887,0,1,0
290400000000,290700000000,3418432,0,329144835,0.0008144,0.0813,0.09326,0.0008469,0.001154,0.0813,1.907e-06,0.000206,0.008011,0.0001431,2.377,0.006294,0,1,0
290700000000,291000000000,3418432,0,329144835,0.0007906,0.0813,0.09326,0.0008497,0.001158,0.0813,2.861e-06,0.000206,0.01297,0.0002146,2.216,0.005709,0,1,0
291000000000,291300000000,3418432,0,329144835,0.0009413,0.0813,0.09326,0.0008535,0.001162,0.0813,3.815e-06,0.000206,0.02686,0.0004282,2.117,0.0051,0,1,0
291300000000,291600000000,3418432,0,329144835,0.0007963,0.0813,0.09326,0.0008564,0.001163,0.0813,1.907e-06,0.000206,0.02277,0.0001431,2.245,0.005593,0,1,0
291600000000,291900000000,3418432,0,329144835,0.0008049,0.0813,0.09326,0.0008593,0.001167,0.0813,2.861e-06,0.000206,0.01485,0.0001431,2.6,0.007339,0,1,0
291900000000,292200000000,3418432,0,329144835,0.0007715,0.0813,0.09326,0.0008621,0.001169,0.0813,2.861e-06,0.000206,0.01436,0.0001431,2.622,0.007483,0,1,0
292200000000,292500000000,3418432,0,329144835,0.0007324,0.0813,0.09326,0.000865,0.001173,0.0813,1.907e-06,0.000206,0.007729,0.0001431,2.456,0.006678,0,1,0
292500000000,292800000000,3418432,0,329144835,0.0006943,0.0813,0.09326,0.0008678,0.001175,0.0813,2.861e-06,0.000206,0.01437,0.0002146,2.554,0.006914,0,1,0
292800000000,293100000000,3418432,0,329144835,0.0006132,0.0813,0.09326,0.0008698,0.001179,0.0813,2.861e-06,0.000206,0.008713,0.0002146,2.673,0.007866,0,1,0
293100000000,293400000000,3418432,0,329144835,0.0007,0.0813,0.09326,0.0008726,0.001181,0.0813,1.907e-06,0.000206,0.01108,7.153e-05,2.544,0.007075,0,1,0
293400000000,293700000000,3418432,0,329144835,0.0007362,0.0813,0.09326,0.0008755,0.001183,0.0813,3.815e-06,0.000206,0.02481,0.0002146,2.28,0.005918,0,1,0
293700000000,294000000000,3418432,0,329144835,0.0007524,0.0813,0.09326,0.0008774,0.001186,0.0813,1.907e-06,0.000206,0.01079,0.0001431,2.338,0.005954,0,1,0
294000000000,294300000000,3418432,0,329144835,0.0006952,0.0813,0.09326,0.0008802,0.001188,0.0813,3.815e-06,0.000206,0.02145,0.0005713,2.439,0.006695,0,1,0
294300000000,294600000000,3418432,0,329144835,0.0007229,0.0813,0.09326,0.0008831,0.00119,0.0813,9.537e-07,0.000206,0.02182,7.153e-05,2.578,0.006776,0,1,0
294600000000,294900000000,3418432,0,329144835,0.0007591,0.0813,0.09326,0.000886,0.001194,0.0813,2.861e-06,0.000206,0.05237,0.0002861,2.42,0.006463,0,1,0
294900000000,295200000000,3418432,0,329144835,0.0006685,0.0813,0.09326,0.0008879,0.001196,0.0813,2.861e-06,0.000206,0.01855,0.0001431,2.461,0.007021,0,1,0
295200000000,295500000000,3418432,0,329144835,0.0007734,0.0813,0.09326,0.0008907,0.001198,0.0813,3.815e-06,0.000206,0.03955,0.0002861,2.385,0.006315,0,1,0
295500000000,295800000000,3418432,0,329144835,0.0006733,0.0813,0.09326,0.0008936,0.001202,0.0813,1.907e-06,0.000206,0.007378,7.153e-05,2.688,0.00771,0,1,0
295800000000,296100000000,3418432,0,329144835,0.0007305,0.0813,0.09326,0.0008955,0.001204,0.0813,3.815e-06,0.000206,0.0253,0.0003567,2.481,0.006757,0,1,0
296100000000,296400000000,3418432,0,329144835,0.0006533,0.0813,0.09326,0.0008984,0.001205,0.0813,1.907e-06,0.000206,0.01886,0.0001431,2.437,0.006744,0,1,0
296400000000,296700000000,3418432,0,329144835,0.0007458,0.0813,0.09326,0.0009012,0.001209,0.0813,2.861e-06,0.000206,0.008759,0.0001431,2.458,0.007141,0,1,0
296700000000,297000000000,3418432,0,329144835,0.0007315,0.0813,0.09326,0.0009031,0.001211,0.0813,2.861e-06,0.000206,0.01807,0.0004282,2.244,0.005935,0,1,0
297000000000,297300000000,3418432,0,329144835,0.0007315,0.0813,0.09326,0.000906,0.001215,0.0813,2.861e-06,0.000206,0.02042,0.0002146,2.379,0.006478,0,1,0
297300000000,297600000000,3418432,0,329144835,0.0007181,0.0813,0.09326,0.0009089,0.001217,0.0813,2.861e-06,0.000206,0.03369,0.0002146,2.269,0.006089,0,1,0
297600000000,297900000000,3418432,0,329144835,0.0006771,0.0813,0.09326,0.0009117,0.001219,0.0813,2.861e-06,0.000206,0.02332,0.0001431,2.161,0.005382,0,1,0
297900000000,298200000000,3418432,0,329144835,0.0006886,0.0813,0.09326,0.0009136,0.001223,0.0813,2.861e-06,0.000206,0.02054,0.0002146,2.417,0.006299,0,1,0
298200000000,298500000000,3418432,0,329144835,0.0007315,0.0813,0.09326,0.0009165,0.001225,0.0813,2.861e-06,0.000206,0.00824,0.0001431,2.616,0.007504,0,1,0
298500000000,298800000000,3418432,0,329144835,0.0007477,0.0813,0.09326,0.0009193,0.001226,0.0813,2.861e-06,0.000206,0.03973,0.0001431,2.407,0.006446,0,1,0
298800000000,299100000000,3418432,0,329144835,0.0007811,0.0813,0.09326,0.0009222,0.00123,0.0813,6.676e-06,0.000206,0.02502,0.0005713,2.571,0.006809,0,1,0
299100000000,299400000000,3418432,0,329144835,0.0007391,0.0813,0.09326,0.0009241,0.001232,0.0813,2.861e-06,0.000206,0.0289,0.0002146,2.46,0.006565,0,1,0
299400000000,299700000000,3418432,0,329144835,0.0007401,0.0813,0.09326,0.000927,0.001236,0.0813,2.861e-06,0.000206,0.009659,0.0002146,2.478,0.00663,0,1,0
299700000000,300000000000,3418432,0,329144835,0.00072,0.0813,0.09326,0.0009298,0.001238,0.0813,1.907e-06,0.000206,0.01965,0.0001431,2.179,0.005237,0,1,0
