5700000000,6000000000,3478528467,0,38644181,0.001162,0.009018,0.01163,0.001047,0.002254,0.009018,0,2.67e-05,0.00238,7.153e-05,15.88,0.06363,0,1,0
6000000000,6300000000,3478528467,0,38644181,0.001232,0.009018,0.01163,0.001047,0.002254,0.009018,3.815e-06,2.67e-05,0.002438,0.001072,16.81,0.06803,0,1,0
6300000000,6600000000,3478528467,0,38644181,0.001211,0.009018,0.01163,0.001045,0.002254,0.009018,9.537e-07,2.67e-05,0.002388,0.0003567,17.68,0.07272,0,1,0
6600000000,6900000000,3478528467,0,38644181,0.001135,0.009018,0.01163,0.001045,0.002254,0.009018,0,2.67e-05,0.002354,7.153e-05,15.76,0.06369,0,1,0
6900000000,7200000000,3478528467,0,38644181,0.001146,0.009018,0.01163,0.001045,0.002254,0.009018,0,2.67e-05,0.00243,7.153e-05,16.24,0.06504,0,1,0
7200000000,7500000000,3478528467,0,38644181,0.001143,0.009018,0.01163,0.001045,0.002254,0.009018,0,2.67e-05,0.00563,7.153e-05,16.14,0.06442,0,1,0
7500000000,7800000000,3478528467,0,38644181,0.001137,0.009018,0.01163,0.001045,0.002254,0.009018,0,2.67e-05,0.002804,7.153e-05,15.93,0.06347,0,1,0
7800000000,8100000000,3478528467,0,38644181,0.001192,0.009018,0.01163,0.001045,0.002254,0.009018,9.537e-07,2.67e-05,0.008301,0.0001431,16.25,0.06482,0,1,0
8100000000,8400000000,3478528467,0,38644181,0.001196,0.009018,0.01163,0.001041,0.002247,0.009018,9.537e-07,2.67e-05,0.00304,7.153e-05,16.39,0.06517,0,1,0
8400000000,8700000000,3478528467,0,38644181,0.001184,0.009018,0.01163,0.001038,0.002247,0.009018,9.537e-07,2.67e-05,0.004051,0.0002146,16.84,0.0674,0,1,0
8700000000,9000000000,3478528467,0,38644181,0.001169,0.009018,0.01163,0.001038,0.002247,0.009018,0,2.67e-05,0.01132,7.153e-05,16.03,0.06388,0,1,0
9000000000,9300000000,3478528467,0,38644181,0.001131,0.009018,0.01163,0.00104,0.002247,0.009018,0,2.67e-05,0.002438,7.153e-05,16.09,0.06388,0,1,0
9300000000,9600000000,3478528467,0,38644181,0.001083,0.009018,0.01163,0.00104,0.002247,0.009018,0,2.67e-05,0.002617,7.153e-05,15.42,0.06115,0,1,0
9600000000,9900000000,3478528467,0,38644181,0.00111,0.009018,0.01163,0.00104,0.002247,0.009018,3.529e-05,2.67e-05,0.003391,0.002857,15,0.06009,0,1,0
9900000000,10200000000,3478528467,0,38644181,0.001299,0.009277,0.01332,0.001156,0.002468,0.009308,0.0002022,2.67e-05,0.01369,0.0195,16.03,0.06708,0,1,0
10200000000,10500000000,3478528467,0,38644181,0.001223,0.009293,0.0134,0.001114,0.00243,0.009293,9.537e-07,2.67e-05,0.002529,7.153e-05,17.15,0.07,0,1,0
10500000000,10800000000,3478528467,0,38644181,0.001591,0.009277,0.0134,0.001146,0.002464,0.009293,0.0002098,2.67e-05,0.05298,0.03302,17.52,0.07157,0,1,0
10800000000,11100000000,3478528467,0,38644181,0.001165,0.009277,0.0134,0.001122,0.002438,0.009277,9.537e-07,2.67e-05,0.002106,7.153e-05,17,0.06972,0,1,0
11100000000,11400000000,3478528467,0,38644181,0.001125,0.009094,0.01227,0.001108,0.002354,0.009277,1.717e-05,2.67e-05,0.003395,0.00293,16.4,0.06606,0,1,0
11400000000,11700000000,3478528467,0,38644181,0.001158,0.008987,0.01163,0.001034,0.002239,0.008987,1.907e-06,2.67e-05,0.002453,0.0004282,16.78,0.06787,0,1,0
11700000000,12000000000,3478528467,0,38644181,0.001043,0.008987,0.01163,0.001036,0.002239,0.008987,4.768e-06,2.67e-05,0.002254,0.001286,14.55,0.05756,0,1,0
12000000000,12300000000,3478528467,0,38644181,0.001051,0.008987,0.01163,0.001036,0.002239,0.008987,0,2.67e-05,0.001968,7.153e-05,14.9,0.05856,0,1,0
12300000000,12600000000,3478528467,0,38644181,0.001125,0.008987,0.01163,0.001036,0.002243,0.008987,0,2.67e-05,0.002518,7.153e-05,16.49,0.06734,0,1,0
12600000000,12900000000,3478528467,0,38644181,0.001089,0.008987,0.01163,0.001036,0.002243,0.008987,0,2.67e-05,0.002762,7.153e-05,15.31,0.06063,0,1,0
12900000000,13200000000,3478528467,0,38644181,0.001085,0.008987,0.01163,0.001036,0.002243,0.008987,0,2.67e-05,0.002224,7.153e-05,15.36,0.06063,0,1,0
13200000000,13500000000,3478528467,0,38644181,0.00106,0.008987,0.01163,0.001036,0.002243,0.008987,0,2.67e-05,0.001904,7.153e-05,14.84,0.05784,0,1,0
13500000000,13800000000,3478528467,0,38644181,0.00112,0.008987,0.01163,0.001036,0.002243,0.008987,9.537e-07,2.67e-05,0.002945,0.0001431,15.34,0.0611,0,1,0
13800000000,14100000000,3478528467,0,38644181,0.001261,0.008987,0.01163,0.001036,0.002243,0.008987,0,2.67e-05,0.002285,7.153e-05,18.93,0.07844,0,1,0
14100000000,14400000000,3478528467,0,38644181,0.001144,0.008987,0.01163,0.001036,0.002243,0.008987,0,2.67e-05,0.002682,7.153e-05,16.5,0.06601,0,1,0
14400000000,14700000000,3478528467,0,38644181,0.001102,0.008987,0.01163,0.001036,0.002243,0.008987,9.537e-07,2.67e-05,0.002201,0.0002146,15.29,0.06048,0,1,0
14700000000,15000000000,3478528467,0,38644181,0.001108,0.008987,0.01163,0.001036,0.002243,0.008987,0,2.67e-05,0.002373,7.153e-05,15.39,0.06096,0,1,0
15000000000,15300000000,3478528467,0,38644181,0.001179,0.008987,0.01163,0.001036,0.002243,0.008987,0,2.67e-05,0.002235,7.153e-05,16.4,0.0659,0,1,0
15300000000,15600000000,3478528467,0,38644181,0.001101,0.008987,0.01163,0.001036,0.002243,0.008987,1.907e-06,2.67e-05,0.002464,0.0002861,15.88,0.0636,0,1,0
15600000000,15900000000,3478528467,0,38644181,0.001097,0.008987,0.01163,0.001036,0.002243,0.008987,9.537e-07,2.67e-05,0.002201,0.0001431,15.3,0.06112,0,1,0
15900000000,16200000000,3478528467,0,38644181,0.001074,0.008987,0.01163,0.001036,0.002243,0.008987,0,2.67e-05,0.002628,7.153e-05,15.36,0.06152,0,1,0
16200000000,16500000000,3478528467,0,38644181,0.001076,0.008987,0.01163,0.001036,0.002243,0.008987,2.861e-06,2.67e-05,0.002636,0.0009995,14.69,0.05819,0,1,0
16500000000,16800000000,3478528467,0,38644181,0.001078,0.008987,0.01163,0.001036,0.002243,0.008987,0,2.67e-05,0.002632,7.153e-05,14.09,0.05475,0,1,0
16800000000,17100000000,3478528467,0,38644181,0.001101,0.008987,0.01163,0.001036,0.002243,0.008987,0,2.67e-05,0.004585,0.0001431,15.01,0.05898,0,1,0
17100000000,17400000000,3478528467,0,38644181,0.001141,0.008987,0.01163,0.001036,0.002243,0.008987,1.907e-06,2.67e-05,0.003052,0.0006428,14.03,0.05459,0,1,0
17400000000,17700000000,3478528467,0,38644181,0.00112,0.008987,0.01163,0.001036,0.002243,0.008987,0,2.67e-05,0.002117,0.0001431,15.62,0.0621,0,1,0
17700000000,18000000000,3478528467,0,38644181,0.001154,0.008987,0.01163,0.001036,0.002243,0.008987,8.583e-06,2.67e-05,0.002274,0.0009995,16.72,0.06794,0,1,0
18000000000,18300000000,3478528467,0,38644181,0.001089,0.008987,0.01163,0.001038,0.002243,0.008987,0,2.67e-05,0.005257,7.153e-05,13.66,0.05311,0,1,0
18300000000,18600000000,3478528467,0,38644181,0.001162,0.008987,0.01163,0.001038,0.002243,0.008987,0,2.67e-05,0.002335,7.153e-05,15.62,0.06171,0,1,0
18600000000,18900000000,3478528467,0,38644181,0.001106,0.008987,0.01163,0.00104,0.002247,0.008987,2.861e-06,2.67e-05,0.002728,0.0004997,15.28,0.06075,0,1,0
18900000000,19200000000,3478528467,0,38644181,0.001102,0.008972,0.01163,0.001057,0.002262,0.008972,9.537e-07,2.67e-05,0.002811,0.0001431,15.16,0.06029,0,1,0
19200000000,19500000000,3478528467,0,38644181,0.001036,0.008972,0.01163,0.001057,0.002262,0.008972,0,2.67e-05,0.002338,7.153e-05,13.51,0.05228,0,1,0
19500000000,19800000000,3478528467,0,38644181,0.001101,0.008972,0.01163,0.001059,0.002262,0.008972,0,2.67e-05,0.002396,7.153e-05,13.88,0.05429,0,1,0
19800000000,20100000000,3478528467,0,38644181,0.00124,0.009079,0.01233,0.001141,0.002388,0.009262,0.0002146,2.67e-05,0.009705,0.01956,13.28,0.05236,0,1,0
20100000000,20400000000,3478528467,0,38644181,0.001112,0.009247,0.01205,0.001129,0.002445,0.009247,6.676e-06,2.67e-05,0.002502,0.001928,14.89,0.05884,0,1,0
20400000000,20700000000,3478528467,0,38644181,0.001129,0.009247,0.01163,0.001116,0.00243,0.009247,4.768e-06,2.67e-05,0.003513,0.0007858,16.17,0.06508,0,1,0
20700000000,21000000000,3478528467,0,38644181,0.001642,0.009247,0.01276,0.001196,0.00251,0.009277,0.0001869,2.67e-05,0.06384,0.02802,18.23,0.07482,0,1,0
21000000000,21300000000,3478528467,0,38644181,0.001263,0.009247,0.01163,0.001108,0.002422,0.009247,9.537e-07,2.67e-05,0.003681,7.153e-05,18.22,0.07398,0,1,0
21300000000,21600000000,3478528467,0,38644181,0.00104,0.008972,0.01163,0.001108,0.002316,0.009247,1.621e-05,2.67e-05,0.003983,0.004143,14.83,0.05844,0,1,0
21600000000,21900000000,3478528467,0,38644181,0.001005,0.008972,0.01163,0.001053,0.002258,0.008972,9.537e-07,2.67e-05,0.003532,7.153e-05,13.45,0.0521,0,1,0
21900000000,22200000000,3478528467,0,38644181,0.001045,0.008972,0.01163,0.001053,0.002258,0.008972,0,2.67e-05,0.004639,7.153e-05,13.76,0.05354,0,1,0
22200000000,22500000000,3478528467,0,38644181,0.001116,0.008972,0.01163,0.001051,0.002258,0.008972,0,2.67e-05,0.002609,7.153e-05,14.82,0.05857,0,1,0
22500000000,22800000000,3478528467,0,38644181,0.001051,0.008972,0.01163,0.001053,0.002258,0.008972,9.537e-07,2.67e-05,0.002567,0.0001431,13.59,0.05236,0,1,0
22800000000,23100000000,3478528467,0,38644181,0.001062,0.008972,0.01163,0.001053,0.002258,0.008972,0,2.67e-05,0.002605,7.153e-05,13.63,0.05309,0,1,0
23100000000,23400000000,3478528467,0,38644181,0.001015,0.008972,0.01163,0.001053,0.002258,0.008972,0,2.67e-05,0.004723,7.153e-05,14.26,0.05575,0,1,0
23400000000,23700000000,3478528467,0,38644181,0.001013,0.008972,0.01163,0.001053,0.002258,0.008972,0,2.67e-05,0.002296,7.153e-05,14.28,0.0557,0,1,0
23700000000,24000000000,3478528467,0,38644181,0.001007,0.008972,0.01163,0.001053,0.002258,0.008972,0,2.67e-05,0.003609,7.153e-05,14.04,0.05493,0,1,0
24000000000,24300000000,3478528467,0,38644181,0.001001,0.008972,0.01163,0.001053,0.002258,0.008972,0,2.67e-05,0.003639,0.0001431,13.8,0.05275,0,1,0
24300000000,24600000000,3478528467,0,38644181,0.001003,0.008972,0.01163,0.001053,0.002258,0.008972,0,2.67e-05,0.002232,0,13.92,0.05397,0,1,0
24600000000,24900000000,3478528467,0,38644181,0.001007,0.008972,0.01163,0.001053,0.002258,0.008972,9.537e-07,2.67e-05,0.004387,0.0001431,13.58,0.05263,0,1,0
24900000000,25200000000,3478528467,0,38644181,0.001026,0.008972,0.01163,0.001053,0.002258,0.008972,1.907e-06,2.67e-05,0.005959,0.0004282,14.25,0.05599,0,1,0
25200000000,25500000000,3478528467,0,38644181,0.001093,0.008972,0.01163,0.001053,0.002258,0.008972,0,2.67e-05,0.004128,7.153e-05,14.81,0.05752,0,1,0
25500000000,25800000000,3478528467,0,38644181,0.00102,0.008972,0.01163,0.001053,0.002258,0.008972,0,2.67e-05,0.006935,7.153e-05,14.1,0.0554,0,1,0
25800000000,26100000000,3478528467,0,38644181,0.001005,0.008972,0.01163,0.001053,0.002258,0.008972,9.537e-07,2.67e-05,0.003185,0.0001431,14.02,0.05454,0,1,0
26100000000,26400000000,3478528467,0,38644181,0.001019,0.008972,0.01163,0.001053,0.002258,0.008972,9.537e-07,2.67e-05,0.002415,0.0001431,14.5,0.05752,0,1,0
26400000000,26700000000,3478528467,0,38644181,0.001045,0.008972,0.01163,0.001053,0.002258,0.008972,0,2.67e-05,0.00211,7.153e-05,13.52,0.05313,0,1,0
26700000000,27000000000,3478528467,0,38644181,0.001163,0.008972,0.01163,0.001053,0.002258,0.008972,0,2.67e-05,0.002884,7.153e-05,16.56,0.06807,0,1,0
27000000000,27300000000,3478528467,0,38644181,0.001076,0.008972,0.01163,0.001053,0.002258,0.008972,9.537e-07,2.67e-05,0.002644,0.0001431,15.55,0.06316,0,1,0
27300000000,27600000000,3478528467,0,38644181,0.001141,0.008972,0.01163,0.001053,0.002258,0.008972,0,2.67e-05,0.002338,7.153e-05,15.46,0.0626,0,1,0
27600000000,27900000000,3478528467,0,38644181,0.001225,0.008972,0.01163,0.001053,0.002258,0.008972,0,2.67e-05,0.00589,7.153e-05,16.49,0.06737,0,1,0
27900000000,28200000000,3478528467,0,38644181,0.001247,0.008972,0.01163,0.001053,0.002258,0.008972,0,2.67e-05,0.002499,7.153e-05,17.94,0.07404,0,1,0
28200000000,28500000000,3478528467,0,38644181,0.001221,0.008972,0.01163,0.001053,0.002258,0.008972,0,2.67e-05,0.005135,7.153e-05,16.53,0.06733,0,1,0
28500000000,28800000000,3478528467,0,38644181,0.001137,0.008972,0.01163,0.001053,0.002258,0.008972,0,2.67e-05,0.002777,7.153e-05,15.76,0.06381,0,1,0
28800000000,29100000000,3478528467,0,38644181,0.001116,0.008972,0.01163,0.001053,0.002258,0.008972,0,2.67e-05,0.00214,7.153e-05,14.87,0.05922,0,1,0
29100000000,29400000000,3478528467,0,38644181,0.001144,0.008972,0.01163,0.001055,0.002258,0.008972,0,2.67e-05,0.002953,7.153e-05,15.14,0.06015,0,1,0
29400000000,29700000000,3478528467,0,38644181,0.001152,0.008972,0.01163,0.001055,0.002258,0.008972,9.537e-07,2.67e-05,0.002262,0.0001431,15.65,0.06307,0,1,0
29700000000,30000000000,3478528467,0,38644181,0.001009,0.008972,0.01163,0.001055,0.002258,0.008972,0,2.67e-05,0.002441,7.153e-05,14.43,0.05757,0,1,0
30000000000,30300000000,3478528467,0,38644181,0.001017,0.008972,0.01163,0.001055,0.002258,0.008972,0,2.67e-05,0.004967,7.153e-05,13.5,0.05325,0,1,0
30300000000,30600000000,3478528467,0,38644181,0.001083,0.008972,0.01163,0.001055,0.002258,0.008972,2.861e-05,2.67e-05,0.003525,0.00293,14.94,0.06067,0,1,0
30600000000,30900000000,3478528467,0,38644181,0.00108,0.009201,0.0126,0.001125,0.002422,0.009262,0.0002108,2.67e-05,0.02542,0.03973,13.57,0.05634,0,1,0
30900000000,31200000000,3478528467,0,38644181,0.0009689,0.009247,0.01163,0.001108,0.002422,0.009247,1.907e-06,2.67e-05,0.001987,0.0002146,13.28,0.0535,0,1,0
31200000000,31500000000,3478528467,0,38644181,0.001368,0.009247,0.01256,0.001192,0.002506,0.009247,0.0002069,2.67e-05,0.05566,0.02679,13.67,0.0555,0,1,0
31500000000,31800000000,3478528467,0,38644181,0.001066,0.009232,0.01173,0.001116,0.00243,0.009232,0,2.67e-05,0.002254,0.0001431,14.91,0.06088,0,1,0
31800000000,32100000000,3478528467,0,38644181,0.0009499,0.00914,0.01163,0.001139,0.002419,0.009232,1.335e-05,2.67e-05,0.002686,0.002857,12.28,0.04988,0,1,0
32100000000,32400000000,3478528467,0,38644181,0.0008907,0.008957,0.01163,0.001173,0.00238,0.008957,9.537e-07,2.67e-05,0.002045,0.0001431,11.36,0.0443,0,1,0
32400000000,32700000000,3478528467,0,38644181,0.0009241,0.008957,0.01163,0.001045,0.002251,0.008957,0,2.67e-05,0.002079,7.153e-05,11.87,0.04674,0,1,0
32700000000,33000000000,3478528467,0,38644181,0.001083,0.008957,0.01163,0.001045,0.002251,0.008957,0,2.67e-05,0.00206,7.153e-05,14.84,0.05947,0,1,0
33000000000,33300000000,3478528467,0,38644181,0.001102,0.008957,0.01163,0.001045,0.002251,0.008957,0,2.67e-05,0.003014,7.153e-05,11.8,0.04594,0,1,0
33300000000,33600000000,3478528467,0,38644181,0.001274,0.008957,0.01163,0.001045,0.002251,0.008957,9.537e-07,2.67e-05,0.003555,0.0001431,18.12,0.07746,0,1,0
33600000000,33900000000,3478528467,0,38644181,0.001276,0.008957,0.01163,0.001045,0.002251,0.008957,1.907e-06,2.67e-05,0.002438,0.0004282,17.51,0.07009,0,1,0
33900000000,34200000000,3478528467,0,38644181,0.001129,0.008957,0.01163,0.001045,0.002251,0.008957,3.815e-06,2.67e-05,0.002468,0.0006428,14.28,0.05567,0,1,0
34200000000,34500000000,3478528467,0,38644181,0.0009642,0.008957,0.01163,0.001045,0.002251,0.008957,0,2.67e-05,0.001913,7.153e-05,11.92,0.04603,0,1,0
34500000000,34800000000,3478528467,0,38644181,0.0009537,0.008957,0.01163,0.001045,0.002251,0.008957,0,2.67e-05,0.002319,7.153e-05,12.34,0.04775,0,1,0
34800000000,35100000000,3478528467,0,38644181,0.0009899,0.008957,0.01163,0.001045,0.002251,0.008957,0,2.67e-05,0.002319,7.153e-05,13,0.0512,0,1,0
35100000000,35400000000,3478528467,0,38644181,0.0009918,0.008957,0.01163,0.001045,0.002251,0.008957,9.537e-07,2.67e-05,0.002674,7.153e-05,13.59,0.05338,0,1,0
35400000000,35700000000,3478528467,0,38644181,0.0009365,0.008957,0.01163,0.001045,0.002251,0.008957,9.537e-07,2.67e-05,0.004417,0.0001431,12.32,0.04796,0,1,0
35700000000,36000000000,3478528467,0,38644181,0.0009413,0.008957,0.01163,0.001045,0.002251,0.008957,0,2.67e-05,0.002262,7.153e-05,12.09,0.04719,0,1,0
36000000000,36300000000,3478528467,0,38644181,0.001001,0.008957,0.01163,0.001045,0.002251,0.008957,0,2.67e-05,0.003784,7.153e-05,13.09,0.0518,0,1,0
36300000000,36600000000,3478528467,0,38644181,0.001001,0.008957,0.01163,0.001045,0.002251,0.008957,0,2.67e-05,0.009628,7.153e-05,11.86,0.0467,0,1,0
36600000000,36900000000,3478528467,0,38644181,0.0009327,0.008957,0.01163,0.001045,0.002251,0.008957,0,2.67e-05,0.002022,7.153e-05,13.35,0.05343,0,1,0
36900000000,37200000000,3478528467,0,38644181,0.001011,0.008957,0.01163,0.001045,0.002251,0.008957,0,2.67e-05,0.004593,7.153e-05,13.26,0.05292,0,1,0
37200000000,37500000000,3478528467,0,38644181,0.0009727,0.008957,0.01163,0.001045,0.002251,0.008957,9.537e-07,2.67e-05,0.001827,0.0001431,12.87,0.05114,0,1,0
37500000000,37800000000,3478528467,0,38644181,0.001049,0.008957,0.01163,0.001047,0.002254,0.008957,0,2.67e-05,0.004173,7.153e-05,14.21,0.05727,0,1,0
37800000000,38100000000,3478528467,0,38644181,0.001083,0.008957,0.01163,0.001047,0.002254,0.008957,0,2.67e-05,0.002598,7.153e-05,13.85,0.05538,0,1,0
38100000000,38400000000,3478528467,0,38644181,0.001106,0.008957,0.01163,0.001047,0.002254,0.008957,0,2.67e-05,0.002411,7.153e-05,14.56,0.05873,0,1,0
38400000000,38700000000,3478528467,0,38644181,0.001167,0.008957,0.01163,0.001047,0.002254,0.008957,0,2.67e-05,0.002872,7.153e-05,16.03,0.06503,0,1,0
38700000000,39000000000,3478528467,0,38644181,0.001286,0.008957,0.01163,0.001047,0.002254,0.008957,0,2.67e-05,0.002674,7.153e-05,16.33,0.06647,0,1,0
39000000000,39300000000,3478528467,0,38644181,0.001188,0.008957,0.01163,0.001047,0.002254,0.008957,0,2.67e-05,0.002544,0.0001431,16.44,0.06656,0,1,0
39300000000,39600000000,3478528467,0,38644181,0.001272,0.008957,0.01163,0.001047,0.002254,0.008957,0,2.67e-05,0.004288,7.153e-05,16.02,0.06618,0,1,0
39600000000,39900000000,3478528467,0,38644181,0.001162,0.008957,0.01163,0.001047,0.002254,0.008957,0,2.67e-05,0.00243,7.153e-05,15.33,0.06147,0,1,0
39900000000,40200000000,3478528467,0,38644181,0.001482,0.008957,0.01163,0.001047,0.002254,0.008957,9.537e-07,2.67e-05,0.003796,7.153e-05,18.78,0.07577,0,1,0
40200000000,40500000000,3478528467,0,38644181,0.001299,0.008957,0.01163,0.001047,0.002254,0.008957,0,2.67e-05,0.006134,7.153e-05,18.7,0.07654,0,1,0
40500000000,40800000000,3478528467,0,38644181,0.001217,0.008957,0.01163,0.001047,0.002254,0.008957,9.537e-07,2.67e-05,0.002506,0.0001431,16.73,0.06783,0,1,0
51000000000,51300000000,3478528467,0,38644181,0.00131,0.008865,0.01163,0.001053,0.002163,0.008865,9.537e-07,2.67e-05,0.00267,0.0001431,17.41,0.07202,0,1,0
51300000000,51600000000,3478528467,0,38644181,0.001289,0.008865,0.01163,0.001053,0.002163,0.008865,1.907e-06,2.67e-05,0.002895,0.0005713,17.67,0.07221,0,1,0
51600000000,51900000000,3478528467,0,38644181,0.001284,0.008865,0.01163,0.001053,0.002163,0.008865,9.537e-07,2.67e-05,0.002449,0.0002146,17.83,0.0738,0,1,0
51900000000,52200000000,3478528467,0,38644181,0.001255,0.008865,0.01163,0.001055,0.002163,0.008865,0,2.67e-05,0.002888,7.153e-05,17.65,0.07267,0,1,0
52200000000,52500000000,3478528467,0,38644181,0.0016,0.008957,0.01213,0.001123,0.002262,0.009232,0.0002279,2.67e-05,0.01508,0.01663,13.7,0.05494,0,1,0
52500000000,52800000000,3478528467,0,38644181,0.001396,0.009186,0.01355,0.001122,0.002342,0.009201,6.676e-06,2.766e-05,0.006226,0.0007858,17.01,0.06986,0,1,0
52800000000,53100000000,3478528467,0,38644181,0.001434,0.009186,0.01357,0.00112,0.002338,0.009186,1.621e-05,2.766e-05,0.01436,0.003429,18.98,0.07967,0,1,0
53100000000,53400000000,3478528467,0,38644181,0.001783,0.009186,0.01332,0.001194,0.002415,0.009232,0.0002203,2.766e-05,0.0498,0.02802,19.38,0.08038,0,1,0
53400000000,53700000000,3478528467,0,38644181,0.001364,0.009186,0.01164,0.001112,0.002335,0.009186,6.676e-06,2.766e-05,0.00346,0.001858,17.79,0.07337,0,1,0
53700000000,54000000000,3478528467,0,38644181,0.001322,0.008881,0.01163,0.00106,0.002182,0.009186,8.583e-06,2.67e-05,0.003284,0.002071,18.96,0.07882,0,1,0
54000000000,54300000000,3478528467,0,38644181,0.001188,0.008865,0.01163,0.001055,0.002167,0.008865,9.537e-07,2.67e-05,0.002476,7.153e-05,16.89,0.06941,0,1,0
54300000000,54600000000,3478528467,0,38644181,0.001217,0.008865,0.01163,0.001055,0.002167,0.008865,0,2.67e-05,0.002728,7.153e-05,16.87,0.06969,0,1,0
54600000000,54900000000,3478528467,0,38644181,0.001244,0.008865,0.01163,0.001055,0.002167,0.008865,0,2.67e-05,0.002762,7.153e-05,16.69,0.06834,0,1,0
54900000000,55200000000,3478528467,0,38644181,0.001255,0.008865,0.01163,0.001055,0.002167,0.008865,6.676e-06,2.67e-05,0.002403,0.001572,17.85,0.07318,0,1,0
55200000000,55500000000,3478528467,0,38644181,0.001255,0.008865,0.01163,0.001055,0.002167,0.008865,9.537e-07,2.67e-05,0.003262,0.0001431,14.28,0.0579,0,1,0
55500000000,55800000000,3478528467,0,38644181,0.001211,0.008865,0.01163,0.001055,0.002167,0.008865,1.812e-05,2.67e-05,0.002583,0.002857,15.64,0.06419,0,1,0
55800000000,56100000000,3478528467,0,38644181,0.00119,0.008865,0.01163,0.001055,0.002167,0.008865,9.537e-07,2.67e-05,0.003109,0.0001431,15.71,0.06435,0,1,0
56100000000,56400000000,3478528467,0,38644181,0.001133,0.008865,0.01163,0.001057,0.002167,0.008865,0,2.67e-05,0.002373,7.153e-05,16.16,0.06628,0,1,0
56400000000,56700000000,3478528467,0,38644181,0.001156,0.008865,0.01163,0.001057,0.002167,0.008865,9.537e-07,2.67e-05,0.002281,0.0001431,15.68,0.06399,0,1,0
56700000000,57000000000,3478528467,0,38644181,0.001284,0.008865,0.01163,0.001057,0.002167,0.008865,0,2.67e-05,0.002934,7.153e-05,18.41,0.07496,0,1,0
57000000000,57300000000,3478528467,0,38644181,0.001234,0.008865,0.01163,0.001057,0.002171,0.008865,0,2.67e-05,0.002831,7.153e-05,16.93,0.06906,0,1,0
57300000000,57600000000,3478528467,0,38644181,0.001184,0.008865,0.01163,0.001057,0.002171,0.008865,9.537e-07,2.67e-05,0.002224,0.0002146,16.38,0.066,0,1,0
57600000000,57900000000,3478528467,0,38644181,0.001152,0.008865,0.01163,0.001057,0.002171,0.008865,0,2.67e-05,0.002033,7.153e-05,16.03,0.06552,0,1,0
57900000000,58200000000,3478528467,0,38644181,0.001221,0.008865,0.01163,0.001057,0.002171,0.008865,0,2.67e-05,0.003605,7.153e-05,17.1,0.07002,0,1,0
58200000000,58500000000,3478528467,0,38644181,0.001299,0.008865,0.01163,0.001057,0.002171,0.008865,9.537e-07,2.67e-05,0.00246,0.0001431,17.79,0.07308,0,1,0
58500000000,58800000000,3478528467,0,38644181,0.001307,0.008865,0.01163,0.001057,0.002171,0.008865,0,2.67e-05,0.003098,7.153e-05,18.42,0.0761,0,1,0
58800000000,59100000000,3478528467,0,38644181,0.001242,0.008865,0.01163,0.001057,0.002171,0.008865,0,2.67e-05,0.00227,7.153e-05,18.18,0.0737,0,1,0
59100000000,59400000000,3478528467,0,38644181,0.001266,0.008865,0.01163,0.001057,0.002171,0.008865,0,2.67e-05,0.002716,7.153e-05,18.24,0.07666,0,1,0
59400000000,59700000000,3478528467,0,38644181,0.001305,0.008865,0.01163,0.001057,0.002171,0.008865,0,2.67e-05,0.00243,7.153e-05,18.39,0.07605,0,1,0
59700000000,60000000000,3478528467,0,38644181,0.001389,0.008865,0.01163,0.001057,0.002171,0.008865,0,2.67e-05,0.006599,7.153e-05,16.51,0.06747,0,1,0
60000000000,60300000000,3478528467,0,38644181,0.001383,0.008865,0.01163,0.001057,0.002171,0.008865,0,2.67e-05,0.01134,7.153e-05,19.69,0.08179,0,1,0
60300000000,60600000000,3478528467,0,38644181,0.001352,0.008865,0.01163,0.001057,0.002171,0.008865,9.537e-07,2.67e-05,0.002888,0.0001431,18.6,0.07621,0,1,0
60600000000,60900000000,3478528467,0,38644181,0.001329,0.008865,0.01163,0.001057,0.002171,0.008865,0,2.67e-05,0.002525,0.0001431,19.38,0.07967,0,1,0
70800000000,71100000000,3478528467,0,38644181,0.001171,0.008865,0.01163,0.001055,0.002171,0.008865,0,1.907e-05,0.002739,7.153e-05,16.53,0.06774,0,1,0
71100000000,71400000000,3478528467,0,38644181,0.001154,0.008865,0.01163,0.001055,0.002171,0.008865,9.537e-07,1.907e-05,0.002922,7.153e-05,16.9,0.06808,0,1,0
71400000000,71700000000,3478528467,0,38644181,0.001118,0.008865,0.01163,0.001055,0.002171,0.008865,9.537e-07,1.907e-05,0.003189,0.0001431,14.93,0.06032,0,1,0
72000000000,72300000000,3478528467,0,38644181,0.001595,0.008896,0.01193,0.001873,0.003654,0.009583,1.049e-05,1.907e-05,0.004387,0.001499,15.19,0.06026,0,1,0
72300000000,72600000000,3478528467,0,38644181,0.001472,0.00885,0.0116,0.001646,0.003422,0.008865,5.722e-06,1.907e-05,0.004074,0.0009995,15.46,0.06121,0,1,0
72600000000,72900000000,3478528467,0,38644181,0.001415,0.008865,0.0116,0.001646,0.003422,0.008865,2.861e-06,1.907e-05,0.004051,0.0002146,14.46,0.0562,0,1,0
72900000000,73200000000,3478528467,0,38644181,0.00165,0.008865,0.0116,0.001646,0.003422,0.008865,2.861e-06,1.907e-05,0.00378,0.0002146,17.4,0.07014,0,1,0
73200000000,73500000000,3478528467,0,38644181,0.001579,0.008865,0.0116,0.001646,0.003426,0.008865,2.861e-06,1.907e-05,0.003838,0.0001431,17.16,0.06808,0,1,0
73500000000,73800000000,3478528467,0,38644181,0.001404,0.008865,0.0116,0.001648,0.003426,0.008865,4.768e-06,1.907e-05,0.004288,0.0007858,16.18,0.06722,0,1,0
73800000000,74100000000,3478528467,0,38644181,0.001266,0.008865,0.0116,0.001648,0.003426,0.008865,1.907e-06,1.907e-05,0.004845,0.0001431,18.43,0.07744,0,1,0
74100000000,74400000000,3478528467,0,38644181,0.001249,0.008865,0.0116,0.001635,0.003414,0.008865,2.861e-06,1.907e-05,0.003399,7.153e-05,18.73,0.07709,0,1,0
74400000000,74700000000,3478528467,0,38644181,0.001196,0.008865,0.0116,0.001637,0.003414,0.008865,2.861e-06,1.907e-05,0.003399,0.0001431,17.67,0.07489,0,1,0
74700000000,75000000000,3478528467,0,38644181,0.001175,0.008865,0.0116,0.001644,0.003422,0.008865,0.0008097,1.907e-05,0.004509,0.02728,14.82,0.06157,0,1,0
75000000000,75300000000,3478528467,0,38644181,0.001442,0.009094,0.0116,0.001839,0.003712,0.00914,0.0002403,1.907e-05,0.02866,0.02563,15.13,0.0629,0,1,0
75300000000,75600000000,3478528467,0,38644181,0.00123,0.009125,0.0116,0.001707,0.003593,0.009125,4.768e-06,1.907e-05,0.03131,0.0001431,14.43,0.05904,0,1,0
75600000000,75900000000,3478528467,0,38644181,0.001665,0.009186,0.0116,0.001743,0.003632,0.009323,0.0002241,1.907e-05,0.04297,0.02344,16.65,0.06947,0,1,0
75900000000,76200000000,3478528467,0,38644181,0.001263,0.009247,0.0116,0.001699,0.003593,0.009247,4.768e-06,1.907e-05,0.00267,0.0005713,17.39,0.07303,0,1,0
76200000000,76500000000,3478528467,0,38644181,0.001387,0.009155,0.0116,0.001732,0.00359,0.009247,1.335e-05,1.907e-05,0.003185,0.00243,17.29,0.07323,0,1,0
76500000000,76800000000,3478528467,0,38644181,0.001328,0.008987,0.01161,0.001656,0.003441,0.008987,3.815e-06,1.907e-05,0.003105,0.0001431,19.02,0.07983,0,1,0
76800000000,77100000000,3478528467,0,38644181,0.001282,0.008987,0.01161,0.001638,0.003426,0.008987,4.768e-06,1.907e-05,0.002113,0.0004282,18.05,0.07711,0,1,0
77100000000,77400000000,3478528467,0,38644181,0.001213,0.008987,0.01161,0.001638,0.003426,0.008987,2.861e-06,1.907e-05,0.003113,7.153e-05,17.21,0.07277,0,1,0
77400000000,77700000000,3478528467,0,38644181,0.001131,0.008987,0.01161,0.00164,0.003426,0.008987,2.861e-06,1.907e-05,0.002918,0.0001431,16.48,0.0694,0,1,0
77700000000,78000000000,3478528467,0,38644181,0.001207,0.008987,0.01161,0.00164,0.003426,0.008987,4.768e-06,1.907e-05,0.002636,0.0004997,17.4,0.07535,0,1,0
78000000000,78300000000,3478528467,0,38644181,0.001173,0.008987,0.01161,0.00164,0.003426,0.008987,2.861e-06,1.907e-05,0.001944,0.0001431,17.03,0.073,0,1,0
78300000000,78600000000,3478528467,0,38644181,0.001232,0.008987,0.01161,0.00164,0.003426,0.008987,2.861e-06,1.907e-05,0.003239,7.153e-05,17.02,0.07222,0,1,0
78600000000,78900000000,3478528467,0,38644181,0.001198,0.008987,0.01161,0.00164,0.003426,0.008987,2.861e-06,1.907e-05,0.002934,0.0002146,17.91,0.0795,0,1,0
78900000000,79200000000,3478528467,0,38644181,0.001221,0.008987,0.01161,0.00164,0.003426,0.008987,2.861e-06,1.907e-05,0.00779,0.0002146,16.66,0.07208,0,1,0
79200000000,79500000000,3478528467,0,38644181,0.001242,0.008987,0.01161,0.001642,0.003426,0.008987,2.861e-06,1.907e-05,0.002155,0.0001431,15.93,0.068,0,1,0
79500000000,79800000000,3478528467,0,38644181,0.001242,0.008987,0.01161,0.001642,0.003426,0.008987,1.907e-06,1.907e-05,0.002758,7.153e-05,18.09,0.07745,0,1,0
79800000000,80100000000,3478528467,0,38644181,0.001213,0.008987,0.01161,0.001642,0.003426,0.008987,2.861e-06,1.907e-05,0.002781,0.0001431,18.06,0.07784,0,1,0
80100000000,80400000000,3478528467,0,38644181,0.001265,0.008987,0.01161,0.001642,0.003429,0.008987,2.861e-06,1.907e-05,0.002773,0.0001431,18.47,0.08091,0,1,0
80400000000,80700000000,3478528467,0,38644181,0.00128,0.008987,0.01161,0.001642,0.003429,0.008987,2.861e-06,1.907e-05,0.004097,0.0002146,17.81,0.07662,0,1,0
80700000000,81000000000,3478528467,0,38644181,0.001343,0.008987,0.01161,0.001642,0.003429,0.008987,1.907e-06,1.907e-05,0.00256,7.153e-05,18.62,0.07895,0,1,0
85800000000,86100000000,3478528467,0,38644181,0.001593,0.009048,0.01161,0.001719,0.003529,0.009308,0.0004816,1.907e-05,0.01329,0.03467,17.94,0.07646,0,1,0
86100000000,86400000000,3478528467,0,38644181,0.001415,0.009293,0.01161,0.001686,0.003578,0.009293,6.676e-06,1.907e-05,0.004555,0.0007143,18.12,0.07947,0,1,0
86400000000,86700000000,3478528467,0,38644181,0.00139,0.009293,0.01161,0.001667,0.003559,0.009293,5.722e-06,1.907e-05,0.003529,0.0008574,18.09,0.07878,0,1,0
86700000000,87000000000,3478528467,0,38644181,0.001678,0.009323,0.01161,0.001789,0.003681,0.009415,0.0001945,1.907e-05,0.05164,0.02856,17.04,0.07152,0,1,0
87000000000,87300000000,3478528467,0,38644181,0.001438,0.009338,0.01161,0.001669,0.003563,0.009338,1.907e-06,1.907e-05,0.003555,0.0001431,18.42,0.07667,0,1,0
87300000000,87600000000,3478528467,0,38644181,0.001307,0.009094,0.01161,0.001757,0.003563,0.009338,1.621e-05,1.907e-05,0.003216,0.003357,17.44,0.07248,0,1,0
87600000000,87900000000,3478528467,0,38644181,0.001459,0.009033,0.01161,0.001646,0.003429,0.009033,2.861e-06,1.907e-05,0.003212,0.0001431,20.15,0.08969,0,1,0
87900000000,88200000000,3478528467,0,38644181,0.001282,0.009033,0.01161,0.001619,0.003407,0.009033,2.861e-06,1.907e-05,0.02255,7.153e-05,15.56,0.06607,0,1,0
88200000000,88500000000,3478528467,0,38644181,0.001308,0.009033,0.01161,0.001621,0.003407,0.009033,2.861e-06,1.907e-05,0.003059,0.0001431,18.03,0.07643,0,1,0
88500000000,88800000000,3478528467,0,38644181,0.001348,0.009033,0.01161,0.001621,0.003407,0.009033,3.815e-06,1.907e-05,0.002605,0.0002146,18.61,0.08253,0,1,0
88800000000,89100000000,3478528467,0,38644181,0.001289,0.009033,0.01161,0.001621,0.003407,0.009033,2.861e-06,1.907e-05,0.002312,0.0001431,15.95,0.06853,0,1,0
89100000000,89400000000,3478528467,0,38644181,0.001209,0.009033,0.01161,0.001621,0.003407,0.009033,3.815e-06,1.907e-05,0.002728,0.0005713,16.59,0.06861,0,1,0
89400000000,89700000000,3478528467,0,38644181,0.001261,0.009033,0.01161,0.001621,0.003407,0.009033,2.861e-06,1.907e-05,0.002129,0.0002146,17.37,0.07178,0,1,0
89700000000,90000000000,3478528467,0,38644181,0.001411,0.009033,0.01161,0.001621,0.003407,0.009033,1.907e-06,1.907e-05,0.003269,7.153e-05,19.65,0.08716,0,1,0
90000000000,90300000000,3478528467,0,38644181,0.001379,0.009033,0.01161,0.001623,0.003407,0.009033,2.861e-06,1.907e-05,0.002304,0.0002146,18.85,0.08232,0,1,0
90300000000,90600000000,3478528467,0,38644181,0.00132,0.009033,0.01161,0.001623,0.003407,0.009033,2.861e-06,1.907e-05,0.003151,0.0002146,18.18,0.07751,0,1,0
90600000000,90900000000,3478528467,0,38644181,0.001509,0.009033,0.01161,0.001623,0.003407,0.009033,1.907e-06,1.907e-05,0.00425,0.0002146,20.58,0.08881,0,1,0
101100000000,101400000000,3478528467,0,38644181,0.001095,0.009079,0.01161,0.001629,0.003414,0.009079,2.861e-06,1.907e-05,0.003555,7.153e-05,15.46,0.06296,0,1,0
101400000000,101700000000,3478528467,0,38644181,0.001101,0.009079,0.01161,0.001629,0.003414,0.009079,1.907e-06,1.907e-05,0.002884,0.0001431,14.48,0.05793,0,1,0
101700000000,102000000000,3478528467,0,38644181,0.001186,0.009079,0.01161,0.001629,0.003414,0.009079,2.861e-06,1.907e-05,0.003052,7.153e-05,15.08,0.06001,0,1,0
102000000000,102300000000,3478528467,0,38644181,0.001335,0.009079,0.01161,0.001631,0.003414,0.009079,3.815e-06,1.907e-05,0.002598,0.0004282,17.7,0.07139,0,1,0
102300000000,102600000000,3478528467,0,38644181,0.00141,0.009079,0.01161,0.001631,0.003414,0.009079,2.861e-06,1.907e-05,0.00386,7.153e-05,18.61,0.07549,0,1,0
102600000000,102900000000,3478528467,0,38644181,0.001551,0.009079,0.01161,0.001631,0.003418,0.009079,4.768e-06,1.907e-05,0.00388,0.0007858,22.67,0.09992,0,1,0
102900000000,103200000000,3478528467,0,38644181,0.001333,0.009079,0.01161,0.001631,0.003418,0.009079,1.907e-06,1.907e-05,0.003288,0.0002146,18.98,0.07875,0,1,0
103200000000,103500000000,3478528467,0,38644181,0.001074,0.009079,0.01161,0.001631,0.003418,0.009079,3.815e-06,1.907e-05,0.00304,0.0007143,14.34,0.05782,0,1,0
103500000000,103800000000,3478528467,0,38644181,0.001177,0.009079,0.01161,0.001631,0.003418,0.009079,1.907e-06,1.907e-05,0.003014,7.153e-05,14.44,0.05957,0,1,0
103800000000,104100000000,3478528467,0,38644181,0.001249,0.009079,0.01161,0.001633,0.003418,0.009079,2.861e-06,1.907e-05,0.003002,0.0001431,16.89,0.07074,0,1,0
104100000000,104400000000,3478528467,0,38644181,0.001263,0.009079,0.01161,0.001633,0.003418,0.009079,2.861e-06,1.907e-05,0.002979,0.0001431,17.47,0.07312,0,1,0
104400000000,104700000000,3478528467,0,38644181,0.001226,0.009079,0.01161,0.001633,0.003418,0.009079,2.861e-06,1.907e-05,0.003059,0.0002146,16.89,0.0706,0,1,0
104700000000,105000000000,3478528467,0,38644181,0.001245,0.009079,0.01161,0.001633,0.003418,0.009079,2.861e-06,1.907e-05,0.002808,0.0002861,17.05,0.07239,0,1,0
105000000000,105300000000,3478528467,0,38644181,0.001307,0.009079,0.01161,0.001633,0.003418,0.009079,4.768e-06,1.907e-05,0.003185,0.0007858,17.89,0.07592,0,1,0
105300000000,105600000000,3478528467,0,38644181,0.001173,0.009079,0.01161,0.001633,0.003418,0.009079,5.722e-06,1.907e-05,0.003029,0.0009289,16.17,0.06695,0,1,0
105600000000,105900000000,3478528467,0,38644181,0.001036,0.009079,0.01161,0.001635,0.003418,0.009079,1.907e-06,1.907e-05,0.002724,0.0002146,12.86,0.05102,0,1,0
105900000000,106200000000,3478528467,0,38644181,0.001066,0.009079,0.01161,0.001635,0.003418,0.009079,1.907e-06,1.907e-05,0.003098,0.0001431,13.9,0.05638,0,1,0
106200000000,106500000000,3478528467,0,38644181,0.001085,0.009079,0.01161,0.001635,0.003418,0.009079,2.861e-06,1.907e-05,0.003105,0.0002861,14.92,0.06059,0,1,0
106500000000,106800000000,3478528467,0,38644181,0.001236,0.009216,0.01161,0.001701,0.00354,0.009369,0.0002241,1.907e-05,0.01465,0.03583,10.74,0.04231,0,1,0
106800000000,107100000000,3478528467,0,38644181,0.001423,0.009354,0.01161,0.001686,0.003578,0.009354,2.861e-06,1.907e-05,0.003208,0.0001431,17.83,0.07937,0,1,0
107100000000,107400000000,3478528467,0,38644181,0.001518,0.009354,0.01161,0.001696,0.00359,0.00943,0.0001631,1.907e-05,0.0592,0.02084,15.45,0.0674,0,1,0
107400000000,107700000000,3478528467,0,38644181,0.001041,0.009369,0.01161,0.001829,0.003723,0.009369,2.861e-06,1.907e-05,0.003433,0.0004997,12.6,0.05093,0,1,0
107700000000,108000000000,3478528467,0,38644181,0.00104,0.009338,0.01161,0.001699,0.003586,0.009369,1.621e-05,1.907e-05,0.008545,0.003571,13.33,0.05511,0,1,0
108000000000,108300000000,3478528467,0,38644181,0.001011,0.009094,0.01161,0.001629,0.003414,0.009094,2.861e-06,1.907e-05,0.00248,0.0003567,12.86,0.05136,0,1,0
108300000000,108600000000,3478528467,0,38644181,0.001015,0.009079,0.01161,0.001631,0.003414,0.009079,1.24e-05,1.907e-05,0.008224,0.00293,13.65,0.05545,0,1,0
108600000000,108900000000,3478528467,0,38644181,0.001022,0.009079,0.01161,0.001631,0.003414,0.009079,1.907e-06,1.907e-05,0.002628,0.0002146,14,0.05685,0,1,0
108900000000,109200000000,3478528467,0,38644181,0.0009842,0.009079,0.01161,0.001631,0.003414,0.009079,2.861e-06,1.907e-05,0.002586,0.0001431,14.77,0.06171,0,1,0
109200000000,109500000000,3478528467,0,38644181,0.0009413,0.009079,0.01161,0.001631,0.003418,0.009079,1.907e-06,1.907e-05,0.002674,0.0001431,13.41,0.05423,0,1,0
109500000000,109800000000,3478528467,0,38644181,0.0008907,0.009079,0.01161,0.001631,0.003418,0.009079,3.815e-06,1.907e-05,0.002182,0.0006428,12.7,0.05072,0,1,0
109800000000,110100000000,3478528467,0,38644181,0.0009899,0.009079,0.01161,0.001631,0.003418,0.009079,6.676e-06,1.907e-05,0.002861,0.001429,13.65,0.05533,0,1,0
110100000000,110400000000,3478528467,0,38644181,0.0009823,0.009079,0.01161,0.001631,0.003418,0.009079,1.907e-06,1.907e-05,0.002533,0.0002146,13.8,0.05636,0,1,0
110400000000,110700000000,3478528467,0,38644181,0.001057,0.009079,0.01161,0.001633,0.003418,0.009094,1.907e-06,1.907e-05,0.002987,0.0001431,15.49,0.06447,0,1,0
110700000000,111000000000,3478528467,0,38644181,0.001034,0.009079,0.01161,0.001633,0.003418,0.009094,1.907e-06,1.907e-05,0.01201,0.0001431,14.95,0.06317,0,1,0
116100000000,116400000000,3478528467,0,38644181,0.0009727,0.009094,0.01161,0.001595,0.00338,0.009094,1.907e-06,1.907e-05,0.002529,7.153e-05,14.01,0.05694,0,1,0
116400000000,116700000000,3478528467,0,38644181,0.001022,0.009094,0.01161,0.001595,0.00338,0.009094,3.815e-06,1.907e-05,0.002655,0.0006428,15.77,0.06293,0,1,0
116700000000,117000000000,3478528467,0,38644181,0.0009804,0.009094,0.01161,0.001595,0.00338,0.009094,5.054e-05,1.907e-05,0.006973,0.005074,13,0.05144,0,1,0
117000000000,117300000000,3478528467,0,38644181,0.001148,0.009293,0.01161,0.00177,0.003632,0.009399,0.0002251,1.907e-05,0.009171,0.02307,12.76,0.05145,0,1,0
117300000000,117600000000,3478528467,0,38644181,0.001095,0.009384,0.01161,0.001762,0.003658,0.009384,5.722e-06,1.907e-05,0.002796,0.0003567,16.02,0.06758,0,1,0
117600000000,117900000000,3478528467,0,38644181,0.00139,0.009384,0.01161,0.001783,0.003677,0.00943,0.000164,1.907e-05,0.06677,0.02344,14.3,0.05768,0,1,0
117900000000,118200000000,3478528467,0,38644181,0.001043,0.009399,0.01161,0.00177,0.003666,0.009399,2.861e-06,1.907e-05,0.002689,0.0002146,15.69,0.06509,0,1,0
118200000000,118500000000,3478528467,0,38644181,0.00107,0.009293,0.01161,0.00169,0.003548,0.009384,1.24e-05,1.907e-05,0.003445,0.002499,15.23,0.0594,0,1,0
118500000000,118800000000,3478528467,0,38644181,0.0009937,0.009094,0.01161,0.001682,0.003468,0.009094,4.768e-06,1.907e-05,0.002186,0.0005713,14.82,0.05912,0,1,0
118800000000,119100000000,3478528467,0,38644181,0.0009546,0.009094,0.01161,0.001595,0.00338,0.009094,1.907e-06,1.907e-05,0.002396,0.0001431,13.89,0.05558,0,1,0
119100000000,119400000000,3478528467,0,38644181,0.001005,0.009094,0.01161,0.001595,0.00338,0.009094,2.861e-06,1.907e-05,0.002422,7.153e-05,15.26,0.06046,0,1,0
119400000000,119700000000,3478528467,0,38644181,0.0009441,0.009094,0.01161,0.001591,0.003376,0.009094,1.907e-06,1.907e-05,0.002575,0.0002146,14.13,0.05626,0,1,0
119700000000,120000000000,3478528467,0,38644181,0.0009518,0.009094,0.01161,0.001589,0.003376,0.009094,2.861e-06,1.907e-05,0.002781,7.153e-05,13.53,0.05486,0,1,0
120000000000,120300000000,3478528467,0,38644181,0.001019,0.009094,0.01161,0.001589,0.003376,0.009094,2.861e-06,1.907e-05,0.002674,0.0001068,15.41,0.06451,0,1,0
120300000000,120600000000,3478528467,0,38644181,0.0008841,0.009094,0.01161,0.001591,0.003376,0.009094,2.861e-06,1.907e-05,0.002071,7.153e-05,12.3,0.04913,0,1,0
120600000000,120900000000,3478528467,0,38644181,0.001141,0.009094,0.01161,0.001591,0.003376,0.009109,2.861e-06,1.907e-05,0.002365,0.0001431,17.45,0.07788,0,1,0
126000000000,126300000000,3478528467,0,38644181,0.001316,0.009109,0.01161,0.001596,0.00338,0.009109,5.722e-06,1.907e-05,0.002171,0.0004997,20.5,0.08745,0,1,0
126300000000,126600000000,3478528467,0,38644181,0.001251,0.009109,0.01161,0.001596,0.003384,0.009109,2.861e-06,1.907e-05,0.002518,7.153e-05,18.08,0.07356,0,1,0
126600000000,126900000000,3478528467,0,38644181,0.00124,0.009109,0.01161,0.001596,0.003384,0.009109,1.907e-06,1.907e-05,0.002449,0.0001431,19.28,0.07802,0,1,0
126900000000,127200000000,3478528467,0,38644181,0.001343,0.009109,0.01161,0.001596,0.003384,0.009109,2.861e-06,1.907e-05,0.002346,0.0002146,20.41,0.08412,0,1,0
127200000000,127500000000,3478528467,0,38644181,0.001308,0.009109,0.01161,0.001598,0.003384,0.009109,2.861e-06,1.907e-05,0.002792,0.0002146,19.61,0.08088,0,1,0
127500000000,127800000000,3478528467,0,38644181,0.001162,0.009109,0.01161,0.001598,0.003384,0.009109,3.624e-05,1.907e-05,0.00275,0.002998,16.09,0.06499,0,1,0
127800000000,128100000000,3478528467,0,38644181,0.001509,0.009354,0.01161,0.001787,0.003654,0.00946,0.0001822,1.907e-05,0.08545,0.02313,12.67,0.05062,0,1,0
128100000000,128400000000,3478528467,0,38644181,0.001215,0.00943,0.01161,0.001854,0.003746,0.00943,2.861e-06,1.907e-05,0.002449,0.0001431,16.6,0.06846,0,1,0
128400000000,128700000000,3478528467,0,38644181,0.00152,0.00943,0.01161,0.001879,0.003773,0.009476,0.0001421,1.907e-05,0.05835,0.01993,16.11,0.06576,0,1,0
128700000000,129000000000,3478528467,0,38644181,0.00123,0.00943,0.01161,0.001751,0.003643,0.00943,1.907e-06,1.907e-05,0.00235,7.153e-05,14.95,0.06097,0,1,0
129000000000,129300000000,3478528467,0,38644181,0.001137,0.009338,0.01161,0.00178,0.003639,0.00943,1.907e-05,1.907e-05,0.003342,0.00293,15.85,0.06373,0,1,0
129300000000,129600000000,3478528467,0,38644181,0.001009,0.009109,0.01161,0.001593,0.003376,0.009109,6.676e-06,1.907e-05,0.002308,0.001143,15.63,0.06296,0,1,0
129600000000,129900000000,3478528467,0,38644181,0.001055,0.009109,0.01161,0.001593,0.003376,0.009109,1.907e-06,1.907e-05,0.002117,0.0001431,14.89,0.05814,0,1,0
129900000000,130200000000,3478528467,0,38644181,0.001112,0.009109,0.01161,0.001593,0.003376,0.009109,1.907e-06,1.907e-05,0.00275,7.153e-05,16.15,0.06566,0,1,0
130200000000,130500000000,3478528467,0,38644181,0.001188,0.009109,0.01161,0.001593,0.003376,0.009109,2.861e-06,1.907e-05,0.002132,0.0002146,18.29,0.07422,0,1,0
130500000000,130800000000,3478528467,0,38644181,0.001144,0.009109,0.01161,0.001593,0.003376,0.009109,5.722e-06,1.907e-05,0.002293,0.0008574,15.88,0.06682,0,1,0
130800000000,131100000000,3478528467,0,38644181,0.001198,0.009109,0.01161,0.001595,0.003376,0.009109,2.861e-06,1.907e-05,0.002514,0.0001431,17.84,0.07564,0,1,0
141000000000,141300000000,3478528467,0,38644181,0.001265,0.009109,0.01161,0.001657,0.003441,0.009109,5.722e-06,1.907e-05,0.003429,0.0007143,16.26,0.06842,0,1,0
141300000000,141600000000,3478528467,0,38644181,0.001278,0.009109,0.01161,0.001657,0.003441,0.009109,6.676e-06,1.907e-05,0.003632,0.0005713,16.89,0.06962,0,1,0
141600000000,141900000000,3478528467,0,38644181,0.00119,0.009109,0.01161,0.001659,0.003441,0.009109,1.621e-05,1.907e-05,0.002571,0.001642,16.09,0.06693,0,1,0
141900000000,142200000000,3478528467,0,38644181,0.001188,0.009109,0.01161,0.001659,0.003441,0.009109,4.768e-06,1.907e-05,0.003014,0.0005713,12.62,0.05061,0,1,0
142200000000,142500000000,3478528467,0,38644181,0.00115,0.009109,0.01161,0.001659,0.003445,0.009109,3.815e-06,1.907e-05,0.002193,0.0002146,12.62,0.0519,0,1,0
142500000000,142800000000,3478528467,0,38644181,0.001373,0.009109,0.01161,0.001659,0.003445,0.009109,3.815e-06,1.907e-05,0.002769,0.0004997,17.93,0.07542,0,1,0
142800000000,143100000000,3478528467,0,38644181,0.001354,0.009109,0.01161,0.001659,0.003445,0.009109,2.861e-06,1.907e-05,0.002762,0.0001431,19.44,0.08896,0,1,0
143100000000,143400000000,3478528467,0,38644181,0.001358,0.009109,0.01161,0.001633,0.003414,0.009109,2.861e-06,1.907e-05,0.002083,7.153e-05,19.96,0.09078,0,1,0
143400000000,143700000000,3478528467,0,38644181,0.001371,0.009109,0.01161,0.001595,0.00338,0.009109,2.861e-06,1.907e-05,0.004784,0.0002861,19.12,0.08197,0,1,0
143700000000,144000000000,3478528467,0,38644181,0.001459,0.009109,0.01161,0.001595,0.00338,0.009109,2.861e-06,1.907e-05,0.003864,7.153e-05,20.42,0.08359,0,1,0
144000000000,144300000000,3478528467,0,38644181,0.001474,0.009109,0.01161,0.001595,0.003376,0.009109,2.861e-06,1.907e-05,0.005714,0.0002146,20.41,0.08643,0,1,0
144300000000,144600000000,3478528467,0,38644181,0.001429,0.009109,0.01161,0.001595,0.003376,0.009109,2.861e-06,1.907e-05,0.004036,0.0001431,20.37,0.08441,0,1,0
144600000000,144900000000,3478528467,0,38644181,0.001293,0.009109,0.01161,0.001595,0.003376,0.009109,1.049e-05,1.907e-05,0.002815,0.001999,18.51,0.07672,0,1,0
144900000000,145200000000,3478528467,0,38644181,0.001339,0.009109,0.01161,0.001595,0.00338,0.009109,2.289e-05,1.907e-05,0.004967,0.002857,17.97,0.07415,0,1,0
145200000000,145500000000,3478528467,0,38644181,0.00131,0.009109,0.01161,0.001595,0.00338,0.009109,2.956e-05,1.907e-05,0.003384,0.003857,13.71,0.05672,0,1,0
145500000000,145800000000,3478528467,0,38644181,0.001289,0.009109,0.01161,0.001596,0.00338,0.009109,1.717e-05,1.907e-05,0.003151,0.001785,10.64,0.04312,0,1,0
145800000000,146100000000,3478528467,0,38644181,0.001341,0.009109,0.01161,0.001596,0.00338,0.009109,5.722e-06,1.907e-05,0.003159,0.0002146,11.54,0.04672,0,1,0
151200000000,151500000000,3478528467,0,38644181,0.001036,0.009109,0.01161,0.001602,0.003387,0.009109,8.583e-06,1.907e-05,0.002617,0.0009995,13.45,0.05412,0,1,0
151500000000,151800000000,3478528467,0,38644181,0.001425,0.009155,0.01161,0.001627,0.003426,0.009445,0.0002193,1.907e-05,0.073,0.02451,10.35,0.04071,0,1,0
151800000000,152100000000,3478528467,0,38644181,0.00107,0.009415,0.01161,0.001667,0.003559,0.009415,1.335e-05,1.907e-05,0.002857,0.002071,13.25,0.05317,0,1,0
152100000000,152400000000,3478528467,0,38644181,0.001089,0.009415,0.01161,0.001663,0.003555,0.009415,3.815e-06,1.907e-05,0.002274,0.0001431,14.83,0.06106,0,1,0
152400000000,152700000000,3478528467,0,38644181,0.001419,0.009415,0.01161,0.001682,0.003574,0.00946,0.0001602,1.907e-05,0.06506,0.02158,1.921,0.006059,0,1,0
152700000000,153000000000,3478528467,0,38644181,0.001188,0.009415,0.01161,0.001652,0.003544,0.009415,2.861e-06,1.907e-05,0.002224,7.153e-05,15.55,0.06503,0,1,0
153000000000,153300000000,3478528467,0,38644181,0.001408,0.009216,0.01161,0.001619,0.003441,0.009415,2.384e-05,1.907e-05,0.004059,0.005646,20.36,0.08745,0,1,0
153300000000,153600000000,3478528467,0,38644181,0.001419,0.009109,0.01161,0.001579,0.003365,0.009109,1.907e-06,1.907e-05,0.003529,0.0001431,20.09,0.08736,0,1,0
153600000000,153900000000,3478528467,0,38644181,0.001163,0.009109,0.01161,0.001581,0.003365,0.009109,2.861e-06,1.907e-05,0.002403,0.0001431,17.24,0.07374,0,1,0
153900000000,154200000000,3478528467,0,38644181,0.001181,0.009109,0.01161,0.001581,0.003365,0.009109,2.861e-06,1.907e-05,0.002632,7.153e-05,17.86,0.07623,0,1,0
154200000000,154500000000,3478528467,0,38644181,0.001179,0.009109,0.01161,0.001581,0.003365,0.009109,3.815e-06,1.907e-05,0.003296,0.0004997,17.71,0.07591,0,1,0
154500000000,154800000000,3478528467,0,38644181,0.001247,0.009109,0.01161,0.001581,0.003365,0.009109,1.907e-06,1.907e-05,0.003632,7.153e-05,18.61,0.08123,0,1,0
154800000000,155100000000,3478528467,0,38644181,0.001268,0.009109,0.01161,0.001581,0.003365,0.009109,1.907e-06,1.907e-05,0.003826,0.0001431,19.86,0.08718,0,1,0
155100000000,155400000000,3478528467,0,38644181,0.001276,0.009109,0.01161,0.001581,0.003365,0.009109,2.861e-06,1.907e-05,0.003082,7.153e-05,19.57,0.08458,0,1,0
155400000000,155700000000,3478528467,0,38644181,0.001316,0.009109,0.01161,0.001581,0.003365,0.009109,2.861e-06,1.907e-05,0.003044,0.0001431,20.47,0.08748,0,1,0
155700000000,156000000000,3478528467,0,38644181,0.001286,0.009109,0.01161,0.001583,0.003365,0.009109,1.907e-06,1.907e-05,0.003151,7.153e-05,19.43,0.08269,0,1,0
161100000000,161400000000,3478528467,0,38644181,0.001314,0.009384,0.01161,0.001831,0.003719,0.00943,0.0001802,1.907e-05,0.03772,0.03223,12.03,0.04824,0,1,0
161400000000,161700000000,3478528467,0,38644181,0.001055,0.009384,0.01161,0.001667,0.003559,0.009399,3.815e-06,1.907e-05,0.002785,0.0001431,14.69,0.06061,0,1,0
161700000000,162000000000,3478528467,0,38644181,0.001486,0.009415,0.01161,0.001711,0.003601,0.00946,0.0001678,1.907e-05,0.05756,0.01944,14.55,0.05992,0,1,0
162000000000,162300000000,3478528467,0,38644181,0.001177,0.009415,0.01161,0.001707,0.003597,0.009415,2.861e-06,1.907e-05,0.00256,0.0001431,16.75,0.06905,0,1,0
162300000000,162600000000,3478528467,0,38644181,0.001133,0.009293,0.01161,0.001652,0.003494,0.00943,4.768e-06,1.907e-05,0.003868,0.0002861,14.81,0.05943,0,1,0
162600000000,162900000000,3478528467,0,38644181,0.001053,0.009125,0.01161,0.00168,0.00346,0.009125,2.861e-06,1.907e-05,0.002701,0.0001431,14.68,0.05955,0,1,0
162900000000,163200000000,3478528467,0,38644181,0.001116,0.009125,0.01161,0.001545,0.003326,0.009125,1.907e-06,1.907e-05,0.002708,7.153e-05,15.93,0.06569,0,1,0
163200000000,163500000000,3478528467,0,38644181,0.001122,0.009125,0.01161,0.001545,0.003326,0.009125,6.676e-06,1.907e-05,0.002895,0.0007143,15.73,0.06403,0,1,0
163500000000,163800000000,3478528467,0,38644181,0.001135,0.009125,0.01161,0.001545,0.003326,0.009125,1.907e-06,1.907e-05,0.003063,7.153e-05,16.23,0.0659,0,1,0
163800000000,164100000000,3478528467,0,38644181,0.001072,0.009125,0.01161,0.001547,0.003326,0.009125,3.815e-06,1.907e-05,0.00198,0.0003567,14.89,0.06067,0,1,0
164100000000,164400000000,3478528467,0,38644181,0.001026,0.009125,0.01161,0.001547,0.003326,0.009125,5.722e-06,1.907e-05,0.002483,0.0004997,14.5,0.05901,0,1,0
164400000000,164700000000,3478528467,0,38644181,0.000927,0.009125,0.01161,0.001547,0.00333,0.009125,5.722e-06,1.907e-05,0.001999,0.001143,13.51,0.05481,0,1,0
164700000000,165000000000,3478528467,0,38644181,0.0009718,0.009125,0.01161,0.001547,0.00333,0.009125,2.861e-06,1.907e-05,0.001865,7.153e-05,13.72,0.05538,0,1,0
165000000000,165300000000,3478528467,0,38644181,0.001074,0.009125,0.01161,0.001547,0.00333,0.009125,2.861e-06,1.907e-05,0.005371,0.0001431,13.84,0.05545,0,1,0
165300000000,165600000000,3478528467,0,38644181,0.001137,0.009125,0.01161,0.001547,0.00333,0.009125,1.907e-06,1.907e-05,0.002697,7.153e-05,16.41,0.06688,0,1,0
165600000000,165900000000,3478528467,0,38644181,0.001135,0.009125,0.01161,0.001549,0.00333,0.009125,5.722e-06,1.907e-05,0.00248,0.0007858,16.83,0.06719,0,1,0
165900000000,166200000000,3478528467,0,38644181,0.001104,0.009125,0.01161,0.001549,0.00333,0.009125,2.861e-06,1.907e-05,0.002625,7.153e-05,16.76,0.06751,0,1,0
166200000000,166500000000,3478528467,0,38644181,0.001137,0.009125,0.01161,0.001549,0.00333,0.009125,1.907e-06,1.907e-05,0.002556,0.0001431,17.4,0.0709,0,1,0
166500000000,166800000000,3478528467,0,38644181,0.001175,0.009125,0.01161,0.001547,0.00333,0.009125,1.907e-06,1.907e-05,0.002819,0.0001431,18.15,0.07481,0,1,0
166800000000,167100000000,3478528467,0,38644181,0.00124,0.009125,0.01161,0.001547,0.00333,0.009125,2.861e-06,1.907e-05,0.008743,0.0002146,17.69,0.07066,0,1,0
167100000000,167400000000,3478528467,0,38644181,0.001257,0.009125,0.01161,0.001549,0.00333,0.009125,1.907e-06,1.907e-05,0.002823,0.0001431,19.25,0.0794,0,1,0
167400000000,167700000000,3478528467,0,38644181,0.00115,0.009125,0.01161,0.001549,0.00333,0.009125,6.676e-06,1.907e-05,0.002808,0.0006428,18.64,0.0779,0,1,0
167700000000,168000000000,3478528467,0,38644181,0.001154,0.009125,0.01161,0.001549,0.00333,0.009125,4.768e-06,1.907e-05,0.002495,0.0004997,16.6,0.06765,0,1,0
168000000000,168300000000,3478528467,0,38644181,0.001165,0.009125,0.01161,0.001551,0.00333,0.009125,2.861e-06,1.907e-05,0.002548,0.0001431,15.46,0.06394,0,1,0
168300000000,168600000000,3478528467,0,38644181,0.00119,0.009125,0.01161,0.001551,0.00333,0.009125,2.861e-06,1.907e-05,0.002815,7.153e-05,17.78,0.07306,0,1,0
168600000000,168900000000,3478528467,0,38644181,0.001184,0.009125,0.01161,0.001551,0.003334,0.009125,4.768e-06,1.907e-05,0.003075,0.0004997,17.44,0.07127,0,1,0
168900000000,169200000000,3478528467,0,38644181,0.001085,0.009125,0.01161,0.001551,0.003334,0.009125,2.861e-06,1.907e-05,0.002312,0.0001431,15.13,0.06021,0,1,0
169200000000,169500000000,3478528467,0,38644181,0.001238,0.009125,0.01161,0.001553,0.003334,0.009125,2.861e-06,1.907e-05,0.002884,0.0002146,18.27,0.0751,0,1,0
169500000000,169800000000,3478528467,0,38644181,0.001266,0.009125,0.01161,0.001553,0.003334,0.009125,2.861e-06,1.907e-05,0.002548,7.153e-05,18.14,0.07417,0,1,0
169800000000,170100000000,3478528467,0,38644181,0.001293,0.009125,0.01161,0.001553,0.003334,0.009125,1.907e-06,1.907e-05,0.002964,0.0002146,20.23,0.09039,0,1,0
170100000000,170400000000,3478528467,0,38644181,0.00136,0.009125,0.01161,0.001553,0.003334,0.009125,2.861e-06,1.907e-05,0.002743,0.0001431,20.5,0.08621,0,1,0
170400000000,170700000000,3478528467,0,38644181,0.001318,0.009125,0.01161,0.001554,0.003334,0.009125,2.861e-06,1.907e-05,0.002567,0.0001431,20.22,0.08468,0,1,0
170700000000,171000000000,3478528467,0,38644181,0.001389,0.009125,0.01161,0.001554,0.003338,0.00914,2.861e-06,1.907e-05,0.00444,0.0001431,20.34,0.08714,0,1,0
171000000000,171300000000,3478528467,0,38644181,0.001501,0.009125,0.01161,0.001554,0.003338,0.00914,6.676e-06,1.907e-05,0.005501,0.0008574,20.09,0.08746,0,1,0
171300000000,171600000000,3478528467,0,38644181,0.001377,0.009125,0.01161,0.001556,0.003338,0.00914,4.005e-05,1.907e-05,0.004303,0.002857,19.4,0.08533,0,1,0
171600000000,171900000000,3478528467,0,38644181,0.001581,0.009323,0.01161,0.001715,0.003563,0.009476,0.0002041,1.907e-05,0.03729,0.02042,17.56,0.07556,0,1,0
171900000000,172200000000,3478528467,0,38644181,0.001148,0.009445,0.01161,0.001633,0.003517,0.009445,4.768e-06,1.907e-05,0.002316,0.0001431,15.89,0.06507,0,1,0
172200000000,172500000000,3478528467,0,38644181,0.001507,0.009445,0.01161,0.001638,0.003525,0.009476,0.0001593,1.907e-05,0.05695,0.02063,17.78,0.07243,0,1,0
172500000000,172800000000,3478528467,0,38644181,0.001152,0.009445,0.01161,0.001759,0.003647,0.009445,4.768e-06,1.907e-05,0.00359,0.0001431,16.82,0.06915,0,1,0
172800000000,173100000000,3478528467,0,38644181,0.001188,0.009384,0.01161,0.001682,0.003548,0.009445,1.812e-05,1.907e-05,0.003212,0.00293,16.55,0.06798,0,1,0
173100000000,173400000000,3478528467,0,38644181,0.001173,0.009125,0.01161,0.001707,0.003487,0.009125,5.722e-06,1.907e-05,0.002525,0.0007858,18.36,0.07465,0,1,0
173400000000,173700000000,3478528467,0,38644181,0.001228,0.009125,0.01161,0.001707,0.003483,0.009125,7.629e-06,1.907e-05,0.002537,0.001215,18.53,0.07323,0,1,0
173700000000,174000000000,3478528467,0,38644181,0.001154,0.009125,0.01161,0.001705,0.003483,0.009125,1.907e-06,1.907e-05,0.006256,7.153e-05,17.19,0.0691,0,1,0
174000000000,174300000000,3478528467,0,38644181,0.001221,0.009125,0.01161,0.001707,0.003483,0.009125,5.722e-06,1.907e-05,0.002792,0.0008574,18.15,0.07338,0,1,0
174300000000,174600000000,3478528467,0,38644181,0.001192,0.009125,0.01161,0.001707,0.003487,0.009125,2.861e-06,1.907e-05,0.002342,0.0001431,17.9,0.07278,0,1,0
174600000000,174900000000,3478528467,0,38644181,0.001188,0.009125,0.01161,0.001707,0.003487,0.009125,1.049e-05,1.907e-05,0.002552,0.001999,16.26,0.06531,0,1,0
174900000000,175200000000,3478528467,0,38644181,0.001114,0.009125,0.01161,0.001709,0.003487,0.009125,2.861e-06,1.907e-05,0.002453,0.0001431,15.82,0.06342,0,1,0
175200000000,175500000000,3478528467,0,38644181,0.001245,0.009125,0.01161,0.001709,0.003487,0.009125,2.861e-06,1.907e-05,0.002945,0.0001431,15.58,0.06185,0,1,0
175500000000,175800000000,3478528467,0,38644181,0.001411,0.009125,0.01161,0.001709,0.003487,0.009125,2.861e-06,1.907e-05,0.003014,7.153e-05,20.86,0.09055,0,1,0
175800000000,176100000000,3478528467,0,38644181,0.001509,0.009125,0.01161,0.001598,0.003376,0.009125,3.815e-06,1.907e-05,0.002724,0.0005713,21.1,0.09282,0,1,0
186300000000,186600000000,3478528467,0,38644181,0.001232,0.00914,0.01161,0.001551,0.00333,0.00914,2.861e-06,1.907e-05,0.002811,0.0001431,17.47,0.07332,0,1,0
186600000000,186900000000,3478528467,0,38644181,0.001167,0.00914,0.01161,0.001551,0.00333,0.00914,2.861e-06,1.907e-05,0.003223,0.0001431,17.28,0.07234,0,1,0
186900000000,187200000000,3478528467,0,38644181,0.001205,0.00914,0.01161,0.001551,0.00333,0.00914,2.861e-06,1.907e-05,0.002609,7.153e-05,17.67,0.07488,0,1,0
187200000000,187500000000,3478528467,0,38644181,0.001154,0.00914,0.01161,0.001551,0.00333,0.00914,6.676e-06,1.907e-05,0.003082,0.0007858,16.79,0.07063,0,1,0
187500000000,187800000000,3478528467,0,38644181,0.00108,0.00914,0.01161,0.001551,0.00333,0.00914,4.768e-06,1.907e-05,0.002293,0.0006428,15.39,0.06201,0,1,0
187800000000,188100000000,3478528467,0,38644181,0.001104,0.00914,0.01161,0.001551,0.00333,0.00914,2.861e-06,1.907e-05,0.002476,0.0001431,16.05,0.06635,0,1,0
188100000000,188400000000,3478528467,0,38644181,0.000968,0.00914,0.01161,0.001553,0.00333,0.00914,2.861e-06,1.907e-05,0.002533,7.153e-05,15.05,0.06032,0,1,0
188400000000,188700000000,3478528467,0,38644181,0.001011,0.00914,0.01161,0.001553,0.00333,0.00914,1.907e-06,1.907e-05,0.002247,0.0002146,15.02,0.06226,0,1,0
188700000000,189000000000,3478528467,0,38644181,0.001026,0.00914,0.01161,0.001553,0.00333,0.00914,1.907e-06,1.907e-05,0.002151,7.153e-05,14.2,0.05719,0,1,0
189000000000,189300000000,3478528467,0,38644181,0.0009403,0.00914,0.01161,0.001553,0.00333,0.00914,1.907e-06,1.907e-05,0.002361,0.0001431,12.83,0.05078,0,1,0
189300000000,189600000000,3478528467,0,38644181,0.0009079,0.00914,0.01161,0.001553,0.00333,0.00914,1.907e-06,1.907e-05,0.002632,7.153e-05,12.67,0.05027,0,1,0
189600000000,189900000000,3478528467,0,38644181,0.0008821,0.00914,0.01161,0.001553,0.00333,0.00914,4.768e-06,1.907e-05,0.001898,0.0007143,12.25,0.04797,0,1,0
189900000000,190200000000,3478528467,0,38644181,0.0009804,0.00914,0.01161,0.001554,0.00333,0.00914,2.861e-06,1.907e-05,0.002193,0.0001431,13.53,0.05548,0,1,0
190200000000,190500000000,3478528467,0,38644181,0.0009785,0.00914,0.01161,0.001554,0.00333,0.00914,2.861e-06,1.907e-05,0.001919,0.0001431,13.76,0.05581,0,1,0
190500000000,190800000000,3478528467,0,38644181,0.0009651,0.00914,0.01161,0.001554,0.003334,0.00914,4.768e-06,1.907e-05,0.001919,0.0005713,14.01,0.05665,0,1,0
190800000000,191100000000,3478528467,0,38644181,0.001047,0.00914,0.01161,0.001553,0.00333,0.00914,2.861e-06,1.907e-05,0.002052,0.0002146,14.57,0.05821,0,1,0
191100000000,191400000000,3478528467,0,38644181,0.001047,0.00914,0.01161,0.001553,0.00333,0.00914,7.629e-06,1.907e-05,0.002419,0.0008574,14.77,0.05738,0,1,0
191400000000,191700000000,3478528467,0,38644181,0.001045,0.00914,0.01161,0.001553,0.00333,0.00914,2.861e-06,1.907e-05,0.002678,0.0001431,15.46,0.06105,0,1,0
191700000000,192000000000,3478528467,0,38644181,0.001123,0.00914,0.01161,0.001553,0.00333,0.00914,6.676e-06,1.907e-05,0.002136,0.001215,16.2,0.06624,0,1,0
192000000000,192300000000,3478528467,0,38644181,0.001114,0.00914,0.01161,0.001553,0.00333,0.00914,3.815e-06,1.907e-05,0.002254,0.0004997,17.08,0.07067,0,1,0
192300000000,192600000000,3478528467,0,38644181,0.001099,0.00914,0.01161,0.001553,0.00333,0.00914,1.907e-06,1.907e-05,0.00264,7.153e-05,15.96,0.06503,0,1,0
192600000000,192900000000,3478528467,0,38644181,0.001144,0.00914,0.01161,0.001553,0.00333,0.00914,2.861e-06,1.907e-05,0.002113,0.0001431,17.12,0.06985,0,1,0
192900000000,193200000000,3478528467,0,38644181,0.001486,0.009293,0.01161,0.001637,0.003464,0.009476,0.0002203,1.907e-05,0.01569,0.02542,18.57,0.07883,0,1,0
193200000000,193500000000,3478528467,0,38644181,0.001345,0.009445,0.01161,0.00173,0.003616,0.009445,7.629e-06,1.907e-05,0.004265,0.0008574,19.76,0.08359,0,1,0
193500000000,193800000000,3478528467,0,38644181,0.001671,0.009445,0.01161,0.001627,0.003513,0.009476,0.0001535,1.907e-05,0.05658,0.01706,18.93,0.08125,0,1,0
193800000000,194100000000,3478528467,0,38644181,0.001291,0.009445,0.01161,0.001633,0.003521,0.009445,2.48e-05,1.907e-05,0.00272,0.003643,18.59,0.07957,0,1,0
194100000000,194400000000,3478528467,0,38644181,0.00141,0.009445,0.01161,0.001595,0.003483,0.009445,3.815e-06,1.907e-05,0.003559,0.0001431,20.95,0.094,0,1,0
194400000000,194700000000,3478528467,0,38644181,0.001266,0.009155,0.01161,0.001701,0.003483,0.009445,1.526e-05,1.907e-05,0.003456,0.003357,18.99,0.08082,0,1,0
194700000000,195000000000,3478528467,0,38644181,0.001261,0.00914,0.01161,0.001703,0.003483,0.00914,3.815e-06,1.907e-05,0.002129,0.0003567,19.11,0.08246,0,1,0
195000000000,195300000000,3478528467,0,38644181,0.001249,0.00914,0.01161,0.001616,0.003395,0.00914,3.815e-06,1.907e-05,0.002388,0.0005713,19.26,0.08248,0,1,0
195300000000,195600000000,3478528467,0,38644181,0.001175,0.00914,0.01161,0.001534,0.003311,0.00914,2.861e-06,1.907e-05,0.002209,7.153e-05,17.75,0.07495,0,1,0
195600000000,195900000000,3478528467,0,38644181,0.001312,0.009125,0.01161,0.001535,0.003311,0.009125,1.907e-06,1.907e-05,0.002838,0.0001431,19.2,0.08245,0,1,0
195900000000,196200000000,3478528467,0,38644181,0.001343,0.009125,0.01161,0.001535,0.003315,0.009125,3.815e-06,1.907e-05,0.002659,0.0006428,20.3,0.08798,0,1,0
201300000000,201600000000,3478528467,0,38644181,0.001163,0.009125,0.01161,0.001537,0.003315,0.009125,2.861e-06,1.907e-05,0.002476,7.153e-05,17.95,0.07749,0,1,0
201600000000,201900000000,3478528467,0,38644181,0.001196,0.009125,0.01161,0.001537,0.003315,0.009125,2.861e-06,1.907e-05,0.002975,0.0001431,18.24,0.07939,0,1,0
201900000000,202200000000,3478528467,0,38644181,0.001053,0.009125,0.01161,0.001537,0.003315,0.009125,1.907e-06,1.907e-05,0.002247,0.0001431,16.13,0.06939,0,1,0
202200000000,202500000000,3478528467,0,38644181,0.001148,0.009125,0.01161,0.001537,0.003315,0.009125,1.144e-05,1.907e-05,0.002937,0.001429,16.72,0.07492,0,1,0
202500000000,202800000000,3478528467,0,38644181,0.001291,0.009125,0.01161,0.001455,0.003231,0.009125,2.861e-06,1.907e-05,0.003361,0.0001431,19.29,0.08664,0,1,0
202800000000,203100000000,3478528467,0,38644181,0.001081,0.009125,0.01161,0.001448,0.003227,0.009125,2.861e-06,1.907e-05,0.002262,0.0001431,17.06,0.07431,0,1,0
203100000000,203400000000,3478528467,0,38644181,0.0008802,0.009125,0.01161,0.001448,0.003227,0.009125,1.907e-06,1.907e-05,0.002403,7.153e-05,12.6,0.05127,0,1,0
203400000000,203700000000,3478528467,0,38644181,0.001087,0.009171,0.01161,0.001474,0.003269,0.00946,0.0002375,1.907e-05,0.01207,0.03827,10.7,0.04126,0,1,0
203700000000,204000000000,3478528467,0,38644181,0.0009699,0.009445,0.01161,0.001633,0.003521,0.009445,3.242e-05,1.907e-05,0.003448,0.00293,12.71,0.05122,0,1,0
204000000000,204300000000,3478528467,0,38644181,0.001017,0.009445,0.01161,0.001509,0.003395,0.009445,3.815e-06,1.907e-05,0.003605,0.0002146,14.49,0.06007,0,1,0
204300000000,204600000000,3478528467,0,38644181,0.00148,0.00946,0.01161,0.0016,0.003487,0.009506,0.0001669,1.907e-05,0.06592,0.01944,17.06,0.07261,0,1,0
204600000000,204900000000,3478528467,0,38644181,0.001245,0.00946,0.01161,0.001509,0.003395,0.00946,2.861e-06,1.907e-05,0.002922,0.0001431,18.36,0.0824,0,1,0
204900000000,205200000000,3478528467,0,38644181,0.00115,0.009232,0.01161,0.001522,0.00333,0.00946,1.431e-05,1.907e-05,0.006058,0.002998,16.7,0.0725,0,1,0
205200000000,205500000000,3478528467,0,38644181,0.0014,0.00914,0.01161,0.00145,0.003227,0.00914,2.861e-06,1.907e-05,0.002369,0.0001431,21.15,0.09341,0,1,0
205500000000,205800000000,3478528467,0,38644181,0.001526,0.00914,0.01161,0.001451,0.003227,0.00914,3.815e-06,1.907e-05,0.002975,0.0004997,23.73,0.1032,0,1,0
205800000000,206100000000,3478528467,0,38644181,0.001148,0.00914,0.01161,0.001451,0.003231,0.00914,2.861e-06,1.907e-05,0.004372,0.0001431,15.59,0.06674,0,1,0
206100000000,206400000000,3478528467,0,38644181,0.001123,0.00914,0.01161,0.001451,0.003231,0.00914,2.861e-06,1.907e-05,0.002171,0.0001431,17.33,0.07404,0,1,0
206400000000,206700000000,3478528467,0,38644181,0.001127,0.00914,0.01161,0.001451,0.003231,0.00914,5.722e-06,1.907e-05,0.002594,0.0009995,16.67,0.07209,0,1,0
206700000000,207000000000,3478528467,0,38644181,0.001101,0.00914,0.01161,0.001451,0.003231,0.00914,2.861e-06,1.907e-05,0.002541,0.0001431,17.38,0.07483,0,1,0
207000000000,207300000000,3478528467,0,38644181,0.001102,0.00914,0.01161,0.001453,0.003231,0.00914,2.861e-06,1.907e-05,0.002247,0.0002146,16.78,0.07142,0,1,0
207300000000,207600000000,3478528467,0,38644181,0.001102,0.00914,0.01161,0.001453,0.003231,0.00914,2.861e-06,1.907e-05,0.002155,0.0001431,16.47,0.06952,0,1,0
207600000000,207900000000,3478528467,0,38644181,0.001123,0.00914,0.01161,0.001453,0.003231,0.00914,2.861e-06,1.907e-05,0.002087,0.0001431,16.72,0.07113,0,1,0
207900000000,208200000000,3478528467,0,38644181,0.001133,0.00914,0.01161,0.001453,0.003231,0.00914,1.907e-06,1.907e-05,0.002697,7.153e-05,17.73,0.07618,0,1,0
208200000000,208500000000,3478528467,0,38644181,0.001301,0.00914,0.01161,0.001453,0.003231,0.00914,1.907e-06,1.907e-05,0.00341,0.0001431,19.72,0.08794,0,1,0
208500000000,208800000000,3478528467,0,38644181,0.001333,0.00914,0.01161,0.001453,0.003231,0.00914,2.861e-06,1.907e-05,0.003128,7.153e-05,20.86,0.08929,0,1,0
208800000000,209100000000,3478528467,0,38644181,0.001057,0.00914,0.01161,0.001453,0.003231,0.00914,2.861e-06,1.907e-05,0.005875,0.0001431,16.44,0.06835,0,1,0
209100000000,209400000000,3478528467,0,38644181,0.001001,0.00914,0.01161,0.001453,0.003231,0.00914,2.861e-06,1.907e-05,0.002388,0.0001431,14.64,0.06006,0,1,0
209400000000,209700000000,3478528467,0,38644181,0.001028,0.00914,0.01161,0.001453,0.003231,0.00914,1.907e-06,1.907e-05,0.00251,0.0001431,15.69,0.06621,0,1,0
209700000000,210000000000,3478528467,0,38644181,0.0009623,0.00914,0.01161,0.001455,0.003231,0.00914,3.815e-06,1.907e-05,0.002186,0.0002146,14.89,0.062,0,1,0
210000000000,210300000000,3478528467,0,38644181,0.0009975,0.00914,0.01161,0.001455,0.003235,0.00914,6.676e-06,1.907e-05,0.002262,0.001215,14.15,0.05796,0,1,0
210300000000,210600000000,3478528467,0,38644181,0.001083,0.00914,0.01161,0.001455,0.003235,0.00914,3.815e-06,1.907e-05,0.002651,0.0006428,15.71,0.06369,0,1,0
210600000000,210900000000,3478528467,0,38644181,0.001163,0.00914,0.01161,0.001457,0.003235,0.00914,6.676e-06,1.907e-05,0.002529,0.001072,17.44,0.07281,0,1,0
210900000000,211200000000,3478528467,0,38644181,0.00124,0.00914,0.01161,0.001457,0.003235,0.00914,3.815e-06,1.907e-05,0.00304,0.0006428,19.06,0.08081,0,1,0
211200000000,211500000000,3478528467,0,38644181,0.001295,0.00914,0.01161,0.001457,0.003235,0.00914,2.861e-06,1.907e-05,0.00296,0.0001431,19.79,0.08395,0,1,0
211500000000,211800000000,3478528467,0,38644181,0.001221,0.00914,0.01161,0.001457,0.003235,0.00914,1.907e-06,1.907e-05,0.002483,7.153e-05,17.8,0.07428,0,1,0
211800000000,212100000000,3478528467,0,38644181,0.001247,0.00914,0.01161,0.001457,0.003235,0.00914,4.768e-06,1.907e-05,0.002819,0.0007143,19.33,0.08115,0,1,0
212100000000,212400000000,3478528467,0,38644181,0.001163,0.00914,0.01161,0.001457,0.003235,0.00914,2.861e-06,1.907e-05,0.003292,0.0001431,17.28,0.07012,0,1,0
212400000000,212700000000,3478528467,0,38644181,0.001207,0.00914,0.01161,0.001459,0.003235,0.00914,3.815e-06,1.907e-05,0.002827,0.0002146,17.6,0.07161,0,1,0
212700000000,213000000000,3478528467,0,38644181,0.001242,0.00914,0.01161,0.001459,0.003235,0.00914,2.861e-06,1.907e-05,0.002388,0.0001431,18.36,0.07639,0,1,0
213000000000,213300000000,3478528467,0,38644181,0.001207,0.00914,0.01161,0.001459,0.003239,0.00914,2.861e-06,1.907e-05,0.002979,0.0001431,18.24,0.07744,0,1,0
213300000000,213600000000,3478528467,0,38644181,0.001299,0.00914,0.01161,0.001459,0.003239,0.00914,2.861e-06,1.907e-05,0.003414,7.153e-05,19.51,0.08442,0,1,0
213600000000,213900000000,3478528467,0,38644181,0.001345,0.00914,0.01161,0.001459,0.003239,0.00914,2.861e-06,1.907e-05,0.0033,0.0001431,21.42,0.09131,0,1,0
213900000000,214200000000,3478528467,0,38644181,0.001335,0.00914,0.01161,0.001459,0.003239,0.00914,2.861e-06,1.907e-05,0.003952,7.153e-05,21.38,0.08983,0,1,0
214200000000,214500000000,3478528467,0,38644181,0.001419,0.00914,0.01161,0.001461,0.003239,0.00914,4.292e-05,1.907e-05,0.004234,0.003216,22.82,0.09838,0,1,0
214500000000,214800000000,3478528467,0,38644181,0.001537,0.009399,0.01186,0.001598,0.00346,0.009506,0.0002489,1.907e-05,0.01974,0.03436,18.42,0.0786,0,1,0
214800000000,215100000000,3478528467,0,38644181,0.001389,0.009476,0.01161,0.001568,0.003452,0.009476,3.815e-06,2.003e-05,0.003502,0.0001431,21.13,0.08941,0,1,0
215100000000,215400000000,3478528467,0,38644181,0.001854,0.009476,0.01161,0.001629,0.003513,0.009521,0.0001621,2.003e-05,0.06555,0.01935,21.47,0.09151,0,1,0
215400000000,215700000000,3478528467,0,38644181,0.001347,0.009476,0.01161,0.001625,0.003513,0.009476,5.722e-06,2.003e-05,0.003136,0.001215,20.26,0.08617,0,1,0
215700000000,216000000000,3478528467,0,38644181,0.001312,0.009384,0.01161,0.001617,0.003471,0.009476,1.431e-05,1.907e-05,0.008957,0.00293,19.41,0.08308,0,1,0
216000000000,216300000000,3478528467,0,38644181,0.001228,0.00914,0.01161,0.001532,0.003311,0.00914,2.861e-06,1.907e-05,0.00367,0.0002146,19.4,0.08284,0,1,0
221100000000,221400000000,3478528467,0,38644181,0.001106,0.00914,0.01161,0.001469,0.003246,0.00914,2.861e-06,1.907e-05,0.002453,7.153e-05,17.2,0.07138,0,1,0
221400000000,221700000000,3478528467,0,38644181,0.00116,0.00914,0.01161,0.001467,0.003246,0.00914,2.861e-06,1.907e-05,0.002697,0.0001431,17.87,0.07539,0,1,0
221700000000,222000000000,3478528467,0,38644181,0.001122,0.00914,0.01161,0.001467,0.003246,0.00914,7.629e-06,1.907e-05,0.00246,0.001499,16.83,0.07028,0,1,0
222000000000,222300000000,3478528467,0,38644181,0.001169,0.00914,0.01161,0.001467,0.003246,0.00914,2.861e-06,1.907e-05,0.002544,0.0001431,16.6,0.06853,0,1,0
222300000000,222600000000,3478528467,0,38644181,0.001221,0.00914,0.01161,0.001467,0.003246,0.00914,2.861e-06,1.907e-05,0.002621,7.153e-05,19.06,0.07985,0,1,0
222600000000,222900000000,3478528467,0,38644181,0.00127,0.00914,0.01161,0.001467,0.003246,0.00914,2.861e-06,1.907e-05,0.002056,0.0002146,19.6,0.0824,0,1,0
222900000000,223200000000,3478528467,0,38644181,0.001253,0.00914,0.01161,0.001469,0.003246,0.00914,2.861e-06,1.907e-05,0.002625,0.0001431,19.67,0.08257,0,1,0
223200000000,223500000000,3478528467,0,38644181,0.001133,0.00914,0.01161,0.001469,0.003246,0.00914,2.861e-06,1.907e-05,0.002327,0.0002146,17.42,0.07101,0,1,0
223500000000,223800000000,3478528467,0,38644181,0.00116,0.00914,0.01161,0.001469,0.003246,0.00914,3.815e-06,1.907e-05,0.002411,0.0004997,18.36,0.07335,0,1,0
223800000000,224100000000,3478528467,0,38644181,0.001204,0.00914,0.01161,0.001469,0.003246,0.00914,1.907e-06,1.907e-05,0.002659,0.0002146,18.32,0.07351,0,1,0
224100000000,224400000000,3478528467,0,38644181,0.001183,0.00914,0.01161,0.001469,0.003246,0.00914,2.861e-06,1.907e-05,0.002296,7.153e-05,18.3,0.07558,0,1,0
224400000000,224700000000,3478528467,0,38644181,0.001125,0.00914,0.01161,0.001469,0.003246,0.00914,2.861e-06,1.907e-05,0.002266,0.0002146,16.77,0.06791,0,1,0
224700000000,225000000000,3478528467,0,38644181,0.001307,0.00914,0.01161,0.001469,0.003246,0.00914,2.861e-06,1.907e-05,0.003094,7.153e-05,19.84,0.08073,0,1,0
225000000000,225300000000,3478528467,0,38644181,0.001154,0.00914,0.01161,0.001471,0.00325,0.00914,2.861e-06,1.907e-05,0.006737,0.0001431,15.04,0.06143,0,1,0
225300000000,225600000000,3478528467,0,38644181,0.001165,0.00914,0.01161,0.001471,0.00325,0.00914,2.861e-06,1.907e-05,0.002579,0.0001431,16.79,0.06982,0,1,0
225600000000,225900000000,3478528467,0,38644181,0.001129,0.00914,0.01161,0.001471,0.00325,0.00914,7.629e-06,1.907e-05,0.00259,0.0009289,15.87,0.0654,0,1,0
225900000000,226200000000,3478528467,0,38644181,0.00123,0.00914,0.01161,0.001471,0.00325,0.00914,2.861e-06,1.907e-05,0.002132,0.0003567,19.47,0.07992,0,1,0
226200000000,226500000000,3478528467,0,38644181,0.00123,0.00914,0.01161,0.001472,0.00325,0.00914,6.676e-06,1.907e-05,0.00259,0.001572,17.98,0.07461,0,1,0
226500000000,226800000000,3478528467,0,38644181,0.00115,0.00914,0.01161,0.001472,0.00325,0.00914,7.629e-06,1.907e-05,0.002235,0.001572,17.78,0.07384,0,1,0
226800000000,227100000000,3478528467,0,38644181,0.001024,0.00914,0.01161,0.001472,0.00325,0.00914,5.722e-06,1.907e-05,0.00499,0.0007858,13.66,0.05535,0,1,0
227100000000,227400000000,3478528467,0,38644181,0.001102,0.00914,0.01161,0.001472,0.00325,0.00914,2.861e-06,1.907e-05,0.002632,0.0002146,15.37,0.06235,0,1,0
227400000000,227700000000,3478528467,0,38644181,0.00106,0.00914,0.01161,0.001472,0.00325,0.00914,3.815e-06,1.907e-05,0.002239,0.0005713,15.31,0.06268,0,1,0
227700000000,228000000000,3478528467,0,38644181,0.001139,0.00914,0.01161,0.001474,0.00325,0.00914,9.537e-06,1.907e-05,0.004875,0.001358,15.98,0.07002,0,1,0
228000000000,228300000000,3478528467,0,38644181,0.001068,0.00914,0.01161,0.001474,0.003254,0.00914,2.861e-06,1.907e-05,0.002525,0.0001431,16.02,0.06951,0,1,0
228300000000,228600000000,3478528467,0,38644181,0.001017,0.00914,0.01161,0.001474,0.003254,0.00914,2.861e-06,1.907e-05,0.001961,7.153e-05,15.16,0.06471,0,1,0
228600000000,228900000000,3478528467,0,38644181,0.0009785,0.00914,0.01161,0.001474,0.003254,0.00914,4.768e-06,1.907e-05,0.002712,0.0007858,14.31,0.05969,0,1,0
228900000000,229200000000,3478528467,0,38644181,0.0009575,0.00914,0.01161,0.001474,0.003254,0.00914,2.861e-06,1.907e-05,0.006081,0.0001431,12.37,0.05118,0,1,0
229200000000,229500000000,3478528467,0,38644181,0.001318,0.00914,0.01161,0.001476,0.003254,0.00914,1.907e-06,1.907e-05,0.03174,0.0001431,20,0.08473,0,1,0
229500000000,229800000000,3478528467,0,38644181,0.001238,0.00914,0.01161,0.001476,0.003254,0.00914,3.815e-06,1.907e-05,0.002396,0.0001431,19.77,0.08439,0,1,0
229800000000,230100000000,3478528467,0,38644181,0.001249,0.00914,0.01161,0.001476,0.003254,0.00914,5.722e-06,1.907e-05,0.002544,0.0007858,19.97,0.08644,0,1,0
230100000000,230400000000,3478528467,0,38644181,0.001265,0.00914,0.01161,0.001476,0.003254,0.00914,9.537e-06,1.907e-05,0.002258,0.001572,19.36,0.08432,0,1,0
230400000000,230700000000,3478528467,0,38644181,0.001259,0.00914,0.01161,0.001476,0.003254,0.00914,2.861e-06,1.907e-05,0.002457,0.0001431,18.19,0.07852,0,1,0
230700000000,231000000000,3478528467,0,38644181,0.001307,0.00914,0.01161,0.001476,0.003254,0.00914,1.907e-06,1.907e-05,0.002487,7.153e-05,19.79,0.08696,0,1,0
231000000000,231300000000,3478528467,0,38644181,0.001242,0.00914,0.01161,0.001478,0.003254,0.00914,7.629e-06,1.907e-05,0.002201,0.001215,19.35,0.08381,0,1,0
231300000000,231600000000,3478528467,0,38644181,0.001152,0.00914,0.01161,0.001478,0.003258,0.00914,5.722e-06,1.907e-05,0.002018,0.0005713,18.55,0.07921,0,1,0
231600000000,231900000000,3478528467,0,38644181,0.001165,0.00914,0.01161,0.001478,0.003258,0.00914,3.815e-06,1.907e-05,0.002361,0.0001431,17.53,0.07557,0,1,0
231900000000,232200000000,3478528467,0,38644181,0.001101,0.00914,0.01161,0.001478,0.003258,0.00914,5.722e-06,1.907e-05,0.002682,0.001143,16.81,0.07043,0,1,0
232200000000,232500000000,3478528467,0,38644181,0.001104,0.00914,0.01161,0.001478,0.003258,0.00914,4.768e-06,1.907e-05,0.002483,0.0004282,16.71,0.06911,0,1,0
232500000000,232800000000,3478528467,0,38644181,0.001274,0.00914,0.01161,0.001478,0.003258,0.00914,2.861e-06,1.907e-05,0.003616,7.153e-05,19.61,0.08172,0,1,0
232800000000,233100000000,3478528467,0,38644181,0.001093,0.00914,0.01161,0.00148,0.003258,0.00914,3.815e-06,1.907e-05,0.002346,0.0004282,17.19,0.07212,0,1,0
233100000000,233400000000,3478528467,0,38644181,0.00107,0.00914,0.01161,0.00148,0.003258,0.00914,2.861e-06,1.907e-05,0.001881,7.153e-05,16.44,0.06823,0,1,0
233400000000,233700000000,3478528467,0,38644181,0.001095,0.00914,0.01161,0.00148,0.003258,0.00914,1.907e-06,1.907e-05,0.002197,0.0001431,17.22,0.07174,0,1,0
234000000000,234300000000,3478528467,0,38644181,0.001455,0.009048,0.01274,0.001459,0.002945,0.01157,3.147e-05,2.67e-05,0.0033,0.005142,1.484,0.003703,0,1,0
234300000000,234600000000,3478528467,0,38644181,0.001608,0.008423,0.01161,0.001041,0.00235,0.008438,7.057e-05,2.67e-05,0.003868,0.007286,18.23,0.07461,0,1,0
234600000000,234900000000,3478528467,0,38644181,0.001518,0.008392,0.01161,0.001062,0.002373,0.008408,2.098e-05,2.67e-05,0.007195,0.005569,17.62,0.07192,0,1,0
234900000000,235200000000,3478528467,0,38644181,0.001406,0.008377,0.01161,0.001062,0.002373,0.008377,6.676e-06,2.67e-05,0.003212,0.001072,16.24,0.06697,0,1,0
235200000000,235500000000,3478528467,0,38644181,0.001362,0.008377,0.01161,0.001066,0.002377,0.008377,2.861e-06,2.67e-05,0.002552,0.0001431,15.35,0.06252,0,1,0
235500000000,235800000000,3478528467,0,38644181,0.00136,0.008377,0.01161,0.001085,0.002399,0.008392,8.965e-05,2.67e-05,0.002754,0.01164,14.38,0.05824,0,1,0
235800000000,236100000000,3478528467,0,38644181,0.001072,0.008392,0.01161,0.001101,0.002415,0.008392,2.861e-06,2.67e-05,0.001984,0.0001431,15.6,0.06538,0,1,0
236100000000,236400000000,3478528467,0,38644181,0.00116,0.008392,0.01161,0.001095,0.002411,0.008392,5.722e-06,2.67e-05,0.002327,0.001072,17.9,0.07657,0,1,0
241200000000,241500000000,3478528467,0,38644181,0.001209,0.008652,0.01163,0.001511,0.002899,0.008652,7.629e-06,2.67e-05,0.003048,0.0009289,18.42,0.08033,0,1,0
241500000000,241800000000,3478528467,0,38644181,0.001177,0.008652,0.01163,0.001511,0.002899,0.008652,1.049e-05,2.67e-05,0.002705,0.002857,18.09,0.08072,0,1,0
241800000000,242100000000,3478528467,0,38644181,0.001225,0.008652,0.01163,0.001513,0.002899,0.008652,9.537e-07,2.67e-05,0.002808,0.0001431,18.75,0.08469,0,1,0
242100000000,242400000000,3478528467,0,38644181,0.001198,0.008652,0.01163,0.001513,0.002899,0.008652,4.768e-06,2.67e-05,0.005013,0.0009995,17.94,0.07946,0,1,0
242400000000,242700000000,3478528467,0,38644181,0.001198,0.008652,0.01163,0.001514,0.002899,0.008652,2.861e-06,2.67e-05,0.002495,0.0003567,18.02,0.07979,0,1,0
242700000000,243000000000,3478528467,0,38644181,0.001205,0.008652,0.01163,0.001514,0.002903,0.008652,1.907e-06,2.67e-05,0.002804,0.0001431,17.42,0.0771,0,1,0
243000000000,243300000000,3478528467,0,38644181,0.00124,0.008652,0.01163,0.001514,0.002903,0.008667,1.907e-06,2.67e-05,0.003254,0.0001431,18.44,0.08141,0,1,0
243300000000,243600000000,3478528467,0,38644181,0.001022,0.008667,0.01163,0.001514,0.002903,0.008667,1.24e-05,2.67e-05,0.002296,0.002857,15,0.06354,0,1,0
243600000000,243900000000,3478528467,0,38644181,0.00136,0.008667,0.01163,0.001516,0.002903,0.008667,5.722e-06,2.67e-05,0.002251,0.0007143,20.48,0.09274,0,1,0
243900000000,244200000000,3478528467,0,38644181,0.001358,0.008667,0.01163,0.001516,0.002903,0.008667,1.144e-05,2.67e-05,0.002628,0.002857,19.72,0.0902,0,1,0
244200000000,244500000000,3478528467,0,38644181,0.001326,0.008667,0.01163,0.001507,0.002895,0.008667,5.722e-06,2.67e-05,0.002712,0.001072,19.8,0.0909,0,1,0
244500000000,244800000000,3478528467,0,38644181,0.00128,0.008667,0.01163,0.00135,0.002739,0.008667,1.24e-05,2.67e-05,0.002213,0.002857,19.41,0.08812,0,1,0
244800000000,245100000000,3478528467,0,38644181,0.001226,0.008667,0.01163,0.001352,0.002739,0.008667,3.815e-06,2.67e-05,0.002644,0.0005713,17.49,0.07681,0,1,0
245100000000,245400000000,3478528467,0,38644181,0.001268,0.008667,0.01163,0.001352,0.002739,0.008667,1.907e-06,2.67e-05,0.002144,0.0001431,19.09,0.08609,0,1,0
245400000000,245700000000,3478528467,0,38644181,0.00124,0.008667,0.01163,0.00135,0.002739,0.008667,9.537e-07,2.67e-05,0.002636,0.0001431,16.96,0.07643,0,1,0
245700000000,246000000000,3478528467,0,38644181,0.001186,0.008667,0.01163,0.00135,0.002739,0.008667,5.722e-06,2.67e-05,0.002159,0.0004997,17.03,0.07427,0,1,0
246000000000,246300000000,3478528467,0,38644181,0.001175,0.008667,0.01163,0.00135,0.002739,0.008667,6.676e-06,2.67e-05,0.002682,0.001215,16.51,0.07241,0,1,0
251400000000,251700000000,3478528467,0,38644181,0.001276,0.008698,0.01163,0.001392,0.002785,0.008698,1.907e-06,2.766e-05,0.003384,0.0001431,17.76,0.07879,0,1,0
251700000000,252000000000,3478528467,0,38644181,0.001202,0.008698,0.01163,0.001394,0.002785,0.008698,1.431e-05,2.766e-05,0.002823,0.002716,17.17,0.07446,0,1,0
252000000000,252300000000,3478528467,0,38644181,0.001112,0.008698,0.01163,0.001394,0.002785,0.008698,1.907e-06,2.766e-05,0.002888,0.0001431,16.09,0.06785,0,1,0
252300000000,252600000000,3478528467,0,38644181,0.001156,0.008698,0.01163,0.00139,0.002781,0.008698,9.537e-07,2.766e-05,0.002762,7.153e-05,16.81,0.07255,0,1,0
252600000000,252900000000,3478528467,0,38644181,0.001228,0.008698,0.01163,0.001385,0.002773,0.008698,4.768e-06,2.766e-05,0.004112,0.001143,16.69,0.0717,0,1,0
252900000000,253200000000,3478528467,0,38644181,0.00132,0.008698,0.01163,0.001385,0.002773,0.008698,1.907e-06,2.766e-05,0.003315,0.0003567,17.99,0.07779,0,1,0
253200000000,253500000000,3478528467,0,38644181,0.001286,0.008698,0.01163,0.001385,0.002777,0.008698,4.768e-06,2.766e-05,0.004768,0.0009995,19.46,0.08565,0,1,0
253500000000,253800000000,3478528467,0,38644181,0.001278,0.008698,0.01163,0.001385,0.002777,0.008698,1.24e-05,2.766e-05,0.003231,0.002857,18.38,0.08035,0,1,0
253800000000,254100000000,3478528467,0,38644181,0.001167,0.008698,0.01163,0.001385,0.002777,0.008698,5.722e-06,2.766e-05,0.002697,0.001215,17.54,0.07615,0,1,0
254100000000,254400000000,3478528467,0,38644181,0.001303,0.008698,0.01163,0.001387,0.002777,0.008698,1.24e-05,2.766e-05,0.002869,0.002857,19.76,0.0881,0,1,0
254400000000,254700000000,3478528467,0,38644181,0.001209,0.008698,0.01163,0.001387,0.002777,0.008698,7.629e-06,2.766e-05,0.002617,0.001143,17.88,0.07749,0,1,0
254700000000,255000000000,3478528467,0,38644181,0.001247,0.008698,0.01163,0.001387,0.002777,0.008698,1.907e-06,2.766e-05,0.002441,7.153e-05,18.17,0.07893,0,1,0
255000000000,255300000000,3478528467,0,38644181,0.001245,0.008698,0.01163,0.001387,0.002777,0.008698,1.24e-05,2.766e-05,0.002563,0.00293,17.73,0.07595,0,1,0
255300000000,255600000000,3478528467,0,38644181,0.001245,0.008698,0.01163,0.001389,0.002777,0.008698,4.768e-06,2.766e-05,0.004074,0.0007143,16.76,0.07169,0,1,0
255600000000,255900000000,3478528467,0,38644181,0.00139,0.008698,0.01163,0.001389,0.002781,0.008698,1.907e-06,2.766e-05,0.005333,0.0001431,19.09,0.08357,0,1,0
255900000000,256200000000,3478528467,0,38644181,0.001427,0.008698,0.01163,0.001389,0.002781,0.008698,5.722e-06,2.766e-05,0.002651,0.001143,20.86,0.09285,0,1,0
256200000000,256500000000,3478528467,0,38644181,0.001266,0.008698,0.01163,0.001389,0.002781,0.008698,2.861e-06,2.766e-05,0.002754,0.0001431,17.72,0.07636,0,1,0
256500000000,256800000000,3478528467,0,38644181,0.001257,0.008698,0.01163,0.001389,0.002781,0.008698,3.815e-06,2.766e-05,0.003723,0.0005713,17.09,0.07288,0,1,0
256800000000,257100000000,3478528467,0,38644181,0.001232,0.008698,0.01163,0.00139,0.002781,0.008698,4.768e-06,2.766e-05,0.003418,0.0009289,18.52,0.08025,0,1,0
257100000000,257400000000,3478528467,0,38644181,0.001204,0.008698,0.01163,0.00139,0.002781,0.008698,2.861e-06,2.766e-05,0.009537,7.153e-05,14.53,0.0598,0,1,0
257400000000,257700000000,3478528467,0,38644181,0.001293,0.008698,0.01163,0.00139,0.002781,0.008698,2.861e-06,2.766e-05,0.003334,0.0001431,17.93,0.07743,0,1,0
257700000000,258000000000,3478528467,0,38644181,0.001106,0.008698,0.01163,0.00139,0.002781,0.008698,7.629e-06,2.766e-05,0.004951,0.0006428,15.66,0.06578,0,1,0
258000000000,258300000000,3478528467,0,38644181,0.00116,0.008698,0.01163,0.00139,0.002781,0.008698,5.722e-06,2.766e-05,0.002842,0.001072,16.39,0.06766,0,1,0
258300000000,258600000000,3478528467,0,38644181,0.001137,0.008698,0.01163,0.00139,0.002781,0.008698,5.722e-06,2.766e-05,0.002636,0.001072,16.14,0.0663,0,1,0
258600000000,258900000000,3478528467,0,38644181,0.00131,0.008698,0.01163,0.001392,0.002781,0.008698,6.676e-06,2.766e-05,0.003578,0.0007143,14.06,0.05801,0,1,0
258900000000,259200000000,3478528467,0,38644181,0.001472,0.008728,0.0117,0.001432,0.002834,0.009048,0.0006142,2.766e-05,0.02371,0.02951,11.75,0.04735,0,1,0
259200000000,259500000000,3478528467,0,38644181,0.001183,0.009048,0.01213,0.001587,0.003086,0.009048,6.676e-05,2.766e-05,0.004967,0.005859,14.96,0.06251,0,1,0
259500000000,259800000000,3478528467,0,38644181,0.001093,0.009048,0.01163,0.001451,0.002949,0.009048,3.815e-06,2.766e-05,0.004066,0.0001431,15.52,0.0655,0,1,0
259800000000,260100000000,3478528467,0,38644181,0.001663,0.009064,0.01193,0.00149,0.002987,0.00946,0.0001812,2.766e-05,0.07397,0.02487,13.46,0.05635,0,1,0
260100000000,260400000000,3478528467,0,38644181,0.001049,0.009064,0.01234,0.001673,0.003174,0.009064,3.815e-06,2.766e-05,0.003159,0.0002146,14.03,0.05925,0,1,0
260400000000,260700000000,3478528467,0,38644181,0.0009375,0.008865,0.01163,0.001726,0.003166,0.009064,1.431e-05,2.766e-05,0.003021,0.002998,11.77,0.04755,0,1,0
260700000000,261000000000,3478528467,0,38644181,0.0008507,0.008713,0.01163,0.001776,0.003166,0.008713,2.861e-06,2.67e-05,0.001833,0.0001431,10.87,0.04257,0,1,0
261000000000,261300000000,3478528467,0,38644181,0.001146,0.008713,0.01163,0.001411,0.0028,0.008713,1.335e-05,2.67e-05,0.003166,0.003429,14.63,0.06238,0,1,0
261300000000,261600000000,3478528467,0,38644181,0.0009918,0.008713,0.01163,0.001394,0.002785,0.008713,1.907e-06,2.67e-05,0.002972,7.153e-05,11.68,0.04787,0,1,0
261600000000,261900000000,3478528467,0,38644181,0.0009718,0.008713,0.01163,0.001394,0.002785,0.008713,8.583e-06,2.67e-05,0.002472,0.001858,12.43,0.05022,0,1,0
261900000000,262200000000,3478528467,0,38644181,0.001089,0.008713,0.01163,0.001396,0.002785,0.008713,2.861e-06,2.67e-05,0.002388,0.0001431,14.22,0.05879,0,1,0
262200000000,262500000000,3478528467,0,38644181,0.0009842,0.008713,0.01163,0.001396,0.002785,0.008713,2.861e-06,2.67e-05,0.002197,0.0001431,12.24,0.04962,0,1,0
262500000000,262800000000,3478528467,0,38644181,0.0008993,0.008713,0.01163,0.001396,0.002785,0.008713,5.722e-06,2.67e-05,0.001987,0.0007143,10.9,0.04294,0,1,0
262800000000,263100000000,3478528467,0,38644181,0.001093,0.008713,0.01163,0.001396,0.002789,0.008713,4.768e-06,2.67e-05,0.004074,0.0009289,14.31,0.05833,0,1,0
263100000000,263400000000,3478528467,0,38644181,0.001127,0.008713,0.01163,0.001396,0.002789,0.008713,3.815e-06,2.67e-05,0.002842,0.0003567,12.54,0.04994,0,1,0
263400000000,263700000000,3478528467,0,38644181,0.001131,0.008713,0.01163,0.001398,0.002789,0.008713,1.907e-06,2.67e-05,0.002499,0.0001431,14.39,0.05863,0,1,0
263700000000,264000000000,3478528467,0,38644181,0.001051,0.008713,0.01163,0.001398,0.002789,0.008713,5.722e-06,2.67e-05,0.001921,0.0006428,14.51,0.05908,0,1,0
264000000000,264300000000,3478528467,0,38644181,0.00106,0.008713,0.01163,0.001398,0.002789,0.008713,1.24e-05,2.67e-05,0.00264,0.002998,15.48,0.06485,0,1,0
264300000000,264600000000,3478528467,0,38644181,0.001179,0.008713,0.01163,0.001398,0.002789,0.008713,1.907e-06,2.67e-05,0.002872,0.0001431,15.81,0.0665,0,1,0
264600000000,264900000000,3478528467,0,38644181,0.001291,0.008713,0.01163,0.001398,0.002789,0.008713,2.861e-06,2.67e-05,0.003281,0.0002146,18.09,0.0829,0,1,0
264900000000,265200000000,3478528467,0,38644181,0.001081,0.008713,0.01163,0.001398,0.002789,0.008713,3.815e-06,2.67e-05,0.002827,0.0003567,15.44,0.06609,0,1,0
265200000000,265500000000,3478528467,0,38644181,0.001324,0.008713,0.01163,0.0014,0.002789,0.008713,3.815e-06,2.67e-05,0.003929,0.0006428,17.82,0.08334,0,1,0
265500000000,265800000000,3478528467,0,38644181,0.001297,0.008713,0.01163,0.0014,0.002789,0.008713,3.815e-06,2.67e-05,0.002216,0.0004282,18.11,0.08501,0,1,0
265800000000,266100000000,3478528467,0,38644181,0.001352,0.008713,0.01163,0.0014,0.002789,0.008713,1.907e-06,2.67e-05,0.00272,0.0001431,19.08,0.09042,0,1,0
266100000000,266400000000,3478528467,0,38644181,0.001104,0.008713,0.01163,0.0014,0.002792,0.008713,2.861e-06,2.67e-05,0.002563,0.0001431,16.84,0.07453,0,1,0
266400000000,266700000000,3478528467,0,38644181,0.00116,0.008713,0.01163,0.0014,0.002792,0.008713,2.861e-06,2.67e-05,0.002857,0.0001431,16.85,0.07446,0,1,0
266700000000,267000000000,3478528467,0,38644181,0.001007,0.008713,0.01163,0.0014,0.002792,0.008713,1.907e-06,2.67e-05,0.002377,7.153e-05,13.54,0.05407,0,1,0
267000000000,267300000000,3478528467,0,38644181,0.001011,0.008713,0.01163,0.0014,0.002792,0.008713,2.861e-06,2.67e-05,0.00206,0.0001431,14,0.05601,0,1,0
267300000000,267600000000,3478528467,0,38644181,0.001011,0.008713,0.01163,0.0014,0.002792,0.008713,2.861e-06,2.67e-05,0.002205,7.153e-05,13.41,0.05347,0,1,0
267600000000,267900000000,3478528467,0,38644181,0.001005,0.008713,0.01163,0.001402,0.002792,0.008713,2.861e-06,2.67e-05,0.002045,0.0001431,13.19,0.05239,0,1,0
267900000000,268200000000,3478528467,0,38644181,0.0009804,0.008713,0.01163,0.001402,0.002792,0.008713,2.861e-06,2.766e-05,0.001732,0.0001431,13.85,0.05543,0,1,0
268200000000,268500000000,3478528467,0,38644181,0.0009823,0.008713,0.01163,0.001402,0.002792,0.008713,3.815e-06,2.766e-05,0.001757,0.0006428,13.41,0.05391,0,1,0
268500000000,268800000000,3478528467,0,38644181,0.0009708,0.008713,0.01163,0.001402,0.002792,0.008713,2.861e-06,2.766e-05,0.002201,7.153e-05,13.29,0.05337,0,1,0
268800000000,269100000000,3478528467,0,38644181,0.00112,0.008713,0.01163,0.001402,0.002792,0.008713,3.815e-06,2.766e-05,0.002655,0.0003567,14.73,0.0632,0,1,0
269100000000,269400000000,3478528467,0,38644181,0.001415,0.008835,0.01163,0.001513,0.002949,0.009018,0.001062,2.67e-05,0.01773,0.03296,15.7,0.07266,0,1,0
269400000000,269700000000,3478528467,0,38644181,0.001259,0.008987,0.01163,0.001657,0.003155,0.008987,3.815e-06,2.67e-05,0.002651,0.0001431,18.1,0.08403,0,1,0
269700000000,270000000000,3478528467,0,38644181,0.001356,0.008987,0.01163,0.001465,0.00296,0.009003,0.0001431,2.67e-05,0.04626,0.01064,16.11,0.07107,0,1,0
270000000000,270300000000,3478528467,0,38644181,0.001308,0.009018,0.01163,0.001492,0.002987,0.009064,8.011e-05,2.67e-05,0.02914,0.01357,16.33,0.06987,0,1,0
270300000000,270600000000,3478528467,0,38644181,0.001209,0.009018,0.01163,0.001492,0.002987,0.009018,4.768e-06,2.67e-05,0.003181,0.0006428,16.16,0.071,0,1,0
270600000000,270900000000,3478528467,0,38644181,0.001091,0.008743,0.01163,0.0016,0.002991,0.009018,1.335e-05,2.67e-05,0.002811,0.00293,15.47,0.06556,0,1,0
270900000000,271200000000,3478528467,0,38644181,0.001053,0.008743,0.01163,0.001602,0.002991,0.008743,9.537e-06,2.67e-05,0.002495,0.002144,15.06,0.06256,0,1,0
271200000000,271500000000,3478528467,0,38644181,0.001024,0.008743,0.01163,0.001486,0.002872,0.008743,2.861e-06,2.67e-05,0.002411,0.0001431,14.84,0.06098,0,1,0
281400000000,281700000000,3478528467,0,38644181,0.001234,0.009048,0.01163,0.001789,0.003284,0.009048,1.907e-06,2.67e-05,0.002556,0.0001431,14.73,0.06028,0,1,0
281700000000,282000000000,3478528467,0,38644181,0.001247,0.008957,0.01163,0.001621,0.003086,0.009048,1.335e-05,2.67e-05,0.002853,0.002571,14.95,0.0607,0,1,0
282000000000,282300000000,3478528467,0,38644181,0.001186,0.008743,0.01163,0.00165,0.003036,0.008743,2.861e-06,2.67e-05,0.00222,0.0001431,15.87,0.06517,0,1,0
282300000000,282600000000,3478528467,0,38644181,0.001165,0.008743,0.01163,0.001623,0.00301,0.008743,4.768e-06,2.67e-05,0.004616,0.0007858,13.73,0.05614,0,1,0
282600000000,282900000000,3478528467,0,38644181,0.001152,0.008743,0.01163,0.001484,0.002872,0.008743,2.861e-06,2.67e-05,0.002113,0.0001431,14.6,0.05909,0,1,0
282900000000,283200000000,3478528467,0,38644181,0.001122,0.008743,0.01163,0.001484,0.002872,0.008743,4.768e-06,2.67e-05,0.002312,0.0007143,14.13,0.05681,0,1,0
283200000000,283500000000,3478528467,0,38644181,0.00115,0.008743,0.01163,0.001457,0.002846,0.008743,1.907e-06,2.67e-05,0.002445,0.0001431,14.02,0.05727,0,1,0
283500000000,283800000000,3478528467,0,38644181,0.001179,0.008743,0.01163,0.001415,0.002804,0.008743,4.768e-06,2.67e-05,0.00209,0.0008574,15.79,0.0661,0,1,0
283800000000,284100000000,3478528467,0,38644181,0.001204,0.008743,0.01163,0.001415,0.002804,0.008743,2.861e-06,2.67e-05,0.002468,0.0001431,16.2,0.06744,0,1,0
284100000000,284400000000,3478528467,0,38644181,0.001226,0.008743,0.01163,0.001415,0.002804,0.008743,1.907e-06,2.67e-05,0.00227,7.153e-05,15.71,0.06404,0,1,0
284400000000,284700000000,3478528467,0,38644181,0.001228,0.008743,0.01163,0.001415,0.002804,0.008743,2.861e-06,2.67e-05,0.002178,0.0001431,15.94,0.06482,0,1,0
284700000000,285000000000,3478528467,0,38644181,0.001196,0.008743,0.01163,0.001415,0.002804,0.008743,4.768e-06,2.67e-05,0.001999,0.0005713,15.64,0.06374,0,1,0
285000000000,285300000000,3478528467,0,38644181,0.001242,0.008743,0.01163,0.001417,0.002804,0.008743,2.861e-06,2.67e-05,0.003746,0.0001431,16.27,0.06682,0,1,0
285300000000,285600000000,3478528467,0,38644181,0.001249,0.008743,0.01163,0.001417,0.002804,0.008743,2.861e-06,2.67e-05,0.002125,7.153e-05,16.4,0.06752,0,1,0
285600000000,285900000000,3478528467,0,38644181,0.001261,0.008743,0.01163,0.001417,0.002804,0.008743,2.861e-06,2.67e-05,0.002167,0.0001431,17.9,0.07602,0,1,0
285900000000,286200000000,3478528467,0,38644181,0.00124,0.008743,0.01163,0.001417,0.002804,0.008743,2.861e-06,2.67e-05,0.001999,0.0002146,16.25,0.06647,0,1,0
286200000000,286500000000,3478528467,0,38644181,0.001245,0.008743,0.01163,0.001417,0.002804,0.008743,5.722e-06,2.67e-05,0.002087,0.001072,16.25,0.06636,0,1,0
286500000000,286800000000,3478528467,0,38644181,0.001209,0.008743,0.01163,0.001417,0.002804,0.008743,1.907e-06,2.67e-05,0.002506,7.153e-05,16.19,0.06628,0,1,0
286800000000,287100000000,3478528467,0,38644181,0.001242,0.008743,0.01163,0.001419,0.002808,0.008743,4.768e-06,2.67e-05,0.00227,0.0006428,16.26,0.06641,0,1,0
287100000000,287400000000,3478528467,0,38644181,0.001234,0.008743,0.01163,0.001419,0.002808,0.008743,2.861e-06,2.67e-05,0.002174,7.153e-05,16.19,0.06662,0,1,0
287400000000,287700000000,3478528467,0,38644181,0.001297,0.008743,0.01163,0.001419,0.002808,0.008743,2.861e-06,2.67e-05,0.003677,0.0001431,17.4,0.07141,0,1,0
287700000000,288000000000,3478528467,0,38644181,0.001238,0.008743,0.01163,0.001419,0.002808,0.008743,4.768e-06,2.67e-05,0.002728,0.001072,16.78,0.06836,0,1,0
288000000000,288300000000,3478528467,0,38644181,0.001219,0.008743,0.01163,0.001419,0.002808,0.008743,2.861e-06,2.67e-05,0.002167,0.0001431,16.19,0.06592,0,1,0
288300000000,288600000000,3478528467,0,38644181,0.001184,0.008743,0.01163,0.001419,0.002808,0.008743,3.815e-06,2.67e-05,0.002125,0.0005713,16.16,0.06553,0,1,0
288600000000,288900000000,3478528467,0,38644181,0.001223,0.008743,0.01163,0.001396,0.002785,0.008743,1.717e-05,2.67e-05,0.002308,0.002571,15.75,0.06462,0,1,0
288900000000,289200000000,3478528467,0,38644181,0.001247,0.008743,0.01163,0.001373,0.002762,0.008743,1.335e-05,2.67e-05,0.002598,0.002857,16.08,0.06623,0,1,0
289200000000,289500000000,3478528467,0,38644181,0.00128,0.008743,0.01163,0.001375,0.002762,0.008743,2.861e-06,2.67e-05,0.002697,0.0002146,16.4,0.06905,0,1,0
289500000000,289800000000,3478528467,0,38644181,0.001225,0.008743,0.01163,0.001375,0.002762,0.008743,2.193e-05,2.67e-05,0.002548,0.002857,17.36,0.0721,0,1,0
289800000000,290100000000,3478528467,0,38644181,0.00149,0.008881,0.01163,0.001474,0.002911,0.009064,0.0002499,2.67e-05,0.0184,0.0376,17.96,0.07732,0,1,0
290100000000,290400000000,3478528467,0,38644181,0.001328,0.009033,0.01163,0.001612,0.003105,0.009033,1.049e-05,2.67e-05,0.002556,0.001642,17.61,0.07342,0,1,0
290400000000,290700000000,3478528467,0,38644181,0.001577,0.009033,0.01163,0.001637,0.003132,0.009079,0.0001802,2.67e-05,0.06433,0.02094,17.39,0.07203,0,1,0
290700000000,291000000000,3478528467,0,38644181,0.001282,0.009033,0.01163,0.001514,0.00301,0.009033,1.907e-06,2.67e-05,0.002525,7.153e-05,16.62,0.06943,0,1,0
291000000000,291300000000,3478528467,0,38644181,0.00135,0.009018,0.01163,0.001442,0.002934,0.009048,1.431e-05,2.67e-05,0.003345,0.00293,18.32,0.07743,0,1,0
291300000000,291600000000,3478528467,0,38644181,0.001276,0.008759,0.01163,0.001547,0.002934,0.008759,4.768e-06,2.67e-05,0.002518,0.0005713,18.61,0.07893,0,1,0
291600000000,291900000000,3478528467,0,38644181,0.001242,0.008743,0.01163,0.001547,0.002934,0.008759,6.676e-06,2.67e-05,0.00246,0.001286,17.57,0.07316,0,1,0
291900000000,292200000000,3478528467,0,38644181,0.001282,0.008743,0.01163,0.001535,0.002922,0.008759,1.907e-06,2.67e-05,0.003082,7.153e-05,16.55,0.06785,0,1,0
292200000000,292500000000,3478528467,0,38644181,0.001312,0.008759,0.01163,0.001371,0.002758,0.008759,2.861e-06,2.67e-05,0.002216,0.0001431,17.74,0.07185,0,1,0
292500000000,292800000000,3478528467,0,38644181,0.001287,0.008743,0.01163,0.001371,0.002758,0.008759,1.907e-06,2.67e-05,0.002235,7.153e-05,17.05,0.07075,0,1,0
292800000000,293100000000,3478528467,0,38644181,0.001274,0.008743,0.01163,0.001373,0.002762,0.008743,1.907e-06,2.67e-05,0.002197,0.0001431,16.13,0.06566,0,1,0
293100000000,293400000000,3478528467,0,38644181,0.001266,0.008743,0.01163,0.001369,0.002758,0.008759,2.861e-06,2.67e-05,0.005791,0.0002146,16.27,0.06663,0,1,0
293400000000,293700000000,3478528467,0,38644181,0.001339,0.008743,0.01163,0.001371,0.002758,0.008743,1.907e-06,2.67e-05,0.002396,0.0001431,18.19,0.07471,0,1,0
293700000000,294000000000,3478528467,0,38644181,0.001295,0.008743,0.01163,0.001371,0.002758,0.008759,1.907e-06,2.67e-05,0.0148,7.153e-05,17.29,0.07096,0,1,0
294000000000,294300000000,3478528467,0,38644181,0.001343,0.008759,0.01163,0.001371,0.002758,0.008759,2.861e-06,2.67e-05,0.003254,0.0002146,17.62,0.0726,0,1,0
294300000000,294600000000,3478528467,0,38644181,0.001345,0.008743,0.01163,0.001371,0.002758,0.008759,8.583e-06,2.67e-05,0.01335,0.001858,18.71,0.07776,0,1,0
294600000000,294900000000,3478528467,0,38644181,0.001324,0.008743,0.01163,0.001371,0.002758,0.008759,4.768e-06,2.67e-05,0.002701,0.0007143,17.91,0.07452,0,1,0
294900000000,295200000000,3478528467,0,38644181,0.001307,0.008759,0.01163,0.001371,0.002758,0.008759,1.907e-06,2.67e-05,0.005669,7.153e-05,17.5,0.07343,0,1,0
295200000000,295500000000,3478528467,0,38644181,0.001301,0.008759,0.01163,0.001373,0.002762,0.008759,1.431e-05,2.67e-05,0.002033,0.001215,17.77,0.07331,0,1,0
295500000000,295800000000,3478528467,0,38644181,0.001242,0.008759,0.01163,0.001373,0.002762,0.008759,5.722e-06,2.67e-05,0.003086,0.0005713,17.08,0.07121,0,1,0
295800000000,296100000000,3478528467,0,38644181,0.001255,0.008759,0.01163,0.001373,0.002762,0.008759,2.861e-06,2.67e-05,0.002491,0.0001431,17.38,0.0734,0,1,0
296100000000,296400000000,3478528467,0,38644181,0.001305,0.008759,0.01163,0.001373,0.002762,0.008759,4.768e-06,2.67e-05,0.002388,0.0005713,17.45,0.07449,0,1,0
296400000000,296700000000,3478528467,0,38644181,0.001318,0.008759,0.01163,0.001373,0.002762,0.008759,2.861e-06,2.67e-05,0.002583,0.0001431,17.06,0.07175,0,1,0
296700000000,297000000000,3478528467,0,38644181,0.001272,0.008759,0.01163,0.001373,0.002762,0.008759,2.861e-06,2.67e-05,0.002392,7.153e-05,17.16,0.07102,0,1,0
297000000000,297300000000,3478528467,0,38644181,0.001238,0.008759,0.01163,0.001373,0.002762,0.008759,2.861e-06,2.67e-05,0.002174,0.0001431,16.88,0.06831,0,1,0
297300000000,297600000000,3478528467,0,38644181,0.001253,0.008759,0.01163,0.001375,0.002762,0.008759,2.861e-06,2.67e-05,0.002228,7.153e-05,16.32,0.068,0,1,0
297600000000,297900000000,3478528467,0,38644181,0.001301,0.008759,0.01163,0.001375,0.002762,0.008759,2.861e-06,2.67e-05,0.002182,0.0001431,17.57,0.07321,0,1,0
297900000000,298200000000,3478528467,0,38644181,0.001316,0.008759,0.01163,0.001375,0.002762,0.008759,2.861e-06,2.67e-05,0.002373,0.0002861,16.77,0.06908,0,1,0
298200000000,298500000000,3478528467,0,38644181,0.001352,0.008759,0.01163,0.001375,0.002762,0.008759,2.861e-06,2.67e-05,0.002293,0.0001431,16.37,0.06785,0,1,0
298500000000,298800000000,3478528467,0,38644181,0.001348,0.008759,0.01163,0.001375,0.002762,0.008759,2.861e-06,2.67e-05,0.002571,7.153e-05,17.81,0.07509,0,1,0
298800000000,299100000000,3478528467,0,38644181,0.001297,0.008759,0.01163,0.001375,0.002762,0.008759,4.768e-06,2.67e-05,0.00211,0.0008574,17.79,0.07458,0,1,0
299100000000,299400000000,3478528467,0,38644181,0.001282,0.008759,0.01163,0.001377,0.002766,0.008759,2.861e-06,2.67e-05,0.002197,0.0001431,17.03,0.06937,0,1,0
299400000000,299700000000,3478528467,0,38644181,0.001289,0.008759,0.01163,0.001377,0.002766,0.008759,2.861e-06,2.67e-05,0.002182,0.0004997,17.36,0.07212,0,1,0
299700000000,300000000000,3478528467,0,38644181,0.001333,0.008759,0.01163,0.001377,0.002766,0.008759,1.907e-06,2.67e-05,0.002338,7.153e-05,18.69,0.07905,0,1,0
