5700000000,6000000000,3508950175,0,4080092661,4.864e-05,0.0002966,0.00194,0.0001011,0.0002813,0.0002966,6.676e-06,9.537e-07,0.0003138,0.0006428,4.527,0.01531,0,1,0
6000000000,6300000000,3508950175,0,4080092661,4.959e-05,0.0002966,0.00194,0.0001011,0.0002813,0.0002966,5.722e-06,9.537e-07,0.000412,0.0009289,4.418,0.01465,0,1,0
6300000000,6600000000,3508950175,0,4080092661,4.864e-05,0.0002966,0.00194,0.0001011,0.0002813,0.0002966,1.049e-05,9.537e-07,0.0003128,0.001429,4.577,0.01552,0,1,0
6600000000,6900000000,3508950175,0,4080092661,4.864e-05,0.0002966,0.00194,0.0001011,0.0002813,0.0002966,2.193e-05,9.537e-07,0.0003366,0.002857,4.583,0.01619,0,1,0
6900000000,7200000000,3508950175,0,4080092661,4.959e-05,0.0002966,0.00194,0.0001011,0.0002813,0.0002966,1.049e-05,9.537e-07,0.0003548,0.0008574,4.497,0.01523,0,1,0
7200000000,7500000000,3508950175,0,4080092661,4.768e-05,0.0002966,0.00194,0.000102,0.0002813,0.0002966,1.144e-05,9.537e-07,0.0003014,0.001785,4.494,0.01566,0,1,0
7500000000,7800000000,3508950175,0,4080092661,4.768e-05,0.0002966,0.00194,0.000102,0.0002813,0.0002966,8.583e-06,9.537e-07,0.0003805,0.0009995,4.393,0.01519,0,1,0
7800000000,8100000000,3508950175,0,4080092661,4.864e-05,0.0002966,0.00194,0.000102,0.0002813,0.0002966,5.722e-06,9.537e-07,0.00033,0.0002146,4.574,0.01604,0,1,0
8100000000,8400000000,3508950175,0,4080092661,4.673e-05,0.0002966,0.00194,0.000102,0.0002813,0.0002966,8.583e-06,9.537e-07,0.0003557,0.0007858,4.924,0.01765,0,1,0
8400000000,8700000000,3508950175,0,4080092661,4.959e-05,0.0002966,0.00194,0.000102,0.0002813,0.0002966,1.049e-05,9.537e-07,0.0006456,0.001286,4.671,0.01615,0,1,0
8700000000,9000000000,3508950175,0,4080092661,4.864e-05,0.0002966,0.00194,0.000102,0.0002813,0.0002975,8.583e-06,9.537e-07,0.0003147,0.001143,4.788,0.01659,0,1,0
9000000000,9300000000,3508950175,0,4080092661,4.768e-05,0.0002966,0.00194,0.000102,0.0002813,0.0002975,8.583e-06,9.537e-07,0.0003119,0.001429,5.414,0.01983,0,1,0
9300000000,9600000000,3508950175,0,4080092661,4.864e-05,0.0002966,0.00194,0.000102,0.0002823,0.0002975,1.621e-05,9.537e-07,0.0003567,0.002857,4.764,0.01675,0,1,0
9600000000,9900000000,3508950175,0,4080092661,4.768e-05,0.0002966,0.00194,0.000102,0.0002823,0.0002975,3.815e-06,9.537e-07,0.0003281,0.0002861,4.734,0.0164,0,1,0
9900000000,10200000000,3508950175,0,4080092661,4.864e-05,0.0002966,0.00194,0.000102,0.0002823,0.0002975,1.049e-05,9.537e-07,0.0003567,0.001928,5.393,0.01927,0,1,0
10200000000,10500000000,3508950175,0,4080092661,4.959e-05,0.0002966,0.00194,0.000102,0.0002823,0.0002975,1.144e-05,9.537e-07,0.0002928,0.002213,5.529,0.01942,0,1,0
10500000000,10800000000,3508950175,0,4080092661,4.768e-05,0.0002966,0.00194,0.000102,0.0002823,0.0002975,1.335e-05,9.537e-07,0.0003195,0.001928,4.931,0.01744,0,1,0
10800000000,11100000000,3508950175,0,4080092661,4.768e-05,0.0002966,0.00194,0.000103,0.0002823,0.0002975,1.907e-05,9.537e-07,0.0003071,0.002571,5.56,0.02058,0,1,0
11100000000,11400000000,3508950175,0,4080092661,4.768e-05,0.0002966,0.00194,0.000103,0.0002823,0.0002975,7.629e-06,9.537e-07,0.0003376,0.0008574,5.162,0.01813,0,1,0
11400000000,11700000000,3508950175,0,4080092661,4.768e-05,0.0002975,0.00194,0.000103,0.0002823,0.0002975,1.812e-05,9.537e-07,0.000349,0.002857,4.821,0.01686,0,1,0
11700000000,12000000000,3508950175,0,4080092661,4.864e-05,0.0002966,0.00194,0.000103,0.0002823,0.0002975,2.861e-06,9.537e-07,0.0003195,0.0001431,5.01,0.01742,0,1,0
12000000000,12300000000,3508950175,0,4080092661,4.768e-05,0.0002966,0.00194,0.000103,0.0002823,0.0002966,1.24e-05,9.537e-07,0.0003195,0.001429,5.253,0.01892,0,1,0
12300000000,12600000000,3508950175,0,4080092661,4.768e-05,0.0002966,0.00194,0.000103,0.0002823,0.0002966,6.676e-06,9.537e-07,0.0003471,0.001215,5.098,0.01836,0,1,0
12600000000,12900000000,3508950175,0,4080092661,4.959e-05,0.0002966,0.00194,0.000103,0.0002832,0.0002966,9.537e-06,9.537e-07,0.0005236,0.001143,5.558,0.02098,0,1,0
12900000000,13200000000,3508950175,0,4080092661,4.864e-05,0.0002966,0.00194,0.000103,0.0002832,0.0002966,2.003e-05,9.537e-07,0.0003452,0.002071,4.918,0.01743,0,1,0
13200000000,13500000000,3508950175,0,4080092661,4.864e-05,0.0002966,0.00194,0.000103,0.0002832,0.0002966,4.768e-06,9.537e-07,0.0007229,0.0004282,4.93,0.01758,0,1,0
13500000000,13800000000,3508950175,0,4080092661,4.864e-05,0.0002966,0.00194,0.000103,0.0002832,0.0002966,5.722e-06,9.537e-07,0.0005741,0.0006428,4.464,0.01521,0,1,0
13800000000,14100000000,3508950175,0,4080092661,4.864e-05,0.0002966,0.00194,0.000103,0.0002832,0.0002966,1.144e-05,9.537e-07,0.0006151,0.002144,4.631,0.01574,0,1,0
14100000000,14400000000,3508950175,0,4080092661,4.864e-05,0.0002966,0.00194,0.000104,0.0002832,0.0002966,1.812e-05,9.537e-07,0.0007372,0.002857,4.779,0.0165,0,1,0
14400000000,14700000000,3508950175,0,4080092661,4.768e-05,0.0002966,0.00194,0.000104,0.0002832,0.0002966,8.583e-06,9.537e-07,0.0008202,0.001143,4.736,0.01658,0,1,0
14700000000,15000000000,3508950175,0,4080092661,4.673e-05,0.0002966,0.00194,0.000104,0.0002832,0.0002966,6.676e-06,9.537e-07,0.0007734,0.001215,4.739,0.01622,0,1,0
15000000000,15300000000,3508950175,0,4080092661,4.864e-05,0.0002966,0.00194,0.000104,0.0002832,0.0002966,1.717e-05,9.537e-07,0.0007849,0.002857,5.165,0.01839,0,1,0
15300000000,15600000000,3508950175,0,4080092661,4.768e-05,0.0002966,0.00194,0.000104,0.0002832,0.0002966,1.335e-05,9.537e-07,0.0007076,0.002857,5.271,0.01928,0,1,0
15600000000,15900000000,3508950175,0,4080092661,4.864e-05,0.0002966,0.00194,0.000104,0.0002832,0.0002966,8.583e-06,9.537e-07,0.0006666,0.0007143,5.033,0.01797,0,1,0
15900000000,16200000000,3508950175,0,4080092661,4.768e-05,0.0002966,0.00194,0.000104,0.0002842,0.0002966,2.193e-05,9.537e-07,0.0007811,0.002357,4.787,0.01666,0,1,0
16200000000,16500000000,3508950175,0,4080092661,4.959e-05,0.0002966,0.00194,0.000104,0.0002842,0.0002966,4.768e-06,9.537e-07,0.0006361,0.0005713,5.011,0.01762,0,1,0
16500000000,16800000000,3508950175,0,4080092661,4.864e-05,0.0002966,0.00194,0.000104,0.0002842,0.0002966,1.812e-05,9.537e-07,0.0007524,0.002499,4.708,0.01634,0,1,0
16800000000,17100000000,3508950175,0,4080092661,4.959e-05,0.0002966,0.00194,0.000104,0.0002842,0.0002966,6.676e-06,9.537e-07,0.0006495,0.0007143,4.749,0.01651,0,1,0
17100000000,17400000000,3508950175,0,4080092661,4.959e-05,0.0002966,0.00194,0.000104,0.0002842,0.0002966,1.717e-05,9.537e-07,0.0007095,0.002213,4.642,0.01594,0,1,0
17400000000,17700000000,3508950175,0,4080092661,4.864e-05,0.0002966,0.00194,0.000104,0.0002842,0.0002966,1.144e-05,9.537e-07,0.0007753,0.001858,4.873,0.01754,0,1,0
17700000000,18000000000,3508950175,0,4080092661,4.864e-05,0.0002966,0.00194,0.0001049,0.0002842,0.0002966,6.676e-06,9.537e-07,0.0007343,0.0006428,4.855,0.01711,0,1,0
18000000000,18300000000,3508950175,0,4080092661,4.864e-05,0.0002966,0.00194,0.0001049,0.0002842,0.0002966,1.335e-05,9.537e-07,0.0007553,0.001499,4.667,0.01628,0,1,0
18300000000,18600000000,3508950175,0,4080092661,4.864e-05,0.0002966,0.00194,0.0001049,0.0002842,0.0002966,2.861e-06,9.537e-07,0.0007601,7.153e-05,5.032,0.01765,0,1,0
18600000000,18900000000,3508950175,0,4080092661,4.768e-05,0.0002966,0.00194,0.0001049,0.0002842,0.0002966,7.629e-06,9.537e-07,0.0007,0.0007858,4.601,0.01611,0,1,0
18900000000,19200000000,3508950175,0,4080092661,4.959e-05,0.0002966,0.00194,0.0001049,0.0002842,0.0002966,7.629e-06,9.537e-07,0.0007858,0.0007143,4.863,0.01702,0,1,0
19200000000,19500000000,3508950175,0,4080092661,4.959e-05,0.0002966,0.00194,0.0001049,0.0002842,0.0002975,2.384e-05,9.537e-07,0.0008354,0.002571,4.783,0.01667,0,1,0
19500000000,19800000000,3508950175,0,4080092661,5.054e-05,0.0002966,0.00194,0.0001049,0.0002851,0.0002975,5.722e-06,9.537e-07,0.0007534,0.0005713,4.706,0.0158,0,1,0
19800000000,20100000000,3508950175,0,4080092661,4.959e-05,0.0002966,0.00194,0.0001049,0.0002851,0.0002975,1.144e-05,9.537e-07,0.0003557,0.002357,5.132,0.01837,0,1,0
20100000000,20400000000,3508950175,0,4080092661,4.959e-05,0.0002966,0.00194,0.0001049,0.0002851,0.0002975,2.861e-06,9.537e-07,0.0005398,0.0001431,5.143,0.01828,0,1,0
20400000000,20700000000,3508950175,0,4080092661,5.054e-05,0.0002966,0.00194,0.0001049,0.0002851,0.0002966,2.193e-05,9.537e-07,0.0003366,0.002144,4.818,0.01696,0,1,0
20700000000,21000000000,3508950175,0,4080092661,4.959e-05,0.0002966,0.00194,0.0001049,0.0002851,0.0002966,9.537e-06,9.537e-07,0.0003948,0.0007143,4.507,0.01505,0,1,0
21000000000,21300000000,3508950175,0,4080092661,4.959e-05,0.0002966,0.00194,0.0001059,0.0002851,0.0002966,1.335e-05,9.537e-07,0.0003834,0.001072,5.186,0.0179,0,1,0
21300000000,21600000000,3508950175,0,4080092661,4.959e-05,0.0002966,0.00194,0.0001059,0.0002851,0.0002966,5.722e-06,9.537e-07,0.0003319,0.0002499,4.877,0.01683,0,1,0
21600000000,21900000000,3508950175,0,4080092661,4.959e-05,0.0002966,0.00194,0.0001059,0.0002851,0.0002966,1.812e-05,9.537e-07,0.0003471,0.002144,4.794,0.01599,0,1,0
21900000000,22200000000,3508950175,0,4080092661,5.054e-05,0.0002966,0.00194,0.0001059,0.0002851,0.0002966,4.768e-06,9.537e-07,0.0005493,0.0004997,4.419,0.01446,0,1,0
22200000000,22500000000,3508950175,0,4080092661,4.864e-05,0.0002966,0.00194,0.0001059,0.0002851,0.0002966,1.907e-05,9.537e-07,0.0005255,0.002857,4.611,0.01532,0,1,0
22500000000,22800000000,3508950175,0,4080092661,4.864e-05,0.0002966,0.00194,0.0001059,0.0002851,0.0002966,1.335e-05,9.537e-07,0.0005445,0.002071,4.442,0.01503,0,1,0
22800000000,23100000000,3508950175,0,4080092661,4.959e-05,0.0002966,0.00194,0.0001059,0.0002861,0.0002966,1.24e-05,9.537e-07,0.0005436,0.001072,4.567,0.01518,0,1,0
23100000000,23400000000,3508950175,0,4080092661,4.959e-05,0.0002966,0.00194,0.0001059,0.0002861,0.0002966,8.583e-06,9.537e-07,0.0006018,0.001072,4.239,0.01381,0,1,0
23400000000,23700000000,3508950175,0,4080092661,4.959e-05,0.0002966,0.00194,0.0001059,0.0002861,0.0002966,8.583e-06,9.537e-07,0.0006266,0.001286,4.059,0.01268,0,1,0
23700000000,24000000000,3508950175,0,4080092661,4.864e-05,0.0002966,0.00194,0.0001059,0.0002861,0.0002966,2.861e-06,9.537e-07,0.0007505,7.153e-05,4.013,0.01263,0,1,0
24000000000,24300000000,3508950175,0,4080092661,4.864e-05,0.0002966,0.00194,0.0001059,0.0002861,0.0002966,3.815e-06,9.537e-07,0.0008698,0.0001431,4.154,0.01299,0,1,0
24300000000,24600000000,3508950175,0,4080092661,4.864e-05,0.0002966,0.00194,0.0001068,0.0002861,0.0002966,4.768e-06,9.537e-07,0.0007162,0.0007143,4.258,0.01369,0,1,0
24600000000,24900000000,3508950175,0,4080092661,4.864e-05,0.0002966,0.00194,0.0001068,0.0002861,0.0002966,6.676e-06,9.537e-07,0.0009346,0.0009995,4.104,0.01306,0,1,0
24900000000,25200000000,3508950175,0,4080092661,4.864e-05,0.0002966,0.00194,0.0001068,0.0002861,0.0002966,5.722e-06,9.537e-07,0.0007696,0.0006428,4.301,0.01401,0,1,0
25200000000,25500000000,3508950175,0,4080092661,4.768e-05,0.0002966,0.00194,0.0001068,0.0002861,0.0002966,5.722e-06,9.537e-07,0.0007439,0.0008574,3.902,0.01206,0,1,0
25500000000,25800000000,3508950175,0,4080092661,4.959e-05,0.0002966,0.00194,0.0001068,0.0002861,0.0002966,9.537e-06,9.537e-07,0.0006056,0.001215,4.387,0.01381,0,1,0
25800000000,26100000000,3508950175,0,4080092661,5.15e-05,0.0002966,0.00194,0.0001068,0.0002861,0.0002966,9.537e-06,9.537e-07,0.0006943,0.002071,4.463,0.01439,0,1,0
26100000000,26400000000,3508950175,0,4080092661,4.959e-05,0.0002966,0.00194,0.0001068,0.0002861,0.0002966,1.049e-05,9.537e-07,0.0005598,0.0002298,4.729,0.01588,0,1,0
26400000000,26700000000,3508950175,0,4080092661,5.245e-05,0.0002966,0.00194,0.0001068,0.0002871,0.0002975,5.722e-06,9.537e-07,0.000514,0.0001431,4.863,0.01607,0,1,0
26700000000,27000000000,3508950175,0,4080092661,4.959e-05,0.0002966,0.00194,0.0001068,0.0002871,0.0002975,1.431e-05,9.537e-07,0.0004473,0.0004997,4.604,0.01478,0,1,0
27000000000,27300000000,3508950175,0,4080092661,4.959e-05,0.0002966,0.00194,0.0001068,0.0002871,0.0002975,9.537e-06,9.537e-07,0.0002747,0.0006428,5.751,0.02034,0,1,0
27300000000,27600000000,3508950175,0,4080092661,5.15e-05,0.0002966,0.00194,0.0001068,0.0002871,0.0002975,1.907e-05,9.537e-07,0.0002699,0.002857,5.186,0.01775,0,1,0
27600000000,27900000000,3508950175,0,4080092661,4.959e-05,0.0002966,0.00194,0.0001068,0.0002871,0.0002975,4.768e-06,9.537e-07,0.0002956,0.0004997,4.762,0.0158,0,1,0
27900000000,28200000000,3508950175,0,4080092661,5.15e-05,0.0002966,0.00194,0.0001078,0.0002871,0.0002975,4.768e-06,9.537e-07,0.0002842,0.0003567,4.969,0.01643,0,1,0
28200000000,28500000000,3508950175,0,4080092661,5.341e-05,0.0002975,0.00194,0.0001078,0.0002871,0.0002975,1.24e-05,9.537e-07,0.0002813,0.002857,4.374,0.01379,0,1,0
28500000000,28800000000,3508950175,0,4080092661,5.245e-05,0.0002975,0.00194,0.0001078,0.0002871,0.0002975,6.676e-06,9.537e-07,0.0006218,0.0001287,4.702,0.01523,0,1,0
28800000000,29100000000,3508950175,0,4080092661,5.341e-05,0.0002975,0.00194,0.0001078,0.0002871,0.0002975,1.335e-05,9.537e-07,0.0008211,0.002857,5.468,0.01851,0,1,0
29100000000,29400000000,3508950175,0,4080092661,5.15e-05,0.0002966,0.00194,0.0001078,0.0002871,0.0002975,5.722e-06,9.537e-07,0.0007696,0.0005713,4.113,0.01256,0,1,0
29400000000,29700000000,3508950175,0,4080092661,5.15e-05,0.0002966,0.00194,0.0001078,0.0002871,0.0002966,8.583e-06,9.537e-07,0.0006943,0.001715,5.189,0.01721,0,1,0
29700000000,30000000000,3508950175,0,4080092661,5.436e-05,0.0002966,0.00194,0.0001078,0.000288,0.0002966,1.907e-05,9.537e-07,0.0007763,0.0006428,4.251,0.01313,0,1,0
30000000000,30300000000,3508950175,0,4080092661,5.245e-05,0.0002966,0.00194,0.0001078,0.000288,0.0002966,1.049e-05,9.537e-07,0.0008793,0.0006428,5.599,0.01923,0,1,0
30300000000,30600000000,3508950175,0,4080092661,5.341e-05,0.0002966,0.00194,0.0001078,0.000288,0.0002966,7.629e-06,9.537e-07,0.0007162,0.0009995,5.291,0.01784,0,1,0
30600000000,30900000000,3508950175,0,4080092661,5.531e-05,0.0002966,0.00194,0.0001078,0.000288,0.0002966,5.722e-06,9.537e-07,0.0006666,0.0006428,4.931,0.01598,0,1,0
30900000000,31200000000,3508950175,0,4080092661,5.341e-05,0.0002966,0.00194,0.0001078,0.000288,0.0002966,1.717e-05,9.537e-07,0.0006752,0.001215,5.136,0.01719,0,1,0
31200000000,31500000000,3508950175,0,4080092661,5.15e-05,0.0002966,0.00194,0.0001087,0.000288,0.0002966,3.815e-06,9.537e-07,0.0007591,7.153e-05,4.797,0.0159,0,1,0
31500000000,31800000000,3508950175,0,4080092661,5.054e-05,0.0002966,0.00194,0.0001087,0.000288,0.0002966,2.384e-05,9.537e-07,0.0005064,0.002857,4.733,0.01568,0,1,0
31800000000,32100000000,3508950175,0,4080092661,5.15e-05,0.0002966,0.00194,0.0001087,0.000288,0.0002966,1.049e-05,9.537e-07,0.0003843,0.0002956,4.718,0.01556,0,1,0
32100000000,32400000000,3508950175,0,4080092661,5.245e-05,0.0002966,0.00194,0.0001087,0.000288,0.0002966,8.583e-06,9.537e-07,0.0003357,0.001429,5.056,0.01681,0,1,0
32400000000,32700000000,3508950175,0,4080092661,5.054e-05,0.0002966,0.00194,0.0001087,0.000288,0.0002966,9.537e-06,9.537e-07,0.0002718,0.001143,4.522,0.01507,0,1,0
32700000000,33000000000,3508950175,0,4080092661,4.959e-05,0.0002966,0.00194,0.0001087,0.000288,0.0002975,8.583e-06,9.537e-07,0.0002651,0.002144,4.86,0.01626,0,1,0
33000000000,33300000000,3508950175,0,4080092661,5.341e-05,0.0002966,0.00194,0.0001087,0.000288,0.0002966,0,9.537e-07,0.0005255,0,4.823,0.01598,0,1,0
33300000000,33600000000,3508950175,0,4080092661,4.959e-05,0.0002966,0.00194,0.0001087,0.000289,0.0002966,9.537e-07,9.537e-07,0.0002766,7.153e-05,4.887,0.01637,0,1,0
33600000000,33900000000,3508950175,0,4080092661,4.959e-05,0.0002966,0.00194,0.0001087,0.000289,0.0002966,0,9.537e-07,0.0004158,0,4.683,0.01537,0,1,0
33900000000,34200000000,3508950175,0,4080092661,5.245e-05,0.0002966,0.00194,0.0001087,0.000289,0.0002966,5.722e-06,9.537e-07,0.0002756,0.0005713,4.949,0.01665,0,1,0
34200000000,34500000000,3508950175,0,4080092661,5.245e-05,0.0002966,0.00194,0.0001087,0.000289,0.0002975,5.722e-06,9.537e-07,0.0004368,0.0007858,4.858,0.01582,0,1,0
34500000000,34800000000,3508950175,0,4080092661,5.15e-05,0.0002966,0.00194,0.0001087,0.000289,0.0002975,3.815e-06,9.537e-07,0.000268,0.0002146,4.956,0.01682,0,1,0
34800000000,35100000000,3508950175,0,4080092661,5.341e-05,0.0002966,0.00194,0.0001097,0.000289,0.0002966,2.861e-06,9.537e-07,0.0002966,7.153e-05,4.842,0.01624,0,1,0
35100000000,35400000000,3508950175,0,4080092661,5.054e-05,0.0002966,0.00194,0.0001097,0.000289,0.0002975,5.722e-06,9.537e-07,0.0003138,0.0004282,4.552,0.01491,0,1,0
35400000000,35700000000,3508950175,0,4080092661,5.054e-05,0.0002966,0.00194,0.0001097,0.000289,0.0002975,1.621e-05,9.537e-07,0.0002966,0.002571,4.941,0.01629,0,1,0
35700000000,36000000000,3508950175,0,4080092661,5.15e-05,0.0002966,0.00194,0.0001097,0.000289,0.0002975,1.24e-05,9.537e-07,0.000349,0.002857,4.872,0.01612,0,1,0
36000000000,36300000000,3508950175,0,4080092661,6.104e-05,0.0002966,0.00194,0.0001097,0.000289,0.0002975,1.049e-05,9.537e-07,0.0002871,0.001858,5.304,0.01812,0,1,0
36300000000,36600000000,3508950175,0,4080092661,6.485e-05,0.0002975,0.00194,0.0001097,0.000289,0.0002975,5.722e-06,9.537e-07,0.0003805,0.0004282,6.853,0.02584,0,1,0
36600000000,36900000000,3508950175,0,4080092661,6.58e-05,0.0002975,0.00194,0.0001097,0.000289,0.0002975,5.722e-06,9.537e-07,0.0003834,0.0009995,6.252,0.02303,0,1,0
36900000000,37200000000,3508950175,0,4080092661,6.676e-05,0.0002975,0.00194,0.0001097,0.0002899,0.0002975,1.526e-05,9.537e-07,0.001459,0.002285,6.028,0.02185,0,1,0
37200000000,37500000000,3508950175,0,4080092661,6.771e-05,0.0002975,0.00194,0.0001097,0.0002899,0.0002975,2.003e-05,9.537e-07,0.0005484,0.002213,5.914,0.02184,0,1,0
37500000000,37800000000,3508950175,0,4080092661,6.58e-05,0.0002975,0.00194,0.0001097,0.0002899,0.0002975,4.768e-06,9.537e-07,0.0003023,0.0006428,6.183,0.02333,0,1,0
37800000000,38100000000,3508950175,0,4080092661,6.008e-05,0.0002975,0.00194,0.0001097,0.0002899,0.0002975,5.722e-06,9.537e-07,0.0005503,0.0005713,6.79,0.02625,0,1,0
38100000000,38400000000,3508950175,0,4080092661,5.054e-05,0.0002975,0.00194,0.0001106,0.0002899,0.0002985,2.384e-05,9.537e-07,0.0009937,0.001358,5.411,0.01902,0,1,0
38700000000,39000000000,3508950175,0,336026206,0.0003099,0.0003223,0.001827,0.0001078,0.0002718,0.001398,0.0002546,9.537e-07,0.00333,0.04303,15.08,0.08714,0,1,0
39000000000,39300000000,3508950175,0,336026206,2.384e-05,0.000289,0.001932,9.918e-05,0.0002766,0.000289,3.815e-06,9.537e-07,0.0002403,0.0002146,16,0.09027,0,1,0
39300000000,39600000000,3508950175,0,336026206,6.008e-05,0.0002928,0.001932,9.346e-05,0.0002718,0.0002937,6.676e-06,9.537e-07,0.005585,0.0006428,3.901,0.0145,0,1,0
39600000000,39900000000,3508950175,0,336026206,4.196e-05,0.0002937,0.001932,8.583e-05,0.0002642,0.0002937,3.815e-06,9.537e-07,0.0002842,0.0002146,3.127,0.01038,0,1,0
39900000000,40200000000,3508950175,0,336026206,4.196e-05,0.0002937,0.001932,8.583e-05,0.0002651,0.0002937,7.629e-06,9.537e-07,0.0003023,0.0005713,3.152,0.01043,0,1,0
40200000000,40500000000,3508950175,0,336026206,4.101e-05,0.0002937,0.001932,8.583e-05,0.0002651,0.0002937,9.537e-06,9.537e-07,0.0002842,0.0009995,3.31,0.01113,0,1,0
40500000000,40800000000,3508950175,0,336026206,4.101e-05,0.0002937,0.001932,8.678e-05,0.0002651,0.0002937,8.583e-06,9.537e-07,0.0002842,0.001286,3.565,0.01333,0,1,0
51000000000,51300000000,3508950175,0,336026206,4.482e-05,0.0002947,0.001932,8.965e-05,0.000268,0.0002956,8.583e-06,9.537e-07,0.0005255,0.0005713,3.891,0.01404,0,1,0
51300000000,51600000000,3508950175,0,336026206,4.768e-05,0.0002947,0.001932,8.965e-05,0.000268,0.0002956,5.722e-06,9.537e-07,0.0005608,0.0007143,3.777,0.0129,0,1,0
51600000000,51900000000,3508950175,0,336026206,4.673e-05,0.0002956,0.001932,8.965e-05,0.000268,0.0002956,5.722e-06,9.537e-07,0.0005426,0.0004997,3.647,0.01227,0,1,0
51900000000,52200000000,3508950175,0,336026206,4.578e-05,0.0002956,0.001932,8.965e-05,0.000268,0.0002956,1.335e-05,9.537e-07,0.0006094,0.002357,3.577,0.01216,0,1,0
52200000000,52500000000,3508950175,0,336026206,4.578e-05,0.0002956,0.001932,8.965e-05,0.000268,0.0002956,4.768e-06,9.537e-07,0.0005741,0.0007143,3.861,0.01375,0,1,0
52500000000,52800000000,3508950175,0,336026206,4.673e-05,0.0002956,0.001932,8.965e-05,0.000268,0.0002956,5.722e-06,9.537e-07,0.0007439,0.0007858,3.611,0.01218,0,1,0
52800000000,53100000000,3508950175,0,336026206,4.482e-05,0.0002956,0.001932,8.965e-05,0.000268,0.0002956,1.526e-05,9.537e-07,0.0007219,0.001715,3.505,0.01186,0,1,0
53100000000,53400000000,3508950175,0,336026206,4.673e-05,0.0002956,0.001932,8.965e-05,0.0002689,0.0002956,2.098e-05,9.537e-07,0.0007305,0.001858,3.748,0.013,0,1,0
53400000000,53700000000,3508950175,0,336026206,4.673e-05,0.0002956,0.001932,8.965e-05,0.0002689,0.0002956,2.098e-05,9.537e-07,0.0006924,0.001999,3.504,0.0116,0,1,0
53700000000,54000000000,3508950175,0,336026206,4.578e-05,0.0002956,0.001932,8.965e-05,0.0002689,0.0002956,1.812e-05,9.537e-07,0.0006189,0.002716,3.661,0.0126,0,1,0
54000000000,54300000000,3508950175,0,336026206,4.578e-05,0.0002956,0.001932,9.06e-05,0.0002689,0.0002956,1.526e-05,9.537e-07,0.0007963,0.001572,3.748,0.01281,0,1,0
54300000000,54600000000,3508950175,0,336026206,4.482e-05,0.0002956,0.001932,9.06e-05,0.0002689,0.0002956,1.621e-05,9.537e-07,0.0007849,0.002857,3.582,0.01172,0,1,0
54600000000,54900000000,3508950175,0,336026206,4.482e-05,0.0002956,0.001932,9.06e-05,0.0002689,0.0002956,9.537e-06,9.537e-07,0.0008965,0.0006428,3.627,0.01233,0,1,0
54900000000,55200000000,3508950175,0,336026206,4.482e-05,0.0002956,0.001932,9.06e-05,0.0002689,0.0002956,8.583e-06,9.537e-07,0.0009604,0.001143,3.773,0.01315,0,1,0
55200000000,55500000000,3508950175,0,336026206,4.578e-05,0.0002956,0.001932,9.06e-05,0.0002689,0.0002956,8.583e-06,9.537e-07,0.0008497,0.0007858,3.672,0.01263,0,1,0
55500000000,55800000000,3508950175,0,336026206,4.482e-05,0.0002956,0.001932,9.06e-05,0.0002689,0.0002956,1.144e-05,9.537e-07,0.0008364,0.0008574,3.783,0.01339,0,1,0
55800000000,56100000000,3508950175,0,336026206,4.482e-05,0.0002956,0.001932,9.06e-05,0.0002689,0.0002956,2.861e-06,9.537e-07,0.0008202,7.153e-05,3.663,0.01242,0,1,0
56100000000,56400000000,3508950175,0,336026206,4.387e-05,0.0002956,0.001932,9.06e-05,0.0002689,0.0002956,1.335e-05,9.537e-07,0.000577,0.0009995,3.896,0.01348,0,1,0
56400000000,56700000000,3508950175,0,336026206,4.482e-05,0.0002956,0.001932,9.06e-05,0.0002689,0.0002956,1.431e-05,9.537e-07,0.0007181,0.001358,3.717,0.01283,0,1,0
56700000000,57000000000,3508950175,0,336026206,4.578e-05,0.0002956,0.001932,9.06e-05,0.0002699,0.0002956,5.722e-06,9.537e-07,0.000701,0.0004997,3.627,0.01203,0,1,0
57000000000,57300000000,3508950175,0,336026206,4.482e-05,0.0002956,0.001932,9.06e-05,0.0002699,0.0002956,7.629e-06,9.537e-07,0.0002346,0.0006428,3.603,0.01192,0,1,0
57300000000,57600000000,3508950175,0,336026206,4.578e-05,0.0002956,0.001932,9.155e-05,0.0002699,0.0002956,1.24e-05,9.537e-07,0.0002699,0.001215,3.504,0.01177,0,1,0
57600000000,57900000000,3508950175,0,336026206,4.482e-05,0.0002956,0.001932,9.155e-05,0.0002699,0.0002956,1.24e-05,9.537e-07,0.0002499,0.001143,3.422,0.01114,0,1,0
57900000000,58200000000,3508950175,0,336026206,4.482e-05,0.0002956,0.001932,9.155e-05,0.0002699,0.0002956,1.431e-05,9.537e-07,0.0002375,0.001143,3.686,0.01239,0,1,0
58200000000,58500000000,3508950175,0,336026206,4.578e-05,0.0002956,0.001932,9.155e-05,0.0002699,0.0002956,1.144e-05,9.537e-07,0.0002422,0.0007143,3.705,0.01268,0,1,0
58500000000,58800000000,3508950175,0,336026206,4.673e-05,0.0002956,0.001932,9.155e-05,0.0002699,0.0002956,1.049e-05,9.537e-07,0.0002584,0.001143,3.516,0.01126,0,1,0
58800000000,59100000000,3508950175,0,336026206,4.387e-05,0.0002956,0.001932,9.155e-05,0.0002699,0.0002956,5.722e-06,9.537e-07,0.0002575,0.0004997,3.713,0.01266,0,1,0
59100000000,59400000000,3508950175,0,336026206,4.482e-05,0.0002956,0.001932,9.155e-05,0.0002699,0.0002956,8.583e-06,9.537e-07,0.0002604,0.0009995,3.721,0.01257,0,1,0
59400000000,59700000000,3508950175,0,336026206,4.578e-05,0.0002956,0.001932,9.155e-05,0.0002699,0.0002956,1.812e-05,9.537e-07,0.000246,0.001715,4.194,0.01531,0,1,0
59700000000,60000000000,3508950175,0,336026206,4.768e-05,0.0002956,0.001932,9.155e-05,0.0002699,0.0002956,8.583e-06,9.537e-07,0.0002661,0.0006428,4.052,0.0145,0,1,0
60000000000,60300000000,3508950175,0,336026206,4.673e-05,0.0002956,0.001932,9.155e-05,0.0002708,0.0002956,4.768e-06,9.537e-07,0.0002451,0.0004997,4.086,0.01452,0,1,0
60300000000,60600000000,3508950175,0,336026206,4.768e-05,0.0002956,0.001932,9.155e-05,0.0002708,0.0002956,8.583e-06,9.537e-07,0.000246,0.0007143,4.227,0.01508,0,1,0
60600000000,60900000000,3508950175,0,336026206,4.673e-05,0.0002956,0.001932,9.155e-05,0.0002708,0.0002956,1.24e-05,9.537e-07,0.0002832,0.001072,4.347,0.01611,0,1,0
70800000000,71100000000,3508950175,0,336026206,4.482e-05,0.0002966,0.001932,9.441e-05,0.0002737,0.0002966,8.583e-06,9.537e-07,0.0004873,0.0007143,4.187,0.01558,0,1,0
71100000000,71400000000,3508950175,0,336026206,4.482e-05,0.0002966,0.001932,9.537e-05,0.0002737,0.0002966,6.676e-06,9.537e-07,0.0006409,0.0006428,4.16,0.01523,0,1,0
71400000000,71700000000,3508950175,0,336026206,4.482e-05,0.0002966,0.001932,9.537e-05,0.0002737,0.0002966,1.049e-05,9.537e-07,0.0006723,0.0009995,4.47,0.01709,0,1,0
71700000000,72000000000,3508950175,0,336026206,4.482e-05,0.0002966,0.001932,9.537e-05,0.0002737,0.0002966,1.049e-05,9.537e-07,0.0005589,0.001286,4.209,0.01533,0,1,0
72000000000,72300000000,3508950175,0,336026206,4.482e-05,0.0002966,0.001932,9.537e-05,0.0002737,0.0002966,6.676e-06,9.537e-07,0.0006838,0.001215,4.081,0.01492,0,1,0
72300000000,72600000000,3508950175,0,336026206,4.578e-05,0.0002966,0.001932,9.537e-05,0.0002737,0.0002966,4.768e-06,9.537e-07,0.0005884,0.0004282,4.275,0.01635,0,1,0
72600000000,72900000000,3508950175,0,336026206,4.673e-05,0.0002966,0.001932,9.537e-05,0.0002737,0.0002966,1.049e-05,9.537e-07,0.0006618,0.0007858,4.77,0.01859,0,1,0
72900000000,73200000000,3508950175,0,336026206,4.578e-05,0.0002966,0.001932,9.537e-05,0.0002737,0.0002966,7.629e-06,9.537e-07,0.0007076,0.0008574,4.293,0.01592,0,1,0
73200000000,73500000000,3508950175,0,336026206,4.578e-05,0.0002966,0.001932,9.537e-05,0.0002737,0.0002966,1.24e-05,9.537e-07,0.0007057,0.001143,4.307,0.0158,0,1,0
73500000000,73800000000,3508950175,0,336026206,4.578e-05,0.0002966,0.001932,9.537e-05,0.0002747,0.0002966,3.815e-06,9.537e-07,0.0007286,0.0002146,4.437,0.01647,0,1,0
73800000000,74100000000,3508950175,0,336026206,4.578e-05,0.0002966,0.001932,9.537e-05,0.0002747,0.0002966,7.629e-06,9.537e-07,0.0006161,0.0009995,4.411,0.01674,0,1,0
74100000000,74400000000,3508950175,0,336026206,4.482e-05,0.0002966,0.001932,9.537e-05,0.0002747,0.0002966,1.049e-05,9.537e-07,0.0005941,0.001999,4.264,0.01603,0,1,0
74400000000,74700000000,3508950175,0,336026206,4.482e-05,0.0002966,0.001932,9.632e-05,0.0002747,0.0002966,1.144e-05,9.537e-07,0.0007677,0.0009289,4.514,0.01708,0,1,0
74700000000,75000000000,3508950175,0,336026206,4.482e-05,0.0002966,0.001932,9.632e-05,0.0002747,0.0002966,1.24e-05,9.537e-07,0.0005465,0.0008574,4.067,0.01484,0,1,0
75000000000,75300000000,3508950175,0,336026206,4.673e-05,0.0002966,0.001932,9.632e-05,0.0002747,0.0002966,8.583e-06,9.537e-07,0.0006618,0.001072,4.38,0.01627,0,1,0
75300000000,75600000000,3508950175,0,336026206,4.578e-05,0.0002966,0.001932,9.632e-05,0.0002747,0.0002966,1.144e-05,9.537e-07,0.0003624,0.001286,4.292,0.01626,0,1,0
75600000000,75900000000,3508950175,0,336026206,4.578e-05,0.0002966,0.001932,9.632e-05,0.0002747,0.0002966,7.629e-06,9.537e-07,0.0005541,0.0009995,4.226,0.01597,0,1,0
75900000000,76200000000,3508950175,0,336026206,4.673e-05,0.0002966,0.001932,9.632e-05,0.0002747,0.0002966,1.431e-05,9.537e-07,0.0002308,0.002499,4.297,0.01554,0,1,0
76200000000,76500000000,3508950175,0,336026206,4.864e-05,0.0002966,0.001932,9.632e-05,0.0002747,0.0002966,1.431e-05,9.537e-07,0.0007448,0.0009995,4.405,0.01554,0,1,0
76500000000,76800000000,3508950175,0,336026206,4.864e-05,0.0002966,0.001932,9.632e-05,0.0002747,0.0002966,7.629e-06,9.537e-07,0.0003843,0.0008574,4.285,0.01496,0,1,0
76800000000,77100000000,3508950175,0,336026206,4.673e-05,0.0002966,0.001932,9.632e-05,0.0002747,0.0002966,1.335e-05,9.537e-07,0.0002699,0.001572,4.93,0.0185,0,1,0
77100000000,77400000000,3508950175,0,336026206,4.578e-05,0.0002966,0.001932,9.632e-05,0.0002756,0.0002966,4.768e-06,9.537e-07,0.0002346,0.0004282,4.095,0.01502,0,1,0
77400000000,77700000000,3508950175,0,336026206,4.673e-05,0.0002966,0.001932,9.632e-05,0.0002756,0.0002966,1.717e-05,9.537e-07,0.0002432,0.00293,4.736,0.01754,0,1,0
77700000000,78000000000,3508950175,0,336026206,4.578e-05,0.0002966,0.001932,9.727e-05,0.0002756,0.0002966,1.144e-05,9.537e-07,0.0002365,0.001358,4.006,0.0141,0,1,0
78000000000,78300000000,3508950175,0,336026206,4.482e-05,0.0002966,0.001932,9.727e-05,0.0002756,0.0002966,5.722e-06,9.537e-07,0.0002594,0.0006428,4.241,0.01561,0,1,0
78300000000,78600000000,3508950175,0,336026206,4.482e-05,0.0002966,0.001932,9.727e-05,0.0002756,0.0002966,1.621e-05,9.537e-07,0.0002308,0.0009289,3.997,0.01427,0,1,0
78600000000,78900000000,3508950175,0,336026206,4.387e-05,0.0002966,0.001932,9.727e-05,0.0002756,0.0002966,6.676e-06,9.537e-07,0.0002527,0.001072,4.019,0.01454,0,1,0
78900000000,79200000000,3508950175,0,336026206,4.673e-05,0.0002966,0.001932,9.727e-05,0.0002756,0.0002966,1.812e-05,9.537e-07,0.0002279,0.003357,4,0.01421,0,1,0
79200000000,79500000000,3508950175,0,336026206,4.673e-05,0.0002966,0.001932,9.727e-05,0.0002756,0.0002966,1.144e-05,9.537e-07,0.0002661,0.001572,4.21,0.01491,0,1,0
79500000000,79800000000,3508950175,0,336026206,4.673e-05,0.0002966,0.001932,9.727e-05,0.0002756,0.0002966,9.537e-06,9.537e-07,0.0002556,0.002144,4.342,0.01605,0,1,0
79800000000,80100000000,3508950175,0,336026206,4.578e-05,0.0002966,0.001932,9.727e-05,0.0002756,0.0002966,1.526e-05,9.537e-07,0.0002184,0.001358,4.083,0.01494,0,1,0
80100000000,80400000000,3508950175,0,336026206,4.482e-05,0.0002966,0.001932,9.727e-05,0.0002766,0.0002966,1.621e-05,9.537e-07,0.0002451,0.001286,4.155,0.01552,0,1,0
80400000000,80700000000,3508950175,0,336026206,4.387e-05,0.0002966,0.001932,9.727e-05,0.0002766,0.0002966,1.144e-05,9.537e-07,0.0002222,0.001499,4.053,0.01504,0,1,0
80700000000,81000000000,3508950175,0,336026206,4.387e-05,0.0002966,0.001932,9.727e-05,0.0002766,0.0002966,1.24e-05,9.537e-07,0.0002365,0.0009995,4.029,0.0145,0,1,0
85800000000,86100000000,3508950175,0,336026206,4.387e-05,0.0002966,0.001932,9.918e-05,0.0002775,0.0002966,1.049e-05,9.537e-07,0.0002422,0.0007143,4.332,0.01618,0,1,0
86100000000,86400000000,3508950175,0,336026206,4.578e-05,0.0002966,0.001932,9.918e-05,0.0002775,0.0002966,2.193e-05,9.537e-07,0.0002604,0.001215,4.244,0.01603,0,1,0
86400000000,86700000000,3508950175,0,336026206,4.673e-05,0.0002966,0.001932,9.918e-05,0.0002775,0.0002966,9.537e-06,9.537e-07,0.0002995,0.0009289,3.916,0.01379,0,1,0
86700000000,87000000000,3508950175,0,336026206,4.768e-05,0.0002966,0.001932,9.918e-05,0.0002775,0.0002966,7.629e-06,9.537e-07,0.0002613,0.0007858,3.988,0.01433,0,1,0
87000000000,87300000000,3508950175,0,336026206,4.578e-05,0.0002966,0.001932,9.918e-05,0.0002785,0.0002966,1.049e-05,9.537e-07,0.0005379,0.001499,4.518,0.01729,0,1,0
87300000000,87600000000,3508950175,0,336026206,4.578e-05,0.0002966,0.001932,9.918e-05,0.0002785,0.0002966,1.049e-05,9.537e-07,0.0006237,0.001286,4.065,0.01496,0,1,0
87600000000,87900000000,3508950175,0,336026206,4.578e-05,0.0002966,0.001932,0.0001001,0.0002785,0.0002966,1.621e-05,9.537e-07,0.0005817,0.001358,4.204,0.01517,0,1,0
87900000000,88200000000,3508950175,0,336026206,4.578e-05,0.0002966,0.001932,0.0001001,0.0002785,0.0002966,5.722e-06,9.537e-07,0.001726,0.0004997,4.404,0.01633,0,1,0
88200000000,88500000000,3508950175,0,336026206,4.578e-05,0.0002966,0.001932,0.0001001,0.0002785,0.0002966,1.144e-05,9.537e-07,0.0006504,0.001358,4.234,0.01512,0,1,0
101100000000,101400000000,3508950175,0,1185086434,4.292e-05,0.0002947,0.001936,9.06e-05,0.0002689,0.0002947,2.861e-06,9.537e-07,0.0008278,0.0001431,4.269,0.01708,0,1,0
101400000000,101700000000,3508950175,0,1185086434,4.387e-05,0.0002947,0.001936,9.06e-05,0.0002689,0.0002947,2.861e-06,9.537e-07,0.0006971,0.0001431,4.006,0.01487,0,1,0
101700000000,102000000000,3508950175,0,1185086434,4.578e-05,0.0002947,0.001936,8.678e-05,0.0002661,0.0002947,2.861e-06,9.537e-07,0.0008602,0.0002861,4.283,0.01565,0,1,0
102000000000,102300000000,3508950175,0,1185086434,4.768e-05,0.0002947,0.001936,8.678e-05,0.0002661,0.0002956,1.907e-06,9.537e-07,0.000783,0.0001431,4.433,0.01591,0,1,0
102300000000,102600000000,3508950175,0,1185086434,4.292e-05,0.0002956,0.001936,8.678e-05,0.0002661,0.0002956,2.861e-06,9.537e-07,0.000597,0.0001431,4.055,0.01457,0,1,0
102600000000,102900000000,3508950175,0,1185086434,4.196e-05,0.0002956,0.001936,8.678e-05,0.0002661,0.0002956,1.907e-06,9.537e-07,0.0006809,7.153e-05,3.96,0.01451,0,1,0
102900000000,103200000000,3508950175,0,1185086434,4.292e-05,0.0002956,0.001936,8.774e-05,0.0002661,0.0002956,2.861e-06,9.537e-07,0.0005398,0.0002861,3.946,0.01423,0,1,0
103200000000,103500000000,3508950175,0,1185086434,4.387e-05,0.0002956,0.001936,8.774e-05,0.0002661,0.0002956,1.907e-06,9.537e-07,0.0007086,7.153e-05,3.941,0.01414,0,1,0
103500000000,103800000000,3508950175,0,1185086434,4.387e-05,0.0002956,0.001936,8.774e-05,0.0002661,0.0002956,2.861e-06,9.537e-07,0.0006685,0.0002146,3.949,0.01361,0,1,0
103800000000,104100000000,3508950175,0,1185086434,4.101e-05,0.0002956,0.001936,8.774e-05,0.0002661,0.0002956,2.861e-06,9.537e-07,0.0003796,0.0001431,4.012,0.01461,0,1,0
104100000000,104400000000,3508950175,0,1185086434,4.196e-05,0.0002956,0.001936,8.774e-05,0.0002661,0.0002956,6.676e-06,9.537e-07,0.0004635,0.0006428,3.879,0.01431,0,1,0
104400000000,104700000000,3508950175,0,1185086434,4.101e-05,0.0002956,0.001936,8.774e-05,0.000267,0.0002956,2.861e-06,9.537e-07,0.0005836,0.0004282,4.033,0.01509,0,1,0
104700000000,105000000000,3508950175,0,1185086434,4.387e-05,0.0002956,0.001936,8.774e-05,0.000267,0.0002956,2.861e-06,9.537e-07,0.0002909,0.0002146,4.162,0.0152,0,1,0
105000000000,105300000000,3508950175,0,1185086434,4.482e-05,0.0002956,0.001936,8.774e-05,0.000267,0.0002956,1.907e-06,9.537e-07,0.0002794,7.153e-05,4.004,0.01391,0,1,0
105300000000,105600000000,3508950175,0,1185086434,4.196e-05,0.0002956,0.001936,8.774e-05,0.000267,0.0002956,2.861e-06,9.537e-07,0.0002975,0.0002146,4.243,0.01593,0,1,0
105600000000,105900000000,3508950175,0,1185086434,4.005e-05,0.0002956,0.001936,8.774e-05,0.000267,0.0002956,1.907e-06,9.537e-07,0.000329,7.153e-05,4.281,0.01684,0,1,0
105900000000,106200000000,3508950175,0,1185086434,4.196e-05,0.0002956,0.001936,8.869e-05,0.000267,0.0002956,1.907e-06,9.537e-07,0.0003977,0.0001431,4.138,0.01538,0,1,0
106200000000,106500000000,3508950175,0,1185086434,4.101e-05,0.0002956,0.001936,8.869e-05,0.000267,0.0002956,1.907e-06,9.537e-07,0.0002956,7.153e-05,3.905,0.01468,0,1,0
106500000000,106800000000,3508950175,0,1185086434,4.196e-05,0.0002956,0.001936,8.869e-05,0.000267,0.0002956,2.861e-06,9.537e-07,0.0002966,0.0002146,4.197,0.01531,0,1,0
107700000000,108000000000,3508950175,0,182011890,4.292e-05,0.000268,0.001797,1.812e-05,0.0001812,0.000309,3.815e-05,9.537e-07,0.003429,0.003143,16.79,0.0908,0,1,0
108600000000,108900000000,3508950175,0,682315,2.575e-05,0.000289,0.001932,2.67e-05,0.0002041,0.0002899,2.384e-05,9.537e-07,0.00037,0.006218,17.72,0.08902,0,1,0
108900000000,109200000000,3508950175,0,682315,6.866e-05,0.0002928,0.001932,2.861e-05,0.0002069,0.0002937,2.098e-05,9.537e-07,0.008301,0.003502,4.723,0.01671,0,1,0
109200000000,109500000000,3508950175,0,682315,4.768e-05,0.0002937,0.001932,3.052e-05,0.0002089,0.0002937,8.583e-06,9.537e-07,0.0003452,0.001429,3.602,0.01078,0,1,0
109500000000,109800000000,3508950175,0,682315,4.578e-05,0.0002937,0.001934,3.052e-05,0.0002089,0.0002937,4.768e-06,9.537e-07,0.000514,0.0002146,3.706,0.01169,0,1,0
109800000000,110100000000,3508950175,0,682315,4.482e-05,0.0002937,0.001934,3.052e-05,0.0002089,0.0002937,5.722e-06,9.537e-07,0.0005331,0.0005713,3.919,0.01254,0,1,0
110100000000,110400000000,3508950175,0,682315,4.768e-05,0.0002937,0.001934,3.052e-05,0.0002089,0.0002947,1.049e-05,9.537e-07,0.0005856,0.001072,3.685,0.01118,0,1,0
110400000000,110700000000,3508950175,0,682315,4.768e-05,0.0002937,0.001934,3.052e-05,0.0002089,0.0002947,2.003e-05,9.537e-07,0.0007792,0.001572,3.803,0.01164,0,1,0
110700000000,111000000000,3508950175,0,682315,4.578e-05,0.0002947,0.001936,3.052e-05,0.0002089,0.0002947,8.583e-06,9.537e-07,0.0007572,0.001358,3.941,0.0127,0,1,0
116100000000,116400000000,3508950175,0,682315,4.482e-05,0.0002947,0.00194,2.48e-05,0.0002031,0.0002956,3.815e-06,9.537e-07,0.0006447,0.0002146,3.966,0.01296,0,1,0
116400000000,116700000000,3508950175,0,682315,4.768e-05,0.0002947,0.00194,2.48e-05,0.0002031,0.0002956,6.676e-06,9.537e-07,0.0006752,0.001072,4.051,0.01296,0,1,0
116700000000,117000000000,3508950175,0,682315,4.387e-05,0.0002956,0.00194,2.48e-05,0.0002031,0.0002956,3.815e-06,9.537e-07,0.0007038,0.0001431,3.661,0.01187,0,1,0
117000000000,117300000000,3508950175,0,682315,4.482e-05,0.0002956,0.00194,2.48e-05,0.0002041,0.0002956,4.768e-06,9.537e-07,0.0005264,0.0006428,4.051,0.01366,0,1,0
117300000000,117600000000,3508950175,0,682315,4.387e-05,0.0002956,0.00194,2.48e-05,0.0002041,0.0002956,3.815e-06,9.537e-07,0.0005951,0.0001431,3.67,0.01193,0,1,0
117600000000,117900000000,3508950175,0,682315,4.578e-05,0.0002956,0.00194,2.48e-05,0.0002041,0.0002956,4.768e-06,9.537e-07,0.000721,0.0002861,3.953,0.01254,0,1,0
117900000000,118200000000,3508950175,0,682315,4.768e-05,0.0002956,0.00194,2.48e-05,0.0002041,0.0002956,2.861e-06,9.537e-07,0.0007534,0.0001431,4.037,0.01279,0,1,0
118200000000,118500000000,3508950175,0,682315,4.673e-05,0.0002956,0.00194,2.575e-05,0.0002041,0.0002956,2.861e-06,9.537e-07,0.0007124,0.0001431,3.795,0.01151,0,1,0
118500000000,118800000000,3508950175,0,682315,4.768e-05,0.0002956,0.00194,2.575e-05,0.0002041,0.0002956,3.815e-06,9.537e-07,0.0008001,0.0002146,3.964,0.0122,0,1,0
118800000000,119100000000,3508950175,0,682315,4.864e-05,0.0002956,0.00194,2.575e-05,0.0002041,0.0002956,5.722e-06,9.537e-07,0.0007343,0.0007858,4.128,0.01317,0,1,0
119100000000,119400000000,3508950175,0,682315,4.864e-05,0.0002956,0.00194,2.575e-05,0.0002041,0.0002956,3.815e-06,9.537e-07,0.0004921,0.0001431,3.97,0.01242,0,1,0
119400000000,119700000000,3508950175,0,682315,4.768e-05,0.0002956,0.00194,2.575e-05,0.0002041,0.0002956,2.861e-06,9.537e-07,0.0006533,0.0001431,4.271,0.01389,0,1,0
119700000000,120000000000,3508950175,0,682315,4.768e-05,0.0002956,0.00194,2.575e-05,0.0002041,0.0002956,9.537e-06,9.537e-07,0.0006676,0.001928,3.818,0.01185,0,1,0
120000000000,120300000000,3508950175,0,682315,4.959e-05,0.0002956,0.00194,2.575e-05,0.0002041,0.0002956,2.861e-06,9.537e-07,0.0006285,0.0001431,3.938,0.01267,0,1,0
120300000000,120600000000,3508950175,0,682315,4.864e-05,0.0002956,0.00194,2.575e-05,0.000205,0.0002956,2.861e-06,9.537e-07,0.0002861,0.0001431,4.538,0.0152,0,1,0
120600000000,120900000000,3508950175,0,682315,4.768e-05,0.0002956,0.00194,2.575e-05,0.000205,0.0002956,3.815e-06,9.537e-07,0.0002584,0.0001431,4.418,0.01474,0,1,0
126000000000,126300000000,3508950175,0,682315,4.864e-05,0.0002966,0.00194,2.766e-05,0.000206,0.0002966,2.861e-06,9.537e-07,0.0003252,0.0001431,4.585,0.01519,0,1,0
126300000000,126600000000,3508950175,0,682315,4.768e-05,0.0002966,0.00194,2.766e-05,0.000206,0.0002966,3.815e-06,9.537e-07,0.0003023,0.0003567,4.487,0.0152,0,1,0
126600000000,126900000000,3508950175,0,682315,4.673e-05,0.0002966,0.00194,2.766e-05,0.000206,0.0002966,3.815e-06,9.537e-07,0.0003004,0.0001431,4.505,0.01524,0,1,0
128100000000,128400000000,3508950175,0,200469410,3.242e-05,0.0003195,0.00194,9.346e-05,0.0002699,0.0004148,7.629e-06,9.537e-07,0.0008144,0.001143,10.14,0.04506,0,1,0
128400000000,128700000000,3508950175,0,200469410,5.245e-05,0.0002899,0.00194,8.678e-05,0.0002642,0.0002928,1.049e-05,9.537e-07,0.005386,0.0007143,13.37,0.05485,0,1,0
128700000000,129000000000,3508950175,0,200469410,4.387e-05,0.0002937,0.00194,8.583e-05,0.0002642,0.0002937,4.768e-06,9.537e-07,0.0002575,0.0002146,4.176,0.01434,0,1,0
129000000000,129300000000,3508950175,0,200469410,4.578e-05,0.0002937,0.00194,8.583e-05,0.0002642,0.0002937,3.815e-06,9.537e-07,0.0002594,0.0001431,3.992,0.01328,0,1,0
129300000000,129600000000,3508950175,0,200469410,4.768e-05,0.0002937,0.00194,8.583e-05,0.0002642,0.0002937,5.722e-06,9.537e-07,0.0003252,0.0006428,4.039,0.01276,0,1,0
129600000000,129900000000,3508950175,0,200469410,4.768e-05,0.0002937,0.00194,8.583e-05,0.0002642,0.0002937,9.537e-06,9.537e-07,0.0002842,0.001358,4.737,0.01629,0,1,0
129900000000,130200000000,3508950175,0,200469410,4.673e-05,0.0002937,0.00194,8.583e-05,0.0002642,0.0002937,6.676e-06,9.537e-07,0.0002737,0.0006428,3.989,0.01276,0,1,0
130200000000,130500000000,3508950175,0,200469410,4.578e-05,0.0002937,0.00194,8.583e-05,0.0002642,0.0002937,3.815e-06,9.537e-07,0.0002832,0.0001431,3.859,0.01245,0,1,0
130500000000,130800000000,3508950175,0,200469410,4.673e-05,0.0002937,0.00194,8.583e-05,0.0002642,0.0002937,3.815e-06,9.537e-07,0.0002451,0.0002146,4.071,0.01348,0,1,0
130800000000,131100000000,3508950175,0,200469410,5.15e-05,0.0002937,0.00194,8.583e-05,0.0002642,0.0002947,3.815e-06,9.537e-07,0.0002623,0.0002146,4.442,0.01387,0,1,0
141000000000,141300000000,3508950175,0,317486724,5.341e-05,0.0002947,0.00194,8.869e-05,0.000267,0.0002947,1.24e-05,9.537e-07,0.0004768,0.0007143,6.094,0.02033,0,1,0
141300000000,141600000000,3508950175,0,317486724,5.436e-05,0.0002947,0.00194,8.869e-05,0.000267,0.0002947,1.621e-05,9.537e-07,0.0005178,0.002144,5.967,0.02007,0,1,0
141600000000,141900000000,3508950175,0,317486724,5.341e-05,0.0002947,0.00194,8.869e-05,0.000267,0.0002947,2.193e-05,9.537e-07,0.00035,0.001715,7.401,0.02622,0,1,0
141900000000,142200000000,3508950175,0,317486724,5.531e-05,0.0002947,0.00194,8.869e-05,0.000267,0.0002947,7.629e-06,9.537e-07,0.0005836,0.0005713,6.761,0.02244,0,1,0
142200000000,142500000000,3508950175,0,317486724,5.436e-05,0.0002947,0.00194,8.869e-05,0.000267,0.0002947,2.003e-05,9.537e-07,0.0004644,0.00243,5.649,0.01853,0,1,0
142500000000,142800000000,3508950175,0,317486724,5.531e-05,0.0002947,0.00194,8.869e-05,0.000268,0.0002947,1.144e-05,9.537e-07,0.0006247,0.0009995,6.493,0.02202,0,1,0
142800000000,143100000000,3508950175,0,317486724,5.054e-05,0.0002947,0.00194,8.965e-05,0.000268,0.0002947,6.676e-06,9.537e-07,0.0006151,0.0004997,5.166,0.01712,0,1,0
143100000000,143400000000,3508950175,0,317486724,5.15e-05,0.0002947,0.00194,8.965e-05,0.000268,0.0002947,8.583e-06,9.537e-07,0.0008278,0.001215,5.453,0.01934,0,1,0
143400000000,143700000000,3508950175,0,317486724,5.054e-05,0.0002947,0.00194,8.965e-05,0.000268,0.0002947,1.335e-05,9.537e-07,0.0006447,0.0009995,5.9,0.0217,0,1,0
143700000000,144000000000,3508950175,0,317486724,4.959e-05,0.0002947,0.00194,8.965e-05,0.000268,0.0002956,7.629e-06,9.537e-07,0.0006733,0.001143,5.33,0.01827,0,1,0
144000000000,144300000000,3508950175,0,317486724,5.15e-05,0.0002947,0.00194,8.965e-05,0.000268,0.0002956,1.24e-05,9.537e-07,0.0006466,0.001215,6.544,0.02417,0,1,0
144300000000,144600000000,3508950175,0,317486724,5.341e-05,0.0002956,0.00194,8.965e-05,0.000268,0.0002956,1.431e-05,9.537e-07,0.0007563,0.002357,5.439,0.01886,0,1,0
144600000000,144900000000,3508950175,0,317486724,5.15e-05,0.0002956,0.00194,8.965e-05,0.000268,0.0002956,6.676e-06,9.537e-07,0.0006075,0.0006428,5.678,0.0202,0,1,0
144900000000,145200000000,3508950175,0,317486724,4.864e-05,0.0002956,0.00194,8.965e-05,0.000268,0.0002956,1.24e-05,9.537e-07,0.0008039,0.001358,5.12,0.01797,0,1,0
145200000000,145500000000,3508950175,0,317486724,5.054e-05,0.0002956,0.00194,8.965e-05,0.000268,0.0002956,1.907e-05,9.537e-07,0.0007868,0.001715,4.991,0.01693,0,1,0
145500000000,145800000000,3508950175,0,317486724,4.959e-05,0.0002956,0.00194,8.965e-05,0.000268,0.0002956,9.537e-06,9.537e-07,0.0006065,0.001143,5.531,0.01985,0,1,0
145800000000,146100000000,3508950175,0,317486724,4.864e-05,0.0002956,0.00194,8.965e-05,0.0002689,0.0002956,1.335e-05,9.537e-07,0.0008001,0.001286,5.519,0.01967,0,1,0
151200000000,151500000000,3508950175,0,317486724,5.15e-05,0.0002956,0.00194,9.155e-05,0.0002699,0.0002966,6.676e-06,9.537e-07,0.0004244,0.0005713,5.296,0.01832,0,1,0
151500000000,151800000000,3508950175,0,317486724,4.768e-05,0.0002956,0.00194,9.155e-05,0.0002699,0.0002966,1.24e-05,9.537e-07,0.0005045,0.001499,4.827,0.01598,0,1,0
151800000000,152100000000,3508950175,0,317486724,5.531e-05,0.0002966,0.00194,9.155e-05,0.0002699,0.0002966,1.144e-05,9.537e-07,0.001436,0.001928,5.773,0.02015,0,1,0
152100000000,152400000000,3508950175,0,317486724,5.15e-05,0.0002966,0.00194,9.155e-05,0.0002699,0.0002966,9.537e-06,9.537e-07,0.0004196,0.001215,5.504,0.01888,0,1,0
152400000000,152700000000,3508950175,0,317486724,5.15e-05,0.0002966,0.00194,9.155e-05,0.0002708,0.0002966,1.812e-05,9.537e-07,0.0003481,0.001999,5.548,0.01883,0,1,0
152700000000,153000000000,3508950175,0,317486724,5.245e-05,0.0002966,0.00194,9.155e-05,0.0002708,0.0002966,3.815e-06,9.537e-07,0.001081,0.0001431,5.162,0.01721,0,1,0
153000000000,153300000000,3508950175,0,317486724,5.341e-05,0.0002966,0.00194,9.155e-05,0.0002708,0.0002966,1.335e-05,9.537e-07,0.0006266,0.001572,5.533,0.01815,0,1,0
153300000000,153600000000,3508950175,0,317486724,5.436e-05,0.0002966,0.00194,9.155e-05,0.0002708,0.0002966,1.144e-05,9.537e-07,0.0002956,0.0009289,5.98,0.02021,0,1,0
153600000000,153900000000,3508950175,0,317486724,5.245e-05,0.0002966,0.00194,9.155e-05,0.0002708,0.0002966,1.335e-05,9.537e-07,0.0003128,0.001358,5.987,0.02137,0,1,0
153900000000,154200000000,3508950175,0,317486724,5.15e-05,0.0002966,0.00194,9.251e-05,0.0002708,0.0002966,9.537e-06,9.537e-07,0.0003138,0.0009995,5.008,0.0166,0,1,0
154200000000,154500000000,3508950175,0,317486724,5.245e-05,0.0002966,0.00194,9.251e-05,0.0002708,0.0002966,1.431e-05,9.537e-07,0.0006084,0.001715,5.377,0.01797,0,1,0
154500000000,154800000000,3508950175,0,317486724,5.054e-05,0.0002966,0.00194,9.251e-05,0.0002708,0.0002966,5.722e-06,9.537e-07,0.0002823,0.0004282,5.434,0.01896,0,1,0
154800000000,155100000000,3508950175,0,317486724,5.054e-05,0.0002966,0.00194,9.251e-05,0.0002708,0.0002966,1.049e-05,9.537e-07,0.0003328,0.001572,5.345,0.01861,0,1,0
155100000000,155400000000,3508950175,0,317486724,5.245e-05,0.0002966,0.00194,9.251e-05,0.0002708,0.0002966,9.537e-06,9.537e-07,0.0003347,0.001642,4.606,0.0147,0,1,0
155400000000,155700000000,3508950175,0,317486724,5.15e-05,0.0002966,0.00194,9.251e-05,0.0002708,0.0002966,6.676e-06,9.537e-07,0.0003061,0.0006428,4.851,0.01559,0,1,0
155700000000,156000000000,3508950175,0,317486724,5.245e-05,0.0002966,0.00194,9.251e-05,0.0002708,0.0002966,1.049e-05,9.537e-07,0.0004101,0.0007143,5.197,0.01726,0,1,0
161100000000,161400000000,3508950175,0,317486724,5.245e-05,0.0002966,0.00194,9.441e-05,0.0002728,0.0002966,1.24e-05,9.537e-07,0.000494,0.001072,4.879,0.0163,0,1,0
161400000000,161700000000,3508950175,0,317486724,5.436e-05,0.0002966,0.00194,9.441e-05,0.0002728,0.0002966,6.676e-06,9.537e-07,0.0006933,0.0005713,5.242,0.01723,0,1,0
161700000000,162000000000,3508950175,0,317486724,5.245e-05,0.0002966,0.00194,9.441e-05,0.0002728,0.0002966,1.049e-05,9.537e-07,0.0006943,0.0006428,4.639,0.01472,0,1,0
162000000000,162300000000,3508950175,0,317486724,5.054e-05,0.0002966,0.00194,9.441e-05,0.0002728,0.0002966,1.049e-05,9.537e-07,0.0007086,0.001143,4.918,0.01615,0,1,0
162300000000,162600000000,3508950175,0,317486724,4.959e-05,0.0002966,0.00194,9.441e-05,0.0002728,0.0002966,1.049e-05,9.537e-07,0.0002804,0.0009289,5.146,0.01714,0,1,0
162600000000,162900000000,3508950175,0,317486724,5.054e-05,0.0002966,0.00194,9.441e-05,0.0002728,0.0002966,1.335e-05,9.537e-07,0.0005636,0.001715,4.776,0.01537,0,1,0
162900000000,163200000000,3508950175,0,317486724,5.15e-05,0.0002966,0.00194,9.441e-05,0.0002737,0.0002966,7.629e-06,9.537e-07,0.0006218,0.0009995,5.074,0.01697,0,1,0
163200000000,163500000000,3508950175,0,317486724,5.341e-05,0.0002966,0.00194,9.441e-05,0.0002737,0.0002966,6.676e-06,9.537e-07,0.0006123,0.0004997,4.954,0.01614,0,1,0
163500000000,163800000000,3508950175,0,317486724,5.245e-05,0.0002966,0.00194,9.441e-05,0.0002737,0.0002966,8.583e-06,9.537e-07,0.0006046,0.0006428,4.785,0.01542,0,1,0
163800000000,164100000000,3508950175,0,317486724,5.245e-05,0.0002966,0.00194,9.441e-05,0.0002737,0.0002966,7.629e-06,9.537e-07,0.0006361,0.0009289,5.239,0.01726,0,1,0
164100000000,164400000000,3508950175,0,317486724,5.245e-05,0.0002966,0.00194,9.537e-05,0.0002737,0.0002966,7.629e-06,9.537e-07,0.0006275,0.0005713,4.518,0.01417,0,1,0
164400000000,164700000000,3508950175,0,317486724,5.245e-05,0.0002966,0.00194,9.537e-05,0.0002737,0.0002966,1.431e-05,9.537e-07,0.0006046,0.001642,4.727,0.01491,0,1,0
164700000000,165000000000,3508950175,0,317486724,5.15e-05,0.0002966,0.00194,9.537e-05,0.0002737,0.0002966,9.537e-06,9.537e-07,0.001133,0.001358,4.104,0.01228,0,1,0
165000000000,165300000000,3508950175,0,317486724,5.054e-05,0.0002966,0.00194,9.537e-05,0.0002737,0.0002966,1.144e-05,9.537e-07,0.0008669,0.001215,4.117,0.01256,0,1,0
165300000000,165600000000,3508950175,0,317486724,5.054e-05,0.0002966,0.00194,9.537e-05,0.0002737,0.0002966,6.676e-06,9.537e-07,0.0007515,0.0004282,3.961,0.01199,0,1,0
165600000000,165900000000,3508950175,0,317486724,5.341e-05,0.0002966,0.00194,9.537e-05,0.0002737,0.0002966,1.335e-05,9.537e-07,0.001076,0.001072,4.218,0.01282,0,1,0
165900000000,166200000000,3508950175,0,317486724,5.054e-05,0.0002966,0.00194,9.537e-05,0.0002737,0.0002966,8.583e-06,9.537e-07,0.0006409,0.0008574,4.942,0.01605,0,1,0
166200000000,166500000000,3508950175,0,317486724,5.054e-05,0.0002966,0.00194,9.537e-05,0.0002747,0.0002966,1.431e-05,9.537e-07,0.0007114,0.001286,4.368,0.01342,0,1,0
166500000000,166800000000,3508950175,0,317486724,5.436e-05,0.0002966,0.00194,9.537e-05,0.0002747,0.0002966,9.537e-06,9.537e-07,0.0005779,0.001072,4.164,0.01246,0,1,0
166800000000,167100000000,3508950175,0,317486724,5.436e-05,0.0002966,0.00194,9.537e-05,0.0002747,0.0002966,5.722e-06,9.537e-07,0.0008364,0.0004282,4.408,0.01321,0,1,0
167100000000,167400000000,3508950175,0,317486724,5.341e-05,0.0002966,0.00194,9.537e-05,0.0002747,0.0002966,1.144e-05,9.537e-07,0.0006876,0.001143,4.407,0.01334,0,1,0
167400000000,167700000000,3508950175,0,317486724,5.436e-05,0.0002966,0.00194,9.537e-05,0.0002747,0.0002966,7.629e-06,9.537e-07,0.0007954,0.0004282,4.255,0.01314,0,1,0
167700000000,168000000000,3508950175,0,317486724,5.054e-05,0.0002966,0.00194,9.632e-05,0.0002747,0.0002966,8.583e-06,9.537e-07,0.0006571,0.0008574,4.417,0.01351,0,1,0
168000000000,168300000000,3508950175,0,317486724,5.15e-05,0.0002966,0.00194,9.632e-05,0.0002747,0.0002966,1.526e-05,9.537e-07,0.0008125,0.001215,4.514,0.01421,0,1,0
168300000000,168600000000,3508950175,0,317486724,5.054e-05,0.0002966,0.00194,9.632e-05,0.0002747,0.0002966,6.676e-06,9.537e-07,0.0007677,0.0007143,4.098,0.01245,0,1,0
168600000000,168900000000,3508950175,0,317486724,5.054e-05,0.0002966,0.00194,9.632e-05,0.0002747,0.0002966,1.24e-05,9.537e-07,0.0008564,0.001358,4.075,0.01232,0,1,0
168900000000,169200000000,3508950175,0,317486724,5.15e-05,0.0002966,0.00194,9.632e-05,0.0002747,0.0002966,1.335e-05,9.537e-07,0.0004883,0.001499,3.941,0.01169,0,1,0
169200000000,169500000000,3508950175,0,317486724,5.054e-05,0.0002966,0.00194,9.632e-05,0.0002747,0.0002966,8.583e-06,9.537e-07,0.0007515,0.0006428,3.992,0.01226,0,1,0
169500000000,169800000000,3508950175,0,317486724,5.245e-05,0.0002966,0.00194,9.632e-05,0.0002756,0.0002966,4.768e-06,9.537e-07,0.0006437,0.0002861,4.356,0.01381,0,1,0
169800000000,170100000000,3508950175,0,317486724,5.245e-05,0.0002966,0.00194,9.632e-05,0.0002756,0.0002966,5.722e-06,9.537e-07,0.0003347,0.0006428,4.256,0.01317,0,1,0
170100000000,170400000000,3508950175,0,317486724,5.341e-05,0.0002966,0.00194,9.632e-05,0.0002756,0.0002966,3.815e-06,9.537e-07,0.0003338,0.0003567,4.798,0.01498,0,1,0
170400000000,170700000000,3508950175,0,317486724,5.15e-05,0.0002966,0.00194,9.632e-05,0.0002756,0.0002966,2.861e-06,9.537e-07,0.0005093,0.0002146,4.27,0.01355,0,1,0
170700000000,171000000000,3508950175,0,317486724,5.15e-05,0.0002966,0.00194,9.632e-05,0.0002756,0.0002966,1.144e-05,9.537e-07,0.000392,0.001215,3.567,0.01119,0,1,0
171000000000,171300000000,3508950175,0,317486724,5.15e-05,0.0002966,0.00194,9.727e-05,0.0002756,0.0002966,8.583e-06,9.537e-07,0.0004044,0.001072,4.189,0.01326,0,1,0
171300000000,171600000000,3508950175,0,317486724,4.959e-05,0.0002966,0.00194,9.727e-05,0.0002756,0.0002966,8.583e-06,9.537e-07,0.0003281,0.0009995,3.966,0.01262,0,1,0
171600000000,171900000000,3508950175,0,317486724,4.864e-05,0.0002966,0.00194,9.727e-05,0.0002756,0.0002966,1.144e-05,9.537e-07,0.0003719,0.001429,4.103,0.01255,0,1,0
171900000000,172200000000,3508950175,0,317486724,5.054e-05,0.0002966,0.00194,9.727e-05,0.0002756,0.0002966,7.629e-06,9.537e-07,0.0004253,0.0009289,4.203,0.01335,0,1,0
172200000000,172500000000,3508950175,0,317486724,5.054e-05,0.0002966,0.00194,9.727e-05,0.0002756,0.0002966,1.144e-05,9.537e-07,0.0003576,0.001072,3.989,0.0122,0,1,0
172500000000,172800000000,3508950175,0,317486724,5.054e-05,0.0002966,0.00194,9.727e-05,0.0002756,0.0002966,7.629e-06,9.537e-07,0.0003424,0.0008574,4.33,0.01348,0,1,0
172800000000,173100000000,3508950175,0,317486724,5.341e-05,0.0002966,0.00194,9.727e-05,0.0002756,0.0002966,9.537e-06,9.537e-07,0.0003834,0.0009995,4.714,0.0148,0,1,0
173100000000,173400000000,3508950175,0,317486724,5.341e-05,0.0002966,0.00194,9.727e-05,0.0002766,0.0002966,6.676e-06,9.537e-07,0.0005255,0.0004282,4.714,0.01463,0,1,0
173400000000,173700000000,3508950175,0,317486724,5.627e-05,0.0002966,0.00194,9.727e-05,0.0002766,0.0002966,7.629e-06,9.537e-07,0.0005569,0.0007143,4.461,0.01351,0,1,0
173700000000,174000000000,3508950175,0,317486724,5.341e-05,0.0002966,0.00194,9.727e-05,0.0002766,0.0002966,1.335e-05,9.537e-07,0.0006065,0.001143,4.429,0.01338,0,1,0
174000000000,174300000000,3508950175,0,317486724,5.341e-05,0.0002966,0.00194,9.727e-05,0.0002766,0.0002966,1.049e-05,9.537e-07,0.0006075,0.001358,4.775,0.01457,0,1,0
174300000000,174600000000,3508950175,0,317486724,5.341e-05,0.0002966,0.00194,9.727e-05,0.0002766,0.0002966,7.629e-06,9.537e-07,0.0006313,0.0006428,4.061,0.01207,0,1,0
174600000000,174900000000,3508950175,0,317486724,5.15e-05,0.0002966,0.00194,9.823e-05,0.0002766,0.0002966,7.629e-06,9.537e-07,0.0007315,0.0009995,4.59,0.01456,0,1,0
174900000000,175200000000,3508950175,0,317486724,5.245e-05,0.0002966,0.00194,9.823e-05,0.0002766,0.0002966,1.24e-05,9.537e-07,0.0006733,0.0009289,4.123,0.01234,0,1,0
175200000000,175500000000,3508950175,0,317486724,5.245e-05,0.0002966,0.00194,9.823e-05,0.0002766,0.0002966,5.722e-06,9.537e-07,0.0005484,0.0005713,4.276,0.01361,0,1,0
175500000000,175800000000,3508950175,0,317486724,5.15e-05,0.0002966,0.00194,9.823e-05,0.0002766,0.0002966,1.24e-05,9.537e-07,0.0005999,0.0009995,5.078,0.01719,0,1,0
175800000000,176100000000,3508950175,0,317486724,4.864e-05,0.0002966,0.00194,9.823e-05,0.0002766,0.0002966,9.537e-06,9.537e-07,0.0003166,0.0004644,7.622,0.02821,0,1,0
221100000000,221400000000,3508950175,0,4469351504,5.054e-05,0.0002947,0.001926,9.441e-05,0.0002737,0.0002947,2.861e-06,9.537e-07,0.0003128,7.153e-05,4.191,0.01261,0,1,0
221400000000,221700000000,3508950175,0,4469351504,5.054e-05,0.0002947,0.001926,9.441e-05,0.0002737,0.0002947,2.861e-06,9.537e-07,0.0004005,0.0001431,4.665,0.01478,0,1,0
221700000000,222000000000,3508950175,0,4469351504,5.15e-05,0.0002947,0.001926,9.441e-05,0.0002737,0.0002947,3.815e-06,9.537e-07,0.000329,7.153e-05,4.385,0.01349,0,1,0
222000000000,222300000000,3508950175,0,4469351504,5.054e-05,0.0002947,0.001926,9.441e-05,0.0002737,0.0002947,2.861e-06,9.537e-07,0.0003395,0.0001431,3.923,0.01191,0,1,0
222300000000,222600000000,3508950175,0,4469351504,5.15e-05,0.0002947,0.001926,9.441e-05,0.0002737,0.0002947,2.861e-06,9.537e-07,0.0003138,0.0001431,4.24,0.01284,0,1,0
222600000000,222900000000,3508950175,0,4469351504,5.054e-05,0.0002947,0.001926,9.441e-05,0.0002737,0.0002947,2.861e-06,9.537e-07,0.0003424,0.0001431,4.322,0.01353,0,1,0
222900000000,223200000000,3508950175,0,4469351504,4.959e-05,0.0002947,0.001926,9.441e-05,0.0002728,0.0002947,2.861e-06,9.537e-07,0.000329,7.153e-05,4.91,0.01611,0,1,0
223200000000,223500000000,3508950175,0,4469351504,5.15e-05,0.0002947,0.001926,9.441e-05,0.0002728,0.0002947,3.815e-06,9.537e-07,0.0003252,0.0002861,4.086,0.01271,0,1,0
223500000000,223800000000,3508950175,0,4469351504,5.15e-05,0.0002947,0.001926,9.441e-05,0.0002737,0.0002947,3.815e-06,9.537e-07,0.0003757,0.0001431,4.165,0.01276,0,1,0
223800000000,224100000000,3508950175,0,4469351504,5.245e-05,0.0002947,0.001926,9.441e-05,0.0002737,0.0002947,3.815e-06,9.537e-07,0.0003424,0.0001431,4.697,0.01536,0,1,0
224100000000,224400000000,3508950175,0,4469351504,5.15e-05,0.0002947,0.001926,9.441e-05,0.0002737,0.0002947,3.815e-06,9.537e-07,0.0006895,7.153e-05,4.073,0.01226,0,1,0
224400000000,224700000000,3508950175,0,4469351504,5.245e-05,0.0002947,0.001926,9.441e-05,0.0002737,0.0002947,3.815e-06,9.537e-07,0.0004015,0.0001431,4.35,0.0137,0,1,0
224700000000,225000000000,3508950175,0,4469351504,5.054e-05,0.0002947,0.001926,9.441e-05,0.0002737,0.0002947,2.861e-06,9.537e-07,0.0003929,7.153e-05,4.29,0.01331,0,1,0
225000000000,225300000000,3508950175,0,4469351504,5.054e-05,0.0002947,0.001926,9.441e-05,0.0002737,0.0002947,2.861e-06,9.537e-07,0.0004473,0.0001431,4.531,0.01442,0,1,0
225300000000,225600000000,3508950175,0,4469351504,5.054e-05,0.0002947,0.001926,9.441e-05,0.0002737,0.0002947,2.861e-06,9.537e-07,0.0003901,7.153e-05,4.347,0.01386,0,1,0
225600000000,225900000000,3508950175,0,4469351504,4.864e-05,0.0002947,0.001926,9.537e-05,0.0002737,0.0002947,3.815e-06,9.537e-07,0.0003338,0.0001431,4.184,0.01336,0,1,0
225900000000,226200000000,3508950175,0,4469351504,4.959e-05,0.0002947,0.001926,9.537e-05,0.0002737,0.0002947,4.768e-06,9.537e-07,0.0005817,0.0004997,4.11,0.01326,0,1,0
226200000000,226500000000,3508950175,0,4469351504,5.054e-05,0.0002947,0.001926,9.537e-05,0.0002737,0.0002947,4.768e-06,9.537e-07,0.0009117,0.0004997,4.039,0.01221,0,1,0
226500000000,226800000000,3508950175,0,4469351504,5.054e-05,0.0002947,0.001926,9.537e-05,0.0002737,0.0002956,2.861e-06,9.537e-07,0.000596,7.153e-05,3.927,0.01224,0,1,0
226800000000,227100000000,3508950175,0,4469351504,5.15e-05,0.0002947,0.001926,9.537e-05,0.0002737,0.0002956,3.815e-06,9.537e-07,0.0008774,0.0002146,4.427,0.01348,0,1,0
227100000000,227400000000,3508950175,0,4469351504,5.15e-05,0.0002947,0.001926,9.537e-05,0.0002747,0.0002956,2.861e-06,9.537e-07,0.0006189,7.153e-05,4.348,0.01313,0,1,0
227400000000,227700000000,3508950175,0,4469351504,5.245e-05,0.0002947,0.001926,9.537e-05,0.0002747,0.0002956,2.861e-06,9.537e-07,0.0007696,0.0001431,4.26,0.0126,0,1,0
227700000000,228000000000,3508950175,0,4469351504,5.15e-05,0.0002956,0.001926,9.537e-05,0.0002747,0.0002956,2.861e-06,9.537e-07,0.001123,0.0001431,4.261,0.01262,0,1,0
228000000000,228300000000,3508950175,0,4469351504,4.959e-05,0.0002956,0.001926,9.537e-05,0.0002747,0.0002956,3.815e-06,9.537e-07,0.0005693,0.0001431,4.129,0.01238,0,1,0
228300000000,228600000000,3508950175,0,4469351504,4.959e-05,0.0002947,0.001926,9.537e-05,0.0002747,0.0002956,2.861e-06,9.537e-07,0.000864,7.153e-05,3.867,0.0115,0,1,0
228600000000,228900000000,3508950175,0,4469351504,4.959e-05,0.0002956,0.001926,9.537e-05,0.0002747,0.0002956,9.537e-06,9.537e-07,0.0005703,0.001999,4.181,0.01312,0,1,0
228900000000,229200000000,3508950175,0,4469351504,4.959e-05,0.0002956,0.001926,9.632e-05,0.0002747,0.0002956,3.815e-06,9.537e-07,0.0006342,7.153e-05,4.409,0.0141,0,1,0
229200000000,229500000000,3508950175,0,4469351504,4.959e-05,0.0002956,0.001926,9.632e-05,0.0002747,0.0002956,2.861e-06,9.537e-07,0.0006256,0.0001431,4.637,0.01448,0,1,0
229500000000,229800000000,3508950175,0,4469351504,5.245e-05,0.0002956,0.001926,9.632e-05,0.0002747,0.0002956,2.861e-06,9.537e-07,0.000618,7.153e-05,4.604,0.01426,0,1,0
229800000000,230100000000,3508950175,0,4469351504,5.245e-05,0.0002956,0.001926,9.632e-05,0.0002747,0.0002956,3.815e-06,9.537e-07,0.0006065,0.0001431,4.383,0.01387,0,1,0
230100000000,230400000000,3508950175,0,4469351504,4.959e-05,0.0002956,0.001926,9.632e-05,0.0002747,0.0002956,2.861e-06,9.537e-07,0.0005779,0.0001431,4.523,0.01468,0,1,0
230400000000,230700000000,3508950175,0,4469351504,4.864e-05,0.0002956,0.001926,9.632e-05,0.0002756,0.0002956,3.815e-06,9.537e-07,0.0006027,0.0002861,4.271,0.01332,0,1,0
230700000000,231000000000,3508950175,0,4469351504,4.864e-05,0.0002956,0.001926,9.632e-05,0.0002756,0.0002956,3.815e-06,9.537e-07,0.0005579,0.0002861,4.539,0.01425,0,1,0
231000000000,231300000000,3508950175,0,4469351504,4.959e-05,0.0002956,0.001926,9.632e-05,0.0002756,0.0002956,2.861e-06,9.537e-07,0.0006094,0.0001431,4.248,0.01369,0,1,0
231300000000,231600000000,3508950175,0,4469351504,4.864e-05,0.0002956,0.001926,9.632e-05,0.0002756,0.0002956,2.861e-06,9.537e-07,0.0005913,7.153e-05,4.665,0.01538,0,1,0
231600000000,231900000000,3508950175,0,4469351504,4.959e-05,0.0002956,0.001926,9.632e-05,0.0002756,0.0002956,3.815e-06,9.537e-07,0.0006828,0.0002861,4.719,0.0156,0,1,0
231900000000,232200000000,3508950175,0,4469351504,4.768e-05,0.0002956,0.001926,9.632e-05,0.0002756,0.0002956,3.815e-06,9.537e-07,0.0007391,7.153e-05,4.659,0.01537,0,1,0
232200000000,232500000000,3508950175,0,4469351504,4.768e-05,0.0002956,0.001926,9.632e-05,0.0002756,0.0002956,3.815e-06,9.537e-07,0.000577,0.0002146,5.148,0.01831,0,1,0
232500000000,232800000000,3508950175,0,4469351504,4.864e-05,0.0002956,0.001926,9.727e-05,0.0002756,0.0002956,2.861e-06,9.537e-07,0.0007048,7.153e-05,4.838,0.01723,0,1,0
232800000000,233100000000,3508950175,0,4469351504,4.768e-05,0.0002956,0.001926,9.727e-05,0.0002756,0.0002956,3.815e-06,9.537e-07,0.0006018,0.0002146,4.718,0.016,0,1,0
233100000000,233400000000,3508950175,0,4469351504,4.864e-05,0.0002956,0.001926,9.727e-05,0.0002756,0.0002956,3.815e-06,9.537e-07,0.0002842,7.153e-05,4.779,0.01641,0,1,0
233400000000,233700000000,3508950175,0,4469351504,4.864e-05,0.0002956,0.001926,9.727e-05,0.0002756,0.0002956,2.861e-06,9.537e-07,0.0003452,0.0001431,4.663,0.0158,0,1,0
233700000000,234000000000,3508950175,0,4469351504,4.864e-05,0.0002956,0.001926,9.727e-05,0.0002756,0.0002956,2.289e-05,9.537e-07,0.0008259,0.002785,4.693,0.01581,0,1,0
234000000000,234300000000,3508950175,0,4469351504,4.959e-05,0.0002956,0.001926,9.727e-05,0.0002766,0.0002956,3.815e-06,9.537e-07,0.0006742,0.0002146,4.791,0.01617,0,1,0
234300000000,234600000000,3508950175,0,4469351504,4.864e-05,0.0002956,0.001926,9.727e-05,0.0002766,0.0002956,4.768e-06,9.537e-07,0.0002489,0.0003567,5.507,0.01931,0,1,0
234600000000,234900000000,3508950175,0,4469351504,4.864e-05,0.0002956,0.001926,9.727e-05,0.0002766,0.0002956,3.815e-06,9.537e-07,0.0002384,0.0002146,4.883,0.01681,0,1,0
234900000000,235200000000,3508950175,0,4469351504,4.864e-05,0.0002956,0.001926,9.727e-05,0.0002766,0.0002956,3.815e-06,9.537e-07,0.0002337,0.0001431,5.305,0.01794,0,1,0
235200000000,235500000000,3508950175,0,4469351504,4.959e-05,0.0002956,0.001926,9.727e-05,0.0002766,0.0002956,2.861e-06,9.537e-07,0.0002918,0.0001431,5.571,0.01951,0,1,0
235500000000,235800000000,3508950175,0,4469351504,5.054e-05,0.0002956,0.001926,9.727e-05,0.0002766,0.0002956,3.815e-06,9.537e-07,0.0003319,0.0001431,4.736,0.01531,0,1,0
235800000000,236100000000,3508950175,0,4469351504,4.959e-05,0.0002956,0.001926,9.823e-05,0.0002766,0.0002956,3.815e-06,9.537e-07,0.0002937,0.0001431,5.397,0.01865,0,1,0
236100000000,236400000000,3508950175,0,4469351504,4.864e-05,0.0002956,0.001926,9.823e-05,0.0002766,0.0002956,2.861e-06,9.537e-07,0.0002804,7.153e-05,4.968,0.01691,0,1,0
241200000000,241500000000,3508950175,0,4469351504,4.673e-05,0.0002966,0.00194,9.918e-05,0.0002785,0.0002966,3.815e-06,9.537e-07,0.0003624,0.0002146,5.133,0.01798,0,1,0
241500000000,241800000000,3508950175,0,4469351504,4.673e-05,0.0002966,0.00194,9.918e-05,0.0002785,0.0002966,4.768e-06,9.537e-07,0.0002909,0.0005713,5.099,0.01803,0,1,0
241800000000,242100000000,3508950175,0,4469351504,4.768e-05,0.0002966,0.00194,9.918e-05,0.0002785,0.0002966,5.722e-06,9.537e-07,0.0003004,0.0008574,4.454,0.01462,0,1,0
242100000000,242400000000,3508950175,0,4469351504,4.768e-05,0.0002966,0.00194,9.918e-05,0.0002785,0.0002966,2.861e-06,9.537e-07,0.0002909,7.153e-05,4.843,0.01699,0,1,0
242400000000,242700000000,3508950175,0,4469351504,4.864e-05,0.0002966,0.00194,9.918e-05,0.0002785,0.0002966,4.768e-06,9.537e-07,0.0004635,0.0002861,4.694,0.01551,0,1,0
242700000000,243000000000,3508950175,0,4469351504,4.768e-05,0.0002966,0.00194,0.0001001,0.0002785,0.0002966,3.815e-06,9.537e-07,0.0003862,0.0001431,5.107,0.01772,0,1,0
243000000000,243300000000,3508950175,0,4469351504,5.054e-05,0.0002966,0.00194,0.0001001,0.0002785,0.0002966,3.815e-06,9.537e-07,0.0007744,0.0001431,5.995,0.02108,0,1,0
243300000000,243600000000,3508950175,0,4469351504,4.959e-05,0.0002966,0.00194,0.0001001,0.0002785,0.0002966,2.861e-06,9.537e-07,0.0005465,7.153e-05,4.988,0.0173,0,1,0
243600000000,243900000000,3508950175,0,4469351504,5.054e-05,0.0002966,0.00194,0.0001001,0.0002785,0.0002966,2.861e-06,9.537e-07,0.0004349,0.0002146,5.31,0.01837,0,1,0
243900000000,244200000000,3508950175,0,4469351504,5.15e-05,0.0002966,0.00194,0.0001001,0.0002785,0.0002966,3.815e-06,9.537e-07,0.0005741,7.153e-05,4.884,0.01629,0,1,0
244200000000,244500000000,3508950175,0,4469351504,4.959e-05,0.0002966,0.00194,0.0001001,0.0002794,0.0002966,3.815e-06,9.537e-07,0.0002937,0.0002146,5.593,0.01989,0,1,0
244500000000,244800000000,3508950175,0,4469351504,4.959e-05,0.0002966,0.00194,0.0001001,0.0002794,0.0002966,3.815e-06,9.537e-07,0.0004463,7.153e-05,5.208,0.01818,0,1,0
244800000000,245100000000,3508950175,0,4469351504,4.959e-05,0.0002966,0.00194,0.0001001,0.0002794,0.0002966,3.815e-06,9.537e-07,0.0002861,0.0001431,4.752,0.01608,0,1,0
245100000000,245400000000,3508950175,0,4469351504,4.959e-05,0.0002966,0.00194,0.0001001,0.0002794,0.0002966,3.815e-06,9.537e-07,0.0002851,0.0001431,5.837,0.02123,0,1,0
245400000000,245700000000,3508950175,0,4469351504,4.959e-05,0.0002966,0.00194,0.0001001,0.0002794,0.0002966,3.815e-06,9.537e-07,0.0003881,0.0002146,5.576,0.01972,0,1,0
245700000000,246000000000,3508950175,0,4469351504,4.864e-05,0.0002966,0.00194,0.0001001,0.0002794,0.0002966,1.24e-05,9.537e-07,0.0003595,0.002857,4.981,0.01709,0,1,0
246000000000,246300000000,3508950175,0,4469351504,4.578e-05,0.0002966,0.00194,0.0001001,0.0002794,0.0002966,4.768e-06,9.537e-07,0.0004015,0.0006428,5.018,0.01749,0,1,0
251400000000,251700000000,3508950175,0,4469351504,4.959e-05,0.0002966,0.00194,0.000102,0.0002813,0.0002966,3.815e-06,9.537e-07,0.0008154,0.0002146,4.6,0.01576,0,1,0
251700000000,252000000000,3508950175,0,4469351504,4.864e-05,0.0002966,0.00194,0.000102,0.0002813,0.0002975,1.24e-05,9.537e-07,0.0006857,0.00293,5.08,0.01746,0,1,0
252000000000,252300000000,3508950175,0,4469351504,4.768e-05,0.0002966,0.00194,0.000102,0.0002813,0.0002966,9.537e-06,9.537e-07,0.0007057,0.001858,5.269,0.01908,0,1,0
252300000000,252600000000,3508950175,0,4469351504,4.864e-05,0.0002966,0.00194,0.000102,0.0002813,0.0002966,3.815e-06,9.537e-07,0.0008202,0.0001431,5.038,0.01757,0,1,0
252600000000,252900000000,3508950175,0,4469351504,4.768e-05,0.0002966,0.00194,0.000102,0.0002813,0.0002966,3.815e-06,9.537e-07,0.0007915,0.0002146,4.839,0.01726,0,1,0
252900000000,253200000000,3508950175,0,4469351504,4.864e-05,0.0002966,0.00194,0.000102,0.0002813,0.0002966,4.768e-06,9.537e-07,0.0007238,0.0002146,4.834,0.01648,0,1,0
253200000000,253500000000,3508950175,0,4469351504,4.959e-05,0.0002966,0.00194,0.000102,0.0002813,0.0002966,3.815e-06,9.537e-07,0.0008392,0.0001431,5.243,0.01794,0,1,0
253500000000,253800000000,3508950175,0,4469351504,5.054e-05,0.0002966,0.00194,0.000102,0.0002813,0.0002966,5.722e-06,9.537e-07,0.0003366,0.0009289,5.128,0.01691,0,1,0
253800000000,254100000000,3508950175,0,4469351504,4.864e-05,0.0002966,0.00194,0.000103,0.0002813,0.0002975,3.815e-06,9.537e-07,0.0002832,0.0002146,5.079,0.01684,0,1,0
254100000000,254400000000,3508950175,0,4469351504,4.959e-05,0.0002966,0.00194,0.000103,0.0002813,0.0002975,1.24e-05,9.537e-07,0.0002613,0.002857,4.813,0.01593,0,1,0
254400000000,254700000000,3508950175,0,4469351504,4.959e-05,0.0002966,0.00194,0.000103,0.0002823,0.0002975,3.815e-06,9.537e-07,0.0003929,0.0002861,4.7,0.01544,0,1,0
254700000000,255000000000,3508950175,0,4469351504,4.864e-05,0.0002966,0.00194,0.000103,0.0002823,0.0002975,3.815e-06,9.537e-07,0.0003157,0.0001431,4.813,0.01608,0,1,0
255000000000,255300000000,3508950175,0,4469351504,4.768e-05,0.0002966,0.00194,0.000103,0.0002823,0.0002966,5.722e-06,9.537e-07,0.0005035,0.0007858,5.237,0.01851,0,1,0
255300000000,255600000000,3508950175,0,4469351504,5.15e-05,0.0002966,0.00194,0.000103,0.0002823,0.0002975,3.815e-06,9.537e-07,0.0005836,0.0002146,5.191,0.01832,0,1,0
255600000000,255900000000,3508950175,0,4469351504,5.15e-05,0.0002966,0.00194,0.000103,0.0002823,0.0002975,3.815e-06,9.537e-07,0.0005836,0.0001431,5.107,0.01736,0,1,0
255900000000,256200000000,3508950175,0,4469351504,5.245e-05,0.0002966,0.00194,0.000103,0.0002823,0.0002966,2.861e-06,9.537e-07,0.0005951,7.153e-05,4.882,0.01587,0,1,0
256200000000,256500000000,3508950175,0,4469351504,4.768e-05,0.0002966,0.00194,0.000103,0.0002823,0.0002966,3.815e-06,9.537e-07,0.0005894,0.0001431,5.288,0.01941,0,1,0
256500000000,256800000000,3508950175,0,4469351504,4.768e-05,0.0002966,0.00194,0.000103,0.0002823,0.0002966,3.815e-06,9.537e-07,0.0006218,0.0001431,5.027,0.01742,0,1,0
256800000000,257100000000,3508950175,0,4469351504,4.959e-05,0.0002966,0.00194,0.000104,0.0002823,0.0002966,4.768e-06,9.537e-07,0.0005922,0.0006428,5.057,0.01731,0,1,0
257100000000,257400000000,3508950175,0,4469351504,4.959e-05,0.0002966,0.00194,0.000104,0.0002823,0.0002966,3.815e-06,9.537e-07,0.000494,0.0001431,5.43,0.01844,0,1,0
257400000000,257700000000,3508950175,0,4469351504,5.054e-05,0.0002966,0.00194,0.000104,0.0002823,0.0002966,3.815e-06,9.537e-07,0.000371,0.0001431,5.055,0.01699,0,1,0
257700000000,258000000000,3508950175,0,4469351504,5.15e-05,0.0002966,0.00194,0.000104,0.0002832,0.0002966,4.768e-06,9.537e-07,0.0003891,0.0004282,4.606,0.01525,0,1,0
258000000000,258300000000,3508950175,0,4469351504,5.15e-05,0.0002966,0.00194,0.000104,0.0002832,0.0002966,3.815e-06,9.537e-07,0.0004644,0.0001431,4.853,0.01582,0,1,0
258300000000,258600000000,3508950175,0,4469351504,4.768e-05,0.0002966,0.00194,0.000102,0.0002832,0.0002966,5.722e-06,9.537e-07,0.0004349,0.0002861,4.52,0.01571,0,1,0
258600000000,258900000000,3508950175,0,4469351504,4.768e-05,0.0002966,0.00194,0.000102,0.0002832,0.0002975,6.676e-06,9.537e-07,0.0006132,0.0007143,4.55,0.01559,0,1,0
258900000000,259200000000,3508950175,0,4469351504,4.578e-05,0.0002966,0.00194,0.000103,0.0002832,0.0002975,2.861e-06,9.537e-07,0.0002537,0.0001431,4.481,0.01543,0,1,0
259500000000,259800000000,3508950175,0,647596483,4.959e-05,0.0002823,0.001764,4.768e-06,0.000165,0.0003691,2.861e-05,9.537e-07,0.005074,0.00486,13.72,0.06428,0,1,0
259800000000,260100000000,3508950175,0,647596483,3.052e-05,0.0002899,0.001905,1.144e-05,0.0001888,0.0002899,2.48e-05,9.537e-07,0.0004349,0.006218,10.84,0.04798,0,1,0
260100000000,260400000000,3508950175,0,647596483,6.771e-05,0.0002928,0.001905,1.717e-05,0.0001955,0.0002937,1.335e-05,9.537e-07,0.006851,0.003216,4.652,0.01598,0,1,0
260400000000,260700000000,3508950175,0,647596483,4.768e-05,0.0002937,0.001905,1.717e-05,0.0001965,0.0002937,1.907e-06,9.537e-07,0.000308,7.153e-05,4.586,0.01515,0,1,0
260700000000,261000000000,3508950175,0,647596483,4.673e-05,0.0002937,0.001905,1.812e-05,0.0001965,0.0002937,3.815e-06,9.537e-07,0.0002918,0.0001431,5.226,0.01863,0,1,0
261000000000,261300000000,3508950175,0,647596483,4.768e-05,0.0002937,0.001905,1.812e-05,0.0001965,0.0002937,1.907e-06,9.537e-07,0.0002613,7.153e-05,4.555,0.01569,0,1,0
261300000000,261600000000,3508950175,0,647596483,4.578e-05,0.0002937,0.001905,1.812e-05,0.0001965,0.0002937,1.907e-06,9.537e-07,0.0002756,0.0001431,4.22,0.01457,0,1,0
261600000000,261900000000,3508950175,0,647596483,4.673e-05,0.0002937,0.001905,1.812e-05,0.0001965,0.0002937,1.907e-06,9.537e-07,0.0002794,0.0001431,4.421,0.01542,0,1,0
261900000000,262200000000,3508950175,0,647596483,4.578e-05,0.0002937,0.001905,1.812e-05,0.0001965,0.0002937,1.907e-06,9.537e-07,0.0002317,0.0001431,4.144,0.01424,0,1,0
262200000000,262500000000,3508950175,0,647596483,4.673e-05,0.0002937,0.001905,1.812e-05,0.0001965,0.0002947,5.722e-06,9.537e-07,0.0002337,0.001286,4.328,0.01483,0,1,0
262500000000,262800000000,3508950175,0,647596483,4.387e-05,0.0002937,0.001905,1.812e-05,0.0001965,0.0002937,3.815e-06,9.537e-07,0.0003004,0.0007143,4.12,0.01451,0,1,0
262800000000,263100000000,3508950175,0,647596483,4.768e-05,0.0002937,0.001905,1.812e-05,0.0001965,0.0002947,2.861e-06,9.537e-07,0.0002337,0.0002861,4.084,0.01373,0,1,0
263100000000,263400000000,3508950175,0,647596483,4.673e-05,0.0002937,0.001905,1.812e-05,0.0001974,0.0002947,1.431e-05,9.537e-07,0.000289,0.003357,4.39,0.01469,0,1,0
263400000000,263700000000,3508950175,0,647596483,4.673e-05,0.0002947,0.001905,1.907e-05,0.0001974,0.0002947,9.537e-06,9.537e-07,0.0002556,0.001642,4.189,0.01383,0,1,0
263700000000,264000000000,3508950175,0,647596483,4.578e-05,0.0002947,0.001905,1.907e-05,0.0001974,0.0002947,4.768e-06,9.537e-07,0.000247,0.0003567,4.101,0.01351,0,1,0
264000000000,264300000000,3508950175,0,647596483,4.673e-05,0.0002947,0.001905,1.907e-05,0.0001974,0.0002947,6.676e-06,9.537e-07,0.000843,0.0009995,4.255,0.0144,0,1,0
264300000000,264600000000,3508950175,0,647596483,4.864e-05,0.0002947,0.001905,1.907e-05,0.0001974,0.0002947,4.768e-06,9.537e-07,0.0002661,0.0002861,4.193,0.01339,0,1,0
264600000000,264900000000,3508950175,0,647596483,4.578e-05,0.0002947,0.001905,1.907e-05,0.0001974,0.0002947,8.583e-06,9.537e-07,0.000246,0.001143,4.306,0.01472,0,1,0
264900000000,265200000000,3508950175,0,647596483,4.482e-05,0.0002947,0.001905,1.907e-05,0.0001974,0.0002947,6.676e-06,9.537e-07,0.0002537,0.0006428,4.344,0.01617,0,1,0
265200000000,265500000000,3508950175,0,647596483,4.578e-05,0.0002947,0.001905,1.907e-05,0.0001974,0.0002947,6.676e-06,9.537e-07,0.0002432,0.0006428,5.068,0.0198,0,1,0
265500000000,265800000000,3508950175,0,647596483,4.673e-05,0.0002947,0.001905,1.907e-05,0.0001984,0.0002947,6.676e-06,9.537e-07,0.000349,0.0005713,4.639,0.0167,0,1,0
265800000000,266100000000,3508950175,0,647596483,4.768e-05,0.0002947,0.001905,1.907e-05,0.0001984,0.0002947,1.335e-05,9.537e-07,0.0003462,0.002785,4.279,0.01518,0,1,0
266100000000,266400000000,3508950175,0,647596483,4.387e-05,0.0002947,0.001905,2.003e-05,0.0001984,0.0002947,6.676e-06,9.537e-07,0.0002937,0.0008574,4.908,0.01874,0,1,0
266400000000,266700000000,3508950175,0,647596483,4.673e-05,0.0002947,0.001905,2.003e-05,0.0001984,0.0002947,6.676e-06,9.537e-07,0.0003042,0.001072,4.897,0.01759,0,1,0
266700000000,267000000000,3508950175,0,647596483,4.673e-05,0.0002947,0.001905,2.003e-05,0.0001984,0.0002947,1.049e-05,9.537e-07,0.0002909,0.001143,5.165,0.01888,0,1,0
267000000000,267300000000,3508950175,0,647596483,4.387e-05,0.0002947,0.001905,2.003e-05,0.0001984,0.0002947,3.815e-06,9.537e-07,0.0004272,0.0001431,4.806,0.01775,0,1,0
267300000000,267600000000,3508950175,0,647596483,4.578e-05,0.0002947,0.001905,2.003e-05,0.0001984,0.0002947,1.24e-05,9.537e-07,0.0005989,0.001429,4.758,0.01772,0,1,0
267600000000,267900000000,3508950175,0,647596483,4.387e-05,0.0002947,0.001905,2.003e-05,0.0001984,0.0002947,4.768e-06,9.537e-07,0.0005512,0.0003567,4.631,0.01741,0,1,0
267900000000,268200000000,3508950175,0,647596483,4.292e-05,0.0002947,0.001905,2.003e-05,0.0001984,0.0002947,1.144e-05,9.537e-07,0.0005693,0.001572,5.107,0.0201,0,1,0
268200000000,268500000000,3508950175,0,647596483,4.387e-05,0.0002947,0.001905,2.003e-05,0.0001984,0.0002947,6.676e-06,9.537e-07,0.000597,0.001215,4.84,0.01823,0,1,0
268500000000,268800000000,3508950175,0,647596483,4.387e-05,0.0002947,0.001905,2.003e-05,0.0001984,0.0002947,4.768e-06,9.537e-07,0.0005426,0.0004282,4.564,0.01714,0,1,0
268800000000,269100000000,3508950175,0,647596483,4.482e-05,0.0002947,0.001905,2.003e-05,0.0001993,0.0002947,9.537e-06,9.537e-07,0.0005894,0.001715,4.656,0.01746,0,1,0
269100000000,269400000000,3508950175,0,647596483,4.482e-05,0.0002947,0.001905,2.003e-05,0.0001993,0.0002947,3.815e-06,9.537e-07,0.0005722,0.0001431,4.614,0.01749,0,1,0
269400000000,269700000000,3508950175,0,647596483,4.482e-05,0.0002947,0.001905,2.003e-05,0.0001993,0.0002947,9.537e-06,9.537e-07,0.0005484,0.001858,4.464,0.01683,0,1,0
269700000000,270000000000,3508950175,0,647596483,4.578e-05,0.0002947,0.001905,2.098e-05,0.0001993,0.0002956,9.537e-06,9.537e-07,0.0007105,0.001358,4.477,0.01636,0,1,0
270000000000,270300000000,3508950175,0,647596483,4.482e-05,0.0002947,0.001905,2.098e-05,0.0001993,0.0002956,4.768e-06,9.537e-07,0.0005941,0.0004282,4.519,0.01666,0,1,0
270300000000,270600000000,3508950175,0,647596483,4.387e-05,0.0002956,0.001905,2.098e-05,0.0001993,0.0002956,5.722e-06,9.537e-07,0.0005922,0.0005713,4.3,0.01565,0,1,0
270600000000,270900000000,3508950175,0,647596483,4.387e-05,0.0002947,0.001905,2.098e-05,0.0001993,0.0002956,1.144e-05,9.537e-07,0.0005741,0.001358,4.184,0.01497,0,1,0
270900000000,271200000000,3508950175,0,647596483,4.482e-05,0.0002956,0.001905,2.098e-05,0.0001993,0.0002956,4.768e-06,9.537e-07,0.000555,0.0004282,4.725,0.01793,0,1,0
271200000000,271500000000,3508950175,0,647596483,4.578e-05,0.0002956,0.001905,2.098e-05,0.0001993,0.0002956,8.583e-06,9.537e-07,0.0005636,0.001072,4.222,0.01475,0,1,0
281400000000,281700000000,3508950175,0,603128,3.91e-05,0.0002947,0.00194,2.861e-05,0.0002069,0.0002947,1.049e-05,9.537e-07,0.0006838,0.002285,3.003,0.009298,0,1,0
281700000000,282000000000,3508950175,0,603128,4.101e-05,0.0002947,0.00194,2.861e-05,0.0002079,0.0002947,4.768e-06,9.537e-07,0.0008745,0.0004282,3.018,0.009803,0,1,0
282000000000,282300000000,3508950175,0,603128,4.005e-05,0.0002937,0.00194,2.861e-05,0.0002079,0.0002947,2.861e-06,9.537e-07,0.0008659,0.0001431,3.02,0.01017,0,1,0
282300000000,282600000000,3508950175,0,603128,4.101e-05,0.0002947,0.00194,2.861e-05,0.0002079,0.0002947,4.768e-06,9.537e-07,0.0008106,0.0002146,3.054,0.01038,0,1,0
282600000000,282900000000,3508950175,0,603128,4.101e-05,0.0002947,0.00194,2.956e-05,0.0002079,0.0002947,3.815e-06,9.537e-07,0.0008411,7.153e-05,2.989,0.009659,0,1,0
282900000000,283200000000,3508950175,0,603128,4.101e-05,0.0002947,0.00194,2.956e-05,0.0002079,0.0002947,3.815e-06,9.537e-07,0.0009136,7.153e-05,3.145,0.0106,0,1,0
283200000000,283500000000,3508950175,0,603128,4.005e-05,0.0002947,0.00194,2.956e-05,0.0002079,0.0002947,3.815e-06,9.537e-07,0.000844,0.0002861,2.97,0.009524,0,1,0
283500000000,283800000000,3508950175,0,603128,4.005e-05,0.0002947,0.00194,2.956e-05,0.0002079,0.0002947,3.815e-06,9.537e-07,0.0008745,0.0001431,2.932,0.009248,0,1,0
283800000000,284100000000,3508950175,0,603128,4.101e-05,0.0002947,0.00194,2.956e-05,0.0002079,0.0002947,2.861e-06,9.537e-07,0.0007391,7.153e-05,2.9,0.009161,0,1,0
284100000000,284400000000,3508950175,0,603128,4.196e-05,0.0002947,0.00194,2.956e-05,0.0002079,0.0002947,3.815e-06,9.537e-07,0.0007982,0.0002861,2.805,0.008409,0,1,0
284400000000,284700000000,3508950175,0,603128,4.196e-05,0.0002947,0.00194,2.956e-05,0.0002079,0.0002947,2.861e-06,9.537e-07,0.0008144,7.153e-05,3.061,0.009658,0,1,0
284700000000,285000000000,3508950175,0,603128,4.196e-05,0.0002947,0.00194,2.956e-05,0.0002079,0.0002947,3.815e-06,9.537e-07,0.000824,0.0002146,3.059,0.009475,0,1,0
285000000000,285300000000,3508950175,0,603128,4.005e-05,0.0002947,0.00194,2.956e-05,0.0002089,0.0002947,3.815e-06,9.537e-07,0.0007095,0.0002146,2.779,0.008139,0,1,0
285300000000,285600000000,3508950175,0,603128,4.005e-05,0.0002947,0.00194,2.956e-05,0.0002089,0.0002947,3.815e-06,9.537e-07,0.0008764,7.153e-05,2.728,0.007962,0,1,0
285600000000,285900000000,3508950175,0,603128,4.101e-05,0.0002947,0.00194,2.956e-05,0.0002089,0.0002947,3.815e-06,9.537e-07,0.0008287,7.153e-05,2.677,0.007886,0,1,0
285900000000,286200000000,3508950175,0,603128,4.101e-05,0.0002947,0.00194,3.052e-05,0.0002089,0.0002947,2.861e-06,9.537e-07,0.0005636,0.0001431,2.844,0.00879,0,1,0
286200000000,286500000000,3508950175,0,603128,4.005e-05,0.0002947,0.00194,3.052e-05,0.0002089,0.0002947,4.768e-06,9.537e-07,0.0005636,0.0004997,3.043,0.009913,0,1,0
286500000000,286800000000,3508950175,0,603128,4.005e-05,0.0002947,0.00194,3.052e-05,0.0002089,0.0002947,2.861e-06,9.537e-07,0.0007668,7.153e-05,3.256,0.01109,0,1,0
286800000000,287100000000,3508950175,0,603128,4.005e-05,0.0002947,0.00194,3.052e-05,0.0002089,0.0002947,2.861e-06,9.537e-07,0.000227,7.153e-05,2.871,0.009008,0,1,0
287100000000,287400000000,3508950175,0,603128,4.005e-05,0.0002947,0.00194,3.052e-05,0.0002089,0.0002947,3.815e-06,9.537e-07,0.0002251,0.0001431,2.784,0.008309,0,1,0
287400000000,287700000000,3508950175,0,603128,4.005e-05,0.0002947,0.00194,3.052e-05,0.0002089,0.0002947,5.722e-06,9.537e-07,0.0002689,0.0009289,2.695,0.007946,0,1,0
287700000000,288000000000,3508950175,0,603128,4.196e-05,0.0002947,0.00194,3.052e-05,0.0002089,0.0002947,3.815e-06,9.537e-07,0.0002165,0.0002861,3.145,0.01019,0,1,0
288000000000,288300000000,3508950175,0,603128,4.292e-05,0.0002947,0.00194,3.052e-05,0.0002089,0.0002947,3.815e-06,9.537e-07,0.0002604,0.0002146,3.17,0.01021,0,1,0
288300000000,288600000000,3508950175,0,603128,4.196e-05,0.0002947,0.00194,3.052e-05,0.0002098,0.0002947,2.861e-06,9.537e-07,0.0002375,7.153e-05,3.405,0.01145,0,1,0
288600000000,288900000000,3508950175,0,603128,4.196e-05,0.0002947,0.00194,3.052e-05,0.0002098,0.0002947,2.861e-06,9.537e-07,0.0002661,7.153e-05,3.203,0.00978,0,1,0
288900000000,289200000000,3508950175,0,603128,4.196e-05,0.0002947,0.00194,3.052e-05,0.0002098,0.0002947,2.861e-06,9.537e-07,0.0002422,7.153e-05,3.297,0.01088,0,1,0
289200000000,289500000000,3508950175,0,603128,4.005e-05,0.0002947,0.00194,3.147e-05,0.0002098,0.0002947,2.861e-06,9.537e-07,0.0002794,0.0002861,3.31,0.01089,0,1,0
289500000000,289800000000,3508950175,0,603128,4.005e-05,0.0002947,0.00194,3.147e-05,0.0002098,0.0002947,2.861e-06,9.537e-07,0.0002193,7.153e-05,3.376,0.01153,0,1,0
289800000000,290100000000,3508950175,0,603128,4.196e-05,0.0002947,0.00194,3.147e-05,0.0002098,0.0002947,2.861e-06,9.537e-07,0.0002174,7.153e-05,3.405,0.01156,0,1,0
290100000000,290400000000,3508950175,0,603128,4.387e-05,0.0002947,0.00194,3.147e-05,0.0002098,0.0002956,3.815e-06,9.537e-07,0.000227,0.0002146,3.177,0.01021,0,1,0
290400000000,290700000000,3508950175,0,603128,4.387e-05,0.0002947,0.00194,3.147e-05,0.0002108,0.0002956,3.815e-06,9.537e-07,0.0002365,0.0002861,3.287,0.01038,0,1,0
290700000000,291000000000,3508950175,0,603128,4.292e-05,0.0002947,0.00194,3.147e-05,0.0002108,0.0002956,3.815e-06,9.537e-07,0.000268,7.153e-05,3.437,0.01098,0,1,0
291000000000,291300000000,3508950175,0,603128,4.101e-05,0.0002947,0.00194,3.147e-05,0.0002108,0.0002956,4.768e-06,9.537e-07,0.0002337,0.0006428,3.288,0.0106,0,1,0
291300000000,291600000000,3508950175,0,603128,4.005e-05,0.0002947,0.00194,3.147e-05,0.0002108,0.0002956,2.861e-06,9.537e-07,0.0002346,7.153e-05,3.073,0.01021,0,1,0
291600000000,291900000000,3508950175,0,603128,3.91e-05,0.0002947,0.00194,3.147e-05,0.0002108,0.0002956,2.861e-06,9.537e-07,0.000227,7.153e-05,3.067,0.01008,0,1,0
291900000000,292200000000,3508950175,0,603128,4.101e-05,0.0002956,0.00194,3.242e-05,0.0002108,0.0002956,3.815e-06,9.537e-07,0.0002041,0.0001431,3.035,0.009706,0,1,0
292200000000,292500000000,3508950175,0,603128,4.196e-05,0.0002947,0.00194,3.242e-05,0.0002108,0.0002956,2.861e-06,9.537e-07,0.000248,7.153e-05,3.024,0.009876,0,1,0
292500000000,292800000000,3508950175,0,603128,4.005e-05,0.0002947,0.00194,3.242e-05,0.0002108,0.0002956,2.861e-06,9.537e-07,0.0002222,7.153e-05,3.004,0.009865,0,1,0
292800000000,293100000000,3508950175,0,603128,4.196e-05,0.0002956,0.00194,3.242e-05,0.0002108,0.0002956,1.907e-06,9.537e-07,0.001621,7.153e-05,3.092,0.01061,0,1,0
293100000000,293400000000,3508950175,0,603128,4.196e-05,0.0002956,0.00194,3.242e-05,0.0002108,0.0002956,2.861e-06,9.537e-07,0.0002756,0.0001431,3.357,0.01127,0,1,0
293400000000,293700000000,3508950175,0,603128,4.005e-05,0.0002947,0.00194,3.242e-05,0.0002108,0.0002956,3.815e-06,9.537e-07,0.0002146,0.0002146,2.996,0.009919,0,1,0
293700000000,294000000000,3508950175,0,603128,4.005e-05,0.0002956,0.00194,3.242e-05,0.0002117,0.0002956,2.861e-06,9.537e-07,0.0005064,7.153e-05,3.003,0.01013,0,1,0
294000000000,294300000000,3508950175,0,603128,4.101e-05,0.0002956,0.00194,3.242e-05,0.0002117,0.0002956,2.861e-06,9.537e-07,0.0002737,7.153e-05,2.861,0.008806,0,1,0
294300000000,294600000000,3508950175,0,603128,4.101e-05,0.0002956,0.00194,3.242e-05,0.0002117,0.0002956,3.815e-06,9.537e-07,0.000226,7.153e-05,2.953,0.009322,0,1,0
294600000000,294900000000,3508950175,0,603128,4.005e-05,0.0002947,0.00194,3.242e-05,0.0002117,0.0002956,2.861e-06,9.537e-07,0.0002708,7.153e-05,2.935,0.009539,0,1,0
294900000000,295200000000,3508950175,0,603128,4.196e-05,0.0002947,0.00194,3.242e-05,0.0002117,0.0002956,2.861e-06,9.537e-07,0.0002213,7.153e-05,2.716,0.008094,0,1,0
295200000000,295500000000,3508950175,0,603128,4.101e-05,0.0002947,0.00194,3.338e-05,0.0002117,0.0002956,1.24e-05,9.537e-07,0.0002346,0.001358,2.741,0.008098,0,1,0
295500000000,295800000000,3508950175,0,603128,4.196e-05,0.0002947,0.00194,3.338e-05,0.0002117,0.0002956,2.861e-06,9.537e-07,0.000227,0.0001431,2.822,0.008535,0,1,0
295800000000,296100000000,3508950175,0,603128,4.101e-05,0.0002947,0.00194,3.338e-05,0.0002117,0.0002956,2.861e-06,9.537e-07,0.0002327,7.153e-05,2.867,0.008597,0,1,0
296100000000,296400000000,3508950175,0,603128,4.101e-05,0.0002947,0.00194,3.338e-05,0.0002117,0.0002956,3.815e-06,9.537e-07,0.0002241,0.0001431,2.857,0.008753,0,1,0
296400000000,296700000000,3508950175,0,603128,4.101e-05,0.0002947,0.00194,3.338e-05,0.0002117,0.0002956,2.861e-06,9.537e-07,0.0002184,0.0002146,3.048,0.01024,0,1,0
296700000000,297000000000,3508950175,0,603128,4.005e-05,0.0002947,0.00194,3.338e-05,0.0002117,0.0002956,2.861e-06,9.537e-07,0.0002813,7.153e-05,3.271,0.01066,0,1,0
297000000000,297300000000,3508950175,0,603128,4.196e-05,0.0002947,0.00194,3.338e-05,0.0002127,0.0002956,2.861e-06,9.537e-07,0.0002518,7.153e-05,2.93,0.00895,0,1,0
297300000000,297600000000,3508950175,0,603128,4.196e-05,0.0002956,0.00194,3.338e-05,0.0002127,0.0002956,2.861e-06,9.537e-07,0.0002289,7.153e-05,2.817,0.008693,0,1,0
297600000000,297900000000,3508950175,0,603128,4.387e-05,0.0002956,0.00194,3.338e-05,0.0002127,0.0002956,2.861e-06,9.537e-07,0.0002804,7.153e-05,3.151,0.01053,0,1,0
297900000000,298200000000,3508950175,0,603128,4.482e-05,0.0002956,0.00194,3.338e-05,0.0002127,0.0002956,2.861e-06,9.537e-07,0.0002251,7.153e-05,3.153,0.009979,0,1,0
298200000000,298500000000,3508950175,0,603128,4.387e-05,0.0002956,0.00194,3.338e-05,0.0002127,0.0002956,2.861e-06,9.537e-07,0.000248,0.0001431,3.108,0.009735,0,1,0
298500000000,298800000000,3508950175,0,603128,4.387e-05,0.0002956,0.00194,3.433e-05,0.0002127,0.0002956,5.722e-06,9.537e-07,0.0002785,0.0008574,3.154,0.01019,0,1,0
298800000000,299100000000,3508950175,0,603128,4.387e-05,0.0002956,0.00194,3.433e-05,0.0002127,0.0002956,2.861e-06,9.537e-07,0.0002232,7.153e-05,3.179,0.01032,0,1,0
299100000000,299400000000,3508950175,0,603128,4.292e-05,0.0002956,0.00194,3.433e-05,0.0002127,0.0002956,2.861e-06,9.537e-07,0.0002375,7.153e-05,3.226,0.01039,0,1,0
299400000000,299700000000,3508950175,0,603128,4.292e-05,0.0002947,0.00194,3.433e-05,0.0002127,0.0002956,2.861e-06,9.537e-07,0.0002728,7.153e-05,2.987,0.008493,0,1,0
299700000000,300000000000,3508950175,0,603128,4.578e-05,0.0002947,0.00194,3.433e-05,0.0002127,0.0002966,8.583e-06,9.537e-07,0.0009918,0.001499,3.071,0.009028,0,1,0
