5700000000,6000000000,3717263311,0,224761943,0.002457,0.00473,0.007729,0.003845,0.004822,0.004753,4.387e-05,5.054e-05,0.01782,0.007782,9.595,0.04035,0,1,0
6000000000,6300000000,3717263311,0,224761943,0.002457,0.00473,0.007729,0.003857,0.004837,0.004776,3.624e-05,5.054e-05,0.01093,0.002213,9.624,0.04132,0,1,0
6300000000,6600000000,3717263311,0,224761943,0.002487,0.004738,0.007729,0.003395,0.004372,0.004768,9.251e-05,5.15e-05,0.01178,0.01471,9.237,0.03953,0,1,0
6600000000,6900000000,3717263311,0,224761943,0.002411,0.00473,0.007729,0.003128,0.004105,0.004776,3.052e-05,5.15e-05,0.01282,0.001358,8.057,0.03388,0,1,0
6900000000,7200000000,3717263311,0,224761943,0.002556,0.004753,0.007729,0.003242,0.004219,0.004784,6.104e-05,5.15e-05,0.01273,0.007782,8.057,0.03356,0,1,0
7200000000,7500000000,3717263311,0,224761943,0.002548,0.00473,0.007729,0.003319,0.004295,0.004753,2.861e-05,5.15e-05,0.01086,0.0009995,10.63,0.04553,0,1,0
7500000000,7800000000,3717263311,0,224761943,0.002567,0.004753,0.007729,0.003387,0.004364,0.004776,8.202e-05,5.15e-05,0.01801,0.01279,10.02,0.04231,0,1,0
7800000000,8100000000,3717263311,0,224761943,0.002499,0.004738,0.007729,0.00351,0.004486,0.004753,2.861e-05,5.245e-05,0.02957,0.002071,8.988,0.0379,0,1,0
8100000000,8400000000,3717263311,0,224761943,0.002625,0.004738,0.007729,0.003571,0.004547,0.004768,9.251e-05,5.245e-05,0.01248,0.01849,9.385,0.04054,0,1,0
8400000000,8700000000,3717263311,0,224761943,0.00243,0.004745,0.007729,0.003532,0.004509,0.004761,0.0001211,5.15e-05,0.03067,0.01843,9.497,0.04103,0,1,0
8700000000,9000000000,3717263311,0,224761943,0.002285,0.004753,0.007729,0.003349,0.004326,0.00486,4.005e-05,5.15e-05,0.01115,0.001858,8.425,0.03613,0,1,0
9000000000,9300000000,3717263311,0,224761943,0.002583,0.004723,0.007729,0.003414,0.004395,0.004745,4.387e-05,5.245e-05,0.01401,0.002716,9.191,0.03998,0,1,0
9300000000,9600000000,3717263311,0,224761943,0.0028,0.004738,0.007729,0.003532,0.004509,0.004761,8.965e-05,5.245e-05,0.01393,0.01308,9.327,0.04038,0,1,0
9600000000,9900000000,3717263311,0,224761943,0.002571,0.004738,0.007729,0.003632,0.004608,0.004768,3.433e-05,5.245e-05,0.02313,0.001499,9.625,0.04193,0,1,0
9900000000,10200000000,3717263311,0,224761943,0.002537,0.004723,0.007729,0.003769,0.004745,0.004738,7.82e-05,5.245e-05,0.01938,0.01286,9.775,0.0421,0,1,0
10200000000,10500000000,3717263311,0,224761943,0.002399,0.004738,0.007729,0.003826,0.004807,0.004753,2.956e-05,5.341e-05,0.0103,0.001215,10.54,0.04622,0,1,0
10500000000,10800000000,3717263311,0,224761943,0.002743,0.004738,0.007729,0.003853,0.004829,0.004776,6.866e-05,5.341e-05,0.01797,0.009079,11.08,0.04868,0,1,0
10800000000,11100000000,3717263311,0,224761943,0.002529,0.004738,0.007729,0.003849,0.004822,0.004768,2.956e-05,5.341e-05,0.02328,0.001143,10.04,0.04435,0,1,0
11100000000,11400000000,3717263311,0,224761943,0.002533,0.00473,0.007729,0.003864,0.004837,0.004753,8.011e-05,5.341e-05,0.01202,0.01135,8.36,0.03672,0,1,0
11400000000,11700000000,3717263311,0,224761943,0.002678,0.004745,0.007729,0.003849,0.004829,0.004776,3.338e-05,5.341e-05,0.01176,0.0007858,9.277,0.04049,0,1,0
11700000000,12000000000,3717263311,0,224761943,0.002773,0.004753,0.007721,0.003841,0.004822,0.004852,7.915e-05,5.436e-05,0.01822,0.01329,10.59,0.04674,0,1,0
12000000000,12300000000,3717263311,0,224761943,0.00288,0.004723,0.007721,0.003693,0.004669,0.004761,0.0001211,5.436e-05,0.03302,0.01086,8.736,0.03716,0,1,0
12300000000,12600000000,3717263311,0,224761943,0.003189,0.004738,0.007721,0.003674,0.004654,0.004768,0.000289,5.341e-05,0.01822,0.009003,10.24,0.04409,0,1,0
12600000000,12900000000,3717263311,0,224761943,0.003048,0.004745,0.007721,0.00354,0.004517,0.004768,0.0004406,5.341e-05,0.02402,0.007072,9.91,0.04287,0,1,0
12900000000,13200000000,3717263311,0,224761943,0.00267,0.004738,0.007729,0.00367,0.004646,0.004776,0.0001402,5.436e-05,0.01767,0.008636,9.848,0.04265,0,1,0
13200000000,13500000000,3717263311,0,224761943,0.002396,0.004745,0.007729,0.003731,0.004707,0.004761,2.956e-05,5.436e-05,0.01184,0.0007858,10.51,0.04569,0,1,0
13500000000,13800000000,3717263311,0,224761943,0.002468,0.004745,0.007729,0.003799,0.004776,0.004776,0.0001001,5.436e-05,0.02029,0.01907,9.754,0.04257,0,1,0
13800000000,14100000000,3717263311,0,224761943,0.002335,0.004738,0.007729,0.003864,0.004845,0.004745,2.956e-05,5.436e-05,0.03375,0.002785,10.43,0.0471,0,1,0
14100000000,14400000000,3717263311,0,224761943,0.002392,0.004753,0.007729,0.003853,0.004829,0.004776,3.719e-05,5.436e-05,0.009933,0.001858,10.12,0.04508,0,1,0
14400000000,14700000000,3717263311,0,224761943,0.002647,0.004745,0.007721,0.003834,0.004807,0.004776,3.052e-05,5.531e-05,0.011,0.0005713,11.89,0.0526,0,1,0
14700000000,15000000000,3717263311,0,224761943,0.002495,0.004738,0.007721,0.003838,0.004814,0.004761,7.439e-05,5.531e-05,0.01663,0.0105,11.16,0.04887,0,1,0
15000000000,15300000000,3717263311,0,224761943,0.002628,0.004761,0.007721,0.003826,0.004799,0.004776,4.387e-05,5.531e-05,0.01268,0.002357,10.99,0.0486,0,1,0
15300000000,15600000000,3717263311,0,224761943,0.00259,0.004753,0.007729,0.003826,0.004807,0.004784,4.101e-05,5.531e-05,0.009369,0.001715,11.64,0.05036,0,1,0
15600000000,15900000000,3717263311,0,224761943,0.002495,0.004723,0.007729,0.003742,0.004715,0.004738,0.0001459,5.531e-05,0.0246,0.02637,10.33,0.0455,0,1,0
15900000000,16200000000,3717263311,0,224761943,0.002533,0.004738,0.007729,0.00367,0.004646,0.004753,0.000103,5.531e-05,0.02853,0.003216,10.95,0.04859,0,1,0
16200000000,16500000000,3717263311,0,224761943,0.002579,0.004753,0.007729,0.003735,0.004707,0.004776,8.774e-05,5.531e-05,0.01131,0.003357,11.22,0.04895,0,1,0
16500000000,16800000000,3717263311,0,224761943,0.002548,0.00473,0.007729,0.003792,0.004768,0.004784,4.768e-05,5.627e-05,0.01216,0.001858,10.67,0.04712,0,1,0
16800000000,17100000000,3717263311,0,224761943,0.002651,0.004745,0.007729,0.003841,0.004822,0.004768,7.915e-05,5.531e-05,0.01543,0.0125,11.18,0.04903,0,1,0
17100000000,17400000000,3717263311,0,224761943,0.002457,0.004745,0.007729,0.003555,0.004532,0.004776,3.433e-05,5.531e-05,0.01154,0.001215,10.87,0.04858,0,1,0
17400000000,17700000000,3717263311,0,224761943,0.002399,0.004738,0.007729,0.003628,0.004608,0.004768,9.537e-05,5.531e-05,0.01082,0.01428,10.24,0.04531,0,1,0
17700000000,18000000000,3717263311,0,224761943,0.002346,0.004723,0.007729,0.003742,0.004723,0.004761,4.673e-05,5.627e-05,0.01379,0.002106,10.53,0.04698,0,1,0
18000000000,18300000000,3717263311,0,224761943,0.002422,0.004738,0.007729,0.003799,0.004776,0.004753,3.433e-05,5.627e-05,0.01065,0.001999,10.33,0.04617,0,1,0
18300000000,18600000000,3717263311,0,224761943,0.002483,0.004738,0.007729,0.003841,0.004822,0.004768,7.248e-05,5.627e-05,0.01892,0.0105,8.903,0.03893,0,1,0
18600000000,18900000000,3717263311,0,224761943,0.002544,0.004738,0.007729,0.003864,0.004845,0.004753,4.292e-05,5.627e-05,0.01089,0.0009995,10.94,0.0489,0,1,0
18900000000,19200000000,3717263311,0,224761943,0.002556,0.004753,0.007729,0.003845,0.004822,0.004768,4.005e-05,5.627e-05,0.01169,0.0009289,11.06,0.04885,0,1,0
19200000000,19500000000,3717263311,0,224761943,0.002583,0.004723,0.007729,0.003754,0.00473,0.004768,0.0001669,5.627e-05,0.04376,0.02472,11.08,0.04894,0,1,0
19500000000,19800000000,3717263311,0,224761943,0.002571,0.00473,0.007729,0.003693,0.004669,0.004738,5.817e-05,5.722e-05,0.009125,0.002716,10.44,0.04607,0,1,0
19800000000,20100000000,3717263311,0,224761943,0.00256,0.004745,0.007729,0.003761,0.004738,0.004761,4.578e-05,5.722e-05,0.01685,0.001572,10.61,0.04659,0,1,0
20100000000,20400000000,3717263311,0,224761943,0.002583,0.004753,0.007729,0.003822,0.004799,0.004776,5.15e-05,5.722e-05,0.01286,0.003143,10.92,0.04769,0,1,0
20400000000,20700000000,3717263311,0,224761943,0.002594,0.00473,0.007729,0.003864,0.004845,0.004745,7.439e-05,5.722e-05,0.01382,0.008148,9.806,0.0423,0,1,0
20700000000,21000000000,3717263311,0,224761943,0.002579,0.004738,0.007729,0.003868,0.004845,0.004753,3.529e-05,5.722e-05,0.01373,0.001286,11.91,0.05238,0,1,0
21000000000,21300000000,3717263311,0,224761943,0.002659,0.004745,0.007729,0.00386,0.004837,0.004761,2.766e-05,5.722e-05,0.01085,0.0007143,10.85,0.04681,0,1,0
21300000000,21600000000,3717263311,0,224761943,0.002487,0.004745,0.007729,0.00378,0.004761,0.004768,3.052e-05,5.722e-05,0.009079,0.001429,10.97,0.04965,0,1,0
21600000000,21900000000,3717263311,0,224761943,0.002457,0.004723,0.007729,0.003563,0.004539,0.004738,3.719e-05,5.722e-05,0.008926,0.001858,8.799,0.03917,0,1,0
21900000000,22200000000,3717263311,0,224761943,0.002518,0.004738,0.007729,0.003666,0.004646,0.004761,8.965e-05,5.722e-05,0.02106,0.01135,9.974,0.04518,0,1,0
22200000000,22500000000,3717263311,0,224761943,0.002357,0.004738,0.007729,0.003735,0.004707,0.004745,3.433e-05,5.722e-05,0.00972,0.0008574,10.52,0.04751,0,1,0
22500000000,22800000000,3717263311,0,224761943,0.002506,0.004715,0.007729,0.003792,0.004768,0.004753,4.005e-05,5.722e-05,0.01106,0.001429,10.7,0.04786,0,1,0
22800000000,23100000000,3717263311,0,224761943,0.002449,0.004738,0.007729,0.003735,0.004707,0.004753,0.0001354,5.722e-05,0.07544,0.01929,9.044,0.04,0,1,0
23100000000,23400000000,3717263311,0,224761943,0.002266,0.004723,0.007729,0.003662,0.004639,0.004761,3.433e-05,5.817e-05,0.01155,0.001143,8.415,0.03612,0,1,0
23400000000,23700000000,3717263311,0,224761943,0.002354,0.004723,0.007729,0.003712,0.004692,0.00473,3.624e-05,5.817e-05,0.01077,0.002071,10.64,0.04764,0,1,0
23700000000,24000000000,3717263311,0,224761943,0.002312,0.00473,0.007729,0.003761,0.004738,0.004745,3.338e-05,5.817e-05,0.01022,0.001785,10.11,0.04423,0,1,0
24000000000,24300000000,3717263311,0,224761943,0.002327,0.00473,0.007729,0.00383,0.004807,0.004768,6.962e-05,5.817e-05,0.01332,0.00943,9.785,0.04296,0,1,0
24300000000,24600000000,3717263311,0,224761943,0.002274,0.004715,0.007729,0.003876,0.004852,0.004723,4.482e-05,5.817e-05,0.0108,0.001429,11.08,0.04937,0,1,0
24600000000,24900000000,3717263311,0,224761943,0.002216,0.00473,0.007729,0.003876,0.004852,0.004738,3.719e-05,5.817e-05,0.009293,0.002857,10.05,0.04499,0,1,0
24900000000,25200000000,3717263311,0,224761943,0.002262,0.004745,0.007729,0.003868,0.004845,0.004753,4.005e-05,5.817e-05,0.01173,0.002357,10.11,0.04539,0,1,0
25200000000,25500000000,3717263311,0,224761943,0.002396,0.004745,0.007729,0.003857,0.004837,0.004761,0.0001163,5.913e-05,0.01715,0.01901,11.76,0.05204,0,1,0
25500000000,25800000000,3717263311,0,224761943,0.00251,0.00473,0.007729,0.003841,0.004822,0.004768,2.384e-05,5.913e-05,0.03345,0.001143,9.954,0.04259,0,1,0
25800000000,26100000000,3717263311,0,224761943,0.002403,0.004738,0.007729,0.003868,0.004845,0.004753,2.67e-05,5.913e-05,0.01201,0.001072,11.82,0.05132,0,1,0
26100000000,26400000000,3717263311,0,224761943,0.00251,0.004738,0.007729,0.003864,0.004837,0.004745,4.005e-05,5.913e-05,0.01025,0.002499,12.3,0.05316,0,1,0
26700000000,27000000000,3717263311,0,16915986,0.001999,0.00415,0.006798,0.001909,0.002876,0.005081,1.24e-05,8.583e-06,0.01617,0.001215,6.928,0.02923,0,1,0
27000000000,27300000000,3717263311,0,16915986,0.00201,0.004158,0.005775,0.001932,0.002899,0.004211,1.335e-05,8.583e-06,0.007843,0.002357,10.18,0.04311,0,1,0
27300000000,27600000000,3717263311,0,16915986,0.002106,0.004219,0.005775,0.001965,0.002934,0.00425,8.583e-06,8.583e-06,0.0145,0.0005713,9.44,0.04,0,1,0
27600000000,27900000000,3717263311,0,16915986,0.002224,0.00425,0.005775,0.001995,0.002964,0.004272,8.583e-06,8.583e-06,0.009659,0.0006428,9.719,0.04076,0,1,0
27900000000,28200000000,3717263311,0,16915986,0.002186,0.00428,0.005775,0.002022,0.002991,0.004295,5.722e-06,8.583e-06,0.01321,0.0004282,9.965,0.04287,0,1,0
28200000000,28500000000,3717263311,0,16915986,0.0023,0.004295,0.005775,0.002056,0.003025,0.004311,1.526e-05,8.583e-06,0.01155,0.001785,11.34,0.05116,0,1,0
28500000000,28800000000,3717263311,0,16915986,0.002377,0.004311,0.005775,0.002079,0.003048,0.004318,8.583e-06,8.583e-06,0.01146,0.001072,10.5,0.04623,0,1,0
28800000000,29100000000,3717263311,0,16915986,0.002312,0.004318,0.005775,0.002075,0.003044,0.004341,9.537e-06,8.583e-06,0.01004,0.0005713,10.47,0.04654,0,1,0
29100000000,29400000000,3717263311,0,16915986,0.002399,0.004333,0.007668,0.002106,0.003075,0.004349,7.629e-06,8.583e-06,0.01651,0.0005713,11.45,0.05075,0,1,0
29400000000,29700000000,3717263311,0,16915986,0.002239,0.004349,0.007721,0.002224,0.003193,0.004364,8.774e-05,9.537e-06,0.01614,0.02344,11.83,0.0533,0,1,0
29700000000,30000000000,3717263311,0,16915986,0.002377,0.004356,0.007721,0.002342,0.003311,0.004372,1.144e-05,9.537e-06,0.01056,0.0009289,11.93,0.05365,0,1,0
30000000000,30300000000,3717263311,0,16915986,0.002151,0.004372,0.007721,0.002293,0.003262,0.004379,9.537e-06,9.537e-06,0.008408,0.0007143,11.04,0.04943,0,1,0
30300000000,30600000000,3717263311,0,16915986,0.002232,0.004379,0.007721,0.002331,0.0033,0.004387,1.24e-05,9.537e-06,0.01135,0.001143,11.66,0.05323,0,1,0
30600000000,30900000000,3717263311,0,16915986,0.002312,0.004387,0.007721,0.002365,0.003334,0.004395,1.24e-05,9.537e-06,0.01001,0.001072,11.84,0.05308,0,1,0
30900000000,31200000000,3717263311,0,16915986,0.002216,0.004395,0.007721,0.002403,0.003372,0.004402,8.583e-06,1.049e-05,0.008972,0.0004997,11.27,0.05043,0,1,0
31200000000,31500000000,3717263311,0,16915986,0.002243,0.004402,0.007721,0.002441,0.00341,0.004417,1.717e-05,1.049e-05,0.01067,0.001715,11.38,0.05058,0,1,0
31500000000,31800000000,3717263311,0,16915986,0.002144,0.004417,0.007721,0.002258,0.003227,0.004433,1.431e-05,1.049e-05,0.01154,0.001928,10.49,0.04782,0,1,0
31800000000,32100000000,3717263311,0,16915986,0.002056,0.004448,0.007721,0.002201,0.00317,0.004463,1.335e-05,1.049e-05,0.008835,0.001215,10.1,0.04682,0,1,0
32100000000,32400000000,3717263311,0,16915986,0.002167,0.004456,0.007721,0.002239,0.003208,0.004471,1.144e-05,1.049e-05,0.01201,0.001215,10.55,0.04635,0,1,0
32400000000,32700000000,3717263311,0,16915986,0.002159,0.004463,0.007721,0.002277,0.003246,0.004471,1.335e-05,1.049e-05,0.008865,0.0005713,10.55,0.04671,0,1,0
32700000000,33000000000,3717263311,0,16915986,0.002369,0.004471,0.007721,0.002316,0.003284,0.004478,0.0001116,1.049e-05,0.01428,0.003929,11.96,0.05311,0,1,0
33000000000,33300000000,3717263311,0,16915986,0.002163,0.004471,0.007721,0.002487,0.003456,0.004486,4.768e-05,1.144e-05,0.02179,0.01178,10.91,0.04925,0,1,0
33300000000,33600000000,3717263311,0,16915986,0.002232,0.004478,0.007721,0.002483,0.003452,0.004494,1.24e-05,1.144e-05,0.01027,0.001358,11.46,0.05167,0,1,0
33600000000,33900000000,3717263311,0,16915986,0.002151,0.004478,0.007721,0.002499,0.003468,0.004494,9.537e-06,1.144e-05,0.008362,0.0009289,11.38,0.05083,0,1,0
33900000000,34200000000,3717263311,0,16915986,0.00219,0.004478,0.007721,0.002533,0.003502,0.004494,8.583e-06,1.144e-05,0.008743,0.0007143,11.01,0.04994,0,1,0
34200000000,34500000000,3717263311,0,16915986,0.002113,0.004478,0.007721,0.002571,0.00354,0.004539,1.431e-05,1.144e-05,0.009277,0.001143,10.99,0.05009,0,1,0
34500000000,34800000000,3717263311,0,16915986,0.002132,0.004486,0.007721,0.002609,0.003578,0.004494,2.003e-05,1.144e-05,0.008209,0.002071,11.27,0.0513,0,1,0
34800000000,35100000000,3717263311,0,16915986,0.00211,0.004494,0.007721,0.002647,0.003616,0.004509,1.431e-05,1.144e-05,0.01009,0.001999,10.41,0.04732,0,1,0
35100000000,35400000000,3717263311,0,16915986,0.002186,0.004486,0.007721,0.002686,0.003654,0.004501,9.537e-06,1.144e-05,0.01039,0.0007858,10.98,0.0503,0,1,0
35400000000,35700000000,3717263311,0,16915986,0.002151,0.004494,0.007721,0.002724,0.003693,0.004501,1.812e-05,1.24e-05,0.01003,0.00243,10.64,0.04858,0,1,0
35700000000,36000000000,3717263311,0,16915986,0.002182,0.004494,0.007721,0.002762,0.003731,0.004509,9.537e-06,1.24e-05,0.01164,0.0008574,10.06,0.04502,0,1,0
36000000000,36300000000,3717263311,0,16915986,0.00219,0.004501,0.007721,0.0028,0.003769,0.004509,1.24e-05,1.24e-05,0.00914,0.001286,11.02,0.04994,0,1,0
36300000000,36600000000,3717263311,0,16915986,0.002151,0.004509,0.007721,0.002838,0.003811,0.004524,9.537e-06,1.24e-05,0.009308,0.0007858,11.09,0.04912,0,1,0
36600000000,36900000000,3717263311,0,16915986,0.002205,0.004509,0.007721,0.002914,0.003883,0.004517,6.58e-05,1.24e-05,0.01968,0.01678,11.35,0.05067,0,1,0
36900000000,37200000000,3717263311,0,16915986,0.002239,0.004501,0.007721,0.002651,0.00362,0.004532,1.526e-05,1.335e-05,0.01469,0.001499,10.68,0.04724,0,1,0
37200000000,37500000000,3717263311,0,16915986,0.002102,0.004509,0.007721,0.002689,0.003658,0.004562,9.537e-06,1.335e-05,0.009201,0.0005713,9.14,0.04115,0,1,0
37500000000,37800000000,3717263311,0,16915986,0.002247,0.004524,0.007721,0.002728,0.003696,0.004532,1.24e-05,1.335e-05,0.009903,0.001785,11,0.04866,0,1,0
37800000000,38100000000,3717263311,0,16915986,0.002224,0.004509,0.007721,0.002766,0.003738,0.004532,1.144e-05,1.335e-05,0.01025,0.001215,10.23,0.04552,0,1,0
38100000000,38400000000,3717263311,0,16915986,0.002243,0.004517,0.007721,0.002808,0.003777,0.004532,1.24e-05,1.335e-05,0.01033,0.001072,10.88,0.04955,0,1,0
38400000000,38700000000,3717263311,0,16915986,0.002201,0.004532,0.007721,0.002842,0.003815,0.004539,1.049e-05,1.335e-05,0.01176,0.0005713,11.07,0.04882,0,1,0
38700000000,39000000000,3717263311,0,16915986,0.002312,0.004524,0.007721,0.00288,0.003849,0.004539,1.335e-05,1.335e-05,0.01126,0.001429,11,0.04987,0,1,0
39000000000,39300000000,3717263311,0,16915986,0.002335,0.004532,0.007721,0.002922,0.003891,0.004539,9.537e-06,1.335e-05,0.009827,0.0006428,10.82,0.0485,0,1,0
39300000000,39600000000,3717263311,0,16915986,0.00238,0.004539,0.007721,0.00296,0.003929,0.004547,7.629e-06,1.335e-05,0.008545,0.0004282,11.23,0.05012,0,1,0
39600000000,39900000000,3717263311,0,16915986,0.00219,0.004539,0.007721,0.002998,0.003967,0.004555,1.144e-05,1.431e-05,0.03339,0.001358,10.89,0.0486,0,1,0
39900000000,40200000000,3717263311,0,16915986,0.002441,0.004532,0.007721,0.003052,0.004021,0.004555,2.861e-05,1.431e-05,0.01352,0.005356,10.59,0.04652,0,1,0
40200000000,40500000000,3717263311,0,16915986,0.002201,0.004532,0.007721,0.003178,0.004143,0.004555,6.676e-05,1.431e-05,0.01959,0.0177,10.31,0.04602,0,1,0
40500000000,40800000000,3717263311,0,16915986,0.002258,0.004539,0.007721,0.003197,0.004166,0.004562,1.144e-05,1.431e-05,0.04327,0.0008574,10.93,0.04868,0,1,0
51000000000,51300000000,3717263311,0,16915986,0.00293,0.004601,0.007721,0.002979,0.003944,0.004616,8.011e-05,1.907e-05,0.01688,0.0188,9.788,0.04366,0,1,0
51300000000,51600000000,3717263311,0,16915986,0.003021,0.004608,0.007721,0.00309,0.004059,0.004616,1.717e-05,1.907e-05,0.0354,0.001143,10.31,0.0462,0,1,0
51600000000,51900000000,3717263311,0,16915986,0.003315,0.004601,0.007721,0.003078,0.004051,0.004623,2.766e-05,2.003e-05,0.01291,0.003284,9.501,0.04085,0,1,0
51900000000,52200000000,3717263311,0,16915986,0.003258,0.004608,0.007721,0.003212,0.004181,0.004631,2.098e-05,1.907e-05,0.0426,0.002357,9.633,0.0433,0,1,0
52200000000,52500000000,3717263311,0,16915986,0.003307,0.004608,0.007721,0.003139,0.004112,0.004623,4.768e-05,1.907e-05,0.01494,0.01086,10.69,0.04704,0,1,0
52500000000,52800000000,3717263311,0,16915986,0.003212,0.004601,0.007721,0.003124,0.004097,0.004623,8.583e-06,2.003e-05,0.0116,0.0004282,9.333,0.04113,0,1,0
52800000000,53100000000,3717263311,0,16915986,0.003738,0.004616,0.007721,0.003246,0.004211,0.004738,3.815e-05,2.003e-05,0.03314,0.00457,8.443,0.03692,0,1,0
53100000000,53400000000,3717263311,0,16915986,0.004028,0.004616,0.007721,0.003418,0.004387,0.004646,3.147e-05,2.098e-05,0.03296,0.004929,8.471,0.03631,0,1,0
53400000000,53700000000,3717263311,0,16915986,0.003662,0.004623,0.007721,0.003582,0.004555,0.004654,3.624e-05,2.098e-05,0.01509,0.005074,9.191,0.04126,0,1,0
53700000000,54000000000,3717263311,0,16915986,0.003662,0.004623,0.007721,0.003746,0.004715,0.004745,5.054e-05,2.098e-05,0.01691,0.009995,7.551,0.03267,0,1,0
54000000000,54300000000,3717263311,0,16915986,0.003639,0.004631,0.007721,0.003822,0.004791,0.004646,6.294e-05,2.193e-05,0.01724,0.01436,9.972,0.04421,0,1,0
54300000000,54600000000,3717263311,0,16915986,0.003563,0.004631,0.007721,0.003807,0.004776,0.004654,2.956e-05,2.193e-05,0.01727,0.002571,9.656,0.04287,0,1,0
54600000000,54900000000,3717263311,0,16915986,0.00349,0.004623,0.007721,0.00375,0.004715,0.004646,0.0001297,2.193e-05,0.02246,0.01172,9.87,0.04468,0,1,0
54900000000,55200000000,3717263311,0,16915986,0.003799,0.004623,0.007721,0.003635,0.004608,0.004662,3.433e-05,2.193e-05,0.03729,0.005356,8.739,0.03749,0,1,0
55200000000,55500000000,3717263311,0,16915986,0.00359,0.004623,0.007721,0.003773,0.004738,0.004646,2.003e-05,2.193e-05,0.01596,0.001072,9.471,0.04031,0,1,0
55500000000,55800000000,3717263311,0,16915986,0.003647,0.004623,0.007721,0.003872,0.004845,0.004646,3.242e-05,2.289e-05,0.01761,0.003784,9.383,0.04098,0,1,0
55800000000,56100000000,3717263311,0,16915986,0.003525,0.004631,0.007721,0.003944,0.004913,0.004654,4.101e-05,2.289e-05,0.01535,0.004929,9.058,0.04023,0,1,0
56100000000,56400000000,3717263311,0,16915986,0.003563,0.004631,0.007721,0.003937,0.004906,0.004662,4.482e-05,2.289e-05,0.0159,0.005074,9.537,0.04186,0,1,0
56400000000,56700000000,3717263311,0,16915986,0.003315,0.004631,0.007721,0.003944,0.004913,0.004654,2.193e-05,2.384e-05,0.01321,0.0009289,8.93,0.03877,0,1,0
56700000000,57000000000,3717263311,0,16915986,0.003441,0.004631,0.007721,0.003937,0.004906,0.004662,6.866e-05,2.289e-05,0.02188,0.01199,8.195,0.03608,0,1,0
57000000000,57300000000,3717263311,0,16915986,0.003151,0.004623,0.007721,0.003822,0.004791,0.004646,6.485e-05,2.384e-05,0.01302,0.009933,9.87,0.04429,0,1,0
57300000000,57600000000,3717263311,0,16915986,0.003384,0.004616,0.007721,0.003716,0.004684,0.004646,2.861e-05,2.384e-05,0.01584,0.001215,9.61,0.04417,0,1,0
57600000000,57900000000,3717263311,0,16915986,0.003357,0.004623,0.007721,0.003849,0.004814,0.004715,3.815e-05,2.384e-05,0.02106,0.003998,9.087,0.04057,0,1,0
57900000000,58200000000,3717263311,0,16915986,0.003452,0.004501,0.007721,0.003929,0.004898,0.004761,6.104e-05,2.48e-05,0.03308,0.008423,8.146,0.03599,0,1,0
58200000000,58500000000,3717263311,0,16915986,0.003769,0.004501,0.007713,0.003929,0.004898,0.004753,0.0002337,2.48e-05,0.03571,0.02502,7.214,0.0316,0,1,0
58500000000,58800000000,3717263311,0,16915986,0.003975,0.004501,0.007713,0.003937,0.004906,0.004524,0.0001631,2.575e-05,0.0791,0.01266,8.491,0.03776,0,1,0
58800000000,59100000000,3717263311,0,16915986,0.003403,0.004501,0.007721,0.004028,0.00499,0.004684,8.106e-05,2.575e-05,0.04919,0.01086,8.376,0.03626,0,1,0
59100000000,59400000000,3717263311,0,16915986,0.003754,0.004509,0.007713,0.00388,0.004845,0.004532,0.0005636,2.575e-05,0.02466,0.009628,9.18,0.04101,0,1,0
59400000000,59700000000,3717263311,0,16915986,0.003258,0.004509,0.007721,0.003777,0.004745,0.004639,6.294e-05,2.575e-05,0.02887,0.009293,9.022,0.0402,0,1,0
59700000000,60000000000,3717263311,0,16915986,0.003597,0.004524,0.007713,0.003937,0.004906,0.004631,4.101e-05,2.575e-05,0.03357,0.005997,7.535,0.03234,0,1,0
60000000000,60300000000,3717263311,0,16915986,0.003292,0.004524,0.007713,0.004021,0.004982,0.004547,6.485e-05,2.67e-05,0.01556,0.01244,7.786,0.03442,0,1,0
60300000000,60600000000,3717263311,0,16915986,0.003704,0.004532,0.007713,0.004005,0.004974,0.004639,0.0001144,2.67e-05,0.03043,0.01357,8.007,0.03503,0,1,0
60600000000,60900000000,3717263311,0,16915986,0.003506,0.004547,0.007713,0.003983,0.004951,0.004578,8.774e-05,2.766e-05,0.02039,0.01286,7.327,0.03178,0,1,0
70800000000,71100000000,3717263311,0,16915986,0.003353,0.004662,0.007721,0.003723,0.004692,0.004707,8.869e-05,3.624e-05,0.01534,0.008072,9.081,0.0398,0,1,0
71100000000,71400000000,3717263311,0,16915986,0.003345,0.004669,0.007721,0.003841,0.004807,0.0047,6.485e-05,3.719e-05,0.01405,0.005714,8.446,0.03724,0,1,0
71400000000,71700000000,3717263311,0,16915986,0.003471,0.004669,0.007721,0.003891,0.00486,0.004707,4.864e-05,3.719e-05,0.02234,0.003502,8.902,0.0394,0,1,0
71700000000,72000000000,3717263311,0,16915986,0.003643,0.004654,0.007721,0.003902,0.004868,0.0047,0.000104,3.719e-05,0.01752,0.009995,9.161,0.03963,0,1,0
72000000000,72300000000,3717263311,0,16915986,0.003708,0.004662,0.007721,0.003899,0.004868,0.0047,5.722e-05,3.815e-05,0.01764,0.006714,9.236,0.04036,0,1,0
72300000000,72600000000,3717263311,0,16915986,0.003975,0.004662,0.007713,0.00388,0.004845,0.0047,7.629e-05,3.815e-05,0.04547,0.008713,7.451,0.03118,0,1,0
72600000000,72900000000,3717263311,0,16915986,0.003559,0.004662,0.007713,0.003853,0.004822,0.0047,0.0001974,3.91e-05,0.02365,0.02164,8.24,0.03551,0,1,0
72900000000,73200000000,3717263311,0,16915986,0.003361,0.004662,0.007721,0.003628,0.004593,0.0047,8.965e-05,3.815e-05,0.02148,0.01157,8.975,0.03968,0,1,0
73200000000,73500000000,3717263311,0,16915986,0.00317,0.004662,0.007721,0.003586,0.004555,0.004684,3.815e-05,3.815e-05,0.01389,0.0009289,9.083,0.04034,0,1,0
73500000000,73800000000,3717263311,0,16915986,0.003315,0.004662,0.007721,0.003529,0.004494,0.0047,5.15e-05,3.91e-05,0.01718,0.004074,8.414,0.03619,0,1,0
73800000000,74100000000,3717263311,0,16915986,0.003334,0.004654,0.007721,0.003227,0.004196,0.004707,7.439e-05,3.91e-05,0.01405,0.007858,8.323,0.03565,0,1,0
74100000000,74400000000,3717263311,0,16915986,0.003479,0.004662,0.007721,0.003391,0.004356,0.0047,0.0001259,4.005e-05,0.01425,0.01578,8.576,0.03744,0,1,0
74400000000,74700000000,3717263311,0,16915986,0.003643,0.004654,0.007713,0.003571,0.004539,0.004707,0.0001297,4.005e-05,0.04364,0.005859,6.984,0.02931,0,1,0
74700000000,75000000000,3717263311,0,16915986,0.003403,0.004669,0.007721,0.00367,0.004639,0.004692,9.823e-05,4.101e-05,0.0184,0.004646,8.566,0.03766,0,1,0
75000000000,75300000000,3717263311,0,16915986,0.003403,0.004654,0.007721,0.003792,0.004761,0.004684,0.000165,4.101e-05,0.01947,0.011,9.114,0.04036,0,1,0
75300000000,75600000000,3717263311,0,16915986,0.003559,0.004646,0.007721,0.00386,0.004829,0.0047,4.673e-05,4.101e-05,0.04309,0.001499,8.839,0.03974,0,1,0
75600000000,75900000000,3717263311,0,16915986,0.003723,0.004646,0.007721,0.00367,0.004639,0.0047,7.82e-05,4.101e-05,0.04004,0.005356,9.114,0.03975,0,1,0
75900000000,76200000000,3717263311,0,16915986,0.003536,0.004646,0.007721,0.003819,0.004784,0.0047,9.06e-05,4.101e-05,0.02945,0.005783,8.722,0.03777,0,1,0
76200000000,76500000000,3717263311,0,16915986,0.003174,0.004662,0.007713,0.003899,0.004868,0.004692,0.0002022,4.196e-05,0.03699,0.02399,9.022,0.03918,0,1,0
76500000000,76800000000,3717263311,0,16915986,0.003128,0.004677,0.007721,0.003773,0.004738,0.0047,4.578e-05,4.196e-05,0.04858,0.001429,9.354,0.04153,0,1,0
76800000000,77100000000,3717263311,0,16915986,0.003304,0.004654,0.007721,0.003868,0.004837,0.0047,0.0001154,4.196e-05,0.03888,0.01064,9.681,0.04253,0,1,0
77100000000,77400000000,3717263311,0,16915986,0.003319,0.004654,0.007721,0.003899,0.004868,0.0047,9.346e-05,4.196e-05,0.03693,0.015,9.928,0.04394,0,1,0
77400000000,77700000000,3717263311,0,16915986,0.003304,0.004646,0.007721,0.003906,0.004875,0.004677,3.624e-05,4.292e-05,0.06543,0.001215,10.09,0.04516,0,1,0
77700000000,78000000000,3717263311,0,16915986,0.003311,0.004669,0.007721,0.003895,0.00486,0.0047,6.962e-05,4.292e-05,0.03839,0.004715,9.349,0.0414,0,1,0
78000000000,78300000000,3717263311,0,16915986,0.00333,0.004654,0.007721,0.003742,0.004707,0.004745,0.0001192,4.292e-05,0.03009,0.01207,8.889,0.03938,0,1,0
78300000000,78600000000,3717263311,0,16915986,0.005318,0.004692,0.007698,0.00375,0.004715,0.004784,0.0002089,4.292e-05,0.09509,0.01758,4.226,0.01622,0,1,0
78600000000,78900000000,3717263311,0,16915986,0.00444,0.004715,0.007706,0.003708,0.004677,0.005058,0.0001249,4.387e-05,0.07556,0.007996,5.414,0.02186,0,1,0
78900000000,79200000000,3717263311,0,16915986,0.003922,0.00473,0.007713,0.003551,0.004517,0.005043,0.0001307,4.387e-05,0.06421,0.01987,8.478,0.03856,0,1,0
79200000000,79500000000,3717263311,0,16915986,0.003872,0.00473,0.007713,0.003361,0.004326,0.005447,7.915e-05,4.482e-05,0.06262,0.005569,9.077,0.04102,0,1,0
79500000000,79800000000,3717263311,0,16915986,0.003906,0.004677,0.007721,0.003204,0.004173,0.005013,0.0001144,4.482e-05,0.02762,0.007858,9.299,0.04245,0,1,0
79800000000,80100000000,3717263311,0,16915986,0.003578,0.004684,0.007721,0.003452,0.004417,0.004723,0.0001411,4.578e-05,0.02795,0.01886,9.481,0.0426,0,1,0
80100000000,80400000000,3717263311,0,16915986,0.003418,0.0047,0.007721,0.003498,0.004463,0.004776,0.000103,4.578e-05,0.04492,0.01164,7.124,0.03033,0,1,0
80400000000,80700000000,3717263311,0,16915986,0.003181,0.004692,0.007721,0.003559,0.004524,0.004723,5.054e-05,4.482e-05,0.01253,0.001215,7.93,0.03403,0,1,0
80700000000,81000000000,3717263311,0,16915986,0.003086,0.004684,0.007721,0.003456,0.004425,0.004723,7.439e-05,4.578e-05,0.01546,0.007645,10.13,0.04473,0,1,0
85800000000,86100000000,3717263311,0,16915986,0.002583,0.004692,0.007721,0.003822,0.004791,0.00473,4.864e-05,4.768e-05,0.01602,0.005997,9.491,0.04172,0,1,0
86100000000,86400000000,3717263311,0,16915986,0.002674,0.004692,0.007721,0.003845,0.004814,0.004738,3.719e-05,4.768e-05,0.01044,0.0008574,10.54,0.04812,0,1,0
86400000000,86700000000,3717263311,0,16915986,0.00267,0.0047,0.007721,0.003864,0.004829,0.004715,8.869e-05,4.864e-05,0.0148,0.0155,9.497,0.04263,0,1,0
86700000000,87000000000,3717263311,0,16915986,0.002644,0.004707,0.007721,0.003849,0.004814,0.00473,3.147e-05,4.864e-05,0.01151,0.001358,9.896,0.04351,0,1,0
87000000000,87300000000,3717263311,0,16915986,0.002613,0.004707,0.007721,0.003815,0.004784,0.00473,0.0001211,4.864e-05,0.02454,0.01828,10.21,0.04646,0,1,0
87300000000,87600000000,3717263311,0,16915986,0.002533,0.0047,0.007721,0.003662,0.004631,0.004745,4.196e-05,4.864e-05,0.009857,0.001215,9.566,0.04384,0,1,0
87600000000,87900000000,3717263311,0,16915986,0.002636,0.004715,0.007721,0.003731,0.0047,0.004738,9.346e-05,4.864e-05,0.01163,0.01486,10.53,0.0484,0,1,0
87900000000,88200000000,3717263311,0,16915986,0.002724,0.004707,0.007721,0.003784,0.004753,0.004745,5.531e-05,4.864e-05,0.01559,0.006287,8.015,0.03501,0,1,0
88200000000,88500000000,3717263311,0,16915986,0.002655,0.004715,0.007721,0.003647,0.004616,0.004738,2.956e-05,4.864e-05,0.01451,0.0009995,8.385,0.0371,0,1,0
88500000000,88800000000,3717263311,0,16915986,0.00267,0.004707,0.007721,0.003742,0.004707,0.004745,5.245e-05,4.959e-05,0.01204,0.003216,9.179,0.04131,0,1,0
88800000000,89100000000,3717263311,0,16915986,0.002636,0.004707,0.007721,0.003834,0.004799,0.004753,3.433e-05,4.959e-05,0.01593,0.0008574,8.532,0.03749,0,1,0
89100000000,89400000000,3717263311,0,16915986,0.002605,0.0047,0.007721,0.003845,0.004814,0.00473,9.632e-05,4.959e-05,0.01527,0.01843,9.211,0.04123,0,1,0
89400000000,89700000000,3717263311,0,16915986,0.002689,0.004692,0.007721,0.003788,0.004761,0.004715,2.766e-05,4.959e-05,0.01477,0.0007143,9.149,0.04113,0,1,0
89700000000,90000000000,3717263311,0,16915986,0.002724,0.004715,0.007721,0.003197,0.004166,0.004738,9.06e-05,5.054e-05,0.01442,0.01791,9.536,0.04367,0,1,0
90000000000,90300000000,3717263311,0,16915986,0.002792,0.004715,0.007721,0.003315,0.00428,0.004738,3.91e-05,5.054e-05,0.01363,0.001215,10.7,0.04949,0,1,0
90300000000,90600000000,3717263311,0,16915986,0.002663,0.004707,0.007721,0.003426,0.004395,0.004745,5.245e-05,5.054e-05,0.01819,0.004288,9.07,0.04063,0,1,0
90600000000,90900000000,3717263311,0,16915986,0.002773,0.004723,0.007721,0.003601,0.00457,0.004753,0.0001678,5.054e-05,0.01923,0.01556,10.74,0.04895,0,1,0
101100000000,101400000000,3717263311,0,368695836,0.002251,0.00444,0.007744,0.002602,0.003574,0.004456,3.91e-05,9.537e-06,0.0137,0.007217,8.94,0.04035,0,1,0
101400000000,101700000000,3717263311,0,368695836,0.002338,0.004448,0.007744,0.002666,0.003639,0.004471,2.003e-05,9.537e-06,0.0137,0.002178,8.247,0.03663,0,1,0
101700000000,102000000000,3717263311,0,368695836,0.002506,0.004463,0.007744,0.003014,0.003983,0.004486,0.0001259,1.049e-05,0.03876,0.009933,8.36,0.03721,0,1,0
102000000000,102300000000,3717263311,0,368695836,0.002266,0.004463,0.007751,0.002872,0.003841,0.004478,1.335e-05,1.049e-05,0.007874,0.001143,9.08,0.0408,0,1,0
102300000000,102600000000,3717263311,0,368695836,0.002346,0.004471,0.007744,0.002903,0.003876,0.004494,3.91e-05,1.144e-05,0.01779,0.007996,9.204,0.04137,0,1,0
102600000000,102900000000,3717263311,0,368695836,0.002373,0.004478,0.007744,0.002995,0.003967,0.004539,1.431e-05,1.144e-05,0.01241,0.001499,8.955,0.04032,0,1,0
102900000000,103200000000,3717263311,0,368695836,0.002434,0.004494,0.007744,0.002918,0.003887,0.004517,5.627e-05,1.144e-05,0.01175,0.00972,8.698,0.03926,0,1,0
103200000000,103500000000,3717263311,0,368695836,0.002438,0.004501,0.007744,0.002872,0.003845,0.004517,1.812e-05,1.144e-05,0.01079,0.002144,9.812,0.04463,0,1,0
103500000000,103800000000,3717263311,0,368695836,0.002361,0.004501,0.007744,0.002968,0.003937,0.004524,6.104e-05,1.24e-05,0.0121,0.01135,10.42,0.04811,0,1,0
103800000000,104100000000,3717263311,0,368695836,0.002293,0.004509,0.007744,0.003044,0.004013,0.004532,1.144e-05,1.24e-05,0.01079,0.0006428,9.879,0.04486,0,1,0
104100000000,104400000000,3717263311,0,368695836,0.002335,0.004517,0.007744,0.00309,0.004059,0.004532,1.049e-05,1.24e-05,0.01205,0.0006428,8.925,0.03997,0,1,0
104400000000,104700000000,3717263311,0,368695836,0.002399,0.004524,0.007744,0.003208,0.004181,0.004547,5.054e-05,1.24e-05,0.01196,0.01178,8.705,0.03914,0,1,0
104700000000,105000000000,3717263311,0,368695836,0.002346,0.004524,0.007744,0.003273,0.004242,0.004539,6.676e-05,1.24e-05,0.01715,0.01157,10.13,0.04636,0,1,0
105000000000,105300000000,3717263311,0,368695836,0.002354,0.004524,0.007744,0.003384,0.004356,0.004547,1.24e-05,1.335e-05,0.01201,0.0008574,8.125,0.03627,0,1,0
105300000000,105600000000,3717263311,0,368695836,0.002308,0.004524,0.007744,0.003593,0.004562,0.004539,8.774e-05,1.335e-05,0.01895,0.01286,9.635,0.04425,0,1,0
105600000000,105900000000,3717263311,0,368695836,0.002251,0.004524,0.007751,0.003513,0.004486,0.004547,2.575e-05,1.335e-05,0.01123,0.002716,10.56,0.04804,0,1,0
105900000000,106200000000,3717263311,0,368695836,0.002171,0.004524,0.007744,0.003555,0.004524,0.004547,1.144e-05,1.431e-05,0.01083,0.0004997,9.027,0.0407,0,1,0
106200000000,106500000000,3717263311,0,368695836,0.002136,0.004532,0.007751,0.003624,0.004593,0.00457,3.147e-05,1.431e-05,0.01244,0.006783,8.714,0.04029,0,1,0
106500000000,106800000000,3717263311,0,368695836,0.002087,0.004539,0.007751,0.003716,0.004684,0.004562,1.24e-05,1.431e-05,0.008316,0.0008574,9.036,0.04153,0,1,0
106800000000,107100000000,3717263311,0,368695836,0.002136,0.004532,0.007751,0.003757,0.00473,0.004547,1.335e-05,1.431e-05,0.008499,0.001429,9.667,0.04436,0,1,0
107100000000,107400000000,3717263311,0,368695836,0.002628,0.004539,0.007751,0.003784,0.004753,0.004585,1.24e-05,1.431e-05,0.0145,0.0007858,9.318,0.04188,0,1,0
107400000000,107700000000,3717263311,0,368695836,0.002392,0.004555,0.007751,0.003822,0.004791,0.004601,3.815e-05,1.431e-05,0.02295,0.007431,6.116,0.02588,0,1,0
107700000000,108000000000,3717263311,0,368695836,0.001961,0.004547,0.007751,0.003651,0.004623,0.004578,1.717e-05,1.526e-05,0.01106,0.002144,9.398,0.04312,0,1,0
108000000000,108300000000,3717263311,0,368695836,0.002075,0.004555,0.007744,0.003712,0.004684,0.004578,2.575e-05,1.526e-05,0.01038,0.005211,9.19,0.04165,0,1,0
108300000000,108600000000,3717263311,0,368695836,0.001999,0.004555,0.007751,0.003811,0.004784,0.004578,9.537e-06,1.526e-05,0.01073,0.0005713,9.712,0.04416,0,1,0
108600000000,108900000000,3717263311,0,368695836,0.002182,0.004562,0.007751,0.003853,0.004822,0.004585,1.526e-05,1.526e-05,0.009384,0.0007858,9.298,0.04201,0,1,0
108900000000,109200000000,3717263311,0,368695836,0.00209,0.004562,0.007751,0.003975,0.004944,0.004585,7.534e-05,1.526e-05,0.01871,0.017,9.489,0.04304,0,1,0
109200000000,109500000000,3717263311,0,368695836,0.001875,0.004578,0.007751,0.003998,0.004974,0.004585,9.537e-06,1.621e-05,0.007187,0.0004282,9.483,0.04317,0,1,0
109500000000,109800000000,3717263311,0,368695836,0.001987,0.00457,0.007751,0.004005,0.004974,0.004593,1.24e-05,1.621e-05,0.009949,0.0009289,9.564,0.04284,0,1,0
109800000000,110100000000,3717263311,0,368695836,0.002106,0.004562,0.007751,0.004005,0.004982,0.004578,1.526e-05,1.621e-05,0.009537,0.001429,10.54,0.04757,0,1,0
110100000000,110400000000,3717263311,0,368695836,0.002148,0.004578,0.007751,0.003998,0.004967,0.004593,1.24e-05,1.621e-05,0.01122,0.0008574,9.638,0.0434,0,1,0
110400000000,110700000000,3717263311,0,368695836,0.002251,0.004578,0.007744,0.003975,0.004951,0.004601,3.052e-05,1.621e-05,0.01279,0.005074,7.062,0.03031,0,1,0
110700000000,111000000000,3717263311,0,368695836,0.002068,0.00457,0.007744,0.003998,0.004967,0.004593,1.335e-05,1.621e-05,0.01083,0.0007858,9.938,0.04528,0,1,0
116100000000,116400000000,3717263311,0,368695836,0.002026,0.004593,0.007751,0.003712,0.004684,0.004601,0.0001574,1.907e-05,0.01514,0.01657,5.536,0.02242,0,1,0
116400000000,116700000000,3717263311,0,368695836,0.001835,0.004593,0.007751,0.003769,0.004738,0.004601,1.431e-05,1.907e-05,0.01199,0.001143,10.03,0.04487,0,1,0
116700000000,117000000000,3717263311,0,368695836,0.001825,0.004593,0.007751,0.003799,0.004768,0.004608,1.24e-05,1.907e-05,0.008499,0.0008574,9.405,0.04198,0,1,0
117000000000,117300000000,3717263311,0,368695836,0.00198,0.004601,0.007751,0.003746,0.004715,0.004608,1.431e-05,1.907e-05,0.008102,0.0006428,10.15,0.04567,0,1,0
117300000000,117600000000,3717263311,0,368695836,0.001961,0.004585,0.007751,0.003681,0.004654,0.004601,1.049e-05,1.907e-05,0.007469,0.0005713,9.674,0.04323,0,1,0
117600000000,117900000000,3717263311,0,368695836,0.001867,0.004593,0.007751,0.003719,0.004692,0.004608,1.717e-05,1.907e-05,0.01003,0.001785,9.106,0.04048,0,1,0
117900000000,118200000000,3717263311,0,368695836,0.001755,0.004608,0.007751,0.003757,0.00473,0.004608,1.144e-05,1.907e-05,0.008835,0.0004282,9.278,0.04157,0,1,0
118200000000,118500000000,3717263311,0,368695836,0.001837,0.004608,0.007751,0.003792,0.004761,0.004623,1.335e-05,2.003e-05,0.009705,0.0005713,9.971,0.04481,0,1,0
118500000000,118800000000,3717263311,0,368695836,0.001751,0.004601,0.007751,0.003826,0.004799,0.004608,9.537e-06,2.003e-05,0.008957,0.0007858,10.27,0.04688,0,1,0
118800000000,119100000000,3717263311,0,368695836,0.001722,0.004616,0.007751,0.003853,0.004822,0.004623,1.335e-05,2.003e-05,0.006081,0.0008574,9.059,0.04122,0,1,0
119100000000,119400000000,3717263311,0,368695836,0.001781,0.004616,0.007751,0.003883,0.004852,0.004631,1.621e-05,2.003e-05,0.03049,0.0008574,8.779,0.03917,0,1,0
119400000000,119700000000,3717263311,0,368695836,0.001764,0.004608,0.007751,0.003899,0.004868,0.004623,1.335e-05,2.003e-05,0.009232,0.0007143,9.49,0.04312,0,1,0
119700000000,120000000000,3717263311,0,368695836,0.001968,0.004608,0.007751,0.003944,0.004921,0.004616,7.629e-05,2.003e-05,0.01654,0.01764,10.34,0.04576,0,1,0
120000000000,120300000000,3717263311,0,368695836,0.002041,0.004616,0.007751,0.003826,0.004799,0.004623,1.335e-05,2.003e-05,0.01051,0.0006428,10.47,0.04683,0,1,0
120300000000,120600000000,3717263311,0,368695836,0.00178,0.004608,0.007751,0.003819,0.004791,0.004623,1.335e-05,2.003e-05,0.01599,0.0009995,9.756,0.04418,0,1,0
120600000000,120900000000,3717263311,0,368695836,0.001818,0.004585,0.007751,0.003853,0.004829,0.004616,1.24e-05,2.003e-05,0.008163,0.0004997,8.515,0.0391,0,1,0
126000000000,126300000000,3717263311,0,368695836,0.001907,0.004593,0.007751,0.003117,0.004089,0.004601,1.335e-05,2.098e-05,0.008957,0.0006428,10.14,0.04496,0,1,0
126300000000,126600000000,3717263311,0,368695836,0.001883,0.004601,0.007751,0.003151,0.004128,0.004608,1.431e-05,2.098e-05,0.01059,0.001358,10.14,0.04559,0,1,0
126600000000,126900000000,3717263311,0,368695836,0.001877,0.004601,0.007751,0.003189,0.004158,0.004616,1.049e-05,2.098e-05,0.006721,0.0005713,10.51,0.04732,0,1,0
126900000000,127200000000,3717263311,0,368695836,0.002048,0.004593,0.007751,0.003403,0.004372,0.004608,8.297e-05,2.193e-05,0.0412,0.01292,10.15,0.04527,0,1,0
127200000000,127500000000,3717263311,0,368695836,0.001892,0.004585,0.007751,0.003342,0.004311,0.004593,1.049e-05,2.193e-05,0.01068,0.0004282,9.593,0.0431,0,1,0
127500000000,127800000000,3717263311,0,368695836,0.001875,0.004593,0.007751,0.003342,0.004311,0.004601,2.384e-05,2.193e-05,0.01422,0.0009995,10.22,0.04561,0,1,0
127800000000,128100000000,3717263311,0,368695836,0.002041,0.004601,0.007751,0.003376,0.004349,0.004608,2.575e-05,2.193e-05,0.01288,0.001499,10.17,0.04517,0,1,0
128100000000,128400000000,3717263311,0,368695836,0.001881,0.004593,0.007751,0.00341,0.004387,0.004608,1.144e-05,2.193e-05,0.00914,0.0004282,10.09,0.04501,0,1,0
128400000000,128700000000,3717263311,0,368695836,0.002094,0.004578,0.007751,0.003452,0.004425,0.004585,2.003e-05,2.193e-05,0.007965,0.001572,10.26,0.04626,0,1,0
128700000000,129000000000,3717263311,0,368695836,0.002102,0.004578,0.007751,0.003494,0.004471,0.004593,1.049e-05,2.193e-05,0.007935,0.0004282,10.76,0.04764,0,1,0
129000000000,129300000000,3717263311,0,368695836,0.002026,0.004585,0.007751,0.003529,0.004501,0.004601,9.537e-06,2.193e-05,0.009399,0.0005713,10.3,0.04596,0,1,0
129300000000,129600000000,3717263311,0,368695836,0.001965,0.004593,0.007751,0.003563,0.004539,0.004608,3.91e-05,2.193e-05,0.01546,0.008209,9.599,0.04376,0,1,0
129600000000,129900000000,3717263311,0,368695836,0.001881,0.004578,0.007751,0.003674,0.004646,0.004593,1.049e-05,2.289e-05,0.009689,0.0005713,9.032,0.04173,0,1,0
129900000000,130200000000,3717263311,0,368695836,0.001875,0.004585,0.007751,0.003712,0.004684,0.004593,1.24e-05,2.289e-05,0.01268,0.0005713,9.62,0.04492,0,1,0
130200000000,130500000000,3717263311,0,368695836,0.001976,0.004585,0.007751,0.003754,0.004723,0.004616,1.431e-05,2.193e-05,0.0184,0.0007143,9.716,0.04499,0,1,0
130500000000,130800000000,3717263311,0,368695836,0.002094,0.00457,0.007751,0.003937,0.004906,0.004593,6.294e-05,2.193e-05,0.02441,0.01508,9.99,0.04627,0,1,0
130800000000,131100000000,3717263311,0,368695836,0.001972,0.004585,0.007751,0.003841,0.004814,0.004593,2.384e-05,2.193e-05,0.01103,0.0008574,9.342,0.04291,0,1,0
141000000000,141300000000,3717263311,0,368695836,0.002964,0.004463,0.007744,0.004097,0.005074,0.004486,6.58e-05,2.766e-05,0.01727,0.01064,8.452,0.03832,0,1,0
141300000000,141600000000,3717263311,0,368695836,0.002968,0.004456,0.007744,0.004044,0.005013,0.004478,9.727e-05,2.766e-05,0.05676,0.02029,7.685,0.0341,0,1,0
141600000000,141900000000,3717263311,0,368695836,0.002834,0.004433,0.007744,0.003754,0.004723,0.004448,5.531e-05,2.766e-05,0.01176,0.005287,7.849,0.03508,0,1,0
141900000000,142200000000,3717263311,0,368695836,0.003128,0.004486,0.007744,0.003883,0.004852,0.004654,8.392e-05,2.766e-05,0.04022,0.01164,6.973,0.03016,0,1,0
142200000000,142500000000,3717263311,0,368695836,0.003105,0.004501,0.007744,0.003433,0.004402,0.004524,6.199e-05,2.861e-05,0.01262,0.009506,8.754,0.0396,0,1,0
142500000000,142800000000,3717263311,0,368695836,0.003124,0.004494,0.007744,0.003395,0.004372,0.004517,3.624e-05,2.861e-05,0.01474,0.004501,8.067,0.03575,0,1,0
142800000000,143100000000,3717263311,0,368695836,0.003075,0.004471,0.007744,0.003548,0.004517,0.004501,4.578e-05,2.956e-05,0.01242,0.005714,8.083,0.03582,0,1,0
143100000000,143400000000,3717263311,0,368695836,0.003235,0.004448,0.007744,0.003708,0.004677,0.004471,3.719e-05,2.956e-05,0.02252,0.004211,8.296,0.03641,0,1,0
143400000000,143700000000,3717263311,0,368695836,0.003128,0.004448,0.007744,0.003841,0.004814,0.004463,7.534e-05,2.956e-05,0.02426,0.009567,8.582,0.0382,0,1,0
143700000000,144000000000,3717263311,0,368695836,0.002979,0.004433,0.007744,0.003975,0.004944,0.004448,1.907e-05,3.052e-05,0.01807,0.0005713,7.896,0.03498,0,1,0
144000000000,144300000000,3717263311,0,368695836,0.003052,0.004433,0.007744,0.004028,0.004997,0.004448,3.815e-05,3.052e-05,0.03723,0.005074,7.763,0.03401,0,1,0
144300000000,144600000000,3717263311,0,368695836,0.002987,0.00444,0.007744,0.003929,0.004898,0.004463,5.531e-05,3.052e-05,0.03079,0.008575,7.94,0.03519,0,1,0
144600000000,144900000000,3717263311,0,368695836,0.002949,0.004456,0.007744,0.004082,0.005051,0.004478,3.338e-05,3.052e-05,0.02521,0.004501,7.857,0.03483,0,1,0
144900000000,145200000000,3717263311,0,368695836,0.003132,0.00444,0.007744,0.004128,0.005096,0.004456,9.727e-05,3.052e-05,0.02798,0.01779,9.022,0.04092,0,1,0
145200000000,145500000000,3717263311,0,368695836,0.002991,0.00444,0.007744,0.004128,0.005096,0.004456,4.292e-05,3.147e-05,0.03204,0.00486,9.326,0.04229,0,1,0
145500000000,145800000000,3717263311,0,368695836,0.003181,0.004456,0.007736,0.004105,0.005081,0.004486,5.817e-05,3.147e-05,0.01782,0.006569,7.293,0.0321,0,1,0
145800000000,146100000000,3717263311,0,368695836,0.003098,0.004448,0.007744,0.004112,0.005081,0.004486,5.436e-05,3.147e-05,0.01825,0.003998,7.63,0.03389,0,1,0
151200000000,151500000000,3717263311,0,368695836,0.003284,0.004562,0.007744,0.004005,0.004974,0.00457,5.531e-05,3.719e-05,0.01642,0.0065,8.324,0.03752,0,1,0
151500000000,151800000000,3717263311,0,368695836,0.003132,0.004555,0.007744,0.004005,0.004974,0.00457,5.054e-05,3.815e-05,0.01584,0.005859,8.243,0.03703,0,1,0
151800000000,152100000000,3717263311,0,368695836,0.003197,0.004562,0.007744,0.003998,0.004967,0.004578,7.82e-05,3.815e-05,0.03546,0.01215,8.528,0.03848,0,1,0
152100000000,152400000000,3717263311,0,368695836,0.003284,0.004562,0.007744,0.003906,0.004875,0.004578,0.0001421,3.815e-05,0.06848,0.02908,8.657,0.03923,0,1,0
152400000000,152700000000,3717263311,0,368695836,0.004036,0.004593,0.007736,0.003635,0.004608,0.004707,0.0004473,3.815e-05,0.03766,0.01207,8.488,0.0378,0,1,0
152700000000,153000000000,3717263311,0,368695836,0.003407,0.004639,0.007736,0.003807,0.004776,0.004677,0.0001173,3.815e-05,0.03534,0.007355,8.459,0.03791,0,1,0
153000000000,153300000000,3717263311,0,368695836,0.003498,0.004654,0.007744,0.00388,0.004852,0.004669,0.0001554,3.91e-05,0.01436,0.007072,9.142,0.04098,0,1,0
153300000000,153600000000,3717263311,0,368695836,0.003651,0.004639,0.007729,0.003849,0.004822,0.004662,0.0002689,3.91e-05,0.02911,0.009995,10.56,0.04899,0,1,0
153600000000,153900000000,3717263311,0,368695836,0.003132,0.004623,0.007744,0.003914,0.004883,0.004639,5.722e-05,3.91e-05,0.01691,0.007858,8.546,0.03858,0,1,0
153900000000,154200000000,3717263311,0,368695836,0.003235,0.004601,0.007744,0.003952,0.004929,0.004623,5.913e-05,4.005e-05,0.01819,0.005432,8.872,0.04067,0,1,0
154200000000,154500000000,3717263311,0,368695836,0.003136,0.004585,0.007744,0.003975,0.004944,0.004601,8.965e-05,4.005e-05,0.0143,0.0105,8.534,0.03888,0,1,0
154500000000,154800000000,3717263311,0,368695836,0.003159,0.004562,0.007744,0.003914,0.004883,0.004585,5.436e-05,4.005e-05,0.01427,0.0009995,8.735,0.03975,0,1,0
154800000000,155100000000,3717263311,0,368695836,0.003246,0.004555,0.007744,0.003834,0.004807,0.004585,9.537e-05,4.005e-05,0.02335,0.01007,7.3,0.03261,0,1,0
155100000000,155400000000,3717263311,0,368695836,0.003174,0.004562,0.007736,0.00399,0.004967,0.004585,9.918e-05,4.101e-05,0.01691,0.006569,7.413,0.03281,0,1,0
155400000000,155700000000,3717263311,0,368695836,0.00304,0.00457,0.007744,0.003998,0.004967,0.004585,4.864e-05,4.101e-05,0.01183,0.002285,8.605,0.03902,0,1,0
155700000000,156000000000,3717263311,0,368695836,0.003231,0.004562,0.007744,0.003983,0.004951,0.004578,9.346e-05,4.101e-05,0.03259,0.008636,8.184,0.0365,0,1,0
161100000000,161400000000,3717263311,0,368695836,0.003059,0.004608,0.007744,0.003952,0.004929,0.004623,6.866e-05,4.578e-05,0.01495,0.008423,8.828,0.03931,0,1,0
161400000000,161700000000,3717263311,0,368695836,0.00304,0.004601,0.007744,0.003967,0.004936,0.004616,3.433e-05,4.578e-05,0.01237,0.0009995,8.625,0.03833,0,1,0
161700000000,162000000000,3717263311,0,368695836,0.003094,0.004608,0.007744,0.003967,0.004936,0.004623,9.823e-05,4.578e-05,0.01965,0.01372,8.217,0.03608,0,1,0
162000000000,162300000000,3717263311,0,368695836,0.003033,0.004608,0.007744,0.003967,0.004936,0.004616,5.341e-05,4.673e-05,0.02267,0.004929,8.56,0.03811,0,1,0
162300000000,162600000000,3717263311,0,368695836,0.003075,0.004608,0.007744,0.003952,0.004929,0.004616,5.913e-05,4.578e-05,0.02484,0.004425,8.776,0.03895,0,1,0
162600000000,162900000000,3717263311,0,368695836,0.002911,0.004608,0.007744,0.00396,0.004929,0.004616,9.537e-05,4.578e-05,0.01926,0.007072,8.22,0.03618,0,1,0
162900000000,163200000000,3717263311,0,368695836,0.002937,0.004608,0.007744,0.003967,0.004936,0.004616,0.0001698,4.673e-05,0.07422,0.01042,8.649,0.03868,0,1,0
163200000000,163500000000,3717263311,0,368695836,0.002834,0.004608,0.007744,0.00396,0.004929,0.004623,6.58e-05,4.673e-05,0.01381,0.004646,8.843,0.03992,0,1,0
163500000000,163800000000,3717263311,0,368695836,0.002907,0.004608,0.007744,0.00362,0.004593,0.004631,9.727e-05,4.673e-05,0.02106,0.007286,9.302,0.04171,0,1,0
163800000000,164100000000,3717263311,0,368695836,0.002792,0.004616,0.007744,0.003628,0.004601,0.004631,4.292e-05,4.768e-05,0.01392,0.001358,8.972,0.04047,0,1,0
164100000000,164400000000,3717263311,0,368695836,0.00272,0.004616,0.007744,0.003719,0.004692,0.004623,6.294e-05,4.768e-05,0.01752,0.004143,9.086,0.04113,0,1,0
164400000000,164700000000,3717263311,0,368695836,0.00275,0.004608,0.007751,0.003849,0.004822,0.004623,5.054e-05,4.768e-05,0.01639,0.001999,9.013,0.04051,0,1,0
164700000000,165000000000,3717263311,0,368695836,0.002705,0.004608,0.007744,0.003944,0.004921,0.004616,7.153e-05,4.864e-05,0.01047,0.006432,8.072,0.0358,0,1,0
165000000000,165300000000,3717263311,0,368695836,0.002678,0.004631,0.007744,0.003937,0.004913,0.004654,6.485e-05,4.864e-05,0.03455,0.006218,7.35,0.03236,0,1,0
165300000000,165600000000,3717263311,0,368695836,0.002724,0.004623,0.007744,0.003937,0.004913,0.004646,5.627e-05,4.864e-05,0.01476,0.005646,8.4,0.03771,0,1,0
165600000000,165900000000,3717263311,0,368695836,0.002811,0.004623,0.007744,0.003944,0.004913,0.004639,8.869e-05,4.864e-05,0.0148,0.01007,8.484,0.0377,0,1,0
165900000000,166200000000,3717263311,0,368695836,0.002964,0.004639,0.007744,0.003929,0.004898,0.004662,7.248e-05,4.864e-05,0.01132,0.007072,8.161,0.03626,0,1,0
166200000000,166500000000,3717263311,0,368695836,0.003002,0.004631,0.007744,0.003937,0.004913,0.004654,6.676e-05,4.864e-05,0.01215,0.001785,8.683,0.03901,0,1,0
166500000000,166800000000,3717263311,0,368695836,0.00288,0.004623,0.007744,0.00388,0.004852,0.004639,0.0001459,4.959e-05,0.02289,0.01335,9.729,0.04492,0,1,0
166800000000,167100000000,3717263311,0,368695836,0.003048,0.004623,0.007744,0.003803,0.004776,0.004631,4.768e-05,4.959e-05,0.01718,0.0007143,9.041,0.04134,0,1,0
167100000000,167400000000,3717263311,0,368695836,0.003235,0.004631,0.007744,0.003876,0.004845,0.004662,6.676e-05,4.959e-05,0.03473,0.006287,10.27,0.04751,0,1,0
167400000000,167700000000,3717263311,0,368695836,0.003124,0.004631,0.007744,0.003922,0.00489,0.004639,6.676e-05,4.959e-05,0.01399,0.004425,8.602,0.03895,0,1,0
167700000000,168000000000,3717263311,0,368695836,0.0028,0.004639,0.007744,0.003922,0.004898,0.004654,6.485e-05,5.054e-05,0.01678,0.005501,8.997,0.04128,0,1,0
168000000000,168300000000,3717263311,0,368695836,0.002998,0.004631,0.007744,0.003937,0.004913,0.004654,5.531e-05,5.054e-05,0.01291,0.001215,9.321,0.04263,0,1,0
168300000000,168600000000,3717263311,0,368695836,0.003326,0.004662,0.007744,0.003906,0.004875,0.004684,0.000104,5.054e-05,0.01758,0.01028,8.57,0.03873,0,1,0
168600000000,168900000000,3717263311,0,368695836,0.002777,0.004639,0.007744,0.003929,0.004898,0.004654,3.052e-05,5.054e-05,0.01389,0.0009995,9.164,0.04239,0,1,0
168900000000,169200000000,3717263311,0,368695836,0.002796,0.004639,0.007744,0.003712,0.004684,0.004646,7.153e-05,5.054e-05,0.01678,0.007286,8.757,0.04036,0,1,0
169200000000,169500000000,3717263311,0,368695836,0.002796,0.004639,0.007744,0.003719,0.004692,0.004654,4.292e-05,5.054e-05,0.01382,0.001999,8.612,0.03913,0,1,0
169500000000,169800000000,3717263311,0,368695836,0.002701,0.004646,0.007744,0.00386,0.004829,0.004669,5.817e-05,5.15e-05,0.01163,0.008499,9.3,0.04279,0,1,0
169800000000,170100000000,3717263311,0,368695836,0.002552,0.004654,0.007744,0.003914,0.00489,0.004662,5.054e-05,5.15e-05,0.03076,0.004425,9.484,0.04416,0,1,0
170100000000,170400000000,3717263311,0,368695836,0.002945,0.004646,0.007744,0.003906,0.004875,0.004662,0.000351,5.15e-05,0.01971,0.02029,7.838,0.03481,0,1,0
170400000000,170700000000,3717263311,0,368695836,0.002483,0.004654,0.007744,0.003922,0.00489,0.004669,4.196e-05,5.15e-05,0.01302,0.002144,9.76,0.04562,0,1,0
170700000000,171000000000,3717263311,0,368695836,0.002499,0.004662,0.007744,0.003857,0.004829,0.004692,3.242e-05,5.15e-05,0.02225,0.001072,7.461,0.03351,0,1,0
171000000000,171300000000,3717263311,0,368695836,0.002422,0.004662,0.007744,0.003788,0.004761,0.004684,6.485e-05,5.245e-05,0.01434,0.009933,8.677,0.03984,0,1,0
171300000000,171600000000,3717263311,0,368695836,0.002434,0.004654,0.007744,0.003857,0.004829,0.004662,3.242e-05,5.245e-05,0.01102,0.001215,8.646,0.04006,0,1,0
171600000000,171900000000,3717263311,0,368695836,0.002357,0.004654,0.007744,0.003899,0.004875,0.004684,5.054e-05,5.245e-05,0.01215,0.006073,8.67,0.04015,0,1,0
171900000000,172200000000,3717263311,0,368695836,0.002586,0.004684,0.007744,0.003616,0.004593,0.0047,2.956e-05,5.245e-05,0.01273,0.0008574,9.371,0.04328,0,1,0
172200000000,172500000000,3717263311,0,368695836,0.002434,0.004662,0.007744,0.003735,0.004707,0.004684,4.578e-05,5.245e-05,0.01213,0.006287,8.215,0.03764,0,1,0
172500000000,172800000000,3717263311,0,368695836,0.002506,0.004669,0.007744,0.003819,0.004791,0.004692,2.956e-05,5.245e-05,0.03271,0.0008574,8.422,0.03835,0,1,0
172800000000,173100000000,3717263311,0,368695836,0.002434,0.004669,0.007744,0.00388,0.004852,0.004677,4.864e-05,5.245e-05,0.01285,0.004715,9.559,0.04431,0,1,0
173100000000,173400000000,3717263311,0,368695836,0.002373,0.004662,0.007744,0.003906,0.004875,0.004677,2.575e-05,5.245e-05,0.01454,0.001286,8.743,0.03996,0,1,0
173400000000,173700000000,3717263311,0,368695836,0.00259,0.004669,0.007744,0.003891,0.00486,0.004692,7.629e-05,5.341e-05,0.01526,0.01015,7.079,0.03125,0,1,0
173700000000,174000000000,3717263311,0,368695836,0.002472,0.004662,0.007744,0.003902,0.004875,0.004677,0.000104,5.341e-05,0.03888,0.0145,8.571,0.03917,0,1,0
174000000000,174300000000,3717263311,0,368695836,0.00243,0.004662,0.007744,0.003914,0.004883,0.004677,2.956e-05,5.341e-05,0.01193,0.0008574,9.428,0.04384,0,1,0
174300000000,174600000000,3717263311,0,368695836,0.00246,0.004662,0.007744,0.003906,0.004883,0.004677,3.91e-05,5.341e-05,0.01596,0.005432,7.698,0.03464,0,1,0
174600000000,174900000000,3717263311,0,368695836,0.002522,0.004669,0.007744,0.003803,0.004776,0.004684,6.866e-05,5.436e-05,0.01401,0.01129,8.223,0.03697,0,1,0
174900000000,175200000000,3717263311,0,368695836,0.002495,0.004662,0.007744,0.003838,0.004807,0.004677,5.245e-05,5.436e-05,0.01669,0.008926,7.551,0.03367,0,1,0
175200000000,175500000000,3717263311,0,368695836,0.002449,0.004662,0.007744,0.003914,0.004883,0.004669,4.196e-05,5.436e-05,0.01236,0.001358,8.711,0.03962,0,1,0
175800000000,176100000000,3717263311,0,1271484,0.00272,0.004478,0.007935,0.002129,0.003029,0.007385,0.000432,8.583e-06,0.1406,0.02887,7.957,0.03475,0,1,0
186300000000,186600000000,3717263311,0,1271484,0.002468,0.004059,0.007721,0.003181,0.003841,0.004097,6.294e-05,1.621e-05,0.01329,0.004288,7.857,0.03365,0,1,0
186600000000,186900000000,3717263311,0,1271484,0.0023,0.004051,0.007721,0.003254,0.003906,0.004066,4.387e-05,1.621e-05,0.01123,0.003071,8.008,0.03364,0,1,0
186900000000,187200000000,3717263311,0,1271484,0.002304,0.004036,0.007729,0.003319,0.003967,0.004066,7.248e-05,1.621e-05,0.01404,0.003143,7.471,0.03165,0,1,0
187200000000,187500000000,3717263311,0,1271484,0.002487,0.004036,0.007729,0.003418,0.004066,0.004074,6.008e-05,1.717e-05,0.02164,0.002499,7.283,0.02985,0,1,0
187500000000,187800000000,3717263311,0,1271484,0.002449,0.004028,0.007729,0.003494,0.004143,0.004066,8.965e-05,1.717e-05,0.01343,0.007568,7.948,0.03236,0,1,0
187800000000,188100000000,3717263311,0,1271484,0.002266,0.004036,0.007729,0.003559,0.004204,0.004066,1.335e-05,1.717e-05,0.01558,0.0008574,8.128,0.03645,0,1,0
188100000000,188400000000,3717263311,0,1271484,0.002522,0.004044,0.007721,0.003662,0.004303,0.004074,3.242e-05,1.717e-05,0.01451,0.005569,8.126,0.03197,0,1,0
188400000000,188700000000,3717263311,0,1271484,0.002483,0.004036,0.007729,0.003712,0.004356,0.004066,2.67e-05,1.717e-05,0.01251,0.00243,9.23,0.03818,0,1,0
188700000000,189000000000,3717263311,0,1271484,0.002522,0.004051,0.007729,0.003902,0.004547,0.004074,7.629e-05,1.812e-05,0.04749,0.008209,8.922,0.03709,0,1,0
189000000000,189300000000,3717263311,0,1271484,0.00246,0.004051,0.007729,0.004036,0.004684,0.004082,9.537e-06,1.812e-05,0.01169,0.0005713,8.132,0.03295,0,1,0
189300000000,189600000000,3717263311,0,1271484,0.002354,0.004059,0.007729,0.003788,0.004433,0.004082,5.341e-05,1.907e-05,0.01178,0.006073,8.712,0.03675,0,1,0
189600000000,189900000000,3717263311,0,1271484,0.00248,0.004044,0.007721,0.003731,0.004379,0.004097,2.766e-05,1.907e-05,0.03247,0.005074,6.645,0.02654,0,1,0
189900000000,190200000000,3717263311,0,1271484,0.00238,0.004044,0.007729,0.003838,0.004478,0.004066,1.049e-05,1.907e-05,0.01807,0.0004282,7.869,0.03218,0,1,0
190200000000,190500000000,3717263311,0,1271484,0.002205,0.004044,0.007721,0.003872,0.004517,0.004074,3.91e-05,1.907e-05,0.01064,0.006355,8.139,0.03371,0,1,0
190500000000,190800000000,3717263311,0,1271484,0.002163,0.004059,0.007729,0.003952,0.004601,0.004082,1.24e-05,1.907e-05,0.0123,0.0007858,8.87,0.0375,0,1,0
190800000000,191100000000,3717263311,0,1271484,0.002216,0.004059,0.007729,0.003983,0.004623,0.004089,1.526e-05,2.003e-05,0.0118,0.0007143,8.519,0.03708,0,1,0
191100000000,191400000000,3717263311,0,1271484,0.002216,0.004059,0.007729,0.004021,0.004669,0.004066,1.812e-05,2.003e-05,0.00708,0.002785,9.002,0.03901,0,1,0
191400000000,191700000000,3717263311,0,1271484,0.002232,0.004059,0.007729,0.004128,0.004768,0.004074,2.956e-05,2.003e-05,0.01537,0.003216,8.855,0.038,0,1,0
191700000000,192000000000,3717263311,0,1271484,0.002232,0.004051,0.007729,0.004181,0.004829,0.004066,1.431e-05,2.003e-05,0.01236,0.0005713,8.877,0.03817,0,1,0
192000000000,192300000000,3717263311,0,1271484,0.002228,0.004044,0.007721,0.004143,0.004784,0.004158,6.008e-05,2.003e-05,0.1907,0.003071,7.546,0.03201,0,1,0
192300000000,192600000000,3717263311,0,1271484,0.002205,0.004051,0.007721,0.004166,0.004807,0.004074,9.155e-05,2.098e-05,0.02347,0.003357,6.933,0.0293,0,1,0
192600000000,192900000000,3717263311,0,1271484,0.002155,0.004059,0.007721,0.003799,0.004448,0.004089,2.003e-05,2.098e-05,0.009521,0.0006428,8.207,0.03479,0,1,0
192900000000,193200000000,3717263311,0,1271484,0.002243,0.004044,0.007729,0.003742,0.004387,0.004066,2.193e-05,2.098e-05,0.01204,0.002071,8.991,0.03817,0,1,0
193200000000,193500000000,3717263311,0,1271484,0.002243,0.004036,0.007721,0.003784,0.004425,0.004082,2.098e-05,2.098e-05,0.01093,0.002499,8.003,0.03357,0,1,0
193500000000,193800000000,3717263311,0,1271484,0.00209,0.003792,0.007729,0.003864,0.004509,0.003807,4.101e-05,2.098e-05,0.01385,0.005859,8.295,0.03529,0,1,0
193800000000,194100000000,3717263311,0,1271484,0.002132,0.003788,0.007721,0.003937,0.004578,0.003799,2.289e-05,2.098e-05,0.008942,0.002213,9.195,0.03947,0,1,0
194100000000,194400000000,3717263311,0,1271484,0.00198,0.003777,0.007729,0.003967,0.004616,0.003784,1.717e-05,2.098e-05,0.01257,0.0004997,8.252,0.03501,0,1,0
194400000000,194700000000,3717263311,0,1271484,0.002087,0.003765,0.007729,0.004005,0.004654,0.00378,2.289e-05,2.098e-05,0.01137,0.003429,8.517,0.03606,0,1,0
194700000000,195000000000,3717263311,0,1271484,0.002064,0.003754,0.007729,0.004089,0.004738,0.003765,7.248e-05,2.193e-05,0.01242,0.003784,9.087,0.0388,0,1,0
195000000000,195300000000,3717263311,0,1271484,0.002102,0.00375,0.007729,0.00415,0.004799,0.003757,2.575e-05,2.193e-05,0.01492,0.001215,8.091,0.03425,0,1,0
195300000000,195600000000,3717263311,0,1271484,0.001999,0.003746,0.007729,0.004166,0.004807,0.003754,2.956e-05,2.193e-05,0.01056,0.002857,8.282,0.03469,0,1,0
195600000000,195900000000,3717263311,0,1271484,0.002068,0.003742,0.007729,0.004181,0.004829,0.003754,9.06e-05,2.193e-05,0.01274,0.003284,9.077,0.03821,0,1,0
195900000000,196200000000,3717263311,0,1271484,0.002209,0.003735,0.007729,0.004265,0.004913,0.003746,9.727e-05,2.193e-05,0.08606,0.003689,6.872,0.02726,0,1,0
201300000000,201600000000,3717263311,0,1271484,0.001825,0.003727,0.007729,0.004333,0.004982,0.003731,1.526e-05,2.384e-05,0.007149,0.001572,8.256,0.03689,0,1,0
201600000000,201900000000,3717263311,0,1271484,0.00185,0.003723,0.007729,0.003284,0.003929,0.003735,1.431e-05,2.384e-05,0.01411,0.0006428,8.873,0.04021,0,1,0
201900000000,202200000000,3717263311,0,1271484,0.001827,0.003723,0.007729,0.003155,0.003799,0.003731,1.335e-05,2.289e-05,0.01018,0.0007143,8.771,0.03971,0,1,0
202200000000,202500000000,3717263311,0,1271484,0.001892,0.003719,0.007729,0.002907,0.003551,0.003727,1.144e-05,2.289e-05,0.009796,0.0006428,8.446,0.0381,0,1,0
202500000000,202800000000,3717263311,0,1271484,0.002048,0.003719,0.007729,0.002922,0.003567,0.003727,2.384e-05,2.289e-05,0.007568,0.003429,9.797,0.04457,0,1,0
202800000000,203100000000,3717263311,0,1271484,0.001862,0.003719,0.007729,0.002964,0.003609,0.003723,5.245e-05,2.289e-05,0.008469,0.003502,9.281,0.0423,0,1,0
203100000000,203400000000,3717263311,0,1271484,0.001873,0.003719,0.007729,0.003139,0.003784,0.003727,6.008e-05,2.289e-05,0.01476,0.01064,9.001,0.04015,0,1,0
203400000000,203700000000,3717263311,0,1271484,0.001896,0.003693,0.007729,0.003128,0.003777,0.003727,4.768e-05,2.384e-05,0.008087,0.008636,8.813,0.04068,0,1,0
203700000000,204000000000,3717263311,0,1271484,0.001917,0.003666,0.007729,0.003136,0.003784,0.003677,4.196e-05,2.384e-05,0.01813,0.008789,9.117,0.04076,0,1,0
204000000000,204300000000,3717263311,0,1271484,0.001909,0.003677,0.007729,0.003178,0.003826,0.003689,1.335e-05,2.384e-05,0.00724,0.0006428,8.818,0.04005,0,1,0
204300000000,204600000000,3717263311,0,1271484,0.001991,0.003693,0.007729,0.003216,0.003864,0.003696,1.526e-05,2.384e-05,0.009476,0.001215,9.361,0.04257,0,1,0
204600000000,204900000000,3717263311,0,1271484,0.001965,0.003693,0.007729,0.00325,0.003899,0.003696,1.144e-05,2.384e-05,0.01112,0.0005713,9.344,0.04259,0,1,0
204900000000,205200000000,3717263311,0,1271484,0.001972,0.003693,0.007729,0.003288,0.003937,0.0037,1.24e-05,2.384e-05,0.007545,0.0005713,9.51,0.04267,0,1,0
205200000000,205500000000,3717263311,0,1271484,0.001945,0.0037,0.007729,0.003323,0.003975,0.003712,1.431e-05,2.384e-05,0.009384,0.001215,8.906,0.04064,0,1,0
205500000000,205800000000,3717263311,0,1271484,0.001944,0.003719,0.007729,0.003361,0.004013,0.003735,9.537e-06,2.384e-05,0.01137,0.0002861,8.265,0.03739,0,1,0
205800000000,206100000000,3717263311,0,1271484,0.00198,0.003754,0.007729,0.003445,0.004097,0.003773,4.101e-05,2.48e-05,0.009491,0.005432,8.009,0.03651,0,1,0
206100000000,206400000000,3717263311,0,1271484,0.001976,0.003769,0.007729,0.00351,0.004158,0.003773,8.583e-06,2.48e-05,0.01016,0.0004282,9.08,0.04129,0,1,0
206400000000,206700000000,3717263311,0,1271484,0.001923,0.003777,0.007729,0.003548,0.004196,0.00378,1.144e-05,2.48e-05,0.04193,0.0006428,8.951,0.04098,0,1,0
206700000000,207000000000,3717263311,0,1271484,0.001905,0.003777,0.007729,0.003574,0.004219,0.00378,6.199e-05,2.384e-05,0.01302,0.01257,9.583,0.04405,0,1,0
207000000000,207300000000,3717263311,0,1271484,0.001862,0.003777,0.007729,0.003349,0.003998,0.00378,1.049e-05,2.384e-05,0.009811,0.0005713,8.842,0.041,0,1,0
207300000000,207600000000,3717263311,0,1271484,0.001888,0.00378,0.007729,0.003372,0.004021,0.003788,7.629e-06,2.384e-05,0.00975,0.0003567,8.753,0.04053,0,1,0
207600000000,207900000000,3717263311,0,1271484,0.001877,0.003784,0.007729,0.00341,0.004059,0.003792,2.003e-05,2.384e-05,0.01118,0.003502,8.927,0.04156,0,1,0
207900000000,208200000000,3717263311,0,1271484,0.00172,0.003788,0.007729,0.003448,0.004097,0.003796,1.049e-05,2.48e-05,0.009247,0.0009289,7.921,0.03546,0,1,0
208200000000,208500000000,3717263311,0,1271484,0.001682,0.003788,0.007729,0.003487,0.004135,0.003796,1.907e-05,2.48e-05,0.01357,0.001286,8.343,0.03726,0,1,0
208500000000,208800000000,3717263311,0,1271484,0.001781,0.003792,0.007729,0.003525,0.004173,0.003799,1.621e-05,2.48e-05,0.007233,0.001999,8.727,0.04236,0,1,0
208800000000,209100000000,3717263311,0,1271484,0.001778,0.003796,0.007729,0.003563,0.004211,0.003807,9.537e-06,2.48e-05,0.01514,0.0005713,8.622,0.04244,0,1,0
209100000000,209400000000,3717263311,0,1271484,0.001772,0.003788,0.007729,0.003597,0.00425,0.003807,9.537e-06,2.48e-05,0.009201,0.0004282,8.351,0.04125,0,1,0
209400000000,209700000000,3717263311,0,1271484,0.001768,0.003738,0.007729,0.003635,0.004288,0.003746,1.144e-05,2.48e-05,0.007408,0.001072,8.863,0.0436,0,1,0
209700000000,210000000000,3717263311,0,1271484,0.001802,0.003742,0.007729,0.003674,0.004326,0.00375,8.583e-06,2.48e-05,0.01418,0.0003567,8.623,0.04249,0,1,0
210000000000,210300000000,3717263311,0,1271484,0.001791,0.00375,0.007729,0.003712,0.004364,0.003757,8.583e-06,2.48e-05,0.01205,0.0004282,8.421,0.04163,0,1,0
210300000000,210600000000,3717263311,0,1271484,0.001783,0.00375,0.007729,0.00378,0.004425,0.003757,0.0001068,2.48e-05,0.03717,0.003929,5.647,0.02394,0,1,0
210600000000,210900000000,3717263311,0,1271484,0.001926,0.00375,0.007729,0.003811,0.004463,0.003754,1.526e-05,2.575e-05,0.01115,0.001642,9.382,0.04133,0,1,0
210900000000,211200000000,3717263311,0,1271484,0.001877,0.003754,0.007729,0.003853,0.004501,0.003757,9.537e-06,2.575e-05,0.006683,0.0005713,8.501,0.03592,0,1,0
211200000000,211500000000,3717263311,0,1271484,0.001835,0.003754,0.007729,0.003891,0.004539,0.003761,1.431e-05,2.575e-05,0.03564,0.001715,8.895,0.03915,0,1,0
211500000000,211800000000,3717263311,0,1271484,0.001839,0.003761,0.007729,0.003929,0.004578,0.003769,9.537e-06,2.575e-05,0.05652,0.0004997,8.675,0.03732,0,1,0
211800000000,212100000000,3717263311,0,1271484,0.001879,0.003765,0.007729,0.003967,0.004616,0.003769,2.193e-05,2.48e-05,0.09375,0.0004997,9.039,0.03775,0,1,0
212100000000,212400000000,3717263311,0,1271484,0.001976,0.003769,0.007729,0.003914,0.004562,0.003777,1.812e-05,2.48e-05,0.01093,0.001785,9.593,0.04199,0,1,0
212400000000,212700000000,3717263311,0,1271484,0.00201,0.003773,0.007729,0.003662,0.004311,0.00378,1.24e-05,2.48e-05,0.01651,0.0006428,9.249,0.04089,0,1,0
212700000000,213000000000,3717263311,0,1271484,0.002117,0.003765,0.007729,0.0037,0.004349,0.003788,8.583e-06,2.48e-05,0.01155,0.0003567,8.701,0.03722,0,1,0
213000000000,213300000000,3717263311,0,1271484,0.002048,0.00375,0.007729,0.003735,0.004387,0.003757,1.526e-05,2.575e-05,0.01398,0.001499,9.023,0.03941,0,1,0
213300000000,213600000000,3717263311,0,1271484,0.00193,0.003757,0.007729,0.003769,0.004417,0.003765,2.766e-05,2.575e-05,0.007828,0.003071,8.421,0.03642,0,1,0
213600000000,213900000000,3717263311,0,1271484,0.002491,0.003754,0.007729,0.003799,0.004448,0.003761,2.098e-05,2.575e-05,0.01053,0.002285,12.06,0.04762,0,1,0
213900000000,214200000000,3717263311,0,1271484,0.002323,0.003765,0.007729,0.003857,0.004509,0.003777,6.294e-05,2.575e-05,0.02518,0.01028,10.38,0.04298,0,1,0
214200000000,214500000000,3717263311,0,1271484,0.001917,0.003777,0.007729,0.003906,0.004555,0.003784,1.431e-05,2.575e-05,0.008118,0.002213,8.778,0.03707,0,1,0
214500000000,214800000000,3717263311,0,1271484,0.001947,0.00378,0.007729,0.003944,0.004593,0.003788,2.003e-05,2.575e-05,0.01041,0.002213,9.004,0.03777,0,1,0
214800000000,215100000000,3717263311,0,1271484,0.001938,0.003784,0.007729,0.00399,0.004639,0.003792,2.48e-05,2.575e-05,0.03528,0.004784,7.479,0.03204,0,1,0
215100000000,215400000000,3717263311,0,1271484,0.001972,0.003792,0.007729,0.003983,0.004631,0.003799,1.049e-05,2.575e-05,0.01033,0.0003567,8.863,0.0361,0,1,0
215400000000,215700000000,3717263311,0,1271484,0.001944,0.003799,0.007729,0.004013,0.004662,0.003807,1.335e-05,2.575e-05,0.01112,0.001499,8.7,0.03627,0,1,0
215700000000,216000000000,3717263311,0,1271484,0.002125,0.003799,0.007729,0.004044,0.004692,0.003803,1.144e-05,2.67e-05,0.01167,0.0007858,9.108,0.03724,0,1,0
216000000000,216300000000,3717263311,0,1271484,0.002251,0.003807,0.007729,0.004051,0.0047,0.003815,3.242e-05,2.67e-05,0.01202,0.006218,9.269,0.03942,0,1,0
221100000000,221400000000,3717263311,0,1271484,0.002563,0.003822,0.007721,0.004318,0.004967,0.003845,0.0001135,2.766e-05,0.01788,0.009567,8.328,0.03447,0,1,0
221400000000,221700000000,3717263311,0,1271484,0.002525,0.00383,0.007721,0.004166,0.004814,0.00386,1.431e-05,2.766e-05,0.01334,0.0009289,7.909,0.03322,0,1,0
221700000000,222000000000,3717263311,0,1271484,0.002785,0.003838,0.007721,0.00428,0.004929,0.003857,4.578e-05,2.766e-05,0.01657,0.005859,6.672,0.02607,0,1,0
222000000000,222300000000,3717263311,0,1271484,0.002605,0.00383,0.007729,0.004387,0.005035,0.003864,5.15e-05,2.861e-05,0.009796,0.01036,8.281,0.03475,0,1,0
222300000000,222600000000,3717263311,0,1271484,0.002525,0.003841,0.007721,0.00441,0.005058,0.00388,1.144e-05,2.861e-05,0.01241,0.0004997,8.114,0.03409,0,1,0
222600000000,222900000000,3717263311,0,1271484,0.002426,0.003826,0.007729,0.00441,0.005058,0.003841,6.962e-05,2.861e-05,0.01018,0.004074,9.145,0.03876,0,1,0
222900000000,223200000000,3717263311,0,1271484,0.002438,0.003838,0.007721,0.004425,0.005074,0.00386,1.907e-05,2.861e-05,0.01645,0.0007143,8.745,0.03732,0,1,0
223200000000,223500000000,3717263311,0,1271484,0.002552,0.003822,0.007721,0.004425,0.005074,0.003845,1.812e-05,2.861e-05,0.01288,0.0006428,8.694,0.03645,0,1,0
223500000000,223800000000,3717263311,0,1271484,0.002491,0.003849,0.007721,0.00441,0.005058,0.003868,4.387e-05,2.956e-05,0.01048,0.007935,7.426,0.03075,0,1,0
223800000000,224100000000,3717263311,0,1271484,0.002823,0.003845,0.007721,0.004135,0.004784,0.003872,4.864e-05,2.956e-05,0.01971,0.007713,7.578,0.0315,0,1,0
224100000000,224400000000,3717263311,0,1271484,0.002628,0.003834,0.007721,0.003132,0.00378,0.003857,2.289e-05,2.956e-05,0.01469,0.001072,9.033,0.03889,0,1,0
224400000000,224700000000,3717263311,0,1271484,0.002869,0.003845,0.007721,0.003231,0.00388,0.00388,3.433e-05,2.956e-05,0.01494,0.005074,8.655,0.03444,0,1,0
224700000000,225000000000,3717263311,0,1271484,0.002762,0.003838,0.007721,0.003319,0.003967,0.003876,8.011e-05,2.956e-05,0.03528,0.01749,7.765,0.03276,0,1,0
225000000000,225300000000,3717263311,0,1271484,0.003078,0.003841,0.007721,0.003181,0.00383,0.003883,3.719e-05,2.956e-05,0.01944,0.003284,7.515,0.03026,0,1,0
225300000000,225600000000,3717263311,0,1271484,0.003414,0.003845,0.007721,0.00333,0.003983,0.00388,5.15e-05,3.052e-05,0.01965,0.007645,7.805,0.0319,0,1,0
225600000000,225900000000,3717263311,0,1271484,0.003441,0.003849,0.007721,0.003452,0.004105,0.003887,3.433e-05,3.052e-05,0.01959,0.004997,8.341,0.03468,0,1,0
225900000000,226200000000,3717263311,0,1271484,0.003529,0.003849,0.007721,0.003586,0.004234,0.003887,4.482e-05,3.052e-05,0.01297,0.006432,8.836,0.03741,0,1,0
226200000000,226500000000,3717263311,0,1271484,0.003284,0.00386,0.007721,0.003735,0.004387,0.003883,1.907e-05,3.147e-05,0.01117,0.0007143,8.471,0.03618,0,1,0
226500000000,226800000000,3717263311,0,1271484,0.003498,0.003841,0.007721,0.003853,0.004501,0.003887,5.913e-05,3.147e-05,0.0145,0.007286,7.631,0.03169,0,1,0
226800000000,227100000000,3717263311,0,1271484,0.003418,0.003853,0.007721,0.003967,0.004616,0.00388,4.578e-05,3.147e-05,0.0139,0.007645,8.025,0.03263,0,1,0
227100000000,227400000000,3717263311,0,1271484,0.003471,0.003857,0.007721,0.003872,0.004517,0.00388,3.91e-05,3.147e-05,0.01624,0.006287,8.089,0.03373,0,1,0
227400000000,227700000000,3717263311,0,1271484,0.003479,0.003868,0.007721,0.003944,0.004593,0.003895,4.292e-05,3.242e-05,0.02255,0.006218,9.219,0.03883,0,1,0
227700000000,228000000000,3717263311,0,1271484,0.0037,0.003864,0.007721,0.004082,0.00473,0.003902,6.39e-05,3.242e-05,0.01172,0.008209,8.92,0.03693,0,1,0
228000000000,228300000000,3717263311,0,1271484,0.00362,0.003849,0.007721,0.00425,0.004898,0.003895,3.815e-05,3.242e-05,0.01344,0.006355,7.723,0.03123,0,1,0
228300000000,228600000000,3717263311,0,1271484,0.00354,0.003864,0.007721,0.004364,0.005013,0.003891,7.82e-05,3.338e-05,0.02194,0.00943,7.976,0.03183,0,1,0
228600000000,228900000000,3717263311,0,1271484,0.003418,0.003857,0.007721,0.004333,0.004982,0.003895,4.101e-05,3.338e-05,0.01401,0.006355,7.099,0.02805,0,1,0
228900000000,229200000000,3717263311,0,1271484,0.003361,0.003864,0.007721,0.004295,0.004944,0.003906,4.292e-05,3.338e-05,0.0141,0.005287,7.287,0.02898,0,1,0
229200000000,229500000000,3717263311,0,1271484,0.003395,0.003849,0.007721,0.004272,0.004921,0.00388,4.673e-05,3.338e-05,0.01157,0.007782,7.942,0.03311,0,1,0
229500000000,229800000000,3717263311,0,1271484,0.003326,0.003868,0.007721,0.00428,0.004929,0.003895,3.815e-05,3.338e-05,0.02054,0.005287,7.564,0.03161,0,1,0
229800000000,230100000000,3717263311,0,1271484,0.00325,0.003857,0.007721,0.004341,0.00499,0.004005,4.196e-05,3.433e-05,0.01556,0.004288,7.598,0.03152,0,1,0
230100000000,230400000000,3717263311,0,1271484,0.003128,0.003868,0.007721,0.004387,0.005035,0.003906,3.242e-05,3.433e-05,0.01225,0.003571,8.858,0.0378,0,1,0
230400000000,230700000000,3717263311,0,1271484,0.003098,0.003853,0.007721,0.004395,0.005043,0.003906,4.578e-05,3.529e-05,0.01433,0.004997,8.265,0.03462,0,1,0
230700000000,231000000000,3717263311,0,1271484,0.003307,0.003876,0.007721,0.004372,0.00502,0.003914,4.005e-05,3.529e-05,0.01962,0.006218,7.176,0.02923,0,1,0
231000000000,231300000000,3717263311,0,1271484,0.003273,0.003876,0.007721,0.004379,0.005028,0.003914,7.629e-05,3.529e-05,0.02695,0.007217,7.845,0.03301,0,1,0
231300000000,231600000000,3717263311,0,1271484,0.003262,0.00388,0.007721,0.004364,0.005013,0.003922,4.482e-05,3.624e-05,0.03012,0.003216,7.964,0.0334,0,1,0
231600000000,231900000000,3717263311,0,1271484,0.00322,0.003887,0.007721,0.004303,0.004951,0.003914,6.008e-05,3.624e-05,0.03369,0.006714,8.272,0.0356,0,1,0
231900000000,232200000000,3717263311,0,1271484,0.003517,0.00388,0.007721,0.004143,0.004791,0.003914,0.0001698,3.624e-05,0.01816,0.009216,7.047,0.02882,0,1,0
232200000000,232500000000,3717263311,0,1271484,0.003258,0.003883,0.007721,0.004166,0.004814,0.003914,7.439e-05,3.624e-05,0.01453,0.007713,8.386,0.03469,0,1,0
232500000000,232800000000,3717263311,0,1271484,0.003254,0.003876,0.007721,0.004303,0.004951,0.003914,3.91e-05,3.624e-05,0.01366,0.002644,8.358,0.03486,0,1,0
232800000000,233100000000,3717263311,0,1271484,0.003311,0.003883,0.007721,0.004341,0.00499,0.003914,4.101e-05,3.719e-05,0.01503,0.00486,7.943,0.03407,0,1,0
233100000000,233400000000,3717263311,0,1271484,0.00341,0.003891,0.007721,0.004364,0.005013,0.003922,5.054e-05,3.719e-05,0.02332,0.008789,8.652,0.03782,0,1,0
233400000000,233700000000,3717263311,0,1271484,0.003395,0.003891,0.007721,0.004349,0.004997,0.003929,4.578e-05,3.719e-05,0.03192,0.004646,8.353,0.03603,0,1,0
233700000000,234000000000,3717263311,0,1271484,0.003185,0.003887,0.007721,0.004349,0.004997,0.003922,4.292e-05,3.815e-05,0.01129,0.005997,7.64,0.03241,0,1,0
234000000000,234300000000,3717263311,0,1271484,0.003197,0.003883,0.007721,0.004349,0.004997,0.003929,4.387e-05,3.815e-05,0.03006,0.004997,7.555,0.03248,0,1,0
234300000000,234600000000,3717263311,0,1271484,0.003086,0.003883,0.007721,0.004341,0.00499,0.003902,3.147e-05,3.815e-05,0.01913,0.0009289,8.766,0.03855,0,1,0
234600000000,234900000000,3717263311,0,1271484,0.003017,0.003891,0.007721,0.004181,0.004829,0.003914,4.673e-05,3.815e-05,0.01082,0.006355,8.783,0.03854,0,1,0
234900000000,235200000000,3717263311,0,1271484,0.003124,0.003883,0.007721,0.004295,0.004944,0.003922,5.627e-05,3.815e-05,0.01431,0.006569,7.835,0.03359,0,1,0
235200000000,235500000000,3717263311,0,1271484,0.003155,0.003883,0.007721,0.004356,0.005005,0.003922,0.000102,3.91e-05,0.01962,0.007713,7.642,0.03295,0,1,0
235500000000,235800000000,3717263311,0,1271484,0.003372,0.003895,0.007713,0.004272,0.004921,0.003937,0.0001812,3.91e-05,0.073,0.008423,8.676,0.03732,0,1,0
235800000000,236100000000,3717263311,0,1271484,0.003117,0.003891,0.007721,0.004204,0.004852,0.003914,7.248e-05,3.91e-05,0.01396,0.006218,8.346,0.03539,0,1,0
236100000000,236400000000,3717263311,0,1271484,0.003132,0.003887,0.007721,0.004318,0.004967,0.003922,2.003e-05,4.005e-05,0.01193,0.0006428,8.166,0.0353,0,1,0
241200000000,241500000000,3717263311,0,1271484,0.003006,0.003895,0.007721,0.004356,0.005005,0.003929,4.387e-05,4.387e-05,0.01224,0.004784,8.331,0.03726,0,1,0
241500000000,241800000000,3717263311,0,1271484,0.00312,0.003887,0.007721,0.004364,0.005013,0.003922,4.005e-05,4.387e-05,0.01276,0.004143,8.307,0.03677,0,1,0
241800000000,242100000000,3717263311,0,1271484,0.003078,0.003895,0.007721,0.004349,0.004997,0.003929,3.052e-05,4.387e-05,0.02332,0.002499,8.288,0.03681,0,1,0
242100000000,242400000000,3717263311,0,1271484,0.003166,0.003899,0.007721,0.004341,0.00499,0.003937,8.488e-05,4.387e-05,0.01944,0.01007,7.951,0.03526,0,1,0
242400000000,242700000000,3717263311,0,1271484,0.00322,0.003902,0.007721,0.004158,0.004807,0.003937,6.294e-05,4.482e-05,0.01703,0.005997,7.119,0.03078,0,1,0
242700000000,243000000000,3717263311,0,1271484,0.002979,0.003906,0.007721,0.004272,0.004921,0.003929,0.0001335,4.482e-05,0.01682,0.01785,7.816,0.03488,0,1,0
243000000000,243300000000,3717263311,0,1271484,0.003162,0.003895,0.007721,0.004196,0.004845,0.003937,6.008e-05,4.482e-05,0.01611,0.007355,8.162,0.03647,0,1,0
243300000000,243600000000,3717263311,0,1271484,0.003292,0.003906,0.007721,0.004333,0.004982,0.003937,2.956e-05,4.578e-05,0.01392,0.0007143,9.382,0.04094,0,1,0
243600000000,243900000000,3717263311,0,1271484,0.003651,0.003899,0.007713,0.004318,0.004967,0.003944,6.676e-05,4.578e-05,0.02133,0.005997,9.079,0.03999,0,1,0
243900000000,244200000000,3717263311,0,1271484,0.003643,0.003895,0.007721,0.004326,0.004974,0.003937,7.057e-05,4.673e-05,0.02271,0.008926,8.399,0.03663,0,1,0
244200000000,244500000000,3717263311,0,1271484,0.003578,0.003895,0.007721,0.004356,0.005013,0.003922,6.962e-05,4.673e-05,0.01718,0.003571,9.086,0.03911,0,1,0
244500000000,244800000000,3717263311,0,1271484,0.003731,0.003887,0.007721,0.004181,0.004829,0.003937,9.155e-05,4.578e-05,0.01602,0.005646,8.945,0.0382,0,1,0
244800000000,245100000000,3717263311,0,1271484,0.003513,0.003891,0.007721,0.004211,0.00486,0.003922,8.202e-05,4.673e-05,0.01408,0.003784,8.415,0.03586,0,1,0
245100000000,245400000000,3717263311,0,1271484,0.003696,0.003891,0.007721,0.004326,0.004974,0.003929,5.817e-05,4.673e-05,0.01378,0.003716,8.817,0.03566,0,1,0
245400000000,245700000000,3717263311,0,1271484,0.003498,0.00388,0.007721,0.004364,0.005013,0.003922,4.101e-05,4.768e-05,0.03674,0.003357,9.11,0.03754,0,1,0
245700000000,246000000000,3717263311,0,1271484,0.003613,0.003883,0.007721,0.004379,0.005028,0.003914,0.0001087,4.768e-05,0.02112,0.005928,9.996,0.04074,0,1,0
246000000000,246300000000,3717263311,0,1271484,0.003601,0.003891,0.007721,0.004349,0.004997,0.003922,6.58e-05,4.768e-05,0.0181,0.003357,9.356,0.03856,0,1,0
251400000000,251700000000,3717263311,0,1271484,0.003197,0.003887,0.007721,0.004211,0.00486,0.003929,9.346e-05,5.245e-05,0.04883,0.007858,7.948,0.0317,0,1,0
251700000000,252000000000,3717263311,0,1271484,0.003002,0.003891,0.007729,0.004333,0.004982,0.003929,7.153e-05,5.245e-05,0.01463,0.005859,8.813,0.03557,0,1,0
252000000000,252300000000,3717263311,0,1271484,0.002567,0.003899,0.007721,0.004364,0.005013,0.003929,8.488e-05,5.245e-05,0.02554,0.009354,7.776,0.03202,0,1,0
252300000000,252600000000,3717263311,0,1271484,0.003227,0.00388,0.007721,0.004166,0.004814,0.003929,0.0001078,5.245e-05,0.01382,0.005783,8.65,0.03599,0,1,0
252600000000,252900000000,3717263311,0,1271484,0.003265,0.003891,0.007721,0.004204,0.00486,0.003929,6.866e-05,5.341e-05,0.01324,0.006569,8.844,0.03629,0,1,0
252900000000,253200000000,3717263311,0,1271484,0.003166,0.003887,0.007721,0.004295,0.004944,0.003914,7.725e-05,5.341e-05,0.01627,0.003998,8.828,0.03722,0,1,0
253200000000,253500000000,3717263311,0,1271484,0.003124,0.003891,0.007721,0.004356,0.005005,0.003929,4.578e-05,5.341e-05,0.01457,0.001572,9.571,0.03928,0,1,0
253800000000,254100000000,3717263311,0,2084360994,0.003105,0.004211,0.007706,0.002087,0.003052,0.004272,1.907e-05,7.629e-06,0.01234,0.001928,9.771,0.04139,0,1,0
254100000000,254400000000,3717263311,0,2084360994,0.00309,0.004318,0.007713,0.00222,0.003181,0.004417,5.436e-05,7.629e-06,0.02429,0.011,8.321,0.03471,0,1,0
254400000000,254700000000,3717263311,0,2084360994,0.003189,0.004402,0.007713,0.002342,0.003307,0.004417,5.341e-05,8.583e-06,0.0401,0.009933,8.946,0.03753,0,1,0
254700000000,255000000000,3717263311,0,2084360994,0.003178,0.004425,0.007713,0.002445,0.00341,0.004478,1.526e-05,8.583e-06,0.02399,0.001715,9.53,0.04023,0,1,0
255000000000,255300000000,3717263311,0,2084360994,0.002918,0.004433,0.007713,0.002518,0.003498,0.004456,6.58e-05,8.583e-06,0.05939,0.01308,10.74,0.0466,0,1,0
255300000000,255600000000,3717263311,0,2084360994,0.002998,0.004448,0.007713,0.002655,0.00362,0.004471,1.621e-05,8.583e-06,0.01512,0.001429,9.553,0.04032,0,1,0
255600000000,255900000000,3717263311,0,2084360994,0.003174,0.004463,0.007713,0.002773,0.003742,0.004494,7.439e-05,9.537e-06,0.026,0.01385,9.152,0.03839,0,1,0
255900000000,256200000000,3717263311,0,2084360994,0.003254,0.004471,0.007713,0.002865,0.00383,0.004494,0.000102,9.537e-06,0.04675,0.01572,9.412,0.03995,0,1,0
256200000000,256500000000,3717263311,0,2084360994,0.002956,0.004478,0.007713,0.00304,0.004005,0.004517,1.621e-05,1.049e-05,0.01416,0.001286,6.916,0.0277,0,1,0
256500000000,256800000000,3717263311,0,2084360994,0.002861,0.004486,0.007713,0.00301,0.003975,0.004509,6.58e-05,1.049e-05,0.02881,0.01064,9.233,0.0386,0,1,0
256800000000,257100000000,3717263311,0,2084360994,0.0028,0.004501,0.007713,0.003101,0.004066,0.004532,1.621e-05,1.049e-05,0.03424,0.001928,9.298,0.03874,0,1,0
257100000000,257400000000,3717263311,0,2084360994,0.002899,0.004509,0.007713,0.002995,0.00396,0.004524,7.057e-05,1.049e-05,0.03143,0.01093,10.06,0.04213,0,1,0
257400000000,257700000000,3717263311,0,2084360994,0.002926,0.004524,0.007713,0.002995,0.00396,0.004547,5.817e-05,1.144e-05,0.01434,0.005646,7.936,0.03299,0,1,0
257700000000,258000000000,3717263311,0,2084360994,0.005112,0.004524,0.007713,0.003147,0.004112,0.004547,0.0002861,1.144e-05,0.07397,0.01244,12.43,0.05471,0,1,0
258000000000,258300000000,3717263311,0,2084360994,0.00296,0.004532,0.007713,0.003242,0.004211,0.004562,3.338e-05,1.144e-05,0.04242,0.006432,9.237,0.03843,0,1,0
258300000000,258600000000,3717263311,0,2084360994,0.003036,0.004539,0.007721,0.003326,0.004303,0.004562,1.621e-05,1.144e-05,0.02515,0.001999,9.173,0.03748,0,1,0
258600000000,258900000000,3717263311,0,2084360994,0.002949,0.004547,0.007721,0.00346,0.004425,0.00457,4.005e-05,1.24e-05,0.01546,0.007141,9.832,0.04099,0,1,0
258900000000,259200000000,3717263311,0,2084360994,0.003052,0.004547,0.007721,0.003571,0.004539,0.004578,6.58e-05,1.24e-05,0.02991,0.009933,9.553,0.03999,0,1,0
259200000000,259500000000,3717263311,0,2084360994,0.003372,0.004547,0.007721,0.003654,0.004623,0.004578,1.526e-05,1.24e-05,0.01831,0.001286,11.24,0.04619,0,1,0
259500000000,259800000000,3717263311,0,2084360994,0.003365,0.004562,0.007713,0.003727,0.004692,0.004585,0.0001211,1.335e-05,0.02328,0.01256,11.67,0.04773,0,1,0
259800000000,260100000000,3717263311,0,2084360994,0.003292,0.00457,0.007713,0.003883,0.004852,0.004593,1.24e-05,1.335e-05,0.01419,0.0009289,8.664,0.03401,0,1,0
260100000000,260400000000,3717263311,0,2084360994,0.003338,0.004562,0.007713,0.003895,0.00486,0.004585,1.526e-05,1.335e-05,0.01944,0.001358,12.47,0.05138,0,1,0
260400000000,260700000000,3717263311,0,2084360994,0.003189,0.00457,0.007713,0.003674,0.004639,0.004677,5.436e-05,1.431e-05,0.03534,0.009354,9.95,0.04037,0,1,0
260700000000,261000000000,3717263311,0,2084360994,0.003002,0.004562,0.007721,0.003712,0.004677,0.004593,2.003e-05,1.431e-05,0.05621,0.002644,12.03,0.05019,0,1,0
261000000000,261300000000,3717263311,0,2084360994,0.00312,0.004578,0.007721,0.003757,0.004723,0.004601,8.583e-06,1.431e-05,0.01353,0.0008574,10.99,0.04549,0,1,0
261300000000,261600000000,3717263311,0,2084360994,0.003254,0.004578,0.007713,0.003811,0.004776,0.004601,5.913e-05,1.431e-05,0.03943,0.01114,11.27,0.04632,0,1,0
261600000000,261900000000,3717263311,0,2084360994,0.003117,0.004585,0.007713,0.003876,0.004845,0.004616,1.335e-05,1.431e-05,0.0239,0.001572,11.26,0.04571,0,1,0
261900000000,262200000000,3717263311,0,2084360994,0.00304,0.004585,0.007713,0.003876,0.004837,0.004616,5.722e-05,1.526e-05,0.03693,0.01292,10.29,0.04218,0,1,0
262200000000,262500000000,3717263311,0,2084360994,0.00312,0.004601,0.007713,0.003868,0.004837,0.004623,1.717e-05,1.526e-05,0.0144,0.001572,10.11,0.04225,0,1,0
262500000000,262800000000,3717263311,0,2084360994,0.003002,0.004608,0.007713,0.00386,0.004822,0.004631,8.774e-05,1.526e-05,0.01712,0.01486,10.05,0.04213,0,1,0
262800000000,263100000000,3717263311,0,2084360994,0.002892,0.004608,0.007713,0.00386,0.004822,0.004639,2.766e-05,1.526e-05,0.01051,0.003643,10.65,0.04534,0,1,0
263100000000,263400000000,3717263311,0,2084360994,0.003033,0.004608,0.007713,0.00386,0.004829,0.004631,0.0001326,1.621e-05,0.02527,0.0253,11.89,0.05049,0,1,0
263400000000,263700000000,3717263311,0,2084360994,0.003059,0.004608,0.007713,0.003769,0.00473,0.004631,2.003e-05,1.621e-05,0.0146,0.0007858,8.561,0.03403,0,1,0
263700000000,264000000000,3717263311,0,2084360994,0.003082,0.004601,0.007713,0.003563,0.004524,0.004623,3.242e-05,1.621e-05,0.01311,0.00243,11.56,0.04863,0,1,0
264000000000,264300000000,3717263311,0,2084360994,0.003086,0.004608,0.007713,0.003479,0.004448,0.004631,9.537e-06,1.717e-05,0.01561,0.0006428,11.17,0.04634,0,1,0
264300000000,264600000000,3717263311,0,2084360994,0.002869,0.004608,0.007713,0.003613,0.004578,0.004631,4.673e-05,1.717e-05,0.02347,0.01064,9.611,0.03955,0,1,0
264600000000,264900000000,3717263311,0,2084360994,0.002804,0.004608,0.007713,0.003662,0.004631,0.004639,1.526e-05,1.717e-05,0.02063,0.0006428,10.41,0.04412,0,1,0
264900000000,265200000000,3717263311,0,2084360994,0.002831,0.004601,0.007713,0.003769,0.00473,0.004623,7.725e-05,1.717e-05,0.01186,0.01694,10.64,0.04561,0,1,0
265200000000,265500000000,3717263311,0,2084360994,0.002903,0.004608,0.007721,0.00383,0.004799,0.004639,1.621e-05,1.812e-05,0.01256,0.001215,10.93,0.04659,0,1,0
265500000000,265800000000,3717263311,0,2084360994,0.003048,0.004608,0.007713,0.003868,0.004829,0.004623,2.098e-05,1.812e-05,0.01375,0.001999,10.85,0.0456,0,1,0
265800000000,266100000000,3717263311,0,2084360994,0.003056,0.004616,0.007713,0.003853,0.004814,0.004639,7.153e-05,1.812e-05,0.01654,0.01428,9.787,0.04048,0,1,0
266100000000,266400000000,3717263311,0,2084360994,0.002823,0.004601,0.007713,0.003765,0.00473,0.004646,1.717e-05,1.812e-05,0.01189,0.001642,10.15,0.04303,0,1,0
266400000000,266700000000,3717263311,0,2084360994,0.004433,0.004616,0.007721,0.003838,0.004807,0.004631,0.0002728,1.812e-05,0.08105,0.01935,12.82,0.05564,0,1,0
266700000000,267000000000,3717263311,0,2084360994,0.002956,0.004616,0.007721,0.00388,0.004845,0.004646,0.0001383,1.907e-05,0.02036,0.02322,9.475,0.04013,0,1,0
267000000000,267300000000,3717263311,0,2084360994,0.002831,0.004623,0.007721,0.003742,0.004707,0.004646,2.384e-05,1.907e-05,0.01233,0.002785,7.834,0.03244,0,1,0
267300000000,267600000000,3717263311,0,2084360994,0.002949,0.004608,0.007721,0.003761,0.00473,0.004631,3.719e-05,1.907e-05,0.01309,0.003284,11.14,0.04848,0,1,0
267600000000,267900000000,3717263311,0,2084360994,0.003029,0.004616,0.007721,0.003609,0.00457,0.004654,3.91e-05,1.907e-05,0.0239,0.005569,10.69,0.04603,0,1,0
267900000000,268200000000,3717263311,0,2084360994,0.003109,0.004623,0.007721,0.003658,0.004623,0.004662,6.39e-05,2.003e-05,0.01352,0.01265,9.742,0.04065,0,1,0
268200000000,268500000000,3717263311,0,2084360994,0.002964,0.004623,0.007721,0.003761,0.004723,0.004669,1.431e-05,2.003e-05,0.01396,0.0009995,10.56,0.0449,0,1,0
268500000000,268800000000,3717263311,0,2084360994,0.002674,0.004616,0.007721,0.00386,0.004822,0.004646,5.436e-05,2.003e-05,0.02023,0.01057,9.914,0.04347,0,1,0
268800000000,269100000000,3717263311,0,2084360994,0.002666,0.004631,0.007721,0.003872,0.004837,0.004654,1.431e-05,2.003e-05,0.01358,0.0008574,9.468,0.04119,0,1,0
269100000000,269400000000,3717263311,0,2084360994,0.002708,0.004639,0.007721,0.003872,0.004837,0.004669,5.436e-05,2.003e-05,0.01445,0.01021,10.16,0.04383,0,1,0
269400000000,269700000000,3717263311,0,2084360994,0.002811,0.004639,0.007721,0.003853,0.004822,0.004669,3.242e-05,2.098e-05,0.02136,0.005714,8.457,0.03526,0,1,0
269700000000,270000000000,3717263311,0,2084360994,0.002731,0.004639,0.007721,0.003845,0.004814,0.004677,2.956e-05,2.098e-05,0.01199,0.001999,9.227,0.03936,0,1,0
270000000000,270300000000,3717263311,0,2084360994,0.002693,0.004639,0.007721,0.003868,0.004829,0.004669,4.482e-05,2.098e-05,0.01636,0.008209,9.278,0.03952,0,1,0
270300000000,270600000000,3717263311,0,2084360994,0.002831,0.004639,0.007721,0.003864,0.004829,0.004669,0.0001154,2.193e-05,0.02429,0.0145,9.016,0.03821,0,1,0
270600000000,270900000000,3717263311,0,2084360994,0.002682,0.004631,0.007721,0.003635,0.004601,0.004662,3.242e-05,2.193e-05,0.01126,0.003716,7.029,0.02835,0,1,0
270900000000,271200000000,3717263311,0,2084360994,0.002708,0.004639,0.007721,0.003689,0.004654,0.004669,5.15e-05,2.193e-05,0.01718,0.009079,9.241,0.03897,0,1,0
271200000000,271500000000,3717263311,0,2084360994,0.002617,0.004646,0.007721,0.003532,0.004501,0.004677,1.907e-05,2.098e-05,0.01318,0.001785,9.766,0.04142,0,1,0
281400000000,281700000000,3717263311,0,2084360994,0.002571,0.004433,0.007721,0.003998,0.004967,0.004448,4.864e-05,2.67e-05,0.01093,0.002571,7.856,0.03349,0,1,0
281700000000,282000000000,3717263311,0,2084360994,0.002708,0.004456,0.007721,0.003975,0.004936,0.004463,3.242e-05,2.67e-05,0.0148,0.002144,10.45,0.04465,0,1,0
282000000000,282300000000,3717263311,0,2084360994,0.002617,0.004471,0.007729,0.004013,0.004974,0.004486,2.384e-05,2.67e-05,0.01547,0.002357,11.24,0.04812,0,1,0
282300000000,282600000000,3717263311,0,2084360994,0.002544,0.004486,0.007729,0.004044,0.005013,0.004494,2.766e-05,2.67e-05,0.01193,0.001499,11.35,0.04881,0,1,0
282600000000,282900000000,3717263311,0,2084360994,0.002369,0.004494,0.007729,0.004044,0.005013,0.004501,2.575e-05,2.67e-05,0.01094,0.002144,11.84,0.0522,0,1,0
282900000000,283200000000,3717263311,0,2084360994,0.002335,0.004494,0.007729,0.004028,0.004997,0.004494,2.289e-05,2.67e-05,0.01102,0.003143,11.17,0.04936,0,1,0
283200000000,283500000000,3717263311,0,2084360994,0.002304,0.004494,0.007729,0.003975,0.004944,0.004501,5.913e-05,2.766e-05,0.01312,0.01143,11.76,0.05112,0,1,0
283500000000,283800000000,3717263311,0,2084360994,0.002495,0.004463,0.007729,0.004044,0.005013,0.004509,2.67e-05,2.766e-05,0.01172,0.002644,11.26,0.0493,0,1,0
283800000000,284100000000,3717263311,0,2084360994,0.002403,0.004471,0.007729,0.004051,0.00502,0.004478,2.861e-05,2.67e-05,0.01215,0.002571,11.24,0.04954,0,1,0
284100000000,284400000000,3717263311,0,2084360994,0.002487,0.004486,0.007721,0.003784,0.004753,0.004562,2.193e-05,2.67e-05,0.01447,0.002144,12.06,0.05307,0,1,0
284400000000,284700000000,3717263311,0,2084360994,0.002468,0.004501,0.007721,0.003822,0.004791,0.004532,1.335e-05,2.67e-05,0.01254,0.0009289,11.3,0.04908,0,1,0
284700000000,285000000000,3717263311,0,2084360994,0.00243,0.004478,0.007729,0.003864,0.004829,0.004486,0.0001354,2.67e-05,0.01782,0.01907,11.44,0.04967,0,1,0
285000000000,285300000000,3717263311,0,2084360994,0.002495,0.004478,0.007721,0.003887,0.004852,0.004486,3.624e-05,2.766e-05,0.01056,0.004288,9.006,0.0374,0,1,0
285300000000,285600000000,3717263311,0,2084360994,0.002274,0.004478,0.007729,0.003899,0.004868,0.004478,2.48e-05,2.766e-05,0.008789,0.001928,10.9,0.04849,0,1,0
285600000000,285900000000,3717263311,0,2084360994,0.002243,0.004478,0.007729,0.003937,0.004906,0.004486,2.289e-05,2.766e-05,0.01299,0.001642,11.31,0.05032,0,1,0
285900000000,286200000000,3717263311,0,2084360994,0.002235,0.004478,0.007729,0.003975,0.004936,0.004494,2.67e-05,2.766e-05,0.01271,0.003357,11.09,0.04925,0,1,0
286200000000,286500000000,3717263311,0,2084360994,0.002197,0.004486,0.007729,0.004005,0.004974,0.004494,1.621e-05,2.766e-05,0.0106,0.0009289,11.83,0.05234,0,1,0
286500000000,286800000000,3717263311,0,2084360994,0.002274,0.004486,0.007729,0.004036,0.005005,0.004501,2.098e-05,2.766e-05,0.0134,0.002071,11.7,0.05139,0,1,0
286800000000,287100000000,3717263311,0,2084360994,0.002201,0.004494,0.007729,0.004051,0.00502,0.004501,3.815e-05,2.766e-05,0.008057,0.003571,10.94,0.04785,0,1,0
287100000000,287400000000,3717263311,0,2084360994,0.00219,0.004501,0.007729,0.004044,0.005013,0.004509,2.48e-05,2.766e-05,0.01097,0.001499,11.06,0.04919,0,1,0
287400000000,287700000000,3717263311,0,2084360994,0.002197,0.004501,0.007729,0.004044,0.005013,0.004509,1.431e-05,2.766e-05,0.007019,0.0009289,12.1,0.05502,0,1,0
287700000000,288000000000,3717263311,0,2084360994,0.002491,0.004501,0.007729,0.004036,0.005005,0.004509,6.485e-05,2.861e-05,0.0127,0.01093,12.41,0.05411,0,1,0
288000000000,288300000000,3717263311,0,2084360994,0.002453,0.004501,0.007729,0.004028,0.00499,0.004517,1.621e-05,2.861e-05,0.01266,0.001858,12.75,0.05594,0,1,0
288300000000,288600000000,3717263311,0,2084360994,0.002331,0.004509,0.007729,0.004028,0.004997,0.004532,0.0001287,2.861e-05,0.04541,0.02435,11.83,0.05145,0,1,0
288600000000,288900000000,3717263311,0,2084360994,0.002346,0.004509,0.007721,0.00383,0.004799,0.004524,2.384e-05,2.861e-05,0.008377,0.00293,8.837,0.03737,0,1,0
288900000000,289200000000,3717263311,0,2084360994,0.002396,0.004501,0.007729,0.003841,0.004807,0.004509,2.956e-05,2.766e-05,0.009003,0.002285,11.49,0.051,0,1,0
289200000000,289500000000,3717263311,0,2084360994,0.002228,0.004509,0.007729,0.003677,0.004646,0.004517,2.766e-05,2.766e-05,0.007607,0.003216,11.33,0.05037,0,1,0
289500000000,289800000000,3717263311,0,2084360994,0.00214,0.004509,0.007729,0.003605,0.00457,0.004509,1.621e-05,2.861e-05,0.01045,0.001358,11.53,0.0519,0,1,0
289800000000,290100000000,3717263311,0,2084360994,0.0023,0.004509,0.007729,0.003643,0.004608,0.004517,1.717e-05,2.861e-05,0.0125,0.001358,11.67,0.05225,0,1,0
290100000000,290400000000,3717263311,0,2084360994,0.002491,0.004517,0.007729,0.003677,0.004646,0.004517,2.098e-05,2.861e-05,0.01012,0.003143,11.88,0.05287,0,1,0
290400000000,290700000000,3717263311,0,2084360994,0.002598,0.004517,0.007729,0.003719,0.004684,0.004524,1.526e-05,2.861e-05,0.03448,0.0009289,12.56,0.05244,0,1,0
290700000000,291000000000,3717263311,0,2084360994,0.002422,0.004517,0.007729,0.003761,0.00473,0.004524,1.621e-05,2.861e-05,0.009018,0.001215,11.46,0.05036,0,1,0
291000000000,291300000000,3717263311,0,2084360994,0.002296,0.004524,0.007729,0.003799,0.004768,0.004524,2.193e-05,2.861e-05,0.01154,0.001785,11.22,0.04898,0,1,0
291300000000,291600000000,3717263311,0,2084360994,0.002346,0.004486,0.007729,0.003841,0.004807,0.004532,2.67e-05,2.861e-05,0.01041,0.002071,11.23,0.04888,0,1,0
291600000000,291900000000,3717263311,0,2084360994,0.002274,0.004471,0.007729,0.003883,0.004845,0.004478,1.621e-05,2.861e-05,0.01164,0.0009289,10.93,0.04834,0,1,0
291900000000,292200000000,3717263311,0,2084360994,0.002426,0.004478,0.007729,0.003906,0.004875,0.004478,0.0001192,2.861e-05,0.02429,0.02313,11.04,0.04822,0,1,0
292200000000,292500000000,3717263311,0,2084360994,0.002426,0.004478,0.007729,0.004051,0.00502,0.004478,1.335e-05,2.956e-05,0.00885,0.0009995,8.788,0.03647,0,1,0
292500000000,292800000000,3717263311,0,2084360994,0.002357,0.004478,0.007729,0.004066,0.005035,0.004478,2.67e-05,2.956e-05,0.009964,0.001286,12.17,0.05302,0,1,0
292800000000,293100000000,3717263311,0,2084360994,0.002331,0.004478,0.007729,0.003914,0.004883,0.004486,3.052e-05,2.956e-05,0.01105,0.002357,10.72,0.04702,0,1,0
293100000000,293400000000,3717263311,0,2084360994,0.002407,0.004486,0.007729,0.003944,0.004913,0.004494,2.766e-05,2.956e-05,0.01141,0.001858,11.47,0.05106,0,1,0
293400000000,293700000000,3717263311,0,2084360994,0.002483,0.004494,0.007729,0.003975,0.004936,0.004509,2.67e-05,2.956e-05,0.01187,0.002285,10.4,0.04559,0,1,0
293700000000,294000000000,3717263311,0,2084360994,0.002514,0.004501,0.007729,0.004021,0.00499,0.004509,1.907e-05,2.956e-05,0.01288,0.001572,11.56,0.05068,0,1,0
294000000000,294300000000,3717263311,0,2084360994,0.002419,0.004501,0.007729,0.004051,0.005013,0.004501,3.052e-05,2.861e-05,0.009735,0.003429,11.24,0.04939,0,1,0
294300000000,294600000000,3717263311,0,2084360994,0.002377,0.004509,0.007729,0.004036,0.005005,0.004517,1.621e-05,2.861e-05,0.009521,0.001072,11.36,0.05112,0,1,0
294600000000,294900000000,3717263311,0,2084360994,0.002319,0.004509,0.007729,0.003868,0.004837,0.004509,2.193e-05,2.956e-05,0.009689,0.001785,11.22,0.05091,0,1,0
294900000000,295200000000,3717263311,0,2084360994,0.002346,0.004509,0.007729,0.003784,0.004753,0.004517,3.052e-05,2.956e-05,0.01099,0.003998,11.54,0.05272,0,1,0
295200000000,295500000000,3717263311,0,2084360994,0.002342,0.004517,0.007729,0.003826,0.004791,0.004517,2.48e-05,2.956e-05,0.01009,0.002571,11.47,0.05203,0,1,0
295500000000,295800000000,3717263311,0,2084360994,0.002399,0.004517,0.007729,0.002586,0.003551,0.004524,0.0001249,2.956e-05,0.03082,0.01993,11.87,0.05417,0,1,0
295800000000,296100000000,3717263311,0,2084360994,0.002415,0.004524,0.007729,0.002857,0.003822,0.004532,3.529e-05,2.956e-05,0.01144,0.004501,7.795,0.03364,0,1,0
296100000000,296400000000,3717263311,0,2084360994,0.002525,0.004524,0.007721,0.002773,0.003738,0.004539,2.003e-05,2.956e-05,0.01291,0.001572,10.57,0.04724,0,1,0
296400000000,296700000000,3717263311,0,2084360994,0.002453,0.004494,0.007721,0.002747,0.003712,0.004501,2.098e-05,2.956e-05,0.01497,0.001928,10.82,0.04757,0,1,0
296700000000,297000000000,3717263311,0,2084360994,0.002441,0.004494,0.007721,0.002789,0.003754,0.004509,2.766e-05,2.956e-05,0.01393,0.00243,10.55,0.04637,0,1,0
297000000000,297300000000,3717263311,0,2084360994,0.002483,0.004501,0.007721,0.002827,0.003792,0.004509,2.384e-05,3.052e-05,0.01054,0.001858,11.35,0.04968,0,1,0
297300000000,297600000000,3717263311,0,2084360994,0.002464,0.004509,0.007721,0.002869,0.003834,0.004509,2.289e-05,3.052e-05,0.0121,0.001999,11.34,0.05008,0,1,0
297600000000,297900000000,3717263311,0,2084360994,0.002472,0.004509,0.007721,0.002907,0.003872,0.004517,2.575e-05,3.052e-05,0.009766,0.00243,11.49,0.05035,0,1,0
297900000000,298200000000,3717263311,0,2084360994,0.002415,0.004517,0.007729,0.002945,0.003914,0.004524,1.907e-05,3.052e-05,0.0114,0.002285,10.07,0.04379,0,1,0
298200000000,298500000000,3717263311,0,2084360994,0.002399,0.004517,0.007729,0.002983,0.003952,0.004524,2.098e-05,3.052e-05,0.01271,0.001785,10.62,0.04496,0,1,0
298500000000,298800000000,3717263311,0,2084360994,0.00238,0.004524,0.007729,0.003021,0.00399,0.004532,1.431e-05,3.052e-05,0.01361,0.0007858,10.29,0.04423,0,1,0
298800000000,299100000000,3717263311,0,2084360994,0.002495,0.004501,0.007721,0.003098,0.004066,0.004539,6.294e-05,2.956e-05,0.02222,0.01143,10.77,0.04537,0,1,0
299100000000,299400000000,3717263311,0,2084360994,0.002293,0.004517,0.007729,0.003178,0.004143,0.004524,0.0001078,3.052e-05,0.03577,0.01457,9.279,0.04063,0,1,0
299400000000,299700000000,3717263311,0,2084360994,0.002247,0.004517,0.007729,0.003204,0.004173,0.004524,2.67e-05,3.052e-05,0.01331,0.002998,7.4,0.03102,0,1,0
299700000000,300000000000,3717263311,0,2084360994,0.002731,0.004517,0.007721,0.002968,0.003937,0.004524,2.67e-05,3.052e-05,0.01265,0.001715,10.52,0.04417,0,1,0
