5700000000,6000000000,3717263317,0,226149974,0.001844,0.004677,0.007668,0.003769,0.00473,0.004692,3.242e-05,4.768e-05,0.0105,0.004356,5.864,0.02402,0,1,0
6000000000,6300000000,3717263317,0,226149974,0.001965,0.004684,0.007668,0.00375,0.004707,0.00473,3.91e-05,4.768e-05,0.01048,0.003071,6.395,0.02743,0,1,0
6300000000,6600000000,3717263317,0,226149974,0.002266,0.004677,0.007668,0.003757,0.004715,0.004707,0.0001154,4.864e-05,0.02136,0.02057,7.123,0.02949,0,1,0
6600000000,6900000000,3717263317,0,226149974,0.002029,0.004669,0.007668,0.003773,0.00473,0.004692,2.766e-05,4.864e-05,0.01129,0.0008574,7.096,0.02922,0,1,0
6900000000,7200000000,3717263317,0,226149974,0.002007,0.004684,0.007668,0.00375,0.004707,0.004723,6.008e-05,4.864e-05,0.03308,0.005074,5.493,0.0227,0,1,0
7200000000,7500000000,3717263317,0,226149974,0.001867,0.004662,0.007668,0.003593,0.004555,0.004707,3.242e-05,4.864e-05,0.008865,0.001429,6.468,0.02731,0,1,0
7500000000,7800000000,3717263317,0,226149974,0.002075,0.004654,0.007668,0.00349,0.004448,0.004677,7.439e-05,4.864e-05,0.01111,0.001286,6.993,0.02979,0,1,0
7800000000,8100000000,3717263317,0,226149974,0.001976,0.004669,0.007668,0.003429,0.004387,0.0047,5.245e-05,4.959e-05,0.01094,0.007217,6.927,0.0292,0,1,0
8100000000,8400000000,3717263317,0,226149974,0.002014,0.004677,0.007668,0.003429,0.004387,0.0047,2.956e-05,4.864e-05,0.01248,0.0009289,6.321,0.02667,0,1,0
8400000000,8700000000,3717263317,0,226149974,0.002178,0.004646,0.007668,0.003357,0.004318,0.004669,3.91e-05,4.864e-05,0.0191,0.004997,7.167,0.02964,0,1,0
8700000000,9000000000,3717263317,0,226149974,0.002113,0.004669,0.007668,0.0033,0.004257,0.004814,4.482e-05,4.864e-05,0.01125,0.004356,5.216,0.02097,0,1,0
9000000000,9300000000,3717263317,0,226149974,0.002289,0.004662,0.007668,0.003368,0.004326,0.0047,6.58e-05,4.959e-05,0.01469,0.009933,7.095,0.02999,0,1,0
9300000000,9600000000,3717263317,0,226149974,0.00251,0.004654,0.007668,0.003494,0.004456,0.0047,2.861e-05,4.959e-05,0.03296,0.0006428,6.825,0.02863,0,1,0
9600000000,9900000000,3717263317,0,226149974,0.002438,0.004669,0.007668,0.003571,0.004532,0.0047,5.436e-05,4.959e-05,0.01096,0.006859,6.908,0.02881,0,1,0
9900000000,10200000000,3717263317,0,226149974,0.002319,0.004677,0.007668,0.003708,0.004669,0.004707,9.155e-05,4.959e-05,0.02054,0.01343,7.195,0.03038,0,1,0
10200000000,10500000000,3717263317,0,226149974,0.002155,0.004646,0.007668,0.003593,0.004555,0.004662,2.67e-05,5.054e-05,0.0101,0.0007143,7.656,0.03337,0,1,0
10500000000,10800000000,3717263317,0,226149974,0.002312,0.004669,0.007668,0.00362,0.004578,0.0047,3.91e-05,5.054e-05,0.01065,0.003071,6.97,0.02951,0,1,0
10800000000,11100000000,3717263317,0,226149974,0.002178,0.004677,0.007668,0.003727,0.004684,0.0047,4.864e-05,5.054e-05,0.01085,0.005569,7.147,0.03039,0,1,0
11100000000,11400000000,3717263317,0,226149974,0.002117,0.004677,0.007668,0.003754,0.004715,0.004707,6.962e-05,5.054e-05,0.01562,0.003716,6.618,0.02837,0,1,0
11400000000,11700000000,3717263317,0,226149974,0.002144,0.004677,0.007668,0.003761,0.004723,0.0047,2.67e-05,5.054e-05,0.009903,0.0004997,7.375,0.03175,0,1,0
11700000000,12000000000,3717263317,0,226149974,0.00227,0.004692,0.007668,0.003738,0.0047,0.004784,4.005e-05,5.15e-05,0.02069,0.0009289,7.38,0.03093,0,1,0
12000000000,12300000000,3717263317,0,226149974,0.002266,0.004669,0.007668,0.003727,0.004684,0.004707,5.15e-05,5.15e-05,0.01302,0.007858,7.663,0.03213,0,1,0
12300000000,12600000000,3717263317,0,226149974,0.002464,0.004662,0.007668,0.00375,0.004715,0.004692,7.343e-05,5.054e-05,0.01944,0.008423,7.757,0.0322,0,1,0
12600000000,12900000000,3717263317,0,226149974,0.002392,0.004669,0.007668,0.00351,0.004471,0.004761,2.67e-05,5.054e-05,0.01593,0.0006428,7.886,0.03231,0,1,0
12900000000,13200000000,3717263317,0,226149974,0.00222,0.004677,0.007668,0.003448,0.00441,0.0047,7.439e-05,5.15e-05,0.01176,0.006287,6.887,0.02856,0,1,0
13200000000,13500000000,3717263317,0,226149974,0.002071,0.004684,0.007668,0.003529,0.004486,0.004707,3.338e-05,5.15e-05,0.01067,0.0005713,7.099,0.03023,0,1,0
13500000000,13800000000,3717263317,0,226149974,0.00206,0.004684,0.007668,0.003651,0.004608,0.004692,9.727e-05,5.15e-05,0.02005,0.01465,8.447,0.03701,0,1,0
13800000000,14100000000,3717263317,0,226149974,0.00198,0.0047,0.007675,0.003746,0.004707,0.004707,3.052e-05,5.15e-05,0.00753,0.0005713,7.692,0.03287,0,1,0
14100000000,14400000000,3717263317,0,226149974,0.001848,0.004692,0.007668,0.003742,0.0047,0.004723,2.956e-05,5.15e-05,0.006477,0.0007143,6.68,0.02905,0,1,0
14400000000,14700000000,3717263317,0,226149974,0.002033,0.004677,0.007668,0.003765,0.004723,0.004692,3.147e-05,5.15e-05,0.0112,0.001143,7.362,0.03173,0,1,0
14700000000,15000000000,3717263317,0,226149974,0.001801,0.004692,0.007668,0.003754,0.004715,0.0047,4.864e-05,5.245e-05,0.01343,0.005646,6.085,0.02636,0,1,0
15000000000,15300000000,3717263317,0,226149974,0.001869,0.004692,0.007668,0.003746,0.004707,0.004715,3.052e-05,5.245e-05,0.008347,0.0008574,7.596,0.03405,0,1,0
15300000000,15600000000,3717263317,0,226149974,0.001856,0.004654,0.007675,0.003765,0.004723,0.004662,3.719e-05,5.245e-05,0.00975,0.002213,7.844,0.03506,0,1,0
15600000000,15900000000,3717263317,0,226149974,0.001814,0.004662,0.007668,0.003777,0.004738,0.004684,3.052e-05,5.245e-05,0.01083,0.0006428,6.641,0.02905,0,1,0
15900000000,16200000000,3717263317,0,226149974,0.002113,0.004684,0.007668,0.002949,0.003906,0.004707,3.624e-05,5.245e-05,0.02829,0.001429,8.083,0.03563,0,1,0
16200000000,16500000000,3717263317,0,226149974,0.002041,0.004662,0.007668,0.003071,0.004028,0.004707,4.196e-05,5.245e-05,0.01517,0.004211,8.246,0.03775,0,1,0
16500000000,16800000000,3717263317,0,226149974,0.002003,0.004677,0.007668,0.003109,0.004066,0.004692,3.338e-05,5.341e-05,0.008957,0.0007858,8.452,0.0388,0,1,0
16800000000,17100000000,3717263317,0,226149974,0.002037,0.004684,0.007668,0.003155,0.004112,0.004715,5.627e-05,5.245e-05,0.01135,0.007645,6.553,0.0288,0,1,0
17100000000,17400000000,3717263317,0,226149974,0.002003,0.004684,0.007668,0.002995,0.003952,0.004707,8.297e-05,5.245e-05,0.04272,0.01021,6.787,0.03016,0,1,0
17400000000,17700000000,3717263317,0,226149974,0.002022,0.004684,0.007668,0.002975,0.003937,0.004707,2.861e-05,5.245e-05,0.01544,0.0004282,7.714,0.0347,0,1,0
17700000000,18000000000,3717263317,0,226149974,0.002037,0.004677,0.007668,0.003029,0.00399,0.0047,2.766e-05,5.245e-05,0.01146,0.0009289,6.944,0.03037,0,1,0
18000000000,18300000000,3717263317,0,226149974,0.002014,0.004692,0.007668,0.003132,0.004089,0.004715,4.387e-05,5.341e-05,0.0128,0.003643,7.251,0.03193,0,1,0
18300000000,18600000000,3717263317,0,226149974,0.002026,0.004684,0.007668,0.003208,0.004166,0.0047,2.956e-05,5.341e-05,0.01079,0.001429,6.685,0.02956,0,1,0
18600000000,18900000000,3717263317,0,226149974,0.002064,0.004677,0.007668,0.003262,0.004219,0.004715,4.196e-05,5.341e-05,0.007698,0.0005713,7.687,0.03472,0,1,0
18900000000,19200000000,3717263317,0,226149974,0.002033,0.004654,0.007675,0.003361,0.004318,0.004677,6.485e-05,5.341e-05,0.009933,0.007286,7.453,0.03339,0,1,0
19200000000,19500000000,3717263317,0,226149974,0.001953,0.004684,0.007675,0.003452,0.00441,0.0047,2.861e-05,5.341e-05,0.04749,0.0003567,7.602,0.0342,0,1,0
19500000000,19800000000,3717263317,0,226149974,0.002052,0.0047,0.007675,0.003506,0.004463,0.004707,4.578e-05,5.341e-05,0.008118,0.001072,7.594,0.03431,0,1,0
19800000000,20100000000,3717263317,0,226149974,0.00206,0.004669,0.007675,0.003597,0.004555,0.004715,5.054e-05,5.436e-05,0.01364,0.005356,7.114,0.0315,0,1,0
20100000000,20400000000,3717263317,0,226149974,0.00201,0.004677,0.007675,0.003704,0.004662,0.0047,4.101e-05,5.436e-05,0.009506,0.002144,7.883,0.03584,0,1,0
20400000000,20700000000,3717263317,0,226149974,0.002045,0.004623,0.007668,0.003757,0.004715,0.004669,2.098e-05,5.436e-05,0.01019,0.0007858,7.143,0.03149,0,1,0
20700000000,21000000000,3717263317,0,226149974,0.002018,0.004623,0.007675,0.003807,0.004768,0.004631,9.441e-05,5.436e-05,0.0304,0.01608,7.265,0.03254,0,1,0
21000000000,21300000000,3717263317,0,226149974,0.001999,0.004631,0.007675,0.003815,0.004776,0.004631,2.098e-05,5.436e-05,0.01135,0.0004997,7.383,0.03294,0,1,0
21300000000,21600000000,3717263317,0,226149974,0.002007,0.004639,0.007668,0.003807,0.004768,0.004646,2.384e-05,5.436e-05,0.01575,0.0008574,7.07,0.03159,0,1,0
21600000000,21900000000,3717263317,0,226149974,0.001968,0.004646,0.007668,0.003799,0.004761,0.004654,2.48e-05,5.436e-05,0.007698,0.0009995,6.703,0.02943,0,1,0
21900000000,22200000000,3717263317,0,226149974,0.002071,0.004662,0.007668,0.003777,0.004738,0.004677,3.624e-05,5.436e-05,0.009323,0.001499,6.936,0.03042,0,1,0
22200000000,22500000000,3717263317,0,226149974,0.001932,0.004677,0.007668,0.003769,0.00473,0.004692,4.196e-05,5.436e-05,0.01349,0.004646,7.982,0.03593,0,1,0
22500000000,22800000000,3717263317,0,226149974,0.002007,0.004669,0.007668,0.003777,0.004738,0.004684,4.387e-05,5.436e-05,0.009262,0.001572,7.189,0.03164,0,1,0
22800000000,23100000000,3717263317,0,226149974,0.001961,0.004677,0.007668,0.003754,0.004715,0.004707,2.861e-05,5.436e-05,0.01065,0.0004282,7.815,0.0352,0,1,0
23100000000,23400000000,3717263317,0,226149974,0.001976,0.004654,0.007668,0.003635,0.004593,0.004669,7.343e-05,5.531e-05,0.04883,0.001499,7.285,0.03151,0,1,0
23400000000,23700000000,3717263317,0,226149974,0.002037,0.004677,0.007668,0.003315,0.004272,0.004684,5.15e-05,5.531e-05,0.01128,0.003429,7.737,0.03443,0,1,0
23700000000,24000000000,3717263317,0,226149974,0.001888,0.004669,0.007668,0.003395,0.004356,0.004692,3.338e-05,5.531e-05,0.006683,0.0006428,7.832,0.03495,0,1,0
24000000000,24300000000,3717263317,0,226149974,0.001871,0.004646,0.007668,0.003418,0.004379,0.004662,2.861e-05,5.531e-05,0.009033,0.0009289,7.152,0.03111,0,1,0
24300000000,24600000000,3717263317,0,226149974,0.001934,0.004677,0.007668,0.003551,0.004509,0.004692,0.0001135,5.531e-05,0.01941,0.01492,6.59,0.02845,0,1,0
24600000000,24900000000,3717263317,0,226149974,0.001799,0.004692,0.007675,0.003735,0.004692,0.0047,2.575e-05,5.531e-05,0.009445,0.001072,7.792,0.03552,0,1,0
24900000000,25200000000,3717263317,0,226149974,0.001846,0.0047,0.007675,0.00375,0.004707,0.004715,3.624e-05,5.531e-05,0.01056,0.001785,7.9,0.0355,0,1,0
25200000000,25500000000,3717263317,0,226149974,0.001816,0.004692,0.007668,0.003742,0.0047,0.004715,2.098e-05,5.627e-05,0.009903,0.0004997,8.263,0.03732,0,1,0
25500000000,25800000000,3717263317,0,226149974,0.001886,0.004669,0.007668,0.003754,0.004715,0.0047,1.907e-05,5.627e-05,0.01752,0.0005713,8.291,0.03767,0,1,0
25800000000,26100000000,3717263317,0,226149974,0.001816,0.004692,0.007675,0.003757,0.004715,0.0047,3.052e-05,5.627e-05,0.006538,0.001785,8.375,0.03814,0,1,0
26100000000,26400000000,3717263317,0,226149974,0.001873,0.004692,0.007675,0.003754,0.004715,0.0047,3.624e-05,5.531e-05,0.008835,0.001215,8.651,0.03967,0,1,0
26400000000,26700000000,3717263317,0,226149974,0.002007,0.004684,0.007668,0.00375,0.004707,0.004707,2.67e-05,5.531e-05,0.01274,0.001143,8.593,0.03901,0,1,0
26700000000,27000000000,3717263317,0,226149974,0.00176,0.004646,0.007675,0.003784,0.004745,0.004654,3.91e-05,5.531e-05,0.00721,0.004425,8.334,0.03802,0,1,0
27000000000,27300000000,3717263317,0,226149974,0.00178,0.004646,0.007668,0.003471,0.004433,0.004654,2.098e-05,5.531e-05,0.009476,0.0004282,7.436,0.03333,0,1,0
27300000000,27600000000,3717263317,0,226149974,0.00185,0.004654,0.007668,0.003307,0.004265,0.004669,2.575e-05,5.627e-05,0.01053,0.0005713,8.371,0.03801,0,1,0
27600000000,27900000000,3717263317,0,226149974,0.001862,0.004669,0.007668,0.003357,0.004318,0.004677,2.098e-05,5.627e-05,0.009003,0.0003567,8.73,0.0395,0,1,0
27900000000,28200000000,3717263317,0,226149974,0.001995,0.004677,0.007675,0.003517,0.004478,0.004692,0.0001125,5.627e-05,0.02048,0.01587,8.297,0.03688,0,1,0
28200000000,28500000000,3717263317,0,226149974,0.002018,0.004669,0.007668,0.003647,0.004608,0.004814,2.48e-05,5.627e-05,0.01549,0.0005713,8.255,0.03673,0,1,0
28500000000,28800000000,3717263317,0,226149974,0.002022,0.004646,0.007668,0.003422,0.004387,0.004654,3.052e-05,5.627e-05,0.008362,0.0006428,8.715,0.03841,0,1,0
28800000000,29100000000,3717263317,0,226149974,0.002094,0.004646,0.007668,0.003441,0.004402,0.004654,3.338e-05,5.627e-05,0.009033,0.001785,8.235,0.0364,0,1,0
29100000000,29400000000,3717263317,0,226149974,0.002014,0.004654,0.007675,0.00349,0.004448,0.004654,2.956e-05,5.627e-05,0.008392,0.0009289,8.195,0.03579,0,1,0
29400000000,29700000000,3717263317,0,226149974,0.001945,0.004654,0.007675,0.00354,0.004501,0.004662,3.147e-05,5.627e-05,0.008041,0.001072,8.378,0.03734,0,1,0
29700000000,30000000000,3717263317,0,226149974,0.001928,0.004654,0.007668,0.003548,0.004509,0.004662,3.719e-05,5.627e-05,0.008423,0.001215,8.741,0.03958,0,1,0
30000000000,30300000000,3717263317,0,226149974,0.001905,0.004654,0.007675,0.003567,0.004524,0.004662,2.956e-05,5.722e-05,0.009338,0.001286,8.527,0.03766,0,1,0
30300000000,30600000000,3717263317,0,226149974,0.001846,0.004662,0.007668,0.003571,0.004532,0.004669,2.575e-05,5.722e-05,0.008972,0.001072,8.568,0.03807,0,1,0
30600000000,30900000000,3717263317,0,226149974,0.00182,0.004662,0.007675,0.003605,0.004562,0.004669,3.147e-05,5.722e-05,0.007843,0.0007143,8.248,0.03728,0,1,0
30900000000,31200000000,3717263317,0,226149974,0.001762,0.004677,0.007675,0.003624,0.004585,0.004684,2.67e-05,5.722e-05,0.007919,0.0006428,7.342,0.03244,0,1,0
31200000000,31500000000,3717263317,0,226149974,0.001818,0.004669,0.007675,0.003666,0.004623,0.004692,2.861e-05,5.627e-05,0.007843,0.0005713,7.534,0.03245,0,1,0
31500000000,31800000000,3717263317,0,226149974,0.001842,0.004654,0.007668,0.003529,0.004486,0.004662,0.0001373,5.627e-05,0.05469,0.01791,8.306,0.03705,0,1,0
31800000000,32100000000,3717263317,0,226149974,0.001772,0.004662,0.007675,0.003685,0.004646,0.004669,3.052e-05,5.627e-05,0.009323,0.0006428,7.484,0.03365,0,1,0
32100000000,32400000000,3717263317,0,226149974,0.00164,0.004669,0.007668,0.00349,0.004448,0.004677,3.338e-05,5.722e-05,0.007622,0.0006428,6.907,0.03168,0,1,0
32400000000,32700000000,3717263317,0,226149974,0.001881,0.004669,0.007668,0.003525,0.004486,0.004677,2.48e-05,5.722e-05,0.009842,0.0003567,8.219,0.03753,0,1,0
32700000000,33000000000,3717263317,0,226149974,0.001888,0.004677,0.007668,0.003532,0.004494,0.004677,2.766e-05,5.722e-05,0.009857,0.0007143,8.401,0.0381,0,1,0
33000000000,33300000000,3717263317,0,226149974,0.001904,0.004677,0.007675,0.003578,0.004539,0.004684,2.956e-05,5.722e-05,0.008728,0.0005713,8.722,0.04082,0,1,0
33300000000,33600000000,3717263317,0,226149974,0.001894,0.004684,0.007675,0.003632,0.004593,0.004684,3.242e-05,5.722e-05,0.01062,0.0005713,8.277,0.03833,0,1,0
33600000000,33900000000,3717263317,0,226149974,0.001846,0.004684,0.007675,0.003681,0.004639,0.0047,2.48e-05,5.722e-05,0.008453,0.0003567,8.295,0.03819,0,1,0
33900000000,34200000000,3717263317,0,226149974,0.001837,0.004692,0.007675,0.003731,0.004692,0.004692,3.338e-05,5.722e-05,0.007072,0.001858,8.41,0.03847,0,1,0
34200000000,34500000000,3717263317,0,226149974,0.00181,0.004692,0.007675,0.003761,0.004723,0.004692,2.67e-05,5.722e-05,0.008698,0.0003567,8.458,0.03955,0,1,0
34500000000,34800000000,3717263317,0,226149974,0.001841,0.004677,0.007675,0.003761,0.004723,0.0047,2.861e-05,5.722e-05,0.009094,0.0005713,8.146,0.03739,0,1,0
34800000000,35100000000,3717263317,0,226149974,0.001846,0.004646,0.007675,0.003799,0.004761,0.004654,2.193e-05,5.722e-05,0.008072,0.0004282,8.443,0.03823,0,1,0
35100000000,35400000000,3717263317,0,226149974,0.001888,0.004646,0.007675,0.003799,0.004761,0.004654,8.965e-05,5.817e-05,0.01819,0.01587,8.318,0.03828,0,1,0
35400000000,35700000000,3717263317,0,226149974,0.001762,0.004662,0.007675,0.003788,0.004745,0.004669,2.193e-05,5.817e-05,0.009598,0.0004997,7.914,0.03642,0,1,0
35700000000,36000000000,3717263317,0,226149974,0.001841,0.004662,0.007675,0.003792,0.004753,0.004669,2.575e-05,5.817e-05,0.0114,0.0006428,7.901,0.03648,0,1,0
36000000000,36300000000,3717263317,0,226149974,0.001833,0.004669,0.007675,0.003788,0.004745,0.004669,3.242e-05,5.817e-05,0.007713,0.001499,7.588,0.03462,0,1,0
36300000000,36600000000,3717263317,0,226149974,0.001877,0.004669,0.007675,0.003784,0.004745,0.004677,3.052e-05,5.722e-05,0.015,0.0008574,7.958,0.03631,0,1,0
36600000000,36900000000,3717263317,0,226149974,0.00186,0.004669,0.007675,0.00378,0.004745,0.004677,2.956e-05,5.722e-05,0.008392,0.0005713,8.042,0.03708,0,1,0
36900000000,37200000000,3717263317,0,226149974,0.001894,0.004669,0.007675,0.003777,0.004738,0.004684,5.054e-05,5.722e-05,0.00914,0.003784,8.261,0.03795,0,1,0
37200000000,37500000000,3717263317,0,226149974,0.001909,0.004684,0.007668,0.003765,0.004723,0.0047,4.101e-05,5.817e-05,0.03424,0.001358,8.592,0.03908,0,1,0
37500000000,37800000000,3717263317,0,226149974,0.001846,0.004684,0.007675,0.003761,0.004723,0.004692,2.67e-05,5.817e-05,0.006516,0.0007858,8.19,0.03779,0,1,0
37800000000,38100000000,3717263317,0,226149974,0.001795,0.004684,0.007668,0.003761,0.004723,0.004692,2.48e-05,5.817e-05,0.009598,0.001286,7.251,0.03255,0,1,0
38100000000,38400000000,3717263317,0,226149974,0.001781,0.004684,0.007668,0.003391,0.004356,0.004692,4.005e-05,5.817e-05,0.007729,0.001429,8.287,0.03807,0,1,0
38400000000,38700000000,3717263317,0,226149974,0.001677,0.004692,0.007668,0.003304,0.004265,0.0047,2.861e-05,5.817e-05,0.008102,0.001072,7.217,0.03301,0,1,0
38700000000,39000000000,3717263317,0,226149974,0.002304,0.004692,0.007668,0.003349,0.004311,0.0047,7.534e-05,5.817e-05,0.04572,0.004143,9.151,0.04082,0,1,0
39000000000,39300000000,3717263317,0,226149974,0.00246,0.004684,0.007668,0.003563,0.004524,0.004707,0.0001144,5.913e-05,0.02045,0.006432,9.809,0.04448,0,1,0
39300000000,39600000000,3717263317,0,226149974,0.002407,0.004669,0.00766,0.00351,0.004471,0.004677,6.771e-05,5.913e-05,0.04059,0.005074,8.81,0.03815,0,1,0
39600000000,39900000000,3717263317,0,226149974,0.001965,0.004662,0.007668,0.002895,0.003853,0.004669,2.575e-05,5.817e-05,0.01028,0.0009995,8.36,0.03664,0,1,0
39900000000,40200000000,3717263317,0,226149974,0.002113,0.004662,0.007668,0.00251,0.003468,0.004677,0.0001249,5.913e-05,0.01117,0.003998,8.828,0.03888,0,1,0
40200000000,40500000000,3717263317,0,226149974,0.001825,0.004677,0.007668,0.002552,0.003513,0.004707,3.433e-05,5.913e-05,0.04266,0.0007858,8.281,0.03783,0,1,0
40500000000,40800000000,3717263317,0,226149974,0.001772,0.0047,0.007668,0.002598,0.003555,0.004707,4.196e-05,5.913e-05,0.008942,0.001429,7.752,0.03545,0,1,0
51000000000,51300000000,3717263317,0,226149974,0.002201,0.0047,0.007668,0.003754,0.004715,0.004715,5.817e-05,6.199e-05,0.0106,0.0007143,6.781,0.03048,0,1,0
51300000000,51600000000,3717263317,0,226149974,0.002399,0.004715,0.007668,0.003735,0.004692,0.004738,0.000104,6.294e-05,0.01004,0.006432,7.105,0.03225,0,1,0
51600000000,51900000000,3717263317,0,226149974,0.002468,0.004715,0.007668,0.003719,0.004677,0.004768,7.725e-05,6.294e-05,0.03638,0.001358,6.049,0.02657,0,1,0
51900000000,52200000000,3717263317,0,226149974,0.002613,0.004715,0.007668,0.003719,0.004677,0.004745,0.0001001,6.199e-05,0.01396,0.004143,6.333,0.02826,0,1,0
52200000000,52500000000,3717263317,0,226149974,0.002663,0.004715,0.007668,0.003544,0.004509,0.004738,8.965e-05,6.294e-05,0.01239,0.003429,7.296,0.03254,0,1,0
52500000000,52800000000,3717263317,0,226149974,0.00235,0.004723,0.007668,0.003571,0.004532,0.004822,7.915e-05,6.294e-05,0.01329,0.005646,6.012,0.02636,0,1,0
53100000000,53400000000,3717263317,0,2599764148,0.004974,0.003475,0.006653,0.0008621,0.001602,0.008484,0.001474,7.629e-06,0.1013,0.07373,7.494,0.03071,0,1,0
53400000000,53700000000,3717263317,0,2599764148,0.00399,0.004257,0.007713,0.0008831,0.001856,0.004318,4.196e-05,8.583e-06,0.01938,0.007713,9.856,0.04166,0,1,0
53700000000,54000000000,3717263317,0,2599764148,0.004105,0.004356,0.007721,0.001036,0.00201,0.004433,2.861e-05,8.583e-06,0.01518,0.002213,10.24,0.04299,0,1,0
54000000000,54300000000,3717263317,0,2599764148,0.004051,0.004425,0.007721,0.00112,0.002094,0.004456,5.627e-05,8.583e-06,0.01678,0.008636,10.48,0.04415,0,1,0
54300000000,54600000000,3717263317,0,2599764148,0.003929,0.004456,0.007721,0.00128,0.002254,0.004471,2.67e-05,9.537e-06,0.0126,0.003429,10.45,0.0447,0,1,0
54600000000,54900000000,3717263317,0,2599764148,0.003929,0.004463,0.007721,0.001362,0.002338,0.004486,2.766e-05,9.537e-06,0.01427,0.003429,10.82,0.04606,0,1,0
54900000000,55200000000,3717263317,0,2599764148,0.004181,0.004486,0.007721,0.001516,0.002491,0.004524,5.245e-05,9.537e-06,0.04144,0.008362,8.828,0.03623,0,1,0
55200000000,55500000000,3717263317,0,2599764148,0.004112,0.004494,0.007721,0.001657,0.002632,0.004509,4.101e-05,1.049e-05,0.01782,0.005859,10.56,0.04494,0,1,0
55500000000,55800000000,3717263317,0,2599764148,0.003937,0.004501,0.007721,0.001505,0.00248,0.004524,8.297e-05,1.049e-05,0.01518,0.01807,9.533,0.04017,0,1,0
55800000000,56100000000,3717263317,0,2599764148,0.003883,0.004517,0.007721,0.001625,0.002602,0.004547,4.482e-05,1.049e-05,0.01898,0.01015,8.959,0.03708,0,1,0
56100000000,56400000000,3717263317,0,2599764148,0.00399,0.004524,0.007721,0.001789,0.002766,0.004562,8.965e-05,1.144e-05,0.0321,0.009354,7.284,0.02913,0,1,0
56400000000,56700000000,3717263317,0,2599764148,0.003906,0.004539,0.007721,0.001919,0.002895,0.004562,5.341e-05,1.24e-05,0.01773,0.009354,9.624,0.0397,0,1,0
56700000000,57000000000,3717263317,0,2599764148,0.003891,0.004555,0.007721,0.002079,0.003056,0.004578,8.583e-05,1.24e-05,0.03784,0.01956,8.403,0.03449,0,1,0
57000000000,57300000000,3717263317,0,2599764148,0.003681,0.004562,0.007721,0.00222,0.003193,0.004585,3.433e-05,1.24e-05,0.01862,0.006073,10.25,0.04311,0,1,0
57300000000,57600000000,3717263317,0,2599764148,0.003983,0.00457,0.007721,0.00235,0.003323,0.004601,2.67e-05,1.335e-05,0.02252,0.003143,9.569,0.03939,0,1,0
57600000000,57900000000,3717263317,0,2599764148,0.004105,0.004578,0.007721,0.002434,0.00341,0.004608,3.529e-05,1.335e-05,0.01892,0.006569,8.616,0.03475,0,1,0
57900000000,58200000000,3717263317,0,2599764148,0.004044,0.004585,0.007721,0.002361,0.003338,0.004616,0.0001154,1.431e-05,0.0242,0.01993,9.781,0.04091,0,1,0
58200000000,58500000000,3717263317,0,2599764148,0.00441,0.004608,0.007721,0.002525,0.003502,0.004951,4.101e-05,1.431e-05,0.06183,0.004929,10.13,0.04265,0,1,0
58500000000,58800000000,3717263317,0,2599764148,0.004349,0.004601,0.007721,0.00272,0.003696,0.004646,4.673e-05,1.431e-05,0.02213,0.009293,9.525,0.03951,0,1,0
58800000000,59100000000,3717263317,0,2599764148,0.004135,0.004616,0.007721,0.002876,0.003853,0.004791,7.915e-05,1.526e-05,0.04553,0.006783,9.924,0.04152,0,1,0
59100000000,59400000000,3717263317,0,2599764148,0.004105,0.004639,0.007721,0.003036,0.004013,0.004677,4.959e-05,1.526e-05,0.02173,0.009995,8.192,0.03359,0,1,0
59400000000,59700000000,3717263317,0,2599764148,0.00396,0.004639,0.007721,0.003178,0.004158,0.004814,6.294e-05,1.621e-05,0.01706,0.00914,10.03,0.04235,0,1,0
59700000000,60000000000,3717263317,0,2599764148,0.004379,0.004662,0.007721,0.003342,0.004318,0.004799,0.0001326,1.621e-05,0.05396,0.01071,7.129,0.02868,0,1,0
60000000000,60300000000,3717263317,0,2599764148,0.004158,0.004677,0.007721,0.003262,0.004242,0.004875,5.054e-05,1.717e-05,0.03827,0.008286,9.78,0.04061,0,1,0
60300000000,60600000000,3717263317,0,2599764148,0.004349,0.004684,0.007721,0.003345,0.004326,0.004875,4.864e-05,1.717e-05,0.05792,0.005569,7.675,0.03113,0,1,0
60600000000,60900000000,3717263317,0,2599764148,0.004059,0.004684,0.007721,0.003567,0.004547,0.004738,6.008e-05,1.812e-05,0.01794,0.009293,7.881,0.0321,0,1,0
70800000000,71100000000,3717263317,0,2599764148,0.003799,0.004608,0.007721,0.003784,0.004761,0.004662,9.727e-05,2.956e-05,0.02173,0.01172,9.073,0.03804,0,1,0
71100000000,71400000000,3717263317,0,2599764148,0.00375,0.004608,0.007721,0.003922,0.004898,0.004631,5.054e-05,2.956e-05,0.02231,0.00914,8.689,0.03616,0,1,0
71400000000,71700000000,3717263317,0,2599764148,0.003765,0.004593,0.007721,0.003723,0.0047,0.004616,2.766e-05,2.956e-05,0.01651,0.002071,9.558,0.03947,0,1,0
71700000000,72000000000,3717263317,0,2599764148,0.003685,0.00457,0.007721,0.003777,0.004753,0.004593,7.057e-05,2.956e-05,0.01608,0.007935,9.612,0.04034,0,1,0
72000000000,72300000000,3717263317,0,2599764148,0.00399,0.004562,0.007721,0.003902,0.004883,0.004593,7.915e-05,2.956e-05,0.01587,0.009079,9.622,0.03949,0,1,0
72300000000,72600000000,3717263317,0,2599764148,0.004074,0.004562,0.007713,0.003967,0.004944,0.004593,6.771e-05,3.052e-05,0.03302,0.01028,8.067,0.03327,0,1,0
72600000000,72900000000,3717263317,0,2599764148,0.003838,0.004555,0.007721,0.003998,0.004974,0.00457,0.0001011,3.052e-05,0.03271,0.004448,10.04,0.04281,0,1,0
72900000000,73200000000,3717263317,0,2599764148,0.003906,0.004555,0.007721,0.003998,0.004974,0.004562,0.0001268,3.052e-05,0.02042,0.01543,10.8,0.04617,0,1,0
73200000000,73500000000,3717263317,0,2599764148,0.003944,0.004555,0.007721,0.003998,0.004974,0.004562,3.052e-05,3.147e-05,0.01596,0.001215,10.95,0.04684,0,1,0
73500000000,73800000000,3717263317,0,2599764148,0.004089,0.004555,0.007721,0.00399,0.004967,0.004593,9.537e-05,3.147e-05,0.01965,0.00972,9.764,0.04023,0,1,0
73800000000,74100000000,3717263317,0,2599764148,0.004013,0.004562,0.007721,0.003887,0.004868,0.004601,8.011e-05,3.147e-05,0.04156,0.01642,9.628,0.04076,0,1,0
74100000000,74400000000,3717263317,0,2599764148,0.004135,0.00457,0.007721,0.00375,0.00473,0.004585,0.0001411,3.147e-05,0.02808,0.01314,7.173,0.02877,0,1,0
74400000000,74700000000,3717263317,0,2599764148,0.004456,0.00457,0.007721,0.003891,0.004868,0.004585,0.0003338,3.147e-05,0.01767,0.008423,10.13,0.04209,0,1,0
74700000000,75000000000,3717263317,0,2599764148,0.003975,0.00457,0.007721,0.003967,0.004944,0.004593,0.0001163,3.242e-05,0.01666,0.01007,9.655,0.04013,0,1,0
75000000000,75300000000,3717263317,0,2599764148,0.003727,0.004562,0.007721,0.00399,0.004967,0.00457,6.008e-05,3.242e-05,0.01387,0.007072,10.24,0.0431,0,1,0
75300000000,75600000000,3717263317,0,2599764148,0.004005,0.00457,0.007721,0.003975,0.004951,0.004616,2.67e-05,3.338e-05,0.04205,0.0009289,9.539,0.03948,0,1,0
75600000000,75900000000,3717263317,0,2599764148,0.004097,0.004578,0.007713,0.00396,0.004936,0.004608,6.58e-05,3.338e-05,0.03925,0.006569,9.434,0.03904,0,1,0
75900000000,76200000000,3717263317,0,2599764148,0.003746,0.004562,0.007713,0.003983,0.004959,0.004578,8.488e-05,3.338e-05,0.01843,0.008148,9.021,0.03772,0,1,0
76200000000,76500000000,3717263317,0,2599764148,0.003441,0.004578,0.007721,0.003876,0.004852,0.004601,9.441e-05,3.338e-05,0.03253,0.01271,9.301,0.03904,0,1,0
76500000000,76800000000,3717263317,0,2599764148,0.003559,0.004562,0.007721,0.003746,0.004723,0.004585,6.58e-05,3.338e-05,0.01334,0.006569,9.765,0.04059,0,1,0
76800000000,77100000000,3717263317,0,2599764148,0.003429,0.004562,0.007721,0.003349,0.004326,0.00457,8.965e-05,3.433e-05,0.01382,0.01329,10.32,0.04394,0,1,0
77100000000,77400000000,3717263317,0,2599764148,0.003384,0.004562,0.007721,0.003078,0.004059,0.004593,2.956e-05,3.433e-05,0.01395,0.0009995,9.308,0.03906,0,1,0
77400000000,77700000000,3717263317,0,2599764148,0.003506,0.00457,0.007721,0.003231,0.004211,0.004593,7.629e-05,3.433e-05,0.01624,0.01151,9.221,0.03856,0,1,0
77700000000,78000000000,3717263317,0,2599764148,0.003448,0.004578,0.007721,0.003353,0.004333,0.004593,0.0001516,3.529e-05,0.02139,0.01791,7.023,0.02845,0,1,0
78000000000,78300000000,3717263317,0,2599764148,0.003757,0.00457,0.007713,0.00346,0.00444,0.0047,4.673e-05,3.529e-05,0.0318,0.004929,8.636,0.03574,0,1,0
78300000000,78600000000,3717263317,0,2599764148,0.005974,0.004677,0.007706,0.003704,0.004677,0.004852,0.0001583,3.529e-05,0.08545,0.01172,4.517,0.01678,0,1,0
78600000000,78900000000,3717263317,0,2599764148,0.005463,0.004715,0.007706,0.003582,0.004562,0.005043,0.000124,3.624e-05,0.05231,0.008423,6.266,0.02496,0,1,0
78900000000,79200000000,3717263317,0,2599764148,0.004227,0.004692,0.007713,0.00346,0.004433,0.00499,0.0001049,3.624e-05,0.06061,0.01064,9.025,0.03844,0,1,0
79200000000,79500000000,3717263317,0,2599764148,0.003929,0.004669,0.007721,0.003357,0.004333,0.005051,5.054e-05,3.624e-05,0.03082,0.006218,10.76,0.04616,0,1,0
79500000000,79800000000,3717263317,0,2599764148,0.004333,0.004692,0.007713,0.003487,0.004463,0.00499,6.485e-05,3.719e-05,0.03363,0.006142,9.921,0.04253,0,1,0
79800000000,80100000000,3717263317,0,2599764148,0.003803,0.004669,0.007721,0.003593,0.00457,0.004997,0.0001059,3.719e-05,0.04352,0.0105,9.569,0.04074,0,1,0
80100000000,80400000000,3717263317,0,2599764148,0.003464,0.004684,0.007729,0.003704,0.004684,0.004738,6.294e-05,3.719e-05,0.03979,0.005074,8.572,0.03571,0,1,0
80400000000,80700000000,3717263317,0,2599764148,0.003223,0.004692,0.007729,0.003845,0.004822,0.004707,6.485e-05,3.815e-05,0.01492,0.007286,8.686,0.0364,0,1,0
80700000000,81000000000,3717263317,0,2599764148,0.003212,0.0047,0.007721,0.003853,0.004829,0.004715,6.771e-05,3.815e-05,0.04456,0.01215,10.6,0.04621,0,1,0
85800000000,86100000000,3717263317,0,2599764148,0.003052,0.004707,0.007721,0.003799,0.004776,0.00473,2.67e-05,4.005e-05,0.01849,0.001215,9.103,0.03782,0,1,0
86100000000,86400000000,3717263317,0,2599764148,0.00309,0.004723,0.007721,0.003551,0.004532,0.004745,5.722e-05,4.005e-05,0.01871,0.005432,10.14,0.0431,0,1,0
86400000000,86700000000,3717263317,0,2599764148,0.003147,0.004723,0.007721,0.003685,0.004662,0.004745,4.578e-05,4.005e-05,0.01636,0.00293,10.08,0.04184,0,1,0
86700000000,87000000000,3717263317,0,2599764148,0.003014,0.0047,0.007729,0.003754,0.00473,0.004745,4.673e-05,4.005e-05,0.01372,0.005569,11.02,0.04712,0,1,0
87000000000,87300000000,3717263317,0,2599764148,0.002823,0.004707,0.007721,0.003819,0.004791,0.004738,8.774e-05,4.101e-05,0.01898,0.01007,9.914,0.04277,0,1,0
87300000000,87600000000,3717263317,0,2599764148,0.002899,0.0047,0.007721,0.003849,0.004822,0.004723,4.101e-05,4.101e-05,0.03735,0.001642,9.681,0.04107,0,1,0
87600000000,87900000000,3717263317,0,2599764148,0.00296,0.0047,0.007721,0.003822,0.004799,0.004738,5.722e-05,4.101e-05,0.01917,0.005714,11.29,0.04899,0,1,0
87900000000,88200000000,3717263317,0,2599764148,0.003002,0.004715,0.007721,0.00383,0.004807,0.004745,7.915e-05,4.101e-05,0.01996,0.007355,9.25,0.03948,0,1,0
88200000000,88500000000,3717263317,0,2599764148,0.002953,0.004707,0.007721,0.003834,0.004807,0.004738,5.15e-05,4.196e-05,0.02026,0.004997,9.564,0.04076,0,1,0
88500000000,88800000000,3717263317,0,2599764148,0.003193,0.0047,0.007721,0.003834,0.004807,0.004738,0.0001822,4.196e-05,0.06567,0.02194,7.394,0.02991,0,1,0
88800000000,89100000000,3717263317,0,2599764148,0.00309,0.0047,0.007721,0.003681,0.004654,0.004745,8.678e-05,4.196e-05,0.01807,0.004501,9.674,0.04058,0,1,0
89100000000,89400000000,3717263317,0,2599764148,0.003025,0.004707,0.007721,0.003769,0.004745,0.004745,7.343e-05,4.196e-05,0.01407,0.008286,9.924,0.04253,0,1,0
89400000000,89700000000,3717263317,0,2599764148,0.003006,0.004715,0.007721,0.003567,0.004539,0.004745,3.529e-05,4.196e-05,0.01372,0.001642,9.592,0.04145,0,1,0
89700000000,90000000000,3717263317,0,2599764148,0.003025,0.0047,0.007721,0.003685,0.004662,0.004738,7.248e-05,4.196e-05,0.01407,0.01199,11.01,0.04749,0,1,0
90000000000,90300000000,3717263317,0,2599764148,0.003197,0.004715,0.007721,0.003784,0.004761,0.004745,9.537e-05,4.196e-05,0.01685,0.01129,10.58,0.04406,0,1,0
90300000000,90600000000,3717263317,0,2599764148,0.002979,0.004723,0.007721,0.003834,0.004807,0.004745,3.242e-05,4.292e-05,0.01472,0.002571,10.03,0.04197,0,1,0
90600000000,90900000000,3717263317,0,2599764148,0.002972,0.004707,0.007721,0.003822,0.004799,0.004753,8.488e-05,4.292e-05,0.03906,0.009003,9.689,0.04107,0,1,0
101100000000,101400000000,3717263317,0,2599764148,0.002529,0.004745,0.007729,0.003754,0.00473,0.004768,3.147e-05,4.864e-05,0.01335,0.00243,8.877,0.03701,0,1,0
101400000000,101700000000,3717263317,0,2599764148,0.002644,0.004745,0.007721,0.003796,0.004776,0.004776,6.39e-05,4.864e-05,0.01492,0.004929,9.501,0.04008,0,1,0
101700000000,102000000000,3717263317,0,2599764148,0.002674,0.004745,0.007721,0.003803,0.004776,0.004761,5.531e-05,4.864e-05,0.01263,0.006218,9.307,0.03962,0,1,0
102000000000,102300000000,3717263317,0,2599764148,0.002506,0.004761,0.007729,0.003799,0.004776,0.004761,3.624e-05,4.959e-05,0.01031,0.002499,11.32,0.0493,0,1,0
102300000000,102600000000,3717263317,0,2599764148,0.002541,0.004715,0.007721,0.003819,0.004791,0.00473,3.338e-05,4.959e-05,0.02582,0.002213,10.91,0.0469,0,1,0
102600000000,102900000000,3717263317,0,2599764148,0.002697,0.004745,0.007721,0.003807,0.004784,0.004768,7.057e-05,4.959e-05,0.01834,0.007286,9.594,0.04061,0,1,0
102900000000,103200000000,3717263317,0,2599764148,0.002724,0.00473,0.007721,0.003738,0.004715,0.004753,0.0001087,4.959e-05,0.02533,0.01036,7.104,0.02867,0,1,0
103200000000,103500000000,3717263317,0,2599764148,0.002712,0.004723,0.007721,0.003651,0.004631,0.004768,3.529e-05,4.959e-05,0.0144,0.001358,9.344,0.04002,0,1,0
103500000000,103800000000,3717263317,0,2599764148,0.002602,0.00473,0.007729,0.003757,0.004738,0.004745,6.39e-05,5.054e-05,0.0159,0.009781,10.49,0.04471,0,1,0
103800000000,104100000000,3717263317,0,2599764148,0.002502,0.004745,0.007729,0.003807,0.004784,0.004761,2.861e-05,5.054e-05,0.009323,0.001928,10.24,0.0448,0,1,0
104100000000,104400000000,3717263317,0,2599764148,0.002571,0.004707,0.007721,0.003777,0.004753,0.00473,4.005e-05,4.959e-05,0.01012,0.002285,9.289,0.03949,0,1,0
104400000000,104700000000,3717263317,0,2599764148,0.002724,0.00473,0.007721,0.003605,0.004585,0.004761,7.534e-05,4.959e-05,0.0139,0.01385,10.14,0.0437,0,1,0
104700000000,105000000000,3717263317,0,2599764148,0.002602,0.00473,0.007721,0.003693,0.004669,0.004753,2.289e-05,5.054e-05,0.01578,0.0007858,9.973,0.04299,0,1,0
105000000000,105300000000,3717263317,0,2599764148,0.002728,0.004738,0.007721,0.003784,0.004761,0.004768,4.673e-05,5.054e-05,0.01749,0.005211,9.823,0.04168,0,1,0
105300000000,105600000000,3717263317,0,2599764148,0.00275,0.004723,0.007721,0.003822,0.004799,0.004745,4.578e-05,5.054e-05,0.01204,0.002785,11.09,0.04826,0,1,0
105600000000,105900000000,3717263317,0,2599764148,0.002628,0.004738,0.007721,0.003811,0.004791,0.004761,2.193e-05,5.054e-05,0.01358,0.001286,10.75,0.04637,0,1,0
105900000000,106200000000,3717263317,0,2599764148,0.00264,0.004715,0.007721,0.003838,0.004814,0.00473,7.82e-05,5.054e-05,0.01286,0.01164,10.59,0.04625,0,1,0
106200000000,106500000000,3717263317,0,2599764148,0.002522,0.00473,0.007729,0.003826,0.004799,0.004745,4.482e-05,5.15e-05,0.03632,0.003216,11.77,0.05153,0,1,0
106500000000,106800000000,3717263317,0,2599764148,0.002491,0.004753,0.007721,0.003792,0.004768,0.004761,0.0001221,5.15e-05,0.02161,0.02386,7.497,0.0311,0,1,0
106800000000,107100000000,3717263317,0,2599764148,0.002563,0.004715,0.007721,0.003716,0.004692,0.004761,2.956e-05,5.15e-05,0.009354,0.001499,11.01,0.04761,0,1,0
107100000000,107400000000,3717263317,0,2599764148,0.003094,0.004715,0.007721,0.00367,0.004646,0.004745,4.673e-05,5.15e-05,0.0256,0.001572,10.54,0.04482,0,1,0
107400000000,107700000000,3717263317,0,2599764148,0.002872,0.004715,0.007721,0.003777,0.004753,0.004745,6.676e-05,5.15e-05,0.0143,0.005928,8.35,0.03446,0,1,0
107700000000,108000000000,3717263317,0,2599764148,0.002331,0.004738,0.007729,0.003826,0.004799,0.004745,3.719e-05,5.15e-05,0.01009,0.003284,11.32,0.04961,0,1,0
108000000000,108300000000,3717263317,0,2599764148,0.002472,0.00473,0.007721,0.003815,0.004791,0.004753,3.433e-05,5.245e-05,0.01076,0.001999,10.61,0.04602,0,1,0
108300000000,108600000000,3717263317,0,2599764148,0.002361,0.004723,0.007721,0.003754,0.00473,0.004738,5.531e-05,5.15e-05,0.01511,0.009506,9.21,0.03934,0,1,0
108600000000,108900000000,3717263317,0,2599764148,0.002449,0.004738,0.007721,0.003559,0.004539,0.004745,7.057e-05,5.15e-05,0.009018,0.003216,11.32,0.04965,0,1,0
108900000000,109200000000,3717263317,0,2599764148,0.002331,0.004715,0.007721,0.003624,0.004601,0.004753,2.956e-05,5.15e-05,0.0116,0.001572,10.8,0.04673,0,1,0
109200000000,109500000000,3717263317,0,2599764148,0.002281,0.004692,0.007729,0.00367,0.004646,0.004707,2.48e-05,5.15e-05,0.01013,0.001572,10.79,0.04773,0,1,0
109500000000,109800000000,3717263317,0,2599764148,0.002373,0.0047,0.007729,0.003704,0.004677,0.004707,3.052e-05,5.245e-05,0.011,0.002716,11.68,0.05034,0,1,0
109800000000,110100000000,3717263317,0,2599764148,0.002277,0.004707,0.007729,0.00375,0.004723,0.004723,2.48e-05,5.245e-05,0.01036,0.001572,10.46,0.04583,0,1,0
110400000000,110700000000,3717263317,0,38637370,0.001492,0.003574,0.007217,0.0008526,0.001678,0.004654,0.002045,7.629e-06,0.01685,0.04901,4.082,0.01687,0,1,0
110700000000,111000000000,3717263317,0,38637370,0.001791,0.004158,0.007637,0.0006418,0.001616,0.004204,4.673e-05,7.629e-06,0.04559,0.005569,8.299,0.03924,0,1,0
116100000000,116400000000,3717263317,0,38637370,0.001617,0.004478,0.007652,0.001282,0.002262,0.004494,2.193e-05,1.049e-05,0.01088,0.003857,8.539,0.04199,0,1,0
116400000000,116700000000,3717263317,0,38637370,0.001667,0.004486,0.007652,0.00132,0.0023,0.004501,1.907e-05,1.049e-05,0.01822,0.00293,8.995,0.04444,0,1,0
116700000000,117000000000,3717263317,0,38637370,0.001522,0.004486,0.007652,0.001356,0.002335,0.004501,1.526e-05,1.049e-05,0.008774,0.002716,8.445,0.04174,0,1,0
117000000000,117300000000,3717263317,0,38637370,0.001646,0.004486,0.007652,0.001394,0.002373,0.004501,2.575e-05,1.049e-05,0.006767,0.004646,8.082,0.03809,0,1,0
117300000000,117600000000,3717263317,0,38637370,0.001795,0.004494,0.007652,0.001453,0.002434,0.004509,8.774e-05,1.049e-05,0.01482,0.01244,8.897,0.04266,0,1,0
117600000000,117900000000,3717263317,0,38637370,0.0016,0.004494,0.007652,0.00148,0.00246,0.004517,1.526e-05,1.144e-05,0.008835,0.0007143,7.623,0.03625,0,1,0
117900000000,118200000000,3717263317,0,38637370,0.001713,0.004501,0.007652,0.001469,0.002449,0.004517,2.861e-05,1.144e-05,0.01587,0.002785,9.104,0.04448,0,1,0
118200000000,118500000000,3717263317,0,38637370,0.001667,0.004486,0.007652,0.001492,0.002472,0.004501,1.335e-05,1.144e-05,0.01422,0.001928,9.57,0.04665,0,1,0
118500000000,118800000000,3717263317,0,38637370,0.001551,0.004501,0.007652,0.001495,0.002476,0.004509,2.193e-05,1.144e-05,0.009201,0.00293,8.49,0.04151,0,1,0
118800000000,119100000000,3717263317,0,38637370,0.001715,0.004501,0.007652,0.001486,0.002464,0.004517,1.24e-05,1.144e-05,0.009399,0.001286,8.951,0.04313,0,1,0
119100000000,119400000000,3717263317,0,38637370,0.001652,0.004509,0.007652,0.00149,0.002468,0.004524,3.624e-05,1.144e-05,0.01001,0.003716,8.432,0.04107,0,1,0
119400000000,119700000000,3717263317,0,38637370,0.001642,0.004509,0.007652,0.001312,0.002293,0.004524,3.242e-05,1.144e-05,0.00853,0.004288,8.972,0.04275,0,1,0
119700000000,120000000000,3717263317,0,38637370,0.001669,0.004509,0.007652,0.001207,0.002186,0.004524,2.098e-05,1.24e-05,0.006821,0.002644,8.888,0.04373,0,1,0
120000000000,120300000000,3717263317,0,38637370,0.001692,0.004501,0.007652,0.001244,0.002224,0.004517,2.003e-05,1.24e-05,0.006371,0.003143,8.692,0.04283,0,1,0
120300000000,120600000000,3717263317,0,38637370,0.001652,0.004509,0.007652,0.00128,0.002258,0.004524,2.384e-05,1.24e-05,0.006981,0.003857,9.197,0.04495,0,1,0
120600000000,120900000000,3717263317,0,38637370,0.001677,0.004509,0.007652,0.001316,0.002293,0.004524,1.526e-05,1.24e-05,0.007278,0.002144,9.284,0.04662,0,1,0
126000000000,126300000000,3717263317,0,38637370,0.001602,0.00457,0.007652,0.001637,0.002613,0.004593,1.621e-05,1.526e-05,0.006401,0.001858,8.779,0.04246,0,1,0
126300000000,126600000000,3717263317,0,38637370,0.001661,0.004562,0.007652,0.00165,0.002628,0.004593,1.907e-05,1.526e-05,0.007996,0.001858,8.824,0.04284,0,1,0
126600000000,126900000000,3717263317,0,38637370,0.001657,0.004578,0.007652,0.001675,0.002655,0.004578,8.869e-05,1.526e-05,0.007072,0.009216,9.192,0.04533,0,1,0
126900000000,127200000000,3717263317,0,38637370,0.001778,0.00457,0.007652,0.001743,0.002724,0.004593,4.005e-05,1.526e-05,0.007217,0.003216,9.135,0.04305,0,1,0
127200000000,127500000000,3717263317,0,38637370,0.001787,0.00457,0.007652,0.001768,0.002747,0.004578,1.717e-05,1.526e-05,0.007874,0.001106,9.71,0.04666,0,1,0
127500000000,127800000000,3717263317,0,38637370,0.001596,0.00457,0.007652,0.001795,0.002773,0.004585,1.621e-05,1.526e-05,0.008148,0.001715,9.026,0.04289,0,1,0
127800000000,128100000000,3717263317,0,38637370,0.001627,0.004585,0.007652,0.00181,0.002789,0.004601,1.907e-05,1.526e-05,0.005501,0.001429,8.752,0.04277,0,1,0
128100000000,128400000000,3717263317,0,38637370,0.001667,0.00457,0.007652,0.001865,0.002846,0.004601,0.0001326,1.621e-05,0.01733,0.02478,7.59,0.03654,0,1,0
128400000000,128700000000,3717263317,0,38637370,0.001822,0.004585,0.007652,0.001904,0.002884,0.004593,1.526e-05,1.621e-05,0.009262,0.001072,8.855,0.0422,0,1,0
128700000000,129000000000,3717263317,0,38637370,0.001701,0.004585,0.007652,0.001894,0.002872,0.004601,3.242e-05,1.621e-05,0.007568,0.003716,8.604,0.04184,0,1,0
129000000000,129300000000,3717263317,0,38637370,0.001648,0.004578,0.007652,0.001904,0.002884,0.004585,1.621e-05,1.621e-05,0.007751,0.0009995,8.721,0.04289,0,1,0
129300000000,129600000000,3717263317,0,38637370,0.001684,0.004585,0.007652,0.001741,0.00272,0.004601,1.144e-05,1.621e-05,0.01036,0.0007143,8.254,0.04034,0,1,0
129600000000,129900000000,3717263317,0,38637370,0.001684,0.004593,0.007652,0.001631,0.002609,0.004608,3.147e-05,1.621e-05,0.01196,0.003643,9.081,0.0452,0,1,0
129900000000,130200000000,3717263317,0,38637370,0.001713,0.004578,0.007652,0.001669,0.002647,0.004601,1.812e-05,1.621e-05,0.006302,0.002071,8.509,0.04099,0,1,0
130200000000,130500000000,3717263317,0,38637370,0.001753,0.00457,0.007652,0.001709,0.002689,0.004601,3.147e-05,1.621e-05,0.00885,0.005783,8.528,0.04183,0,1,0
130500000000,130800000000,3717263317,0,38637370,0.00185,0.004578,0.007652,0.001751,0.002731,0.004585,2.289e-05,1.621e-05,0.007668,0.002998,8.804,0.04296,0,1,0
130800000000,131100000000,3717263317,0,38637370,0.001724,0.004585,0.007652,0.001781,0.002758,0.004601,4.101e-05,1.717e-05,0.06726,0.005287,7.309,0.03455,0,1,0
141000000000,141300000000,3717263317,0,38637370,0.002598,0.004471,0.007645,0.002361,0.003342,0.004494,8.392e-05,2.098e-05,0.01257,0.01143,7.888,0.03689,0,1,0
141300000000,141600000000,3717263317,0,38637370,0.002598,0.004463,0.007645,0.002495,0.003471,0.004494,8.106e-05,2.193e-05,0.01451,0.009506,6.876,0.03127,0,1,0
141600000000,141900000000,3717263317,0,38637370,0.00251,0.004471,0.007645,0.002625,0.003605,0.004501,7.248e-05,2.193e-05,0.01392,0.01135,6.608,0.0303,0,1,0
141900000000,142200000000,3717263317,0,38637370,0.002846,0.004478,0.007645,0.002735,0.003712,0.004616,9.155e-05,2.193e-05,0.02701,0.01292,6.746,0.03053,0,1,0
142200000000,142500000000,3717263317,0,38637370,0.002888,0.004494,0.007652,0.002777,0.003757,0.004524,6.39e-05,2.289e-05,0.01318,0.007217,7.626,0.03463,0,1,0
142500000000,142800000000,3717263317,0,38637370,0.00267,0.004501,0.007645,0.002853,0.003834,0.004539,0.000186,2.289e-05,0.0473,0.02051,6.926,0.0323,0,1,0
142800000000,143100000000,3717263317,0,38637370,0.00267,0.004509,0.007645,0.00312,0.004097,0.004539,7.153e-05,2.289e-05,0.01482,0.008926,6.623,0.03141,0,1,0
143100000000,143400000000,3717263317,0,38637370,0.002686,0.004501,0.007645,0.003208,0.004189,0.004532,3.242e-05,2.384e-05,0.01195,0.005287,7.05,0.03324,0,1,0
143400000000,143700000000,3717263317,0,38637370,0.002804,0.004517,0.007645,0.003086,0.004066,0.004539,8.202e-05,2.289e-05,0.01302,0.01071,6.947,0.03219,0,1,0
143700000000,144000000000,3717263317,0,38637370,0.002583,0.004517,0.007645,0.002926,0.003906,0.004547,6.866e-05,2.384e-05,0.01309,0.01157,7.248,0.03305,0,1,0
144000000000,144300000000,3717263317,0,38637370,0.002548,0.004524,0.007645,0.003036,0.004013,0.004547,5.817e-05,2.384e-05,0.01071,0.005859,7.393,0.03424,0,1,0
144300000000,144600000000,3717263317,0,38637370,0.002663,0.004524,0.007645,0.003132,0.004112,0.004555,0.0001163,2.48e-05,0.02701,0.01907,6.865,0.03139,0,1,0
144600000000,144900000000,3717263317,0,38637370,0.00267,0.004517,0.007645,0.003239,0.004219,0.004547,7.343e-05,2.48e-05,0.01469,0.006432,6.256,0.02837,0,1,0
144900000000,145200000000,3717263317,0,38637370,0.002663,0.004509,0.007652,0.003323,0.004303,0.004547,2.289e-05,2.48e-05,0.01039,0.002285,8.125,0.0387,0,1,0
145200000000,145500000000,3717263317,0,38637370,0.002602,0.004509,0.007645,0.003414,0.004395,0.004539,7.343e-05,2.575e-05,0.01208,0.008423,7.754,0.03672,0,1,0
145500000000,145800000000,3717263317,0,38637370,0.002697,0.004509,0.007645,0.003506,0.004486,0.004539,6.962e-05,2.575e-05,0.009766,0.006287,6.946,0.03212,0,1,0
145800000000,146100000000,3717263317,0,38637370,0.002762,0.004524,0.007645,0.003563,0.004539,0.004677,8.869e-05,2.575e-05,0.04614,0.007141,6.655,0.0305,0,1,0
151200000000,151500000000,3717263317,0,38637370,0.002869,0.004623,0.007645,0.003525,0.004501,0.004662,0.000103,3.052e-05,0.01436,0.01015,7.05,0.0323,0,1,0
151500000000,151800000000,3717263317,0,38637370,0.002682,0.004631,0.007645,0.003353,0.004333,0.004669,8.392e-05,3.052e-05,0.01007,0.01199,7.342,0.03417,0,1,0
151800000000,152100000000,3717263317,0,38637370,0.002926,0.004623,0.007645,0.003498,0.004478,0.004707,0.000103,3.147e-05,0.01584,0.01265,7.197,0.03295,0,1,0
152100000000,152400000000,3717263317,0,38637370,0.002811,0.004623,0.007652,0.003639,0.004616,0.004662,9.727e-05,3.147e-05,0.01682,0.007645,7.024,0.03225,0,1,0
152400000000,152700000000,3717263317,0,38637370,0.002987,0.004623,0.007645,0.003731,0.004715,0.004738,0.0001125,3.242e-05,0.03339,0.02008,6.371,0.02899,0,1,0
152700000000,153000000000,3717263317,0,38637370,0.002911,0.004593,0.007645,0.003738,0.004715,0.004623,0.0001011,3.242e-05,0.0139,0.006714,7.564,0.0353,0,1,0
153000000000,153300000000,3717263317,0,38637370,0.003036,0.004623,0.007645,0.003769,0.004745,0.004639,6.39e-05,3.242e-05,0.01517,0.005432,7.538,0.03535,0,1,0
153300000000,153600000000,3717263317,0,38637370,0.003117,0.004631,0.007645,0.003792,0.004768,0.004654,0.0001831,3.338e-05,0.02997,0.02786,8.52,0.04023,0,1,0
153600000000,153900000000,3717263317,0,38637370,0.002789,0.004608,0.007645,0.003689,0.004669,0.004639,4.578e-05,3.338e-05,0.01263,0.003216,8.34,0.03911,0,1,0
153900000000,154200000000,3717263317,0,38637370,0.002991,0.004631,0.007645,0.00359,0.00457,0.004662,0.0001049,3.242e-05,0.01222,0.00943,7.885,0.037,0,1,0
154200000000,154500000000,3717263317,0,38637370,0.002956,0.004631,0.007645,0.003567,0.004547,0.004677,0.0001202,3.338e-05,0.01614,0.02307,8.086,0.03753,0,1,0
154500000000,154800000000,3717263317,0,38637370,0.002888,0.004608,0.007645,0.0037,0.004677,0.004654,9.537e-05,3.338e-05,0.01755,0.007072,6.947,0.03142,0,1,0
154800000000,155100000000,3717263317,0,38637370,0.002968,0.004623,0.007645,0.003777,0.004753,0.004662,0.0001011,3.338e-05,0.0209,0.01393,6.517,0.02971,0,1,0
155100000000,155400000000,3717263317,0,38637370,0.002945,0.004623,0.007645,0.003788,0.004768,0.004654,8.774e-05,3.433e-05,0.03729,0.009506,6.909,0.03177,0,1,0
155400000000,155700000000,3717263317,0,38637370,0.002964,0.004608,0.007645,0.003799,0.004776,0.004654,0.0001011,3.433e-05,0.01636,0.00943,7.829,0.03653,0,1,0
155700000000,156000000000,3717263317,0,38637370,0.00296,0.004623,0.007645,0.003796,0.004776,0.004654,8.774e-05,3.529e-05,0.02258,0.008789,7.622,0.03471,0,1,0
161100000000,161400000000,3717263317,0,38637370,0.002583,0.004631,0.007645,0.003754,0.00473,0.004662,9.632e-05,3.91e-05,0.01204,0.01178,7.056,0.0328,0,1,0
161400000000,161700000000,3717263317,0,38637370,0.002426,0.004631,0.007645,0.00378,0.004761,0.004662,0.000104,3.91e-05,0.01292,0.0188,7.393,0.03506,0,1,0
161700000000,162000000000,3717263317,0,38637370,0.002415,0.004623,0.007645,0.003788,0.004768,0.004646,4.578e-05,3.91e-05,0.01057,0.003216,7.342,0.0347,0,1,0
162000000000,162300000000,3717263317,0,38637370,0.002441,0.004623,0.007645,0.003586,0.004562,0.004662,0.0001211,3.91e-05,0.01178,0.01514,7.47,0.03523,0,1,0
162300000000,162600000000,3717263317,0,38637370,0.002502,0.004623,0.007645,0.003601,0.004578,0.004654,9.727e-05,4.005e-05,0.01315,0.01114,6.626,0.03053,0,1,0
162600000000,162900000000,3717263317,0,38637370,0.002396,0.004631,0.007645,0.003738,0.004715,0.004654,9.441e-05,4.005e-05,0.01299,0.006859,7.367,0.03485,0,1,0
162900000000,163200000000,3717263317,0,38637370,0.002449,0.004616,0.007645,0.003185,0.004166,0.004662,7.439e-05,4.005e-05,0.01221,0.01343,7.228,0.03458,0,1,0
163200000000,163500000000,3717263317,0,38637370,0.002327,0.004631,0.007645,0.003307,0.004288,0.004662,4.196e-05,4.101e-05,0.01158,0.003857,7.731,0.03725,0,1,0
163500000000,163800000000,3717263317,0,38637370,0.0023,0.004639,0.007645,0.003426,0.004402,0.004669,8.774e-05,4.101e-05,0.01219,0.00914,7.31,0.03444,0,1,0
163800000000,164100000000,3717263317,0,38637370,0.002399,0.004631,0.007652,0.003494,0.004471,0.004639,5.913e-05,4.101e-05,0.01337,0.005859,7.755,0.03767,0,1,0
164100000000,164400000000,3717263317,0,38637370,0.002323,0.004623,0.007645,0.003609,0.004585,0.004654,0.0002117,4.101e-05,0.01932,0.01859,7.401,0.03506,0,1,0
164400000000,164700000000,3717263317,0,38637370,0.002201,0.004623,0.007645,0.003685,0.004669,0.004654,4.292e-05,4.101e-05,0.01218,0.003998,6.64,0.03141,0,1,0
164700000000,165000000000,3717263317,0,38637370,0.002213,0.004631,0.007645,0.003693,0.004669,0.004662,0.0001125,4.101e-05,0.01189,0.01401,6.882,0.03244,0,1,0
165000000000,165300000000,3717263317,0,38637370,0.002148,0.004623,0.007645,0.003765,0.004745,0.004662,9.346e-05,4.101e-05,0.01239,0.01151,6.826,0.03211,0,1,0
165300000000,165600000000,3717263317,0,38637370,0.002213,0.004623,0.007645,0.003689,0.004669,0.004669,6.58e-05,4.196e-05,0.01141,0.01164,6.987,0.03334,0,1,0
165600000000,165900000000,3717263317,0,38637370,0.002193,0.004631,0.007645,0.003616,0.004593,0.004669,0.0001011,4.196e-05,0.009415,0.01071,6.966,0.03322,0,1,0
165900000000,166200000000,3717263317,0,38637370,0.002319,0.004631,0.007645,0.00375,0.00473,0.004669,5.054e-05,4.196e-05,0.01154,0.002571,6.448,0.03036,0,1,0
166200000000,166500000000,3717263317,0,38637370,0.002304,0.004616,0.007652,0.003803,0.004784,0.004677,0.0001059,4.292e-05,0.01024,0.01343,6.582,0.03128,0,1,0
166500000000,166800000000,3717263317,0,38637370,0.002316,0.004639,0.007652,0.003788,0.004768,0.004654,7.057e-05,4.292e-05,0.01045,0.006714,7.687,0.03732,0,1,0
166800000000,167100000000,3717263317,0,38637370,0.002449,0.004608,0.007645,0.003796,0.004776,0.004662,6.676e-05,4.292e-05,0.01044,0.003716,7.714,0.03769,0,1,0
167100000000,167400000000,3717263317,0,38637370,0.002575,0.004616,0.007645,0.003784,0.004761,0.004662,3.624e-05,4.292e-05,0.03241,0.0007858,6.928,0.03273,0,1,0
167400000000,167700000000,3717263317,0,38637370,0.002548,0.004623,0.007645,0.003792,0.004768,0.004654,0.0001068,4.292e-05,0.01236,0.006569,6.489,0.03028,0,1,0
167700000000,168000000000,3717263317,0,38637370,0.002327,0.004623,0.007645,0.003735,0.004715,0.004654,0.0001354,4.292e-05,0.01421,0.01987,8.167,0.04006,0,1,0
168000000000,168300000000,3717263317,0,38637370,0.002502,0.004608,0.007645,0.00351,0.004486,0.004639,8.297e-05,4.387e-05,0.01103,0.005783,7.523,0.03561,0,1,0
168300000000,168600000000,3717263317,0,38637370,0.0028,0.004631,0.007652,0.003666,0.004646,0.004662,6.676e-05,4.387e-05,0.01678,0.004997,7.138,0.03362,0,1,0
168600000000,168900000000,3717263317,0,38637370,0.00235,0.004631,0.007652,0.003757,0.004738,0.004662,8.106e-05,4.387e-05,0.01295,0.0075,8.333,0.04061,0,1,0
168900000000,169200000000,3717263317,0,38637370,0.002342,0.004631,0.007645,0.003788,0.004768,0.004662,4.196e-05,4.387e-05,0.01099,0.004646,7.122,0.0335,0,1,0
169200000000,169500000000,3717263317,0,38637370,0.00227,0.004608,0.007645,0.003796,0.004776,0.004646,0.0001011,4.482e-05,0.01169,0.01393,6.416,0.02983,0,1,0
169500000000,169800000000,3717263317,0,38637370,0.002113,0.004631,0.007645,0.003796,0.004776,0.004654,0.0001307,4.482e-05,0.01192,0.01401,6.561,0.03086,0,1,0
169800000000,170100000000,3717263317,0,38637370,0.002045,0.004616,0.007652,0.003788,0.004768,0.004654,2.956e-05,4.482e-05,0.01132,0.003502,7.201,0.03453,0,1,0
170100000000,170400000000,3717263317,0,38637370,0.002213,0.004623,0.007645,0.003788,0.004768,0.004654,6.962e-05,4.482e-05,0.01411,0.0075,7.229,0.03436,0,1,0
170400000000,170700000000,3717263317,0,38637370,0.002121,0.004623,0.007652,0.003799,0.004776,0.004639,4.196e-05,4.482e-05,0.01062,0.005211,8.094,0.03886,0,1,0
170700000000,171000000000,3717263317,0,38637370,0.002098,0.004616,0.007645,0.003536,0.004517,0.004669,9.06e-05,4.482e-05,0.02512,0.01143,6.468,0.03028,0,1,0
171000000000,171300000000,3717263317,0,38637370,0.002003,0.004631,0.007652,0.003609,0.004585,0.004646,3.624e-05,4.482e-05,0.01222,0.003857,7.172,0.03442,0,1,0
171300000000,171600000000,3717263317,0,38637370,0.002277,0.004616,0.007645,0.003666,0.004646,0.004654,0.0001564,4.578e-05,0.01715,0.01663,7.791,0.03686,0,1,0
171600000000,171900000000,3717263317,0,38637370,0.002037,0.004616,0.007645,0.003635,0.004616,0.004662,3.433e-05,4.578e-05,0.01822,0.002998,7.409,0.03523,0,1,0
171900000000,172200000000,3717263317,0,38637370,0.002163,0.004616,0.007652,0.003624,0.004601,0.004631,4.959e-05,4.578e-05,0.0118,0.003784,7.353,0.03591,0,1,0
172200000000,172500000000,3717263317,0,38637370,0.00206,0.004639,0.007652,0.003723,0.0047,0.004654,5.054e-05,4.578e-05,0.007843,0.005928,8.109,0.04029,0,1,0
172500000000,172800000000,3717263317,0,38637370,0.002026,0.004623,0.007645,0.003773,0.004753,0.004646,3.719e-05,4.578e-05,0.0177,0.003284,7.39,0.03605,0,1,0
172800000000,173100000000,3717263317,0,38637370,0.001987,0.004608,0.007645,0.003796,0.004776,0.004623,8.297e-05,4.673e-05,0.009216,0.006218,7.133,0.03475,0,1,0
173100000000,173400000000,3717263317,0,38637370,0.001936,0.004631,0.007645,0.00378,0.004761,0.004662,2.861e-05,4.673e-05,0.02628,0.0008574,7.998,0.0395,0,1,0
173400000000,173700000000,3717263317,0,38637370,0.002048,0.004623,0.007645,0.003784,0.004761,0.004662,8.202e-05,4.673e-05,0.01466,0.01015,6.36,0.03004,0,1,0
173700000000,174000000000,3717263317,0,38637370,0.002052,0.004639,0.007652,0.003788,0.004768,0.004654,7.153e-05,4.673e-05,0.01755,0.003643,6.824,0.03231,0,1,0
174000000000,174300000000,3717263317,0,38637370,0.002048,0.004631,0.007652,0.003777,0.004753,0.004662,4.768e-05,4.768e-05,0.02936,0.002357,8.306,0.04042,0,1,0
174300000000,174600000000,3717263317,0,38637370,0.001936,0.004623,0.007645,0.003788,0.004768,0.004662,7.343e-05,4.673e-05,0.03845,0.01271,6.356,0.02981,0,1,0
174600000000,174900000000,3717263317,0,38637370,0.001945,0.004646,0.007645,0.003532,0.004509,0.004662,6.58e-05,4.673e-05,0.01118,0.004425,7.122,0.03447,0,1,0
174900000000,175200000000,3717263317,0,38637370,0.001965,0.004646,0.007645,0.003624,0.004601,0.004677,0.0002003,4.768e-05,0.01715,0.01566,6.567,0.03138,0,1,0
175200000000,175500000000,3717263317,0,38637370,0.001961,0.004631,0.007645,0.003666,0.004646,0.004669,4.005e-05,4.768e-05,0.0141,0.003284,6.147,0.02882,0,1,0
175500000000,175800000000,3717263317,0,38637370,0.001999,0.004654,0.007652,0.003681,0.004662,0.004662,0.0001335,4.768e-05,0.01219,0.01436,7.244,0.03476,0,1,0
175800000000,176100000000,3717263317,0,38637370,0.001949,0.004631,0.007645,0.003777,0.004753,0.004646,3.338e-05,4.768e-05,0.01109,0.0009995,6.959,0.03356,0,1,0
186600000000,186900000000,3717263317,0,351662744,0.00272,0.004128,0.007118,0.00165,0.00256,0.005356,0.000165,8.583e-06,0.02148,0.02014,7.945,0.03637,0,1,0
186900000000,187200000000,3717263317,0,351662744,0.0028,0.004028,0.005791,0.001606,0.002472,0.004089,9.918e-05,8.583e-06,0.01276,0.02042,9.268,0.04267,0,1,0
187200000000,187500000000,3717263317,0,351662744,0.002762,0.004128,0.006569,0.001743,0.002609,0.004173,3.529e-05,8.583e-06,0.01208,0.004784,9.274,0.04287,0,1,0
187500000000,187800000000,3717263317,0,351662744,0.002464,0.004189,0.005928,0.001789,0.002655,0.004227,7.915e-05,8.583e-06,0.01337,0.01556,9.063,0.04237,0,1,0
187800000000,188100000000,3717263317,0,351662744,0.002411,0.004219,0.007736,0.001905,0.002773,0.004234,2.766e-05,8.583e-06,0.01001,0.002357,8.519,0.03966,0,1,0
188100000000,188400000000,3717263317,0,351662744,0.002476,0.004227,0.007736,0.001953,0.002819,0.00425,2.48e-05,9.537e-06,0.01221,0.002716,8.887,0.04182,0,1,0
188400000000,188700000000,3717263317,0,351662744,0.002422,0.004234,0.007736,0.002068,0.002937,0.004257,7.629e-05,9.537e-06,0.01907,0.01785,8.954,0.04236,0,1,0
188700000000,189000000000,3717263317,0,351662744,0.002499,0.004257,0.007736,0.00222,0.00309,0.004295,0.0001202,9.537e-06,0.04913,0.02194,7.028,0.03239,0,1,0
189000000000,189300000000,3717263317,0,351662744,0.00248,0.004272,0.007736,0.002331,0.003201,0.004288,2.098e-05,1.049e-05,0.01096,0.002144,8.336,0.03934,0,1,0
189300000000,189600000000,3717263317,0,351662744,0.002457,0.00428,0.007736,0.002323,0.003193,0.004295,6.866e-05,1.049e-05,0.01215,0.01508,8.574,0.04045,0,1,0
189600000000,189900000000,3717263317,0,351662744,0.00259,0.004295,0.007736,0.002419,0.003284,0.004326,7.629e-05,1.049e-05,0.026,0.01372,8.763,0.04151,0,1,0
189900000000,190200000000,3717263317,0,351662744,0.002514,0.004303,0.007736,0.002518,0.003384,0.00444,2.098e-05,1.049e-05,0.04907,0.002499,8.574,0.0408,0,1,0
190200000000,190500000000,3717263317,0,351662744,0.002365,0.004311,0.007736,0.002609,0.003479,0.004326,7.343e-05,1.144e-05,0.01746,0.01543,8.727,0.04106,0,1,0
190500000000,190800000000,3717263317,0,351662744,0.002403,0.004318,0.007736,0.002609,0.003479,0.004333,2.193e-05,1.144e-05,0.01149,0.003284,8.894,0.03991,0,1,0
190800000000,191100000000,3717263317,0,351662744,0.00235,0.004318,0.007736,0.002415,0.003284,0.004341,2.098e-05,1.144e-05,0.009796,0.002998,9.458,0.04425,0,1,0
191100000000,191400000000,3717263317,0,351662744,0.002487,0.004318,0.007736,0.002529,0.003395,0.004349,6.199e-05,1.144e-05,0.01259,0.01143,10.1,0.0473,0,1,0
191400000000,191700000000,3717263317,0,351662744,0.002541,0.004333,0.007736,0.002583,0.003452,0.004349,1.526e-05,1.144e-05,0.01236,0.002071,10.23,0.04657,0,1,0
191700000000,192000000000,3717263317,0,351662744,0.002583,0.004333,0.007736,0.002632,0.003498,0.004372,3.338e-05,1.144e-05,0.01633,0.003429,9.594,0.04414,0,1,0
192000000000,192300000000,3717263317,0,351662744,0.002567,0.004333,0.007736,0.002739,0.003609,0.004356,8.678e-05,1.24e-05,0.02795,0.0145,8.869,0.04015,0,1,0
192300000000,192600000000,3717263317,0,351662744,0.002369,0.004333,0.007736,0.002899,0.003769,0.004356,9.441e-05,1.24e-05,0.01904,0.01721,7.342,0.0339,0,1,0
192600000000,192900000000,3717263317,0,351662744,0.002384,0.004341,0.007736,0.003056,0.003922,0.004364,1.526e-05,1.335e-05,0.009567,0.001642,8.617,0.0402,0,1,0
192900000000,193200000000,3717263317,0,351662744,0.002361,0.004356,0.007736,0.003094,0.00396,0.004372,1.24e-05,1.335e-05,0.02283,0.001072,9.261,0.0436,0,1,0
193200000000,193500000000,3717263317,0,351662744,0.002422,0.004356,0.007736,0.003151,0.004021,0.004372,6.008e-05,1.335e-05,0.01953,0.01186,8.168,0.03786,0,1,0
193500000000,193800000000,3717263317,0,351662744,0.002243,0.004356,0.007736,0.003124,0.00399,0.004372,1.24e-05,1.335e-05,0.02588,0.001286,8.53,0.03966,0,1,0
193800000000,194100000000,3717263317,0,351662744,0.002312,0.004356,0.007736,0.003128,0.003998,0.004379,2.384e-05,1.335e-05,0.04352,0.002571,7.997,0.03706,0,1,0
194100000000,194400000000,3717263317,0,351662744,0.002308,0.004356,0.007736,0.00317,0.004036,0.004379,1.335e-05,1.335e-05,0.00824,0.0009289,9.177,0.04267,0,1,0
194400000000,194700000000,3717263317,0,351662744,0.002327,0.004364,0.007736,0.003281,0.00415,0.004387,6.104e-05,1.431e-05,0.02396,0.01292,9.458,0.04462,0,1,0
194700000000,195000000000,3717263317,0,351662744,0.002228,0.004372,0.007736,0.003334,0.004204,0.004395,1.907e-05,1.431e-05,0.01201,0.002144,9.14,0.04285,0,1,0
195000000000,195300000000,3717263317,0,351662744,0.002392,0.004372,0.007736,0.003273,0.004143,0.004395,3.242e-05,1.431e-05,0.009323,0.002144,10.39,0.04971,0,1,0
195300000000,195600000000,3717263317,0,351662744,0.002224,0.004379,0.007736,0.003109,0.003975,0.004387,2.67e-05,1.431e-05,0.008133,0.002785,9.331,0.04417,0,1,0
195600000000,195900000000,3717263317,0,351662744,0.002163,0.004379,0.007736,0.003151,0.004021,0.004395,1.812e-05,1.431e-05,0.01898,0.001999,9.766,0.04765,0,1,0
195900000000,196200000000,3717263317,0,351662744,0.002262,0.004372,0.007736,0.0033,0.004173,0.00441,0.000124,1.431e-05,0.0517,0.02664,7.087,0.03244,0,1,0
201300000000,201600000000,3717263317,0,351662744,0.002216,0.004379,0.007736,0.003792,0.004662,0.004395,2.861e-05,1.717e-05,0.01167,0.002998,9.547,0.04464,0,1,0
201600000000,201900000000,3717263317,0,351662744,0.002316,0.004387,0.007736,0.003807,0.004677,0.004395,1.144e-05,1.717e-05,0.007065,0.0009289,10.19,0.04704,0,1,0
201900000000,202200000000,3717263317,0,351662744,0.002239,0.004395,0.007736,0.003819,0.004692,0.004402,1.526e-05,1.717e-05,0.01042,0.001072,9.589,0.04486,0,1,0
202200000000,202500000000,3717263317,0,351662744,0.002209,0.004395,0.007736,0.003853,0.004723,0.004417,1.335e-05,1.717e-05,0.008621,0.001286,9.46,0.04466,0,1,0
202500000000,202800000000,3717263317,0,351662744,0.002254,0.004402,0.007736,0.003876,0.004745,0.00441,1.526e-05,1.717e-05,0.009857,0.0007858,9.759,0.04587,0,1,0
202800000000,203100000000,3717263317,0,351662744,0.002277,0.00441,0.007736,0.003891,0.004761,0.004417,1.717e-05,1.717e-05,0.009186,0.001499,10.54,0.04906,0,1,0
203100000000,203400000000,3717263317,0,351662744,0.002327,0.00441,0.007736,0.004028,0.004898,0.004417,9.537e-05,1.812e-05,0.01633,0.01572,8.958,0.04108,0,1,0
203400000000,203700000000,3717263317,0,351662744,0.00243,0.004372,0.007736,0.004181,0.005051,0.004402,2.193e-05,1.812e-05,0.00943,0.003571,9.33,0.042,0,1,0
203700000000,204000000000,3717263317,0,351662744,0.002472,0.004356,0.007736,0.004105,0.004974,0.004364,3.147e-05,1.812e-05,0.01001,0.003643,10.41,0.04665,0,1,0
204000000000,204300000000,3717263317,0,351662744,0.002312,0.004364,0.007736,0.004074,0.004944,0.004372,1.621e-05,1.812e-05,0.008072,0.001785,10.58,0.04915,0,1,0
204300000000,204600000000,3717263317,0,351662744,0.002346,0.004364,0.007736,0.004112,0.004982,0.004387,1.907e-05,1.812e-05,0.009766,0.002213,9.81,0.04428,0,1,0
204600000000,204900000000,3717263317,0,351662744,0.002293,0.004379,0.007736,0.004028,0.004898,0.004387,2.861e-05,1.812e-05,0.01543,0.002716,9.639,0.04424,0,1,0
204900000000,205200000000,3717263317,0,351662744,0.002228,0.004364,0.007736,0.003872,0.004738,0.004379,1.621e-05,1.812e-05,0.01183,0.001785,9.416,0.0432,0,1,0
205200000000,205500000000,3717263317,0,351662744,0.002304,0.004364,0.007736,0.003914,0.004784,0.004372,2.193e-05,1.812e-05,0.01669,0.002357,9.311,0.04255,0,1,0
205500000000,205800000000,3717263317,0,351662744,0.002285,0.004356,0.007736,0.003952,0.004822,0.004387,2.48e-05,1.812e-05,0.009827,0.002213,8.315,0.0376,0,1,0
205800000000,206100000000,3717263317,0,351662744,0.002357,0.004372,0.007736,0.004066,0.004936,0.004395,6.676e-05,1.907e-05,0.01207,0.01292,9.016,0.04133,0,1,0
206100000000,206400000000,3717263317,0,351662744,0.002304,0.004372,0.007736,0.004105,0.004974,0.004379,1.812e-05,1.907e-05,0.009018,0.0009995,9.535,0.04431,0,1,0
206400000000,206700000000,3717263317,0,351662744,0.002281,0.004227,0.007736,0.004143,0.005013,0.004387,1.431e-05,1.907e-05,0.008453,0.001143,9.739,0.04533,0,1,0
206700000000,207000000000,3717263317,0,351662744,0.002285,0.004211,0.007736,0.004242,0.005112,0.004227,9.251e-05,1.907e-05,0.01828,0.01314,7.913,0.0355,0,1,0
207000000000,207300000000,3717263317,0,351662744,0.002285,0.004219,0.007736,0.004349,0.005219,0.004227,2.67e-05,1.907e-05,0.01105,0.001999,9.366,0.04339,0,1,0
207300000000,207600000000,3717263317,0,351662744,0.002274,0.004227,0.007736,0.004227,0.005096,0.004234,2.384e-05,1.907e-05,0.01215,0.003216,9.637,0.04453,0,1,0
207600000000,207900000000,3717263317,0,351662744,0.002354,0.004219,0.007736,0.004242,0.005112,0.004234,3.338e-05,1.907e-05,0.01314,0.003929,10.09,0.04679,0,1,0
207900000000,208200000000,3717263317,0,351662744,0.002392,0.004227,0.007736,0.00428,0.00515,0.004234,5.15e-05,2.003e-05,0.009537,0.007004,10.16,0.04667,0,1,0
208200000000,208500000000,3717263317,0,351662744,0.002174,0.004234,0.007736,0.004318,0.005188,0.004242,2.766e-05,2.003e-05,0.008118,0.003429,9.799,0.04616,0,1,0
208500000000,208800000000,3717263317,0,351662744,0.002258,0.004234,0.007736,0.004341,0.005211,0.004242,2.193e-05,2.003e-05,0.01125,0.001572,10.39,0.04823,0,1,0
208800000000,209100000000,3717263317,0,351662744,0.002174,0.004242,0.007736,0.004333,0.005203,0.00425,3.338e-05,2.003e-05,0.00975,0.004318,9.508,0.04475,0,1,0
209100000000,209400000000,3717263317,0,351662744,0.002193,0.004242,0.007736,0.004326,0.005196,0.004257,2.861e-05,2.003e-05,0.008987,0.00293,10.3,0.04847,0,1,0
209400000000,209700000000,3717263317,0,351662744,0.002178,0.00425,0.007736,0.004326,0.005196,0.004257,2.861e-05,1.907e-05,0.03992,0.003071,10.62,0.04977,0,1,0
209700000000,210000000000,3717263317,0,351662744,0.00222,0.004242,0.007736,0.004326,0.005188,0.004257,2.766e-05,1.907e-05,0.009613,0.00457,10.12,0.04817,0,1,0
210000000000,210300000000,3717263317,0,351662744,0.002209,0.004234,0.007736,0.004326,0.005188,0.00425,2.098e-05,1.907e-05,0.009293,0.00293,9.569,0.04451,0,1,0
210300000000,210600000000,3717263317,0,351662744,0.002296,0.004242,0.007736,0.003113,0.003967,0.00425,0.000124,2.003e-05,0.01999,0.02121,8.562,0.03884,0,1,0
210600000000,210900000000,3717263317,0,351662744,0.002277,0.00425,0.007736,0.002819,0.003677,0.00425,1.907e-05,2.003e-05,0.01012,0.002213,10.15,0.04731,0,1,0
210900000000,211200000000,3717263317,0,351662744,0.00246,0.004234,0.007736,0.002861,0.003719,0.004257,1.907e-05,2.003e-05,0.01222,0.003216,10.09,0.04624,0,1,0
211200000000,211500000000,3717263317,0,351662744,0.002335,0.004234,0.007736,0.002899,0.003757,0.004242,3.338e-05,2.003e-05,0.02539,0.003429,10.27,0.0466,0,1,0
211500000000,211800000000,3717263317,0,351662744,0.002277,0.004227,0.007736,0.002937,0.003796,0.004234,4.578e-05,2.003e-05,0.00856,0.004715,10.31,0.04827,0,1,0
211800000000,212100000000,3717263317,0,351662744,0.002224,0.004234,0.007736,0.002972,0.00383,0.004242,2.384e-05,2.003e-05,0.008804,0.002144,10.37,0.04933,0,1,0
212100000000,212400000000,3717263317,0,351662744,0.002281,0.004234,0.007736,0.00301,0.003868,0.004234,2.003e-05,2.003e-05,0.01213,0.001928,10.6,0.04837,0,1,0
212400000000,212700000000,3717263317,0,351662744,0.002331,0.004242,0.007736,0.003048,0.003906,0.004242,1.907e-05,2.003e-05,0.01164,0.001429,10.07,0.04639,0,1,0
212700000000,213000000000,3717263317,0,351662744,0.002335,0.004219,0.007736,0.003086,0.003944,0.00425,3.338e-05,2.003e-05,0.008926,0.005142,9.979,0.04444,0,1,0
213000000000,213300000000,3717263317,0,351662744,0.002323,0.004181,0.007736,0.003128,0.00399,0.004181,1.621e-05,2.003e-05,0.02264,0.001286,10.25,0.04787,0,1,0
213300000000,213600000000,3717263317,0,351662744,0.002274,0.004189,0.007736,0.00317,0.004028,0.004196,2.193e-05,2.098e-05,0.01414,0.001785,9.91,0.04604,0,1,0
213600000000,213900000000,3717263317,0,351662744,0.002239,0.004189,0.007736,0.003212,0.004066,0.004196,1.24e-05,2.098e-05,0.01102,0.001358,10.18,0.04709,0,1,0
213900000000,214200000000,3717263317,0,351662744,0.002373,0.004189,0.007736,0.003349,0.004211,0.004196,0.0001192,2.098e-05,0.02396,0.01749,8.868,0.04037,0,1,0
214200000000,214500000000,3717263317,0,351662744,0.002377,0.004196,0.007736,0.003372,0.004227,0.004196,1.717e-05,2.098e-05,0.009094,0.002357,10.58,0.04794,0,1,0
214500000000,214800000000,3717263317,0,351662744,0.002392,0.004196,0.007736,0.003365,0.004219,0.004211,2.766e-05,2.003e-05,0.009216,0.003857,9.361,0.04258,0,1,0
214800000000,215100000000,3717263317,0,351662744,0.002625,0.004204,0.007736,0.003368,0.004227,0.004211,2.766e-05,2.003e-05,0.01048,0.001999,10.13,0.04786,0,1,0
215100000000,215400000000,3717263317,0,351662744,0.002483,0.004204,0.007736,0.003139,0.003998,0.004211,1.24e-05,2.098e-05,0.01024,0.001143,9.525,0.04423,0,1,0
215400000000,215700000000,3717263317,0,351662744,0.002419,0.004211,0.007736,0.003181,0.004044,0.004211,1.907e-05,2.098e-05,0.009979,0.002644,10.01,0.04708,0,1,0
215700000000,216000000000,3717263317,0,351662744,0.002514,0.004219,0.007736,0.003223,0.004082,0.004227,1.24e-05,2.098e-05,0.02933,0.0009995,10.01,0.04626,0,1,0
216000000000,216300000000,3717263317,0,351662744,0.002506,0.004227,0.007736,0.003265,0.00412,0.004234,2.48e-05,2.098e-05,0.01715,0.004143,9.961,0.04476,0,1,0
221100000000,221400000000,3717263317,0,351662744,0.00304,0.004272,0.007736,0.00386,0.004715,0.004303,0.0001411,2.289e-05,0.04266,0.026,7.421,0.03207,0,1,0
221400000000,221700000000,3717263317,0,351662744,0.002884,0.004272,0.007729,0.003895,0.004753,0.004303,3.338e-05,2.289e-05,0.03088,0.003071,8.141,0.0365,0,1,0
221700000000,222000000000,3717263317,0,351662744,0.003078,0.00428,0.007736,0.004013,0.004868,0.004303,9.251e-05,2.289e-05,0.02078,0.01807,8.482,0.03815,0,1,0
222000000000,222300000000,3717263317,0,351662744,0.002964,0.00428,0.007736,0.004082,0.004944,0.004303,2.861e-05,2.289e-05,0.02881,0.00243,8.844,0.04045,0,1,0
222300000000,222600000000,3717263317,0,351662744,0.002888,0.00428,0.007736,0.004219,0.005074,0.004303,7.534e-05,2.384e-05,0.01378,0.01428,8.363,0.03798,0,1,0
222600000000,222900000000,3717263317,0,351662744,0.002716,0.004272,0.007736,0.004272,0.005127,0.004295,2.003e-05,2.384e-05,0.01471,0.001572,7.93,0.03582,0,1,0
222900000000,223200000000,3717263317,0,351662744,0.002739,0.00428,0.007736,0.004059,0.004913,0.004295,0.000102,2.289e-05,0.01196,0.01743,9.627,0.04469,0,1,0
223200000000,223500000000,3717263317,0,351662744,0.002892,0.004272,0.007736,0.004028,0.00489,0.004295,1.717e-05,2.384e-05,0.01846,0.001999,9.093,0.04191,0,1,0
223500000000,223800000000,3717263317,0,351662744,0.002872,0.004272,0.007736,0.004128,0.004982,0.004303,6.962e-05,2.384e-05,0.0318,0.01407,9.023,0.04166,0,1,0
223800000000,224100000000,3717263317,0,351662744,0.003101,0.004288,0.007736,0.004211,0.005074,0.004303,2.48e-05,2.384e-05,0.03442,0.004143,8.596,0.03912,0,1,0
224100000000,224400000000,3717263317,0,351662744,0.003014,0.004288,0.007736,0.004265,0.005119,0.004295,6.58e-05,2.384e-05,0.01103,0.01372,9.822,0.04572,0,1,0
224400000000,224700000000,3717263317,0,351662744,0.003277,0.00428,0.007729,0.004028,0.004883,0.004578,5.531e-05,2.48e-05,0.06531,0.009003,8.649,0.0393,0,1,0
224700000000,225000000000,3717263317,0,351662744,0.003242,0.004288,0.007729,0.004166,0.00502,0.004318,0.0001259,2.48e-05,0.0412,0.02216,8.18,0.0366,0,1,0
225000000000,225300000000,3717263317,0,351662744,0.003494,0.004295,0.007729,0.004166,0.00502,0.004326,9.441e-05,2.48e-05,0.01764,0.01414,8.506,0.03808,0,1,0
225300000000,225600000000,3717263317,0,351662744,0.003983,0.004311,0.007721,0.004211,0.005074,0.004341,7.439e-05,2.575e-05,0.0199,0.011,8.493,0.03689,0,1,0
225600000000,225900000000,3717263317,0,351662744,0.003708,0.004318,0.007729,0.004234,0.005089,0.004333,8.774e-05,2.575e-05,0.02145,0.01663,8.937,0.04021,0,1,0
225900000000,226200000000,3717263317,0,351662744,0.003757,0.004288,0.007729,0.004257,0.005119,0.004311,7.248e-05,2.575e-05,0.03131,0.01372,7.594,0.03386,0,1,0
226200000000,226500000000,3717263317,0,351662744,0.003731,0.004257,0.007729,0.004288,0.00515,0.004272,4.196e-05,2.575e-05,0.01883,0.004143,8.732,0.04009,0,1,0
226500000000,226800000000,3717263317,0,351662744,0.003761,0.004242,0.007729,0.004189,0.005051,0.004265,8.678e-05,2.575e-05,0.02716,0.01286,7.91,0.03543,0,1,0
226800000000,227100000000,3717263317,0,351662744,0.003792,0.004242,0.007729,0.004135,0.00499,0.004257,8.106e-05,2.67e-05,0.02557,0.01207,8.893,0.03987,0,1,0
227100000000,227400000000,3717263317,0,351662744,0.003937,0.004227,0.007729,0.00428,0.005142,0.004234,7.248e-05,2.67e-05,0.01553,0.011,8.137,0.03585,0,1,0
227400000000,227700000000,3717263317,0,351662744,0.003983,0.004227,0.007729,0.004318,0.00518,0.004242,8.774e-05,2.67e-05,0.01219,0.01715,9.458,0.04233,0,1,0
227700000000,228000000000,3717263317,0,351662744,0.00415,0.004227,0.007729,0.004318,0.005173,0.00425,7.534e-05,2.766e-05,0.02237,0.01535,8.744,0.03903,0,1,0
228000000000,228300000000,3717263317,0,351662744,0.004013,0.00425,0.007729,0.004295,0.00515,0.004272,2.861e-05,2.766e-05,0.02817,0.001358,7.932,0.0352,0,1,0
228300000000,228600000000,3717263317,0,351662744,0.003998,0.004242,0.007729,0.00412,0.004974,0.004265,0.0002079,2.766e-05,0.01971,0.03259,7.368,0.03231,0,1,0
228600000000,228900000000,3717263317,0,351662744,0.003864,0.004242,0.007729,0.004196,0.005058,0.00425,8.965e-05,2.766e-05,0.01663,0.01678,7.656,0.03419,0,1,0
228900000000,229200000000,3717263317,0,351662744,0.004051,0.004242,0.007729,0.003906,0.004761,0.004265,8.488e-05,2.766e-05,0.01733,0.013,8.582,0.03845,0,1,0
229200000000,229500000000,3717263317,0,351662744,0.00375,0.004257,0.007736,0.003323,0.004181,0.00428,2.098e-05,2.861e-05,0.01317,0.001072,8.742,0.03925,0,1,0
229500000000,229800000000,3717263317,0,351662744,0.003685,0.004242,0.007736,0.003471,0.004326,0.004265,7.343e-05,2.861e-05,0.03564,0.01228,8.504,0.03852,0,1,0
229800000000,230100000000,3717263317,0,351662744,0.003643,0.00425,0.007736,0.003601,0.004456,0.004272,9.727e-05,2.956e-05,0.02444,0.01157,7.974,0.0355,0,1,0
230100000000,230400000000,3717263317,0,351662744,0.003696,0.004234,0.007736,0.003738,0.004593,0.004257,8.106e-05,2.956e-05,0.02332,0.01479,8.359,0.03688,0,1,0
230400000000,230700000000,3717263317,0,351662744,0.003647,0.004257,0.007729,0.00388,0.004738,0.00428,2.956e-05,2.956e-05,0.01904,0.002357,8.942,0.03997,0,1,0
230700000000,231000000000,3717263317,0,351662744,0.004005,0.00425,0.007729,0.004036,0.004898,0.004295,0.0001049,2.956e-05,0.01935,0.01042,8.48,0.03749,0,1,0
231000000000,231300000000,3717263317,0,351662744,0.003868,0.004257,0.007729,0.004211,0.005066,0.00428,5.817e-05,2.956e-05,0.0213,0.01108,7.989,0.03597,0,1,0
231300000000,231600000000,3717263317,0,351662744,0.003803,0.004234,0.007729,0.004204,0.005066,0.00425,8.297e-05,3.052e-05,0.01495,0.01578,8.607,0.0392,0,1,0
231600000000,231900000000,3717263317,0,351662744,0.003601,0.004234,0.007736,0.004143,0.005005,0.00425,2.861e-05,3.052e-05,0.01746,0.003143,8.682,0.04005,0,1,0
231900000000,232200000000,3717263317,0,351662744,0.003735,0.004242,0.007729,0.004272,0.005127,0.004257,0.0001411,3.052e-05,0.02914,0.02365,7.202,0.03217,0,1,0
232200000000,232500000000,3717263317,0,351662744,0.003944,0.004242,0.007729,0.004303,0.005157,0.004257,9.251e-05,3.147e-05,0.03079,0.01987,8.999,0.04037,0,1,0
232500000000,232800000000,3717263317,0,351662744,0.003895,0.004242,0.007729,0.004303,0.005157,0.004257,2.289e-05,3.147e-05,0.01503,0.001858,8.258,0.03672,0,1,0
232800000000,233100000000,3717263317,0,351662744,0.004173,0.004242,0.007729,0.004295,0.00515,0.004257,0.000102,3.147e-05,0.01956,0.01987,8.948,0.03989,0,1,0
233100000000,233400000000,3717263317,0,351662744,0.004463,0.004257,0.007729,0.004158,0.00502,0.004272,8.106e-05,3.147e-05,0.02548,0.01378,8.454,0.03706,0,1,0
233400000000,233700000000,3717263317,0,351662744,0.004189,0.004265,0.007729,0.004128,0.004982,0.00428,8.202e-05,3.147e-05,0.04761,0.0125,8.999,0.04008,0,1,0
233700000000,234000000000,3717263317,0,351662744,0.00399,0.004257,0.007729,0.004242,0.005096,0.004272,9.823e-05,3.242e-05,0.03766,0.01892,9.125,0.04064,0,1,0
234000000000,234300000000,3717263317,0,351662744,0.003639,0.00425,0.007729,0.004288,0.00515,0.004265,9.346e-05,3.242e-05,0.02051,0.01471,7.865,0.03463,0,1,0
234300000000,234600000000,3717263317,0,351662744,0.003883,0.00425,0.007729,0.004288,0.005142,0.004257,7.534e-05,3.338e-05,0.01917,0.01178,8.876,0.04015,0,1,0
234600000000,234900000000,3717263317,0,351662744,0.00396,0.004257,0.007729,0.00428,0.005135,0.004272,3.242e-05,3.338e-05,0.01486,0.003071,8.697,0.03858,0,1,0
234900000000,235200000000,3717263317,0,351662744,0.004013,0.004257,0.007729,0.004288,0.005142,0.004272,7.057e-05,3.338e-05,0.01755,0.01093,8.631,0.038,0,1,0
235200000000,235500000000,3717263317,0,351662744,0.003876,0.004257,0.007729,0.004272,0.005127,0.004272,8.583e-05,3.433e-05,0.0238,0.01414,9.167,0.04138,0,1,0
235500000000,235800000000,3717263317,0,351662744,0.003727,0.004265,0.007729,0.004272,0.005135,0.004288,0.0001354,3.338e-05,0.02554,0.02509,7.242,0.03022,0,1,0
235800000000,236100000000,3717263317,0,351662744,0.003792,0.004272,0.007736,0.003834,0.004692,0.00428,7.915e-05,3.338e-05,0.01709,0.01479,8.638,0.03701,0,1,0
236100000000,236400000000,3717263317,0,351662744,0.003944,0.004265,0.007736,0.003922,0.004784,0.004272,0.0001116,3.433e-05,0.01505,0.0253,9.059,0.03878,0,1,0
241200000000,241500000000,3717263317,0,351662744,0.003635,0.00428,0.007729,0.004021,0.004883,0.004295,9.251e-05,3.815e-05,0.01381,0.01329,9.835,0.04444,0,1,0
241500000000,241800000000,3717263317,0,351662744,0.003624,0.004288,0.007729,0.004158,0.005013,0.004303,0.0001106,3.91e-05,0.01834,0.02051,8.139,0.03673,0,1,0
241800000000,242100000000,3717263317,0,351662744,0.003643,0.004295,0.007729,0.00425,0.005104,0.004318,3.815e-05,3.91e-05,0.01889,0.002998,8.467,0.03604,0,1,0
242100000000,242400000000,3717263317,0,351662744,0.003746,0.004295,0.007729,0.00386,0.004723,0.004311,0.0001564,3.91e-05,0.01801,0.0195,8.064,0.03611,0,1,0
242400000000,242700000000,3717263317,0,351662744,0.004089,0.004288,0.007729,0.003654,0.004509,0.004303,6.199e-05,4.005e-05,0.01828,0.008713,8.417,0.03578,0,1,0
242700000000,243000000000,3717263317,0,351662744,0.003914,0.004295,0.007729,0.003895,0.004753,0.004318,0.0001431,4.005e-05,0.02768,0.03192,6.668,0.02737,0,1,0
243000000000,243300000000,3717263317,0,351662744,0.003593,0.004295,0.007729,0.003944,0.004799,0.004311,2.766e-05,4.005e-05,0.01932,0.0009289,8.974,0.03945,0,1,0
243300000000,243600000000,3717263317,0,351662744,0.003368,0.004295,0.007736,0.004105,0.004959,0.004311,5.341e-05,4.005e-05,0.01712,0.009216,8.083,0.03533,0,1,0
243600000000,243900000000,3717263317,0,351662744,0.003471,0.004303,0.007729,0.004189,0.005051,0.004333,7.057e-05,4.005e-05,0.03259,0.01308,7.342,0.03171,0,1,0
243900000000,244200000000,3717263317,0,351662744,0.003471,0.004303,0.007729,0.004227,0.005089,0.004326,5.054e-05,4.101e-05,0.01666,0.007996,6.758,0.0286,0,1,0
244200000000,244500000000,3717263317,0,351662744,0.003395,0.004303,0.007729,0.00399,0.004852,0.004311,5.341e-05,4.101e-05,0.01358,0.006859,7.694,0.03349,0,1,0
244500000000,244800000000,3717263317,0,351662744,0.003757,0.004311,0.007729,0.004143,0.005005,0.004341,6.962e-05,4.101e-05,0.03937,0.01164,7.901,0.03453,0,1,0
244800000000,245100000000,3717263317,0,351662744,0.003597,0.004311,0.007729,0.004234,0.005096,0.004326,5.341e-05,4.196e-05,0.02859,0.008148,7.905,0.03453,0,1,0
245100000000,245400000000,3717263317,0,351662744,0.003475,0.004303,0.007729,0.004234,0.005096,0.004318,9.251e-05,4.196e-05,0.02554,0.01642,7.716,0.03344,0,1,0
245400000000,245700000000,3717263317,0,351662744,0.003387,0.004318,0.007729,0.004219,0.005081,0.004364,8.202e-05,4.292e-05,0.01947,0.01636,7.552,0.03336,0,1,0
245700000000,246000000000,3717263317,0,351662744,0.003349,0.004326,0.007729,0.004219,0.005074,0.004349,9.346e-05,4.196e-05,0.01524,0.0105,7.773,0.03411,0,1,0
246000000000,246300000000,3717263317,0,351662744,0.003391,0.004326,0.007729,0.004219,0.005081,0.004333,7.439e-05,4.196e-05,0.02209,0.01151,8.453,0.03763,0,1,0
251400000000,251700000000,3717263317,0,351662744,0.003704,0.004326,0.007729,0.004204,0.005066,0.004341,0.0001392,4.673e-05,0.03064,0.01822,7.509,0.03135,0,1,0
251700000000,252000000000,3717263317,0,351662744,0.003166,0.004326,0.007729,0.004204,0.005066,0.004341,6.008e-05,4.673e-05,0.01654,0.004211,8.162,0.03592,0,1,0
252000000000,252300000000,3717263317,0,351662744,0.00312,0.004318,0.007729,0.004219,0.005081,0.004341,0.0001087,4.768e-05,0.02097,0.01721,8.952,0.03979,0,1,0
252300000000,252600000000,3717263317,0,351662744,0.003456,0.004318,0.007729,0.004219,0.005074,0.004333,0.000104,4.768e-05,0.02548,0.01764,8.341,0.03653,0,1,0
252600000000,252900000000,3717263317,0,351662744,0.003178,0.004318,0.007729,0.004227,0.005081,0.004333,8.965e-05,4.768e-05,0.02194,0.01086,8.099,0.03626,0,1,0
252900000000,253200000000,3717263317,0,351662744,0.003246,0.004318,0.007729,0.004234,0.005089,0.004326,4.578e-05,4.864e-05,0.01752,0.001715,9.121,0.04005,0,1,0
253200000000,253500000000,3717263317,0,351662744,0.003307,0.004311,0.007729,0.004227,0.005089,0.004326,6.58e-05,4.864e-05,0.0415,0.007004,8.777,0.03859,0,1,0
253500000000,253800000000,3717263317,0,351662744,0.00351,0.004311,0.007729,0.004219,0.005074,0.004326,0.0001068,4.864e-05,0.04712,0.01279,6.248,0.02586,0,1,0
253800000000,254100000000,3717263317,0,351662744,0.003143,0.004318,0.007736,0.003807,0.004662,0.004333,9.537e-05,4.864e-05,0.04645,0.008362,7.723,0.03338,0,1,0
254100000000,254400000000,3717263317,0,351662744,0.002983,0.004326,0.007729,0.003899,0.004753,0.004341,5.436e-05,4.864e-05,0.01227,0.001429,8.462,0.03741,0,1,0
254400000000,254700000000,3717263317,0,351662744,0.003235,0.004318,0.007736,0.004051,0.004913,0.004349,8.965e-05,4.864e-05,0.02365,0.007996,8.827,0.03911,0,1,0
254700000000,255000000000,3717263317,0,351662744,0.00309,0.004333,0.007736,0.004158,0.005013,0.004349,7.439e-05,4.959e-05,0.01147,0.001429,8.199,0.03587,0,1,0
255000000000,255300000000,3717263317,0,351662744,0.002888,0.004318,0.007736,0.004211,0.005066,0.004326,0.0001059,4.959e-05,0.0152,0.01135,8.256,0.03673,0,1,0
255300000000,255600000000,3717263317,0,351662744,0.00288,0.004311,0.007736,0.003574,0.004433,0.004326,6.199e-05,4.959e-05,0.01552,0.007713,8.324,0.03661,0,1,0
255600000000,255900000000,3717263317,0,351662744,0.002712,0.004311,0.007736,0.003693,0.004547,0.004318,2.67e-05,4.959e-05,0.01299,0.0009289,8.006,0.03535,0,1,0
255900000000,256200000000,3717263317,0,351662744,0.002846,0.004311,0.007729,0.003799,0.004662,0.004326,6.866e-05,5.054e-05,0.02127,0.009995,7.784,0.03403,0,1,0
256200000000,256500000000,3717263317,0,351662744,0.002853,0.004311,0.007736,0.003914,0.004768,0.004318,8.678e-05,5.054e-05,0.01837,0.01749,8.101,0.03494,0,1,0
256500000000,256800000000,3717263317,0,351662744,0.002907,0.004326,0.007736,0.004044,0.004898,0.004341,3.815e-05,5.054e-05,0.01369,0.001642,7.727,0.03282,0,1,0
256800000000,257100000000,3717263317,0,351662744,0.00267,0.004318,0.007736,0.004166,0.005028,0.004333,6.771e-05,5.054e-05,0.02075,0.01271,8.593,0.03785,0,1,0
257100000000,257400000000,3717263317,0,351662744,0.002953,0.004333,0.007729,0.003998,0.004852,0.004349,0.0001116,5.054e-05,0.05524,0.0202,5.958,0.02468,0,1,0
257400000000,257700000000,3717263317,0,351662744,0.003048,0.004326,0.007736,0.003708,0.00457,0.004349,2.098e-05,5.054e-05,0.02167,0.0007858,8.789,0.03816,0,1,0
257700000000,258000000000,3717263317,0,351662744,0.002872,0.004326,0.007736,0.003841,0.0047,0.004341,6.008e-05,5.15e-05,0.02081,0.009293,8.03,0.03428,0,1,0
258000000000,258300000000,3717263317,0,351662744,0.002831,0.004318,0.007736,0.003929,0.004784,0.004326,8.583e-05,5.15e-05,0.02243,0.01871,8.402,0.03636,0,1,0
258300000000,258600000000,3717263317,0,351662744,0.002781,0.004318,0.007736,0.004044,0.004898,0.004326,2.861e-05,5.15e-05,0.01144,0.003284,7.698,0.03306,0,1,0
258600000000,258900000000,3717263317,0,351662744,0.002869,0.004311,0.007729,0.004089,0.004951,0.004326,5.436e-05,5.15e-05,0.02353,0.009216,8.295,0.03597,0,1,0
258900000000,259200000000,3717263317,0,351662744,0.003006,0.004311,0.007736,0.004189,0.005043,0.004326,2.861e-05,5.15e-05,0.01134,0.001215,8.126,0.03465,0,1,0
259200000000,259500000000,3717263317,0,351662744,0.00304,0.004318,0.007729,0.004219,0.005081,0.004326,7.534e-05,5.245e-05,0.01448,0.01465,8.698,0.03795,0,1,0
259500000000,259800000000,3717263317,0,351662744,0.00293,0.004311,0.007729,0.004219,0.005081,0.004326,7.343e-05,5.245e-05,0.01559,0.01587,8.201,0.03654,0,1,0
259800000000,260100000000,3717263317,0,351662744,0.00264,0.004311,0.007736,0.004234,0.005096,0.004318,2.098e-05,5.245e-05,0.01218,0.0008574,8.907,0.04075,0,1,0
260100000000,260400000000,3717263317,0,351662744,0.002693,0.004311,0.007736,0.004234,0.005089,0.004326,3.052e-05,5.245e-05,0.01028,0.0009289,9.088,0.04209,0,1,0
260400000000,260700000000,3717263317,0,351662744,0.002838,0.004326,0.007729,0.004089,0.004951,0.004372,7.915e-05,5.245e-05,0.01381,0.01508,7.616,0.03401,0,1,0
260700000000,261000000000,3717263317,0,351662744,0.002823,0.004349,0.007736,0.004051,0.004906,0.004356,0.0001974,5.245e-05,0.02505,0.03894,7.188,0.03155,0,1,0
261000000000,261300000000,3717263317,0,351662744,0.002777,0.004349,0.007729,0.004189,0.005051,0.004372,3.719e-05,5.245e-05,0.01228,0.001215,8.103,0.03602,0,1,0
261300000000,261600000000,3717263317,0,351662744,0.002834,0.004318,0.007729,0.004143,0.004997,0.004349,8.297e-05,5.341e-05,0.01605,0.01422,8.581,0.03749,0,1,0
261600000000,261900000000,3717263317,0,351662744,0.002663,0.004303,0.007736,0.004089,0.004944,0.004318,2.956e-05,5.341e-05,0.01271,0.002285,8.742,0.03865,0,1,0
261900000000,262200000000,3717263317,0,351662744,0.002907,0.004295,0.007736,0.004173,0.005035,0.004303,0.0001144,5.341e-05,0.01682,0.02222,8.013,0.03415,0,1,0
262200000000,262500000000,3717263317,0,351662744,0.002895,0.00428,0.007736,0.004265,0.005127,0.004288,3.242e-05,5.341e-05,0.01353,0.002499,9.183,0.03986,0,1,0
262500000000,262800000000,3717263317,0,351662744,0.002953,0.00428,0.007729,0.004265,0.005119,0.004288,6.962e-05,5.341e-05,0.02222,0.009003,9.331,0.04054,0,1,0
262800000000,263100000000,3717263317,0,351662744,0.002678,0.00428,0.007736,0.004265,0.005127,0.004288,3.91e-05,5.436e-05,0.01321,0.001499,7.649,0.03381,0,1,0
263100000000,263400000000,3717263317,0,351662744,0.002647,0.00428,0.007736,0.004272,0.005127,0.00428,6.771e-05,5.436e-05,0.01378,0.01207,9.07,0.04047,0,1,0
263400000000,263700000000,3717263317,0,351662744,0.002621,0.00428,0.007736,0.004272,0.005127,0.004288,3.719e-05,5.436e-05,0.01332,0.002213,9.092,0.04058,0,1,0
263700000000,264000000000,3717263317,0,351662744,0.002716,0.00428,0.007736,0.004272,0.005135,0.004288,3.719e-05,5.436e-05,0.01366,0.001858,9.441,0.04276,0,1,0
264000000000,264300000000,3717263317,0,351662744,0.002789,0.004288,0.007736,0.004128,0.004982,0.004295,9.06e-05,5.436e-05,0.01157,0.01364,8.124,0.03532,0,1,0
264300000000,264600000000,3717263317,0,351662744,0.002739,0.004288,0.007736,0.004143,0.005005,0.004295,0.0001087,5.436e-05,0.02148,0.01935,7.461,0.03205,0,1,0
264600000000,264900000000,3717263317,0,351662744,0.002693,0.004288,0.007736,0.004097,0.004959,0.004303,3.433e-05,5.436e-05,0.01465,0.001358,8.602,0.03774,0,1,0
264900000000,265200000000,3717263317,0,351662744,0.002705,0.004288,0.007736,0.004143,0.005005,0.004303,2.861e-05,5.436e-05,0.01399,0.001286,9.364,0.04157,0,1,0
265200000000,265500000000,3717263317,0,351662744,0.002697,0.004295,0.007736,0.004211,0.005074,0.004303,7.439e-05,5.531e-05,0.01651,0.01178,9.561,0.04311,0,1,0
265500000000,265800000000,3717263317,0,351662744,0.002655,0.004288,0.007736,0.004265,0.005119,0.004295,3.242e-05,5.531e-05,0.02222,0.001072,8.696,0.03839,0,1,0
265800000000,266100000000,3717263317,0,351662744,0.002777,0.004288,0.007729,0.00425,0.005112,0.004303,7.534e-05,5.531e-05,0.01376,0.01193,7.769,0.03418,0,1,0
266100000000,266400000000,3717263317,0,351662744,0.002438,0.004303,0.007729,0.004234,0.005089,0.004326,3.433e-05,5.531e-05,0.01146,0.001143,7.004,0.03078,0,1,0
267000000000,267300000000,3717263317,0,711646,0.002525,0.004189,0.007652,0.0009117,0.001877,0.004234,1.431e-05,8.583e-06,0.01428,0.001642,10.88,0.04992,0,1,0
267300000000,267600000000,3717263317,0,711646,0.002602,0.004265,0.007652,0.0009632,0.00193,0.004311,1.24e-05,8.583e-06,0.01193,0.0009995,9.774,0.04406,0,1,0
267600000000,267900000000,3717263317,0,711646,0.002674,0.004326,0.007652,0.001137,0.002106,0.004356,7.153e-05,8.583e-06,0.01953,0.007782,6.342,0.02681,0,1,0
267900000000,268200000000,3717263317,0,711646,0.002651,0.004356,0.007652,0.001322,0.002289,0.004387,2.289e-05,9.537e-06,0.02362,0.002716,9.738,0.04429,0,1,0
268200000000,268500000000,3717263317,0,711646,0.00267,0.004372,0.007652,0.001394,0.002361,0.004395,4.578e-05,9.537e-06,0.0257,0.0075,9.332,0.04203,0,1,0
268500000000,268800000000,3717263317,0,711646,0.002552,0.004395,0.007652,0.001505,0.002472,0.004433,1.812e-05,9.537e-06,0.01131,0.002357,8.571,0.03832,0,1,0
268800000000,269100000000,3717263317,0,711646,0.002613,0.00444,0.007652,0.001558,0.002525,0.004463,2.48e-05,9.537e-06,0.01416,0.003429,9.334,0.04224,0,1,0
269100000000,269400000000,3717263317,0,711646,0.002552,0.004471,0.007652,0.001532,0.002499,0.004494,6.962e-05,1.049e-05,0.01682,0.01129,9.858,0.04499,0,1,0
269400000000,269700000000,3717263317,0,711646,0.00264,0.004478,0.007652,0.001581,0.002548,0.004501,2.766e-05,1.049e-05,0.01248,0.003357,8.709,0.03896,0,1,0
269700000000,270000000000,3717263317,0,711646,0.00272,0.004486,0.007652,0.001703,0.00267,0.004509,3.433e-05,1.049e-05,0.01578,0.003502,8.374,0.03716,0,1,0
270000000000,270300000000,3717263317,0,711646,0.002644,0.004494,0.007652,0.001827,0.002796,0.004509,1.907e-05,1.049e-05,0.01279,0.001429,8.743,0.0389,0,1,0
270300000000,270600000000,3717263317,0,711646,0.002636,0.004501,0.007652,0.001884,0.002853,0.004524,3.815e-05,1.144e-05,0.01329,0.005142,8.591,0.03828,0,1,0
270600000000,270900000000,3717263317,0,711646,0.002487,0.004509,0.007652,0.001738,0.002705,0.004532,2.766e-05,1.144e-05,0.01416,0.003784,8.849,0.03936,0,1,0
270900000000,271200000000,3717263317,0,711646,0.002586,0.004517,0.007652,0.001816,0.002785,0.004539,1.812e-05,1.144e-05,0.01027,0.002144,8.86,0.03956,0,1,0
271200000000,271500000000,3717263317,0,711646,0.002487,0.004517,0.007652,0.00198,0.002949,0.004539,8.488e-05,1.24e-05,0.01941,0.01122,9.96,0.04519,0,1,0
281400000000,281700000000,3717263317,0,711646,0.002392,0.004662,0.00766,0.0037,0.004669,0.004677,2.384e-05,1.907e-05,0.01068,0.002285,10.52,0.04788,0,1,0
281700000000,282000000000,3717263317,0,711646,0.002312,0.004677,0.007652,0.003719,0.004684,0.004692,2.193e-05,1.907e-05,0.01163,0.002644,9.779,0.04398,0,1,0
282000000000,282300000000,3717263317,0,711646,0.002243,0.004555,0.007652,0.003777,0.004745,0.0047,7.534e-05,2.003e-05,0.01678,0.0155,11.16,0.05095,0,1,0
282300000000,282600000000,3717263317,0,711646,0.002232,0.004486,0.007652,0.003899,0.004868,0.004501,1.049e-05,2.003e-05,0.02011,0.0008574,11.1,0.05082,0,1,0
282600000000,282900000000,3717263317,0,711646,0.002148,0.004456,0.007652,0.003857,0.004822,0.004463,1.049e-05,2.003e-05,0.009216,0.001143,11.39,0.05256,0,1,0
282900000000,283200000000,3717263317,0,711646,0.002159,0.004463,0.007652,0.003773,0.004745,0.004463,1.24e-05,2.003e-05,0.008713,0.0009289,11.25,0.05169,0,1,0
283200000000,283500000000,3717263317,0,711646,0.002182,0.004463,0.007652,0.003811,0.004776,0.004478,2.766e-05,2.003e-05,0.008728,0.001572,10.16,0.04595,0,1,0
283500000000,283800000000,3717263317,0,711646,0.002361,0.004471,0.007652,0.003853,0.004822,0.004494,2.48e-05,2.003e-05,0.01305,0.002285,10.67,0.04872,0,1,0
283800000000,284100000000,3717263317,0,711646,0.002243,0.004478,0.007652,0.00388,0.004845,0.004501,1.24e-05,2.003e-05,0.01219,0.001215,10.07,0.04557,0,1,0
284100000000,284400000000,3717263317,0,711646,0.002239,0.004463,0.00766,0.003914,0.004883,0.004471,1.431e-05,2.003e-05,0.01173,0.001072,10.82,0.04927,0,1,0
284400000000,284700000000,3717263317,0,711646,0.002258,0.004478,0.007652,0.003922,0.00489,0.004486,3.624e-05,2.098e-05,0.01746,0.003429,9.963,0.04477,0,1,0
284700000000,285000000000,3717263317,0,711646,0.002163,0.004478,0.00766,0.003922,0.004883,0.004486,1.24e-05,2.098e-05,0.01236,0.0006428,10.79,0.04906,0,1,0
285000000000,285300000000,3717263317,0,711646,0.002178,0.004471,0.007652,0.003853,0.004822,0.004494,1.431e-05,2.098e-05,0.008682,0.0009995,11.24,0.05142,0,1,0
285300000000,285600000000,3717263317,0,711646,0.002148,0.004456,0.007652,0.003635,0.004601,0.004463,2.193e-05,2.098e-05,0.008545,0.001858,10.77,0.04961,0,1,0
285600000000,285900000000,3717263317,0,711646,0.002136,0.004471,0.007652,0.003754,0.004723,0.004486,0.0001802,2.098e-05,0.01703,0.01993,7.548,0.03285,0,1,0
285900000000,286200000000,3717263317,0,711646,0.00209,0.004486,0.007652,0.003914,0.004875,0.004494,1.431e-05,2.098e-05,0.0119,0.001858,10.48,0.04799,0,1,0
286200000000,286500000000,3717263317,0,711646,0.002068,0.004471,0.007652,0.00386,0.004829,0.004494,1.049e-05,2.098e-05,0.008972,0.0008574,11.29,0.05171,0,1,0
286500000000,286800000000,3717263317,0,711646,0.002079,0.004448,0.007652,0.003742,0.004715,0.004456,1.717e-05,2.098e-05,0.008224,0.001358,11.42,0.05283,0,1,0
286800000000,287100000000,3717263317,0,711646,0.00206,0.004456,0.007652,0.003761,0.00473,0.004463,8.583e-06,2.098e-05,0.009842,0.0003567,10.44,0.04754,0,1,0
287100000000,287400000000,3717263317,0,711646,0.002068,0.004463,0.00766,0.003788,0.004753,0.004471,1.335e-05,2.193e-05,0.01056,0.0009995,11,0.05078,0,1,0
287400000000,287700000000,3717263317,0,711646,0.002064,0.004471,0.00766,0.003822,0.004791,0.004478,7.629e-06,2.193e-05,0.02179,0.0002861,11.18,0.05151,0,1,0
287700000000,288000000000,3717263317,0,711646,0.002121,0.004478,0.00766,0.003853,0.004822,0.004486,1.717e-05,2.098e-05,0.009109,0.001715,9.808,0.04409,0,1,0
288000000000,288300000000,3717263317,0,711646,0.002094,0.004478,0.00766,0.003876,0.004845,0.004486,1.621e-05,2.098e-05,0.01274,0.001286,11.13,0.05119,0,1,0
288300000000,288600000000,3717263317,0,711646,0.002041,0.004456,0.007652,0.003811,0.004776,0.004486,2.956e-05,2.098e-05,0.007019,0.003357,10.33,0.04699,0,1,0
288600000000,288900000000,3717263317,0,711646,0.002125,0.004448,0.007652,0.003662,0.004631,0.004463,2.67e-05,2.098e-05,0.0127,0.004288,10.15,0.04623,0,1,0
288900000000,289200000000,3717263317,0,711646,0.002144,0.004463,0.00766,0.003757,0.00473,0.004471,2.956e-05,2.193e-05,0.0126,0.003284,10.84,0.04947,0,1,0
289200000000,289500000000,3717263317,0,711646,0.00211,0.004463,0.00766,0.003838,0.004807,0.004471,6.866e-05,2.193e-05,0.01505,0.01271,10.86,0.04964,0,1,0
289500000000,289800000000,3717263317,0,711646,0.001999,0.004463,0.00766,0.003929,0.004898,0.004471,1.335e-05,2.193e-05,0.008652,0.001429,11.06,0.05099,0,1,0
289800000000,290100000000,3717263317,0,711646,0.002014,0.004463,0.00766,0.003929,0.00489,0.004471,9.537e-06,2.193e-05,0.007759,0.0006428,11.36,0.05217,0,1,0
290100000000,290400000000,3717263317,0,711646,0.002182,0.004463,0.007652,0.003929,0.004898,0.004478,1.144e-05,2.193e-05,0.009628,0.0008574,11.39,0.05243,0,1,0
290400000000,290700000000,3717263317,0,711646,0.002228,0.004471,0.007652,0.003922,0.00489,0.004478,1.144e-05,2.193e-05,0.01344,0.0009289,11.06,0.05065,0,1,0
290700000000,291000000000,3717263317,0,711646,0.002144,0.004471,0.00766,0.003929,0.004898,0.004471,2.003e-05,2.193e-05,0.01065,0.001999,11.25,0.05181,0,1,0
291000000000,291300000000,3717263317,0,711646,0.002079,0.004471,0.00766,0.003929,0.004898,0.004478,1.144e-05,2.193e-05,0.009644,0.001215,11.07,0.05094,0,1,0
291300000000,291600000000,3717263317,0,711646,0.002163,0.00444,0.007652,0.003929,0.004898,0.004478,1.335e-05,2.193e-05,0.01263,0.0008574,10.85,0.04961,0,1,0
291600000000,291900000000,3717263317,0,711646,0.002201,0.004433,0.007652,0.003601,0.00457,0.004448,1.621e-05,2.193e-05,0.01222,0.002144,11.11,0.05106,0,1,0
291900000000,292200000000,3717263317,0,711646,0.002144,0.004456,0.007652,0.00251,0.003475,0.004478,1.049e-05,2.193e-05,0.04816,0.0009995,10.46,0.04776,0,1,0
292200000000,292500000000,3717263317,0,711646,0.002113,0.004463,0.007652,0.002548,0.003513,0.004471,1.335e-05,2.289e-05,0.009827,0.0009289,10.8,0.0495,0,1,0
292500000000,292800000000,3717263317,0,711646,0.00214,0.004471,0.007652,0.002586,0.003555,0.004478,2.67e-05,2.289e-05,0.008896,0.003357,10.4,0.0475,0,1,0
292800000000,293100000000,3717263317,0,711646,0.002228,0.004471,0.007652,0.002712,0.003677,0.004478,9.823e-05,2.193e-05,0.01505,0.01364,11.11,0.05089,0,1,0
293100000000,293400000000,3717263317,0,711646,0.002254,0.004433,0.007652,0.002899,0.003868,0.004448,1.621e-05,2.193e-05,0.008835,0.001143,10.03,0.0455,0,1,0
293400000000,293700000000,3717263317,0,711646,0.002296,0.004448,0.007652,0.002941,0.003914,0.004456,1.335e-05,2.193e-05,0.01483,0.001215,10.21,0.04629,0,1,0
293700000000,294000000000,3717263317,0,711646,0.002304,0.004448,0.007652,0.002987,0.003952,0.004456,2.003e-05,2.193e-05,0.01213,0.002285,9.998,0.04519,0,1,0
294000000000,294300000000,3717263317,0,711646,0.002159,0.004456,0.007652,0.003021,0.00399,0.004463,1.335e-05,2.289e-05,0.0146,0.001358,10.86,0.04983,0,1,0
294300000000,294600000000,3717263317,0,711646,0.002178,0.004456,0.00766,0.003059,0.004028,0.004463,1.144e-05,2.289e-05,0.009827,0.0008574,10.58,0.04833,0,1,0
294600000000,294900000000,3717263317,0,711646,0.002163,0.004456,0.00766,0.003098,0.004066,0.004463,2.956e-05,2.289e-05,0.008362,0.003643,10.81,0.0496,0,1,0
294900000000,295200000000,3717263317,0,711646,0.002148,0.004463,0.007652,0.003128,0.004097,0.004463,1.621e-05,2.289e-05,0.00824,0.001429,11.12,0.0513,0,1,0
295200000000,295500000000,3717263317,0,711646,0.002151,0.004463,0.00766,0.003159,0.004128,0.004471,1.049e-05,2.289e-05,0.008621,0.0009995,11.02,0.05068,0,1,0
295500000000,295800000000,3717263317,0,711646,0.002159,0.004433,0.007652,0.003201,0.004166,0.004471,1.526e-05,2.289e-05,0.008255,0.001572,11.11,0.05135,0,1,0
295800000000,296100000000,3717263317,0,711646,0.002277,0.00444,0.007652,0.002998,0.003967,0.00444,1.431e-05,2.289e-05,0.01088,0.001215,10.8,0.04959,0,1,0
296100000000,296400000000,3717263317,0,711646,0.002251,0.004448,0.007652,0.002846,0.003815,0.004456,3.338e-05,2.289e-05,0.009155,0.006783,10.35,0.04733,0,1,0
296400000000,296700000000,3717263317,0,711646,0.002125,0.004448,0.007652,0.002956,0.003929,0.004456,6.866e-05,2.384e-05,0.01314,0.008423,8.276,0.03663,0,1,0
296700000000,297000000000,3717263317,0,711646,0.002159,0.004456,0.007652,0.003113,0.004082,0.004478,1.717e-05,2.384e-05,0.008057,0.001715,9.817,0.04471,0,1,0
297000000000,297300000000,3717263317,0,711646,0.002106,0.004456,0.007652,0.00296,0.003929,0.004471,2.098e-05,2.384e-05,0.01001,0.001785,10,0.04523,0,1,0
297300000000,297600000000,3717263317,0,711646,0.002144,0.004425,0.00766,0.002998,0.003967,0.004433,1.24e-05,2.384e-05,0.008041,0.0007143,11.32,0.05226,0,1,0
297600000000,297900000000,3717263317,0,711646,0.00209,0.004433,0.00766,0.003036,0.004005,0.004433,2.575e-05,2.289e-05,0.01033,0.003357,10.59,0.0483,0,1,0
297900000000,298200000000,3717263317,0,711646,0.002113,0.004433,0.007652,0.003048,0.004013,0.00444,2.48e-05,2.289e-05,0.01062,0.003357,11.61,0.05366,0,1,0
298200000000,298500000000,3717263317,0,711646,0.002129,0.004433,0.007652,0.003044,0.004013,0.00444,1.144e-05,2.289e-05,0.009354,0.001072,11.02,0.05086,0,1,0
298500000000,298800000000,3717263317,0,711646,0.002113,0.00444,0.007652,0.003048,0.004013,0.004456,1.526e-05,2.289e-05,0.009491,0.001499,11.46,0.05301,0,1,0
298800000000,299100000000,3717263317,0,711646,0.002178,0.004456,0.007652,0.003067,0.004036,0.004471,1.907e-05,2.384e-05,0.008987,0.002857,9.649,0.04317,0,1,0
299100000000,299400000000,3717263317,0,711646,0.002148,0.00444,0.007652,0.003159,0.004128,0.004448,4.482e-05,2.384e-05,0.009445,0.006783,10.35,0.04712,0,1,0
299400000000,299700000000,3717263317,0,711646,0.002106,0.00444,0.007652,0.003101,0.004074,0.004448,1.526e-05,2.384e-05,0.008133,0.001215,10.86,0.04976,0,1,0
299700000000,300000000000,3717263317,0,711646,0.002258,0.00444,0.007652,0.002949,0.003914,0.004456,1.907e-05,2.384e-05,0.0119,0.002357,10.63,0.04831,0,1,0
