5700000000,6000000000,3768540354,0,3829942,4.578e-05,0.005768,0.007751,0.0001402,0.0003986,0.005775,1.907e-06,0,0.0006409,7.153e-05,7.101,0.03089,0,0,1.526e-05
6000000000,6300000000,3768540354,0,3829942,4.864e-05,0.005775,0.007751,0.0001402,0.0003996,0.005775,4.768e-06,0,0.0006571,0.0005713,5.709,0.02314,0,0,0.0001545
6300000000,6600000000,3768540354,0,3829942,4.768e-05,0.005768,0.007751,0.0001402,0.0003996,0.005768,1.907e-06,0,0.0006323,7.153e-05,6.358,0.02638,0,0,2.193e-05
6600000000,6900000000,3768540354,0,3829942,4.864e-05,0.005775,0.007751,0.0001402,0.0003996,0.005775,2.861e-06,0,0.0006962,0.0002146,5.849,0.02365,0,0,2.193e-05
6900000000,7200000000,3768540354,0,3829942,4.864e-05,0.005768,0.007751,0.0001402,0.0003996,0.005768,1.907e-06,0,0.0007401,7.153e-05,5.535,0.0216,0,0,2.861e-05
7200000000,7500000000,3768540354,0,3829942,4.768e-05,0.005775,0.007751,0.0001402,0.0003996,0.005775,2.861e-06,0,0.0006857,7.153e-05,5.56,0.02277,0,0,7.629e-06
7500000000,7800000000,3768540354,0,3829942,4.864e-05,0.005768,0.007751,0.0001402,0.0003996,0.005768,1.907e-06,0,0.0007744,7.153e-05,5.408,0.02127,0,0,8.583e-06
7800000000,8100000000,3768540354,0,3829942,4.578e-05,0.005775,0.007751,0.0001402,0.0003996,0.005775,1.907e-06,0,0.00068,7.153e-05,5.398,0.02308,0,0,8.583e-06
8100000000,8400000000,3768540354,0,3829942,4.673e-05,0.005768,0.007751,0.0001411,0.0003996,0.005768,1.907e-06,0,0.0006733,7.153e-05,4.969,0.02053,0,0,5.722e-05
8400000000,8700000000,3768540354,0,3829942,4.864e-05,0.005775,0.007751,0.0001411,0.0003996,0.005775,2.861e-06,0,0.0007544,7.153e-05,4.804,0.01888,0,0,4.768e-05
8700000000,9000000000,3768540354,0,3829942,4.768e-05,0.005768,0.007751,0.0001411,0.0003996,0.005768,1.812e-05,0,0.0006514,0.00243,5.557,0.02255,0,0,8.583e-05
9000000000,9300000000,3768540354,0,3829942,4.864e-05,0.005775,0.007751,0.0001411,0.0003996,0.005775,4.768e-06,0,0.0006561,0.0005713,5.078,0.0204,0,0,4.768e-06
9300000000,9600000000,3768540354,0,3829942,4.673e-05,0.005768,0.007751,0.0001411,0.0003996,0.005768,1.907e-06,0,0.0007668,7.153e-05,5.01,0.02004,0,0,4.196e-05
9600000000,9900000000,3768540354,0,3829942,4.673e-05,0.005775,0.007751,0.0001411,0.0004005,0.005775,4.768e-06,0,0.000679,0.0005713,4.705,0.01812,0,0,1.812e-05
9900000000,10200000000,3768540354,0,3829942,4.673e-05,0.005768,0.007751,0.0001411,0.0004005,0.005768,4.768e-06,0,0.0005426,0.0005713,5.619,0.02277,0,0,2.861e-05
10200000000,10500000000,3768540354,0,3829942,4.864e-05,0.005775,0.007751,0.0001411,0.0004005,0.005775,2.861e-06,0,0.0004292,0.0002861,6.89,0.02891,0,0,3.624e-05
10500000000,10800000000,3768540354,0,3829942,4.673e-05,0.005768,0.007751,0.0001411,0.0004005,0.005768,1.907e-06,0,0.0003557,0.0001431,6.759,0.02874,0,0,2.193e-05
10800000000,11100000000,3768540354,0,3829942,5.054e-05,0.005775,0.007751,0.0001411,0.0004005,0.005775,7.629e-06,0,0.0004663,0.0009995,6.054,0.02467,0,0,5.722e-06
11100000000,11400000000,3768540354,0,3829942,4.768e-05,0.005768,0.007751,0.0001411,0.0004005,0.005768,4.768e-06,0,0.000494,0.0006428,6.126,0.02536,0,0,0.0002937
11400000000,11700000000,3768540354,0,3829942,4.673e-05,0.005775,0.007751,0.0001421,0.0004005,0.005775,1.24e-05,0,0.0004387,0.001072,5.794,0.02379,0,0,0.0003157
11700000000,12000000000,3768540354,0,3829942,4.578e-05,0.005768,0.007751,0.0001421,0.0004005,0.005768,9.537e-06,0,0.0004053,0.001215,6.944,0.03008,0,0,1.812e-05
12000000000,12300000000,3768540354,0,3829942,4.864e-05,0.005775,0.007751,0.0001421,0.0004005,0.005775,4.768e-06,0,0.0004511,0.0005713,5.091,0.01964,0,0,3.052e-05
12300000000,12600000000,3768540354,0,3829942,5.054e-05,0.005768,0.007751,0.0001421,0.0004005,0.005768,1.907e-06,0,0.0003662,7.153e-05,4.814,0.0178,0,0,0.0001516
12600000000,12900000000,3768540354,0,3829942,4.864e-05,0.005775,0.007751,0.0001421,0.0004005,0.005775,2.861e-06,0,0.0004349,7.153e-05,5.313,0.02124,0,0,1.144e-05
12900000000,13200000000,3768540354,0,3829942,4.673e-05,0.005768,0.007751,0.0001421,0.0004015,0.005775,8.583e-06,0,0.0003986,0.0009995,5.368,0.02156,0,0,5.722e-05
13200000000,13500000000,3768540354,0,3829942,4.768e-05,0.005775,0.007751,0.0001421,0.0004015,0.005775,4.768e-06,0,0.0004816,0.0008574,4.757,0.01802,0,0,0.0001431
13500000000,13800000000,3768540354,0,3829942,4.768e-05,0.005768,0.007751,0.0001421,0.0004015,0.005768,1.907e-06,0,0.0004978,7.153e-05,5.132,0.02021,0,0,3.529e-05
13800000000,14100000000,3768540354,0,3829942,4.578e-05,0.005775,0.007751,0.0001421,0.0004015,0.005775,1.907e-06,0,0.0003948,7.153e-05,6.031,0.02485,0,0,5.531e-05
14100000000,14400000000,3768540354,0,3829942,4.673e-05,0.005768,0.007751,0.0001421,0.0004015,0.005768,2.861e-06,0,0.0004206,0.0002146,6.114,0.02522,0,0,1.717e-05
14400000000,14700000000,3768540354,0,3829942,4.578e-05,0.005775,0.007751,0.0001421,0.0004015,0.005775,2.861e-06,0,0.0002327,0.0002861,7.023,0.03091,0,0,1.621e-05
14700000000,15000000000,3768540354,0,3829942,4.578e-05,0.005768,0.007751,0.0001421,0.0004015,0.005768,5.722e-06,0,0.0005636,0.0005713,5.832,0.0243,0,0,0.0001202
15000000000,15300000000,3768540354,0,3829942,4.578e-05,0.005775,0.007751,0.0001431,0.0004015,0.005775,7.629e-06,0,0.0005465,0.0007858,5.759,0.02379,0,0,1.049e-05
15300000000,15600000000,3768540354,0,3829942,4.673e-05,0.005768,0.007751,0.0001431,0.0004015,0.005768,4.768e-06,0,0.0003767,0.0007858,5.417,0.02141,0,0,1.144e-05
15600000000,15900000000,3768540354,0,3829942,4.673e-05,0.005775,0.007751,0.0001431,0.0004015,0.005775,3.815e-06,0,0.0003633,0.0005713,6.055,0.02608,0,0,0.000102
15900000000,16200000000,3768540354,0,3829942,4.578e-05,0.005768,0.007751,0.0001431,0.0004015,0.005768,4.768e-06,0,0.0002966,0.0009995,6.66,0.02863,0,0,7.629e-06
16200000000,16500000000,3768540354,0,3829942,4.959e-05,0.005775,0.007751,0.0001431,0.0004025,0.005775,2.861e-06,0,0.0005341,0.0002146,4.966,0.01921,0,0,2.766e-05
16500000000,16800000000,3768540354,0,3829942,4.768e-05,0.005768,0.007751,0.0001431,0.0004025,0.005775,4.768e-06,0,0.00033,0.0008574,5.282,0.02061,0,0,2.193e-05
16800000000,17100000000,3768540354,0,3829942,4.768e-05,0.005775,0.007751,0.0001431,0.0004025,0.005775,1.907e-06,0,0.0004845,7.153e-05,5.428,0.02228,0,0,4.101e-05
17100000000,17400000000,3768540354,0,3829942,4.578e-05,0.005768,0.007751,0.0001431,0.0004025,0.005768,3.815e-06,0,0.0003471,0.0005713,6.989,0.03045,0,0,2.575e-05
17400000000,17700000000,3768540354,0,3829942,4.578e-05,0.005775,0.007751,0.0001431,0.0004025,0.005775,2.861e-06,0,0.0005074,0.0001431,6.561,0.02906,0,0,3.052e-05
17700000000,18000000000,3768540354,0,3829942,4.578e-05,0.005768,0.007751,0.0001392,0.0003986,0.005768,1.907e-06,0,0.0004911,7.153e-05,5.787,0.02487,0,0,2.861e-05
18000000000,18300000000,3768540354,0,3829942,4.578e-05,0.005775,0.007751,0.0001392,0.0003986,0.005775,5.722e-06,0,0.000596,0.001143,6.135,0.0265,0,0,3.815e-06
18300000000,18600000000,3768540354,0,3829942,4.673e-05,0.005768,0.007751,0.0001392,0.0003986,0.005768,1.907e-06,0,0.0004034,7.153e-05,5.553,0.02337,0,0,0.000248
18600000000,18900000000,3768540354,0,3829942,4.578e-05,0.005775,0.007751,0.0001402,0.0003986,0.005775,2.861e-06,0,0.0005779,7.153e-05,5.469,0.02324,0,0,1.144e-05
18900000000,19200000000,3768540354,0,3829942,4.482e-05,0.005768,0.007751,0.0001402,0.0003986,0.005768,1.907e-06,0,0.0003996,7.153e-05,6.624,0.02956,0,0,1.24e-05
19200000000,19500000000,3768540354,0,3829942,4.673e-05,0.005775,0.007751,0.0001402,0.0003986,0.005775,1.907e-06,0,0.000514,7.153e-05,4.769,0.01869,0,0,3.242e-05
19500000000,19800000000,3768540354,0,3829942,4.673e-05,0.005768,0.007751,0.0001402,0.0003986,0.005768,6.676e-06,0,0.0004568,0.001429,5.307,0.02178,0,0,3.624e-05
19800000000,20100000000,3768540354,0,3829942,4.482e-05,0.005775,0.007751,0.0001402,0.0003996,0.005775,1.907e-06,0,0.0003042,7.153e-05,5.948,0.02638,0,0,3.815e-06
20100000000,20400000000,3768540354,0,3829942,4.578e-05,0.005768,0.007751,0.0001402,0.0003996,0.005775,5.722e-06,0,0.0004368,0.0005713,5.727,0.02466,0,0,4.387e-05
20400000000,20700000000,3768540354,0,3829942,4.482e-05,0.005775,0.007751,0.0001402,0.0003996,0.005775,2.861e-06,0,0.0004711,7.153e-05,5.135,0.02191,0,0,3.147e-05
20700000000,21000000000,3768540354,0,3829942,4.768e-05,0.005775,0.007751,0.0001402,0.0003996,0.005775,1.907e-06,0,0.0004721,7.153e-05,5.801,0.02446,0,0,5.627e-05
21000000000,21300000000,3768540354,0,3829942,4.578e-05,0.005775,0.007751,0.0001402,0.0003996,0.005775,1.907e-06,0,0.0002394,7.153e-05,6.501,0.02976,0,0,3.91e-05
21300000000,21600000000,3768540354,0,3829942,4.578e-05,0.005768,0.007751,0.0001402,0.0003996,0.005768,1.907e-06,0,0.0004215,7.153e-05,9.474,0.04521,0,0,2.48e-05
21600000000,21900000000,3768540354,0,3829942,4.387e-05,0.005775,0.007751,0.0001402,0.0003996,0.005775,2.861e-06,0,0.0003643,0.0002146,7.452,0.03526,0,0,8.583e-06
21900000000,22200000000,3768540354,0,3829942,4.578e-05,0.005768,0.007751,0.0001411,0.0003996,0.005768,1.907e-06,0,0.0003853,7.153e-05,6.584,0.0293,0,0,2.384e-05
22200000000,22500000000,3768540354,0,3829942,4.482e-05,0.005775,0.007751,0.0001411,0.0003996,0.005775,1.907e-06,0,0.0009432,7.153e-05,5.42,0.02325,0,0,7.057e-05
22500000000,22800000000,3768540354,0,3829942,4.578e-05,0.005768,0.007751,0.0001411,0.0003996,0.005768,1.907e-06,0,0.0006561,7.153e-05,5.23,0.02131,0,0,9.537e-07
22800000000,23100000000,3768540354,0,3829942,4.578e-05,0.005775,0.007751,0.0001411,0.0003996,0.005775,3.815e-06,0,0.0004549,0.0005713,4.992,0.02061,0,0,2.003e-05
23100000000,23400000000,3768540354,0,3829942,4.578e-05,0.005768,0.007751,0.0001411,0.0004005,0.005768,2.861e-06,0,0.0004539,0.0002146,6.634,0.02947,0,0,2.003e-05
23400000000,23700000000,3768540354,0,3829942,4.578e-05,0.005775,0.007751,0.0001411,0.0004005,0.005775,1.907e-06,0,0.0003796,7.153e-05,6.152,0.02696,0,0,3.815e-06
23700000000,24000000000,3768540354,0,3829942,4.578e-05,0.005768,0.007751,0.0001411,0.0004005,0.005768,4.768e-06,0,0.0003967,0.0005713,5.822,0.02468,0,0,4.292e-05
24000000000,24300000000,3768540354,0,3829942,4.578e-05,0.005775,0.007751,0.0001411,0.0004005,0.005775,2.861e-06,0,0.0003958,0.0002861,6.146,0.02631,0,0,2.956e-05
24300000000,24600000000,3768540354,0,3829942,4.673e-05,0.005768,0.007751,0.0001411,0.0004005,0.005768,1.24e-05,0,0.0004797,0.001572,9.189,0.04234,0,0,2.67e-05
24600000000,24900000000,3768540354,0,3829942,4.578e-05,0.005775,0.007751,0.0001411,0.0004005,0.005775,5.722e-06,0,0.0004206,0.001215,6.215,0.02675,0,0,3.624e-05
24900000000,25200000000,3768540354,0,3829942,4.673e-05,0.005768,0.007751,0.0001411,0.0004005,0.005768,2.861e-06,0,0.0004539,0.0002861,5.664,0.02351,0,0,4.578e-05
25200000000,25500000000,3768540354,0,3829942,4.768e-05,0.005775,0.007751,0.0001421,0.0004005,0.005775,2.861e-06,0,0.0004625,0.0001431,5.538,0.02252,0,0,1.049e-05
25500000000,25800000000,3768540354,0,3829942,4.673e-05,0.005768,0.007751,0.0001421,0.0004005,0.005768,1.907e-06,0,0.0004129,7.153e-05,7.185,0.03262,0,0,2.384e-05
25800000000,26100000000,3768540354,0,3829942,5.245e-05,0.005775,0.007751,0.0001421,0.0004005,0.005775,2.861e-06,0,0.0003567,7.153e-05,10.73,0.04794,0,0,9.537e-06
26100000000,26400000000,3768540354,0,3829942,4.578e-05,0.005768,0.007751,0.0001421,0.0004005,0.005768,1.907e-06,0,0.0005779,7.153e-05,10.43,0.04783,0,0,0.0001402
26400000000,26700000000,3768540354,0,3829942,4.768e-05,0.005775,0.007751,0.0001421,0.0004015,0.005775,1.907e-06,0,0.0004835,7.153e-05,7.58,0.03288,0,0,2.956e-05
26700000000,27000000000,3768540354,0,3829942,4.482e-05,0.005768,0.007751,0.0001421,0.0004015,0.005768,2.861e-06,0,0.0003872,0.0002146,7.026,0.03228,0,0,6.866e-05
27000000000,27300000000,3768540354,0,3829942,4.482e-05,0.005775,0.007751,0.0001421,0.0004015,0.005775,2.861e-06,0,0.0003824,0.0001431,8.096,0.03902,0,0,1.431e-05
27300000000,27600000000,3768540354,0,3829942,4.482e-05,0.005775,0.007751,0.0001421,0.0004015,0.005775,1.907e-06,0,0.0004539,7.153e-05,8.997,0.04141,0,0,1.812e-05
27600000000,27900000000,3768540354,0,3829942,4.578e-05,0.005775,0.007751,0.0001383,0.0003977,0.005775,4.768e-06,0,0.0003424,0.0005713,10.28,0.04941,0,0,2.193e-05
27900000000,28200000000,3768540354,0,3829942,4.482e-05,0.005775,0.007751,0.0001364,0.0003958,0.005775,2.861e-06,0,0.0003347,7.153e-05,10.62,0.04998,0,0,2.861e-05
28200000000,28500000000,3768540354,0,3829942,4.578e-05,0.005775,0.007751,0.0001364,0.0003958,0.005775,1.907e-06,0,0.0004339,7.153e-05,7.902,0.03651,0,0,5.627e-05
28500000000,28800000000,3768540354,0,3829942,4.768e-05,0.005768,0.007751,0.0001364,0.0003958,0.005775,1.907e-06,0,0.0004873,7.153e-05,8.182,0.03663,0,0,3.147e-05
28800000000,29100000000,3768540354,0,3829942,4.864e-05,0.005775,0.007751,0.0001364,0.0003958,0.005775,1.907e-06,0,0.0003891,7.153e-05,8.193,0.03649,0,0,4.864e-05
29100000000,29400000000,3768540354,0,3829942,4.768e-05,0.005768,0.007751,0.0001373,0.0003958,0.005775,1.907e-06,0,0.0004301,0.0001431,9.644,0.04407,0,0,2.861e-05
29400000000,29700000000,3768540354,0,3829942,4.864e-05,0.005775,0.007751,0.0001373,0.0003958,0.005775,2.861e-06,0,0.0003891,0.0002861,8.313,0.03748,0,0,2.003e-05
29700000000,30000000000,3768540354,0,3829942,4.959e-05,0.005768,0.007751,0.0001373,0.0003958,0.005768,1.907e-06,0,0.0007668,7.153e-05,8.768,0.03908,0,0,2.956e-05
30000000000,30300000000,3768540354,0,3829942,4.864e-05,0.005775,0.007751,0.0001373,0.0003958,0.005775,3.815e-06,0,0.0004702,0.0005713,8.557,0.03833,0,0,0.000185
30300000000,30600000000,3768540354,0,3829942,4.959e-05,0.005768,0.007751,0.0001373,0.0003967,0.005768,2.861e-06,0,0.0004578,0.0002146,7.986,0.03505,0,0,2.384e-05
30600000000,30900000000,3768540354,0,3829942,4.768e-05,0.005775,0.007751,0.0001373,0.0003967,0.005775,1.144e-05,0,0.0004778,0.002857,6.912,0.02998,0,0,4.959e-05
30900000000,31200000000,3768540354,0,3829942,4.673e-05,0.005768,0.007751,0.0001373,0.0003967,0.005768,1.907e-06,0,0.0003357,0.0001431,10.01,0.04604,0,0,1.526e-05
31200000000,31500000000,3768540354,0,3829942,4.768e-05,0.005775,0.007751,0.0001373,0.0003967,0.005775,1.907e-06,0,0.0003414,7.153e-05,8.475,0.03913,0,0,3.147e-05
31500000000,31800000000,3768540354,0,3829942,4.864e-05,0.005768,0.007751,0.0001373,0.0003967,0.005768,1.907e-06,0,0.000392,7.153e-05,8.265,0.03666,0,0,1.812e-05
31800000000,32100000000,3768540354,0,3829942,4.864e-05,0.005775,0.007751,0.0001373,0.0003967,0.005775,2.861e-06,0,0.0003595,0.0003567,8.705,0.03794,0,0,6.39e-05
32100000000,32400000000,3768540354,0,3829942,4.768e-05,0.005768,0.007751,0.0001373,0.0003967,0.005768,1.907e-06,0,0.0004091,7.153e-05,10.92,0.04954,0,0,3.624e-05
32400000000,32700000000,3768540354,0,3829942,4.959e-05,0.005775,0.007751,0.0001383,0.0003967,0.005775,3.815e-06,0,0.0007381,0.0002861,8.872,0.03916,0,0,0.0001631
32700000000,33000000000,3768540354,0,3829942,5.054e-05,0.005768,0.007751,0.0001383,0.0003967,0.005775,1.907e-06,0,0.0008793,0.0001431,8.59,0.0372,0,0,0.0001497
33000000000,33300000000,3768540354,0,3829942,4.959e-05,0.005768,0.007751,0.0001383,0.0003967,0.005775,2.861e-06,0,0.0008802,7.153e-05,6.368,0.02703,0,0,3.052e-05
33300000000,33600000000,3768540354,0,3829942,4.864e-05,0.005768,0.007751,0.0001383,0.0003967,0.005768,2.861e-06,0,0.0005169,0.0002861,7.378,0.03096,0,0,5.722e-06
33600000000,33900000000,3768540354,0,3829942,4.864e-05,0.005768,0.007751,0.0001383,0.0003977,0.005775,4.768e-06,0,0.0005598,0.0005713,6.414,0.02656,0,0,2.67e-05
33900000000,34200000000,3768540354,0,3829942,5.054e-05,0.005768,0.007751,0.0001383,0.0003977,0.005775,4.768e-06,0,0.001865,0.0006428,7.972,0.03341,0,0,3.529e-05
34200000000,34500000000,3768540354,0,3829942,4.673e-05,0.005768,0.007751,0.0001383,0.0003977,0.005775,2.861e-06,0,0.0007839,7.153e-05,8.234,0.03737,0,0,3.719e-05
34500000000,34800000000,3768540354,0,3829942,4.959e-05,0.005768,0.007751,0.0001383,0.0003977,0.005775,5.722e-06,0,0.0007086,0.0005713,10.19,0.04562,0,0,2.193e-05
34800000000,35100000000,3768540354,0,3829942,4.673e-05,0.005775,0.007751,0.0001383,0.0003977,0.005775,4.768e-06,0,0.0007181,0.0006428,8.07,0.0359,0,0,4.578e-05
35100000000,35400000000,3768540354,0,3829942,4.768e-05,0.005768,0.007751,0.0001383,0.0003977,0.005768,1.907e-06,0,0.0007124,7.153e-05,7.782,0.03425,0,0,0.0005054
35400000000,35700000000,3768540354,0,3829942,4.673e-05,0.005775,0.007751,0.0001392,0.0003977,0.005775,2.861e-06,0,0.0007896,7.153e-05,7.502,0.03378,0,0,2.289e-05
35700000000,36000000000,3768540354,0,3829942,4.673e-05,0.005768,0.007751,0.0001392,0.0003977,0.005768,1.907e-06,0,0.0007429,7.153e-05,9.909,0.04556,0,0,1.24e-05
36000000000,36300000000,3768540354,0,3829942,4.673e-05,0.005775,0.007751,0.0001392,0.0003977,0.005775,2.861e-06,0,0.0006199,7.153e-05,7.698,0.03452,0,0,8.297e-05
36300000000,36600000000,3768540354,0,3829942,4.673e-05,0.005768,0.007751,0.0001392,0.0003977,0.005768,5.722e-06,0,0.0005951,0.0008574,7.22,0.03147,0,0,2.289e-05
36600000000,36900000000,3768540354,0,3829942,4.864e-05,0.005775,0.007751,0.0001392,0.0003986,0.005775,1.907e-06,0,0.0005608,7.153e-05,6.585,0.02773,0,0,1.526e-05
36900000000,37200000000,3768540354,0,3829942,4.768e-05,0.005768,0.007751,0.0001392,0.0003986,0.005768,1.907e-06,0,0.0005932,7.153e-05,6.941,0.02907,0,0,7.153e-05
37200000000,37500000000,3768540354,0,3829942,4.578e-05,0.005775,0.007751,0.0001392,0.0003986,0.005775,4.768e-06,0,0.0006371,0.0009289,9.184,0.04239,0,0,2.861e-06
37500000000,37800000000,3768540354,0,3829942,4.578e-05,0.005768,0.007751,0.0001392,0.0003986,0.005768,4.768e-06,0,0.000576,0.0005713,9.096,0.04123,0,0,2.384e-05
37800000000,38100000000,3768540354,0,3829942,4.673e-05,0.005775,0.007751,0.0001392,0.0003986,0.005775,4.768e-06,0,0.000617,0.0005713,7.772,0.03498,0,0,2.289e-05
38100000000,38400000000,3768540354,0,3829942,4.673e-05,0.005768,0.007751,0.0001392,0.0003986,0.005768,1.907e-06,0,0.0004454,7.153e-05,7.848,0.03555,0,0,6.676e-06
38400000000,38700000000,3768540354,0,3829942,4.482e-05,0.005775,0.007751,0.0001392,0.0003986,0.005775,1.907e-06,0,0.0002413,7.153e-05,7.572,0.03452,0,0,0.0001478
38700000000,39000000000,3768540354,0,3829942,5.15e-05,0.005768,0.007751,0.0001402,0.0003986,0.005768,3.815e-06,0,0.000598,0.0005713,9.898,0.04317,0,0,3.91e-05
39000000000,39300000000,3768540354,0,3829942,5.436e-05,0.005775,0.007751,0.0001402,0.0003986,0.005775,1.907e-06,0,0.0005302,7.153e-05,9.406,0.03995,0,0,8.774e-05
39300000000,39600000000,3768540354,0,3829942,5.15e-05,0.005768,0.007751,0.0001402,0.0003986,0.005768,2.861e-06,0,0.0003548,0.0002146,10.11,0.04414,0,0,3.815e-05
39600000000,39900000000,3768540354,0,3829942,5.054e-05,0.005775,0.007751,0.0001402,0.0003986,0.005775,3.815e-06,0,0.0005226,0.0004282,9.841,0.04371,0,0,1.431e-05
39900000000,40200000000,3768540354,0,3829942,4.959e-05,0.005768,0.007751,0.0001402,0.0003986,0.005768,1.907e-06,0,0.001059,7.153e-05,9.51,0.04231,0,0,0.000598
40200000000,40500000000,3768540354,0,3829942,4.959e-05,0.005775,0.007751,0.0001402,0.0003996,0.005775,2.861e-06,0,0.0008316,7.153e-05,7.929,0.03458,0,0,3.529e-05
40500000000,40800000000,3768540354,0,3829942,4.864e-05,0.005768,0.007751,0.0001402,0.0003996,0.005775,1.907e-06,0,0.0009975,7.153e-05,7.646,0.03351,0,0,0.0001059
51000000000,51300000000,3768540354,0,3829942,5.054e-05,0.005775,0.007751,0.0001373,0.0003967,0.005775,1.907e-06,0,0.0005283,7.153e-05,5.927,0.02354,0,0,2.766e-05
51300000000,51600000000,3768540354,0,3829942,5.054e-05,0.005768,0.007751,0.0001373,0.0003967,0.005768,5.722e-06,0,0.001221,0.0005713,6.543,0.02718,0,0,5.627e-05
51600000000,51900000000,3768540354,0,3829942,4.768e-05,0.005775,0.007751,0.0001373,0.0003967,0.005775,1.144e-05,0,0.000452,0.001999,7.222,0.03179,0,0,8.297e-05
51900000000,52200000000,3768540354,0,3829942,4.768e-05,0.005768,0.007751,0.0001373,0.0003967,0.005775,1.907e-06,0,0.000556,0.0001431,7.419,0.0329,0,0,5.341e-05
52200000000,52500000000,3768540354,0,3829942,4.673e-05,0.005768,0.007751,0.0001373,0.0003967,0.005775,2.861e-06,0,0.0003843,7.153e-05,7.083,0.03126,0,0,1.907e-06
52500000000,52800000000,3768540354,0,3829942,4.864e-05,0.005768,0.007751,0.0001383,0.0003967,0.005768,2.861e-06,0,0.0004978,0.0001431,6.189,0.02592,0,0,0.000102
52800000000,53100000000,3768540354,0,3829942,4.864e-05,0.005768,0.007751,0.0001383,0.0003967,0.005775,4.768e-06,0,0.0003614,0.0005713,6.643,0.02864,0,0,3.719e-05
53100000000,53400000000,3768540354,0,3829942,4.768e-05,0.005768,0.007751,0.0001383,0.0003967,0.005768,1.907e-06,0,0.000535,7.153e-05,8.388,0.03727,0,0,6.104e-05
53400000000,53700000000,3768540354,0,3829942,4.768e-05,0.005768,0.007751,0.0001383,0.0003967,0.005775,2.861e-06,0,0.0005245,7.153e-05,6.531,0.02738,0,0,3.719e-05
53700000000,54000000000,3768540354,0,3829942,4.864e-05,0.005768,0.007751,0.0001383,0.0003977,0.005768,1.907e-06,0,0.0008631,7.153e-05,6.264,0.02583,0,0,7.153e-05
54000000000,54300000000,3768540354,0,3829942,4.959e-05,0.005768,0.007751,0.0001383,0.0003977,0.005775,1.907e-06,0,0.0004263,7.153e-05,5.864,0.02336,0,0,5.531e-05
54300000000,54600000000,3768540354,0,3829942,4.578e-05,0.005768,0.007751,0.0001383,0.0003977,0.005768,1.907e-06,0,0.0003166,7.153e-05,9.696,0.04473,0,0,2.861e-06
54600000000,54900000000,3768540354,0,3829942,4.673e-05,0.005768,0.007751,0.0001383,0.0003977,0.005775,1.907e-06,0,0.0004854,7.153e-05,6.617,0.02832,0,0,2.48e-05
54900000000,55200000000,3768540354,0,3829942,4.864e-05,0.005768,0.007751,0.0001383,0.0003977,0.005768,2.861e-06,0,0.0004911,0.0001431,5.476,0.02172,0,0,2.193e-05
55200000000,55500000000,3768540354,0,3829942,4.959e-05,0.005768,0.007751,0.0001383,0.0003977,0.005775,5.722e-06,0,0.0004921,0.001143,5.887,0.02405,0,0,1.907e-06
55500000000,55800000000,3768540354,0,3829942,4.959e-05,0.005768,0.007751,0.0001383,0.0003977,0.005768,1.907e-06,0,0.0005045,7.153e-05,6.465,0.02696,0,0,6.676e-06
55800000000,56100000000,3768540354,0,3829942,4.768e-05,0.005775,0.007751,0.0001392,0.0003977,0.005775,8.583e-06,0,0.0003214,0.001429,6.128,0.02595,0,0,6.771e-05
56100000000,56400000000,3768540354,0,3829942,4.768e-05,0.005768,0.007751,0.0001392,0.0003977,0.005768,1.907e-06,0,0.000535,7.153e-05,7.25,0.03164,0,0,0.0001383
56400000000,56700000000,3768540354,0,3829942,4.959e-05,0.005775,0.007751,0.0001392,0.0003977,0.005775,4.768e-06,0,0.0006151,0.0005713,5.67,0.02254,0,0,1.907e-06
56700000000,57000000000,3768540354,0,3829942,4.768e-05,0.005768,0.007751,0.0001392,0.0003977,0.005768,1.907e-06,0,0.0004492,7.153e-05,5.838,0.02367,0,0,9.537e-06
57000000000,57300000000,3768540354,0,3829942,4.768e-05,0.005775,0.007751,0.0001392,0.0003986,0.005775,2.861e-06,0,0.0006247,7.153e-05,5.527,0.02262,0,0,4.578e-05
57300000000,57600000000,3768540354,0,3829942,4.864e-05,0.005768,0.007751,0.0001392,0.0003986,0.005768,1.907e-06,0,0.0006332,0.0001431,6.568,0.02772,0,0,7.629e-06
57600000000,57900000000,3768540354,0,3829942,4.959e-05,0.005768,0.007751,0.0001392,0.0003986,0.005775,2.861e-06,0,0.0002747,0.0002146,5.369,0.02109,0,0,2.575e-05
57900000000,58200000000,3768540354,0,3829942,4.768e-05,0.005768,0.007751,0.0001392,0.0003986,0.005775,4.768e-06,0,0.0007439,0.0004997,5.738,0.02372,0,0,2.48e-05
58200000000,58500000000,3768540354,0,3829942,4.959e-05,0.005775,0.007751,0.0001392,0.0003986,0.005775,2.67e-05,0,0.0007172,0.002857,5.425,0.02151,0,0,0.0002089
58500000000,58800000000,3768540354,0,3829942,4.959e-05,0.005768,0.007751,0.0001392,0.0003986,0.005768,5.722e-06,0,0.0004168,0.001072,5.123,0.01994,0,0,3.815e-05
58800000000,59100000000,3768540354,0,3829942,5.054e-05,0.005775,0.007751,0.0001402,0.0003986,0.005775,5.722e-06,0,0.0006428,0.0005713,5.66,0.0221,0,0,9.727e-05
59100000000,59400000000,3768540354,0,3829942,4.864e-05,0.005768,0.007751,0.0001402,0.0003986,0.005775,2.861e-06,0,0.0007553,7.153e-05,7.214,0.03028,0,0,1.812e-05
59400000000,59700000000,3768540354,0,3829942,4.673e-05,0.005775,0.007751,0.0001402,0.0003986,0.005775,4.768e-06,0,0.0008163,0.0005713,6.667,0.02878,0,0,2.575e-05
59700000000,60000000000,3768540354,0,3829942,4.768e-05,0.005768,0.007751,0.0001402,0.0003986,0.005768,1.907e-06,0,0.0006857,7.153e-05,6.065,0.02554,0,0,1.24e-05
60000000000,60300000000,3768540354,0,3829942,4.864e-05,0.005775,0.007751,0.0001402,0.0003986,0.005775,1.907e-06,0,0.0007648,7.153e-05,6.175,0.0259,0,0,5.722e-05
60300000000,60600000000,3768540354,0,3829942,4.768e-05,0.005768,0.007751,0.0001402,0.0003996,0.005768,2.861e-06,0,0.0006151,0.0003567,7.79,0.03383,0,0,7.82e-05
60600000000,60900000000,3768540354,0,3829942,4.673e-05,0.005775,0.007751,0.0001402,0.0003996,0.005775,1.907e-06,0,0.0006523,7.153e-05,6.321,0.02706,0,0,3.624e-05
