5700000000,6000000000,3990224092,0,3602157820,0.0004549,0.09619,0.1224,0.001009,0.05048,0.09619,2.861e-06,0.000329,0.001221,0.0006428,13.21,0.05188,0,1,0
6000000000,6300000000,3990224092,0,3602157820,0.0004463,0.09619,0.1224,0.001022,0.05048,0.09619,9.537e-07,0.000329,0.00647,7.153e-05,12.56,0.04992,0,1,0
6300000000,6600000000,3990224092,0,3602157820,0.0004425,0.09619,0.1224,0.001022,0.05048,0.09619,9.537e-07,0.000329,0.006134,0.0001431,13.5,0.05506,0,1,0
6600000000,6900000000,3990224092,0,3602157820,0.0004492,0.09619,0.1224,0.001022,0.05048,0.09619,0,0.000329,0.01445,7.153e-05,13.91,0.05592,0,1,0
6900000000,7200000000,3990224092,0,3602157820,0.0004768,0.09619,0.1224,0.001022,0.05048,0.09631,2.861e-06,0.000329,0.001123,0.0005713,16.39,0.0696,0,1,0
7200000000,7500000000,3990224092,0,3602157820,0.0004635,0.09619,0.1224,0.001041,0.05048,0.09619,0,0.000329,0.001831,7.153e-05,14.87,0.06238,0,1,0
7500000000,7800000000,3990224092,0,3602157820,0.0004454,0.09619,0.1224,0.001041,0.05048,0.09619,9.537e-07,0.000329,0.00106,7.153e-05,15.45,0.06436,0,1,0
7800000000,8100000000,3990224092,0,3602157820,0.0004301,0.09619,0.1224,0.001041,0.05048,0.09619,0,0.000329,0.001064,7.153e-05,14.4,0.05842,0,1,0
8100000000,8400000000,3990224092,0,3602157820,0.0004272,0.09619,0.1224,0.00104,0.05048,0.09619,0,0.000329,0.0009995,7.153e-05,13.08,0.05238,0,1,0
8400000000,8700000000,3990224092,0,3602157820,0.0004263,0.09619,0.1224,0.00106,0.05048,0.09619,2.861e-06,0.000329,0.001139,0.0004997,8.918,0.03443,0,1,0
8700000000,9000000000,3990224092,0,3602157820,0.0004416,0.09619,0.1224,0.001062,0.05048,0.09619,0,0.000329,0.001238,7.153e-05,12.86,0.05076,0,1,0
9000000000,9300000000,3990224092,0,3602157820,0.000433,0.09619,0.1224,0.001062,0.05048,0.09619,9.537e-07,0.000329,0.001026,7.153e-05,12.22,0.0481,0,1,0
9300000000,9600000000,3990224092,0,3602157820,0.0004416,0.09619,0.1224,0.001059,0.05048,0.09619,9.537e-07,0.000329,0.001335,7.153e-05,13.51,0.05437,0,1,0
9600000000,9900000000,3990224092,0,3602157820,0.0004396,0.09619,0.1224,0.001072,0.05054,0.09631,1.907e-06,0.000329,0.0009956,0.0005713,13.56,0.05504,0,1,0
9900000000,10200000000,3990224092,0,3602157820,0.0004597,0.09619,0.1224,0.001078,0.05054,0.09619,9.537e-07,0.000329,0.001268,7.153e-05,14.3,0.05664,0,1,0
10200000000,10500000000,3990224092,0,3602157820,0.0004406,0.09619,0.1224,0.001078,0.05054,0.09619,9.537e-07,0.000329,0.001114,7.153e-05,14.09,0.0575,0,1,0
10500000000,10800000000,3990224092,0,3602157820,0.000452,0.09619,0.1224,0.001078,0.05054,0.09619,0,0.000329,0.001202,7.153e-05,13.5,0.05368,0,1,0
10800000000,11100000000,3990224092,0,3602157820,0.0004492,0.09619,0.1224,0.001087,0.05054,0.09631,2.861e-06,0.000329,0.001335,0.0005713,13.18,0.05226,0,1,0
11100000000,11400000000,3990224092,0,3602157820,0.0004377,0.09619,0.1224,0.001102,0.05054,0.09619,0,0.000329,0.001024,7.153e-05,12.64,0.05014,0,1,0
11400000000,11700000000,3990224092,0,3602157820,0.0004578,0.09619,0.1224,0.001102,0.05054,0.09619,9.537e-07,0.000329,0.001289,7.153e-05,13.83,0.0552,0,1,0
11700000000,12000000000,3990224092,0,3602157820,0.0004253,0.09619,0.1224,0.001102,0.05054,0.09619,0,0.000329,0.001104,7.153e-05,14.03,0.05668,0,1,0
12000000000,12300000000,3990224092,0,3602157820,0.0004349,0.09619,0.1224,0.001108,0.05054,0.09619,1.907e-06,0.000329,0.003624,0.0004997,14.22,0.05814,0,1,0
12300000000,12600000000,3990224092,0,3602157820,0.0004482,0.09619,0.1224,0.001123,0.05054,0.09619,0,0.000329,0.001129,7.153e-05,14.33,0.05854,0,1,0
12600000000,12900000000,3990224092,0,3602157820,0.0004835,0.09619,0.1224,0.001123,0.05054,0.09619,9.537e-07,0.000329,0.001244,0.0002146,14.81,0.05917,0,1,0
12900000000,13200000000,3990224092,0,3602157820,0.0004635,0.09619,0.1224,0.001123,0.05054,0.09619,0,0.000329,0.001141,0,14.24,0.0568,0,1,0
13200000000,13500000000,3990224092,0,3602157820,0.0004606,0.09619,0.1224,0.001123,0.05054,0.09619,4.768e-06,0.000329,0.001242,0.001072,14.05,0.05583,0,1,0
13500000000,13800000000,3990224092,0,3602157820,0.0004492,0.09619,0.1224,0.001143,0.0506,0.09631,1.907e-06,0.000329,0.003567,0.0004997,14.55,0.05751,0,1,0
13800000000,14100000000,3990224092,0,3602157820,0.0004511,0.09619,0.1224,0.001148,0.0506,0.09619,9.537e-07,0.000329,0.001221,7.153e-05,14.27,0.05705,0,1,0
14100000000,14400000000,3990224092,0,3602157820,0.0004406,0.09619,0.1224,0.001148,0.0506,0.09619,9.537e-07,0.000329,0.001171,7.153e-05,12.86,0.05057,0,1,0
14400000000,14700000000,3990224092,0,3602157820,0.0004025,0.09619,0.1224,0.001148,0.0506,0.09619,0,0.000329,0.0009766,7.153e-05,11.68,0.047,0,1,0
14700000000,15000000000,3990224092,0,3602157820,0.0004139,0.09619,0.1224,0.001156,0.0506,0.09619,2.861e-06,0.000329,0.001129,0.0004997,12.08,0.04858,0,1,0
15000000000,15300000000,3990224092,0,3602157820,0.0004396,0.09619,0.1224,0.001171,0.0506,0.09619,0,0.000329,0.0009975,7.153e-05,13.23,0.05325,0,1,0
15300000000,15600000000,3990224092,0,3602157820,0.0004358,0.09619,0.1224,0.001171,0.0506,0.09619,0,0.000329,0.00106,7.153e-05,12.98,0.05261,0,1,0
15600000000,15900000000,3990224092,0,3602157820,0.0004301,0.09619,0.1224,0.001171,0.0506,0.09619,9.537e-07,0.000329,0.001129,7.153e-05,14.3,0.05856,0,1,0
15900000000,16200000000,3990224092,0,3602157820,0.000411,0.09619,0.1224,0.001171,0.0506,0.09619,0,0.000329,0.001055,7.153e-05,12.78,0.05138,0,1,0
16200000000,16500000000,3990224092,0,3602157820,0.000433,0.09619,0.1224,0.001192,0.05066,0.09619,1.907e-06,0.000329,0.001144,0.0004282,9.365,0.03684,0,1,0
16500000000,16800000000,3990224092,0,3602157820,0.0004187,0.09619,0.1224,0.001194,0.05066,0.09619,9.537e-07,0.000329,0.00106,7.153e-05,13.59,0.05535,0,1,0
16800000000,17100000000,3990224092,0,3602157820,0.0003996,0.09619,0.1224,0.001194,0.05066,0.09619,0,0.000329,0.0009518,7.153e-05,12.52,0.05034,0,1,0
17100000000,17400000000,3990224092,0,3602157820,0.0004053,0.09619,0.1224,0.001192,0.05066,0.09619,9.537e-07,0.000329,0.0009747,7.153e-05,13.24,0.05368,0,1,0
17400000000,17700000000,3990224092,0,3602157820,0.0004168,0.09619,0.1224,0.001205,0.05066,0.09619,2.861e-06,0.00033,0.001047,0.0004997,9.361,0.03742,0,1,0
17700000000,18000000000,3990224092,0,3602157820,0.0004358,0.09619,0.1224,0.001211,0.05066,0.09619,0,0.00033,0.001591,7.153e-05,13.33,0.05348,0,1,0
18000000000,18300000000,3990224092,0,3602157820,0.000411,0.09619,0.1224,0.001211,0.05066,0.09619,9.537e-07,0.00033,0.001099,7.153e-05,12.88,0.05152,0,1,0
18300000000,18600000000,3990224092,0,3602157820,0.0004101,0.09619,0.1224,0.001209,0.05066,0.09619,0,0.00033,0.001053,7.153e-05,11.95,0.04808,0,1,0
18600000000,18900000000,3990224092,0,3602157820,0.0004129,0.09619,0.1224,0.001221,0.05066,0.09619,1.907e-06,0.00033,0.02527,0.0003567,13.28,0.05378,0,1,0
18900000000,19200000000,3990224092,0,3602157820,0.0004196,0.09619,0.1224,0.00123,0.05066,0.09619,0,0.00033,0.003662,7.153e-05,12.98,0.05331,0,1,0
19200000000,19500000000,3990224092,0,3602157820,0.0004091,0.09619,0.1224,0.00123,0.05066,0.09619,9.537e-07,0.00033,0.001352,7.153e-05,12.84,0.05268,0,1,0
19500000000,19800000000,3990224092,0,3602157820,0.0004406,0.09619,0.1224,0.00123,0.05066,0.09619,0,0.00033,0.001045,0,14.64,0.05873,0,1,0
19800000000,20100000000,3990224092,0,3602157820,0.0004406,0.09619,0.1224,0.001236,0.05066,0.09619,2.861e-06,0.00033,0.04016,0.0004997,14.91,0.06203,0,1,0
20100000000,20400000000,3990224092,0,3602157820,0.0004187,0.09619,0.1224,0.001253,0.05066,0.09619,0,0.00033,0.001032,7.153e-05,13.47,0.05508,0,1,0
20400000000,20700000000,3990224092,0,3602157820,0.0004454,0.09619,0.1224,0.001253,0.05066,0.09619,0,0.00033,0.001179,7.153e-05,13.53,0.05557,0,1,0
20700000000,21000000000,3990224092,0,3602157820,0.0004339,0.09619,0.1224,0.001253,0.05066,0.09619,0,0.00033,0.001356,7.153e-05,13.7,0.05655,0,1,0
21000000000,21300000000,3990224092,0,3602157820,0.0004473,0.09619,0.1224,0.001253,0.05072,0.09619,0,0.00033,0.001614,7.153e-05,14.05,0.05672,0,1,0
21300000000,21600000000,3990224092,0,3602157820,0.0004244,0.09619,0.1224,0.00127,0.05072,0.09619,1.907e-06,0.00033,0.001827,0.0004997,14.08,0.05853,0,1,0
21600000000,21900000000,3990224092,0,3602157820,0.0004339,0.09619,0.1224,0.001274,0.05072,0.09619,9.537e-07,0.00033,0.001692,7.153e-05,14.74,0.06033,0,1,0
21900000000,22200000000,3990224092,0,3602157820,0.0004272,0.09619,0.1224,0.001274,0.05072,0.09619,0,0.00033,0.00103,7.153e-05,14.59,0.06004,0,1,0
22200000000,22500000000,3990224092,0,3602157820,0.0004206,0.09619,0.1224,0.001274,0.05072,0.09619,0,0.00033,0.004219,7.153e-05,14.17,0.05728,0,1,0
22500000000,22800000000,3990224092,0,3602157820,0.0004454,0.09619,0.1224,0.00128,0.05072,0.09619,2.861e-06,0.00033,0.001461,0.0004997,9.615,0.03807,0,1,0
22800000000,23100000000,3990224092,0,3602157820,0.0004587,0.09619,0.1224,0.001293,0.05072,0.09619,9.537e-07,0.00033,0.001053,7.153e-05,14.67,0.05854,0,1,0
23100000000,23400000000,3990224092,0,3602157820,0.0004663,0.09619,0.1224,0.001293,0.05072,0.09619,0,0.00033,0.00135,7.153e-05,12.36,0.04948,0,1,0
23400000000,23700000000,3990224092,0,3602157820,0.0004425,0.09619,0.1224,0.001293,0.05072,0.09619,9.537e-07,0.00033,0.001455,7.153e-05,12.53,0.05092,0,1,0
23700000000,24000000000,3990224092,0,3602157820,0.0004463,0.09619,0.1224,0.001308,0.05072,0.09619,1.907e-06,0.00033,0.008469,0.0004282,14.54,0.06019,0,1,0
24000000000,24300000000,3990224092,0,3602157820,0.0004349,0.09619,0.1224,0.001314,0.05078,0.09619,9.537e-07,0.00033,0.002026,7.153e-05,14.3,0.05777,0,1,0
24300000000,24600000000,3990224092,0,3602157820,0.0004301,0.09619,0.1224,0.001314,0.05078,0.09619,9.537e-07,0.00033,0.001184,7.153e-05,14.26,0.05911,0,1,0
24600000000,24900000000,3990224092,0,3602157820,0.0004349,0.09619,0.1224,0.001314,0.05078,0.09619,9.537e-07,0.00033,0.001024,7.153e-05,12.99,0.05325,0,1,0
24900000000,25200000000,3990224092,0,3602157820,0.0004396,0.09619,0.1224,0.001314,0.05078,0.09619,0,0.00033,0.001177,7.153e-05,12.11,0.04722,0,1,0
25200000000,25500000000,3990224092,0,3602157820,0.0004387,0.09619,0.1224,0.001333,0.05078,0.09619,1.907e-06,0.00033,0.001347,0.0004282,13.59,0.05472,0,1,0
25500000000,25800000000,3990224092,0,3602157820,0.0004387,0.09619,0.1224,0.001335,0.05078,0.09619,0,0.00033,0.001099,0,14.24,0.05838,0,1,0
25800000000,26100000000,3990224092,0,3602157820,0.0004225,0.09619,0.1224,0.001335,0.05078,0.09619,0,0.00033,0.001207,7.153e-05,14.04,0.05765,0,1,0
26100000000,26400000000,3990224092,0,3602157820,0.0004358,0.09619,0.1224,0.001335,0.05078,0.09619,0,0.00033,0.001305,7.153e-05,14.48,0.05925,0,1,0
26400000000,26700000000,3990224092,0,3602157820,0.0004387,0.09619,0.1224,0.001335,0.05078,0.09619,0,0.00033,0.001215,7.153e-05,14.19,0.05764,0,1,0
26700000000,27000000000,3990224092,0,3602157820,0.0004349,0.09619,0.1224,0.00135,0.05078,0.09619,2.861e-06,0.00033,0.001196,0.0005713,13.25,0.05358,0,1,0
27000000000,27300000000,3990224092,0,3602157820,0.0004444,0.09619,0.1224,0.001356,0.05078,0.09619,9.537e-07,0.00033,0.001225,7.153e-05,14.52,0.06068,0,1,0
27300000000,27600000000,3990224092,0,3602157820,0.0004225,0.09619,0.1224,0.001356,0.05078,0.09619,9.537e-07,0.00033,0.001188,7.153e-05,13.39,0.05454,0,1,0
27600000000,27900000000,3990224092,0,3602157820,0.0004444,0.09619,0.1224,0.001356,0.05078,0.09619,0,0.00033,0.001127,7.153e-05,14.6,0.06001,0,1,0
27900000000,28200000000,3990224092,0,3602157820,0.0004644,0.09619,0.1224,0.001356,0.05078,0.09619,0,0.00033,0.001001,7.153e-05,15.34,0.06358,0,1,0
28200000000,28500000000,3990224092,0,3602157820,0.0004969,0.09619,0.1224,0.001375,0.05078,0.09619,1.907e-06,0.00033,0.001549,0.0004997,15.94,0.06753,0,1,0
28500000000,28800000000,3990224092,0,3602157820,0.0004988,0.09619,0.1224,0.001379,0.05084,0.09619,5.722e-06,0.00033,0.001293,0.001499,15.52,0.06654,0,1,0
28800000000,29100000000,3990224092,0,3602157820,0.000494,0.09619,0.1224,0.001379,0.05084,0.09619,9.537e-07,0.00033,0.001238,7.153e-05,15.57,0.06697,0,1,0
29100000000,29400000000,3990224092,0,3602157820,0.0004759,0.09619,0.1224,0.001379,0.05084,0.09619,1.907e-06,0.00033,0.00124,0.0004997,15.77,0.06881,0,1,0
29400000000,29700000000,3990224092,0,3602157820,0.0004768,0.09619,0.1224,0.001379,0.05084,0.09619,1.907e-06,0.00033,0.001205,0.0002861,16.26,0.07133,0,1,0
29700000000,30000000000,3990224092,0,3602157820,0.0004644,0.09619,0.1224,0.001396,0.05084,0.09631,2.861e-06,0.00033,0.00123,0.0007143,15.6,0.06818,0,1,0
30000000000,30300000000,3990224092,0,3602157820,0.0004654,0.09619,0.1224,0.001404,0.05084,0.09619,0,0.00033,0.001219,7.153e-05,15.4,0.06671,0,1,0
30300000000,30600000000,3990224092,0,3602157820,0.0004778,0.09619,0.1224,0.001404,0.05084,0.09619,0,0.00033,0.001204,7.153e-05,14.78,0.06255,0,1,0
30600000000,30900000000,3990224092,0,3602157820,0.0004702,0.09619,0.1224,0.001404,0.05084,0.09619,9.537e-07,0.00033,0.001141,7.153e-05,15.31,0.06495,0,1,0
30900000000,31200000000,3990224092,0,3602157820,0.0004644,0.09619,0.1224,0.001404,0.05084,0.09619,9.537e-07,0.00033,0.001081,7.153e-05,14.96,0.06337,0,1,0
31200000000,31500000000,3990224092,0,3602157820,0.0004702,0.09619,0.1224,0.001411,0.05084,0.09619,1.907e-06,0.00033,0.001234,0.0004997,15.17,0.06337,0,1,0
31500000000,31800000000,3990224092,0,3602157820,0.0004606,0.09619,0.1224,0.001423,0.05084,0.09619,0,0.00033,0.001013,7.153e-05,15.52,0.06629,0,1,0
31800000000,32100000000,3990224092,0,3602157820,0.0004768,0.09619,0.1224,0.001423,0.05084,0.09619,0,0.00033,0.001049,7.153e-05,15.31,0.06518,0,1,0
32100000000,32400000000,3990224092,0,3602157820,0.0004873,0.09619,0.1224,0.001423,0.05084,0.09619,9.537e-07,0.00033,0.00136,7.153e-05,15.84,0.06651,0,1,0
32400000000,32700000000,3990224092,0,3602157820,0.0004387,0.09619,0.1224,0.001423,0.05084,0.09619,7.629e-06,0.00033,0.001734,0.002213,13.99,0.05906,0,1,0
32700000000,33000000000,3990224092,0,3602157820,0.0004549,0.09619,0.1224,0.001421,0.05084,0.09619,4.768e-06,0.00033,0.001545,0.0005713,15.91,0.06613,0,1,0
33000000000,33300000000,3990224092,0,3602157820,0.000453,0.09619,0.1224,0.001438,0.0509,0.09619,0,0.00033,0.001202,7.153e-05,15.79,0.06606,0,1,0
33300000000,33600000000,3990224092,0,3602157820,0.0004406,0.09619,0.1224,0.001438,0.0509,0.09619,0,0.00033,0.001099,7.153e-05,15.52,0.07073,0,1,0
33600000000,33900000000,3990224092,0,3602157820,0.0004787,0.09619,0.1224,0.001438,0.0509,0.09619,0,0.00033,0.001102,7.153e-05,17.06,0.07441,0,1,0
33900000000,34200000000,3990224092,0,3602157820,0.000474,0.09619,0.1224,0.001438,0.0509,0.09619,0,0.00033,0.001099,7.153e-05,17.09,0.07429,0,1,0
34200000000,34500000000,3990224092,0,3602157820,0.0004778,0.09619,0.1224,0.001438,0.0509,0.09619,9.537e-07,0.00033,0.001202,0.0001431,16.16,0.06536,0,1,0
34500000000,34800000000,3990224092,0,3602157820,0.000474,0.09619,0.1224,0.001461,0.0509,0.09619,1.907e-06,0.00033,0.00116,0.0004997,15.7,0.06486,0,1,0
34800000000,35100000000,3990224092,0,3602157820,0.0004826,0.09619,0.1224,0.001463,0.0509,0.09619,0,0.00033,0.001238,7.153e-05,17.21,0.07287,0,1,0
35100000000,35400000000,3990224092,0,3602157820,0.0004578,0.09619,0.1224,0.001463,0.0509,0.09619,0,0.00033,0.0009766,0,16.15,0.06829,0,1,0
35400000000,35700000000,3990224092,0,3602157820,0.0004454,0.09619,0.1224,0.001463,0.0509,0.09619,9.537e-07,0.00033,0.001278,7.153e-05,15.95,0.06691,0,1,0
35700000000,36000000000,3990224092,0,3602157820,0.0004539,0.09619,0.1224,0.001461,0.0509,0.09619,9.537e-07,0.00033,0.00123,7.153e-05,15.64,0.0655,0,1,0
36000000000,36300000000,3990224092,0,3602157820,0.000453,0.09619,0.1224,0.001472,0.0509,0.09619,2.861e-06,0.00033,0.00386,0.0005713,14.68,0.06105,0,1,0
36300000000,36600000000,3990224092,0,3602157820,0.000433,0.09619,0.1224,0.00148,0.0509,0.09619,0,0.00033,0.002033,7.153e-05,14.84,0.0614,0,1,0
36600000000,36900000000,3990224092,0,3602157820,0.0004435,0.09619,0.1224,0.00148,0.0509,0.09619,9.537e-07,0.00033,0.001045,7.153e-05,15.4,0.06333,0,1,0
36900000000,37200000000,3990224092,0,3602157820,0.0004435,0.09619,0.1224,0.00148,0.0509,0.09619,9.537e-07,0.00033,0.001064,7.153e-05,15.2,0.06372,0,1,0
37200000000,37500000000,3990224092,0,3602157820,0.0004492,0.09619,0.1224,0.00148,0.0509,0.09619,9.537e-07,0.00033,0.0009766,7.153e-05,15.39,0.06374,0,1,0
37500000000,37800000000,3990224092,0,3602157820,0.0004616,0.09619,0.1224,0.001492,0.0509,0.09619,2.861e-06,0.00033,0.001257,0.0007143,16.15,0.068,0,1,0
37800000000,38100000000,3990224092,0,3602157820,0.0004673,0.09619,0.1224,0.001503,0.05096,0.09619,9.537e-07,0.00033,0.001099,7.153e-05,15.24,0.06485,0,1,0
38100000000,38400000000,3990224092,0,3602157820,0.0004559,0.09619,0.1224,0.001503,0.05096,0.09619,0,0.00033,0.001001,7.153e-05,15.34,0.06464,0,1,0
38400000000,38700000000,3990224092,0,3602157820,0.000453,0.09619,0.1224,0.001503,0.05096,0.09619,0,0.00033,0.001238,7.153e-05,15.4,0.06488,0,1,0
38700000000,39000000000,3990224092,0,3602157820,0.0004625,0.09619,0.1224,0.001503,0.05096,0.09619,9.537e-07,0.00033,0.001242,7.153e-05,15.71,0.06617,0,1,0
39000000000,39300000000,3990224092,0,3602157820,0.0004768,0.09619,0.1224,0.001505,0.05096,0.09619,1.907e-06,0.00033,0.004044,0.0004997,16.83,0.07398,0,1,0
39300000000,39600000000,3990224092,0,3602157820,0.0004663,0.09619,0.1224,0.001518,0.05096,0.09619,9.537e-07,0.00033,0.003807,7.153e-05,17.2,0.07541,0,1,0
39600000000,39900000000,3990224092,0,3602157820,0.0004721,0.09619,0.1224,0.001518,0.05096,0.09619,9.537e-07,0.00033,0.001093,0.0003567,15.85,0.0702,0,1,0
39900000000,40200000000,3990224092,0,3602157820,0.0004663,0.09619,0.1224,0.001518,0.05096,0.09619,0,0.00033,0.004745,7.153e-05,14.93,0.06497,0,1,0
40200000000,40500000000,3990224092,0,3602157820,0.0004587,0.09619,0.1224,0.001518,0.05096,0.09619,9.537e-07,0.00033,0.006218,7.153e-05,15.41,0.06605,0,1,0
40500000000,40800000000,3990224092,0,3602157820,0.0004568,0.09619,0.1224,0.001513,0.05096,0.09619,0,0.00033,0.002399,7.153e-05,15.58,0.06607,0,1,0
51000000000,51300000000,3990224092,0,3602157820,0.000514,0.09619,0.1224,0.0009956,0.05042,0.09619,9.537e-07,0.000329,0.001356,7.153e-05,16.51,0.07399,0,1,0
51300000000,51600000000,3990224092,0,3602157820,0.0004826,0.09619,0.1224,0.0009956,0.05042,0.09619,0,0.000329,0.001278,7.153e-05,16.1,0.06822,0,1,0
51600000000,51900000000,3990224092,0,3602157820,0.0004959,0.09619,0.1224,0.0009956,0.05042,0.09619,0,0.000329,0.001194,7.153e-05,16.3,0.07029,0,1,0
51900000000,52200000000,3990224092,0,3602157820,0.0004864,0.09619,0.1224,0.001013,0.05048,0.09631,2.861e-06,0.000329,0.001184,0.0005713,16.03,0.06682,0,1,0
52200000000,52500000000,3990224092,0,3602157820,0.0004797,0.09619,0.1224,0.001013,0.05048,0.09619,9.537e-07,0.000329,0.001453,7.153e-05,16.57,0.07184,0,1,0
52500000000,52800000000,3990224092,0,3602157820,0.0004673,0.09619,0.1224,0.001013,0.05048,0.09619,9.537e-07,0.000329,0.008301,7.153e-05,16.07,0.06878,0,1,0
52800000000,53100000000,3990224092,0,3602157820,0.0004854,0.09619,0.1224,0.001028,0.05048,0.09631,2.861e-06,0.000329,0.005287,0.0006428,16.06,0.06982,0,1,0
53100000000,53400000000,3990224092,0,3602157820,0.0004921,0.09619,0.1224,0.001038,0.05048,0.09619,0,0.000329,0.001165,7.153e-05,16.32,0.07102,0,1,0
53400000000,53700000000,3990224092,0,3602157820,0.000493,0.09619,0.1224,0.001038,0.05048,0.09619,9.537e-07,0.000329,0.001186,7.153e-05,16.51,0.07148,0,1,0
53700000000,54000000000,3990224092,0,3602157820,0.0005054,0.09619,0.1224,0.001049,0.05048,0.09619,3.815e-06,0.000329,0.004318,0.0007143,16.01,0.06811,0,1,0
54000000000,54300000000,3990224092,0,3602157820,0.0005188,0.09619,0.1224,0.001062,0.05048,0.09619,0,0.000329,0.004684,7.153e-05,17.51,0.07746,0,1,0
54300000000,54600000000,3990224092,0,3602157820,0.000493,0.09619,0.1224,0.001062,0.05048,0.09619,9.537e-07,0.000329,0.001186,7.153e-05,15.94,0.06854,0,1,0
54600000000,54900000000,3990224092,0,3602157820,0.0005074,0.09619,0.1224,0.001068,0.05048,0.09631,1.049e-05,0.000329,0.001415,0.002857,16.77,0.07379,0,1,0
54900000000,55200000000,3990224092,0,3602157820,0.0005445,0.09619,0.1224,0.001083,0.05054,0.09619,9.537e-07,0.000329,0.00214,7.153e-05,16.14,0.06734,0,1,0
55200000000,55500000000,3990224092,0,3602157820,0.0005169,0.09619,0.1224,0.001083,0.05054,0.09619,9.537e-07,0.000329,0.00148,7.153e-05,15.4,0.06446,0,1,0
55500000000,55800000000,3990224092,0,3602157820,0.0004988,0.09619,0.1224,0.001091,0.05054,0.09619,2.861e-06,0.000329,0.001139,0.0004997,15.84,0.06804,0,1,0
55800000000,56100000000,3990224092,0,3602157820,0.0005035,0.09619,0.1224,0.001106,0.05054,0.09619,9.537e-07,0.000329,0.001894,7.153e-05,16.11,0.06949,0,1,0
56100000000,56400000000,3990224092,0,3602157820,0.0004911,0.09619,0.1224,0.001106,0.05054,0.09619,0,0.000329,0.001991,7.153e-05,16.28,0.06906,0,1,0
56400000000,56700000000,3990224092,0,3602157820,0.0004787,0.09619,0.1224,0.001108,0.05054,0.09619,1.907e-06,0.000329,0.001404,0.0004282,11.03,0.04582,0,1,0
56700000000,57000000000,3990224092,0,3602157820,0.0004721,0.09619,0.1224,0.00112,0.05054,0.09619,9.537e-07,0.000329,0.002056,7.153e-05,15.14,0.06376,0,1,0
57000000000,57300000000,3990224092,0,3602157820,0.0004768,0.09619,0.1224,0.00112,0.05054,0.09619,9.537e-07,0.000329,0.001888,0.0001431,15.4,0.06599,0,1,0
57300000000,57600000000,3990224092,0,3602157820,0.0004635,0.09619,0.1224,0.001127,0.05054,0.09619,1.907e-06,0.000329,0.003227,0.0004282,15.46,0.0653,0,1,0
57600000000,57900000000,3990224092,0,3602157820,0.0004826,0.09619,0.1224,0.001143,0.0506,0.09619,9.537e-07,0.000329,0.001099,7.153e-05,15.86,0.06814,0,1,0
57900000000,58200000000,3990224092,0,3602157820,0.0004921,0.09619,0.1224,0.001143,0.0506,0.09619,9.537e-07,0.000329,0.00116,7.153e-05,15.65,0.0665,0,1,0
58200000000,58500000000,3990224092,0,3602157820,0.0004807,0.09619,0.1224,0.001143,0.0506,0.09619,3.815e-06,0.000329,0.001181,0.0005713,15.6,0.06557,0,1,0
58500000000,58800000000,3990224092,0,3602157820,0.0005045,0.09619,0.1224,0.001158,0.0506,0.09619,9.537e-07,0.000329,0.001207,7.153e-05,16.14,0.06978,0,1,0
58800000000,59100000000,3990224092,0,3602157820,0.0004997,0.09619,0.1224,0.001158,0.0506,0.09619,9.537e-07,0.000329,0.001429,7.153e-05,16.68,0.0717,0,1,0
59100000000,59400000000,3990224092,0,3602157820,0.0005016,0.09619,0.1224,0.001163,0.0506,0.09631,2.861e-06,0.000329,0.001213,0.0004997,16.19,0.06997,0,1,0
59400000000,59700000000,3990224092,0,3602157820,0.000474,0.09619,0.1224,0.001181,0.0506,0.09619,9.537e-07,0.000329,0.001265,7.153e-05,15.87,0.06746,0,1,0
59700000000,60000000000,3990224092,0,3602157820,0.0004826,0.09619,0.1224,0.001181,0.0506,0.09619,9.537e-07,0.000329,0.001242,7.153e-05,15.89,0.06844,0,1,0
60000000000,60300000000,3990224092,0,3602157820,0.000473,0.09619,0.1224,0.001186,0.0506,0.09619,2.861e-06,0.000329,0.001291,0.0004997,16.08,0.0683,0,1,0
60300000000,60600000000,3990224092,0,3602157820,0.0004969,0.09619,0.1224,0.001205,0.05066,0.09619,9.537e-07,0.00033,0.001139,7.153e-05,16.59,0.07164,0,1,0
60600000000,60900000000,3990224092,0,3602157820,0.0005102,0.09619,0.1224,0.001205,0.05066,0.09619,9.537e-07,0.00033,0.001375,7.153e-05,16.9,0.07258,0,1,0
70800000000,71100000000,3990224092,0,3602157820,0.0004997,0.09619,0.1224,0.001457,0.0509,0.09619,9.537e-07,0.00033,0.001343,7.153e-05,16.05,0.07028,0,1,0
71100000000,71400000000,3990224092,0,3602157820,0.000514,0.09619,0.1224,0.001461,0.0509,0.09619,1.907e-06,0.00033,0.003754,0.0004997,17.05,0.07415,0,1,0
71400000000,71700000000,3990224092,0,3602157820,0.0005083,0.09619,0.1224,0.001478,0.0509,0.09619,9.537e-07,0.00033,0.001144,7.153e-05,17.56,0.07773,0,1,0
71700000000,72000000000,3990224092,0,3602157820,0.0004873,0.09619,0.1224,0.001478,0.0509,0.09619,9.537e-07,0.00033,0.001364,7.153e-05,16.99,0.07328,0,1,0
72000000000,72300000000,3990224092,0,3602157820,0.0004921,0.09619,0.1224,0.001476,0.0509,0.09619,9.537e-07,0.00033,0.001059,0.0002146,16.09,0.07051,0,1,0
72300000000,72600000000,3990224092,0,3602157820,0.0004911,0.09619,0.1224,0.001497,0.05096,0.09619,2.861e-06,0.00033,0.001183,0.0005713,15.69,0.06754,0,1,0
72600000000,72900000000,3990224092,0,3602157820,0.0005007,0.09619,0.1224,0.001497,0.05096,0.09619,0,0.00033,0.001293,7.153e-05,16.91,0.07236,0,1,0
72900000000,73200000000,3990224092,0,3602157820,0.0005178,0.09619,0.1224,0.001497,0.05096,0.09619,9.537e-07,0.00033,0.00176,7.153e-05,16.65,0.07304,0,1,0
73200000000,73500000000,3990224092,0,3602157820,0.0005026,0.09619,0.1224,0.001518,0.05096,0.09619,2.861e-06,0.00033,0.00128,0.0005713,17.15,0.07257,0,1,0
73500000000,73800000000,3990224092,0,3602157820,0.0005178,0.09619,0.1224,0.001522,0.05096,0.09619,0,0.00033,0.001286,7.153e-05,16.32,0.0703,0,1,0
73800000000,74100000000,3990224092,0,3602157820,0.0005178,0.09619,0.1224,0.001522,0.05096,0.09619,9.537e-07,0.00033,0.005424,7.153e-05,16.64,0.07186,0,1,0
74100000000,74400000000,3990224092,0,3602157820,0.0005341,0.09619,0.1224,0.001534,0.05096,0.09619,2.861e-06,0.00033,0.00161,0.0005713,12.14,0.05082,0,1,0
74400000000,74700000000,3990224092,0,3602157820,0.0005131,0.09619,0.1224,0.001545,0.05096,0.09619,9.537e-07,0.00033,0.001364,7.153e-05,17.07,0.07362,0,1,0
74700000000,75000000000,3990224092,0,3602157820,0.0005226,0.09619,0.1224,0.001545,0.05096,0.09619,9.537e-07,0.00033,0.001453,7.153e-05,17.39,0.07415,0,1,0
75000000000,75300000000,3990224092,0,3602157820,0.0005131,0.09619,0.1224,0.001553,0.05096,0.09631,2.861e-06,0.00033,0.00119,0.0005713,17.62,0.07506,0,1,0
75300000000,75600000000,3990224092,0,3602157820,0.0005112,0.09619,0.1224,0.00157,0.05103,0.09619,9.537e-07,0.0003309,0.001158,7.153e-05,17.16,0.0736,0,1,0
75600000000,75900000000,3990224092,0,3602157820,0.000514,0.09619,0.1224,0.00157,0.05103,0.09619,0,0.0003309,0.001249,7.153e-05,17.75,0.07741,0,1,0
75900000000,76200000000,3990224092,0,3602157820,0.0005169,0.09619,0.1224,0.00157,0.05103,0.09631,4.768e-06,0.0003309,0.005058,0.0006428,13.38,0.05787,0,1,0
76200000000,76500000000,3990224092,0,3602157820,0.0005159,0.09619,0.1224,0.001593,0.05103,0.09619,9.537e-07,0.0003309,0.001629,7.153e-05,14.49,0.0623,0,1,0
76500000000,76800000000,3990224092,0,3602157820,0.0005198,0.09619,0.1224,0.001593,0.05103,0.09619,9.537e-07,0.0003309,0.001415,7.153e-05,17.03,0.07014,0,1,0
76800000000,77100000000,3990224092,0,3602157820,0.000514,0.09619,0.1224,0.001593,0.05103,0.09619,9.537e-07,0.0003309,0.001156,7.153e-05,17.24,0.07238,0,1,0
77100000000,77400000000,3990224092,0,3602157820,0.0005207,0.09619,0.1224,0.00161,0.05103,0.09631,1.049e-05,0.0003309,0.001408,0.002857,17.33,0.07472,0,1,0
77400000000,77700000000,3990224092,0,3602157820,0.000493,0.09619,0.1224,0.001617,0.05103,0.09619,0,0.0003309,0.001198,7.153e-05,16.45,0.07068,0,1,0
77700000000,78000000000,3990224092,0,3602157820,0.0004864,0.09619,0.1224,0.001617,0.05103,0.09619,9.537e-07,0.0003309,0.003052,7.153e-05,15.9,0.0682,0,1,0
78000000000,78300000000,3990224092,0,3602157820,0.0004864,0.09619,0.1224,0.001627,0.05109,0.09631,7.629e-06,0.0003309,0.00123,0.001999,16.29,0.06968,0,1,0
78300000000,78600000000,3990224092,0,3602157820,0.0004864,0.09619,0.1224,0.001642,0.05109,0.09619,9.537e-07,0.0003309,0.001404,7.153e-05,15.72,0.067,0,1,0
78600000000,78900000000,3990224092,0,3602157820,0.0005074,0.09619,0.1224,0.001642,0.05109,0.09619,9.537e-07,0.0003309,0.001135,7.153e-05,15.99,0.06944,0,1,0
78900000000,79200000000,3990224092,0,3602157820,0.0004864,0.09619,0.1224,0.001495,0.0509,0.09631,2.861e-06,0.00033,0.002781,0.0007858,14.66,0.06224,0,1,0
79200000000,79500000000,3990224092,0,3602157820,0.0004854,0.09619,0.1224,0.0009356,0.05035,0.09619,0,0.000329,0.001549,7.153e-05,15.46,0.0663,0,1,0
79500000000,79800000000,3990224092,0,3602157820,0.0005074,0.09619,0.1224,0.0009356,0.05035,0.09619,9.537e-07,0.000329,0.001156,7.153e-05,15.96,0.06944,0,1,0
79800000000,80100000000,3990224092,0,3602157820,0.0005178,0.09619,0.1224,0.0009518,0.05042,0.09631,1.907e-06,0.000329,0.00165,0.0004997,17.08,0.0731,0,1,0
80100000000,80400000000,3990224092,0,3602157820,0.0005064,0.09619,0.1224,0.0009594,0.05042,0.09619,0,0.000329,0.00165,7.153e-05,17.32,0.07528,0,1,0
80400000000,80700000000,3990224092,0,3602157820,0.0004892,0.09619,0.1224,0.0009594,0.05042,0.09619,0,0.000329,0.001333,7.153e-05,16.81,0.07239,0,1,0
80700000000,81000000000,3990224092,0,3602157820,0.0005245,0.09619,0.1224,0.0009575,0.05042,0.09619,0,0.000329,0.001322,7.153e-05,17.53,0.07404,0,1,0
85800000000,86100000000,3990224092,0,3602157820,0.0004749,0.09619,0.1224,0.001047,0.05048,0.09619,1.907e-06,0.000329,0.001276,0.0004997,15.64,0.06763,0,1,0
86100000000,86400000000,3990224092,0,3602157820,0.0004692,0.09619,0.1224,0.001055,0.05048,0.09619,0,0.000329,0.001245,7.153e-05,15.67,0.06823,0,1,0
86400000000,86700000000,3990224092,0,3602157820,0.0004873,0.09619,0.1224,0.001055,0.05048,0.09619,0,0.000329,0.001799,7.153e-05,16.39,0.07089,0,1,0
86700000000,87000000000,3990224092,0,3602157820,0.000474,0.09619,0.1224,0.001053,0.05048,0.09619,9.537e-07,0.000329,0.002113,7.153e-05,16.46,0.07092,0,1,0
87000000000,87300000000,3990224092,0,3602157820,0.0004559,0.09619,0.1224,0.001072,0.05054,0.09619,1.907e-06,0.000329,0.004128,0.0005713,15.09,0.06487,0,1,0
87300000000,87600000000,3990224092,0,3602157820,0.0004416,0.09619,0.1224,0.001074,0.05054,0.09619,9.537e-07,0.000329,0.001013,7.153e-05,14.78,0.06325,0,1,0
87600000000,87900000000,3990224092,0,3602157820,0.0004721,0.09619,0.1224,0.001074,0.05054,0.09619,9.537e-07,0.000329,0.001728,7.153e-05,15.5,0.0643,0,1,0
87900000000,88200000000,3990224092,0,3602157820,0.0004826,0.09619,0.1224,0.001074,0.05054,0.09619,0,0.000329,0.01831,0,15.88,0.06518,0,1,0
88200000000,88500000000,3990224092,0,3602157820,0.0004921,0.09619,0.1224,0.001097,0.05054,0.09619,2.861e-06,0.000329,0.004631,0.0005713,16.2,0.06666,0,1,0
88500000000,88800000000,3990224092,0,3602157820,0.0005035,0.09619,0.1224,0.001097,0.05054,0.09619,0,0.000329,0.001204,7.153e-05,15.97,0.06769,0,1,0
88800000000,89100000000,3990224092,0,3602157820,0.0005074,0.09619,0.1224,0.001097,0.05054,0.09619,0,0.000329,0.001331,7.153e-05,16.23,0.06788,0,1,0
89100000000,89400000000,3990224092,0,3602157820,0.0005074,0.09619,0.1224,0.001095,0.05054,0.09619,9.537e-07,0.000329,0.001207,0.0001431,16.87,0.0685,0,1,0
89400000000,89700000000,3990224092,0,3602157820,0.0004997,0.09619,0.1224,0.001112,0.05054,0.09619,2.861e-06,0.000329,0.001198,0.0005713,11.45,0.04671,0,1,0
89700000000,90000000000,3990224092,0,3602157820,0.0004845,0.09619,0.1224,0.001114,0.05054,0.09619,0,0.000329,0.001078,7.153e-05,16.51,0.0697,0,1,0
90000000000,90300000000,3990224092,0,3602157820,0.0004702,0.09619,0.1224,0.001114,0.05054,0.09619,0,0.000329,0.003876,7.153e-05,15.93,0.06622,0,1,0
90300000000,90600000000,3990224092,0,3602157820,0.0004654,0.09619,0.1224,0.001114,0.05054,0.09619,0,0.000329,0.001202,7.153e-05,15.72,0.06621,0,1,0
90600000000,90900000000,3990224092,0,3602157820,0.0004768,0.09619,0.1224,0.001137,0.0506,0.09619,2.861e-06,0.000329,0.00227,0.0004997,16.82,0.07243,0,1,0
101100000000,101400000000,3990224092,0,3602157820,0.0004158,0.09619,0.1224,0.001308,0.05072,0.09619,2.861e-06,0.00033,0.0009823,0.0004282,14.53,0.06154,0,1,0
101400000000,101700000000,3990224092,0,3602157820,0.0004244,0.09619,0.1224,0.001326,0.05078,0.09619,9.537e-07,0.00033,0.001244,7.153e-05,14.82,0.06233,0,1,0
101700000000,102000000000,3990224092,0,3602157820,0.000433,0.09619,0.1224,0.001326,0.05078,0.09619,0,0.00033,0.001198,7.153e-05,14.9,0.06291,0,1,0
102000000000,102300000000,3990224092,0,3602157820,0.0004253,0.09619,0.1224,0.001326,0.05078,0.09619,0,0.00033,0.001259,7.153e-05,14.82,0.06189,0,1,0
102300000000,102600000000,3990224092,0,3602157820,0.0004244,0.09619,0.1224,0.001328,0.05078,0.09619,0,0.00033,0.00115,7.153e-05,14.43,0.05976,0,1,0
102600000000,102900000000,3990224092,0,3602157820,0.0004168,0.09619,0.1224,0.001348,0.05078,0.09619,2.861e-06,0.00033,0.001099,0.0007143,14.64,0.06102,0,1,0
102900000000,103200000000,3990224092,0,3602157820,0.0004253,0.09619,0.1224,0.001348,0.05078,0.09619,5.722e-06,0.00033,0.001328,0.001429,14.47,0.05977,0,1,0
103200000000,103500000000,3990224092,0,3602157820,0.0004435,0.09619,0.1224,0.001348,0.05078,0.09619,0,0.00033,0.001335,7.153e-05,15.41,0.06499,0,1,0
103500000000,103800000000,3990224092,0,3602157820,0.0004406,0.09619,0.1224,0.001348,0.05078,0.09619,0,0.00033,0.001099,7.153e-05,15.26,0.06455,0,1,0
103800000000,104100000000,3990224092,0,3602157820,0.0004196,0.09619,0.1224,0.001366,0.05078,0.09619,2.861e-06,0.00033,0.00107,0.0005713,14.73,0.06199,0,1,0
104100000000,104400000000,3990224092,0,3602157820,0.0004177,0.09619,0.1224,0.001369,0.05078,0.09619,0,0.00033,0.001034,0,14.2,0.0591,0,1,0
104400000000,104700000000,3990224092,0,3602157820,0.0004292,0.09619,0.1224,0.001369,0.05078,0.09619,9.537e-07,0.00033,0.001263,7.153e-05,14.41,0.06106,0,1,0
104700000000,105000000000,3990224092,0,3602157820,0.000433,0.09619,0.1224,0.001369,0.05078,0.09619,0,0.00033,0.0009766,7.153e-05,14.68,0.06189,0,1,0
105000000000,105300000000,3990224092,0,3602157820,0.0004339,0.09619,0.1224,0.001387,0.05084,0.09619,1.907e-06,0.00033,0.004097,0.0005713,14.79,0.06195,0,1,0
105300000000,105600000000,3990224092,0,3602157820,0.000432,0.09619,0.1224,0.001392,0.05084,0.09619,9.537e-07,0.00033,0.003334,7.153e-05,14.15,0.06005,0,1,0
105600000000,105900000000,3990224092,0,3602157820,0.0004387,0.09619,0.1224,0.001392,0.05084,0.09619,9.537e-07,0.00033,0.001177,7.153e-05,14.77,0.06201,0,1,0
105900000000,106200000000,3990224092,0,3602157820,0.000433,0.09619,0.1224,0.001392,0.05084,0.09619,0,0.00033,0.002022,0,13.85,0.05777,0,1,0
106200000000,106500000000,3990224092,0,3602157820,0.0004463,0.09619,0.1224,0.0014,0.05084,0.09619,1.907e-06,0.00033,0.001217,0.0004997,14.4,0.05996,0,1,0
106500000000,106800000000,3990224092,0,3602157820,0.0004463,0.09619,0.1224,0.001415,0.05084,0.09619,9.537e-07,0.00033,0.001633,7.153e-05,13.11,0.05406,0,1,0
106800000000,107100000000,3990224092,0,3602157820,0.0004349,0.09619,0.1224,0.001415,0.05084,0.09619,0,0.00033,0.002777,7.153e-05,13.13,0.05458,0,1,0
107100000000,107400000000,3990224092,0,3602157820,0.0004444,0.09619,0.1224,0.001415,0.05084,0.09619,0,0.00033,0.001221,7.153e-05,14.17,0.05983,0,1,0
107400000000,107700000000,3990224092,0,3602157820,0.0004435,0.09619,0.1224,0.001423,0.05084,0.09619,1.907e-06,0.00033,0.001204,0.0004282,14.25,0.06031,0,1,0
107700000000,108000000000,3990224092,0,3602157820,0.000433,0.09619,0.1224,0.001436,0.0509,0.09619,0,0.00033,0.001268,7.153e-05,14.51,0.06112,0,1,0
108000000000,108300000000,3990224092,0,3602157820,0.000433,0.09619,0.1224,0.001436,0.0509,0.09619,0,0.00033,0.001204,7.153e-05,14.15,0.0593,0,1,0
108300000000,108600000000,3990224092,0,3602157820,0.0004234,0.09619,0.1224,0.001436,0.0509,0.09619,0,0.00033,0.002903,7.153e-05,13.72,0.05747,0,1,0
108600000000,108900000000,3990224092,0,3602157820,0.000433,0.09619,0.1224,0.001436,0.0509,0.09619,9.537e-07,0.00033,0.001635,7.153e-05,13.78,0.05784,0,1,0
108900000000,109200000000,3990224092,0,3602157820,0.000432,0.09619,0.1224,0.001457,0.0509,0.09619,2.861e-06,0.00033,0.002975,0.0005713,14.8,0.06223,0,1,0
109200000000,109500000000,3990224092,0,3602157820,0.0004206,0.09619,0.1224,0.001457,0.0509,0.09619,9.537e-07,0.00033,0.004059,7.153e-05,14.01,0.0588,0,1,0
109500000000,109800000000,3990224092,0,3602157820,0.0004301,0.09619,0.1224,0.001455,0.0509,0.09619,9.537e-07,0.00033,0.001062,7.153e-05,14.06,0.05974,0,1,0
109800000000,110100000000,3990224092,0,3602157820,0.0004396,0.09619,0.1224,0.001455,0.0509,0.09619,9.537e-07,0.00033,0.001139,7.153e-05,15.12,0.06376,0,1,0
110100000000,110400000000,3990224092,0,3602157820,0.0004349,0.09619,0.1224,0.001467,0.0509,0.09619,1.907e-06,0.00033,0.001211,0.0004282,14.7,0.06175,0,1,0
110400000000,110700000000,3990224092,0,3602157820,0.0004349,0.09619,0.1224,0.001478,0.0509,0.09619,9.537e-07,0.00033,0.001511,0.0001431,14.67,0.06161,0,1,0
110700000000,111000000000,3990224092,0,3602157820,0.0004301,0.09619,0.1224,0.001478,0.0509,0.09619,0,0.00033,0.001085,7.153e-05,14.18,0.05982,0,1,0
116100000000,116400000000,3990224092,0,3602157820,0.0004034,0.09619,0.1224,0.001558,0.05103,0.09619,0,0.0003309,0.001123,7.153e-05,13.22,0.05512,0,1,0
116400000000,116700000000,3990224092,0,3602157820,0.000412,0.09619,0.1224,0.001558,0.05103,0.09619,0,0.0003309,0.005371,7.153e-05,13.08,0.05287,0,1,0
116700000000,117000000000,3990224092,0,3602157820,0.0004225,0.09619,0.1224,0.001566,0.05103,0.09619,1.907e-06,0.0003309,0.001179,0.0004997,13.97,0.05697,0,1,0
117000000000,117300000000,3990224092,0,3602157820,0.0003939,0.09619,0.1224,0.001574,0.05103,0.09619,9.537e-07,0.0003309,0.001205,0.0002146,12.76,0.0526,0,1,0
117300000000,117600000000,3990224092,0,3602157820,0.0003834,0.09619,0.1224,0.001574,0.05103,0.09619,0,0.0003309,0.0009899,7.153e-05,12.13,0.04997,0,1,0
117600000000,117900000000,3990224092,0,3602157820,0.0004101,0.09619,0.1224,0.001574,0.05103,0.09619,9.537e-07,0.0003309,0.001066,7.153e-05,12.65,0.05195,0,1,0
117900000000,118200000000,3990224092,0,3602157820,0.0004387,0.09619,0.1224,0.001574,0.05103,0.09619,9.537e-07,0.0003309,0.001135,7.153e-05,14.44,0.05878,0,1,0
118200000000,118500000000,3990224092,0,3602157820,0.0004406,0.09619,0.1224,0.001593,0.05103,0.09619,2.861e-06,0.0003309,0.001099,0.0004282,14.93,0.06085,0,1,0
118500000000,118800000000,3990224092,0,3602157820,0.000474,0.09619,0.1224,0.001593,0.05103,0.09619,0,0.0003309,0.001141,7.153e-05,14.76,0.0606,0,1,0
118800000000,119100000000,3990224092,0,3602157820,0.0004578,0.09619,0.1224,0.001593,0.05103,0.09619,9.537e-07,0.0003309,0.001091,7.153e-05,14.54,0.05919,0,1,0
119100000000,119400000000,3990224092,0,3602157820,0.0004644,0.09619,0.1224,0.001593,0.05103,0.09619,2.861e-06,0.0003309,0.004753,0.0005713,15.1,0.0611,0,1,0
119400000000,119700000000,3990224092,0,3602157820,0.0004501,0.09619,0.1224,0.001593,0.05103,0.09619,0,0.0003309,0.001133,7.153e-05,14.74,0.06031,0,1,0
119700000000,120000000000,3990224092,0,3602157820,0.0004711,0.09619,0.1224,0.001598,0.05103,0.09619,7.629e-06,0.0003309,0.001198,0.001999,16.02,0.06561,0,1,0
120000000000,120300000000,3990224092,0,3602157820,0.0004768,0.09619,0.1224,0.00161,0.05103,0.09619,0,0.0003309,0.001472,7.153e-05,15.33,0.06203,0,1,0
120300000000,120600000000,3990224092,0,3602157820,0.000453,0.09619,0.1224,0.00161,0.05103,0.09619,0,0.0003309,0.001015,7.153e-05,14.46,0.05908,0,1,0
120600000000,120900000000,3990224092,0,3602157820,0.0004511,0.09619,0.1224,0.00161,0.05103,0.09619,0,0.0003309,0.001635,7.153e-05,14.85,0.05932,0,1,0
126000000000,126300000000,3990224092,0,3602157820,0.0004692,0.09619,0.1224,0.0009823,0.05042,0.09619,6.676e-06,0.000329,0.001339,0.001785,16.06,0.06595,0,1,0
126300000000,126600000000,3990224092,0,3602157820,0.000452,0.09619,0.1224,0.0009823,0.05042,0.09619,0,0.000329,0.001181,0,14.28,0.06053,0,1,0
126600000000,126900000000,3990224092,0,3602157820,0.0004454,0.09619,0.1224,0.0009823,0.05042,0.09619,0,0.000329,0.001072,7.153e-05,14.7,0.06201,0,1,0
126900000000,127200000000,3990224092,0,3602157820,0.0004349,0.09619,0.1224,0.0009823,0.05042,0.09619,1.907e-06,0.000329,0.001377,0.0002861,14.69,0.06546,0,1,0
127200000000,127500000000,3990224092,0,3602157820,0.0004358,0.09619,0.1224,0.0009956,0.05042,0.09619,2.861e-06,0.000329,0.001019,0.0004997,14.69,0.06113,0,1,0
127500000000,127800000000,3990224092,0,3602157820,0.0003977,0.09619,0.1224,0.001005,0.05042,0.09619,9.537e-07,0.000329,0.002728,7.153e-05,12.75,0.05244,0,1,0
127800000000,128100000000,3990224092,0,3602157820,0.0003967,0.09619,0.1224,0.001005,0.05042,0.09619,9.537e-07,0.000329,0.001139,0.0002146,12.71,0.05039,0,1,0
128100000000,128400000000,3990224092,0,3602157820,0.0003805,0.09619,0.1224,0.001005,0.05042,0.09619,9.537e-07,0.000329,0.001005,0.0002146,11.64,0.0478,0,1,0
128400000000,128700000000,3990224092,0,3602157820,0.0003834,0.09619,0.1224,0.001005,0.05042,0.09619,9.537e-07,0.000329,0.0008659,7.153e-05,11.19,0.04579,0,1,0
128700000000,129000000000,3990224092,0,3602157820,0.000433,0.09619,0.1224,0.001015,0.05048,0.09619,2.861e-06,0.000329,0.001097,0.0004997,9.087,0.03585,0,1,0
129000000000,129300000000,3990224092,0,3602157820,0.0004511,0.09619,0.1224,0.001024,0.05048,0.09619,0,0.000329,0.001171,7.153e-05,13.83,0.05601,0,1,0
129300000000,129600000000,3990224092,0,3602157820,0.0004578,0.09619,0.1224,0.001024,0.05048,0.09619,0,0.000329,0.001167,7.153e-05,14.39,0.05836,0,1,0
129600000000,129900000000,3990224092,0,3602157820,0.000452,0.09619,0.1224,0.001024,0.05048,0.09619,9.537e-07,0.000329,0.001324,7.153e-05,13.85,0.05605,0,1,0
129900000000,130200000000,3990224092,0,3602157820,0.0004406,0.09619,0.1224,0.001024,0.05048,0.09619,9.537e-07,0.000329,0.001099,7.153e-05,12.69,0.05155,0,1,0
130200000000,130500000000,3990224092,0,3602157820,0.0004444,0.09619,0.1224,0.001038,0.05048,0.09619,1.907e-06,0.000329,0.003586,0.0004282,13.02,0.05251,0,1,0
130500000000,130800000000,3990224092,0,3602157820,0.0004387,0.09619,0.1224,0.001047,0.05048,0.09619,9.537e-07,0.000329,0.001099,7.153e-05,12.57,0.05067,0,1,0
130800000000,131100000000,3990224092,0,3602157820,0.0004721,0.09619,0.1224,0.001047,0.05048,0.09619,0,0.000329,0.001219,7.153e-05,14.66,0.0596,0,1,0
141000000000,141300000000,3990224092,0,3602157820,0.0005045,0.09619,0.1224,0.001238,0.05066,0.09619,9.537e-07,0.00033,0.00131,7.153e-05,13.92,0.05966,0,1,0
141300000000,141600000000,3990224092,0,3602157820,0.0005007,0.09619,0.1224,0.001238,0.05066,0.09619,0,0.00033,0.002007,7.153e-05,16.21,0.06947,0,1,0
141600000000,141900000000,3990224092,0,3602157820,0.0005035,0.09619,0.1224,0.001238,0.05066,0.09619,0,0.00033,0.002052,7.153e-05,16.17,0.06956,0,1,0
141900000000,142200000000,3990224092,0,3602157820,0.000474,0.09619,0.1224,0.001261,0.05072,0.09619,1.907e-06,0.00033,0.001606,0.0004282,15.23,0.06475,0,1,0
142200000000,142500000000,3990224092,0,3602157820,0.0004768,0.09619,0.1224,0.001261,0.05072,0.09619,9.537e-07,0.00033,0.001053,7.153e-05,15.51,0.06586,0,1,0
142500000000,142800000000,3990224092,0,3602157820,0.0004854,0.09619,0.1224,0.001259,0.05072,0.09619,0,0.00033,0.00116,7.153e-05,15.89,0.06565,0,1,0
142800000000,143100000000,3990224092,0,3602157820,0.0004864,0.09619,0.1224,0.001276,0.05072,0.09619,2.861e-06,0.00033,0.001802,0.0004997,15.59,0.06432,0,1,0
143100000000,143400000000,3990224092,0,3602157820,0.0004997,0.09619,0.1224,0.001278,0.05072,0.09619,1.907e-06,0.00033,0.001869,7.153e-05,16.19,0.06789,0,1,0
143400000000,143700000000,3990224092,0,3602157820,0.0004997,0.09619,0.1224,0.001278,0.05072,0.09619,9.537e-07,0.00033,0.001953,0.0002146,16.42,0.06942,0,1,0
143700000000,144000000000,3990224092,0,3602157820,0.0005045,0.09619,0.1224,0.001299,0.05072,0.09619,2.861e-06,0.00033,0.001209,0.0006428,16.12,0.06692,0,1,0
144000000000,144300000000,3990224092,0,3602157820,0.0004625,0.09619,0.1224,0.001301,0.05072,0.09619,0,0.00033,0.001175,7.153e-05,13.3,0.0551,0,1,0
144300000000,144600000000,3990224092,0,3602157820,0.0004587,0.09619,0.1224,0.001301,0.05072,0.09619,9.537e-07,0.00033,0.001286,7.153e-05,13.6,0.05616,0,1,0
144600000000,144900000000,3990224092,0,3602157820,0.0004511,0.09619,0.1224,0.00132,0.05078,0.09619,2.861e-06,0.00033,0.04254,0.0004997,13.39,0.0562,0,1,0
144900000000,145200000000,3990224092,0,3602157820,0.0004444,0.09619,0.1224,0.001324,0.05078,0.09619,9.537e-07,0.00033,0.001032,7.153e-05,13.13,0.05571,0,1,0
145200000000,145500000000,3990224092,0,3602157820,0.0004301,0.09619,0.1224,0.001324,0.05078,0.09619,9.537e-07,0.00033,0.001085,7.153e-05,13.06,0.05506,0,1,0
145500000000,145800000000,3990224092,0,3602157820,0.0004368,0.09619,0.1224,0.001345,0.05078,0.09619,2.861e-06,0.00033,0.001026,0.0004282,12.93,0.05465,0,1,0
145800000000,146100000000,3990224092,0,3602157820,0.0004272,0.09619,0.1224,0.001345,0.05078,0.09619,0,0.00033,0.00108,7.153e-05,12.22,0.05152,0,1,0
151200000000,151500000000,3990224092,0,3602157820,0.0004663,0.09619,0.1224,0.001465,0.0509,0.09631,1.907e-06,0.00033,0.002888,0.0004282,13.7,0.05819,0,1,0
151500000000,151800000000,3990224092,0,3602157820,0.0004988,0.09619,0.1224,0.001478,0.0509,0.09619,9.537e-07,0.00033,0.001953,0.0001431,15.83,0.06696,0,1,0
151800000000,152100000000,3990224092,0,3602157820,0.0005064,0.09619,0.1224,0.001478,0.0509,0.09619,9.537e-07,0.00033,0.001383,7.153e-05,16.33,0.06954,0,1,0
152100000000,152400000000,3990224092,0,3602157820,0.0005264,0.09619,0.1224,0.001488,0.0509,0.09619,3.815e-06,0.00033,0.001226,0.0009995,16.06,0.06828,0,1,0
152400000000,152700000000,3990224092,0,3602157820,0.0004826,0.09619,0.1224,0.001495,0.0509,0.09619,0,0.00033,0.001404,7.153e-05,14.3,0.06083,0,1,0
152700000000,153000000000,3990224092,0,3602157820,0.0005226,0.09619,0.1224,0.001493,0.0509,0.09619,9.537e-07,0.00033,0.001341,7.153e-05,15.43,0.06582,0,1,0
153000000000,153300000000,3990224092,0,3602157820,0.0005455,0.09619,0.1224,0.001513,0.05096,0.09631,2.861e-06,0.00033,0.001316,0.0007143,17.7,0.07509,0,1,0
153300000000,153600000000,3990224092,0,3602157820,0.0005302,0.09619,0.1224,0.001514,0.05096,0.09619,9.537e-07,0.00033,0.00219,7.153e-05,16.75,0.07104,0,1,0
153600000000,153900000000,3990224092,0,3602157820,0.0005131,0.09619,0.1224,0.001518,0.05096,0.09631,1.907e-06,0.00033,0.001507,0.0004997,16.81,0.07099,0,1,0
153900000000,154200000000,3990224092,0,3602157820,0.0005016,0.09619,0.1224,0.001537,0.05096,0.09619,0,0.00033,0.002209,0,16.76,0.07003,0,1,0
154200000000,154500000000,3990224092,0,3602157820,0.0005102,0.09619,0.1224,0.001537,0.05096,0.09619,9.537e-07,0.00033,0.001341,7.153e-05,17.16,0.07171,0,1,0
154500000000,154800000000,3990224092,0,3602157820,0.0005074,0.09619,0.1224,0.001541,0.05096,0.09619,1.907e-06,0.00033,0.001139,0.0004282,16.83,0.07026,0,1,0
154800000000,155100000000,3990224092,0,3602157820,0.0005178,0.09619,0.1224,0.001554,0.05096,0.09619,9.537e-07,0.00033,0.002563,7.153e-05,16.41,0.06851,0,1,0
155100000000,155400000000,3990224092,0,3602157820,0.0005102,0.09619,0.1224,0.001554,0.05096,0.09619,0,0.00033,0.001465,7.153e-05,16.98,0.07102,0,1,0
155400000000,155700000000,3990224092,0,3602157820,0.0005198,0.09619,0.1224,0.00156,0.05103,0.09631,2.861e-06,0.00033,0.003784,0.0005713,16.81,0.06993,0,1,0
155700000000,156000000000,3990224092,0,3602157820,0.0005398,0.09619,0.1224,0.001579,0.05103,0.09619,1.907e-06,0.0003309,0.001221,7.153e-05,16.83,0.07018,0,1,0
161100000000,161400000000,3990224092,0,3602157820,0.000474,0.09619,0.1224,0.000967,0.05042,0.09619,9.537e-07,0.000329,0.001419,7.153e-05,12.58,0.05103,0,1,0
161400000000,161700000000,3990224092,0,3602157820,0.0004559,0.09619,0.1224,0.000968,0.05042,0.09619,0,0.000329,0.001236,7.153e-05,13.47,0.05474,0,1,0
161700000000,162000000000,3990224092,0,3602157820,0.0004463,0.09619,0.1224,0.0009737,0.05042,0.09619,1.907e-06,0.000329,0.001343,0.0004997,12.9,0.05247,0,1,0
162000000000,162300000000,3990224092,0,3602157820,0.0005188,0.09619,0.1224,0.0009899,0.05042,0.09619,9.537e-07,0.000329,0.001221,7.153e-05,16.58,0.07073,0,1,0
162300000000,162600000000,3990224092,0,3602157820,0.0005226,0.09619,0.1224,0.0009899,0.05042,0.09619,9.537e-06,0.000329,0.004807,0.001572,17.72,0.07614,0,1,0
162600000000,162900000000,3990224092,0,3602157820,0.0005131,0.09619,0.1224,0.0009918,0.05042,0.09631,2.861e-06,0.000329,0.001093,0.0004997,12.89,0.05387,0,1,0
162900000000,163200000000,3990224092,0,3602157820,0.0005159,0.09619,0.1224,0.001009,0.05048,0.09619,9.537e-07,0.000329,0.001253,7.153e-05,15.3,0.06521,0,1,0
163200000000,163500000000,3990224092,0,3602157820,0.0005093,0.09619,0.1224,0.001009,0.05048,0.09619,9.537e-07,0.000329,0.001297,7.153e-05,17.13,0.07267,0,1,0
163500000000,163800000000,3990224092,0,3602157820,0.0005102,0.09619,0.1224,0.001009,0.05048,0.09619,9.537e-07,0.000329,0.001223,7.153e-05,16.81,0.07121,0,1,0
163800000000,164100000000,3990224092,0,3602157820,0.0005169,0.09619,0.1224,0.001026,0.05048,0.09619,2.861e-06,0.000329,0.001461,0.0006428,16.07,0.0686,0,1,0
164100000000,164400000000,3990224092,0,3602157820,0.0005159,0.09619,0.1224,0.001032,0.05048,0.09619,9.537e-07,0.000329,0.001656,7.153e-05,15.72,0.06642,0,1,0
164400000000,164700000000,3990224092,0,3602157820,0.0005341,0.09619,0.1224,0.001032,0.05048,0.09619,2.861e-06,0.000329,0.001141,0.0007858,16.86,0.07059,0,1,0
164700000000,165000000000,3990224092,0,3602157820,0.0005302,0.09619,0.1224,0.001041,0.05048,0.09631,4.768e-06,0.000329,0.001465,0.001358,18.03,0.07604,0,1,0
165000000000,165300000000,3990224092,0,3602157820,0.0005236,0.09619,0.1224,0.001055,0.05048,0.09619,9.537e-07,0.000329,0.001579,7.153e-05,18.33,0.0775,0,1,0
165300000000,165600000000,3990224092,0,3602157820,0.0005245,0.09619,0.1224,0.001055,0.05048,0.09619,9.537e-07,0.000329,0.001205,7.153e-05,18.19,0.0774,0,1,0
165600000000,165900000000,3990224092,0,3602157820,0.0005474,0.09619,0.1224,0.001057,0.05048,0.09631,9.537e-07,0.000329,0.001303,7.153e-05,17.17,0.07223,0,1,0
165900000000,166200000000,3990224092,0,3602157820,0.0005407,0.09619,0.1224,0.00108,0.05054,0.09619,3.815e-06,0.000329,0.001347,0.0008574,17.84,0.07534,0,1,0
166200000000,166500000000,3990224092,0,3602157820,0.0005503,0.09619,0.1224,0.00108,0.05054,0.09619,9.537e-07,0.000329,0.006714,7.153e-05,18.31,0.07726,0,1,0
166500000000,166800000000,3990224092,0,3602157820,0.0005331,0.09619,0.1224,0.00108,0.05054,0.09619,9.537e-07,0.000329,0.001192,7.153e-05,18.05,0.07677,0,1,0
166800000000,167100000000,3990224092,0,3602157820,0.0005379,0.09619,0.1224,0.001095,0.05054,0.09631,3.815e-06,0.000329,0.002857,0.0007143,18.31,0.07815,0,1,0
167100000000,167400000000,3990224092,0,3602157820,0.0005331,0.09619,0.1224,0.001104,0.05054,0.09619,0,0.000329,0.001343,7.153e-05,18.13,0.07695,0,1,0
167400000000,167700000000,3990224092,0,3602157820,0.0005445,0.09619,0.1224,0.001104,0.05054,0.09619,0,0.000329,0.00165,7.153e-05,17.29,0.07337,0,1,0
167700000000,168000000000,3990224092,0,3602157820,0.0005302,0.09619,0.1224,0.001106,0.05054,0.09619,2.861e-06,0.000329,0.001839,0.0004997,16.76,0.07076,0,1,0
168000000000,168300000000,3990224092,0,3602157820,0.0005484,0.09619,0.1224,0.001122,0.05054,0.09619,1.907e-06,0.000329,0.008362,0.0004997,16.75,0.07101,0,1,0
168300000000,168600000000,3990224092,0,3602157820,0.0005398,0.09619,0.1224,0.001122,0.05054,0.09619,9.537e-07,0.000329,0.001116,7.153e-05,16.52,0.07039,0,1,0
168600000000,168900000000,3990224092,0,3602157820,0.0005207,0.09619,0.1224,0.001129,0.05054,0.09619,2.861e-06,0.000329,0.002323,0.0004282,12.36,0.0519,0,1,0
168900000000,169200000000,3990224092,0,3602157820,0.0005274,0.09619,0.1224,0.001144,0.0506,0.09619,0,0.000329,0.001991,7.153e-05,17.4,0.07417,0,1,0
169200000000,169500000000,3990224092,0,3602157820,0.0005274,0.09619,0.1224,0.001144,0.0506,0.09619,0,0.000329,0.002239,7.153e-05,18.04,0.078,0,1,0
169500000000,169800000000,3990224092,0,3602157820,0.000494,0.09619,0.1224,0.001144,0.0506,0.09619,9.537e-07,0.000329,0.00634,7.153e-05,17.02,0.0784,0,1,0
169800000000,170100000000,3990224092,0,3602157820,0.0005016,0.09619,0.1224,0.001167,0.0506,0.09619,1.144e-05,0.000329,0.002373,0.003284,11.82,0.05163,0,1,0
170100000000,170400000000,3990224092,0,3602157820,0.0005369,0.09619,0.1224,0.001169,0.0506,0.09619,0,0.000329,0.00214,7.153e-05,17.49,0.07424,0,1,0
170400000000,170700000000,3990224092,0,3602157820,0.0005074,0.09619,0.1224,0.001162,0.0506,0.09619,0,0.000329,0.0014,7.153e-05,16.53,0.07029,0,1,0
170700000000,171000000000,3990224092,0,3602157820,0.0004911,0.09619,0.1224,0.001163,0.0506,0.09619,1.907e-06,0.000329,0.001305,0.0004997,12.81,0.05399,0,1,0
171000000000,171300000000,3990224092,0,3602157820,0.0004921,0.09619,0.1224,0.001183,0.0506,0.09619,0,0.000329,0.001221,7.153e-05,14.72,0.06269,0,1,0
171300000000,171600000000,3990224092,0,3602157820,0.000494,0.09619,0.1224,0.001183,0.0506,0.09619,0,0.000329,0.001343,7.153e-05,17.32,0.0744,0,1,0
171600000000,171900000000,3990224092,0,3602157820,0.0004892,0.09619,0.1224,0.001183,0.0506,0.09619,0,0.000329,0.001228,7.153e-05,17.24,0.074,0,1,0
171900000000,172200000000,3990224092,0,3602157820,0.000495,0.09619,0.1224,0.001188,0.0506,0.09619,2.861e-06,0.000329,0.002125,0.0005713,16.34,0.07027,0,1,0
172200000000,172500000000,3990224092,0,3602157820,0.0005045,0.09619,0.1224,0.001207,0.05066,0.09619,0,0.00033,0.001299,7.153e-05,18.14,0.07836,0,1,0
172500000000,172800000000,3990224092,0,3602157820,0.0005207,0.09619,0.1224,0.001207,0.05066,0.09619,0,0.00033,0.001305,7.153e-05,16.36,0.07033,0,1,0
172800000000,173100000000,3990224092,0,3602157820,0.0005007,0.09619,0.1224,0.001207,0.05066,0.09619,0,0.00033,0.001341,7.153e-05,15.49,0.06998,0,1,0
173100000000,173400000000,3990224092,0,3602157820,0.0005283,0.09619,0.1224,0.001207,0.05066,0.09619,0,0.00033,0.001312,7.153e-05,17.95,0.0755,0,1,0
173400000000,173700000000,3990224092,0,3602157820,0.0005093,0.09619,0.1224,0.001232,0.05066,0.09619,2.861e-06,0.00033,0.001141,0.0006428,17.63,0.07437,0,1,0
173700000000,174000000000,3990224092,0,3602157820,0.0005093,0.09619,0.1224,0.001234,0.05066,0.09619,5.722e-06,0.00033,0.001278,0.001715,18.05,0.07633,0,1,0
174000000000,174300000000,3990224092,0,3602157820,0.0005074,0.09619,0.1224,0.001234,0.05066,0.09619,9.537e-07,0.00033,0.001301,0.0001431,17.47,0.07401,0,1,0
174300000000,174600000000,3990224092,0,3602157820,0.0005064,0.09619,0.1224,0.001234,0.05066,0.09619,0,0.00033,0.001179,7.153e-05,16.39,0.06915,0,1,0
174600000000,174900000000,3990224092,0,3602157820,0.0005121,0.09619,0.1224,0.001255,0.05072,0.09619,2.861e-06,0.00033,0.001343,0.0004997,17.18,0.0733,0,1,0
174900000000,175200000000,3990224092,0,3602157820,0.0005026,0.09619,0.1224,0.001255,0.05072,0.09619,0,0.00033,0.001163,7.153e-05,17.24,0.0728,0,1,0
175200000000,175500000000,3990224092,0,3602157820,0.0005121,0.09619,0.1224,0.001255,0.05072,0.09619,1.907e-06,0.00033,0.001341,0.0002861,16.96,0.072,0,1,0
175500000000,175800000000,3990224092,0,3602157820,0.0005302,0.09619,0.1224,0.001251,0.05066,0.09631,0,0.00033,0.002804,7.153e-05,17.81,0.07624,0,1,0
175800000000,176100000000,3990224092,0,3602157820,0.0005341,0.09619,0.1224,0.001276,0.05072,0.09619,5.722e-06,0.00033,0.001221,0.0009289,18.3,0.07925,0,1,0
186300000000,186600000000,3990224092,0,3602157820,0.0004902,0.09619,0.1224,0.001463,0.0509,0.09619,0,0.00033,0.001097,7.153e-05,16.41,0.06967,0,1,0
186600000000,186900000000,3990224092,0,3602157820,0.0004892,0.09619,0.1224,0.001463,0.0509,0.09619,9.537e-07,0.00033,0.001297,7.153e-05,17.02,0.0724,0,1,0
186900000000,187200000000,3990224092,0,3602157820,0.0004854,0.09619,0.1224,0.001463,0.0509,0.09619,9.537e-07,0.00033,0.001337,7.153e-05,16.05,0.06824,0,1,0
187200000000,187500000000,3990224092,0,3602157820,0.0004768,0.09619,0.1224,0.001465,0.0509,0.09619,2.861e-06,0.00033,0.001099,0.0005713,14.65,0.06185,0,1,0
187500000000,187800000000,3990224092,0,3602157820,0.0004807,0.09619,0.1224,0.001488,0.0509,0.09619,0,0.00033,0.00119,7.153e-05,15.04,0.06404,0,1,0
187800000000,188100000000,3990224092,0,3602157820,0.0004845,0.09619,0.1224,0.001488,0.0509,0.09619,9.537e-07,0.00033,0.001183,7.153e-05,15.6,0.0656,0,1,0
188100000000,188400000000,3990224092,0,3602157820,0.0004835,0.09619,0.1224,0.001488,0.0509,0.09619,0,0.00033,0.001122,7.153e-05,16.15,0.06867,0,1,0
188400000000,188700000000,3990224092,0,3602157820,0.0004797,0.09619,0.1224,0.001482,0.0509,0.09619,0,0.00033,0.001022,7.153e-05,16.17,0.06868,0,1,0
188700000000,189000000000,3990224092,0,3602157820,0.0004644,0.09619,0.1224,0.001497,0.05096,0.09619,2.861e-06,0.00033,0.003761,0.0004997,10.75,0.04479,0,1,0
189000000000,189300000000,3990224092,0,3602157820,0.0004721,0.09619,0.1224,0.001503,0.05096,0.09619,0,0.00033,0.001415,7.153e-05,15.53,0.06595,0,1,0
189300000000,189600000000,3990224092,0,3602157820,0.0004635,0.09619,0.1224,0.001503,0.05096,0.09619,9.537e-07,0.00033,0.001099,7.153e-05,15.32,0.06491,0,1,0
189600000000,189900000000,3990224092,0,3602157820,0.0004358,0.09619,0.1224,0.001503,0.05096,0.09619,9.537e-07,0.00033,0.001099,7.153e-05,14.74,0.06307,0,1,0
189900000000,190200000000,3990224092,0,3602157820,0.0004549,0.09619,0.1224,0.001518,0.05096,0.09619,1.907e-06,0.00033,0.001274,0.0004282,14.95,0.064,0,1,0
190200000000,190500000000,3990224092,0,3602157820,0.0004568,0.09619,0.1224,0.001526,0.05096,0.09619,9.537e-07,0.00033,0.001158,7.153e-05,15.19,0.06438,0,1,0
190500000000,190800000000,3990224092,0,3602157820,0.0004644,0.09619,0.1224,0.001526,0.05096,0.09619,9.537e-07,0.00033,0.001099,7.153e-05,15.37,0.06449,0,1,0
190800000000,191100000000,3990224092,0,3602157820,0.0004711,0.09619,0.1224,0.001526,0.05096,0.09619,9.537e-07,0.00033,0.001099,7.153e-05,16.22,0.06848,0,1,0
191100000000,191400000000,3990224092,0,3602157820,0.0004721,0.09619,0.1224,0.001526,0.05096,0.09619,9.537e-07,0.00033,0.001184,7.153e-05,14.97,0.06257,0,1,0
191400000000,191700000000,3990224092,0,3602157820,0.000474,0.09619,0.1224,0.001549,0.05096,0.09619,2.861e-06,0.00033,0.001377,0.0006428,15.15,0.06314,0,1,0
191700000000,192000000000,3990224092,0,3602157820,0.0004959,0.09619,0.1224,0.001551,0.05096,0.09619,9.537e-07,0.00033,0.001451,0.0002861,16.18,0.06835,0,1,0
192000000000,192300000000,3990224092,0,3602157820,0.0004969,0.09619,0.1224,0.001551,0.05096,0.09619,9.537e-07,0.00033,0.001276,7.153e-05,16.59,0.07118,0,1,0
192300000000,192600000000,3990224092,0,3602157820,0.0004816,0.09619,0.1224,0.001551,0.05096,0.09619,0,0.00033,0.001167,7.153e-05,16.28,0.06886,0,1,0
192600000000,192900000000,3990224092,0,3602157820,0.0004873,0.09619,0.1224,0.00156,0.05103,0.09631,2.861e-06,0.00033,0.001234,0.0006428,11.34,0.0469,0,1,0
192900000000,193200000000,3990224092,0,3602157820,0.0005026,0.09619,0.1224,0.001575,0.05103,0.09619,9.537e-07,0.0003309,0.001257,7.153e-05,16.95,0.07358,0,1,0
193200000000,193500000000,3990224092,0,3602157820,0.0005045,0.09619,0.1224,0.001575,0.05103,0.09619,0,0.0003309,0.001295,7.153e-05,16.28,0.06877,0,1,0
193500000000,193800000000,3990224092,0,3602157820,0.0004816,0.09619,0.1224,0.001575,0.05103,0.09619,0,0.0003309,0.001099,7.153e-05,14.97,0.06264,0,1,0
193800000000,194100000000,3990224092,0,3602157820,0.0004864,0.09619,0.1224,0.001574,0.05103,0.09619,0,0.0003309,0.001211,7.153e-05,15.47,0.06527,0,1,0
194100000000,194400000000,3990224092,0,3602157820,0.0004864,0.09619,0.1224,0.001591,0.05103,0.09619,1.907e-06,0.0003309,0.003738,0.0004997,11,0.04495,0,1,0
194400000000,194700000000,3990224092,0,3602157820,0.0004768,0.09619,0.1224,0.001596,0.05103,0.09619,9.537e-07,0.0003309,0.001238,7.153e-05,15.52,0.06417,0,1,0
194700000000,195000000000,3990224092,0,3602157820,0.0004721,0.09619,0.1224,0.001596,0.05103,0.09619,0,0.0003309,0.001108,7.153e-05,15.83,0.06503,0,1,0
195000000000,195300000000,3990224092,0,3602157820,0.000474,0.09619,0.1224,0.001596,0.05103,0.09619,0,0.0003309,0.001221,7.153e-05,15.41,0.06452,0,1,0
195300000000,195600000000,3990224092,0,3602157820,0.0004492,0.09619,0.1224,0.0016,0.05103,0.09631,2.861e-06,0.0003309,0.004181,0.0005713,15.11,0.06348,0,1,0
195600000000,195900000000,3990224092,0,3602157820,0.0004463,0.09619,0.1224,0.001619,0.05109,0.09619,0,0.0003309,0.001188,7.153e-05,14.75,0.06201,0,1,0
195900000000,196200000000,3990224092,0,3602157820,0.0004511,0.09619,0.1224,0.001619,0.05109,0.09619,0,0.0003309,0.001104,0,15.33,0.064,0,1,0
201300000000,201600000000,3990224092,0,3602157820,0.0004835,0.09619,0.1224,0.001707,0.05115,0.09619,0,0.000329,0.001226,7.153e-05,16.41,0.06788,0,1,0
201600000000,201900000000,3990224092,0,3602157820,0.0004721,0.09619,0.1224,0.001707,0.05115,0.09619,0,0.000329,0.001362,7.153e-05,15.41,0.06499,0,1,0
201900000000,202200000000,3990224092,0,3602157820,0.0004635,0.09619,0.1224,0.001165,0.0506,0.09619,0,0.000329,0.001547,7.153e-05,16.03,0.06649,0,1,0
202200000000,202500000000,3990224092,0,3602157820,0.0004454,0.09619,0.1224,0.0009689,0.05042,0.09619,9.537e-07,0.000329,0.001402,7.153e-05,14.55,0.06078,0,1,0
202500000000,202800000000,3990224092,0,3602157820,0.0004396,0.09619,0.1224,0.0009918,0.05042,0.09619,2.861e-06,0.000329,0.00111,0.0004997,14.49,0.0605,0,1,0
202800000000,203100000000,3990224092,0,3602157820,0.0004644,0.09619,0.1224,0.0009918,0.05042,0.09619,0,0.000329,0.001108,7.153e-05,15.49,0.06458,0,1,0
203100000000,203400000000,3990224092,0,3602157820,0.0004749,0.09619,0.1224,0.0009918,0.05042,0.09619,0,0.000329,0.001221,7.153e-05,15.48,0.06362,0,1,0
203400000000,203700000000,3990224092,0,3602157820,0.0004921,0.09619,0.1224,0.0009918,0.05042,0.09619,9.537e-07,0.000329,0.001259,7.153e-05,14.92,0.06153,0,1,0
203700000000,204000000000,3990224092,0,3602157820,0.0004759,0.09619,0.1224,0.001001,0.05042,0.09619,1.049e-05,0.000329,0.001221,0.002857,14.52,0.06007,0,1,0
204000000000,204300000000,3990224092,0,3602157820,0.0004654,0.09619,0.1224,0.001015,0.05048,0.09619,0,0.000329,0.001759,7.153e-05,14.72,0.06189,0,1,0
204300000000,204600000000,3990224092,0,3602157820,0.0004663,0.09619,0.1224,0.001015,0.05048,0.09619,9.537e-07,0.000329,0.001667,7.153e-05,14.93,0.06226,0,1,0
204600000000,204900000000,3990224092,0,3602157820,0.000474,0.09619,0.1224,0.001015,0.05048,0.09619,0,0.000329,0.001806,7.153e-05,15.76,0.0666,0,1,0
204900000000,205200000000,3990224092,0,3602157820,0.0004797,0.09619,0.1224,0.001015,0.05048,0.09619,0,0.000329,0.001652,7.153e-05,16.28,0.06948,0,1,0
205200000000,205500000000,3990224092,0,3602157820,0.0004892,0.09619,0.1224,0.00103,0.05048,0.09619,1.907e-06,0.000329,0.002335,0.0004282,15.09,0.06454,0,1,0
205500000000,205800000000,3990224092,0,3602157820,0.0005522,0.09619,0.1224,0.001036,0.05048,0.09619,2.861e-06,0.000329,0.002537,0.0005713,14.28,0.06154,0,1,0
205800000000,206100000000,3990224092,0,3602157820,0.0004997,0.09619,0.1224,0.001036,0.05048,0.09619,0,0.000329,0.001175,7.153e-05,15.6,0.06655,0,1,0
206100000000,206400000000,3990224092,0,3602157820,0.0004911,0.09619,0.1224,0.001036,0.05048,0.09619,0,0.000329,0.001247,0,15.84,0.06685,0,1,0
206400000000,206700000000,3990224092,0,3602157820,0.0004978,0.09619,0.1224,0.001051,0.05048,0.09631,2.861e-06,0.000329,0.003693,0.0005713,16.34,0.06825,0,1,0
206700000000,207000000000,3990224092,0,3602157820,0.0004902,0.09619,0.1224,0.00106,0.05048,0.09619,0,0.000329,0.001326,7.153e-05,16.49,0.07038,0,1,0
207000000000,207300000000,3990224092,0,3602157820,0.000495,0.09619,0.1224,0.00106,0.05048,0.09619,0,0.000329,0.001194,7.153e-05,15.13,0.06421,0,1,0
207300000000,207600000000,3990224092,0,3602157820,0.000493,0.09619,0.1224,0.001057,0.05048,0.09619,0,0.000329,0.001198,7.153e-05,15.65,0.06654,0,1,0
207600000000,207900000000,3990224092,0,3602157820,0.000494,0.09619,0.1224,0.001051,0.05048,0.09619,0,0.000329,0.001135,7.153e-05,15.56,0.06661,0,1,0
207900000000,208200000000,3990224092,0,3602157820,0.0004864,0.09619,0.1224,0.001057,0.05048,0.09631,1.907e-06,0.000329,0.001356,0.0005713,16.32,0.06894,0,1,0
208200000000,208500000000,3990224092,0,3602157820,0.0004864,0.09619,0.1224,0.001076,0.05054,0.09619,0,0.000329,0.001242,7.153e-05,16.53,0.07085,0,1,0
208500000000,208800000000,3990224092,0,3602157820,0.0004644,0.09619,0.1224,0.001076,0.05054,0.09619,0,0.000329,0.001236,7.153e-05,15.7,0.06646,0,1,0
208800000000,209100000000,3990224092,0,3602157820,0.0004787,0.09619,0.1224,0.001076,0.05054,0.09619,9.537e-07,0.000329,0.001255,7.153e-05,15.96,0.06803,0,1,0
209100000000,209400000000,3990224092,0,3602157820,0.0004311,0.09619,0.1224,0.001076,0.05054,0.09619,0,0.000329,0.001337,7.153e-05,15.14,0.06258,0,1,0
209400000000,209700000000,3990224092,0,3602157820,0.0004997,0.09619,0.1224,0.001074,0.05054,0.09631,9.537e-07,0.000329,0.01239,7.153e-05,15.06,0.06228,0,1,0
209700000000,210000000000,3990224092,0,3602157820,0.0004749,0.09619,0.1224,0.001097,0.05054,0.09619,2.861e-06,0.000329,0.001337,0.0005713,15.4,0.06452,0,1,0
210000000000,210300000000,3990224092,0,3602157820,0.0004787,0.09619,0.1224,0.001097,0.05054,0.09619,0,0.000329,0.001253,7.153e-05,16,0.06706,0,1,0
210300000000,210600000000,3990224092,0,3602157820,0.0004711,0.09619,0.1224,0.001097,0.05054,0.09619,9.537e-07,0.000329,0.001606,7.153e-05,15.17,0.06303,0,1,0
210600000000,210900000000,3990224092,0,3602157820,0.0004835,0.09619,0.1224,0.001097,0.05054,0.09619,0,0.000329,0.00201,7.153e-05,16.05,0.06762,0,1,0
210900000000,211200000000,3990224092,0,3602157820,0.000495,0.09619,0.1224,0.001097,0.05054,0.09619,0,0.000329,0.001812,7.153e-05,16.67,0.07064,0,1,0
211200000000,211500000000,3990224092,0,3602157820,0.0005016,0.09619,0.1224,0.001112,0.05054,0.09619,2.861e-06,0.000329,0.002319,0.0006428,15.47,0.06583,0,1,0
211500000000,211800000000,3990224092,0,3602157820,0.000495,0.09619,0.1224,0.001123,0.05054,0.09619,0,0.000329,0.001169,7.153e-05,15.17,0.06224,0,1,0
211800000000,212100000000,3990224092,0,3602157820,0.0005016,0.09619,0.1224,0.001123,0.05054,0.09619,1.907e-06,0.000329,0.001221,7.153e-05,15.98,0.0669,0,1,0
212100000000,212400000000,3990224092,0,3602157820,0.0005112,0.09619,0.1224,0.001123,0.05054,0.09619,0,0.000329,0.002228,7.153e-05,17.06,0.07309,0,1,0
212400000000,212700000000,3990224092,0,3602157820,0.0005112,0.09619,0.1224,0.001123,0.05054,0.09619,9.537e-07,0.000329,0.00136,7.153e-05,16.84,0.07209,0,1,0
212700000000,213000000000,3990224092,0,3602157820,0.0005274,0.09619,0.1224,0.001127,0.05054,0.09631,2.861e-06,0.000329,0.002583,0.0006428,11.08,0.04565,0,1,0
213000000000,213300000000,3990224092,0,3602157820,0.0005341,0.09619,0.1224,0.001141,0.0506,0.09619,9.537e-07,0.000329,0.001434,7.153e-05,16.14,0.06814,0,1,0
213300000000,213600000000,3990224092,0,3602157820,0.0005417,0.09619,0.1224,0.001141,0.0506,0.09619,1.907e-06,0.000329,0.002796,0.0002861,17.23,0.07185,0,1,0
213600000000,213900000000,3990224092,0,3602157820,0.0005159,0.09619,0.1224,0.001141,0.0506,0.09619,9.537e-07,0.000329,0.001173,7.153e-05,16.36,0.06748,0,1,0
213900000000,214200000000,3990224092,0,3602157820,0.000493,0.09619,0.1224,0.001141,0.0506,0.09619,9.537e-07,0.000329,0.001415,7.153e-05,15.84,0.06672,0,1,0
214200000000,214500000000,3990224092,0,3602157820,0.0005169,0.09619,0.1224,0.001148,0.0506,0.09619,3.815e-06,0.000329,0.002285,0.0008574,15.48,0.06517,0,1,0
214500000000,214800000000,3990224092,0,3602157820,0.0005054,0.09619,0.1224,0.001163,0.0506,0.09619,0,0.000329,0.001911,7.153e-05,15.15,0.06412,0,1,0
214800000000,215100000000,3990224092,0,3602157820,0.000535,0.09619,0.1224,0.001163,0.0506,0.09619,9.537e-07,0.000329,0.001343,7.153e-05,16.15,0.06804,0,1,0
215100000000,215400000000,3990224092,0,3602157820,0.0005226,0.09619,0.1224,0.001163,0.0506,0.09619,0,0.000329,0.001684,7.153e-05,16.65,0.07062,0,1,0
215400000000,215700000000,3990224092,0,3602157820,0.0005159,0.09619,0.1224,0.001163,0.0506,0.09619,0,0.000329,0.002544,7.153e-05,16.46,0.06891,0,1,0
215700000000,216000000000,3990224092,0,3602157820,0.0005293,0.09619,0.1224,0.001181,0.0506,0.09619,2.861e-06,0.000329,0.004074,0.0004997,16.62,0.07048,0,1,0
216000000000,216300000000,3990224092,0,3602157820,0.000535,0.09619,0.1224,0.001186,0.0506,0.09619,9.537e-07,0.000329,0.001221,0.0001431,15.69,0.06539,0,1,0
221100000000,221400000000,3990224092,0,3602157820,0.0005226,0.09619,0.1224,0.001257,0.05072,0.09619,1.907e-06,0.00033,0.002052,0.0004997,16.42,0.06963,0,1,0
221400000000,221700000000,3990224092,0,3602157820,0.0005016,0.09619,0.1224,0.001266,0.05072,0.09619,0,0.00033,0.00111,7.153e-05,16.01,0.06952,0,1,0
221700000000,222000000000,3990224092,0,3602157820,0.000514,0.09619,0.1224,0.001266,0.05072,0.09619,0,0.00033,0.001135,7.153e-05,15.98,0.06834,0,1,0
222000000000,222300000000,3990224092,0,3602157820,0.0005035,0.09619,0.1224,0.001266,0.05072,0.09619,9.537e-07,0.00033,0.001297,7.153e-05,15.85,0.0679,0,1,0
222300000000,222600000000,3990224092,0,3602157820,0.0005188,0.09619,0.1224,0.001278,0.05072,0.09619,1.907e-06,0.00033,0.00124,0.0004997,17.24,0.07444,0,1,0
222600000000,222900000000,3990224092,0,3602157820,0.0005045,0.09619,0.1224,0.001284,0.05072,0.09619,9.537e-07,0.00033,0.001186,7.153e-05,16.83,0.07329,0,1,0
222900000000,223200000000,3990224092,0,3602157820,0.0005093,0.09619,0.1224,0.001284,0.05072,0.09619,9.537e-07,0.00033,0.001486,7.153e-05,17.17,0.07283,0,1,0
223200000000,223500000000,3990224092,0,3602157820,0.0005045,0.09619,0.1224,0.001284,0.05072,0.09619,9.537e-07,0.00033,0.001076,7.153e-05,17.03,0.07311,0,1,0
223500000000,223800000000,3990224092,0,3602157820,0.0005121,0.09619,0.1224,0.001297,0.05072,0.09619,1.907e-06,0.00033,0.001646,0.0004997,17.27,0.07345,0,1,0
223800000000,224100000000,3990224092,0,3602157820,0.0005112,0.09619,0.1224,0.001308,0.05072,0.09619,9.537e-07,0.00033,0.001114,7.153e-05,17.1,0.07445,0,1,0
224100000000,224400000000,3990224092,0,3602157820,0.0005035,0.09619,0.1224,0.00131,0.05072,0.09619,3.815e-06,0.00033,0.001137,0.001072,15.65,0.06614,0,1,0
224400000000,224700000000,3990224092,0,3602157820,0.0005274,0.09619,0.1224,0.00131,0.05072,0.09619,9.537e-07,0.00033,0.001234,7.153e-05,15.49,0.06632,0,1,0
224700000000,225000000000,3990224092,0,3602157820,0.0005159,0.09619,0.1224,0.001328,0.05078,0.09619,2.861e-06,0.00033,0.001162,0.0005713,16.27,0.06963,0,1,0
225000000000,225300000000,3990224092,0,3602157820,0.0005312,0.09619,0.1224,0.001335,0.05078,0.09619,9.537e-07,0.00033,0.001123,7.153e-05,16.8,0.07184,0,1,0
225300000000,225600000000,3990224092,0,3602157820,0.000535,0.09619,0.1224,0.001333,0.05078,0.09619,9.537e-07,0.00033,0.001299,7.153e-05,17.47,0.07585,0,1,0
225600000000,225900000000,3990224092,0,3602157820,0.0005331,0.09619,0.1224,0.001333,0.05078,0.09631,3.815e-06,0.00033,0.001476,0.0005713,16.79,0.07251,0,1,0
225900000000,226200000000,3990224092,0,3602157820,0.0005341,0.09619,0.1224,0.00135,0.05078,0.09619,9.537e-07,0.00033,0.001387,7.153e-05,16.65,0.07213,0,1,0
226200000000,226500000000,3990224092,0,3602157820,0.0005264,0.09619,0.1224,0.00135,0.05078,0.09619,0,0.00033,0.001331,7.153e-05,17.06,0.07535,0,1,0
226500000000,226800000000,3990224092,0,3602157820,0.0005198,0.09619,0.1224,0.001356,0.05078,0.09631,1.907e-06,0.00033,0.001144,0.0004997,16.87,0.07103,0,1,0
226800000000,227100000000,3990224092,0,3602157820,0.0005083,0.09619,0.1224,0.001375,0.05084,0.09619,9.537e-07,0.00033,0.001034,7.153e-05,16.37,0.07058,0,1,0
227100000000,227400000000,3990224092,0,3602157820,0.0005226,0.09619,0.1224,0.001375,0.05084,0.09619,9.537e-07,0.00033,0.00127,7.153e-05,17.08,0.07492,0,1,0
227400000000,227700000000,3990224092,0,3602157820,0.0005207,0.09619,0.1224,0.001385,0.05084,0.09631,2.861e-06,0.00033,0.001295,0.0004282,16.71,0.0732,0,1,0
227700000000,228000000000,3990224092,0,3602157820,0.0005255,0.09619,0.1224,0.001398,0.05084,0.09619,9.537e-07,0.00033,0.00128,7.153e-05,17.21,0.07498,0,1,0
228000000000,228300000000,3990224092,0,3602157820,0.0005407,0.09619,0.1224,0.001398,0.05084,0.09619,0,0.00033,0.001104,7.153e-05,17.25,0.07459,0,1,0
228300000000,228600000000,3990224092,0,3602157820,0.0005188,0.09619,0.1224,0.00141,0.05084,0.09631,2.861e-06,0.00033,0.001341,0.0005713,16.68,0.07278,0,1,0
228600000000,228900000000,3990224092,0,3602157820,0.0005226,0.09619,0.1224,0.001423,0.05084,0.09619,9.537e-07,0.00033,0.001163,0.0001431,17.01,0.0733,0,1,0
228900000000,229200000000,3990224092,0,3602157820,0.0005159,0.09619,0.1224,0.001423,0.05084,0.09619,0,0.00033,0.001192,7.153e-05,16.03,0.06766,0,1,0
229200000000,229500000000,3990224092,0,3602157820,0.0005531,0.09619,0.1224,0.001438,0.0509,0.09619,2.861e-06,0.00033,0.001255,0.0005713,17.11,0.07314,0,1,0
229500000000,229800000000,3990224092,0,3602157820,0.000536,0.09619,0.1224,0.001446,0.0509,0.09619,0,0.00033,0.001305,7.153e-05,16.39,0.06853,0,1,0
229800000000,230100000000,3990224092,0,3602157820,0.000535,0.09619,0.1224,0.001444,0.0509,0.09619,9.537e-07,0.00033,0.001259,7.153e-05,16.69,0.07108,0,1,0
230100000000,230400000000,3990224092,0,3602157820,0.0005331,0.09619,0.1224,0.001457,0.0509,0.09631,2.861e-06,0.00033,0.003757,0.0005713,16.58,0.07015,0,1,0
230400000000,230700000000,3990224092,0,3602157820,0.0005302,0.09619,0.1224,0.001465,0.0509,0.09619,0,0.00033,0.001383,7.153e-05,16.64,0.07114,0,1,0
230700000000,231000000000,3990224092,0,3602157820,0.0005226,0.09619,0.1224,0.001465,0.0509,0.09619,9.537e-07,0.00033,0.001348,7.153e-05,16.52,0.06864,0,1,0
231000000000,231300000000,3990224092,0,3602157820,0.000515,0.09619,0.1224,0.00148,0.0509,0.09631,3.815e-06,0.00033,0.002655,0.0007143,15.64,0.06569,0,1,0
231300000000,231600000000,3990224092,0,3602157820,0.0005054,0.09619,0.1224,0.00149,0.0509,0.09619,0,0.00033,0.001524,7.153e-05,15.4,0.06409,0,1,0
231600000000,231900000000,3990224092,0,3602157820,0.0005379,0.09619,0.1224,0.00149,0.0509,0.09619,9.537e-07,0.00033,0.001537,7.153e-05,17.09,0.07233,0,1,0
231900000000,232200000000,3990224092,0,3602157820,0.0005655,0.09619,0.1224,0.001507,0.05096,0.09619,1.907e-06,0.00033,0.001795,0.0004282,16.78,0.07032,0,1,0
232200000000,232500000000,3990224092,0,3602157820,0.0005493,0.09619,0.1224,0.001511,0.05096,0.09619,1.907e-06,0.00033,0.002548,0.0002861,16.75,0.07222,0,1,0
232500000000,232800000000,3990224092,0,3602157820,0.0005465,0.09619,0.1224,0.001509,0.05096,0.09619,0,0.00033,0.002075,7.153e-05,17.22,0.07423,0,1,0
232800000000,233100000000,3990224092,0,3602157820,0.0005398,0.09619,0.1224,0.001522,0.05096,0.09631,1.24e-05,0.00033,0.00111,0.00293,16.97,0.07431,0,1,0
233100000000,233400000000,3990224092,0,3602157820,0.0005369,0.09619,0.1224,0.00153,0.05096,0.09619,9.537e-07,0.00033,0.003101,7.153e-05,16.82,0.07132,0,1,0
233400000000,233700000000,3990224092,0,3602157820,0.0005245,0.09619,0.1224,0.00153,0.05096,0.09619,9.537e-07,0.00033,0.001163,7.153e-05,16.78,0.07119,0,1,0
233700000000,234000000000,3990224092,0,3602157820,0.0005474,0.09619,0.1224,0.001545,0.05096,0.09631,3.815e-06,0.00033,0.001324,0.0006428,17.76,0.07636,0,1,0
234000000000,234300000000,3990224092,0,3602157820,0.0005293,0.09619,0.1224,0.001553,0.05096,0.09619,9.537e-07,0.0003309,0.001106,7.153e-05,17.25,0.07377,0,1,0
234300000000,234600000000,3990224092,0,3602157820,0.0005102,0.09619,0.1224,0.001553,0.05096,0.09619,9.537e-07,0.0003309,0.004906,7.153e-05,16.39,0.06943,0,1,0
234600000000,234900000000,3990224092,0,3602157820,0.0005283,0.09619,0.1224,0.001572,0.05103,0.09619,3.815e-06,0.0003309,0.001368,0.0004997,15.59,0.0653,0,1,0
234900000000,235200000000,3990224092,0,3602157820,0.0005178,0.09619,0.1224,0.001575,0.05103,0.09619,0,0.0003309,0.001957,7.153e-05,16.05,0.06726,0,1,0
235200000000,235500000000,3990224092,0,3602157820,0.0005112,0.09619,0.1224,0.001575,0.05103,0.09619,0,0.0003309,0.002151,7.153e-05,15.92,0.06793,0,1,0
235500000000,235800000000,3990224092,0,3602157820,0.0004826,0.09619,0.1224,0.001595,0.05103,0.09619,2.861e-06,0.0003309,0.001221,0.0006428,15.26,0.06344,0,1,0
235800000000,236100000000,3990224092,0,3602157820,0.0005083,0.09619,0.1224,0.0016,0.05103,0.09619,0,0.0003309,0.001286,7.153e-05,16.05,0.06662,0,1,0
236100000000,236400000000,3990224092,0,3602157820,0.0004807,0.09619,0.1224,0.0016,0.05103,0.09619,0,0.0003309,0.001192,7.153e-05,15.22,0.06304,0,1,0
241200000000,241500000000,3990224092,0,3602157820,0.0005074,0.09619,0.1224,0.001009,0.05048,0.09619,9.537e-07,0.000329,0.00148,7.153e-05,14.65,0.06214,0,1,0
241500000000,241800000000,3990224092,0,3602157820,0.0004892,0.09619,0.1224,0.001013,0.05048,0.09619,1.907e-06,0.000329,0.001143,0.0004282,15.39,0.0636,0,1,0
241800000000,242100000000,3990224092,0,3602157820,0.0005112,0.09619,0.1224,0.001032,0.05048,0.09619,9.537e-07,0.000329,0.001089,7.153e-05,15.39,0.06359,0,1,0
242100000000,242400000000,3990224092,0,3602157820,0.0005093,0.09619,0.1224,0.001032,0.05048,0.09619,9.537e-07,0.000329,0.001619,7.153e-05,15.32,0.06492,0,1,0
242400000000,242700000000,3990224092,0,3602157820,0.0004911,0.09619,0.1224,0.001032,0.05048,0.09619,2.861e-06,0.000329,0.001257,0.0006428,15.77,0.06586,0,1,0
242700000000,243000000000,3990224092,0,3602157820,0.0004997,0.09619,0.1224,0.001049,0.05048,0.09619,0,0.000329,0.001514,7.153e-05,15.55,0.06517,0,1,0
243000000000,243300000000,3990224092,0,3602157820,0.000493,0.09619,0.1224,0.001049,0.05048,0.09619,1.907e-06,0.000329,0.001131,0.0001431,15.06,0.06239,0,1,0
243300000000,243600000000,3990224092,0,3602157820,0.0004702,0.09619,0.1224,0.001051,0.05048,0.09631,3.815e-06,0.000329,0.0037,0.0004282,14.43,0.05858,0,1,0
243600000000,243900000000,3990224092,0,3602157820,0.0005331,0.09619,0.1224,0.001064,0.05048,0.09619,9.537e-07,0.000329,0.001389,7.153e-05,15.72,0.06539,0,1,0
243900000000,244200000000,3990224092,0,3602157820,0.0005522,0.09619,0.1224,0.001062,0.05048,0.09619,9.537e-07,0.000329,0.001377,7.153e-05,17.18,0.07384,0,1,0
244200000000,244500000000,3990224092,0,3602157820,0.0005436,0.09619,0.1224,0.001062,0.05048,0.09619,2.861e-06,0.000329,0.001635,0.0004997,17.63,0.0753,0,1,0
244500000000,244800000000,3990224092,0,3602157820,0.0005426,0.09619,0.1224,0.001081,0.05054,0.09619,9.537e-07,0.000329,0.001474,7.153e-05,17.65,0.07442,0,1,0
244800000000,245100000000,3990224092,0,3602157820,0.0005302,0.09619,0.1224,0.001081,0.05054,0.09619,0,0.000329,0.00135,7.153e-05,17.53,0.07366,0,1,0
245100000000,245400000000,3990224092,0,3602157820,0.0005159,0.09619,0.1224,0.001087,0.05054,0.09619,4.768e-06,0.000329,0.001301,0.0008574,16.94,0.07119,0,1,0
245400000000,245700000000,3990224092,0,3602157820,0.0005426,0.09619,0.1224,0.001104,0.05054,0.09619,0,0.000329,0.001392,7.153e-05,16.82,0.06959,0,1,0
245700000000,246000000000,3990224092,0,3602157820,0.0005388,0.09619,0.1224,0.001104,0.05054,0.09619,0,0.000329,0.001307,7.153e-05,16.8,0.06875,0,1,0
246000000000,246300000000,3990224092,0,3602157820,0.0005522,0.09619,0.1224,0.001108,0.05054,0.09631,2.861e-06,0.000329,0.001259,0.0005713,13.74,0.05622,0,1,0
251400000000,251700000000,3990224092,0,3602157820,0.000495,0.09619,0.1224,0.001249,0.05066,0.09619,2.861e-06,0.00033,0.01709,0.0004997,11.65,0.04864,0,1,0
251700000000,252000000000,3990224092,0,3602157820,0.0004854,0.09619,0.1224,0.001255,0.05072,0.09619,9.537e-07,0.00033,0.005249,7.153e-05,16.6,0.07018,0,1,0
252000000000,252300000000,3990224092,0,3602157820,0.0004883,0.09619,0.1224,0.001255,0.05072,0.09619,0,0.00033,0.00153,7.153e-05,16.65,0.06984,0,1,0
252300000000,252600000000,3990224092,0,3602157820,0.0004902,0.09619,0.1224,0.001259,0.05072,0.09631,4.768e-06,0.00033,0.001131,0.001143,12.76,0.05467,0,1,0
252600000000,252900000000,3990224092,0,3602157820,0.0004845,0.09619,0.1224,0.00128,0.05072,0.09619,9.537e-07,0.00033,0.00111,7.153e-05,14.48,0.06285,0,1,0
252900000000,253200000000,3990224092,0,3602157820,0.0004826,0.09619,0.1224,0.00128,0.05072,0.09619,9.537e-07,0.00033,0.00106,7.153e-05,17,0.07283,0,1,0
253200000000,253500000000,3990224092,0,3602157820,0.000474,0.09619,0.1224,0.00128,0.05072,0.09631,0,0.00033,0.001173,7.153e-05,15.37,0.06494,0,1,0
253500000000,253800000000,3990224092,0,3602157820,0.0004826,0.09619,0.1224,0.001305,0.05072,0.09619,1.907e-06,0.00033,0.00152,0.0004282,14.85,0.06325,0,1,0
253800000000,254100000000,3990224092,0,3602157820,0.0004606,0.09619,0.1224,0.001305,0.05072,0.09619,9.537e-07,0.00033,0.001263,7.153e-05,14.39,0.06067,0,1,0
254100000000,254400000000,3990224092,0,3602157820,0.0004692,0.09619,0.1224,0.001307,0.05072,0.09619,1.907e-06,0.00033,0.003593,0.0003567,14.24,0.05945,0,1,0
254400000000,254700000000,3990224092,0,3602157820,0.000473,0.09619,0.1224,0.001322,0.05078,0.09619,9.537e-07,0.00033,0.00112,7.153e-05,15.4,0.06707,0,1,0
254700000000,255000000000,3990224092,0,3602157820,0.0004759,0.09619,0.1224,0.00132,0.05078,0.09619,0,0.00033,0.003349,0,14.75,0.06311,0,1,0
255000000000,255300000000,3990224092,0,3602157820,0.0004549,0.09619,0.1224,0.001322,0.05078,0.09631,1.907e-06,0.00033,0.001143,0.0004282,10.36,0.0419,0,1,0
255300000000,255600000000,3990224092,0,3602157820,0.0004511,0.09619,0.1224,0.001337,0.05078,0.09619,0,0.00033,0.001122,7.153e-05,14.78,0.06159,0,1,0
255600000000,255900000000,3990224092,0,3602157820,0.0004854,0.09619,0.1224,0.001337,0.05078,0.09619,9.537e-07,0.00033,0.001226,7.153e-05,15.13,0.06315,0,1,0
255900000000,256200000000,3990224092,0,3602157820,0.0004835,0.09619,0.1224,0.001337,0.05078,0.09619,9.537e-07,0.00033,0.001074,7.153e-05,16.44,0.06857,0,1,0
256200000000,256500000000,3990224092,0,3602157820,0.0004807,0.09619,0.1224,0.001358,0.05078,0.09619,2.861e-06,0.00033,0.001411,0.0004997,16.13,0.06677,0,1,0
256500000000,256800000000,3990224092,0,3602157820,0.0004911,0.09619,0.1224,0.00136,0.05078,0.09619,0,0.00033,0.001282,7.153e-05,15.31,0.06075,0,1,0
256800000000,257100000000,3990224092,0,3602157820,0.000494,0.09619,0.1224,0.001358,0.05078,0.09619,9.537e-07,0.00033,0.001699,7.153e-05,16.22,0.06672,0,1,0
257100000000,257400000000,3990224092,0,3602157820,0.0004749,0.09619,0.1224,0.001362,0.05078,0.09619,2.861e-06,0.00033,0.003658,0.0005713,16.25,0.06705,0,1,0
257400000000,257700000000,3990224092,0,3602157820,0.0004425,0.09619,0.1224,0.001381,0.05084,0.09619,9.537e-07,0.00033,0.001034,7.153e-05,15.18,0.06219,0,1,0
257700000000,258000000000,3990224092,0,3602157820,0.0004406,0.09619,0.1224,0.001381,0.05084,0.09619,0,0.00033,0.001259,7.153e-05,15.22,0.0629,0,1,0
258000000000,258300000000,3990224092,0,3602157820,0.0004501,0.09619,0.1224,0.001373,0.05078,0.09619,9.537e-07,0.00033,0.0009995,7.153e-05,15.59,0.06501,0,1,0
258300000000,258600000000,3990224092,0,3602157820,0.0004511,0.09619,0.1224,0.001375,0.05084,0.09619,1.049e-05,0.00033,0.001453,0.002857,15.34,0.0635,0,1,0
258600000000,258900000000,3990224092,0,3602157820,0.0004559,0.09619,0.1224,0.001392,0.05084,0.09619,9.537e-07,0.00033,0.00128,7.153e-05,15.04,0.06242,0,1,0
258900000000,259200000000,3990224092,0,3602157820,0.0004625,0.09619,0.1224,0.001392,0.05084,0.09619,9.537e-07,0.00033,0.001383,7.153e-05,14.13,0.05798,0,1,0
259200000000,259500000000,3990224092,0,3602157820,0.0004797,0.09619,0.1224,0.001392,0.05084,0.09619,9.537e-07,0.00033,0.001776,7.153e-05,14.83,0.06115,0,1,0
259500000000,259800000000,3990224092,0,3602157820,0.0004997,0.09619,0.1224,0.00141,0.05084,0.09619,1.907e-06,0.00033,0.00135,0.0004997,15.89,0.0646,0,1,0
259800000000,260100000000,3990224092,0,3602157820,0.0005016,0.09619,0.1224,0.001415,0.05084,0.09619,0,0.00033,0.001257,7.153e-05,16.65,0.0687,0,1,0
260100000000,260400000000,3990224092,0,3602157820,0.0005016,0.09619,0.1224,0.001415,0.05084,0.09619,9.537e-07,0.00033,0.002354,7.153e-05,16.95,0.06955,0,1,0
260400000000,260700000000,3990224092,0,3602157820,0.0005035,0.09619,0.1224,0.001415,0.05084,0.09619,1.907e-06,0.00033,0.001211,0.0002861,17.22,0.07076,0,1,0
260700000000,261000000000,3990224092,0,3602157820,0.0005007,0.09619,0.1224,0.001436,0.0509,0.09619,2.861e-06,0.00033,0.00111,0.0005713,17.1,0.07137,0,1,0
261000000000,261300000000,3990224092,0,3602157820,0.0004988,0.09619,0.1224,0.00144,0.0509,0.09619,1.907e-06,0.00033,0.00795,0.0002146,16.1,0.06555,0,1,0
261300000000,261600000000,3990224092,0,3602157820,0.0004883,0.09619,0.1224,0.00144,0.0509,0.09619,0,0.00033,0.002148,0,15.89,0.06593,0,1,0
261600000000,261900000000,3990224092,0,3602157820,0.0004663,0.09619,0.1224,0.001434,0.05084,0.09619,0,0.00033,0.001221,7.153e-05,15.87,0.06614,0,1,0
261900000000,262200000000,3990224092,0,3602157820,0.0004559,0.09619,0.1224,0.001457,0.0509,0.09619,2.861e-06,0.00033,0.004753,0.0005713,15.67,0.06483,0,1,0
262200000000,262500000000,3990224092,0,3602157820,0.0004644,0.09619,0.1224,0.001459,0.0509,0.09619,9.537e-07,0.00033,0.003376,7.153e-05,16.03,0.06757,0,1,0
262500000000,262800000000,3990224092,0,3602157820,0.0004559,0.09619,0.1224,0.001459,0.0509,0.09619,9.537e-07,0.00033,0.003685,7.153e-05,16.3,0.06728,0,1,0
262800000000,263100000000,3990224092,0,3602157820,0.0004683,0.09619,0.1224,0.001463,0.0509,0.09619,1.907e-06,0.00033,0.001522,0.0004997,11.97,0.04826,0,1,0
263100000000,263400000000,3990224092,0,3602157820,0.000494,0.09619,0.1224,0.001482,0.0509,0.09619,0,0.00033,0.001118,7.153e-05,13.98,0.0573,0,1,0
263400000000,263700000000,3990224092,0,3602157820,0.0004911,0.09619,0.1224,0.001482,0.0509,0.09619,0,0.00033,0.001053,7.153e-05,16.12,0.06779,0,1,0
263700000000,264000000000,3990224092,0,3602157820,0.0004845,0.09619,0.1224,0.001482,0.0509,0.09619,9.537e-07,0.00033,0.001097,7.153e-05,15.98,0.06685,0,1,0
264000000000,264300000000,3990224092,0,3602157820,0.0004597,0.09619,0.1224,0.001484,0.0509,0.09631,1.907e-06,0.00033,0.004372,0.0005713,15.64,0.06428,0,1,0
264300000000,264600000000,3990224092,0,3602157820,0.0004559,0.09619,0.1224,0.001503,0.05096,0.09619,9.537e-07,0.00033,0.003784,7.153e-05,15.7,0.06462,0,1,0
264600000000,264900000000,3990224092,0,3602157820,0.0004435,0.09619,0.1224,0.001503,0.05096,0.09619,9.537e-07,0.00033,0.003319,0.0001431,15.42,0.0638,0,1,0
264900000000,265200000000,3990224092,0,3602157820,0.0004358,0.09619,0.1224,0.001503,0.05096,0.09619,0,0.00033,0.00107,7.153e-05,14.69,0.062,0,1,0
265200000000,265500000000,3990224092,0,3602157820,0.0004578,0.09619,0.1224,0.001511,0.05096,0.09619,1.907e-06,0.00033,0.001053,0.0004997,14.32,0.06086,0,1,0
265500000000,265800000000,3990224092,0,3602157820,0.0004539,0.09619,0.1224,0.001528,0.05096,0.09619,9.537e-07,0.00033,0.002396,0.0001431,14.37,0.06017,0,1,0
265800000000,266100000000,3990224092,0,3602157820,0.0004768,0.09619,0.1224,0.001528,0.05096,0.09619,0,0.00033,0.00123,7.153e-05,15.83,0.06709,0,1,0
266100000000,266400000000,3990224092,0,3602157820,0.0004606,0.09619,0.1224,0.001528,0.05096,0.09619,0,0.00033,0.001099,7.153e-05,15.86,0.06625,0,1,0
266400000000,266700000000,3990224092,0,3602157820,0.0004311,0.09619,0.1224,0.001534,0.05096,0.09619,1.907e-06,0.00033,0.001062,0.0005713,14.69,0.05994,0,1,0
266700000000,267000000000,3990224092,0,3602157820,0.0004101,0.09619,0.1224,0.001551,0.05096,0.09619,9.537e-07,0.0003309,0.001049,7.153e-05,13.59,0.0565,0,1,0
267000000000,267300000000,3990224092,0,3602157820,0.000433,0.09619,0.1224,0.001551,0.05096,0.09619,0,0.0003309,0.001205,7.153e-05,14.95,0.06328,0,1,0
267300000000,267600000000,3990224092,0,3602157820,0.0004549,0.09619,0.1224,0.001551,0.05096,0.09619,0,0.0003309,0.00112,7.153e-05,15.86,0.06994,0,1,0
267600000000,267900000000,3990224092,0,3602157820,0.0004578,0.09619,0.1224,0.00156,0.05103,0.09619,1.907e-06,0.0003309,0.003315,0.0003567,15.86,0.06997,0,1,0
267900000000,268200000000,3990224092,0,3602157820,0.000452,0.09619,0.1224,0.001572,0.05103,0.09619,9.537e-07,0.0003309,0.0009766,7.153e-05,16.09,0.07145,0,1,0
268200000000,268500000000,3990224092,0,3602157820,0.0004511,0.09619,0.1224,0.001572,0.05103,0.09619,0,0.0003309,0.001173,7.153e-05,15.82,0.06976,0,1,0
268500000000,268800000000,3990224092,0,3602157820,0.000452,0.09619,0.1224,0.001572,0.05103,0.09619,9.537e-07,0.0003309,0.001118,7.153e-05,14.65,0.06409,0,1,0
268800000000,269100000000,3990224092,0,3602157820,0.0004606,0.09619,0.1224,0.001577,0.05103,0.09619,1.907e-06,0.0003309,0.001099,0.0004997,15.05,0.06627,0,1,0
269100000000,269400000000,3990224092,0,3602157820,0.0004568,0.09619,0.1224,0.001595,0.05103,0.09619,0,0.0003309,0.001102,7.153e-05,14.82,0.06406,0,1,0
269400000000,269700000000,3990224092,0,3602157820,0.0004625,0.09619,0.1224,0.001595,0.05103,0.09619,9.537e-07,0.0003309,0.001095,7.153e-05,15.35,0.06602,0,1,0
269700000000,270000000000,3990224092,0,3602157820,0.0004568,0.09619,0.1224,0.001595,0.05103,0.09619,0,0.0003309,0.00141,7.153e-05,15.28,0.0672,0,1,0
270000000000,270300000000,3990224092,0,3602157820,0.0004539,0.09619,0.1224,0.001596,0.05103,0.09631,1.907e-06,0.0003309,0.001183,0.0004997,15.45,0.0679,0,1,0
270300000000,270600000000,3990224092,0,3602157820,0.0004492,0.09619,0.1224,0.001621,0.05109,0.09619,0,0.0003309,0.001169,7.153e-05,15.31,0.06731,0,1,0
270600000000,270900000000,3990224092,0,3602157820,0.0004721,0.09619,0.1224,0.001621,0.05109,0.09619,9.537e-07,0.0003309,0.001379,7.153e-05,15.67,0.06989,0,1,0
270900000000,271200000000,3990224092,0,3602157820,0.0004578,0.09619,0.1224,0.001619,0.05109,0.09619,9.537e-07,0.0003309,0.001045,0.0001431,15.82,0.06982,0,1,0
271200000000,271500000000,3990224092,0,3602157820,0.0004625,0.09619,0.1224,0.001617,0.05103,0.09619,9.537e-07,0.0003309,0.00123,7.153e-05,15.86,0.06871,0,1,0
281400000000,281700000000,3990224092,0,3602157820,0.0004845,0.09619,0.1224,0.001085,0.05054,0.09619,9.537e-07,0.000329,0.00145,7.153e-05,15.57,0.06508,0,1,0
281700000000,282000000000,3990224092,0,3602157820,0.0004997,0.09619,0.1224,0.001085,0.05054,0.09619,0,0.000329,0.001637,7.153e-05,16.48,0.06778,0,1,0
282000000000,282300000000,3990224092,0,3602157820,0.0004854,0.09619,0.1224,0.001085,0.05054,0.09619,0,0.000329,0.001129,7.153e-05,16.02,0.06596,0,1,0
282300000000,282600000000,3990224092,0,3602157820,0.0004902,0.09619,0.1224,0.001106,0.05054,0.09619,1.907e-06,0.000329,0.002911,0.0004997,16.56,0.06836,0,1,0
282600000000,282900000000,3990224092,0,3602157820,0.000493,0.09619,0.1224,0.001108,0.05054,0.09619,9.537e-07,0.000329,0.001163,7.153e-05,17.35,0.07221,0,1,0
282900000000,283200000000,3990224092,0,3602157820,0.0004797,0.09619,0.1224,0.001108,0.05054,0.09619,9.537e-07,0.000329,0.00885,7.153e-05,17.07,0.07102,0,1,0
283200000000,283500000000,3990224092,0,3602157820,0.0004444,0.09619,0.1224,0.001108,0.05054,0.09619,0,0.000329,0.001091,7.153e-05,15.2,0.06241,0,1,0
283500000000,283800000000,3990224092,0,3602157820,0.0004463,0.09619,0.1224,0.00111,0.05054,0.09619,9.537e-07,0.000329,0.001221,7.153e-05,15.21,0.06284,0,1,0
283800000000,284100000000,3990224092,0,3602157820,0.0004492,0.09619,0.1224,0.001129,0.05054,0.09619,1.907e-06,0.000329,0.001087,0.0005713,15.47,0.06402,0,1,0
284100000000,284400000000,3990224092,0,3602157820,0.0004539,0.09619,0.1224,0.001133,0.0506,0.09619,0,0.000329,0.001057,7.153e-05,15.85,0.06601,0,1,0
284400000000,284700000000,3990224092,0,3602157820,0.0004206,0.09619,0.1224,0.001133,0.0506,0.09619,0,0.000329,0.0009718,7.153e-05,14.69,0.0604,0,1,0
284700000000,285000000000,3990224092,0,3602157820,0.0004683,0.09619,0.1224,0.001133,0.0506,0.09619,9.537e-07,0.000329,0.001266,7.153e-05,15.86,0.06484,0,1,0
285000000000,285300000000,3990224092,0,3602157820,0.000536,0.09619,0.1224,0.001131,0.0506,0.09619,0,0.000329,0.001537,7.153e-05,17.88,0.07407,0,1,0
285300000000,285600000000,3990224092,0,3602157820,0.0005255,0.09619,0.1224,0.001148,0.0506,0.09619,1.907e-06,0.000329,0.001343,0.0005713,17.59,0.07178,0,1,0
285600000000,285900000000,3990224092,0,3602157820,0.0005188,0.09619,0.1224,0.001156,0.0506,0.09619,0,0.000329,0.00139,7.153e-05,17.59,0.07212,0,1,0
285900000000,286200000000,3990224092,0,3602157820,0.000514,0.09619,0.1224,0.001156,0.0506,0.09619,0,0.000329,0.001553,0,17.48,0.07114,0,1,0
286200000000,286500000000,3990224092,0,3602157820,0.0005207,0.09619,0.1224,0.001156,0.0506,0.09619,1.907e-06,0.000329,0.001259,0.0003567,16.97,0.0691,0,1,0
286500000000,286800000000,3990224092,0,3602157820,0.0004997,0.09619,0.1224,0.001156,0.0506,0.09619,9.537e-07,0.000329,0.001348,0.0004282,17.26,0.0707,0,1,0
286800000000,287100000000,3990224092,0,3602157820,0.0005131,0.09619,0.1224,0.00116,0.0506,0.09619,9.537e-07,0.000329,0.00135,7.153e-05,16.33,0.06704,0,1,0
287100000000,287400000000,3990224092,0,3602157820,0.0005121,0.09619,0.1224,0.001181,0.0506,0.09619,1.907e-06,0.000329,0.001339,0.0005713,17.53,0.07263,0,1,0
287400000000,287700000000,3990224092,0,3602157820,0.0005178,0.09619,0.1224,0.001181,0.0506,0.09619,9.537e-07,0.000329,0.001282,7.153e-05,17.35,0.07045,0,1,0
287700000000,288000000000,3990224092,0,3602157820,0.0004988,0.09619,0.1224,0.001181,0.0506,0.09619,1.907e-06,0.000329,0.001505,0.0004997,17.62,0.07091,0,1,0
288000000000,288300000000,3990224092,0,3602157820,0.0004959,0.09619,0.1224,0.001181,0.0506,0.09619,9.537e-07,0.000329,0.001364,7.153e-05,16.9,0.07093,0,1,0
288300000000,288600000000,3990224092,0,3602157820,0.0004578,0.09619,0.1224,0.001181,0.0506,0.09619,0,0.000329,0.001385,7.153e-05,14.11,0.0573,0,1,0
288600000000,288900000000,3990224092,0,3602157820,0.0004559,0.09619,0.1224,0.001198,0.05066,0.09619,2.861e-06,0.000329,0.001219,0.0007143,14.24,0.05758,0,1,0
288900000000,289200000000,3990224092,0,3602157820,0.0004797,0.09619,0.1224,0.001205,0.05066,0.09619,0,0.000329,0.001194,7.153e-05,16.16,0.06664,0,1,0
289200000000,289500000000,3990224092,0,3602157820,0.0004606,0.09619,0.1224,0.001205,0.05066,0.09619,0,0.000329,0.001295,7.153e-05,15.86,0.06563,0,1,0
289500000000,289800000000,3990224092,0,3602157820,0.0004702,0.09619,0.1224,0.001205,0.05066,0.09619,0,0.000329,0.001688,0,16.42,0.06793,0,1,0
289800000000,290100000000,3990224092,0,3602157820,0.0004749,0.09619,0.1224,0.001205,0.05066,0.09619,9.537e-07,0.000329,0.001341,7.153e-05,15.36,0.0637,0,1,0
290100000000,290400000000,3990224092,0,3602157820,0.0004759,0.09619,0.1224,0.001213,0.05066,0.09619,1.907e-06,0.000329,0.001186,0.0004997,15.55,0.06484,0,1,0
290400000000,290700000000,3990224092,0,3602157820,0.0004854,0.09619,0.1224,0.00123,0.05066,0.09619,1.907e-06,0.00033,0.004456,0.0002861,16.4,0.06965,0,1,0
290700000000,291000000000,3990224092,0,3602157820,0.0004568,0.09619,0.1224,0.00123,0.05066,0.09619,0,0.00033,0.002186,7.153e-05,15.74,0.06583,0,1,0
291000000000,291300000000,3990224092,0,3602157820,0.0004549,0.09619,0.1224,0.00123,0.05066,0.09619,0,0.00033,0.001987,7.153e-05,15.79,0.06331,0,1,0
291300000000,291600000000,3990224092,0,3602157820,0.0004492,0.09619,0.1224,0.001228,0.05066,0.09619,0,0.00033,0.03986,7.153e-05,14.62,0.05987,0,1,0
291600000000,291900000000,3990224092,0,3602157820,0.0004358,0.09619,0.1224,0.001228,0.05066,0.09619,2.861e-06,0.00033,0.001127,0.0004997,14.62,0.06046,0,1,0
291900000000,292200000000,3990224092,0,3602157820,0.000452,0.09619,0.1224,0.001247,0.05066,0.09619,0,0.00033,0.001371,0,15.29,0.06457,0,1,0
292200000000,292500000000,3990224092,0,3602157820,0.0004406,0.09619,0.1224,0.001247,0.05066,0.09619,2.861e-06,0.00033,0.001099,0.0005713,7.955,0.03153,0,1,0
292500000000,292800000000,3990224092,0,3602157820,0.0004358,0.09619,0.1224,0.001247,0.05066,0.09619,0,0.00033,0.005722,7.153e-05,15.68,0.06636,0,1,0
292800000000,293100000000,3990224092,0,3602157820,0.000452,0.09619,0.1224,0.001247,0.05066,0.09619,9.537e-07,0.00033,0.001677,7.153e-05,15.2,0.0634,0,1,0
293100000000,293400000000,3990224092,0,3602157820,0.0004749,0.09619,0.1224,0.001247,0.05066,0.09619,0,0.00033,0.004318,7.153e-05,15.3,0.06433,0,1,0
293400000000,293700000000,3990224092,0,3602157820,0.0004454,0.09619,0.1224,0.00127,0.05072,0.09619,1.907e-06,0.00033,0.001675,0.0006428,14.86,0.06208,0,1,0
293700000000,294000000000,3990224092,0,3602157820,0.0004425,0.09619,0.1224,0.001272,0.05072,0.09619,0,0.00033,0.001034,7.153e-05,15.48,0.06497,0,1,0
294000000000,294300000000,3990224092,0,3602157820,0.0004272,0.09619,0.1224,0.001272,0.05072,0.09619,9.537e-07,0.00033,0.001099,7.153e-05,15.1,0.06292,0,1,0
294300000000,294600000000,3990224092,0,3602157820,0.0004406,0.09619,0.1224,0.001272,0.05072,0.09619,0,0.00033,0.001032,7.153e-05,14.88,0.06214,0,1,0
294600000000,294900000000,3990224092,0,3602157820,0.0004606,0.09619,0.1224,0.001274,0.05072,0.09619,3.815e-06,0.00033,0.001375,0.0009289,11.63,0.04815,0,1,0
294900000000,295200000000,3990224092,0,3602157820,0.0004454,0.09619,0.1224,0.001295,0.05072,0.09619,0,0.00033,0.001257,7.153e-05,12.78,0.05276,0,1,0
295200000000,295500000000,3990224092,0,3602157820,0.0004454,0.09619,0.1224,0.001295,0.05072,0.09619,0,0.00033,0.001066,7.153e-05,15.31,0.06448,0,1,0
295500000000,295800000000,3990224092,0,3602157820,0.0004253,0.09619,0.1224,0.001293,0.05072,0.09619,0,0.00033,0.001129,7.153e-05,14.42,0.05902,0,1,0
295800000000,296100000000,3990224092,0,3602157820,0.0004349,0.09619,0.1224,0.001291,0.05072,0.09619,0,0.00033,0.001631,7.153e-05,14.95,0.06219,0,1,0
296100000000,296400000000,3990224092,0,3602157820,0.0004444,0.09619,0.1224,0.001293,0.05072,0.09619,0,0.00033,0.001568,7.153e-05,14.92,0.06202,0,1,0
296400000000,296700000000,3990224092,0,3602157820,0.0004368,0.09619,0.1224,0.001314,0.05078,0.09619,1.907e-06,0.00033,0.001066,0.0004997,14.85,0.06099,0,1,0
296700000000,297000000000,3990224092,0,3602157820,0.0004768,0.09619,0.1224,0.001314,0.05078,0.09619,0,0.00033,0.001225,7.153e-05,14.36,0.06169,0,1,0
297000000000,297300000000,3990224092,0,3602157820,0.0004787,0.09619,0.1224,0.001314,0.05078,0.09619,9.537e-07,0.00033,0.001808,7.153e-05,15.88,0.07053,0,1,0
297300000000,297600000000,3990224092,0,3602157820,0.0004568,0.09619,0.1224,0.001314,0.05078,0.09619,0,0.00033,0.001076,7.153e-05,15.81,0.06926,0,1,0
297600000000,297900000000,3990224092,0,3602157820,0.0004539,0.09619,0.1224,0.001314,0.05078,0.09619,9.537e-07,0.00033,0.001249,7.153e-05,15.93,0.06939,0,1,0
297900000000,298200000000,3990224092,0,3602157820,0.0004578,0.09619,0.1224,0.001335,0.05078,0.09619,9.537e-06,0.00033,0.001276,0.002857,15.81,0.06853,0,1,0
298200000000,298500000000,3990224092,0,3602157820,0.0004549,0.09619,0.1224,0.001337,0.05078,0.09619,9.537e-07,0.00033,0.001051,7.153e-05,15.84,0.0667,0,1,0
298500000000,298800000000,3990224092,0,3602157820,0.0004559,0.09619,0.1224,0.001337,0.05078,0.09619,0,0.00033,0.001221,0,16.23,0.06914,0,1,0
298800000000,299100000000,3990224092,0,3602157820,0.0004749,0.09619,0.1224,0.001337,0.05078,0.09619,9.537e-07,0.00033,0.001078,7.153e-05,15.52,0.06572,0,1,0
299100000000,299400000000,3990224092,0,3602157820,0.0004444,0.09619,0.1224,0.001333,0.05078,0.09619,0,0.00033,0.001219,7.153e-05,14.18,0.05797,0,1,0
299400000000,299700000000,3990224092,0,3602157820,0.0004635,0.09619,0.1224,0.001341,0.05078,0.09631,3.815e-06,0.00033,0.001099,0.0006428,15.89,0.06561,0,1,0
299700000000,300000000000,3990224092,0,3602157820,0.0004559,0.09619,0.1224,0.001358,0.05078,0.09619,0,0.00033,0.001019,0,15.99,0.06651,0,1,0
