5700000000,6000000000,3995607351,0,70169725,0.08228,0.03064,0.04077,0.001043,0.001764,0.03091,4.005e-05,0.0001221,0.1763,0.00293,2.592,0.006355,0,1,0
6300000000,6600000000,3995607351,0,70169725,0.08411,0.03091,0.04138,0.001017,0.00174,0.03198,3.433e-05,0.000123,0.1685,0.002857,2.548,0.00627,0,1,0
6900000000,7200000000,3995607351,0,70169725,0.08557,0.03067,0.04077,0.0009823,0.001705,0.03085,1.907e-05,0.000124,0.1692,0.0007858,2.592,0.006517,0,1,0
8100000000,8400000000,3995607351,0,70169725,0.08655,0.03085,0.04077,0.000905,0.001627,0.03113,2.766e-05,0.0001259,0.1658,0.001572,2.585,0.006423,0,1,0
8400000000,8700000000,3995607351,0,70169725,0.08508,0.03088,0.04132,0.001028,0.001749,0.03143,2.766e-05,0.0001268,0.2432,0.001858,2.549,0.006287,0,1,0
8700000000,9000000000,3995607351,0,70169725,0.08472,0.03091,0.04126,0.0009184,0.00164,0.03137,4.578e-05,0.0001278,0.2161,0.002857,2.555,0.00635,0,1,0
9000000000,9300000000,3995607351,0,70169725,0.08972,0.03455,0.04517,0.005783,0.006599,0.03943,0.003582,0.0001373,0.1704,0.04443,2.49,0.006014,0,1,0
10500000000,10800000000,3995607351,0,70169725,0.08447,0.0321,0.04266,0.01006,0.01091,0.03241,0.001387,0.0001554,0.1631,0.01929,2.588,0.006388,0,1,0
10800000000,11100000000,3995607351,0,70169725,0.08337,0.03198,0.0426,0.01109,0.01195,0.03229,0.001642,0.0001602,0.1531,0.01956,2.552,0.006411,0,1,0
11400000000,11700000000,3995607351,0,70169725,0.08948,0.03149,0.04266,0.009689,0.01053,0.03186,3.719e-05,0.0001631,0.179,0.002785,2.525,0.006174,0,1,0
12300000000,12600000000,3995607351,0,70169725,0.09973,0.03729,0.04767,0.001478,0.002209,0.04602,0.0004911,0.0001345,0.219,0.03778,2.186,0.004982,0,1,0
12600000000,12900000000,3995607351,0,70169725,0.09631,0.03271,0.04364,0.0003986,0.001129,0.034,3.433e-05,0.0001345,0.1646,0.002644,2.736,0.006527,0,1,0
12900000000,13200000000,3995607351,0,70169725,0.09351,0.03168,0.04272,0.0003424,0.001072,0.03204,2.766e-05,0.0001354,0.1702,0.001499,2.721,0.006616,0,1,0
13200000000,13500000000,3995607351,0,70169725,0.09546,0.03174,0.04266,0.000329,0.001055,0.03204,3.147e-05,0.0001364,0.1807,0.00293,2.689,0.006605,0,1,0
13500000000,13800000000,3995607351,0,70169725,0.09021,0.03174,0.04272,0.0003586,0.001083,0.0321,4.101e-05,0.0001364,0.1885,0.004288,2.608,0.006367,0,1,0
13800000000,14100000000,3995607351,0,70169725,0.0863,0.03168,0.04272,0.0004377,0.00116,0.03204,2.384e-05,0.0001364,0.1531,0.002144,2.643,0.006524,0,1,0
14400000000,14700000000,3995607351,0,70169725,0.08643,0.03149,0.04266,0.0005322,0.001255,0.0318,2.384e-05,0.0001364,0.155,0.001499,2.72,0.006631,0,1,0
14700000000,15000000000,3995607351,0,70169725,0.08398,0.03162,0.04272,0.0002699,0.0009861,0.0321,2.575e-05,0.0001364,0.1831,0.001215,2.656,0.006384,0,1,0
15000000000,15300000000,3995607351,0,70169725,0.09253,0.03156,0.04266,0.0004692,0.001186,0.03174,2.098e-05,0.0001364,0.1765,0.001572,2.644,0.006376,0,1,0
15300000000,15600000000,3995607351,0,70169725,0.08826,0.03186,0.04272,0.0003586,0.001074,0.03247,2.193e-05,0.0001364,0.2261,0.0007858,2.547,0.006026,0,1,0
15600000000,15900000000,3995607351,0,70169725,0.08521,0.03156,0.04272,0.0004301,0.001146,0.0318,2.67e-05,0.0001364,0.179,0.001286,2.653,0.006412,0,1,0
15900000000,16200000000,3995607351,0,70169725,0.08618,0.03156,0.04272,0.0004053,0.001122,0.03174,2.766e-05,0.0001364,0.1853,0.002857,2.699,0.006632,0,1,0
16200000000,16500000000,3995607351,0,70169725,0.08032,0.03149,0.04272,0.0003567,0.001068,0.03186,2.289e-05,0.0001364,0.1838,0.001215,2.634,0.006477,0,1,0
16800000000,17100000000,3995607351,0,70169725,0.08386,0.03156,0.04272,0.0002861,0.0009956,0.03174,1.812e-05,0.0001364,0.1633,0.001072,2.617,0.00629,0,1,0
17100000000,17400000000,3995607351,0,70169725,0.08044,0.03149,0.04272,0.0004711,0.001179,0.03174,2.289e-05,0.0001364,0.1704,0.001358,2.657,0.006451,0,1,0
18000000000,18300000000,3995607351,0,70169725,0.07776,0.03156,0.04272,0.0005484,0.001251,0.03192,1.717e-05,0.0001364,0.1699,0.0009995,2.69,0.006589,0,1,0
18300000000,18600000000,3995607351,0,70169725,0.0752,0.03149,0.04272,0.000391,0.001093,0.03162,3.338e-05,0.0001364,0.1504,0.002785,2.642,0.006426,0,1,0
18600000000,18900000000,3995607351,0,70169725,0.08533,0.03174,0.04272,0.0004263,0.001127,0.03229,3.433e-05,0.0001364,0.1821,0.002857,2.634,0.006517,0,1,0
18900000000,19200000000,3995607351,0,70169725,0.08142,0.03168,0.04272,0.0003662,0.001068,0.03198,1.907e-05,0.0001364,0.1667,0.0007858,2.687,0.0065,0,1,0
19200000000,19500000000,3995607351,0,70169725,0.07983,0.03162,0.04272,0.000371,0.001072,0.0318,0.000102,0.0001364,0.1768,0.01471,2.607,0.00636,0,1,0
19800000000,20100000000,3995607351,0,70169725,0.08154,0.03345,0.04462,0.01134,0.01215,0.03522,0.0006342,0.000164,0.1768,0.01271,2.422,0.005775,0,1,0
20100000000,20400000000,3995607351,0,70169725,0.07935,0.0329,0.04462,0.01154,0.01236,0.03326,0.0006504,0.0001593,0.1541,0.01314,2.669,0.006717,0,1,0
20400000000,20700000000,3995607351,0,70169725,0.08936,0.03284,0.04456,0.01221,0.01303,0.03314,0.0007696,0.000164,0.1624,0.01129,2.647,0.006513,0,1,0
21000000000,21300000000,3995607351,0,70169725,0.0802,0.03278,0.04456,0.01225,0.01306,0.03302,0.001205,0.0001621,0.1521,0.01221,2.791,0.006952,0,1,0
21300000000,21600000000,3995607351,0,70169725,0.0824,0.03296,0.04456,0.01208,0.01289,0.03339,0.001377,0.0001659,0.176,0.01321,2.741,0.006787,0,1,0
21900000000,22200000000,3995607351,0,70169725,0.0791,0.03223,0.04266,0.004379,0.005196,0.03259,3.242e-05,0.0001688,0.1833,0.003216,2.712,0.006718,0,1,0
22800000000,23100000000,3995607351,0,70169725,0.08057,0.03589,0.04596,0.001003,0.001711,0.04486,2.098e-05,0.0001383,0.1729,0.001143,2.323,0.005458,0,1,0
23100000000,23400000000,3995607351,0,70169725,0.08118,0.03259,0.04327,0.0003347,0.001041,0.03339,2.861e-05,0.0001373,0.1909,0.003571,2.63,0.00635,0,1,0
23400000000,23700000000,3995607351,0,70169725,0.08179,0.03229,0.04272,0.0002604,0.000967,0.03247,2.003e-05,0.0001383,0.1553,0.0009289,2.574,0.006281,0,1,0
24300000000,24600000000,3995607351,0,70169725,0.08093,0.03223,0.04272,0.0003777,0.001085,0.03247,2.098e-05,0.0001383,0.1702,0.001072,2.619,0.006338,0,1,0
24900000000,25200000000,3995607351,0,70169725,0.08142,0.03229,0.04272,0.0002823,0.000988,0.03247,2.193e-05,0.0001383,0.1619,0.001072,2.601,0.006288,0,1,0
25200000000,25500000000,3995607351,0,70169725,0.08411,0.03235,0.04272,0.0004654,0.001171,0.03253,2.861e-05,0.0001373,0.188,0.002998,2.62,0.006367,0,1,0
25500000000,25800000000,3995607351,0,70169725,0.08191,0.03229,0.04272,0.000351,0.001057,0.03259,1.431e-05,0.0001383,0.1694,0.0007858,2.588,0.006305,0,1,0
25800000000,26100000000,3995607351,0,70169725,0.09692,0.03241,0.04272,0.0003872,0.001091,0.03265,2.098e-05,0.0001383,0.1746,0.0008574,2.688,0.006525,0,1,0
26400000000,26700000000,3995607351,0,70169725,0.08777,0.03235,0.04272,0.0003328,0.001038,0.03278,2.289e-05,0.0001383,0.208,0.001072,2.746,0.006548,0,1,0
27300000000,27600000000,3995607351,0,70169725,0.08264,0.03235,0.04272,0.0004387,0.001143,0.03278,5.722e-05,0.0001383,0.1807,0.00293,2.724,0.006656,0,1,0
27900000000,28200000000,3995607351,0,70169725,0.08704,0.03229,0.04272,0.000371,0.001074,0.03247,3.052e-05,0.0001383,0.1992,0.001286,2.729,0.006725,0,1,0
28200000000,28500000000,3995607351,0,70169725,0.0813,0.03229,0.04272,0.0003262,0.00103,0.03247,3.242e-05,0.0001373,0.1636,0.002998,2.674,0.006515,0,1,0
28500000000,28800000000,3995607351,0,70169725,0.08789,0.03241,0.04272,0.0002909,0.0009956,0.03278,3.052e-05,0.0001383,0.2078,0.005714,2.629,0.006283,0,1,0
29700000000,30000000000,3995607351,0,70169725,0.08423,0.03235,0.04272,0.000289,0.0009918,0.03247,4.482e-05,0.0001373,0.1606,0.002857,2.675,0.006435,0,1,0
30000000000,30300000000,3995607351,0,70169725,0.08484,0.03235,0.04272,0.0003309,0.001036,0.03247,2.766e-05,0.0001383,0.1621,0.00293,2.641,0.006392,0,1,0
30300000000,30600000000,3995607351,0,70169725,0.08936,0.03241,0.04272,0.0004816,0.001186,0.03259,2.766e-05,0.0001373,0.1655,0.002571,2.646,0.006302,0,1,0
30600000000,30900000000,3995607351,0,70169725,0.08313,0.03241,0.04272,0.0002604,0.0009642,0.03253,1.717e-05,0.0001383,0.1868,0.0008574,2.58,0.006195,0,1,0
30900000000,31200000000,3995607351,0,70169725,0.08521,0.03241,0.04272,0.000452,0.001156,0.03271,2.098e-05,0.0001383,0.1577,0.001785,2.654,0.006381,0,1,0
31200000000,31500000000,3995607351,0,70169725,0.0874,0.03241,0.04272,0.0002174,0.0009222,0.03253,2.384e-05,0.0001373,0.1838,0.0009995,2.654,0.006451,0,1,0
31500000000,31800000000,3995607351,0,70169725,0.08679,0.03241,0.04272,0.0003881,0.001091,0.03253,5.627e-05,0.0001383,0.1743,0.00293,2.594,0.006295,0,1,0
31800000000,32100000000,3995607351,0,70169725,0.08557,0.03247,0.04272,0.0003033,0.001007,0.03259,2.956e-05,0.0001373,0.1511,0.002499,2.619,0.006384,0,1,0
32100000000,32400000000,3995607351,0,70169725,0.08582,0.03241,0.04272,0.0003119,0.001017,0.03265,2.384e-05,0.0001383,0.1733,0.0009995,2.661,0.006528,0,1,0
32400000000,32700000000,3995607351,0,70169725,0.08508,0.03253,0.04315,0.0005188,0.001223,0.0332,4.101e-05,0.0001373,0.1768,0.002785,2.746,0.006712,0,1,0
33300000000,33600000000,3995607351,0,70169725,0.08911,0.03253,0.04272,0.0003939,0.001099,0.03265,2.193e-05,0.0001383,0.1797,0.0009995,2.759,0.006689,0,1,0
33900000000,34200000000,3995607351,0,70169725,0.08362,0.03259,0.04272,0.0002661,0.0009708,0.03302,2.193e-05,0.0001373,0.1553,0.001286,2.645,0.006481,0,1,0
34200000000,34500000000,3995607351,0,70169725,0.08533,0.03253,0.04272,0.00037,0.001074,0.03284,1.717e-05,0.0001383,0.1655,0.0008574,2.6,0.006277,0,1,0
35100000000,35400000000,3995607351,0,70169725,0.09094,0.03253,0.04272,0.0004549,0.00116,0.03284,2.861e-05,0.0001383,0.1904,0.001215,2.815,0.006649,0,1,0
35400000000,35700000000,3995607351,0,70169725,0.08191,0.03253,0.04272,0.0002794,0.0009842,0.03278,2.098e-05,0.0001383,0.1548,0.001572,2.668,0.006456,0,1,0
36900000000,37200000000,3995607351,0,70169725,0.08154,0.03278,0.04272,0.0003815,0.001085,0.03314,2.384e-05,0.0001383,0.2175,0.001715,2.675,0.006495,0,1,0
37500000000,37800000000,3995607351,0,70169725,0.08215,0.03265,0.04272,0.0007219,0.001427,0.03284,2.098e-05,0.0001383,0.2454,0.001572,2.714,0.006765,0,1,0
37800000000,38100000000,3995607351,0,70169725,0.08411,0.0332,0.04449,0.0008392,0.001537,0.03418,7.153e-05,0.0001383,0.2236,0.005287,2.616,0.006428,0,1,0
38100000000,38400000000,3995607351,0,70169725,0.07959,0.03278,0.04285,0.0006104,0.001308,0.03302,3.242e-05,0.0001383,0.2239,0.002571,2.657,0.006452,0,1,0
38400000000,38700000000,3995607351,0,70169725,0.08972,0.0329,0.04272,0.000824,0.001524,0.03314,2.384e-05,0.0001383,0.2114,0.002144,2.532,0.006101,0,1,0
38700000000,39000000000,3995607351,0,70169725,0.09155,0.03296,0.0434,0.0005875,0.001287,0.03339,1.717e-05,0.0001373,0.1975,0.0007858,2.808,0.006799,0,1,0
39300000000,39600000000,3995607351,0,70169725,0.09326,0.03296,0.04279,0.0003452,0.001045,0.03339,2.861e-05,0.0001373,0.1968,0.001572,2.65,0.006275,0,1,0
39600000000,39900000000,3995607351,0,70169725,0.08374,0.03296,0.0434,0.00035,0.001049,0.03339,2.67e-05,0.0001383,0.167,0.00293,2.593,0.006274,0,1,0
39900000000,40200000000,3995607351,0,70169725,0.08374,0.03326,0.04425,0.000452,0.00115,0.03467,2.48e-05,0.0001383,0.1724,0.001358,2.551,0.006027,0,1,0
40200000000,40500000000,3995607351,0,70169725,0.08484,0.03314,0.04431,0.0002842,0.0009823,0.03381,2.48e-05,0.0001383,0.2136,0.001072,2.597,0.00631,0,1,0
40500000000,40800000000,3995607351,0,70169725,0.08423,0.03296,0.04388,0.0003996,0.001097,0.03326,2.861e-05,0.0001383,0.1685,0.003784,2.702,0.006452,0,1,0
51300000000,51600000000,3995607351,0,70169725,0.08777,0.03345,0.04468,0.0007858,0.001488,0.03387,3.052e-05,0.0001383,0.165,0.002857,2.693,0.006544,0,1,0
51600000000,51900000000,3995607351,0,70169725,0.08411,0.03345,0.04468,0.0009937,0.001696,0.03363,2.098e-05,0.0001383,0.1558,0.0009289,2.675,0.006515,0,1,0
51900000000,52200000000,3995607351,0,70169725,0.08496,0.03351,0.04468,0.0009012,0.001602,0.03406,2.003e-05,0.0001373,0.1458,0.0009289,2.697,0.006657,0,1,0
52200000000,52500000000,3995607351,0,70169725,0.08496,0.03363,0.04468,0.0009432,0.001646,0.034,3.147e-05,0.0001383,0.2354,0.002998,2.678,0.006496,0,1,0
52500000000,52800000000,3995607351,0,70169725,0.08215,0.03339,0.04468,0.001152,0.001854,0.03369,1.907e-05,0.0001373,0.1577,0.0007858,2.769,0.006718,0,1,0
53400000000,53700000000,3995607351,0,70169725,0.08398,0.03351,0.04468,0.000865,0.001568,0.03375,3.147e-05,0.0001383,0.1501,0.001785,2.819,0.006907,0,1,0
53700000000,54000000000,3995607351,0,70169725,0.08838,0.03369,0.04468,0.001055,0.001757,0.03394,3.719e-05,0.0001383,0.208,0.002857,2.758,0.006768,0,1,0
54600000000,54900000000,3995607351,0,70169725,0.0946,0.03394,0.04468,0.0004158,0.001118,0.03479,2.861e-05,0.0001383,0.1848,0.002071,2.759,0.006734,0,1,0
55200000000,55500000000,3995607351,0,70169725,0.0874,0.03363,0.04468,0.0006819,0.001385,0.03387,2.861e-05,0.0001383,0.1636,0.001499,2.783,0.006802,0,1,0
55500000000,55800000000,3995607351,0,70169725,0.08643,0.03363,0.04468,0.0005989,0.001301,0.03406,1.907e-05,0.0001383,0.1794,0.0009289,2.734,0.00669,0,1,0
56700000000,57000000000,3995607351,0,70169725,0.08972,0.03375,0.04468,0.0005665,0.001268,0.03394,2.384e-05,0.0001383,0.1675,0.001215,2.766,0.006688,0,1,0
57000000000,57300000000,3995607351,0,70169725,0.08789,0.03363,0.04468,0.0004377,0.001141,0.03381,2.575e-05,0.0001383,0.1592,0.001358,2.696,0.006505,0,1,0
57300000000,57600000000,3995607351,0,70169725,0.09045,0.03375,0.04468,0.0005531,0.001255,0.03406,2.48e-05,0.0001383,0.1877,0.001215,2.827,0.006677,0,1,0
57600000000,57900000000,3995607351,0,70169725,0.08167,0.03369,0.04468,0.0004177,0.00112,0.03418,3.052e-05,0.0001373,0.1667,0.00293,2.716,0.006591,0,1,0
57900000000,58200000000,3995607351,0,70169725,0.08398,0.03369,0.04468,0.0005159,0.001219,0.03418,2.575e-05,0.0001383,0.1831,0.001642,2.73,0.006569,0,1,0
58800000000,59100000000,3995607351,0,70169725,0.0863,0.03375,0.04468,0.001169,0.001873,0.03406,4.578e-05,0.0001373,0.2046,0.00293,2.795,0.006929,0,1,0
59100000000,59400000000,3995607351,0,70169725,0.08276,0.03375,0.04468,0.001387,0.00209,0.03394,2.193e-05,0.0001383,0.2004,0.001072,2.697,0.006656,0,1,0
60300000000,60600000000,3995607351,0,70169725,0.08459,0.03387,0.04468,0.0009165,0.001619,0.03424,2.956e-05,0.0001383,0.1655,0.001858,2.779,0.00676,0,1,0
60600000000,60900000000,3995607351,0,70169725,0.08276,0.03381,0.04468,0.001043,0.001745,0.0343,2.098e-05,0.0001383,0.1582,0.0009289,2.795,0.00684,0,1,0
71100000000,71400000000,3995607351,0,70169725,0.07935,0.0343,0.04462,0.0002747,0.0009146,0.03455,1.812e-05,0.0001478,0.1624,0.001143,2.792,0.006905,0,1,0
71400000000,71700000000,3995607351,0,70169725,0.07568,0.03424,0.04462,0.0003939,0.001034,0.03448,6.104e-05,0.0001469,0.1802,0.01292,2.778,0.00695,0,1,0
71700000000,72000000000,3995607351,0,70169725,0.08105,0.03558,0.04626,0.000206,0.0008497,0.03772,2.766e-05,0.0001469,0.1804,0.001429,2.786,0.006815,0,1,0
72000000000,72300000000,3995607351,0,70169725,0.07837,0.03473,0.04559,0.000371,0.001013,0.03571,2.289e-05,0.0001478,0.1638,0.002144,2.792,0.006843,0,1,0
72900000000,73200000000,3995607351,0,70169725,0.08118,0.03442,0.04462,0.0002832,0.0009241,0.03461,2.003e-05,0.0001469,0.2109,0.001286,2.732,0.006684,0,1,0
73200000000,73500000000,3995607351,0,70169725,0.07922,0.03448,0.04462,0.000268,0.0009089,0.03485,2.575e-05,0.0001478,0.1853,0.002571,2.833,0.00701,0,1,0
73500000000,73800000000,3995607351,0,70169725,0.0802,0.03448,0.04462,0.0004473,0.001089,0.03485,6.866e-05,0.0001469,0.1624,0.01215,2.785,0.006926,0,1,0
74100000000,74400000000,3995607351,0,70169725,0.078,0.0354,0.04614,0.0005693,0.001328,0.03674,2.67e-05,0.000144,0.1584,0.001429,2.87,0.006985,0,1,0
74400000000,74700000000,3995607351,0,70169725,0.08435,0.03448,0.04462,0.0005789,0.001337,0.03473,3.433e-05,0.0001431,0.207,0.003502,2.828,0.006898,0,1,0
75000000000,75300000000,3995607351,0,70169725,0.07959,0.03455,0.04462,0.0007057,0.001465,0.03491,3.147e-05,0.0001431,0.1575,0.002644,2.839,0.007058,0,1,0
75300000000,75600000000,3995607351,0,70169725,0.08447,0.03467,0.04462,0.0005207,0.00128,0.0351,4.482e-05,0.000144,0.1587,0.003643,2.835,0.006995,0,1,0
76500000000,76800000000,3995607351,0,70169725,0.123,0.03546,0.04626,0.0004425,0.001202,0.03583,3.719e-05,0.0001431,0.2388,0.002144,2.709,0.00617,0,1,0
76800000000,77100000000,3995607351,0,70169725,0.1292,0.03583,0.04706,0.0005417,0.001299,0.03796,3.624e-05,0.000144,0.239,0.002499,2.717,0.00618,0,1,0
77100000000,77400000000,3995607351,0,70169725,0.1089,0.03656,0.0473,0.0006742,0.001429,0.03735,3.052e-05,0.0001431,0.2402,0.002857,2.698,0.006224,0,1,0
77400000000,77700000000,3995607351,0,70169725,0.1202,0.03748,0.04852,0.000886,0.001642,0.0379,7.248e-05,0.000144,0.2661,0.009293,2.783,0.006467,0,1,0
77700000000,78000000000,3995607351,0,70169725,0.1239,0.03772,0.04852,0.0007401,0.001492,0.03796,4.959e-05,0.0001431,0.2458,0.002857,2.856,0.006622,0,1,0
78000000000,78300000000,3995607351,0,70169725,0.1282,0.03802,0.04852,0.0007887,0.001539,0.03851,9.823e-05,0.000144,0.2407,0.01828,2.743,0.006283,0,1,0
78300000000,78600000000,3995607351,0,70169725,0.123,0.0379,0.04852,0.0009365,0.001686,0.03815,2.098e-05,0.0001431,0.2434,0.0008574,2.822,0.006486,0,1,0
78600000000,78900000000,3995607351,0,70169725,0.1183,0.03784,0.04852,0.0007496,0.001501,0.03864,2.575e-05,0.000144,0.2207,0.001715,2.835,0.00663,0,1,0
78900000000,79200000000,3995607351,0,70169725,0.1141,0.0376,0.04852,0.0009403,0.001692,0.03796,4.101e-05,0.0001431,0.196,0.002499,2.877,0.006637,0,1,0
79200000000,79500000000,3995607351,0,70169725,0.1146,0.03748,0.04852,0.000721,0.001472,0.03784,2.67e-05,0.000144,0.2053,0.002144,2.923,0.006724,0,1,0
79500000000,79800000000,3995607351,0,70169725,0.1133,0.03723,0.04852,0.0008764,0.001629,0.0376,2.384e-05,0.0001431,0.2288,0.001286,2.78,0.006427,0,1,0
79800000000,80100000000,3995607351,0,70169725,0.1211,0.03772,0.04852,0.0006542,0.001406,0.03821,2.193e-05,0.0001431,0.2153,0.001715,2.734,0.006329,0,1,0
80100000000,80400000000,3995607351,0,70169725,0.1158,0.03735,0.04852,0.0008659,0.001617,0.03766,2.67e-05,0.000144,0.2441,0.001358,2.841,0.006561,0,1,0
80400000000,80700000000,3995607351,0,70169725,0.1123,0.03711,0.04852,0.0003262,0.001078,0.03729,1.907e-05,0.0001431,0.2397,0.001358,2.809,0.006489,0,1,0
80700000000,81000000000,3995607351,0,70169725,0.1144,0.03705,0.04852,0.0004492,0.0012,0.03729,2.289e-05,0.000144,0.2234,0.001143,2.726,0.00623,0,1,0
85800000000,86100000000,3995607351,0,70169725,0.08032,0.0365,0.04816,0.01151,0.01224,0.0368,0.001333,0.0001802,0.1814,0.01663,2.599,0.006194,0,1,0
86100000000,86400000000,3995607351,0,70169725,0.08545,0.03662,0.04797,0.009354,0.01009,0.03693,0.001331,0.0001774,0.2202,0.01172,2.553,0.005966,0,1,0
86400000000,86700000000,3995607351,0,70169725,0.08459,0.03656,0.04852,0.01222,0.01295,0.0368,0.001356,0.0001822,0.1714,0.01129,2.625,0.006277,0,1,0
86700000000,87000000000,3995607351,0,70169725,0.08252,0.0368,0.04846,0.01225,0.01299,0.03741,0.001585,0.000185,0.1807,0.01407,2.583,0.006263,0,1,0
87000000000,87300000000,3995607351,0,70169725,0.09668,0.03687,0.04846,0.01216,0.01289,0.03723,0.001717,0.0001879,0.1907,0.02335,2.607,0.006359,0,1,0
87300000000,87600000000,3995607351,0,70169725,0.09729,0.03687,0.04846,0.01213,0.01286,0.03748,0.001364,0.0001907,0.2017,0.01292,2.574,0.006186,0,1,0
87600000000,87900000000,3995607351,0,70169725,0.09045,0.03583,0.04663,0.01036,0.01108,0.0365,1.907e-05,0.0001917,0.1868,0.0009289,2.551,0.006052,0,1,0
87900000000,88200000000,3995607351,0,70169725,0.08838,0.03589,0.04657,0.009888,0.0106,0.03601,2.384e-05,0.0001917,0.1724,0.0009995,2.539,0.006057,0,1,0
88200000000,88500000000,3995607351,0,70169725,0.1049,0.03882,0.04767,0.006142,0.006844,0.05261,0.004753,0.000185,0.4346,0.05591,2.545,0.006173,0,1,0
88500000000,88800000000,3995607351,0,70169725,0.09814,0.04504,0.05048,0.003624,0.003975,0.05035,0.0008259,0.0001516,0.2344,0.04584,2.515,0.005953,0,1,0
88800000000,89100000000,3995607351,0,70169725,0.1106,0.03943,0.05005,0.003036,0.003384,0.04138,3.147e-05,0.0001526,1.225,0.005569,2.736,0.006506,0,1,0
89100000000,89400000000,3995607351,0,70169725,0.1023,0.03668,0.0481,0.002869,0.003216,0.03754,7.248e-05,0.0001526,0.21,0.0065,2.7,0.006489,0,1,0
89400000000,89700000000,3995607351,0,70169725,0.1046,0.03601,0.04688,0.002575,0.002922,0.03906,5.817e-05,0.0001526,0.1934,0.004501,2.681,0.006405,0,1,0
89700000000,90000000000,3995607351,0,70169725,0.07874,0.03741,0.04883,0.002724,0.003071,0.039,2.289e-05,0.0001526,0.166,0.001143,2.665,0.006606,0,1,0
90000000000,90300000000,3995607351,0,70169725,0.07336,0.03613,0.04675,0.00272,0.003063,0.03638,2.861e-05,0.0001526,0.1636,0.001429,2.733,0.006946,0,1,0
90300000000,90600000000,3995607351,0,70169725,0.07373,0.03619,0.04663,0.001041,0.001385,0.03668,2.575e-05,0.0001526,0.1731,0.001499,2.749,0.007031,0,1,0
101100000000,101400000000,3995607351,0,70169725,0.09167,0.03699,0.04852,0.002979,0.003155,0.0376,1.812e-05,0.0001469,0.1892,0.0009995,2.735,0.006855,0,1,0
101400000000,101700000000,3995607351,0,70169725,0.09595,0.03699,0.04852,0.002911,0.003086,0.03748,3.242e-05,0.0001469,0.1975,0.001858,2.659,0.006574,0,1,0
101700000000,102000000000,3995607351,0,70169725,0.08618,0.03674,0.04852,0.002926,0.003101,0.03711,2.098e-05,0.0001469,0.1709,0.001143,2.742,0.006865,0,1,0
102000000000,102300000000,3995607351,0,70169725,0.08765,0.03668,0.04852,0.002804,0.002979,0.03693,3.338e-05,0.0001469,0.2085,0.002357,2.692,0.006685,0,1,0
102300000000,102600000000,3995607351,0,70169725,0.08923,0.03674,0.04852,0.002831,0.003006,0.03699,3.624e-05,0.0001469,0.1604,0.00293,2.753,0.006791,0,1,0
102600000000,102900000000,3995607351,0,70169725,0.09045,0.03674,0.04852,0.00304,0.003216,0.03717,3.815e-05,0.0001469,0.2283,0.003571,2.788,0.007014,0,1,0
102900000000,103200000000,3995607351,0,70169725,0.0885,0.0368,0.04852,0.003258,0.003433,0.03711,2.289e-05,0.0001469,0.1973,0.0009289,2.683,0.006712,0,1,0
103200000000,103500000000,3995607351,0,70169725,0.0929,0.03674,0.04852,0.003479,0.003654,0.03693,1.907e-05,0.0001469,0.2583,0.001429,2.747,0.00686,0,1,0
103500000000,103800000000,3995607351,0,70169725,0.08801,0.03662,0.04852,0.0008087,0.0009842,0.0368,3.052e-05,0.0001469,0.199,0.001858,2.628,0.006576,0,1,0
103800000000,104100000000,3995607351,0,70169725,0.09045,0.03668,0.04852,0.0005522,0.0007286,0.0368,5.531e-05,0.0001469,0.2185,0.006569,2.668,0.006668,0,1,0
104100000000,104400000000,3995607351,0,70169725,0.09399,0.03674,0.04852,0.0007744,0.0009518,0.03699,2.956e-05,0.0001469,0.2087,0.001429,2.674,0.006689,0,1,0
104400000000,104700000000,3995607351,0,70169725,0.09265,0.03668,0.04852,0.0007296,0.0009069,0.03693,3.052e-05,0.0001469,0.2214,0.001642,2.57,0.006332,0,1,0
104700000000,105000000000,3995607351,0,70169725,0.08813,0.03674,0.04852,0.0003176,0.000495,0.03699,2.766e-05,0.0001469,0.1921,0.001999,2.601,0.006449,0,1,0
105000000000,105300000000,3995607351,0,70169725,0.07886,0.03674,0.04852,0.0004835,0.0006618,0.03699,2.003e-05,0.0001469,0.2244,0.001785,2.572,0.006324,0,1,0
105300000000,105600000000,3995607351,0,70169725,0.07483,0.03668,0.04852,0.000474,0.0006523,0.0368,3.529e-05,0.0001469,0.1821,0.003071,2.543,0.006276,0,1,0
105900000000,106200000000,3995607351,0,70169725,0.06458,0.03949,0.0495,0.003391,0.003681,0.04364,0.003014,0.0001459,0.1975,0.05115,2.55,0.006467,0,1,0
106200000000,106500000000,3995607351,0,70169725,0.06641,0.03973,0.05048,0.01213,0.01251,0.0423,0.001432,0.0001621,0.1826,0.03143,2.51,0.006358,0,1,0
106500000000,106800000000,3995607351,0,70169725,0.06506,0.03839,0.05042,0.01299,0.01337,0.0387,0.000473,0.0001593,0.1506,0.01843,2.629,0.006808,0,1,0
106800000000,107100000000,3995607351,0,70169725,0.07654,0.03839,0.05042,0.01231,0.0127,0.03851,0.0006809,0.0001602,0.3301,0.01199,2.658,0.006887,0,1,0
107100000000,107400000000,3995607351,0,70169725,0.06909,0.03839,0.05042,0.01291,0.01329,0.03857,0.0007515,0.0001612,0.146,0.01508,2.661,0.006887,0,1,0
107400000000,107700000000,3995607351,0,70169725,0.06982,0.03851,0.05042,0.01289,0.01326,0.039,0.001236,0.0001593,0.2363,0.009506,2.628,0.006783,0,1,0
107700000000,108000000000,3995607351,0,70169725,0.07471,0.03845,0.05042,0.01289,0.01328,0.0387,0.001598,0.0001631,0.1694,0.01901,2.662,0.006849,0,1,0
108000000000,108300000000,3995607351,0,70169725,0.07605,0.0387,0.05029,0.01245,0.01283,0.03949,0.001286,0.000165,0.1729,0.011,2.516,0.006328,0,1,0
108300000000,108600000000,3995607351,0,70169725,0.07324,0.03735,0.04852,0.01077,0.01115,0.0379,3.433e-05,0.0001659,0.1746,0.00293,2.592,0.006592,0,1,0
108600000000,108900000000,3995607351,0,70169725,0.08386,0.03741,0.04846,0.0107,0.01108,0.0376,2.67e-05,0.0001659,0.2087,0.001928,2.602,0.006576,0,1,0
108900000000,109200000000,3995607351,0,70169725,0.08813,0.03918,0.04889,0.01012,0.01047,0.04962,0.003139,0.0001612,0.3472,0.0575,2.429,0.005988,0,1,0
109200000000,109500000000,3995607351,0,70169725,0.08093,0.04401,0.05048,0.006386,0.006584,0.0498,0.0007744,0.0001364,0.2004,0.03049,2.302,0.005519,0,1,0
109500000000,109800000000,3995607351,0,70169725,0.07935,0.03833,0.04956,0.00634,0.006538,0.04041,2.384e-05,0.0001364,0.2144,0.001286,2.619,0.006597,0,1,0
109800000000,110100000000,3995607351,0,70169725,0.07922,0.03613,0.047,0.006081,0.006279,0.03674,4.578e-05,0.0001364,0.1843,0.008286,2.658,0.006688,0,1,0
110100000000,110400000000,3995607351,0,70169725,0.07751,0.03601,0.04657,0.006218,0.006416,0.03619,2.384e-05,0.0001364,0.1658,0.001642,2.62,0.006627,0,1,0
110400000000,110700000000,3995607351,0,70169725,0.08191,0.03607,0.04657,0.005493,0.005684,0.03625,3.052e-05,0.0001364,0.2126,0.002357,2.468,0.006079,0,1,0
110700000000,111000000000,3995607351,0,70169725,0.0741,0.03607,0.04657,0.001364,0.00156,0.03619,1.717e-05,0.0001364,0.1733,0.0008574,2.566,0.006471,0,1,0
116100000000,116400000000,3995607351,0,70169725,0.0907,0.03638,0.04657,0.0005989,0.0007792,0.03668,4.196e-05,0.0001364,0.2185,0.003143,2.542,0.006227,0,1,0
116400000000,116700000000,3995607351,0,70169725,0.09338,0.03625,0.04657,0.0007162,0.0008974,0.03644,2.48e-05,0.0001364,0.1909,0.001358,2.569,0.006319,0,1,0
116700000000,117000000000,3995607351,0,70169725,0.08862,0.03625,0.04663,0.0005674,0.0007486,0.03644,3.433e-05,0.0001364,0.1978,0.00293,2.456,0.005856,0,1,0
117000000000,117300000000,3995607351,0,70169725,0.08984,0.03625,0.04657,0.0007677,0.0009489,0.03644,2.193e-05,0.0001364,0.2212,0.001072,2.517,0.006046,0,1,0
117300000000,117600000000,3995607351,0,70169725,0.09265,0.03632,0.04657,0.0006695,0.0008497,0.0365,3.338e-05,0.0001364,0.2078,0.002144,2.527,0.00606,0,1,0
117600000000,117900000000,3995607351,0,70169725,0.0979,0.03625,0.04657,0.0005198,0.0007,0.03644,2.861e-05,0.0001364,0.2429,0.001429,2.591,0.006217,0,1,0
117900000000,118200000000,3995607351,0,70169725,0.09131,0.03638,0.04657,0.000514,0.0006943,0.03674,2.48e-05,0.0001364,0.2339,0.001143,2.573,0.006243,0,1,0
118200000000,118500000000,3995607351,0,70169725,0.0863,0.03638,0.04657,0.0006733,0.0008545,0.03668,2.289e-05,0.0001364,0.2156,0.001143,2.59,0.006326,0,1,0
118500000000,118800000000,3995607351,0,70169725,0.08679,0.03632,0.04657,0.0008621,0.001043,0.0365,2.289e-05,0.0001364,0.2202,0.002213,2.568,0.006244,0,1,0
118800000000,119100000000,3995607351,0,70169725,0.09448,0.03656,0.04712,0.001026,0.001205,0.03705,2.67e-05,0.0001364,0.23,0.001429,2.585,0.006167,0,1,0
119100000000,119400000000,3995607351,0,70169725,0.09167,0.03656,0.04852,0.0009232,0.001104,0.03674,2.575e-05,0.0001364,0.2292,0.001215,2.555,0.006148,0,1,0
119400000000,119700000000,3995607351,0,70169725,0.09229,0.03668,0.04852,0.0006237,0.0008049,0.03693,3.433e-05,0.0001364,0.1895,0.00293,2.583,0.006275,0,1,0
119700000000,120000000000,3995607351,0,70169725,0.0885,0.03656,0.04852,0.0004988,0.000679,0.03693,2.48e-05,0.0001364,0.1895,0.001928,2.494,0.005964,0,1,0
120000000000,120300000000,3995607351,0,70169725,0.08716,0.0365,0.04852,0.0005407,0.0007219,0.03674,2.861e-05,0.0001364,0.2244,0.001322,2.597,0.006259,0,1,0
120300000000,120600000000,3995607351,0,70169725,0.09302,0.03656,0.04852,0.0003529,0.0005331,0.0368,5.15e-05,0.0001364,0.5781,0.002644,2.54,0.006097,0,1,0
120600000000,120900000000,3995607351,0,70169725,0.09656,0.0365,0.04852,0.0004597,0.0006399,0.0368,2.766e-05,0.0001364,0.2195,0.00293,2.601,0.00635,0,1,0
126000000000,126300000000,3995607351,0,70169725,0.09277,0.03687,0.04852,0.0004101,0.0005913,0.03705,2.003e-05,0.0001364,0.272,0.0009995,2.439,0.005764,0,1,0
126300000000,126600000000,3995607351,0,70169725,0.09473,0.03699,0.04852,0.0006104,0.0007915,0.03723,2.003e-05,0.0001364,0.1929,0.001143,2.476,0.005862,0,1,0
126600000000,126900000000,3995607351,0,70169725,0.08765,0.0368,0.04852,0.0008211,0.001003,0.03717,2.289e-05,0.0001364,0.2419,0.001715,2.508,0.006087,0,1,0
126900000000,127200000000,3995607351,0,70169725,0.08398,0.03674,0.04852,0.001022,0.001204,0.03735,2.193e-05,0.0001364,0.2209,0.001072,2.526,0.006189,0,1,0
127200000000,127500000000,3995607351,0,70169725,0.09509,0.03693,0.04852,0.001017,0.001198,0.03717,2.193e-05,0.0001364,0.2351,0.001358,2.493,0.005818,0,1,0
127500000000,127800000000,3995607351,0,70169725,0.09326,0.0376,0.04852,0.0009136,0.001095,0.03857,3.624e-05,0.0001364,0.2097,0.002857,2.411,0.005647,0,1,0
127800000000,128100000000,3995607351,0,70169725,0.09314,0.03741,0.04852,0.0006552,0.0008373,0.03796,3.529e-05,0.0001364,0.229,0.00293,2.545,0.005945,0,1,0
128100000000,128400000000,3995607351,0,70169725,0.08862,0.03711,0.04852,0.0008116,0.0009918,0.03754,2.766e-05,0.0001364,0.2019,0.001572,2.459,0.005858,0,1,0
128400000000,128700000000,3995607351,0,70169725,0.0907,0.03693,0.04852,0.0007286,0.0009098,0.03735,3.719e-05,0.0001364,0.2251,0.001785,2.467,0.005849,0,1,0
128700000000,129000000000,3995607351,0,70169725,0.09216,0.03711,0.04852,0.0006628,0.000844,0.0376,2.193e-05,0.0001364,0.2905,0.001429,2.539,0.00594,0,1,0
129000000000,129300000000,3995607351,0,70169725,0.08887,0.03693,0.04852,0.0008497,0.001032,0.03717,8.869e-05,0.0001364,0.2048,0.01436,2.482,0.005822,0,1,0
129300000000,129600000000,3995607351,0,70169725,0.09314,0.03699,0.04852,0.0003223,0.0005054,0.03723,3.052e-05,0.0001364,0.2378,0.002998,2.492,0.005918,0,1,0
129600000000,129900000000,3995607351,0,70169725,0.09412,0.03687,0.04852,0.0004873,0.0006704,0.03729,2.861e-05,0.0001364,0.2004,0.001572,2.58,0.006231,0,1,0
129900000000,130200000000,3995607351,0,70169725,0.08984,0.03693,0.04852,0.0006866,0.0008698,0.03729,3.052e-05,0.0001364,0.2031,0.001358,2.525,0.005933,0,1,0
130200000000,130500000000,3995607351,0,70169725,0.1067,0.03723,0.04846,0.0008888,0.001072,0.03754,2.48e-05,0.0001364,0.2173,0.001642,2.7,0.006406,0,1,0
130500000000,130800000000,3995607351,0,70169725,0.09363,0.03699,0.04852,0.000906,0.001089,0.03711,3.147e-05,0.0001364,0.1904,0.001358,2.641,0.006273,0,1,0
130800000000,131100000000,3995607351,0,70169725,0.0946,0.03699,0.04852,0.0003643,0.0005465,0.03723,2.48e-05,0.0001364,0.2141,0.00293,2.679,0.006506,0,1,0
141000000000,141300000000,3995607351,0,70169725,0.1085,0.03796,0.04852,0.002941,0.003124,0.03833,2.67e-05,0.0001364,0.2524,0.001499,2.654,0.006165,0,1,0
141300000000,141600000000,3995607351,0,70169725,0.1084,0.03809,0.04852,0.003159,0.003342,0.03857,2.67e-05,0.0001364,0.2273,0.0008574,2.629,0.006071,0,1,0
141600000000,141900000000,3995607351,0,70169725,0.1112,0.0379,0.04846,0.003288,0.003471,0.03821,3.052e-05,0.0001364,0.2354,0.002071,2.7,0.006315,0,1,0
141900000000,142200000000,3995607351,0,70169725,0.1066,0.0379,0.04852,0.002399,0.002583,0.03833,2.67e-05,0.0001364,0.2612,0.001143,2.688,0.006256,0,1,0
142200000000,142500000000,3995607351,0,70169725,0.1049,0.0379,0.04852,0.0009413,0.001123,0.03851,3.242e-05,0.0001364,0.2393,0.001572,2.721,0.006453,0,1,0
142500000000,142800000000,3995607351,0,70169725,0.1041,0.03802,0.04846,0.001055,0.001238,0.03851,2.193e-05,0.0001364,0.2852,0.0009995,2.722,0.006383,0,1,0
142800000000,143100000000,3995607351,0,70169725,0.1063,0.03772,0.04852,0.001245,0.001429,0.03839,2.861e-05,0.0001364,0.2896,0.001999,2.684,0.006335,0,1,0
143100000000,143400000000,3995607351,0,70169725,0.1116,0.03802,0.04852,0.0007038,0.0008869,0.03839,2.575e-05,0.0001364,0.2563,0.002857,2.692,0.006413,0,1,0
143400000000,143700000000,3995607351,0,70169725,0.1055,0.03778,0.04852,0.0005913,0.0007744,0.03809,2.766e-05,0.0001364,0.2573,0.002499,2.696,0.006476,0,1,0
143700000000,144000000000,3995607351,0,70169725,0.1063,0.03778,0.04846,0.0007982,0.0009823,0.03815,3.529e-05,0.0001364,0.2905,0.002716,2.758,0.006828,0,1,0
144000000000,144300000000,3995607351,0,70169725,0.1211,0.03815,0.04846,0.001009,0.001192,0.03857,3.624e-05,0.0001364,0.2812,0.00293,2.693,0.006408,0,1,0
144300000000,144600000000,3995607351,0,70169725,0.1235,0.03815,0.04852,0.0003481,0.0005312,0.03851,1.812e-05,0.0001364,0.2749,0.001429,2.642,0.006134,0,1,0
144600000000,144900000000,3995607351,0,70169725,0.1333,0.03864,0.05023,0.000474,0.0006571,0.03918,4.005e-05,0.0001364,0.2856,0.003143,2.68,0.006208,0,1,0
144900000000,145200000000,3995607351,0,70169725,0.124,0.03821,0.04895,0.0004215,0.0006046,0.03851,0.0001364,0.0001364,0.2544,0.008575,2.723,0.006396,0,1,0
145200000000,145500000000,3995607351,0,70169725,0.1246,0.03857,0.05023,0.0006857,0.0008793,0.03918,7.534e-05,0.0001364,0.2979,0.005859,2.698,0.006242,0,1,0
145500000000,145800000000,3995607351,0,70169725,0.1272,0.03815,0.04846,0.0009422,0.001125,0.03851,3.815e-05,0.0001364,0.3618,0.002644,2.749,0.006413,0,1,0
145800000000,146100000000,3995607351,0,70169725,0.1255,0.03857,0.04993,0.001211,0.001394,0.03931,2.956e-05,0.0001364,0.2783,0.001858,2.663,0.006294,0,1,0
151200000000,151500000000,3995607351,0,70169725,0.1309,0.04034,0.05035,0.01102,0.01138,0.04065,0.001461,0.0001698,0.3086,0.01308,2.765,0.006687,0,1,0
151500000000,151800000000,3995607351,0,70169725,0.1212,0.04053,0.05035,0.01086,0.01123,0.04095,0.001528,0.0001736,0.2515,0.01642,2.715,0.006617,0,1,0
152100000000,152400000000,3995607351,0,2852233,0.03778,0.0145,0.01978,0.0056,0.005981,0.04266,0.00576,3.719e-05,0.2671,0.0885,1.282,0.002404,0,1,0
152400000000,152700000000,3995607351,0,2852233,0.1034,0.03198,0.0434,0.01109,0.01192,0.03864,4.005e-05,5.341e-05,0.2529,0.006073,2.239,0.005515,0,1,0
152700000000,153000000000,3995607351,0,2852233,0.1125,0.03223,0.04327,0.007149,0.007759,0.03436,7.534e-05,5.341e-05,0.2827,0.007217,2.266,0.005438,0,1,0
153000000000,153300000000,3995607351,0,2852233,0.1193,0.03137,0.04266,0.001389,0.001577,0.03174,0.000102,5.436e-05,0.2366,0.01758,2.402,0.005767,0,1,0
153300000000,153600000000,3995607351,0,2852233,0.115,0.03122,0.0426,0.001518,0.001713,0.03168,7.629e-05,5.531e-05,0.2729,0.005432,2.326,0.005615,0,1,0
153600000000,153900000000,3995607351,0,2852233,0.1411,0.03259,0.04364,0.001583,0.001791,0.03381,0.0001392,5.531e-05,0.4219,0.01465,2.248,0.005144,0,1,0
153900000000,154200000000,3995607351,0,2852233,0.1029,0.0318,0.04297,0.0007648,0.0009737,0.03278,3.147e-05,5.627e-05,0.2773,0.003071,2.312,0.005583,0,1,0
154200000000,154500000000,3995607351,0,2852233,0.1141,0.03156,0.0426,0.001019,0.001228,0.03174,2.098e-05,5.722e-05,0.2798,0.001358,2.298,0.005475,0,1,0
154500000000,154800000000,3995607351,0,2852233,0.116,0.03156,0.04266,0.0004311,0.0006371,0.0318,4.673e-05,5.722e-05,0.2759,0.004501,2.339,0.005581,0,1,0
154800000000,155100000000,3995607351,0,2852233,0.1182,0.03174,0.0426,0.000596,0.000802,0.03241,3.052e-05,5.817e-05,0.2793,0.001572,2.311,0.00548,0,1,0
155100000000,155400000000,3995607351,0,2852233,0.1108,0.03162,0.04266,0.0005646,0.0007687,0.03241,2.766e-05,5.913e-05,0.3062,0.002213,2.303,0.005602,0,1,0
155400000000,155700000000,3995607351,0,2852233,0.1206,0.03192,0.0426,0.0006495,0.0008535,0.03253,4.101e-05,5.913e-05,0.2627,0.002857,2.372,0.005773,0,1,0
155700000000,156000000000,3995607351,0,2852233,0.1117,0.03174,0.04266,0.0005283,0.0007324,0.03235,2.384e-05,6.008e-05,0.2524,0.001572,2.369,0.005618,0,1,0
161100000000,161400000000,3995607351,0,2852233,0.0708,0.0329,0.04449,0.01253,0.01292,0.03339,0.001081,0.0001221,0.1533,0.01535,2.315,0.006038,0,1,0
161400000000,161700000000,3995607351,0,2852233,0.07019,0.03296,0.04449,0.01241,0.0128,0.03357,0.001532,0.0001268,0.1215,0.01593,2.33,0.006147,0,1,0
161700000000,162000000000,3995607351,0,2852233,0.07104,0.03308,0.04449,0.01241,0.0128,0.03345,0.001537,0.0001316,0.1543,0.01651,2.31,0.006048,0,1,0
162000000000,162300000000,3995607351,0,2852233,0.06995,0.03296,0.04456,0.01216,0.01257,0.03326,0.001652,0.0001364,0.1372,0.01672,2.318,0.00609,0,1,0
162300000000,162600000000,3995607351,0,2852233,0.07202,0.0329,0.04456,0.01109,0.01149,0.0332,0.001816,0.0001411,0.1973,0.01807,2.425,0.006388,0,1,0
162600000000,162900000000,3995607351,0,2852233,0.08813,0.03308,0.04456,0.01016,0.01056,0.03351,0.001585,0.0001469,0.2295,0.01721,2.411,0.006157,0,1,0
162900000000,163200000000,3995607351,0,2852233,0.07788,0.03308,0.04456,0.01181,0.01221,0.03363,0.001762,0.0001516,0.1738,0.01791,2.453,0.006285,0,1,0
163200000000,163500000000,3995607351,0,2852233,0.08179,0.03186,0.04279,0.009186,0.009583,0.03308,7.439e-05,0.0001545,0.1628,0.00914,2.427,0.006138,0,1,0
163500000000,163800000000,3995607351,0,2852233,0.0791,0.0318,0.0426,0.008728,0.00914,0.03223,2.289e-05,0.0001554,0.1562,0.001499,2.452,0.00621,0,1,0
163800000000,164100000000,3995607351,0,2852233,0.0769,0.0318,0.0426,0.008911,0.009323,0.03223,2.575e-05,0.0001554,0.1372,0.002144,2.427,0.006092,0,1,0
164100000000,164400000000,3995607351,0,2852233,0.09485,0.04163,0.04913,0.008087,0.008347,0.05035,0.00396,0.0001202,0.2173,0.05383,1.792,0.00397,0,1,0
164700000000,165000000000,3995607351,0,2852233,0.07581,0.03186,0.04309,0.0009842,0.001221,0.03351,2.289e-05,0.0001144,0.1477,0.001358,2.42,0.006156,0,1,0
165300000000,165600000000,3995607351,0,2852233,0.08032,0.03143,0.0426,0.001072,0.00131,0.03186,2.289e-05,0.0001144,0.1621,0.001715,2.492,0.006367,0,1,0
165600000000,165900000000,3995607351,0,2852233,0.08203,0.03137,0.0426,0.001089,0.001328,0.03162,2.384e-05,0.0001154,0.1514,0.001358,2.488,0.006346,0,1,0
165900000000,166200000000,3995607351,0,2852233,0.07971,0.03174,0.0426,0.001141,0.001379,0.03284,2.861e-05,0.0001144,0.1577,0.001715,2.523,0.00639,0,1,0
166200000000,166500000000,3995607351,0,2852233,0.08948,0.0318,0.0426,0.001076,0.001314,0.03271,2.48e-05,0.0001154,0.22,0.001572,2.468,0.006327,0,1,0
166800000000,167100000000,3995607351,0,2852233,0.07837,0.03149,0.0426,0.0008888,0.001127,0.0318,2.67e-05,0.0001154,0.1648,0.002857,2.519,0.006384,0,1,0
167100000000,167400000000,3995607351,0,2852233,0.07959,0.03149,0.0426,0.001112,0.00135,0.03204,3.147e-05,0.0001144,0.1833,0.002071,2.326,0.005739,0,1,0
167700000000,168000000000,3995607351,0,2852233,0.08435,0.03162,0.0426,0.001568,0.001804,0.03198,2.003e-05,0.0001144,0.1741,0.001715,2.46,0.006205,0,1,0
168000000000,168300000000,3995607351,0,2852233,0.08191,0.03149,0.0426,0.001482,0.001719,0.03174,3.433e-05,0.0001154,0.177,0.002857,2.442,0.006173,0,1,0
168300000000,168600000000,3995607351,0,2852233,0.07739,0.03156,0.0426,0.001247,0.001484,0.0318,2.384e-05,0.0001144,0.1675,0.001785,2.437,0.006214,0,1,0
168900000000,169200000000,3995607351,0,2852233,0.08191,0.03168,0.0426,0.001537,0.001776,0.03198,4.387e-05,0.0001144,0.1917,0.002644,2.441,0.006185,0,1,0
169200000000,169500000000,3995607351,0,2852233,0.07825,0.03149,0.0426,0.001667,0.001904,0.03174,3.147e-05,0.0001154,0.1458,0.002357,2.431,0.0062,0,1,0
169500000000,169800000000,3995607351,0,2852233,0.08118,0.03168,0.0426,0.001249,0.001486,0.03229,2.766e-05,0.0001144,0.1682,0.001642,2.494,0.006308,0,1,0
169800000000,170100000000,3995607351,0,2852233,0.08948,0.0321,0.04315,0.0006161,0.0008535,0.03345,2.575e-05,0.0001154,0.1892,0.001642,2.487,0.006368,0,1,0
170100000000,170400000000,3995607351,0,2852233,0.08411,0.03174,0.0426,0.0005178,0.0007448,0.03229,3.242e-05,0.0001144,0.1926,0.002499,2.555,0.006648,0,1,0
170700000000,171000000000,3995607351,0,2852233,0.08728,0.0351,0.04602,0.005302,0.005669,0.03876,0.002903,0.000124,0.2056,0.05786,2.419,0.006166,0,1,0
171000000000,171300000000,3995607351,0,2852233,0.09009,0.03595,0.04761,0.0141,0.0145,0.03784,0.002335,0.0001507,0.196,0.04773,2.509,0.006524,0,1,0
171300000000,171600000000,3995607351,0,2852233,0.08997,0.03381,0.04449,0.01167,0.01208,0.03436,0.001116,0.0001583,0.1914,0.01971,2.574,0.006658,0,1,0
171600000000,171900000000,3995607351,0,2852233,0.09485,0.03381,0.04449,0.01047,0.01086,0.03424,0.001305,0.0001631,0.2175,0.01529,2.475,0.006393,0,1,0
171900000000,172200000000,3995607351,0,2852233,0.08606,0.03357,0.04456,0.01158,0.01199,0.03406,0.001184,0.0001678,0.2014,0.01736,2.506,0.006504,0,1,0
172200000000,172500000000,3995607351,0,2852233,0.08313,0.03363,0.04449,0.01184,0.01225,0.03394,0.001524,0.0001726,0.207,0.01892,2.468,0.006554,0,1,0
172500000000,172800000000,3995607351,0,2852233,0.08484,0.03363,0.04449,0.01094,0.01134,0.03394,0.001757,0.0001764,0.2231,0.02036,2.384,0.006196,0,1,0
172800000000,173100000000,3995607351,0,2852233,0.07898,0.03357,0.04456,0.01102,0.01141,0.03387,0.001606,0.0001812,0.2524,0.01801,2.335,0.006026,0,1,0
173400000000,173700000000,3995607351,0,2852233,0.09058,0.03387,0.04449,0.01157,0.01196,0.0343,0.00172,0.0001898,0.2183,0.02585,2.372,0.006144,0,1,0
174000000000,174300000000,3995607351,0,2852233,0.07983,0.03253,0.04346,0.008286,0.008698,0.03284,3.719e-05,0.0001945,0.1541,0.002071,2.338,0.006019,0,1,0
174900000000,175200000000,3995607351,0,2852233,0.08191,0.03815,0.04938,0.005684,0.005905,0.03979,2.289e-05,0.0001545,0.1775,0.001858,2.359,0.00607,0,1,0
175200000000,175500000000,3995607351,0,2852233,0.08203,0.03412,0.04529,0.0008211,0.001047,0.03589,2.575e-05,0.0001545,0.2192,0.001429,2.24,0.005487,0,1,0
175500000000,175800000000,3995607351,0,2852233,0.07788,0.03278,0.04456,0.001055,0.001282,0.03314,2.289e-05,0.0001545,0.1743,0.001999,2.223,0.005444,0,1,0
175800000000,176100000000,3995607351,0,2852233,0.08337,0.03271,0.04456,0.001265,0.00149,0.03314,2.098e-05,0.0001545,0.1831,0.001286,2.506,0.006053,0,1,0
186300000000,186600000000,3995607351,0,2852233,0.09448,0.03467,0.04651,0.0002861,0.0004988,0.03503,2.956e-05,0.0001459,0.2048,0.00293,2.613,0.006643,0,1,0
186600000000,186900000000,3995607351,0,2852233,0.103,0.03467,0.04651,0.0005169,0.0007267,0.0351,4.387e-05,0.000145,0.2114,0.002857,2.635,0.006746,0,1,0
186900000000,187200000000,3995607351,0,2852233,0.09546,0.03418,0.0451,0.0006847,0.0008955,0.03467,7.725e-05,0.0001459,0.1685,0.009933,2.502,0.00637,0,1,0
187200000000,187500000000,3995607351,0,2852233,0.09595,0.034,0.04456,0.0005493,0.000761,0.03424,4.578e-05,0.000145,0.1885,0.003357,2.567,0.006559,0,1,0
187500000000,187800000000,3995607351,0,2852233,0.08972,0.03387,0.04462,0.0003614,0.0005751,0.03412,2.956e-05,0.0001459,0.1812,0.002998,2.518,0.006428,0,1,0
187800000000,188100000000,3995607351,0,2852233,0.1039,0.034,0.04456,0.0002928,0.0005064,0.0343,4.196e-05,0.000145,0.2231,0.00486,2.538,0.006451,0,1,0
188100000000,188400000000,3995607351,0,2852233,0.08801,0.03387,0.04462,0.0003977,0.0006113,0.03412,1.812e-05,0.0001459,0.1848,0.001429,2.515,0.006347,0,1,0
188400000000,188700000000,3995607351,0,2852233,0.09094,0.03381,0.04456,0.0006313,0.000845,0.03394,2.384e-05,0.000145,0.1887,0.001642,2.442,0.006024,0,1,0
188700000000,189000000000,3995607351,0,2852233,0.08887,0.03394,0.04456,0.0006447,0.0008574,0.03424,2.384e-05,0.0001459,0.1667,0.001642,2.424,0.005974,0,1,0
189000000000,189300000000,3995607351,0,2852233,0.09143,0.034,0.04462,0.0003004,0.0005121,0.03442,2.289e-05,0.000145,0.189,0.001286,2.46,0.0061,0,1,0
189300000000,189600000000,3995607351,0,2852233,0.08801,0.03387,0.04456,0.0003996,0.0006113,0.03412,2.098e-05,0.0001459,0.1523,0.001286,2.461,0.006098,0,1,0
189600000000,189900000000,3995607351,0,2852233,0.09424,0.03406,0.04456,0.0003557,0.0005665,0.03448,4.768e-05,0.000145,0.7197,0.00293,2.513,0.006195,0,1,0
189900000000,190200000000,3995607351,0,2852233,0.08887,0.03387,0.04462,0.0003929,0.0006027,0.03406,6.294e-05,0.0001459,0.2136,0.004997,2.516,0.006435,0,1,0
190200000000,190500000000,3995607351,0,2852233,0.08606,0.03387,0.04462,0.0002518,0.0004625,0.034,3.719e-05,0.000145,0.1863,0.00293,2.485,0.006323,0,1,0
190500000000,190800000000,3995607351,0,2852233,0.08948,0.034,0.04462,0.0003777,0.0005875,0.03436,2.289e-05,0.0001459,0.1975,0.001858,2.57,0.006584,0,1,0
190800000000,191100000000,3995607351,0,2852233,0.08765,0.03394,0.04456,0.0004807,0.0006905,0.03412,3.242e-05,0.000145,0.1963,0.00243,2.538,0.006388,0,1,0
191100000000,191400000000,3995607351,0,2852233,0.08667,0.03406,0.04462,0.0003576,0.0005665,0.03436,2.098e-05,0.0001459,0.1985,0.001358,2.409,0.006014,0,1,0
191400000000,191700000000,3995607351,0,2852233,0.09448,0.034,0.04456,0.0005684,0.0007772,0.0343,3.052e-05,0.000145,0.2285,0.002857,2.441,0.006206,0,1,0
191700000000,192000000000,3995607351,0,2852233,0.0885,0.034,0.04462,0.0003872,0.000597,0.0343,1.907e-05,0.0001459,0.1721,0.001143,2.412,0.006153,0,1,0
192000000000,192300000000,3995607351,0,2852233,0.08887,0.034,0.04456,0.0006056,0.0008154,0.03418,2.384e-05,0.000145,0.1892,0.001358,2.403,0.006157,0,1,0
192300000000,192600000000,3995607351,0,2852233,0.09021,0.03705,0.04736,0.00399,0.004311,0.04108,0.002674,0.0001459,0.1819,0.06036,2.327,0.005905,0,1,0
192600000000,192900000000,3995607351,0,2852233,0.08667,0.03766,0.04828,0.01241,0.0128,0.04175,0.00172,0.000164,0.333,0.04413,2.39,0.006109,0,1,0
192900000000,193200000000,3995607351,0,2852233,0.08679,0.03595,0.04645,0.01146,0.01186,0.03644,0.0009737,0.0001612,0.158,0.01929,2.508,0.006342,0,1,0
193200000000,193500000000,3995607351,0,2852233,0.09656,0.03601,0.04645,0.01137,0.01175,0.03638,0.001274,0.0001621,0.1997,0.01978,2.449,0.006272,0,1,0
193500000000,193800000000,3995607351,0,2852233,0.08838,0.03583,0.04645,0.01086,0.01126,0.03607,0.001417,0.0001631,0.1746,0.01428,2.473,0.00637,0,1,0
193800000000,194100000000,3995607351,0,2852233,0.08325,0.03595,0.04645,0.01151,0.0119,0.03632,0.001619,0.0001612,0.1584,0.01892,2.476,0.006444,0,1,0
194100000000,194400000000,3995607351,0,2852233,0.08496,0.03577,0.04645,0.01166,0.01205,0.03589,0.001797,0.000165,0.1682,0.0162,2.52,0.00661,0,1,0
194400000000,194700000000,3995607351,0,2852233,0.0835,0.03577,0.04645,0.01161,0.01199,0.03595,0.00186,0.0001669,0.1897,0.01599,2.474,0.006458,0,1,0
195300000000,195600000000,3995607351,0,2852233,0.08752,0.03479,0.04651,0.006813,0.007202,0.03516,2.289e-05,0.0001678,0.199,0.001429,2.439,0.00623,0,1,0
195600000000,195900000000,3995607351,0,2852233,0.1014,0.04291,0.04993,0.008347,0.008606,0.04987,0.003063,0.0001421,0.2129,0.05658,1.998,0.004778,0,1,0
195900000000,196200000000,3995607351,0,2852233,0.08777,0.03668,0.04803,0.003891,0.004105,0.03888,2.956e-05,0.0001373,0.251,0.00293,2.406,0.006071,0,1,0
201300000000,201600000000,3995607351,0,2852233,0.09082,0.03424,0.04456,0.001749,0.001961,0.03442,2.193e-05,0.0001364,0.1912,0.001429,2.477,0.006483,0,1,0
201600000000,201900000000,3995607351,0,2852233,0.09143,0.03473,0.04578,0.001957,0.002167,0.0354,3.433e-05,0.0001364,0.2158,0.002857,2.448,0.006333,0,1,0
201900000000,202200000000,3995607351,0,2852233,0.09082,0.03442,0.04626,0.001888,0.002098,0.03467,2.48e-05,0.0001364,0.1729,0.001499,2.492,0.006442,0,1,0
202200000000,202500000000,3995607351,0,2852233,0.1013,0.03455,0.04626,0.001856,0.002068,0.03491,2.766e-05,0.0001373,0.2896,0.001499,2.454,0.006351,0,1,0
202500000000,202800000000,3995607351,0,2852233,0.09583,0.03442,0.04626,0.0007343,0.0009432,0.03455,2.48e-05,0.0001364,0.1865,0.001642,2.611,0.006754,0,1,0
202800000000,203100000000,3995607351,0,2852233,0.09326,0.03448,0.04626,0.0002995,0.0005074,0.03473,3.338e-05,0.0001373,0.1938,0.003571,2.438,0.006219,0,1,0
203100000000,203400000000,3995607351,0,2852233,0.09448,0.03479,0.04626,0.0005407,0.0007486,0.03601,3.338e-05,0.0001364,0.3013,0.002213,2.4,0.006098,0,1,0
203400000000,203700000000,3995607351,0,2852233,0.08899,0.0354,0.04669,0.0008106,0.001019,0.03656,3.91e-05,0.0001373,0.2529,0.001715,2.386,0.0061,0,1,0
203700000000,204000000000,3995607351,0,2852233,0.08386,0.03497,0.04681,0.00107,0.00128,0.03693,0.0001926,0.0001364,0.1892,0.03369,2.392,0.006104,0,1,0
204000000000,204300000000,3995607351,0,2852233,0.09045,0.03497,0.04651,0.001377,0.001595,0.03595,3.529e-05,0.0001373,0.1624,0.002857,2.384,0.006109,0,1,0
204300000000,204600000000,3995607351,0,2852233,0.08582,0.03461,0.04651,0.001585,0.001802,0.03479,3.147e-05,0.0001364,0.231,0.001642,2.412,0.006135,0,1,0
204600000000,204900000000,3995607351,0,2852233,0.09033,0.03461,0.04651,0.0009489,0.001165,0.03479,1.812e-05,0.0001364,0.1943,0.001429,2.463,0.006351,0,1,0
204900000000,205200000000,3995607351,0,2852233,0.08704,0.03461,0.04651,0.0006733,0.0008888,0.03491,2.67e-05,0.0001364,0.1704,0.001358,2.38,0.006129,0,1,0
205200000000,205500000000,3995607351,0,2852233,0.08643,0.03473,0.04651,0.0009117,0.001127,0.03516,1.907e-05,0.0001373,0.1558,0.001143,2.366,0.006025,0,1,0
205500000000,205800000000,3995607351,0,2852233,0.08411,0.03455,0.04651,0.001144,0.001362,0.03485,2.861e-05,0.0001364,0.1833,0.001286,2.383,0.006072,0,1,0
205800000000,206100000000,3995607351,0,2852233,0.09399,0.03467,0.04651,0.001389,0.001606,0.03491,3.529e-05,0.0001364,0.2017,0.002571,2.396,0.00616,0,1,0
206100000000,206400000000,3995607351,0,2852233,0.09216,0.03479,0.04651,0.001549,0.001764,0.03528,4.768e-05,0.0001364,0.2085,0.002998,2.367,0.006013,0,1,0
206400000000,206700000000,3995607351,0,2852233,0.08862,0.03461,0.04651,0.001711,0.001925,0.03485,2.956e-05,0.0001364,0.1938,0.002857,2.385,0.006132,0,1,0
206700000000,207000000000,3995607351,0,2852233,0.09326,0.03473,0.04651,0.001945,0.002159,0.03516,3.529e-05,0.0001364,0.1899,0.002571,2.446,0.006322,0,1,0
207000000000,207300000000,3995607351,0,2852233,0.09424,0.0351,0.04651,0.002151,0.002365,0.03632,2.766e-05,0.0001364,0.1929,0.001286,2.415,0.006136,0,1,0
207300000000,207600000000,3995607351,0,2852233,0.09106,0.03461,0.04651,0.002407,0.002625,0.03479,3.624e-05,0.0001364,0.2427,0.002998,2.358,0.006033,0,1,0
207600000000,207900000000,3995607351,0,2852233,0.08984,0.03461,0.04651,0.002632,0.00285,0.03485,2.289e-05,0.0001364,0.1826,0.001429,2.418,0.006217,0,1,0
207900000000,208200000000,3995607351,0,2852233,0.08484,0.03467,0.04651,0.002869,0.003086,0.03497,2.384e-05,0.0001364,0.1702,0.001572,2.41,0.006191,0,1,0
208200000000,208500000000,3995607351,0,2852233,0.0907,0.03461,0.04651,0.0008488,0.001064,0.03479,3.338e-05,0.0001364,0.1865,0.002857,2.484,0.006434,0,1,0
208500000000,208800000000,3995607351,0,2852233,0.09082,0.03473,0.04651,0.0007029,0.0009184,0.03552,2.861e-05,0.0001364,0.1985,0.00293,2.405,0.006198,0,1,0
208800000000,209100000000,3995607351,0,2852233,0.08325,0.03485,0.04651,0.0004101,0.0006256,0.03552,3.719e-05,0.0001364,0.1951,0.002857,2.408,0.006177,0,1,0
209100000000,209400000000,3995607351,0,2852233,0.08276,0.03467,0.04651,0.000329,0.0005445,0.03485,2.193e-05,0.0001373,0.1912,0.001499,2.41,0.006247,0,1,0
209400000000,209700000000,3995607351,0,2852233,0.1017,0.03485,0.04651,0.0005569,0.0007725,0.03534,2.575e-05,0.0001364,0.2344,0.001999,2.504,0.006311,0,1,0
209700000000,210000000000,3995607351,0,2852233,0.09412,0.03479,0.04651,0.000802,0.001019,0.03497,5.054e-05,0.0001373,0.1841,0.008575,2.536,0.006363,0,1,0
210000000000,210300000000,3995607351,0,2852233,0.09155,0.03467,0.04651,0.0006008,0.0008183,0.03485,3.242e-05,0.0001364,0.1843,0.00243,2.516,0.006339,0,1,0
210300000000,210600000000,3995607351,0,2852233,0.0896,0.03473,0.04651,0.0003662,0.0005836,0.03491,2.289e-05,0.0001373,0.1667,0.001572,2.544,0.006465,0,1,0
210600000000,210900000000,3995607351,0,2852233,0.09607,0.03473,0.04651,0.0005951,0.0008125,0.03485,3.624e-05,0.0001364,0.1882,0.002857,2.547,0.006459,0,1,0
210900000000,211200000000,3995607351,0,2852233,0.08972,0.03467,0.04651,0.0005007,0.0007191,0.03479,2.861e-05,0.0001373,0.1741,0.002285,2.587,0.006519,0,1,0
211200000000,211500000000,3995607351,0,2852233,0.08643,0.03473,0.04651,0.0005913,0.0008087,0.03491,2.289e-05,0.0001364,0.1797,0.001429,2.549,0.006474,0,1,0
211500000000,211800000000,3995607351,0,2852233,0.08154,0.03485,0.04651,0.0008173,0.001034,0.03552,2.193e-05,0.0001373,0.1526,0.001715,2.443,0.006187,0,1,0
211800000000,212100000000,3995607351,0,2852233,0.08301,0.03485,0.04651,0.00104,0.001257,0.03522,2.003e-05,0.0001364,0.1531,0.001215,2.479,0.006359,0,1,0
212700000000,213000000000,3995607351,0,2852233,0.08423,0.03491,0.04651,0.0007792,0.0009975,0.03528,1.812e-05,0.0001364,0.2295,0.001358,2.477,0.006331,0,1,0
213300000000,213600000000,3995607351,0,2852233,0.06738,0.03479,0.04651,0.0005836,0.0008011,0.03485,3.338e-05,0.0001364,0.1438,0.002785,2.498,0.006515,0,1,0
213900000000,214200000000,3995607351,0,2852233,0.06616,0.03479,0.04651,0.0005913,0.0008087,0.03503,2.575e-05,0.0001364,0.1477,0.00293,2.495,0.006365,0,1,0
214200000000,214500000000,3995607351,0,2852233,0.06506,0.03479,0.04651,0.0007515,0.0009689,0.03497,1.526e-05,0.0001364,0.1553,0.0007143,2.437,0.006281,0,1,0
214500000000,214800000000,3995607351,0,2852233,0.06641,0.03479,0.04651,0.0009203,0.001137,0.03491,3.147e-05,0.0001373,0.1562,0.002998,2.444,0.006417,0,1,0
214800000000,215100000000,3995607351,0,2852233,0.06641,0.03497,0.04651,0.001085,0.001303,0.03564,1.717e-05,0.0001364,0.1409,0.0007858,2.41,0.006205,0,1,0
215100000000,215400000000,3995607351,0,2852233,0.06421,0.03485,0.04651,0.00115,0.001368,0.03491,2.384e-05,0.0001373,0.1321,0.0009995,2.412,0.006238,0,1,0
215400000000,215700000000,3995607351,0,2852233,0.06824,0.03485,0.04651,0.000515,0.0007324,0.03503,2.48e-05,0.0001364,0.1882,0.002857,2.432,0.006191,0,1,0
215700000000,216000000000,3995607351,0,2852233,0.06653,0.03485,0.04651,0.0002584,0.0004759,0.03497,1.621e-05,0.0001364,0.1619,0.0007858,2.475,0.006365,0,1,0
216000000000,216300000000,3995607351,0,2852233,0.07007,0.03485,0.04651,0.0004244,0.0006418,0.03491,2.384e-05,0.0001373,0.126,0.002857,2.438,0.006252,0,1,0
221100000000,221400000000,3995607351,0,2852233,0.07227,0.0351,0.04651,0.000679,0.0008965,0.03522,4.101e-05,0.0001373,0.1333,0.00293,2.51,0.006363,0,1,0
221400000000,221700000000,3995607351,0,2852233,0.073,0.03516,0.04651,0.0004969,0.0007124,0.03528,2.003e-05,0.0001364,0.1719,0.001286,2.52,0.006524,0,1,0
221700000000,222000000000,3995607351,0,2852233,0.07507,0.03522,0.04651,0.000267,0.0004826,0.03558,1.717e-05,0.0001364,0.1367,0.001215,2.546,0.006622,0,1,0
222000000000,222300000000,3995607351,0,2852233,0.07568,0.03522,0.04651,0.0004663,0.0006809,0.03546,2.67e-05,0.0001373,0.146,0.002785,2.525,0.006488,0,1,0
222300000000,222600000000,3995607351,0,2852233,0.0752,0.03516,0.04651,0.0006666,0.0008821,0.03528,2.003e-05,0.0001364,0.144,0.001286,2.524,0.006512,0,1,0
222600000000,222900000000,3995607351,0,2852233,0.0741,0.03516,0.04651,0.0006046,0.0008202,0.03528,2.956e-05,0.0001373,0.1443,0.003216,2.53,0.006599,0,1,0
222900000000,223200000000,3995607351,0,2852233,0.07532,0.03522,0.04651,0.0005674,0.000783,0.0354,2.289e-05,0.0001364,0.1475,0.001215,2.533,0.00659,0,1,0
223200000000,223500000000,3995607351,0,2852233,0.07483,0.03522,0.04651,0.0007467,0.0009623,0.0354,2.67e-05,0.0001364,0.1487,0.00293,2.448,0.006119,0,1,0
223500000000,223800000000,3995607351,0,2852233,0.07471,0.03546,0.04651,0.0006514,0.0008659,0.03644,2.956e-05,0.0001364,0.314,0.001358,2.392,0.005922,0,1,0
223800000000,224100000000,3995607351,0,2852233,0.0885,0.03534,0.04651,0.0002069,0.0004215,0.03577,2.956e-05,0.0001364,0.3105,0.002071,2.529,0.00641,0,1,0
224100000000,224400000000,3995607351,0,2852233,0.07776,0.03534,0.04651,0.0003538,0.0005684,0.03564,1.907e-05,0.0001364,0.1609,0.001642,2.524,0.006374,0,1,0
224400000000,224700000000,3995607351,0,2852233,0.07642,0.03534,0.04651,0.0002651,0.000474,0.03589,0.0001459,0.0001364,0.1682,0.01736,2.512,0.006313,0,1,0
224700000000,225000000000,3995607351,0,2852233,0.07434,0.0354,0.04651,0.0003843,0.0005884,0.03583,2.67e-05,0.0001373,0.1519,0.002644,2.442,0.006007,0,1,0
225000000000,225300000000,3995607351,0,2852233,0.07422,0.03534,0.04651,0.0005045,0.0007095,0.03558,3.529e-05,0.0001364,0.1592,0.002213,2.549,0.00641,0,1,0
225300000000,225600000000,3995607351,0,2852233,0.07593,0.03534,0.04651,0.0004549,0.0006599,0.03546,7.343e-05,0.0001373,0.1365,0.0105,2.538,0.006293,0,1,0
225600000000,225900000000,3995607351,0,2852233,0.07947,0.0354,0.04651,0.0005674,0.0007744,0.03558,2.48e-05,0.0001364,0.1721,0.002285,2.546,0.006305,0,1,0
225900000000,226200000000,3995607351,0,2852233,0.07312,0.03534,0.04651,0.0005913,0.0007982,0.0354,3.719e-05,0.0001364,0.1763,0.005356,2.574,0.006466,0,1,0
226200000000,226500000000,3995607351,0,2852233,0.07043,0.03534,0.04651,0.0004892,0.0006971,0.03558,2.193e-05,0.0001373,0.1394,0.001215,2.435,0.006019,0,1,0
226500000000,226800000000,3995607351,0,2852233,0.07471,0.0354,0.04651,0.0005817,0.0007896,0.03552,2.67e-05,0.0001364,0.1736,0.002998,2.471,0.006112,0,1,0
226800000000,227100000000,3995607351,0,2852233,0.0719,0.0354,0.04651,0.000453,0.0006609,0.03552,4.864e-05,0.0001373,0.1511,0.006859,2.618,0.006624,0,1,0
227100000000,227400000000,3995607351,0,2852233,0.07434,0.03546,0.04651,0.0005236,0.0007324,0.03564,2.003e-05,0.0001364,0.1521,0.001358,2.508,0.006314,0,1,0
227400000000,227700000000,3995607351,0,2852233,0.08618,0.03546,0.04651,0.0003967,0.0006046,0.03583,2.575e-05,0.0001373,0.1951,0.002213,2.604,0.006407,0,1,0
228300000000,228600000000,3995607351,0,2852233,0.07617,0.03552,0.04651,0.0005999,0.0008087,0.03583,2.098e-05,0.0001364,0.1482,0.001358,2.631,0.006434,0,1,0
228600000000,228900000000,3995607351,0,2852233,0.07678,0.03552,0.04651,0.0006762,0.0008841,0.03589,1.812e-05,0.0001364,0.1431,0.0007143,2.584,0.006277,0,1,0
228900000000,229200000000,3995607351,0,2852233,0.07788,0.03546,0.04651,0.0005245,0.0007324,0.03558,2.098e-05,0.0001364,0.1387,0.001429,2.616,0.006368,0,1,0
229200000000,229500000000,3995607351,0,2852233,0.08093,0.03552,0.04651,0.0002728,0.0004807,0.03577,2.575e-05,0.0001364,0.1768,0.001499,2.623,0.006432,0,1,0
229500000000,229800000000,3995607351,0,2852233,0.07812,0.03552,0.04651,0.0004711,0.0006781,0.03558,2.193e-05,0.0001364,0.1448,0.0009289,2.615,0.006258,0,1,0
229800000000,230100000000,3995607351,0,2852233,0.07617,0.03552,0.04651,0.0002489,0.0004568,0.03577,2.098e-05,0.0001364,0.3076,0.001358,2.547,0.006256,0,1,0
230100000000,230400000000,3995607351,0,2852233,0.07581,0.03558,0.04651,0.0004606,0.0006685,0.03577,2.193e-05,0.0001373,0.1677,0.001358,2.394,0.005913,0,1,0
230400000000,230700000000,3995607351,0,2852233,0.07178,0.03552,0.04651,0.0006733,0.0008812,0.03564,2.098e-05,0.0001364,0.1667,0.001499,2.322,0.005791,0,1,0
230700000000,231000000000,3995607351,0,2852233,0.06763,0.03552,0.04651,0.0008783,0.001085,0.03577,1.717e-05,0.0001373,0.1453,0.001143,2.335,0.005892,0,1,0
231000000000,231300000000,3995607351,0,2852233,0.07715,0.03558,0.04651,0.001087,0.001295,0.03571,3.529e-05,0.0001364,0.1729,0.004997,2.328,0.005832,0,1,0
231300000000,231600000000,3995607351,0,2852233,0.0719,0.03564,0.04651,0.001293,0.001501,0.03595,2.193e-05,0.0001373,0.22,0.001715,2.34,0.005848,0,1,0
231600000000,231900000000,3995607351,0,2852233,0.07458,0.03564,0.04651,0.001432,0.00164,0.03571,3.529e-05,0.0001364,0.3535,0.003643,2.377,0.005931,0,1,0
231900000000,232200000000,3995607351,0,2852233,0.07654,0.03564,0.04651,0.001278,0.001486,0.03583,3.338e-05,0.0001364,0.1487,0.004501,2.462,0.006205,0,1,0
232200000000,232500000000,3995607351,0,2852233,0.073,0.03564,0.04651,0.001251,0.001455,0.03595,0.0003824,0.0001364,0.1694,0.02606,2.385,0.00601,0,1,0
232500000000,232800000000,3995607351,0,2852233,0.07202,0.03571,0.04651,0.0007753,0.0009623,0.03595,0.0002022,0.0001364,0.1382,0.009644,2.469,0.006325,0,1,0
232800000000,233100000000,3995607351,0,2852233,0.07446,0.03571,0.04651,0.0008965,0.00108,0.03589,7.248e-05,0.0001364,0.1543,0.0065,2.365,0.005999,0,1,0
233700000000,234000000000,3995607351,0,2852233,0.07214,0.03571,0.04651,0.0005894,0.0007725,0.03595,3.242e-05,0.0001364,0.1494,0.003429,2.447,0.00627,0,1,0
234000000000,234300000000,3995607351,0,2852233,0.07031,0.03577,0.04651,0.0007219,0.000906,0.03589,2.098e-05,0.0001373,0.1375,0.001072,2.361,0.006023,0,1,0
234300000000,234600000000,3995607351,0,2852233,0.0697,0.03583,0.04651,0.0006618,0.000845,0.03613,2.289e-05,0.0001364,0.1677,0.001499,2.365,0.006041,0,1,0
234600000000,234900000000,3995607351,0,2852233,0.07959,0.03583,0.04651,0.0005112,0.0006943,0.03613,2.098e-05,0.0001364,0.1641,0.001358,2.518,0.00654,0,1,0
234900000000,235200000000,3995607351,0,2852233,0.07471,0.03583,0.04651,0.0005808,0.0007658,0.03632,3.529e-05,0.0001364,0.1565,0.005211,2.537,0.006578,0,1,0
235200000000,235500000000,3995607351,0,2852233,0.07275,0.03583,0.04651,0.0006704,0.0008554,0.03601,3.433e-05,0.0001364,0.3813,0.002857,2.5,0.006452,0,1,0
235500000000,235800000000,3995607351,0,2852233,0.07166,0.03583,0.04651,0.0005465,0.0007315,0.03601,3.433e-05,0.0001373,0.1626,0.003216,2.562,0.006572,0,1,0
235800000000,236100000000,3995607351,0,2852233,0.06738,0.03583,0.04651,0.0006733,0.0008574,0.03601,0.0001068,0.0001364,0.1519,0.01492,2.508,0.006535,0,1,0
236100000000,236400000000,3995607351,0,2852233,0.06885,0.039,0.04871,0.004417,0.004738,0.04254,0.00293,0.000145,0.1704,0.07068,2.477,0.006362,0,1,0
241200000000,241500000000,3995607351,0,2852233,0.07166,0.03625,0.04651,0.002373,0.002552,0.03644,2.003e-05,0.0001469,0.1519,0.001143,2.562,0.006567,0,1,0
241500000000,241800000000,3995607351,0,2852233,0.07092,0.03632,0.04651,0.002529,0.002708,0.03656,1.907e-05,0.0001469,0.24,0.001143,2.573,0.006623,0,1,0
241800000000,242100000000,3995607351,0,2852233,0.08032,0.03638,0.04651,0.0006294,0.0008059,0.03662,5.341e-05,0.0001469,0.1536,0.008362,2.582,0.00671,0,1,0
242100000000,242400000000,3995607351,0,2852233,0.07458,0.03632,0.04651,0.0004301,0.0006075,0.03656,2.766e-05,0.0001469,0.1475,0.00293,2.561,0.006476,0,1,0
242400000000,242700000000,3995607351,0,2852233,0.06653,0.03632,0.04651,0.0005484,0.0007267,0.03644,4.578e-05,0.0001469,0.125,0.00293,2.547,0.006524,0,1,0
242700000000,243000000000,3995607351,0,2852233,0.0708,0.03693,0.04761,0.0007324,0.0009098,0.03784,3.052e-05,0.0001469,0.157,0.00293,2.56,0.006592,0,1,0
243000000000,243300000000,3995607351,0,2852233,0.07007,0.03644,0.04846,0.000906,0.001085,0.03687,3.338e-05,0.0001469,0.1482,0.002857,2.556,0.006588,0,1,0
243300000000,243600000000,3995607351,0,2852233,0.06726,0.03632,0.04846,0.0003481,0.0005255,0.03662,2.098e-05,0.0001469,0.1624,0.002357,2.531,0.006361,0,1,0
243600000000,243900000000,3995607351,0,2852233,0.07373,0.03638,0.04846,0.0004063,0.0005827,0.03656,5.054e-05,0.0001469,0.1587,0.002857,2.66,0.006808,0,1,0
243900000000,244200000000,3995607351,0,2852233,0.07031,0.03638,0.04846,0.0002699,0.0004463,0.03644,2.766e-05,0.0001469,0.1633,0.004143,2.856,0.007448,0,1,0
244500000000,244800000000,3995607351,0,2852233,0.07056,0.03644,0.04846,0.0004387,0.0006151,0.03674,4.005e-05,0.0001469,0.2759,0.004356,2.703,0.007014,0,1,0
244800000000,245100000000,3995607351,0,2852233,0.06958,0.03638,0.04846,0.0005484,0.0007248,0.03662,4.482e-05,0.0001469,0.1506,0.002857,2.561,0.006555,0,1,0
245100000000,245400000000,3995607351,0,2852233,0.07007,0.03644,0.04846,0.0003099,0.0004864,0.03668,2.193e-05,0.0001469,0.1794,0.001715,2.621,0.006767,0,1,0
245400000000,245700000000,3995607351,0,2852233,0.07666,0.03674,0.04846,0.0005159,0.0006933,0.03723,5.341e-05,0.0001469,0.2322,0.008789,2.489,0.006372,0,1,0
245700000000,246000000000,3995607351,0,2852233,0.06897,0.0365,0.04846,0.0007267,0.000905,0.03668,1.812e-05,0.0001469,0.1492,0.001429,2.498,0.006224,0,1,0
246000000000,246300000000,3995607351,0,2852233,0.0697,0.03644,0.04846,0.000536,0.0007143,0.03656,4.101e-05,0.0001469,0.1821,0.006927,2.527,0.006275,0,1,0
251400000000,251700000000,3995607351,0,2852233,0.05804,0.03735,0.04846,0.0007105,0.0008907,0.03802,2.003e-05,0.0001497,0.1294,0.001785,2.554,0.006699,0,1,0
251700000000,252000000000,3995607351,0,2852233,0.06177,0.03711,0.04846,0.0008812,0.001062,0.03735,2.48e-05,0.0001497,0.1287,0.002998,2.574,0.006678,0,1,0
252000000000,252300000000,3995607351,0,2852233,0.05762,0.03705,0.04846,0.001053,0.001234,0.03717,2.384e-05,0.0001497,0.147,0.002785,2.502,0.006477,0,1,0
252300000000,252600000000,3995607351,0,2852233,0.05939,0.03705,0.04846,0.001217,0.001398,0.03735,1.526e-05,0.0001497,0.1292,0.0007858,2.522,0.006743,0,1,0
252600000000,252900000000,3995607351,0,2852233,0.0708,0.03723,0.04846,0.0006504,0.0008307,0.03772,2.193e-05,0.0001497,0.1401,0.001429,2.591,0.006913,0,1,0
252900000000,253200000000,3995607351,0,2852233,0.06183,0.03717,0.04846,0.0006609,0.0008411,0.03748,1.907e-05,0.0001497,0.1296,0.001358,2.565,0.006903,0,1,0
253200000000,253500000000,3995607351,0,2852233,0.06714,0.03717,0.04846,0.0008411,0.001022,0.03741,1.621e-05,0.0001488,0.1731,0.0007143,2.37,0.006007,0,1,0
253500000000,253800000000,3995607351,0,2852233,0.07153,0.03717,0.04846,0.0007782,0.0009594,0.03748,1.907e-05,0.0001497,0.1641,0.0009995,2.505,0.006493,0,1,0
253800000000,254100000000,3995607351,0,2852233,0.07166,0.03711,0.04846,0.0005627,0.0007439,0.03735,2.575e-05,0.0001497,0.1726,0.002998,2.428,0.006278,0,1,0
254100000000,254400000000,3995607351,0,2852233,0.06689,0.03717,0.04846,0.0007458,0.000927,0.03748,1.907e-05,0.0001497,0.1499,0.001143,2.531,0.006385,0,1,0
254400000000,254700000000,3995607351,0,2852233,0.06543,0.03711,0.04846,0.0004673,0.0006485,0.03729,1.717e-05,0.0001497,0.1289,0.0009289,2.536,0.006254,0,1,0
254700000000,255000000000,3995607351,0,2852233,0.06836,0.03717,0.04846,0.0006466,0.0008278,0.03748,1.717e-05,0.0001488,0.1394,0.0007858,2.597,0.006455,0,1,0
255000000000,255300000000,3995607351,0,2852233,0.06262,0.03717,0.04846,0.0007963,0.0009785,0.03729,1.431e-05,0.0001497,0.1353,0.0007143,2.583,0.00639,0,1,0
255300000000,255600000000,3995607351,0,2852233,0.06433,0.03717,0.04846,0.0009203,0.001102,0.03741,1.812e-05,0.0001497,0.2214,0.001072,2.681,0.006771,0,1,0
255600000000,255900000000,3995607351,0,2852233,0.06482,0.03717,0.04846,0.0005875,0.0007687,0.03741,1.717e-05,0.0001497,0.1289,0.0009289,2.771,0.007144,0,1,0
255900000000,256200000000,3995607351,0,2852233,0.06506,0.03723,0.04846,0.0003738,0.000555,0.03748,2.384e-05,0.0001497,0.2734,0.003429,2.636,0.006816,0,1,0
256200000000,256500000000,3995607351,0,2852233,0.06946,0.03723,0.04846,0.0005598,0.000741,0.03748,1.717e-05,0.0001497,0.1736,0.0009995,2.446,0.006165,0,1,0
256500000000,256800000000,3995607351,0,2852233,0.06531,0.03729,0.04846,0.000721,0.0009022,0.0376,1.621e-05,0.0001497,0.187,0.0007143,2.399,0.005926,0,1,0
256800000000,257100000000,3995607351,0,2852233,0.06665,0.03729,0.04846,0.0005817,0.0007629,0.03748,1.621e-05,0.0001497,0.1228,0.001072,2.5,0.006126,0,1,0
257100000000,257400000000,3995607351,0,2852233,0.06567,0.03729,0.04846,0.0006275,0.0008087,0.0376,2.289e-05,0.0001497,0.146,0.0009289,2.486,0.006291,0,1,0
257400000000,257700000000,3995607351,0,2852233,0.06982,0.03735,0.04846,0.0004282,0.0006104,0.03815,2.384e-05,0.0001497,0.1548,0.002857,2.558,0.006597,0,1,0
257700000000,258000000000,3995607351,0,2852233,0.06506,0.0376,0.04846,0.0005255,0.0007095,0.03851,0.0001135,0.0001497,0.1738,0.01228,2.501,0.006322,0,1,0
258000000000,258300000000,3995607351,0,2852233,0.06909,0.04071,0.0498,0.005257,0.0056,0.04425,0.002396,0.0001583,0.1733,0.06073,2.418,0.006076,0,1,0
258300000000,258600000000,3995607351,0,2852233,0.06433,0.0412,0.05029,0.01192,0.01228,0.0434,0.002247,0.0001831,0.1829,0.04578,2.445,0.006212,0,1,0
258600000000,258900000000,3995607351,0,2852233,0.06079,0.03925,0.05035,0.0119,0.01228,0.03967,0.0008993,0.000186,0.1282,0.01428,2.408,0.00631,0,1,0
258900000000,259200000000,3995607351,0,2852233,0.06116,0.03949,0.05035,0.01109,0.01147,0.04156,0.001135,0.0001812,0.1191,0.01492,2.469,0.006537,0,1,0
259200000000,259500000000,3995607351,0,2852233,0.0611,0.04071,0.05035,0.01019,0.01057,0.04254,0.001554,0.000186,0.147,0.01636,2.448,0.006599,0,1,0
259500000000,259800000000,3995607351,0,2852233,0.05933,0.03912,0.05035,0.01196,0.01233,0.03943,0.00144,0.0001812,0.1237,0.01335,2.456,0.006757,0,1,0
259800000000,260100000000,3995607351,0,2852233,0.06946,0.03925,0.05035,0.01044,0.0108,0.03967,0.001444,0.0001841,0.1667,0.01508,2.476,0.006741,0,1,0
260100000000,260400000000,3995607351,0,2852233,0.06763,0.03918,0.05035,0.01106,0.01143,0.03955,0.00157,0.0001869,0.1538,0.01335,2.49,0.006829,0,1,0
260400000000,260700000000,3995607351,0,2852233,0.06042,0.03912,0.05042,0.01096,0.01134,0.03937,0.001556,0.0001869,0.1199,0.01414,2.494,0.006904,0,1,0
260700000000,261000000000,3995607351,0,2852233,0.06458,0.03906,0.05035,0.0108,0.01117,0.03937,0.001657,0.0001879,0.1304,0.01672,2.461,0.006767,0,1,0
261000000000,261300000000,3995607351,0,2852233,0.06738,0.03876,0.05017,0.01138,0.01175,0.03943,0.0007706,0.0001879,0.1487,0.01321,2.44,0.006464,0,1,0
261300000000,261600000000,3995607351,0,2852233,0.06763,0.03809,0.0484,0.009903,0.01028,0.03833,1.907e-05,0.0001888,0.1675,0.001286,2.432,0.00628,0,1,0
261600000000,261900000000,3995607351,0,2852233,0.06958,0.03809,0.0484,0.01001,0.01038,0.03833,2.003e-05,0.0001888,0.1528,0.001358,2.388,0.006117,0,1,0
261900000000,262200000000,3995607351,0,2852233,0.08337,0.04517,0.04968,0.003651,0.003899,0.05402,0.006126,0.000164,0.2263,0.05505,1.917,0.00452,0,1,0
262200000000,262500000000,3995607351,0,2852233,0.06677,0.04309,0.05029,0.0033,0.003464,0.04718,3.91e-05,0.0001488,0.1558,0.002499,2.371,0.006056,0,1,0
262500000000,262800000000,3995607351,0,2852233,0.06677,0.03906,0.04993,0.00317,0.003338,0.04114,4.005e-05,0.0001488,0.1353,0.004211,2.356,0.005988,0,1,0
262800000000,263100000000,3995607351,0,2852233,0.07104,0.03748,0.04846,0.0004597,0.0006294,0.03772,1.526e-05,0.0001488,0.1721,0.0008574,2.402,0.00611,0,1,0
263100000000,263400000000,3995607351,0,2852233,0.0719,0.03748,0.04846,0.0006199,0.0007896,0.0376,1.812e-05,0.0001488,0.1453,0.0007858,2.614,0.006684,0,1,0
263400000000,263700000000,3995607351,0,2852233,0.08374,0.03754,0.04846,0.0008297,0.0009995,0.0379,2.003e-05,0.0001488,0.1882,0.001358,2.615,0.006533,0,1,0
263700000000,264000000000,3995607351,0,2852233,0.07312,0.03754,0.04846,0.001034,0.001204,0.03796,2.003e-05,0.0001488,0.1321,0.0007858,2.604,0.0065,0,1,0
264000000000,264300000000,3995607351,0,2852233,0.08557,0.03754,0.04846,0.001139,0.00131,0.03772,2.193e-05,0.0001488,0.1621,0.001572,2.775,0.007178,0,1,0
264300000000,264600000000,3995607351,0,2852233,0.07507,0.0376,0.04846,0.001165,0.001335,0.0379,4.387e-05,0.0001488,0.1448,0.007935,2.586,0.006655,0,1,0
264900000000,265200000000,3995607351,0,2852233,0.07117,0.0376,0.04846,0.001497,0.001669,0.03784,3.147e-05,0.0001488,0.1804,0.00293,2.464,0.006199,0,1,0
265200000000,265500000000,3995607351,0,2852233,0.07349,0.03772,0.04846,0.001616,0.001787,0.03802,3.719e-05,0.0001488,0.1777,0.00293,2.313,0.005679,0,1,0
265500000000,265800000000,3995607351,0,2852233,0.07483,0.03766,0.04846,0.00035,0.0005236,0.03784,3.052e-05,0.0001488,0.1621,0.002998,2.473,0.00626,0,1,0
265800000000,266100000000,3995607351,0,2852233,0.07166,0.0376,0.04846,0.0005379,0.0007105,0.03772,3.815e-05,0.0001488,0.1599,0.005432,2.481,0.006222,0,1,0
266100000000,266400000000,3995607351,0,2852233,0.07129,0.03766,0.04846,0.0007334,0.000906,0.03796,2.003e-05,0.0001488,0.1433,0.001286,2.47,0.006259,0,1,0
266400000000,266700000000,3995607351,0,2852233,0.07422,0.03772,0.04852,0.0009108,0.001085,0.03912,2.67e-05,0.0001488,0.1702,0.002857,2.476,0.006143,0,1,0
266700000000,267000000000,3995607351,0,2852233,0.06482,0.03815,0.04913,0.001011,0.001184,0.03906,2.384e-05,0.0001488,0.1179,0.002998,2.431,0.006136,0,1,0
267000000000,267300000000,3995607351,0,2852233,0.07458,0.03772,0.04846,0.001026,0.0012,0.03815,1.812e-05,0.0001488,0.1582,0.001429,2.495,0.006293,0,1,0
267300000000,267600000000,3995607351,0,2852233,0.06934,0.03772,0.04846,0.0006084,0.0007811,0.03815,2.384e-05,0.0001488,0.1621,0.003216,2.381,0.006054,0,1,0
267600000000,267900000000,3995607351,0,2852233,0.06726,0.0376,0.04846,0.0007915,0.0009651,0.03772,2.003e-05,0.0001488,0.1311,0.0009289,2.549,0.00669,0,1,0
267900000000,268200000000,3995607351,0,2852233,0.06531,0.03766,0.04846,0.0008411,0.001015,0.03784,2.766e-05,0.0001488,0.1626,0.002998,2.466,0.006264,0,1,0
268200000000,268500000000,3995607351,0,2852233,0.06372,0.03864,0.04889,0.001362,0.001595,0.04395,0.001511,0.0001497,0.166,0.04816,2.435,0.006125,0,1,0
268500000000,268800000000,3995607351,0,2852233,0.06189,0.04291,0.05035,0.01044,0.0108,0.04462,0.002369,0.0001736,0.1692,0.05145,2.451,0.006224,0,1,0
268800000000,269100000000,3995607351,0,2852233,0.0636,0.03986,0.05035,0.01143,0.01181,0.04077,0.0007725,0.0001812,0.158,0.01492,2.508,0.006569,0,1,0
269100000000,269400000000,3995607351,0,2852233,0.06323,0.03973,0.05035,0.01157,0.01195,0.03998,0.0009651,0.0001755,0.1394,0.01414,2.529,0.006576,0,1,0
269400000000,269700000000,3995607351,0,2852233,0.05878,0.03961,0.05035,0.01167,0.01205,0.03973,0.001331,0.0001802,0.1078,0.01271,2.567,0.006743,0,1,0
269700000000,270000000000,3995607351,0,2852233,0.0603,0.03967,0.05035,0.01161,0.01199,0.0401,0.001461,0.0001764,0.1309,0.01335,2.508,0.006504,0,1,0
270000000000,270300000000,3995607351,0,2852233,0.05969,0.03967,0.05035,0.0116,0.01198,0.03986,0.001486,0.0001783,0.1056,0.01457,2.436,0.006256,0,1,0
270300000000,270600000000,3995607351,0,2852233,0.0625,0.03967,0.05035,0.01163,0.01201,0.03992,0.001585,0.0001822,0.1274,0.01422,2.424,0.006208,0,1,0
270600000000,270900000000,3995607351,0,2852233,0.05908,0.03967,0.05035,0.01161,0.01198,0.03998,0.001717,0.0001822,0.1309,0.01308,2.392,0.006076,0,1,0
270900000000,271200000000,3995607351,0,2852233,0.0531,0.03906,0.05035,0.008163,0.008545,0.03998,0.0007372,0.0001831,0.1202,0.01143,2.372,0.006024,0,1,0
271200000000,271500000000,3995607351,0,2852233,0.05615,0.03839,0.05042,0.00666,0.007034,0.03882,2.003e-05,0.0001841,0.1323,0.001499,2.504,0.006483,0,1,0
281400000000,281700000000,3995607351,0,2852233,0.07153,0.03912,0.05035,0.006775,0.007149,0.03937,3.147e-05,0.0001688,0.1541,0.004356,2.49,0.006458,0,1,0
281700000000,282000000000,3995607351,0,2852233,0.06049,0.03906,0.05035,0.006935,0.007317,0.03925,6.866e-05,0.0001688,0.1355,0.00293,2.514,0.006478,0,1,0
282000000000,282300000000,3995607351,0,2852233,0.07581,0.04266,0.05035,0.006592,0.006912,0.0517,0.003067,0.0001602,0.1873,0.05164,1.824,0.004164,0,1,0
282300000000,282600000000,3995607351,0,2852233,0.06348,0.04266,0.05042,0.005249,0.005417,0.04938,8.583e-05,0.0001392,0.137,0.009933,2.318,0.005657,0,1,0
282600000000,282900000000,3995607351,0,2852233,0.06409,0.03864,0.04974,0.005371,0.005539,0.03998,3.052e-05,0.0001392,0.1809,0.002285,2.408,0.0061,0,1,0
282900000000,283200000000,3995607351,0,2852233,0.06213,0.03772,0.04846,0.005402,0.005577,0.03796,1.717e-05,0.0001392,0.1367,0.0007143,2.455,0.006349,0,1,0
283200000000,283500000000,3995607351,0,2852233,0.06531,0.03772,0.04846,0.005562,0.005737,0.03784,5.627e-05,0.0001392,0.1543,0.003284,2.437,0.006271,0,1,0
283500000000,283800000000,3995607351,0,2852233,0.06311,0.03772,0.04846,0.005699,0.005882,0.03784,2.48e-05,0.0001392,0.1277,0.002285,2.396,0.005973,0,1,0
283800000000,284100000000,3995607351,0,2852233,0.06036,0.03772,0.04846,0.005821,0.005997,0.03796,2.098e-05,0.0001392,0.1365,0.001928,2.424,0.006207,0,1,0
284100000000,284400000000,3995607351,0,2852233,0.06348,0.03772,0.04846,0.005997,0.006172,0.03796,2.289e-05,0.0001392,0.1252,0.00293,2.444,0.006408,0,1,0
284400000000,284700000000,3995607351,0,2852233,0.06335,0.03772,0.04846,0.006172,0.006348,0.03778,1.717e-05,0.0001392,0.1562,0.0006428,2.386,0.006218,0,1,0
284700000000,285000000000,3995607351,0,2852233,0.06116,0.03772,0.04846,0.00634,0.006516,0.03784,2.766e-05,0.0001392,0.1218,0.00293,2.453,0.006514,0,1,0
285000000000,285300000000,3995607351,0,2852233,0.06763,0.03778,0.04846,0.006523,0.006706,0.03784,4.768e-05,0.0001392,0.1455,0.006142,2.467,0.006308,0,1,0
285300000000,285600000000,3995607351,0,2852233,0.06458,0.03778,0.04846,0.006714,0.006889,0.03796,3.815e-05,0.0001392,0.1387,0.00293,2.313,0.00577,0,1,0
285600000000,285900000000,3995607351,0,2852233,0.06555,0.03784,0.04846,0.006516,0.006699,0.03796,2.003e-05,0.0001392,0.1704,0.001358,2.452,0.006267,0,1,0
285900000000,286200000000,3995607351,0,2852233,0.06421,0.03778,0.04846,0.00132,0.001499,0.03796,3.338e-05,0.0001392,0.1694,0.001642,2.376,0.006008,0,1,0
286200000000,286500000000,3995607351,0,2852233,0.06824,0.03778,0.04846,0.0008364,0.001015,0.0379,4.101e-05,0.0001392,0.147,0.002857,2.412,0.00615,0,1,0
286500000000,286800000000,3995607351,0,2852233,0.06848,0.03796,0.04846,0.0007439,0.0009232,0.03839,4.101e-05,0.0001392,0.1428,0.00293,2.418,0.006201,0,1,0
286800000000,287100000000,3995607351,0,2852233,0.06738,0.03925,0.05017,0.0007553,0.0009346,0.04095,3.338e-05,0.0001392,0.1687,0.002857,2.447,0.006311,0,1,0
287100000000,287400000000,3995607351,0,2852233,0.06531,0.0379,0.04865,0.0009241,0.001102,0.03839,2.67e-05,0.0001392,0.1538,0.002144,2.436,0.0064,0,1,0
287400000000,287700000000,3995607351,0,2852233,0.06177,0.03784,0.04846,0.0007658,0.000946,0.0379,4.387e-05,0.0001392,0.1392,0.007217,2.478,0.006425,0,1,0
287700000000,288000000000,3995607351,0,2852233,0.06567,0.03784,0.04846,0.0006914,0.0008736,0.03802,4.196e-05,0.0001392,0.1538,0.006714,2.456,0.006359,0,1,0
288000000000,288300000000,3995607351,0,2852233,0.06494,0.03784,0.04846,0.0005331,0.0007153,0.0379,3.529e-05,0.0001392,0.1382,0.002644,2.483,0.006342,0,1,0
288300000000,288600000000,3995607351,0,2852233,0.06445,0.0379,0.04846,0.0007162,0.0008984,0.03802,4.959e-05,0.0001392,0.1565,0.00293,2.441,0.006329,0,1,0
288600000000,288900000000,3995607351,0,2852233,0.07141,0.0379,0.04846,0.0009041,0.001087,0.03809,2.861e-05,0.0001392,0.1628,0.001642,2.401,0.006122,0,1,0
288900000000,289200000000,3995607351,0,2852233,0.06641,0.03796,0.04846,0.001091,0.001274,0.03827,2.766e-05,0.0001392,0.1228,0.001215,2.493,0.006404,0,1,0
289200000000,289500000000,3995607351,0,2852233,0.06531,0.0379,0.04846,0.0009899,0.001173,0.03802,1.717e-05,0.0001392,0.1484,0.0009995,2.454,0.00621,0,1,0
289500000000,289800000000,3995607351,0,2852233,0.06738,0.03796,0.04846,0.000515,0.0006981,0.03802,1.431e-05,0.0001392,0.1572,0.0007143,2.552,0.006536,0,1,0
289800000000,290100000000,3995607351,0,2852233,0.07166,0.03796,0.04846,0.0004892,0.0006723,0.03815,2.098e-05,0.0001392,0.155,0.0007858,2.418,0.00606,0,1,0
290100000000,290400000000,3995607351,0,2852233,0.06592,0.03796,0.04846,0.0004368,0.0006199,0.03809,3.338e-05,0.0001392,0.1353,0.00293,2.485,0.006538,0,1,0
290400000000,290700000000,3995607351,0,2852233,0.06763,0.03802,0.04846,0.0006294,0.0008125,0.03833,3.624e-05,0.0001392,0.1438,0.00293,2.447,0.006205,0,1,0
290700000000,291000000000,3995607351,0,2852233,0.06812,0.03802,0.04846,0.000598,0.0007811,0.03809,3.433e-05,0.0001392,0.1477,0.002716,2.484,0.006341,0,1,0
291000000000,291300000000,3995607351,0,2852233,0.06531,0.03796,0.04846,0.0005388,0.0007219,0.03815,1.812e-05,0.0001392,0.1306,0.0007143,2.449,0.006302,0,1,0
291300000000,291600000000,3995607351,0,2852233,0.06799,0.03802,0.04846,0.0007334,0.0009165,0.03821,2.384e-05,0.0001392,0.1255,0.001572,2.458,0.006358,0,1,0
291600000000,291900000000,3995607351,0,2852233,0.06628,0.03802,0.04846,0.0009317,0.001116,0.03815,4.196e-05,0.0001392,0.1401,0.002857,2.472,0.006383,0,1,0
291900000000,292200000000,3995607351,0,2852233,0.06445,0.03802,0.04846,0.001125,0.001308,0.03815,3.719e-05,0.0001392,0.1423,0.00293,2.5,0.006471,0,1,0
292200000000,292500000000,3995607351,0,2852233,0.07043,0.03809,0.04846,0.001328,0.001511,0.03827,2.67e-05,0.0001392,0.1638,0.001499,2.454,0.006225,0,1,0
292500000000,292800000000,3995607351,0,2852233,0.06567,0.03809,0.04846,0.001524,0.001707,0.03839,2.67e-05,0.0001392,0.1465,0.00293,2.493,0.00641,0,1,0
292800000000,293100000000,3995607351,0,2852233,0.06689,0.03815,0.04846,0.00108,0.001263,0.03845,0.0001049,0.0001392,0.1326,0.004501,2.471,0.006373,0,1,0
293100000000,293400000000,3995607351,0,2852233,0.06702,0.03809,0.04846,0.0005045,0.0006876,0.03815,3.433e-05,0.0001392,0.1406,0.00293,2.483,0.006448,0,1,0
293400000000,293700000000,3995607351,0,2852233,0.06592,0.03815,0.04846,0.0006981,0.0008812,0.03827,5.436e-05,0.0001392,0.1357,0.002998,2.504,0.006512,0,1,0
293700000000,294000000000,3995607351,0,2852233,0.06519,0.03815,0.04846,0.0006227,0.0008059,0.03833,2.575e-05,0.0001392,0.1215,0.001715,2.384,0.00596,0,1,0
294000000000,294300000000,3995607351,0,2852233,0.07043,0.03815,0.04846,0.0006247,0.0008078,0.03839,1.907e-05,0.0001392,0.1384,0.001358,2.399,0.005991,0,1,0
294300000000,294600000000,3995607351,0,2852233,0.06995,0.03821,0.04846,0.0008278,0.001011,0.03845,4.578e-05,0.0001392,0.1462,0.00293,2.504,0.006343,0,1,0
294600000000,294900000000,3995607351,0,2852233,0.06714,0.03815,0.04846,0.00103,0.001213,0.03845,2.67e-05,0.0001392,0.1455,0.002857,2.51,0.006363,0,1,0
294900000000,295200000000,3995607351,0,2852233,0.07202,0.03821,0.04846,0.001097,0.00128,0.03839,2.861e-05,0.0001392,0.1296,0.003784,2.567,0.006615,0,1,0
295200000000,295500000000,3995607351,0,2852233,0.06897,0.03821,0.04846,0.0005026,0.0006857,0.03827,2.861e-05,0.0001392,0.1323,0.002499,2.493,0.006416,0,1,0
295500000000,295800000000,3995607351,0,2852233,0.06787,0.03821,0.04846,0.0007029,0.000886,0.03839,3.91e-05,0.0001392,0.126,0.003071,2.532,0.006484,0,1,0
295800000000,296100000000,3995607351,0,2852233,0.07385,0.03827,0.04846,0.0009155,0.001099,0.03857,2.289e-05,0.0001392,0.1531,0.001358,2.398,0.006005,0,1,0
296100000000,296400000000,3995607351,0,2852233,0.07397,0.03827,0.04846,0.001127,0.00131,0.03851,3.529e-05,0.0001392,0.1521,0.00293,2.537,0.006499,0,1,0
296400000000,296700000000,3995607351,0,2852233,0.07666,0.03839,0.04907,0.001343,0.001526,0.039,2.289e-05,0.0001392,0.1516,0.001715,2.451,0.006243,0,1,0
296700000000,297000000000,3995607351,0,2852233,0.06726,0.03851,0.05042,0.001551,0.001734,0.03918,2.289e-05,0.0001392,0.1741,0.001999,2.431,0.006076,0,1,0
297000000000,297300000000,3995607351,0,2852233,0.06934,0.03833,0.05042,0.001751,0.001934,0.03845,3.719e-05,0.0001392,0.1436,0.002857,2.457,0.006352,0,1,0
297300000000,297600000000,3995607351,0,2852233,0.06836,0.03833,0.05042,0.001953,0.002136,0.0387,4.959e-05,0.0001392,0.1465,0.00293,2.511,0.006436,0,1,0
297600000000,297900000000,3995607351,0,2852233,0.07019,0.03833,0.05042,0.002155,0.002338,0.03845,3.719e-05,0.0001392,0.1311,0.002857,2.483,0.006417,0,1,0
297900000000,298200000000,3995607351,0,2852233,0.0675,0.03833,0.05042,0.002354,0.002537,0.03845,2.003e-05,0.0001392,0.1682,0.001286,2.472,0.00616,0,1,0
298200000000,298500000000,3995607351,0,2852233,0.06665,0.03839,0.05042,0.002544,0.002728,0.03888,3.052e-05,0.0001392,0.1414,0.001785,2.477,0.006312,0,1,0
298500000000,298800000000,3995607351,0,2852233,0.06921,0.03839,0.05042,0.002735,0.002918,0.03864,3.529e-05,0.0001392,0.1721,0.00293,2.48,0.006348,0,1,0
298800000000,299100000000,3995607351,0,2852233,0.06787,0.03839,0.05042,0.002914,0.003098,0.03857,3.719e-05,0.0001392,0.1487,0.002857,2.498,0.006387,0,1,0
299100000000,299400000000,3995607351,0,2852233,0.06458,0.03839,0.05042,0.003036,0.00322,0.03857,2.766e-05,0.0001392,0.1301,0.002357,2.482,0.006398,0,1,0
299400000000,299700000000,3995607351,0,2852233,0.0719,0.03839,0.05042,0.0004749,0.000658,0.03851,2.289e-05,0.0001392,0.1514,0.001358,2.47,0.006432,0,1,0
299700000000,300000000000,3995607351,0,2852233,0.06677,0.03845,0.05042,0.0006676,0.0008507,0.03888,3.147e-05,0.0001392,0.1506,0.002499,2.518,0.0065,0,1,0
