5700000000,6000000000,3996515093,0,4304773590,0.002506,0.00972,0.01746,0.001152,0.001572,0.00972,0.0001144,7.82e-05,0.004333,0.003143,4.798,0.01585,0,1,0
6000000000,6300000000,3996515093,0,4304773590,0.002533,0.00972,0.01746,0.001312,0.001732,0.009735,0.0001135,7.629e-05,0.005127,0.003784,4.99,0.01685,0,1,0
6300000000,6600000000,3996515093,0,4304773590,0.002472,0.009735,0.01746,0.001612,0.002033,0.00975,9.251e-05,7.82e-05,0.005814,0.002571,4.916,0.0165,0,1,0
6600000000,6900000000,3996515093,0,4304773590,0.002659,0.009781,0.01746,0.001915,0.002335,0.01028,9.727e-05,7.629e-05,0.02838,0.00293,4.876,0.01625,0,1,0
6900000000,7200000000,3996515093,0,4304773590,0.002537,0.00975,0.01746,0.002266,0.002686,0.009766,8.965e-05,7.82e-05,0.004898,0.003284,5.371,0.01887,0,1,0
7200000000,7500000000,3996515093,0,4304773590,0.002716,0.009796,0.01746,0.001242,0.001661,0.01033,0.0001097,7.725e-05,0.04108,0.00293,5.428,0.01889,0,1,0
7500000000,7800000000,3996515093,0,4304773590,0.002499,0.00972,0.01746,0.001534,0.001953,0.009735,7.439e-05,7.725e-05,0.006897,0.001499,4.959,0.01682,0,1,0
7800000000,8100000000,3996515093,0,4304773590,0.002621,0.009735,0.01746,0.001852,0.00227,0.009735,0.000104,7.725e-05,0.005714,0.003284,5.443,0.0194,0,1,0
8100000000,8400000000,3996515093,0,4304773590,0.00264,0.009735,0.01746,0.002171,0.00259,0.00975,9.155e-05,7.725e-05,0.005287,0.002857,6.135,0.02319,0,1,0
8400000000,8700000000,3996515093,0,4304773590,0.002403,0.009735,0.01746,0.001492,0.001909,0.00975,0.0001163,7.82e-05,0.0047,0.003143,5.13,0.01777,0,1,0
8700000000,9000000000,3996515093,0,4304773590,0.002338,0.00975,0.01746,0.001383,0.001802,0.009766,9.727e-05,7.629e-05,0.004883,0.002571,5.005,0.01688,0,1,0
9000000000,9300000000,3996515093,0,4304773590,0.002369,0.00975,0.01746,0.0008726,0.001291,0.009766,7.534e-05,7.82e-05,0.004463,0.001572,5.314,0.01857,0,1,0
9300000000,9600000000,3996515093,0,4304773590,0.002384,0.009766,0.01746,0.0005245,0.0009432,0.009766,7.915e-05,7.725e-05,0.005714,0.001928,4.988,0.01688,0,1,0
9600000000,9900000000,3996515093,0,4304773590,0.002369,0.009766,0.01746,0.0008354,0.001255,0.009781,0.0001078,7.725e-05,0.005432,0.002857,4.919,0.01639,0,1,0
9900000000,10200000000,3996515093,0,4304773590,0.002438,0.009781,0.01746,0.001106,0.001526,0.009781,8.106e-05,7.725e-05,0.006119,0.002285,5.191,0.01785,0,1,0
10200000000,10500000000,3996515093,0,4304773590,0.002476,0.009827,0.01746,0.001322,0.001741,0.01038,7.725e-05,7.725e-05,0.03046,0.002998,5.072,0.01719,0,1,0
10500000000,10800000000,3996515093,0,4304773590,0.002483,0.009842,0.01746,0.0005407,0.0009594,0.009857,9.537e-05,7.82e-05,0.005188,0.004143,5.178,0.01825,0,1,0
10800000000,11100000000,3996515093,0,4304773590,0.002613,0.009888,0.01746,0.0006018,0.00102,0.01039,0.0001068,7.629e-05,0.05023,0.003216,5.391,0.01901,0,1,0
11100000000,11400000000,3996515093,0,4304773590,0.002357,0.009811,0.01746,0.0009108,0.001329,0.009827,8.202e-05,7.82e-05,0.005157,0.002998,5.238,0.01807,0,1,0
11400000000,11700000000,3996515093,0,4304773590,0.002338,0.009827,0.01746,0.001158,0.001577,0.009827,8.011e-05,7.725e-05,0.005592,0.00243,5.299,0.01843,0,1,0
11700000000,12000000000,3996515093,0,4304773590,0.002266,0.009827,0.01746,0.0009975,0.001417,0.009842,0.0001001,7.725e-05,0.004265,0.002857,5.403,0.01935,0,1,0
12000000000,12300000000,3996515093,0,4304773590,0.002331,0.009827,0.01746,0.000288,0.0007076,0.009842,8.011e-05,7.82e-05,0.004913,0.002499,5.347,0.01849,0,1,0
12300000000,12600000000,3996515093,0,4304773590,0.002361,0.009842,0.01746,0.0005779,0.0009956,0.009857,9.823e-05,7.629e-05,0.004242,0.002785,5.417,0.01916,0,1,0
12600000000,12900000000,3996515093,0,4304773590,0.00243,0.009842,0.01746,0.0008402,0.001259,0.009857,0.000102,7.82e-05,0.004875,0.002499,5.296,0.01855,0,1,0
12900000000,13200000000,3996515093,0,4304773590,0.002365,0.009857,0.01746,0.001081,0.001501,0.009857,9.918e-05,7.725e-05,0.004578,0.002857,5.442,0.01955,0,1,0
13200000000,13500000000,3996515093,0,4304773590,0.002373,0.009857,0.01746,0.001286,0.001705,0.009872,9.441e-05,7.725e-05,0.004868,0.002857,5.856,0.02151,0,1,0
13500000000,13800000000,3996515093,0,4304773590,0.002338,0.009872,0.01746,0.0007172,0.001137,0.009888,7.82e-05,7.82e-05,0.004829,0.002857,6.017,0.02239,0,1,0
13800000000,14100000000,3996515093,0,4304773590,0.002548,0.009872,0.01746,0.0005455,0.0009642,0.009888,0.000102,7.629e-05,0.006516,0.003998,5.833,0.0214,0,1,0
14100000000,14400000000,3996515093,0,4304773590,0.002529,0.009933,0.01746,0.0008011,0.001221,0.01045,7.915e-05,7.82e-05,0.03137,0.002785,6.094,0.02268,0,1,0
14400000000,14700000000,3996515093,0,4304773590,0.002518,0.009979,0.01746,0.001072,0.001492,0.0105,9.155e-05,7.725e-05,0.04266,0.002857,5.44,0.0192,0,1,0
14700000000,15000000000,3996515093,0,4304773590,0.002216,0.009903,0.01746,0.00132,0.001738,0.009918,9.632e-05,7.725e-05,0.005104,0.002716,5.609,0.01995,0,1,0
15000000000,15300000000,3996515093,0,4304773590,0.002296,0.009903,0.01746,0.001572,0.001991,0.009918,8.106e-05,7.82e-05,0.005836,0.002285,5.789,0.02114,0,1,0
15300000000,15600000000,3996515093,0,4304773590,0.002148,0.009918,0.01746,0.001772,0.002193,0.009918,8.583e-05,7.629e-05,0.004761,0.002857,5.55,0.0203,0,1,0
15600000000,15900000000,3996515093,0,4304773590,0.002014,0.009918,0.01746,0.001991,0.002411,0.009933,6.866e-05,7.725e-05,0.005936,0.001858,5.023,0.01745,0,1,0
15900000000,16200000000,3996515093,0,4304773590,0.00209,0.009933,0.01746,0.001244,0.001663,0.009933,8.011e-05,7.82e-05,0.00531,0.002499,5.332,0.01889,0,1,0
16200000000,16500000000,3996515093,0,4304773590,0.002132,0.009949,0.01746,0.001228,0.001648,0.009949,7.439e-05,7.629e-05,0.003937,0.002857,4.895,0.01658,0,1,0
16500000000,16800000000,3996515093,0,4304773590,0.002209,0.009949,0.01746,0.001478,0.001898,0.009964,9.727e-05,7.725e-05,0.004807,0.00293,5.476,0.0197,0,1,0
16800000000,17100000000,3996515093,0,4304773590,0.002136,0.009949,0.01746,0.001713,0.002132,0.009964,8.965e-05,7.82e-05,0.00441,0.00293,4.873,0.01659,0,1,0
17100000000,17400000000,3996515093,0,4304773590,0.002083,0.009964,0.01746,0.001778,0.002197,0.009964,9.823e-05,7.629e-05,0.004478,0.002857,5.558,0.0206,0,1,0
17400000000,17700000000,3996515093,0,4304773590,0.002075,0.009964,0.01746,0.0007734,0.001194,0.01004,7.153e-05,7.82e-05,0.01053,0.001999,5.465,0.01987,0,1,0
17700000000,18000000000,3996515093,0,4304773590,0.002041,0.009995,0.01746,0.001022,0.001442,0.01054,7.153e-05,7.82e-05,0.02826,0.001858,5.07,0.01792,0,1,0
18000000000,18300000000,3996515093,0,4304773590,0.002495,0.01004,0.01746,0.001253,0.001673,0.01057,0.0001564,7.629e-05,0.039,0.003216,4.982,0.01712,0,1,0
18300000000,18600000000,3996515093,0,4304773590,0.002693,0.01013,0.01746,0.001482,0.001902,0.01016,0.0001564,7.82e-05,0.005196,0.00293,5.347,0.01888,0,1,0
18600000000,18900000000,3996515093,0,4304773590,0.002602,0.01021,0.01746,0.00172,0.00214,0.01024,0.0001307,7.725e-05,0.007095,0.002857,5.51,0.01947,0,1,0
18900000000,19200000000,3996515093,0,4304773590,0.002445,0.01025,0.01746,0.001923,0.002342,0.01028,0.0001535,7.725e-05,0.005615,0.002998,5.364,0.01907,0,1,0
19200000000,19500000000,3996515093,0,4304773590,0.002529,0.0103,0.01746,0.002144,0.002563,0.01033,0.0001163,7.82e-05,0.006157,0.003071,5.98,0.0228,0,1,0
19500000000,19800000000,3996515093,0,4304773590,0.002613,0.01033,0.01746,0.002396,0.002815,0.01035,0.0001135,7.725e-05,0.007111,0.003216,6.101,0.02242,0,1,0
19800000000,20100000000,3996515093,0,4304773590,0.002453,0.01035,0.01746,0.002632,0.003052,0.01036,0.0001011,7.725e-05,0.004631,0.003643,6.058,0.02317,0,1,0
20100000000,20400000000,3996515093,0,4304773590,0.002411,0.01036,0.01746,0.002834,0.003254,0.01038,0.0001125,7.82e-05,0.005768,0.00293,6.234,0.02329,0,1,0
20400000000,20700000000,3996515093,0,4304773590,0.002438,0.01039,0.01746,0.001932,0.002354,0.01041,0.0001307,7.629e-05,0.0047,0.003284,5.936,0.02221,0,1,0
20700000000,21000000000,3996515093,0,4304773590,0.002457,0.01041,0.01746,0.000679,0.001099,0.01042,0.0001125,7.725e-05,0.01375,0.002998,5.816,0.02168,0,1,0
21000000000,21300000000,3996515093,0,4304773590,0.002506,0.01042,0.01746,0.0009613,0.001381,0.01044,0.0001192,7.82e-05,0.006096,0.00293,6.113,0.02343,0,1,0
21300000000,21600000000,3996515093,0,4304773590,0.002396,0.01044,0.01746,0.001228,0.001648,0.01044,7.82e-05,7.629e-05,0.005287,0.002071,6.085,0.02315,0,1,0
21600000000,21900000000,3996515093,0,4304773590,0.002602,0.01051,0.01746,0.001432,0.001852,0.01106,0.0001087,7.82e-05,0.06158,0.003357,5.824,0.02161,0,1,0
21900000000,22200000000,3996515093,0,4304773590,0.002468,0.0105,0.01746,0.00168,0.002102,0.01056,9.441e-05,7.725e-05,0.009735,0.003357,5.806,0.0219,0,1,0
22200000000,22500000000,3996515093,0,4304773590,0.002419,0.0105,0.01746,0.001957,0.002377,0.01051,7.629e-05,7.725e-05,0.005852,0.002998,6.41,0.02496,0,1,0
22500000000,22800000000,3996515093,0,4304773590,0.0023,0.01051,0.01746,0.001118,0.001537,0.01051,0.0001259,7.82e-05,0.005188,0.002998,5.719,0.02162,0,1,0
22800000000,23100000000,3996515093,0,4304773590,0.00235,0.01053,0.01746,0.001089,0.001509,0.01054,8.488e-05,7.725e-05,0.00547,0.002357,6.254,0.02429,0,1,0
23100000000,23400000000,3996515093,0,4304773590,0.002464,0.01054,0.01746,0.001375,0.001795,0.01054,8.202e-05,7.725e-05,0.004982,0.004143,5.727,0.02132,0,1,0
23400000000,23700000000,3996515093,0,4304773590,0.002365,0.01056,0.01746,0.001036,0.001455,0.01056,0.0001173,7.82e-05,0.005447,0.002857,5.683,0.02094,0,1,0
23700000000,24000000000,3996515093,0,4304773590,0.002472,0.01057,0.01746,0.0004692,0.0008888,0.01059,7.534e-05,7.629e-05,0.00489,0.001858,5.71,0.02105,0,1,0
24000000000,24300000000,3996515093,0,4304773590,0.002544,0.01059,0.01746,0.0007524,0.001173,0.01059,8.869e-05,7.725e-05,0.005402,0.003071,6.343,0.02417,0,1,0
24300000000,24600000000,3996515093,0,4304773590,0.002518,0.01059,0.01746,0.001015,0.001434,0.0106,9.918e-05,7.82e-05,0.005058,0.004074,5.847,0.02191,0,1,0
24600000000,24900000000,3996515093,0,4304773590,0.002579,0.0106,0.01746,0.001295,0.001715,0.01062,8.965e-05,7.725e-05,0.008347,0.002644,5.914,0.0218,0,1,0
24900000000,25200000000,3996515093,0,4304773590,0.002472,0.01062,0.01746,0.001564,0.001984,0.01062,0.000102,7.82e-05,0.005043,0.003571,5.696,0.02076,0,1,0
25200000000,25500000000,3996515093,0,4304773590,0.00288,0.0107,0.01767,0.0005236,0.0009432,0.01123,8.297e-05,7.725e-05,0.05475,0.002499,6.234,0.02337,0,1,0
25500000000,25800000000,3996515093,0,4304773590,0.002617,0.01067,0.01746,0.0007715,0.001192,0.0107,0.0001183,7.725e-05,0.008423,0.003502,6.075,0.02293,0,1,0
25800000000,26100000000,3996515093,0,4304773590,0.002708,0.01067,0.01746,0.001013,0.001432,0.01068,0.0001268,7.82e-05,0.004654,0.003357,5.849,0.02142,0,1,0
26100000000,26400000000,3996515093,0,4304773590,0.002949,0.01068,0.01746,0.001078,0.001497,0.0107,0.0001335,7.629e-05,0.005142,0.003357,6.429,0.02499,0,1,0
26400000000,26700000000,3996515093,0,4304773590,0.002895,0.0107,0.01746,0.0002909,0.0007114,0.0107,0.0001268,7.82e-05,0.005539,0.002857,6.345,0.02424,0,1,0
26700000000,27000000000,3996515093,0,4304773590,0.002621,0.0107,0.01746,0.0005617,0.0009823,0.01071,0.0001373,7.725e-05,0.005501,0.002998,5.816,0.02143,0,1,0
27000000000,27300000000,3996515093,0,4304773590,0.002586,0.01071,0.01746,0.0008192,0.00124,0.01073,0.0001497,7.725e-05,0.005264,0.003216,5.666,0.0208,0,1,0
27300000000,27600000000,3996515093,0,4304773590,0.002628,0.01073,0.01746,0.001133,0.001553,0.01074,0.0001831,7.725e-05,0.005272,0.00293,5.001,0.01746,0,1,0
27600000000,27900000000,3996515093,0,4304773590,0.002495,0.01074,0.01746,0.001478,0.0019,0.01074,0.0001469,7.725e-05,0.004791,0.003643,5.155,0.01817,0,1,0
27900000000,28200000000,3996515093,0,4304773590,0.002525,0.01074,0.01746,0.00177,0.00219,0.01076,9.632e-05,7.82e-05,0.005226,0.004646,4.881,0.01672,0,1,0
28200000000,28500000000,3996515093,0,4304773590,0.00285,0.01076,0.01746,0.002113,0.002533,0.01076,9.346e-05,7.629e-05,0.005142,0.001858,6.128,0.02325,0,1,0
28500000000,28800000000,3996515093,0,4304773590,0.002892,0.01077,0.01746,0.002426,0.002846,0.01077,0.0001345,7.82e-05,0.005241,0.003216,6.17,0.02342,0,1,0
28800000000,29100000000,3996515093,0,4304773590,0.003059,0.01085,0.01773,0.002693,0.003113,0.01137,0.000165,7.725e-05,0.05225,0.003429,5.518,0.02015,0,1,0
29100000000,29400000000,3996515093,0,4304773590,0.002697,0.0108,0.01746,0.001343,0.001762,0.01085,0.000206,7.82e-05,0.01068,0.00293,5.302,0.019,0,1,0
29400000000,29700000000,3996515093,0,4304773590,0.002674,0.01079,0.01746,0.000741,0.001162,0.0108,0.0001822,7.725e-05,0.00531,0.003571,5.579,0.02003,0,1,0
29700000000,30000000000,3996515093,0,4304773590,0.002563,0.01079,0.01746,0.001045,0.001467,0.0108,0.0001526,7.725e-05,0.004982,0.00293,5.22,0.01811,0,1,0
30000000000,30300000000,3996515093,0,4304773590,0.002972,0.01082,0.01746,0.001356,0.001776,0.01083,0.0001183,7.82e-05,0.005852,0.003284,6.098,0.02349,0,1,0
30300000000,30600000000,3996515093,0,4304773590,0.002945,0.01082,0.01746,0.0008574,0.001278,0.01083,0.0001469,7.725e-05,0.007454,0.00293,6.333,0.02404,0,1,0
30600000000,30900000000,3996515093,0,4304773590,0.002754,0.01083,0.01746,0.0006828,0.001102,0.01085,0.0001755,7.82e-05,0.008545,0.00293,5.667,0.02041,0,1,0
30900000000,31200000000,3996515093,0,4304773590,0.002625,0.01083,0.01746,0.001024,0.001444,0.01085,0.0001116,7.629e-05,0.0056,0.002857,5.346,0.01876,0,1,0
31200000000,31500000000,3996515093,0,4304773590,0.002583,0.01085,0.01746,0.001354,0.001776,0.01086,0.0001211,7.82e-05,0.006119,0.00293,4.901,0.01664,0,1,0
31500000000,31800000000,3996515093,0,4304773590,0.003006,0.01086,0.01746,0.001654,0.002075,0.01088,0.0001497,7.725e-05,0.006592,0.003929,6.128,0.02333,0,1,0
31800000000,32100000000,3996515093,0,4304773590,0.003021,0.01088,0.01746,0.001976,0.002396,0.01096,0.000103,7.82e-05,0.01144,0.002644,6.17,0.02384,0,1,0
32100000000,32400000000,3996515093,0,4304773590,0.00304,0.01088,0.01746,0.002327,0.00275,0.01089,0.0001554,7.725e-05,0.006981,0.003216,5.862,0.02154,0,1,0
32400000000,32700000000,3996515093,0,4304773590,0.00296,0.01089,0.01746,0.002262,0.002682,0.01091,0.0001459,7.725e-05,0.008087,0.003071,5.644,0.02097,0,1,0
32700000000,33000000000,3996515093,0,4304773590,0.002903,0.01096,0.01782,0.001884,0.002304,0.01149,0.0001936,7.725e-05,0.02814,0.002857,5.048,0.01755,0,1,0
33000000000,33300000000,3996515093,0,4304773590,0.002827,0.01097,0.01938,0.002026,0.002445,0.01103,0.0001898,7.725e-05,0.008942,0.005501,5.228,0.01925,0,1,0
33300000000,33600000000,3996515093,0,4304773590,0.003178,0.01105,0.01938,0.001705,0.002071,0.01161,0.0002356,7.725e-05,0.05084,0.003143,3.359,0.01005,0,1,0
33600000000,33900000000,3996515093,0,4304773590,0.003231,0.01089,0.01767,0.0007458,0.0009651,0.01099,0.0001345,7.725e-05,0.008041,0.002857,6.234,0.02299,0,1,0
33900000000,34200000000,3996515093,0,4304773590,0.003269,0.01086,0.01746,0.0004969,0.0007153,0.01091,0.0001221,7.725e-05,0.00856,0.00293,6.212,0.02267,0,1,0
34200000000,34500000000,3996515093,0,4304773590,0.003323,0.01088,0.01746,0.0008764,0.001095,0.01091,0.0001326,7.725e-05,0.007935,0.002716,6.126,0.02131,0,1,0
34500000000,34800000000,3996515093,0,4304773590,0.003353,0.01089,0.01746,0.001242,0.001459,0.01094,0.0001001,7.725e-05,0.007828,0.002998,6.313,0.02306,0,1,0
34800000000,35100000000,3996515093,0,4304773590,0.003452,0.01089,0.01746,0.0007925,0.001009,0.01094,0.0001249,7.725e-05,0.009491,0.002571,6.557,0.02448,0,1,0
35100000000,35400000000,3996515093,0,4304773590,0.003429,0.01091,0.01746,0.0007114,0.0009289,0.01096,0.0001287,7.725e-05,0.008057,0.003143,6.432,0.02413,0,1,0
35400000000,35700000000,3996515093,0,4304773590,0.003399,0.01097,0.01782,0.001104,0.00132,0.01158,0.0001154,7.725e-05,0.03143,0.002857,6.218,0.02275,0,1,0
35700000000,36000000000,3996515093,0,4304773590,0.003105,0.011,0.01941,0.00152,0.001738,0.01106,9.727e-05,7.725e-05,0.008911,0.001928,6.035,0.02185,0,1,0
36000000000,36300000000,3996515093,0,4304773590,0.003269,0.01105,0.01941,0.001942,0.002159,0.01163,0.0001192,7.725e-05,0.04199,0.003143,3.56,0.01102,0,1,0
36300000000,36600000000,3996515093,0,4304773590,0.003223,0.011,0.01941,0.002365,0.002583,0.01106,0.0001211,7.725e-05,0.009308,0.002857,5.743,0.02022,0,1,0
36600000000,36900000000,3996515093,0,4304773590,0.003117,0.01099,0.01941,0.001932,0.002151,0.01105,9.251e-05,7.725e-05,0.009033,0.00243,6.514,0.02479,0,1,0
36900000000,37200000000,3996515093,0,4304773590,0.00333,0.01106,0.01941,0.001734,0.001949,0.01163,0.0001183,7.725e-05,0.05615,0.003502,3.583,0.01158,0,1,0
37200000000,37500000000,3996515093,0,4304773590,0.003212,0.01105,0.01941,0.001839,0.002056,0.01109,0.0001087,7.725e-05,0.006454,0.003502,6.569,0.02484,0,1,0
37500000000,37800000000,3996515093,0,4304773590,0.003159,0.01105,0.01941,0.00102,0.001238,0.01109,9.918e-05,7.82e-05,0.005913,0.002857,6.369,0.02386,0,1,0
37800000000,38100000000,3996515093,0,4304773590,0.003147,0.01106,0.01941,0.001421,0.001638,0.01109,0.000104,7.725e-05,0.006165,0.003571,6.043,0.02246,0,1,0
38100000000,38400000000,3996515093,0,4304773590,0.003231,0.01106,0.01941,0.001833,0.002048,0.01111,0.000104,7.82e-05,0.006775,0.002285,6.369,0.02417,0,1,0
38400000000,38700000000,3996515093,0,4304773590,0.003075,0.01108,0.01941,0.00119,0.001408,0.01112,0.0001116,7.629e-05,0.007538,0.002857,5.932,0.02144,0,1,0
38700000000,39000000000,3996515093,0,4304773590,0.002949,0.01109,0.01941,0.001183,0.0014,0.01112,0.000124,7.82e-05,0.005302,0.003643,5.648,0.02011,0,1,0
39000000000,39300000000,3996515093,0,4304773590,0.002968,0.01109,0.01941,0.001606,0.001823,0.01114,9.06e-05,7.629e-05,0.004967,0.001785,5.73,0.02052,0,1,0
39300000000,39600000000,3996515093,0,4304773590,0.003033,0.01111,0.01941,0.002026,0.002243,0.01115,9.918e-05,7.82e-05,0.005524,0.00293,5.948,0.02176,0,1,0
39600000000,39900000000,3996515093,0,4304773590,0.003357,0.01118,0.01941,0.002445,0.002663,0.01172,0.0001183,7.629e-05,0.05341,0.002857,3.431,0.01022,0,1,0
39900000000,40200000000,3996515093,0,4304773590,0.003143,0.01112,0.01941,0.00288,0.003098,0.01117,0.0001049,7.82e-05,0.006477,0.002998,5.767,0.02113,0,1,0
40200000000,40500000000,3996515093,0,4304773590,0.002659,0.01111,0.01941,0.003204,0.003422,0.01118,8.392e-05,7.629e-05,0.004692,0.00293,5.883,0.02138,0,1,0
40500000000,40800000000,3996515093,0,4304773590,0.002655,0.01111,0.01941,0.002773,0.002991,0.01115,8.202e-05,7.82e-05,0.004875,0.002857,5.465,0.01925,0,1,0
51000000000,51300000000,3996515093,0,4304773590,0.004288,0.01146,0.01941,0.000473,0.0006914,0.01154,0.0001307,7.725e-05,0.01013,0.003071,5.873,0.02145,0,1,0
51300000000,51600000000,3996515093,0,4304773590,0.00386,0.01149,0.01941,0.0009384,0.001158,0.01154,0.0001421,7.82e-05,0.01176,0.003216,5.462,0.01821,0,1,0
51600000000,51900000000,3996515093,0,4304773590,0.003788,0.01149,0.01941,0.001518,0.001738,0.01154,0.0001402,7.725e-05,0.008881,0.004288,4.992,0.01623,0,1,0
51900000000,52200000000,3996515093,0,4304773590,0.003597,0.01151,0.01941,0.001984,0.002205,0.01155,0.0001669,7.725e-05,0.01614,0.002857,5.024,0.01645,0,1,0
52200000000,52500000000,3996515093,0,4304773590,0.003811,0.01151,0.01941,0.002552,0.002769,0.01155,0.0001755,7.82e-05,0.02298,0.002998,5.259,0.01782,0,1,0
52500000000,52800000000,3996515093,0,4304773590,0.003967,0.01152,0.01941,0.003101,0.003323,0.01158,0.0002003,7.725e-05,0.0123,0.004356,5.66,0.01905,0,1,0
52800000000,53100000000,3996515093,0,4304773590,0.003902,0.01154,0.01941,0.003605,0.003826,0.01157,0.000144,7.725e-05,0.007996,0.004646,5.329,0.01728,0,1,0
53100000000,53400000000,3996515093,0,4304773590,0.004082,0.01155,0.01941,0.002827,0.003048,0.0116,0.0001287,7.725e-05,0.007187,0.002857,5.361,0.01735,0,1,0
53400000000,53700000000,3996515093,0,4304773590,0.004211,0.01155,0.01941,0.003315,0.003532,0.01161,0.0001764,7.82e-05,0.00882,0.004143,5.682,0.01907,0,1,0
53700000000,54000000000,3996515093,0,4304773590,0.004425,0.01161,0.01941,0.003342,0.003555,0.01221,0.0001621,7.725e-05,0.03497,0.00243,5.966,0.02091,0,1,0
54000000000,54300000000,3996515093,0,4304773590,0.004501,0.01164,0.01941,0.003246,0.00346,0.01221,0.000164,7.725e-05,0.04846,0.003784,5.921,0.02034,0,1,0
54300000000,54600000000,3996515093,0,4304773590,0.003952,0.0116,0.01941,0.003834,0.004051,0.01172,0.0001545,7.725e-05,0.013,0.003998,5.295,0.01738,0,1,0
54600000000,54900000000,3996515093,0,4304773590,0.003815,0.0116,0.01941,0.001471,0.00169,0.01166,0.0001507,7.725e-05,0.009781,0.002499,4.995,0.01627,0,1,0
54900000000,55200000000,3996515093,0,4304773590,0.003819,0.0116,0.01941,0.0006456,0.000864,0.01164,0.0001431,7.725e-05,0.008408,0.003071,5.381,0.01805,0,1,0
55200000000,55500000000,3996515093,0,4304773590,0.00375,0.01161,0.01941,0.001272,0.00149,0.01166,0.0001421,7.725e-05,0.009186,0.002857,4.925,0.01572,0,1,0
55500000000,55800000000,3996515093,0,4304773590,0.00386,0.01163,0.01941,0.0007744,0.0009937,0.01167,0.0001402,7.725e-05,0.009888,0.002857,4.777,0.01502,0,1,0
55800000000,56100000000,3996515093,0,4304773590,0.004005,0.01163,0.01941,0.001036,0.001253,0.01166,0.0001659,7.725e-05,0.009308,0.004288,5.138,0.01627,0,1,0
56100000000,56400000000,3996515093,0,4304773590,0.004028,0.01164,0.01941,0.001675,0.001894,0.01169,0.0001698,7.725e-05,0.01801,0.004646,5.111,0.01618,0,1,0
56400000000,56700000000,3996515093,0,4304773590,0.003811,0.01164,0.01941,0.002308,0.002525,0.0117,0.0001507,7.725e-05,0.05017,0.00243,4.653,0.01405,0,1,0
56700000000,57000000000,3996515093,0,4304773590,0.003712,0.01166,0.01941,0.00198,0.002201,0.0117,0.0001507,7.82e-05,0.02567,0.003284,4.829,0.01515,0,1,0
57000000000,57300000000,3996515093,0,4304773590,0.003998,0.01167,0.01941,0.001768,0.001987,0.01181,0.0001411,7.725e-05,0.02588,0.003357,5.137,0.01663,0,1,0
57300000000,57600000000,3996515093,0,4304773590,0.003952,0.0117,0.01941,0.001232,0.00145,0.01228,0.000144,7.725e-05,0.03271,0.002857,5.165,0.01673,0,1,0
57600000000,57900000000,3996515093,0,4304773590,0.004105,0.01175,0.01941,0.001221,0.001438,0.01233,0.0001554,7.725e-05,0.0564,0.00293,5.241,0.01708,0,1,0
57900000000,58200000000,3996515093,0,4304773590,0.00399,0.01169,0.01941,0.0009766,0.001196,0.01175,0.0001307,7.82e-05,0.008942,0.002857,5.282,0.01718,0,1,0
58200000000,58500000000,3996515093,0,4304773590,0.003826,0.01169,0.01941,0.00153,0.001749,0.01173,0.000144,7.725e-05,0.01183,0.002857,5.036,0.01647,0,1,0
58500000000,58800000000,3996515093,0,4304773590,0.003929,0.0117,0.01941,0.001072,0.001289,0.01175,0.0001221,7.725e-05,0.01532,0.002857,5.326,0.01735,0,1,0
58800000000,59100000000,3996515093,0,4304773590,0.003944,0.01172,0.01941,0.001266,0.001486,0.01175,0.0001593,7.82e-05,0.02017,0.003357,5.258,0.01754,0,1,0
59100000000,59400000000,3996515093,0,4304773590,0.00399,0.01173,0.01941,0.0005398,0.0007582,0.01178,0.000144,7.725e-05,0.007858,0.00293,5.331,0.01763,0,1,0
59400000000,59700000000,3996515093,0,4304773590,0.003845,0.01175,0.01941,0.00102,0.00124,0.0118,0.0001564,7.725e-05,0.007797,0.002998,4.98,0.01581,0,1,0
59700000000,60000000000,3996515093,0,4304773590,0.003815,0.01175,0.01941,0.000988,0.001205,0.0118,0.0001554,7.725e-05,0.009842,0.004356,4.816,0.0152,0,1,0
60000000000,60300000000,3996515093,0,4304773590,0.003647,0.01175,0.01941,0.000762,0.0009804,0.01186,0.0002146,7.82e-05,0.00827,0.004425,4.878,0.01585,0,1,0
60300000000,60600000000,3996515093,0,4304773590,0.003807,0.01184,0.01938,0.001247,0.001465,0.01193,0.0001945,7.629e-05,0.007751,0.004501,5.57,0.01916,0,1,0
60600000000,60900000000,3996515093,0,4304773590,0.00386,0.01193,0.01938,0.0005512,0.0007696,0.01205,0.0001631,7.82e-05,0.01111,0.006218,5.725,0.0196,0,1,0
70800000000,71100000000,3996515093,0,4304773590,0.004684,0.01263,0.01941,0.001165,0.001385,0.0127,0.0001602,7.82e-05,0.007111,0.004288,5.252,0.01708,0,1,0
71100000000,71400000000,3996515093,0,4304773590,0.004288,0.01265,0.01941,0.001818,0.002037,0.01271,0.0001602,7.725e-05,0.02032,0.005928,5.115,0.01644,0,1,0
71400000000,71700000000,3996515093,0,4304773590,0.004234,0.01266,0.01941,0.002449,0.00267,0.01276,0.000186,7.725e-05,0.0119,0.003429,4.852,0.01506,0,1,0
71700000000,72000000000,3996515093,0,4304773590,0.004272,0.01265,0.01941,0.001116,0.001335,0.0127,0.000164,7.725e-05,0.00946,0.002857,5.039,0.01626,0,1,0
72000000000,72300000000,3996515093,0,4304773590,0.004677,0.01265,0.01941,0.001028,0.001245,0.01271,0.0002098,7.725e-05,0.008606,0.002857,5.268,0.01743,0,1,0
72300000000,72600000000,3996515093,0,4304773590,0.004807,0.01271,0.01962,0.001711,0.00193,0.01332,0.0001669,7.725e-05,0.0332,0.002998,5.813,0.01985,0,1,0
72600000000,72900000000,3996515093,0,4304773590,0.004753,0.01276,0.01941,0.002125,0.002342,0.01285,0.000185,7.82e-05,0.01086,0.004784,5.549,0.01837,0,1,0
72900000000,73200000000,3996515093,0,4304773590,0.005051,0.01283,0.01993,0.001617,0.001835,0.0135,0.0001812,7.725e-05,0.04382,0.00293,5.314,0.01795,0,1,0
73200000000,73500000000,3996515093,0,4304773590,0.004768,0.01283,0.0199,0.001324,0.001543,0.01302,0.0001469,7.725e-05,0.009354,0.002857,5.718,0.01911,0,1,0
73500000000,73800000000,3996515093,0,4304773590,0.004654,0.01277,0.01941,0.000844,0.001062,0.01283,0.0001602,7.725e-05,0.008011,0.005714,5.535,0.01877,0,1,0
73800000000,74100000000,3996515093,0,4304773590,0.004517,0.01279,0.01941,0.0007963,0.001015,0.01282,0.0001621,7.725e-05,0.009338,0.002998,5.658,0.01866,0,1,0
74100000000,74400000000,3996515093,0,4304773590,0.00444,0.01279,0.01941,0.001089,0.001308,0.01285,0.0001612,7.725e-05,0.007729,0.002857,5.296,0.01775,0,1,0
74400000000,74700000000,3996515093,0,4304773590,0.004242,0.0128,0.01941,0.0006895,0.0009089,0.01285,0.0001535,7.725e-05,0.006721,0.004288,4.996,0.01641,0,1,0
74700000000,75000000000,3996515093,0,4304773590,0.004204,0.0128,0.01941,0.00136,0.001579,0.01286,0.0001583,7.725e-05,0.007019,0.004997,5.224,0.01732,0,1,0
75000000000,75300000000,3996515093,0,4304773590,0.004402,0.01285,0.01965,0.002007,0.002228,0.01338,0.000164,7.725e-05,0.0271,0.002998,4.981,0.01634,0,1,0
75300000000,75600000000,3996515093,0,4304773590,0.004395,0.01276,0.01941,0.002731,0.002949,0.01286,0.0001478,7.725e-05,0.0116,0.00457,5.25,0.01714,0,1,0
75600000000,75900000000,3996515093,0,4304773590,0.004509,0.01282,0.01968,0.0005522,0.0007725,0.01344,0.0001917,7.725e-05,0.04675,0.005714,5.172,0.017,0,1,0
75900000000,76200000000,3996515093,0,4304773590,0.004356,0.01282,0.01941,0.001131,0.00135,0.01289,0.0001574,7.82e-05,0.01108,0.002998,5.209,0.01708,0,1,0
76200000000,76500000000,3996515093,0,4304773590,0.004242,0.0128,0.01941,0.001804,0.002026,0.01285,0.0001326,7.725e-05,0.007263,0.005783,5.155,0.01687,0,1,0
76500000000,76800000000,3996515093,0,4304773590,0.004364,0.01282,0.01941,0.002518,0.002735,0.01294,0.0001307,7.725e-05,0.01251,0.003216,4.842,0.01527,0,1,0
76800000000,77100000000,3996515093,0,4304773590,0.004265,0.01285,0.01941,0.002369,0.00259,0.01289,0.0001431,7.725e-05,0.009476,0.002857,4.799,0.01527,0,1,0
77100000000,77400000000,3996515093,0,4304773590,0.004227,0.01285,0.01941,0.002441,0.002663,0.01289,0.0001621,7.725e-05,0.0556,0.005074,5.232,0.01718,0,1,0
77400000000,77700000000,3996515093,0,4304773590,0.003784,0.01285,0.01941,0.00219,0.002411,0.01289,0.0001516,7.725e-05,0.007858,0.002998,4.358,0.01254,0,1,0
77700000000,78000000000,3996515093,0,4304773590,0.003799,0.01286,0.01941,0.0008221,0.001041,0.01289,0.000164,7.725e-05,0.01239,0.004997,4.524,0.01365,0,1,0
78000000000,78300000000,3996515093,0,4304773590,0.003811,0.01285,0.01941,0.001492,0.001713,0.01288,0.0001488,7.725e-05,0.01968,0.00293,4.547,0.01385,0,1,0
78300000000,78600000000,3996515093,0,4304773590,0.004112,0.01286,0.01941,0.001093,0.001312,0.01291,0.0001945,7.725e-05,0.01007,0.005714,5.083,0.01629,0,1,0
78600000000,78900000000,3996515093,0,4304773590,0.004074,0.01288,0.01941,0.001289,0.001509,0.01292,0.0001745,7.725e-05,0.009216,0.003284,4.772,0.01479,0,1,0
78900000000,79200000000,3996515093,0,4304773590,0.003975,0.01292,0.01978,0.00181,0.002029,0.01355,0.0001602,7.82e-05,0.03772,0.002857,4.729,0.01463,0,1,0
79200000000,79500000000,3996515093,0,4304773590,0.003975,0.01302,0.02136,0.001511,0.00173,0.01358,0.000164,7.725e-05,0.04468,0.003998,4.79,0.01523,0,1,0
79500000000,79800000000,3996515093,0,4304773590,0.003765,0.01294,0.02136,0.001776,0.001995,0.01302,0.0001326,7.725e-05,0.007019,0.003643,4.596,0.01435,0,1,0
79800000000,80100000000,3996515093,0,4304773590,0.003693,0.01292,0.02136,0.002399,0.002617,0.01297,0.0001211,7.725e-05,0.007195,0.002144,4.634,0.0146,0,1,0
80100000000,80400000000,3996515093,0,4304773590,0.003952,0.01302,0.02136,0.002995,0.003216,0.01358,0.0001545,7.82e-05,0.06396,0.003502,4.612,0.01496,0,1,0
80400000000,80700000000,3996515093,0,4304773590,0.003868,0.01299,0.02136,0.00267,0.002892,0.01303,0.0001535,7.725e-05,0.009811,0.004425,5.167,0.01695,0,1,0
80700000000,81000000000,3996515093,0,4304773590,0.003521,0.01299,0.02136,0.001209,0.001431,0.01305,0.0001307,7.725e-05,0.007225,0.003143,4.376,0.013,0,1,0
85800000000,86100000000,3996515093,0,4304773590,0.003574,0.01314,0.02136,0.001726,0.001945,0.0132,0.0001326,7.725e-05,0.01251,0.004715,5.315,0.01724,0,1,0
86100000000,86400000000,3996515093,0,4304773590,0.003593,0.01314,0.02136,0.002235,0.002457,0.0137,0.000123,7.725e-05,0.03125,0.002571,5.461,0.01827,0,1,0
86400000000,86700000000,3996515093,0,4304773590,0.003548,0.01318,0.02136,0.002739,0.00296,0.01373,0.0001173,7.82e-05,0.04742,0.002857,5.29,0.01766,0,1,0
86700000000,87000000000,3996515093,0,4304773590,0.003307,0.01314,0.02136,0.00322,0.003437,0.0132,0.0001307,7.725e-05,0.006714,0.002857,5.356,0.01792,0,1,0
87000000000,87300000000,3996515093,0,4304773590,0.003094,0.01314,0.02136,0.003586,0.003807,0.01318,0.0001125,7.82e-05,0.005539,0.003284,5.205,0.01754,0,1,0
87300000000,87600000000,3996515093,0,4304773590,0.003056,0.01314,0.02136,0.003914,0.004135,0.01318,9.632e-05,7.725e-05,0.006165,0.002071,5.333,0.01757,0,1,0
87600000000,87900000000,3996515093,0,4304773590,0.003101,0.01315,0.02136,0.004257,0.004478,0.01318,0.0001373,7.725e-05,0.006073,0.002857,5.682,0.01995,0,1,0
87900000000,88200000000,3996515093,0,4304773590,0.002975,0.01315,0.02136,0.004684,0.004906,0.0132,0.0001354,7.725e-05,0.006699,0.003216,4.895,0.01675,0,1,0
88200000000,88500000000,3996515093,0,4304773590,0.002777,0.01317,0.02136,0.001839,0.00206,0.01321,9.251e-05,7.725e-05,0.005188,0.003571,4.688,0.01502,0,1,0
88500000000,88800000000,3996515093,0,4304773590,0.002506,0.01315,0.02136,0.001341,0.001562,0.0132,0.0001011,7.725e-05,0.005127,0.002857,4.73,0.01634,0,1,0
88800000000,89100000000,3996515093,0,4304773590,0.002346,0.01315,0.02136,0.0007601,0.0009804,0.0132,7.82e-05,7.725e-05,0.004349,0.001858,4.715,0.01836,0,1,0
89100000000,89400000000,3996515093,0,4304773590,0.002548,0.01317,0.02136,0.0005989,0.0008202,0.01321,0.0001469,7.725e-05,0.005051,0.005928,5.008,0.01956,0,1,0
89400000000,89700000000,3996515093,0,4304773590,0.002476,0.01317,0.02136,0.0009613,0.001181,0.01321,9.632e-05,7.82e-05,0.004524,0.003216,5.431,0.02158,0,1,0
89700000000,90000000000,3996515093,0,4304773590,0.002857,0.0132,0.02136,0.001331,0.001553,0.01373,0.0001307,7.725e-05,0.02985,0.002857,5.522,0.02025,0,1,0
90000000000,90300000000,3996515093,0,4304773590,0.002884,0.0132,0.02136,0.001493,0.001715,0.01376,0.0001087,7.82e-05,0.04352,0.003571,4.766,0.016,0,1,0
90300000000,90600000000,3996515093,0,4304773590,0.002869,0.01315,0.02136,0.0005732,0.0007935,0.01328,0.0001249,7.629e-05,0.01135,0.002857,5.184,0.01741,0,1,0
90600000000,90900000000,3996515093,0,4304773590,0.002979,0.01315,0.02136,0.0009537,0.001175,0.01321,0.0001364,7.82e-05,0.00769,0.005714,5.452,0.0188,0,1,0
101100000000,101400000000,3996515093,0,4304773590,0.00227,0.01344,0.02136,0.001572,0.001793,0.01349,8.869e-05,7.725e-05,0.005104,0.002716,5.858,0.02209,0,1,0
101400000000,101700000000,3996515093,0,4304773590,0.002235,0.01343,0.02136,0.0003729,0.0005932,0.01347,5.531e-05,7.629e-05,0.008331,0.001499,6.359,0.0251,0,1,0
101700000000,102000000000,3996515093,0,4304773590,0.0023,0.01344,0.02136,0.0006189,0.0008392,0.01349,8.774e-05,7.82e-05,0.01183,0.002998,6.222,0.02446,0,1,0
102000000000,102300000000,3996515093,0,4304773590,0.002674,0.01347,0.02136,0.0008812,0.001102,0.01355,0.0001373,7.82e-05,0.007385,0.002644,6.122,0.02374,0,1,0
102300000000,102600000000,3996515093,0,4304773590,0.00301,0.0136,0.02133,0.001167,0.001389,0.01366,0.0001869,7.725e-05,0.006821,0.003429,6.477,0.02477,0,1,0
102600000000,102900000000,3996515093,0,4304773590,0.002914,0.01366,0.02133,0.001434,0.001654,0.0137,0.0001755,7.82e-05,0.006981,0.005432,6.587,0.0251,0,1,0
102900000000,103200000000,3996515093,0,4304773590,0.002731,0.0137,0.02136,0.001699,0.001921,0.01373,0.0001535,7.725e-05,0.005913,0.005714,6.363,0.02395,0,1,0
103200000000,103500000000,3996515093,0,4304773590,0.00264,0.01373,0.02136,0.001545,0.001766,0.01381,0.0001287,7.725e-05,0.007568,0.00293,6.34,0.02424,0,1,0
103500000000,103800000000,3996515093,0,4304773590,0.002609,0.01376,0.02136,0.0007343,0.0009546,0.01381,0.0001068,7.82e-05,0.005798,0.004997,6.514,0.02484,0,1,0
103800000000,104100000000,3996515093,0,4304773590,0.002644,0.01378,0.02136,0.0009995,0.001219,0.01385,9.537e-05,7.725e-05,0.01111,0.003429,6.899,0.02719,0,1,0
104100000000,104400000000,3996515093,0,4304773590,0.002563,0.01376,0.02136,0.001266,0.001488,0.01381,8.965e-05,7.725e-05,0.005722,0.002571,6.76,0.02677,0,1,0
104400000000,104700000000,3996515093,0,4304773590,0.002823,0.01387,0.02136,0.001534,0.001753,0.01445,0.0001059,7.82e-05,0.05579,0.002857,6.765,0.02625,0,1,0
104700000000,105000000000,3996515093,0,4304773590,0.002663,0.01387,0.02136,0.0005693,0.0007896,0.01393,8.774e-05,7.725e-05,0.005081,0.002144,6.828,0.02618,0,1,0
105000000000,105300000000,3996515093,0,4304773590,0.002331,0.01387,0.02136,0.0005436,0.0007639,0.01392,0.0001097,7.725e-05,0.004784,0.00293,6.673,0.02652,0,1,0
105300000000,105600000000,3996515093,0,4304773590,0.002304,0.01389,0.02136,0.0007763,0.0009975,0.01392,0.000104,7.82e-05,0.005035,0.003143,6.859,0.02746,0,1,0
105600000000,105900000000,3996515093,0,4304773590,0.0023,0.0139,0.02136,0.0009975,0.001219,0.01393,0.0001087,7.725e-05,0.005524,0.002857,6.224,0.02433,0,1,0
105900000000,106200000000,3996515093,0,4304773590,0.002491,0.01393,0.02136,0.001247,0.001469,0.01396,0.0001001,7.629e-05,0.006149,0.002716,6.004,0.02304,0,1,0
106200000000,106500000000,3996515093,0,4304773590,0.002586,0.01395,0.02136,0.00152,0.001741,0.01399,9.441e-05,7.82e-05,0.008484,0.002857,6.407,0.02489,0,1,0
106500000000,106800000000,3996515093,0,4304773590,0.002266,0.01395,0.02136,0.0009489,0.001169,0.01401,8.392e-05,7.725e-05,0.00544,0.003357,6.084,0.02349,0,1,0
106800000000,107100000000,3996515093,0,4304773590,0.002377,0.01396,0.02136,0.0005255,0.0007458,0.01401,0.0001011,7.629e-05,0.004745,0.003429,5.852,0.02249,0,1,0
107100000000,107400000000,3996515093,0,4304773590,0.002419,0.01398,0.02136,0.0007954,0.001017,0.01402,0.0001078,7.82e-05,0.004997,0.002998,6.308,0.02415,0,1,0
107400000000,107700000000,3996515093,0,4304773590,0.00256,0.01402,0.02136,0.001059,0.00128,0.01456,0.000103,7.82e-05,0.03973,0.002998,5.775,0.02201,0,1,0
107700000000,108000000000,3996515093,0,4304773590,0.002476,0.01401,0.02136,0.001328,0.001549,0.01407,0.0001011,7.629e-05,0.005371,0.00293,5.761,0.02174,0,1,0
108000000000,108300000000,3996515093,0,4304773590,0.002682,0.01407,0.02136,0.001598,0.001818,0.01465,0.0001249,7.82e-05,0.0434,0.003284,6.173,0.02393,0,1,0
108300000000,108600000000,3996515093,0,4304773590,0.002457,0.01405,0.02136,0.001854,0.002075,0.01411,0.000103,7.725e-05,0.005051,0.00293,6.449,0.02505,0,1,0
108600000000,108900000000,3996515093,0,4304773590,0.002308,0.01405,0.02136,0.001057,0.001278,0.0141,9.537e-05,7.725e-05,0.004074,0.002857,6.198,0.0239,0,1,0
108900000000,109200000000,3996515093,0,4304773590,0.002384,0.01407,0.02136,0.0009098,0.001131,0.01411,8.488e-05,7.82e-05,0.005325,0.002857,6.41,0.02526,0,1,0
109200000000,109500000000,3996515093,0,4304773590,0.00243,0.01408,0.02136,0.001184,0.001406,0.01413,9.727e-05,7.82e-05,0.006149,0.002857,5.867,0.02201,0,1,0
109500000000,109800000000,3996515093,0,4304773590,0.002495,0.0141,0.02136,0.00136,0.001581,0.01414,0.0001087,7.629e-05,0.004868,0.003357,6.297,0.02405,0,1,0
109800000000,110100000000,3996515093,0,4304773590,0.00246,0.01411,0.02136,0.0002356,0.0004568,0.01414,0.0001154,7.82e-05,0.006416,0.003357,6.213,0.02354,0,1,0
110100000000,110400000000,3996515093,0,4304773590,0.002529,0.01413,0.02136,0.0005054,0.0007267,0.01416,0.0001116,7.725e-05,0.005653,0.00293,5.952,0.02267,0,1,0
110400000000,110700000000,3996515093,0,4304773590,0.002552,0.01414,0.02136,0.000783,0.001003,0.01419,0.0001307,7.629e-05,0.007721,0.002998,6.518,0.02531,0,1,0
110700000000,111000000000,3996515093,0,4304773590,0.00256,0.01416,0.02136,0.001066,0.001287,0.01421,0.0001154,7.82e-05,0.004974,0.003571,6.48,0.02556,0,1,0
116100000000,116400000000,3996515093,0,4304773590,0.002636,0.01439,0.02136,0.0009327,0.001154,0.01443,8.869e-05,7.82e-05,0.005829,0.004425,5.156,0.01974,0,1,0
116400000000,116700000000,3996515093,0,4304773590,0.002609,0.0144,0.02136,0.001276,0.001497,0.01443,0.0001097,7.725e-05,0.00531,0.002998,5.251,0.01895,0,1,0
116700000000,117000000000,3996515093,0,4304773590,0.002575,0.01442,0.02136,0.001041,0.001261,0.01445,0.0001068,7.725e-05,0.006081,0.003284,4.954,0.01744,0,1,0
117000000000,117300000000,3996515093,0,4304773590,0.00264,0.01442,0.02136,0.0004835,0.0007038,0.01445,0.0001078,7.725e-05,0.005852,0.002857,5.466,0.01951,0,1,0
117300000000,117600000000,3996515093,0,4304773590,0.002728,0.01443,0.02136,0.0008545,0.001074,0.01447,9.918e-05,7.725e-05,0.006775,0.003643,5.817,0.02154,0,1,0
117600000000,117900000000,3996515093,0,4304773590,0.002769,0.01445,0.02136,0.001213,0.001432,0.0145,0.0001173,7.82e-05,0.008621,0.002857,5.58,0.02022,0,1,0
117900000000,118200000000,3996515093,0,4304773590,0.002853,0.01447,0.02136,0.001553,0.001774,0.01451,0.0001087,7.629e-05,0.01093,0.002857,4.996,0.01843,0,1,0
118200000000,118500000000,3996515093,0,4304773590,0.0028,0.01447,0.02136,0.001862,0.002083,0.01451,9.632e-05,7.82e-05,0.005173,0.002499,6.04,0.02405,0,1,0
118500000000,118800000000,3996515093,0,4304773590,0.002792,0.01453,0.02155,0.0008421,0.001062,0.01517,0.0001345,7.725e-05,0.01135,0.002857,5.511,0.01988,0,1,0
118800000000,119100000000,3996515093,0,4304773590,0.002895,0.01453,0.02155,0.001192,0.001411,0.01517,0.0001488,7.82e-05,0.05341,0.002857,5.741,0.02073,0,1,0
119100000000,119400000000,3996515093,0,4304773590,0.002781,0.01453,0.02136,0.001558,0.001778,0.01459,9.918e-05,7.725e-05,0.006233,0.003857,5.929,0.02242,0,1,0
119400000000,119700000000,3996515093,0,4304773590,0.002804,0.01454,0.02136,0.001915,0.002136,0.01457,0.0001116,7.725e-05,0.007874,0.002857,5.816,0.02251,0,1,0
119700000000,120000000000,3996515093,0,4304773590,0.002789,0.01453,0.02136,0.002274,0.002495,0.01459,0.0001593,7.725e-05,0.01093,0.003216,5.801,0.02115,0,1,0
120000000000,120300000000,3996515093,0,4304773590,0.002888,0.01451,0.02136,0.00259,0.002811,0.01456,0.0001011,7.725e-05,0.006248,0.002857,6.125,0.02386,0,1,0
120300000000,120600000000,3996515093,0,4304773590,0.002903,0.01451,0.02136,0.001968,0.00219,0.01454,0.0001469,7.82e-05,0.008621,0.00293,5.997,0.02332,0,1,0
120600000000,120900000000,3996515093,0,4304773590,0.002705,0.01453,0.02136,0.001961,0.002182,0.01456,0.0001068,7.629e-05,0.007393,0.003284,5.019,0.01757,0,1,0
126000000000,126300000000,3996515093,0,4304773590,0.003113,0.01468,0.02136,0.001749,0.001972,0.01472,0.000102,7.725e-05,0.009262,0.001999,5.464,0.01865,0,1,0
126300000000,126600000000,3996515093,0,4304773590,0.00325,0.01474,0.0217,0.0007963,0.001019,0.0154,9.918e-05,7.82e-05,0.0318,0.003143,5.663,0.02042,0,1,0
126600000000,126900000000,3996515093,0,4304773590,0.003105,0.01477,0.02209,0.001249,0.001471,0.01485,8.965e-05,7.725e-05,0.01152,0.001858,5.457,0.01911,0,1,0
126900000000,127200000000,3996515093,0,4304773590,0.003723,0.01479,0.02167,0.0007153,0.0009356,0.01535,0.0001383,7.82e-05,0.04517,0.002998,5.771,0.02047,0,1,0
127200000000,127500000000,3996515093,0,4304773590,0.004021,0.01476,0.02136,0.0006409,0.0008612,0.01483,0.0001059,7.629e-05,0.01239,0.002144,7.664,0.0296,0,1,0
127500000000,127800000000,3996515093,0,4304773590,0.003014,0.01474,0.02136,0.001072,0.001293,0.01479,9.537e-05,7.82e-05,0.005936,0.002857,6.19,0.02211,0,1,0
127800000000,128100000000,3996515093,0,4304773590,0.003147,0.01474,0.02136,0.001476,0.001698,0.01479,8.011e-05,7.629e-05,0.006065,0.001999,6.304,0.02265,0,1,0
128100000000,128400000000,3996515093,0,4304773590,0.002777,0.01476,0.02136,0.001842,0.002064,0.01479,9.823e-05,7.82e-05,0.005836,0.002357,5.296,0.01707,0,1,0
128400000000,128700000000,3996515093,0,4304773590,0.002777,0.01474,0.02136,0.000782,0.001003,0.01479,0.0001068,7.725e-05,0.005585,0.00293,5.421,0.01849,0,1,0
128700000000,129000000000,3996515093,0,4304773590,0.002941,0.01477,0.02136,0.001204,0.001425,0.0148,9.918e-05,7.82e-05,0.006897,0.002857,5.703,0.0197,0,1,0
129000000000,129300000000,3996515093,0,4304773590,0.00288,0.01482,0.02173,0.001646,0.001867,0.01535,0.000123,7.725e-05,0.02905,0.002998,4.864,0.01539,0,1,0
129300000000,129600000000,3996515093,0,4304773590,0.003368,0.01485,0.02328,0.001713,0.001934,0.01492,0.0001097,7.82e-05,0.009705,0.002857,6.214,0.02231,0,1,0
129600000000,129900000000,3996515093,0,4304773590,0.003681,0.01486,0.02237,0.0008307,0.001051,0.01549,0.0001116,7.725e-05,0.04559,0.002857,6.428,0.02299,0,1,0
129900000000,130200000000,3996515093,0,4304773590,0.00312,0.01477,0.02136,0.0009232,0.001144,0.01492,0.0001087,7.82e-05,0.01276,0.003284,5.046,0.01722,0,1,0
130200000000,130500000000,3996515093,0,4304773590,0.003448,0.01477,0.02136,0.0004034,0.0006247,0.01483,0.0001278,7.725e-05,0.01152,0.002857,5.967,0.02184,0,1,0
130500000000,130800000000,3996515093,0,4304773590,0.00346,0.01479,0.02136,0.0008621,0.001083,0.01485,0.0001125,7.82e-05,0.00647,0.002857,5.983,0.02194,0,1,0
130800000000,131100000000,3996515093,0,4304773590,0.003864,0.01479,0.02136,0.001291,0.001513,0.01483,0.0001192,7.725e-05,0.007782,0.002857,6.929,0.02591,0,1,0
141000000000,141300000000,3996515093,0,4304773590,0.00333,0.0152,0.02328,0.00181,0.002029,0.01524,0.0001392,7.82e-05,0.005936,0.002857,5.224,0.01762,0,1,0
141300000000,141600000000,3996515093,0,4304773590,0.003433,0.01523,0.02328,0.001879,0.002098,0.01527,0.0001268,7.725e-05,0.01886,0.00243,5.139,0.01691,0,1,0
141600000000,141900000000,3996515093,0,4304773590,0.003658,0.01521,0.02328,0.001377,0.001598,0.01526,0.000124,7.725e-05,0.005783,0.002857,5.609,0.02028,0,1,0
141900000000,142200000000,3996515093,0,4304773590,0.003639,0.01523,0.02328,0.001909,0.002132,0.01526,0.0001154,7.82e-05,0.009293,0.003284,5.376,0.01852,0,1,0
142200000000,142500000000,3996515093,0,4304773590,0.003628,0.01524,0.02328,0.002457,0.002678,0.01529,0.0001364,7.725e-05,0.008163,0.005074,5.502,0.019,0,1,0
142500000000,142800000000,3996515093,0,4304773590,0.00349,0.01524,0.02328,0.002998,0.00322,0.01529,0.0001202,7.725e-05,0.008942,0.003502,5.373,0.01866,0,1,0
142800000000,143100000000,3996515093,0,4304773590,0.003597,0.01526,0.02328,0.00198,0.002201,0.01529,0.0001335,7.82e-05,0.008347,0.002644,5.24,0.01775,0,1,0
143100000000,143400000000,3996515093,0,4304773590,0.003647,0.01527,0.02328,0.001062,0.001282,0.01532,0.0001154,7.725e-05,0.008652,0.002644,4.798,0.016,0,1,0
143400000000,143700000000,3996515093,0,4304773590,0.003876,0.01527,0.02328,0.001631,0.00185,0.01535,0.0001593,7.82e-05,0.01123,0.002857,5.527,0.01827,0,1,0
143700000000,144000000000,3996515093,0,4304773590,0.003773,0.01527,0.02328,0.00222,0.002441,0.01532,0.0001297,7.725e-05,0.007507,0.002857,5.318,0.01836,0,1,0
144000000000,144300000000,3996515093,0,4304773590,0.004128,0.01535,0.02328,0.002781,0.003002,0.0159,0.0002022,7.725e-05,0.04254,0.003284,5.208,0.01747,0,1,0
144300000000,144600000000,3996515093,0,4304773590,0.004463,0.01546,0.02328,0.003334,0.003555,0.01553,0.0002241,7.725e-05,0.01082,0.003929,5.723,0.01936,0,1,0
144600000000,144900000000,3996515093,0,4304773590,0.004166,0.01552,0.02328,0.002865,0.003086,0.01556,0.000164,7.725e-05,0.008789,0.003429,5.366,0.01801,0,1,0
144900000000,145200000000,3996515093,0,4304773590,0.004143,0.01556,0.02328,0.002914,0.003136,0.01562,0.0001841,7.725e-05,0.008423,0.003716,5.207,0.01731,0,1,0
145200000000,145500000000,3996515093,0,4304773590,0.004066,0.01559,0.02328,0.003098,0.003319,0.01569,0.0001669,7.725e-05,0.007965,0.002998,5.395,0.01787,0,1,0
145500000000,145800000000,3996515093,0,4304773590,0.003952,0.01562,0.02328,0.001139,0.00136,0.01569,0.000145,7.725e-05,0.01068,0.003143,5.017,0.01654,0,1,0
145800000000,146100000000,3996515093,0,4304773590,0.00412,0.01566,0.02328,0.001751,0.001972,0.01572,0.0001478,7.725e-05,0.007484,0.00293,5.681,0.01962,0,1,0
151200000000,151500000000,3996515093,0,4304773590,0.00396,0.01602,0.02328,0.002331,0.002552,0.01666,0.0001326,7.725e-05,0.04651,0.002998,4.588,0.0136,0,1,0
151500000000,151800000000,3996515093,0,4304773590,0.003883,0.01602,0.02328,0.002346,0.002567,0.01608,0.0001574,7.725e-05,0.008423,0.002785,4.77,0.0146,0,1,0
151800000000,152100000000,3996515093,0,4304773590,0.003666,0.01602,0.02328,0.001406,0.001625,0.01608,0.0001392,7.82e-05,0.00631,0.002499,4.535,0.01314,0,1,0
152100000000,152400000000,3996515093,0,4304773590,0.003593,0.01605,0.02328,0.001245,0.001467,0.01611,0.0001602,7.725e-05,0.00634,0.005356,4.482,0.01329,0,1,0
152400000000,152700000000,3996515093,0,4304773590,0.003529,0.01605,0.02328,0.001884,0.002106,0.01611,0.0001659,7.725e-05,0.008789,0.003716,4.613,0.01399,0,1,0
152700000000,153000000000,3996515093,0,4304773590,0.004173,0.01608,0.02328,0.001482,0.001703,0.01611,0.0001822,7.725e-05,0.0103,0.004074,5.434,0.01828,0,1,0
153000000000,153300000000,3996515093,0,4304773590,0.00425,0.01608,0.02328,0.0007305,0.0009518,0.01614,0.0002422,7.82e-05,0.01318,0.002998,5.254,0.01761,0,1,0
153300000000,153600000000,3996515093,0,4304773590,0.004486,0.01611,0.02328,0.0008545,0.001076,0.0162,0.0002289,7.725e-05,0.008423,0.003143,5.525,0.01822,0,1,0
153600000000,153900000000,3996515093,0,4304773590,0.004311,0.01611,0.02328,0.001509,0.001728,0.01617,0.0002117,7.725e-05,0.009033,0.004715,5.404,0.01813,0,1,0
153900000000,154200000000,3996515093,0,4304773590,0.004013,0.01611,0.02328,0.002041,0.002262,0.01617,0.000226,7.725e-05,0.009155,0.002998,4.993,0.01617,0,1,0
154200000000,154500000000,3996515093,0,4304773590,0.004272,0.01617,0.02328,0.001347,0.001566,0.01672,0.000248,7.725e-05,0.0332,0.005714,5.39,0.01816,0,1,0
154500000000,154800000000,3996515093,0,4304773590,0.004128,0.01617,0.02328,0.000741,0.0009623,0.01624,0.0002747,7.82e-05,0.03973,0.003071,4.787,0.01567,0,1,0
154800000000,155100000000,3996515093,0,4304773590,0.004364,0.0162,0.02328,0.001177,0.001398,0.01682,0.0002556,7.725e-05,0.03583,0.002857,4.976,0.01637,0,1,0
155100000000,155400000000,3996515093,0,4304773590,0.003857,0.01617,0.02328,0.001032,0.001253,0.01627,0.0002518,7.725e-05,0.01422,0.00293,4.79,0.01512,0,1,0
155400000000,155700000000,3996515093,0,4304773590,0.003952,0.01617,0.02328,0.001045,0.001265,0.01624,0.0002203,7.725e-05,0.01231,0.003071,4.325,0.01324,0,1,0
155700000000,156000000000,3996515093,0,4304773590,0.004257,0.0162,0.02328,0.001526,0.001747,0.01633,0.0001945,7.82e-05,0.01244,0.002857,5.368,0.01722,0,1,0
161100000000,161400000000,3996515093,0,4304773590,0.00444,0.01642,0.02328,0.001522,0.001743,0.01645,0.0001535,7.725e-05,0.0101,0.002998,5.179,0.01709,0,1,0
161400000000,161700000000,3996515093,0,4304773590,0.00457,0.01642,0.02328,0.001503,0.001724,0.01648,0.0001326,7.725e-05,0.008698,0.002857,5.331,0.01795,0,1,0
161700000000,162000000000,3996515093,0,4304773590,0.004379,0.01648,0.02344,0.001392,0.001614,0.01706,0.0001593,7.725e-05,0.04095,0.003216,5.529,0.0192,0,1,0
162000000000,162300000000,3996515093,0,4304773590,0.004082,0.01651,0.02347,0.001547,0.001768,0.01709,0.0001173,7.725e-05,0.0459,0.003784,4.791,0.01513,0,1,0
162300000000,162600000000,3996515093,0,4304773590,0.004204,0.01645,0.02328,0.001171,0.00139,0.01648,0.0001354,7.82e-05,0.007828,0.005714,5.177,0.0172,0,1,0
162600000000,162900000000,3996515093,0,4304773590,0.004044,0.01642,0.02328,0.0006123,0.0008326,0.01648,0.0001497,7.725e-05,0.009033,0.006714,5.193,0.01717,0,1,0
162900000000,163200000000,3996515093,0,4304773590,0.003857,0.01645,0.02328,0.0008917,0.001112,0.01657,0.0001373,7.725e-05,0.01202,0.002857,5.287,0.0176,0,1,0
163200000000,163500000000,3996515093,0,4304773590,0.003895,0.01645,0.02328,0.001478,0.001698,0.01651,0.0001316,7.725e-05,0.008362,0.003357,4.735,0.01489,0,1,0
163500000000,163800000000,3996515093,0,4304773590,0.003586,0.01648,0.02328,0.002129,0.00235,0.01654,0.0001545,7.725e-05,0.008484,0.002857,4.327,0.01268,0,1,0
163800000000,164100000000,3996515093,0,4304773590,0.003201,0.01645,0.02328,0.001637,0.001856,0.01651,0.0001106,7.725e-05,0.007996,0.00293,3.787,0.009945,0,1,0
164100000000,164400000000,3996515093,0,4304773590,0.003265,0.01648,0.02328,0.001905,0.002125,0.01651,0.0001354,7.725e-05,0.007141,0.002998,3.879,0.01044,0,1,0
164400000000,164700000000,3996515093,0,4304773590,0.0033,0.01648,0.02328,0.002514,0.002735,0.01651,0.0001411,7.82e-05,0.007141,0.00293,3.931,0.01104,0,1,0
164700000000,165000000000,3996515093,0,4304773590,0.003716,0.01651,0.02328,0.001648,0.001869,0.01654,0.000144,7.725e-05,0.006851,0.003143,4.262,0.01264,0,1,0
165000000000,165300000000,3996515093,0,4304773590,0.003624,0.01651,0.02328,0.0007496,0.0009708,0.01654,0.0001564,7.725e-05,0.005829,0.004784,4.626,0.01426,0,1,0
165300000000,165600000000,3996515093,0,4304773590,0.003872,0.01657,0.02347,0.001392,0.001612,0.01715,0.0001516,7.725e-05,0.03156,0.005356,4.81,0.0151,0,1,0
165600000000,165900000000,3996515093,0,4304773590,0.003967,0.0166,0.0235,0.001274,0.001493,0.01718,0.0001392,7.725e-05,0.04913,0.003929,4.625,0.01446,0,1,0
165900000000,166200000000,3996515093,0,4304773590,0.003922,0.01654,0.02328,0.001137,0.001358,0.0166,0.0001497,7.725e-05,0.008545,0.00293,4.99,0.01593,0,1,0
166200000000,166500000000,3996515093,0,4304773590,0.004562,0.01654,0.02328,0.001707,0.001928,0.01657,0.0001345,7.725e-05,0.008438,0.002785,5.796,0.02067,0,1,0
166500000000,166800000000,3996515093,0,4304773590,0.006058,0.01663,0.02377,0.002312,0.002533,0.01721,0.0001564,7.725e-05,0.04602,0.003716,7.033,0.02726,0,1,0
166800000000,167100000000,3996515093,0,4304773590,0.006226,0.0166,0.02328,0.001825,0.002045,0.01669,0.0001688,7.725e-05,0.01251,0.004211,8.411,0.0334,0,1,0
167100000000,167400000000,3996515093,0,4304773590,0.006058,0.0166,0.02328,0.0008698,0.001091,0.01672,0.0001316,7.725e-05,0.009232,0.002716,7.996,0.03164,0,1,0
167400000000,167700000000,3996515093,0,4304773590,0.004219,0.0166,0.02328,0.001234,0.001455,0.01666,0.0001268,7.725e-05,0.008881,0.00293,5.66,0.0201,0,1,0
167700000000,168000000000,3996515093,0,4304773590,0.00346,0.0166,0.02328,0.00185,0.002071,0.01666,0.0001583,7.725e-05,0.007393,0.006927,4.448,0.01337,0,1,0
168000000000,168300000000,3996515093,0,4304773590,0.003216,0.0166,0.02328,0.002445,0.002666,0.01666,0.0001192,7.82e-05,0.007431,0.002998,4.448,0.01348,0,1,0
168300000000,168600000000,3996515093,0,4304773590,0.003342,0.0166,0.02328,0.003014,0.003235,0.01666,0.0001488,7.725e-05,0.006401,0.002857,4.288,0.01274,0,1,0
168600000000,168900000000,3996515093,0,4304773590,0.003223,0.0166,0.02328,0.003235,0.003456,0.01666,0.0001316,7.725e-05,0.005745,0.002857,4.534,0.0143,0,1,0
168900000000,169200000000,3996515093,0,4304773590,0.003246,0.01663,0.02328,0.001125,0.001345,0.01669,0.0001326,7.82e-05,0.005722,0.002998,4.156,0.01238,0,1,0
169200000000,169500000000,3996515093,0,4304773590,0.004089,0.01672,0.0239,0.001606,0.001827,0.01733,0.0001326,7.725e-05,0.06134,0.003998,5.514,0.01954,0,1,0
169500000000,169800000000,3996515093,0,4304773590,0.003433,0.01672,0.02377,0.001406,0.001627,0.01682,0.0001192,7.725e-05,0.007385,0.002998,4.823,0.0154,0,1,0
169800000000,170100000000,3996515093,0,4304773590,0.003384,0.01666,0.02328,0.001818,0.002037,0.01672,0.0001402,7.82e-05,0.007484,0.003429,4.699,0.01498,0,1,0
170100000000,170400000000,3996515093,0,4304773590,0.003468,0.01666,0.02328,0.001434,0.001656,0.01672,0.000144,7.725e-05,0.005989,0.002716,5.427,0.01864,0,1,0
170400000000,170700000000,3996515093,0,4304773590,0.003757,0.01666,0.02328,0.0007906,0.001011,0.01672,0.0001507,7.725e-05,0.007874,0.002716,5.07,0.01745,0,1,0
170700000000,171000000000,3996515093,0,4304773590,0.003727,0.01666,0.02328,0.001261,0.00148,0.01672,0.0001516,7.82e-05,0.008057,0.005714,5.782,0.0205,0,1,0
171000000000,171300000000,3996515093,0,4304773590,0.00383,0.01669,0.02328,0.001732,0.001951,0.01672,0.0001049,7.725e-05,0.007629,0.00293,6.253,0.02347,0,1,0
171300000000,171600000000,3996515093,0,4304773590,0.003696,0.01669,0.02328,0.002239,0.00246,0.01672,0.000124,7.82e-05,0.007812,0.004211,5.94,0.02204,0,1,0
171600000000,171900000000,3996515093,0,4304773590,0.002853,0.01669,0.02328,0.001669,0.001888,0.01672,0.0001049,7.725e-05,0.006836,0.003998,4.489,0.01388,0,1,0
171900000000,172200000000,3996515093,0,4304773590,0.002991,0.01666,0.02328,0.0003176,0.0005379,0.01672,0.0001202,7.725e-05,0.006256,0.002857,3.954,0.01181,0,1,0
172200000000,172500000000,3996515093,0,4304773590,0.003056,0.01669,0.02328,0.000802,0.001022,0.01675,0.0001192,7.82e-05,0.007202,0.004646,4.499,0.01411,0,1,0
172500000000,172800000000,3996515093,0,4304773590,0.003139,0.01669,0.02328,0.00127,0.001492,0.01675,0.0001068,7.725e-05,0.005348,0.002857,5.44,0.01956,0,1,0
172800000000,173100000000,3996515093,0,4304773590,0.003399,0.01669,0.02328,0.001444,0.001663,0.01682,0.0001354,7.82e-05,0.01282,0.002857,5.199,0.01787,0,1,0
173100000000,173400000000,3996515093,0,4304773590,0.003643,0.01672,0.02365,0.0006866,0.0009069,0.0173,0.000102,7.629e-05,0.03168,0.002785,6.272,0.02387,0,1,0
173400000000,173700000000,3996515093,0,4304773590,0.003307,0.01675,0.02524,0.00115,0.001371,0.01685,0.0001173,7.725e-05,0.006531,0.003571,5.528,0.01929,0,1,0
173700000000,174000000000,3996515093,0,4304773590,0.003376,0.01682,0.02524,0.00148,0.001701,0.01746,0.0001154,7.725e-05,0.04205,0.002857,5.431,0.01899,0,1,0
174000000000,174300000000,3996515093,0,4304773590,0.003223,0.01678,0.02524,0.001921,0.00214,0.01685,0.0001335,7.725e-05,0.01627,0.003284,5.548,0.01981,0,1,0
174300000000,174600000000,3996515093,0,4304773590,0.003105,0.01678,0.02524,0.002357,0.002579,0.01685,9.727e-05,7.725e-05,0.02225,0.001999,5.505,0.01946,0,1,0
174600000000,174900000000,3996515093,0,4304773590,0.003216,0.01678,0.02524,0.001564,0.001785,0.01685,0.0001364,7.725e-05,0.006897,0.003284,5.164,0.01774,0,1,0
174900000000,175200000000,3996515093,0,4304773590,0.003456,0.01678,0.02524,0.00185,0.002071,0.01685,0.0001431,7.82e-05,0.007874,0.002716,5.533,0.02005,0,1,0
175200000000,175500000000,3996515093,0,4304773590,0.003983,0.01678,0.02524,0.00227,0.002491,0.01685,0.0001287,7.725e-05,0.01045,0.004356,7.095,0.02815,0,1,0
175500000000,175800000000,3996515093,0,4304773590,0.004547,0.01678,0.02524,0.002655,0.002876,0.01685,0.0001173,7.82e-05,0.01038,0.00293,8.233,0.03326,0,1,0
175800000000,176100000000,3996515093,0,4304773590,0.004204,0.01685,0.02524,0.003052,0.003273,0.01736,0.0001087,7.725e-05,0.03003,0.002857,7.899,0.03124,0,1,0
186300000000,186600000000,3996515093,0,4304773590,0.003174,0.01712,0.02524,0.0007524,0.0009737,0.01721,0.0002518,7.725e-05,0.007904,0.003357,6.48,0.02421,0,1,0
186600000000,186900000000,3996515093,0,4304773590,0.003204,0.01721,0.02524,0.001034,0.001255,0.01733,0.0001373,7.82e-05,0.009583,0.003284,6.922,0.02624,0,1,0
186900000000,187200000000,3996515093,0,4304773590,0.003056,0.01727,0.02524,0.001299,0.00152,0.01788,0.0001364,7.725e-05,0.03229,0.004784,6.237,0.02335,0,1,0
187200000000,187500000000,3996515093,0,4304773590,0.003017,0.01733,0.02524,0.001562,0.001783,0.01794,0.0001183,7.725e-05,0.05859,0.003216,6.139,0.02262,0,1,0
187500000000,187800000000,3996515093,0,4304773590,0.002655,0.01733,0.02524,0.001814,0.002037,0.01736,0.0001049,7.82e-05,0.005936,0.003643,5.969,0.02193,0,1,0
187800000000,188100000000,3996515093,0,4304773590,0.002384,0.01733,0.02524,0.0005903,0.0008116,0.0174,0.000102,7.725e-05,0.0056,0.00293,5.953,0.02173,0,1,0
188100000000,188400000000,3996515093,0,4304773590,0.002285,0.01736,0.02524,0.0008421,0.001062,0.0174,9.632e-05,7.725e-05,0.004616,0.002998,5.651,0.01969,0,1,0
188400000000,188700000000,3996515093,0,4304773590,0.002384,0.01736,0.02524,0.001097,0.001318,0.01743,0.0001173,7.82e-05,0.004936,0.003216,5.816,0.0212,0,1,0
188700000000,189000000000,3996515093,0,4304773590,0.002316,0.0174,0.02524,0.001356,0.001577,0.01746,9.441e-05,7.725e-05,0.00602,0.00243,5.717,0.02018,0,1,0
189000000000,189300000000,3996515093,0,4304773590,0.002274,0.01743,0.02524,0.001606,0.001827,0.01746,7.82e-05,7.725e-05,0.006866,0.002285,5.898,0.02116,0,1,0
189300000000,189600000000,3996515093,0,4304773590,0.002266,0.01743,0.02524,0.001106,0.001326,0.01749,0.000102,7.82e-05,0.006531,0.003784,5.483,0.01986,0,1,0
189600000000,189900000000,3996515093,0,4304773590,0.002262,0.01746,0.02524,0.0005941,0.0008144,0.01749,9.632e-05,7.82e-05,0.005249,0.003284,5.476,0.01948,0,1,0
189900000000,190200000000,3996515093,0,4304773590,0.002216,0.01749,0.02524,0.000845,0.001066,0.01752,8.678e-05,7.629e-05,0.006897,0.00293,5.437,0.01959,0,1,0
190200000000,190500000000,3996515093,0,4304773590,0.002319,0.01749,0.02524,0.001101,0.001322,0.01761,9.632e-05,7.82e-05,0.01044,0.002857,5.616,0.02023,0,1,0
190500000000,190800000000,3996515093,0,4304773590,0.002415,0.01755,0.02524,0.001369,0.001589,0.0181,8.583e-05,7.82e-05,0.02856,0.002644,5.381,0.01931,0,1,0
190800000000,191100000000,3996515093,0,4304773590,0.0028,0.01761,0.02524,0.000865,0.001085,0.01816,0.0001068,7.629e-05,0.0368,0.002857,6.897,0.02588,0,1,0
191100000000,191400000000,3996515093,0,4304773590,0.002266,0.01755,0.02524,0.0003529,0.0005732,0.01758,8.965e-05,7.725e-05,0.0134,0.002785,5.785,0.02106,0,1,0
191400000000,191700000000,3996515093,0,4304773590,0.002148,0.01755,0.02524,0.0005846,0.0008049,0.01758,8.106e-05,7.915e-05,0.005112,0.00293,5.698,0.02063,0,1,0
191700000000,192000000000,3996515093,0,4304773590,0.002274,0.01755,0.02524,0.000802,0.001022,0.01761,9.632e-05,7.629e-05,0.008591,0.002857,6.043,0.02319,0,1,0
192000000000,192300000000,3996515093,0,4304773590,0.002441,0.01758,0.02524,0.001036,0.001255,0.01761,8.678e-05,7.725e-05,0.005608,0.00293,5.949,0.02214,0,1,0
192300000000,192600000000,3996515093,0,4304773590,0.002308,0.01761,0.02524,0.001291,0.001513,0.01764,8.106e-05,7.82e-05,0.007668,0.002285,5.331,0.01882,0,1,0
192600000000,192900000000,3996515093,0,4304773590,0.002182,0.01761,0.02524,0.001089,0.00131,0.01764,8.774e-05,7.725e-05,0.008255,0.004288,5.806,0.02151,0,1,0
192900000000,193200000000,3996515093,0,4304773590,0.002182,0.01761,0.02524,0.0002842,0.0005054,0.01764,6.866e-05,7.725e-05,0.004509,0.002357,5.476,0.01932,0,1,0
193200000000,193500000000,3996515093,0,4304773590,0.002441,0.01764,0.02524,0.0005417,0.000762,0.01767,0.0001211,7.82e-05,0.005936,0.002998,5.62,0.01935,0,1,0
193500000000,193800000000,3996515093,0,4304773590,0.002232,0.01767,0.02524,0.0007944,0.001015,0.0177,6.866e-05,7.725e-05,0.006104,0.002998,5.483,0.01939,0,1,0
193800000000,194100000000,3996515093,0,4304773590,0.002243,0.01767,0.02524,0.001043,0.001263,0.01776,7.343e-05,7.725e-05,0.01031,0.002071,5.404,0.01928,0,1,0
194100000000,194400000000,3996515093,0,4304773590,0.002136,0.01767,0.02524,0.001293,0.001514,0.01773,8.774e-05,7.82e-05,0.004883,0.003716,5.483,0.02007,0,1,0
194400000000,194700000000,3996515093,0,4304773590,0.002533,0.01776,0.02524,0.001549,0.00177,0.01834,0.0001049,7.82e-05,0.04388,0.004501,5.485,0.01969,0,1,0
194700000000,195000000000,3996515093,0,4304773590,0.00222,0.01776,0.02524,0.001822,0.002045,0.01782,9.823e-05,7.629e-05,0.004852,0.004288,4.995,0.01676,0,1,0
195000000000,195300000000,3996515093,0,4304773590,0.002098,0.01776,0.02524,0.0009441,0.001165,0.01782,9.441e-05,7.82e-05,0.005409,0.002857,4.642,0.01585,0,1,0
195300000000,195600000000,3996515093,0,4304773590,0.002392,0.01779,0.02524,0.0008507,0.001072,0.01782,0.0001011,7.82e-05,0.00531,0.002998,5.393,0.01962,0,1,0
195600000000,195900000000,3996515093,0,4304773590,0.002285,0.01779,0.02524,0.001127,0.001348,0.01782,8.202e-05,7.629e-05,0.005798,0.002857,5.219,0.01886,0,1,0
195900000000,196200000000,3996515093,0,4304773590,0.002419,0.01779,0.02524,0.001404,0.001625,0.01785,0.0001192,7.82e-05,0.01733,0.002857,5.522,0.02038,0,1,0
201300000000,201600000000,3996515093,0,4304773590,0.002831,0.01801,0.02524,0.0009232,0.001144,0.01804,8.965e-05,7.725e-05,0.006439,0.002857,5.473,0.01899,0,1,0
201600000000,201900000000,3996515093,0,4304773590,0.002937,0.0181,0.02524,0.001266,0.001486,0.01865,0.0001173,7.82e-05,0.06421,0.002857,5.15,0.01799,0,1,0
201900000000,202200000000,3996515093,0,4304773590,0.002838,0.01807,0.02524,0.00161,0.001831,0.01813,7.725e-05,7.629e-05,0.006493,0.003357,5.091,0.01773,0,1,0
202200000000,202500000000,3996515093,0,4304773590,0.002804,0.01807,0.02524,0.001953,0.002174,0.01813,9.06e-05,7.725e-05,0.006561,0.002857,5.545,0.01938,0,1,0
202500000000,202800000000,3996515093,0,4304773590,0.002739,0.01807,0.02524,0.0009546,0.001175,0.01813,0.0001068,7.725e-05,0.006126,0.002998,5.729,0.02011,0,1,0
202800000000,203100000000,3996515093,0,4304773590,0.003006,0.0181,0.02524,0.001148,0.001369,0.01813,0.000124,7.725e-05,0.006416,0.00293,6.181,0.02314,0,1,0
203100000000,203400000000,3996515093,0,4304773590,0.002918,0.0181,0.02524,0.001043,0.001265,0.01813,0.0001469,7.82e-05,0.007355,0.002857,5.39,0.017,0,1,0
203400000000,203700000000,3996515093,0,4304773590,0.002842,0.01813,0.02524,0.00037,0.0005913,0.01816,0.0001183,7.629e-05,0.006668,0.00243,5.503,0.01977,0,1,0
203700000000,204000000000,3996515093,0,4304773590,0.002949,0.01813,0.02524,0.0007448,0.0009661,0.01816,0.0001087,7.82e-05,0.007919,0.00293,6.028,0.02363,0,1,0
204000000000,204300000000,3996515093,0,4304773590,0.002235,0.01813,0.02524,0.001127,0.001347,0.01819,9.823e-05,7.629e-05,0.006653,0.002716,4.002,0.01182,0,1,0
204300000000,204600000000,3996515093,0,4304773590,0.002216,0.01813,0.02524,0.001513,0.001732,0.01819,0.0001364,7.82e-05,0.006882,0.003857,4.014,0.01191,0,1,0
204600000000,204900000000,3996515093,0,4304773590,0.00256,0.01816,0.02524,0.001858,0.002079,0.01822,0.0001278,7.725e-05,0.01025,0.004646,4.119,0.01316,0,1,0
204900000000,205200000000,3996515093,0,4304773590,0.002876,0.01813,0.02524,0.00222,0.002441,0.01819,8.678e-05,7.725e-05,0.01039,0.003143,5.261,0.01855,0,1,0
205200000000,205500000000,3996515093,0,4304773590,0.002651,0.01813,0.02524,0.002609,0.002831,0.01819,0.0001125,7.725e-05,0.007156,0.005714,5.022,0.01723,0,1,0
205500000000,205800000000,3996515093,0,4304773590,0.002563,0.01819,0.02524,0.001215,0.001436,0.01874,0.0001202,7.725e-05,0.02881,0.003502,4.006,0.01244,0,1,0
205800000000,206100000000,3996515093,0,4304773590,0.002697,0.01816,0.02524,0.0004683,0.0006886,0.01825,0.000103,7.725e-05,0.0108,0.002857,4.183,0.01344,0,1,0
206100000000,206400000000,3996515093,0,4304773590,0.002995,0.01822,0.02524,0.0008764,0.001097,0.0188,0.0001183,7.725e-05,0.04248,0.003071,4.41,0.01373,0,1,0
206400000000,206700000000,3996515093,0,4304773590,0.003052,0.01822,0.02524,0.001278,0.001497,0.01828,0.0001116,7.725e-05,0.01003,0.001999,5.197,0.01833,0,1,0
206700000000,207000000000,3996515093,0,4304773590,0.003082,0.01822,0.02524,0.001711,0.00193,0.01828,0.0001297,7.725e-05,0.009354,0.005714,5.214,0.0176,0,1,0
207000000000,207300000000,3996515093,0,4304773590,0.003242,0.01825,0.02524,0.00214,0.002357,0.01828,0.0001144,7.725e-05,0.009216,0.002785,5.827,0.01989,0,1,0
207300000000,207600000000,3996515093,0,4304773590,0.003162,0.01825,0.02524,0.001225,0.001446,0.01828,0.0001068,7.725e-05,0.01392,0.002857,5.249,0.01781,0,1,0
207600000000,207900000000,3996515093,0,4304773590,0.003277,0.01825,0.02524,0.001554,0.001774,0.01831,0.0001392,7.725e-05,0.01079,0.00293,5.498,0.01868,0,1,0
207900000000,208200000000,3996515093,0,4304773590,0.00322,0.01828,0.02524,0.001938,0.002159,0.01831,0.0001049,7.82e-05,0.0107,0.003429,5.965,0.02176,0,1,0
208200000000,208500000000,3996515093,0,4304773590,0.003159,0.01831,0.02524,0.0008993,0.00112,0.01886,0.0001135,7.725e-05,0.03229,0.003929,5.946,0.0213,0,1,0
208500000000,208800000000,3996515093,0,4304773590,0.00267,0.01828,0.02524,0.001297,0.001518,0.01834,9.441e-05,7.82e-05,0.01782,0.003071,5.134,0.0169,0,1,0
208800000000,209100000000,3996515093,0,4304773590,0.002789,0.01831,0.02524,0.0005522,0.0007725,0.01889,8.106e-05,7.725e-05,0.05304,0.001928,4.764,0.01613,0,1,0
209100000000,209400000000,3996515093,0,4304773590,0.002823,0.01825,0.02524,0.0005674,0.0007877,0.01831,0.0001116,7.725e-05,0.005554,0.002857,4.992,0.0173,0,1,0
209400000000,209700000000,3996515093,0,4304773590,0.002777,0.01825,0.02524,0.0009537,0.001175,0.01831,0.0001078,7.82e-05,0.009766,0.003643,4.835,0.01632,0,1,0
209700000000,210000000000,3996515093,0,4304773590,0.00293,0.01834,0.02524,0.001312,0.001534,0.01892,9.918e-05,7.725e-05,0.06073,0.002857,4.933,0.01678,0,1,0
210000000000,210300000000,3996515093,0,4304773590,0.002766,0.01831,0.02524,0.0004663,0.0006866,0.01837,0.000124,7.82e-05,0.01518,0.002857,5.119,0.01734,0,1,0
210300000000,210600000000,3996515093,0,4304773590,0.003105,0.01831,0.02524,0.0006247,0.000845,0.01834,0.0001259,7.629e-05,0.006104,0.00293,5.971,0.02276,0,1,0
210600000000,210900000000,3996515093,0,4304773590,0.003124,0.01831,0.02524,0.001024,0.001245,0.01837,0.0001049,7.82e-05,0.006294,0.003784,5.713,0.02127,0,1,0
210900000000,211200000000,3996515093,0,4304773590,0.003323,0.01834,0.02524,0.001434,0.001654,0.01837,0.0001602,7.629e-05,0.01651,0.004715,5.699,0.02205,0,1,0
211200000000,211500000000,3996515093,0,4304773590,0.003078,0.01834,0.02524,0.0004463,0.0006676,0.0184,0.0001516,7.82e-05,0.00708,0.003643,5.957,0.02214,0,1,0
211500000000,211800000000,3996515093,0,4304773590,0.002995,0.01834,0.02524,0.0007515,0.0009727,0.0184,0.0001011,7.629e-05,0.007805,0.002857,4.956,0.01705,0,1,0
211800000000,212100000000,3996515093,0,4304773590,0.003094,0.01834,0.02524,0.00116,0.001379,0.0184,0.0001097,7.82e-05,0.007416,0.002716,5.501,0.0197,0,1,0
212100000000,212400000000,3996515093,0,4304773590,0.003315,0.01837,0.02524,0.001457,0.001678,0.0184,0.0001192,7.629e-05,0.007118,0.002499,5.968,0.0228,0,1,0
212400000000,212700000000,3996515093,0,4304773590,0.00351,0.01846,0.02557,0.001785,0.002007,0.01901,0.0001335,7.82e-05,0.05328,0.003998,5.683,0.02134,0,1,0
212700000000,213000000000,3996515093,0,4304773590,0.002979,0.0184,0.02524,0.001987,0.002209,0.01846,0.0001259,7.725e-05,0.006432,0.003071,5.235,0.01793,0,1,0
213000000000,213300000000,3996515093,0,4304773590,0.002922,0.0184,0.02524,0.001324,0.001543,0.01843,9.632e-05,7.82e-05,0.006546,0.00293,5.007,0.01667,0,1,0
213300000000,213600000000,3996515093,0,4304773590,0.003189,0.01843,0.02524,0.001221,0.001442,0.01846,0.0001535,7.725e-05,0.006744,0.003857,5.294,0.01906,0,1,0
213600000000,213900000000,3996515093,0,4304773590,0.003422,0.01843,0.02524,0.0007248,0.000946,0.01846,0.0001154,7.82e-05,0.007011,0.001785,5.849,0.02169,0,1,0
213900000000,214200000000,3996515093,0,4304773590,0.003536,0.01843,0.02524,0.001152,0.001371,0.01846,0.0001287,7.725e-05,0.007339,0.003571,6.39,0.02455,0,1,0
214200000000,214500000000,3996515093,0,4304773590,0.003536,0.01846,0.02524,0.001608,0.001827,0.01852,0.0001316,7.82e-05,0.006569,0.002857,5.945,0.02244,0,1,0
214500000000,214800000000,3996515093,0,4304773590,0.00359,0.01846,0.02524,0.0006208,0.0008411,0.01849,0.0001011,7.629e-05,0.008224,0.002716,5.801,0.02163,0,1,0
214800000000,215100000000,3996515093,0,4304773590,0.003601,0.01846,0.02524,0.001083,0.001305,0.01852,0.0001354,7.82e-05,0.006783,0.002857,6.031,0.02132,0,1,0
215100000000,215400000000,3996515093,0,4304773590,0.003513,0.01846,0.02524,0.001009,0.001228,0.01852,0.0001163,7.725e-05,0.007668,0.002998,5.89,0.02128,0,1,0
215400000000,215700000000,3996515093,0,4304773590,0.003571,0.01849,0.02524,0.0005703,0.0007915,0.01852,0.0001307,7.725e-05,0.007904,0.003357,5.971,0.0224,0,1,0
215700000000,216000000000,3996515093,0,4304773590,0.003544,0.01849,0.02524,0.001066,0.001287,0.01852,0.0001278,7.725e-05,0.006775,0.002857,5.849,0.02091,0,1,0
216000000000,216300000000,3996515093,0,4304773590,0.003998,0.01859,0.02573,0.00145,0.001671,0.01917,0.0001183,7.725e-05,0.06311,0.002857,5.622,0.01966,0,1,0
221100000000,221400000000,3996515093,0,4304773590,0.003876,0.01868,0.02524,0.0003605,0.0005808,0.01874,0.000164,7.725e-05,0.00853,0.003284,5.514,0.01886,0,1,0
221400000000,221700000000,3996515093,0,4304773590,0.00388,0.01871,0.02524,0.0009441,0.001165,0.01877,0.0001326,7.725e-05,0.008301,0.002857,5.581,0.01891,0,1,0
221700000000,222000000000,3996515093,0,4304773590,0.003654,0.01871,0.02524,0.001101,0.001322,0.01877,0.000144,7.725e-05,0.007904,0.003357,5.577,0.01968,0,1,0
222000000000,222300000000,3996515093,0,4304773590,0.003174,0.01874,0.02524,0.0005989,0.0008202,0.01877,0.000124,7.82e-05,0.007324,0.003429,4.016,0.01117,0,1,0
222300000000,222600000000,3996515093,0,4304773590,0.004189,0.01874,0.02524,0.001179,0.001398,0.0188,0.000165,7.725e-05,0.008865,0.003716,5.691,0.01985,0,1,0
222600000000,222900000000,3996515093,0,4304773590,0.003822,0.0188,0.0256,0.001627,0.001848,0.01932,0.000123,7.725e-05,0.03271,0.002644,4.777,0.01496,0,1,0
222900000000,223200000000,3996515093,0,4304773590,0.003723,0.01877,0.02719,0.0008402,0.00106,0.01883,0.0001135,7.725e-05,0.007439,0.002499,5.039,0.01647,0,1,0
223200000000,223500000000,3996515093,0,4304773590,0.00425,0.01877,0.02686,0.001072,0.001293,0.01935,0.000145,7.725e-05,0.04419,0.003857,5.805,0.02076,0,1,0
223500000000,223800000000,3996515093,0,4304773590,0.004105,0.01874,0.02524,0.0004244,0.0006447,0.0188,0.0002022,7.725e-05,0.007965,0.006073,6.023,0.02171,0,1,0
223800000000,224100000000,3996515093,0,4304773590,0.00396,0.01877,0.02524,0.0009861,0.001207,0.0188,0.0001488,7.82e-05,0.007347,0.003502,6.04,0.02117,0,1,0
224100000000,224400000000,3996515093,0,4304773590,0.003384,0.01877,0.02524,0.001486,0.001707,0.0188,0.0001249,7.725e-05,0.006828,0.002857,5.326,0.01826,0,1,0
224400000000,224700000000,3996515093,0,4304773590,0.003277,0.01877,0.02524,0.001799,0.002018,0.01883,0.000123,7.725e-05,0.005959,0.003429,4.717,0.01404,0,1,0
224700000000,225000000000,3996515093,0,4304773590,0.003197,0.01877,0.02524,0.001043,0.001263,0.01883,0.0001192,7.725e-05,0.00573,0.005569,5.012,0.01609,0,1,0
225000000000,225300000000,3996515093,0,4304773590,0.003258,0.0188,0.02524,0.001591,0.001812,0.01883,0.0001383,7.725e-05,0.006958,0.003071,4.376,0.01331,0,1,0
225300000000,225600000000,3996515093,0,4304773590,0.003227,0.0188,0.02524,0.002071,0.002293,0.01883,0.0001373,7.82e-05,0.006058,0.002857,4.4,0.0127,0,1,0
225600000000,225900000000,3996515093,0,4304773590,0.003258,0.0188,0.02524,0.002457,0.002678,0.01886,0.0001173,7.725e-05,0.006493,0.00457,4.309,0.01267,0,1,0
225900000000,226200000000,3996515093,0,4304773590,0.003674,0.01883,0.02536,0.001717,0.001936,0.01892,0.0001259,7.725e-05,0.008362,0.002357,4.874,0.01621,0,1,0
226200000000,226500000000,3996515093,0,4304773590,0.003418,0.01892,0.02713,0.000845,0.001064,0.01947,0.0001297,7.82e-05,0.03186,0.002644,4.107,0.01169,0,1,0
226500000000,226800000000,3996515093,0,4304773590,0.003456,0.01889,0.02716,0.001438,0.001659,0.01895,0.0001364,7.725e-05,0.005867,0.002857,4.26,0.01207,0,1,0
226800000000,227100000000,3996515093,0,4304773590,0.003593,0.01895,0.02719,0.002041,0.002262,0.01953,0.0001488,7.725e-05,0.04053,0.003571,4.72,0.01448,0,1,0
227100000000,227400000000,3996515093,0,4304773590,0.003616,0.01889,0.02719,0.002647,0.002869,0.01892,0.0001202,7.82e-05,0.008255,0.00293,4.979,0.01582,0,1,0
227400000000,227700000000,3996515093,0,4304773590,0.00354,0.01886,0.02719,0.002094,0.002316,0.01892,0.0001183,7.725e-05,0.008194,0.002857,4.741,0.015,0,1,0
227700000000,228000000000,3996515093,0,4304773590,0.003429,0.01889,0.02719,0.002312,0.002533,0.01892,0.000145,7.725e-05,0.006355,0.003502,4.515,0.01332,0,1,0
228000000000,228300000000,3996515093,0,4304773590,0.003799,0.01892,0.02716,0.002884,0.003105,0.01901,0.0002003,7.82e-05,0.01047,0.005783,4.611,0.01432,0,1,0
228300000000,228600000000,3996515093,0,4304773590,0.004082,0.01904,0.02716,0.00349,0.003712,0.0191,0.0002289,7.725e-05,0.008392,0.003571,4.446,0.01291,0,1,0
228600000000,228900000000,3996515093,0,4304773590,0.004028,0.01913,0.02719,0.004112,0.004326,0.0192,0.0001631,7.725e-05,0.01122,0.002998,4.742,0.01421,0,1,0
228900000000,229200000000,3996515093,0,4304773590,0.003872,0.01917,0.02716,0.004707,0.004929,0.01923,0.0002022,7.725e-05,0.008789,0.004074,4.573,0.01395,0,1,0
229200000000,229500000000,3996515093,0,4304773590,0.003765,0.0192,0.02719,0.005234,0.005455,0.01929,0.0001373,7.82e-05,0.01338,0.002716,4.6,0.01421,0,1,0
229500000000,229800000000,3996515093,0,4304773590,0.004135,0.01926,0.02719,0.005737,0.005959,0.01932,0.0001345,7.725e-05,0.01122,0.004715,5.188,0.01727,0,1,0
229800000000,230100000000,3996515093,0,4304773590,0.003765,0.01926,0.02719,0.002949,0.00317,0.01935,0.0001392,7.725e-05,0.007561,0.004288,4.798,0.01497,0,1,0
230100000000,230400000000,3996515093,0,4304773590,0.003735,0.01932,0.02716,0.001173,0.001392,0.0199,0.0001669,7.725e-05,0.03113,0.003502,4.878,0.01557,0,1,0
230400000000,230700000000,3996515093,0,4304773590,0.00396,0.01941,0.02716,0.001793,0.002014,0.01999,0.0001316,7.725e-05,0.04602,0.002857,4.59,0.01436,0,1,0
230700000000,231000000000,3996515093,0,4304773590,0.003761,0.01935,0.02716,0.001125,0.001347,0.01941,0.0001593,7.725e-05,0.07031,0.003571,4.825,0.01557,0,1,0
231000000000,231300000000,3996515093,0,4304773590,0.003666,0.01935,0.02716,0.001461,0.00168,0.01944,0.000185,7.725e-05,0.005844,0.007713,4.35,0.01336,0,1,0
231300000000,231600000000,3996515093,0,4304773590,0.003845,0.01938,0.02716,0.00206,0.002281,0.01947,0.0001431,7.725e-05,0.008545,0.002857,5.336,0.01795,0,1,0
231600000000,231900000000,3996515093,0,4304773590,0.00386,0.01941,0.02719,0.001595,0.001816,0.01944,0.0001421,7.725e-05,0.009644,0.003071,4.678,0.01474,0,1,0
231900000000,232200000000,3996515093,0,4304773590,0.004066,0.01944,0.02719,0.001762,0.001984,0.01947,0.0001526,7.725e-05,0.008865,0.003716,5.174,0.01688,0,1,0
232200000000,232500000000,3996515093,0,4304773590,0.004082,0.01944,0.02719,0.002354,0.002575,0.0195,0.0001373,7.82e-05,0.006485,0.003143,5.254,0.01757,0,1,0
232500000000,232800000000,3996515093,0,4304773590,0.003841,0.01947,0.02719,0.002857,0.003078,0.01953,0.0001373,7.725e-05,0.007011,0.002285,4.825,0.01511,0,1,0
232800000000,233100000000,3996515093,0,4304773590,0.003658,0.01947,0.02719,0.00341,0.003632,0.01953,0.0001268,7.725e-05,0.007721,0.003429,4.378,0.01289,0,1,0
233100000000,233400000000,3996515093,0,4304773590,0.003643,0.0195,0.02719,0.004036,0.004257,0.01962,0.000165,7.82e-05,0.0105,0.005714,3.999,0.01107,0,1,0
233400000000,233700000000,3996515093,0,4304773590,0.003681,0.0195,0.02716,0.003643,0.003864,0.01956,0.0001736,7.82e-05,0.006844,0.003784,4.3,0.01261,0,1,0
233700000000,234000000000,3996515093,0,4304773590,0.003685,0.01956,0.02719,0.003597,0.003819,0.02017,0.0001631,7.725e-05,0.03076,0.002857,4.162,0.01169,0,1,0
234000000000,234300000000,3996515093,0,4304773590,0.003563,0.01962,0.02719,0.004181,0.004402,0.0202,0.0001535,7.725e-05,0.05237,0.003216,4.12,0.01151,0,1,0
234300000000,234600000000,3996515093,0,4304773590,0.003471,0.01959,0.02719,0.004837,0.005058,0.01962,0.0001373,7.725e-05,0.008667,0.002998,4.147,0.01163,0,1,0
234600000000,234900000000,3996515093,0,4304773590,0.003975,0.01959,0.02719,0.004242,0.004463,0.01962,0.0001507,7.725e-05,0.006607,0.003071,5.369,0.01829,0,1,0
234900000000,235200000000,3996515093,0,4304773590,0.003601,0.01959,0.02719,0.003513,0.003735,0.01965,0.0001478,7.725e-05,0.006752,0.002857,4.543,0.014,0,1,0
235200000000,235500000000,3996515093,0,4304773590,0.003616,0.01962,0.02716,0.004143,0.004364,0.01965,0.0001688,7.725e-05,0.007233,0.00293,4.475,0.01344,0,1,0
235500000000,235800000000,3996515093,0,4304773590,0.003632,0.01962,0.02719,0.004761,0.004982,0.01968,0.0001516,7.725e-05,0.008713,0.003216,4.436,0.01325,0,1,0
235800000000,236100000000,3996515093,0,4304773590,0.00362,0.01965,0.02719,0.005394,0.005615,0.01971,0.0001497,7.725e-05,0.006805,0.005859,4.18,0.01193,0,1,0
236100000000,236400000000,3996515093,0,4304773590,0.0037,0.01965,0.02719,0.005775,0.005997,0.01971,0.0001287,7.725e-05,0.006691,0.002571,4.476,0.0136,0,1,0
241200000000,241500000000,3996515093,0,4304773590,0.004494,0.01999,0.02719,0.001196,0.001417,0.02057,0.0001707,7.725e-05,0.06531,0.002716,4.718,0.0145,0,1,0
241500000000,241800000000,3996515093,0,4304773590,0.004005,0.01999,0.02719,0.001923,0.002144,0.02005,0.0002289,7.82e-05,0.008316,0.002857,4.124,0.01158,0,1,0
241800000000,242100000000,3996515093,0,4304773590,0.004082,0.01996,0.02719,0.002605,0.002827,0.02002,0.0002041,7.725e-05,0.007568,0.002998,4.413,0.01304,0,1,0
242100000000,242400000000,3996515093,0,4304773590,0.003998,0.01999,0.02719,0.00201,0.002232,0.02005,0.0002174,7.725e-05,0.007935,0.00293,4.545,0.01374,0,1,0
242400000000,242700000000,3996515093,0,4304773590,0.004059,0.01999,0.02719,0.001057,0.001278,0.02005,0.0002079,7.725e-05,0.007568,0.002998,4.332,0.01261,0,1,0
242700000000,243000000000,3996515093,0,4304773590,0.003983,0.02002,0.02719,0.00177,0.001991,0.02005,0.0002937,7.725e-05,0.01013,0.004143,4.325,0.01252,0,1,0
243000000000,243300000000,3996515093,0,4304773590,0.003944,0.02002,0.02719,0.00211,0.002331,0.02008,0.0002718,7.725e-05,0.01111,0.005714,4.438,0.01332,0,1,0
243300000000,243600000000,3996515093,0,4304773590,0.003696,0.02005,0.02719,0.001703,0.001925,0.02008,0.0001545,7.82e-05,0.008789,0.003216,4.607,0.01352,0,1,0
243600000000,243900000000,3996515093,0,4304773590,0.003944,0.02002,0.02719,0.002056,0.002277,0.02008,0.0001516,7.725e-05,0.007187,0.003143,4.241,0.01231,0,1,0
243900000000,244200000000,3996515093,0,4304773590,0.004311,0.02005,0.02719,0.001436,0.001657,0.02008,0.0001688,7.725e-05,0.007965,0.004143,4.798,0.01461,0,1,0
244200000000,244500000000,3996515093,0,4304773590,0.004715,0.02005,0.02719,0.000823,0.001043,0.02014,0.0001431,7.725e-05,0.01367,0.002571,5.192,0.01736,0,1,0
244500000000,244800000000,3996515093,0,4304773590,0.004425,0.02005,0.02719,0.001543,0.001764,0.02008,0.0001945,7.725e-05,0.007782,0.003071,5.048,0.01604,0,1,0
244800000000,245100000000,3996515093,0,4304773590,0.004898,0.02014,0.02716,0.002102,0.002323,0.02069,0.0001564,7.725e-05,0.05896,0.003571,5.323,0.01716,0,1,0
245100000000,245400000000,3996515093,0,4304773590,0.004509,0.02008,0.02719,0.001406,0.001627,0.02014,0.0001659,7.725e-05,0.009644,0.004929,5.034,0.01585,0,1,0
245400000000,245700000000,3996515093,0,4304773590,0.004707,0.02008,0.02719,0.0006409,0.0008621,0.02014,0.0001326,7.725e-05,0.008865,0.002857,5.531,0.01872,0,1,0
245700000000,246000000000,3996515093,0,4304773590,0.004646,0.02011,0.02719,0.001337,0.001558,0.02014,0.0001478,7.725e-05,0.01035,0.003216,5.618,0.01906,0,1,0
246000000000,246300000000,3996515093,0,4304773590,0.004417,0.02011,0.02716,0.001434,0.001656,0.02017,0.0001249,7.725e-05,0.02151,0.002857,5.043,0.01581,0,1,0
251400000000,251700000000,3996515093,0,4304773590,0.003563,0.02026,0.02719,0.002064,0.002285,0.02032,0.0001421,7.725e-05,0.008911,0.005714,3.942,0.01054,0,1,0
251700000000,252000000000,3996515093,0,4304773590,0.004501,0.02029,0.02719,0.0009718,0.001192,0.02032,0.0001221,7.725e-05,0.009888,0.002785,5.284,0.01707,0,1,0
252000000000,252300000000,3996515093,0,4304773590,0.004158,0.02029,0.02719,0.0008812,0.001102,0.02042,0.0001535,7.725e-05,0.01581,0.002998,4.71,0.01409,0,1,0
252300000000,252600000000,3996515093,0,4304773590,0.004341,0.02032,0.02734,0.001554,0.001776,0.0209,0.0001574,7.725e-05,0.0332,0.003857,5.103,0.01611,0,1,0
252600000000,252900000000,3996515093,0,4304773590,0.003922,0.02032,0.02719,0.0008526,0.001074,0.02039,0.0001373,7.725e-05,0.01024,0.003071,5.283,0.01708,0,1,0
252900000000,253200000000,3996515093,0,4304773590,0.004395,0.02042,0.02762,0.001266,0.001488,0.02109,0.000144,7.725e-05,0.05621,0.002998,5.488,0.01819,0,1,0
253200000000,253500000000,3996515093,0,4304773590,0.003735,0.02042,0.02716,0.0006065,0.0008278,0.02054,0.0001497,7.725e-05,0.008545,0.004929,4.915,0.01543,0,1,0
253500000000,253800000000,3996515093,0,4304773590,0.003345,0.02039,0.02716,0.000988,0.001209,0.02042,0.0001383,7.725e-05,0.007584,0.002857,4.396,0.01333,0,1,0
253800000000,254100000000,3996515093,0,4304773590,0.003246,0.02036,0.02719,0.001554,0.001776,0.02042,0.0001249,7.82e-05,0.006958,0.003429,4.291,0.01221,0,1,0
254100000000,254400000000,3996515093,0,4304773590,0.003399,0.02036,0.02719,0.00189,0.00211,0.02042,0.0001249,7.725e-05,0.006958,0.002357,4.761,0.01502,0,1,0
254400000000,254700000000,3996515093,0,4304773590,0.003464,0.02039,0.02719,0.001207,0.001429,0.02042,0.0001144,7.725e-05,0.006592,0.002857,5.054,0.01629,0,1,0
254700000000,255000000000,3996515093,0,4304773590,0.00333,0.02039,0.02719,0.001753,0.001976,0.02042,0.0001268,7.82e-05,0.00708,0.003929,4.488,0.01351,0,1,0
255000000000,255300000000,3996515093,0,4304773590,0.003334,0.02039,0.02719,0.002304,0.002525,0.02045,0.0001278,7.725e-05,0.01187,0.005714,4.452,0.01333,0,1,0
255300000000,255600000000,3996515093,0,4304773590,0.003342,0.02039,0.02719,0.001558,0.00178,0.02048,0.0001307,7.725e-05,0.006592,0.004715,4.56,0.0137,0,1,0
255600000000,255900000000,3996515093,0,4304773590,0.003532,0.02051,0.02765,0.001463,0.001684,0.02109,0.0001249,7.82e-05,0.05334,0.005714,4.366,0.0129,0,1,0
255900000000,256200000000,3996515093,0,4304773590,0.003471,0.02039,0.02719,0.00107,0.001291,0.02045,0.0001183,7.725e-05,0.006126,0.003357,4.408,0.01313,0,1,0
256200000000,256500000000,3996515093,0,4304773590,0.003178,0.02039,0.02719,0.0016,0.001822,0.02042,0.0001516,7.725e-05,0.00621,0.002857,4.431,0.01364,0,1,0
256500000000,256800000000,3996515093,0,4304773590,0.003063,0.02039,0.02719,0.002121,0.002342,0.02045,0.0001373,7.82e-05,0.006325,0.004074,4.059,0.01142,0,1,0
256800000000,257100000000,3996515093,0,4304773590,0.003162,0.02039,0.02719,0.002655,0.002876,0.02045,0.0001945,7.725e-05,0.005371,0.003716,4.13,0.01183,0,1,0
257100000000,257400000000,3996515093,0,4304773590,0.003307,0.02042,0.02719,0.003231,0.003452,0.02045,0.000205,7.725e-05,0.007515,0.003357,4.181,0.01245,0,1,0
257400000000,257700000000,3996515093,0,4304773590,0.003216,0.02042,0.02719,0.003784,0.004005,0.02045,0.0001841,7.82e-05,0.006165,0.002857,4.741,0.015,0,1,0
257700000000,258000000000,3996515093,0,4304773590,0.003033,0.02042,0.02719,0.004295,0.004517,0.02048,0.0001612,7.725e-05,0.005692,0.003643,4.169,0.01195,0,1,0
258000000000,258300000000,3996515093,0,4304773590,0.003063,0.02042,0.02719,0.004761,0.004982,0.02048,0.0001678,7.725e-05,0.00647,0.00293,4.023,0.0117,0,1,0
258300000000,258600000000,3996515093,0,4304773590,0.00333,0.02054,0.02777,0.00396,0.004181,0.02112,0.0001144,7.82e-05,0.04382,0.002857,4.059,0.01207,0,1,0
258600000000,258900000000,3996515093,0,4304773590,0.002953,0.02051,0.02719,0.001387,0.001608,0.0206,0.0001202,7.725e-05,0.00589,0.003071,4.394,0.01294,0,1,0
258900000000,259200000000,3996515093,0,4304773590,0.002907,0.02048,0.02719,0.0004129,0.0006342,0.02054,0.000123,7.82e-05,0.005371,0.003357,4.57,0.01368,0,1,0
259200000000,259500000000,3996515093,0,4304773590,0.003452,0.02048,0.02719,0.0008554,0.001078,0.0206,0.0001202,7.725e-05,0.0116,0.002857,5.606,0.01891,0,1,0
259500000000,259800000000,3996515093,0,4304773590,0.002884,0.02048,0.02719,0.00135,0.001572,0.02054,0.0001144,7.725e-05,0.009399,0.001999,4.268,0.01252,0,1,0
259800000000,260100000000,3996515093,0,4304773590,0.00272,0.02048,0.02719,0.001804,0.002026,0.02051,0.0001116,7.82e-05,0.008057,0.003071,4.299,0.01316,0,1,0
260100000000,260400000000,3996515093,0,4304773590,0.003391,0.02048,0.02719,0.0008774,0.001099,0.02054,0.0001116,7.725e-05,0.007088,0.003216,5.667,0.02027,0,1,0
260400000000,260700000000,3996515093,0,4304773590,0.003162,0.02048,0.02719,0.001141,0.001362,0.02054,0.0001326,7.82e-05,0.009399,0.003071,5.483,0.01915,0,1,0
260700000000,261000000000,3996515093,0,4304773590,0.003197,0.02048,0.02719,0.001556,0.001778,0.02054,9.918e-05,7.629e-05,0.007446,0.002857,5.647,0.01965,0,1,0
261000000000,261300000000,3996515093,0,4304773590,0.003162,0.02051,0.02719,0.000577,0.0007982,0.02054,9.346e-05,7.82e-05,0.006744,0.002285,5.393,0.01846,0,1,0
261300000000,261600000000,3996515093,0,4304773590,0.003094,0.02048,0.02719,0.0009975,0.001219,0.02054,0.0001097,7.629e-05,0.006714,0.003216,5.534,0.01881,0,1,0
261600000000,261900000000,3996515093,0,4304773590,0.003006,0.02048,0.02719,0.001394,0.001616,0.02054,9.632e-05,7.82e-05,0.006714,0.002644,5.718,0.01935,0,1,0
261900000000,262200000000,3996515093,0,4304773590,0.002804,0.02051,0.02719,0.0005388,0.0007601,0.02054,9.632e-05,7.629e-05,0.005737,0.002644,5.51,0.01909,0,1,0
262200000000,262500000000,3996515093,0,4304773590,0.003345,0.02057,0.02753,0.0006332,0.0008545,0.02127,0.0001307,7.82e-05,0.03101,0.00293,6.358,0.02445,0,1,0
262500000000,262800000000,3996515093,0,4304773590,0.002941,0.02072,0.02905,0.0009937,0.001215,0.02078,0.000104,7.725e-05,0.006447,0.002857,6.126,0.02469,0,1,0
262800000000,263100000000,3996515093,0,4304773590,0.003372,0.02078,0.02908,0.001392,0.001614,0.02136,0.0001383,7.82e-05,0.04553,0.003143,5.438,0.01942,0,1,0
263100000000,263400000000,3996515093,0,4304773590,0.003338,0.02072,0.02908,0.001673,0.001894,0.02078,0.0001211,7.725e-05,0.006714,0.00457,5.649,0.01991,0,1,0
263400000000,263700000000,3996515093,0,4304773590,0.003002,0.02066,0.02911,0.0007792,0.0009995,0.02069,9.251e-05,7.82e-05,0.006767,0.002499,5.265,0.01742,0,1,0
263700000000,264000000000,3996515093,0,4304773590,0.002975,0.02063,0.02911,0.001179,0.0014,0.02069,0.0001097,7.725e-05,0.006714,0.002857,5.247,0.01717,0,1,0
264000000000,264300000000,3996515093,0,4304773590,0.003075,0.02063,0.02911,0.001581,0.001802,0.02069,0.0001211,7.82e-05,0.006714,0.00293,5.553,0.01897,0,1,0
264300000000,264600000000,3996515093,0,4304773590,0.002789,0.02063,0.02911,0.001957,0.002178,0.02069,0.0001059,7.629e-05,0.008606,0.002998,5.425,0.01855,0,1,0
264600000000,264900000000,3996515093,0,4304773590,0.002617,0.02066,0.02911,0.002159,0.00238,0.02069,8.869e-05,7.82e-05,0.006592,0.00293,4.722,0.0154,0,1,0
264900000000,265200000000,3996515093,0,4304773590,0.002354,0.02066,0.02911,0.00123,0.001451,0.02069,9.632e-05,7.725e-05,0.005157,0.002998,4.317,0.01324,0,1,0
265200000000,265500000000,3996515093,0,4304773590,0.002998,0.02066,0.02911,0.001564,0.001785,0.02072,0.0001488,7.725e-05,0.00544,0.002857,5.979,0.02331,0,1,0
265500000000,265800000000,3996515093,0,4304773590,0.003044,0.02066,0.02911,0.001904,0.002125,0.02072,0.0001535,7.725e-05,0.005981,0.004143,6.412,0.02617,0,1,0
265800000000,266100000000,3996515093,0,4304773590,0.003399,0.02072,0.02911,0.001247,0.001469,0.02133,0.0001364,7.725e-05,0.03052,0.00293,6.003,0.02397,0,1,0
266100000000,266400000000,3996515093,0,4304773590,0.003071,0.02069,0.02911,0.001198,0.001419,0.02075,0.0001163,7.725e-05,0.006592,0.002998,6.012,0.02327,0,1,0
266400000000,266700000000,3996515093,0,4304773590,0.003422,0.02075,0.02911,0.00157,0.001791,0.02133,0.0001364,7.725e-05,0.05249,0.004715,6.363,0.02379,0,1,0
266700000000,267000000000,3996515093,0,4304773590,0.002827,0.02066,0.02911,0.0004883,0.0007095,0.02072,0.0001144,7.725e-05,0.006958,0.002285,5.82,0.02068,0,1,0
267000000000,267300000000,3996515093,0,4304773590,0.002918,0.02066,0.02911,0.0008287,0.001049,0.02069,0.0001087,7.725e-05,0.005562,0.002857,6.046,0.02196,0,1,0
267300000000,267600000000,3996515093,0,4304773590,0.002831,0.02066,0.02911,0.001154,0.001375,0.02069,8.869e-05,7.82e-05,0.005882,0.002213,6.164,0.0233,0,1,0
267600000000,267900000000,3996515093,0,4304773590,0.003155,0.02066,0.02911,0.00149,0.001711,0.02069,0.000103,7.629e-05,0.006149,0.002998,6.273,0.02402,0,1,0
267900000000,268200000000,3996515093,0,4304773590,0.003029,0.02069,0.02911,0.0009451,0.001167,0.02072,0.0001373,7.82e-05,0.005692,0.002857,5.957,0.02143,0,1,0
268200000000,268500000000,3996515093,0,4304773590,0.002502,0.02069,0.02911,0.0006886,0.0009098,0.02072,0.0001011,7.725e-05,0.00528,0.002716,5.013,0.01682,0,1,0
268500000000,268800000000,3996515093,0,4304773590,0.003002,0.02069,0.02911,0.001041,0.001263,0.02075,0.0001001,7.82e-05,0.005981,0.002857,5.74,0.0198,0,1,0
268800000000,269100000000,3996515093,0,4304773590,0.003193,0.02072,0.02911,0.001329,0.001551,0.02075,0.0001297,7.725e-05,0.006477,0.003716,6.093,0.02352,0,1,0
269100000000,269400000000,3996515093,0,4304773590,0.003353,0.02072,0.02911,0.0002975,0.0005188,0.02078,0.0001364,7.725e-05,0.006279,0.005783,6.62,0.02694,0,1,0
269400000000,269700000000,3996515093,0,4304773590,0.00333,0.02078,0.02911,0.000658,0.0008793,0.02136,0.0001106,7.725e-05,0.03076,0.003143,7.102,0.02986,0,1,0
269700000000,270000000000,3996515093,0,4304773590,0.002682,0.02078,0.02911,0.0009785,0.0012,0.02084,0.0001116,7.725e-05,0.007858,0.00293,6.176,0.02435,0,1,0
270000000000,270300000000,3996515093,0,4304773590,0.003323,0.02084,0.02911,0.001289,0.001511,0.02142,0.0001974,7.82e-05,0.04614,0.004425,6.237,0.02284,0,1,0
270300000000,270600000000,3996515093,0,4304773590,0.003433,0.02087,0.02911,0.0006876,0.0009089,0.02094,0.0002079,7.629e-05,0.007874,0.00293,6.224,0.02246,0,1,0
270600000000,270900000000,3996515093,0,4304773590,0.003242,0.02094,0.02911,0.0004358,0.0006571,0.02097,0.0001516,7.82e-05,0.01506,0.003929,6.166,0.02325,0,1,0
270900000000,271200000000,3996515093,0,4304773590,0.003006,0.02097,0.02911,0.0007401,0.0009613,0.02103,0.0001526,7.725e-05,0.006737,0.003643,6.33,0.02337,0,1,0
271200000000,271500000000,3996515093,0,4304773590,0.003017,0.02103,0.02911,0.00103,0.001251,0.02109,0.0001535,7.725e-05,0.006683,0.003571,6.684,0.0253,0,1,0
281400000000,281700000000,3996515093,0,4304773590,0.002129,0.02158,0.02911,0.001375,0.001596,0.02161,0.0001059,7.725e-05,0.009476,0.00293,5.355,0.01844,0,1,0
281700000000,282000000000,3996515093,0,4304773590,0.002548,0.02158,0.02911,0.0002861,0.0005074,0.02164,0.0001125,7.82e-05,0.005554,0.002857,6.388,0.02469,0,1,0
282000000000,282300000000,3996515093,0,4304773590,0.002666,0.02161,0.02911,0.0004559,0.0006771,0.02164,8.297e-05,7.725e-05,0.005783,0.002213,6.993,0.02703,0,1,0
282300000000,282600000000,3996515093,0,4304773590,0.002235,0.02161,0.02911,0.0007477,0.0009689,0.02164,0.0001116,7.725e-05,0.005829,0.003502,5.664,0.02027,0,1,0
282600000000,282900000000,3996515093,0,4304773590,0.002071,0.02161,0.02911,0.001038,0.001259,0.02164,9.251e-05,7.82e-05,0.00457,0.002857,4.788,0.01616,0,1,0
282900000000,283200000000,3996515093,0,4304773590,0.00243,0.02161,0.02911,0.001324,0.001545,0.02167,0.0001087,7.725e-05,0.005981,0.004074,6.173,0.02334,0,1,0
283200000000,283500000000,3996515093,0,4304773590,0.002373,0.02164,0.02911,0.001604,0.001825,0.0217,9.918e-05,7.725e-05,0.006676,0.003929,5.785,0.02135,0,1,0
283500000000,283800000000,3996515093,0,4304773590,0.002773,0.02164,0.02911,0.0009308,0.001152,0.02167,0.0001125,7.82e-05,0.00679,0.002644,6.926,0.02788,0,1,0
283800000000,284100000000,3996515093,0,4304773590,0.002468,0.02167,0.02911,0.0006943,0.0009155,0.02176,9.823e-05,7.629e-05,0.01111,0.00243,5.931,0.02148,0,1,0
284100000000,284400000000,3996515093,0,4304773590,0.002453,0.02164,0.02911,0.0009842,0.001205,0.0217,0.0001001,7.725e-05,0.004761,0.002998,5.86,0.02158,0,1,0
284400000000,284700000000,3996515093,0,4304773590,0.002445,0.02176,0.02911,0.00127,0.001492,0.02234,0.0001469,7.82e-05,0.05164,0.008148,4.975,0.01666,0,1,0
284700000000,285000000000,3996515093,0,4304773590,0.00235,0.02173,0.02911,0.001581,0.001802,0.02176,7.057e-05,7.629e-05,0.004761,0.002144,5.59,0.01989,0,1,0
285000000000,285300000000,3996515093,0,4304773590,0.002174,0.02173,0.02911,0.001328,0.001549,0.02176,9.251e-05,7.82e-05,0.005737,0.002357,4.586,0.01529,0,1,0
285300000000,285600000000,3996515093,0,4304773590,0.002316,0.02173,0.02911,0.0006943,0.0009155,0.02176,0.0001163,7.82e-05,0.005249,0.002857,5.431,0.01928,0,1,0
285600000000,285900000000,3996515093,0,4304773590,0.00288,0.02173,0.02911,0.0009918,0.001213,0.02179,0.000123,7.629e-05,0.006187,0.003143,6.625,0.02598,0,1,0
285900000000,286200000000,3996515093,0,4304773590,0.002842,0.02176,0.02911,0.001301,0.001522,0.02179,0.0001326,7.82e-05,0.008057,0.00293,6.278,0.02356,0,1,0
286200000000,286500000000,3996515093,0,4304773590,0.002647,0.02179,0.02911,0.001619,0.001841,0.02182,0.0001173,7.725e-05,0.007294,0.002857,6.029,0.02236,0,1,0
286500000000,286800000000,3996515093,0,4304773590,0.002335,0.02179,0.02911,0.001778,0.001999,0.02182,9.346e-05,7.725e-05,0.005661,0.00293,4.984,0.01625,0,1,0
286800000000,287100000000,3996515093,0,4304773590,0.00246,0.02179,0.02911,0.0007744,0.0009956,0.02182,0.000102,7.82e-05,0.009277,0.003071,5.701,0.02049,0,1,0
287100000000,287400000000,3996515093,0,4304773590,0.002048,0.02179,0.02911,0.001104,0.001326,0.02182,9.441e-05,7.629e-05,0.003834,0.002857,4.463,0.01335,0,1,0
287400000000,287700000000,3996515093,0,4304773590,0.002342,0.02179,0.02911,0.001429,0.00165,0.02188,9.918e-05,7.82e-05,0.009033,0.002285,4.929,0.01654,0,1,0
287700000000,288000000000,3996515093,0,4304773590,0.002697,0.02182,0.02911,0.000762,0.0009823,0.02188,0.0001326,7.725e-05,0.005791,0.00293,6.079,0.02305,0,1,0
288000000000,288300000000,3996515093,0,4304773590,0.003094,0.02191,0.02911,0.000596,0.0008173,0.02243,0.0001011,7.725e-05,0.04871,0.002857,6.295,0.02283,0,1,0
288300000000,288600000000,3996515093,0,4304773590,0.002838,0.02185,0.02911,0.000927,0.001148,0.02191,0.0001049,7.82e-05,0.004883,0.002644,6.319,0.02346,0,1,0
288600000000,288900000000,3996515093,0,4304773590,0.002483,0.02185,0.02911,0.00127,0.001492,0.02191,8.106e-05,7.629e-05,0.006821,0.001999,5.591,0.01948,0,1,0
288900000000,289200000000,3996515093,0,4304773590,0.002224,0.02188,0.02911,0.0007963,0.001019,0.02191,7.82e-05,7.82e-05,0.008484,0.002857,4.36,0.01368,0,1,0
289200000000,289500000000,3996515093,0,4304773590,0.002262,0.02188,0.02911,0.0004625,0.0006838,0.02194,8.583e-05,7.725e-05,0.006737,0.004288,4.625,0.01516,0,1,0
289500000000,289800000000,3996515093,0,4304773590,0.002262,0.02191,0.02911,0.0008116,0.001032,0.02194,8.297e-05,7.725e-05,0.005966,0.001785,4.345,0.01347,0,1,0
289800000000,290100000000,3996515093,0,4304773590,0.002853,0.02191,0.02911,0.001167,0.001389,0.02194,0.0001163,7.82e-05,0.006714,0.002857,6.143,0.02249,0,1,0
290100000000,290400000000,3996515093,0,4304773590,0.002872,0.02191,0.02911,0.001425,0.001646,0.02197,0.0001431,7.725e-05,0.007103,0.00293,6.26,0.02296,0,1,0
290400000000,290700000000,3996515093,0,4304773590,0.00285,0.02191,0.02911,0.0003729,0.0005941,0.02197,0.0001211,7.82e-05,0.006836,0.003716,5.766,0.02059,0,1,0
290700000000,291000000000,3996515093,0,4304773590,0.002895,0.02194,0.02911,0.0007305,0.0009518,0.02197,0.0001192,7.629e-05,0.006142,0.002857,6.319,0.02425,0,1,0
291000000000,291300000000,3996515093,0,4304773590,0.002773,0.02194,0.02911,0.001093,0.001314,0.02203,0.0001163,7.82e-05,0.01624,0.003857,6.02,0.02136,0,1,0
291300000000,291600000000,3996515093,0,4304773590,0.002487,0.02194,0.02911,0.001478,0.001699,0.022,0.0001001,7.725e-05,0.006737,0.002857,4.983,0.01666,0,1,0
291600000000,291900000000,3996515093,0,4304773590,0.002655,0.02203,0.02911,0.0005913,0.0008125,0.02258,9.918e-05,7.725e-05,0.06348,0.003216,4.576,0.0142,0,1,0
291900000000,292200000000,3996515093,0,4304773590,0.002377,0.022,0.02911,0.0007124,0.0009336,0.02206,0.0001049,7.725e-05,0.005821,0.003784,4.692,0.01501,0,1,0
292200000000,292500000000,3996515093,0,4304773590,0.002621,0.022,0.02911,0.001083,0.001305,0.02206,0.0001173,7.725e-05,0.01062,0.00293,4.816,0.01595,0,1,0
292500000000,292800000000,3996515093,0,4304773590,0.003021,0.02197,0.02911,0.001451,0.001673,0.02203,0.0001097,7.82e-05,0.007141,0.002857,6.011,0.02313,0,1,0
292800000000,293100000000,3996515093,0,4304773590,0.002796,0.022,0.02911,0.001303,0.001524,0.02203,9.918e-05,7.629e-05,0.01067,0.002857,5.42,0.01968,0,1,0
293100000000,293400000000,3996515093,0,4304773590,0.002991,0.022,0.02911,0.0007296,0.0009508,0.02203,9.06e-05,7.82e-05,0.008469,0.004501,6.25,0.02373,0,1,0
293400000000,293700000000,3996515093,0,4304773590,0.002491,0.022,0.02911,0.001127,0.001348,0.02203,9.251e-05,7.629e-05,0.007164,0.003071,4.985,0.01619,0,1,0
293700000000,294000000000,3996515093,0,4304773590,0.002464,0.022,0.02911,0.001526,0.001747,0.02206,9.918e-05,7.82e-05,0.006836,0.003429,4.302,0.01309,0,1,0
294000000000,294300000000,3996515093,0,4304773590,0.002838,0.02203,0.02911,0.001938,0.002159,0.02206,0.0001125,7.725e-05,0.009094,0.003143,5.111,0.01688,0,1,0
294300000000,294600000000,3996515093,0,4304773590,0.003014,0.02206,0.02911,0.00235,0.002571,0.02258,0.0001001,7.82e-05,0.0293,0.00243,5.296,0.018,0,1,0
294600000000,294900000000,3996515093,0,4304773590,0.00309,0.02203,0.02911,0.001295,0.001516,0.02261,9.823e-05,7.725e-05,0.03027,0.002857,5.832,0.02049,0,1,0
294900000000,295200000000,3996515093,0,4304773590,0.002712,0.02209,0.02911,0.001671,0.001892,0.02216,0.0001173,7.82e-05,0.00853,0.003429,4.932,0.01605,0,1,0
295200000000,295500000000,3996515093,0,4304773590,0.002758,0.02213,0.02911,0.001162,0.001383,0.02271,0.0001087,7.725e-05,0.04309,0.002571,4.614,0.01427,0,1,0
295500000000,295800000000,3996515093,0,4304773590,0.002937,0.02206,0.02911,0.001013,0.001234,0.02213,0.0001144,7.82e-05,0.01166,0.003784,5.315,0.01793,0,1,0
295800000000,296100000000,3996515093,0,4304773590,0.002785,0.02206,0.02911,0.001343,0.001564,0.02209,0.0001059,7.725e-05,0.009262,0.002998,5.07,0.01739,0,1,0
296100000000,296400000000,3996515093,0,4304773590,0.003105,0.02216,0.02911,0.0003595,0.0005808,0.02271,0.000124,7.82e-05,0.06372,0.002857,5.339,0.01813,0,1,0
296400000000,296700000000,3996515093,0,4304773590,0.002987,0.02209,0.02911,0.0007544,0.0009756,0.02213,0.0001183,7.725e-05,0.006523,0.002857,5.843,0.02167,0,1,0
296700000000,297000000000,3996515093,0,4304773590,0.002811,0.02209,0.02911,0.001131,0.001352,0.02213,9.918e-05,7.82e-05,0.006554,0.003216,5.437,0.01936,0,1,0
297000000000,297300000000,3996515093,0,4304773590,0.002426,0.02209,0.02911,0.001513,0.001734,0.02213,9.823e-05,7.725e-05,0.005219,0.004143,5.082,0.01709,0,1,0
297300000000,297600000000,3996515093,0,4304773590,0.002735,0.02209,0.02911,0.001888,0.00211,0.02213,8.965e-05,7.725e-05,0.005241,0.002644,5.672,0.0201,0,1,0
297600000000,297900000000,3996515093,0,4304773590,0.002655,0.02209,0.02911,0.001532,0.001753,0.02216,8.297e-05,7.82e-05,0.007568,0.002644,5.053,0.0172,0,1,0
297900000000,298200000000,3996515093,0,4304773590,0.002922,0.02213,0.02911,0.001131,0.001352,0.02216,0.0001345,7.629e-05,0.007126,0.002857,6.377,0.02329,0,1,0
298200000000,298500000000,3996515093,0,4304773590,0.003021,0.02213,0.02911,0.00127,0.001492,0.02216,0.0001049,7.82e-05,0.00605,0.00293,5.855,0.02107,0,1,0
298500000000,298800000000,3996515093,0,4304773590,0.003048,0.02213,0.02911,0.0004272,0.0006485,0.02219,9.537e-05,7.629e-05,0.005936,0.00293,5.809,0.02139,0,1,0
298800000000,299100000000,3996515093,0,4304773590,0.002884,0.02225,0.02911,0.0008678,0.001089,0.0228,0.000103,7.82e-05,0.0459,0.002857,4.603,0.01437,0,1,0
299100000000,299400000000,3996515093,0,4304773590,0.002914,0.02219,0.02911,0.001274,0.001495,0.02225,0.0001135,7.725e-05,0.005875,0.002571,5.378,0.01893,0,1,0
299400000000,299700000000,3996515093,0,4304773590,0.003166,0.02219,0.02911,0.0005007,0.000721,0.02225,0.0001202,7.82e-05,0.007416,0.003502,6.177,0.02272,0,1,0
299700000000,300000000000,3996515093,0,4304773590,0.003246,0.02222,0.02911,0.0005856,0.0008068,0.02225,0.0001154,7.725e-05,0.009628,0.003357,6.436,0.02466,0,1,0
