5700000000,6000000000,4279407057,0,1095269,3.052e-05,0.0006676,0.009689,9.823e-05,0.0002413,0.0006723,0,0,0.0003843,0,9.871,0.04419,0,0,1.717e-05
6000000000,6300000000,4279407057,0,1095269,3.242e-05,0.0006666,0.009689,9.823e-05,0.0002413,0.0006752,9.537e-07,0,0.0009594,0.0001431,24.41,0.1191,0,0,9.537e-07
6300000000,6600000000,4279407057,0,1095269,2.956e-05,0.0006695,0.009689,9.823e-05,0.0002413,0.0006771,0,0,0.0009155,0,23.53,0.1155,0,0,1.907e-06
6600000000,6900000000,4279407057,0,1095269,2.956e-05,0.0006714,0.009689,9.823e-05,0.0002413,0.0006838,1.907e-06,0,0.0006657,0.0001431,23.23,0.1095,0,0,1.335e-05
6900000000,7200000000,4279407057,0,1095269,2.956e-05,0.000679,0.009689,9.823e-05,0.0002413,0.0006838,1.907e-06,0,0.0004988,7.153e-05,23.82,0.1168,0,0,5.436e-05
7200000000,7500000000,4279407057,0,1095269,3.147e-05,0.0006714,0.009689,9.823e-05,0.0002413,0.0006733,0,0,0.0006762,0.0001431,24.84,0.1174,0,0,7.629e-06
7500000000,7800000000,4279407057,0,1095269,3.147e-05,0.0006704,0.009689,9.918e-05,0.0002413,0.0006733,0,0,0.001013,7.153e-05,24.96,0.1176,0,0,2.48e-05
7800000000,8100000000,4279407057,0,1095269,0.0005674,0.0008612,0.009689,9.918e-05,0.0002413,0.002319,9.537e-07,0,0.06244,0.0001431,23.83,0.115,0,0,0.001017
8100000000,8400000000,4279407057,0,1095269,3.719e-05,0.0008364,0.009689,9.918e-05,0.0002413,0.001762,0,0,0.0006304,7.153e-05,15.3,0.06943,0,0,2.384e-05
8400000000,8700000000,4279407057,0,1095269,3.338e-05,0.0007143,0.009689,9.918e-05,0.0002413,0.0007172,0,0,0.001011,7.153e-05,25.99,0.1238,0,0,9.537e-07
8700000000,9000000000,4279407057,0,1095269,3.242e-05,0.0007133,0.009689,9.918e-05,0.0002413,0.0007162,0,0,0.001101,0,24.71,0.1225,0,0,8.583e-06
9000000000,9300000000,4279407057,0,1095269,3.242e-05,0.0007124,0.009689,9.918e-05,0.0002413,0.0007162,0,0,0.00124,7.153e-05,24.13,0.1187,0,0,1.049e-05
9300000000,9600000000,4279407057,0,1095269,3.242e-05,0.0007133,0.009689,9.918e-05,0.0002413,0.0007172,0,0,0.001402,0,9.816,0.04497,0,0,1.144e-05
9600000000,9900000000,4279407057,0,1095269,3.147e-05,0.0007153,0.009689,9.918e-05,0.0002413,0.00072,9.537e-07,0,0.001089,0.0001431,20.23,0.09895,0,0,8.583e-05
9900000000,10200000000,4279407057,0,1095269,3.052e-05,0.0007153,0.009689,9.918e-05,0.0002413,0.0007229,0,0,0.00103,7.153e-05,17.71,0.08447,0,0,1.431e-05
10200000000,10500000000,4279407057,0,1095269,3.147e-05,0.0007124,0.009689,9.918e-05,0.0002413,0.0007162,0,0,0.000988,7.153e-05,12.69,0.05793,0,0,4.959e-05
10500000000,10800000000,4279407057,0,1095269,3.147e-05,0.0007162,0.009689,9.918e-05,0.0002413,0.0007257,0,0,0.0005932,0,7.225,0.03032,0,0,3.242e-05
10800000000,11100000000,4279407057,0,1095269,2.956e-05,0.0007153,0.009689,9.918e-05,0.0002413,0.0007343,0,0,0.000659,7.153e-05,9.099,0.04078,0,0,2.289e-05
11100000000,11400000000,4279407057,0,1095269,2.956e-05,0.0007172,0.009689,9.918e-05,0.0002413,0.0007343,0,0,0.0006762,0,14.1,0.06628,0,0,3.815e-06
11400000000,11700000000,4279407057,0,1095269,0.0005169,0.0008984,0.009689,9.918e-05,0.0002413,0.002319,9.537e-07,0,0.06262,0.0001431,17.7,0.08034,0,0,3.147e-05
11700000000,12000000000,4279407057,0,1095269,3.624e-05,0.0008287,0.009689,9.918e-05,0.0002422,0.001738,0,0,0.000803,7.153e-05,13.01,0.05922,0,0,2.384e-05
12000000000,12300000000,4279407057,0,1095269,3.433e-05,0.0007133,0.009689,9.918e-05,0.0002422,0.0007162,9.537e-07,0,0.0006533,0.0002146,19.47,0.09058,0,0,1.24e-05
12300000000,12600000000,4279407057,0,1095269,3.433e-05,0.0007105,0.009689,9.918e-05,0.0002422,0.0007153,0,0,0.0007219,0,26.15,0.1241,0,0,1.144e-05
12600000000,12900000000,4279407057,0,1095269,3.242e-05,0.0007095,0.009689,9.918e-05,0.0002422,0.0007133,0,0,0.0007267,7.153e-05,25.01,0.1212,0,0,3.433e-05
12900000000,13200000000,4279407057,0,1095269,3.052e-05,0.0007105,0.009689,9.918e-05,0.0002422,0.0007143,0,0,0.000535,0,22.88,0.1193,0,0,4.005e-05
13200000000,13500000000,4279407057,0,1095269,3.147e-05,0.0007095,0.009689,9.918e-05,0.0002422,0.0007172,9.537e-07,0,0.0004101,0.0001431,23.59,0.1197,0,0,2.098e-05
13500000000,13800000000,4279407057,0,1095269,2.861e-05,0.0007124,0.009689,9.918e-05,0.0002422,0.00072,0,0,0.0007906,0,22.18,0.1108,0,0,3.338e-05
13800000000,14100000000,4279407057,0,1095269,2.956e-05,0.0007095,0.009689,9.918e-05,0.0002422,0.0007124,0,0,0.001175,7.153e-05,23.01,0.1146,0,0,4.196e-05
14100000000,14400000000,4279407057,0,1095269,2.861e-05,0.0007105,0.009689,9.918e-05,0.0002422,0.0007133,0,0,0.0008059,0,21.86,0.114,0,0,2.67e-05
14400000000,14700000000,4279407057,0,1095269,2.861e-05,0.0007095,0.009689,9.918e-05,0.0002422,0.0007153,0,0,0.0007582,7.153e-05,22.71,0.1138,0,0,2.48e-05
14700000000,15000000000,4279407057,0,1095269,2.766e-05,0.0007105,0.009689,9.918e-05,0.0002422,0.0007153,0,0,0.0005064,0,21.15,0.1088,0,0,4.578e-05
15000000000,15300000000,4279407057,0,1095269,0.0005083,0.0008917,0.009689,9.918e-05,0.0002422,0.002319,1.335e-05,0,0.0625,0.002857,11.26,0.0528,0,0,2.861e-05
15300000000,15600000000,4279407057,0,1095269,3.529e-05,0.0008125,0.009689,9.918e-05,0.0002422,0.001753,0,0,0.0008802,0,17.46,0.08448,0,0,1.526e-05
15600000000,15900000000,4279407057,0,1095269,3.338e-05,0.0006895,0.009689,9.918e-05,0.0002422,0.000699,0,0,0.0005941,7.153e-05,26.07,0.1224,0,0,4.196e-05
15900000000,16200000000,4279407057,0,1095269,3.338e-05,0.0006914,0.009689,9.918e-05,0.0002422,0.0007019,0,0,0.000823,0,24.65,0.1213,0,0,4.768e-06
16200000000,16500000000,4279407057,0,1095269,3.433e-05,0.0006866,0.009689,9.918e-05,0.0002422,0.0007,0,0,0.0009785,7.153e-05,26.49,0.1235,0,0,2.098e-05
16500000000,16800000000,4279407057,0,1095269,3.338e-05,0.0006866,0.009689,9.918e-05,0.0002422,0.0006905,0,0,0.0009546,0,25.43,0.1222,0,0,2.289e-05
16800000000,17100000000,4279407057,0,1095269,3.242e-05,0.0006847,0.009689,9.918e-05,0.0002422,0.0006905,9.537e-07,0,0.0006676,0.0001431,24.03,0.1178,0,0,1.717e-05
17100000000,17400000000,4279407057,0,1095269,2.861e-05,0.0006905,0.009689,9.918e-05,0.0002422,0.0006981,9.537e-07,0,0.0006962,7.153e-05,23.78,0.1154,0,0,1.812e-05
17400000000,17700000000,4279407057,0,1095269,2.861e-05,0.0006857,0.009689,0.0001001,0.0002422,0.0006886,0,0,0.0007143,7.153e-05,22.14,0.1146,0,0,7.629e-06
17700000000,18000000000,4279407057,0,1095269,2.861e-05,0.0006866,0.009689,0.0001001,0.0002422,0.0006895,0,0,0.0006838,0,22.11,0.1134,0,0,2.861e-05
18000000000,18300000000,4279407057,0,1095269,2.861e-05,0.0006857,0.009689,0.0001001,0.0002422,0.0006905,0,0,0.000452,7.153e-05,23.03,0.1156,0,0,8.583e-05
18300000000,18600000000,4279407057,0,1095269,2.861e-05,0.0006876,0.009689,0.0001001,0.0002422,0.0006905,0,0,0.0007877,0,22.5,0.1154,0,0,5.436e-05
18600000000,18900000000,4279407057,0,1095269,0.0004854,0.0008726,0.009689,0.0001001,0.0002422,0.002308,9.537e-07,0,0.06244,0.0001431,22.77,0.1121,0,0,4.101e-05
18900000000,19200000000,4279407057,0,1095269,3.529e-05,0.0008183,0.009689,0.0001001,0.0002422,0.001726,0,0,0.0008898,0,13.02,0.06246,0,0,8.583e-06
19200000000,19500000000,4279407057,0,1095269,3.242e-05,0.0007,0.009689,0.0001001,0.0002422,0.0007029,0,0,0.0009489,2.384e-05,23.49,0.1211,0,0,1.431e-05
19500000000,19800000000,4279407057,0,1095269,3.147e-05,0.0007029,0.009689,0.0001001,0.0002422,0.0007067,0,0,0.000576,0,23.61,0.1139,0,0,4.673e-05
19800000000,20100000000,4279407057,0,1095269,3.433e-05,0.000701,0.009689,0.0001001,0.0002422,0.0007048,0,0,0.0005121,7.153e-05,24.02,0.113,0,0,1.526e-05
20100000000,20400000000,4279407057,0,1095269,3.147e-05,0.000701,0.009689,0.0001001,0.0002422,0.0007048,0,0,0.0006523,0,23.87,0.1177,0,0,7.343e-05
20400000000,20700000000,4279407057,0,1095269,3.242e-05,0.0007,0.009689,0.0001001,0.0002422,0.0007057,9.537e-07,0,0.00115,0.0001431,25.82,0.1225,0,0,1.049e-05
20700000000,21000000000,4279407057,0,1095269,3.052e-05,0.0007038,0.009689,0.0001001,0.0002422,0.0007105,0,0,0.0007772,7.153e-05,24.51,0.1176,0,0,5.913e-05
21000000000,21300000000,4279407057,0,1095269,2.956e-05,0.000701,0.009689,0.0001001,0.0002422,0.0007038,0,0,0.0005636,7.153e-05,22.91,0.1119,0,0,8.488e-05
21300000000,21600000000,4279407057,0,1095269,2.766e-05,0.0007029,0.009689,0.0001001,0.0002422,0.0007133,0,0,0.0007238,0,12.7,0.06107,0,0,9.537e-07
21600000000,21900000000,4279407057,0,1095269,2.861e-05,0.0007029,0.009689,0.0001001,0.0002422,0.0007153,0,0,0.00112,7.153e-05,14.37,0.06994,0,0,1.812e-05
21900000000,22200000000,4279407057,0,1095269,2.766e-05,0.0007067,0.009689,0.0001001,0.0002422,0.0007219,0,0,0.0005465,0,19.91,0.1008,0,0,3.147e-05
22200000000,22500000000,4279407057,0,1095269,0.0004568,0.0008764,0.009689,0.0001001,0.0002422,0.002205,9.537e-07,0,0.06287,0.0001431,21.42,0.1093,0,0,2.098e-05
22500000000,22800000000,4279407057,0,1095269,3.433e-05,0.0007801,0.009689,0.0001001,0.0002422,0.001589,0,0,0.0007153,0,21.32,0.1045,0,0,2.289e-05
22800000000,23100000000,4279407057,0,1095269,3.242e-05,0.0006895,0.009689,0.0001001,0.0002422,0.0006914,0,0,0.001162,7.153e-05,22.65,0.1179,0,0,5.722e-06
23100000000,23400000000,4279407057,0,1095269,3.147e-05,0.0006914,0.009689,0.0001001,0.0002422,0.0006943,0,0,0.0009146,0,23.39,0.1191,0,0,3.815e-06
23400000000,23700000000,4279407057,0,1095269,3.242e-05,0.0006895,0.009689,0.0001001,0.0002422,0.0006943,0,0,0.001524,7.153e-05,22.66,0.1197,0,0,2.861e-06
23700000000,24000000000,4279407057,0,1095269,3.242e-05,0.0006914,0.009689,0.0001001,0.0002432,0.0006952,0,0,0.001225,0,22.33,0.1152,0,0,1.812e-05
24000000000,24300000000,4279407057,0,1095269,3.242e-05,0.0006895,0.009689,0.0001001,0.0002422,0.0006981,9.537e-07,0,0.00141,0.0002146,24.27,0.1203,0,0,4.101e-05
24300000000,24600000000,4279407057,0,1095269,3.052e-05,0.0006952,0.009689,0.0001001,0.0002422,0.0007,9.537e-07,0,0.001358,7.153e-05,23.58,0.1171,0,0,2.384e-05
24600000000,24900000000,4279407057,0,1095269,2.956e-05,0.0006905,0.009689,0.0001001,0.0002422,0.0006933,0,0,0.00103,7.153e-05,22.66,0.1139,0,0,1.907e-05
24900000000,25200000000,4279407057,0,1095269,3.052e-05,0.0006914,0.009689,0.0001001,0.0002432,0.0006943,0,0,0.001043,0,23.38,0.1172,0,0,4.959e-05
25200000000,25500000000,4279407057,0,1095269,3.242e-05,0.0006895,0.009689,0.0001001,0.0002432,0.0006952,0,0,0.000742,7.153e-05,24.16,0.1167,0,0,1.526e-05
25500000000,25800000000,4279407057,0,1095269,3.147e-05,0.0006914,0.009689,0.0001001,0.0002432,0.0006952,0,0,0.001347,0,24.5,0.118,0,0,1.24e-05
25800000000,26100000000,4279407057,0,1095269,0.0005608,0.0008926,0.009689,0.0001001,0.0002432,0.002441,9.537e-07,0,0.06372,0.0001431,23.27,0.1175,0,0,3.91e-05
26100000000,26400000000,4279407057,0,1095269,3.719e-05,0.0008736,0.009689,0.0001001,0.0002432,0.001886,0,0,0.001322,0,17.58,0.08168,0,0,4.101e-05
26400000000,26700000000,4279407057,0,1095269,3.338e-05,0.0007277,0.009689,0.0001001,0.0002432,0.0007391,0,0,0.001148,7.153e-05,9.36,0.04211,0,0,5.722e-06
26700000000,27000000000,4279407057,0,1095269,3.242e-05,0.0007296,0.009689,0.0001001,0.0002432,0.0007401,0,0,0.0006666,0,12.51,0.05879,0,0,6.676e-06
27000000000,27300000000,4279407057,0,1095269,3.242e-05,0.0007277,0.009689,0.0001001,0.0002432,0.0007401,0,0,0.0005407,7.153e-05,16.65,0.07986,0,0,3.529e-05
27300000000,27600000000,4279407057,0,1095269,3.242e-05,0.0007248,0.009689,0.0001001,0.0002432,0.0007296,0,0,0.0008831,0,17.92,0.0891,0,0,1.717e-05
27600000000,27900000000,4279407057,0,1095269,3.147e-05,0.0007238,0.009689,0.0001001,0.0002432,0.0007324,9.537e-07,0,0.0008154,0.0001431,10.43,0.04713,0,0,4.864e-05
27900000000,28200000000,4279407057,0,1095269,2.861e-05,0.0007267,0.009689,0.0001001,0.0002432,0.0007343,0,0,0.0008459,0,11.77,0.05623,0,0,2.67e-05
28200000000,28500000000,4279407057,0,1095269,3.052e-05,0.0007248,0.009689,0.0001001,0.0002432,0.0007286,0,0,0.0008774,7.153e-05,10.66,0.04835,0,0,3.147e-05
28500000000,28800000000,4279407057,0,1095269,3.147e-05,0.0007257,0.009689,0.0001001,0.0002432,0.0007286,0,0,0.0008888,0,16.16,0.07646,0,0,0
28800000000,29100000000,4279407057,0,1095269,3.147e-05,0.0007238,0.009689,0.0001001,0.0002432,0.0007296,0,0,0.0009842,7.153e-05,24.05,0.117,0,0,3.624e-05
29100000000,29400000000,4279407057,0,1095269,3.147e-05,0.0007248,0.009689,0.0001001,0.0002432,0.0007296,0,0,0.001099,0,24.57,0.1146,0,0,5.054e-05
29400000000,29700000000,4279407057,0,1095269,0.0006218,0.0009289,0.009689,0.0001001,0.0002432,0.002483,9.537e-07,0,0.06311,0.0001431,15.33,0.06826,0,0,9.537e-07
29700000000,30000000000,4279407057,0,1095269,3.624e-05,0.0009222,0.009689,0.0001001,0.0002432,0.001915,0,0,0.0001726,0,18.32,0.08592,0,0,1.812e-05
30000000000,30300000000,4279407057,0,1095269,3.242e-05,0.0007801,0.009689,0.0001001,0.0002432,0.000782,0,0,0.0008545,7.153e-05,24.99,0.1213,0,0,3.052e-05
30300000000,30600000000,4279407057,0,1095269,3.147e-05,0.000782,0.009689,0.0001011,0.0002432,0.0007849,0,0,0.0006819,0,23.81,0.1181,0,0,5.817e-05
30600000000,30900000000,4279407057,0,1095269,3.242e-05,0.0007801,0.009689,0.0001011,0.0002432,0.0007849,0,0,0.001112,7.153e-05,24.59,0.1211,0,0,1.335e-05
30900000000,31200000000,4279407057,0,1095269,3.242e-05,0.0007811,0.009689,0.0001011,0.0002432,0.0007849,0,0,0.001059,0,24.3,0.1181,0,0,9.537e-07
31200000000,31500000000,4279407057,0,1095269,3.242e-05,0.0007801,0.009689,0.0001011,0.0002432,0.0007877,9.537e-07,0,0.0008974,0.0002146,23.94,0.1182,0,0,4.101e-05
31500000000,31800000000,4279407057,0,1095269,2.956e-05,0.0007858,0.009689,0.0001011,0.0002432,0.0007906,0,0,0.0008097,7.153e-05,23.73,0.1167,0,0,7.629e-06
31800000000,32100000000,4279407057,0,1095269,2.956e-05,0.0007811,0.009689,0.0001011,0.0002432,0.0007839,0,0,0.0008869,7.153e-05,23.76,0.1163,0,0,1.717e-05
32100000000,32400000000,4279407057,0,1095269,3.052e-05,0.000782,0.009689,0.0001011,0.0002432,0.0007925,0,0,0.0009184,0,23.55,0.1167,0,0,5.722e-06
32400000000,32700000000,4279407057,0,1095269,2.861e-05,0.0007839,0.009689,0.0001011,0.0002432,0.0007935,0,0,0.0002308,7.153e-05,23.99,0.1173,0,0,2.003e-05
32700000000,33000000000,4279407057,0,1095269,3.147e-05,0.0007868,0.009689,0.0001011,0.0002432,0.000802,0,0,0.0008669,0,23.13,0.1082,0,0,2.193e-05
33000000000,33300000000,4279407057,0,1095269,0.0005865,0.000988,0.009689,0.0001011,0.0002432,0.002563,9.537e-07,0,0.06274,0.0001431,24.81,0.1189,0,0,3.815e-06
33300000000,33600000000,4279407057,0,1095269,3.719e-05,0.0009289,0.009689,0.0001011,0.0002432,0.001995,0,0,0.0009575,0,23.86,0.112,0,0,4.101e-05
33600000000,33900000000,4279407057,0,1095269,3.433e-05,0.000762,0.009689,0.0001011,0.0002432,0.0007648,0,0,0.001015,1.144e-05,24.8,0.1186,0,0,8.583e-06
33900000000,34200000000,4279407057,0,1095269,3.433e-05,0.0007639,0.009689,0.0001011,0.0002432,0.0007677,0,0,0.0007648,0,25.59,0.1229,0,0,6.676e-06
34200000000,34500000000,4279407057,0,1095269,3.338e-05,0.0007629,0.009689,0.0001011,0.0002432,0.0007658,0,0,0.0007935,0.0001431,24.49,0.121,0,0,2.575e-05
34500000000,34800000000,4279407057,0,1095269,3.147e-05,0.0007629,0.009689,0.0001011,0.0002432,0.0007668,0,0,0.0004711,0,25.09,0.122,0,0,2.861e-06
34800000000,35100000000,4279407057,0,1095269,3.052e-05,0.000762,0.009689,0.0001011,0.0002432,0.0007668,9.537e-07,0,0.0003672,0.0002146,24.41,0.1188,0,0,2.67e-05
35100000000,35400000000,4279407057,0,1095269,2.956e-05,0.0007648,0.009689,0.0001011,0.0002432,0.0007725,0,0,0.0007982,7.153e-05,24.04,0.117,0,0,2.766e-05
35400000000,35700000000,4279407057,0,1095269,3.052e-05,0.000762,0.009689,0.0001011,0.0002432,0.0007658,0,0,0.0008831,7.153e-05,23.5,0.1156,0,0,9.537e-07
35700000000,36000000000,4279407057,0,1095269,2.956e-05,0.0007629,0.009689,0.0001011,0.0002432,0.0007668,0,0,0.0008926,0,23.74,0.116,0,0,4.768e-06
36000000000,36300000000,4279407057,0,1095269,2.861e-05,0.000762,0.009689,0.0001011,0.0002432,0.0007677,0,0,0.0004969,7.153e-05,22.53,0.1094,0,0,2.861e-05
36300000000,36600000000,4279407057,0,1095269,2.956e-05,0.0007629,0.009689,0.0001011,0.0002432,0.0007668,0,0,0.0005217,0,24.16,0.115,0,0,6.39e-05
36600000000,36900000000,4279407057,0,1095269,0.0006638,0.0009861,0.009689,0.0001011,0.0002432,0.002628,5.722e-06,0,0.0625,0.001429,25.8,0.1207,0,0,1.049e-05
36900000000,37200000000,4279407057,0,1095269,3.719e-05,0.0009184,0.009689,0.0001011,0.0002432,0.002052,0,0,0.0005379,0,23.01,0.1111,0,0,4.101e-05
37200000000,37500000000,4279407057,0,1095269,3.147e-05,0.0007286,0.009689,0.0001011,0.0002432,0.000742,0,0,0.0006084,7.153e-05,24.24,0.1159,0,0,6.676e-06
37500000000,37800000000,4279407057,0,1095269,3.147e-05,0.0007324,0.009689,0.0001011,0.0002432,0.0007439,0,0,0.0002813,0,25.68,0.1232,0,0,2.289e-05
37800000000,38100000000,4279407057,0,1095269,3.242e-05,0.0007305,0.009689,0.0001011,0.0002432,0.0007429,0,0,0.0004644,7.153e-05,24.22,0.1209,0,0,2.766e-05
38100000000,38400000000,4279407057,0,1095269,3.147e-05,0.0007286,0.009689,0.0001011,0.0002441,0.0007315,0,0,0.0003386,0,24.66,0.122,0,0,0
38400000000,38700000000,4279407057,0,1095269,3.052e-05,0.0007267,0.009689,0.0001011,0.0002441,0.0007324,9.537e-07,0,0.0003529,0.0001431,22.77,0.113,0,0,9.537e-06
38700000000,39000000000,4279407057,0,1095269,3.052e-05,0.0007324,0.009689,0.0001011,0.0002441,0.0007372,5.722e-06,0,0.0007706,0.0007858,24.1,0.1166,0,0,1.621e-05
39000000000,39300000000,4279407057,0,1095269,3.147e-05,0.0007277,0.009689,0.0001011,0.0002441,0.0007324,0,0,0.000453,7.153e-05,24.63,0.118,0,0,4.768e-06
39300000000,39600000000,4279407057,0,1095269,3.147e-05,0.0007286,0.009689,0.0001011,0.0002441,0.0007315,0,0,0.0004492,0,25.56,0.1159,0,0,1.335e-05
39600000000,39900000000,4279407057,0,1095269,3.147e-05,0.0007267,0.009689,0.0001011,0.0002441,0.0007324,0,0,0.0004063,7.153e-05,22.97,0.1094,0,0,1.24e-05
39900000000,40200000000,4279407057,0,1095269,3.052e-05,0.0007286,0.009689,0.0001011,0.0002441,0.0007324,0,0,0.0004244,0,24.91,0.1169,0,0,1.431e-05
40200000000,40500000000,4279407057,0,1095269,0.000617,0.0009451,0.009689,0.0001011,0.0002441,0.002579,3.815e-06,0,0.06311,0.001072,25.41,0.1186,0,0,1.24e-05
40500000000,40800000000,4279407057,0,1095269,3.529e-05,0.0008917,0.009689,0.0001011,0.0002441,0.002003,0,0,0.0005112,0,22.25,0.1118,0,0,8.774e-05
51000000000,51300000000,4279407057,0,1095269,0.0006332,0.0009241,0.009689,0.000102,0.0002451,0.002613,9.537e-07,0,0.06299,0.0001431,24.5,0.1144,0,0,7.057e-05
51300000000,51600000000,4279407057,0,1095269,3.815e-05,0.0009108,0.009689,0.000102,0.0002451,0.002056,0,0,0.001019,0,22.96,0.1121,0,0,0.0001192
51600000000,51900000000,4279407057,0,1095269,3.338e-05,0.0007143,0.009689,0.000102,0.0002451,0.0007172,0,0,0.0009642,7.153e-05,25.44,0.1225,0,0,1.907e-06
51900000000,52200000000,4279407057,0,1095269,3.242e-05,0.0007162,0.009689,0.000102,0.0002451,0.0007191,0,0,0.0001898,0,25.28,0.1224,0,0,2.003e-05
52200000000,52500000000,4279407057,0,1095269,3.338e-05,0.0007153,0.009689,0.000102,0.0002451,0.00072,0,0,0.000144,7.153e-05,25.23,0.1201,0,0,2.67e-05
52500000000,52800000000,4279407057,0,1095269,3.052e-05,0.0007172,0.009689,0.000102,0.0002451,0.0007229,0,0,0.0003977,7.153e-05,23.33,0.1177,0,0,1.907e-06
52800000000,53100000000,4279407057,0,1095269,3.433e-05,0.0007143,0.009689,0.000102,0.0002451,0.0007229,2.861e-06,0,0.0001526,0.0008574,25.17,0.1256,0,0,8.583e-06
53100000000,53400000000,4279407057,0,1095269,2.956e-05,0.0007191,0.009689,0.000102,0.0002451,0.0007248,0,0,0.0003843,7.153e-05,12.97,0.06187,0,0,3.91e-05
53400000000,53700000000,4279407057,0,1095269,2.861e-05,0.0007153,0.009689,0.000102,0.0002451,0.00072,0,0,0.000123,7.153e-05,8.911,0.03979,0,0,1.431e-05
53700000000,54000000000,4279407057,0,1095269,3.242e-05,0.0007162,0.009689,0.000102,0.0002451,0.0007191,0,0,0.0002279,0,14.43,0.0631,0,0,7.057e-05
54000000000,54300000000,4279407057,0,1095269,3.433e-05,0.0007181,0.009689,0.000102,0.0002451,0.0007277,9.537e-07,0,0.0005026,0.0002146,12.03,0.05018,0,0,4.387e-05
54300000000,54600000000,4279407057,0,1095269,3.242e-05,0.000721,0.009689,0.000102,0.0002451,0.0007353,0,0,0.0004568,0,25.08,0.113,0,0,0.0001307
54600000000,54900000000,4279407057,0,1095269,0.0006552,0.0009527,0.009689,0.000102,0.0002451,0.002735,9.537e-07,0,0.06299,0.0001431,17.92,0.08194,0,0,5.054e-05
54900000000,55200000000,4279407057,0,1095269,3.815e-05,0.0009651,0.009689,0.000102,0.0002451,0.002174,0,0,0.000638,0,12.04,0.05227,0,0,4.673e-05
55200000000,55500000000,4279407057,0,1095269,3.147e-05,0.000741,0.009689,0.000102,0.0002451,0.0007439,0,0,0.0003128,7.153e-05,20.65,0.09823,0,0,0.0001049
55500000000,55800000000,4279407057,0,1095269,3.147e-05,0.0007429,0.009689,0.000102,0.0002451,0.0007458,0,0,0.0001221,0,23.38,0.1136,0,0,1.049e-05
55800000000,56100000000,4279407057,0,1095269,3.242e-05,0.000741,0.009689,0.000102,0.0002451,0.0007439,0,0,0.0001831,7.153e-05,26.07,0.1235,0,0,4.673e-05
56100000000,56400000000,4279407057,0,1095269,3.147e-05,0.000742,0.009689,0.000102,0.0002451,0.0007458,0,0,0.0004778,0,24.99,0.1224,0,0,3.815e-06
56400000000,56700000000,4279407057,0,1095269,3.242e-05,0.000741,0.009689,0.000102,0.0002451,0.0007467,9.537e-07,0,0.0002804,0.0001431,25.62,0.1229,0,0,4.768e-06
56700000000,57000000000,4279407057,0,1095269,2.956e-05,0.0007439,0.009689,0.000102,0.0002451,0.0007515,0,0,0.0003328,7.153e-05,23.13,0.1097,0,0,1.621e-05
57000000000,57300000000,4279407057,0,1095269,2.956e-05,0.000741,0.009689,0.000102,0.0002451,0.0007439,0,0,0.0008001,7.153e-05,23.24,0.113,0,0,1.24e-05
57300000000,57600000000,4279407057,0,1095269,2.956e-05,0.000742,0.009689,0.000102,0.0002451,0.0007448,0,0,0.0003271,0,23.21,0.117,0,0,3.242e-05
57600000000,57900000000,4279407057,0,1095269,2.956e-05,0.000741,0.009689,0.000102,0.0002451,0.0007458,0,0,0.0004034,7.153e-05,25.09,0.1168,0,0,2.861e-05
57900000000,58200000000,4279407057,0,1095269,3.147e-05,0.000742,0.009689,0.000102,0.0002451,0.0007458,0,0,0.0001831,0,24.65,0.1187,0,0,4.005e-05
58200000000,58500000000,4279407057,0,1095269,0.0007811,0.0009661,0.009689,0.000102,0.000246,0.002808,3.815e-06,0,0.06299,0.0006428,12.49,0.05404,0,0,2.766e-05
58500000000,58800000000,4279407057,0,1095269,4.005e-05,0.001038,0.009689,0.000102,0.000246,0.002316,1.907e-06,0,0.000535,0.0004282,24.07,0.1109,0,0,7.629e-06
58800000000,59100000000,4279407057,0,1095269,3.338e-05,0.000782,0.009689,0.000102,0.000246,0.0007982,0,0,0.0004454,7.153e-05,26.19,0.1248,0,0,1.907e-06
59100000000,59400000000,4279407057,0,1095269,3.433e-05,0.0007877,0.009689,0.000103,0.000246,0.0008001,0,0,0.000495,0,25.65,0.1235,0,0,1.049e-05
59400000000,59700000000,4279407057,0,1095269,3.433e-05,0.0007877,0.009689,0.000103,0.000246,0.0007982,0,0,0.0003023,7.153e-05,27.22,0.1237,0,0,0
59700000000,60000000000,4279407057,0,1095269,3.147e-05,0.000783,0.009689,0.000103,0.000246,0.0007877,0,0,0.0002918,0,25.04,0.1216,0,0,1.907e-06
60000000000,60300000000,4279407057,0,1095269,3.147e-05,0.000782,0.009689,0.000103,0.000246,0.0007896,9.537e-07,0,0.0003099,0.0001431,23.59,0.1121,0,0,9.537e-07
60300000000,60600000000,4279407057,0,1095269,2.956e-05,0.0007858,0.009689,0.000103,0.000246,0.0007925,0,0,0.0003014,7.153e-05,24.1,0.1181,0,0,2.193e-05
60600000000,60900000000,4279407057,0,1095269,3.052e-05,0.0007839,0.009689,0.000103,0.000246,0.0007877,0,0,0.0001526,7.153e-05,25.85,0.1212,0,0,3.147e-05
70800000000,71100000000,4279407057,0,1095269,3.242e-05,0.0008211,0.009689,0.000103,0.000247,0.0008278,9.537e-07,0,0.0002136,0.0001431,23.92,0.12,0,0,0.0001249
71100000000,71400000000,4279407057,0,1095269,3.052e-05,0.0008249,0.009689,0.000104,0.000247,0.0008326,0,0,0.0007725,7.153e-05,23.11,0.1126,0,0,5.913e-05
71400000000,71700000000,4279407057,0,1095269,3.147e-05,0.000823,0.009689,0.000104,0.000247,0.0008268,0,0,0.0003519,7.153e-05,23.54,0.1148,0,0,4.101e-05
71700000000,72000000000,4279407057,0,1095269,2.956e-05,0.000823,0.009689,0.000104,0.000247,0.0008259,0,0,0.0002804,0,23.09,0.1166,0,0,6.676e-06
72000000000,72300000000,4279407057,0,1095269,3.147e-05,0.0008211,0.009689,0.000104,0.000247,0.0008259,0,0,0.0001831,7.153e-05,24.81,0.1137,0,0,2.003e-05
72300000000,72600000000,4279407057,0,1095269,3.147e-05,0.0008221,0.009689,0.000104,0.000247,0.0008259,0,0,0.0003614,0,16.2,0.07512,0,0,5.15e-05
72600000000,72900000000,4279407057,0,1095269,0.0008583,0.001009,0.009689,0.000104,0.000247,0.002907,1.907e-06,0,0.0625,0.0001431,13.19,0.05799,0,0,4.387e-05
72900000000,73200000000,4279407057,0,1095269,4.005e-05,0.001116,0.009689,0.000104,0.000247,0.002583,0,0,0.0001526,7.153e-05,25.2,0.1178,0,0,2.766e-05
73200000000,73500000000,4279407057,0,1095269,3.338e-05,0.0007534,0.009689,0.000104,0.000247,0.0007563,0,0,0.0004292,7.153e-05,24.88,0.1192,0,0,5.722e-05
73500000000,73800000000,4279407057,0,1095269,3.624e-05,0.0007582,0.009689,0.000104,0.000247,0.0007677,0,0,0.0002632,0,24.12,0.1113,0,0,2.384e-05
73800000000,74100000000,4279407057,0,1095269,3.338e-05,0.0007553,0.009689,0.000104,0.000247,0.0007591,9.537e-07,0,0.0003395,7.153e-05,25.32,0.1221,0,0,9.537e-05
74100000000,74400000000,4279407057,0,1095269,3.433e-05,0.0007553,0.009689,0.000104,0.000247,0.0007591,0,0,0.0002441,0,16.72,0.08103,0,0,3.815e-05
74400000000,74700000000,4279407057,0,1095269,3.338e-05,0.0007534,0.009689,0.000104,0.000247,0.0007601,9.537e-07,0,0.0002136,0.0002146,23.48,0.1205,0,0,4.673e-05
74700000000,75000000000,4279407057,0,1095269,3.147e-05,0.0007572,0.009689,0.000104,0.000247,0.0007639,0,0,0.0002413,7.153e-05,25.56,0.1178,0,0,2.67e-05
75000000000,75300000000,4279407057,0,1095269,2.956e-05,0.0007534,0.009689,0.000104,0.000247,0.0007563,0,0,0.0002689,7.153e-05,17.51,0.0839,0,0,2.48e-05
75300000000,75600000000,4279407057,0,1095269,3.052e-05,0.0007553,0.009689,0.000104,0.000247,0.0007582,0,0,0.000226,0,12.35,0.05875,0,0,2.193e-05
75600000000,75900000000,4279407057,0,1095269,3.052e-05,0.0007572,0.009689,0.000104,0.000247,0.0007658,0,0,0.000494,7.153e-05,13.39,0.06176,0,0,8.965e-05
75900000000,76200000000,4279407057,0,1095269,2.861e-05,0.0007591,0.009689,0.000104,0.000246,0.0007696,0,0,0.0001879,0,23.6,0.1143,0,0,1.907e-06
76200000000,76500000000,4279407057,0,1095269,0.0003433,0.0007954,0.009689,0.000104,0.000246,0.001322,2.861e-06,0,0.00737,0.0005713,23.02,0.112,0,0,3.433e-05
76500000000,76800000000,4279407057,0,1095269,0.0006046,0.00124,0.009689,0.000104,0.000246,0.002815,9.537e-07,0,0.06287,7.153e-05,0.9047,0.0009121,0,0,1.907e-05
76800000000,77100000000,4279407057,0,1095269,3.242e-05,0.000762,0.009689,0.000104,0.000246,0.0007658,9.537e-07,0,0.000206,7.153e-05,25.43,0.1222,0,0,2.766e-05
77100000000,77400000000,4279407057,0,1095269,3.147e-05,0.000762,0.009689,0.000104,0.000247,0.0007639,0,0,0.0001183,0,22.88,0.1126,0,0,3.147e-05
77400000000,77700000000,4279407057,0,1095269,3.242e-05,0.0007601,0.009689,0.000104,0.000247,0.000762,2.861e-06,0,0.0004435,0.0007143,24.45,0.1202,0,0,2.289e-05
77700000000,78000000000,4279407057,0,1095269,3.433e-05,0.000761,0.009689,0.000104,0.000247,0.0007648,0,0,0.0002213,0,26.87,0.1253,0,0,8.583e-06
78000000000,78300000000,4279407057,0,1095269,3.338e-05,0.0007601,0.009689,0.000104,0.000247,0.0007658,0,0,0.0001516,0.0001431,25.93,0.1226,0,0,4.768e-06
78300000000,78600000000,4279407057,0,1095269,3.052e-05,0.0007629,0.009689,0.000104,0.000247,0.0007706,9.537e-07,0,0.0004501,7.153e-05,24.43,0.1181,0,0,2.098e-05
78600000000,78900000000,4279407057,0,1095269,3.147e-05,0.0007601,0.009689,0.000104,0.000247,0.0007629,0,0,0.0005789,7.153e-05,25.87,0.1217,0,0,3.529e-05
78900000000,79200000000,4279407057,0,1095269,3.147e-05,0.000761,0.009689,0.000104,0.000247,0.0007648,0,0,0.0001717,0,24.08,0.1157,0,0,2.098e-05
79200000000,79500000000,4279407057,0,1095269,3.147e-05,0.0007601,0.009689,0.000104,0.000247,0.0007648,0,0,0.0002222,7.153e-05,23.77,0.1101,0,0,1.24e-05
79500000000,79800000000,4279407057,0,1095269,3.052e-05,0.000761,0.009689,0.000104,0.000247,0.0007648,0,0,0.0004282,0,24.5,0.117,0,0,3.052e-05
79800000000,80100000000,4279407057,0,1095269,0.0001211,0.0007744,0.009689,0.000104,0.000247,0.0009375,1.907e-06,0,0.001099,0.0002146,24.72,0.1186,0,0,4.959e-05
80100000000,80400000000,4279407057,0,1095269,0.0009098,0.001343,0.009689,0.000104,0.000247,0.002838,9.537e-07,0,0.06262,7.153e-05,0.8655,0.0008799,0,0,0.0004101
80400000000,80700000000,4279407057,0,1095269,3.147e-05,0.0007763,0.009689,0.000104,0.000247,0.0007801,0,0,0.0005026,7.153e-05,24.69,0.1214,0,0,3.338e-05
80700000000,81000000000,4279407057,0,1095269,3.242e-05,0.000782,0.009689,0.000104,0.000247,0.0007944,0,0,0.0001955,0,26.78,0.1238,0,0,9.537e-06
85800000000,86100000000,4279407057,0,1095269,3.052e-05,0.0007238,0.009689,0.0001049,0.000247,0.0007267,0,0,0.0004215,7.153e-05,23.7,0.1154,0,0,3.242e-05
86100000000,86400000000,4279407057,0,1095269,2.956e-05,0.0007257,0.009689,0.0001049,0.000247,0.0007286,0,0,0.0001822,0,25.03,0.1195,0,0,4.768e-06
86400000000,86700000000,4279407057,0,1095269,2.956e-05,0.0007286,0.009689,0.0001049,0.000247,0.0007372,0,0,0.0001144,7.153e-05,24,0.1157,0,0,3.815e-06
86700000000,87000000000,4279407057,0,1095269,2.956e-05,0.0007296,0.009689,0.0001049,0.000247,0.0007401,0,0,0.0001526,0,15.47,0.07675,0,0,2.098e-05
87000000000,87300000000,4279407057,0,1095269,0.0001841,0.0007601,0.009689,0.0001049,0.000247,0.001045,9.537e-07,0,0.003082,0.0001431,21.76,0.1053,0,0,9.727e-05
87300000000,87600000000,4279407057,0,1095269,0.0009489,0.001381,0.009689,0.0001049,0.000247,0.002865,8.583e-06,0,0.06262,0.002499,30.67,0.08575,0,0,1.24e-05
87600000000,87900000000,4279407057,0,1095269,3.338e-05,0.0007772,0.009689,0.0001049,0.000247,0.0007811,0,0,0.0005474,7.153e-05,24.75,0.1212,0,0,1.812e-05
87900000000,88200000000,4279407057,0,1095269,3.433e-05,0.0007792,0.009689,0.0001049,0.000247,0.000782,0,0,0.0001831,0,25.47,0.1216,0,0,7.057e-05
88200000000,88500000000,4279407057,0,1095269,3.433e-05,0.0007772,0.009689,0.0001049,0.000247,0.0007792,0,0,0.0001822,7.153e-05,26.49,0.1245,0,0,4.768e-06
88500000000,88800000000,4279407057,0,1095269,3.433e-05,0.0007782,0.009689,0.0001049,0.000247,0.000782,0,0,0.0001831,0,24.67,0.118,0,0,4.768e-06
88800000000,89100000000,4279407057,0,1095269,3.529e-05,0.0007772,0.009689,0.0001049,0.000247,0.0007811,0,0,0.00037,7.153e-05,14.51,0.06723,0,0,2.384e-05
89100000000,89400000000,4279407057,0,1095269,3.242e-05,0.0007811,0.009689,0.0001049,0.000247,0.000783,9.537e-07,0,0.000411,0.0001431,14.46,0.06342,0,0,9.537e-07
89400000000,89700000000,4279407057,0,1095269,3.052e-05,0.0007772,0.009689,0.0001049,0.000248,0.0007801,0,0,0.000391,7.153e-05,24.52,0.1161,0,0,5.245e-05
89700000000,90000000000,4279407057,0,1095269,3.147e-05,0.0007782,0.009689,0.0001049,0.000248,0.000782,0,0,0.0004406,0,24.86,0.1179,0,0,2.956e-05
90000000000,90300000000,4279407057,0,1095269,3.147e-05,0.0007772,0.009689,0.0001049,0.000248,0.000782,0,0,0.0001221,7.153e-05,25.02,0.1167,0,0,1.717e-05
90300000000,90600000000,4279407057,0,1095269,3.052e-05,0.0007782,0.009689,0.0001049,0.000248,0.000782,0,0,0.0005341,0,22.87,0.1092,0,0,9.537e-06
90600000000,90900000000,4279407057,0,1095269,0.000289,0.0008154,0.009689,0.0001049,0.000248,0.001232,9.537e-07,0,0.003143,0.0001431,23.58,0.1174,0,0,2.289e-05
101100000000,101400000000,4279407057,0,1095269,3.052e-05,0.00072,0.009689,0.0001049,0.000248,0.0007229,0,0,0.0003977,0,25.19,0.1191,0,0,1.431e-05
101400000000,101700000000,4279407057,0,1095269,0.0006409,0.000927,0.009689,0.0001049,0.000248,0.002541,2.861e-06,0,0.06287,0.0002146,24.27,0.1185,0,0,1.335e-05
101700000000,102000000000,4279407057,0,1095269,3.624e-05,0.0009117,0.009689,0.0001049,0.000248,0.001995,0,0,0.0002546,7.153e-05,23.83,0.1098,0,0,5.245e-05
102000000000,102300000000,4279407057,0,1095269,3.338e-05,0.0007381,0.009689,0.0001049,0.000248,0.0007429,0,0,0.0003633,7.153e-05,25.93,0.1237,0,0,4.292e-05
102300000000,102600000000,4279407057,0,1095269,3.433e-05,0.0007439,0.009689,0.0001049,0.000248,0.0007553,0,0,0.0002556,0,26.8,0.1239,0,0,2.098e-05
102600000000,102900000000,4279407057,0,1095269,3.338e-05,0.0007429,0.009689,0.0001049,0.000248,0.0007544,0,0,0.0002604,7.153e-05,25.21,0.1213,0,0,3.91e-05
102900000000,103200000000,4279407057,0,1095269,3.338e-05,0.0007401,0.009689,0.0001049,0.000248,0.0007429,0,0,0.0001917,0,25.59,0.1233,0,0,2.289e-05
103200000000,103500000000,4279407057,0,1095269,3.242e-05,0.0007381,0.009689,0.0001049,0.000248,0.0007439,9.537e-07,0,0.0003271,0.0001431,23.86,0.1213,0,0,0.000104
103500000000,103800000000,4279407057,0,1095269,3.052e-05,0.0007429,0.009689,0.0001059,0.0002489,0.0007477,0,0,0.0003977,7.153e-05,24.79,0.1178,0,0,2.289e-05
103800000000,104100000000,4279407057,0,1095269,3.052e-05,0.0007401,0.009689,0.0001059,0.0002489,0.0007477,0,0,0.0002422,7.153e-05,21.62,0.1066,0,0,3.433e-05
104100000000,104400000000,4279407057,0,1095269,2.956e-05,0.0007401,0.009689,0.0001059,0.0002489,0.0007429,0,0,0.000494,0,23.43,0.1162,0,0,1.621e-05
104400000000,104700000000,4279407057,0,1095269,2.956e-05,0.0007381,0.009689,0.0001059,0.0002489,0.0007429,0,0,0.0002098,7.153e-05,23.21,0.1156,0,0,5.15e-05
104700000000,105000000000,4279407057,0,1095269,2.956e-05,0.000741,0.009689,0.0001059,0.0002489,0.0007429,0,0,0.0002613,0,24.15,0.1204,0,0,0.0002041
105000000000,105300000000,4279407057,0,1095269,0.0006409,0.0009594,0.009689,0.0001059,0.0002489,0.002655,9.537e-07,0,0.06287,0.0001431,24.27,0.1187,0,0,3.91e-05
105300000000,105600000000,4279407057,0,1095269,3.815e-05,0.0009117,0.009689,0.0001059,0.0002489,0.002087,0,0,0.0003691,0,23.43,0.1087,0,0,7.343e-05
105600000000,105900000000,4279407057,0,1095269,3.338e-05,0.0007038,0.009689,0.0001059,0.0002489,0.0007076,0,0,0.0003271,7.153e-05,24.59,0.1172,0,0,7.82e-05
105900000000,106200000000,4279407057,0,1095269,3.242e-05,0.0007048,0.009689,0.0001059,0.0002489,0.0007076,0,0,0.0002337,0,25.53,0.1224,0,0,1.526e-05
106200000000,106500000000,4279407057,0,1095269,3.338e-05,0.0007038,0.009689,0.0001059,0.0002489,0.0007067,0,0,0.0002813,7.153e-05,26.34,0.1217,0,0,2.003e-05
106500000000,106800000000,4279407057,0,1095269,3.242e-05,0.0007048,0.009689,0.0001059,0.0002489,0.0007086,0,0,0.0001822,0,24.73,0.1205,0,0,2.861e-05
106800000000,107100000000,4279407057,0,1095269,3.242e-05,0.0007038,0.009689,0.0001059,0.0002489,0.0007095,9.537e-07,0,0.0001831,0.0001431,24.11,0.1235,0,0,2.861e-05
107100000000,107400000000,4279407057,0,1095269,2.766e-05,0.0007067,0.009689,0.0001059,0.0002489,0.0007133,0,0,0.0002012,0,22.71,0.1186,0,0,2.861e-06
107400000000,107700000000,4279407057,0,1095269,2.766e-05,0.0007048,0.009689,0.0001059,0.0002489,0.0007067,0,0,0.0001574,7.153e-05,18.02,0.09305,0,0,6.676e-06
107700000000,108000000000,4279407057,0,1095269,2.861e-05,0.0007048,0.009689,0.0001059,0.0002489,0.0007076,0,0,0.0001221,0,9.278,0.04362,0,0,3.815e-06
108000000000,108300000000,4279407057,0,1095269,2.766e-05,0.0007067,0.009689,0.0001059,0.0002489,0.0007172,0,0,0.0001307,7.153e-05,12.14,0.05976,0,0,9.537e-07
108300000000,108600000000,4279407057,0,1095269,2.766e-05,0.0007095,0.009689,0.0001059,0.0002489,0.0007191,0,0,0.0008888,0,16.75,0.08479,0,0,3.815e-05
108600000000,108900000000,4279407057,0,1095269,0.0006676,0.0009384,0.009689,0.0001059,0.0002489,0.002708,2.861e-06,0,0.06262,0.0003567,22.82,0.111,0,0,5.531e-05
108900000000,109200000000,4279407057,0,1095269,3.815e-05,0.0009546,0.009689,0.0001059,0.0002489,0.002136,0,0,0.0001526,0,24.01,0.1145,0,0,2.098e-05
109200000000,109500000000,4279407057,0,1095269,3.433e-05,0.0007429,0.009689,0.0001059,0.0002489,0.0007486,0,0,0.001099,7.153e-05,25.45,0.122,0,0,3.052e-05
109500000000,109800000000,4279407057,0,1095269,3.433e-05,0.0007458,0.009689,0.0001059,0.0002489,0.0007496,0,0,0.001099,0,23.29,0.1131,0,0,0
109800000000,110100000000,4279407057,0,1095269,3.338e-05,0.0007448,0.009689,0.0001059,0.0002489,0.0007486,9.537e-07,0,0.001099,7.153e-05,9.577,0.0419,0,0,2.193e-05
110100000000,110400000000,4279407057,0,1095269,3.242e-05,0.0007448,0.009689,0.0001059,0.0002489,0.0007477,0,0,0.0009766,0,10.57,0.04782,0,0,3.338e-05
110400000000,110700000000,4279407057,0,1095269,3.338e-05,0.000742,0.009689,0.0001068,0.0002489,0.0007477,9.537e-07,0,0.0002851,0.0001431,13.14,0.0604,0,0,8.202e-05
110700000000,111000000000,4279407057,0,1095269,2.956e-05,0.0007448,0.009689,0.0001068,0.0002489,0.0007524,0,0,0.0003605,0,12.94,0.06036,0,0,1.621e-05
116100000000,116400000000,4279407057,0,1095269,3.624e-05,0.0009747,0.009689,0.0001068,0.0002499,0.00214,0,0,0.0002594,0,23.52,0.1135,0,0,2.861e-06
116400000000,116700000000,4279407057,0,1095269,3.242e-05,0.0007696,0.009689,0.0001068,0.0002499,0.0007734,0,0,0.0003128,7.153e-05,26.04,0.1224,0,0,2.67e-05
116700000000,117000000000,4279407057,0,1095269,3.433e-05,0.0007715,0.009689,0.0001068,0.0002499,0.0007744,0,0,0.0001831,0,25.61,0.1223,0,0,3.242e-05
117000000000,117300000000,4279407057,0,1095269,3.433e-05,0.0007696,0.009689,0.0001068,0.0002499,0.0007734,0,0,0.0001831,7.153e-05,24.73,0.1189,0,0,4.578e-05
117300000000,117600000000,4279407057,0,1095269,3.433e-05,0.0007715,0.009689,0.0001068,0.0002499,0.0007753,0,0,0.0001526,0,26.24,0.1239,0,0,6.58e-05
117600000000,117900000000,4279407057,0,1095269,3.433e-05,0.0007696,0.009689,0.0001068,0.0002499,0.0007753,9.537e-07,0,0.0001526,0.0001431,25.97,0.1237,0,0,8.106e-05
117900000000,118200000000,4279407057,0,1095269,3.052e-05,0.0007734,0.009689,0.0001068,0.0002499,0.0007811,0,0,0.0001526,7.153e-05,24.64,0.1177,0,0,9.537e-06
118200000000,118500000000,4279407057,0,1095269,3.147e-05,0.0007706,0.009689,0.0001068,0.0002499,0.0007734,0,0,0.0001907,7.153e-05,24.92,0.1177,0,0,0.0001049
118500000000,118800000000,4279407057,0,1095269,3.052e-05,0.0007715,0.009689,0.0001068,0.0002499,0.0007744,0,0,0.0001316,0,25.04,0.1195,0,0,2.48e-05
118800000000,119100000000,4279407057,0,1095269,3.147e-05,0.0007744,0.009689,0.0001068,0.0002499,0.0007839,0,0,0.0002527,7.153e-05,25.43,0.1188,0,0,8.488e-05
119100000000,119400000000,4279407057,0,1095269,2.956e-05,0.0007763,0.009689,0.0001068,0.0002499,0.0007877,0,0,0.0001984,0,24.24,0.1143,0,0,2.575e-05
119400000000,119700000000,4279407057,0,1095269,0.000596,0.0009937,0.009689,0.0001068,0.0002499,0.002647,1.907e-06,0,0.0625,0.0001431,23.74,0.1167,0,0,0.0001278
119700000000,120000000000,4279407057,0,1095269,3.624e-05,0.0009689,0.009689,0.0001068,0.0002499,0.002068,0,0,0.0003967,0,24.16,0.1126,0,0,7.057e-05
120000000000,120300000000,4279407057,0,1095269,3.433e-05,0.0007906,0.009689,0.0001068,0.0002499,0.0007935,0,0,0.0003443,7.153e-05,25.02,0.1182,0,0,3.147e-05
120300000000,120600000000,4279407057,0,1095269,3.338e-05,0.0007915,0.009689,0.0001068,0.0002499,0.0007944,0,0,0.0003328,0,23.1,0.1106,0,0,9.06e-05
120600000000,120900000000,4279407057,0,1095269,3.242e-05,0.0007896,0.009689,0.0001068,0.0002499,0.0007935,0,0,0.0004616,7.153e-05,24.86,0.115,0,0,5.627e-05
126000000000,126300000000,4279407057,0,1095269,3.433e-05,0.0007315,0.009689,0.0001078,0.0002499,0.0007477,0,0,0.0002327,7.153e-05,25.24,0.118,0,0,8.583e-06
126300000000,126600000000,4279407057,0,1095269,2.956e-05,0.0007391,0.009689,0.0001068,0.0002499,0.0007496,0,0,0.0005445,7.153e-05,23.78,0.1174,0,0,3.433e-05
126600000000,126900000000,4279407057,0,1095269,0.0006132,0.0009403,0.009689,0.0001068,0.0002499,0.00264,9.537e-07,0,0.06262,0.0001431,23.99,0.1182,0,0,9.537e-07
126900000000,127200000000,4279407057,0,1095269,4.101e-05,0.0009518,0.009689,0.0001078,0.0002499,0.002117,2.861e-06,0,0.0002069,0.0005713,24.79,0.1127,0,0,1.24e-05
127200000000,127500000000,4279407057,0,1095269,3.433e-05,0.0007372,0.009689,0.0001078,0.0002499,0.0007401,0,0,0.0002623,7.153e-05,26.17,0.1186,0,0,3.433e-05
127500000000,127800000000,4279407057,0,1095269,3.147e-05,0.0007381,0.009689,0.0001078,0.0002499,0.000741,0,0,0.0002136,0,24.39,0.1199,0,0,7.629e-06
127800000000,128100000000,4279407057,0,1095269,3.433e-05,0.0007362,0.009689,0.0001078,0.0002499,0.0007401,1.907e-06,0,0.0001965,0.0004997,26.04,0.1227,0,0,1.717e-05
128100000000,128400000000,4279407057,0,1095269,3.433e-05,0.0007381,0.009689,0.0001078,0.0002508,0.000741,0,0,0.0003195,0,24.09,0.1123,0,0,7.439e-05
128400000000,128700000000,4279407057,0,1095269,3.242e-05,0.0007362,0.009689,0.0001078,0.0002508,0.000741,9.537e-07,0,0.000288,0.0001431,24.31,0.1142,0,0,1.049e-05
128700000000,129000000000,4279407057,0,1095269,3.147e-05,0.0007401,0.009689,0.0001078,0.0002508,0.0007477,0,0,0.0001612,0,25.74,0.1179,0,0,2.193e-05
129000000000,129300000000,4279407057,0,1095269,2.956e-05,0.0007372,0.009689,0.0001078,0.0002508,0.0007401,0,0,0.0004559,0.0001431,24.15,0.1168,0,0,3.052e-05
129300000000,129600000000,4279407057,0,1095269,3.242e-05,0.0007401,0.009689,0.0001078,0.0002508,0.0007429,0,0,0.0001831,7.153e-05,17.16,0.0764,0,0,3.242e-05
129600000000,129900000000,4279407057,0,1095269,3.147e-05,0.0007429,0.009689,0.0001078,0.0002508,0.0007601,0,0,0.0001526,7.153e-05,24.23,0.1155,0,0,2.384e-05
129900000000,130200000000,4279407057,0,1095269,2.956e-05,0.0007439,0.009689,0.0001078,0.0002508,0.0007534,0,0,0.0004539,0,23.37,0.116,0,0,3.624e-05
130200000000,130500000000,4279407057,0,1095269,0.000598,0.000967,0.009689,0.0001078,0.0002508,0.002674,9.537e-07,0,0.06262,0.0001431,9.611,0.04303,0,0,1.907e-05
130500000000,130800000000,4279407057,0,1095269,3.815e-05,0.0009661,0.009689,0.0001078,0.0002508,0.00209,0,0,0.0002689,7.153e-05,13.45,0.06131,0,0,8.583e-06
130800000000,131100000000,4279407057,0,1095269,3.338e-05,0.0007744,0.009689,0.0001078,0.0002508,0.0007782,0,0,0.000433,7.153e-05,25.41,0.1225,0,0,4.768e-06
141000000000,141300000000,4279407057,0,1095269,0.0007219,0.0009403,0.009689,0.0001087,0.0002508,0.00275,9.537e-07,0,0.06262,0.0001431,24.08,0.1102,0,0,2.289e-05
141300000000,141600000000,4279407057,0,1095269,4.005e-05,0.0009604,0.009689,0.0001087,0.0002518,0.002224,0,0,0.0001783,7.153e-05,20.04,0.08973,0,0,1.144e-05
141600000000,141900000000,4279407057,0,1095269,3.433e-05,0.0007086,0.009689,0.0001087,0.0002518,0.0007143,0,0,0.0002832,7.153e-05,24,0.1116,0,0,5.436e-05
141900000000,142200000000,4279407057,0,1095269,3.529e-05,0.0007105,0.009689,0.0001087,0.0002518,0.0007143,0,0,0.0002365,0,25.36,0.1135,0,0,5.817e-05
142200000000,142500000000,4279407057,0,1095269,3.624e-05,0.0007086,0.009689,0.0001087,0.0002518,0.0007133,0,0,0.0001831,7.153e-05,25.97,0.1171,0,0,1.717e-05
142500000000,142800000000,4279407057,0,1095269,3.338e-05,0.0007095,0.009689,0.0001087,0.0002518,0.0007133,0,0,0.0002232,0,24.65,0.1144,0,0,5.817e-05
142800000000,143100000000,4279407057,0,1095269,3.338e-05,0.0007086,0.009689,0.0001087,0.0002518,0.0007133,9.537e-07,0,0.0002441,0.0001431,25.36,0.1196,0,0,1.431e-05
143100000000,143400000000,4279407057,0,1095269,3.147e-05,0.0007124,0.009689,0.0001087,0.0002518,0.0007191,0,0,0.0002069,0.0001431,25.62,0.1191,0,0,2.003e-05
143400000000,143700000000,4279407057,0,1095269,3.242e-05,0.0007095,0.009689,0.0001087,0.0002518,0.0007124,0,0,0.0003633,7.153e-05,25.31,0.1178,0,0,5.341e-05
143700000000,144000000000,4279407057,0,1095269,3.338e-05,0.0007095,0.009689,0.0001087,0.0002518,0.0007133,0,0,0.0002975,0,26.05,0.119,0,0,3.147e-05
144000000000,144300000000,4279407057,0,1095269,3.147e-05,0.0007086,0.009689,0.0001087,0.0002518,0.0007124,0,0,0.0002193,7.153e-05,25.74,0.115,0,0,1.621e-05
144300000000,144600000000,4279407057,0,1095269,3.147e-05,0.0007095,0.009689,0.0001087,0.0002518,0.0007133,0,0,0.0002689,0,25.23,0.1135,0,0,3.529e-05
144600000000,144900000000,4279407057,0,1095269,0.0001783,0.0007277,0.009689,0.0001087,0.0002518,0.000927,4.768e-06,0,0.001888,0.0006428,26.08,0.1193,0,0,4.578e-05
144900000000,145200000000,4279407057,0,1095269,0.001093,0.00131,0.009689,0.0001087,0.0002518,0.002758,5.722e-06,0,0.06262,0.001499,34.43,0.09403,0,0,1.907e-06
145200000000,145500000000,4279407057,0,1095269,3.433e-05,0.0007334,0.009689,0.0001087,0.0002518,0.0007381,0,0,0.001234,7.153e-05,26.57,0.1222,0,0,3.338e-05
145500000000,145800000000,4279407057,0,1095269,3.433e-05,0.0007391,0.009689,0.0001087,0.0002518,0.0007477,0,0,0.0008907,0,26.13,0.122,0,0,2.193e-05
145800000000,146100000000,4279407057,0,1095269,3.529e-05,0.0007391,0.009689,0.0001087,0.0002518,0.0007515,0,0,0.0002823,7.153e-05,26.17,0.1222,0,0,6.676e-06
151200000000,151500000000,4279407057,0,1095269,3.529e-05,0.0007162,0.009689,0.0001097,0.0002518,0.0007305,0,0,0.0002804,7.153e-05,26.62,0.1187,0,0,1.907e-05
151500000000,151800000000,4279407057,0,1095269,3.147e-05,0.0007181,0.009689,0.0001097,0.0002518,0.0007315,0,0,0.0003347,0,21.57,0.09919,0,0,2.48e-05
151800000000,152100000000,4279407057,0,1095269,0.0006895,0.0009499,0.009689,0.0001097,0.0002518,0.002747,9.537e-07,0,0.06311,0.0001431,20.07,0.08818,0,0,4.292e-05
152100000000,152400000000,4279407057,0,1095269,3.815e-05,0.0009718,0.009689,0.0001097,0.0002518,0.002193,2.861e-06,0,0.0002661,0.0009289,17.64,0.07756,0,0,4.578e-05
152400000000,152700000000,4279407057,0,1095269,3.433e-05,0.000742,0.009689,0.0001097,0.0002518,0.0007458,0,0,0.000782,7.153e-05,18.42,0.08445,0,0,5.054e-05
152700000000,153000000000,4279407057,0,1095269,3.529e-05,0.0007429,0.009689,0.0001097,0.0002518,0.0007477,0,0,0.000267,0,25.6,0.1198,0,0,2.48e-05
153000000000,153300000000,4279407057,0,1095269,3.529e-05,0.0007429,0.009689,0.0001097,0.0002518,0.0007477,9.537e-07,0,0.0002079,0.0002146,26.54,0.1241,0,0,6.962e-05
153300000000,153600000000,4279407057,0,1095269,3.624e-05,0.0007429,0.009689,0.0001097,0.0002527,0.0007477,0,0,0.0006437,0,27.32,0.1257,0,0,6.294e-05
153600000000,153900000000,4279407057,0,1095269,3.529e-05,0.000741,0.009689,0.0001097,0.0002527,0.0007477,9.537e-07,0,0.0004663,0.0002146,26.71,0.1232,0,0,1.907e-06
153900000000,154200000000,4279407057,0,1095269,3.242e-05,0.0007458,0.009689,0.0001097,0.0002527,0.0007524,0,0,0.0005169,7.153e-05,25.52,0.1181,0,0,5.15e-05
154200000000,154500000000,4279407057,0,1095269,3.242e-05,0.0007429,0.009689,0.0001097,0.0002527,0.0007448,0,0,0.0003881,7.153e-05,23.98,0.1145,0,0,0.0002022
154500000000,154800000000,4279407057,0,1095269,3.242e-05,0.0007439,0.009689,0.0001097,0.0002527,0.0007467,0,0,0.0001802,0,24.38,0.1109,0,0,2.766e-05
154800000000,155100000000,4279407057,0,1095269,3.433e-05,0.000742,0.009689,0.0001097,0.0002527,0.0007458,0,0,0.0003014,7.153e-05,25.79,0.1191,0,0,2.575e-05
155100000000,155400000000,4279407057,0,1095269,3.433e-05,0.0007429,0.009689,0.0001097,0.0002527,0.0007458,0,0,0.0001774,0,18.55,0.08632,0,0,0
155400000000,155700000000,4279407057,0,1095269,0.0007381,0.0009861,0.009689,0.0001097,0.0002527,0.002823,9.537e-07,0,0.06299,0.0001431,24.13,0.1112,0,0,4.768e-06
155700000000,156000000000,4279407057,0,1095269,4.005e-05,0.0009632,0.009689,0.0001097,0.0002527,0.002251,0,0,0.0002384,7.153e-05,17.04,0.07365,0,0,7.057e-05
161100000000,161400000000,4279407057,0,1095269,3.433e-05,0.00072,0.009689,0.0001106,0.0002527,0.0007219,0,0,0.0001431,7.153e-05,25.11,0.1154,0,0,1.24e-05
161400000000,161700000000,4279407057,0,1095269,3.529e-05,0.0007162,0.009689,0.0001106,0.0002527,0.000721,0,0,0.0003147,7.153e-05,25.26,0.1149,0,0,5.054e-05
161700000000,162000000000,4279407057,0,1095269,3.529e-05,0.0007172,0.009689,0.0001106,0.0002527,0.00072,9.537e-07,0,0.00037,0.0001431,26.33,0.1227,0,0,6.676e-06
162000000000,162300000000,4279407057,0,1095269,3.052e-05,0.0007191,0.009689,0.0001106,0.0002527,0.0007343,0,0,0.0001268,7.153e-05,25.74,0.1179,0,0,8.202e-05
162300000000,162600000000,4279407057,0,1095269,3.147e-05,0.0007229,0.009689,0.0001106,0.0002527,0.0007381,0,0,0.0002136,7.153e-05,24.89,0.1187,0,0,2.003e-05
162600000000,162900000000,4279407057,0,1095269,0.0007257,0.0009937,0.009689,0.0001106,0.0002527,0.002907,3.815e-06,0,0.0625,0.0009289,25.48,0.1202,0,0,5.722e-06
162900000000,163200000000,4279407057,0,1095269,4.101e-05,0.001011,0.009689,0.0001106,0.0002527,0.002323,0,0,0.0001402,0,26.28,0.1193,0,0,3.624e-05
163200000000,163500000000,4279407057,0,1095269,3.719e-05,0.0007334,0.009689,0.0001106,0.0002527,0.0007381,0,0,0.0003462,7.153e-05,27.18,0.1243,0,0,4.959e-05
163500000000,163800000000,4279407057,0,1095269,3.815e-05,0.0007343,0.009689,0.0001106,0.0002537,0.0007391,0,0,0.0005465,0,28.33,0.127,0,0,1.907e-05
163800000000,164100000000,4279407057,0,1095269,3.719e-05,0.0007324,0.009689,0.0001106,0.0002537,0.0007372,0,0,0.0001678,7.153e-05,28.12,0.1262,0,0,3.529e-05
164100000000,164400000000,4279407057,0,1095269,3.91e-05,0.0007362,0.009689,0.0001106,0.0002537,0.0007381,0,0,0.000164,7.153e-05,28.01,0.126,0,0,3.052e-05
164400000000,164700000000,4279407057,0,1095269,3.624e-05,0.0007324,0.009689,0.0001106,0.0002537,0.0007391,9.537e-07,0,0.0001831,0.0001431,26.86,0.1212,0,0,9.537e-07
164700000000,165000000000,4279407057,0,1095269,3.242e-05,0.0007362,0.009689,0.0001106,0.0002537,0.0007429,0,0,0.0001764,0,23.95,0.1097,0,0,8.583e-06
165000000000,165300000000,4279407057,0,1095269,3.147e-05,0.0007324,0.009689,0.0001106,0.0002537,0.0007353,0,0,0.0001526,7.153e-05,24.04,0.1104,0,0,9.06e-05
165300000000,165600000000,4279407057,0,1095269,3.147e-05,0.0007343,0.009689,0.0001106,0.0002537,0.0007372,0,0,0.0001526,0,25.81,0.1189,0,0,6.676e-06
165600000000,165900000000,4279407057,0,1095269,3.147e-05,0.0007324,0.009689,0.0001106,0.0002537,0.0007362,0,0,0.0001717,7.153e-05,26.11,0.1203,0,0,5.341e-05
165900000000,166200000000,4279407057,0,1095269,3.147e-05,0.0007334,0.009689,0.0001106,0.0002537,0.0007372,0,0,0.0001831,0,24.98,0.12,0,0,8.583e-06
166200000000,166500000000,4279407057,0,1095269,0.0006924,0.0009995,0.009689,0.0001106,0.0002537,0.002876,1.907e-06,0,0.0625,0.0004282,24.45,0.1172,0,0,1.049e-05
166500000000,166800000000,4279407057,0,1095269,3.91e-05,0.001017,0.009689,0.0001106,0.0002537,0.002293,0,0,0.0001535,0,25.66,0.1188,0,0,2.384e-05
166800000000,167100000000,4279407057,0,1095269,3.338e-05,0.000762,0.009689,0.0001106,0.0002537,0.0007677,0,0,0.0006819,3.529e-05,25.78,0.1234,0,0,3.624e-05
167100000000,167400000000,4279407057,0,1095269,3.433e-05,0.0007668,0.009689,0.0001106,0.0002537,0.0007744,0,0,0.0003834,0,26.58,0.1244,0,0,2.861e-06
167400000000,167700000000,4279407057,0,1095269,3.338e-05,0.0007658,0.009689,0.0001106,0.0002537,0.000783,0,0,0.0001383,7.153e-05,26.04,0.123,0,0,2.193e-05
167700000000,168000000000,4279407057,0,1095269,3.242e-05,0.0007658,0.009689,0.0001106,0.0002537,0.000783,0,0,0.000164,0,25.55,0.1239,0,0,1.24e-05
168000000000,168300000000,4279407057,0,1095269,3.529e-05,0.0007639,0.009689,0.0001106,0.0002537,0.0007677,9.537e-07,0,0.000535,0.0001431,27.15,0.1247,0,0,9.537e-07
168300000000,168600000000,4279407057,0,1095269,3.147e-05,0.0007648,0.009689,0.0001106,0.0002537,0.0007725,0,0,0.000248,0,26.11,0.1211,0,0,6.485e-05
168600000000,168900000000,4279407057,0,1095269,3.242e-05,0.000762,0.009689,0.0001106,0.0002537,0.0007639,0,0,0.0001564,7.153e-05,25.15,0.1171,0,0,1.907e-06
168900000000,169200000000,4279407057,0,1095269,3.052e-05,0.0007629,0.009689,0.0001106,0.0002537,0.0007658,0,0,0.0004673,0,25.12,0.1201,0,0,2.003e-05
169200000000,169500000000,4279407057,0,1095269,3.242e-05,0.000762,0.009689,0.0001106,0.0002537,0.0007658,0,0,0.0001831,7.153e-05,25.26,0.1186,0,0,3.815e-05
169500000000,169800000000,4279407057,0,1095269,3.242e-05,0.0007629,0.009689,0.0001106,0.0002537,0.0007658,0,0,0.0001526,0,26.76,0.1191,0,0,1.717e-05
169800000000,170100000000,4279407057,0,1095269,0.0008583,0.000968,0.009689,0.0001106,0.0002537,0.002747,9.537e-07,0,0.06287,0.0001431,26.08,0.1181,0,0,4.864e-05
170100000000,170400000000,4279407057,0,1095269,4.196e-05,0.0009699,0.009689,0.0001106,0.0002537,0.002132,0,0,0.0001822,7.153e-05,25.68,0.116,0,0,8.011e-05
170400000000,170700000000,4279407057,0,1095269,3.433e-05,0.0007057,0.009689,0.0001106,0.0002537,0.0007114,0,0,0.0001831,7.153e-05,24.54,0.1176,0,0,2.003e-05
170700000000,171000000000,4279407057,0,1095269,3.433e-05,0.0007076,0.009689,0.0001106,0.0002537,0.0007124,0,0,0.0001831,0,26.34,0.1243,0,0,9.537e-07
171000000000,171300000000,4279407057,0,1095269,3.338e-05,0.0007057,0.009689,0.0001106,0.0002537,0.0007105,0,0,0.0002775,7.153e-05,25.85,0.125,0,0,0.0001707
171300000000,171600000000,4279407057,0,1095269,3.433e-05,0.0007067,0.009689,0.0001106,0.0002537,0.0007105,0,0,0.0002308,0,25.69,0.1245,0,0,2.67e-05
171600000000,171900000000,4279407057,0,1095269,3.338e-05,0.0007038,0.009689,0.0001106,0.0002537,0.0007067,9.537e-07,0,0.0002594,0.0001431,24.79,0.1204,0,0,4.196e-05
171900000000,172200000000,4279407057,0,1095269,2.956e-05,0.0006943,0.009689,0.0001116,0.0002537,0.0007029,0,0,0.0003223,0,24.77,0.1177,0,0,4.292e-05
172200000000,172500000000,4279407057,0,1095269,3.052e-05,0.0006914,0.009689,0.0001116,0.0002537,0.0006924,0,0,0.000206,7.153e-05,13.7,0.06451,0,0,5.341e-05
172500000000,172800000000,4279407057,0,1095269,3.147e-05,0.0006914,0.009689,0.0001116,0.0002537,0.0006943,0,0,0.0002565,0,23.36,0.1138,0,0,2.098e-05
172800000000,173100000000,4279407057,0,1095269,3.242e-05,0.0006905,0.009689,0.0001116,0.0002537,0.0006933,0,0,0.0002441,7.153e-05,10.97,0.04842,0,0,3.433e-05
173100000000,173400000000,4279407057,0,1095269,3.338e-05,0.0006952,0.009689,0.0001116,0.0002537,0.0007086,0,0,0.0002136,0,16.7,0.07424,0,0,1.526e-05
173400000000,173700000000,4279407057,0,1095269,0.0006447,0.0009565,0.009689,0.0001116,0.0002537,0.002678,9.537e-07,0,0.06274,0.0001431,10.92,0.04876,0,0,3.242e-05
173700000000,174000000000,4279407057,0,1095269,4.005e-05,0.0008965,0.009689,0.0001116,0.0002537,0.002041,0,0,0.0002298,0,12.9,0.0548,0,0,5.436e-05
174000000000,174300000000,4279407057,0,1095269,3.433e-05,0.0006981,0.009689,0.0001116,0.0002537,0.0007019,0,0,0.0006628,7.153e-05,17.94,0.08163,0,0,0.0002165
174300000000,174600000000,4279407057,0,1095269,3.433e-05,0.0007,0.009689,0.0001116,0.0002537,0.0007029,0,0,0.0002747,0,22.45,0.1093,0,0,4.673e-05
174600000000,174900000000,4279407057,0,1095269,3.719e-05,0.0006981,0.009689,0.0001116,0.0002537,0.0007029,0,0,0.0002604,7.153e-05,11.07,0.04737,0,0,6.008e-05
174900000000,175200000000,4279407057,0,1095269,3.529e-05,0.000701,0.009689,0.0001116,0.0002537,0.0007038,0,0,0.0003281,7.153e-05,18.99,0.08978,0,0,1.24e-05
175200000000,175500000000,4279407057,0,1095269,3.529e-05,0.000701,0.009689,0.0001116,0.0002537,0.0007057,1.907e-06,0,0.0003405,0.0002146,23.33,0.1158,0,0,2.67e-05
175500000000,175800000000,4279407057,0,1095269,3.242e-05,0.0007029,0.009689,0.0001116,0.0002537,0.0007086,9.537e-07,0,0.0004091,0.0001431,25.04,0.1189,0,0,4.101e-05
175800000000,176100000000,4279407057,0,1095269,3.242e-05,0.000699,0.009689,0.0001116,0.0002546,0.000701,0,0,0.0001831,7.153e-05,24.92,0.1153,0,0,2.861e-06
186300000000,186600000000,4279407057,0,1095269,3.242e-05,0.0007362,0.009689,0.0001125,0.0002546,0.0007429,0,0,0.000329,7.153e-05,11.64,0.05055,0,0,1.526e-05
186600000000,186900000000,4279407057,0,1095269,3.338e-05,0.0007324,0.009689,0.0001125,0.0002546,0.0007343,0,0,0.0001659,7.153e-05,14.27,0.06279,0,0,1.907e-06
186900000000,187200000000,4279407057,0,1095269,3.338e-05,0.0007343,0.009689,0.0001125,0.0002556,0.0007372,0,0,0.0001831,0,18.4,0.08166,0,0,2.67e-05
187200000000,187500000000,4279407057,0,1095269,3.338e-05,0.0007324,0.009689,0.0001125,0.0002556,0.0007362,0,0,0.0001717,7.153e-05,25.39,0.1168,0,0,2.003e-05
187500000000,187800000000,4279407057,0,1095269,3.242e-05,0.0007334,0.009689,0.0001125,0.0002556,0.0007372,0,0,0.0001831,0,25.28,0.1178,0,0,1.907e-06
187800000000,188100000000,4279407057,0,1095269,0.0006018,0.0009642,0.009689,0.0001125,0.0002556,0.00256,9.537e-07,0,0.0625,0.0001431,24.44,0.1195,0,0,0.0001135
188100000000,188400000000,4279407057,0,1095269,3.719e-05,0.0008707,0.009689,0.0001125,0.0002556,0.001917,0,0,0.0002937,0,22.09,0.104,0,0,2.003e-05
188400000000,188700000000,4279407057,0,1095269,3.338e-05,0.0007105,0.009689,0.0001125,0.0002556,0.0007143,0,0,0.0007954,7.153e-05,24.79,0.1208,0,0,3.815e-06
188700000000,189000000000,4279407057,0,1095269,3.433e-05,0.0007124,0.009689,0.0001125,0.0002556,0.0007153,0,0,0.0009747,0,25.01,0.1209,0,0,1.24e-05
189000000000,189300000000,4279407057,0,1095269,3.529e-05,0.0007143,0.009689,0.0001125,0.0002556,0.0007238,0,0,0.0003643,7.153e-05,25.84,0.1219,0,0,1.621e-05
189300000000,189600000000,4279407057,0,1095269,3.529e-05,0.0007172,0.009689,0.0001125,0.0002556,0.0007324,0,0,0.0002441,0,25.15,0.1213,0,0,0
189600000000,189900000000,4279407057,0,1095269,3.433e-05,0.0007124,0.009689,0.0001125,0.0002556,0.00072,3.815e-06,0,0.0002441,0.0009995,23.83,0.1146,0,0,1.621e-05
189900000000,190200000000,4279407057,0,1095269,3.052e-05,0.0007133,0.009689,0.0001125,0.0002556,0.000721,0,0,0.0003681,7.153e-05,24.95,0.1193,0,0,8.583e-06
190200000000,190500000000,4279407057,0,1095269,3.242e-05,0.0007105,0.009689,0.0001125,0.0002556,0.0007124,0,0,0.0004177,7.153e-05,25.34,0.117,0,0,1.24e-05
190500000000,190800000000,4279407057,0,1095269,3.338e-05,0.0007133,0.009689,0.0001125,0.0002556,0.0007172,0,0,0.0001554,0,24.9,0.1144,0,0,6.676e-06
190800000000,191100000000,4279407057,0,1095269,3.242e-05,0.0007114,0.009689,0.0001125,0.0002556,0.0007143,0,0,0.0001526,7.153e-05,24.4,0.1125,0,0,1.812e-05
191100000000,191400000000,4279407057,0,1095269,3.242e-05,0.0007124,0.009689,0.0001125,0.0002556,0.0007153,0,0,0.0001507,0,25.5,0.1194,0,0,8.583e-06
191400000000,191700000000,4279407057,0,1095269,0.0005856,0.000927,0.009689,0.0001125,0.0002556,0.002403,2.861e-06,0,0.0625,0.0005713,26.34,0.1198,0,0,2.67e-05
191700000000,192000000000,4279407057,0,1095269,3.719e-05,0.0008287,0.009689,0.0001125,0.0002556,0.001759,0,0,0.0002174,0,16.86,0.07436,0,0,5.722e-05
192000000000,192300000000,4279407057,0,1095269,3.433e-05,0.0007067,0.009689,0.0001125,0.0002556,0.0007105,0,0,0.0002756,7.153e-05,25.99,0.1232,0,0,2.861e-06
192300000000,192600000000,4279407057,0,1095269,3.433e-05,0.0007076,0.009689,0.0001125,0.0002556,0.0007114,0,0,0.0001526,0,26.01,0.124,0,0,8.869e-05
192600000000,192900000000,4279407057,0,1095269,3.433e-05,0.0007067,0.009689,0.0001125,0.0002556,0.0007124,0,0,0.0004606,0,25.55,0.1219,0,0,1.144e-05
192900000000,193200000000,4279407057,0,1095269,3.529e-05,0.0007086,0.009689,0.0001125,0.0002556,0.0007124,0,0,0.002075,1.144e-05,26.59,0.1262,0,0,1.621e-05
193200000000,193500000000,4279407057,0,1095269,3.338e-05,0.0007076,0.009689,0.0001125,0.0002556,0.0007162,9.537e-07,0,0.0004854,0.0002146,24.98,0.1216,0,0,4.768e-06
193500000000,193800000000,4279407057,0,1095269,3.147e-05,0.0007095,0.009689,0.0001135,0.0002556,0.0007172,0,0,0.0001831,0,24.64,0.1168,0,0,1.907e-05
193800000000,194100000000,4279407057,0,1095269,3.242e-05,0.0007067,0.009689,0.0001135,0.0002556,0.0007076,0,0,0.0003757,7.153e-05,24.28,0.1151,0,0,2.766e-05
194100000000,194400000000,4279407057,0,1095269,3.147e-05,0.0007076,0.009689,0.0001135,0.0002556,0.0007114,0,0,0.0001583,0,25.88,0.1191,0,0,1.907e-05
194400000000,194700000000,4279407057,0,1095269,3.147e-05,0.0007067,0.009689,0.0001135,0.0002556,0.0007114,0,0,0.0001707,7.153e-05,25.47,0.119,0,0,3.147e-05
194700000000,195000000000,4279407057,0,1095269,3.242e-05,0.0007114,0.009689,0.0001135,0.0002556,0.0007229,0,0,0.0001535,0,24.31,0.1154,0,0,3.529e-05
195000000000,195300000000,4279407057,0,1095269,0.0006123,0.0009441,0.009689,0.0001135,0.0002556,0.002506,3.815e-06,0,0.06262,0.0005713,25.59,0.1182,0,0,8.202e-05
195300000000,195600000000,4279407057,0,1095269,3.815e-05,0.0008783,0.009689,0.0001135,0.0002556,0.00189,0,0,0.0006819,0,23.62,0.1089,0,0,6.771e-05
195600000000,195900000000,4279407057,0,1095269,3.242e-05,0.0007296,0.009689,0.0001135,0.0002556,0.0007353,0,0,0.0006227,7.153e-05,24.69,0.1187,0,0,4.768e-06
195900000000,196200000000,4279407057,0,1095269,3.242e-05,0.0007315,0.009689,0.0001135,0.0002556,0.0007353,0,0,0.0005922,0,24.81,0.12,0,0,1.049e-05
201300000000,201600000000,4279407057,0,1095269,3.052e-05,0.0007,0.009689,0.0001135,0.0002565,0.0007038,0,0,0.0001526,0,24.72,0.1142,0,0,3.147e-05
201600000000,201900000000,4279407057,0,1095269,3.052e-05,0.0006971,0.009689,0.0001135,0.0002565,0.0007,0,0,0.0001526,7.153e-05,24.11,0.1145,0,0,4.387e-05
201900000000,202200000000,4279407057,0,1095269,2.956e-05,0.000699,0.009689,0.0001135,0.0002565,0.0007019,0,0,0.000123,0,24.46,0.1156,0,0,6.676e-06
202200000000,202500000000,4279407057,0,1095269,0.0005598,0.0009174,0.009689,0.0001135,0.0002565,0.002407,4.768e-06,0,0.0625,0.0009995,23.63,0.1143,0,0,0.0001926
202500000000,202800000000,4279407057,0,1095269,3.624e-05,0.0008373,0.009689,0.0001135,0.0002565,0.00177,0,0,0.0001526,0,17.84,0.08174,0,0,2.956e-05
202800000000,203100000000,4279407057,0,1095269,3.529e-05,0.0007143,0.009689,0.0001135,0.0002565,0.0007181,0,0,0.0006227,7.153e-05,25.59,0.1187,0,0,2.098e-05
203100000000,203400000000,4279407057,0,1095269,3.433e-05,0.0007162,0.009689,0.0001135,0.0002565,0.0007191,0,0,0.0005074,0,26.82,0.1213,0,0,1.049e-05
203400000000,203700000000,4279407057,0,1095269,3.433e-05,0.0007143,0.009689,0.0001135,0.0002565,0.0007181,0,0,0.001236,7.153e-05,26.17,0.1212,0,0,4.101e-05
203700000000,204000000000,4279407057,0,1095269,3.338e-05,0.0007162,0.009689,0.0001135,0.0002565,0.00072,0,0,0.0003471,0,25.63,0.1202,0,0,2.861e-05
204000000000,204300000000,4279407057,0,1095269,3.338e-05,0.0007153,0.009689,0.0001135,0.0002565,0.0007267,9.537e-07,0,0.0002184,0.0001431,24.41,0.1164,0,0,2.384e-05
204300000000,204600000000,4279407057,0,1095269,3.052e-05,0.0007181,0.009689,0.0001135,0.0002565,0.0007286,0,0,0.0002432,0,24.19,0.1133,0,0,3.91e-05
204600000000,204900000000,4279407057,0,1095269,3.052e-05,0.0007143,0.009689,0.0001135,0.0002565,0.0007153,0,0,0.0004196,7.153e-05,24.74,0.116,0,0,3.529e-05
204900000000,205200000000,4279407057,0,1095269,2.956e-05,0.0007153,0.009689,0.0001135,0.0002565,0.0007191,0,0,0.0002403,0,24.34,0.1156,0,0,1.812e-05
205200000000,205500000000,4279407057,0,1095269,3.052e-05,0.0007143,0.009689,0.0001135,0.0002565,0.0007172,0,0,0.0002003,7.153e-05,23.42,0.1119,0,0,1.049e-05
205500000000,205800000000,4279407057,0,1095269,3.052e-05,0.0007191,0.009689,0.0001135,0.0002565,0.0007286,0,0,0.0002317,0,24.63,0.1171,0,0,3.91e-05
205800000000,206100000000,4279407057,0,1095269,0.0005684,0.0009289,0.009689,0.0001135,0.0002565,0.00238,9.537e-07,0,0.0625,0.0001431,24.41,0.1172,0,0,2.956e-05
206100000000,206400000000,4279407057,0,1095269,3.624e-05,0.0007725,0.009689,0.0001144,0.0002565,0.00176,0,0,0.0003691,0,23,0.1082,0,0,4.864e-05
206400000000,206700000000,4279407057,0,1095269,3.147e-05,0.0006313,0.009689,0.0001144,0.0002565,0.0006342,0,0,0.0001783,7.153e-05,23.68,0.1177,0,0,7.629e-06
206700000000,207000000000,4279407057,0,1095269,3.338e-05,0.0006323,0.009689,0.0001144,0.0002565,0.0006351,0,0,0.0001402,0,24.53,0.1219,0,0,3.815e-05
207000000000,207300000000,4279407057,0,1095269,3.338e-05,0.0006304,0.009689,0.0001144,0.0002565,0.0006351,0,0,0.000494,0.0001431,24.57,0.1223,0,0,4.196e-05
207300000000,207600000000,4279407057,0,1095269,3.242e-05,0.0006323,0.009689,0.0001144,0.0002565,0.0006351,0,0,0.0001755,0,24.25,0.1234,0,0,4.482e-05
207600000000,207900000000,4279407057,0,1095269,3.338e-05,0.0006304,0.009689,0.0001144,0.0002565,0.0006409,9.537e-07,0,0.0001812,0.0001431,24.56,0.1208,0,0,2.575e-05
207900000000,208200000000,4279407057,0,1095269,3.147e-05,0.0006342,0.009689,0.0001144,0.0002565,0.0006418,0,0,0.0003462,0,22.79,0.1111,0,0,2.861e-06
208200000000,208500000000,4279407057,0,1095269,3.052e-05,0.0006313,0.009689,0.0001144,0.0002565,0.0006323,0,0,0.0004158,7.153e-05,24.22,0.1187,0,0,9.537e-07
208500000000,208800000000,4279407057,0,1095269,3.052e-05,0.0006323,0.009689,0.0001144,0.0002565,0.0006361,0,0,0.0001221,0,23.9,0.1162,0,0,5.627e-05
208800000000,209100000000,4279407057,0,1095269,2.956e-05,0.0006313,0.009689,0.0001144,0.0002565,0.0006342,0,0,0.0001221,7.153e-05,23.11,0.1139,0,0,4.768e-06
209100000000,209400000000,4279407057,0,1095269,3.052e-05,0.0006323,0.009689,0.0001144,0.0002565,0.0006361,0,0,0.0001526,0,24.4,0.1149,0,0,1.907e-06
209400000000,209700000000,4279407057,0,1095269,0.0006409,0.0008745,0.009689,0.0001144,0.0002565,0.002506,9.537e-07,0,0.0625,0.0001431,24.09,0.1134,0,0,4.864e-05
209700000000,210000000000,4279407057,0,1095269,3.815e-05,0.0008268,0.009689,0.0001144,0.0002565,0.001854,0,0,0.0002127,0,23.12,0.1059,0,0,3.815e-05
210000000000,210300000000,4279407057,0,1095269,3.433e-05,0.0006781,0.009689,0.0001144,0.0002565,0.0006809,9.537e-07,0,0.001076,7.153e-05,25.18,0.1191,0,0,3.624e-05
210300000000,210600000000,4279407057,0,1095269,3.338e-05,0.0006762,0.009689,0.0001144,0.0002565,0.000679,0,0,0.0006495,0,23.88,0.1161,0,0,0.0002451
210600000000,210900000000,4279407057,0,1095269,3.719e-05,0.000679,0.009689,0.0001144,0.0002565,0.0006886,9.537e-07,0,0.000226,0.0003567,26.38,0.1213,0,0,8.583e-06
210900000000,211200000000,4279407057,0,1095269,3.719e-05,0.0006819,0.009689,0.0001144,0.0002565,0.0006914,0,0,0.0005379,0,26.39,0.1221,0,0,4.768e-06
211200000000,211500000000,4279407057,0,1095269,3.433e-05,0.0006752,0.009689,0.0001144,0.0002565,0.0006886,9.537e-07,0,0.0003052,0.0001431,26.42,0.1204,0,0,4.292e-05
211500000000,211800000000,4279407057,0,1095269,2.956e-05,0.000679,0.009689,0.0001144,0.0002565,0.0006895,0,0,0.000351,0,24.57,0.1155,0,0,1.526e-05
211800000000,212100000000,4279407057,0,1095269,2.956e-05,0.0006752,0.009689,0.0001144,0.0002565,0.0006809,0,0,0.0002213,7.153e-05,24.02,0.1155,0,0,4.768e-06
212100000000,212400000000,4279407057,0,1095269,3.052e-05,0.0006781,0.009689,0.0001144,0.0002565,0.0006828,9.537e-07,0,0.0002327,0.0002861,24.62,0.1151,0,0,7.248e-05
212400000000,212700000000,4279407057,0,1095269,3.052e-05,0.0006742,0.009689,5.531e-05,0.0001974,0.0006771,0,0,0.0003929,7.153e-05,23.78,0.1158,0,0,5.341e-05
212700000000,213000000000,4279407057,0,1095269,2.956e-05,0.0006762,0.009689,3.624e-05,0.0001783,0.000679,0,0,0.0003681,0,23.22,0.1145,0,0,2.098e-05
213000000000,213300000000,4279407057,0,1095269,0.0006495,0.000906,0.009689,3.624e-05,0.0001793,0.002491,9.537e-07,0,0.06262,0.0002861,16.54,0.07583,0,0,6.676e-06
213300000000,213600000000,4279407057,0,1095269,4.196e-05,0.0008125,0.009689,3.624e-05,0.0001793,0.001854,0,0,0.0002127,0,20.8,0.08937,0,0,5.817e-05
213600000000,213900000000,4279407057,0,1095269,3.91e-05,0.0006552,0.009689,3.624e-05,0.0001793,0.000658,0,0,0.0001774,7.153e-05,15.81,0.06802,0,0,1.812e-05
213900000000,214200000000,4279407057,0,1095269,3.529e-05,0.0006552,0.009689,3.624e-05,0.0001793,0.000659,0,0,0.0002136,0,9.228,0.03864,0,0,3.815e-06
214200000000,214500000000,4279407057,0,1095269,3.433e-05,0.0006542,0.009689,3.624e-05,0.0001793,0.000658,0,0,0.0004911,7.153e-05,26.04,0.1217,0,0,5.722e-06
214500000000,214800000000,4279407057,0,1095269,3.338e-05,0.0006552,0.009689,3.624e-05,0.0001793,0.000658,0,0,0.0001526,0,21.07,0.1002,0,0,2.289e-05
214800000000,215100000000,4279407057,0,1095269,3.338e-05,0.0006542,0.009689,3.624e-05,0.0001793,0.0006638,9.537e-07,0,0.0001526,0.0002146,18.9,0.08804,0,0,4.864e-05
215100000000,215400000000,4279407057,0,1095269,3.052e-05,0.0006571,0.009689,3.624e-05,0.0001793,0.0006647,0,0,0.0003309,0,24.26,0.115,0,0,4.959e-05
215400000000,215700000000,4279407057,0,1095269,3.052e-05,0.0006542,0.009689,3.624e-05,0.0001793,0.0006552,0,0,0.0001221,7.153e-05,24.47,0.1116,0,0,6.104e-05
215700000000,216000000000,4279407057,0,1095269,3.147e-05,0.0006552,0.009689,3.624e-05,0.0001793,0.000659,0,0,0.0001469,0,24.59,0.1147,0,0,8.583e-06
216000000000,216300000000,4279407057,0,1095269,3.338e-05,0.0006542,0.009689,3.624e-05,0.0001793,0.000658,9.537e-07,0,0.0002594,0.0002861,19.88,0.09059,0,0,0.0001364
221100000000,221400000000,4279407057,0,1095269,3.91e-05,0.000679,0.009689,3.719e-05,0.0001793,0.0006828,0,0,0.0001631,0,29.73,0.1232,0,0,5.722e-06
221400000000,221700000000,4279407057,0,1095269,3.719e-05,0.0006828,0.009689,3.719e-05,0.0001793,0.0006914,0,0,0.0002232,7.153e-05,27.85,0.1231,0,0,5.817e-05
221700000000,222000000000,4279407057,0,1095269,3.529e-05,0.0006847,0.009689,3.719e-05,0.0001793,0.0006943,0,0,0.0002508,0,27.3,0.1209,0,0,4.196e-05
222000000000,222300000000,4279407057,0,1095269,3.624e-05,0.0006781,0.009689,3.719e-05,0.0001793,0.0006886,9.537e-07,0,0.0001936,0.0002146,27.11,0.1214,0,0,2.48e-05
222300000000,222600000000,4279407057,0,1095269,3.147e-05,0.0006809,0.009689,3.719e-05,0.0001793,0.0006886,0,0,0.0002213,0,25.28,0.1176,0,0,1.621e-05
222600000000,222900000000,4279407057,0,1095269,3.147e-05,0.0006781,0.009689,3.719e-05,0.0001793,0.000679,0,0,0.0002546,7.153e-05,25.48,0.1158,0,0,9.155e-05
222900000000,223200000000,4279407057,0,1095269,3.052e-05,0.000679,0.009689,3.719e-05,0.0001793,0.0006828,0,0,0.0004444,0,24.37,0.1156,0,0,9.537e-06
223200000000,223500000000,4279407057,0,1095269,3.242e-05,0.0006781,0.009689,3.719e-05,0.0001793,0.0006809,9.537e-07,0,0.0001783,0.0002146,23.67,0.1062,0,0,8.583e-06
223500000000,223800000000,4279407057,0,1095269,3.338e-05,0.00068,0.009689,3.719e-05,0.0001793,0.0006828,0,0,0.0005283,0,24.5,0.116,0,0,8.583e-06
223800000000,224100000000,4279407057,0,1095269,0.0006971,0.0009251,0.009689,3.719e-05,0.0001793,0.002625,9.537e-07,0,0.06274,0.0001431,25.76,0.1187,0,0,3.815e-06
224100000000,224400000000,4279407057,0,1095269,3.91e-05,0.0008879,0.009689,3.719e-05,0.0001793,0.002018,0,0,0.0003119,0,25.62,0.1151,0,0,1.907e-06
224400000000,224700000000,4279407057,0,1095269,3.529e-05,0.0006962,0.009689,3.719e-05,0.0001793,0.000699,0,0,0.0002632,7.153e-05,25.11,0.1164,0,0,2.67e-05
224700000000,225000000000,4279407057,0,1095269,3.624e-05,0.0006971,0.009689,3.719e-05,0.0001793,0.000701,0,0,0.0005932,0,26.08,0.1186,0,0,5.531e-05
225000000000,225300000000,4279407057,0,1095269,3.433e-05,0.0006962,0.009689,3.719e-05,0.0001793,0.0007,9.537e-07,0,0.0003929,0.0001431,24.54,0.1204,0,0,1.907e-05
225300000000,225600000000,4279407057,0,1095269,3.624e-05,0.0006971,0.009689,3.719e-05,0.0001802,0.0007,0,0,0.0001841,0,26.68,0.1214,0,0,1.621e-05
225600000000,225900000000,4279407057,0,1095269,3.433e-05,0.0006971,0.009689,3.719e-05,0.0001802,0.0007095,9.537e-07,0,0.0005627,0.0001431,24.27,0.1159,0,0,9.537e-07
225900000000,226200000000,4279407057,0,1095269,2.956e-05,0.000701,0.009689,3.719e-05,0.0001802,0.0007114,0,0,0.0001221,7.153e-05,24.23,0.1156,0,0,3.147e-05
226200000000,226500000000,4279407057,0,1095269,3.147e-05,0.0006962,0.009689,3.719e-05,0.0001802,0.0006981,0,0,0.0001793,7.153e-05,24.96,0.1148,0,0,2.193e-05
226500000000,226800000000,4279407057,0,1095269,2.956e-05,0.0006971,0.009689,3.719e-05,0.0001802,0.000701,0,0,0.0001812,0,18.55,0.08862,0,0,9.537e-07
226800000000,227100000000,4279407057,0,1095269,3.052e-05,0.0006962,0.009689,3.719e-05,0.0001802,0.000699,0,0,0.000659,7.153e-05,23.3,0.1126,0,0,3.338e-05
227100000000,227400000000,4279407057,0,1095269,3.147e-05,0.000701,0.009689,3.719e-05,0.0001802,0.0007105,0,0,0.0001631,0,22.69,0.1084,0,0,2.575e-05
227400000000,227700000000,4279407057,0,1095269,0.0007191,0.0009556,0.009689,3.719e-05,0.0001802,0.002682,1.907e-06,0,0.06274,0.0002861,25.23,0.1146,0,0,6.771e-05
227700000000,228000000000,4279407057,0,1095269,3.815e-05,0.0008926,0.009689,3.719e-05,0.0001802,0.002033,0,0,0.0001354,0,24.72,0.115,0,0,2.861e-05
228000000000,228300000000,4279407057,0,1095269,3.529e-05,0.0007,0.009689,3.719e-05,0.0001802,0.0007029,0,0,0.0006008,7.153e-05,16.71,0.07631,0,0,2.956e-05
228300000000,228600000000,4279407057,0,1095269,3.433e-05,0.000701,0.009689,3.719e-05,0.0001802,0.0007048,0,0,0.0001917,0,25.87,0.1216,0,0,4.768e-06
228600000000,228900000000,4279407057,0,1095269,3.433e-05,0.0007,0.009689,3.719e-05,0.0001802,0.0007048,0,0,0.0001669,7.153e-05,24.38,0.1154,0,0,2.48e-05
228900000000,229200000000,4279407057,0,1095269,3.529e-05,0.000701,0.009689,3.719e-05,0.0001802,0.0007048,0,0,0.0001831,0,25.51,0.12,0,0,5.722e-06
229200000000,229500000000,4279407057,0,1095269,3.529e-05,0.0007,0.009689,3.719e-05,0.0001802,0.0007095,9.537e-07,0,0.0002136,0.0001431,24.71,0.1199,0,0,2.193e-05
229500000000,229800000000,4279407057,0,1095269,3.052e-05,0.0007029,0.009689,3.719e-05,0.0001802,0.0007105,0,0,0.0001526,7.153e-05,24.19,0.1151,0,0,5.722e-06
229800000000,230100000000,4279407057,0,1095269,3.242e-05,0.0007,0.009689,3.719e-05,0.0001802,0.0007029,0,0,0.0001526,7.153e-05,24.11,0.1138,0,0,2.861e-06
230100000000,230400000000,4279407057,0,1095269,3.147e-05,0.0007038,0.009689,3.719e-05,0.0001802,0.0007086,0,0,0.0002422,7.153e-05,23.97,0.1153,0,0,5.722e-06
230400000000,230700000000,4279407057,0,1095269,3.242e-05,0.0007,0.009689,3.719e-05,0.0001802,0.0007029,0,0,0.0001526,7.153e-05,24.98,0.1168,0,0,1.717e-05
230700000000,231000000000,4279407057,0,1095269,3.242e-05,0.000701,0.009689,3.719e-05,0.0001802,0.0007048,0,0,0.0004168,0,23.47,0.1126,0,0,9.537e-06
231000000000,231300000000,4279407057,0,1095269,0.00072,0.0009623,0.009689,3.719e-05,0.0001802,0.002716,1.907e-06,0,0.06262,0.0002146,23.99,0.1145,0,0,9.537e-07
231300000000,231600000000,4279407057,0,1095269,3.815e-05,0.0009241,0.009689,3.719e-05,0.0001802,0.002094,0,0,0.0001402,0,24.45,0.1128,0,0,2.193e-05
231600000000,231900000000,4279407057,0,1095269,3.242e-05,0.0007191,0.009689,3.719e-05,0.0001802,0.0007229,0,0,0.0003853,7.153e-05,24.37,0.118,0,0,7.248e-05
231900000000,232200000000,4279407057,0,1095269,3.529e-05,0.000721,0.009689,3.719e-05,0.0001802,0.0007238,0,0,0.0008039,0,24.34,0.1159,0,0,2.766e-05
232200000000,232500000000,4279407057,0,1095269,3.433e-05,0.0007238,0.009689,3.719e-05,0.0001802,0.0007334,0,0,0.0004692,7.153e-05,25.73,0.1186,0,0,2.098e-05
232500000000,232800000000,4279407057,0,1095269,3.624e-05,0.0007257,0.009689,3.815e-05,0.0001802,0.0007362,0,0,0.0005579,0,26.58,0.1212,0,0,1.335e-05
232800000000,233100000000,4279407057,0,1095269,3.529e-05,0.0007191,0.009689,3.815e-05,0.0001802,0.0007305,9.537e-07,0,0.000515,0.0001431,23.89,0.1117,0,0,3.91e-05
233100000000,233400000000,4279407057,0,1095269,3.147e-05,0.0007238,0.009689,3.815e-05,0.0001802,0.0007334,0,0,0.0001478,7.153e-05,23.31,0.1083,0,0,4.482e-05
233400000000,233700000000,4279407057,0,1095269,3.338e-05,0.0007191,0.009689,3.815e-05,0.0001802,0.0007219,0,0,0.0004101,7.153e-05,23.08,0.1078,0,0,6.676e-06
233700000000,234000000000,4279407057,0,1095269,3.147e-05,0.000721,0.009689,3.815e-05,0.0001802,0.0007238,0,0,0.0001326,0,25.39,0.1155,0,0,5.341e-05
234000000000,234300000000,4279407057,0,1095269,3.242e-05,0.0007191,0.009689,3.815e-05,0.0001802,0.0007219,0,0,0.0001431,7.153e-05,24.89,0.1156,0,0,8.488e-05
234300000000,234600000000,4279407057,0,1095269,3.242e-05,0.000721,0.009689,3.815e-05,0.0001802,0.0007238,0,0,0.0005379,0,24.32,0.1142,0,0,7.82e-05
234600000000,234900000000,4279407057,0,1095269,0.0006924,0.000948,0.009689,3.815e-05,0.0001802,0.002789,9.537e-07,0,0.06262,0.0001431,23.83,0.1148,0,0,3.338e-05
234900000000,235200000000,4279407057,0,1095269,3.815e-05,0.001001,0.009689,3.815e-05,0.0001802,0.002266,0,0,0.0001688,7.153e-05,23.68,0.1113,0,0,2.861e-05
235200000000,235500000000,4279407057,0,1095269,3.433e-05,0.0007553,0.009689,3.815e-05,0.0001802,0.0007582,0,0,0.0001526,7.153e-05,25.53,0.119,0,0,2.003e-05
235500000000,235800000000,4279407057,0,1095269,3.433e-05,0.0007544,0.009689,3.815e-05,0.0001802,0.0007582,0,0,0.0001831,0,25.04,0.1196,0,0,0.0001345
235800000000,236100000000,4279407057,0,1095269,3.433e-05,0.0007534,0.009689,3.815e-05,0.0001802,0.0007572,0,0,0.0001831,7.153e-05,25.05,0.1193,0,0,1.812e-05
236100000000,236400000000,4279407057,0,1095269,3.624e-05,0.0007544,0.009689,3.815e-05,0.0001802,0.0007572,0,0,0.0002146,0,25.2,0.1166,0,0,0.0001478
241200000000,241500000000,4279407057,0,1095269,3.242e-05,0.0004358,0.009689,3.815e-05,0.0001812,0.0004387,0,0,0.0004063,7.153e-05,24.06,0.1146,0,0,4.578e-05
241500000000,241800000000,4279407057,0,1095269,3.147e-05,0.0004377,0.009689,3.815e-05,0.0001812,0.0004406,0,0,0.0001345,0,23.69,0.1122,0,0,3.147e-05
241800000000,242100000000,4279407057,0,1095269,0.0007095,0.0007238,0.009689,3.815e-05,0.0001812,0.002697,1.907e-06,0,0.06262,0.0004282,24.3,0.1172,0,0,1.431e-05
242100000000,242400000000,4279407057,0,1095269,4.005e-05,0.0008297,0.009689,3.91e-05,0.0001812,0.002068,0,0,0.001789,0,27.54,0.1289,0,0,1.907e-05
242400000000,242700000000,4279407057,0,1095269,3.624e-05,0.0005922,0.009689,3.91e-05,0.0001812,0.0005951,0,0,0.0004807,7.153e-05,26.06,0.1211,0,0,2.003e-05
242700000000,243000000000,4279407057,0,1095269,3.624e-05,0.000596,0.009689,3.91e-05,0.0001812,0.0006008,1.907e-06,0,0.0002251,0.0004282,20.68,0.09126,0,0,5.627e-05
243000000000,243300000000,4279407057,0,1095269,3.529e-05,0.000596,0.009689,3.91e-05,0.0001812,0.0006065,0,0,0.0009718,7.153e-05,10.25,0.04309,0,0,2.956e-05
243300000000,243600000000,4279407057,0,1095269,3.529e-05,0.0005989,0.009689,3.91e-05,0.0001812,0.0006094,0,0,0.0002136,0,9.11,0.03894,0,0,1.621e-05
243600000000,243900000000,4279407057,0,1095269,3.529e-05,0.0005922,0.009689,3.91e-05,0.0001812,0.0006018,1.907e-06,0,0.0005493,0.0002861,17.03,0.07744,0,0,9.155e-05
243900000000,244200000000,4279407057,0,1095269,3.433e-05,0.000596,0.009689,3.91e-05,0.0001812,0.0006027,0,0,0.001797,0,26.77,0.1232,0,0,3.052e-05
244200000000,244500000000,4279407057,0,1095269,3.338e-05,0.0005922,0.009689,3.91e-05,0.0001812,0.0005951,0,0,0.0001526,7.153e-05,25.39,0.1181,0,0,9.537e-06
244500000000,244800000000,4279407057,0,1095269,3.052e-05,0.0005941,0.009689,3.91e-05,0.0001812,0.000597,0,0,0.0001364,0,24.3,0.1121,0,0,1.907e-06
244800000000,245100000000,4279407057,0,1095269,3.052e-05,0.0005922,0.009689,3.91e-05,0.0001812,0.0005941,0,0,0.0001764,7.153e-05,23.45,0.109,0,0,1.049e-05
245100000000,245400000000,4279407057,0,1095269,3.052e-05,0.0005932,0.009689,3.91e-05,0.0001812,0.000596,0,0,0.0001831,0,23.63,0.1142,0,0,7.629e-06
245400000000,245700000000,4279407057,0,1095269,0.0007086,0.0008869,0.009689,3.91e-05,0.0001812,0.002884,1.907e-06,0,0.06262,0.0004997,25.35,0.1156,0,0,3.719e-05
245700000000,246000000000,4279407057,0,1095269,3.624e-05,0.0009546,0.009689,3.91e-05,0.0001812,0.002258,0,0,0.0002422,0,25.99,0.1234,0,0,3.052e-05
246000000000,246300000000,4279407057,0,1095269,3.338e-05,0.0006752,0.009689,3.91e-05,0.0001812,0.0006781,0,0,0.0003662,7.153e-05,25.48,0.1213,0,0,3.815e-05
251400000000,251700000000,4279407057,0,1095269,3.242e-05,0.0006819,0.009689,3.91e-05,0.0001822,0.0006838,0,0,0.0004253,7.153e-05,23.45,0.1086,0,0,1.717e-05
251700000000,252000000000,4279407057,0,1095269,3.052e-05,0.0006828,0.009689,3.91e-05,0.0001822,0.0006857,0,0,0.0003948,0,23.39,0.1094,0,0,2.766e-05
252000000000,252300000000,4279407057,0,1095269,3.147e-05,0.0006819,0.009689,3.91e-05,0.0001822,0.0006847,0,0,0.000226,7.153e-05,24.22,0.1147,0,0,3.624e-05
252300000000,252600000000,4279407057,0,1095269,3.242e-05,0.0006809,0.009689,3.91e-05,0.0001822,0.0006866,0,0,0.0005074,0,24.54,0.1159,0,0,1.049e-05
252600000000,252900000000,4279407057,0,1095269,0.0007,0.0009527,0.009689,3.91e-05,0.0001822,0.002842,9.537e-07,0,0.06262,0.0002146,24.31,0.1163,0,0,1.717e-05
252900000000,253200000000,4279407057,0,1095269,3.529e-05,0.0008917,0.009689,3.91e-05,0.0001822,0.002201,0,0,0.0002422,0,26.51,0.1301,0,0,1.717e-05
253200000000,253500000000,4279407057,0,1095269,3.147e-05,0.0006113,0.009689,3.91e-05,0.0001822,0.0006142,0,0,0.0009327,7.153e-05,25.05,0.121,0,0,9.537e-06
253500000000,253800000000,4279407057,0,1095269,3.242e-05,0.0006123,0.009689,3.91e-05,0.0001822,0.0006161,0,0,0.0009203,0,24.32,0.1154,0,0,3.815e-06
253800000000,254100000000,4279407057,0,1095269,3.433e-05,0.000617,0.009689,3.91e-05,0.0001822,0.0006285,9.537e-07,0,0.0008068,0.0001431,25.57,0.121,0,0,9.537e-06
254100000000,254400000000,4279407057,0,1095269,3.242e-05,0.000618,0.009689,3.91e-05,0.0001822,0.0006285,0,0,0.0002441,0,25.36,0.1212,0,0,2.289e-05
254400000000,254700000000,4279407057,0,1095269,3.338e-05,0.0006113,0.009689,3.91e-05,0.0001822,0.0006208,9.537e-07,0,0.0004635,0.0001431,25.81,0.1218,0,0,1.907e-05
254700000000,255000000000,4279407057,0,1095269,2.956e-05,0.0006142,0.009689,3.91e-05,0.0001822,0.0006218,0,0,0.0002699,0,25.18,0.1184,0,0,2.956e-05
255000000000,255300000000,4279407057,0,1095269,2.956e-05,0.0006113,0.009689,4.005e-05,0.0001822,0.0006132,0,0,0.0003281,7.153e-05,24.63,0.1149,0,0,1.431e-05
255300000000,255600000000,4279407057,0,1095269,2.956e-05,0.0006123,0.009689,4.005e-05,0.0001822,0.0006161,0,0,0.0001831,0,25.07,0.1165,0,0,5.245e-05
255600000000,255900000000,4279407057,0,1095269,2.956e-05,0.0006104,0.009689,4.005e-05,0.0001822,0.0006123,0,0,0.000268,7.153e-05,23.68,0.112,0,0,6.294e-05
255900000000,256200000000,4279407057,0,1095269,3.052e-05,0.0006132,0.009689,4.005e-05,0.0001822,0.000617,0,0,0.0001221,0,24.86,0.1163,0,0,2.861e-05
256200000000,256500000000,4279407057,0,1095269,0.0006437,0.0008802,0.009689,4.005e-05,0.0001822,0.002705,7.629e-06,0,0.06262,0.001215,10.52,0.04694,0,0,4.196e-05
256500000000,256800000000,4279407057,0,1095269,3.624e-05,0.0008221,0.009689,4.005e-05,0.0001822,0.002029,0,0,0.0002441,0,10.78,0.04711,0,0,1.335e-05
256800000000,257100000000,4279407057,0,1095269,3.433e-05,0.000596,0.009689,4.005e-05,0.0001822,0.0005989,0,0,0.0004168,7.153e-05,16.8,0.0776,0,0,1.144e-05
257100000000,257400000000,4279407057,0,1095269,3.433e-05,0.000597,0.009689,4.005e-05,0.0001822,0.0006008,0,0,0.0001831,0,26.47,0.122,0,0,8.583e-06
257400000000,257700000000,4279407057,0,1095269,3.338e-05,0.000596,0.009689,4.005e-05,0.0001822,0.0006018,0,0,0.000391,7.153e-05,26.11,0.1234,0,0,2.48e-05
257700000000,258000000000,4279407057,0,1095269,3.242e-05,0.000597,0.009689,4.005e-05,0.0001822,0.0006018,0,0,0.0002699,0,25.65,0.121,0,0,2.193e-05
258000000000,258300000000,4279407057,0,1095269,3.338e-05,0.000596,0.009689,4.005e-05,0.0001822,0.0006056,9.537e-07,0,0.0001526,0.0001431,25.41,0.1213,0,0,2.48e-05
258300000000,258600000000,4279407057,0,1095269,3.147e-05,0.0005989,0.009689,4.005e-05,0.0001822,0.0006065,0,0,0.0005159,0,24.19,0.1139,0,0,1.431e-05
258600000000,258900000000,4279407057,0,1095269,3.242e-05,0.000596,0.009689,4.005e-05,0.0001822,0.0005999,0,0,0.0001526,7.153e-05,24.6,0.1138,0,0,2.766e-05
258900000000,259200000000,4279407057,0,1095269,3.052e-05,0.000597,0.009689,4.005e-05,0.0001822,0.0006008,0,0,0.0001221,0,24.66,0.1162,0,0,0.0001011
259200000000,259500000000,4279407057,0,1095269,3.147e-05,0.000596,0.009689,4.005e-05,0.0001822,0.0005989,0,0,0.0001831,7.153e-05,25.34,0.1154,0,0,2.575e-05
259500000000,259800000000,4279407057,0,1095269,3.052e-05,0.0006018,0.009689,4.005e-05,0.0001822,0.0006104,0,0,0.000206,0,24.77,0.1164,0,0,3.242e-05
259800000000,260100000000,4279407057,0,1095269,0.0006371,0.0008593,0.009689,4.005e-05,0.0001822,0.002666,3.815e-06,0,0.06262,0.0009995,24.44,0.116,0,0,8.202e-05
260100000000,260400000000,4279407057,0,1095269,3.529e-05,0.0008287,0.009689,4.005e-05,0.0001822,0.002026,0,0,0.000227,0,26.71,0.1274,0,0,3.815e-05
260400000000,260700000000,4279407057,0,1095269,3.242e-05,0.0006065,0.009689,4.005e-05,0.0001831,0.0006094,0,0,0.0001888,7.153e-05,13.26,0.06052,0,0,4.387e-05
260700000000,261000000000,4279407057,0,1095269,3.147e-05,0.0006075,0.009689,4.005e-05,0.0001831,0.0006113,0,0,0.0004234,0,8.816,0.0385,0,0,1.144e-05
261000000000,261300000000,4279407057,0,1095269,3.338e-05,0.0006065,0.009689,4.005e-05,0.0001831,0.0006142,9.537e-07,0,0.0001831,0.0001431,9.449,0.04201,0,0,6.676e-06
261300000000,261600000000,4279407057,0,1095269,3.338e-05,0.0006084,0.009689,4.005e-05,0.0001831,0.0006151,0,0,0.0002203,0,13.72,0.06353,0,0,1.526e-05
261600000000,261900000000,4279407057,0,1095269,3.242e-05,0.0006056,0.009689,4.005e-05,0.0001831,0.0006151,1.907e-06,0,0.0002489,0.0004997,10.58,0.04742,0,0,2.956e-05
261900000000,262200000000,4279407057,0,1095269,2.861e-05,0.0006094,0.009689,4.005e-05,0.0001831,0.000617,3.815e-06,0,0.000515,0.001215,10.03,0.04521,0,0,2.193e-05
262200000000,262500000000,4279407057,0,1095269,2.861e-05,0.0006065,0.009689,4.005e-05,0.0001831,0.0006104,0,0,0.0001221,7.153e-05,15.91,0.07344,0,0,2.575e-05
262500000000,262800000000,4279407057,0,1095269,2.956e-05,0.0006075,0.009689,4.005e-05,0.0001831,0.0006113,0,0,0.0002613,0,19.86,0.09135,0,0,2.384e-05
262800000000,263100000000,4279407057,0,1095269,2.861e-05,0.0006056,0.009689,4.005e-05,0.0001831,0.0006075,0,0,0.0003366,7.153e-05,11.95,0.05597,0,0,1.431e-05
263100000000,263400000000,4279407057,0,1095269,2.766e-05,0.0006075,0.009689,4.005e-05,0.0001831,0.0006104,0,0,0.0001221,0,23.38,0.1144,0,0,2.098e-05
263400000000,263700000000,4279407057,0,1095269,0.0005836,0.0008564,0.009689,4.005e-05,0.0001831,0.002575,4.768e-06,0,0.0625,0.001215,8.521,0.03739,0,0,4.578e-05
263700000000,264000000000,4279407057,0,1095269,3.433e-05,0.0007792,0.009689,4.005e-05,0.0001831,0.001926,0,0,0.0001831,7.153e-05,8.876,0.0396,0,0,2.193e-05
264000000000,264300000000,4279407057,0,1095269,3.147e-05,0.0005732,0.009689,4.005e-05,0.0001831,0.000576,0,0,0.0001793,7.153e-05,16.34,0.07749,0,0,5.722e-06
264300000000,264600000000,4279407057,0,1095269,3.242e-05,0.0005741,0.009689,4.005e-05,0.0001831,0.000577,0,0,0.0003958,0,24.57,0.1189,0,0,5.722e-06
264600000000,264900000000,4279407057,0,1095269,3.242e-05,0.000577,0.009689,4.005e-05,0.0001831,0.0005865,0,0,0.0001249,7.153e-05,16.34,0.07541,0,0,4.101e-05
264900000000,265200000000,4279407057,0,1095269,3.147e-05,0.0005789,0.009689,4.005e-05,0.0001831,0.0005903,0,0,0.0001402,0,17.12,0.07955,0,0,4.196e-05
265200000000,265500000000,4279407057,0,1095269,3.147e-05,0.0005741,0.009689,4.005e-05,0.0001831,0.0005836,9.537e-07,0,0.0002356,0.0001431,15.64,0.07314,0,0,1.907e-06
265500000000,265800000000,4279407057,0,1095269,3.147e-05,0.000576,0.009689,4.005e-05,0.0001831,0.0005846,0,0,0.0001459,0,24.62,0.1191,0,0,1.526e-05
265800000000,266100000000,4279407057,0,1095269,3.052e-05,0.0005732,0.009689,4.005e-05,0.0001831,0.000577,0,0,0.0004539,7.153e-05,24.9,0.1168,0,0,9.537e-07
266100000000,266400000000,4279407057,0,1095269,3.052e-05,0.0005741,0.009689,4.005e-05,0.0001831,0.0005779,0,0,0.0001545,0,10.78,0.04606,0,0,1.335e-05
266400000000,266700000000,4279407057,0,1095269,3.052e-05,0.0005722,0.009689,4.005e-05,0.0001831,0.0005741,0,0,0.0001221,7.153e-05,22.58,0.1047,0,0,1.812e-05
266700000000,267000000000,4279407057,0,1095269,3.147e-05,0.0005741,0.009689,4.101e-05,0.0001831,0.000577,0,0,0.0001574,0,26.3,0.1194,0,0,9.537e-06
267000000000,267300000000,4279407057,0,1095269,0.0006542,0.0008249,0.009689,4.101e-05,0.0001831,0.002567,3.815e-06,0,0.06262,0.0009289,26.51,0.1223,0,0,2.384e-05
267300000000,267600000000,4279407057,0,1095269,3.719e-05,0.0008001,0.009689,4.005e-05,0.0001831,0.001926,0,0,0.0002222,0,18.55,0.08237,0,0,2.575e-05
267600000000,267900000000,4279407057,0,1095269,3.529e-05,0.0006094,0.009689,4.005e-05,0.0001831,0.0006132,2.861e-06,0,0.0002136,0.0008574,14.71,0.06458,0,0,2.003e-05
267900000000,268200000000,4279407057,0,1095269,3.338e-05,0.0006104,0.009689,4.101e-05,0.0001831,0.0006151,0,0,0.0005579,0,17.29,0.07878,0,0,3.147e-05
268200000000,268500000000,4279407057,0,1095269,3.338e-05,0.0006084,0.009689,4.101e-05,0.0001831,0.0006132,0,0,0.0008278,7.153e-05,25.93,0.1234,0,0,2.289e-05
268500000000,268800000000,4279407057,0,1095269,3.147e-05,0.0006113,0.009689,4.101e-05,0.0001831,0.000617,0,0,0.0001945,7.153e-05,24.97,0.1242,0,0,5.722e-06
268800000000,269100000000,4279407057,0,1095269,3.242e-05,0.0006094,0.009689,4.101e-05,0.0001831,0.0006189,9.537e-07,0,0.0001431,0.0001431,25.56,0.1255,0,0,2.003e-05
269100000000,269400000000,4279407057,0,1095269,2.861e-05,0.0006113,0.009689,4.101e-05,0.0001831,0.0006199,0,0,0.0001898,0,23.99,0.1152,0,0,1.907e-05
269400000000,269700000000,4279407057,0,1095269,2.956e-05,0.0006084,0.009689,4.101e-05,0.0001831,0.0006123,0,0,0.000515,7.153e-05,25.05,0.1211,0,0,9.537e-06
269700000000,270000000000,4279407057,0,1095269,2.956e-05,0.0006104,0.009689,4.101e-05,0.0001831,0.0006132,0,0,0.0001249,0,21,0.099,0,0,7.439e-05
270000000000,270300000000,4279407057,0,1095269,2.956e-05,0.0006084,0.009689,4.101e-05,0.0001831,0.0006113,9.537e-07,0,0.0001221,0.0001431,15.39,0.07083,0,0,4.768e-06
270300000000,270600000000,4279407057,0,1095269,2.956e-05,0.0006151,0.009689,4.101e-05,0.0001831,0.0006247,0,0,0.0001831,7.153e-05,15.26,0.06915,0,0,0.0001135
270600000000,270900000000,4279407057,0,1095269,0.0005636,0.000845,0.009689,4.101e-05,0.0001831,0.002499,9.537e-07,0,0.06262,0.0001431,16.62,0.07952,0,0,2.861e-06
270900000000,271200000000,4279407057,0,1095269,3.338e-05,0.0007696,0.009689,4.101e-05,0.0001831,0.001865,0,0,0.0003042,7.153e-05,26.5,0.1262,0,0,7.629e-06
271200000000,271500000000,4279407057,0,1095269,3.338e-05,0.0005894,0.009689,4.101e-05,0.0001831,0.0005922,0,0,0.0001316,7.153e-05,26.69,0.1241,0,0,3.91e-05
281400000000,281700000000,4279407057,0,1095269,0.0005856,0.0007629,0.009689,4.196e-05,0.0001841,0.002377,9.537e-07,0,0.0625,0.0001431,20.73,0.09632,0,0,4.768e-05
281700000000,282000000000,4279407057,0,1095269,3.815e-05,0.000762,0.009689,4.196e-05,0.0001841,0.001749,0,0,0.0001535,0,22.62,0.1014,0,0,4.387e-05
282000000000,282300000000,4279407057,0,1095269,3.529e-05,0.0006161,0.009689,4.196e-05,0.0001841,0.0006189,0,0,0.0002756,7.153e-05,27.06,0.1241,0,0,9.537e-07
282300000000,282600000000,4279407057,0,1095269,3.433e-05,0.000617,0.009689,4.196e-05,0.0001841,0.0006208,0,0,0.0007257,0,26.73,0.1244,0,0,1.526e-05
282600000000,282900000000,4279407057,0,1095269,3.433e-05,0.0006161,0.009689,4.196e-05,0.0001841,0.0006199,0,0,0.0007992,7.153e-05,19.51,0.08793,0,0,5.817e-05
282900000000,283200000000,4279407057,0,1095269,3.147e-05,0.0006189,0.009689,4.196e-05,0.0001841,0.0006247,9.537e-07,0,0.0004196,0.0002146,11.52,0.05356,0,0,9.537e-07
283200000000,283500000000,4279407057,0,1095269,3.242e-05,0.0006161,0.009689,4.196e-05,0.0001841,0.0006256,4.768e-06,0,0.0004435,0.001286,23.44,0.1134,0,0,1.812e-05
283500000000,283800000000,4279407057,0,1095269,3.052e-05,0.0006189,0.009689,4.196e-05,0.0001841,0.0006266,0,0,0.0001574,0,16.23,0.07795,0,0,2.098e-05
283800000000,284100000000,4279407057,0,1095269,2.956e-05,0.0006161,0.009689,4.196e-05,0.0001841,0.0006199,0,0,0.0001545,7.153e-05,10.23,0.04559,0,0,1.907e-06
284100000000,284400000000,4279407057,0,1095269,3.147e-05,0.000617,0.009689,4.196e-05,0.0001841,0.0006208,0,0,0.0004454,0,11.6,0.05103,0,0,3.529e-05
284400000000,284700000000,4279407057,0,1095269,3.052e-05,0.0006161,0.009689,4.196e-05,0.0001841,0.000618,0,0,0.0001335,7.153e-05,24.73,0.1182,0,0,2.48e-05
284700000000,285000000000,4279407057,0,1095269,3.147e-05,0.000618,0.009689,4.196e-05,0.0001841,0.0006199,0,0,0.0002365,0,25.68,0.1171,0,0,9.537e-06
285000000000,285300000000,4279407057,0,1095269,0.0005598,0.0008526,0.009689,4.196e-05,0.0001841,0.002472,9.537e-07,0,0.06274,0.0001431,24.23,0.1179,0,0,2.861e-05
285300000000,285600000000,4279407057,0,1095269,3.433e-05,0.0007696,0.009689,4.196e-05,0.0001841,0.00181,0,0,0.0003004,0,26.14,0.1254,0,0,8.583e-06
285600000000,285900000000,4279407057,0,1095269,3.147e-05,0.0006104,0.009689,4.196e-05,0.0001841,0.0006132,0,0,0.0001221,7.153e-05,23.91,0.1173,0,0,1.907e-06
285900000000,286200000000,4279407057,0,1095269,3.147e-05,0.0006123,0.009689,4.196e-05,0.0001841,0.0006151,0,0,0.0001507,0,23.19,0.1152,0,0,2.193e-05
286200000000,286500000000,4279407057,0,1095269,3.338e-05,0.0006132,0.009689,4.196e-05,0.0001841,0.0006275,0,0,0.0001221,7.153e-05,18.58,0.08828,0,0,2.861e-06
286500000000,286800000000,4279407057,0,1095269,3.242e-05,0.0006151,0.009689,4.196e-05,0.0001841,0.0006275,0,0,0.0002346,0,19.23,0.09022,0,0,9.537e-06
286800000000,287100000000,4279407057,0,1095269,3.147e-05,0.0006132,0.009689,4.196e-05,0.0001841,0.0006275,9.537e-07,0,0.0004101,0.0002146,20.57,0.09908,0,0,0.0001154
287100000000,287400000000,4279407057,0,1095269,3.052e-05,0.0006132,0.009689,4.196e-05,0.000185,0.0006208,0,0,0.0002499,0,19.44,0.09176,0,0,2.193e-05
287400000000,287700000000,4279407057,0,1095269,2.956e-05,0.0006104,0.009689,4.196e-05,0.000185,0.0006142,0,0,0.0002623,7.153e-05,15.89,0.07473,0,0,2.956e-05
287700000000,288000000000,4279407057,0,1095269,3.242e-05,0.0006113,0.009689,4.196e-05,0.000185,0.0006151,0,0,0.0003891,0,24.27,0.1138,0,0,2.289e-05
288000000000,288300000000,4279407057,0,1095269,3.147e-05,0.0006104,0.009689,4.196e-05,0.000185,0.0006142,0,0,0.0002432,7.153e-05,25.34,0.1167,0,0,0.0001698
288300000000,288600000000,4279407057,0,1095269,2.956e-05,0.0006123,0.009689,4.196e-05,0.000185,0.0006161,0,0,0.0002546,0,22.89,0.1123,0,0,3.147e-05
288600000000,288900000000,4279407057,0,1095269,0.000535,0.0008383,0.009689,4.196e-05,0.000185,0.002415,3.815e-06,0,0.0625,0.001072,24.06,0.1215,0,0,0.0002003
288900000000,289200000000,4279407057,0,1095269,3.433e-05,0.0007753,0.009689,4.196e-05,0.000185,0.001745,0,0,0.0002012,0,25.5,0.1284,0,0,1.049e-05
289200000000,289500000000,4279407057,0,1095269,3.242e-05,0.0006371,0.009689,4.196e-05,0.000185,0.0006399,0,0,0.0001469,7.153e-05,16.61,0.08256,0,0,1.621e-05
289500000000,289800000000,4279407057,0,1095269,3.147e-05,0.000639,0.009689,4.196e-05,0.000185,0.0006418,0,0,0.0001593,0,18.41,0.0917,0,0,4.578e-05
289800000000,290100000000,4279407057,0,1095269,3.147e-05,0.0006371,0.009689,4.196e-05,0.000185,0.0006399,0,0,0.0005932,7.153e-05,17.25,0.08671,0,0,8.583e-06
290100000000,290400000000,4279407057,0,1095269,3.338e-05,0.0006399,0.009689,4.196e-05,0.000185,0.0006456,0,0,0.0005875,7.153e-05,14.74,0.06813,0,0,1.812e-05
290400000000,290700000000,4279407057,0,1095269,3.338e-05,0.0006371,0.009689,4.196e-05,0.000185,0.0006456,9.537e-07,0,0.0001993,0.0001431,11.2,0.04997,0,0,3.338e-05
290700000000,291000000000,4279407057,0,1095269,3.052e-05,0.0006399,0.009689,4.196e-05,0.000185,0.0006475,0,0,0.0004368,7.153e-05,8.484,0.03676,0,0,1.144e-05
291000000000,291300000000,4279407057,0,1095269,3.147e-05,0.000638,0.009689,4.196e-05,0.000185,0.0006409,0,0,0.0001469,7.153e-05,24.92,0.1179,0,0,7.629e-06
291300000000,291600000000,4279407057,0,1095269,2.956e-05,0.000638,0.009689,4.196e-05,0.000185,0.0006418,0,0,0.0001869,0,13.18,0.05947,0,0,0.0001869
291600000000,291900000000,4279407057,0,1095269,2.956e-05,0.0006371,0.009689,4.196e-05,0.000185,0.0006399,0,0,0.0003958,7.153e-05,9.952,0.04297,0,0,9.537e-06
291900000000,292200000000,4279407057,0,1095269,3.052e-05,0.000639,0.009689,4.196e-05,0.000185,0.0006523,0,0,0.0001564,0,12.08,0.05458,0,0,2.48e-05
292200000000,292500000000,4279407057,0,1095269,0.0005941,0.0008745,0.009689,4.196e-05,0.000185,0.002483,9.537e-07,0,0.0625,0.0001431,24.26,0.1137,0,0,8.583e-06
292500000000,292800000000,4279407057,0,1095269,3.91e-05,0.0007858,0.009689,4.196e-05,0.000185,0.001814,0,0,0.0002975,0,27.74,0.1307,0,0,0
292800000000,293100000000,4279407057,0,1095269,3.529e-05,0.0006218,0.009689,4.196e-05,0.000185,0.0006256,0,0,0.0002451,7.153e-05,25.93,0.1246,0,0,1.907e-06
293100000000,293400000000,4279407057,0,1095269,3.338e-05,0.0006237,0.009689,4.196e-05,0.000185,0.0006266,0,0,0.0002012,0,27.18,0.125,0,0,6.104e-05
293400000000,293700000000,4279407057,0,1095269,3.338e-05,0.0006227,0.009689,4.196e-05,0.000185,0.0006256,0,0,0.0001526,7.153e-05,25.62,0.1224,0,0,1.049e-05
293700000000,294000000000,4279407057,0,1095269,3.433e-05,0.0006237,0.009689,4.196e-05,0.000185,0.0006275,0,0,0.0001526,0,26.38,0.1234,0,0,3.529e-05
294000000000,294300000000,4279407057,0,1095269,3.338e-05,0.0006218,0.009689,4.292e-05,0.000185,0.0006323,3.815e-06,0,0.0005198,0.0009995,24.77,0.1208,0,0,1.717e-05
294300000000,294600000000,4279407057,0,1095269,3.147e-05,0.0006247,0.009689,4.292e-05,0.000185,0.0006323,0,0,0.0005436,0,24.68,0.1169,0,0,1.526e-05
294600000000,294900000000,4279407057,0,1095269,3.052e-05,0.0006218,0.009689,4.292e-05,0.000185,0.0006256,0,0,0.0001831,7.153e-05,23.85,0.1169,0,0,2.098e-05
294900000000,295200000000,4279407057,0,1095269,2.956e-05,0.0006237,0.009689,4.292e-05,0.000185,0.0006266,0,0,0.0001221,0,24.06,0.1144,0,0,1.907e-05
295200000000,295500000000,4279407057,0,1095269,3.147e-05,0.0006218,0.009689,4.292e-05,0.000185,0.0006247,0,0,0.0003719,7.153e-05,24.64,0.115,0,0,2.861e-06
295500000000,295800000000,4279407057,0,1095269,2.956e-05,0.0006237,0.009689,4.292e-05,0.000185,0.0006266,0,0,0.0005293,0,23.35,0.1162,0,0,5.722e-06
295800000000,296100000000,4279407057,0,1095269,0.0006371,0.0008564,0.009689,4.292e-05,0.000185,0.002495,9.537e-07,0,0.06262,0.0001431,24.14,0.1169,0,0,6.676e-06
296100000000,296400000000,4279407057,0,1095269,3.91e-05,0.0007696,0.009689,4.292e-05,0.000185,0.00185,0,0,0.0001526,0,28.18,0.1281,0,0,1.907e-06
296400000000,296700000000,4279407057,0,1095269,3.529e-05,0.0005941,0.009689,4.292e-05,0.000185,0.000597,0,0,0.0002136,7.153e-05,24.89,0.119,0,0,9.537e-07
296700000000,297000000000,4279407057,0,1095269,3.624e-05,0.0005951,0.009689,4.292e-05,0.000185,0.000598,0,0,0.0005798,0,9.151,0.03837,0,0,2.956e-05
297000000000,297300000000,4279407057,0,1095269,3.719e-05,0.000596,0.009689,4.292e-05,0.000185,0.0006104,0,0,0.001278,7.153e-05,25.8,0.1174,0,0,4.005e-05
297300000000,297600000000,4279407057,0,1095269,3.529e-05,0.0005999,0.009689,4.292e-05,0.000185,0.0006123,0,0,0.0005894,7.153e-05,27.46,0.1233,0,0,2.766e-05
297600000000,297900000000,4279407057,0,1095269,3.338e-05,0.000598,0.009689,4.292e-05,0.000185,0.0006113,2.861e-06,0,0.0003624,0.0006428,22.67,0.1048,0,0,1.717e-05
297900000000,298200000000,4279407057,0,1095269,3.242e-05,0.000596,0.009689,4.292e-05,0.000185,0.0006037,0,0,0.000288,0,18.93,0.0873,0,0,2.289e-05
298200000000,298500000000,4279407057,0,1095269,3.242e-05,0.0005941,0.009689,4.292e-05,0.000185,0.000598,0,0,0.0002136,7.153e-05,17.04,0.08019,0,0,0.0001154
298500000000,298800000000,4279407057,0,1095269,3.147e-05,0.000596,0.009689,4.292e-05,0.000185,0.000598,0,0,0.0002775,7.153e-05,21.18,0.1006,0,0,3.719e-05
298800000000,299100000000,4279407057,0,1095269,3.242e-05,0.0005951,0.009689,4.292e-05,0.000185,0.000597,0,0,0.0002747,7.153e-05,16.45,0.07439,0,0,2.289e-05
299100000000,299400000000,4279407057,0,1095269,3.242e-05,0.0005951,0.009689,4.292e-05,0.000185,0.000598,0,0,0.0003004,0,18.43,0.08796,0,0,5.722e-05
299400000000,299700000000,4279407057,0,1095269,0.0005655,0.0008373,0.009689,4.292e-05,0.000185,0.002541,2.861e-06,0,0.06299,0.0007143,23.16,0.1073,0,0,3.052e-05
299700000000,300000000000,4279407057,0,1095269,3.719e-05,0.0007963,0.009689,4.292e-05,0.000186,0.001907,0,0,0.000248,0,20.47,0.09653,0,0,2.766e-05
