5700000000,6000000000,4346898072,0,82789744,0.0006227,0.001478,0.005814,0.0002747,0.0005369,0.001753,9.537e-07,2.861e-06,0.04114,7.153e-05,2.522,0.007147,0,0,0.0001163
6000000000,6300000000,4346898072,0,82789744,0.0004845,0.001492,0.005814,0.0002747,0.0005379,0.001755,9.537e-07,2.861e-06,0.0401,7.153e-05,2.549,0.007274,0,0,0.0002136
6300000000,6600000000,4346898072,0,82789744,0.0006208,0.00149,0.005814,0.0002747,0.0005379,0.001764,9.537e-07,2.861e-06,0.04114,7.153e-05,2.579,0.00743,0,0,0.0001898
6600000000,6900000000,4346898072,0,82789744,0.0004921,0.001503,0.005814,0.0002756,0.0005379,0.00177,1.907e-06,2.861e-06,0.04089,7.153e-05,2.683,0.007877,0,0,0.0006275
6900000000,7200000000,4346898072,0,82789744,0.0006199,0.001495,0.005814,0.0002756,0.0005388,0.001762,9.537e-07,2.861e-06,0.04144,7.153e-05,2.593,0.00748,0,0,0.000124
7200000000,7500000000,4346898072,0,82789744,0.000495,0.001503,0.005814,0.0002756,0.0005388,0.001755,9.537e-07,2.861e-06,0.04144,7.153e-05,2.693,0.007943,0,0,3.815e-05
7500000000,7800000000,4346898072,0,82789744,0.0006371,0.001501,0.005814,0.0002756,0.0005388,0.001751,9.537e-07,2.861e-06,0.04456,7.153e-05,2.699,0.007814,0,0,6.199e-05
7800000000,8100000000,4346898072,0,82789744,0.0005016,0.001492,0.005814,0.0002766,0.0005388,0.001757,9.537e-07,2.861e-06,0.04224,7.153e-05,2.715,0.008033,0,0,0.0001478
8100000000,8400000000,4346898072,0,82789744,0.0006266,0.001497,0.005814,0.0002766,0.0005398,0.001766,9.537e-07,2.861e-06,0.06799,7.153e-05,2.699,0.007994,0,0,0.0001545
8400000000,8700000000,4346898072,0,82789744,0.0005102,0.001492,0.005814,0.0002766,0.0005398,0.001755,1.907e-06,2.861e-06,0.06726,7.153e-05,2.669,0.007822,0,0,0.0001802
8700000000,9000000000,4346898072,0,82789744,0.0006218,0.001484,0.005814,0.0002775,0.0005398,0.001743,9.537e-07,2.861e-06,0.0697,7.153e-05,2.647,0.007559,0,0,0.0006104
9000000000,9300000000,4346898072,0,82789744,0.0004959,0.001492,0.005814,0.0002775,0.0005407,0.001749,9.537e-07,2.861e-06,0.06372,7.153e-05,2.615,0.007564,0,0,5.436e-05
9300000000,9600000000,4346898072,0,82789744,0.0006247,0.00148,0.005814,0.0002775,0.0005407,0.001741,1.907e-06,2.861e-06,0.06519,7.153e-05,2.582,0.007467,0,0,8.202e-05
9600000000,9900000000,4346898072,0,82789744,0.0005188,0.001488,0.005814,0.0002785,0.0005407,0.00173,9.537e-07,2.861e-06,0.07104,7.153e-05,2.835,0.008618,0,0,7.057e-05
9900000000,10200000000,4346898072,0,82789744,0.0006599,0.001482,0.005814,0.0002785,0.0005417,0.001745,9.537e-07,2.861e-06,0.06287,7.153e-05,2.965,0.0094,0,0,0.0001764
10200000000,10500000000,4346898072,0,82789744,0.0005016,0.001472,0.005814,0.0002794,0.0005417,0.001741,9.537e-07,2.861e-06,0.06287,7.153e-05,2.803,0.008545,0,0,8.774e-05
10500000000,10800000000,4346898072,0,82789744,0.0006304,0.001476,0.005814,0.0002794,0.0005426,0.001736,1.907e-06,2.861e-06,0.06592,7.153e-05,2.65,0.007643,0,0,0.0001926
10800000000,11100000000,4346898072,0,82789744,0.000494,0.001484,0.005814,0.0002794,0.0005426,0.001745,9.537e-07,2.861e-06,0.06689,7.153e-05,2.686,0.007813,0,0,0.0002441
11100000000,11400000000,4346898072,0,82789744,0.0006285,0.001488,0.005814,0.0002794,0.0005426,0.001741,9.537e-07,2.861e-06,0.06763,7.153e-05,2.621,0.007598,0,0,0.0006084
11400000000,11700000000,4346898072,0,82789744,0.0004911,0.001493,0.005814,0.0002804,0.0005426,0.001734,1.907e-06,2.861e-06,0.06348,0.0002861,2.655,0.0077,0,0,0.0003166
11700000000,12000000000,4346898072,0,82789744,0.0006161,0.001488,0.005814,0.0002804,0.0005436,0.001757,9.537e-07,2.861e-06,0.06567,7.153e-05,2.55,0.007276,0,0,5.913e-05
12000000000,12300000000,4346898072,0,82789744,0.0004845,0.001493,0.005814,0.0002804,0.0005436,0.001736,9.537e-07,2.861e-06,0.06372,7.153e-05,2.54,0.007285,0,0,0.000102
12300000000,12600000000,4346898072,0,82789744,0.0006371,0.001486,0.005814,0.0002813,0.0005436,0.001753,9.537e-07,2.861e-06,0.06262,7.153e-05,2.649,0.007681,0,0,4.959e-05
12600000000,12900000000,4346898072,0,82789744,0.0004997,0.001499,0.005814,0.0002813,0.0005445,0.001736,9.537e-07,2.861e-06,0.06274,7.153e-05,2.627,0.00754,0,0,9.06e-05
12900000000,13200000000,4346898072,0,82789744,0.0006275,0.001493,0.005814,0.0002813,0.0005445,0.001755,9.537e-07,2.861e-06,0.06287,7.153e-05,2.558,0.007328,0,0,0.0002136
13200000000,13500000000,4346898072,0,82789744,0.0004902,0.001497,0.005814,0.0002823,0.0005445,0.001764,9.537e-07,2.861e-06,0.06335,7.153e-05,2.575,0.00733,0,0,0.000618
13500000000,13800000000,4346898072,0,82789744,0.0006332,0.00148,0.005814,0.0002823,0.0005455,0.001751,9.537e-07,2.861e-06,0.05872,7.153e-05,2.558,0.007225,0,0,0.0005426
13800000000,14100000000,4346898072,0,82789744,0.0004854,0.001495,0.005814,0.0002823,0.0005455,0.001762,3.815e-06,2.861e-06,0.04065,0.0007858,2.536,0.007275,0,0,0.000598
14100000000,14400000000,4346898072,0,82789744,0.000617,0.001501,0.005814,0.0002823,0.0005455,0.001762,3.815e-06,2.861e-06,0.04071,0.0008574,2.568,0.007397,0,0,6.104e-05
14400000000,14700000000,4346898072,0,82789744,0.0004997,0.001492,0.005814,0.0002832,0.0005455,0.001745,9.537e-07,2.861e-06,0.04352,7.153e-05,2.536,0.007223,0,0,3.624e-05
14700000000,15000000000,4346898072,0,82789744,0.0006151,0.001501,0.005814,0.0002832,0.0005465,0.001745,9.537e-07,2.861e-06,0.04041,7.153e-05,2.507,0.007037,0,0,5.341e-05
15000000000,15300000000,4346898072,0,82789744,0.0004892,0.001484,0.005814,0.0002832,0.0005465,0.001722,1.907e-06,2.861e-06,0.04071,7.153e-05,2.557,0.007321,0,0,4.387e-05
15300000000,15600000000,4346898072,0,82789744,0.0006227,0.001492,0.005814,0.0002842,0.0005465,0.001736,1.907e-06,2.861e-06,0.04144,0.0001431,2.537,0.007321,0,0,7.725e-05
15600000000,15900000000,4346898072,0,82789744,0.000493,0.001509,0.005814,0.0002842,0.0005474,0.001753,2.861e-06,2.861e-06,0.04102,0.0002861,2.547,0.007372,0,0,0.0001621
15900000000,16200000000,4346898072,0,82789744,0.0006294,0.001509,0.005814,0.0002842,0.0005474,0.001741,2.861e-06,2.861e-06,0.04156,0.0003567,2.575,0.007462,0,0,0.0001793
16200000000,16500000000,4346898072,0,82789744,0.0004997,0.001492,0.005814,0.0002851,0.0005474,0.001732,9.537e-07,2.861e-06,0.04132,7.153e-05,2.592,0.00734,0,0,9.537e-05
16500000000,16800000000,4346898072,0,82789744,0.0006695,0.001505,0.005814,0.0002851,0.0005484,0.001757,2.861e-06,2.861e-06,0.04218,0.0004997,2.946,0.009175,0,0,0.0003977
16800000000,17100000000,4346898072,0,82789744,0.0005484,0.001484,0.005814,0.0002861,0.0005493,0.001732,9.537e-07,2.861e-06,0.04187,7.153e-05,3.142,0.0102,0,0,0.000617
17100000000,17400000000,4346898072,0,82789744,0.0006428,0.00148,0.005814,0.0002861,0.0005493,0.001732,9.537e-07,2.861e-06,0.05133,7.153e-05,2.933,0.009129,0,0,0.0005522
17400000000,17700000000,4346898072,0,82789744,0.0005074,0.001492,0.005814,0.0002861,0.0005493,0.001749,9.537e-07,2.861e-06,0.06311,7.153e-05,2.778,0.008324,0,0,8.965e-05
17700000000,18000000000,4346898072,0,82789744,0.0006466,0.001493,0.005814,0.0002871,0.0005503,0.001753,1.907e-06,2.861e-06,0.0686,7.153e-05,2.751,0.008294,0,0,8.488e-05
18000000000,18300000000,4346898072,0,82789744,0.0005217,0.001497,0.005814,0.0002871,0.0005503,0.001741,9.537e-07,2.861e-06,0.06311,7.153e-05,2.925,0.00909,0,0,0.0001202
18300000000,18600000000,4346898072,0,82789744,0.0006475,0.00149,0.005814,0.000288,0.0005503,0.001743,9.537e-07,2.861e-06,0.06348,7.153e-05,2.878,0.008761,0,0,0.0001659
18600000000,18900000000,4346898072,0,82789744,0.0005007,0.001497,0.005814,0.000288,0.0005512,0.001736,9.537e-07,2.861e-06,0.06274,7.153e-05,2.742,0.008182,0,0,0.0001869
18900000000,19200000000,4346898072,0,82789744,0.0006304,0.001497,0.005814,0.000288,0.0005512,0.001736,9.537e-07,2.861e-06,0.06311,7.153e-05,2.678,0.008093,0,0,0.0002089
19200000000,19500000000,4346898072,0,82789744,0.0005045,0.001495,0.005814,0.000289,0.0005512,0.001743,9.537e-07,2.861e-06,0.06335,7.153e-05,2.677,0.008018,0,0,0.0001688
19500000000,19800000000,4346898072,0,82789744,0.0006256,0.001493,0.005814,0.000289,0.0005522,0.001745,9.537e-07,2.861e-06,0.06335,7.153e-05,2.587,0.007659,0,0,0.0001669
19800000000,20100000000,4346898072,0,82789744,0.0005026,0.001505,0.005814,0.000289,0.0005522,0.001755,9.537e-07,2.861e-06,0.05859,7.153e-05,2.638,0.007897,0,0,0.0002794
20100000000,20400000000,4346898072,0,82789744,0.0006285,0.001509,0.005814,0.0002899,0.0005522,0.00177,5.722e-06,2.861e-06,0.06079,0.001358,2.737,0.0084,0,0,0.0004396
20400000000,20700000000,4346898072,0,82789744,0.0005064,0.001503,0.005814,0.0002899,0.0005531,0.001776,1.907e-06,2.861e-06,0.0611,0.0001431,2.693,0.008215,0,0,9.155e-05
20700000000,21000000000,4346898072,0,82789744,0.0006266,0.001511,0.005814,0.0002899,0.0005531,0.001764,1.907e-06,2.861e-06,0.05585,7.153e-05,2.563,0.007451,0,0,0.0001087
21000000000,21300000000,4346898072,0,82789744,0.0004969,0.001513,0.005814,0.0002899,0.0005531,0.001764,1.907e-06,2.861e-06,0.05121,7.153e-05,2.617,0.00749,0,0,0.0001106
21300000000,21600000000,4346898072,0,82789744,0.0006285,0.001503,0.005814,0.0002909,0.0005541,0.001776,9.537e-07,2.861e-06,0.06274,7.153e-05,2.621,0.007665,0,0,8.297e-05
21600000000,21900000000,4346898072,0,82789744,0.0005178,0.001514,0.005814,0.0002909,0.0005541,0.001766,1.907e-06,2.861e-06,0.04315,7.153e-05,2.758,0.008415,0,0,0.0001011
21900000000,22200000000,4346898072,0,82789744,0.0006447,0.00152,0.005814,0.0002918,0.000555,0.001789,1.907e-06,2.861e-06,0.05835,0.0002146,2.787,0.008709,0,0,0.0001125
22200000000,22500000000,4346898072,0,82789744,0.0005217,0.001509,0.005814,0.0002909,0.0005541,0.001762,1.907e-06,2.861e-06,0.06,7.153e-05,2.841,0.008582,0,0,0.0001554
22500000000,22800000000,4346898072,0,82789744,0.0006266,0.001505,0.005814,0.0002871,0.0005503,0.00176,9.537e-07,2.861e-06,0.06274,7.153e-05,2.608,0.007574,0,0,0.0003767
22800000000,23100000000,4346898072,0,82789744,0.0004988,0.001509,0.005814,0.000288,0.0005503,0.001776,1.907e-06,2.861e-06,0.04059,7.153e-05,2.674,0.007576,0,0,0.0001965
23100000000,23400000000,4346898072,0,82789744,0.0006227,0.001516,0.005814,0.000288,0.0005512,0.00177,9.537e-07,2.861e-06,0.04077,0.0002146,2.606,0.007616,0,0,0.0001707
23400000000,23700000000,4346898072,0,82789744,0.0004969,0.001507,0.005814,0.000289,0.0005512,0.001768,9.537e-07,2.861e-06,0.04004,7.153e-05,2.705,0.008324,0,0,0.0002384
23700000000,24000000000,4346898072,0,82789744,0.0006227,0.001505,0.005814,0.000289,0.0005522,0.001776,9.537e-07,2.861e-06,0.03992,7.153e-05,2.548,0.007435,0,0,0.0002995
24000000000,24300000000,4346898072,0,82789744,0.0004826,0.001503,0.005814,0.000289,0.0005522,0.001772,1.907e-06,2.861e-06,0.0401,0.0001431,2.595,0.007534,0,0,0.0006237
24300000000,24600000000,4346898072,0,82789744,0.0006084,0.001497,0.005814,0.000289,0.0005522,0.001776,9.537e-07,2.861e-06,0.04034,7.153e-05,2.52,0.007113,0,0,3.719e-05
24600000000,24900000000,4346898072,0,82789744,0.000495,0.001513,0.005814,0.0002899,0.0005531,0.001783,1.907e-06,2.861e-06,0.04065,7.153e-05,2.547,0.007264,0,0,5.817e-05
24900000000,25200000000,4346898072,0,82789744,0.0006485,0.001509,0.005814,0.0002899,0.0005531,0.001764,9.537e-07,2.861e-06,0.05841,7.153e-05,2.653,0.00786,0,0,0.0002937
25200000000,25500000000,4346898072,0,82789744,0.0005016,0.001497,0.005814,0.0002899,0.0005531,0.001757,1.907e-06,2.861e-06,0.04022,7.153e-05,2.628,0.007756,0,0,0.0001087
25500000000,25800000000,4346898072,0,82789744,0.0006313,0.001509,0.005814,0.000289,0.0005522,0.001778,9.537e-07,2.861e-06,0.04059,7.153e-05,2.705,0.008197,0,0,7.534e-05
25800000000,26100000000,4346898072,0,82789744,0.0004902,0.001493,0.005814,0.000289,0.0005522,0.001745,9.537e-07,2.861e-06,0.03937,7.153e-05,2.606,0.007752,0,0,0.0001135
26100000000,26400000000,4346898072,0,82789744,0.0006113,0.001501,0.005814,0.0002899,0.0005531,0.001755,9.537e-07,2.861e-06,0.0376,7.153e-05,2.468,0.007008,0,0,0.000371
26400000000,26700000000,4346898072,0,82789744,0.000495,0.001492,0.005814,0.0002899,0.0005531,0.001749,2.861e-06,2.861e-06,0.04022,0.0004997,2.555,0.007283,0,0,0.0004044
26700000000,27000000000,4346898072,0,82789744,0.000618,0.001492,0.005814,0.000289,0.0005522,0.001755,9.537e-07,2.861e-06,0.06848,7.153e-05,2.575,0.007583,0,0,0.0002251
27000000000,27300000000,4346898072,0,82789744,0.0004845,0.001482,0.005814,0.000289,0.0005512,0.001734,9.537e-07,2.861e-06,0.07068,7.153e-05,2.609,0.007627,0,0,0.0007095
27300000000,27600000000,4346898072,0,82789744,0.0006199,0.001495,0.005814,0.000289,0.0005522,0.001759,3.815e-06,2.861e-06,0.06616,0.0007858,2.601,0.007522,0,0,0.0002394
27600000000,27900000000,4346898072,0,82789744,0.0005245,0.001488,0.005814,0.0002899,0.0005522,0.001705,9.537e-07,2.861e-06,0.06183,7.153e-05,2.871,0.008739,0,0,0.0007067
27900000000,28200000000,4346898072,0,82789744,0.0006342,0.001467,0.005814,0.0002899,0.0005531,0.001703,9.537e-07,2.861e-06,0.06116,7.153e-05,2.939,0.009242,0,0,6.104e-05
28200000000,28500000000,4346898072,0,82789744,0.0005159,0.001488,0.005814,0.0002909,0.0005531,0.001738,9.537e-07,2.861e-06,0.06189,7.153e-05,2.857,0.008854,0,0,4.292e-05
28500000000,28800000000,4346898072,0,82789744,0.0006371,0.001471,0.005814,0.0002909,0.0005541,0.001711,1.907e-06,2.861e-06,0.06244,0.0002146,2.79,0.008537,0,0,0.0001411
28800000000,29100000000,4346898072,0,82789744,0.000514,0.001505,0.005814,0.0002918,0.0005541,0.001753,9.537e-07,2.861e-06,0.05933,7.153e-05,2.858,0.008727,0,0,0.0001478
29100000000,29400000000,4346898072,0,82789744,0.0006437,0.001497,0.005814,0.0002918,0.000555,0.001745,9.537e-07,2.861e-06,0.06091,7.153e-05,2.813,0.008455,0,0,9.441e-05
29400000000,29700000000,4346898072,0,82789744,0.0005255,0.00149,0.005814,0.0002918,0.000555,0.001728,1.907e-06,2.861e-06,0.06653,0.0002861,2.901,0.00911,0,0,0.0001583
29700000000,30000000000,4346898072,0,82789744,0.0006495,0.001476,0.005814,0.0002928,0.000555,0.001709,9.537e-07,2.861e-06,0.05951,7.153e-05,2.845,0.008594,0,0,7.439e-05
30000000000,30300000000,4346898072,0,82789744,0.0005016,0.001465,0.005814,0.0002928,0.000556,0.001692,1.907e-06,2.861e-06,0.06018,0.0002146,2.804,0.008318,0,0,0.0001841
30300000000,30600000000,4346898072,0,82789744,0.0006351,0.001461,0.005814,0.0002928,0.000556,0.001694,9.537e-07,2.861e-06,0.06091,7.153e-05,2.761,0.00822,0,0,0.0002232
30600000000,30900000000,4346898072,0,82789744,0.0005045,0.00145,0.005814,0.0002937,0.000556,0.001688,9.537e-07,2.861e-06,0.06226,7.153e-05,2.669,0.007847,0,0,0.000186
30900000000,31200000000,4346898072,0,82789744,0.0006523,0.001463,0.005814,0.0002937,0.0005569,0.001698,4.768e-06,2.861e-06,0.0647,0.001143,2.937,0.008781,0,0,0.0001936
31200000000,31500000000,4346898072,0,82789744,0.0005198,0.001446,0.005814,0.0002947,0.0005569,0.00168,1.907e-06,2.861e-06,0.0636,7.153e-05,2.89,0.008766,0,0,0.0007343
31500000000,31800000000,4346898072,0,82789744,0.0006495,0.001444,0.005814,0.0002947,0.0005579,0.001678,9.537e-07,2.861e-06,0.06348,7.153e-05,2.771,0.008044,0,0,0.0006342
31800000000,32100000000,4346898072,0,82789744,0.0005312,0.001442,0.005814,0.0002947,0.0005579,0.001678,9.537e-07,2.861e-06,0.0506,7.153e-05,2.923,0.009017,0,0,7.343e-05
32100000000,32400000000,4346898072,0,82789744,0.0006523,0.001457,0.005814,0.0002956,0.0005589,0.001688,9.537e-07,2.861e-06,0.0625,7.153e-05,3.065,0.009712,0,0,5.817e-05
32400000000,32700000000,4346898072,0,82789744,0.0005093,0.001455,0.005814,0.0002956,0.0005589,0.001677,9.537e-07,2.861e-06,0.06274,7.153e-05,2.839,0.00874,0,0,9.823e-05
32700000000,33000000000,4346898072,0,82789744,0.0006704,0.001459,0.005814,0.0002966,0.0005598,0.001701,9.537e-07,2.861e-06,0.06146,7.153e-05,3.152,0.009995,0,0,0.0001993
33000000000,33300000000,4346898072,0,82789744,0.0005293,0.00145,0.005814,0.0002975,0.0005598,0.001699,9.537e-07,2.861e-06,0.04199,7.153e-05,3.16,0.01023,0,0,0.0005808
33300000000,33600000000,4346898072,0,82789744,0.0006638,0.001446,0.005814,0.0002975,0.0005608,0.001682,9.537e-07,2.861e-06,0.04456,7.153e-05,3.08,0.009754,0,0,0.0003691
33600000000,33900000000,4346898072,0,82789744,0.0005045,0.001459,0.005814,0.0002975,0.0005608,0.001703,1.907e-06,2.861e-06,0.04187,7.153e-05,2.871,0.008814,0,0,0.000555
33900000000,34200000000,4346898072,0,82789744,0.0006342,0.001459,0.005814,0.0002985,0.0005608,0.001696,9.537e-07,2.861e-06,0.04126,7.153e-05,2.784,0.008357,0,0,9.155e-05
34200000000,34500000000,4346898072,0,82789744,0.0005035,0.001446,0.005814,0.0002985,0.0005617,0.001703,1.907e-06,2.861e-06,0.0434,7.153e-05,2.758,0.008143,0,0,6.485e-05
34500000000,34800000000,4346898072,0,82789744,0.0006285,0.001446,0.005814,0.0002985,0.0005617,0.00168,9.537e-07,2.861e-06,0.04108,7.153e-05,2.633,0.007664,0,0,6.676e-05
34800000000,35100000000,4346898072,0,82789744,0.0004921,0.001442,0.005814,0.0002995,0.0005617,0.001663,9.537e-07,2.861e-06,0.03998,7.153e-05,2.638,0.007593,0,0,5.054e-05
35100000000,35400000000,4346898072,0,82789744,0.0006323,0.00145,0.005814,0.0002995,0.0005627,0.001678,9.537e-07,2.861e-06,0.05029,7.153e-05,2.712,0.007984,0,0,0.0001287
35400000000,35700000000,4346898072,0,82789744,0.0005064,0.001446,0.005814,0.0002995,0.0005627,0.001671,9.537e-07,2.861e-06,0.04095,7.153e-05,2.755,0.008195,0,0,0.0001135
35700000000,36000000000,4346898072,0,82789744,0.0006247,0.001448,0.005814,0.0003004,0.0005627,0.001677,9.537e-07,2.861e-06,0.04181,7.153e-05,2.642,0.007742,0,0,0.000144
36000000000,36300000000,4346898072,0,82789744,0.0004988,0.001457,0.005814,0.0003004,0.0005636,0.001677,9.537e-07,2.861e-06,0.03931,7.153e-05,2.564,0.007328,0,0,9.632e-05
36300000000,36600000000,4346898072,0,82789744,0.0006161,0.001472,0.005814,0.0003004,0.0005636,0.001688,1.907e-06,2.861e-06,0.05884,7.153e-05,2.629,0.007553,0,0,0.0002508
36600000000,36900000000,4346898072,0,82789744,0.0004892,0.001455,0.005814,0.0003014,0.0005636,0.001678,9.537e-07,2.861e-06,0.0611,7.153e-05,2.63,0.00761,0,0,0.0002193
36900000000,37200000000,4346898072,0,82789744,0.0006285,0.001459,0.005814,0.0003014,0.0005646,0.001673,9.537e-07,2.861e-06,0.06067,7.153e-05,2.655,0.007548,0,0,0.0002623
37200000000,37500000000,4346898072,0,82789744,0.0004864,0.001461,0.005814,0.0003014,0.0005646,0.001688,9.537e-07,2.861e-06,0.07153,7.153e-05,2.625,0.007644,0,0,0.0006037
37500000000,37800000000,4346898072,0,82789744,0.0006218,0.001467,0.005814,0.0003023,0.0005655,0.001696,9.537e-07,2.861e-06,0.05933,7.153e-05,2.653,0.007543,0,0,0.0005894
37800000000,38100000000,4346898072,0,82789744,0.0004787,0.00144,0.005814,0.0003023,0.0005655,0.001665,9.537e-07,2.861e-06,0.04596,7.153e-05,2.546,0.007334,0,0,0.0005779
38100000000,38400000000,4346898072,0,82789744,0.0006027,0.001434,0.005814,0.0003023,0.0005655,0.001667,9.537e-07,2.861e-06,0.05621,7.153e-05,2.574,0.007495,0,0,6.485e-05
38400000000,38700000000,4346898072,0,82789744,0.0005045,0.001442,0.005814,0.0003033,0.0005655,0.001678,9.537e-07,2.861e-06,0.06146,7.153e-05,2.56,0.00722,0,0,4.768e-05
38700000000,39000000000,4346898072,0,82789744,0.0006828,0.001457,0.005814,0.0003033,0.0005665,0.00168,9.537e-07,2.861e-06,0.05109,0.0001431,2.73,0.007817,0,0,4.005e-05
39000000000,39300000000,4346898072,0,82789744,0.0005388,0.001461,0.005814,0.0003042,0.0005665,0.001678,9.537e-07,2.861e-06,0.04822,7.153e-05,2.916,0.008723,0,0,5.436e-05
39300000000,39600000000,4346898072,0,82789744,0.0006838,0.001453,0.005814,0.0003042,0.0005674,0.001699,9.537e-07,2.861e-06,0.05292,7.153e-05,3.041,0.009166,0,0,0.0001688
39600000000,39900000000,4346898072,0,82789744,0.0005388,0.001455,0.005814,0.0002966,0.0005598,0.001677,9.537e-07,2.861e-06,0.04926,7.153e-05,3.033,0.009552,0,0,0.000104
39900000000,40200000000,4346898072,0,82789744,0.0006504,0.001465,0.005814,0.0002918,0.000555,0.001699,9.537e-07,2.861e-06,0.06262,7.153e-05,2.946,0.009177,0,0,8.869e-05
40200000000,40500000000,4346898072,0,82789744,0.0005131,0.001451,0.005814,0.0002918,0.000555,0.001678,9.537e-07,2.861e-06,0.0614,7.153e-05,2.758,0.00826,0,0,0.0001755
40500000000,40800000000,4346898072,0,82789744,0.0006399,0.001469,0.005814,0.0002928,0.000556,0.001696,9.537e-07,2.861e-06,0.05273,7.153e-05,2.792,0.008538,0,0,0.0002127
51000000000,51300000000,4346898072,0,82789744,0.0005465,0.001453,0.005814,0.0002985,0.0005617,0.00169,9.537e-07,2.861e-06,0.03088,7.153e-05,3.144,0.01004,0,0,0.0001698
51300000000,51600000000,4346898072,0,82789744,0.0006704,0.001469,0.005814,0.0002995,0.0005617,0.001692,9.537e-07,2.861e-06,0.04242,7.153e-05,2.984,0.009343,0,0,0.0002794
51600000000,51900000000,4346898072,0,82789744,0.0005455,0.001472,0.005814,0.0002995,0.0005627,0.001715,1.907e-06,2.861e-06,0.05206,7.153e-05,3.074,0.009983,0,0,0.0001736
51900000000,52200000000,4346898072,0,82789744,0.0006933,0.001467,0.005814,0.0003004,0.0005627,0.001688,1.907e-06,2.861e-06,0.06006,7.153e-05,3.214,0.0104,0,0,0.05847
52200000000,52500000000,4346898072,0,82789744,0.0005302,0.001472,0.005814,0.0003004,0.0005636,0.001696,1.907e-06,2.861e-06,0.04065,7.153e-05,3.031,0.009632,0,0,0.000618
52500000000,52800000000,4346898072,0,82789744,0.000658,0.001453,0.005814,0.0003014,0.0005636,0.001696,9.537e-07,2.861e-06,0.05151,7.153e-05,2.962,0.009087,0,0,0.0001221
52800000000,53100000000,4346898072,0,82789744,0.000515,0.001438,0.005814,0.0003014,0.0005646,0.001657,1.907e-06,2.861e-06,0.04041,7.153e-05,2.984,0.009281,0,0,6.39e-05
53100000000,53400000000,4346898072,0,82789744,0.0006599,0.00144,0.005814,0.0003014,0.0005646,0.001654,9.537e-07,2.861e-06,0.05627,7.153e-05,2.85,0.008616,0,0,8.297e-05
53400000000,53700000000,4346898072,0,82789744,0.0005388,0.001432,0.005814,0.0003023,0.0005655,0.001671,9.537e-07,2.861e-06,0.05273,7.153e-05,3.032,0.009532,0,0,0.0001755
53700000000,54000000000,4346898072,0,82789744,0.0006762,0.00144,0.005814,0.0003023,0.0005655,0.001673,9.537e-07,2.861e-06,0.06042,7.153e-05,2.992,0.009272,0,0,0.0001135
54000000000,54300000000,4346898072,0,82789744,0.0005398,0.00144,0.005814,0.0003033,0.0005655,0.001661,9.537e-07,2.861e-06,0.04797,7.153e-05,2.978,0.009183,0,0,0.0001297
54300000000,54600000000,4346898072,0,82789744,0.0006819,0.001459,0.005814,0.0003033,0.0005665,0.001705,9.537e-07,2.861e-06,0.04156,7.153e-05,3.078,0.009873,0,0,0.0006056
54600000000,54900000000,4346898072,0,82789744,0.0005388,0.001461,0.005814,0.0003042,0.0005665,0.001677,9.537e-07,2.861e-06,0.04779,7.153e-05,3.081,0.009902,0,0,7.439e-05
54900000000,55200000000,4346898072,0,82789744,0.0006599,0.001471,0.005814,0.0003042,0.0005674,0.001696,9.537e-07,2.861e-06,0.047,7.153e-05,3.068,0.009848,0,0,5.341e-05
55200000000,55500000000,4346898072,0,82789744,0.0005264,0.001465,0.005814,0.0003042,0.0005674,0.001686,9.537e-07,2.861e-06,0.05829,7.153e-05,3.03,0.009654,0,0,0.0002203
55500000000,55800000000,4346898072,0,82789744,0.000679,0.001472,0.005814,0.0003052,0.0005684,0.001705,9.537e-07,2.861e-06,0.06018,7.153e-05,3.001,0.009468,0,0,0.0001554
55800000000,56100000000,4346898072,0,82789744,0.0005331,0.001467,0.005814,0.0003052,0.0005684,0.001711,9.537e-07,2.861e-06,0.06073,7.153e-05,3.006,0.009431,0,0,0.0001411
56100000000,56400000000,4346898072,0,82789744,0.0006561,0.001472,0.005814,0.0003061,0.0005684,0.001701,9.537e-07,2.861e-06,0.05054,0.0001431,2.906,0.009026,0,0,0.0001974
56400000000,56700000000,4346898072,0,82789744,0.000515,0.00145,0.005814,0.0003061,0.0005693,0.001671,9.537e-07,2.861e-06,0.04688,7.153e-05,2.957,0.009427,0,0,0.0003738
56700000000,57000000000,4346898072,0,82789744,0.0006466,0.001457,0.005814,0.0003061,0.0005693,0.001696,9.537e-07,2.861e-06,0.04816,7.153e-05,2.851,0.008786,0,0,0.0006046
57000000000,57300000000,4346898072,0,82789744,0.0005255,0.001453,0.005814,0.0003071,0.0005693,0.001692,1.907e-06,2.861e-06,0.05499,7.153e-05,2.989,0.009476,0,0,0.0002098
57300000000,57600000000,4346898072,0,82789744,0.0006514,0.001461,0.005814,0.0003071,0.0005703,0.001678,9.537e-07,2.861e-06,0.05042,7.153e-05,2.928,0.009151,0,0,5.817e-05
57600000000,57900000000,4346898072,0,82789744,0.0005178,0.001461,0.005814,0.0003071,0.0005703,0.001678,1.907e-06,2.861e-06,0.05212,7.153e-05,2.917,0.009173,0,0,6.58e-05
57900000000,58200000000,4346898072,0,82789744,0.0006618,0.001465,0.005814,0.000308,0.0005713,0.001678,9.537e-07,2.861e-06,0.04321,7.153e-05,3.132,0.009929,0,0,0.0002251
58200000000,58500000000,4346898072,0,82789744,0.0005331,0.001465,0.005814,0.000308,0.0005713,0.001694,3.815e-06,2.861e-06,0.02991,0.0007143,2.944,0.009194,0,0,0.0001926
58500000000,58800000000,4346898072,0,82789744,0.0006609,0.001469,0.005814,0.000309,0.0005713,0.00169,9.537e-07,2.861e-06,0.04602,7.153e-05,2.9,0.008981,0,0,0.0005436
58800000000,59100000000,4346898072,0,82789744,0.0005322,0.001455,0.005814,0.000309,0.0005722,0.001686,1.907e-06,2.861e-06,0.05591,7.153e-05,3.151,0.01032,0,0,0.0005684
59100000000,59400000000,4346898072,0,82789744,0.0006666,0.001448,0.005814,0.000309,0.0005722,0.001692,9.537e-07,2.861e-06,0.04565,7.153e-05,3.077,0.009941,0,0,0.0005074
59400000000,59700000000,4346898072,0,82789744,0.0005169,0.001448,0.005814,0.0003099,0.0005722,0.001703,9.537e-07,2.861e-06,0.06311,7.153e-05,2.951,0.009208,0,0,5.15e-05
59700000000,60000000000,4346898072,0,82789744,0.0006599,0.001482,0.005814,0.0003099,0.0005732,0.001705,9.537e-07,2.861e-06,0.06158,7.153e-05,3.059,0.009883,0,0,8.965e-05
60000000000,60300000000,4346898072,0,82789744,0.0005178,0.001453,0.005814,0.0003099,0.0005732,0.001694,1.907e-06,2.861e-06,0.06348,7.153e-05,3.101,0.01013,0,0,0.0001211
60300000000,60600000000,4346898072,0,82789744,0.0006447,0.001459,0.005814,0.0003109,0.0005732,0.001686,9.537e-07,2.861e-06,0.05676,7.153e-05,2.922,0.009179,0,0,0.0005608
60600000000,60900000000,4346898072,0,82789744,0.0005131,0.001453,0.005814,0.0003109,0.0005741,0.001698,9.537e-07,2.861e-06,0.06079,7.153e-05,2.962,0.00917,0,0,0.0003166
70800000000,71100000000,4346898072,0,82789744,0.0005236,0.001484,0.005814,0.0003223,0.0005856,0.001703,9.537e-07,2.861e-06,0.04907,7.153e-05,3.034,0.00971,0,0,0.0001526
71100000000,71400000000,4346898072,0,82789744,0.0006657,0.001493,0.005814,0.0003233,0.0005856,0.001738,9.537e-07,2.861e-06,0.06134,7.153e-05,3.119,0.01018,0,0,0.0001736
71400000000,71700000000,4346898072,0,82789744,0.0005503,0.001486,0.005814,0.0003233,0.0005865,0.001745,9.537e-07,2.861e-06,0.04401,7.153e-05,3.45,0.01161,0,0,0.0001831
71700000000,72000000000,4346898072,0,82789744,0.0006752,0.001472,0.005814,0.0003242,0.0005865,0.001707,9.537e-07,2.861e-06,0.04297,7.153e-05,3.446,0.01124,0,0,0.0001154
72000000000,72300000000,4346898072,0,82789744,0.0005302,0.001457,0.005814,0.0003242,0.0005875,0.001694,9.537e-07,2.861e-06,0.04279,7.153e-05,3.139,0.00967,0,0,0.0001116
72300000000,72600000000,4346898072,0,82789744,0.0006886,0.001461,0.005814,0.0003242,0.0005875,0.001699,9.537e-07,2.861e-06,0.04456,7.153e-05,3.372,0.01109,0,0,0.000452
72600000000,72900000000,4346898072,0,82789744,0.0005283,0.001459,0.005814,0.0003252,0.0005875,0.001711,9.537e-07,2.861e-06,0.0423,7.153e-05,3.375,0.01091,0,0,9.918e-05
72900000000,73200000000,4346898072,0,82789744,0.0006561,0.001472,0.005814,0.0003252,0.0005884,0.001717,9.537e-07,2.861e-06,0.0434,7.153e-05,2.925,0.009096,0,0,5.913e-05
73200000000,73500000000,4346898072,0,82789744,0.0005131,0.001457,0.005814,0.0003252,0.0005884,0.001715,9.537e-07,2.861e-06,0.05157,7.153e-05,2.701,0.008178,0,0,0.0002165
73500000000,73800000000,4346898072,0,82789744,0.0006475,0.001474,0.005814,0.0003262,0.0005884,0.001715,9.537e-07,2.861e-06,0.05151,7.153e-05,2.969,0.009622,0,0,0.0006618
73800000000,74100000000,4346898072,0,82789744,0.0005283,0.001465,0.005814,0.0003262,0.0005894,0.001699,2.861e-06,2.861e-06,0.06311,0.0005713,2.996,0.009557,0,0,0.000308
74100000000,74400000000,4346898072,0,82789744,0.000658,0.001474,0.005814,0.0003262,0.0005894,0.001707,9.537e-07,2.861e-06,0.06134,7.153e-05,2.877,0.008924,0,0,0.0002766
74400000000,74700000000,4346898072,0,82789744,0.0005455,0.001474,0.005814,0.0003271,0.0005894,0.001703,1.907e-06,2.861e-06,0.06299,7.153e-05,3.059,0.009682,0,0,5.531e-05
74700000000,75000000000,4346898072,0,82789744,0.0006762,0.001488,0.005814,0.0003271,0.0005903,0.001711,1.907e-06,2.861e-06,0.06238,0.0002861,3.224,0.01023,0,0,0.0002956
75000000000,75300000000,4346898072,0,82789744,0.0005045,0.001486,0.005814,0.0003271,0.0005903,0.001711,9.537e-07,2.861e-06,0.05981,7.153e-05,3.472,0.01126,0,0,0.0001869
75300000000,75600000000,4346898072,0,82789744,0.0006514,0.00148,0.005814,0.0003281,0.0005903,0.001698,9.537e-07,2.861e-06,0.06042,7.153e-05,2.914,0.00886,0,0,0.0005951
75600000000,75900000000,4346898072,0,82789744,0.0005226,0.001469,0.005814,0.0003281,0.0005913,0.001711,2.861e-06,2.861e-06,0.0542,0.0005713,2.876,0.008745,0,0,0.0001297
75900000000,76200000000,4346898072,0,82789744,0.0006437,0.001478,0.005814,0.0003281,0.0005913,0.001732,9.537e-07,2.861e-06,0.06335,7.153e-05,2.895,0.008964,0,0,8.774e-05
76200000000,76500000000,4346898072,0,82789744,0.000495,0.001478,0.005814,0.000329,0.0005913,0.001713,2.861e-06,2.861e-06,0.06946,0.0004282,2.723,0.008131,0,0,0.0001106
76500000000,76800000000,4346898072,0,82789744,0.0006456,0.001495,0.005814,0.000329,0.0005922,0.001728,9.537e-07,2.861e-06,0.06146,7.153e-05,2.824,0.00877,0,0,0.000144
76800000000,77100000000,4346898072,0,82789744,0.0005178,0.001474,0.005814,0.000329,0.0005922,0.001699,9.537e-07,2.861e-06,0.04333,7.153e-05,2.893,0.009035,0,0,0.0001755
77100000000,77400000000,4346898072,0,82789744,0.0006437,0.00149,0.005814,0.00033,0.0005922,0.001703,9.537e-07,2.861e-06,0.0625,7.153e-05,2.799,0.008633,0,0,0.0005608
77400000000,77700000000,4346898072,0,82789744,0.0004978,0.001463,0.005814,0.00033,0.0005932,0.001677,1.907e-06,2.861e-06,0.02884,7.153e-05,2.783,0.008388,0,0,8.202e-05
77700000000,78000000000,4346898072,0,82789744,0.000638,0.001467,0.005814,0.00033,0.0005932,0.001692,3.815e-06,2.861e-06,0.05469,0.0007858,2.733,0.008161,0,0,5.722e-05
78000000000,78300000000,4346898072,0,82789744,0.0005074,0.001453,0.005814,0.00033,0.0005932,0.001671,9.537e-07,2.861e-06,0.04822,7.153e-05,2.871,0.008742,0,0,6.294e-05
78300000000,78600000000,4346898072,0,82789744,0.0006714,0.001472,0.005814,0.0003309,0.0005941,0.001678,9.537e-07,2.861e-06,0.03778,7.153e-05,2.908,0.008966,0,0,0.0002289
78600000000,78900000000,4346898072,0,82789744,0.0005188,0.001471,0.005814,0.0003309,0.0005941,0.001682,9.537e-07,2.861e-06,0.04156,7.153e-05,2.942,0.009217,0,0,0.0006256
78900000000,79200000000,4346898072,0,82789744,0.0006609,0.00149,0.005814,0.0003319,0.0005941,0.001734,4.768e-06,2.861e-06,0.05267,0.001072,2.969,0.009253,0,0,9.823e-05
79200000000,79500000000,4346898072,0,82789744,0.0005274,0.001469,0.005814,0.0003319,0.0005951,0.001705,1.907e-06,2.861e-06,0.06183,7.153e-05,2.861,0.008535,0,0,7.82e-05
79500000000,79800000000,4346898072,0,82789744,0.0006647,0.001465,0.005814,0.0003319,0.0005951,0.001698,9.537e-07,2.861e-06,0.0603,7.153e-05,2.818,0.008411,0,0,0.0001497
79800000000,80100000000,4346898072,0,82789744,0.0005522,0.001467,0.005814,0.0003328,0.000596,0.001684,1.907e-06,2.861e-06,0.06183,7.153e-05,3.253,0.01053,0,0,0.000658
80100000000,80400000000,4346898072,0,82789744,0.0006952,0.001465,0.005814,0.0003328,0.000596,0.001705,9.537e-07,2.861e-06,0.06274,7.153e-05,3.22,0.01042,0,0,0.0002041
80400000000,80700000000,4346898072,0,82789744,0.0005045,0.00145,0.005814,0.0003338,0.000596,0.001711,1.907e-06,2.861e-06,0.04266,7.153e-05,2.8,0.008456,0,0,9.632e-05
80700000000,81000000000,4346898072,0,82789744,0.0006437,0.001455,0.005814,0.0003338,0.000597,0.001703,1.907e-06,2.861e-06,0.04248,7.153e-05,2.715,0.007905,0,0,0.0002375
85800000000,86100000000,4346898072,0,82789744,0.0005312,0.001495,0.005814,0.0003376,0.0006008,0.001753,9.537e-07,2.861e-06,0.05792,7.153e-05,3.27,0.01097,0,0,0.0005112
86100000000,86400000000,4346898072,0,82789744,0.0006533,0.001501,0.005814,0.0003386,0.0006008,0.001749,1.907e-06,2.861e-06,0.05511,7.153e-05,3.236,0.01085,0,0,0.0001364
86400000000,86700000000,4346898072,0,82789744,0.0004921,0.001492,0.005814,0.0003386,0.0006018,0.001715,5.722e-06,2.861e-06,0.05096,0.001072,2.942,0.009259,0,0,0.0005836
86700000000,87000000000,4346898072,0,82789744,0.0006447,0.00149,0.005814,0.0003386,0.0006018,0.001715,9.537e-07,2.861e-06,0.06445,7.153e-05,2.908,0.008908,0,0,8.011e-05
87000000000,87300000000,4346898072,0,82789744,0.0005007,0.001486,0.005814,0.0003395,0.0006018,0.001713,1.907e-06,2.861e-06,0.06482,0.0001431,2.849,0.008721,0,0,0.0004482
87300000000,87600000000,4346898072,0,82789744,0.000638,0.001493,0.005814,0.0003395,0.0006027,0.001699,2.861e-06,2.861e-06,0.06677,0.0006428,3.031,0.009623,0,0,0.0001116
87600000000,87900000000,4346898072,0,82789744,0.0005083,0.001495,0.005814,0.0003395,0.0006027,0.001705,3.815e-06,2.861e-06,0.02435,0.0007143,3.048,0.00992,0,0,0.0001211
87900000000,88200000000,4346898072,0,82789744,0.0006495,0.001493,0.005814,0.0003405,0.0006027,0.001724,1.907e-06,2.861e-06,0.06097,0.0002861,3.005,0.009638,0,0,0.0001116
88200000000,88500000000,4346898072,0,82789744,0.0005054,0.001499,0.005814,0.0003405,0.0006037,0.001734,1.907e-06,2.861e-06,0.0611,7.153e-05,2.978,0.009537,0,0,5.531e-05
88500000000,88800000000,4346898072,0,82789744,0.000658,0.001503,0.005814,0.0003405,0.0006037,0.001736,3.815e-06,2.861e-06,0.0611,0.0008574,3.292,0.01104,0,0,0.0001183
88800000000,89100000000,4346898072,0,82789744,0.000535,0.001509,0.005814,0.0003414,0.0006037,0.001713,9.537e-07,2.861e-06,0.02704,7.153e-05,3.229,0.01081,0,0,0.0006332
89100000000,89400000000,4346898072,0,82789744,0.0006762,0.001492,0.005814,0.0003414,0.0006046,0.001713,9.537e-07,2.861e-06,0.05902,7.153e-05,3.277,0.01106,0,0,0.0001917
89400000000,89700000000,4346898072,0,82789744,0.0005255,0.001495,0.005814,0.0003414,0.0006046,0.001755,9.537e-07,2.861e-06,0.04266,7.153e-05,3.326,0.0113,0,0,0.0003033
89700000000,90000000000,4346898072,0,82789744,0.0006752,0.001501,0.005814,0.0003424,0.0006046,0.001743,9.537e-07,2.861e-06,0.04413,7.153e-05,3.277,0.01085,0,0,0.0001526
90000000000,90300000000,4346898072,0,82789744,0.0005045,0.001486,0.005814,0.0003424,0.0006056,0.001753,9.537e-07,2.861e-06,0.04218,7.153e-05,3.046,0.00978,0,0,0.0001163
90300000000,90600000000,4346898072,0,82789744,0.0006437,0.001499,0.005814,0.0003424,0.0006056,0.001747,9.537e-07,2.861e-06,0.04285,7.153e-05,3.033,0.009788,0,0,4.864e-05
90600000000,90900000000,4346898072,0,82789744,0.0005198,0.00149,0.005814,0.0003433,0.0006056,0.001747,9.537e-07,2.861e-06,0.04358,7.153e-05,3.128,0.009988,0,0,0.0001354
101100000000,101400000000,4346898072,0,82789744,0.0006647,0.001493,0.005814,0.0003557,0.0006189,0.001724,3.815e-06,2.861e-06,0.04254,0.0004282,3.134,0.01032,0,0,6.485e-05
101400000000,101700000000,4346898072,0,82789744,0.0005121,0.001469,0.005814,0.0003567,0.0006189,0.001717,4.768e-06,2.861e-06,0.0434,0.0008574,3.031,0.009756,0,0,0.0002451
101700000000,102000000000,4346898072,0,82789744,0.0006571,0.001474,0.005814,0.0003567,0.0006199,0.001726,9.537e-07,2.861e-06,0.05518,7.153e-05,2.939,0.009231,0,0,0.0002031
102000000000,102300000000,4346898072,0,82789744,0.000536,0.001476,0.005814,0.0003548,0.000618,0.00172,1.907e-06,2.861e-06,0.06042,0.0001431,3.164,0.01048,0,0,0.0001602
102300000000,102600000000,4346898072,0,82789744,0.0006685,0.001492,0.005814,0.0003538,0.000617,0.001734,9.537e-07,2.861e-06,0.06018,7.153e-05,3.077,0.009979,0,0,6.58e-05
102600000000,102900000000,4346898072,0,82789744,0.0005369,0.00148,0.005814,0.0003538,0.000617,0.001713,9.537e-07,2.861e-06,0.06653,7.153e-05,2.941,0.009151,0,0,0.0001202
102900000000,103200000000,4346898072,0,82789744,0.000659,0.001474,0.005814,0.0003548,0.000617,0.001711,9.537e-07,2.861e-06,0.06628,7.153e-05,3.024,0.009731,0,0,0.000144
103200000000,103500000000,4346898072,0,82789744,0.0004978,0.001463,0.005814,0.0003548,0.000618,0.001709,1.907e-06,2.861e-06,0.06232,7.153e-05,2.775,0.008382,0,0,0.0002584
103500000000,103800000000,4346898072,0,82789744,0.000658,0.001478,0.005814,0.0003557,0.000618,0.001724,9.537e-07,2.861e-06,0.05774,7.153e-05,2.971,0.009313,0,0,0.0005989
103800000000,104100000000,4346898072,0,82789744,0.0005283,0.001474,0.005814,0.0003557,0.0006189,0.001694,1.907e-06,2.861e-06,0.06958,7.153e-05,3.136,0.01005,0,0,0.000658
104100000000,104400000000,4346898072,0,82789744,0.0006609,0.001486,0.005814,0.0003557,0.0006189,0.001707,1.907e-06,2.861e-06,0.05304,7.153e-05,3.008,0.009555,0,0,0.0007296
104400000000,104700000000,4346898072,0,82789744,0.0005226,0.001476,0.005814,0.0003567,0.0006189,0.001711,1.907e-06,2.861e-06,0.06592,7.153e-05,2.987,0.009615,0,0,0.0001402
104700000000,105000000000,4346898072,0,82789744,0.0006504,0.00149,0.005814,0.0003567,0.0006199,0.001703,9.537e-07,2.861e-06,0.06665,7.153e-05,2.988,0.009588,0,0,6.39e-05
105000000000,105300000000,4346898072,0,82789744,0.0005207,0.001476,0.005814,0.0003576,0.0006199,0.001684,9.537e-07,2.861e-06,0.06592,7.153e-05,3.011,0.009756,0,0,9.727e-05
105300000000,105600000000,4346898072,0,82789744,0.0006771,0.001492,0.005814,0.0003576,0.0006208,0.001713,9.537e-07,2.861e-06,0.06372,7.153e-05,3.169,0.0106,0,0,0.0001249
105600000000,105900000000,4346898072,0,82789744,0.0005426,0.001493,0.005814,0.0003586,0.0006208,0.001705,1.907e-06,2.861e-06,0.05048,7.153e-05,3.165,0.01058,0,0,0.0002031
105900000000,106200000000,4346898072,0,82789744,0.0006666,0.001488,0.005814,0.0003586,0.0006218,0.001701,9.537e-07,2.861e-06,0.05011,7.153e-05,3.033,0.009909,0,0,0.0005884
106200000000,106500000000,4346898072,0,82789744,0.0005188,0.001476,0.005814,0.0003586,0.0006218,0.001709,9.537e-07,2.861e-06,0.05975,7.153e-05,2.913,0.009125,0,0,0.0005083
106500000000,106800000000,4346898072,0,82789744,0.0006409,0.001484,0.005814,0.0003595,0.0006218,0.001707,9.537e-07,2.861e-06,0.0636,7.153e-05,2.816,0.008611,0,0,0.0005932
106800000000,107100000000,4346898072,0,82789744,0.0005255,0.00148,0.005814,0.0003595,0.0006227,0.001713,9.537e-07,2.861e-06,0.06097,7.153e-05,2.906,0.008928,0,0,0.0006275
107100000000,107400000000,4346898072,0,82789744,0.0006685,0.001488,0.005814,0.0003595,0.0006227,0.001713,9.537e-07,2.861e-06,0.06299,7.153e-05,2.906,0.00901,0,0,0.0005312
107400000000,107700000000,4346898072,0,82789744,0.0005455,0.00148,0.005814,0.0003605,0.0006237,0.001701,9.537e-07,2.861e-06,0.03998,7.153e-05,3.148,0.01036,0,0,6.104e-05
107700000000,108000000000,4346898072,0,82789744,0.0006895,0.001497,0.005814,0.0003614,0.0006237,0.001713,9.537e-07,2.861e-06,0.06244,7.153e-05,3.227,0.01059,0,0,0.0002174
108000000000,108300000000,4346898072,0,82789744,0.0005379,0.001486,0.005814,0.0003614,0.0006247,0.00173,1.907e-06,2.861e-06,0.06311,7.153e-05,3.132,0.0101,0,0,0.0001125
108300000000,108600000000,4346898072,0,82789744,0.0006628,0.001499,0.005814,0.0003614,0.0006247,0.001738,9.537e-07,2.861e-06,0.0412,7.153e-05,2.983,0.009656,0,0,0.0004244
108600000000,108900000000,4346898072,0,82789744,0.0005331,0.001492,0.005814,0.0003624,0.0006256,0.001736,1.907e-06,2.861e-06,0.06061,0.0001431,3.07,0.01015,0,0,0.0001802
108900000000,109200000000,4346898072,0,82789744,0.0006523,0.001499,0.005814,0.0003624,0.0006256,0.001734,9.537e-07,2.861e-06,0.06165,7.153e-05,2.998,0.009849,0,0,0.0002213
109200000000,109500000000,4346898072,0,82789744,0.0005302,0.001505,0.005814,0.0003633,0.0006256,0.00174,9.537e-07,2.861e-06,0.04315,7.153e-05,2.95,0.009429,0,0,0.0001879
109500000000,109800000000,4346898072,0,82789744,0.0006638,0.001514,0.005814,0.0003633,0.0006266,0.001745,9.537e-07,2.861e-06,0.04291,7.153e-05,2.986,0.009401,0,0,0.0005112
109800000000,110100000000,4346898072,0,82789744,0.0005207,0.001492,0.005814,0.0003633,0.0006266,0.00173,9.537e-07,2.861e-06,0.04218,7.153e-05,2.955,0.009092,0,0,0.0005512
110100000000,110400000000,4346898072,0,82789744,0.0006714,0.001503,0.005814,0.0003643,0.0006266,0.00174,1.907e-06,2.861e-06,0.0434,7.153e-05,2.893,0.008919,0,0,0.0001183
110400000000,110700000000,4346898072,0,82789744,0.0005302,0.001503,0.005814,0.0003643,0.0006275,0.001734,1.907e-06,2.861e-06,0.04279,7.153e-05,2.877,0.008748,0,0,0.0001736
110700000000,111000000000,4346898072,0,82789744,0.0006828,0.001514,0.005814,0.0003643,0.0006275,0.00174,9.537e-07,2.861e-06,0.04822,7.153e-05,3.037,0.00954,0,0,0.0001879
116100000000,116400000000,4346898072,0,82789744,0.0006733,0.001507,0.005814,0.0003681,0.0006313,0.001738,1.907e-06,2.861e-06,0.06409,7.153e-05,2.928,0.008961,0,0,0.0005293
116400000000,116700000000,4346898072,0,82789744,0.0005426,0.001493,0.005814,0.0003691,0.0006313,0.001713,1.907e-06,2.861e-06,0.02405,0.0002146,3.046,0.009632,0,0,4.578e-05
116700000000,117000000000,4346898072,0,82789744,0.0007114,0.001499,0.005814,0.0003691,0.0006323,0.001715,9.537e-07,2.861e-06,0.06189,7.153e-05,3.025,0.009653,0,0,0.0001163
117000000000,117300000000,4346898072,0,82789744,0.0005217,0.001503,0.005814,0.0003691,0.0006323,0.00172,1.907e-06,2.861e-06,0.06195,7.153e-05,2.928,0.009203,0,0,0.0001745
117300000000,117600000000,4346898072,0,82789744,0.0006495,0.001507,0.005814,0.00037,0.0006323,0.001722,9.537e-07,2.861e-06,0.06134,7.153e-05,2.788,0.008376,0,0,0.06079
117600000000,117900000000,4346898072,0,82789744,0.0005074,0.001501,0.005814,0.00037,0.0006332,0.001726,9.537e-07,2.861e-06,0.04163,7.153e-05,2.885,0.008653,0,0,7.915e-05
117900000000,118200000000,4346898072,0,82789744,0.000638,0.001505,0.005814,0.00037,0.0006332,0.001726,9.537e-07,2.861e-06,0.04114,7.153e-05,2.815,0.008413,0,0,7.82e-05
118200000000,118500000000,4346898072,0,82789744,0.0005112,0.001501,0.005814,0.000371,0.0006332,0.001724,9.537e-07,2.861e-06,0.0423,7.153e-05,2.794,0.008202,0,0,0.0001354
118500000000,118800000000,4346898072,0,82789744,0.0006495,0.001513,0.005814,0.000371,0.0006342,0.001778,9.537e-07,2.861e-06,0.04156,7.153e-05,2.784,0.00835,0,0,0.0001631
118800000000,119100000000,4346898072,0,82789744,0.0005312,0.00152,0.005814,0.000371,0.0006342,0.001757,9.537e-07,2.861e-06,0.04218,7.153e-05,3.003,0.009447,0,0,0.0001659
119100000000,119400000000,4346898072,0,82789744,0.0006733,0.001509,0.005814,0.0003719,0.0006342,0.001749,9.537e-07,2.861e-06,0.04449,7.153e-05,3.034,0.009325,0,0,0.0002384
119400000000,119700000000,4346898072,0,82789744,0.000493,0.001503,0.005814,0.0003719,0.0006351,0.001719,1.907e-06,2.861e-06,0.04205,0.0002146,2.71,0.007838,0,0,0.0006208
119700000000,120000000000,4346898072,0,82789744,0.0006485,0.001501,0.005814,0.0003719,0.0006351,0.001736,1.907e-06,2.861e-06,0.0434,0.0002146,2.727,0.00793,0,0,0.0005493
120000000000,120300000000,4346898072,0,82789744,0.0005026,0.001492,0.005814,0.0003729,0.0006351,0.001743,1.907e-06,2.861e-06,0.03699,7.153e-05,2.771,0.008101,0,0,0.0006638
120300000000,120600000000,4346898072,0,82789744,0.0006542,0.001505,0.005814,0.0003729,0.0006361,0.001741,9.537e-07,2.861e-06,0.06262,7.153e-05,2.77,0.008083,0,0,7.439e-05
120600000000,120900000000,4346898072,0,82789744,0.000495,0.001505,0.005814,0.0003729,0.0006361,0.001738,9.537e-07,2.861e-06,0.06335,7.153e-05,2.64,0.007697,0,0,0.0002108
126000000000,126300000000,4346898072,0,82789744,0.0005093,0.001505,0.005814,0.0003786,0.0006418,0.001738,9.537e-07,2.861e-06,0.04419,7.153e-05,2.682,0.007534,0,0,0.0001564
126300000000,126600000000,4346898072,0,82789744,0.0006561,0.001514,0.005814,0.0003786,0.0006418,0.00178,9.537e-07,2.861e-06,0.04388,7.153e-05,2.538,0.00677,0,0,0.000267
126600000000,126900000000,4346898072,0,82789744,0.0005074,0.001501,0.005814,0.0003786,0.0006418,0.001772,9.537e-07,2.861e-06,0.05945,7.153e-05,2.631,0.007315,0,0,0.0002317
126900000000,127200000000,4346898072,0,82789744,0.0006399,0.001511,0.005814,0.0003796,0.0006418,0.001751,9.537e-07,2.861e-06,0.04175,7.153e-05,2.539,0.00701,0,0,0.0007505
127200000000,127500000000,4346898072,0,82789744,0.000515,0.001513,0.005814,0.0003796,0.0006428,0.001787,9.537e-07,2.861e-06,0.04718,7.153e-05,2.755,0.008408,0,0,0.0005007
127500000000,127800000000,4346898072,0,82789744,0.0006752,0.00152,0.005814,0.0003805,0.0006428,0.001787,9.537e-07,2.861e-06,0.05713,7.153e-05,2.822,0.008499,0,0,0.0006437
127800000000,128100000000,4346898072,0,82789744,0.0005188,0.001505,0.005814,0.0003805,0.0006437,0.001768,9.537e-07,2.861e-06,0.04199,7.153e-05,2.929,0.009206,0,0,0.0006323
128100000000,128400000000,4346898072,0,82789744,0.0006657,0.001522,0.005814,0.0003815,0.0006437,0.00177,9.537e-07,2.861e-06,0.04401,7.153e-05,2.759,0.008457,0,0,4.768e-05
129000000000,129300000000,4346898072,0,1094682,0.0004892,0.001043,0.005806,6.39e-05,0.0003204,0.001501,9.537e-07,0,0.0542,7.153e-05,2.945,0.008704,0,0,0.0001535
129300000000,129600000000,4346898072,0,1094682,0.0006428,0.001102,0.005806,7.057e-05,0.0003281,0.001528,1.717e-05,0,0.04498,0.004646,2.87,0.008191,0,0,0.0001602
129600000000,129900000000,4346898072,0,1094682,0.0004559,0.001078,0.005806,7.057e-05,0.0003281,0.001532,9.537e-07,0,0.03583,7.153e-05,2.571,0.006801,0,0,0.0003147
129900000000,130200000000,4346898072,0,1094682,0.0006008,0.001091,0.005806,7.153e-05,0.000329,0.001545,2.861e-06,0,0.04602,0.0006428,2.635,0.007346,0,0,0.0001307
130200000000,130500000000,4346898072,0,1094682,0.000493,0.001099,0.005806,7.153e-05,0.00033,0.001556,1.907e-06,0,0.04028,0.0002146,2.75,0.007681,0,0,0.0001659
130500000000,130800000000,4346898072,0,1094682,0.0005789,0.001131,0.005806,7.248e-05,0.00033,0.001545,9.537e-07,0,0.0509,7.153e-05,2.578,0.007123,0,0,0.0001574
130800000000,131100000000,4346898072,0,1094682,0.0004616,0.001099,0.005806,7.248e-05,0.00033,0.001535,9.537e-07,0,0.0379,7.153e-05,2.447,0.00639,0,0,0.0006533
141000000000,141300000000,4346898072,0,1651054071,0.0005751,0.001127,0.005821,0.0001431,0.0004005,0.001534,9.537e-07,0,0.06787,0.0001431,2.612,0.006712,0,0,0.0004015
141300000000,141600000000,4346898072,0,1651054071,0.000473,0.001106,0.005821,0.0001431,0.0004005,0.001535,9.537e-07,0,0.06506,7.153e-05,2.548,0.006561,0,0,0.0001726
141600000000,141900000000,4346898072,0,1651054071,0.0006247,0.001146,0.005821,0.0001431,0.0004005,0.001551,9.537e-07,0,0.06714,0.0001431,1.507,0.002519,0,0,0.0002422
141900000000,142200000000,4346898072,0,1651054071,0.0004826,0.001102,0.005821,0.000144,0.0004015,0.001522,9.537e-07,0,0.05847,7.153e-05,1.576,0.003228,0,0,0.0001173
142200000000,142500000000,4346898072,0,1651054071,0.000576,0.001123,0.005821,0.000144,0.0004015,0.00153,1.907e-06,0,0.05249,0.0001431,2.746,0.007656,0,0,5.627e-05
142500000000,142800000000,4346898072,0,1651054071,0.0004997,0.001116,0.005821,0.000144,0.0004015,0.001696,9.537e-07,0,0.03467,7.153e-05,1.793,0.003565,0,0,7.629e-05
142800000000,143100000000,4346898072,0,1651054071,0.0006857,0.001144,0.005821,0.0001431,0.0004005,0.001539,1.907e-06,0,0.04541,0.0002146,1.423,0.001999,0,0,0.0001459
143100000000,143400000000,4346898072,0,1651054071,0.0005131,0.001129,0.005821,0.0001402,0.0003977,0.00156,1.907e-06,0,0.06775,7.153e-05,1.789,0.00398,0,0,0.0001945
143400000000,143700000000,4346898072,0,1651054071,0.0006304,0.001137,0.005821,0.0001402,0.0003986,0.001534,9.537e-07,0,0.06024,0.0001431,3.082,0.009095,0,0,0.0001974
143700000000,144000000000,4346898072,0,1651054071,0.0004835,0.00112,0.005821,0.0001411,0.0003986,0.001554,9.537e-07,0,0.03503,7.153e-05,1.337,0.002509,0,0,0.0001593
144000000000,144300000000,4346898072,0,1651054071,0.0005922,0.001144,0.005821,0.0001411,0.0003986,0.001543,9.537e-07,0,0.04285,0.0001431,1.852,0.00454,0,0,8.011e-05
144300000000,144600000000,4346898072,0,1651054071,0.0004501,0.001112,0.005821,0.0001421,0.0003996,0.001524,9.537e-07,0,0.01794,7.153e-05,1.607,0.003279,0,0,0.0001698
144600000000,144900000000,4346898072,0,1651054071,0.0005913,0.001129,0.005821,0.0001421,0.0003996,0.001532,1.907e-06,0,0.04663,0.0002861,2.683,0.006875,0,0,0.000247
144900000000,145200000000,4346898072,0,1651054071,0.0004578,0.00111,0.005821,0.0001421,0.0003996,0.00153,9.537e-07,0,0.0274,7.153e-05,1.551,0.00345,0,0,0.0001688
145200000000,145500000000,4346898072,0,1651054071,0.0005798,0.001129,0.005821,0.0001431,0.0004005,0.001522,1.907e-06,0,0.02484,0.0001431,2.65,0.007781,0,0,0.0005522
145500000000,145800000000,4346898072,0,1651054071,0.0004673,0.001116,0.005821,0.0001431,0.0004005,0.001545,9.537e-07,0,0.05841,7.153e-05,1.531,0.00291,0,0,0.000742
145800000000,146100000000,4346898072,0,1651054071,0.0006657,0.001133,0.005821,0.000144,0.0004015,0.001518,9.537e-07,0,0.03412,0.0001431,1.56,0.00284,0,0,0.0001211
151200000000,151500000000,4346898072,0,1651054071,0.000659,0.001144,0.005821,0.0001507,0.0004082,0.001522,1.907e-06,0,0.07336,0.0001431,3.19,0.008079,0,0,0.0001192
151500000000,151800000000,4346898072,0,1651054071,0.0005054,0.00111,0.005821,0.0001507,0.0004082,0.001514,9.537e-07,0,0.05847,7.153e-05,2.964,0.007778,0,0,0.0001087
151800000000,152100000000,4346898072,0,1651054071,0.0006514,0.001143,0.005821,0.0001507,0.0004091,0.001534,1.907e-06,0,0.0625,0.0001431,3.002,0.007785,0,0,0.0001001
152100000000,152400000000,4346898072,0,1651054071,0.0004873,0.00112,0.005821,0.0001516,0.0004091,0.001513,1.907e-06,0,0.0459,7.153e-05,2.42,0.005676,0,0,0.0002022
152400000000,152700000000,4346898072,0,1651054071,0.0006294,0.001144,0.005821,0.0001516,0.0004091,0.001534,1.907e-06,0,0.04065,0.0001431,2.848,0.008189,0,0,0.0002327
152700000000,153000000000,4346898072,0,1651054071,0.0004606,0.001116,0.005821,0.0001516,0.0004101,0.001537,1.907e-06,0,0.01831,7.153e-05,2.16,0.005317,0,0,0.0003309
153000000000,153300000000,4346898072,0,1651054071,0.000576,0.001127,0.005821,0.0001526,0.0004101,0.001549,1.907e-06,0,0.04865,0.0001431,2.54,0.006325,0,0,0.0005903
153300000000,153600000000,4346898072,0,1651054071,0.0004482,0.001095,0.005821,0.0001526,0.0004101,0.001545,9.537e-07,0,0.06262,7.153e-05,2.597,0.006724,0,0,0.0006084
153600000000,153900000000,4346898072,0,1651054071,0.0005817,0.001141,0.005821,0.0001526,0.000411,0.00156,1.907e-06,0,0.06158,0.0001431,2.565,0.006542,0,0,0.0001116
153900000000,154200000000,4346898072,0,1651054071,0.0004654,0.001104,0.005821,0.0001535,0.000411,0.001547,9.537e-07,0,0.0636,7.153e-05,2.554,0.006524,0,0,0.0006018
154200000000,154500000000,4346898072,0,1651054071,0.0005789,0.00112,0.005821,0.0001535,0.000411,0.001537,9.537e-07,0,0.06061,0.0001431,2.655,0.006977,0,0,0.0001183
154500000000,154800000000,4346898072,0,1651054071,0.0004482,0.001114,0.005821,0.0001535,0.000411,0.001551,9.537e-07,0,0.03589,7.153e-05,2.688,0.007058,0,0,8.202e-05
154800000000,155100000000,4346898072,0,1651054071,0.0005541,0.00116,0.005821,0.0001545,0.000412,0.001551,9.537e-07,0,0.03552,0.0001431,2.443,0.005942,0,0,4.959e-05
155100000000,155400000000,4346898072,0,1651054071,0.0004568,0.001141,0.005821,0.0001545,0.000412,0.001556,9.537e-07,0,0.03577,7.153e-05,2.649,0.006871,0,0,4.387e-05
155400000000,155700000000,4346898072,0,1651054071,0.0005808,0.001156,0.005821,0.0001545,0.0004129,0.001545,9.537e-07,0,0.03583,0.0001431,2.578,0.00666,0,0,3.719e-05
155700000000,156000000000,4346898072,0,1651054071,0.0005217,0.001129,0.005821,0.0001554,0.0004129,0.001551,9.537e-07,0,0.04053,7.153e-05,3.138,0.008568,0,0,0.0002546
175500000000,175800000000,4346898072,0,6567878,0.0005388,0.001049,0.005814,0.0001459,0.0004025,0.001478,1.907e-06,0,0.03845,7.153e-05,1.183,0.001302,0,0,0.0006132
175800000000,176100000000,4346898072,0,6567878,0.0007,0.001066,0.005814,0.000145,0.0004025,0.001528,9.537e-07,0,0.05084,7.153e-05,1.117,0.001148,0,0,0.0001411
186300000000,186600000000,4346898072,0,6567878,0.0004997,0.001141,0.005814,0.0001459,0.0004044,0.001553,1.907e-06,0,0.03918,7.153e-05,1.186,0.001283,0,0,0.0001841
186600000000,186900000000,4346898072,0,6567878,0.000638,0.001154,0.005814,0.0001459,0.0004044,0.001575,5.722e-06,0,0.03955,0.001072,1.22,0.001364,0,0,0.0001106
186900000000,187200000000,4346898072,0,6567878,0.0005245,0.001154,0.005814,0.0001459,0.0004044,0.001562,1.907e-06,0,0.03705,7.153e-05,1.222,0.001343,0,0,0.0002165
187200000000,187500000000,4346898072,0,6567878,0.0006342,0.001165,0.005814,0.0001459,0.0004053,0.001575,2.861e-06,0,0.07349,0.0002861,1.203,0.001324,0,0,0.0001659
187500000000,187800000000,4346898072,0,6567878,0.0005102,0.001169,0.005814,0.0001469,0.0004053,0.001572,1.907e-06,0,0.0741,0.0002861,1.2,0.001263,0,0,0.0002089
187800000000,188100000000,4346898072,0,6567878,0.0006638,0.001162,0.005814,0.0001469,0.0004063,0.001577,1.907e-06,0,0.07483,0.0001431,1.224,0.001376,0,0,0.0006647
188100000000,188400000000,4346898072,0,6567878,0.0005341,0.001162,0.005814,0.0001478,0.0004063,0.001577,9.537e-07,0,0.06726,7.153e-05,1.222,0.001281,0,0,0.000577
188400000000,188700000000,4346898072,0,6567878,0.000659,0.001179,0.005814,0.0001478,0.0004063,0.001593,1.907e-06,0,0.06482,7.153e-05,1.224,0.001343,0,0,0.0006676
188700000000,189000000000,4346898072,0,6567878,0.0005188,0.001167,0.005814,0.0001488,0.0004072,0.001564,9.537e-07,0,0.06494,7.153e-05,1.214,0.001296,0,0,0.0005217
189000000000,189300000000,4346898072,0,6567878,0.0006542,0.001167,0.005814,0.0001488,0.0004072,0.001568,9.537e-07,0,0.06183,7.153e-05,1.223,0.001381,0,0,0.0001259
189300000000,189600000000,4346898072,0,6567878,0.0005322,0.001163,0.005814,0.0001488,0.0004082,0.001568,9.537e-07,0,0.06445,7.153e-05,1.213,0.001287,0,0,0.0001726
189600000000,189900000000,4346898072,0,6567878,0.0006428,0.001169,0.005814,0.0001497,0.0004082,0.001581,9.537e-07,0,0.06445,7.153e-05,1.211,0.001336,0,0,7.057e-05
189900000000,190200000000,4346898072,0,6567878,0.0005093,0.001163,0.005814,0.0001497,0.0004082,0.00156,9.537e-07,0,0.05597,7.153e-05,1.183,0.001253,0,0,7.534e-05
190200000000,190500000000,4346898072,0,6567878,0.000659,0.001177,0.005814,0.0001497,0.0004082,0.001593,9.537e-07,0,0.06232,7.153e-05,1.239,0.001344,0,0,0.0001459
190500000000,190800000000,4346898072,0,6567878,0.000515,0.001188,0.005814,0.0001497,0.0004091,0.001593,1.907e-06,0,0.06134,7.153e-05,1.223,0.001282,0,0,0.0001974
190800000000,191100000000,4346898072,0,6567878,0.0006342,0.001188,0.005814,0.0001507,0.0004091,0.001602,9.537e-07,0,0.06396,7.153e-05,1.207,0.001329,0,0,0.0001793
191100000000,191400000000,4346898072,0,6567878,0.0005169,0.001167,0.005814,0.0001507,0.0004101,0.001575,1.907e-06,0,0.06091,7.153e-05,1.203,0.001354,0,0,0.0002041
191400000000,191700000000,4346898072,0,6567878,0.0006552,0.001175,0.005814,0.0001516,0.0004101,0.001587,1.907e-06,0,0.06299,0.0002146,1.207,0.001355,0,0,0.0003357
191700000000,192000000000,4346898072,0,6567878,0.0005322,0.001184,0.005814,0.0001516,0.000411,0.0016,9.537e-07,0,0.06232,7.153e-05,1.224,0.001376,0,0,0.0005703
192000000000,192300000000,4346898072,0,6567878,0.0006523,0.001184,0.005814,0.0001526,0.000411,0.001589,9.537e-07,0,0.06104,7.153e-05,1.22,0.001376,0,0,0.0004539
192300000000,192600000000,4346898072,0,6567878,0.0004997,0.001177,0.005814,0.0001526,0.000411,0.001589,9.537e-07,0,0.03912,7.153e-05,1.167,0.00124,0,0,0.0001001
192600000000,192900000000,4346898072,0,6567878,0.0006132,0.001169,0.005814,0.0001535,0.000412,0.001581,9.537e-07,0,0.05853,7.153e-05,1.18,0.00131,0,0,9.06e-05
192900000000,193200000000,4346898072,0,6567878,0.0004883,0.001181,0.005814,0.0001535,0.000412,0.001581,9.537e-07,0,0.04822,7.153e-05,1.171,0.001203,0,0,0.0001593
193200000000,193500000000,4346898072,0,6567878,0.0006285,0.001171,0.005814,0.0001535,0.0004129,0.001579,9.537e-07,0,0.06091,7.153e-05,1.201,0.00133,0,0,0.0001068
193500000000,193800000000,4346898072,0,6567878,0.0005035,0.001163,0.005814,0.0001545,0.0004129,0.001549,9.537e-07,0,0.04053,7.153e-05,1.182,0.001241,0,0,7.629e-05
193800000000,194100000000,4346898072,0,6567878,0.0006247,0.001162,0.005814,0.0001545,0.0004129,0.001551,9.537e-07,0,0.03949,7.153e-05,1.191,0.001302,0,0,0.0001974
194100000000,194400000000,4346898072,0,6567878,0.0004969,0.001167,0.005814,0.0001545,0.0004139,0.001554,9.537e-07,0,0.03894,7.153e-05,1.183,0.001261,0,0,0.0002193
194400000000,194700000000,4346898072,0,6567878,0.0006104,0.001154,0.005814,0.0001554,0.0004139,0.001543,2.861e-06,0,0.03961,0.0005713,1.158,0.001325,0,0,0.0001936
194700000000,195000000000,4346898072,0,6567878,0.0004835,0.001152,0.005814,0.0001554,0.0004139,0.001545,9.537e-07,0,0.03809,7.153e-05,1.175,0.001242,0,0,0.0001593
195000000000,195300000000,4346898072,0,6567878,0.0006151,0.001148,0.005814,0.0001554,0.0004139,0.001556,9.537e-07,0,0.04041,7.153e-05,1.206,0.001302,0,0,0.0002298
195300000000,195600000000,4346898072,0,6567878,0.0004826,0.001154,0.005814,0.0001554,0.0004148,0.001556,9.537e-07,0,0.03967,7.153e-05,1.198,0.001223,0,0,0.0005531
195600000000,195900000000,4346898072,0,6567878,0.0006142,0.001156,0.005814,0.0001564,0.0004148,0.001558,9.537e-07,0,0.05786,0.0001431,1.216,0.001328,0,0,0.0005655
195900000000,196200000000,4346898072,0,6567878,0.0004711,0.001152,0.005814,0.0001564,0.0004158,0.001551,9.537e-07,0,0.03668,7.153e-05,1.151,0.001211,0,0,0.0002012
201300000000,201600000000,4346898072,0,6567878,0.0004845,0.001146,0.005814,0.0001621,0.0004206,0.00157,9.537e-07,0,0.06079,7.153e-05,1.132,0.001204,0,0,7.534e-05
201600000000,201900000000,4346898072,0,6567878,0.0006208,0.00115,0.005814,0.0001621,0.0004206,0.001566,1.907e-06,0,0.06287,7.153e-05,1.155,0.001311,0,0,0.000596
201900000000,202200000000,4346898072,0,6567878,0.0005035,0.001148,0.005814,0.0001621,0.0004215,0.001549,1.907e-06,0,0.03796,7.153e-05,1.171,0.001298,0,0,0.0003471
202200000000,202500000000,4346898072,0,6567878,0.0006542,0.001154,0.005814,0.0001621,0.0004215,0.001568,9.537e-07,0,0.06219,7.153e-05,1.201,0.001393,0,0,0.0002451
202500000000,202800000000,4346898072,0,6567878,0.0005293,0.001154,0.005814,0.0001631,0.0004215,0.001562,9.537e-07,0,0.03784,7.153e-05,1.201,0.001387,0,0,0.0004034
202800000000,203100000000,4346898072,0,6567878,0.000639,0.001156,0.005814,0.0001631,0.0004225,0.001562,9.537e-07,0,0.03876,7.153e-05,1.185,0.001406,0,0,0.0003328
203100000000,203400000000,4346898072,0,6567878,0.0004959,0.00115,0.005814,0.000164,0.0004225,0.001553,1.907e-06,0,0.03876,0.0001431,1.166,0.001253,0,0,0.0005779
203400000000,203700000000,4346898072,0,6567878,0.000638,0.001162,0.005814,0.000164,0.0004234,0.001566,3.815e-06,0,0.05823,0.0005713,1.179,0.001366,0,0,0.0006189
203700000000,204000000000,4346898072,0,6567878,0.0005083,0.001169,0.005814,0.000165,0.0004234,0.001572,9.537e-07,0,0.03821,7.153e-05,1.171,0.001289,0,0,0.000144
204000000000,204300000000,4346898072,0,6567878,0.0006351,0.001167,0.005814,0.000165,0.0004234,0.001574,1.907e-06,0,0.0401,7.153e-05,1.22,0.00136,0,0,6.771e-05
204300000000,204600000000,4346898072,0,6567878,0.0005083,0.001165,0.005814,0.000165,0.0004244,0.001577,1.907e-06,0,0.0415,7.153e-05,1.189,0.001282,0,0,8.392e-05
204600000000,204900000000,4346898072,0,6567878,0.0006371,0.001165,0.005814,0.0001659,0.0004244,0.001579,9.537e-07,0,0.04108,7.153e-05,1.222,0.00138,0,0,0.0001583
204900000000,205200000000,4346898072,0,6567878,0.0004978,0.001162,0.005814,0.0001659,0.0004244,0.001574,9.537e-07,0,0.03833,7.153e-05,1.15,0.00128,0,0,0.0004568
205200000000,205500000000,4346898072,0,6567878,0.0006247,0.001163,0.005814,0.0001659,0.0004253,0.001583,9.537e-07,0,0.0376,7.153e-05,1.18,0.001394,0,0,7.153e-05
205500000000,205800000000,4346898072,0,6567878,0.0004807,0.001158,0.005814,0.0001669,0.0004253,0.001574,9.537e-07,0,0.05145,7.153e-05,1.141,0.001221,0,0,9.346e-05
205800000000,206100000000,4346898072,0,6567878,0.0006199,0.001184,0.005814,0.0001669,0.0004253,0.001574,9.537e-07,0,0.06018,7.153e-05,1.174,0.001221,0,0,0.0002432
206100000000,206400000000,4346898072,0,6567878,0.000495,0.001184,0.005814,0.0001669,0.0004263,0.00156,9.537e-07,0,0.05084,7.153e-05,1.2,0.001282,0,0,0.0002489
206400000000,206700000000,4346898072,0,6567878,0.000597,0.001173,0.005814,0.0001678,0.0004263,0.001564,1.907e-06,0,0.06567,7.153e-05,1.154,0.001175,0,0,0.0002575
206700000000,207000000000,4346898072,0,6567878,0.0005045,0.001167,0.005814,0.0001678,0.0004263,0.001558,9.537e-07,0,0.06372,7.153e-05,1.181,0.001289,0,0,0.0002069
207000000000,207300000000,4346898072,0,6567878,0.000617,0.001179,0.005814,0.0001678,0.0004272,0.00157,1.907e-06,0,0.06458,0.0002861,1.18,0.001393,0,0,0.0005302
207300000000,207600000000,4346898072,0,6567878,0.0004921,0.001184,0.005814,0.0001688,0.0004272,0.001585,1.907e-06,0,0.05823,7.153e-05,1.162,0.001255,0,0,0.000618
207600000000,207900000000,4346898072,0,6567878,0.0006304,0.001167,0.005814,0.0001688,0.0004272,0.001564,9.537e-07,0,0.06055,7.153e-05,1.195,0.001357,0,0,0.000102
207900000000,208200000000,4346898072,0,6567878,0.0005159,0.001158,0.005814,0.0001688,0.0004282,0.001556,9.537e-07,0,0.05951,7.153e-05,1.199,0.001289,0,0,7.057e-05
208200000000,208500000000,4346898072,0,6567878,0.0006304,0.001158,0.005814,0.0001698,0.0004282,0.00156,9.537e-07,0,0.05377,7.153e-05,1.196,0.001368,0,0,8.965e-05
208500000000,208800000000,4346898072,0,6567878,0.0004921,0.001156,0.005814,0.0001698,0.0004282,0.001562,1.907e-06,0,0.0614,7.153e-05,1.146,0.001323,0,0,7.057e-05
208800000000,209100000000,4346898072,0,6567878,0.0005903,0.00116,0.005814,0.0001698,0.0004292,0.00157,9.537e-07,0,0.04388,7.153e-05,1.129,0.001369,0,0,0.0001097
209100000000,209400000000,4346898072,0,6567878,0.0004816,0.001162,0.005814,0.0001707,0.0004292,0.001575,9.537e-07,0,0.06531,7.153e-05,1.129,0.001301,0,0,9.155e-05
209400000000,209700000000,4346898072,0,6567878,0.0005989,0.001175,0.005814,0.0001707,0.0004292,0.001591,1.907e-06,0,0.06458,7.153e-05,1.144,0.001379,0,0,9.727e-05
209700000000,210000000000,4346898072,0,6567878,0.0004873,0.001186,0.005814,0.0001707,0.0004301,0.001595,1.907e-06,0,0.06372,7.153e-05,1.119,0.001314,0,0,0.0002985
210000000000,210300000000,4346898072,0,6567878,0.0005999,0.001171,0.005814,0.0001717,0.0004301,0.001568,9.537e-07,0,0.06409,7.153e-05,1.146,0.001408,0,0,0.0003262
210300000000,210600000000,4346898072,0,6567878,0.0004759,0.001175,0.005814,0.0001717,0.0004301,0.001583,1.907e-06,0,0.06323,7.153e-05,1.15,0.001239,0,0,0.0002432
210600000000,210900000000,4346898072,0,6567878,0.0005951,0.001194,0.005814,0.0001717,0.0004311,0.001589,1.907e-06,0,0.0625,0.0001431,1.16,0.001229,0,0,0.0005445
210900000000,211200000000,4346898072,0,6567878,0.000474,0.001188,0.005814,0.0001717,0.0004311,0.001579,1.907e-06,0,0.03821,7.153e-05,1.144,0.001146,0,0,0.000576
211200000000,211500000000,4346898072,0,6567878,0.0005989,0.001167,0.005814,0.0001726,0.0004311,0.001572,9.537e-07,0,0.03864,7.153e-05,1.179,0.001303,0,0,0.0006046
211500000000,211800000000,4346898072,0,6567878,0.0004673,0.001158,0.005814,0.0001726,0.0004311,0.001564,9.537e-07,0,0.03699,7.153e-05,1.133,0.001201,0,0,0.0005093
211800000000,212100000000,4346898072,0,6567878,0.0006361,0.001184,0.005814,0.0001726,0.000432,0.001574,9.537e-07,0,0.03864,7.153e-05,1.21,0.001411,0,0,3.719e-05
212100000000,212400000000,4346898072,0,6567878,0.0005112,0.001181,0.005814,0.0001736,0.000432,0.001587,9.537e-07,0,0.03864,7.153e-05,1.178,0.001357,0,0,5.054e-05
212400000000,212700000000,4346898072,0,6567878,0.0006409,0.001186,0.005814,0.0001736,0.000433,0.001583,9.537e-07,0,0.03955,7.153e-05,1.21,0.00142,0,0,0.0002317
212700000000,213000000000,4346898072,0,6567878,0.0005026,0.001169,0.005814,0.0001745,0.000433,0.001572,9.537e-07,0,0.03906,7.153e-05,1.19,0.001294,0,0,0.0002575
213000000000,213300000000,4346898072,0,6567878,0.0006237,0.001169,0.005814,0.0001745,0.000433,0.001583,9.537e-07,0,0.03906,7.153e-05,1.182,0.001342,0,0,0.0001507
213300000000,213600000000,4346898072,0,6567878,0.0005102,0.001192,0.005814,0.0001755,0.0004339,0.001589,9.537e-07,0,0.03699,7.153e-05,1.165,0.001336,0,0,0.0001678
213600000000,213900000000,4346898072,0,6567878,0.0006857,0.001194,0.005814,0.0001755,0.0004339,0.001604,9.537e-07,0,0.04169,7.153e-05,1.295,0.001527,0,0,0.0004454
213900000000,214200000000,4346898072,0,6567878,0.0005264,0.001204,0.005814,0.0001755,0.0004349,0.001598,4.768e-06,0,0.03961,0.0009995,1.239,0.001408,0,0,0.0001945
214200000000,214500000000,4346898072,0,6567878,0.0006371,0.0012,0.005814,0.0001764,0.0004349,0.001608,1.907e-06,0,0.03796,7.153e-05,1.202,0.00144,0,0,9.918e-05
214500000000,214800000000,4346898072,0,6567878,0.0005178,0.001188,0.005814,0.0001764,0.0004358,0.001593,1.907e-06,0,0.03638,0.0002146,1.18,0.001319,0,0,0.0001726
214800000000,215100000000,4346898072,0,6567878,0.0006361,0.001167,0.005814,0.0001774,0.0004358,0.00157,1.907e-06,0,0.03827,7.153e-05,1.2,0.00143,0,0,8.965e-05
215100000000,215400000000,4346898072,0,6567878,0.0005188,0.001171,0.005814,0.0001774,0.0004358,0.001575,2.861e-06,0,0.06183,0.0002861,1.205,0.001356,0,0,0.0001764
215400000000,215700000000,4346898072,0,6567878,0.0006504,0.001179,0.005814,0.0001774,0.0004368,0.001593,9.537e-07,0,0.06812,7.153e-05,1.232,0.001452,0,0,8.202e-05
215700000000,216000000000,4346898072,0,6567878,0.0005083,0.001175,0.005814,0.0001783,0.0004368,0.00157,1.907e-06,0,0.06738,7.153e-05,1.203,0.00136,0,0,8.965e-05
216000000000,216300000000,4346898072,0,6567878,0.0006485,0.001179,0.005814,0.0001783,0.0004368,0.001583,1.907e-06,0,0.06421,0.0002861,1.232,0.001413,0,0,0.0004644
221100000000,221400000000,4346898072,0,6567878,0.0005131,0.00119,0.005814,0.0001841,0.0004435,0.001553,2.861e-06,0,0.04004,0.0005713,1.221,0.001381,0,0,0.0006676
221400000000,221700000000,4346898072,0,6567878,0.0006447,0.001204,0.005814,0.000185,0.0004435,0.00157,9.537e-07,0,0.03973,7.153e-05,1.224,0.001475,0,0,0.0001211
221700000000,222000000000,4346898072,0,6567878,0.0005169,0.001186,0.005814,0.000185,0.0004444,0.001545,9.537e-07,0,0.03918,7.153e-05,1.203,0.001382,0,0,0.0003614
222000000000,222300000000,4346898072,0,6567878,0.0006504,0.001207,0.005814,0.000185,0.0004444,0.001581,9.537e-07,0,0.03925,7.153e-05,1.237,0.001498,0,0,0.0001831
222300000000,222600000000,4346898072,0,6567878,0.0005159,0.001194,0.005814,0.000186,0.0004444,0.00157,9.537e-07,0,0.03851,7.153e-05,1.206,0.001364,0,0,0.0001078
222600000000,222900000000,4346898072,0,6567878,0.0006409,0.001205,0.005814,0.000186,0.0004454,0.00157,9.537e-07,0,0.04016,7.153e-05,1.251,0.001459,0,0,0.000164
222900000000,223200000000,4346898072,0,6567878,0.0004997,0.001207,0.005814,0.000186,0.0004454,0.001587,9.537e-07,0,0.03851,7.153e-05,1.203,0.00137,0,0,6.771e-05
223200000000,223500000000,4346898072,0,6567878,0.0006247,0.001204,0.005814,0.0001869,0.0004454,0.001572,9.537e-07,0,0.03943,7.153e-05,1.215,0.001418,0,0,0.0002213
223500000000,223800000000,4346898072,0,6567878,0.0005093,0.001186,0.005814,0.0001869,0.0004454,0.001572,9.537e-07,0,0.04248,7.153e-05,1.249,0.001345,0,0,7.343e-05
223800000000,224100000000,4346898072,0,6567878,0.0006428,0.001194,0.005814,0.0001869,0.0004463,0.001572,9.537e-07,0,0.0401,7.153e-05,1.252,0.001432,0,0,0.000104
224100000000,224400000000,4346898072,0,6567878,0.0005102,0.001179,0.005814,0.0001869,0.0004463,0.001551,9.537e-07,0,0.04034,7.153e-05,1.23,0.001372,0,0,0.0002203
224400000000,224700000000,4346898072,0,6567878,0.0006456,0.001202,0.005814,0.0001879,0.0004463,0.001562,1.907e-06,0,0.05341,7.153e-05,1.25,0.001398,0,0,0.0005188
224700000000,225000000000,4346898072,0,6567878,0.0005074,0.001183,0.005814,0.0001879,0.0004473,0.001554,9.537e-07,0,0.03613,7.153e-05,1.252,0.001407,0,0,0.0005112
225000000000,225300000000,4346898072,0,6567878,0.0006371,0.001188,0.005814,0.0001879,0.0004473,0.001572,9.537e-07,0,0.06567,7.153e-05,1.233,0.001426,0,0,0.0003777
225300000000,225600000000,4346898072,0,6567878,0.000514,0.001202,0.005814,0.0001888,0.0004473,0.00157,9.537e-07,0,0.05627,7.153e-05,1.236,0.001404,0,0,0.0001144
225600000000,225900000000,4346898072,0,6567878,0.0006552,0.001196,0.005814,0.0001888,0.0004482,0.001572,9.537e-07,0,0.06714,7.153e-05,1.279,0.001557,0,0,8.392e-05
225900000000,226200000000,4346898072,0,6567878,0.0005121,0.0012,0.005814,0.0001888,0.0004482,0.001574,2.861e-06,0,0.06311,7.153e-05,1.252,0.001375,0,0,0.0001535
226200000000,226500000000,4346898072,0,6567878,0.0006256,0.001207,0.005814,0.0001898,0.0004482,0.001579,1.907e-06,0,0.06458,7.153e-05,1.226,0.001348,0,0,8.202e-05
226500000000,226800000000,4346898072,0,6567878,0.0005264,0.001217,0.005814,0.0001898,0.0004492,0.001593,1.907e-06,0,0.06641,7.153e-05,1.206,0.001171,0,0,0.0001879
226800000000,227100000000,4346898072,0,6567878,0.0006371,0.001207,0.005814,0.0001907,0.0004492,0.001572,9.537e-07,0,0.05829,7.153e-05,1.211,0.00143,0,0,0.0003662
227100000000,227400000000,4346898072,0,6567878,0.0005264,0.001207,0.005814,0.0001907,0.0004501,0.001589,9.537e-07,0,0.05316,7.153e-05,1.208,0.001404,0,0,0.0001097
227400000000,227700000000,4346898072,0,6567878,0.0006981,0.001213,0.005814,0.0001917,0.0004501,0.001598,9.537e-07,0,0.05847,7.153e-05,1.299,0.001573,0,0,0.0003471
227700000000,228000000000,4346898072,0,6567878,0.0005474,0.0012,0.005814,0.0001917,0.0004511,0.001574,9.537e-07,0,0.06848,7.153e-05,1.242,0.001422,0,0,0.0002651
228000000000,228300000000,4346898072,0,6567878,0.0007277,0.001211,0.005814,0.0001926,0.0004511,0.001581,9.537e-07,0,0.0647,7.153e-05,1.323,0.0016,0,0,0.0002632
228300000000,228600000000,4346898072,0,6567878,0.0005398,0.001207,0.005814,0.0001926,0.000452,0.00157,9.537e-07,0,0.06195,7.153e-05,1.293,0.001419,0,0,0.0006437
228600000000,228900000000,4346898072,0,6567878,0.0006666,0.001204,0.005814,0.0001926,0.000452,0.001562,1.907e-06,0,0.06409,0.0001431,1.249,0.001474,0,0,0.0006351
228900000000,229200000000,4346898072,0,6567878,0.0005465,0.001184,0.005814,0.0001936,0.000453,0.001539,9.537e-07,0,0.03061,7.153e-05,1.309,0.001442,0,0,0.0001478
229200000000,229500000000,4346898072,0,6567878,0.0006666,0.001202,0.005814,0.0001936,0.000453,0.00156,9.537e-07,0,0.04395,0.0001431,1.272,0.001544,0,0,0.0002117
229500000000,229800000000,4346898072,0,6567878,0.0005407,0.001202,0.005814,0.0001936,0.000452,0.001564,9.537e-07,0,0.02328,7.153e-05,1.263,0.00141,0,0,0.0003729
229800000000,230100000000,4346898072,0,6567878,0.000659,0.001211,0.005814,0.0001926,0.000452,0.001562,2.861e-06,0,0.03723,7.153e-05,1.268,0.001499,0,0,0.0001125
230100000000,230400000000,4346898072,0,6567878,0.0005283,0.001204,0.005814,0.0001936,0.000452,0.001574,1.907e-06,0,0.04669,7.153e-05,1.262,0.001462,0,0,8.774e-05
230400000000,230700000000,4346898072,0,6567878,0.0006456,0.001215,0.005814,0.0001936,0.000453,0.001577,9.537e-07,0,0.05615,7.153e-05,1.267,0.001486,0,0,9.823e-05
230700000000,231000000000,4346898072,0,6567878,0.0005131,0.001186,0.005814,0.0001936,0.000453,0.001554,9.537e-07,0,0.05133,7.153e-05,1.222,0.001392,0,0,0.000433
231000000000,231300000000,4346898072,0,6567878,0.0006437,0.001192,0.005814,0.0001945,0.000453,0.001553,9.537e-07,0,0.05212,7.153e-05,1.238,0.001438,0,0,0.0001745
231300000000,231600000000,4346898072,0,6567878,0.0005302,0.001202,0.005814,0.0001945,0.0004539,0.001568,1.907e-06,0,0.04547,7.153e-05,1.241,0.001408,0,0,0.0002213
231600000000,231900000000,4346898072,0,6567878,0.0006704,0.00119,0.005814,0.0001955,0.0004539,0.001547,1.907e-06,0,0.04578,0.0001431,1.27,0.001501,0,0,0.0006123
231900000000,232200000000,4346898072,0,6567878,0.0005369,0.001202,0.005814,0.0001955,0.0004549,0.001564,9.537e-07,0,0.05603,7.153e-05,1.244,0.001458,0,0,0.000701
232200000000,232500000000,4346898072,0,6567878,0.0006895,0.001198,0.005814,0.0001965,0.0004549,0.001556,9.537e-07,0,0.04285,7.153e-05,1.314,0.00155,0,0,0.0006666
232500000000,232800000000,4346898072,0,6567878,0.0005283,0.001194,0.005814,0.0001965,0.0004559,0.001535,9.537e-07,0,0.03906,7.153e-05,1.239,0.001462,0,0,0.0001163
232800000000,233100000000,4346898072,0,6567878,0.0006666,0.001225,0.005814,0.0001974,0.0004559,0.001568,9.537e-07,0,0.04822,7.153e-05,1.26,0.001583,0,0,0.0002375
233100000000,233400000000,4346898072,0,6567878,0.0005417,0.001202,0.005814,0.0001974,0.0004568,0.001553,9.537e-07,0,0.04053,7.153e-05,1.251,0.001496,0,0,0.0001917
233400000000,233700000000,4346898072,0,6567878,0.0006666,0.001207,0.005814,0.0001974,0.0004568,0.00156,9.537e-07,0,0.04083,7.153e-05,1.287,0.001548,0,0,9.155e-05
233700000000,234000000000,4346898072,0,6567878,0.0005293,0.001202,0.005814,0.0001984,0.0004578,0.001545,9.537e-07,0,0.03961,7.153e-05,1.235,0.001431,0,0,0.0001144
234000000000,234300000000,4346898072,0,6567878,0.0006447,0.001198,0.005814,0.0001984,0.0004578,0.001539,9.537e-07,0,0.05023,7.153e-05,1.273,0.001517,0,0,0.000124
234300000000,234600000000,4346898072,0,6567878,0.0005264,0.001173,0.005814,0.0001993,0.0004587,0.001556,9.537e-07,0,0.06396,7.153e-05,1.198,0.001359,0,0,0.0001411
234600000000,234900000000,4346898072,0,6567878,0.0006552,0.001184,0.005814,0.0001993,0.0004587,0.001558,9.537e-07,0,0.06921,7.153e-05,1.26,0.001455,0,0,0.0004129
234900000000,235200000000,4346898072,0,6567878,0.0005054,0.001183,0.005814,0.0002003,0.0004587,0.001564,9.537e-07,0,0.06543,7.153e-05,1.191,0.001347,0,0,0.0005589
235200000000,235500000000,4346898072,0,6567878,0.0006428,0.0012,0.005814,0.0002003,0.0004597,0.001574,9.537e-07,0,0.06091,7.153e-05,1.228,0.001458,0,0,0.0005302
235500000000,235800000000,4346898072,0,6567878,0.0005283,0.001183,0.005814,0.0002003,0.0004597,0.001554,2.861e-06,0,0.06104,0.0004282,1.219,0.001381,0,0,0.0006886
235800000000,236100000000,4346898072,0,6567878,0.0006533,0.001202,0.005814,0.0002012,0.0004606,0.001579,9.537e-07,0,0.05573,7.153e-05,1.243,0.001456,0,0,5.913e-05
236100000000,236400000000,4346898072,0,6567878,0.0005274,0.001196,0.005814,0.0002012,0.0004606,0.001581,9.537e-07,0,0.05597,7.153e-05,1.219,0.001404,0,0,0.0001583
241200000000,241500000000,4346898072,0,6567878,0.00068,0.001234,0.005814,0.0002069,0.0004663,0.001591,2.861e-06,0,0.0509,0.0002146,1.26,0.001434,0,0,0.0002356
241500000000,241800000000,4346898072,0,6567878,0.0005312,0.001211,0.005814,0.0002079,0.0004663,0.001554,1.907e-06,0,0.039,7.153e-05,1.205,0.001296,0,0,0.0002403
241800000000,242100000000,4346898072,0,6567878,0.0006485,0.001228,0.005814,0.0002079,0.0004673,0.00156,1.907e-06,0,0.04498,7.153e-05,1.253,0.001522,0,0,0.0002909
242100000000,242400000000,4346898072,0,6567878,0.0005512,0.001215,0.005814,0.0002079,0.0004673,0.001579,9.537e-07,0,0.04352,7.153e-05,1.267,0.001389,0,0,0.0005493
242400000000,242700000000,4346898072,0,6567878,0.0006666,0.001232,0.005814,0.0002079,0.0004663,0.001581,1.907e-06,0,0.04041,7.153e-05,1.257,0.001429,0,0,0.0006332
242700000000,243000000000,4346898072,0,6567878,0.0005627,0.001225,0.005814,0.0002089,0.0004673,0.001593,9.537e-07,0,0.03949,7.153e-05,1.259,0.00146,0,0,0.0001526
243000000000,243300000000,4346898072,0,6567878,0.0006952,0.001244,0.005814,0.0002089,0.0004683,0.001591,1.907e-06,0,0.03979,7.153e-05,1.276,0.00155,0,0,0.0001717
243300000000,243600000000,4346898072,0,6567878,0.0005322,0.001207,0.005814,0.0002098,0.0004683,0.001579,1.907e-06,0,0.03882,7.153e-05,1.242,0.001426,0,0,0.0001583
243600000000,243900000000,4346898072,0,6567878,0.000659,0.001234,0.005814,0.0002089,0.0004683,0.001581,1.907e-06,0,0.05865,7.153e-05,1.254,0.001469,0,0,8.583e-05
243900000000,244200000000,4346898072,0,6567878,0.0005407,0.001207,0.005814,0.0002079,0.0004673,0.001553,1.907e-06,0,0.06189,7.153e-05,1.269,0.001409,0,0,0.0001297
244200000000,244500000000,4346898072,0,6567878,0.0006781,0.001219,0.005814,0.0002089,0.0004673,0.001572,1.907e-06,0,0.05743,7.153e-05,1.293,0.001522,0,0,9.632e-05
244500000000,244800000000,4346898072,0,6567878,0.0005302,0.001234,0.005814,0.0002089,0.0004683,0.001581,2.861e-06,0,0.04254,0.0001431,1.255,0.001435,0,0,0.0001316
244800000000,245100000000,4346898072,0,6567878,0.000658,0.001249,0.005814,0.0002089,0.0004683,0.001587,1.907e-06,0,0.04779,7.153e-05,1.256,0.001449,0,0,0.0002136
245100000000,245400000000,4346898072,0,6567878,0.0005226,0.001238,0.005814,0.0002098,0.0004683,0.001572,1.907e-06,0,0.04449,7.153e-05,1.222,0.001436,0,0,0.0002279
245400000000,245700000000,4346898072,0,6567878,0.0006552,0.001245,0.005814,0.0002098,0.0004692,0.001568,1.907e-06,0,0.04437,7.153e-05,1.257,0.001558,0,0,0.0002623
245700000000,246000000000,4346898072,0,6567878,0.000536,0.001238,0.005814,0.0002098,0.0004692,0.001574,9.537e-07,0,0.04907,7.153e-05,1.284,0.001456,0,0,0.0006056
246000000000,246300000000,4346898072,0,6567878,0.000638,0.001263,0.005814,0.0002108,0.0004692,0.001581,9.537e-07,0,0.04956,7.153e-05,1.247,0.001533,0,0,0.0006886
251400000000,251700000000,4346898072,0,6567878,0.0006809,0.001261,0.005814,0.0002108,0.0004692,0.001589,1.907e-06,0,0.04321,0.0005713,1.314,0.001638,0,0,0.0005693
251700000000,252000000000,4346898072,0,6567878,0.0005121,0.001232,0.005814,0.0002108,0.0004702,0.00157,1.907e-06,0,0.04059,7.153e-05,1.246,0.001392,0,0,7.82e-05
252000000000,252300000000,4346898072,0,6567878,0.0006371,0.001215,0.005814,0.0002108,0.0004702,0.001556,1.907e-06,0,0.04193,0.0003567,1.255,0.0015,0,0,8.488e-05
252300000000,252600000000,4346898072,0,6567878,0.0005178,0.001223,0.005814,0.0002117,0.0004702,0.001583,3.815e-06,0,0.03784,0.0007858,1.295,0.001704,0,0,0.0002708
252600000000,252900000000,4346898072,0,6567878,0.0006351,0.001242,0.005814,0.0002117,0.0004711,0.001585,3.815e-06,0,0.05212,0.0007858,1.238,0.001577,0,0,0.0005503
252900000000,253200000000,4346898072,0,6567878,0.0005293,0.00124,0.005814,0.0002127,0.0004711,0.001583,9.537e-07,0,0.06421,7.153e-05,1.283,0.001843,0,0,0.0001211
253200000000,253500000000,4346898072,0,6567878,0.0006609,0.001245,0.005814,0.0002127,0.0004721,0.001595,2.861e-06,0,0.05951,0.0004997,1.305,0.001868,0,0,0.0001087
253500000000,253800000000,4346898072,0,6567878,0.0005131,0.001259,0.005814,0.0002127,0.0004721,0.00161,9.537e-07,0,0.06244,7.153e-05,1.313,0.00181,0,0,0.0001011
253800000000,254100000000,4346898072,0,6567878,0.0006447,0.001268,0.005814,0.0002127,0.0004721,0.001604,9.537e-06,0,0.06482,0.001429,1.365,0.002005,0,0,0.0005388
254100000000,254400000000,4346898072,0,6567878,0.0005417,0.001263,0.005814,0.0002136,0.000473,0.001606,2.861e-06,0,0.04553,0.0004997,1.377,0.002067,0,0,0.0005808
254400000000,254700000000,4346898072,0,6567878,0.000679,0.001272,0.005814,0.0002136,0.000473,0.001591,9.537e-07,0,0.07153,7.153e-05,1.522,0.002817,0,0,0.0002699
254700000000,255000000000,4346898072,0,6567878,0.000535,0.001257,0.005814,0.0002146,0.000473,0.001585,1.907e-06,0,0.06396,0.0004282,1.545,0.002725,0,0,0.0001583
255000000000,255300000000,4346898072,0,6567878,0.0006628,0.00128,0.005814,0.0002146,0.000474,0.001623,2.956e-05,0,0.06384,0.002644,1.54,0.002572,0,0,0.0001335
255300000000,255600000000,4346898072,0,6567878,0.0005198,0.00127,0.005814,0.0002155,0.000474,0.00161,1.907e-06,0,0.05975,0.0002146,1.589,0.003052,0,0,0.0003195
255600000000,255900000000,4346898072,0,6567878,0.0007153,0.001284,0.005814,0.0002155,0.0004749,0.001623,9.537e-07,0,0.06158,7.153e-05,1.912,0.003837,0,0,0.0002642
255900000000,256200000000,4346898072,0,6567878,0.0005655,0.001263,0.005814,0.0002165,0.0004759,0.001608,9.537e-07,0,0.07031,7.153e-05,1.957,0.003983,0,0,0.0006056
256200000000,256500000000,4346898072,0,6567878,0.0006742,0.001276,0.005814,0.0002165,0.0004759,0.001602,1.907e-06,0,0.06848,7.153e-05,1.781,0.004091,0,0,0.0005684
256500000000,256800000000,4346898072,0,6567878,0.000535,0.001247,0.005814,0.0002174,0.0004759,0.001585,3.815e-06,0,0.06445,0.0005713,2.015,0.004868,0,0,0.0003309
256800000000,257100000000,4346898072,0,6567878,0.0006886,0.001253,0.005814,0.0002174,0.0004768,0.0016,9.537e-07,0,0.05365,7.153e-05,2.119,0.005279,0,0,0.0001392
257100000000,257400000000,4346898072,0,6567878,0.0005569,0.001249,0.005814,0.0002184,0.0004768,0.001606,9.537e-07,0,0.06073,7.153e-05,3.298,0.01037,0,0,0.0006485
257400000000,257700000000,4346898072,0,6567878,0.0006914,0.001276,0.005814,0.0002184,0.0004778,0.001612,2.861e-06,0,0.0625,0.0006428,1.965,0.004358,0,0,0.0001421
257700000000,258000000000,4346898072,0,6567878,0.0005484,0.001255,0.005814,0.0002193,0.0004778,0.0016,1.907e-06,0,0.0589,7.153e-05,3.233,0.009751,0,0,0.0001984
258000000000,258300000000,4346898072,0,6567878,0.0006723,0.001255,0.005814,0.0002193,0.0004787,0.001587,3.815e-06,0,0.06219,0.0009995,3.292,0.01033,0,0,0.0002232
258300000000,258600000000,4346898072,0,6567878,0.0005245,0.001244,0.005814,0.0002193,0.0004787,0.001585,9.537e-07,0,0.05933,7.153e-05,3.309,0.01015,0,0,0.0007544
258600000000,258900000000,4346898072,0,6567878,0.0006981,0.001263,0.005814,0.0002203,0.0004787,0.001593,9.537e-07,0,0.06036,7.153e-05,2.353,0.005716,0,0,0.0002651
258900000000,259200000000,4346898072,0,6567878,0.0005493,0.001261,0.005814,0.0002203,0.0004797,0.001587,1.907e-06,0,0.06146,7.153e-05,3.769,0.01142,0,0,0.0001507
259200000000,259500000000,4346898072,0,6567878,0.0006647,0.001272,0.005814,0.0002213,0.0004797,0.001589,1.907e-06,0,0.04846,0.0003567,3.337,0.009881,0,0,0.0001688
259500000000,259800000000,4346898072,0,6567878,0.000535,0.001249,0.005814,0.0002213,0.0004807,0.001593,3.815e-06,0,0.04236,0.0008574,3.34,0.00947,0,0,0.0001411
259800000000,260100000000,4346898072,0,6567878,0.0006504,0.001261,0.005814,0.0002213,0.0004807,0.001604,9.537e-07,0,0.04126,0.0001431,3.124,0.008799,0,0,0.0006666
260100000000,260400000000,4346898072,0,6567878,0.0005274,0.001261,0.005814,0.0002213,0.0004807,0.001598,9.537e-07,0,0.04236,7.153e-05,3.335,0.009416,0,0,0.0007076
260400000000,260700000000,4346898072,0,6567878,0.0006485,0.001263,0.005814,0.0002222,0.0004807,0.001596,9.537e-07,0,0.03992,7.153e-05,2.877,0.007903,0,0,9.06e-05
260700000000,261000000000,4346898072,0,6567878,0.000535,0.001265,0.005814,0.0002222,0.0004816,0.0016,9.537e-07,0,0.04248,7.153e-05,2.051,0.005139,0,0,0.0001183
261000000000,261300000000,4346898072,0,6567878,0.0006943,0.001278,0.005814,0.0002232,0.0004826,0.001623,2.861e-06,0,0.05347,0.0004282,3.313,0.0102,0,0,0.0002718
261300000000,261600000000,4346898072,0,6567878,0.0005426,0.001268,0.005814,0.0002232,0.0004826,0.00161,8.583e-06,0,0.05774,0.0009289,2.801,0.008421,0,0,0.0001278
261600000000,261900000000,4346898072,0,6567878,0.0006666,0.00127,0.005814,0.0002241,0.0004835,0.001593,2.861e-06,0,0.04034,0.0006428,3.371,0.01014,0,0,9.727e-05
261900000000,262200000000,4346898072,0,6567878,0.0005245,0.001255,0.005814,0.0002241,0.0004835,0.0016,9.537e-07,0,0.04138,7.153e-05,3.317,0.009828,0,0,0.0001001
262200000000,262500000000,4346898072,0,6567878,0.0006552,0.001266,0.005814,0.0002251,0.0004835,0.001595,9.537e-07,0,0.04425,7.153e-05,3.079,0.009163,0,0,0.000329
262500000000,262800000000,4346898072,0,6567878,0.0005245,0.001257,0.005814,0.0002251,0.0004845,0.001587,9.537e-07,0,0.04993,7.153e-05,3.285,0.009637,0,0,0.0005646
262800000000,263100000000,4346898072,0,6567878,0.0006599,0.001255,0.005814,0.000226,0.0004845,0.001591,9.537e-07,0,0.05237,7.153e-05,3.052,0.008815,0,0,0.000104
263100000000,263400000000,4346898072,0,6567878,0.0005302,0.001245,0.005814,0.000226,0.0004854,0.001581,9.537e-07,0,0.05444,7.153e-05,3.287,0.009956,0,0,0.0001078
263400000000,263700000000,4346898072,0,6567878,0.0007048,0.001265,0.005814,0.000227,0.0004854,0.001602,3.815e-06,0,0.06061,0.0006428,3.445,0.01079,0,0,0.0002518
263700000000,264000000000,4346898072,0,6567878,0.0005732,0.001251,0.005814,0.000227,0.0004864,0.001608,9.537e-07,0,0.0592,7.153e-05,3.375,0.009639,0,0,0.0002813
264000000000,264300000000,4346898072,0,6567878,0.0007391,0.001265,0.005814,0.0002279,0.0004864,0.001608,3.815e-06,0,0.05994,0.0009995,3.648,0.01067,0,0,0.0001917
264300000000,264600000000,4346898072,0,6567878,0.0005808,0.001247,0.005814,0.0002279,0.0004873,0.001587,9.537e-07,0,0.06348,7.153e-05,3.818,0.01148,0,0,0.0002708
264600000000,264900000000,4346898072,0,6567878,0.000721,0.001263,0.005814,0.0002289,0.0004873,0.001583,9.537e-07,0,0.06372,7.153e-05,3.336,0.009665,0,0,9.251e-05
264900000000,265200000000,4346898072,0,6567878,0.0005865,0.001244,0.005814,0.0002289,0.0004883,0.001587,9.537e-07,0,0.06262,7.153e-05,3.447,0.009955,0,0,0.0002594
265200000000,265500000000,4346898072,0,6567878,0.0007124,0.00127,0.005814,0.0002289,0.0004883,0.0016,2.861e-06,0,0.06665,0.0004997,3.608,0.01098,0,0,0.0002975
265500000000,265800000000,4346898072,0,6567878,0.0005417,0.001253,0.005814,0.0002298,0.0004883,0.001591,9.537e-07,0,0.06201,7.153e-05,3.052,0.008556,0,0,0.0004015
265800000000,266100000000,4346898072,0,6567878,0.0006924,0.001272,0.005814,0.0002298,0.0004892,0.001595,3.815e-06,0,0.06262,0.0009995,3.07,0.008601,0,0,0.0001087
266100000000,266400000000,4346898072,0,6567878,0.0005407,0.001244,0.005814,0.0002298,0.0004892,0.001568,4.768e-06,0,0.06274,0.0007858,3.1,0.00869,0,0,0.0009747
266400000000,266700000000,4346898072,0,6567878,0.0006809,0.001259,0.005814,0.0002308,0.0004892,0.001591,9.537e-07,0,0.06677,7.153e-05,2.935,0.00816,0,0,0.0002136
266700000000,267000000000,4346898072,0,6567878,0.0005407,0.001253,0.005814,0.0002308,0.0004902,0.001596,1.907e-06,0,0.06641,0.0002861,3.496,0.0105,0,0,0.0006618
267000000000,267300000000,4346898072,0,6567878,0.0007133,0.00127,0.005814,0.0002317,0.0004902,0.001596,9.537e-07,0,0.0636,7.153e-05,3.605,0.01085,0,0,9.823e-05
267300000000,267600000000,4346898072,0,6567878,0.000556,0.001259,0.005814,0.0002317,0.0004911,0.001604,9.537e-07,0,0.06219,7.153e-05,3.406,0.009971,0,0,0.000144
267600000000,267900000000,4346898072,0,6567878,0.0006561,0.001261,0.005814,0.0002317,0.0004911,0.001583,9.537e-07,0,0.06287,7.153e-05,3.139,0.008967,0,0,0.0005159
267900000000,268200000000,4346898072,0,6567878,0.000535,0.001245,0.005814,0.0002317,0.0004911,0.001587,4.768e-06,0,0.06189,0.001143,3.356,0.009946,0,0,8.202e-05
268200000000,268500000000,4346898072,0,6567878,0.0006599,0.001272,0.005814,0.0002327,0.0004911,0.001595,9.537e-07,0,0.0603,7.153e-05,3.042,0.008639,0,0,0.0001516
268500000000,268800000000,4346898072,0,6567878,0.0004997,0.001238,0.005814,0.0002327,0.0004921,0.001591,2.861e-06,0,0.0509,0.0004997,3.113,0.008892,0,0,0.0001545
268800000000,269100000000,4346898072,0,6567878,0.0006447,0.001234,0.005814,0.0002327,0.0004921,0.001583,2.861e-06,0,0.03912,0.0005713,2.956,0.008071,0,0,0.0004282
269100000000,269400000000,4346898072,0,6567878,0.0005331,0.001215,0.005814,0.0002337,0.0004921,0.001574,2.861e-06,0,0.04053,0.0002861,3.13,0.008868,0,0,0.0004749
269400000000,269700000000,4346898072,0,6567878,0.0006495,0.001247,0.005814,0.0002337,0.000493,0.001562,3.815e-06,0,0.03992,0.0009995,3.04,0.008654,0,0,0.0002966
269700000000,270000000000,4346898072,0,6567878,0.0005531,0.001249,0.005814,0.0002346,0.000493,0.001583,9.537e-07,0,0.05023,7.153e-05,3.257,0.009429,0,0,9.346e-05
270000000000,270300000000,4346898072,0,6567878,0.0006723,0.001265,0.005814,0.0002346,0.000494,0.001574,9.537e-07,0,0.03967,7.153e-05,3.203,0.009481,0,0,0.0001745
270300000000,270600000000,4346898072,0,6567878,0.0005293,0.001251,0.005814,0.0002346,0.000494,0.00157,9.537e-07,0,0.04022,7.153e-05,3.087,0.008776,0,0,0.0001278
270600000000,270900000000,4346898072,0,6567878,0.0006485,0.001266,0.005814,0.0002356,0.000494,0.001577,1.907e-06,0,0.04095,7.153e-05,2.866,0.00775,0,0,0.0002756
270900000000,271200000000,4346898072,0,6567878,0.0005589,0.001255,0.005814,0.0002356,0.000495,0.001587,9.537e-07,0,0.06445,7.153e-05,3.474,0.01037,0,0,0.0005646
271200000000,271500000000,4346898072,0,6567878,0.0007324,0.001266,0.005814,0.0002365,0.0004959,0.001608,2.861e-06,0,0.04468,0.0004282,3.699,0.011,0,0,0.0001621
281400000000,281700000000,4346898072,0,6567878,0.0006323,0.001278,0.005814,0.000247,0.0005064,0.001627,9.537e-07,0,0.04352,7.153e-05,2.999,0.008203,0,0,0.000186
281700000000,282000000000,4346898072,0,6567878,0.000495,0.001265,0.005814,0.000247,0.0005064,0.001616,9.537e-07,0,0.06653,7.153e-05,3.118,0.008666,0,0,0.0001678
282000000000,282300000000,4346898072,0,6567878,0.0006733,0.001284,0.005814,0.000248,0.0005074,0.001631,9.537e-07,0,0.07007,7.153e-05,3.021,0.008046,0,0,0.0001707
282300000000,282600000000,4346898072,0,6567878,0.0005217,0.001263,0.005814,0.000248,0.0005074,0.001591,9.537e-07,0,0.0589,7.153e-05,3.138,0.008501,0,0,0.0001593
282600000000,282900000000,4346898072,0,6567878,0.0006523,0.001286,0.005814,0.0002489,0.0005074,0.001625,2.861e-06,0,0.06848,0.0004282,3.121,0.008538,0,0,9.537e-05
282900000000,283200000000,4346898072,0,6567878,0.0005255,0.001274,0.005814,0.0002489,0.0005083,0.001604,2.861e-06,0,0.06067,0.0004282,3.356,0.009554,0,0,0.0005245
283200000000,283500000000,4346898072,0,6567878,0.0006561,0.001282,0.005814,0.0002489,0.0005083,0.001614,1.907e-06,0,0.06689,7.153e-05,3.349,0.009692,0,0,0.0001411
283500000000,283800000000,4346898072,0,6567878,0.0005331,0.001268,0.005814,0.0002499,0.0005083,0.001614,1.907e-06,0,0.06287,0.0001431,3.485,0.01009,0,0,0.0001059
283800000000,284100000000,4346898072,0,6567878,0.0006714,0.001274,0.005814,0.0002499,0.0005093,0.001606,1.907e-06,0,0.06073,0.0003567,3.451,0.01017,0,0,0.0003777
284100000000,284400000000,4346898072,0,6567878,0.0005455,0.001278,0.005814,0.0002508,0.0005093,0.001627,1.907e-06,0,0.05054,0.0002146,2.4,0.005775,0,0,0.0003004
284400000000,284700000000,4346898072,0,6567878,0.0006866,0.00128,0.005814,0.0002508,0.0005102,0.001614,1.907e-06,0,0.06287,7.153e-05,3.663,0.01107,0,0,0.0001802
284700000000,285000000000,4346898072,0,6567878,0.0005503,0.001268,0.005814,0.0002508,0.0005093,0.001612,1.907e-06,0,0.06946,0.0004282,3.293,0.00936,0,0,0.0002308
285000000000,285300000000,4346898072,0,6567878,0.0006704,0.001278,0.005814,0.000248,0.0005074,0.001608,9.537e-07,0,0.06494,7.153e-05,3.168,0.008867,0,0,6.58e-05
285300000000,285600000000,4346898072,0,6567878,0.0005169,0.001274,0.005814,0.000248,0.0005074,0.00164,1.907e-06,0,0.06323,7.153e-05,3.271,0.009372,0,0,0.0001554
285600000000,285900000000,4346898072,0,6567878,0.0006695,0.001286,0.005814,0.0002489,0.0005074,0.001638,1.907e-06,0,0.06445,0.0002861,3.29,0.009837,0,0,0.0002012
285900000000,286200000000,4346898072,0,6567878,0.0005388,0.00127,0.005814,0.0002489,0.0005083,0.001637,9.537e-07,0,0.06299,7.153e-05,3.386,0.009497,0,0,0.0002041
286200000000,286500000000,4346898072,0,6567878,0.0006704,0.001287,0.005814,0.0002489,0.0005083,0.001642,3.815e-06,0,0.06287,0.0009289,3.379,0.009666,0,0,7.725e-05
286500000000,286800000000,4346898072,0,6567878,0.0005341,0.00127,0.005814,0.0002499,0.0005083,0.001644,9.537e-07,0,0.06299,7.153e-05,3.361,0.009515,0,0,0.0002022
286800000000,287100000000,4346898072,0,6567878,0.0006361,0.001276,0.005814,0.0002499,0.0005093,0.001627,1.907e-06,0,0.04297,0.0002146,3.176,0.009014,0,0,9.823e-05
287100000000,287400000000,4346898072,0,6567878,0.0005245,0.001272,0.005814,0.0002508,0.0005093,0.001633,1.907e-06,0,0.04047,0.0002861,3.168,0.009077,0,0,0.0001707
287400000000,287700000000,4346898072,0,6567878,0.0006628,0.001282,0.005814,0.0002508,0.0005093,0.001621,2.861e-06,0,0.04089,0.0006428,3.183,0.009188,0,0,6.771e-05
287700000000,288000000000,4346898072,0,6567878,0.0005026,0.001274,0.005814,0.0002508,0.0005102,0.00161,1.907e-06,0,0.03918,0.0002861,3.176,0.00909,0,0,0.000205
288000000000,288300000000,4346898072,0,6567878,0.0006475,0.001289,0.005814,0.0002508,0.0005102,0.001621,4.768e-06,0,0.05396,0.0009995,3.237,0.009464,0,0,0.0006428
288300000000,288600000000,4346898072,0,6567878,0.0005283,0.001293,0.005814,0.0002518,0.0005112,0.001612,2.861e-06,0,0.04193,0.0005713,3.432,0.01014,0,0,0.000145
288600000000,288900000000,4346898072,0,6567878,0.000658,0.001301,0.005814,0.0002518,0.0005112,0.00161,6.676e-06,0,0.04187,0.001429,3.226,0.009419,0,0,0.0001192
288900000000,289200000000,4346898072,0,6567878,0.000536,0.001291,0.005814,0.0002527,0.0005112,0.001619,1.907e-06,0,0.04224,7.153e-05,3.444,0.01031,0,0,0.0001554
289200000000,289500000000,4346898072,0,6567878,0.0007191,0.001284,0.005814,0.0002527,0.0005121,0.0016,9.537e-07,0,0.04272,7.153e-05,3.712,0.01048,0,0,0.0001078
289500000000,289800000000,4346898072,0,6567878,0.0005465,0.00128,0.005814,0.0002537,0.0005131,0.001617,9.537e-07,0,0.03918,7.153e-05,3.579,0.01089,0,0,0.0002937
289800000000,290100000000,4346898072,0,6567878,0.000679,0.001297,0.005814,0.0002537,0.0005131,0.001602,9.537e-07,0,0.05481,7.153e-05,3.472,0.01041,0,0,0.0003099
290100000000,290400000000,4346898072,0,6567878,0.0005312,0.001251,0.005814,0.0002546,0.000514,0.001566,6.676e-06,0,0.03979,0.001143,3.483,0.01044,0,0,0.0003929
290400000000,290700000000,4346898072,0,6567878,0.0006742,0.001265,0.005814,0.0002546,0.000514,0.001587,9.537e-07,0,0.04181,7.153e-05,3.375,0.01014,0,0,6.866e-05
290700000000,291000000000,4346898072,0,6567878,0.0005264,0.001257,0.005814,0.0002556,0.000514,0.001602,9.537e-06,0,0.04022,0.002571,3.299,0.009519,0,0,0.0001163
291000000000,291300000000,4346898072,0,6567878,0.0006371,0.001272,0.005814,0.0002556,0.000515,0.001614,9.537e-07,0,0.03894,0.0001431,3.087,0.008819,0,0,0.0002079
291300000000,291600000000,4346898072,0,6567878,0.0005112,0.001253,0.005814,0.0002556,0.000515,0.001623,1.907e-06,0,0.05963,7.153e-05,3.21,0.009341,0,0,0.0004072
291600000000,291900000000,4346898072,0,6567878,0.0006609,0.00128,0.005814,0.0002565,0.000515,0.001617,9.537e-07,0,0.06384,7.153e-05,3.255,0.009337,0,0,0.0002518
291900000000,292200000000,4346898072,0,6567878,0.0005274,0.001266,0.005814,0.0002537,0.0005131,0.001598,1.431e-05,0,0.06128,0.002644,3.315,0.009627,0,0,0.0005922
292200000000,292500000000,4346898072,0,6567878,0.0006504,0.001249,0.005814,0.0002527,0.0005121,0.001602,5.722e-06,0,0.06244,0.001499,2.972,0.008178,0,0,0.0001268
292500000000,292800000000,4346898072,0,6567878,0.0005131,0.001213,0.005814,0.0002537,0.0005121,0.001551,9.537e-07,0,0.06946,0.0001431,3.076,0.008617,0,0,0.0001154
292800000000,293100000000,4346898072,0,6567878,0.0006475,0.001253,0.005814,0.0002537,0.0005131,0.001583,1.907e-06,0,0.0697,0.0001431,3.155,0.009198,0,0,0.0002422
293100000000,293400000000,4346898072,0,6567878,0.0005341,0.001247,0.005814,0.0002537,0.0005131,0.001558,2.861e-06,0,0.06372,0.0002861,3.429,0.0101,0,0,0.0008726
293400000000,293700000000,4346898072,0,6567878,0.0006752,0.001274,0.005814,0.0002546,0.000514,0.001581,9.537e-07,0,0.06073,7.153e-05,3.391,0.01005,0,0,0.0005331
293700000000,294000000000,4346898072,0,6567878,0.0005293,0.001244,0.005814,0.0002546,0.000514,0.00156,9.537e-07,0,0.05322,7.153e-05,3.338,0.009762,0,0,0.000493
294000000000,294300000000,4346898072,0,6567878,0.0006571,0.001276,0.005814,0.0002556,0.000515,0.001606,1.907e-06,0,0.04395,7.153e-05,3.168,0.00914,0,0,0.0001297
294300000000,294600000000,4346898072,0,6567878,0.0005198,0.001268,0.005814,0.0002556,0.000515,0.001606,9.537e-07,0,0.047,7.153e-05,3.185,0.009198,0,0,0.0004759
294600000000,294900000000,4346898072,0,6567878,0.0006561,0.001286,0.005814,0.0002565,0.000515,0.001625,9.537e-07,0,0.06018,7.153e-05,3.062,0.008809,0,0,0.0002928
294900000000,295200000000,4346898072,0,6567878,0.0005007,0.001266,0.005814,0.0002565,0.0005159,0.001616,1.907e-06,0,0.0614,0.0002861,3.096,0.00883,0,0,0.0002241
295200000000,295500000000,4346898072,0,6567878,0.0006599,0.001278,0.005814,0.0002565,0.0005159,0.001617,1.907e-06,0,0.05603,0.0002146,2.983,0.008147,0,0,0.0002394
295500000000,295800000000,4346898072,0,6567878,0.0005369,0.001266,0.005814,0.0002575,0.0005159,0.001614,9.537e-07,0,0.06177,7.153e-05,3.187,0.008977,0,0,0.0001545
295800000000,296100000000,4346898072,0,6567878,0.0006609,0.001284,0.005814,0.0002575,0.0005169,0.001606,9.537e-07,0,0.06238,7.153e-05,2.934,0.008198,0,0,0.000145
296100000000,296400000000,4346898072,0,6567878,0.0005121,0.001272,0.005814,0.0002575,0.0005169,0.001602,9.537e-07,0,0.06171,7.153e-05,3.031,0.008449,0,0,0.0001602
296400000000,296700000000,4346898072,0,6567878,0.0006552,0.001293,0.005814,0.0002584,0.0005169,0.001612,9.537e-07,0,0.05945,7.153e-05,3.087,0.008739,0,0,0.0002403
296700000000,297000000000,4346898072,0,6567878,0.0005083,0.001272,0.005814,0.0002584,0.0005178,0.0016,9.537e-07,0,0.05859,7.153e-05,3.343,0.00953,0,0,9.441e-05
297000000000,297300000000,4346898072,0,6567878,0.0006514,0.001291,0.005814,0.0002584,0.0005178,0.001612,3.815e-06,0,0.06189,0.0007858,2.912,0.007962,0,0,0.0001307
297300000000,297600000000,4346898072,0,6567878,0.0005064,0.00128,0.005814,0.0002594,0.0005178,0.001621,1.335e-05,0,0.04205,0.001928,3.229,0.009283,0,0,6.771e-05
297600000000,297900000000,4346898072,0,6567878,0.0006504,0.001274,0.005814,0.0002594,0.0005188,0.001593,2.861e-06,0,0.0426,0.0004997,3.256,0.009329,0,0,0.0001268
297900000000,298200000000,4346898072,0,6567878,0.0005159,0.001257,0.005814,0.0002594,0.0005188,0.001604,9.537e-07,0,0.04114,7.153e-05,3.007,0.008464,0,0,0.0005827
298200000000,298500000000,4346898072,0,6567878,0.0006685,0.00128,0.005814,0.0002604,0.0005188,0.001614,9.537e-07,0,0.04852,7.153e-05,3.11,0.008812,0,0,0.0001411
298500000000,298800000000,4346898072,0,6567878,0.0005388,0.001261,0.005814,0.0002604,0.0005198,0.001621,1.907e-06,0,0.04034,7.153e-05,3.414,0.01009,0,0,0.000164
298800000000,299100000000,4346898072,0,6567878,0.0006561,0.001286,0.005814,0.0002613,0.0005198,0.001642,1.907e-06,0,0.04059,7.153e-05,3.188,0.009102,0,0,8.106e-05
299100000000,299400000000,4346898072,0,6567878,0.0005283,0.001257,0.005814,0.0002613,0.0005207,0.00161,1.144e-05,0,0.05542,0.002071,3.344,0.009707,0,0,0.000144
299400000000,299700000000,4346898072,0,6567878,0.0006571,0.001263,0.005814,0.0002623,0.0005207,0.001589,9.537e-07,0,0.04102,7.153e-05,3.132,0.009136,0,0,0.0003252
299700000000,300000000000,4346898072,0,6567878,0.0005236,0.001259,0.005814,0.0002623,0.0005217,0.001591,5.722e-06,0,0.04193,0.001358,3.175,0.008959,0,0,0.0006323
