5700000000,6000000000,4416216626,0,257502343,0.001913,0.005486,0.01743,0.0103,0.01103,0.005508,0.0003271,0.000144,0.0564,0.01791,2.037,0.005775,0,1,0
6000000000,6300000000,4416216626,0,257502343,0.001905,0.005501,0.01743,0.01031,0.01105,0.005508,0.000391,0.000144,0.06104,0.008423,2.017,0.005745,0,1,0
6300000000,6600000000,4416216626,0,257502343,0.001995,0.005501,0.01743,0.01033,0.01106,0.005508,0.000268,0.000144,0.05945,0.006569,2.064,0.005627,0,1,0
6600000000,6900000000,4416216626,0,257502343,0.001945,0.005501,0.01743,0.01033,0.01106,0.005508,0.0002222,0.000144,0.06982,0.006142,1.915,0.005162,0,1,0
6900000000,7200000000,4416216626,0,257502343,0.002022,0.005501,0.01743,0.0103,0.01103,0.005508,0.000185,0.000144,0.07751,0.005356,2.037,0.005911,0,1,0
7200000000,7500000000,4416216626,0,257502343,0.002018,0.005501,0.01743,0.0103,0.01103,0.005508,0.0002756,0.000144,0.05756,0.01186,2.23,0.006321,0,1,0
7500000000,7800000000,4416216626,0,257502343,0.002052,0.005501,0.01743,0.0103,0.01103,0.005508,0.0002985,0.000144,0.06665,0.009644,2.182,0.006059,0,1,0
7800000000,8100000000,4416216626,0,257502343,0.00198,0.005501,0.01743,0.01031,0.01105,0.005508,0.0002289,0.000144,0.06946,0.006859,1.976,0.005367,0,1,0
8100000000,8400000000,4416216626,0,257502343,0.001909,0.005501,0.01743,0.01031,0.01105,0.005508,0.0002575,0.000144,0.06506,0.006538,1.978,0.005502,0,1,0
8400000000,8700000000,4416216626,0,257502343,0.001995,0.005501,0.01743,0.01028,0.011,0.005508,0.0002394,0.000144,0.07727,0.005074,2.01,0.005327,0,1,0
8700000000,9000000000,4416216626,0,257502343,0.002018,0.005501,0.01743,0.01003,0.01076,0.005508,0.0001678,0.000144,0.07373,0.004211,2.037,0.005477,0,1,0
9000000000,9300000000,4416216626,0,257502343,0.006409,0.005524,0.01743,0.01024,0.01097,0.005753,0.0003901,0.000145,0.1777,0.01372,1.391,0.002496,0,1,0
9300000000,9600000000,4416216626,0,257502343,0.00634,0.005928,0.01743,0.01077,0.01151,0.006378,0.0004206,0.0001459,0.1663,0.01651,1.345,0.001456,0,1,0
9600000000,9900000000,4416216626,0,257502343,0.005119,0.006523,0.01743,0.01123,0.01196,0.006744,0.0003157,0.0001469,0.2058,0.00914,2.01,0.004872,0,1,0
9900000000,10200000000,4416216626,0,257502343,0.006622,0.007118,0.01743,0.0117,0.01244,0.007515,0.0003424,0.0001488,0.1636,0.0125,1.803,0.004245,0,1,0
10200000000,10500000000,4416216626,0,257502343,0.005348,0.007683,0.01743,0.01192,0.01265,0.008148,0.0003967,0.0001497,0.1516,0.01599,1.639,0.003897,0,1,0
10500000000,10800000000,4416216626,0,257502343,0.006264,0.008301,0.0174,0.01189,0.01262,0.008698,0.0004101,0.0001507,0.1821,0.01308,1.117,0.001276,0,1,0
10800000000,11100000000,4416216626,0,257502343,0.004654,0.008804,0.01743,0.01181,0.01254,0.009033,0.0004435,0.0001516,0.1626,0.01685,1.435,0.00232,0,1,0
11100000000,11400000000,4416216626,0,257502343,0.007812,0.009354,0.01743,0.01183,0.01256,0.009552,0.0003099,0.0001535,0.1814,0.009567,1.625,0.002629,0,1,0
11400000000,11700000000,4416216626,0,257502343,0.001987,0.009491,0.01743,0.01186,0.01259,0.009521,0.0002308,0.0001535,0.07434,0.007713,2.119,0.005896,0,1,0
11700000000,12000000000,4416216626,0,257502343,0.001995,0.009491,0.01743,0.01186,0.01259,0.009521,0.0001745,0.0001535,0.0741,0.009644,2.071,0.005717,0,1,0
12000000000,12300000000,4416216626,0,257502343,0.001928,0.009506,0.01743,0.01187,0.0126,0.009537,0.000246,0.0001535,0.07581,0.006783,1.943,0.005405,0,1,0
12300000000,12600000000,4416216626,0,257502343,0.002029,0.009506,0.01743,0.01187,0.0126,0.009537,0.0001688,0.0001535,0.07971,0.004356,2.149,0.005932,0,1,0
12600000000,12900000000,4416216626,0,257502343,0.001987,0.009506,0.01743,0.01187,0.0126,0.009537,0.0002012,0.0001535,0.05408,0.005287,1.999,0.005352,0,1,0
12900000000,13200000000,4416216626,0,257502343,0.001938,0.00946,0.01743,0.01187,0.0126,0.009506,0.0001421,0.0001535,0.1101,0.002716,1.88,0.004892,0,1,0
13200000000,13500000000,4416216626,0,257502343,0.0019,0.009384,0.01743,0.01189,0.01262,0.009445,0.0001402,0.0001535,0.06299,0.002213,1.927,0.005156,0,1,0
13500000000,13800000000,4416216626,0,257502343,0.001898,0.009277,0.01743,0.01189,0.01262,0.009338,0.0001431,0.0001535,0.07422,0.001785,1.88,0.005019,0,1,0
13800000000,14100000000,4416216626,0,257502343,0.001911,0.009109,0.01743,0.0119,0.01263,0.009216,0.0001564,0.0001535,0.0719,0.00243,1.887,0.004862,0,1,0
14100000000,14400000000,4416216626,0,257502343,0.00201,0.008896,0.01743,0.01189,0.01262,0.009018,0.0001392,0.0001535,0.08386,0.001928,1.855,0.004883,0,1,0
14400000000,14700000000,4416216626,0,257502343,0.001936,0.008575,0.01743,0.0119,0.01263,0.008743,0.0001469,0.0001526,0.07568,0.002716,1.801,0.004744,0,1,0
14700000000,15000000000,4416216626,0,257502343,0.002052,0.00824,0.01743,0.01186,0.01259,0.008469,0.000145,0.0001526,0.08057,0.00293,1.949,0.004947,0,1,0
15000000000,15300000000,4416216626,0,257502343,0.001957,0.007843,0.01743,0.01186,0.01259,0.008057,0.0001488,0.0001526,0.07471,0.003284,2.064,0.005458,0,1,0
15300000000,15600000000,4416216626,0,257502343,0.001896,0.007477,0.01743,0.01187,0.0126,0.007668,0.0001459,0.0001526,0.078,0.004425,1.856,0.004918,0,1,0
15600000000,15900000000,4416216626,0,257502343,0.001892,0.007072,0.01743,0.01187,0.0126,0.007286,0.0001364,0.0001526,0.0675,0.002499,1.841,0.00505,0,1,0
15900000000,16200000000,4416216626,0,257502343,0.002205,0.006737,0.01743,0.0119,0.01263,0.006905,0.0001621,0.0001526,0.09753,0.002499,1.638,0.003354,0,1,0
16200000000,16500000000,4416216626,0,257502343,0.002068,0.006424,0.01743,0.0119,0.01263,0.006592,0.0001364,0.0001526,0.08582,0.00293,1.893,0.005033,0,1,0
16500000000,16800000000,4416216626,0,257502343,0.002064,0.006081,0.01743,0.01192,0.01265,0.006271,0.0001297,0.0001526,0.08044,0.001358,1.89,0.004876,0,1,0
16800000000,17100000000,4416216626,0,257502343,0.00206,0.005791,0.01743,0.01193,0.01266,0.005936,0.0001364,0.0001526,0.08093,0.002571,1.88,0.004882,0,1,0
17100000000,17400000000,4416216626,0,257502343,0.002045,0.005592,0.01743,0.01193,0.01266,0.005661,0.0001335,0.0001535,0.0658,0.003216,1.832,0.004737,0,1,0
17400000000,17700000000,4416216626,0,257502343,0.002075,0.005577,0.01743,0.01193,0.01266,0.005577,0.0001354,0.0001535,0.08008,0.003357,1.835,0.004629,0,1,0
17700000000,18000000000,4416216626,0,257502343,0.002098,0.005577,0.01743,0.01195,0.01268,0.005585,0.0001364,0.0001535,0.06641,0.002357,1.835,0.004681,0,1,0
18000000000,18300000000,4416216626,0,257502343,0.00211,0.005577,0.01743,0.01195,0.01268,0.005577,0.0001287,0.0001535,0.07251,0.001999,1.844,0.004767,0,1,0
18300000000,18600000000,4416216626,0,257502343,0.002087,0.005577,0.01743,0.01195,0.01268,0.005585,0.0001421,0.0001535,0.08142,0.001928,1.894,0.004936,0,1,0
18600000000,18900000000,4416216626,0,257502343,0.002068,0.005577,0.01743,0.01193,0.01266,0.005585,0.0001287,0.0001535,0.05872,0.001715,1.92,0.004996,0,1,0
18900000000,19200000000,4416216626,0,257502343,0.002026,0.005577,0.01743,0.01195,0.01268,0.005585,0.0001383,0.0001535,0.08594,0.003357,1.761,0.004585,0,1,0
19200000000,19500000000,4416216626,0,257502343,0.002075,0.005577,0.01743,0.01195,0.01268,0.005577,0.0001345,0.0001535,0.08118,0.003143,1.767,0.00464,0,1,0
19500000000,19800000000,4416216626,0,257502343,0.00211,0.005577,0.01743,0.01193,0.01266,0.005585,0.0001345,0.0001535,0.05389,0.002785,1.76,0.004671,0,1,0
19800000000,20100000000,4416216626,0,257502343,0.002098,0.005585,0.01743,0.01196,0.01268,0.0056,0.0001812,0.0001535,0.08862,0.01663,1.66,0.004016,0,1,0
20100000000,20400000000,4416216626,0,257502343,0.002098,0.005592,0.01743,0.01195,0.01268,0.005608,0.0001774,0.0001535,0.08923,0.01036,1.729,0.004408,0,1,0
20400000000,20700000000,4416216626,0,257502343,0.002087,0.0056,0.01743,0.01192,0.01265,0.005608,0.0001364,0.0001535,0.08508,0.00243,1.753,0.004564,0,1,0
20700000000,21000000000,4416216626,0,257502343,0.002071,0.0056,0.01743,0.01192,0.01263,0.005608,0.0001287,0.0001535,0.07788,0.001858,1.773,0.004541,0,1,0
21000000000,21300000000,4416216626,0,257502343,0.002052,0.0056,0.01743,0.01192,0.01265,0.005608,0.0001316,0.0001535,0.07703,0.002571,1.74,0.004394,0,1,0
21300000000,21600000000,4416216626,0,257502343,0.002098,0.0056,0.01743,0.01192,0.01265,0.005608,0.000144,0.0001535,0.08594,0.002285,1.766,0.004597,0,1,0
21600000000,21900000000,4416216626,0,257502343,0.002186,0.0056,0.01743,0.01192,0.01265,0.005608,0.000145,0.0001535,0.08459,0.00293,1.767,0.004668,0,1,0
21900000000,22200000000,4416216626,0,257502343,0.00222,0.0056,0.01743,0.01192,0.01265,0.005608,0.0001364,0.0001535,0.0769,0.001999,1.846,0.004923,0,1,0
22200000000,22500000000,4416216626,0,257502343,0.002209,0.0056,0.01743,0.01192,0.01265,0.005608,0.0001402,0.0001535,0.1074,0.002571,1.867,0.005081,0,1,0
22500000000,22800000000,4416216626,0,257502343,0.002171,0.0056,0.01743,0.01193,0.01265,0.005608,0.0001526,0.0001535,0.07703,0.004425,1.815,0.004837,0,1,0
22800000000,23100000000,4416216626,0,257502343,0.002075,0.005608,0.01743,0.01193,0.01266,0.005615,0.0001554,0.0001535,0.07288,0.003216,1.805,0.00468,0,1,0
23100000000,23400000000,4416216626,0,257502343,0.001879,0.005608,0.01743,0.01195,0.01266,0.005615,0.0001354,0.0001535,0.06165,0.002644,1.728,0.004436,0,1,0
23400000000,23700000000,4416216626,0,257502343,0.001886,0.005608,0.01743,0.01195,0.01268,0.005608,0.000145,0.0001535,0.07715,0.002644,1.733,0.004408,0,1,0
23700000000,24000000000,4416216626,0,257502343,0.001879,0.005615,0.01743,0.01164,0.01237,0.005623,0.000145,0.0001535,0.0791,0.002644,1.747,0.00434,0,1,0
24000000000,24300000000,4416216626,0,257502343,0.001862,0.005615,0.01743,0.01166,0.01239,0.005623,0.0001307,0.0001535,0.07422,0.001499,1.742,0.004601,0,1,0
24300000000,24600000000,4416216626,0,257502343,0.001865,0.005615,0.01743,0.01166,0.01239,0.005623,0.0001268,0.0001535,0.06763,0.002213,1.74,0.00458,0,1,0
24600000000,24900000000,4416216626,0,257502343,0.001886,0.005615,0.01743,0.01167,0.01241,0.005623,0.0001326,0.0001535,0.06787,0.001499,1.782,0.004621,0,1,0
24900000000,25200000000,4416216626,0,257502343,0.001907,0.005608,0.01743,0.01167,0.01241,0.005623,0.0001297,0.0001535,0.07629,0.002357,1.832,0.004889,0,1,0
25200000000,25500000000,4416216626,0,257502343,0.001921,0.005608,0.01743,0.01169,0.01242,0.005623,0.0001469,0.0001535,0.0708,0.00243,1.816,0.00469,0,1,0
25500000000,25800000000,4416216626,0,257502343,0.001856,0.005615,0.01743,0.01169,0.01242,0.005623,0.0001307,0.0001535,0.06506,0.001785,1.75,0.004504,0,1,0
25800000000,26100000000,4416216626,0,257502343,0.001936,0.005615,0.01743,0.0117,0.01244,0.005623,0.0001469,0.0001535,0.08142,0.003216,1.941,0.005124,0,1,0
26100000000,26400000000,4416216626,0,257502343,0.00194,0.005615,0.01743,0.0117,0.01244,0.005623,0.0001364,0.0001535,0.06946,0.001999,1.856,0.004962,0,1,0
26400000000,26700000000,4416216626,0,257502343,0.001957,0.005615,0.01743,0.01172,0.01245,0.005623,0.0001383,0.0001535,0.07678,0.002499,1.89,0.005024,0,1,0
26700000000,27000000000,4416216626,0,257502343,0.001942,0.005615,0.01743,0.01172,0.01245,0.005623,0.0001411,0.0001535,0.06018,0.00243,1.919,0.005087,0,1,0
27000000000,27300000000,4416216626,0,257502343,0.001917,0.005615,0.01743,0.01173,0.01247,0.005623,0.000144,0.0001535,0.07129,0.00293,1.862,0.005043,0,1,0
27300000000,27600000000,4416216626,0,257502343,0.001926,0.005615,0.01743,0.01173,0.01247,0.005623,0.0001459,0.0001535,0.07556,0.004143,1.901,0.00496,0,1,0
27600000000,27900000000,4416216626,0,257502343,0.001917,0.005615,0.01743,0.01175,0.01248,0.005623,0.0001364,0.0001535,0.07324,0.002285,1.859,0.004899,0,1,0
27900000000,28200000000,4416216626,0,257502343,0.001915,0.005615,0.01743,0.01176,0.01248,0.005615,0.0001478,0.0001535,0.07776,0.002785,1.871,0.004897,0,1,0
28200000000,28500000000,4416216626,0,257502343,0.001822,0.005615,0.01743,0.01176,0.0125,0.005615,0.0001307,0.0001535,0.07617,0.001785,1.737,0.004395,0,1,0
28500000000,28800000000,4416216626,0,257502343,0.002079,0.005615,0.01743,0.01176,0.0125,0.005623,0.000164,0.0001535,0.0835,0.003929,1.738,0.00442,0,1,0
28800000000,29100000000,4416216626,0,257502343,0.002293,0.005615,0.01743,0.01176,0.0125,0.005623,0.0001307,0.0001535,0.08899,0.002071,1.754,0.004479,0,1,0
29100000000,29400000000,4416216626,0,257502343,0.002174,0.005615,0.01743,0.01176,0.0125,0.005623,0.0001402,0.0001535,0.0885,0.003357,1.693,0.004165,0,1,0
29400000000,29700000000,4416216626,0,257502343,0.002163,0.005615,0.01743,0.01176,0.0125,0.005615,0.0001411,0.0001535,0.08765,0.002357,1.676,0.00417,0,1,0
29700000000,30000000000,4416216626,0,257502343,0.00206,0.005608,0.01743,0.01176,0.0125,0.005623,0.0001354,0.0001535,0.04327,0.001358,1.664,0.004208,0,1,0
30000000000,30300000000,4416216626,0,257502343,0.002121,0.005608,0.01743,0.01176,0.0125,0.005623,0.000144,0.0001535,0.06665,0.002357,1.668,0.004164,0,1,0
30300000000,30600000000,4416216626,0,257502343,0.002083,0.005608,0.01743,0.01178,0.0125,0.005623,0.0001345,0.0001535,0.07385,0.001928,1.681,0.004264,0,1,0
30600000000,30900000000,4416216626,0,257502343,0.002007,0.005608,0.01743,0.01178,0.01251,0.005623,0.0001402,0.0001535,0.073,0.001715,1.592,0.004046,0,1,0
30900000000,31200000000,4416216626,0,257502343,0.002029,0.005615,0.01743,0.0118,0.01253,0.00563,0.0001936,0.0001535,0.08606,0.011,1.595,0.003965,0,1,0
31200000000,31500000000,4416216626,0,257502343,0.002018,0.005623,0.01743,0.01181,0.01254,0.005638,0.0001459,0.0001535,0.07715,0.001999,1.634,0.004059,0,1,0
31500000000,31800000000,4416216626,0,257502343,0.002045,0.00563,0.01743,0.01183,0.01256,0.005646,0.0001812,0.0001535,0.09265,0.005859,1.625,0.004071,0,1,0
31800000000,32100000000,4416216626,0,257502343,0.001806,0.00563,0.01743,0.01184,0.01257,0.005646,0.0001287,0.0001535,0.07227,0.002285,1.842,0.004809,0,1,0
32100000000,32400000000,4416216626,0,257502343,0.001854,0.005653,0.01743,0.01187,0.0126,0.005653,0.0002308,0.0001535,0.06604,0.02408,1.813,0.004643,0,1,0
32400000000,32700000000,4416216626,0,257502343,0.001875,0.005653,0.01743,0.01187,0.0126,0.005661,0.0001278,0.0001535,0.06726,0.001499,2.069,0.005652,0,1,0
32700000000,33000000000,4416216626,0,257502343,0.001987,0.005653,0.01743,0.01189,0.01262,0.005653,0.0001373,0.0001535,0.06085,0.001785,1.978,0.005625,0,1,0
33000000000,33300000000,4416216626,0,257502343,0.002007,0.005653,0.01743,0.01187,0.0126,0.005661,0.0001554,0.0001535,0.08215,0.002785,1.991,0.005274,0,1,0
33300000000,33600000000,4416216626,0,257502343,0.001972,0.005653,0.01743,0.01186,0.01259,0.005661,0.0001373,0.0001535,0.08569,0.001715,1.996,0.005412,0,1,0
33600000000,33900000000,4416216626,0,257502343,0.001957,0.005653,0.01743,0.01187,0.0126,0.005661,0.0001364,0.0001535,0.07776,0.001858,1.945,0.005547,0,1,0
33900000000,34200000000,4416216626,0,257502343,0.001984,0.005653,0.01743,0.01187,0.0126,0.005661,0.0001335,0.0001535,0.07153,0.001928,2.028,0.005604,0,1,0
34200000000,34500000000,4416216626,0,257502343,0.001951,0.005653,0.01743,0.01187,0.0126,0.005653,0.0001345,0.0001535,0.08447,0.001642,2.047,0.005654,0,1,0
34500000000,34800000000,4416216626,0,257502343,0.001944,0.005653,0.01743,0.01187,0.0126,0.005661,0.0001335,0.0001535,0.07666,0.001499,2.005,0.005511,0,1,0
34800000000,35100000000,4416216626,0,257502343,0.001949,0.005653,0.01743,0.01189,0.01262,0.005661,0.0001354,0.0001535,0.07776,0.002144,2.012,0.005581,0,1,0
35100000000,35400000000,4416216626,0,257502343,0.001932,0.005653,0.01743,0.01189,0.01262,0.005661,0.0001307,0.0001535,0.07715,0.001715,2.046,0.005441,0,1,0
35400000000,35700000000,4416216626,0,257502343,0.00198,0.005653,0.01743,0.01189,0.01262,0.005661,0.0001497,0.0001535,0.07935,0.003071,1.958,0.005342,0,1,0
35700000000,36000000000,4416216626,0,257502343,0.001949,0.005653,0.01743,0.01189,0.0126,0.005661,0.0001268,0.0001535,0.0686,0.002285,1.946,0.005296,0,1,0
36000000000,36300000000,4416216626,0,257502343,0.001957,0.005653,0.01743,0.01189,0.01262,0.005669,0.0001259,0.0001535,0.0697,0.001499,2.035,0.005619,0,1,0
36300000000,36600000000,4416216626,0,257502343,0.001947,0.005653,0.01743,0.01189,0.0126,0.005669,0.0001335,0.0001535,0.08008,0.00243,2.025,0.00551,0,1,0
36600000000,36900000000,4416216626,0,257502343,0.001945,0.005653,0.01743,0.01187,0.0126,0.005653,0.0001249,0.0001535,0.07935,0.00243,1.968,0.005429,0,1,0
36900000000,37200000000,4416216626,0,257502343,0.001951,0.005653,0.01743,0.01189,0.0126,0.005669,0.0001287,0.0001535,0.06763,0.002716,1.938,0.005222,0,1,0
37200000000,37500000000,4416216626,0,257502343,0.001951,0.005653,0.01743,0.01189,0.01262,0.005669,0.0001326,0.0001535,0.06219,0.001785,1.946,0.005485,0,1,0
37500000000,37800000000,4416216626,0,257502343,0.001968,0.005661,0.01743,0.0119,0.01262,0.005669,0.000144,0.0001535,0.08069,0.001999,1.931,0.005105,0,1,0
37800000000,38100000000,4416216626,0,257502343,0.005211,0.005661,0.01743,0.01184,0.01257,0.005669,0.0002174,0.0001535,0.2119,0.0155,1.733,0.003938,0,1,0
38100000000,38400000000,4416216626,0,257502343,0.008118,0.005905,0.01743,0.01175,0.01248,0.006256,0.0002546,0.0001545,0.1748,0.01393,1.406,0.001812,0,1,0
38400000000,38700000000,4416216626,0,257502343,0.00882,0.006439,0.01743,0.01166,0.01239,0.006874,0.0002871,0.0001554,0.241,0.01015,1.611,0.002713,0,1,0
38700000000,39000000000,4416216626,0,257502343,0.00589,0.006981,0.01743,0.01169,0.01242,0.007202,0.0002365,0.0001574,0.1846,0.008499,1.583,0.003202,0,1,0
39000000000,39300000000,4416216626,0,257502343,0.009201,0.007561,0.0174,0.01167,0.01241,0.007919,0.0002928,0.0001583,0.2087,0.009933,1.623,0.002829,0,1,0
39300000000,39600000000,4416216626,0,257502343,0.009201,0.008087,0.0174,0.01166,0.01239,0.00856,0.0002031,0.0001593,0.2271,0.007286,1.507,0.002695,0,1,0
39600000000,39900000000,4416216626,0,257502343,0.006447,0.008621,0.01743,0.01166,0.01239,0.00882,0.0002565,0.0001602,0.2051,0.01093,1.669,0.002798,0,1,0
39900000000,40200000000,4416216626,0,257502343,0.009201,0.009155,0.0174,0.01167,0.01241,0.009552,0.0003166,0.0001612,0.198,0.01228,1.537,0.003204,0,1,0
40200000000,40500000000,4416216626,0,257502343,0.005394,0.009628,0.01743,0.0117,0.01244,0.009674,0.0001678,0.0001621,0.1436,0.004288,1.34,0.001693,0,1,0
40500000000,40800000000,4416216626,0,257502343,0.002384,0.009628,0.01743,0.0117,0.01244,0.009659,0.0001335,0.0001621,0.09106,0.001572,1.647,0.004156,0,1,0
51000000000,51300000000,4416216626,0,257502343,0.002018,0.01157,0.0174,0.007431,0.008163,0.01178,0.0001431,0.0001335,0.07227,0.002716,2.863,0.008822,0,1,0
51300000000,51600000000,4416216626,0,257502343,0.002003,0.01097,0.0174,0.007439,0.008163,0.01132,0.000145,0.0001335,0.07141,0.002785,2.849,0.008966,0,1,0
51600000000,51900000000,4416216626,0,257502343,0.001999,0.01033,0.0174,0.00737,0.008102,0.01071,0.0001631,0.0001335,0.06482,0.003571,2.925,0.008936,0,1,0
51900000000,52200000000,4416216626,0,257502343,0.001928,0.008499,0.01743,0.005577,0.00631,0.009338,0.000309,0.0001335,0.06104,0.04443,2.543,0.00816,0,1,0
52200000000,52500000000,4416216626,0,257502343,0.001965,0.007919,0.01743,0.005241,0.005974,0.008102,0.0002432,0.0001335,0.06665,0.02258,2.626,0.00819,0,1,0
52500000000,52800000000,4416216626,0,257502343,0.001934,0.007515,0.01743,0.005272,0.006004,0.007751,0.0001497,0.0001335,0.07471,0.002571,2.492,0.007639,0,1,0
52800000000,53100000000,4416216626,0,257502343,0.001904,0.007065,0.01743,0.00528,0.006004,0.007278,0.0001373,0.0001335,0.06775,0.002998,2.549,0.008037,0,1,0
53100000000,53400000000,4416216626,0,257502343,0.001909,0.006638,0.01743,0.005287,0.006012,0.006851,0.0001431,0.0001335,0.07593,0.003643,2.499,0.007795,0,1,0
53400000000,53700000000,4416216626,0,257502343,0.002033,0.006165,0.01743,0.005287,0.006012,0.006432,0.0001688,0.0001335,0.07068,0.003071,2.704,0.008419,0,1,0
53700000000,54000000000,4416216626,0,257502343,0.00211,0.005707,0.01743,0.005287,0.006012,0.005936,0.0001554,0.0001335,0.0813,0.003502,2.747,0.008701,0,1,0
54000000000,54300000000,4416216626,0,257502343,0.002304,0.005264,0.01743,0.00528,0.006004,0.005478,0.0001316,0.0001335,0.07593,0.002071,2.738,0.008933,0,1,0
54300000000,54600000000,4416216626,0,257502343,0.002178,0.004837,0.01743,0.00528,0.006012,0.005043,0.0001516,0.0001335,0.09302,0.002857,2.655,0.008555,0,1,0
54600000000,54900000000,4416216626,0,257502343,0.001953,0.004593,0.01743,0.005287,0.00602,0.004677,0.0001431,0.0001335,0.06702,0.002785,2.696,0.008755,0,1,0
54900000000,55200000000,4416216626,0,257502343,0.002018,0.004555,0.01743,0.005295,0.006027,0.004562,0.0001612,0.0001335,0.0769,0.004356,2.685,0.008495,0,1,0
55200000000,55500000000,4416216626,0,257502343,0.002007,0.004555,0.01743,0.00531,0.006035,0.004562,0.0001669,0.0001335,0.06775,0.004143,2.605,0.008209,0,1,0
55500000000,55800000000,4416216626,0,257502343,0.001995,0.004555,0.01743,0.005318,0.006042,0.004562,0.0001469,0.0001335,0.09448,0.003571,2.622,0.008378,0,1,0
55800000000,56100000000,4416216626,0,257502343,0.002022,0.004555,0.01743,0.005325,0.00605,0.004562,0.0001659,0.0001335,0.06799,0.003429,2.678,0.008623,0,1,0
56100000000,56400000000,4416216626,0,257502343,0.001999,0.004555,0.01743,0.005333,0.006058,0.004562,0.0001535,0.0001335,0.07739,0.00486,2.641,0.008474,0,1,0
56400000000,56700000000,4416216626,0,257502343,0.001987,0.004555,0.01743,0.005341,0.006065,0.004562,0.000186,0.0001335,0.07385,0.005211,2.649,0.008586,0,1,0
56700000000,57000000000,4416216626,0,257502343,0.001987,0.004555,0.01743,0.005348,0.006073,0.004562,0.0001659,0.0001335,0.07581,0.003929,2.604,0.008562,0,1,0
57000000000,57300000000,4416216626,0,257502343,0.001972,0.004555,0.01743,0.005356,0.006088,0.004562,0.0001907,0.0001335,0.05042,0.004715,2.621,0.008784,0,1,0
57300000000,57600000000,4416216626,0,257502343,0.0019,0.004555,0.01743,0.005363,0.006096,0.00457,0.0004244,0.0001335,0.07385,0.009995,2.616,0.008814,0,1,0
57600000000,57900000000,4416216626,0,257502343,0.001957,0.004555,0.01743,0.005371,0.006104,0.00457,0.0003338,0.0001335,0.06067,0.006927,2.712,0.009019,0,1,0
57900000000,58200000000,4416216626,0,257502343,0.001923,0.004555,0.01743,0.005379,0.006111,0.004562,0.0002089,0.0001335,0.06183,0.007996,2.592,0.00848,0,1,0
58200000000,58500000000,4416216626,0,257502343,0.001875,0.004555,0.01743,0.005386,0.006119,0.004562,0.0002441,0.0001335,0.06262,0.006927,2.489,0.008521,0,1,0
58500000000,58800000000,4416216626,0,257502343,0.001886,0.004555,0.01743,0.005394,0.006126,0.00457,0.0001612,0.0001335,0.06628,0.004715,2.491,0.008264,0,1,0
58800000000,59100000000,4416216626,0,257502343,0.001911,0.004562,0.01743,0.005402,0.006134,0.00457,0.0002785,0.0001335,0.06433,0.008377,2.602,0.008516,0,1,0
59100000000,59400000000,4416216626,0,257502343,0.001984,0.004562,0.01743,0.005409,0.006142,0.00457,0.000308,0.0001335,0.07007,0.01172,2.752,0.00885,0,1,0
59400000000,59700000000,4416216626,0,257502343,0.001945,0.004562,0.01743,0.005417,0.006149,0.00457,0.0002756,0.0001335,0.07593,0.007072,2.664,0.008468,0,1,0
59700000000,60000000000,4416216626,0,257502343,0.001965,0.004578,0.01743,0.005447,0.006172,0.004662,0.0003519,0.0001335,0.07336,0.03192,2.604,0.008678,0,1,0
60000000000,60300000000,4416216626,0,257502343,0.001934,0.004654,0.01743,0.005547,0.006279,0.004662,0.0001783,0.0001335,0.0769,0.003716,2.562,0.008652,0,1,0
60300000000,60600000000,4416216626,0,257502343,0.001921,0.004662,0.01743,0.005554,0.006287,0.004669,0.000165,0.0001335,0.06848,0.00293,2.562,0.008611,0,1,0
60600000000,60900000000,4416216626,0,257502343,0.001938,0.004662,0.01743,0.005562,0.006294,0.004669,0.0002918,0.0001335,0.04791,0.006538,2.609,0.008537,0,1,0
70800000000,71100000000,4416216626,0,257502343,0.001965,0.00798,0.01743,0.00856,0.009293,0.008011,0.0002012,0.0001392,0.08459,0.006287,2.679,0.00866,0,1,0
71100000000,71400000000,4416216626,0,257502343,0.001976,0.00795,0.01743,0.00856,0.009293,0.00798,0.0001383,0.0001392,0.07776,0.002357,2.706,0.008825,0,1,0
71400000000,71700000000,4416216626,0,257502343,0.001972,0.007889,0.01743,0.008575,0.009308,0.007935,0.0001526,0.0001392,0.08057,0.00457,2.618,0.00857,0,1,0
71700000000,72000000000,4416216626,0,257502343,0.001934,0.007843,0.01743,0.008591,0.009323,0.007874,0.0002899,0.0001392,0.0752,0.007858,2.66,0.008825,0,1,0
72000000000,72300000000,4416216626,0,257502343,0.001945,0.007759,0.01743,0.008591,0.009323,0.007797,0.0002079,0.0001392,0.07056,0.007004,2.545,0.00859,0,1,0
72300000000,72600000000,4416216626,0,257502343,0.001919,0.007683,0.01743,0.008606,0.009338,0.007736,0.000308,0.0001392,0.07227,0.006538,2.535,0.008621,0,1,0
72600000000,72900000000,4416216626,0,257502343,0.001953,0.007561,0.01743,0.008621,0.009338,0.007637,0.0003233,0.0001392,0.06055,0.013,2.643,0.008959,0,1,0
72900000000,73200000000,4416216626,0,257502343,0.001947,0.007393,0.01743,0.008621,0.009354,0.007477,0.000186,0.0001392,0.07739,0.006859,2.61,0.008707,0,1,0
73200000000,73500000000,4416216626,0,257502343,0.001928,0.00724,0.01743,0.008636,0.009369,0.007332,0.0002422,0.0001392,0.08093,0.007538,2.631,0.008771,0,1,0
73500000000,73800000000,4416216626,0,257502343,0.001972,0.007034,0.01743,0.008636,0.009369,0.007164,0.0002174,0.0001392,0.06445,0.00972,2.695,0.008828,0,1,0
73800000000,74100000000,4416216626,0,257502343,0.001991,0.00679,0.01743,0.008652,0.009384,0.006912,0.0001898,0.0001392,0.07727,0.007286,2.646,0.008661,0,1,0
74100000000,74400000000,4416216626,0,257502343,0.001999,0.006538,0.01743,0.008667,0.009399,0.006668,0.000206,0.0001392,0.08447,0.01407,2.612,0.008406,0,1,0
74400000000,74700000000,4416216626,0,257502343,0.001984,0.006325,0.01743,0.008698,0.00943,0.006477,0.0001812,0.0001392,0.07214,0.003357,2.555,0.00827,0,1,0
74700000000,75000000000,4416216626,0,257502343,0.001936,0.006073,0.01743,0.008698,0.00943,0.006195,0.000145,0.0001392,0.07446,0.003143,2.583,0.008386,0,1,0
75000000000,75300000000,4416216626,0,257502343,0.001947,0.005875,0.01743,0.008713,0.009445,0.005981,0.0002117,0.0001392,0.05933,0.009293,2.61,0.008469,0,1,0
75300000000,75600000000,4416216626,0,257502343,0.001968,0.005699,0.01743,0.008713,0.009445,0.005798,0.0001698,0.0001392,0.06873,0.003716,2.553,0.008353,0,1,0
75600000000,75900000000,4416216626,0,257502343,0.001968,0.005577,0.01743,0.008728,0.00946,0.005646,0.0002823,0.0001392,0.07935,0.007004,2.613,0.008641,0,1,0
75900000000,76200000000,4416216626,0,257502343,0.002026,0.005547,0.01743,0.008728,0.00946,0.005554,0.0002384,0.0001392,0.08093,0.00943,2.715,0.008699,0,1,0
76200000000,76500000000,4416216626,0,257502343,0.001972,0.005547,0.01743,0.008743,0.009476,0.005554,0.0001822,0.0001392,0.07715,0.005714,2.789,0.009261,0,1,0
76500000000,76800000000,4416216626,0,257502343,0.001944,0.005547,0.01743,0.008743,0.009476,0.005554,0.0002012,0.0001392,0.06799,0.006859,2.548,0.008294,0,1,0
76800000000,77100000000,4416216626,0,257502343,0.002007,0.005547,0.01743,0.008759,0.009491,0.005547,0.0002604,0.0001392,0.07971,0.009995,2.733,0.008742,0,1,0
77100000000,77400000000,4416216626,0,257502343,0.002003,0.005547,0.01743,0.008774,0.009491,0.005554,0.0001583,0.0001392,0.07861,0.004211,2.623,0.008711,0,1,0
77400000000,77700000000,4416216626,0,257502343,0.00198,0.005547,0.01743,0.008545,0.009277,0.005554,0.0002632,0.0001392,0.07349,0.009079,2.696,0.008777,0,1,0
77700000000,78000000000,4416216626,0,257502343,0.00201,0.005547,0.01743,0.008469,0.009201,0.005554,0.0001802,0.0001402,0.07703,0.005356,2.701,0.008771,0,1,0
78000000000,78300000000,4416216626,0,257502343,0.002007,0.005547,0.01743,0.008484,0.009201,0.005554,0.0001688,0.0001402,0.07214,0.004501,2.728,0.008931,0,1,0
78300000000,78600000000,4416216626,0,257502343,0.001936,0.005547,0.01743,0.008484,0.009216,0.005554,0.0001879,0.0001402,0.07654,0.005714,2.651,0.008735,0,1,0
78600000000,78900000000,4416216626,0,257502343,0.001991,0.005547,0.01743,0.008499,0.009216,0.005554,0.0001917,0.0001402,0.06274,0.007782,2.807,0.009289,0,1,0
78900000000,79200000000,4416216626,0,257502343,0.001968,0.005547,0.01743,0.008499,0.009232,0.005554,0.0002308,0.0001402,0.07361,0.008209,2.76,0.009154,0,1,0
79200000000,79500000000,4416216626,0,257502343,0.002048,0.005547,0.01743,0.008514,0.009232,0.005554,0.000185,0.0001402,0.07471,0.006142,2.842,0.009129,0,1,0
79500000000,79800000000,4416216626,0,257502343,0.002003,0.005547,0.01743,0.008514,0.009247,0.005554,0.0002031,0.0001402,0.07983,0.006355,2.726,0.008839,0,1,0
79800000000,80100000000,4416216626,0,257502343,0.001934,0.005547,0.01743,0.00853,0.009262,0.005554,0.000165,0.0001402,0.07324,0.003571,2.694,0.009163,0,1,0
80100000000,80400000000,4416216626,0,257502343,0.001926,0.005547,0.01743,0.00853,0.009262,0.005554,0.000205,0.0001402,0.07507,0.004356,2.548,0.008726,0,1,0
80400000000,80700000000,4416216626,0,257502343,0.001936,0.005547,0.01743,0.008545,0.009277,0.005554,0.000248,0.0001402,0.06409,0.009293,2.646,0.008903,0,1,0
80700000000,81000000000,4416216626,0,257502343,0.001976,0.005547,0.01743,0.008545,0.009277,0.005554,0.0002413,0.0001402,0.05963,0.00486,2.809,0.009317,0,1,0
85800000000,86100000000,4416216626,0,257502343,0.002171,0.005562,0.01743,0.008652,0.009384,0.005569,0.0001535,0.0001392,0.08496,0.005211,2.704,0.008844,0,1,0
86100000000,86400000000,4416216626,0,257502343,0.002193,0.005569,0.01743,0.008667,0.009399,0.005608,0.0002794,0.0001392,0.1017,0.02194,2.843,0.009613,0,1,0
86400000000,86700000000,4416216626,0,257502343,0.002201,0.005608,0.01743,0.008804,0.009537,0.005615,0.0002108,0.0001392,0.08496,0.004501,2.716,0.009012,0,1,0
86700000000,87000000000,4416216626,0,257502343,0.002129,0.005608,0.01743,0.008789,0.009521,0.005615,0.0001698,0.0001392,0.0675,0.005074,2.639,0.008485,0,1,0
87000000000,87300000000,4416216626,0,257502343,0.002129,0.005608,0.01743,0.008804,0.009537,0.005615,0.0001965,0.0001392,0.06421,0.007355,2.631,0.008309,0,1,0
87300000000,87600000000,4416216626,0,257502343,0.001957,0.005608,0.01743,0.00882,0.009552,0.005615,0.0003662,0.0001392,0.04938,0.01064,2.505,0.008336,0,1,0
87600000000,87900000000,4416216626,0,257502343,0.002022,0.005608,0.01743,0.00882,0.009552,0.005615,0.0003376,0.0001392,0.04071,0.007645,2.79,0.009171,0,1,0
87900000000,88200000000,4416216626,0,257502343,0.001972,0.005608,0.01743,0.008835,0.009567,0.005615,0.0002632,0.0001392,0.06,0.008926,2.794,0.009399,0,1,0
88200000000,88500000000,4416216626,0,257502343,0.002026,0.005608,0.01743,0.00882,0.009552,0.005615,0.0003052,0.0001392,0.06018,0.008636,2.808,0.009258,0,1,0
88500000000,88800000000,4416216626,0,257502343,0.002533,0.005608,0.01743,0.00882,0.009552,0.00563,0.0002747,0.0001392,0.08032,0.008713,2.662,0.008301,0,1,0
88800000000,89100000000,4416216626,0,257502343,0.004005,0.005653,0.01743,0.008881,0.009613,0.005676,0.0002766,0.0001392,0.1075,0.00885,1.516,0.002599,0,1,0
89100000000,89400000000,4416216626,0,257502343,0.002419,0.005676,0.01743,0.008926,0.009659,0.005699,0.0002928,0.0001402,0.08484,0.01015,2.529,0.007807,0,1,0
89400000000,89700000000,4416216626,0,257502343,0.002075,0.005676,0.01743,0.008926,0.009659,0.005684,0.0001364,0.0001402,0.06067,0.003571,2.641,0.008499,0,1,0
89700000000,90000000000,4416216626,0,257502343,0.003777,0.005684,0.01743,0.008957,0.009689,0.005714,0.0003595,0.0001402,0.1057,0.009506,1.542,0.002909,0,1,0
90000000000,90300000000,4416216626,0,257502343,0.004486,0.005844,0.01743,0.009232,0.009964,0.005981,0.0005236,0.0001402,0.09766,0.02441,1.549,0.002206,0,1,0
90300000000,90600000000,4416216626,0,257502343,0.001953,0.005951,0.01743,0.009308,0.01004,0.005966,0.0003986,0.0001402,0.06335,0.008209,2.428,0.007747,0,1,0
90600000000,90900000000,4416216626,0,257502343,0.001936,0.005928,0.01743,0.009308,0.01004,0.005959,0.0002508,0.0001402,0.05548,0.007004,2.591,0.008645,0,1,0
101100000000,101400000000,4416216626,0,257502343,0.001904,0.006096,0.01743,0.003834,0.004501,0.006218,0.0002108,0.0001459,0.05487,0.00486,2.115,0.006316,0,1,0
101400000000,101700000000,4416216626,0,257502343,0.0019,0.005867,0.01743,0.003841,0.004509,0.005997,0.0002813,0.0001459,0.0611,0.006218,2.192,0.00675,0,1,0
101700000000,102000000000,4416216626,0,257502343,0.002007,0.005646,0.01743,0.003849,0.004517,0.005768,0.0002813,0.0001459,0.06067,0.01265,2.297,0.006785,0,1,0
102000000000,102300000000,4416216626,0,257502343,0.002041,0.005417,0.01743,0.00386,0.004524,0.005524,0.0003271,0.0001459,0.07739,0.01157,2.321,0.006679,0,1,0
102300000000,102600000000,4416216626,0,257502343,0.001944,0.005219,0.01743,0.003868,0.004532,0.005325,0.0001535,0.0001459,0.08093,0.003216,2.241,0.006395,0,1,0
102600000000,102900000000,4416216626,0,257502343,0.001949,0.005203,0.01743,0.003876,0.004539,0.005211,0.0002728,0.0001459,0.07239,0.009354,2.159,0.00664,0,1,0
102900000000,103200000000,4416216626,0,257502343,0.001991,0.005203,0.01743,0.003887,0.004555,0.005219,0.0002279,0.0001459,0.07153,0.006142,2.207,0.006321,0,1,0
103200000000,103500000000,4416216626,0,257502343,0.001972,0.005211,0.01743,0.003895,0.004562,0.005219,0.0001469,0.0001459,0.06787,0.003071,2.249,0.006573,0,1,0
103500000000,103800000000,4416216626,0,257502343,0.001972,0.005211,0.01743,0.003891,0.004555,0.005211,0.0002289,0.0001459,0.07166,0.01057,2.264,0.00679,0,1,0
103800000000,104100000000,4416216626,0,257502343,0.001928,0.005211,0.01743,0.003899,0.004562,0.005219,0.000247,0.0001459,0.06592,0.0075,2.199,0.006654,0,1,0
104100000000,104400000000,4416216626,0,257502343,0.001907,0.005211,0.01743,0.003906,0.00457,0.005219,0.0002422,0.0001459,0.04987,0.005569,2.157,0.006758,0,1,0
104400000000,104700000000,4416216626,0,257502343,0.001987,0.005211,0.01743,0.003914,0.004578,0.005211,0.0002527,0.0001459,0.07361,0.006859,2.323,0.007082,0,1,0
104700000000,105000000000,4416216626,0,257502343,0.001984,0.005211,0.01743,0.003922,0.004585,0.005219,0.0002928,0.0001459,0.07812,0.01108,2.233,0.006373,0,1,0
105000000000,105300000000,4416216626,0,257502343,0.001984,0.005211,0.01743,0.003929,0.004593,0.005219,0.000144,0.0001459,0.05273,0.003998,2.225,0.00639,0,1,0
105300000000,105600000000,4416216626,0,257502343,0.001951,0.005211,0.01743,0.003937,0.004601,0.005219,0.0001945,0.0001459,0.07788,0.006287,2.281,0.007124,0,1,0
105600000000,105900000000,4416216626,0,257502343,0.001972,0.005211,0.01743,0.003937,0.004601,0.005219,0.0001698,0.0001459,0.07874,0.003284,2.229,0.006931,0,1,0
105900000000,106200000000,4416216626,0,257502343,0.001972,0.005211,0.01743,0.003944,0.004608,0.005219,0.0001926,0.0001459,0.06396,0.00457,2.212,0.006913,0,1,0
106200000000,106500000000,4416216626,0,257502343,0.002003,0.005226,0.01743,0.003967,0.004631,0.005234,0.0002508,0.0001459,0.0719,0.0135,1.931,0.005391,0,1,0
106500000000,106800000000,4416216626,0,257502343,0.001987,0.005234,0.01743,0.003983,0.004646,0.005241,0.0001974,0.0001459,0.07715,0.006783,2.165,0.006003,0,1,0
106800000000,107100000000,4416216626,0,257502343,0.002064,0.005234,0.01743,0.003983,0.004646,0.005241,0.0002308,0.0001459,0.07117,0.007217,2.355,0.007502,0,1,0
107100000000,107400000000,4416216626,0,257502343,0.00209,0.005234,0.01743,0.00399,0.004654,0.005241,0.0002136,0.0001459,0.07568,0.005432,2.437,0.007558,0,1,0
107400000000,107700000000,4416216626,0,257502343,0.002083,0.005234,0.01743,0.00399,0.004654,0.005241,0.0003176,0.0001459,0.08179,0.00943,2.34,0.007027,0,1,0
107700000000,108000000000,4416216626,0,257502343,0.004562,0.005234,0.01743,0.003819,0.004486,0.005264,0.0002851,0.0001459,0.2168,0.01364,2.653,0.008474,0,1,0
108000000000,108300000000,4416216626,0,257502343,0.006401,0.005577,0.01743,0.004478,0.005142,0.005852,0.0003958,0.0001478,0.1943,0.01508,1.534,0.00303,0,1,0
108300000000,108600000000,4416216626,0,257502343,0.007553,0.006332,0.01743,0.005135,0.005798,0.007065,0.0004139,0.0001488,0.2559,0.01457,1.275,0.0009926,0,1,0
108600000000,108900000000,4416216626,0,257502343,0.006821,0.007248,0.01743,0.00589,0.006554,0.00795,0.000555,0.0001507,0.1414,0.02216,1.005,0.0006195,0,1,0
108900000000,109200000000,4416216626,0,257502343,0.008438,0.008102,0.01743,0.006599,0.007263,0.008713,0.0005131,0.0001516,0.2114,0.0177,1.046,0.000678,0,1,0
109200000000,109500000000,4416216626,0,257502343,0.006531,0.008804,0.01743,0.007187,0.007858,0.009384,0.0003214,0.0001535,0.2866,0.01822,2.483,0.006983,0,1,0
109500000000,109800000000,4416216626,0,257502343,0.009399,0.009506,0.01743,0.007797,0.008469,0.009995,0.0003767,0.0001545,0.1797,0.02029,1.401,0.001011,0,1,0
109800000000,110100000000,4416216626,0,257502343,0.001995,0.009888,0.01743,0.008133,0.008789,0.009918,0.000289,0.0001554,0.04742,0.007393,2.262,0.006649,0,1,0
110100000000,110400000000,4416216626,0,257502343,0.001944,0.009903,0.01743,0.008133,0.008804,0.009903,0.0002308,0.0001554,0.07568,0.009506,2.088,0.005543,0,1,0
110400000000,110700000000,4416216626,0,257502343,0.001984,0.009903,0.01743,0.008148,0.008804,0.009918,0.0003185,0.0001554,0.06995,0.01129,2.311,0.006933,0,1,0
110700000000,111000000000,4416216626,0,257502343,0.001949,0.009903,0.01743,0.008148,0.00882,0.009918,0.0002232,0.0001554,0.05713,0.005997,2.336,0.006974,0,1,0
116400000000,116700000000,4416216626,0,257502343,0.002148,0.006256,0.01743,0.00827,0.008926,0.006348,0.0004444,0.0001545,0.07971,0.0459,1.745,0.003939,0,1,0
116700000000,117000000000,4416216626,0,257502343,0.002071,0.006142,0.01743,0.008133,0.008804,0.00621,0.000248,0.0001554,0.06689,0.006355,1.606,0.003342,0,1,0
117000000000,117300000000,4416216626,0,257502343,0.00201,0.006111,0.01743,0.008102,0.008774,0.006149,0.0002356,0.0001554,0.08679,0.005432,1.562,0.003416,0,1,0
117300000000,117600000000,4416216626,0,257502343,0.001961,0.006111,0.01743,0.008102,0.008774,0.006142,0.0002518,0.0001554,0.06592,0.008209,1.605,0.00357,0,1,0
117600000000,117900000000,4416216626,0,257502343,0.001934,0.006111,0.01743,0.008118,0.008774,0.006119,0.0003214,0.0001554,0.0658,0.008636,1.89,0.004653,0,1,0
117900000000,118200000000,4416216626,0,257502343,0.001984,0.006104,0.01743,0.008102,0.008774,0.006134,0.0002766,0.0001554,0.0741,0.01108,1.779,0.003996,0,1,0
118200000000,118500000000,4416216626,0,257502343,0.00198,0.006104,0.01743,0.008102,0.008774,0.006134,0.000164,0.0001554,0.06665,0.003784,1.605,0.003515,0,1,0
118500000000,118800000000,4416216626,0,257502343,0.001991,0.006096,0.01743,0.008118,0.008774,0.006134,0.000247,0.0001554,0.08459,0.007355,1.705,0.004146,0,1,0
119100000000,119400000000,4416216626,0,257502343,0.002018,0.006981,0.01743,0.008972,0.009644,0.007004,0.0002613,0.0001554,0.07898,0.007713,1.57,0.003297,0,1,0
119400000000,119700000000,4416216626,0,257502343,0.001991,0.006981,0.01743,0.008972,0.009628,0.007004,0.0001831,0.0001554,0.06604,0.006073,1.496,0.003046,0,1,0
119700000000,120000000000,4416216626,0,257502343,0.002064,0.006966,0.01743,0.008957,0.009628,0.007011,0.0001879,0.0001554,0.08203,0.007217,1.616,0.00341,0,1,0
120000000000,120300000000,4416216626,0,257502343,0.002087,0.006943,0.01743,0.008972,0.009628,0.006981,0.000165,0.0001554,0.07227,0.003429,1.659,0.003622,0,1,0
120300000000,120600000000,4416216626,0,257502343,0.002068,0.006447,0.01743,0.008484,0.009155,0.00692,0.0001631,0.0001554,0.0708,0.004074,1.661,0.003641,0,1,0
120600000000,120900000000,4416216626,0,257502343,0.002007,0.006081,0.01743,0.008087,0.008759,0.006104,0.0002489,0.0001554,0.06897,0.01079,1.651,0.003697,0,1,0
126000000000,126300000000,4416216626,0,257502343,0.007744,0.007935,0.01743,0.01004,0.01071,0.008255,0.0003433,0.0001602,0.1826,0.008789,1.099,0.0008997,0,1,0
126300000000,126600000000,4416216626,0,257502343,0.004921,0.008377,0.01743,0.01045,0.01112,0.00853,0.0002594,0.0001612,0.1899,0.015,1.529,0.002882,0,1,0
126600000000,126900000000,4416216626,0,257502343,0.008041,0.008911,0.01743,0.01093,0.01158,0.009216,0.0002775,0.0001621,0.1946,0.009857,1.204,0.001018,0,1,0
126900000000,127200000000,4416216626,0,257502343,0.005753,0.009338,0.01743,0.01129,0.01196,0.009521,0.0002127,0.0001631,0.1875,0.007141,1.522,0.003001,0,1,0
127200000000,127500000000,4416216626,0,257502343,0.007072,0.009766,0.01743,0.01166,0.01231,0.01003,0.0002508,0.000164,0.2122,0.009003,1.536,0.002958,0,1,0
127500000000,127800000000,4416216626,0,257502343,0.001879,0.009933,0.01743,0.01173,0.01239,0.009949,0.0001431,0.000165,0.05273,0.003784,1.553,0.003467,0,1,0
127800000000,128100000000,4416216626,0,257502343,0.001905,0.009918,0.01743,0.01173,0.01241,0.009949,0.0001593,0.000165,0.07471,0.005783,1.553,0.003249,0,1,0
128100000000,128400000000,4416216626,0,257502343,0.001896,0.009903,0.01743,0.01173,0.01239,0.009933,0.0001354,0.000165,0.06445,0.002144,1.544,0.003159,0,1,0
128400000000,128700000000,4416216626,0,257502343,0.001883,0.009888,0.01743,0.01173,0.01241,0.009918,0.0001516,0.000164,0.06012,0.004501,1.538,0.003213,0,1,0
128700000000,129000000000,4416216626,0,257502343,0.002041,0.009827,0.01743,0.01173,0.01241,0.009888,0.0001574,0.000164,0.08069,0.005074,1.53,0.003241,0,1,0
129000000000,129300000000,4416216626,0,257502343,0.002075,0.00972,0.01743,0.01173,0.01241,0.009781,0.000144,0.000164,0.08533,0.001858,1.5,0.00299,0,1,0
129300000000,129600000000,4416216626,0,257502343,0.002056,0.009598,0.01743,0.01172,0.01239,0.009689,0.0003529,0.000164,0.06726,0.01343,1.578,0.003509,0,1,0
129600000000,129900000000,4416216626,0,257502343,0.00206,0.009415,0.01743,0.0117,0.01237,0.009521,0.0003157,0.000164,0.08716,0.01292,1.611,0.003628,0,1,0
129900000000,130200000000,4416216626,0,257502343,0.002083,0.009201,0.01743,0.01172,0.01237,0.009323,0.0003548,0.000164,0.06885,0.009354,1.636,0.003583,0,1,0
130200000000,130500000000,4416216626,0,257502343,0.002102,0.008957,0.01743,0.01172,0.01237,0.009094,0.0003433,0.000164,0.08545,0.009781,1.48,0.002765,0,1,0
130500000000,130800000000,4416216626,0,257502343,0.002052,0.008728,0.01743,0.01172,0.01239,0.00885,0.0001926,0.000164,0.07654,0.009506,1.533,0.003151,0,1,0
130800000000,131100000000,4416216626,0,257502343,0.002029,0.008423,0.01743,0.01173,0.01239,0.008591,0.0002232,0.000164,0.08618,0.006287,1.62,0.003725,0,1,0
141000000000,141300000000,4416216626,0,257502343,0.00206,0.006165,0.01743,0.006866,0.00753,0.006233,0.0001669,0.0001402,0.07825,0.005646,1.778,0.004132,0,1,0
141300000000,141600000000,4416216626,0,257502343,0.001972,0.006111,0.01743,0.006874,0.007538,0.006142,0.0002451,0.0001402,0.07812,0.007072,1.736,0.004193,0,1,0
141600000000,141900000000,4416216626,0,257502343,0.001965,0.006088,0.01743,0.006882,0.007545,0.006119,0.0002632,0.0001402,0.06104,0.02106,1.663,0.004007,0,1,0
141900000000,142200000000,4416216626,0,257502343,0.001976,0.006035,0.01743,0.006905,0.007561,0.006104,0.0002174,0.0001402,0.07117,0.0075,1.704,0.004072,0,1,0
142200000000,142500000000,4416216626,0,257502343,0.002041,0.00589,0.01743,0.006912,0.007568,0.005974,0.000268,0.0001402,0.07385,0.007141,1.799,0.004289,0,1,0
142500000000,142800000000,4416216626,0,257502343,0.001999,0.005722,0.01743,0.00692,0.007576,0.005821,0.0001936,0.0001402,0.07996,0.009995,1.652,0.003752,0,1,0
142800000000,143100000000,4416216626,0,257502343,0.001999,0.005516,0.01743,0.006927,0.007584,0.005646,0.0001745,0.0001402,0.05933,0.005859,1.736,0.004085,0,1,0
143100000000,143400000000,4416216626,0,257502343,0.001968,0.005333,0.01743,0.006935,0.007599,0.005424,0.0003767,0.0001402,0.05328,0.007713,1.733,0.004219,0,1,0
143400000000,143700000000,4416216626,0,257502343,0.002037,0.005165,0.01743,0.006943,0.007607,0.005249,0.000351,0.0001402,0.0791,0.01129,1.77,0.004101,0,1,0
143700000000,144000000000,4416216626,0,257502343,0.002045,0.004997,0.01743,0.00695,0.007614,0.005096,0.0001831,0.0001402,0.07739,0.006432,1.703,0.004004,0,1,0
144000000000,144300000000,4416216626,0,257502343,0.002037,0.004807,0.01743,0.00695,0.007614,0.004913,0.0002041,0.0001402,0.08142,0.007072,1.805,0.004393,0,1,0
144300000000,144600000000,4416216626,0,257502343,0.002083,0.004448,0.01743,0.006958,0.007622,0.004738,0.0001507,0.0001402,0.07495,0.004211,1.749,0.004119,0,1,0
144600000000,144900000000,4416216626,0,257502343,0.002071,0.004326,0.01743,0.006973,0.007637,0.004387,0.000247,0.0001402,0.06873,0.009506,1.787,0.004288,0,1,0
144900000000,145200000000,4416216626,0,257502343,0.002094,0.004311,0.01743,0.006981,0.007645,0.004318,0.0001631,0.0001402,0.1158,0.004211,1.795,0.004224,0,1,0
145200000000,145500000000,4416216626,0,257502343,0.002026,0.004311,0.01743,0.006989,0.007652,0.004318,0.0002165,0.0001402,0.08289,0.009933,1.716,0.004013,0,1,0
145500000000,145800000000,4416216626,0,257502343,0.002048,0.004311,0.01743,0.006996,0.00766,0.004318,0.0002136,0.0001402,0.07251,0.006622,1.807,0.00439,0,1,0
145800000000,146100000000,4416216626,0,257502343,0.002125,0.004311,0.01743,0.007004,0.007668,0.004318,0.0002642,0.0001402,0.0863,0.009567,1.779,0.004191,0,1,0
151200000000,151500000000,4416216626,0,257502343,0.002079,0.004333,0.01743,0.006844,0.007507,0.004349,0.0002174,0.0001411,0.07312,0.0065,1.67,0.003831,0,1,0
151500000000,151800000000,4416216626,0,257502343,0.002098,0.004333,0.01743,0.006851,0.007515,0.004349,0.0002146,0.0001411,0.07996,0.007355,1.699,0.00382,0,1,0
151800000000,152100000000,4416216626,0,257502343,0.00209,0.004356,0.01743,0.006866,0.00753,0.005219,0.0003557,0.0001411,0.05994,0.01122,1.564,0.003287,0,1,0
152100000000,152400000000,4416216626,0,257502343,0.002125,0.004356,0.01743,0.006882,0.007545,0.004364,0.0003681,0.0001411,0.05676,0.01129,1.85,0.004499,0,1,0
152400000000,152700000000,4416216626,0,257502343,0.002113,0.004356,0.01743,0.006897,0.007561,0.004364,0.0002432,0.0001411,0.08032,0.007713,1.663,0.003659,0,1,0
152700000000,153000000000,4416216626,0,257502343,0.002026,0.004364,0.01743,0.006905,0.007568,0.004372,0.0002146,0.0001411,0.07837,0.007645,1.736,0.004099,0,1,0
153000000000,153300000000,4416216626,0,257502343,0.009354,0.004723,0.01743,0.007423,0.008087,0.00518,0.000659,0.0001421,0.1921,0.015,1.251,0.001177,0,1,0
153300000000,153600000000,4416216626,0,257502343,0.006287,0.005707,0.01743,0.008163,0.008835,0.006126,0.0005369,0.0001431,0.1855,0.01678,1.128,0.0008102,0,1,0
153600000000,153900000000,4416216626,0,257502343,0.007828,0.006554,0.01743,0.00882,0.009476,0.007027,0.0004272,0.000145,0.1748,0.01608,1.674,0.003527,0,1,0
153900000000,154200000000,4416216626,0,257502343,0.007004,0.007446,0.01743,0.009506,0.01018,0.007874,0.0005198,0.0001459,0.229,0.02621,1.141,0.0009762,0,1,0
154200000000,154500000000,4416216626,0,257502343,0.006927,0.008286,0.01743,0.01016,0.01083,0.008728,0.0003452,0.0001469,0.2302,0.013,0.9686,0.0006908,0,1,0
154500000000,154800000000,4416216626,0,257502343,0.009949,0.009125,0.01743,0.01083,0.01149,0.009766,0.0005121,0.0001488,0.2034,0.01807,1.944,0.004732,0,1,0
154800000000,155100000000,4416216626,0,257502343,0.00486,0.009811,0.01743,0.0114,0.01207,0.009918,0.0002708,0.0001497,0.1628,0.007286,1.63,0.002606,0,1,0
155100000000,155400000000,4416216626,0,257502343,0.002136,0.009827,0.01743,0.0114,0.01207,0.009872,0.0002356,0.0001507,0.06641,0.01057,1.684,0.003872,0,1,0
155400000000,155700000000,4416216626,0,257502343,0.002094,0.009842,0.01743,0.0114,0.01207,0.009857,0.0001993,0.0001507,0.07629,0.005997,1.768,0.004293,0,1,0
155700000000,156000000000,4416216626,0,257502343,0.002029,0.009842,0.01743,0.01141,0.01207,0.009918,0.0002642,0.0001507,0.07312,0.008499,1.714,0.004087,0,1,0
161100000000,161400000000,4416216626,0,257502343,0.002052,0.005539,0.01743,0.01146,0.01212,0.005554,0.0001631,0.0001507,0.07898,0.00457,1.739,0.003872,0,1,0
161400000000,161700000000,4416216626,0,257502343,0.002041,0.005539,0.01743,0.01146,0.01212,0.005547,0.0001745,0.0001507,0.08252,0.007568,1.697,0.003858,0,1,0
161700000000,162000000000,4416216626,0,257502343,0.002033,0.005539,0.01743,0.01144,0.01212,0.005547,0.0001831,0.0001507,0.0697,0.005859,1.77,0.004239,0,1,0
162000000000,162300000000,4416216626,0,257502343,0.002205,0.005539,0.01743,0.01146,0.01212,0.005554,0.0002527,0.0001507,0.07898,0.008148,1.797,0.004275,0,1,0
162300000000,162600000000,4416216626,0,257502343,0.002361,0.005547,0.01743,0.01147,0.01215,0.005554,0.0002584,0.0001507,0.08069,0.008209,1.635,0.003215,0,1,0
162600000000,162900000000,4416216626,0,257502343,0.002167,0.005547,0.01743,0.01149,0.01216,0.005554,0.0002804,0.0001507,0.07495,0.0075,1.652,0.003887,0,1,0
162900000000,163200000000,4416216626,0,257502343,0.002048,0.005547,0.01743,0.01151,0.01216,0.005554,0.000267,0.0001507,0.08386,0.007782,1.732,0.004066,0,1,0
163200000000,163500000000,4416216626,0,257502343,0.002026,0.005547,0.01743,0.01151,0.01216,0.005554,0.0001802,0.0001507,0.06244,0.006355,1.753,0.004146,0,1,0
163500000000,163800000000,4416216626,0,257502343,0.001991,0.005547,0.01743,0.01151,0.01218,0.005554,0.000248,0.0001507,0.078,0.008209,1.703,0.004057,0,1,0
163800000000,164100000000,4416216626,0,257502343,0.001957,0.005547,0.01743,0.01152,0.01218,0.005554,0.000186,0.0001507,0.07422,0.004211,1.691,0.004077,0,1,0
164100000000,164400000000,4416216626,0,257502343,0.001934,0.005547,0.01743,0.01152,0.01219,0.005554,0.0002527,0.0001507,0.05176,0.006287,1.629,0.003852,0,1,0
164400000000,164700000000,4416216626,0,257502343,0.001987,0.005547,0.01743,0.01152,0.01219,0.005562,0.0003567,0.0001507,0.0592,0.01178,1.795,0.004436,0,1,0
164700000000,165000000000,4416216626,0,257502343,0.002064,0.005547,0.01743,0.01151,0.01218,0.005554,0.0003347,0.0001507,0.08313,0.01036,1.843,0.004416,0,1,0
165000000000,165300000000,4416216626,0,257502343,0.002041,0.005547,0.01743,0.01146,0.01213,0.005554,0.0001907,0.0001507,0.0769,0.007568,1.703,0.003893,0,1,0
165300000000,165600000000,4416216626,0,257502343,0.002056,0.005547,0.01743,0.01147,0.01213,0.005554,0.0001497,0.0001507,0.0531,0.004074,1.78,0.004222,0,1,0
165600000000,165900000000,4416216626,0,257502343,0.001968,0.005547,0.01743,0.01147,0.01215,0.005562,0.0002375,0.0001507,0.06982,0.005142,1.731,0.004246,0,1,0
165900000000,166200000000,4416216626,0,257502343,0.001944,0.005547,0.01743,0.01149,0.01215,0.005554,0.0002079,0.0001507,0.06311,0.005928,1.657,0.003951,0,1,0
166200000000,166500000000,4416216626,0,257502343,0.002003,0.005547,0.01743,0.01149,0.01216,0.005562,0.0003462,0.0001507,0.05634,0.01207,1.699,0.003957,0,1,0
166500000000,166800000000,4416216626,0,257502343,0.002064,0.005554,0.01743,0.01151,0.01216,0.005562,0.0002441,0.0001507,0.0708,0.006714,1.706,0.00379,0,1,0
166800000000,167100000000,4416216626,0,257502343,0.002045,0.005554,0.01743,0.01151,0.01218,0.005562,0.0002279,0.0001507,0.07214,0.006783,1.693,0.003874,0,1,0
167100000000,167400000000,4416216626,0,257502343,0.002174,0.005554,0.01743,0.01152,0.01218,0.005554,0.0001745,0.0001507,0.07275,0.005501,1.765,0.004247,0,1,0
167400000000,167700000000,4416216626,0,257502343,0.002014,0.005554,0.01743,0.01154,0.01219,0.005569,0.0002232,0.0001507,0.05945,0.008636,1.73,0.004095,0,1,0
167700000000,168000000000,4416216626,0,257502343,0.002079,0.005554,0.01743,0.01152,0.01219,0.005577,0.0002775,0.0001507,0.07056,0.009506,1.635,0.003539,0,1,0
168000000000,168300000000,4416216626,0,257502343,0.002132,0.005569,0.01743,0.01125,0.0119,0.005585,0.000268,0.0001507,0.07422,0.005997,1.762,0.004115,0,1,0
168300000000,168600000000,4416216626,0,257502343,0.002022,0.005577,0.01743,0.01126,0.01192,0.005577,0.0001545,0.0001507,0.07129,0.003857,1.731,0.004015,0,1,0
168600000000,168900000000,4416216626,0,257502343,0.002029,0.005577,0.01743,0.01126,0.01193,0.005585,0.0002413,0.0001507,0.04797,0.0075,1.796,0.004385,0,1,0
168900000000,169200000000,4416216626,0,257502343,0.002003,0.005577,0.01743,0.01128,0.01195,0.005585,0.0001945,0.0001516,0.07019,0.004929,1.765,0.004263,0,1,0
169200000000,169500000000,4416216626,0,257502343,0.002022,0.005577,0.01743,0.01128,0.01195,0.005585,0.0002012,0.0001516,0.06567,0.004074,1.778,0.004328,0,1,0
169500000000,169800000000,4416216626,0,257502343,0.002041,0.005577,0.01743,0.01129,0.01196,0.005585,0.0001888,0.0001516,0.07678,0.004929,1.756,0.004141,0,1,0
169800000000,170100000000,4416216626,0,257502343,0.002007,0.005577,0.01743,0.01129,0.01196,0.005585,0.0003185,0.0001516,0.05627,0.008713,1.825,0.004502,0,1,0
170100000000,170400000000,4416216626,0,257502343,0.002045,0.005577,0.01743,0.01131,0.01198,0.005585,0.0002632,0.0001516,0.07776,0.007782,1.774,0.004226,0,1,0
170400000000,170700000000,4416216626,0,257502343,0.001991,0.005577,0.01743,0.01132,0.01198,0.005585,0.0001926,0.0001516,0.07483,0.005287,1.683,0.003863,0,1,0
170700000000,171000000000,4416216626,0,257502343,0.002029,0.005577,0.01743,0.01132,0.01199,0.005585,0.0003281,0.0001507,0.1151,0.00972,1.753,0.004216,0,1,0
171000000000,171300000000,4416216626,0,257502343,0.002056,0.005577,0.01743,0.01134,0.01199,0.005592,0.0002375,0.0001507,0.08252,0.006432,1.765,0.004291,0,1,0
171300000000,171600000000,4416216626,0,257502343,0.001987,0.005577,0.01743,0.01134,0.01201,0.005592,0.0002584,0.0001507,0.05774,0.009933,1.688,0.004059,0,1,0
171600000000,171900000000,4416216626,0,257502343,0.002045,0.005585,0.01743,0.01135,0.01201,0.005592,0.0002651,0.0001507,0.08228,0.006927,1.811,0.004409,0,1,0
171900000000,172200000000,4416216626,0,257502343,0.002083,0.005585,0.01743,0.01137,0.01202,0.005592,0.0003157,0.0001507,0.07764,0.008362,1.793,0.004228,0,1,0
172200000000,172500000000,4416216626,0,257502343,0.002048,0.005585,0.01743,0.01137,0.01204,0.0056,0.000164,0.0001507,0.07385,0.00293,1.718,0.003924,0,1,0
172500000000,172800000000,4416216626,0,257502343,0.00198,0.005585,0.01743,0.01138,0.01204,0.0056,0.0001745,0.0001507,0.08081,0.004997,1.767,0.004164,0,1,0
172800000000,173100000000,4416216626,0,257502343,0.002014,0.005592,0.01743,0.01138,0.01205,0.0056,0.0002861,0.0001507,0.07227,0.008423,1.782,0.004347,0,1,0
173100000000,173400000000,4416216626,0,257502343,0.002003,0.005592,0.01743,0.0114,0.01205,0.0056,0.0002203,0.0001507,0.06049,0.007072,1.728,0.004001,0,1,0
173400000000,173700000000,4416216626,0,257502343,0.001972,0.005592,0.01743,0.01141,0.01207,0.005608,0.0002632,0.0001507,0.06348,0.005569,1.747,0.004406,0,1,0
173700000000,174000000000,4416216626,0,257502343,0.001976,0.005592,0.01743,0.01143,0.01208,0.0056,0.0002537,0.0001507,0.05774,0.008148,1.729,0.004198,0,1,0
174000000000,174300000000,4416216626,0,257502343,0.002029,0.005592,0.01743,0.01143,0.0121,0.0056,0.000246,0.0001507,0.0929,0.007858,1.808,0.004304,0,1,0
174300000000,174600000000,4416216626,0,257502343,0.002071,0.005592,0.01743,0.01143,0.0121,0.005608,0.0003624,0.0001507,0.08154,0.01064,1.872,0.004467,0,1,0
174600000000,174900000000,4416216626,0,257502343,0.002079,0.0056,0.01743,0.01143,0.0121,0.005608,0.0001936,0.0001507,0.0686,0.005714,1.742,0.004108,0,1,0
174900000000,175200000000,4416216626,0,257502343,0.002037,0.0056,0.01743,0.01144,0.0121,0.005608,0.0002613,0.0001507,0.0686,0.009506,1.809,0.004329,0,1,0
175200000000,175500000000,4416216626,0,257502343,0.001968,0.0056,0.01743,0.01144,0.01212,0.005608,0.0002222,0.0001507,0.05225,0.009567,1.749,0.00418,0,1,0
175500000000,175800000000,4416216626,0,257502343,0.002304,0.0056,0.01743,0.01146,0.01212,0.005608,0.0003033,0.0001507,0.08447,0.007935,1.828,0.004237,0,1,0
175800000000,176100000000,4416216626,0,257502343,0.001995,0.0056,0.01743,0.01147,0.01213,0.005608,0.0002518,0.0001507,0.06641,0.008499,1.707,0.004051,0,1,0
186300000000,186600000000,4416216626,0,257502343,0.00201,0.009521,0.01743,0.01173,0.01239,0.009628,0.0002394,0.0001554,0.07446,0.006218,1.752,0.004121,0,1,0
186600000000,186900000000,4416216626,0,257502343,0.00194,0.009323,0.01743,0.01173,0.01241,0.00943,0.0001974,0.0001554,0.06616,0.003998,1.658,0.00394,0,1,0
186900000000,187200000000,4416216626,0,257502343,0.001999,0.009109,0.01743,0.01175,0.01242,0.009232,0.0002918,0.0001554,0.0567,0.008636,1.73,0.004083,0,1,0
187200000000,187500000000,4416216626,0,257502343,0.002048,0.008865,0.01743,0.01176,0.01242,0.009003,0.0002565,0.0001554,0.0719,0.006714,1.851,0.004435,0,1,0
187500000000,187800000000,4416216626,0,257502343,0.002052,0.008514,0.01743,0.01176,0.01244,0.008713,0.0002794,0.0001554,0.08057,0.007004,1.698,0.003836,0,1,0
187800000000,188100000000,4416216626,0,257502343,0.001991,0.008148,0.01743,0.01176,0.01244,0.008331,0.0001678,0.0001564,0.06409,0.00293,1.648,0.003852,0,1,0
188100000000,188400000000,4416216626,0,257502343,0.001947,0.007744,0.01743,0.01178,0.01244,0.007965,0.0002766,0.0001564,0.073,0.01151,1.698,0.004073,0,1,0
188400000000,188700000000,4416216626,0,257502343,0.001953,0.007378,0.01743,0.01178,0.01244,0.007568,0.0003767,0.0001564,0.06177,0.00914,1.693,0.004116,0,1,0
188700000000,189000000000,4416216626,0,257502343,0.002041,0.007004,0.01743,0.01178,0.01245,0.007202,0.0002413,0.0001564,0.07349,0.006927,1.734,0.003889,0,1,0
189000000000,189300000000,4416216626,0,257502343,0.00194,0.006622,0.01743,0.0118,0.01245,0.006821,0.000185,0.0001564,0.0719,0.005646,1.686,0.004078,0,1,0
189300000000,189600000000,4416216626,0,257502343,0.001926,0.006248,0.01743,0.0118,0.01247,0.006424,0.0003519,0.0001564,0.0556,0.008957,1.703,0.00426,0,1,0
189600000000,189900000000,4416216626,0,257502343,0.001987,0.00592,0.01743,0.01181,0.01247,0.006081,0.0003462,0.0001564,0.0802,0.008362,1.751,0.004175,0,1,0
189900000000,190200000000,4416216626,0,257502343,0.002014,0.005737,0.01743,0.01181,0.01248,0.005806,0.0002012,0.0001564,0.06873,0.0075,1.7,0.003905,0,1,0
190200000000,190500000000,4416216626,0,257502343,0.002018,0.005722,0.01743,0.01183,0.01248,0.00573,0.0001822,0.0001564,0.08313,0.005714,1.724,0.003996,0,1,0
190500000000,190800000000,4416216626,0,257502343,0.002037,0.005722,0.01743,0.01183,0.0125,0.005722,0.0001812,0.0001564,0.0769,0.004356,1.755,0.004251,0,1,0
190800000000,191100000000,4416216626,0,257502343,0.002014,0.005722,0.01743,0.01184,0.0125,0.00573,0.0001717,0.0001564,0.0603,0.004211,1.716,0.004057,0,1,0
191100000000,191400000000,4416216626,0,257502343,0.001984,0.005722,0.01743,0.01184,0.01251,0.00573,0.0001593,0.0001564,0.0752,0.003502,1.652,0.003811,0,1,0
191400000000,191700000000,4416216626,0,257502343,0.001984,0.005722,0.01743,0.01186,0.01251,0.005722,0.0002432,0.0001564,0.0918,0.006813,1.721,0.004097,0,1,0
191700000000,192000000000,4416216626,0,257502343,0.002064,0.005722,0.01743,0.01184,0.01251,0.00573,0.0002394,0.0001564,0.08228,0.005714,1.858,0.004425,0,1,0
192000000000,192300000000,4416216626,0,257502343,0.002022,0.005722,0.01743,0.01184,0.0125,0.00573,0.0003042,0.0001564,0.07593,0.009567,1.637,0.003629,0,1,0
192300000000,192600000000,4416216626,0,257502343,0.002045,0.005722,0.01743,0.01184,0.01251,0.00573,0.000165,0.0001564,0.08411,0.005501,1.733,0.003993,0,1,0
192600000000,192900000000,4416216626,0,257502343,0.001976,0.005722,0.01743,0.01186,0.01251,0.005722,0.0002995,0.0001564,0.08276,0.01335,1.758,0.004258,0,1,0
192900000000,193200000000,4416216626,0,257502343,0.001965,0.005722,0.01743,0.01186,0.01253,0.00573,0.0002298,0.0001564,0.07166,0.006355,1.672,0.003998,0,1,0
193200000000,193500000000,4416216626,0,257502343,0.001965,0.005722,0.01743,0.01187,0.01253,0.00573,0.0002556,0.0001564,0.06299,0.007645,1.702,0.004023,0,1,0
193500000000,193800000000,4416216626,0,257502343,0.002052,0.005722,0.01743,0.01183,0.0125,0.00573,0.0003414,0.0001564,0.07495,0.009781,1.831,0.004337,0,1,0
193800000000,194100000000,4416216626,0,257502343,0.001953,0.005722,0.01743,0.01184,0.0125,0.00573,0.000185,0.0001564,0.07837,0.006073,1.664,0.00386,0,1,0
194100000000,194400000000,4416216626,0,257502343,0.001951,0.005722,0.01743,0.01183,0.0125,0.005737,0.0002251,0.0001564,0.06335,0.006714,1.737,0.004279,0,1,0
194400000000,194700000000,4416216626,0,257502343,0.001995,0.005722,0.01743,0.0116,0.01227,0.005737,0.0002756,0.0001564,0.07471,0.011,1.835,0.004629,0,1,0
194700000000,195000000000,4416216626,0,257502343,0.002007,0.005722,0.01743,0.01154,0.01221,0.005737,0.0002365,0.0001564,0.1226,0.008286,1.807,0.00427,0,1,0
195000000000,195300000000,4416216626,0,257502343,0.001976,0.005722,0.01743,0.01155,0.01221,0.005737,0.0001593,0.0001564,0.08643,0.004211,1.689,0.003952,0,1,0
195300000000,195600000000,4416216626,0,257502343,0.001991,0.005722,0.01743,0.01155,0.01222,0.005737,0.0002384,0.0001564,0.07666,0.01028,1.82,0.004538,0,1,0
195600000000,195900000000,4416216626,0,257502343,0.002018,0.005722,0.01743,0.01157,0.01222,0.005737,0.0001917,0.0001564,0.06702,0.007217,1.766,0.004313,0,1,0
195900000000,196200000000,4416216626,0,257502343,0.001932,0.005722,0.01743,0.01157,0.01224,0.005737,0.0002155,0.0001564,0.07288,0.008072,1.79,0.004481,0,1,0
201300000000,201600000000,4416216626,0,257502343,0.001953,0.005722,0.01743,0.01169,0.01234,0.005737,0.0002537,0.0001564,0.05652,0.007141,1.809,0.004487,0,1,0
201600000000,201900000000,4416216626,0,257502343,0.002014,0.005722,0.01743,0.01169,0.01234,0.005737,0.0002213,0.0001564,0.06628,0.006783,1.729,0.004148,0,1,0
201900000000,202200000000,4416216626,0,257502343,0.002007,0.005722,0.01743,0.01167,0.01234,0.005737,0.0001707,0.0001564,0.07812,0.007072,1.827,0.004308,0,1,0
202200000000,202500000000,4416216626,0,257502343,0.001976,0.005722,0.01743,0.01169,0.01236,0.005737,0.0002041,0.0001564,0.06836,0.006859,1.81,0.004381,0,1,0
202500000000,202800000000,4416216626,0,257502343,0.001961,0.005722,0.01743,0.01169,0.01236,0.005737,0.0002213,0.0001564,0.06653,0.008148,1.775,0.004303,0,1,0
202800000000,203100000000,4416216626,0,257502343,0.001957,0.005722,0.01743,0.01169,0.01236,0.00573,0.0001879,0.0001564,0.07178,0.005432,1.841,0.004636,0,1,0
203100000000,203400000000,4416216626,0,257502343,0.001905,0.005722,0.01743,0.01169,0.01236,0.005737,0.0002909,0.0001564,0.06506,0.008423,1.856,0.00465,0,1,0
203400000000,203700000000,4416216626,0,257502343,0.001976,0.00573,0.01743,0.0117,0.01237,0.005737,0.0003471,0.0001564,0.07092,0.01357,1.797,0.004265,0,1,0
203700000000,204000000000,4416216626,0,257502343,0.001873,0.00573,0.01743,0.0117,0.01237,0.00573,0.0002165,0.0001564,0.04779,0.0065,1.75,0.004354,0,1,0
204300000000,204600000000,4416216626,0,257502343,0.002529,0.006172,0.01743,0.01141,0.01208,0.006241,0.0005064,0.0001554,0.08105,0.05792,1.509,0.003256,0,1,0
204600000000,204900000000,4416216626,0,257502343,0.001938,0.006165,0.01743,0.0114,0.01205,0.006195,0.0003033,0.0001564,0.07727,0.01079,1.654,0.00362,0,1,0
204900000000,205200000000,4416216626,0,257502343,0.001932,0.006165,0.01743,0.0114,0.01205,0.006203,0.0001497,0.0001564,0.07251,0.00457,1.625,0.003686,0,1,0
205200000000,205500000000,4416216626,0,257502343,0.001905,0.006165,0.01743,0.0114,0.01205,0.006195,0.0002136,0.0001564,0.07727,0.005646,1.726,0.004021,0,1,0
205500000000,205800000000,4416216626,0,257502343,0.001938,0.00618,0.01743,0.0114,0.01207,0.00621,0.0002155,0.0001564,0.06299,0.008499,1.669,0.003747,0,1,0
205800000000,206100000000,4416216626,0,257502343,0.001877,0.00618,0.01743,0.01141,0.01207,0.00621,0.0002708,0.0001564,0.07605,0.008209,1.683,0.003912,0,1,0
206100000000,206400000000,4416216626,0,257502343,0.001894,0.006187,0.01743,0.01141,0.01208,0.006218,0.0001926,0.0001564,0.06458,0.008575,1.658,0.003672,0,1,0
206400000000,206700000000,4416216626,0,257502343,0.001919,0.006195,0.01743,0.01141,0.01208,0.00621,0.0003624,0.0001564,0.06616,0.01199,1.705,0.003943,0,1,0
206700000000,207000000000,4416216626,0,257502343,0.001879,0.006195,0.01743,0.01141,0.01207,0.006218,0.000186,0.0001564,0.0675,0.0065,1.62,0.003602,0,1,0
207000000000,207300000000,4416216626,0,257502343,0.001907,0.006203,0.01743,0.01141,0.01208,0.006241,0.0002384,0.0001564,0.07031,0.008713,1.692,0.003644,0,1,0
207300000000,207600000000,4416216626,0,257502343,0.001928,0.006203,0.01743,0.0114,0.01207,0.006233,0.0001392,0.0001564,0.07385,0.002716,1.657,0.003775,0,1,0
207600000000,207900000000,4416216626,0,257502343,0.001854,0.00621,0.01743,0.0114,0.01207,0.007072,0.000247,0.0001564,0.0708,0.006569,1.685,0.003913,0,1,0
207900000000,208200000000,4416216626,0,257502343,0.001822,0.006187,0.01743,0.0114,0.01207,0.006233,0.000145,0.0001564,0.07239,0.002857,1.524,0.003171,0,1,0
208200000000,208500000000,4416216626,0,257502343,0.001822,0.006111,0.01743,0.0114,0.01207,0.006157,0.0001564,0.0001564,0.07019,0.003784,1.53,0.003257,0,1,0
208500000000,208800000000,4416216626,0,257502343,0.001823,0.006004,0.01743,0.01141,0.01207,0.006073,0.000144,0.0001564,0.06287,0.001928,1.524,0.003166,0,1,0
208800000000,209100000000,4416216626,0,257502343,0.001892,0.005905,0.01743,0.01141,0.01208,0.005951,0.000289,0.0001564,0.06506,0.01228,1.664,0.003748,0,1,0
209100000000,209400000000,4416216626,0,257502343,0.001854,0.005821,0.01743,0.01141,0.01207,0.005898,0.0002193,0.0001564,0.05927,0.008148,1.639,0.00361,0,1,0
209400000000,209700000000,4416216626,0,257502343,0.00185,0.00573,0.01743,0.0114,0.01207,0.006638,0.0002623,0.0001564,0.1161,0.009567,1.686,0.003955,0,1,0
209700000000,210000000000,4416216626,0,257502343,0.001965,0.005615,0.01743,0.0114,0.01207,0.005692,0.0003166,0.0001564,0.05957,0.01064,1.718,0.003924,0,1,0
210000000000,210300000000,4416216626,0,257502343,0.001917,0.005569,0.01743,0.0114,0.01207,0.005569,0.0002213,0.0001564,0.07361,0.01093,1.583,0.003353,0,1,0
210300000000,210600000000,4416216626,0,257502343,0.001961,0.005569,0.01743,0.01137,0.01204,0.005577,0.0001535,0.0001564,0.04865,0.003284,1.621,0.003432,0,1,0
210600000000,210900000000,4416216626,0,257502343,0.001856,0.005569,0.01743,0.01111,0.01178,0.005577,0.0001202,0.0001564,0.06335,0.00293,1.582,0.00332,0,1,0
210900000000,211200000000,4416216626,0,257502343,0.008133,0.005913,0.01743,0.01149,0.01216,0.006302,0.0003576,0.0001574,0.1975,0.0125,1.681,0.003326,0,1,0
211200000000,211500000000,4416216626,0,257502343,0.005981,0.006355,0.01743,0.01154,0.01219,0.006699,0.0002937,0.0001574,0.1536,0.01143,1.661,0.003238,0,1,0
211500000000,211800000000,4416216626,0,257502343,0.004684,0.006371,0.01743,0.008087,0.008743,0.006638,0.0002756,0.0001488,0.1682,0.008362,1.206,0.001114,0,1,0
211800000000,212100000000,4416216626,0,257502343,0.007133,0.006897,0.01743,0.00853,0.009201,0.007439,0.0003929,0.0001497,0.2031,0.01956,1.843,0.004112,0,1,0
212100000000,212400000000,4416216626,0,257502343,0.004189,0.007484,0.01743,0.009048,0.00972,0.007744,0.0002851,0.0001507,0.1511,0.01479,1.436,0.002759,0,1,0
212400000000,212700000000,4416216626,0,257502343,0.006187,0.007965,0.01743,0.009491,0.01015,0.008392,0.000329,0.0001516,0.1719,0.01086,1.736,0.004133,0,1,0
212700000000,213000000000,4416216626,0,257502343,0.004715,0.008438,0.01743,0.009949,0.0106,0.008743,0.0003262,0.0001526,0.1589,0.017,1.121,0.0009106,0,1,0
213000000000,213300000000,4416216626,0,257502343,0.005493,0.00885,0.01743,0.01033,0.011,0.009048,0.0002804,0.0001535,0.1763,0.01207,1.367,0.002127,0,1,0
213300000000,213600000000,4416216626,0,257502343,0.006912,0.00943,0.01743,0.01086,0.01154,0.009567,0.0004559,0.0001545,0.1958,0.01215,1.163,0.001082,0,1,0
213600000000,213900000000,4416216626,0,257502343,0.001863,0.009491,0.01743,0.01093,0.0116,0.009506,0.0001945,0.0001554,0.06287,0.004501,1.505,0.003186,0,1,0
213900000000,214200000000,4416216626,0,257502343,0.001844,0.009476,0.01743,0.01093,0.0116,0.009506,0.0002079,0.0001554,0.07043,0.004356,1.575,0.003497,0,1,0
214200000000,214500000000,4416216626,0,257502343,0.00193,0.009476,0.01743,0.01094,0.0116,0.009506,0.0002422,0.0001554,0.06995,0.007996,1.684,0.003815,0,1,0
214500000000,214800000000,4416216626,0,257502343,0.001953,0.009476,0.01743,0.01094,0.01161,0.009476,0.000308,0.0001554,0.07703,0.009079,1.685,0.003794,0,1,0
214800000000,215100000000,4416216626,0,257502343,0.00186,0.009445,0.01743,0.01096,0.01161,0.009476,0.0001764,0.0001554,0.06982,0.007217,1.491,0.0029,0,1,0
215100000000,215400000000,4416216626,0,257502343,0.001871,0.009399,0.01743,0.01096,0.01163,0.009445,0.0001259,0.0001554,0.06677,0.002644,1.476,0.002942,0,1,0
215400000000,215700000000,4416216626,0,257502343,0.00193,0.009277,0.01743,0.01096,0.01163,0.009369,0.0002127,0.0001554,0.06384,0.008926,1.697,0.003961,0,1,0
215700000000,216000000000,4416216626,0,257502343,0.001913,0.009155,0.01743,0.01096,0.01163,0.009232,0.0001736,0.0001554,0.04974,0.005356,1.565,0.003329,0,1,0
216000000000,216300000000,4416216626,0,257502343,0.001907,0.009003,0.01743,0.01096,0.01163,0.009094,0.0001593,0.0001554,0.06122,0.004501,1.63,0.003606,0,1,0
221100000000,221400000000,4416216626,0,257502343,0.002075,0.01073,0.01743,0.006516,0.007172,0.01074,0.0001459,0.0001364,0.08728,0.003284,1.627,0.003775,0,1,0
221400000000,221700000000,4416216626,0,257502343,0.002121,0.0108,0.01743,0.006554,0.007217,0.01085,0.0002928,0.0001364,0.0824,0.02243,1.717,0.004044,0,1,0
221700000000,222000000000,4416216626,0,257502343,0.002068,0.01083,0.01743,0.006577,0.00724,0.01086,0.0001459,0.0001364,0.06311,0.003998,1.613,0.003776,0,1,0
222000000000,222300000000,4416216626,0,257502343,0.002079,0.01085,0.01743,0.006584,0.007248,0.01088,0.0001564,0.0001364,0.05145,0.005714,1.694,0.003975,0,1,0
222300000000,222600000000,4416216626,0,257502343,0.00209,0.01086,0.01743,0.006592,0.007256,0.01089,0.0001554,0.0001364,0.06409,0.004425,1.691,0.003939,0,1,0
222600000000,222900000000,4416216626,0,257502343,0.002022,0.01086,0.01743,0.006599,0.007263,0.01091,0.0001545,0.0001364,0.06348,0.004997,1.667,0.003963,0,1,0
222900000000,223200000000,4416216626,0,257502343,0.001953,0.01088,0.01743,0.006607,0.007263,0.01091,0.0001554,0.0001364,0.08081,0.004929,1.662,0.003918,0,1,0
223200000000,223500000000,4416216626,0,257502343,0.001913,0.01089,0.01743,0.006615,0.007271,0.01091,0.0001526,0.0001364,0.07642,0.003284,1.71,0.003851,0,1,0
223500000000,223800000000,4416216626,0,257502343,0.001907,0.01091,0.01743,0.00663,0.007286,0.01099,0.0003586,0.0001364,0.06274,0.02493,1.35,0.002365,0,1,0
223800000000,224100000000,4416216626,0,257502343,0.001949,0.0107,0.01743,0.006645,0.007309,0.01091,0.0003376,0.0001364,0.05951,0.01271,1.819,0.004522,0,1,0
224100000000,224400000000,4416216626,0,257502343,0.001999,0.01025,0.01743,0.006653,0.007317,0.0105,0.0002956,0.0001364,0.07593,0.007286,1.754,0.004192,0,1,0
224400000000,224700000000,4416216626,0,257502343,0.001961,0.009781,0.01743,0.006653,0.007317,0.01003,0.0001888,0.0001364,0.08276,0.007431,1.624,0.003659,0,1,0
224700000000,225000000000,4416216626,0,257502343,0.001947,0.009308,0.01743,0.006638,0.007301,0.009567,0.0001583,0.0001364,0.06946,0.004143,1.649,0.003899,0,1,0
225000000000,225300000000,4416216626,0,257502343,0.00201,0.008835,0.01743,0.006676,0.007339,0.009109,0.0003176,0.0001364,0.07288,0.02371,1.747,0.00419,0,1,0
225300000000,225600000000,4416216626,0,257502343,0.002029,0.00827,0.01743,0.006691,0.007355,0.00856,0.0001678,0.0001364,0.05756,0.003998,1.646,0.003854,0,1,0
225600000000,225900000000,4416216626,0,257502343,0.002048,0.007683,0.01743,0.006699,0.007362,0.007996,0.0001574,0.0001364,0.05353,0.004074,1.707,0.003986,0,1,0
225900000000,226200000000,4416216626,0,257502343,0.002045,0.007072,0.01743,0.006706,0.00737,0.007393,0.0001574,0.0001364,0.06702,0.005356,1.642,0.003826,0,1,0
226200000000,226500000000,4416216626,0,257502343,0.00201,0.006493,0.01743,0.006714,0.007378,0.00679,0.0001736,0.0001364,0.05267,0.004997,1.752,0.004213,0,1,0
226500000000,226800000000,4416216626,0,257502343,0.001976,0.00592,0.01743,0.006729,0.007393,0.006218,0.0001383,0.0001364,0.04803,0.002071,1.749,0.004252,0,1,0
226800000000,227100000000,4416216626,0,257502343,0.001945,0.005333,0.01743,0.006737,0.007401,0.005623,0.0001326,0.0001364,0.08032,0.001928,1.625,0.00374,0,1,0
227100000000,227400000000,4416216626,0,257502343,0.001934,0.004814,0.01743,0.006744,0.007408,0.00589,0.0002699,0.0001364,0.06848,0.009567,1.702,0.004122,0,1,0
227400000000,227700000000,4416216626,0,257502343,0.001984,0.004539,0.01743,0.006752,0.007408,0.004585,0.0002489,0.0001364,0.06128,0.00943,1.849,0.00464,0,1,0
227700000000,228000000000,4416216626,0,257502343,0.002003,0.004539,0.01743,0.00676,0.007416,0.004555,0.0003004,0.0001364,0.08069,0.009857,1.716,0.004014,0,1,0
228000000000,228300000000,4416216626,0,257502343,0.001984,0.004539,0.01743,0.006767,0.007423,0.004547,0.0001793,0.0001364,0.07458,0.006355,1.691,0.003946,0,1,0
228300000000,228600000000,4416216626,0,257502343,0.001995,0.004539,0.01743,0.006775,0.007431,0.004547,0.0001516,0.0001364,0.0647,0.005211,1.701,0.004006,0,1,0
228600000000,228900000000,4416216626,0,257502343,0.00201,0.004539,0.01743,0.006783,0.007439,0.004555,0.0001688,0.0001364,0.07874,0.005646,1.667,0.003878,0,1,0
228900000000,229200000000,4416216626,0,257502343,0.001968,0.004539,0.01743,0.00679,0.007446,0.004555,0.000145,0.0001364,0.06897,0.007431,1.729,0.004058,0,1,0
229200000000,229500000000,4416216626,0,257502343,0.001942,0.004547,0.01743,0.006798,0.007462,0.004562,0.0002279,0.0001364,0.06335,0.00972,1.732,0.004297,0,1,0
229500000000,229800000000,4416216626,0,257502343,0.001991,0.004562,0.01743,0.006805,0.007469,0.005379,0.0001783,0.0001364,0.05988,0.006355,1.776,0.004505,0,1,0
229800000000,230100000000,4416216626,0,257502343,0.001925,0.004547,0.01743,0.006813,0.007477,0.004562,0.0002108,0.0001364,0.06433,0.006714,1.704,0.004395,0,1,0
230100000000,230400000000,4416216626,0,257502343,0.0019,0.004547,0.01743,0.006821,0.007484,0.004562,0.000246,0.0001364,0.04248,0.006218,1.707,0.004341,0,1,0
230400000000,230700000000,4416216626,0,257502343,0.001984,0.004547,0.01743,0.006828,0.007484,0.004562,0.0002899,0.0001364,0.05872,0.008499,1.842,0.004689,0,1,0
230700000000,231000000000,4416216626,0,257502343,0.001995,0.004547,0.01743,0.006836,0.007492,0.004555,0.0002899,0.0001364,0.07996,0.01064,1.728,0.004197,0,1,0
231000000000,231300000000,4416216626,0,257502343,0.001972,0.004547,0.01743,0.006844,0.0075,0.004562,0.0001736,0.0001364,0.07202,0.005646,1.667,0.003882,0,1,0
231300000000,231600000000,4416216626,0,257502343,0.001995,0.004547,0.01743,0.006851,0.007507,0.004562,0.0001736,0.0001364,0.07495,0.009567,1.744,0.004345,0,1,0
231600000000,231900000000,4416216626,0,257502343,0.001976,0.004547,0.01743,0.006859,0.007515,0.004562,0.0002222,0.0001364,0.04749,0.009079,1.741,0.004351,0,1,0
231900000000,232200000000,4416216626,0,257502343,0.001961,0.004547,0.01743,0.006866,0.007523,0.004562,0.000226,0.0001364,0.0636,0.005859,1.798,0.004623,0,1,0
232200000000,232500000000,4416216626,0,257502343,0.002026,0.004555,0.01743,0.006874,0.007538,0.00457,0.000164,0.0001364,0.07629,0.007004,1.55,0.003112,0,1,0
232500000000,232800000000,4416216626,0,257502343,0.001961,0.004425,0.01743,0.006882,0.007545,0.005379,0.0002203,0.0001364,0.0614,0.00914,1.749,0.004376,0,1,0
232800000000,233100000000,4416216626,0,257502343,0.001972,0.004311,0.01743,0.006889,0.007553,0.004318,0.000186,0.0001364,0.06873,0.006355,1.713,0.004218,0,1,0
233100000000,233400000000,4416216626,0,257502343,0.001965,0.004311,0.01743,0.006897,0.007561,0.004318,0.0001726,0.0001364,0.0752,0.003716,1.725,0.004259,0,1,0
233400000000,233700000000,4416216626,0,257502343,0.00201,0.004341,0.01743,0.006943,0.007607,0.004356,0.0002861,0.0001364,0.05707,0.0307,1.77,0.004464,0,1,0
233700000000,234000000000,4416216626,0,257502343,0.002003,0.004349,0.01743,0.00695,0.007614,0.004356,0.000186,0.0001364,0.07581,0.005997,1.732,0.004194,0,1,0
234000000000,234300000000,4416216626,0,257502343,0.001976,0.004356,0.01743,0.006966,0.007629,0.004364,0.0002937,0.0001364,0.0589,0.01199,1.844,0.004619,0,1,0
234300000000,234600000000,4416216626,0,257502343,0.001987,0.004356,0.01743,0.006973,0.007637,0.004379,0.0003052,0.0001373,0.0647,0.01199,1.805,0.004436,0,1,0
234600000000,234900000000,4416216626,0,257502343,0.00201,0.004364,0.01743,0.006996,0.00766,0.004379,0.0002251,0.0001373,0.07117,0.008926,1.605,0.003564,0,1,0
234900000000,235200000000,4416216626,0,257502343,0.002007,0.004387,0.01743,0.007019,0.007683,0.004402,0.0002346,0.0001373,0.07837,0.007858,1.785,0.004449,0,1,0
235200000000,235500000000,4416216626,0,257502343,0.001965,0.004387,0.01743,0.007027,0.00769,0.004402,0.0002079,0.0001373,0.06641,0.006714,1.718,0.00409,0,1,0
235500000000,235800000000,4416216626,0,257502343,0.001957,0.004387,0.01743,0.007042,0.007706,0.004395,0.0001936,0.0001373,0.06287,0.006645,1.751,0.004241,0,1,0
235800000000,236100000000,4416216626,0,257502343,0.001961,0.004387,0.01743,0.00705,0.007713,0.004402,0.0001459,0.0001373,0.04156,0.002998,1.769,0.004308,0,1,0
236100000000,236400000000,4416216626,0,257502343,0.001949,0.004387,0.01743,0.007057,0.007721,0.004402,0.0001411,0.0001373,0.05353,0.002998,1.741,0.004202,0,1,0
241200000000,241500000000,4416216626,0,257502343,0.004761,0.00882,0.01743,0.01048,0.01114,0.009125,0.0003519,0.000144,0.1707,0.01064,1.523,0.00272,0,1,0
241500000000,241800000000,4416216626,0,257502343,0.005478,0.009399,0.01743,0.01093,0.01158,0.009888,0.0004673,0.000145,0.1519,0.01566,1.921,0.004943,0,1,0
241800000000,242100000000,4416216626,0,257502343,0.003494,0.009933,0.01743,0.01137,0.01202,0.01003,0.0003214,0.0001469,0.1044,0.011,1.643,0.003453,0,1,0
242100000000,242400000000,4416216626,0,257502343,0.002048,0.009964,0.01743,0.0114,0.01205,0.009995,0.0002899,0.0001469,0.06006,0.009781,1.843,0.004341,0,1,0
242400000000,242700000000,4416216626,0,257502343,0.002007,0.009964,0.01743,0.0114,0.01205,0.009995,0.0001707,0.0001469,0.07617,0.003716,1.692,0.003958,0,1,0
242700000000,243000000000,4416216626,0,257502343,0.001987,0.009964,0.01743,0.0114,0.01207,0.009995,0.0002146,0.0001469,0.0578,0.007141,1.827,0.004489,0,1,0
243000000000,243300000000,4416216626,0,257502343,0.001953,0.009964,0.01743,0.0114,0.01207,0.009995,0.0002909,0.0001469,0.0589,0.008286,1.798,0.004543,0,1,0
243300000000,243600000000,4416216626,0,257502343,0.001965,0.009933,0.01743,0.01141,0.01208,0.009995,0.000226,0.0001469,0.05365,0.007858,1.685,0.004023,0,1,0
243600000000,243900000000,4416216626,0,257502343,0.002003,0.009872,0.01743,0.01143,0.01208,0.009933,0.0002966,0.0001469,0.05463,0.008148,1.861,0.004469,0,1,0
243900000000,244200000000,4416216626,0,257502343,0.002079,0.009735,0.01743,0.01141,0.01207,0.009827,0.0003128,0.0001469,0.07214,0.01064,1.824,0.004409,0,1,0
244200000000,244500000000,4416216626,0,257502343,0.001984,0.009552,0.01743,0.01141,0.01208,0.009674,0.0001822,0.0001469,0.07642,0.005569,1.697,0.003857,0,1,0
244500000000,244800000000,4416216626,0,257502343,0.001991,0.009354,0.01743,0.01143,0.01208,0.00946,0.0002089,0.0001469,0.07666,0.005569,1.786,0.004329,0,1,0
244800000000,245100000000,4416216626,0,257502343,0.002079,0.009109,0.01743,0.01143,0.0121,0.009247,0.000226,0.0001469,0.05817,0.008499,1.788,0.004445,0,1,0
245100000000,245400000000,4416216626,0,257502343,0.001965,0.00882,0.01743,0.01141,0.01208,0.008987,0.0001774,0.0001469,0.06274,0.004997,1.776,0.004394,0,1,0
245400000000,245700000000,4416216626,0,257502343,0.00198,0.008453,0.01743,0.01141,0.01208,0.008667,0.0001707,0.0001469,0.04865,0.004425,1.788,0.00433,0,1,0
245700000000,246000000000,4416216626,0,257502343,0.001957,0.00795,0.01743,0.01141,0.01207,0.00824,0.0002871,0.0001469,0.0484,0.01042,1.853,0.004571,0,1,0
246000000000,246300000000,4416216626,0,257502343,0.002037,0.007431,0.01743,0.01141,0.01208,0.007698,0.0002966,0.0001469,0.06714,0.008286,1.845,0.004539,0,1,0
251400000000,251700000000,4416216626,0,257502343,0.002029,0.005623,0.01743,0.01117,0.01184,0.006447,0.0001993,0.0001469,0.08203,0.004288,1.739,0.003932,0,1,0
251700000000,252000000000,4416216626,0,257502343,0.001987,0.005615,0.01743,0.01118,0.01184,0.00563,0.0001469,0.0001469,0.07922,0.003071,1.752,0.004106,0,1,0
252000000000,252300000000,4416216626,0,257502343,0.001984,0.005615,0.01743,0.01118,0.01186,0.00563,0.0001545,0.0001469,0.07874,0.005356,1.705,0.003997,0,1,0
252300000000,252600000000,4416216626,0,257502343,0.001984,0.005615,0.01743,0.0112,0.01186,0.00563,0.0001774,0.0001469,0.07629,0.004646,1.738,0.004137,0,1,0
252600000000,252900000000,4416216626,0,257502343,0.001965,0.005615,0.01743,0.0112,0.01187,0.00563,0.0001478,0.0001469,0.0578,0.003216,1.707,0.00402,0,1,0
252900000000,253200000000,4416216626,0,257502343,0.001968,0.005615,0.01743,0.01122,0.01187,0.00563,0.0001507,0.0001469,0.05396,0.004425,1.733,0.004106,0,1,0
253200000000,253500000000,4416216626,0,257502343,0.001976,0.005615,0.01743,0.01122,0.01189,0.00563,0.0001526,0.0001469,0.08057,0.002785,1.748,0.00416,0,1,0
253500000000,253800000000,4416216626,0,257502343,0.001961,0.005615,0.01743,0.01123,0.01189,0.00563,0.0001583,0.0001469,0.06458,0.004715,1.705,0.004078,0,1,0
253800000000,254100000000,4416216626,0,257502343,0.002029,0.005623,0.01743,0.01123,0.01189,0.005638,0.0002079,0.0001478,0.05853,0.005997,1.621,0.003694,0,1,0
254100000000,254400000000,4416216626,0,257502343,0.002014,0.00563,0.01743,0.01125,0.0119,0.005638,0.0001793,0.0001478,0.08008,0.004997,1.745,0.00418,0,1,0
254400000000,254700000000,4416216626,0,257502343,0.002041,0.00563,0.01743,0.01126,0.01192,0.005646,0.0002127,0.0001478,0.06897,0.006287,1.697,0.00397,0,1,0
254700000000,255000000000,4416216626,0,257502343,0.00198,0.005638,0.01743,0.01126,0.01193,0.005653,0.0001421,0.0001478,0.07166,0.002571,1.738,0.004196,0,1,0
255000000000,255300000000,4416216626,0,257502343,0.001984,0.005638,0.01743,0.01128,0.01193,0.005646,0.0001717,0.0001478,0.0824,0.005997,1.695,0.004027,0,1,0
255300000000,255600000000,4416216626,0,257502343,0.001965,0.005638,0.01743,0.01128,0.01195,0.005653,0.0004072,0.0001478,0.06232,0.01271,1.66,0.004025,0,1,0
255600000000,255900000000,4416216626,0,257502343,0.002022,0.005638,0.01743,0.01129,0.01195,0.005653,0.0002422,0.0001478,0.06183,0.006569,1.802,0.004427,0,1,0
255900000000,256200000000,4416216626,0,257502343,0.001976,0.005638,0.01743,0.01129,0.01196,0.005653,0.0002642,0.0001478,0.07739,0.006714,1.847,0.004681,0,1,0
256200000000,256500000000,4416216626,0,257502343,0.002037,0.005638,0.01743,0.01131,0.01196,0.005653,0.0003042,0.0001478,0.08264,0.007431,1.802,0.004372,0,1,0
256500000000,256800000000,4416216626,0,257502343,0.002007,0.005638,0.01743,0.01131,0.01196,0.005653,0.0002327,0.0001478,0.06238,0.013,1.707,0.004012,0,1,0
256800000000,257100000000,4416216626,0,257502343,0.002014,0.005638,0.01743,0.01131,0.01198,0.005646,0.0001392,0.0001469,0.0907,0.002571,1.708,0.00403,0,1,0
257100000000,257400000000,4416216626,0,257502343,0.001995,0.005638,0.01743,0.01132,0.01198,0.005653,0.0001564,0.0001469,0.07239,0.003502,1.748,0.004078,0,1,0
257400000000,257700000000,4416216626,0,257502343,0.001999,0.005638,0.01743,0.01132,0.01198,0.005653,0.0001583,0.0001469,0.06946,0.005142,1.762,0.004155,0,1,0
257700000000,258000000000,4416216626,0,257502343,0.001987,0.005638,0.01743,0.01132,0.01199,0.005653,0.0001526,0.0001469,0.07397,0.003216,1.751,0.004179,0,1,0
258000000000,258300000000,4416216626,0,257502343,0.002003,0.005638,0.01743,0.01134,0.01201,0.005638,0.0001497,0.0001469,0.07874,0.0065,1.766,0.004219,0,1,0
258300000000,258600000000,4416216626,0,257502343,0.002026,0.005638,0.01743,0.01134,0.01199,0.005653,0.0001612,0.0001469,0.0813,0.003429,1.725,0.004058,0,1,0
258600000000,258900000000,4416216626,0,257502343,0.00211,0.005638,0.01743,0.01134,0.01199,0.005653,0.0001783,0.0001469,0.05981,0.005074,1.685,0.003927,0,1,0
258900000000,259200000000,4416216626,0,257502343,0.002136,0.005638,0.01743,0.01134,0.01199,0.005646,0.0001631,0.0001469,0.08655,0.004715,1.674,0.003897,0,1,0
259200000000,259500000000,4416216626,0,257502343,0.002251,0.005638,0.01743,0.01134,0.01201,0.005653,0.0001841,0.0001469,0.06433,0.004929,1.636,0.003561,0,1,0
259500000000,259800000000,4416216626,0,257502343,0.002136,0.005646,0.01743,0.01134,0.01201,0.005653,0.0001659,0.0001469,0.06158,0.004715,1.645,0.003799,0,1,0
259800000000,260100000000,4416216626,0,257502343,0.002151,0.005653,0.01743,0.01134,0.01201,0.005653,0.0002117,0.0001469,0.07959,0.009003,1.624,0.003639,0,1,0
260100000000,260400000000,4416216626,0,257502343,0.00211,0.005653,0.01743,0.01135,0.01201,0.005669,0.0001898,0.0001469,0.08386,0.006073,1.684,0.004008,0,1,0
260400000000,260700000000,4416216626,0,257502343,0.002113,0.005653,0.01743,0.01137,0.01202,0.005669,0.0001917,0.0001469,0.08325,0.006218,1.693,0.004037,0,1,0
260700000000,261000000000,4416216626,0,257502343,0.00206,0.005661,0.01743,0.01137,0.01204,0.005669,0.0003328,0.0001469,0.0946,0.007713,1.665,0.003947,0,1,0
261000000000,261300000000,4416216626,0,257502343,0.002037,0.005661,0.01743,0.01138,0.01204,0.005669,0.0003424,0.0001469,0.06323,0.01265,1.745,0.004185,0,1,0
261300000000,261600000000,4416216626,0,257502343,0.002022,0.005661,0.01743,0.01138,0.01204,0.005669,0.0003023,0.0001469,0.07593,0.00885,1.794,0.004332,0,1,0
261600000000,261900000000,4416216626,0,257502343,0.002087,0.005661,0.01743,0.01137,0.01204,0.005669,0.0003452,0.0001469,0.07703,0.008499,1.818,0.004393,0,1,0
261900000000,262200000000,4416216626,0,257502343,0.002075,0.005661,0.01743,0.01137,0.01202,0.005669,0.0002632,0.0001469,0.05969,0.008148,1.81,0.004314,0,1,0
262200000000,262500000000,4416216626,0,257502343,0.002048,0.005661,0.01743,0.01137,0.01204,0.005669,0.0001993,0.0001469,0.08057,0.006073,1.711,0.004012,0,1,0
262500000000,262800000000,4416216626,0,257502343,0.001961,0.005661,0.01743,0.01138,0.01204,0.005669,0.0001907,0.0001469,0.06238,0.005783,1.786,0.004355,0,1,0
262800000000,263100000000,4416216626,0,257502343,0.001942,0.005661,0.01743,0.01137,0.01204,0.005669,0.0003529,0.0001469,0.07898,0.01086,1.732,0.004257,0,1,0
263100000000,263400000000,4416216626,0,257502343,0.001999,0.005661,0.01743,0.01138,0.01204,0.005669,0.0003519,0.0001469,0.06396,0.009644,1.739,0.004241,0,1,0
263400000000,263700000000,4416216626,0,257502343,0.002106,0.005661,0.01743,0.01138,0.01205,0.005669,0.0002613,0.0001469,0.06384,0.009644,1.723,0.003983,0,1,0
263700000000,264000000000,4416216626,0,257502343,0.002071,0.005661,0.01743,0.0114,0.01205,0.005661,0.0001545,0.0001469,0.08215,0.00293,1.798,0.004284,0,1,0
264000000000,264300000000,4416216626,0,257502343,0.001961,0.005661,0.01743,0.0114,0.01207,0.005661,0.0002365,0.0001469,0.05634,0.005783,1.723,0.004093,0,1,0
264300000000,264600000000,4416216626,0,257502343,0.001961,0.005661,0.01743,0.01141,0.01208,0.005676,0.000247,0.0001469,0.05524,0.005997,1.717,0.004234,0,1,0
264600000000,264900000000,4416216626,0,257502343,0.002083,0.005661,0.01743,0.01144,0.0121,0.005676,0.0003138,0.0001469,0.0567,0.007607,1.753,0.004301,0,1,0
264900000000,265200000000,4416216626,0,257502343,0.002052,0.005661,0.01743,0.01144,0.01212,0.005676,0.0002909,0.0001478,0.07568,0.008575,1.842,0.004475,0,1,0
265200000000,265500000000,4416216626,0,257502343,0.002068,0.005661,0.01743,0.01146,0.01212,0.005669,0.000268,0.0001478,0.08472,0.007072,1.769,0.004094,0,1,0
265500000000,265800000000,4416216626,0,257502343,0.001957,0.005661,0.01743,0.01146,0.01213,0.005676,0.0001888,0.0001478,0.06396,0.004784,1.717,0.004062,0,1,0
265800000000,266100000000,4416216626,0,257502343,0.001949,0.005661,0.01743,0.01144,0.01212,0.005676,0.0002623,0.0001478,0.06995,0.007751,1.707,0.004226,0,1,0
266100000000,266400000000,4416216626,0,257502343,0.002007,0.005661,0.01743,0.01144,0.01212,0.005676,0.0002794,0.0001478,0.1046,0.007355,1.819,0.004447,0,1,0
266400000000,266700000000,4416216626,0,257502343,0.002083,0.005661,0.01743,0.01146,0.01212,0.005676,0.0003147,0.0001478,0.08008,0.009567,1.789,0.004181,0,1,0
266700000000,267000000000,4416216626,0,257502343,0.002041,0.005661,0.01743,0.01146,0.01213,0.005676,0.0002127,0.0001478,0.08301,0.009216,1.685,0.003828,0,1,0
267000000000,267300000000,4416216626,0,257502343,0.001972,0.005661,0.01743,0.01138,0.01204,0.005676,0.0001764,0.0001478,0.06012,0.007217,1.73,0.004227,0,1,0
267300000000,267600000000,4416216626,0,257502343,0.001949,0.005669,0.01743,0.01117,0.01183,0.005676,0.0003614,0.0001478,0.05371,0.01129,1.716,0.004156,0,1,0
267600000000,267900000000,4416216626,0,257502343,0.00198,0.005669,0.01743,0.01117,0.01184,0.005676,0.0003395,0.0001478,0.05896,0.01057,1.808,0.004344,0,1,0
267900000000,268200000000,4416216626,0,257502343,0.002048,0.005669,0.01743,0.01118,0.01184,0.005676,0.0002356,0.0001478,0.08105,0.008713,1.742,0.003987,0,1,0
268200000000,268500000000,4416216626,0,257502343,0.005074,0.005669,0.01743,0.01126,0.01193,0.005699,0.0002642,0.0001478,0.177,0.01042,1.637,0.003224,0,1,0
268500000000,268800000000,4416216626,0,257502343,0.007919,0.00592,0.01743,0.01166,0.01231,0.006348,0.0002766,0.0001488,0.2332,0.008499,1.706,0.003566,0,1,0
268800000000,269100000000,4416216626,0,257502343,0.004791,0.006393,0.01743,0.01176,0.01244,0.006577,0.0002575,0.0001497,0.1897,0.008575,1.215,0.00107,0,1,0
269100000000,269400000000,4416216626,0,257502343,0.007439,0.006874,0.0174,0.01178,0.01244,0.007278,0.0003166,0.0001507,0.2231,0.01308,1.712,0.003443,0,1,0
269400000000,269700000000,4416216626,0,257502343,0.005234,0.007339,0.01743,0.01175,0.01242,0.007706,0.0002155,0.0001516,0.2009,0.01279,1.821,0.004283,0,1,0
269700000000,270000000000,4416216626,0,257502343,0.004356,0.007744,0.01743,0.0118,0.01245,0.00798,0.0002193,0.0001526,0.1685,0.01308,1.584,0.00317,0,1,0
270000000000,270300000000,4416216626,0,257502343,0.005234,0.008087,0.01743,0.0118,0.01247,0.008301,0.0002451,0.0001535,0.1956,0.01164,1.736,0.004072,0,1,0
270300000000,270600000000,4416216626,0,257502343,0.008255,0.008484,0.0174,0.01175,0.01242,0.008911,0.0002785,0.0001545,0.2915,0.009216,1.778,0.004112,0,1,0
270600000000,270900000000,4416216626,0,257502343,0.004852,0.008987,0.01743,0.01176,0.01244,0.009232,0.0002403,0.0001554,0.1829,0.007286,1.871,0.004568,0,1,0
270900000000,271200000000,4416216626,0,257502343,0.00795,0.009552,0.01743,0.01178,0.01245,0.009735,0.0002995,0.0001564,0.2544,0.008713,1.517,0.002048,0,1,0
271200000000,271500000000,4416216626,0,257502343,0.001976,0.009674,0.01743,0.01181,0.01248,0.009689,0.0002565,0.0001564,0.0647,0.0075,1.732,0.004243,0,1,0
281400000000,281700000000,4416216626,0,257502343,0.002022,0.00563,0.01743,0.0118,0.01247,0.005638,0.0003119,0.0001564,0.08032,0.008423,1.777,0.004088,0,1,0
281700000000,282000000000,4416216626,0,257502343,0.00198,0.00563,0.01743,0.01161,0.01227,0.005638,0.0001917,0.0001564,0.1157,0.006645,1.643,0.003643,0,1,0
282000000000,282300000000,4416216626,0,257502343,0.002029,0.00563,0.01743,0.01161,0.01228,0.005638,0.0001678,0.0001564,0.07812,0.005501,1.853,0.00439,0,1,0
282300000000,282600000000,4416216626,0,257502343,0.001984,0.00563,0.01743,0.01163,0.01228,0.005638,0.0002508,0.0001564,0.06921,0.007072,1.728,0.004111,0,1,0
282600000000,282900000000,4416216626,0,257502343,0.00198,0.00563,0.01743,0.01163,0.0123,0.005646,0.0002794,0.0001564,0.0578,0.008423,1.642,0.003817,0,1,0
282900000000,283200000000,4416216626,0,257502343,0.002003,0.00563,0.01743,0.01164,0.0123,0.005638,0.0002337,0.0001564,0.07788,0.009293,1.724,0.00387,0,1,0
283200000000,283500000000,4416216626,0,257502343,0.002037,0.00563,0.01743,0.01164,0.01231,0.005646,0.0001926,0.0001564,0.07056,0.007645,1.785,0.004298,0,1,0
283500000000,283800000000,4416216626,0,257502343,0.001949,0.00563,0.01743,0.01166,0.01231,0.005646,0.0002146,0.0001564,0.07019,0.008789,1.714,0.004081,0,1,0
283800000000,284100000000,4416216626,0,257502343,0.00201,0.00563,0.01743,0.01166,0.01233,0.005638,0.0003195,0.0001564,0.06738,0.009781,1.737,0.004171,0,1,0
284100000000,284400000000,4416216626,0,257502343,0.001968,0.00563,0.01743,0.01167,0.01233,0.005638,0.0001822,0.0001564,0.07764,0.006859,1.775,0.004004,0,1,0
284400000000,284700000000,4416216626,0,257502343,0.001938,0.00563,0.01743,0.01167,0.01234,0.005646,0.0001564,0.0001564,0.07935,0.005074,1.695,0.003995,0,1,0
284700000000,285000000000,4416216626,0,257502343,0.001936,0.00563,0.01743,0.01169,0.01234,0.005638,0.0001497,0.0001564,0.0802,0.002644,1.695,0.004041,0,1,0
285000000000,285300000000,4416216626,0,257502343,0.001936,0.00563,0.01743,0.01169,0.01236,0.005638,0.0001459,0.0001564,0.07715,0.002357,1.697,0.004043,0,1,0
285300000000,285600000000,4416216626,0,257502343,0.001934,0.00563,0.01743,0.0117,0.01236,0.005638,0.0001574,0.0001564,0.07642,0.004074,1.73,0.00401,0,1,0
285600000000,285900000000,4416216626,0,257502343,0.001965,0.00563,0.01743,0.0117,0.01237,0.005638,0.0001717,0.0001564,0.07605,0.003284,1.638,0.003699,0,1,0
285900000000,286200000000,4416216626,0,257502343,0.001925,0.00563,0.01743,0.01172,0.01239,0.005646,0.0001593,0.0001564,0.07495,0.004074,1.674,0.003872,0,1,0
286200000000,286500000000,4416216626,0,257502343,0.001926,0.00563,0.01743,0.01173,0.01239,0.005638,0.0001526,0.0001564,0.06628,0.002213,1.694,0.003941,0,1,0
286500000000,286800000000,4416216626,0,257502343,0.001921,0.00563,0.01743,0.01173,0.01241,0.005638,0.0001869,0.0001564,0.07263,0.008072,1.714,0.004045,0,1,0
286800000000,287100000000,4416216626,0,257502343,0.001913,0.00563,0.01743,0.01175,0.01241,0.00563,0.0001535,0.0001564,0.07678,0.003643,1.72,0.004012,0,1,0
287100000000,287400000000,4416216626,0,257502343,0.001925,0.00563,0.01743,0.01175,0.01242,0.005646,0.0001602,0.0001564,0.07312,0.005142,1.753,0.004198,0,1,0
287400000000,287700000000,4416216626,0,257502343,0.001905,0.00563,0.01743,0.01176,0.01242,0.005646,0.0001478,0.0001564,0.0752,0.002785,1.704,0.004212,0,1,0
287700000000,288000000000,4416216626,0,257502343,0.00189,0.00563,0.01743,0.01176,0.01244,0.005646,0.0003948,0.0001564,0.07581,0.01286,1.753,0.004184,0,1,0
288000000000,288300000000,4416216626,0,257502343,0.001957,0.00563,0.01743,0.01178,0.01244,0.005638,0.0002947,0.0001564,0.07251,0.008148,1.73,0.003996,0,1,0
288300000000,288600000000,4416216626,0,257502343,0.002003,0.00563,0.01743,0.01178,0.01245,0.005646,0.0002995,0.0001564,0.07227,0.006927,1.809,0.004384,0,1,0
288600000000,288900000000,4416216626,0,257502343,0.002018,0.005638,0.01743,0.01178,0.01245,0.005646,0.0003996,0.0001564,0.07874,0.007355,1.709,0.003846,0,1,0
288900000000,289200000000,4416216626,0,257502343,0.001936,0.005638,0.01743,0.0118,0.01245,0.005646,0.0002089,0.0001564,0.07886,0.00914,1.623,0.003469,0,1,0
289200000000,289500000000,4416216626,0,257502343,0.001911,0.005638,0.01743,0.0118,0.01247,0.005646,0.0001621,0.0001564,0.06067,0.005211,1.657,0.003817,0,1,0
289500000000,289800000000,4416216626,0,257502343,0.001972,0.005638,0.01743,0.01181,0.01247,0.005646,0.0002499,0.0001564,0.08118,0.008789,1.593,0.003555,0,1,0
289800000000,290100000000,4416216626,0,257502343,0.002056,0.005638,0.01743,0.01181,0.01248,0.005646,0.0002661,0.0001564,0.0752,0.009933,1.701,0.003814,0,1,0
290100000000,290400000000,4416216626,0,257502343,0.002007,0.005638,0.01743,0.01183,0.01248,0.005653,0.0002232,0.0001564,0.08044,0.007668,1.828,0.00447,0,1,0
290400000000,290700000000,4416216626,0,257502343,0.001961,0.005638,0.01743,0.01183,0.0125,0.005653,0.0001535,0.0001564,0.08313,0.004425,1.675,0.003825,0,1,0
290700000000,291000000000,4416216626,0,257502343,0.00194,0.005638,0.01743,0.01184,0.0125,0.005653,0.000165,0.0001564,0.07617,0.006432,1.71,0.003993,0,1,0
291000000000,291300000000,4416216626,0,257502343,0.00193,0.005638,0.01743,0.01184,0.01251,0.005646,0.0001488,0.0001564,0.06018,0.003929,1.766,0.004109,0,1,0
291300000000,291600000000,4416216626,0,257502343,0.001919,0.005638,0.01743,0.01186,0.01251,0.005646,0.0001431,0.0001564,0.05804,0.002144,1.755,0.004078,0,1,0
291600000000,291900000000,4416216626,0,257502343,0.001892,0.005638,0.01743,0.01186,0.01251,0.005638,0.0001516,0.0001564,0.07739,0.004288,1.724,0.003895,0,1,0
291900000000,292200000000,4416216626,0,257502343,0.001898,0.005638,0.01743,0.01186,0.01253,0.005653,0.0001621,0.0001564,0.07776,0.002857,1.719,0.004093,0,1,0
292200000000,292500000000,4416216626,0,257502343,0.001883,0.005638,0.01743,0.01187,0.01253,0.005646,0.000144,0.0001564,0.06061,0.001928,1.684,0.003923,0,1,0
292500000000,292800000000,4416216626,0,257502343,0.001881,0.005638,0.01743,0.01187,0.01254,0.005638,0.000185,0.0001564,0.07666,0.01021,1.712,0.004075,0,1,0
292800000000,293100000000,4416216626,0,257502343,0.0019,0.005638,0.01743,0.01189,0.01254,0.005653,0.0001755,0.0001564,0.06567,0.006714,1.705,0.003894,0,1,0
293100000000,293400000000,4416216626,0,257502343,0.001902,0.005638,0.01743,0.01186,0.01251,0.005638,0.0001669,0.0001564,0.07153,0.006569,1.689,0.0039,0,1,0
293400000000,293700000000,4416216626,0,257502343,0.001865,0.005638,0.01743,0.01186,0.01251,0.005638,0.0001345,0.0001564,0.07446,0.001928,1.748,0.004138,0,1,0
293700000000,294000000000,4416216626,0,257502343,0.001856,0.005638,0.01743,0.01186,0.01253,0.005638,0.0001631,0.0001564,0.07568,0.004074,1.728,0.004075,0,1,0
294000000000,294300000000,4416216626,0,257502343,0.00186,0.005638,0.01743,0.01187,0.01253,0.005646,0.0004063,0.0001564,0.05853,0.01135,1.733,0.004207,0,1,0
294300000000,294600000000,4416216626,0,257502343,0.00194,0.005638,0.01743,0.01187,0.01254,0.005646,0.0002785,0.0001564,0.07788,0.009003,1.839,0.004554,0,1,0
294600000000,294900000000,4416216626,0,257502343,0.001995,0.005638,0.01743,0.01189,0.01254,0.005653,0.0003681,0.0001564,0.07788,0.01015,1.875,0.004559,0,1,0
294900000000,295200000000,4416216626,0,257502343,0.001951,0.005646,0.01743,0.01187,0.01254,0.005661,0.0003119,0.0001564,0.06726,0.009567,1.694,0.003703,0,1,0
295200000000,295500000000,4416216626,0,257502343,0.001902,0.005646,0.01743,0.01187,0.01254,0.005661,0.0001936,0.0001564,0.07825,0.007217,1.592,0.003373,0,1,0
295500000000,295800000000,4416216626,0,257502343,0.001888,0.005646,0.01743,0.01189,0.01256,0.005661,0.0002012,0.0001564,0.0647,0.004501,1.778,0.004385,0,1,0
295800000000,296100000000,4416216626,0,257502343,0.001934,0.005646,0.01743,0.0119,0.01256,0.005653,0.0002632,0.0001564,0.07263,0.007713,1.78,0.004332,0,1,0
296100000000,296400000000,4416216626,0,257502343,0.001936,0.005646,0.01743,0.01173,0.01239,0.005653,0.000288,0.0001564,0.07812,0.01401,1.731,0.003908,0,1,0
296400000000,296700000000,4416216626,0,257502343,0.001863,0.005646,0.01743,0.01158,0.01224,0.005653,0.0002213,0.0001564,0.04474,0.008392,1.668,0.003854,0,1,0
296700000000,297000000000,4416216626,0,257502343,0.002026,0.005646,0.01743,0.01158,0.01225,0.005653,0.0003052,0.0001564,0.05206,0.01135,1.726,0.00389,0,1,0
297000000000,297300000000,4416216626,0,257502343,0.006935,0.00573,0.01743,0.01172,0.01237,0.006012,0.0003633,0.0001574,0.2097,0.01057,1.823,0.00431,0,1,0
297300000000,297600000000,4416216626,0,257502343,0.006538,0.00618,0.01743,0.01173,0.01241,0.006645,0.0004644,0.0001583,0.1714,0.01276,1.718,0.004164,0,1,0
297600000000,297900000000,4416216626,0,257502343,0.004951,0.006752,0.01743,0.0117,0.01237,0.007019,0.000473,0.0001593,0.1707,0.01471,1.854,0.004443,0,1,0
297900000000,298200000000,4416216626,0,257502343,0.007683,0.007256,0.01743,0.01164,0.01231,0.007729,0.000308,0.0001602,0.2214,0.01193,1.679,0.002774,0,1,0
298200000000,298500000000,4416216626,0,257502343,0.004539,0.007805,0.01743,0.01166,0.01231,0.008041,0.0003252,0.0001612,0.1514,0.01779,1.745,0.003795,0,1,0
298500000000,298800000000,4416216626,0,257502343,0.006348,0.008347,0.0174,0.01166,0.01233,0.008713,0.0003557,0.0001631,0.2002,0.01758,1.562,0.003035,0,1,0
298800000000,299100000000,4416216626,0,257502343,0.005005,0.00882,0.01743,0.01166,0.01233,0.009293,0.0003481,0.000164,0.1641,0.01436,1.783,0.004232,0,1,0
299100000000,299400000000,4416216626,0,257502343,0.007141,0.009399,0.01743,0.01169,0.01236,0.009842,0.0004644,0.000165,0.1692,0.0163,1.051,0.0005778,0,1,0
299400000000,299700000000,4416216626,0,257502343,0.002037,0.009766,0.01743,0.0117,0.01236,0.009796,0.0003433,0.0001659,0.0589,0.01244,1.784,0.004088,0,1,0
299700000000,300000000000,4416216626,0,257502343,0.001953,0.009781,0.01743,0.0117,0.01237,0.009811,0.0002117,0.0001659,0.05981,0.0075,1.614,0.003353,0,1,0
