5700000000,6000000000,4645263687,0,38662458,0.001539,0.003235,0.0116,0.004807,0.00528,0.003235,7.057e-05,3.91e-05,0.007904,0.002857,1.536,0.004707,0,1,0
6000000000,6300000000,4645263687,0,38662458,0.001535,0.003235,0.0116,0.004814,0.005287,0.003235,4.768e-05,3.91e-05,0.008255,0.002571,1.52,0.004719,0,1,0
6300000000,6600000000,4645263687,0,38662458,0.001562,0.003235,0.0116,0.004814,0.005287,0.003235,9.346e-05,4.005e-05,0.008636,0.002357,1.536,0.004759,0,1,0
6600000000,6900000000,4645263687,0,38662458,0.001553,0.003235,0.0116,0.004822,0.005295,0.003235,5.054e-05,4.005e-05,0.008896,0.002357,1.565,0.004845,0,1,0
6900000000,7200000000,4645263687,0,38662458,0.001539,0.003235,0.0116,0.004822,0.005295,0.003235,6.294e-05,4.005e-05,0.008575,0.002571,1.528,0.004603,0,1,0
7200000000,7500000000,4645263687,0,38662458,0.001549,0.003235,0.0116,0.004829,0.005302,0.003235,7.534e-05,4.005e-05,0.008163,0.002716,1.537,0.004676,0,1,0
7500000000,7800000000,4645263687,0,38662458,0.001547,0.003235,0.0116,0.004837,0.00531,0.003235,4.196e-05,4.005e-05,0.008087,0.002213,1.525,0.004768,0,1,0
7800000000,8100000000,4645263687,0,38662458,0.001543,0.003235,0.0116,0.004837,0.00531,0.003235,5.913e-05,4.005e-05,0.008102,0.001999,1.554,0.005004,0,1,0
8100000000,8400000000,4645263687,0,38662458,0.001543,0.003235,0.0116,0.004845,0.005318,0.003235,5.531e-05,4.005e-05,0.008362,0.002644,1.554,0.004984,0,1,0
8400000000,8700000000,4645263687,0,38662458,0.001535,0.003235,0.0116,0.004845,0.005318,0.003235,5.054e-05,4.005e-05,0.007904,0.002357,1.517,0.004755,0,1,0
8700000000,9000000000,4645263687,0,38662458,0.001532,0.003235,0.0116,0.004852,0.005325,0.003235,5.913e-05,4.005e-05,0.007713,0.00243,1.511,0.004618,0,1,0
9000000000,9300000000,4645263687,0,38662458,0.001526,0.003235,0.0116,0.00486,0.005325,0.003235,5.722e-05,4.005e-05,0.008011,0.003216,1.524,0.004632,0,1,0
9300000000,9600000000,4645263687,0,38662458,0.001524,0.003235,0.0116,0.00486,0.005333,0.003235,4.482e-05,4.005e-05,0.007904,0.001858,1.487,0.004522,0,1,0
9600000000,9900000000,4645263687,0,38662458,0.001528,0.003235,0.0116,0.004868,0.005341,0.003235,5.627e-05,4.005e-05,0.007675,0.001999,1.502,0.004493,0,1,0
9900000000,10200000000,4645263687,0,38662458,0.001522,0.003235,0.0116,0.004868,0.005341,0.003235,5.627e-05,4.005e-05,0.007874,0.002644,1.508,0.004557,0,1,0
10200000000,10500000000,4645263687,0,38662458,0.00153,0.003235,0.0116,0.004875,0.005348,0.003235,4.578e-05,4.005e-05,0.01025,0.002644,1.527,0.004601,0,1,0
10500000000,10800000000,4645263687,0,38662458,0.001535,0.003235,0.0116,0.004883,0.005356,0.003235,5.341e-05,4.005e-05,0.008408,0.002785,1.535,0.004677,0,1,0
10800000000,11100000000,4645263687,0,38662458,0.001534,0.003235,0.0116,0.004883,0.005356,0.003235,4.101e-05,4.005e-05,0.00798,0.001715,1.537,0.004681,0,1,0
11100000000,11400000000,4645263687,0,38662458,0.001524,0.003235,0.0116,0.00489,0.005363,0.003235,7.153e-05,4.005e-05,0.007996,0.002716,1.482,0.00457,0,1,0
11400000000,11700000000,4645263687,0,38662458,0.001522,0.003235,0.0116,0.00489,0.005363,0.003235,5.15e-05,4.005e-05,0.008179,0.002857,1.509,0.004663,0,1,0
11700000000,12000000000,4645263687,0,38662458,0.001524,0.003235,0.0116,0.004898,0.005371,0.003235,6.199e-05,4.005e-05,0.00856,0.002998,1.507,0.004593,0,1,0
12000000000,12300000000,4645263687,0,38662458,0.001532,0.003235,0.0116,0.004898,0.005371,0.003235,6.199e-05,4.005e-05,0.008194,0.002571,1.513,0.004683,0,1,0
12300000000,12600000000,4645263687,0,38662458,0.001535,0.003235,0.0116,0.004906,0.005379,0.003235,6.008e-05,4.005e-05,0.008118,0.00293,1.523,0.004674,0,1,0
12600000000,12900000000,4645263687,0,38662458,0.001554,0.003235,0.0116,0.004913,0.005386,0.003235,7.629e-05,4.005e-05,0.008377,0.002857,1.551,0.004703,0,1,0
12900000000,13200000000,4645263687,0,38662458,0.001532,0.003235,0.0116,0.004913,0.005386,0.003235,4.673e-05,4.005e-05,0.008148,0.002071,1.498,0.004536,0,1,0
13200000000,13500000000,4645263687,0,38662458,0.00153,0.003235,0.0116,0.004921,0.005394,0.003235,4.864e-05,4.005e-05,0.008469,0.002285,1.496,0.004517,0,1,0
13500000000,13800000000,4645263687,0,38662458,0.001524,0.003235,0.0116,0.004921,0.005394,0.003235,7.915e-05,4.005e-05,0.008942,0.003143,1.515,0.004557,0,1,0
13800000000,14100000000,4645263687,0,38662458,0.001532,0.003235,0.0116,0.004662,0.005135,0.003235,5.722e-05,4.005e-05,0.008667,0.003784,1.511,0.004565,0,1,0
14100000000,14400000000,4645263687,0,38662458,0.001522,0.003235,0.0116,0.004623,0.005096,0.003235,5.913e-05,4.005e-05,0.008133,0.002499,1.489,0.004511,0,1,0
14400000000,14700000000,4645263687,0,38662458,0.001541,0.003235,0.0116,0.004631,0.005104,0.003235,7.629e-05,4.005e-05,0.01064,0.003143,1.512,0.004532,0,1,0
14700000000,15000000000,4645263687,0,38662458,0.001535,0.003235,0.0116,0.004631,0.005104,0.003235,3.529e-05,4.005e-05,0.008438,0.002144,1.518,0.004596,0,1,0
15000000000,15300000000,4645263687,0,38662458,0.001547,0.003235,0.0116,0.004639,0.005112,0.003235,7.153e-05,4.005e-05,0.007889,0.002499,1.527,0.004695,0,1,0
15300000000,15600000000,4645263687,0,38662458,0.001545,0.003235,0.0116,0.004639,0.005112,0.003235,5.15e-05,4.005e-05,0.008194,0.001928,1.532,0.004679,0,1,0
15600000000,15900000000,4645263687,0,38662458,0.001539,0.003235,0.0116,0.004646,0.005119,0.003235,4.959e-05,4.005e-05,0.008209,0.002144,1.499,0.004556,0,1,0
15900000000,16200000000,4645263687,0,38662458,0.001539,0.003235,0.0116,0.004654,0.005127,0.003235,4.101e-05,4.005e-05,0.008774,0.002071,1.519,0.004594,0,1,0
16200000000,16500000000,4645263687,0,38662458,0.001543,0.003235,0.0116,0.004654,0.005127,0.003235,5.15e-05,4.005e-05,0.008392,0.002499,1.535,0.004652,0,1,0
16500000000,16800000000,4645263687,0,38662458,0.001539,0.003235,0.0116,0.004662,0.005135,0.003235,6.485e-05,4.005e-05,0.008087,0.002785,1.523,0.004621,0,1,0
16800000000,17100000000,4645263687,0,38662458,0.001543,0.003235,0.0116,0.004662,0.005135,0.003235,6.199e-05,4.005e-05,0.007996,0.001999,1.526,0.004646,0,1,0
17100000000,17400000000,4645263687,0,38662458,0.001537,0.003235,0.0116,0.004669,0.005142,0.003235,4.864e-05,4.005e-05,0.008347,0.002499,1.5,0.004438,0,1,0
17400000000,17700000000,4645263687,0,38662458,0.00153,0.003235,0.0116,0.004677,0.00515,0.003235,5.245e-05,4.005e-05,0.008163,0.002357,1.519,0.00458,0,1,0
17700000000,18000000000,4645263687,0,38662458,0.001532,0.003235,0.0116,0.004677,0.00515,0.003235,5.817e-05,4.005e-05,0.007782,0.002071,1.473,0.00441,0,1,0
18000000000,18300000000,4645263687,0,38662458,0.001541,0.003235,0.0116,0.004684,0.005157,0.003235,6.294e-05,4.005e-05,0.008591,0.002144,1.504,0.004464,0,1,0
18300000000,18600000000,4645263687,0,38662458,0.001545,0.003235,0.0116,0.004684,0.005157,0.003235,4.482e-05,4.005e-05,0.008362,0.002071,1.513,0.004529,0,1,0
18600000000,18900000000,4645263687,0,38662458,0.001534,0.003235,0.0116,0.004692,0.005165,0.003235,7.057e-05,4.005e-05,0.008209,0.002998,1.491,0.004408,0,1,0
18900000000,19200000000,4645263687,0,38662458,0.001532,0.003235,0.0116,0.0047,0.005173,0.003235,4.387e-05,4.005e-05,0.007782,0.001785,1.499,0.004437,0,1,0
19200000000,19500000000,4645263687,0,38662458,0.001541,0.003235,0.0116,0.0047,0.005173,0.003235,6.485e-05,4.005e-05,0.008362,0.002998,1.535,0.004696,0,1,0
19500000000,19800000000,4645263687,0,38662458,0.001537,0.003235,0.0116,0.004707,0.00518,0.003235,4.959e-05,4.005e-05,0.008362,0.001858,1.52,0.00464,0,1,0
19800000000,20100000000,4645263687,0,38662458,0.001534,0.003235,0.0116,0.004707,0.00518,0.003235,4.768e-05,4.005e-05,0.007889,0.001999,1.517,0.004601,0,1,0
20100000000,20400000000,4645263687,0,38662458,0.001534,0.003235,0.0116,0.004715,0.005188,0.003235,6.104e-05,4.005e-05,0.008102,0.00243,1.501,0.004508,0,1,0
20400000000,20700000000,4645263687,0,38662458,0.001535,0.003235,0.0116,0.004723,0.005196,0.003235,4.673e-05,4.005e-05,0.007812,0.002213,1.495,0.004502,0,1,0
20700000000,21000000000,4645263687,0,38662458,0.001535,0.003235,0.0116,0.004723,0.005196,0.003235,6.008e-05,4.005e-05,0.00798,0.001999,1.51,0.0045,0,1,0
21000000000,21300000000,4645263687,0,38662458,0.001547,0.003235,0.0116,0.00473,0.005203,0.003235,5.627e-05,4.005e-05,0.007004,0.002213,1.53,0.004606,0,1,0
21300000000,21600000000,4645263687,0,38662458,0.001539,0.003235,0.0116,0.00473,0.005203,0.003235,5.722e-05,4.005e-05,0.00946,0.00243,1.525,0.004607,0,1,0
21600000000,21900000000,4645263687,0,38662458,0.001535,0.003235,0.0116,0.004738,0.005211,0.003235,3.91e-05,4.005e-05,0.008148,0.002285,1.512,0.004505,0,1,0
21900000000,22200000000,4645263687,0,38662458,0.001532,0.003235,0.0116,0.004745,0.005219,0.003235,4.101e-05,4.005e-05,0.00853,0.002357,1.497,0.004531,0,1,0
22200000000,22500000000,4645263687,0,38662458,0.001541,0.003235,0.0116,0.004745,0.005219,0.003235,4.482e-05,3.91e-05,0.008209,0.002071,1.511,0.004631,0,1,0
22500000000,22800000000,4645263687,0,38662458,0.001534,0.003235,0.0116,0.004753,0.005226,0.003235,5.245e-05,3.91e-05,0.01715,0.003571,1.515,0.004558,0,1,0
22800000000,23100000000,4645263687,0,38662458,0.001537,0.003235,0.0116,0.004753,0.005226,0.003235,5.817e-05,3.91e-05,0.009308,0.002571,1.501,0.004508,0,1,0
23100000000,23400000000,4645263687,0,38662458,0.001534,0.003235,0.0116,0.004761,0.005234,0.003235,4.768e-05,3.91e-05,0.00795,0.002857,1.516,0.004566,0,1,0
23400000000,23700000000,4645263687,0,38662458,0.001537,0.003235,0.0116,0.004768,0.005241,0.003235,5.341e-05,3.91e-05,0.0256,0.001999,1.5,0.004519,0,1,0
23700000000,24000000000,4645263687,0,38662458,0.001539,0.003235,0.0116,0.004768,0.005241,0.003235,4.768e-05,3.91e-05,0.05115,0.002071,1.508,0.004539,0,1,0
24000000000,24300000000,4645263687,0,38662458,0.001537,0.003235,0.0116,0.004776,0.005249,0.003235,5.436e-05,3.91e-05,0.04999,0.002357,1.522,0.004567,0,1,0
24300000000,24600000000,4645263687,0,38662458,0.001541,0.003235,0.0116,0.004776,0.005249,0.003235,4.101e-05,3.91e-05,0.008041,0.002213,1.507,0.004516,0,1,0
24600000000,24900000000,4645263687,0,38662458,0.001547,0.003235,0.0116,0.004784,0.005257,0.003235,7.153e-05,3.91e-05,0.007843,0.002998,1.522,0.004599,0,1,0
24900000000,25200000000,4645263687,0,38662458,0.001593,0.003235,0.0116,0.004791,0.005264,0.003235,5.722e-05,3.91e-05,0.01454,0.002571,1.651,0.005183,0,1,0
25200000000,25500000000,4645263687,0,38662458,0.001682,0.003235,0.0116,0.004791,0.005264,0.003235,5.913e-05,3.91e-05,0.008972,0.00293,1.827,0.00563,0,1,0
25500000000,25800000000,4645263687,0,38662458,0.001705,0.003235,0.0116,0.004799,0.005272,0.003235,6.39e-05,3.91e-05,0.009323,0.002857,1.912,0.005962,0,1,0
25800000000,26100000000,4645263687,0,38662458,0.001612,0.003235,0.0116,0.004799,0.005272,0.003235,6.294e-05,3.91e-05,0.008835,0.001785,1.671,0.005061,0,1,0
26100000000,26400000000,4645263687,0,38662458,0.001545,0.003235,0.0116,0.004807,0.00528,0.003235,7.057e-05,3.91e-05,0.007996,0.002785,1.543,0.00467,0,1,0
26400000000,26700000000,4645263687,0,38662458,0.001551,0.003235,0.0116,0.004807,0.00528,0.003235,7.057e-05,3.91e-05,0.008057,0.002785,1.537,0.00462,0,1,0
26700000000,27000000000,4645263687,0,38662458,0.001547,0.003235,0.0116,0.004814,0.005287,0.003235,4.101e-05,3.91e-05,0.008011,0.002285,1.617,0.005092,0,1,0
27000000000,27300000000,4645263687,0,38662458,0.001549,0.003235,0.0116,0.004822,0.005295,0.003235,4.673e-05,4.005e-05,0.008301,0.002144,1.659,0.005345,0,1,0
27300000000,27600000000,4645263687,0,38662458,0.001545,0.003235,0.0116,0.004822,0.005295,0.003235,5.817e-05,4.005e-05,0.007996,0.002144,1.658,0.00536,0,1,0
27600000000,27900000000,4645263687,0,38662458,0.001549,0.003235,0.0116,0.004829,0.005302,0.003235,8.202e-05,4.005e-05,0.00853,0.002499,1.666,0.00536,0,1,0
27900000000,28200000000,4645263687,0,38662458,0.001549,0.003235,0.0116,0.004829,0.005302,0.003235,6.39e-05,4.005e-05,0.008469,0.003857,1.663,0.005479,0,1,0
28200000000,28500000000,4645263687,0,38662458,0.001551,0.003235,0.0116,0.004837,0.00531,0.003235,4.196e-05,4.005e-05,0.00827,0.001858,1.674,0.00547,0,1,0
28500000000,28800000000,4645263687,0,38662458,0.001574,0.003235,0.0116,0.004845,0.005318,0.003235,7.629e-05,4.005e-05,0.008545,0.00293,1.747,0.005713,0,1,0
28800000000,29100000000,4645263687,0,38662458,0.001577,0.003231,0.0116,0.004845,0.005318,0.003231,7.057e-05,4.005e-05,0.008438,0.002357,1.742,0.005686,0,1,0
29100000000,29400000000,4645263687,0,38662458,0.001568,0.003231,0.0116,0.004852,0.005325,0.003231,3.719e-05,4.005e-05,0.008316,0.002785,1.706,0.005673,0,1,0
29400000000,29700000000,4645263687,0,38662458,0.001579,0.003231,0.0116,0.004852,0.005325,0.003231,5.341e-05,4.005e-05,0.00856,0.002213,1.714,0.005693,0,1,0
29700000000,30000000000,4645263687,0,38662458,0.001579,0.003227,0.0116,0.00486,0.005333,0.003231,6.294e-05,4.005e-05,0.008163,0.002785,1.725,0.005615,0,1,0
30000000000,30300000000,4645263687,0,38662458,0.001574,0.003227,0.0116,0.004868,0.005341,0.003231,6.294e-05,4.005e-05,0.008011,0.002785,1.722,0.00556,0,1,0
30300000000,30600000000,4645263687,0,38662458,0.001579,0.003231,0.0116,0.004868,0.005341,0.003231,3.719e-05,4.005e-05,0.008728,0.001642,1.697,0.005517,0,1,0
30600000000,30900000000,4645263687,0,38662458,0.001556,0.003227,0.0116,0.004875,0.005348,0.003231,6.008e-05,4.005e-05,0.007782,0.001999,1.717,0.005598,0,1,0
30900000000,31200000000,4645263687,0,38662458,0.001554,0.003231,0.0116,0.004875,0.005348,0.003231,5.341e-05,4.005e-05,0.008072,0.001928,1.696,0.005478,0,1,0
31200000000,31500000000,4645263687,0,38662458,0.00156,0.003231,0.0116,0.004883,0.005356,0.003231,6.771e-05,4.005e-05,0.008987,0.002998,1.714,0.005507,0,1,0
31500000000,31800000000,4645263687,0,38662458,0.001562,0.003231,0.0116,0.00489,0.005363,0.003231,5.722e-05,4.005e-05,0.008438,0.003357,1.736,0.005678,0,1,0
31800000000,32100000000,4645263687,0,38662458,0.001585,0.003231,0.0116,0.00489,0.005363,0.003231,4.101e-05,4.005e-05,0.009171,0.002571,1.804,0.005791,0,1,0
32100000000,32400000000,4645263687,0,38662458,0.001568,0.003231,0.0116,0.004898,0.005371,0.003231,5.054e-05,4.005e-05,0.008453,0.002285,1.73,0.005469,0,1,0
32400000000,32700000000,4645263687,0,38662458,0.001591,0.003227,0.0116,0.004898,0.005379,0.003231,0.0001144,4.005e-05,0.009079,0.003716,1.781,0.005734,0,1,0
32700000000,33000000000,4645263687,0,38662458,0.001657,0.00322,0.0116,0.004906,0.005379,0.00322,6.866e-05,4.005e-05,0.03595,0.002857,1.887,0.006077,0,1,0
33000000000,33300000000,4645263687,0,38662458,0.001717,0.00322,0.0116,0.004913,0.005386,0.00322,5.627e-05,4.005e-05,0.04944,0.002785,2.096,0.006807,0,1,0
33300000000,33600000000,4645263687,0,38662458,0.001608,0.00322,0.0116,0.004913,0.005386,0.003223,4.292e-05,4.005e-05,0.03198,0.002071,1.852,0.006006,0,1,0
33600000000,33900000000,4645263687,0,38662458,0.001564,0.003223,0.0116,0.004829,0.005302,0.003223,0.000104,4.005e-05,0.0495,0.003071,1.708,0.00558,0,1,0
33900000000,34200000000,4645263687,0,38662458,0.001587,0.003223,0.0116,0.004616,0.005089,0.003223,4.196e-05,4.005e-05,0.009003,0.002857,1.768,0.005695,0,1,0
34200000000,34500000000,4645263687,0,38662458,0.001566,0.00322,0.0116,0.004616,0.005089,0.003223,6.199e-05,4.005e-05,0.008408,0.003643,1.672,0.005384,0,1,0
34500000000,34800000000,4645263687,0,38662458,0.001553,0.00322,0.0116,0.004623,0.005096,0.00322,4.292e-05,4.005e-05,0.008835,0.001999,1.674,0.00535,0,1,0
34800000000,35100000000,4645263687,0,38662458,0.001556,0.00322,0.0116,0.004623,0.005096,0.00322,6.676e-05,4.005e-05,0.00946,0.002571,1.695,0.005634,0,1,0
35100000000,35400000000,4645263687,0,38662458,0.001543,0.00322,0.0116,0.004631,0.005104,0.00322,3.91e-05,4.005e-05,0.01111,0.001499,1.699,0.005511,0,1,0
35400000000,35700000000,4645263687,0,38662458,0.001534,0.00322,0.0116,0.004639,0.005112,0.00322,6.008e-05,4.005e-05,0.008621,0.002571,1.707,0.00548,0,1,0
35700000000,36000000000,4645263687,0,38662458,0.001549,0.00322,0.0116,0.004639,0.005112,0.00322,6.104e-05,4.005e-05,0.008469,0.002716,1.701,0.005665,0,1,0
36000000000,36300000000,4645263687,0,38662458,0.001539,0.00322,0.0116,0.004646,0.005119,0.00322,6.39e-05,4.005e-05,0.008224,0.002857,1.662,0.005353,0,1,0
36300000000,36600000000,4645263687,0,38662458,0.001541,0.00322,0.0116,0.004654,0.005127,0.003223,4.959e-05,4.005e-05,0.007889,0.00293,1.649,0.005329,0,1,0
36600000000,36900000000,4645263687,0,38662458,0.001551,0.003223,0.0116,0.004654,0.005127,0.003223,5.531e-05,4.005e-05,0.008362,0.002357,1.694,0.005578,0,1,0
36900000000,37200000000,4645263687,0,38662458,0.001543,0.003223,0.0116,0.004662,0.005135,0.003223,5.817e-05,4.005e-05,0.008118,0.001858,1.71,0.005532,0,1,0
37200000000,37500000000,4645263687,0,38662458,0.001553,0.003223,0.0116,0.004662,0.005135,0.003227,5.627e-05,4.005e-05,0.008026,0.003284,1.7,0.005446,0,1,0
37500000000,37800000000,4645263687,0,38662458,0.001574,0.003223,0.0116,0.004669,0.005142,0.003227,0.0001059,4.005e-05,0.008453,0.002857,1.727,0.005731,0,1,0
37800000000,38100000000,4645263687,0,38662458,0.001587,0.00322,0.0116,0.004677,0.00515,0.003223,8.392e-05,4.005e-05,0.008286,0.003502,1.771,0.005807,0,1,0
38100000000,38400000000,4645263687,0,38662458,0.00157,0.00322,0.0116,0.004677,0.00515,0.00322,5.913e-05,4.005e-05,0.008636,0.002644,1.744,0.005785,0,1,0
38400000000,38700000000,4645263687,0,38662458,0.00157,0.003223,0.0116,0.004684,0.005157,0.003227,8.488e-05,4.005e-05,0.008514,0.003143,1.73,0.005766,0,1,0
38700000000,39000000000,4645263687,0,38662458,0.001564,0.003223,0.0116,0.004684,0.005157,0.003227,5.245e-05,4.005e-05,0.00795,0.002071,1.664,0.005269,0,1,0
39000000000,39300000000,4645263687,0,38662458,0.001566,0.00322,0.0116,0.004692,0.005165,0.00322,8.678e-05,4.005e-05,0.008545,0.003071,1.679,0.00534,0,1,0
39300000000,39600000000,4645263687,0,38662458,0.001568,0.00322,0.0116,0.0047,0.005173,0.00322,5.817e-05,4.005e-05,0.008728,0.002213,1.729,0.005599,0,1,0
39600000000,39900000000,4645263687,0,38662458,0.001566,0.00322,0.0116,0.0047,0.005173,0.00322,9.346e-05,4.005e-05,0.008987,0.003929,1.696,0.005491,0,1,0
39900000000,40200000000,4645263687,0,38662458,0.001602,0.00322,0.0116,0.004707,0.00518,0.00322,2.48e-05,4.005e-05,0.008698,0.002499,1.774,0.005689,0,1,0
40200000000,40500000000,4645263687,0,38662458,0.00157,0.00322,0.0116,0.004707,0.00518,0.00322,5.341e-05,4.005e-05,0.008377,0.002071,1.704,0.005545,0,1,0
40500000000,40800000000,4645263687,0,38662458,0.001556,0.00322,0.0116,0.004715,0.005188,0.00322,5.245e-05,4.005e-05,0.00824,0.00293,1.675,0.005321,0,1,0
51000000000,51300000000,4645263687,0,902896,0.001738,0.00766,0.01164,0.00444,0.004913,0.007668,1.907e-05,3.338e-05,0.009933,0.002213,1.955,0.00615,0,1,0
51300000000,51600000000,4645263687,0,902896,0.001606,0.007668,0.01164,0.004448,0.004921,0.007668,6.676e-06,3.338e-05,0.009781,0.0004997,1.746,0.005489,0,1,0
51600000000,51900000000,4645263687,0,902896,0.001568,0.007668,0.01164,0.004448,0.004921,0.007675,4.768e-06,3.338e-05,0.009247,0.0003567,1.705,0.005442,0,1,0
51900000000,52200000000,4645263687,0,902896,0.001543,0.007507,0.01137,0.004372,0.004829,0.008514,3.624e-05,3.338e-05,0.01166,0.006218,1.908,0.006305,0,1,0
52500000000,52800000000,4645263687,0,336048068,0.001648,0.006088,0.0116,0.002666,0.003139,0.00795,9.537e-06,3.719e-05,0.009537,0.0008574,1.343,0.003595,0,1,0
52800000000,53100000000,4645263687,0,336048068,0.001627,0.005951,0.0116,0.002541,0.00301,0.005959,7.629e-06,3.719e-05,0.008377,0.0009289,1.299,0.003378,0,1,0
53100000000,53400000000,4645263687,0,336048068,0.0016,0.005951,0.0116,0.002541,0.003014,0.005959,5.722e-06,3.719e-05,0.008728,0.0003567,1.303,0.003349,0,1,0
53400000000,53700000000,4645263687,0,336048068,0.001598,0.005959,0.0116,0.002548,0.003017,0.005959,5.722e-06,3.719e-05,0.008453,0.0004997,1.301,0.003354,0,1,0
53700000000,54000000000,4645263687,0,336048068,0.001617,0.005959,0.0116,0.002552,0.003025,0.005959,5.722e-06,3.719e-05,0.009659,0.0007143,1.325,0.003451,0,1,0
54000000000,54300000000,4645263687,0,336048068,0.001616,0.005959,0.0116,0.002556,0.003029,0.005959,1.144e-05,3.719e-05,0.009048,0.001358,1.349,0.003575,0,1,0
54300000000,54600000000,4645263687,0,336048068,0.001606,0.005966,0.0116,0.00256,0.003033,0.005966,4.768e-06,3.719e-05,0.008316,0.0002146,1.331,0.003498,0,1,0
54600000000,54900000000,4645263687,0,336048068,0.001614,0.005959,0.0116,0.002556,0.003029,0.005966,6.676e-06,3.719e-05,0.008591,0.001072,1.384,0.003766,0,1,0
54900000000,55200000000,4645263687,0,336048068,0.001604,0.005753,0.0116,0.002354,0.002827,0.005959,2.861e-06,3.719e-05,0.00885,0.0002146,1.383,0.003776,0,1,0
55200000000,55500000000,4645263687,0,336048068,0.001596,0.005745,0.0116,0.002342,0.002815,0.005745,1.049e-05,3.719e-05,0.008591,0.001785,1.328,0.003488,0,1,0
55500000000,55800000000,4645263687,0,336048068,0.0016,0.005753,0.0116,0.002346,0.002819,0.005753,3.815e-06,3.719e-05,0.008774,0.0001431,1.322,0.003496,0,1,0
55800000000,56100000000,4645263687,0,336048068,0.001596,0.005753,0.0116,0.00235,0.002823,0.005753,3.815e-06,3.719e-05,0.008728,0.0002861,1.3,0.003332,0,1,0
56100000000,56400000000,4645263687,0,336048068,0.0016,0.005646,0.0116,0.002354,0.002827,0.005737,3.815e-06,3.719e-05,0.008224,0.0002146,1.323,0.00345,0,1,0
56400000000,56700000000,4645263687,0,336048068,0.001593,0.005455,0.0116,0.002357,0.002831,0.005554,4.768e-06,3.719e-05,0.00853,0.0004997,1.321,0.003447,0,1,0
56700000000,57000000000,4645263687,0,336048068,0.001604,0.005234,0.0116,0.002365,0.002838,0.005341,5.722e-06,3.719e-05,0.00885,0.0005713,1.33,0.003511,0,1,0
57000000000,57300000000,4645263687,0,336048068,0.001604,0.00502,0.0116,0.002369,0.002842,0.005127,4.768e-06,3.719e-05,0.01079,0.0004997,1.319,0.003427,0,1,0
57300000000,57600000000,4645263687,0,336048068,0.001608,0.004784,0.0116,0.00235,0.002823,0.004913,3.815e-06,3.719e-05,0.00882,0.0003567,1.4,0.003825,0,1,0
57600000000,57900000000,4645263687,0,336048068,0.001614,0.004578,0.0116,0.002338,0.002811,0.004662,4.768e-06,3.719e-05,0.008499,0.0004282,1.328,0.00349,0,1,0
57900000000,58200000000,4645263687,0,336048068,0.001602,0.004349,0.0116,0.002346,0.002819,0.004478,4.768e-06,3.719e-05,0.008728,0.0003567,1.368,0.003686,0,1,0
58200000000,58500000000,4645263687,0,336048068,0.001604,0.004128,0.0116,0.00235,0.002823,0.00425,5.722e-06,3.719e-05,0.00856,0.0007858,1.339,0.003546,0,1,0
58500000000,58800000000,4645263687,0,336048068,0.001614,0.003929,0.0116,0.002354,0.002827,0.004028,7.629e-06,3.719e-05,0.008591,0.001072,1.33,0.003433,0,1,0
58800000000,59100000000,4645263687,0,336048068,0.001625,0.00375,0.0116,0.002357,0.002831,0.003853,6.676e-06,3.719e-05,0.008957,0.0004282,1.346,0.003472,0,1,0
59100000000,59400000000,4645263687,0,336048068,0.001623,0.003559,0.0116,0.002361,0.002834,0.003666,3.815e-06,3.719e-05,0.008469,0.0001431,1.347,0.003502,0,1,0
59400000000,59700000000,4645263687,0,336048068,0.001614,0.003353,0.0116,0.002369,0.002842,0.003468,3.242e-05,3.719e-05,0.008575,0.002857,1.409,0.003867,0,1,0
59700000000,60000000000,4645263687,0,336048068,0.001604,0.003277,0.0116,0.002373,0.002846,0.003277,3.815e-06,3.719e-05,0.008316,0.0001431,1.318,0.003398,0,1,0
60000000000,60300000000,4645263687,0,336048068,0.001595,0.003281,0.0116,0.002377,0.00285,0.003284,4.768e-06,3.719e-05,0.008606,0.0003567,1.306,0.003402,0,1,0
60300000000,60600000000,4645263687,0,336048068,0.0016,0.003281,0.0116,0.00238,0.002853,0.003281,2.861e-06,3.719e-05,0.009048,0.0001431,1.363,0.003653,0,1,0
60600000000,60900000000,4645263687,0,336048068,0.001606,0.003281,0.0116,0.002384,0.002857,0.003281,3.815e-06,3.719e-05,0.008331,0.0003567,1.344,0.003496,0,1,0
70800000000,71100000000,4645263687,0,336048068,0.001608,0.003284,0.0116,0.002541,0.003014,0.003284,8.583e-06,3.815e-05,0.009705,0.001429,1.334,0.003532,0,1,0
71100000000,71400000000,4645263687,0,336048068,0.001606,0.003284,0.0116,0.002544,0.003017,0.003284,3.815e-06,3.815e-05,0.009644,0.0002861,1.385,0.003744,0,1,0
71400000000,71700000000,4645263687,0,336048068,0.001612,0.003284,0.0116,0.002552,0.003025,0.003284,5.722e-06,3.815e-05,0.008408,0.0004282,1.336,0.003529,0,1,0
71700000000,72000000000,4645263687,0,336048068,0.001606,0.003284,0.0116,0.002556,0.003029,0.003284,3.815e-06,3.815e-05,0.009201,0.0001431,1.369,0.003704,0,1,0
72000000000,72300000000,4645263687,0,336048068,0.001604,0.003284,0.0116,0.00256,0.003033,0.003284,3.815e-06,3.815e-05,0.008972,0.0002861,1.438,0.004014,0,1,0
72300000000,72600000000,4645263687,0,336048068,0.001616,0.003284,0.0116,0.002563,0.003036,0.003284,3.815e-06,3.815e-05,0.008575,0.0001431,1.4,0.003801,0,1,0
72600000000,72900000000,4645263687,0,336048068,0.001616,0.003284,0.0116,0.002567,0.00304,0.003284,7.629e-06,3.815e-05,0.009323,0.0004997,1.355,0.003583,0,1,0
72900000000,73200000000,4645263687,0,336048068,0.001617,0.003284,0.0116,0.002392,0.002865,0.003284,1.144e-05,3.815e-05,0.008514,0.001499,1.413,0.003918,0,1,0
73200000000,73500000000,4645263687,0,336048068,0.0016,0.003284,0.0116,0.002266,0.002739,0.003284,6.676e-06,3.815e-05,0.009689,0.0007143,1.348,0.003504,0,1,0
73500000000,73800000000,4645263687,0,336048068,0.001612,0.003284,0.0116,0.002274,0.002743,0.003284,4.768e-06,3.815e-05,0.009293,0.0005713,1.337,0.003494,0,1,0
73800000000,74100000000,4645263687,0,336048068,0.001617,0.003284,0.0116,0.002277,0.00275,0.003284,4.768e-06,3.815e-05,0.008789,0.0003567,1.404,0.003834,0,1,0
74100000000,74400000000,4645263687,0,336048068,0.001621,0.003284,0.01161,0.002281,0.002754,0.003284,7.629e-06,3.815e-05,0.008545,0.001072,1.369,0.003652,0,1,0
74400000000,74700000000,4645263687,0,336048068,0.001608,0.003284,0.01161,0.002285,0.002758,0.003284,3.815e-06,3.815e-05,0.008789,0.0002861,1.37,0.003696,0,1,0
74700000000,75000000000,4645263687,0,336048068,0.001677,0.003284,0.01161,0.002289,0.002762,0.003284,3.815e-06,3.815e-05,0.009811,0.0002146,1.424,0.003698,0,1,0
75000000000,75300000000,4645263687,0,336048068,0.001606,0.003284,0.01161,0.002296,0.002766,0.003284,6.676e-06,3.815e-05,0.009659,0.0009995,1.351,0.003537,0,1,0
75300000000,75600000000,4645263687,0,336048068,0.0016,0.003284,0.01161,0.0023,0.002773,0.003288,3.815e-06,3.815e-05,0.008774,0.0001431,1.366,0.003601,0,1,0
75600000000,75900000000,4645263687,0,336048068,0.001619,0.003284,0.01161,0.002304,0.002777,0.003284,4.768e-06,3.815e-05,0.009171,0.0003567,1.345,0.003571,0,1,0
75900000000,76200000000,4645263687,0,336048068,0.001619,0.003284,0.01161,0.002308,0.002781,0.003284,4.768e-06,3.815e-05,0.008759,0.0002146,1.364,0.003609,0,1,0
76200000000,76500000000,4645263687,0,336048068,0.001612,0.003284,0.01161,0.002312,0.002785,0.003284,5.722e-06,3.815e-05,0.008713,0.0004282,1.358,0.00359,0,1,0
76500000000,76800000000,4645263687,0,336048068,0.0016,0.003284,0.01161,0.002319,0.002789,0.003284,3.815e-06,3.815e-05,0.008362,0.0002146,1.328,0.003499,0,1,0
76800000000,77100000000,4645263687,0,336048068,0.001602,0.003284,0.01161,0.002323,0.002796,0.003284,7.629e-06,3.815e-05,0.008438,0.0008574,1.316,0.003406,0,1,0
77100000000,77400000000,4645263687,0,336048068,0.001602,0.003284,0.01161,0.002327,0.0028,0.003288,4.768e-06,3.815e-05,0.009094,0.0001431,1.384,0.003803,0,1,0
77400000000,77700000000,4645263687,0,336048068,0.001612,0.003284,0.01161,0.002331,0.002804,0.003284,4.768e-06,3.815e-05,0.008469,0.0004282,1.341,0.003521,0,1,0
77700000000,78000000000,4645263687,0,336048068,0.00161,0.003284,0.01161,0.002335,0.002808,0.003284,3.815e-06,3.815e-05,0.00853,0.0001431,1.355,0.003595,0,1,0
78000000000,78300000000,4645263687,0,336048068,0.001612,0.003284,0.01161,0.002342,0.002811,0.003284,4.768e-06,3.815e-05,0.009766,0.0002861,1.397,0.003817,0,1,0
78300000000,78600000000,4645263687,0,336048068,0.001627,0.003284,0.01161,0.002346,0.002819,0.003284,4.768e-06,3.815e-05,0.009979,0.0002861,1.322,0.003362,0,1,0
78600000000,78900000000,4645263687,0,336048068,0.001616,0.003284,0.01161,0.00235,0.002823,0.003284,4.768e-06,3.815e-05,0.008865,0.0003567,1.303,0.003357,0,1,0
78900000000,79200000000,4645263687,0,336048068,0.001625,0.003284,0.01161,0.002354,0.002827,0.003284,4.768e-06,3.815e-05,0.008606,0.0002861,1.337,0.003491,0,1,0
79200000000,79500000000,4645263687,0,336048068,0.001623,0.003284,0.01161,0.002357,0.002831,0.003284,5.722e-06,3.815e-05,0.01048,0.0004997,1.342,0.003543,0,1,0
79500000000,79800000000,4645263687,0,336048068,0.001608,0.003284,0.01161,0.002365,0.002834,0.003284,5.722e-06,3.815e-05,0.008804,0.0006428,1.33,0.003495,0,1,0
79800000000,80100000000,4645263687,0,336048068,0.0016,0.003284,0.01161,0.002369,0.002842,0.003288,4.768e-06,3.815e-05,0.008957,0.0003567,1.41,0.003937,0,1,0
80100000000,80400000000,4645263687,0,336048068,0.001596,0.003288,0.01161,0.002373,0.002846,0.003288,4.768e-06,3.815e-05,0.05157,0.0002861,1.374,0.003725,0,1,0
80400000000,80700000000,4645263687,0,336048068,0.00161,0.003288,0.01161,0.002377,0.00285,0.003288,5.722e-06,3.815e-05,0.009048,0.0003567,1.312,0.003431,0,1,0
80700000000,81000000000,4645263687,0,336048068,0.001606,0.003288,0.01161,0.00238,0.002853,0.003288,6.676e-06,3.815e-05,0.008331,0.0009289,1.345,0.003581,0,1,0
85800000000,86100000000,4645263687,0,336048068,0.001606,0.003288,0.01161,0.00246,0.002934,0.003288,4.768e-06,3.815e-05,0.01004,0.0002861,1.426,0.003973,0,1,0
86100000000,86400000000,4645263687,0,336048068,0.001614,0.003288,0.01161,0.002464,0.002937,0.003288,4.768e-06,3.815e-05,0.009064,0.0002861,1.406,0.003839,0,1,0
86400000000,86700000000,4645263687,0,336048068,0.00165,0.003288,0.01161,0.002468,0.002941,0.003288,5.722e-06,3.815e-05,0.009583,0.0003567,1.431,0.00382,0,1,0
86700000000,87000000000,4645263687,0,336048068,0.001638,0.003288,0.01161,0.002472,0.002945,0.003288,6.676e-06,3.815e-05,0.009094,0.0007858,1.378,0.003611,0,1,0
87000000000,87300000000,4645263687,0,336048068,0.00164,0.003288,0.01161,0.002476,0.002949,0.003288,5.722e-06,3.815e-05,0.008774,0.0003567,1.442,0.003911,0,1,0
87300000000,87600000000,4645263687,0,336048068,0.00164,0.003288,0.01161,0.002483,0.002956,0.003288,1.717e-05,3.815e-05,0.009476,0.0004997,1.388,0.003708,0,1,0
87600000000,87900000000,4645263687,0,336048068,0.001638,0.003288,0.01161,0.002487,0.00296,0.003288,5.722e-06,3.815e-05,0.008881,0.0004997,1.363,0.003493,0,1,0
87900000000,88200000000,4645263687,0,336048068,0.001644,0.003288,0.01161,0.002491,0.002964,0.003288,6.676e-06,3.815e-05,0.009628,0.0004282,1.383,0.003566,0,1,0
88200000000,88500000000,4645263687,0,336048068,0.001652,0.003288,0.01161,0.002495,0.002968,0.003288,6.676e-06,3.815e-05,0.008865,0.0004282,1.375,0.003546,0,1,0
88500000000,88800000000,4645263687,0,336048068,0.001644,0.003288,0.01161,0.002499,0.002972,0.003288,6.676e-06,3.815e-05,0.009659,0.0002861,1.379,0.003657,0,1,0
88800000000,89100000000,4645263687,0,336048068,0.00164,0.003288,0.01161,0.002506,0.002979,0.003288,8.583e-06,3.815e-05,0.009415,0.0004282,1.426,0.003863,0,1,0
89100000000,89400000000,4645263687,0,336048068,0.001637,0.003288,0.01161,0.00251,0.002983,0.003288,6.676e-06,3.815e-05,0.009064,0.0002146,1.43,0.003886,0,1,0
89400000000,89700000000,4645263687,0,336048068,0.001631,0.003288,0.01161,0.002514,0.002987,0.003288,1.144e-05,3.815e-05,0.009247,0.0009995,1.381,0.003633,0,1,0
89700000000,90000000000,4645263687,0,336048068,0.001637,0.003288,0.01161,0.002518,0.002991,0.003288,9.537e-06,3.815e-05,0.009354,0.0004282,1.392,0.003671,0,1,0
90000000000,90300000000,4645263687,0,336048068,0.001684,0.003288,0.01161,0.002522,0.002995,0.003288,1.049e-05,3.815e-05,0.009476,0.0005713,1.454,0.003818,0,1,0
90300000000,90600000000,4645263687,0,336048068,0.001631,0.003288,0.01161,0.002529,0.003002,0.003288,4.768e-06,3.815e-05,0.009491,0.0002146,1.367,0.003541,0,1,0
90600000000,90900000000,4645263687,0,336048068,0.001631,0.003288,0.01161,0.002533,0.003006,0.003288,4.768e-06,3.815e-05,0.009399,0.0004282,1.345,0.003442,0,1,0
101100000000,101400000000,4645263687,0,336048068,0.001619,0.003288,0.01161,0.00238,0.002853,0.003288,3.815e-06,3.91e-05,0.008469,0.0002146,1.428,0.003921,0,1,0
101400000000,101700000000,4645263687,0,336048068,0.001633,0.003288,0.01161,0.002384,0.002857,0.003292,6.676e-06,3.91e-05,0.009338,0.0008574,1.431,0.003811,0,1,0
101700000000,102000000000,4645263687,0,336048068,0.001638,0.003288,0.01161,0.002392,0.002865,0.003288,4.768e-06,3.91e-05,0.01016,0.0002861,1.347,0.003484,0,1,0
102000000000,102300000000,4645263687,0,336048068,0.001644,0.003288,0.01161,0.002396,0.002869,0.003288,9.537e-06,3.91e-05,0.009048,0.0004282,1.347,0.003417,0,1,0
102300000000,102600000000,4645263687,0,336048068,0.001625,0.003288,0.01161,0.002399,0.002872,0.003288,3.815e-06,3.91e-05,0.009705,0.0001431,1.356,0.003481,0,1,0
102600000000,102900000000,4645263687,0,336048068,0.001638,0.003288,0.01161,0.002403,0.002876,0.003288,4.768e-06,3.91e-05,0.008865,0.0003567,1.378,0.003532,0,1,0
102900000000,103200000000,4645263687,0,336048068,0.001616,0.003288,0.01161,0.002407,0.00288,0.003292,3.815e-06,3.815e-05,0.05225,0.0002146,1.358,0.003526,0,1,0
103200000000,103500000000,4645263687,0,336048068,0.001625,0.003288,0.01161,0.002415,0.002888,0.003292,1.049e-05,3.815e-05,0.009216,0.001286,1.43,0.003918,0,1,0
103500000000,103800000000,4645263687,0,336048068,0.001614,0.003288,0.01161,0.002419,0.002892,0.003292,3.815e-06,3.815e-05,0.008682,0.0001431,1.377,0.003635,0,1,0
103800000000,104100000000,4645263687,0,336048068,0.001621,0.003288,0.01161,0.002422,0.002895,0.003292,5.722e-06,3.815e-05,0.008743,0.0004282,1.35,0.003502,0,1,0
104100000000,104400000000,4645263687,0,336048068,0.001627,0.003288,0.01161,0.002426,0.002899,0.003288,5.722e-06,3.815e-05,0.008713,0.0006428,1.364,0.003598,0,1,0
104400000000,104700000000,4645263687,0,336048068,0.001633,0.003288,0.01161,0.00243,0.002903,0.003288,5.722e-06,3.815e-05,0.008774,0.0005713,1.398,0.003657,0,1,0
104700000000,105000000000,4645263687,0,336048068,0.001652,0.003288,0.01161,0.002438,0.002911,0.003292,4.768e-06,3.815e-05,0.009048,0.0002861,1.424,0.003769,0,1,0
105000000000,105300000000,4645263687,0,336048068,0.00169,0.003288,0.01161,0.002441,0.002914,0.003292,7.629e-06,3.815e-05,0.00946,0.0009289,1.403,0.003602,0,1,0
105300000000,105600000000,4645263687,0,336048068,0.001715,0.003288,0.01161,0.002445,0.002918,0.003292,4.768e-06,3.815e-05,0.008957,0.0003567,1.412,0.003505,0,1,0
105600000000,105900000000,4645263687,0,336048068,0.001629,0.003288,0.01161,0.002449,0.002922,0.003292,6.676e-06,3.815e-05,0.008957,0.0008574,1.416,0.00383,0,1,0
105900000000,106200000000,4645263687,0,336048068,0.001631,0.003288,0.01161,0.002453,0.002926,0.003292,3.815e-06,3.815e-05,0.009186,0.0003567,1.453,0.003966,0,1,0
106200000000,106500000000,4645263687,0,336048068,0.001621,0.003288,0.01161,0.00246,0.002934,0.003292,5.722e-06,3.815e-05,0.008865,0.0004282,1.362,0.003565,0,1,0
106500000000,106800000000,4645263687,0,336048068,0.001627,0.003288,0.01161,0.002464,0.002937,0.003292,4.768e-06,3.815e-05,0.009216,0.0002146,1.38,0.003614,0,1,0
106800000000,107100000000,4645263687,0,336048068,0.001606,0.003288,0.01161,0.002468,0.002941,0.003292,4.768e-06,3.815e-05,0.008621,0.0004282,1.353,0.003567,0,1,0
107100000000,107400000000,4645263687,0,336048068,0.001621,0.003288,0.01161,0.002472,0.002945,0.003288,5.722e-06,3.815e-05,0.008652,0.0002861,1.382,0.003646,0,1,0
107400000000,107700000000,4645263687,0,336048068,0.001614,0.003288,0.01161,0.002476,0.002949,0.003288,5.722e-06,3.815e-05,0.008591,0.0004282,1.385,0.003667,0,1,0
107700000000,108000000000,4645263687,0,336048068,0.001598,0.003288,0.01161,0.002483,0.002956,0.003288,8.583e-06,3.815e-05,0.007416,0.001215,1.314,0.003394,0,1,0
108000000000,108300000000,4645263687,0,336048068,0.001606,0.003288,0.01161,0.002487,0.00296,0.003288,9.537e-06,3.815e-05,0.007637,0.001642,1.307,0.003331,0,1,0
108300000000,108600000000,4645263687,0,336048068,0.001587,0.003288,0.01161,0.002491,0.002964,0.003288,3.815e-06,3.815e-05,0.007141,0.0001431,1.279,0.003275,0,1,0
108600000000,108900000000,4645263687,0,336048068,0.001587,0.003288,0.01161,0.002495,0.002968,0.003288,7.629e-06,3.815e-05,0.007576,0.001358,1.28,0.003271,0,1,0
108900000000,109200000000,4645263687,0,336048068,0.001577,0.003288,0.01161,0.002502,0.002972,0.003288,3.815e-06,3.815e-05,0.006882,0.0002146,1.216,0.002982,0,1,0
109200000000,109500000000,4645263687,0,336048068,0.001581,0.003288,0.01161,0.002506,0.002979,0.003288,5.722e-06,3.815e-05,0.007423,0.0003567,1.239,0.003091,0,1,0
109500000000,109800000000,4645263687,0,336048068,0.001614,0.003288,0.01161,0.00251,0.002983,0.003288,7.629e-06,3.815e-05,0.007294,0.0004282,1.312,0.003381,0,1,0
109800000000,110100000000,4645263687,0,336048068,0.001612,0.003288,0.01161,0.002514,0.002987,0.003288,6.676e-06,3.815e-05,0.007523,0.0003567,1.341,0.003508,0,1,0
110100000000,110400000000,4645263687,0,336048068,0.00161,0.003288,0.01161,0.002518,0.002991,0.003288,5.722e-06,3.815e-05,0.00779,0.0005713,1.291,0.003281,0,1,0
110400000000,110700000000,4645263687,0,336048068,0.001596,0.003288,0.01161,0.002525,0.002995,0.003288,4.768e-06,3.815e-05,0.007713,0.0004997,1.29,0.003305,0,1,0
110700000000,111000000000,4645263687,0,336048068,0.001589,0.003288,0.01161,0.002529,0.003002,0.003288,5.722e-06,3.815e-05,0.007744,0.0004997,1.299,0.003375,0,1,0
116100000000,116400000000,4645263687,0,336048068,0.001562,0.003288,0.01161,0.0023,0.002773,0.003292,3.815e-06,3.91e-05,0.007484,0.0002861,1.254,0.003233,0,1,0
116400000000,116700000000,4645263687,0,336048068,0.001554,0.003288,0.01161,0.002304,0.002777,0.003292,4.768e-06,3.91e-05,0.006874,0.0005713,1.231,0.003105,0,1,0
116700000000,117000000000,4645263687,0,336048068,0.001581,0.003288,0.01161,0.002312,0.002781,0.003292,3.815e-06,3.91e-05,0.007645,0.0002146,1.221,0.00298,0,1,0
117000000000,117300000000,4645263687,0,336048068,0.001596,0.003288,0.01161,0.002316,0.002789,0.003292,4.768e-06,3.91e-05,0.007317,0.0003567,1.285,0.003219,0,1,0
117300000000,117600000000,4645263687,0,336048068,0.001577,0.003288,0.01161,0.002319,0.002792,0.003292,8.583e-06,3.91e-05,0.00779,0.001499,1.211,0.002963,0,1,0
117600000000,117900000000,4645263687,0,336048068,0.001598,0.003288,0.01161,0.002323,0.002796,0.003292,5.722e-06,3.91e-05,0.007004,0.0007143,1.248,0.003183,0,1,0
117900000000,118200000000,4645263687,0,336048068,0.001589,0.003288,0.01161,0.002327,0.0028,0.003292,5.722e-06,3.91e-05,0.007195,0.0004997,1.258,0.003135,0,1,0
118200000000,118500000000,4645263687,0,336048068,0.001566,0.003292,0.01161,0.002335,0.002804,0.003292,5.722e-06,3.91e-05,0.007378,0.0003567,1.313,0.003501,0,1,0
118500000000,118800000000,4645263687,0,336048068,0.00157,0.003292,0.01161,0.002338,0.002811,0.003292,3.815e-06,3.91e-05,0.007439,0.0002146,1.27,0.003281,0,1,0
118800000000,119100000000,4645263687,0,336048068,0.001564,0.003292,0.01161,0.002342,0.002815,0.003292,4.768e-06,3.91e-05,0.007721,0.0003567,1.234,0.003092,0,1,0
119100000000,119400000000,4645263687,0,336048068,0.001562,0.003292,0.01161,0.002346,0.002819,0.003292,3.815e-06,3.91e-05,0.007484,0.0002861,1.213,0.003008,0,1,0
119400000000,119700000000,4645263687,0,336048068,0.001568,0.003292,0.01161,0.00235,0.002823,0.003292,1.144e-05,3.91e-05,0.008026,0.001785,1.259,0.003193,0,1,0
119700000000,120000000000,4645263687,0,336048068,0.001616,0.003292,0.01161,0.002357,0.002831,0.003292,1.621e-05,3.91e-05,0.007713,0.002857,1.353,0.003515,0,1,0
120000000000,120300000000,4645263687,0,336048068,0.001625,0.003292,0.01161,0.002361,0.002834,0.003292,1.144e-05,3.91e-05,0.007454,0.0009527,1.334,0.00346,0,1,0
120300000000,120600000000,4645263687,0,336048068,0.001591,0.003292,0.01161,0.002365,0.002838,0.003292,5.722e-06,3.91e-05,0.008331,0.0002861,1.298,0.003358,0,1,0
120600000000,120900000000,4645263687,0,336048068,0.001604,0.003292,0.01161,0.002369,0.002842,0.003292,1.24e-05,3.91e-05,0.007233,0.002071,1.364,0.003658,0,1,0
126000000000,126300000000,4645263687,0,336048068,0.001616,0.003292,0.01161,0.002453,0.002926,0.003292,4.768e-06,3.815e-05,0.007812,0.0002861,1.353,0.003549,0,1,0
126300000000,126600000000,4645263687,0,336048068,0.001627,0.003292,0.01161,0.002457,0.00293,0.003292,4.768e-06,3.815e-05,0.007362,0.0003567,1.35,0.003469,0,1,0
126600000000,126900000000,4645263687,0,336048068,0.001619,0.003292,0.01161,0.00246,0.002934,0.003292,4.768e-06,3.815e-05,0.007889,0.0004282,1.362,0.003559,0,1,0
126900000000,127200000000,4645263687,0,336048068,0.001621,0.003292,0.01161,0.002468,0.002941,0.003292,4.768e-06,3.815e-05,0.00769,0.0002861,1.367,0.003527,0,1,0
127200000000,127500000000,4645263687,0,336048068,0.001629,0.003292,0.01161,0.002472,0.002945,0.003292,7.629e-06,3.815e-05,0.01375,0.001215,1.388,0.003673,0,1,0
127500000000,127800000000,4645263687,0,336048068,0.001614,0.003292,0.01161,0.002476,0.002949,0.003292,3.815e-06,3.815e-05,0.007698,0.0001431,1.46,0.003917,0,1,0
127800000000,128100000000,4645263687,0,336048068,0.001625,0.003292,0.01161,0.00248,0.002953,0.003292,1.144e-05,3.815e-05,0.009338,0.0009995,1.362,0.003536,0,1,0
128100000000,128400000000,4645263687,0,336048068,0.001638,0.003292,0.01161,0.002483,0.002956,0.003292,4.768e-06,3.815e-05,0.00769,0.0002861,1.356,0.00353,0,1,0
128400000000,128700000000,4645263687,0,336048068,0.001669,0.003292,0.01161,0.002491,0.002964,0.003292,5.722e-06,3.815e-05,0.007858,0.0003567,1.437,0.003774,0,1,0
128700000000,129000000000,4645263687,0,336048068,0.001684,0.003292,0.01161,0.002495,0.002968,0.003292,6.676e-06,3.815e-05,0.007889,0.0008574,1.468,0.003839,0,1,0
129000000000,129300000000,4645263687,0,336048068,0.001688,0.003292,0.01161,0.002499,0.002972,0.003292,8.583e-06,3.815e-05,0.00798,0.001429,1.443,0.003748,0,1,0
129300000000,129600000000,4645263687,0,336048068,0.001635,0.003292,0.01161,0.002502,0.002975,0.003292,3.815e-06,3.815e-05,0.00795,0.0002146,1.377,0.003568,0,1,0
129600000000,129900000000,4645263687,0,336048068,0.00157,0.003292,0.01161,0.002506,0.002979,0.003292,3.815e-06,3.815e-05,0.007401,0.0003567,1.252,0.003204,0,1,0
129900000000,130200000000,4645263687,0,336048068,0.001566,0.003292,0.01161,0.002514,0.002987,0.003292,2.861e-06,3.815e-05,0.00708,7.153e-05,1.262,0.003228,0,1,0
130200000000,130500000000,4645263687,0,336048068,0.001598,0.003292,0.01161,0.002518,0.002991,0.003292,1.049e-05,3.815e-05,0.007347,0.001785,1.298,0.003382,0,1,0
130500000000,130800000000,4645263687,0,336048068,0.001593,0.003292,0.01161,0.002522,0.002995,0.003292,4.768e-06,3.815e-05,0.007362,0.0002861,1.331,0.003549,0,1,0
130800000000,131100000000,4645263687,0,336048068,0.0016,0.003292,0.01161,0.002525,0.002998,0.003292,7.629e-06,3.815e-05,0.007683,0.0004997,1.346,0.003579,0,1,0
141000000000,141300000000,4645263687,0,336048068,0.001629,0.003292,0.01161,0.002369,0.002842,0.003292,6.676e-06,3.91e-05,0.007629,0.0007858,1.402,0.003846,0,1,0
141300000000,141600000000,4645263687,0,336048068,0.001606,0.003292,0.01161,0.002377,0.00285,0.003292,3.815e-06,3.91e-05,0.007599,0.0002146,1.322,0.00343,0,1,0
141600000000,141900000000,4645263687,0,336048068,0.001608,0.003292,0.01161,0.00238,0.002853,0.003292,4.768e-06,3.91e-05,0.008118,0.0003567,1.311,0.003442,0,1,0
141900000000,142200000000,4645263687,0,336048068,0.001602,0.003292,0.01161,0.002384,0.002857,0.003292,7.629e-06,3.91e-05,0.00724,0.0009995,1.314,0.003434,0,1,0
142200000000,142500000000,4645263687,0,336048068,0.001587,0.003292,0.01161,0.002388,0.002861,0.003292,8.583e-06,3.91e-05,0.007126,0.0008574,1.368,0.003728,0,1,0
142500000000,142800000000,4645263687,0,336048068,0.001612,0.003292,0.01161,0.002392,0.002865,0.003292,5.722e-06,3.91e-05,0.007736,0.0002861,1.297,0.003352,0,1,0
142800000000,143100000000,4645263687,0,336048068,0.001602,0.003292,0.01161,0.002396,0.002869,0.003292,6.676e-06,3.91e-05,0.007553,0.0008574,1.318,0.003452,0,1,0
143100000000,143400000000,4645263687,0,336048068,0.001585,0.003292,0.01161,0.002403,0.002876,0.003292,5.722e-06,3.91e-05,0.007271,0.0002861,1.352,0.003666,0,1,0
143400000000,143700000000,4645263687,0,336048068,0.001614,0.003292,0.01161,0.002407,0.00288,0.003292,5.722e-06,3.91e-05,0.007576,0.0004997,1.321,0.003475,0,1,0
143700000000,144000000000,4645263687,0,336048068,0.001606,0.003292,0.01161,0.002411,0.002884,0.003292,4.768e-06,3.91e-05,0.007736,0.0002146,1.323,0.003455,0,1,0
144000000000,144300000000,4645263687,0,336048068,0.001608,0.003292,0.01161,0.002415,0.002888,0.003292,4.768e-06,3.91e-05,0.007736,0.0003567,1.316,0.00344,0,1,0
144300000000,144600000000,4645263687,0,336048068,0.0016,0.003292,0.01161,0.002419,0.002892,0.003292,3.815e-06,3.815e-05,0.007423,0.0001431,1.316,0.003374,0,1,0
144600000000,144900000000,4645263687,0,336048068,0.001575,0.003292,0.01161,0.002426,0.002899,0.003292,5.722e-06,3.815e-05,0.007751,0.0003567,1.296,0.00332,0,1,0
144900000000,145200000000,4645263687,0,336048068,0.001612,0.003292,0.01161,0.00243,0.002903,0.003292,3.815e-06,3.815e-05,0.008041,0.0002861,1.321,0.003458,0,1,0
145200000000,145500000000,4645263687,0,336048068,0.001606,0.003292,0.01161,0.002434,0.002907,0.003292,4.768e-06,3.815e-05,0.007744,0.0002861,1.334,0.003533,0,1,0
145500000000,145800000000,4645263687,0,336048068,0.0016,0.003292,0.01161,0.002438,0.002911,0.003292,4.768e-06,3.815e-05,0.008209,0.0005713,1.396,0.003862,0,1,0
145800000000,146100000000,4645263687,0,336048068,0.001616,0.003292,0.01161,0.002441,0.002914,0.003292,5.722e-06,3.815e-05,0.008423,0.0004997,1.344,0.003491,0,1,0
151200000000,151500000000,4645263687,0,336048068,0.001608,0.003292,0.01161,0.002525,0.002998,0.003292,3.815e-06,3.815e-05,0.008774,0.0002861,1.397,0.003801,0,1,0
151500000000,151800000000,4645263687,0,336048068,0.001598,0.003292,0.01161,0.002529,0.003002,0.003292,5.722e-06,3.815e-05,0.008026,0.0003567,1.318,0.003434,0,1,0
151800000000,152100000000,4645263687,0,336048068,0.001612,0.003292,0.01161,0.002533,0.003006,0.003292,6.676e-06,3.815e-05,0.007545,0.0006428,1.34,0.00352,0,1,0
152100000000,152400000000,4645263687,0,336048068,0.001602,0.003292,0.01161,0.002537,0.00301,0.003292,7.629e-06,3.815e-05,0.007828,0.0008574,1.309,0.003416,0,1,0
152400000000,152700000000,4645263687,0,336048068,0.001596,0.003292,0.01161,0.002544,0.003017,0.003292,5.722e-06,3.815e-05,0.007782,0.0003567,1.317,0.003421,0,1,0
152700000000,153000000000,4645263687,0,336048068,0.00161,0.003292,0.01161,0.002548,0.003021,0.003292,6.676e-06,3.815e-05,0.008743,0.0002861,1.293,0.003308,0,1,0
153000000000,153300000000,4645263687,0,336048068,0.001638,0.003292,0.01161,0.002552,0.003025,0.003292,6.676e-06,3.815e-05,0.00824,0.0008574,1.387,0.003696,0,1,0
153300000000,153600000000,4645263687,0,336048068,0.001635,0.003292,0.01161,0.002556,0.003029,0.003292,4.768e-06,3.815e-05,0.007828,0.0002861,1.354,0.003556,0,1,0
153600000000,153900000000,4645263687,0,336048068,0.001616,0.003292,0.01161,0.00256,0.003033,0.003292,3.719e-05,3.815e-05,0.008316,0.0006428,1.32,0.003373,0,1,0
153900000000,154200000000,4645263687,0,336048068,0.001614,0.003292,0.01161,0.002567,0.00304,0.003292,2.193e-05,3.815e-05,0.007774,0.0009995,1.339,0.003491,0,1,0
154200000000,154500000000,4645263687,0,336048068,0.001604,0.003292,0.01161,0.002571,0.003044,0.003292,4.768e-06,3.815e-05,0.007599,0.0002861,1.371,0.003658,0,1,0
154500000000,154800000000,4645263687,0,336048068,0.001614,0.003292,0.01161,0.002575,0.003048,0.003292,1.431e-05,3.815e-05,0.00766,0.001732,1.33,0.003417,0,1,0
154800000000,155100000000,4645263687,0,336048068,0.001637,0.003292,0.01161,0.002579,0.003052,0.003292,6.676e-06,3.815e-05,0.008133,0.0004282,1.353,0.003526,0,1,0
155100000000,155400000000,4645263687,0,336048068,0.001629,0.003292,0.01161,0.002583,0.003056,0.003292,1.24e-05,3.815e-05,0.00795,0.0002861,1.393,0.00372,0,1,0
155400000000,155700000000,4645263687,0,336048068,0.001617,0.003292,0.01161,0.00259,0.003059,0.003292,8.583e-06,3.91e-05,0.007477,0.001143,1.384,0.003723,0,1,0
155700000000,156000000000,4645263687,0,336048068,0.001604,0.003292,0.01161,0.002594,0.003067,0.003292,5.722e-06,3.91e-05,0.00737,0.0002861,1.689,0.005273,0,1,0
161100000000,161400000000,4645263687,0,336048068,0.001635,0.003292,0.01161,0.002365,0.002838,0.003292,3.815e-06,3.91e-05,0.007385,0.0001431,1.727,0.005415,0,1,0
161400000000,161700000000,4645263687,0,336048068,0.001602,0.003292,0.01161,0.002369,0.002842,0.003292,4.768e-06,3.91e-05,0.007187,0.0003567,1.666,0.005223,0,1,0
161700000000,162000000000,4645263687,0,336048068,0.001621,0.003292,0.01161,0.002373,0.002846,0.003292,4.768e-06,3.91e-05,0.007462,0.0002146,1.686,0.00532,0,1,0
162000000000,162300000000,4645263687,0,336048068,0.001614,0.003292,0.01161,0.002377,0.00285,0.003292,8.583e-06,3.91e-05,0.03345,0.001072,1.689,0.005317,0,1,0
162300000000,162600000000,4645263687,0,336048068,0.001625,0.003292,0.01161,0.00238,0.002853,0.003292,5.722e-06,3.91e-05,0.02432,0.0002861,1.686,0.005242,0,1,0
162600000000,162900000000,4645263687,0,336048068,0.001631,0.003292,0.01161,0.002388,0.002861,0.003292,4.768e-06,3.91e-05,0.007729,0.0004282,1.701,0.005312,0,1,0
162900000000,163200000000,4645263687,0,336048068,0.001633,0.003292,0.01161,0.002392,0.002865,0.003292,4.768e-06,3.91e-05,0.00737,0.0002861,1.745,0.005435,0,1,0
163200000000,163500000000,4645263687,0,336048068,0.001619,0.003292,0.01161,0.002396,0.002869,0.003292,4.768e-06,3.91e-05,0.007904,0.0003567,1.676,0.00518,0,1,0
163500000000,163800000000,4645263687,0,336048068,0.001633,0.003292,0.01161,0.002399,0.002872,0.003292,5.722e-06,3.91e-05,0.0116,0.0003567,1.713,0.00536,0,1,0
163800000000,164100000000,4645263687,0,336048068,0.001644,0.003292,0.01161,0.002403,0.002876,0.003292,7.629e-06,3.91e-05,0.007477,0.0008574,1.725,0.00535,0,1,0
164100000000,164400000000,4645263687,0,336048068,0.001627,0.003292,0.01161,0.002411,0.002884,0.003292,4.768e-06,3.91e-05,0.008499,0.0002146,1.652,0.005142,0,1,0
164400000000,164700000000,4645263687,0,336048068,0.001623,0.003292,0.01161,0.002415,0.002888,0.003292,5.722e-06,3.91e-05,0.007683,0.0004282,1.659,0.00511,0,1,0
164700000000,165000000000,4645263687,0,336048068,0.001595,0.003292,0.01161,0.002419,0.002892,0.003292,3.815e-06,3.91e-05,0.007812,0.0001431,1.616,0.004997,0,1,0
165000000000,165300000000,4645263687,0,336048068,0.001595,0.003292,0.01161,0.002422,0.002895,0.003292,3.815e-06,3.91e-05,0.007004,0.0002861,1.626,0.005051,0,1,0
165300000000,165600000000,4645263687,0,336048068,0.001593,0.003292,0.01161,0.002426,0.002899,0.003292,3.815e-06,3.815e-05,0.007454,0.0002146,1.618,0.005053,0,1,0
165600000000,165900000000,4645263687,0,336048068,0.00161,0.003292,0.01161,0.002434,0.002903,0.003292,8.583e-06,3.815e-05,0.007263,0.001143,1.612,0.004976,0,1,0
165900000000,166200000000,4645263687,0,336048068,0.001612,0.003292,0.01161,0.002438,0.002911,0.003292,9.537e-06,3.815e-05,0.00708,0.001215,1.644,0.0051,0,1,0
166200000000,166500000000,4645263687,0,336048068,0.001606,0.003292,0.01161,0.002441,0.002914,0.003292,6.676e-06,3.815e-05,0.007347,0.0004282,1.654,0.005151,0,1,0
166500000000,166800000000,4645263687,0,336048068,0.001608,0.003292,0.01161,0.002445,0.002918,0.003292,7.629e-06,3.815e-05,0.007874,0.0007858,1.636,0.005002,0,1,0
166800000000,167100000000,4645263687,0,336048068,0.001623,0.003292,0.01161,0.002449,0.002922,0.003292,2.384e-05,3.815e-05,0.02469,0.0007858,1.624,0.004985,0,1,0
167100000000,167400000000,4645263687,0,336048068,0.001633,0.003292,0.01161,0.002457,0.002926,0.003292,4.768e-06,3.815e-05,0.007782,0.0002146,1.692,0.00523,0,1,0
167400000000,167700000000,4645263687,0,336048068,0.001602,0.003292,0.01161,0.00246,0.002934,0.003292,5.722e-06,3.815e-05,0.00708,0.0004282,1.668,0.005224,0,1,0
167700000000,168000000000,4645263687,0,336048068,0.0016,0.003292,0.01161,0.002464,0.002937,0.003292,4.768e-06,3.815e-05,0.007339,0.0002146,1.607,0.005002,0,1,0
168000000000,168300000000,4645263687,0,336048068,0.001606,0.003292,0.01161,0.002468,0.002941,0.003292,5.722e-06,3.815e-05,0.007965,0.0004997,1.657,0.005214,0,1,0
168300000000,168600000000,4645263687,0,336048068,0.0016,0.003292,0.01161,0.002472,0.002945,0.003292,1.431e-05,3.815e-05,0.007652,0.002716,1.664,0.005194,0,1,0
168600000000,168900000000,4645263687,0,336048068,0.001608,0.003292,0.01161,0.002476,0.002949,0.003292,5.722e-06,3.815e-05,0.0075,0.0004282,1.642,0.005136,0,1,0
168900000000,169200000000,4645263687,0,336048068,0.001598,0.003292,0.01161,0.002483,0.002956,0.003292,4.768e-06,3.815e-05,0.007256,7.153e-05,1.66,0.00519,0,1,0
169200000000,169500000000,4645263687,0,336048068,0.001627,0.003292,0.01161,0.002487,0.00296,0.003292,5.722e-06,3.815e-05,0.007278,0.0004282,1.683,0.005246,0,1,0
169500000000,169800000000,4645263687,0,336048068,0.001598,0.003292,0.01161,0.002491,0.002964,0.003292,4.768e-06,3.815e-05,0.007576,0.0003567,1.639,0.005193,0,1,0
169800000000,170100000000,4645263687,0,336048068,0.001596,0.003292,0.01161,0.002495,0.002968,0.003292,8.583e-06,3.815e-05,0.007538,0.0007858,1.629,0.005252,0,1,0
170100000000,170400000000,4645263687,0,336048068,0.001617,0.003292,0.01161,0.002499,0.002972,0.003292,4.768e-06,3.815e-05,0.007904,0.0003567,1.704,0.005304,0,1,0
170400000000,170700000000,4645263687,0,336048068,0.001616,0.003292,0.01161,0.002506,0.002979,0.003292,4.768e-06,3.815e-05,0.007355,0.0003567,1.67,0.005244,0,1,0
170700000000,171000000000,4645263687,0,336048068,0.001606,0.003292,0.01161,0.00251,0.002983,0.003292,3.815e-06,3.815e-05,0.007561,0.0002146,1.684,0.005402,0,1,0
171000000000,171300000000,4645263687,0,336048068,0.001604,0.003292,0.01161,0.002514,0.002987,0.003292,3.815e-06,3.815e-05,0.007545,0.0002861,1.71,0.005392,0,1,0
171300000000,171600000000,4645263687,0,336048068,0.0016,0.003292,0.01161,0.002518,0.002991,0.003292,3.815e-06,3.815e-05,0.007683,0.0002146,1.689,0.005374,0,1,0
171600000000,171900000000,4645263687,0,336048068,0.001612,0.003292,0.01161,0.002522,0.002995,0.003292,8.583e-06,3.815e-05,0.007675,0.0009995,1.728,0.005489,0,1,0
171900000000,172200000000,4645263687,0,336048068,0.001608,0.003292,0.01161,0.002529,0.002998,0.003292,9.537e-06,3.815e-05,0.03748,0.0007143,1.713,0.005525,0,1,0
172200000000,172500000000,4645263687,0,336048068,0.001593,0.003292,0.01161,0.002533,0.003006,0.003292,4.768e-06,3.815e-05,0.007599,0.0004282,1.655,0.005402,0,1,0
172500000000,172800000000,4645263687,0,336048068,0.001587,0.003292,0.01161,0.002537,0.00301,0.003292,4.768e-06,3.815e-05,0.007446,0.0003567,1.702,0.00549,0,1,0
172800000000,173100000000,4645263687,0,336048068,0.001581,0.003292,0.01161,0.002541,0.003014,0.003292,5.722e-06,3.815e-05,0.007133,0.0004282,1.659,0.005416,0,1,0
173100000000,173400000000,4645263687,0,336048068,0.001614,0.003292,0.01161,0.002544,0.003017,0.003292,4.768e-06,3.815e-05,0.007187,0.0003567,1.69,0.005365,0,1,0
173400000000,173700000000,4645263687,0,336048068,0.001619,0.003292,0.01161,0.002548,0.003021,0.003292,4.768e-06,3.815e-05,0.04785,0.0004282,1.722,0.005439,0,1,0
173700000000,174000000000,4645263687,0,336048068,0.001612,0.003292,0.01161,0.002556,0.003029,0.003292,4.768e-06,3.815e-05,0.007553,0.0002861,1.683,0.005316,0,1,0
174000000000,174300000000,4645263687,0,336048068,0.001608,0.003292,0.01161,0.00256,0.003033,0.003292,4.768e-06,3.815e-05,0.007034,0.0003567,1.695,0.005413,0,1,0
174300000000,174600000000,4645263687,0,336048068,0.001606,0.003292,0.01161,0.002563,0.003036,0.003292,6.676e-06,3.815e-05,0.007141,0.0009289,1.696,0.005354,0,1,0
174600000000,174900000000,4645263687,0,336048068,0.001616,0.003292,0.01161,0.002567,0.00304,0.003292,3.815e-06,3.815e-05,0.007874,0.0003567,1.752,0.005575,0,1,0
174900000000,175200000000,4645263687,0,336048068,0.00153,0.003105,0.01094,0.002438,0.002884,0.006165,2.289e-05,3.815e-05,0.02194,0.004646,1.848,0.0061,0,1,0
175500000000,175800000000,4645263687,0,462243369,0.001957,0.005219,0.01161,0.001987,0.002464,0.007591,0.000186,3.242e-05,0.04987,0.01727,1.263,0.003433,0,1,0
175800000000,176100000000,4645263687,0,462243369,0.001654,0.005119,0.01163,0.001886,0.002361,0.005135,0.0002127,3.242e-05,0.008026,0.008286,1.811,0.006228,0,1,0
186300000000,186600000000,4645263687,0,5773399,0.001648,0.0033,0.01152,0.002796,0.003269,0.0033,9.537e-06,3.815e-05,0.009476,0.0008574,1.296,0.003158,0,1,0
186600000000,186900000000,4645263687,0,5773399,0.001644,0.0033,0.01152,0.0028,0.003273,0.0033,3.815e-06,3.91e-05,0.01068,7.153e-05,1.264,0.003026,0,1,0
186900000000,187200000000,4645263687,0,5773399,0.001629,0.0033,0.01152,0.002804,0.003277,0.0033,4.768e-06,3.91e-05,0.01019,0.0003567,1.244,0.002919,0,1,0
187200000000,187500000000,4645263687,0,5773399,0.001633,0.0033,0.01152,0.002808,0.003281,0.0033,3.815e-06,3.91e-05,0.009598,0.0001431,1.238,0.002961,0,1,0
187500000000,187800000000,4645263687,0,5773399,0.001625,0.0033,0.01152,0.002815,0.003288,0.0033,8.583e-06,3.91e-05,0.007393,0.0009289,1.25,0.003027,0,1,0
187800000000,188100000000,4645263687,0,5773399,0.001616,0.0033,0.01152,0.002819,0.003292,0.0033,7.629e-06,3.91e-05,0.008698,0.0002146,1.26,0.003068,0,1,0
188100000000,188400000000,4645263687,0,5773399,0.001629,0.0033,0.01152,0.002823,0.003296,0.0033,4.768e-06,3.91e-05,0.007027,0.0002146,1.266,0.003074,0,1,0
188400000000,188700000000,4645263687,0,5773399,0.001621,0.0033,0.01152,0.002827,0.0033,0.0033,4.768e-06,3.91e-05,0.00943,0.0002861,1.263,0.003067,0,1,0
188700000000,189000000000,4645263687,0,5773399,0.001617,0.0033,0.01152,0.002831,0.003304,0.0033,1.431e-05,3.91e-05,0.007568,0.001785,1.258,0.003017,0,1,0
189000000000,189300000000,4645263687,0,5773399,0.001612,0.0033,0.01152,0.002838,0.003307,0.0033,5.722e-06,3.91e-05,0.009537,0.0001431,1.222,0.002885,0,1,0
189300000000,189600000000,4645263687,0,5773399,0.001621,0.0033,0.01152,0.002842,0.003315,0.0033,4.768e-06,3.91e-05,0.009644,0.0003567,1.248,0.002967,0,1,0
189600000000,189900000000,4645263687,0,5773399,0.001625,0.0033,0.01152,0.002846,0.003319,0.0033,4.768e-06,3.91e-05,0.009979,0.0002146,1.252,0.002971,0,1,0
189900000000,190200000000,4645263687,0,5773399,0.001625,0.0033,0.01152,0.00285,0.003323,0.0033,5.722e-06,3.91e-05,0.0105,0.0003567,1.279,0.003113,0,1,0
190200000000,190500000000,4645263687,0,5773399,0.001625,0.0033,0.01152,0.002853,0.003326,0.0033,4.768e-06,3.91e-05,0.008789,0.0002861,1.296,0.003181,0,1,0
190500000000,190800000000,4645263687,0,5773399,0.001617,0.0033,0.01152,0.002861,0.00333,0.0033,7.629e-06,3.91e-05,0.007416,0.001215,1.263,0.003068,0,1,0
190800000000,191100000000,4645263687,0,5773399,0.001595,0.0033,0.01152,0.002865,0.003338,0.0033,5.722e-06,3.91e-05,0.009338,0.0002146,1.217,0.002918,0,1,0
191100000000,191400000000,4645263687,0,5773399,0.001585,0.0033,0.01152,0.002869,0.003342,0.0033,4.768e-06,3.91e-05,0.007286,0.0002861,1.189,0.002802,0,1,0
191400000000,191700000000,4645263687,0,5773399,0.001593,0.0033,0.01152,0.002872,0.003345,0.0033,8.583e-06,3.91e-05,0.007126,0.001358,1.225,0.002943,0,1,0
191700000000,192000000000,4645263687,0,5773399,0.001606,0.0033,0.01152,0.002876,0.003349,0.0033,4.768e-06,3.91e-05,0.01096,0.0004282,1.225,0.002926,0,1,0
192000000000,192300000000,4645263687,0,5773399,0.001623,0.0033,0.01152,0.002884,0.003353,0.0033,6.676e-06,3.91e-05,0.008087,0.0003567,1.277,0.003107,0,1,0
192300000000,192600000000,4645263687,0,5773399,0.001621,0.0033,0.01152,0.002888,0.003361,0.0033,7.629e-06,3.91e-05,0.007401,0.0004282,1.26,0.003008,0,1,0
192600000000,192900000000,4645263687,0,5773399,0.001616,0.0033,0.01152,0.002892,0.003365,0.0033,1.335e-05,3.91e-05,0.009827,0.002213,1.275,0.003164,0,1,0
192900000000,193200000000,4645263687,0,5773399,0.001633,0.003292,0.01157,0.002895,0.003368,0.0033,1.049e-05,3.91e-05,0.0127,0.001215,1.284,0.003181,0,1,0
193200000000,193500000000,4645263687,0,5773399,0.001791,0.003284,0.01161,0.002899,0.003372,0.003284,1.049e-05,3.91e-05,0.009048,0.001499,1.468,0.003642,0,1,0
193500000000,193800000000,4645263687,0,5773399,0.001778,0.003284,0.01161,0.002907,0.003376,0.003284,1.049e-05,3.91e-05,0.008743,0.001572,1.453,0.003609,0,1,0
193800000000,194100000000,4645263687,0,5773399,0.001772,0.003284,0.01161,0.002911,0.003384,0.003284,5.722e-06,3.91e-05,0.01176,0.0002146,1.432,0.003527,0,1,0
194100000000,194400000000,4645263687,0,5773399,0.001762,0.003284,0.01161,0.002914,0.003387,0.003284,4.768e-06,3.91e-05,0.008331,0.0002861,1.432,0.003572,0,1,0
194400000000,194700000000,4645263687,0,5773399,0.001778,0.003284,0.01161,0.002918,0.003391,0.003284,4.768e-06,3.91e-05,0.008286,0.0002861,1.437,0.003578,0,1,0
194700000000,195000000000,4645263687,0,5773399,0.001778,0.003284,0.01161,0.002922,0.003395,0.003284,7.629e-06,3.91e-05,0.008118,0.0009995,1.437,0.003512,0,1,0
195000000000,195300000000,4645263687,0,5773399,0.001598,0.003284,0.01161,0.002926,0.003399,0.003284,4.768e-06,3.91e-05,0.01009,0.0003567,1.276,0.003005,0,1,0
195300000000,195600000000,4645263687,0,5773399,0.001556,0.003284,0.01161,0.002934,0.003403,0.003284,4.768e-06,3.91e-05,0.007286,0.0002861,1.176,0.002781,0,1,0
195600000000,195900000000,4645263687,0,5773399,0.001534,0.003284,0.01161,0.002937,0.00341,0.003284,4.768e-06,3.91e-05,0.008682,0.0002861,1.162,0.002722,0,1,0
195900000000,196200000000,4645263687,0,5773399,0.001532,0.003284,0.01161,0.002941,0.003414,0.003284,6.676e-06,3.91e-05,0.006721,0.0003567,1.141,0.002621,0,1,0
201300000000,201600000000,4645263687,0,5773399,0.001574,0.003288,0.01161,0.002712,0.003185,0.003288,8.583e-06,3.91e-05,0.008011,0.0009289,1.175,0.002712,0,1,0
201600000000,201900000000,4645263687,0,5773399,0.001602,0.003288,0.01161,0.002716,0.003189,0.003288,4.768e-06,3.91e-05,0.04858,0.0002146,1.222,0.002896,0,1,0
201900000000,202200000000,4645263687,0,5773399,0.001564,0.003288,0.01161,0.00272,0.003193,0.003288,5.722e-06,3.91e-05,0.01009,0.0002861,1.174,0.002734,0,1,0
202200000000,202500000000,4645263687,0,5773399,0.001608,0.003288,0.01161,0.002724,0.003197,0.003288,6.676e-06,3.91e-05,0.008148,0.0002146,1.227,0.002837,0,1,0
202500000000,202800000000,4645263687,0,5773399,0.001659,0.003288,0.01161,0.002731,0.003201,0.003288,5.722e-06,3.91e-05,0.01062,0.0002861,1.322,0.003293,0,1,0
202800000000,203100000000,4645263687,0,5773399,0.001614,0.003288,0.01161,0.002735,0.003208,0.003288,6.676e-06,3.91e-05,0.008469,0.0007143,1.269,0.003097,0,1,0
203100000000,203400000000,4645263687,0,5773399,0.00157,0.003288,0.01161,0.002739,0.003212,0.003288,4.768e-06,3.91e-05,0.007675,0.0003567,1.194,0.002809,0,1,0
203400000000,203700000000,4645263687,0,5773399,0.001564,0.003288,0.01161,0.002743,0.003216,0.003288,8.583e-06,3.91e-05,0.007202,0.001358,1.203,0.002796,0,1,0
203700000000,204000000000,4645263687,0,5773399,0.001564,0.003288,0.01161,0.002747,0.00322,0.003288,5.722e-06,3.91e-05,0.009109,0.0002861,1.197,0.00277,0,1,0
204000000000,204300000000,4645263687,0,5773399,0.00157,0.003288,0.01161,0.002754,0.003223,0.003288,5.722e-06,3.91e-05,0.007172,0.0002861,1.196,0.002828,0,1,0
204300000000,204600000000,4645263687,0,5773399,0.001572,0.003288,0.01161,0.002758,0.003231,0.003288,4.768e-06,3.91e-05,0.009064,0.0002861,1.172,0.002718,0,1,0
204600000000,204900000000,4645263687,0,5773399,0.001591,0.003288,0.01161,0.002762,0.003235,0.003288,6.676e-06,3.91e-05,0.009995,0.0002146,1.2,0.002864,0,1,0
204900000000,205200000000,4645263687,0,5773399,0.001606,0.003288,0.01161,0.002766,0.003239,0.003288,1.144e-05,3.91e-05,0.008774,0.001858,1.246,0.002888,0,1,0
205200000000,205500000000,4645263687,0,5773399,0.00156,0.003288,0.01161,0.002769,0.003242,0.003288,9.537e-06,3.91e-05,0.007187,0.0007143,1.172,0.002714,0,1,0
205500000000,205800000000,4645263687,0,5773399,0.001549,0.003288,0.01161,0.002777,0.003246,0.003288,4.768e-06,3.91e-05,0.008759,0.0002861,1.195,0.002801,0,1,0
205800000000,206100000000,4645263687,0,5773399,0.001623,0.003288,0.01161,0.002781,0.003254,0.003288,5.722e-06,3.91e-05,0.007683,0.0002146,1.235,0.002906,0,1,0
206100000000,206400000000,4645263687,0,5773399,0.001585,0.003288,0.01161,0.002785,0.003258,0.003288,8.583e-06,3.91e-05,0.009125,0.0007143,1.207,0.002876,0,1,0
206400000000,206700000000,4645263687,0,5773399,0.001543,0.003288,0.01161,0.002789,0.003262,0.003288,5.722e-06,3.91e-05,0.007233,0.0005713,1.173,0.002737,0,1,0
206700000000,207000000000,4645263687,0,5773399,0.001554,0.003288,0.01161,0.002792,0.003265,0.003288,7.629e-06,3.91e-05,0.01067,0.0005713,1.152,0.002693,0,1,0
207000000000,207300000000,4645263687,0,5773399,0.001545,0.003288,0.01161,0.002796,0.003269,0.003288,4.768e-06,3.91e-05,0.009766,0.0002146,1.148,0.002632,0,1,0
207300000000,207600000000,4645263687,0,5773399,0.001545,0.003288,0.01161,0.002804,0.003277,0.003288,1.144e-05,3.91e-05,0.007416,0.001928,1.16,0.002684,0,1,0
207600000000,207900000000,4645263687,0,5773399,0.001528,0.003288,0.01161,0.002808,0.003281,0.003288,3.815e-06,3.91e-05,0.009003,0.0002146,1.119,0.002557,0,1,0
207900000000,208200000000,4645263687,0,5773399,0.001545,0.003288,0.01161,0.002811,0.003284,0.003288,7.629e-06,3.91e-05,0.006866,0.0005713,1.135,0.00257,0,1,0
208200000000,208500000000,4645263687,0,5773399,0.001596,0.003288,0.01161,0.002815,0.003288,0.003288,5.722e-06,3.91e-05,0.009628,0.0002146,1.203,0.002767,0,1,0
208500000000,208800000000,4645263687,0,5773399,0.001614,0.003288,0.01161,0.002819,0.003292,0.003288,9.537e-06,3.91e-05,0.009827,0.001143,1.254,0.002949,0,1,0
208800000000,209100000000,4645263687,0,5773399,0.001633,0.003288,0.01161,0.002827,0.003296,0.003288,5.722e-06,3.91e-05,0.007774,0.0001431,1.294,0.003075,0,1,0
209100000000,209400000000,4645263687,0,5773399,0.001625,0.003288,0.01161,0.002831,0.003304,0.003288,6.676e-06,3.91e-05,0.007515,0.0003567,1.299,0.003061,0,1,0
209400000000,209700000000,4645263687,0,5773399,0.001642,0.003288,0.01161,0.002834,0.003307,0.003288,5.722e-06,3.91e-05,0.007202,0.0001431,1.301,0.003108,0,1,0
209700000000,210000000000,4645263687,0,5773399,0.001619,0.003288,0.01161,0.002838,0.003311,0.003288,1.049e-05,3.91e-05,0.007355,0.001642,1.259,0.002978,0,1,0
210000000000,210300000000,4645263687,0,5773399,0.001595,0.003288,0.01161,0.002842,0.003315,0.003288,6.676e-06,3.91e-05,0.007462,0.0006428,1.24,0.002911,0,1,0
210300000000,210600000000,4645263687,0,5773399,0.001595,0.003288,0.01161,0.00285,0.003319,0.003288,7.629e-06,3.91e-05,0.009018,0.0003567,1.247,0.002997,0,1,0
210600000000,210900000000,4645263687,0,5773399,0.001623,0.003288,0.01161,0.002853,0.003326,0.003288,4.768e-06,3.91e-05,0.008713,0.0002146,1.271,0.002983,0,1,0
210900000000,211200000000,4645263687,0,5773399,0.001608,0.003288,0.01161,0.002857,0.00333,0.003288,1.144e-05,3.91e-05,0.009888,0.001072,1.252,0.00299,0,1,0
211200000000,211500000000,4645263687,0,5773399,0.001593,0.003288,0.01161,0.002861,0.003334,0.003288,8.583e-06,3.91e-05,0.007233,0.001215,1.256,0.002956,0,1,0
211500000000,211800000000,4645263687,0,5773399,0.001608,0.003288,0.01161,0.002865,0.003338,0.003288,5.722e-06,3.91e-05,0.01239,0.0002861,1.268,0.00298,0,1,0
211800000000,212100000000,4645263687,0,5773399,0.001585,0.003288,0.01161,0.002872,0.003342,0.003288,7.629e-06,3.91e-05,0.007904,0.0002861,1.216,0.002915,0,1,0
212100000000,212400000000,4645263687,0,5773399,0.001617,0.003288,0.01161,0.002876,0.003349,0.003288,7.629e-06,3.91e-05,0.0075,0.0003567,1.272,0.003103,0,1,0
212400000000,212700000000,4645263687,0,5773399,0.001616,0.003288,0.01161,0.00288,0.003353,0.003288,4.768e-06,3.91e-05,0.008865,0.0001431,1.277,0.003124,0,1,0
212700000000,213000000000,4645263687,0,5773399,0.001583,0.003288,0.01161,0.002884,0.003357,0.003288,5.722e-06,3.91e-05,0.011,0.0002861,1.202,0.002847,0,1,0
213000000000,213300000000,4645263687,0,5773399,0.001579,0.003288,0.01161,0.002888,0.003361,0.003288,4.768e-06,4.005e-05,0.01044,0.0002861,1.225,0.002967,0,1,0
213300000000,213600000000,4645263687,0,5773399,0.001558,0.003288,0.01161,0.002895,0.003365,0.003288,8.583e-06,4.005e-05,0.007278,0.0006428,1.193,0.002825,0,1,0
213600000000,213900000000,4645263687,0,5773399,0.001575,0.003288,0.01161,0.002899,0.003372,0.003288,6.676e-06,4.005e-05,0.008041,0.0002146,1.201,0.002869,0,1,0
213900000000,214200000000,4645263687,0,5773399,0.001566,0.003288,0.01161,0.002903,0.003376,0.003288,6.676e-06,4.005e-05,0.008392,0.0003567,1.195,0.002787,0,1,0
214200000000,214500000000,4645263687,0,5773399,0.001604,0.003288,0.01161,0.002907,0.00338,0.003288,4.768e-06,4.005e-05,0.009598,0.0002146,1.246,0.002858,0,1,0
214500000000,214800000000,4645263687,0,5773399,0.00156,0.003288,0.01161,0.002911,0.003384,0.003288,5.722e-06,4.005e-05,0.008759,0.0003567,1.197,0.002809,0,1,0
214800000000,215100000000,4645263687,0,5773399,0.001575,0.003288,0.01161,0.002914,0.003387,0.003288,7.629e-06,4.005e-05,0.009415,0.0007143,1.208,0.002841,0,1,0
215100000000,215400000000,4645263687,0,5773399,0.001564,0.003288,0.01161,0.002922,0.003395,0.003288,6.676e-06,4.005e-05,0.00824,0.0003567,1.186,0.00279,0,1,0
215400000000,215700000000,4645263687,0,5773399,0.001568,0.003288,0.01161,0.002926,0.003399,0.003288,5.722e-06,4.005e-05,0.05042,0.0001431,1.192,0.002821,0,1,0
215700000000,216000000000,4645263687,0,5773399,0.001585,0.003288,0.01161,0.00293,0.003403,0.003288,6.676e-06,4.005e-05,0.007195,0.0004282,1.215,0.002884,0,1,0
216000000000,216300000000,4645263687,0,5773399,0.001564,0.003288,0.01161,0.002934,0.003407,0.003288,4.768e-06,4.005e-05,0.009384,0.0001431,1.201,0.002849,0,1,0
221100000000,221400000000,4645263687,0,5773399,0.001558,0.003288,0.01161,0.002701,0.003174,0.003288,5.722e-06,4.005e-05,0.009552,0.0002861,1.156,0.002765,0,1,0
221400000000,221700000000,4645263687,0,5773399,0.001585,0.003288,0.01161,0.002705,0.003178,0.003288,6.676e-06,4.005e-05,0.01021,0.0007143,1.214,0.002923,0,1,0
221700000000,222000000000,4645263687,0,5773399,0.001583,0.003288,0.01161,0.002708,0.003181,0.003288,4.768e-06,4.005e-05,0.007133,0.0002861,1.205,0.002897,0,1,0
222000000000,222300000000,4645263687,0,5773399,0.001574,0.003288,0.01161,0.002712,0.003185,0.003288,8.583e-06,4.005e-05,0.007408,0.0005713,1.189,0.00284,0,1,0
222300000000,222600000000,4645263687,0,5773399,0.00157,0.003288,0.01161,0.00272,0.003189,0.003288,5.722e-06,4.005e-05,0.009308,0.0003567,1.182,0.002827,0,1,0
222600000000,222900000000,4645263687,0,5773399,0.001568,0.003288,0.01161,0.002724,0.003197,0.003288,7.629e-06,4.005e-05,0.007309,0.0006428,1.164,0.002751,0,1,0
222900000000,223200000000,4645263687,0,5773399,0.001558,0.003288,0.01161,0.002728,0.003201,0.003288,6.676e-06,4.005e-05,0.008606,0.0004997,1.164,0.002761,0,1,0
223200000000,223500000000,4645263687,0,5773399,0.001568,0.003288,0.01161,0.002731,0.003204,0.003288,3.815e-06,4.005e-05,0.009506,0.0001431,1.179,0.002792,0,1,0
223500000000,223800000000,4645263687,0,5773399,0.001568,0.003288,0.01161,0.002735,0.003208,0.003288,4.768e-06,4.005e-05,0.007919,0.0002861,1.201,0.002848,0,1,0
223800000000,224100000000,4645263687,0,5773399,0.001593,0.003288,0.01161,0.002743,0.003212,0.003288,4.768e-06,4.005e-05,0.01018,0.0002146,1.181,0.002815,0,1,0
224100000000,224400000000,4645263687,0,5773399,0.001627,0.003288,0.01161,0.002747,0.00322,0.003288,7.629e-06,4.005e-05,0.007965,0.0003567,1.252,0.003057,0,1,0
224400000000,224700000000,4645263687,0,5773399,0.001616,0.003288,0.01161,0.00275,0.003223,0.003288,3.815e-06,4.005e-05,0.009399,0.0001431,1.265,0.00311,0,1,0
224700000000,225000000000,4645263687,0,5773399,0.001623,0.003288,0.01161,0.002754,0.003227,0.003288,1.431e-05,4.005e-05,0.01163,0.002998,1.271,0.003088,0,1,0
225000000000,225300000000,4645263687,0,5773399,0.001621,0.003288,0.01161,0.002758,0.003231,0.003288,3.815e-06,4.005e-05,0.009811,0.0001431,1.275,0.003108,0,1,0
225300000000,225600000000,4645263687,0,5773399,0.001627,0.003288,0.01161,0.002762,0.003235,0.003288,1.335e-05,4.005e-05,0.007919,0.001215,1.29,0.003127,0,1,0
225600000000,225900000000,4645263687,0,5773399,0.001631,0.003288,0.01161,0.002769,0.003239,0.003288,3.815e-06,4.005e-05,0.007629,0.0001431,1.284,0.003108,0,1,0
225900000000,226200000000,4645263687,0,5773399,0.001629,0.003288,0.01161,0.002773,0.003246,0.003288,4.768e-06,4.005e-05,0.009216,0.0002861,1.282,0.003136,0,1,0
226200000000,226500000000,4645263687,0,5773399,0.001625,0.003288,0.01161,0.002777,0.00325,0.003288,3.815e-06,4.005e-05,0.007523,0.0001431,1.265,0.003069,0,1,0
226500000000,226800000000,4645263687,0,5773399,0.001612,0.003288,0.01161,0.002781,0.003254,0.003288,4.768e-06,4.005e-05,0.007446,0.0004282,1.254,0.003055,0,1,0
226800000000,227100000000,4645263687,0,5773399,0.001617,0.003288,0.01161,0.002785,0.003258,0.003288,3.815e-06,4.005e-05,0.01021,0.0002146,1.227,0.002964,0,1,0
227100000000,227400000000,4645263687,0,5773399,0.001621,0.003288,0.01161,0.002792,0.003262,0.003288,4.768e-06,4.005e-05,0.007675,0.0003567,1.275,0.003074,0,1,0
227400000000,227700000000,4645263687,0,5773399,0.001619,0.003288,0.01161,0.002796,0.003269,0.003288,4.768e-06,4.005e-05,0.009735,0.0004997,1.276,0.003084,0,1,0
227700000000,228000000000,4645263687,0,5773399,0.001629,0.003288,0.01161,0.0028,0.003273,0.003288,4.768e-06,4.005e-05,0.009552,0.0002861,1.241,0.002988,0,1,0
228000000000,228300000000,4645263687,0,5773399,0.001633,0.003288,0.01161,0.002804,0.003277,0.003288,3.815e-06,4.005e-05,0.01004,0.0001431,1.267,0.003082,0,1,0
228300000000,228600000000,4645263687,0,5773399,0.001627,0.003288,0.01161,0.002808,0.003281,0.003288,4.768e-06,4.005e-05,0.009979,0.0003567,1.256,0.003048,0,1,0
228600000000,228900000000,4645263687,0,5773399,0.001612,0.003288,0.01161,0.002815,0.003284,0.003288,3.815e-06,4.005e-05,0.01105,0.0001431,1.238,0.003003,0,1,0
228900000000,229200000000,4645263687,0,5773399,0.00161,0.003288,0.01161,0.002819,0.003292,0.003288,5.722e-06,3.91e-05,0.007118,0.0003567,1.22,0.002934,0,1,0
229200000000,229500000000,4645263687,0,5773399,0.001596,0.003288,0.01161,0.002823,0.003296,0.003288,3.815e-06,3.91e-05,0.01122,0.0001431,1.238,0.003042,0,1,0
229500000000,229800000000,4645263687,0,5773399,0.001593,0.003288,0.01161,0.002827,0.0033,0.003288,7.629e-06,3.91e-05,0.00972,0.0006428,1.237,0.003047,0,1,0
229800000000,230100000000,4645263687,0,5773399,0.001595,0.003288,0.01161,0.002831,0.003304,0.003288,5.722e-06,3.91e-05,0.007332,0.0002146,1.235,0.00302,0,1,0
230100000000,230400000000,4645263687,0,5773399,0.001595,0.003288,0.01161,0.002838,0.003307,0.003288,7.629e-06,3.91e-05,0.0249,0.0004282,1.25,0.003051,0,1,0
230400000000,230700000000,4645263687,0,5773399,0.001581,0.003288,0.01161,0.002842,0.003315,0.003288,5.722e-06,3.91e-05,0.007858,0.0005713,1.234,0.003026,0,1,0
230700000000,231000000000,4645263687,0,5773399,0.001596,0.003288,0.01161,0.002846,0.003319,0.003288,7.629e-06,3.91e-05,0.007362,0.001072,1.228,0.003013,0,1,0
231000000000,231300000000,4645263687,0,5773399,0.001589,0.003288,0.01161,0.00285,0.003323,0.003288,4.768e-06,3.91e-05,0.04816,0.0002146,1.221,0.002988,0,1,0
231300000000,231600000000,4645263687,0,5773399,0.001596,0.003288,0.01161,0.002853,0.003326,0.003288,5.722e-06,3.91e-05,0.008026,0.0003567,1.232,0.003028,0,1,0
231600000000,231900000000,4645263687,0,5773399,0.001602,0.003288,0.01161,0.002861,0.00333,0.003288,4.768e-06,3.91e-05,0.009293,0.0002861,1.24,0.002994,0,1,0
231900000000,232200000000,4645263687,0,5773399,0.0016,0.003288,0.01161,0.002865,0.003338,0.003288,4.768e-06,3.91e-05,0.009628,0.0002861,1.221,0.002962,0,1,0
232200000000,232500000000,4645263687,0,5773399,0.001587,0.003288,0.01161,0.002869,0.003342,0.003288,4.768e-06,3.91e-05,0.009338,0.0002146,1.196,0.002885,0,1,0
232500000000,232800000000,4645263687,0,5773399,0.001581,0.003288,0.01161,0.002872,0.003345,0.003288,1.526e-05,3.91e-05,0.009171,0.001858,1.218,0.002959,0,1,0
232800000000,233100000000,4645263687,0,5773399,0.001591,0.003288,0.01161,0.002876,0.003349,0.003288,4.768e-06,3.91e-05,0.00705,0.0001431,1.206,0.00294,0,1,0
233100000000,233400000000,4645263687,0,5773399,0.001593,0.003288,0.01161,0.00288,0.003353,0.003288,4.768e-06,3.91e-05,0.008011,0.0002861,1.222,0.002977,0,1,0
233400000000,233700000000,4645263687,0,5773399,0.001579,0.003288,0.01161,0.002888,0.003357,0.003288,2.861e-06,3.91e-05,0.008118,0.0001431,1.232,0.002995,0,1,0
233700000000,234000000000,4645263687,0,5773399,0.001585,0.003288,0.01161,0.002892,0.003365,0.003288,3.815e-06,4.005e-05,0.009964,0.0002146,1.221,0.00299,0,1,0
234000000000,234300000000,4645263687,0,5773399,0.001589,0.003288,0.01161,0.002895,0.003368,0.003288,6.676e-06,4.005e-05,0.00972,0.0009289,1.221,0.002989,0,1,0
234300000000,234600000000,4645263687,0,5773399,0.001587,0.003288,0.01161,0.002899,0.003372,0.003288,7.629e-06,4.005e-05,0.009659,0.001215,1.219,0.002946,0,1,0
234600000000,234900000000,4645263687,0,5773399,0.001587,0.003288,0.01161,0.002903,0.003376,0.003288,3.815e-06,4.005e-05,0.008484,0.0001431,1.215,0.002935,0,1,0
234900000000,235200000000,4645263687,0,5773399,0.0016,0.003288,0.01161,0.002911,0.00338,0.003288,1.24e-05,4.005e-05,0.009094,0.0009995,1.233,0.002997,0,1,0
235200000000,235500000000,4645263687,0,5773399,0.001598,0.003288,0.01161,0.002914,0.003387,0.003288,7.629e-06,4.005e-05,0.007347,0.0008574,1.24,0.00302,0,1,0
235500000000,235800000000,4645263687,0,5773399,0.001593,0.003288,0.01161,0.002918,0.003391,0.003288,4.768e-06,4.005e-05,0.007408,0.0002861,1.233,0.003012,0,1,0
235800000000,236100000000,4645263687,0,5773399,0.001591,0.003288,0.01161,0.002922,0.003395,0.003288,5.722e-06,4.005e-05,0.01019,0.0003567,1.227,0.00302,0,1,0
236100000000,236400000000,4645263687,0,5773399,0.001595,0.003288,0.01161,0.002926,0.003399,0.003288,5.722e-06,4.005e-05,0.009277,0.0002861,1.232,0.003025,0,1,0
241200000000,241500000000,4645263687,0,5773399,0.001772,0.003288,0.01161,0.002949,0.003422,0.003288,2.861e-06,4.005e-05,0.008392,7.153e-05,1.433,0.003511,0,1,0
241500000000,241800000000,4645263687,0,5773399,0.001774,0.003288,0.01161,0.002697,0.00317,0.003288,3.815e-06,4.005e-05,0.0112,0.0002861,1.439,0.00354,0,1,0
241800000000,242100000000,4645263687,0,5773399,0.001772,0.003288,0.01161,0.002705,0.003174,0.003288,3.815e-06,4.005e-05,0.008743,7.153e-05,1.434,0.00355,0,1,0
242100000000,242400000000,4645263687,0,5773399,0.00178,0.003288,0.01161,0.002708,0.003181,0.003288,5.722e-06,4.005e-05,0.008392,0.0002861,1.435,0.003531,0,1,0
242400000000,242700000000,4645263687,0,5773399,0.001783,0.003288,0.01161,0.002712,0.003185,0.003288,3.815e-06,4.005e-05,0.009048,0.0001431,1.421,0.003495,0,1,0
242700000000,243000000000,4645263687,0,5773399,0.001633,0.003288,0.01161,0.002716,0.003189,0.003288,8.583e-06,4.005e-05,0.009003,0.001215,1.282,0.003173,0,1,0
243000000000,243300000000,4645263687,0,5773399,0.001566,0.003288,0.01161,0.00272,0.003193,0.003288,3.815e-06,4.005e-05,0.05035,0.0001431,1.205,0.002934,0,1,0
243300000000,243600000000,4645263687,0,5773399,0.001589,0.003288,0.01161,0.002724,0.003197,0.003288,5.722e-06,4.005e-05,0.009979,0.0002861,1.231,0.003037,0,1,0
243600000000,243900000000,4645263687,0,5773399,0.001598,0.003288,0.01161,0.002731,0.003201,0.003288,1.431e-05,4.005e-05,0.01106,0.0002146,1.236,0.003057,0,1,0
243900000000,244200000000,4645263687,0,5773399,0.001661,0.003288,0.01161,0.002735,0.003208,0.003288,4.768e-06,4.005e-05,0.01115,0.0002861,1.33,0.003329,0,1,0
244200000000,244500000000,4645263687,0,5773399,0.001642,0.003288,0.01161,0.002739,0.003212,0.003288,1.431e-05,4.005e-05,0.008713,0.0007143,1.278,0.003179,0,1,0
244500000000,244800000000,4645263687,0,5773399,0.001659,0.003288,0.01161,0.002743,0.003216,0.003288,5.722e-06,4.005e-05,0.01196,0.0004282,1.33,0.003378,0,1,0
244800000000,245100000000,4645263687,0,5773399,0.001629,0.003284,0.01161,0.002747,0.00322,0.003288,5.054e-05,4.005e-05,0.01108,0.007431,1.306,0.003268,0,1,0
245100000000,245400000000,4645263687,0,5773399,0.00161,0.003284,0.01161,0.002754,0.003223,0.003284,4.768e-06,4.005e-05,0.007622,0.0004282,1.238,0.003033,0,1,0
245400000000,245700000000,4645263687,0,5773399,0.001616,0.003284,0.01161,0.002758,0.003231,0.003284,3.815e-06,4.005e-05,0.0105,0.0001431,1.256,0.003067,0,1,0
245700000000,246000000000,4645263687,0,5773399,0.001619,0.003284,0.01161,0.002762,0.003235,0.003284,4.768e-06,4.005e-05,0.007759,0.0002861,1.252,0.003066,0,1,0
246000000000,246300000000,4645263687,0,5773399,0.001614,0.003284,0.01161,0.002766,0.003239,0.003284,6.676e-06,4.005e-05,0.009094,0.001072,1.248,0.003033,0,1,0
251400000000,251700000000,4645263687,0,5773399,0.001646,0.003284,0.01161,0.00285,0.003323,0.003284,7.629e-06,3.91e-05,0.01036,0.0008574,1.273,0.00315,0,1,0
251700000000,252000000000,4645263687,0,5773399,0.00165,0.003284,0.01161,0.002853,0.003326,0.003284,1.144e-05,3.91e-05,0.008362,0.002144,1.291,0.003187,0,1,0
252000000000,252300000000,4645263687,0,5773399,0.001648,0.003284,0.01161,0.002857,0.00333,0.003284,1.144e-05,3.91e-05,0.008026,0.0009289,1.275,0.00307,0,1,0
252300000000,252600000000,4645263687,0,5773399,0.00164,0.003284,0.01161,0.002861,0.003334,0.003284,5.722e-06,3.91e-05,0.01006,0.0003567,1.288,0.003173,0,1,0
252600000000,252900000000,4645263687,0,5773399,0.001616,0.003284,0.01161,0.002869,0.003338,0.003284,5.722e-06,3.91e-05,0.01065,0.0002146,1.265,0.003183,0,1,0
252900000000,253200000000,4645263687,0,5773399,0.001608,0.003284,0.01161,0.002872,0.003345,0.003284,5.722e-06,3.91e-05,0.007904,0.0002861,1.271,0.003141,0,1,0
253200000000,253500000000,4645263687,0,5773399,0.001627,0.003284,0.01161,0.002876,0.003349,0.003284,1.24e-05,3.91e-05,0.01254,0.0003567,1.255,0.003101,0,1,0
253500000000,253800000000,4645263687,0,5773399,0.001623,0.003284,0.01161,0.00288,0.003353,0.003284,5.722e-06,3.91e-05,0.007561,0.0002861,1.272,0.003122,0,1,0
253800000000,254100000000,4645263687,0,5773399,0.001665,0.003284,0.01161,0.002884,0.003357,0.003284,4.768e-06,3.91e-05,0.008118,0.0003567,1.29,0.003171,0,1,0
254100000000,254400000000,4645263687,0,5773399,0.001684,0.003284,0.01161,0.002892,0.003365,0.003284,4.768e-06,3.91e-05,0.01028,0.0002861,1.297,0.003175,0,1,0
254400000000,254700000000,4645263687,0,5773399,0.001692,0.003284,0.01161,0.002899,0.003368,0.003284,1.335e-05,4.005e-05,0.008591,0.0008574,1.293,0.003176,0,1,0
254700000000,255000000000,4645263687,0,5773399,0.001678,0.003284,0.01161,0.002903,0.003376,0.003284,6.676e-06,4.005e-05,0.01338,0.0006428,1.293,0.003171,0,1,0
255000000000,255300000000,4645263687,0,5773399,0.001677,0.003284,0.01161,0.002911,0.00338,0.003284,4.768e-06,4.005e-05,0.008408,0.0002861,1.288,0.003171,0,1,0
255300000000,255600000000,4645263687,0,5773399,0.001675,0.003284,0.01161,0.002914,0.003387,0.003284,3.815e-06,4.005e-05,0.01021,0.0002861,1.31,0.003248,0,1,0
255600000000,255900000000,4645263687,0,5773399,0.00173,0.003284,0.01161,0.002922,0.003395,0.003284,6.676e-06,4.005e-05,0.008087,0.0002146,1.365,0.003432,0,1,0
255900000000,256200000000,4645263687,0,5773399,0.001713,0.003284,0.01161,0.002926,0.003399,0.003284,6.676e-06,4.005e-05,0.00827,0.0004997,1.363,0.003444,0,1,0
256200000000,256500000000,4645263687,0,5773399,0.001692,0.003284,0.01161,0.002934,0.003407,0.003284,5.722e-06,4.005e-05,0.01114,0.0004997,1.305,0.003209,0,1,0
256500000000,256800000000,4645263687,0,5773399,0.001686,0.003284,0.01161,0.002937,0.00341,0.003284,1.049e-05,4.005e-05,0.01007,0.001715,1.297,0.003213,0,1,0
256800000000,257100000000,4645263687,0,5773399,0.001703,0.003284,0.01161,0.002945,0.003418,0.003284,4.768e-06,4.005e-05,0.007965,0.0001431,1.343,0.003357,0,1,0
257100000000,257400000000,4645263687,0,5773399,0.001678,0.003284,0.01161,0.002953,0.003422,0.003284,4.768e-06,4.005e-05,0.007431,0.0003567,1.294,0.003209,0,1,0
257400000000,257700000000,4645263687,0,5773399,0.001678,0.003284,0.01161,0.002956,0.003429,0.003284,3.815e-06,4.005e-05,0.01161,7.153e-05,1.262,0.003089,0,1,0
257700000000,258000000000,4645263687,0,5773399,0.001692,0.003284,0.01161,0.002964,0.003433,0.003284,4.768e-06,4.005e-05,0.008026,0.0003567,1.289,0.00316,0,1,0
258000000000,258300000000,4645263687,0,5773399,0.001692,0.003284,0.01161,0.002968,0.003441,0.003284,3.815e-06,4.005e-05,0.008392,0.0002146,1.301,0.003199,0,1,0
258300000000,258600000000,4645263687,0,5773399,0.001671,0.003284,0.01161,0.002975,0.003448,0.003284,5.722e-06,4.005e-05,0.007828,0.0003567,1.294,0.003192,0,1,0
258600000000,258900000000,4645263687,0,5773399,0.001648,0.003284,0.01161,0.002979,0.003452,0.003284,3.815e-06,4.005e-05,0.0103,0.0001431,1.282,0.003157,0,1,0
258900000000,259200000000,4645263687,0,5773399,0.001648,0.003284,0.01161,0.002983,0.003456,0.003284,2.193e-05,4.005e-05,0.007904,0.002071,1.268,0.003075,0,1,0
259200000000,259500000000,4645263687,0,5773399,0.001661,0.003284,0.01161,0.002987,0.00346,0.003284,1.049e-05,4.005e-05,0.01057,0.001215,1.308,0.003181,0,1,0
259500000000,259800000000,4645263687,0,5773399,0.001678,0.003284,0.01161,0.002995,0.003464,0.003284,4.768e-06,4.005e-05,0.007706,0.0002861,1.353,0.003312,0,1,0
259800000000,260100000000,4645263687,0,5773399,0.001671,0.003284,0.01161,0.002998,0.003471,0.003284,4.768e-06,4.005e-05,0.008011,0.0001431,1.326,0.003209,0,1,0
260100000000,260400000000,4645263687,0,5773399,0.001663,0.003284,0.01161,0.003002,0.003475,0.003284,4.768e-06,4.005e-05,0.007408,0.0004282,1.337,0.003266,0,1,0
260400000000,260700000000,4645263687,0,5773399,0.001673,0.003284,0.01161,0.003006,0.003479,0.003284,4.768e-06,4.005e-05,0.01097,0.0002146,1.332,0.003251,0,1,0
260700000000,261000000000,4645263687,0,5773399,0.001682,0.003284,0.01161,0.002914,0.003387,0.003284,6.676e-06,4.005e-05,0.008286,0.0003567,1.346,0.003315,0,1,0
261000000000,261300000000,4645263687,0,5773399,0.001656,0.003284,0.01161,0.002705,0.003178,0.003284,8.583e-06,4.005e-05,0.01102,0.001143,1.307,0.003199,0,1,0
261300000000,261600000000,4645263687,0,5773399,0.00165,0.003284,0.01161,0.002708,0.003181,0.003284,6.676e-06,4.005e-05,0.009857,0.0004282,1.301,0.003191,0,1,0
261600000000,261900000000,4645263687,0,5773399,0.001654,0.003284,0.01161,0.002712,0.003185,0.003284,3.815e-06,4.005e-05,0.008087,0.0001431,1.285,0.003129,0,1,0
261900000000,262200000000,4645263687,0,5773399,0.001657,0.003284,0.01161,0.00272,0.003189,0.003284,6.676e-06,4.005e-05,0.007874,0.0006428,1.291,0.003138,0,1,0
262200000000,262500000000,4645263687,0,5773399,0.001657,0.003284,0.01161,0.002724,0.003197,0.003284,4.768e-06,4.005e-05,0.007812,0.0002146,1.298,0.003201,0,1,0
262500000000,262800000000,4645263687,0,5773399,0.00164,0.003284,0.01161,0.002728,0.003201,0.003284,7.629e-06,4.005e-05,0.007393,0.0006428,1.282,0.003134,0,1,0
262800000000,263100000000,4645263687,0,5773399,0.00178,0.003284,0.01161,0.002731,0.003204,0.003284,5.722e-06,4.005e-05,0.009094,0.0002861,1.419,0.003552,0,1,0
263100000000,263400000000,4645263687,0,5773399,0.001812,0.003284,0.01161,0.002735,0.003208,0.003284,4.768e-06,4.005e-05,0.008698,0.0003567,1.463,0.003593,0,1,0
263400000000,263700000000,4645263687,0,5773399,0.00181,0.003284,0.01161,0.002743,0.003212,0.003284,1.526e-05,4.005e-05,0.008865,0.001499,1.484,0.003632,0,1,0
263700000000,264000000000,4645263687,0,5773399,0.001806,0.003284,0.01161,0.002747,0.00322,0.003284,4.768e-06,4.005e-05,0.008942,0.0003567,1.47,0.003614,0,1,0
264000000000,264300000000,4645263687,0,5773399,0.001812,0.003284,0.01161,0.00275,0.003223,0.003284,5.722e-06,4.005e-05,0.02411,0.0002861,1.466,0.003608,0,1,0
264300000000,264600000000,4645263687,0,5773399,0.001808,0.003284,0.01161,0.002754,0.003227,0.003284,4.768e-06,4.005e-05,0.0117,0.0002861,1.472,0.003609,0,1,0
264600000000,264900000000,4645263687,0,5773399,0.001669,0.003284,0.01161,0.002758,0.003231,0.003284,3.815e-06,4.005e-05,0.01218,0.0001431,1.321,0.003232,0,1,0
264900000000,265200000000,4645263687,0,5773399,0.00161,0.003284,0.01161,0.002766,0.003235,0.003284,6.676e-06,4.005e-05,0.00824,0.0007143,1.228,0.00298,0,1,0
265200000000,265500000000,4645263687,0,5773399,0.001593,0.003284,0.01161,0.002769,0.003242,0.003284,9.537e-06,4.005e-05,0.04865,0.0007143,1.226,0.003014,0,1,0
265500000000,265800000000,4645263687,0,5773399,0.001598,0.003284,0.01161,0.002773,0.003246,0.003284,1.049e-05,4.005e-05,0.0106,0.001215,1.232,0.003073,0,1,0
265800000000,266100000000,4645263687,0,5773399,0.001623,0.003284,0.01161,0.002777,0.00325,0.003284,1.621e-05,4.005e-05,0.01054,0.002644,1.252,0.003104,0,1,0
266100000000,266400000000,4645263687,0,5773399,0.001619,0.003284,0.01161,0.002781,0.003254,0.003284,4.768e-06,4.005e-05,0.01149,0.0002861,1.236,0.003012,0,1,0
266400000000,266700000000,4645263687,0,5773399,0.001614,0.003284,0.01161,0.002789,0.003262,0.003284,4.768e-06,4.005e-05,0.007683,0.0001431,1.245,0.003042,0,1,0
266700000000,267000000000,4645263687,0,5773399,0.00161,0.003284,0.01161,0.002792,0.003265,0.003284,4.768e-06,4.005e-05,0.009705,0.0004282,1.22,0.002979,0,1,0
267000000000,267300000000,4645263687,0,5773399,0.001614,0.003284,0.01161,0.002796,0.003269,0.003284,5.722e-06,4.005e-05,0.008255,0.0003567,1.221,0.002999,0,1,0
267300000000,267600000000,4645263687,0,5773399,0.001635,0.003284,0.01161,0.0028,0.003273,0.003284,4.768e-06,4.005e-05,0.00856,0.0003567,1.282,0.003257,0,1,0
267600000000,267900000000,4645263687,0,5773399,0.001629,0.003284,0.01161,0.002804,0.003277,0.003284,5.722e-06,4.005e-05,0.009491,0.0002146,1.267,0.003194,0,1,0
267900000000,268200000000,4645263687,0,5773399,0.001608,0.003284,0.01161,0.002811,0.003284,0.003284,1.431e-05,4.005e-05,0.009354,0.001429,1.243,0.003094,0,1,0
268200000000,268500000000,4645263687,0,5773399,0.001593,0.003284,0.01161,0.002815,0.003288,0.003284,2.384e-05,4.005e-05,0.007706,0.002071,1.221,0.00302,0,1,0
268500000000,268800000000,4645263687,0,5773399,0.001596,0.003284,0.01161,0.002819,0.003292,0.003284,1.049e-05,4.005e-05,0.007362,0.001143,1.216,0.002988,0,1,0
268800000000,269100000000,4645263687,0,5773399,0.001596,0.003284,0.01161,0.002823,0.003296,0.003284,5.722e-06,4.005e-05,0.007149,0.0002861,1.208,0.002974,0,1,0
269100000000,269400000000,4645263687,0,5773399,0.001595,0.003284,0.01161,0.002831,0.0033,0.003284,5.722e-06,4.005e-05,0.01044,0.0005713,1.223,0.002976,0,1,0
269400000000,269700000000,4645263687,0,5773399,0.001604,0.003284,0.01161,0.002834,0.003307,0.003284,6.676e-06,3.91e-05,0.007233,0.0002861,1.223,0.002998,0,1,0
269700000000,270000000000,4645263687,0,5773399,0.001583,0.003284,0.01161,0.002838,0.003311,0.003284,5.722e-06,3.91e-05,0.01035,0.0003567,1.211,0.002966,0,1,0
270000000000,270300000000,4645263687,0,5773399,0.001585,0.003284,0.01161,0.002842,0.003315,0.003284,6.676e-06,3.91e-05,0.009552,0.0005713,1.212,0.002999,0,1,0
270300000000,270600000000,4645263687,0,5773399,0.001581,0.003284,0.01161,0.002846,0.003319,0.003284,8.583e-06,3.91e-05,0.008072,0.001143,1.2,0.002952,0,1,0
270600000000,270900000000,4645263687,0,5773399,0.001577,0.003284,0.01161,0.002853,0.003323,0.003284,3.815e-06,3.91e-05,0.009491,0.0001431,1.201,0.002969,0,1,0
270900000000,271200000000,4645263687,0,5773399,0.001583,0.003284,0.01161,0.002857,0.00333,0.003284,7.629e-06,3.91e-05,0.009293,0.001072,1.213,0.00297,0,1,0
271200000000,271500000000,4645263687,0,5773399,0.001585,0.003284,0.01161,0.002861,0.003334,0.003284,1.621e-05,3.91e-05,0.007126,0.0002861,1.225,0.002997,0,1,0
281400000000,281700000000,4645263687,0,5773399,0.001598,0.003284,0.01161,0.002697,0.003174,0.003284,6.676e-06,4.005e-05,0.008942,0.0004997,1.232,0.00294,0,1,0
281700000000,282000000000,4645263687,0,5773399,0.001612,0.003284,0.01161,0.002701,0.003178,0.003284,4.768e-06,4.005e-05,0.01073,0.0002861,1.252,0.002958,0,1,0
282000000000,282300000000,4645263687,0,5773399,0.001619,0.003284,0.01161,0.002705,0.003181,0.003284,6.676e-06,4.005e-05,0.009399,0.0002146,1.294,0.003272,0,1,0
282300000000,282600000000,4645263687,0,5773399,0.001612,0.003284,0.01161,0.002712,0.003185,0.003284,1.24e-05,4.005e-05,0.009659,0.001572,1.261,0.003114,0,1,0
282600000000,282900000000,4645263687,0,5773399,0.001587,0.003284,0.01161,0.002716,0.003189,0.003284,6.676e-06,4.005e-05,0.01184,0.0003567,1.226,0.002969,0,1,0
282900000000,283200000000,4645263687,0,5773399,0.001556,0.003284,0.01161,0.00272,0.003197,0.003284,7.629e-06,4.005e-05,0.01025,0.001215,1.168,0.002737,0,1,0
283200000000,283500000000,4645263687,0,5773399,0.00157,0.003284,0.01161,0.002724,0.003201,0.003284,9.537e-06,4.005e-05,0.009933,0.001572,1.176,0.002753,0,1,0
283500000000,283800000000,4645263687,0,5773399,0.001577,0.003284,0.01161,0.002728,0.003204,0.003284,5.722e-06,4.005e-05,0.009415,0.0002861,1.177,0.002752,0,1,0
283800000000,284100000000,4645263687,0,5773399,0.001564,0.003284,0.01161,0.002735,0.003208,0.003284,4.768e-06,4.005e-05,0.009766,0.0003567,1.171,0.002744,0,1,0
284100000000,284400000000,4645263687,0,5773399,0.00156,0.003284,0.01161,0.002739,0.003212,0.003284,5.722e-06,4.005e-05,0.009613,0.0004997,1.198,0.002847,0,1,0
284400000000,284700000000,4645263687,0,5773399,0.001579,0.003284,0.01161,0.002743,0.00322,0.003284,3.815e-06,4.005e-05,0.007736,0.0001431,1.194,0.002764,0,1,0
284700000000,285000000000,4645263687,0,5773399,0.001575,0.003284,0.01161,0.002747,0.003223,0.003284,4.768e-06,4.005e-05,0.008362,0.0002861,1.186,0.002787,0,1,0
285000000000,285300000000,4645263687,0,5773399,0.001554,0.003284,0.01161,0.00275,0.003227,0.003284,3.815e-06,4.005e-05,0.009567,0.0001431,1.159,0.002675,0,1,0
285300000000,285600000000,4645263687,0,5773399,0.001579,0.003284,0.01161,0.002758,0.003231,0.003284,5.722e-06,4.005e-05,0.01012,0.0002861,1.2,0.002727,0,1,0
285600000000,285900000000,4645263687,0,5773399,0.001574,0.003284,0.01161,0.002762,0.003239,0.003284,1.812e-05,4.005e-05,0.008041,0.001785,1.186,0.002715,0,1,0
285900000000,286200000000,4645263687,0,5773399,0.001554,0.003284,0.01161,0.002766,0.003242,0.003284,5.722e-06,4.005e-05,0.01003,0.0003567,1.145,0.002626,0,1,0
286200000000,286500000000,4645263687,0,5773399,0.001541,0.003284,0.01161,0.002769,0.003246,0.003284,8.583e-06,4.005e-05,0.01016,0.001215,1.135,0.002631,0,1,0
286500000000,286800000000,4645263687,0,5773399,0.001619,0.003284,0.01161,0.002773,0.00325,0.003284,8.583e-06,4.005e-05,0.008301,0.0004282,1.236,0.002907,0,1,0
286800000000,287100000000,4645263687,0,5773399,0.001806,0.003284,0.01161,0.002781,0.003254,0.003284,5.722e-06,4.005e-05,0.008575,0.0002146,1.442,0.003451,0,1,0
287100000000,287400000000,4645263687,0,5773399,0.001789,0.003284,0.01161,0.002785,0.003262,0.003284,6.676e-06,4.005e-05,0.01178,0.0004997,1.442,0.003429,0,1,0
287400000000,287700000000,4645263687,0,5773399,0.00177,0.003284,0.01161,0.002789,0.003265,0.003284,7.629e-06,4.005e-05,0.008591,0.0003567,1.434,0.00357,0,1,0
287700000000,288000000000,4645263687,0,5773399,0.001795,0.003284,0.01161,0.002792,0.003269,0.003284,4.768e-06,4.005e-05,0.008057,0.0002861,1.437,0.003404,0,1,0
288000000000,288300000000,4645263687,0,5773399,0.001795,0.003284,0.01161,0.002796,0.003273,0.003284,3.815e-06,4.005e-05,0.01076,0.0001431,1.43,0.003358,0,1,0
288300000000,288600000000,4645263687,0,5773399,0.001726,0.003284,0.01161,0.002804,0.003277,0.003284,9.537e-06,4.005e-05,0.0101,0.001715,1.374,0.003234,0,1,0
288600000000,288900000000,4645263687,0,5773399,0.001547,0.003284,0.01161,0.002808,0.003284,0.003284,4.768e-06,4.005e-05,0.007339,0.0002146,1.171,0.002782,0,1,0
288900000000,289200000000,4645263687,0,5773399,0.001579,0.003284,0.01161,0.002811,0.003288,0.003284,1.431e-05,4.005e-05,0.009857,0.002213,1.237,0.003034,0,1,0
289200000000,289500000000,4645263687,0,5773399,0.001612,0.003284,0.01161,0.002815,0.003292,0.003284,1.049e-05,4.005e-05,0.009186,0.001715,1.262,0.003073,0,1,0
289500000000,289800000000,4645263687,0,5773399,0.001623,0.003284,0.01161,0.002819,0.003296,0.003284,8.583e-06,4.005e-05,0.007721,0.0006428,1.241,0.002907,0,1,0
289800000000,290100000000,4645263687,0,5773399,0.00157,0.003284,0.01161,0.002827,0.0033,0.003284,5.722e-06,4.005e-05,0.00943,0.0002146,1.203,0.00277,0,1,0
290100000000,290400000000,4645263687,0,5773399,0.001562,0.003284,0.01161,0.002831,0.003307,0.003284,3.815e-06,3.91e-05,0.00708,0.0002146,1.185,0.002752,0,1,0
290400000000,290700000000,4645263687,0,5773399,0.001535,0.003284,0.01161,0.002834,0.003311,0.003284,6.676e-06,3.91e-05,0.006622,0.0003567,1.152,0.002628,0,1,0
290700000000,291000000000,4645263687,0,5773399,0.001551,0.003284,0.01161,0.002838,0.003315,0.003284,3.815e-06,3.91e-05,0.006897,0.0002861,1.138,0.002534,0,1,0
291000000000,291300000000,4645263687,0,5773399,0.001547,0.003284,0.01161,0.002846,0.003319,0.003284,4.768e-06,3.91e-05,0.007729,0.0001431,1.169,0.002665,0,1,0
291300000000,291600000000,4645263687,0,5773399,0.001558,0.003284,0.01161,0.00285,0.003323,0.003284,2.098e-05,3.91e-05,0.007469,0.001858,1.172,0.002629,0,1,0
291600000000,291900000000,4645263687,0,5773399,0.001537,0.003284,0.01161,0.002853,0.00333,0.003284,5.722e-06,3.91e-05,0.009155,0.0004997,1.131,0.002549,0,1,0
291900000000,292200000000,4645263687,0,5773399,0.001545,0.003284,0.01161,0.002857,0.003334,0.003284,5.722e-06,3.91e-05,0.007401,0.0002861,1.152,0.002636,0,1,0
292200000000,292500000000,4645263687,0,5773399,0.001543,0.003284,0.01161,0.002861,0.003338,0.003284,4.768e-06,3.91e-05,0.009781,0.0001431,1.149,0.002615,0,1,0
292500000000,292800000000,4645263687,0,5773399,0.001551,0.003284,0.01161,0.002869,0.003342,0.003284,5.722e-06,3.91e-05,0.009369,0.0002861,1.167,0.002642,0,1,0
292800000000,293100000000,4645263687,0,5773399,0.001539,0.003284,0.01161,0.002872,0.003345,0.003284,7.629e-06,3.91e-05,0.008789,0.0003567,1.142,0.002597,0,1,0
293100000000,293400000000,4645263687,0,5773399,0.001545,0.003284,0.01161,0.002876,0.003353,0.003284,5.722e-06,3.91e-05,0.01091,0.0004282,1.153,0.002632,0,1,0
293400000000,293700000000,4645263687,0,5773399,0.001537,0.003284,0.01161,0.00288,0.003357,0.003284,4.768e-06,3.91e-05,0.006981,0.0001431,1.122,0.002528,0,1,0
293700000000,294000000000,4645263687,0,5773399,0.001575,0.003284,0.01161,0.002884,0.003361,0.003284,1.335e-05,3.91e-05,0.01021,0.002499,1.176,0.002648,0,1,0
294000000000,294300000000,4645263687,0,5773399,0.001545,0.003284,0.01161,0.002892,0.003365,0.003284,1.144e-05,3.91e-05,0.009537,0.002144,1.162,0.002653,0,1,0
294300000000,294600000000,4645263687,0,5773399,0.001543,0.003284,0.01161,0.002895,0.003372,0.003284,6.676e-06,3.91e-05,0.01016,0.0002861,1.143,0.002605,0,1,0
294600000000,294900000000,4645263687,0,5773399,0.001543,0.003284,0.01161,0.002899,0.003376,0.003284,8.583e-06,4.005e-05,0.009781,0.001429,1.142,0.00262,0,1,0
294900000000,295200000000,4645263687,0,5773399,0.001566,0.003284,0.01161,0.002903,0.00338,0.003284,5.722e-06,4.005e-05,0.009613,0.0002861,1.176,0.002736,0,1,0
295200000000,295500000000,4645263687,0,5773399,0.001551,0.003284,0.01161,0.002907,0.003384,0.003284,6.676e-06,4.005e-05,0.009171,0.0004997,1.157,0.002656,0,1,0
295500000000,295800000000,4645263687,0,5773399,0.001562,0.003284,0.01161,0.002914,0.003387,0.003284,8.583e-06,4.005e-05,0.008804,0.0007143,1.189,0.00273,0,1,0
295800000000,296100000000,4645263687,0,5773399,0.00156,0.003284,0.01161,0.002918,0.003395,0.003284,1.049e-05,4.005e-05,0.009735,0.001286,1.155,0.002657,0,1,0
296100000000,296400000000,4645263687,0,5773399,0.001543,0.003284,0.01161,0.002922,0.003399,0.003284,5.722e-06,4.005e-05,0.009598,0.0004997,1.17,0.002732,0,1,0
296400000000,296700000000,4645263687,0,5773399,0.001541,0.003284,0.01161,0.002926,0.003403,0.003284,4.768e-06,4.005e-05,0.007736,0.0002146,1.142,0.002599,0,1,0
296700000000,297000000000,4645263687,0,5773399,0.001545,0.003284,0.01161,0.002934,0.003407,0.003284,1.144e-05,4.005e-05,0.008041,0.001215,1.146,0.002628,0,1,0
297000000000,297300000000,4645263687,0,5773399,0.001564,0.003284,0.01161,0.002937,0.00341,0.003284,3.815e-06,4.005e-05,0.009415,0.0002861,1.174,0.002689,0,1,0
297300000000,297600000000,4645263687,0,5773399,0.001564,0.003284,0.01161,0.002941,0.003418,0.003284,4.768e-06,4.005e-05,0.007759,0.0002861,1.159,0.00267,0,1,0
297600000000,297900000000,4645263687,0,5773399,0.001558,0.003284,0.01161,0.002945,0.003422,0.003284,9.537e-06,4.005e-05,0.009033,0.001358,1.158,0.002669,0,1,0
297900000000,298200000000,4645263687,0,5773399,0.001598,0.003284,0.01161,0.002949,0.003426,0.003284,4.768e-06,4.005e-05,0.01073,0.0003567,1.234,0.002938,0,1,0
298200000000,298500000000,4645263687,0,5773399,0.001591,0.003284,0.01161,0.002956,0.003429,0.003284,3.815e-06,4.005e-05,0.01431,0.0001431,1.224,0.002869,0,1,0
298500000000,298800000000,4645263687,0,5773399,0.001606,0.003284,0.01161,0.00296,0.003433,0.003284,6.676e-06,4.005e-05,0.009293,0.0003567,1.24,0.00296,0,1,0
298800000000,299100000000,4645263687,0,5773399,0.00156,0.003284,0.01161,0.002964,0.003441,0.003284,2.861e-06,4.005e-05,0.009216,7.153e-05,1.204,0.002794,0,1,0
299100000000,299400000000,4645263687,0,5773399,0.001514,0.003284,0.01161,0.002968,0.003445,0.003284,5.722e-06,4.005e-05,0.008972,0.0002861,1.105,0.002555,0,1,0
299400000000,299700000000,4645263687,0,5773399,0.001541,0.003284,0.01161,0.002972,0.003448,0.003284,7.629e-06,4.005e-05,0.007065,0.0006428,1.13,0.002628,0,1,0
299700000000,300000000000,4645263687,0,5773399,0.001547,0.003284,0.01161,0.002975,0.003452,0.003284,2.193e-05,4.005e-05,0.0101,0.001785,1.146,0.00266,0,1,0
