5700000000,6000000000,4768896398,0,3582469736,6.676e-05,0.0002909,0.001917,0.0002813,0.0004711,0.0002956,0,0,0.0002832,7.153e-05,6.087,0.02119,0,0,5.913e-05
6000000000,6300000000,4768896398,0,3582469736,6.866e-05,0.0002899,0.001917,0.0002813,0.0004711,0.0002937,0,0,0.0004864,7.153e-05,6.318,0.02226,0,0,4.196e-05
6300000000,6600000000,4768896398,0,3582469736,6.771e-05,0.000288,0.001917,0.0002813,0.0004711,0.000288,0,0,0.0004807,0,6.269,0.02275,0,0,0.0001507
6600000000,6900000000,4768896398,0,3582469736,6.771e-05,0.0002899,0.001917,0.0002823,0.0004711,0.0002928,0,0,0.0004921,7.153e-05,6.071,0.02175,0,0,4.768e-05
6900000000,7200000000,4768896398,0,3582469736,6.866e-05,0.0002899,0.001917,0.0002823,0.0004711,0.0002928,0,0,0.0005465,7.153e-05,6.594,0.02361,0,0,0.0001726
7200000000,7500000000,4768896398,0,3582469736,6.866e-05,0.0002899,0.001917,0.0002823,0.0004711,0.0002937,0,0,0.0005798,7.153e-05,6.27,0.0225,0,0,0.0001631
7500000000,7800000000,4768896398,0,3582469736,6.962e-05,0.000288,0.001917,0.0002823,0.0004711,0.000288,0,0,0.0006723,0,6.403,0.02289,0,0,2.289e-05
7800000000,8100000000,4768896398,0,3582469736,6.771e-05,0.0002899,0.001917,0.0002823,0.0004711,0.0002937,0,0,0.0005846,7.153e-05,6.05,0.02154,0,0,2.289e-05
8100000000,8400000000,4768896398,0,3582469736,6.771e-05,0.0002871,0.001917,0.0002823,0.0004711,0.000288,0,0,0.0006266,0,5.696,0.02016,0,0,3.147e-05
8400000000,8700000000,4768896398,0,3582469736,6.676e-05,0.0002918,0.001917,0.0002823,0.0004711,0.0002985,0,0,0.0006542,7.153e-05,5.977,0.02147,0,0,0.0002337
8700000000,9000000000,4768896398,0,3582469736,6.58e-05,0.000288,0.001917,0.0002823,0.0004711,0.0002937,0,0,0.0005865,0,5.849,0.02086,0,0,2.098e-05
9000000000,9300000000,4768896398,0,3582469736,6.771e-05,0.000289,0.001917,0.0002823,0.0004711,0.0002928,0,0,0.0005665,7.153e-05,6.171,0.02218,0,0,3.338e-05
9300000000,9600000000,4768896398,0,3582469736,6.58e-05,0.0002871,0.001917,0.0002823,0.0004711,0.0002871,0,0,0.0006104,0,6.11,0.02217,0,0,4.196e-05
9600000000,9900000000,4768896398,0,3582469736,6.58e-05,0.0002899,0.001917,0.0002823,0.0004721,0.0002928,0,0,0.0005522,7.153e-05,6.009,0.02187,0,0,2.289e-05
9900000000,10200000000,4768896398,0,3582469736,6.676e-05,0.0002871,0.001917,0.0002823,0.0004721,0.0002871,0,0,0.0004482,0,6.184,0.02303,0,0,5.531e-05
10200000000,10500000000,4768896398,0,3582469736,6.676e-05,0.0002899,0.001917,0.0002823,0.0004721,0.0002928,0,0,0.0003853,7.153e-05,6.475,0.02364,0,0,5.627e-05
10500000000,10800000000,4768896398,0,3582469736,7.057e-05,0.0002871,0.001917,0.0002823,0.0004721,0.000288,0,0,0.000453,0,6.026,0.02101,0,0,4.387e-05
10800000000,11100000000,4768896398,0,3582469736,7.057e-05,0.0002899,0.001917,0.0002823,0.0004721,0.0002928,0,0,0.0002689,7.153e-05,6.163,0.02225,0,0,0.0001554
11100000000,11400000000,4768896398,0,3582469736,6.771e-05,0.0002871,0.001917,0.0002823,0.0004721,0.000288,0,0,0.0005178,0,6.17,0.02244,0,0,3.433e-05
11400000000,11700000000,4768896398,0,3582469736,6.676e-05,0.0002899,0.001917,0.0002823,0.0004721,0.0002928,1.907e-06,0,0.0001688,0.0005713,5.542,0.01967,0,0,5.722e-05
11700000000,12000000000,4768896398,0,3582469736,6.771e-05,0.0002871,0.001917,0.0002823,0.0004721,0.0002871,0,0,0.0002251,0,5.673,0.02026,0,0,3.147e-05
12000000000,12300000000,4768896398,0,3582469736,6.866e-05,0.0002899,0.001917,0.0002823,0.0004721,0.0002928,0,0,0.0002079,7.153e-05,5.754,0.02049,0,0,5.722e-06
12600000000,12900000000,4768896398,0,2850407,4.959e-05,0.0003252,0.001911,8.583e-06,0.0001955,0.0003948,9.537e-07,0,0.0001497,7.153e-05,24.42,0.1054,0,0,2.766e-05
12900000000,13200000000,4768896398,0,2850407,5.627e-05,0.0003195,0.001913,1.049e-05,0.0001974,0.0003347,1.621e-05,0,0.0003853,0.00457,14.83,0.06526,0,0,6.58e-05
13200000000,13500000000,4768896398,0,2850407,6.771e-05,0.0003157,0.001913,1.24e-05,0.0002022,0.0003281,0,0,0.0002565,7.153e-05,5.547,0.02009,0,0,1.812e-05
13500000000,13800000000,4768896398,0,2850407,6.58e-05,0.0003119,0.001913,1.24e-05,0.0002022,0.0003176,9.537e-07,0,0.0001783,0.0004282,5.625,0.02049,0,0,4.768e-05
13800000000,14100000000,4768896398,0,2850407,6.58e-05,0.0003071,0.001913,1.24e-05,0.0002022,0.0003119,0,0,0.0001945,0,6.075,0.02294,0,0,2.67e-05
14100000000,14400000000,4768896398,0,2850407,6.58e-05,0.000308,0.001913,1.24e-05,0.0002022,0.0003157,0,0,0.0001802,7.153e-05,5.603,0.02024,0,0,2.098e-05
14400000000,14700000000,4768896398,0,2850407,6.58e-05,0.0003052,0.001913,1.24e-05,0.0002022,0.0003157,0,0,0.0001764,0,5.164,0.01923,0,0,4.768e-05
14700000000,15000000000,4768896398,0,2850407,6.485e-05,0.0003052,0.001913,1.24e-05,0.0002022,0.000309,0,0,0.0001984,7.153e-05,5.49,0.02042,0,0,6.58e-05
15000000000,15300000000,4768896398,0,2850407,6.39e-05,0.0003042,0.001913,1.24e-05,0.0002022,0.000309,0,0,0.0001945,0,5.342,0.02025,0,0,1.526e-05
15300000000,15600000000,4768896398,0,2850407,6.39e-05,0.0003042,0.001913,1.24e-05,0.0002022,0.000309,0,0,0.0001831,7.153e-05,5.165,0.0192,0,0,5.341e-05
15600000000,15900000000,4768896398,0,2850407,6.39e-05,0.0003042,0.001913,1.24e-05,0.0002022,0.000309,0,0,0.0002022,0,5.174,0.01935,0,0,2.098e-05
15900000000,16200000000,4768896398,0,2850407,6.485e-05,0.0003071,0.001913,1.24e-05,0.0002022,0.0003099,9.537e-07,0,0.0002337,7.153e-05,5.022,0.01835,0,0,2.289e-05
16200000000,16500000000,4768896398,0,2850407,6.58e-05,0.0003033,0.001913,1.24e-05,0.0002022,0.000309,0,0,0.0002327,0,5.264,0.01883,0,0,4.864e-05
16500000000,16800000000,4768896398,0,2850407,6.676e-05,0.0003042,0.001913,1.24e-05,0.0002022,0.000308,0,0,0.00033,7.153e-05,5.345,0.01986,0,0,6.485e-05
16800000000,17100000000,4768896398,0,2850407,6.676e-05,0.0003033,0.001913,1.24e-05,0.0002022,0.000308,0,0,0.0002518,0,5.654,0.021,0,0,2.575e-05
17100000000,17400000000,4768896398,0,2850407,6.58e-05,0.0003042,0.001913,1.24e-05,0.0002022,0.000308,0,0,0.0005693,7.153e-05,5.668,0.02108,0,0,2.384e-05
17400000000,17700000000,4768896398,0,2850407,6.676e-05,0.0003033,0.001913,1.24e-05,0.0002022,0.000308,0,0,0.0002832,0,5.067,0.01817,0,0,2.003e-05
17700000000,18000000000,4768896398,0,2850407,6.676e-05,0.0003042,0.001913,1.335e-05,0.0002022,0.000309,0,0,0.0002766,7.153e-05,5.306,0.01931,0,0,2.575e-05
18000000000,18300000000,4768896398,0,2850407,6.771e-05,0.0003033,0.001913,1.335e-05,0.0002022,0.000308,0,0,0.0002499,0,5.461,0.02001,0,0,4.959e-05
18300000000,18600000000,4768896398,0,2850407,6.485e-05,0.0003033,0.001913,1.335e-05,0.0002022,0.000308,0,0,0.0003176,7.153e-05,5.241,0.01936,0,0,9.06e-05
18600000000,18900000000,4768896398,0,2850407,6.485e-05,0.0003033,0.001913,1.335e-05,0.0002022,0.000308,0,0,0.0002575,0,5.13,0.01863,0,0,3.338e-05
18900000000,19200000000,4768896398,0,2850407,6.294e-05,0.0003052,0.001913,1.335e-05,0.0002022,0.0003147,1.907e-06,0,0.0004978,0.0003567,4.999,0.01871,0,0,2.289e-05
19200000000,19500000000,4768896398,0,2850407,6.58e-05,0.0003042,0.001913,1.431e-05,0.0002031,0.0003138,0,0,0.0003071,0,5.217,0.01931,0,0,3.433e-05
19500000000,19800000000,4768896398,0,2850407,6.294e-05,0.0003033,0.001913,1.431e-05,0.0002031,0.000308,0,0,0.0002184,7.153e-05,4.898,0.01824,0,0,3.147e-05
19800000000,20100000000,4768896398,0,2850407,6.294e-05,0.0003033,0.001913,1.431e-05,0.0002031,0.000308,0,0,0.0002546,0,5.002,0.0185,0,0,2.861e-05
20100000000,20400000000,4768896398,0,2850407,6.485e-05,0.0003033,0.001913,1.431e-05,0.0002031,0.000308,0,0,0.0002775,7.153e-05,5.08,0.01878,0,0,1.621e-05
20400000000,20700000000,4768896398,0,2850407,6.39e-05,0.0003052,0.001913,1.431e-05,0.0002031,0.000308,2.861e-06,0,0.0002127,0.0007143,4.986,0.01871,0,0,3.433e-05
20700000000,21000000000,4768896398,0,2850407,6.39e-05,0.0003033,0.001913,1.431e-05,0.0002041,0.0003071,0,0,0.0002136,7.153e-05,5.528,0.02065,0,0,3.719e-05
21000000000,21300000000,4768896398,0,2850407,6.58e-05,0.0003023,0.001913,1.431e-05,0.0002041,0.0003071,0,0,0.0002375,7.153e-05,5.059,0.01878,0,0,4.005e-05
21300000000,21600000000,4768896398,0,2850407,6.485e-05,0.0003042,0.001913,1.431e-05,0.0002041,0.0003071,0,0,0.0003576,7.153e-05,5.812,0.02235,0,0,7.248e-05
21600000000,21900000000,4768896398,0,2850407,6.58e-05,0.0003023,0.001913,1.431e-05,0.0002041,0.0003071,0,0,0.0002041,7.153e-05,5.138,0.01892,0,0,2.48e-05
21900000000,22200000000,4768896398,0,2850407,6.58e-05,0.0003042,0.001913,1.431e-05,0.0002041,0.0003071,0,0,0.000227,7.153e-05,5.217,0.01933,0,0,4.387e-05
22200000000,22500000000,4768896398,0,2850407,6.58e-05,0.0003014,0.001913,1.431e-05,0.0002041,0.0003071,0,0,0.0001888,0,5.281,0.01956,0,0,2.384e-05
22500000000,22800000000,4768896398,0,2850407,6.39e-05,0.0003014,0.001913,1.431e-05,0.0002041,0.0003061,0,0,0.0001926,7.153e-05,4.936,0.01795,0,0,4.482e-05
22800000000,23100000000,4768896398,0,2850407,6.58e-05,0.0003014,0.001913,1.431e-05,0.0002041,0.0003061,0,0,0.0002155,0,5.17,0.01874,0,0,5.722e-06
23100000000,23400000000,4768896398,0,2850407,6.199e-05,0.0003014,0.001913,1.431e-05,0.0002041,0.0003052,0,0,0.0003977,7.153e-05,4.836,0.01796,0,0,4.864e-05
23400000000,23700000000,4768896398,0,2850407,6.199e-05,0.0003004,0.001913,1.431e-05,0.0002041,0.0003052,0,0,0.0001688,0,4.902,0.01815,0,0,3.624e-05
23700000000,24000000000,4768896398,0,2850407,6.294e-05,0.0003014,0.001913,1.431e-05,0.0002041,0.0003052,0,0,0.0001926,7.153e-05,4.592,0.01679,0,0,6.676e-05
24000000000,24300000000,4768896398,0,2850407,6.294e-05,0.0003004,0.001913,1.431e-05,0.0002041,0.0003052,0,0,0.000165,0,5.063,0.01897,0,0,2.956e-05
24300000000,24600000000,4768896398,0,2850407,6.294e-05,0.0003014,0.001913,1.431e-05,0.0002041,0.0003052,0,0,0.0006647,7.153e-05,5.239,0.01978,0,0,3.147e-05
24600000000,24900000000,4768896398,0,2850407,6.39e-05,0.0003004,0.001913,1.431e-05,0.0002041,0.0003052,0,0,0.000185,0,4.962,0.01841,0,0,3.338e-05
24900000000,25200000000,4768896398,0,2850407,6.39e-05,0.0003004,0.001913,1.431e-05,0.0002041,0.0003052,0,0,0.000226,7.153e-05,4.797,0.01755,0,0,4.959e-05
25200000000,25500000000,4768896398,0,2850407,6.294e-05,0.0003014,0.001913,1.431e-05,0.0002041,0.0003061,0,0,0.0001955,7.153e-05,4.956,0.0183,0,0,4.101e-05
25500000000,25800000000,4768896398,0,2850407,6.294e-05,0.0003023,0.001913,1.431e-05,0.0002041,0.0003061,0,0,0.0001955,7.153e-05,4.9,0.01846,0,0,9.06e-05
25800000000,26100000000,4768896398,0,2850407,6.199e-05,0.0003004,0.001913,1.431e-05,0.0002041,0.0003052,0,0,0.0001669,0,5.008,0.01844,0,0,5.436e-05
26100000000,26400000000,4768896398,0,2850407,6.676e-05,0.0003004,0.001913,1.431e-05,0.0002041,0.0003052,0,0,0.0002337,7.153e-05,4.989,0.01763,0,0,2.384e-05
26400000000,26700000000,4768896398,0,2850407,6.39e-05,0.0002995,0.001913,1.431e-05,0.0002041,0.0003042,0,0,0.0002203,0,5.219,0.01908,0,0,5.245e-05
26700000000,27000000000,4768896398,0,2850407,6.39e-05,0.0003004,0.001913,1.431e-05,0.0002041,0.0003042,0,0,0.0002012,7.153e-05,4.916,0.01831,0,0,2.67e-05
27000000000,27300000000,4768896398,0,2850407,6.294e-05,0.0002995,0.001913,1.431e-05,0.0002041,0.0003042,0,0,0.0001898,0,4.9,0.01818,0,0,5.054e-05
27300000000,27600000000,4768896398,0,2850407,6.294e-05,0.0003004,0.001913,1.431e-05,0.0002041,0.0003042,0,0,0.0002403,7.153e-05,5.123,0.01918,0,0,0.0001154
27600000000,27900000000,4768896398,0,2850407,6.485e-05,0.0002995,0.001913,1.431e-05,0.0002041,0.0003042,0,0,0.0001545,0,5.273,0.01948,0,0,2.098e-05
27900000000,28200000000,4768896398,0,2850407,6.294e-05,0.0003004,0.001913,1.431e-05,0.0002041,0.0003042,0,0,0.0001516,0.0001431,5.068,0.0185,0,0,3.91e-05
28200000000,28500000000,4768896398,0,2850407,6.485e-05,0.0002995,0.001913,1.431e-05,0.0002041,0.0003042,0,0,0.0002146,0,5.065,0.01855,0,0,8.011e-05
28500000000,28800000000,4768896398,0,2850407,6.962e-05,0.0003004,0.001913,1.431e-05,0.0002041,0.0003042,0,0,0.0001707,7.153e-05,5.407,0.01925,0,0,4.864e-05
28800000000,29100000000,4768896398,0,2850407,6.485e-05,0.0002995,0.001913,1.431e-05,0.0002041,0.0003042,0,0,0.0001583,0,5.357,0.01957,0,0,9.155e-05
29100000000,29400000000,4768896398,0,2850407,6.58e-05,0.0002995,0.001913,1.431e-05,0.0002041,0.0003042,0,0,0.0002527,7.153e-05,5.242,0.01933,0,0,4.864e-05
29400000000,29700000000,4768896398,0,2850407,6.58e-05,0.0002995,0.001913,1.431e-05,0.0002041,0.0003042,0,0,0.0002298,0,5.15,0.01869,0,0,3.91e-05
29700000000,30000000000,4768896398,0,2850407,6.58e-05,0.0002995,0.001913,1.431e-05,0.0002041,0.0003042,0,0,0.0002136,7.153e-05,5.312,0.01904,0,0,9.727e-05
30000000000,30300000000,4768896398,0,2850407,6.58e-05,0.0002995,0.001913,1.431e-05,0.0002041,0.0003042,0,0,0.0002041,0,5.25,0.0188,0,0,8.965e-05
30300000000,30600000000,4768896398,0,2850407,6.58e-05,0.0002995,0.001913,1.431e-05,0.0002041,0.0003042,0,0,0.0004845,7.153e-05,5.595,0.0204,0,0,5.436e-05
30600000000,30900000000,4768896398,0,2850407,6.58e-05,0.0002995,0.001913,1.431e-05,0.0002041,0.0003042,0,0,0.0002384,0,5.29,0.01933,0,0,8.965e-05
30900000000,31200000000,4768896398,0,2850407,6.676e-05,0.0002995,0.001913,1.431e-05,0.0002041,0.0003042,0,0,0.0002041,7.153e-05,5.333,0.01927,0,0,8.869e-05
31200000000,31500000000,4768896398,0,2850407,6.58e-05,0.0002995,0.001913,1.431e-05,0.0002041,0.0003042,0,0,0.0002136,0,5.292,0.01904,0,0,4.959e-05
31500000000,31800000000,4768896398,0,2850407,6.676e-05,0.0002995,0.001913,1.431e-05,0.0002041,0.0003042,0,0,0.0002785,7.153e-05,5.439,0.01977,0,0,7.057e-05
31800000000,32100000000,4768896398,0,2850407,6.58e-05,0.0002985,0.001913,1.431e-05,0.0002041,0.0003033,0,0,0.0002241,0,5.23,0.01898,0,0,0.0001793
32100000000,32400000000,4768896398,0,2850407,6.771e-05,0.0002995,0.001913,1.431e-05,0.0002041,0.0003042,0,0,0.0002165,7.153e-05,5.365,0.01944,0,0,3.147e-05
32700000000,33000000000,4768896398,0,1199509709,5.531e-05,0.0002985,0.001917,0.0002851,0.0004711,0.0004301,9.537e-07,0,0.0002079,7.153e-05,25.97,0.1103,0,0,2.289e-05
33000000000,33300000000,4768896398,0,1199509709,6.485e-05,0.0002871,0.001917,0.0002842,0.0004721,0.0002956,2.861e-06,0,0.0005817,0.0005713,10.57,0.04106,0,0,5.817e-05
33300000000,33600000000,4768896398,0,1199509709,7.534e-05,0.0002851,0.001917,0.0002832,0.000473,0.0002937,0,0,0.0006638,7.153e-05,5.475,0.01906,0,0,2.48e-05
33600000000,33900000000,4768896398,0,1199509709,7.248e-05,0.0002823,0.001917,0.0002832,0.000473,0.0002861,0,0,0.0002031,7.153e-05,5.743,0.01945,0,0,0.0001144
33900000000,34200000000,4768896398,0,1199509709,7.057e-05,0.0002842,0.001917,0.0002832,0.000473,0.000288,0,0,0.0002928,7.153e-05,5.253,0.01789,0,0,3.338e-05
34200000000,34500000000,4768896398,0,1199509709,7.153e-05,0.0002823,0.001917,0.0002832,0.000473,0.0002861,0,0,0.0001965,7.153e-05,5.275,0.01792,0,0,7.534e-05
34500000000,34800000000,4768896398,0,1199509709,7.153e-05,0.0002813,0.001917,0.0002832,0.000473,0.0002861,0,0,0.0002213,0,5.406,0.01874,0,0,4.673e-05
34800000000,35100000000,4768896398,0,1199509709,7.057e-05,0.0002832,0.001917,0.0002832,0.000473,0.0002871,0,0,0.0001869,7.153e-05,5.184,0.01811,0,0,9.346e-05
35100000000,35400000000,4768896398,0,1199509709,7.248e-05,0.0002851,0.001917,0.0002842,0.000473,0.0002899,9.537e-07,0,0.0002279,0.0002146,5.58,0.01942,0,0,9.823e-05
35400000000,35700000000,4768896398,0,1199509709,7.057e-05,0.0002842,0.001917,0.0002842,0.000474,0.0002899,2.861e-06,0,0.0003757,0.0008574,5.145,0.01761,0,0,4.578e-05
35700000000,36000000000,4768896398,0,1199509709,6.962e-05,0.0002813,0.001917,0.0002842,0.000474,0.0002871,0,0,0.0002213,0,5.157,0.01786,0,0,6.104e-05
36000000000,36300000000,4768896398,0,1199509709,7.153e-05,0.0002823,0.001917,0.0002842,0.000474,0.0002861,0,0,0.0002146,7.153e-05,5.23,0.01791,0,0,6.58e-05
36300000000,36600000000,4768896398,0,1199509709,7.248e-05,0.0002813,0.001917,0.0002842,0.000474,0.0002851,0,0,0.000205,0,6.164,0.02208,0,0,5.722e-05
36600000000,36900000000,4768896398,0,1199509709,7.153e-05,0.0002823,0.001917,0.0002842,0.000474,0.0002851,0,0,0.0002031,7.153e-05,5.624,0.01953,0,0,2.48e-05
36900000000,37200000000,4768896398,0,1199509709,7.534e-05,0.0002804,0.001917,0.0002842,0.000474,0.0002851,0,0,0.0002289,0,5.985,0.0207,0,0,2.956e-05
37200000000,37500000000,4768896398,0,1199509709,7.629e-05,0.0002813,0.001917,0.0002842,0.000474,0.0002861,0,0,0.0004768,7.153e-05,6.205,0.02149,0,0,3.338e-05
37500000000,37800000000,4768896398,0,1199509709,7.343e-05,0.0002832,0.001917,0.0002842,0.000474,0.000288,0,0,0.0002337,7.153e-05,5.813,0.02058,0,0,6.866e-05
37800000000,38100000000,4768896398,0,1199509709,7.153e-05,0.0002813,0.001917,0.0002842,0.000474,0.0002851,0,0,0.0002098,7.153e-05,5.84,0.02101,0,0,6.294e-05
38100000000,38400000000,4768896398,0,1199509709,7.057e-05,0.0002804,0.001917,0.0002842,0.000474,0.0002842,0,0,0.0003328,0,5.508,0.01895,0,0,5.531e-05
38400000000,38700000000,4768896398,0,1199509709,7.248e-05,0.0002813,0.001917,0.0002842,0.000474,0.0002851,0,0,0.000247,7.153e-05,5.841,0.02037,0,0,2.098e-05
38700000000,39000000000,4768896398,0,1199509709,7.153e-05,0.0002794,0.001917,0.0002842,0.000474,0.0002851,0,0,0.0002909,0,5.04,0.01712,0,0,1.621e-05
39000000000,39300000000,4768896398,0,1199509709,7.057e-05,0.0002813,0.001917,0.0002842,0.000474,0.0002851,0,0,0.0002232,7.153e-05,4.703,0.01547,0,0,2.003e-05
39300000000,39600000000,4768896398,0,1199509709,7.057e-05,0.0002794,0.001917,0.0002842,0.000474,0.0002851,0,0,0.0002403,0,4.787,0.01588,0,0,0.0002098
39900000000,40200000000,4768896398,0,854225269,5.341e-05,0.0002794,0.001915,7.629e-06,0.0001945,0.0002899,1.907e-06,0,0.0002375,0.0002861,25.38,0.1083,0,0,3.91e-05
40200000000,40500000000,4768896398,0,854225269,6.294e-05,0.0002832,0.001917,9.537e-06,0.0001974,0.0002956,1.24e-05,0,0.0007248,0.003643,9.641,0.03701,0,0,2.289e-05
40500000000,40800000000,4768896398,0,854225269,6.866e-05,0.0002794,0.001917,1.144e-05,0.0002012,0.000288,0,0,0.000206,7.153e-05,5.454,0.01924,0,0,1.526e-05
51000000000,51300000000,4768896398,0,478288469,7.248e-05,0.0002737,0.001917,0.0002823,0.0004711,0.0002756,0,0,0.0005331,7.153e-05,5.42,0.01825,0,0,9.251e-05
51300000000,51600000000,4768896398,0,478288469,7.153e-05,0.0002708,0.001917,0.0002823,0.0004711,0.0002756,0,0,0.0002756,7.153e-05,4.842,0.01601,0,0,3.815e-05
51600000000,51900000000,4768896398,0,478288469,7.057e-05,0.0002718,0.001917,0.0002823,0.0004711,0.0002756,0,0,0.0003462,0,4.58,0.01501,0,0,1.907e-05
51900000000,52200000000,4768896398,0,478288469,7.057e-05,0.0002708,0.001917,0.0002823,0.0004711,0.0002756,0,0,0.0004215,7.153e-05,4.671,0.01539,0,0,7.629e-05
52200000000,52500000000,4768896398,0,478288469,7.534e-05,0.0002747,0.001917,0.0002823,0.0004711,0.0002775,0,0,0.0004129,7.153e-05,5.083,0.01656,0,0,2.575e-05
52500000000,52800000000,4768896398,0,478288469,7.057e-05,0.0002708,0.001917,0.0002823,0.0004711,0.0002756,0,0,0.000308,7.153e-05,5,0.01648,0,0,1.431e-05
52800000000,53100000000,4768896398,0,478288469,6.866e-05,0.0002718,0.001917,0.0002823,0.0004711,0.0002756,0,0,0.000246,0,4.436,0.01457,0,0,2.098e-05
53100000000,53400000000,4768896398,0,478288469,6.771e-05,0.0002708,0.001917,0.0002823,0.0004711,0.0002756,0,0,0.0001936,7.153e-05,4.432,0.01422,0,0,2.193e-05
53400000000,53700000000,4768896398,0,478288469,6.962e-05,0.0002728,0.001917,0.0002823,0.0004711,0.0002766,0,0,0.0002899,0,4.679,0.01545,0,0,7.629e-06
53700000000,54000000000,4768896398,0,478288469,7.057e-05,0.0002708,0.001917,0.0002823,0.0004711,0.0002747,0,0,0.0005178,7.153e-05,4.416,0.01427,0,0,7.248e-05
54000000000,54300000000,4768896398,0,478288469,7.248e-05,0.0002728,0.001917,0.0002823,0.0004711,0.0002766,0,0,0.00037,0,4.972,0.01641,0,0,0.0001097
54300000000,54600000000,4768896398,0,478288469,6.771e-05,0.0002718,0.001917,0.0002823,0.0004721,0.0002775,0,0,0.000288,7.153e-05,4.484,0.01461,0,0,0.0001011
54600000000,54900000000,4768896398,0,478288469,6.866e-05,0.0002728,0.001917,0.0002823,0.0004721,0.0002775,0,0,0.0002384,0,5.082,0.01692,0,0,3.529e-05
54900000000,55200000000,4768896398,0,478288469,7.057e-05,0.0002718,0.001917,0.0002823,0.0004721,0.0002766,0,0,0.0002575,7.153e-05,4.553,0.01458,0,0,2.384e-05
55200000000,55500000000,4768896398,0,478288469,7.153e-05,0.0002728,0.001917,0.0002823,0.0004721,0.0002766,0,0,0.0002966,0,4.72,0.01509,0,0,6.771e-05
55500000000,55800000000,4768896398,0,478288469,7.057e-05,0.0002718,0.001917,0.0002823,0.0004721,0.0002766,0,0,0.0002766,7.153e-05,5.009,0.01608,0,0,0.0001087
55800000000,56100000000,4768896398,0,478288469,7.153e-05,0.0002728,0.001917,0.0002823,0.0004721,0.0002766,0,0,0.0005522,0,4.926,0.01587,0,0,7.439e-05
56100000000,56400000000,4768896398,0,478288469,7.248e-05,0.0002708,0.001917,0.0002823,0.0004721,0.0002766,0,0,0.0005522,7.153e-05,4.903,0.01561,0,0,2.48e-05
56400000000,56700000000,4768896398,0,478288469,7.057e-05,0.0002756,0.001917,0.0002823,0.0004721,0.0002785,0,0,0.0006084,7.153e-05,5.191,0.01717,0,0,0.0001335
56700000000,57000000000,4768896398,0,478288469,7.153e-05,0.0002708,0.001917,0.0002823,0.0004721,0.0002766,0,0,0.000598,7.153e-05,4.84,0.01534,0,0,7.534e-05
57000000000,57300000000,4768896398,0,478288469,7.153e-05,0.0002728,0.001917,0.0002823,0.0004721,0.0002766,0,0,0.0005836,0,5.165,0.01722,0,0,2.098e-05
57300000000,57600000000,4768896398,0,478288469,6.962e-05,0.0002708,0.001917,0.0002823,0.0004721,0.0002756,0,0,0.0006132,7.153e-05,4.711,0.01473,0,0,9.441e-05
57600000000,57900000000,4768896398,0,478288469,6.962e-05,0.0002728,0.001917,0.0002823,0.0004721,0.0002766,0,0,0.0006104,0,4.635,0.01483,0,0,2.384e-05
57900000000,58200000000,4768896398,0,478288469,6.962e-05,0.0002708,0.001917,0.0002823,0.0004721,0.0002756,0,0,0.0007811,7.153e-05,4.788,0.01579,0,0,0.0005484
58200000000,58500000000,4768896398,0,478288469,7.343e-05,0.0002728,0.001917,0.0002823,0.0004721,0.0002766,0,0,0.0006933,0,4.769,0.01514,0,0,4.578e-05
58500000000,58800000000,4768896398,0,478288469,7.248e-05,0.0002708,0.001917,0.0002823,0.0004721,0.0002756,0,0,0.001026,7.153e-05,4.796,0.01548,0,0,0.0005026
58800000000,59100000000,4768896398,0,478288469,6.962e-05,0.0002718,0.001917,0.0002823,0.0004721,0.0002766,0,0,0.0005836,0,4.666,0.01508,0,0,9.537e-06
59100000000,59400000000,4768896398,0,478288469,6.962e-05,0.0002708,0.001917,0.0002823,0.0004721,0.0002756,0,0,0.0005646,7.153e-05,4.584,0.01476,0,0,2.003e-05
59400000000,59700000000,4768896398,0,478288469,7.057e-05,0.0002718,0.001917,0.0002823,0.0004721,0.0002766,0,0,0.0005627,0,4.802,0.01584,0,0,3.719e-05
59700000000,60000000000,4768896398,0,478288469,7.057e-05,0.0002708,0.001917,0.0002823,0.0004721,0.0002766,0,0,0.0006084,7.153e-05,4.826,0.01568,0,0,2.956e-05
60000000000,60300000000,4768896398,0,478288469,6.962e-05,0.0002718,0.001917,0.0002823,0.0004721,0.0002766,0,0,0.0002737,0,4.689,0.01518,0,0,8.202e-05
60300000000,60600000000,4768896398,0,478288469,6.962e-05,0.0002708,0.001917,0.0002823,0.0004721,0.0002756,0,0,0.0002012,7.153e-05,4.842,0.0155,0,0,4.101e-05
60600000000,60900000000,4768896398,0,478288469,6.962e-05,0.0002728,0.001917,0.0002823,0.0004721,0.0002766,0,0,0.0004082,0,4.844,0.01562,0,0,2.003e-05
