5700000000,6000000000,4768915378,0,2851446,0.000268,0.0003128,0.003868,0.0002909,0.0005207,0.0003166,5.722e-06,1.907e-06,0.001478,7.153e-05,2.716,0.007914,0,0,0.0001059
6000000000,6300000000,4768915378,0,2851446,0.0002708,0.0003128,0.003868,0.0002928,0.0005217,0.0003157,4.768e-06,1.907e-06,0.001257,7.153e-05,2.663,0.007665,0,0,0.0001125
6300000000,6600000000,4768915378,0,2851446,0.000267,0.0003138,0.003868,0.0002937,0.0005236,0.0003176,1.049e-05,1.907e-06,0.001812,0.001785,2.63,0.007525,0,0,0.0001059
6600000000,6900000000,4768915378,0,2851446,0.0002728,0.0003128,0.003868,0.0002956,0.0005245,0.0003157,1.431e-05,1.907e-06,0.00301,0.00293,2.695,0.0078,0,0,0.002026
6900000000,7200000000,4768915378,0,2851446,0.0002661,0.0003128,0.003868,0.0002966,0.0005264,0.0003166,6.676e-06,1.907e-06,0.000824,0.0007143,2.661,0.007714,0,0,0.0001631
7200000000,7500000000,4768915378,0,2851446,0.0002651,0.0003128,0.003868,0.0002985,0.0005274,0.0003166,4.768e-06,1.907e-06,0.001322,0.0001431,2.65,0.007552,0,0,0.0003424
7500000000,7800000000,4768915378,0,2851446,0.0002642,0.0003138,0.003868,0.0002995,0.0005293,0.0003185,9.537e-06,1.907e-06,0.00132,0.001499,2.676,0.007824,0,0,0.0005379
7800000000,8100000000,4768915378,0,2851446,0.0002699,0.0003128,0.003868,0.0003014,0.0005302,0.0003157,5.722e-06,1.907e-06,0.00251,0.0001431,2.646,0.007695,0,0,0.0002241
8100000000,8400000000,4768915378,0,2851446,0.0002689,0.0003138,0.003868,0.0003023,0.0005322,0.0003157,5.722e-06,1.907e-06,0.001646,0.0002861,2.72,0.007952,0,0,0.0003099
8400000000,8700000000,4768915378,0,2851446,0.000267,0.0003147,0.003868,0.0003042,0.0005331,0.0003176,5.722e-06,1.907e-06,0.0007629,7.153e-05,2.646,0.007765,0,0,0.0001574
8700000000,9000000000,4768915378,0,2851446,0.0002708,0.0003128,0.003864,0.0003052,0.000535,0.0003176,6.676e-06,1.907e-06,0.002007,0.0001431,2.816,0.008336,0,0,0.0002136
9000000000,9300000000,4768915378,0,2851446,0.0002651,0.0003128,0.003868,0.0003071,0.000536,0.0003166,4.768e-06,1.907e-06,0.003139,7.153e-05,2.601,0.007291,0,0,0.0003061
9300000000,9600000000,4768915378,0,2851446,0.0002708,0.0003138,0.003868,0.000308,0.0005379,0.0003176,4.768e-06,1.907e-06,0.002338,0.0001431,2.686,0.00778,0,0,0.0006199
9600000000,9900000000,4768915378,0,2851446,0.0002728,0.0003128,0.003868,0.0003099,0.0005388,0.0003176,5.722e-06,1.907e-06,0.002018,0.0001431,2.716,0.007818,0,0,0.001984
9900000000,10200000000,4768915378,0,2851446,0.0002689,0.0003138,0.003868,0.0003109,0.0005407,0.0003157,4.768e-06,1.907e-06,0.001558,0.0001431,2.724,0.007999,0,0,0.0006828
10200000000,10500000000,4768915378,0,2851446,0.0002699,0.0003128,0.003868,0.0003128,0.0005417,0.0003157,5.722e-06,1.907e-06,0.001617,7.153e-05,2.635,0.007379,0,0,6.771e-05
10500000000,10800000000,4768915378,0,2851446,0.0002699,0.0003138,0.003868,0.0003138,0.0005436,0.0003166,9.537e-06,1.907e-06,0.002296,0.001499,2.79,0.008261,0,0,4.196e-05
10800000000,11100000000,4768915378,0,2851446,0.0002785,0.0003128,0.003868,0.0003157,0.0005445,0.0003166,5.722e-06,1.907e-06,0.001331,7.153e-05,2.74,0.00796,0,0,6.294e-05
11100000000,11400000000,4768915378,0,2851446,0.0002718,0.0003138,0.003868,0.0003166,0.0005465,0.0003166,1.431e-05,1.907e-06,0.001398,0.002285,2.762,0.007982,0,0,0.0001574
11400000000,11700000000,4768915378,0,2851446,0.0002718,0.0003138,0.003868,0.0003185,0.0005474,0.0003157,6.676e-06,1.907e-06,0.001419,0.0004282,2.753,0.008071,0,0,0.0001307
11700000000,12000000000,4768915378,0,2851446,0.0002728,0.0003138,0.003868,0.0003195,0.0005493,0.0003166,1.907e-05,1.907e-06,0.003853,0.002785,2.794,0.008235,0,0,0.0002432
12000000000,12300000000,4768915378,0,2851446,0.0002718,0.0003138,0.003868,0.0003214,0.0005503,0.0003185,9.537e-06,1.907e-06,0.001444,0.001358,2.719,0.007884,0,0,5.436e-05
12300000000,12600000000,4768915378,0,2851446,0.0002661,0.0003128,0.003868,0.0003223,0.0005522,0.0003166,4.768e-06,1.907e-06,0.00119,0.0001431,2.644,0.007599,0,0,0.0001078
12600000000,12900000000,4768915378,0,2851446,0.0002661,0.0003128,0.003868,0.0003242,0.0005531,0.0003166,4.768e-06,1.907e-06,0.001362,7.153e-05,2.665,0.007816,0,0,0.0001907
12900000000,13200000000,4768915378,0,2851446,0.0002708,0.0003128,0.003868,0.0003252,0.000555,0.0003166,5.722e-06,1.907e-06,0.002678,0.0003567,2.696,0.0077,0,0,0.0002308
13200000000,13500000000,4768915378,0,2851446,0.0002728,0.0003138,0.003868,0.0003271,0.000556,0.0003157,4.768e-06,1.907e-06,0.00248,7.153e-05,2.803,0.008353,0,0,5.913e-05
13500000000,13800000000,4768915378,0,2851446,0.0002651,0.0003128,0.003868,0.0003281,0.0005579,0.0003157,1.24e-05,1.907e-06,0.00148,0.002285,2.795,0.008231,0,0,0.0002699
13800000000,14100000000,4768915378,0,2851446,0.0002728,0.0003128,0.003868,0.00033,0.0005589,0.0003166,4.768e-06,1.907e-06,0.001593,7.153e-05,2.749,0.008034,0,0,0.0001764
14100000000,14400000000,4768915378,0,2851446,0.0002728,0.0003128,0.003868,0.0003309,0.0005608,0.0003166,1.431e-05,1.907e-06,0.002132,0.001499,2.815,0.008357,0,0,0.0003624
14400000000,14700000000,4768915378,0,2851446,0.000268,0.0003128,0.003868,0.0003328,0.0005617,0.0003166,2.003e-05,1.907e-06,0.002762,0.002644,2.616,0.007409,0,0,0.000556
14700000000,15000000000,4768915378,0,2851446,0.000267,0.0003128,0.003868,0.0003338,0.0005627,0.0003157,5.722e-06,1.907e-06,0.001841,0.0001431,2.658,0.007602,0,0,0.0004091
15000000000,15300000000,4768915378,0,2851446,0.0002661,0.0003128,0.003868,0.0003347,0.0005646,0.0003166,4.768e-06,1.907e-06,0.001448,7.153e-05,2.643,0.007649,0,0,4.959e-05
15300000000,15600000000,4768915378,0,2851446,0.0002661,0.0003128,0.003868,0.0003366,0.0005655,0.0003166,4.768e-06,1.907e-06,0.001228,7.153e-05,2.675,0.007681,0,0,0.0001945
15600000000,15900000000,4768915378,0,2851446,0.0002699,0.0003138,0.003868,0.0003376,0.0005674,0.0003176,5.722e-06,1.907e-06,0.002365,0.0001431,2.737,0.00804,0,0,0.0001688
15900000000,16200000000,4768915378,0,2851446,0.000268,0.0003138,0.003868,0.0003395,0.0005684,0.0003176,4.768e-06,1.907e-06,0.001383,7.153e-05,2.627,0.007536,0,0,6.962e-05
16200000000,16500000000,4768915378,0,2851446,0.0002699,0.0003119,0.003868,0.0003405,0.0005703,0.0003147,1.526e-05,1.907e-06,0.001213,0.002857,2.712,0.007911,0,0,9.251e-05
16500000000,16800000000,4768915378,0,2851446,0.0002699,0.0003128,0.003868,0.0003424,0.0005713,0.0003157,4.768e-06,1.907e-06,0.001898,7.153e-05,2.658,0.007458,0,0,9.155e-05
16800000000,17100000000,4768915378,0,2851446,0.0002661,0.0003128,0.003868,0.0003433,0.0005732,0.0003157,5.722e-06,1.907e-06,0.002335,0.0001431,2.632,0.007531,0,0,8.106e-05
17100000000,17400000000,4768915378,0,2851446,0.0002689,0.0003128,0.003864,0.0003452,0.0005741,0.0003166,8.583e-06,1.907e-06,0.002438,0.001072,2.746,0.008145,0,0,9.823e-05
17400000000,17700000000,4768915378,0,2851446,0.0002661,0.0003128,0.003868,0.0003462,0.000576,0.0003166,4.768e-06,1.907e-06,0.001213,0.0001431,2.557,0.007182,0,0,0.000206
17700000000,18000000000,4768915378,0,2851446,0.0002689,0.0003138,0.003868,0.0003481,0.000577,0.0003176,4.768e-06,1.907e-06,0.001478,0.0001431,2.618,0.007455,0,0,0.0001431
18000000000,18300000000,4768915378,0,2851446,0.000267,0.0003128,0.003868,0.000349,0.0005789,0.0003166,5.722e-06,1.907e-06,0.002125,0.0001431,2.651,0.007713,0,0,0.0001316
18300000000,18600000000,4768915378,0,2851446,0.0002632,0.0003138,0.003868,0.000351,0.0005798,0.0003166,4.768e-06,1.907e-06,0.002197,0.0001431,2.565,0.00725,0,0,0.0001631
18600000000,18900000000,4768915378,0,2851446,0.0002651,0.0003128,0.003868,0.0003529,0.0005817,0.0003185,5.722e-06,1.907e-06,0.002026,0.0002146,2.717,0.007937,0,0,0.0001383
18900000000,19200000000,4768915378,0,2851446,0.0002747,0.0003138,0.003868,0.0003557,0.0005846,0.0003195,4.768e-06,1.907e-06,0.001587,7.153e-05,2.758,0.008057,0,0,0.0001965
19200000000,19500000000,4768915378,0,2851446,0.0002728,0.0003128,0.003868,0.0003567,0.0005865,0.0003157,1.24e-05,1.907e-06,0.001625,0.001143,2.659,0.007581,0,0,0.0001984
19500000000,19800000000,4768915378,0,2851446,0.000268,0.0003128,0.003868,0.0003586,0.0005875,0.0003157,4.768e-06,1.907e-06,0.002701,7.153e-05,2.673,0.00749,0,0,0.0001879
19800000000,20100000000,4768915378,0,2851446,0.0002718,0.0003157,0.003868,0.0003595,0.0005894,0.0003176,5.722e-06,1.907e-06,0.001411,0.0001431,2.639,0.007492,0,0,0.0001678
20100000000,20400000000,4768915378,0,2851446,0.0002699,0.0003138,0.003868,0.0003614,0.0005903,0.0003157,9.537e-06,1.907e-06,0.00108,0.0009289,2.73,0.007884,0,0,0.0006008
20400000000,20700000000,4768915378,0,2851446,0.0002766,0.0003147,0.003868,0.0003624,0.0005922,0.0003166,1.144e-05,1.907e-06,0.002003,0.001785,2.853,0.008565,0,0,0.000103
20700000000,21000000000,4768915378,0,2851446,0.0002708,0.0003138,0.003864,0.0003643,0.0005932,0.0003166,5.722e-06,1.907e-06,0.002449,0.0001431,2.722,0.007905,0,0,0.0006466
21000000000,21300000000,4768915378,0,2851446,0.0002689,0.0003128,0.003868,0.0003653,0.0005951,0.0003157,8.583e-06,1.907e-06,0.002205,0.001286,2.804,0.008274,0,0,0.0001307
21300000000,21600000000,4768915378,0,2851446,0.0002708,0.0003147,0.003868,0.0003672,0.000596,0.0003185,6.676e-06,1.907e-06,0.001556,0.0004997,2.651,0.007624,0,0,4.864e-05
21600000000,21900000000,4768915378,0,2851446,0.0002651,0.0003147,0.003868,0.0003681,0.000598,0.0003195,5.722e-06,1.907e-06,0.0006905,0.0001431,2.679,0.007696,0,0,0.0002298
21900000000,22200000000,4768915378,0,2851446,0.000267,0.0003138,0.003868,0.00037,0.0005989,0.0003166,4.768e-06,1.907e-06,0.002445,7.153e-05,2.691,0.007872,0,0,0.0001125
22200000000,22500000000,4768915378,0,2851446,0.0002699,0.0003138,0.003868,0.000371,0.0005999,0.0003176,1.144e-05,1.907e-06,0.002766,0.002071,2.651,0.007659,0,0,0.0001011
22500000000,22800000000,4768915378,0,2851446,0.0002699,0.0003147,0.003868,0.0003729,0.0006018,0.0003176,9.537e-06,1.907e-06,0.001078,0.001215,2.786,0.008225,0,0,0.000144
22800000000,23100000000,4768915378,0,2851446,0.000268,0.0003138,0.003864,0.0003738,0.0006027,0.0003166,6.676e-06,1.907e-06,0.00141,0.0004282,2.695,0.007691,0,0,6.199e-05
23100000000,23400000000,4768915378,0,2851446,0.0002661,0.0003138,0.003868,0.0003748,0.0006046,0.0003166,1.431e-05,1.907e-06,0.001667,0.001642,2.662,0.007573,0,0,0.0008221
23400000000,23700000000,4768915378,0,2851446,0.000267,0.0003128,0.003868,0.0003767,0.0006056,0.0003166,2.193e-05,1.907e-06,0.002708,0.002357,2.674,0.00771,0,0,9.537e-05
23700000000,24000000000,4768915378,0,2851446,0.0002728,0.0003138,0.003868,0.0003777,0.0006075,0.0003166,1.335e-05,1.907e-06,0.001137,0.002644,2.747,0.008125,0,0,9.441e-05
24000000000,24300000000,4768915378,0,2851446,0.0002747,0.0003147,0.003868,0.0003796,0.0006084,0.0003176,5.722e-06,1.907e-06,0.0007944,0.0001431,2.758,0.008159,0,0,0.0002146
24300000000,24600000000,4768915378,0,2851446,0.000268,0.0003138,0.003868,0.0003805,0.0006104,0.0003166,1.049e-05,1.907e-06,0.00168,0.001499,2.654,0.007509,0,0,0.0001945
24600000000,24900000000,4768915378,0,2851446,0.0002689,0.0003138,0.003868,0.0003824,0.0006113,0.0003176,1.335e-05,1.907e-06,0.003227,0.002499,2.677,0.007704,0,0,0.0002966
24900000000,25200000000,4768915378,0,2851446,0.000267,0.0003157,0.003868,0.0003834,0.0006132,0.0003176,5.722e-06,1.907e-06,0.001244,0.0002861,2.709,0.007916,0,0,0.0003138
25200000000,25500000000,4768915378,0,2851446,0.0002661,0.0003138,0.003868,0.0003853,0.0006142,0.0003176,1.24e-05,1.907e-06,0.001947,0.002144,2.662,0.007642,0,0,0.0007763
25500000000,25800000000,4768915378,0,2851446,0.0002642,0.0003138,0.003868,0.0003862,0.0006161,0.0003166,4.768e-06,1.907e-06,0.001961,7.153e-05,2.643,0.007698,0,0,0.0006933
25800000000,26100000000,4768915378,0,2851446,0.0002642,0.0003138,0.003868,0.0003881,0.000617,0.0003176,5.722e-06,1.907e-06,0.003193,0.0001431,2.592,0.007303,0,0,0.002769
26100000000,26400000000,4768915378,0,2851446,0.0002728,0.0003138,0.003868,0.0003891,0.0006189,0.0003166,1.24e-05,1.907e-06,0.002926,0.002213,2.746,0.007905,0,0,0.0002174
26400000000,26700000000,4768915378,0,2851446,0.000289,0.0003147,0.003868,0.000391,0.0006199,0.0003176,1.431e-05,1.907e-06,0.001549,0.002071,2.949,0.008277,0,0,3.91e-05
26700000000,27000000000,4768915378,0,2851446,0.0002871,0.0003147,0.003868,0.000392,0.0006218,0.0003176,2.289e-05,1.907e-06,0.001886,0.002785,2.931,0.008291,0,0,3.815e-05
27000000000,27300000000,4768915378,0,2851446,0.000288,0.0003138,0.003868,0.0003939,0.0006227,0.0003166,5.722e-06,1.907e-06,0.003128,0.0002861,2.915,0.008161,0,0,0.0001125
27300000000,27600000000,4768915378,0,2851446,0.0002871,0.0003138,0.003868,0.0003948,0.0006237,0.0003176,4.768e-06,1.907e-06,0.003136,7.153e-05,2.935,0.008206,0,0,0.0001078
27600000000,27900000000,4768915378,0,2851446,0.000289,0.0003138,0.003868,0.0003958,0.0006256,0.0003166,1.335e-05,1.907e-06,0.001823,0.002357,2.977,0.008658,0,0,0.0001068
27900000000,28200000000,4768915378,0,2851446,0.0002937,0.0003138,0.003868,0.0003977,0.0006266,0.0003166,5.722e-06,1.907e-06,0.001589,0.0001431,3.042,0.008776,0,0,0.0001087
28200000000,28500000000,4768915378,0,2851446,0.0002909,0.0003138,0.003868,0.0003986,0.0006285,0.0003166,4.768e-06,1.907e-06,0.00317,7.153e-05,2.883,0.008087,0,0,0.0001192
28500000000,28800000000,4768915378,0,2851446,0.0002871,0.0003147,0.003868,0.0004005,0.0006294,0.0003176,6.676e-06,1.907e-06,0.00267,0.0006428,2.926,0.00826,0,0,0.0001841
28800000000,29100000000,4768915378,0,2851446,0.000289,0.0003138,0.003868,0.0004015,0.0006313,0.0003166,5.722e-06,1.907e-06,0.001644,7.153e-05,3.027,0.008761,0,0,0.0001202
29100000000,29400000000,4768915378,0,2851446,0.0002928,0.0003147,0.003868,0.0004034,0.0006323,0.0003176,1.24e-05,1.907e-06,0.001282,0.002144,3.003,0.008711,0,0,0.0001936
29400000000,29700000000,4768915378,0,2851446,0.0002937,0.0003138,0.003868,0.0004053,0.0006342,0.0003166,5.722e-06,1.907e-06,0.003021,0.0001431,3.026,0.008601,0,0,0.0002098
29700000000,30000000000,4768915378,0,2851446,0.000288,0.0003138,0.003868,0.0004063,0.0006351,0.0003176,4.768e-06,1.907e-06,0.002171,7.153e-05,3.1,0.009262,0,0,0.0005159
30000000000,30300000000,4768915378,0,2851446,0.0002861,0.0003138,0.003868,0.0004072,0.0006371,0.0003166,9.537e-06,1.907e-06,0.002308,0.001286,3.041,0.008797,0,0,0.0002203
30300000000,30600000000,4768915378,0,2851446,0.0002966,0.0003147,0.003868,0.0004091,0.000638,0.0003166,6.676e-06,1.907e-06,0.002335,0.0004997,3.112,0.009055,0,0,0.0006838
30600000000,30900000000,4768915378,0,2851446,0.0002918,0.0003138,0.003868,0.0004101,0.0006399,0.0003176,5.722e-06,1.907e-06,0.002956,0.0001431,2.965,0.00847,0,0,0.0005741
30900000000,31200000000,4768915378,0,2851446,0.0002966,0.0003138,0.003868,0.000412,0.0006409,0.0003176,4.768e-06,1.907e-06,0.003036,0.0001431,3.028,0.008733,0,0,0.0001822
31200000000,31500000000,4768915378,0,2851446,0.0002966,0.0003138,0.003868,0.0004129,0.0006428,0.0003176,6.676e-06,1.907e-06,0.001726,0.0002146,2.973,0.00839,0,0,5.054e-05
31500000000,31800000000,4768915378,0,2851446,0.0002947,0.0003147,0.003868,0.0004148,0.0006437,0.0003185,5.722e-06,1.907e-06,0.001701,7.153e-05,3.123,0.009194,0,0,4.578e-05
31800000000,32100000000,4768915378,0,2851446,0.0002918,0.0003138,0.003868,0.0004158,0.0006456,0.0003176,4.768e-06,1.907e-06,0.002903,7.153e-05,2.894,0.008177,0,0,9.346e-05
32100000000,32400000000,4768915378,0,2851446,0.0002804,0.0003157,0.003864,0.0004177,0.0006466,0.0003176,5.722e-06,1.907e-06,0.001686,0.0001431,2.887,0.008145,0,0,0.0001268
32400000000,32700000000,4768915378,0,2851446,0.0002861,0.0003138,0.003868,0.0004187,0.0006485,0.0003166,5.722e-06,1.907e-06,0.001661,0.0001431,2.985,0.008721,0,0,7.725e-05
32700000000,33000000000,4768915378,0,2851446,0.000288,0.0003138,0.003868,0.0004206,0.0006495,0.0003166,5.722e-06,1.907e-06,0.001659,0.0001431,2.992,0.00873,0,0,7.82e-05
33000000000,33300000000,4768915378,0,2851446,0.000289,0.0003138,0.003868,0.0004215,0.0006514,0.0003166,7.629e-06,1.907e-06,0.002914,0.0007858,3.013,0.008625,0,0,0.0001221
33300000000,33600000000,4768915378,0,2851446,0.0002918,0.0003138,0.003868,0.0004234,0.0006523,0.0003176,4.768e-06,1.907e-06,0.001556,0.0001431,2.958,0.008411,0,0,0.0002031
33600000000,33900000000,4768915378,0,2851446,0.0002918,0.0003138,0.003868,0.0004244,0.0006542,0.0003166,8.583e-06,1.907e-06,0.001608,0.001286,2.976,0.008542,0,0,0.0001926
33900000000,34200000000,4768915378,0,2851446,0.0002937,0.0003138,0.003868,0.0004263,0.0006552,0.0003166,5.722e-06,1.907e-06,0.001671,0.0001431,3.044,0.008853,0,0,0.000185
34200000000,34500000000,4768915378,0,2851446,0.000289,0.0003157,0.003868,0.0004272,0.0006571,0.0003176,1.335e-05,1.907e-06,0.002846,0.002499,3.035,0.008684,0,0,0.0002403
34500000000,34800000000,4768915378,0,2851446,0.0002899,0.0003147,0.003868,0.0001898,0.0004187,0.0003176,1.431e-05,1.907e-06,0.001812,0.002857,2.935,0.008286,0,0,0.0002851
34800000000,35100000000,4768915378,0,2851446,0.0002918,0.0003147,0.003868,0.0001192,0.000349,0.0003176,5.722e-06,1.907e-06,0.001883,0.0001431,3.003,0.008671,0,0,0.0005817
35100000000,35400000000,4768915378,0,2851446,0.0002871,0.0003138,0.003868,0.0001211,0.00035,0.0003176,4.768e-06,1.907e-06,0.001793,0.0001431,3.001,0.008692,0,0,0.0004377
35400000000,35700000000,4768915378,0,2851446,0.0002918,0.0003138,0.003868,0.0001221,0.0003519,0.0003195,1.431e-05,1.907e-06,0.003288,0.002857,2.936,0.008292,0,0,0.0006876
35700000000,36000000000,4768915378,0,2851446,0.000289,0.0003147,0.003868,0.000124,0.0003529,0.0003204,1.049e-05,1.907e-06,0.001635,0.0009995,2.974,0.008584,0,0,8.392e-05
36000000000,36300000000,4768915378,0,2851446,0.0002937,0.0003128,0.003868,0.0001249,0.0003548,0.0003157,1.144e-05,1.907e-06,0.002136,0.001858,2.992,0.00882,0,0,9.251e-05
36300000000,36600000000,4768915378,0,2851446,0.0003004,0.0003138,0.003868,0.0001268,0.0003557,0.0003157,2.48e-05,1.907e-06,0.002178,0.002857,3.147,0.009304,0,0,0.0001688
36600000000,36900000000,4768915378,0,2851446,0.0002909,0.0003128,0.003868,0.0001287,0.0003576,0.0003157,1.335e-05,1.907e-06,0.002659,0.001642,3.109,0.009107,0,0,0.0001125
36900000000,37200000000,4768915378,0,2851446,0.0002918,0.0003128,0.003868,0.0001297,0.0003586,0.0003157,4.768e-06,1.907e-06,0.001932,7.153e-05,2.94,0.008394,0,0,0.000144
37200000000,37500000000,4768915378,0,2851446,0.0002928,0.0003128,0.003868,0.0001307,0.0003605,0.0003166,1.431e-05,2.861e-06,0.001657,0.00243,3.044,0.008715,0,0,0.0001287
37500000000,37800000000,4768915378,0,2851446,0.0002851,0.0003128,0.003868,0.0001326,0.0003614,0.0003157,5.722e-06,2.861e-06,0.001591,0.0002146,3.021,0.008754,0,0,0.0002289
37800000000,38100000000,4768915378,0,2851446,0.000289,0.0003128,0.003868,0.0001335,0.0003633,0.0003157,1.526e-05,2.861e-06,0.002766,0.002213,2.973,0.008582,0,0,0.0002155
38100000000,38400000000,4768915378,0,2851446,0.0002918,0.0003138,0.003868,0.0001354,0.0003643,0.0003166,5.722e-06,2.861e-06,0.001692,7.153e-05,3.058,0.008914,0,0,0.0001783
38400000000,38700000000,4768915378,0,2851446,0.0002928,0.0003128,0.003868,0.0001364,0.0003662,0.0003166,4.768e-06,2.861e-06,0.001673,7.153e-05,3.021,0.008522,0,0,7.629e-05
38700000000,39000000000,4768915378,0,2851446,0.0002899,0.0003128,0.003868,0.0001383,0.0003672,0.0003157,6.676e-06,2.861e-06,0.002178,0.0004997,3.007,0.008593,0,0,0.0002003
39000000000,39300000000,4768915378,0,2851446,0.0002775,0.0003128,0.003868,0.0001392,0.0003691,0.0003157,1.335e-05,2.861e-06,0.002628,0.002071,2.863,0.007987,0,0,0.0002718
39300000000,39600000000,4768915378,0,2851446,0.0002747,0.0003128,0.003868,0.0001411,0.00037,0.0003157,1.144e-05,2.861e-06,0.00176,0.001928,2.708,0.007363,0,0,0.0002012
39600000000,39900000000,4768915378,0,2851446,0.0002775,0.0003138,0.003868,0.0001431,0.0003719,0.0003166,1.144e-05,2.861e-06,0.00201,0.001785,2.791,0.007645,0,0,0.0006237
39900000000,40200000000,4768915378,0,2851446,0.0002775,0.0003128,0.003868,0.000144,0.0003729,0.0003166,4.768e-06,2.861e-06,0.002037,7.153e-05,2.772,0.007576,0,0,0.001797
40200000000,40500000000,4768915378,0,2851446,0.0002756,0.0003128,0.003868,0.0001459,0.0003748,0.0003176,1.335e-05,2.861e-06,0.003017,0.002499,2.77,0.007496,0,0,0.0005474
40500000000,40800000000,4768915378,0,2851446,0.0002737,0.0003138,0.003868,0.0001469,0.0003757,0.0003185,1.621e-05,2.861e-06,0.001432,0.001858,2.799,0.007633,0,0,3.624e-05
51000000000,51300000000,4768915378,0,2851446,0.0002766,0.0003138,0.003857,0.0001192,0.0003481,0.0003157,5.722e-06,0,0.001558,0.0001431,2.78,0.007737,0,0,8.392e-05
51300000000,51600000000,4768915378,0,2851446,0.0002737,0.0003128,0.003857,0.0001211,0.000349,0.0003138,1.049e-05,0,0.001766,0.0009995,2.766,0.007573,0,0,5.817e-05
51600000000,51900000000,4768915378,0,2851446,0.0002766,0.0003138,0.003857,0.0001221,0.000351,0.0003176,5.722e-06,0,0.002781,0.0003567,2.761,0.007751,0,0,0.002068
51900000000,52200000000,4768915378,0,2851446,0.0002737,0.0003119,0.003857,0.000123,0.0003519,0.0003128,9.537e-06,0,0.001665,0.001642,2.816,0.00789,0,0,0.001429
52200000000,52500000000,4768915378,0,2851446,0.0002775,0.0003138,0.003857,0.0001249,0.0003529,0.0003166,7.629e-06,0,0.001257,0.0007858,2.866,0.008038,0,0,9.632e-05
52500000000,52800000000,4768915378,0,2851446,0.0002766,0.0003128,0.003857,0.0001259,0.0003548,0.0003138,1.717e-05,0,0.001627,0.001999,2.784,0.007932,0,0,0.0001879
52800000000,53100000000,4768915378,0,2851446,0.0002756,0.0003138,0.003857,0.0001278,0.0003557,0.0003166,4.768e-06,0,0.002544,7.153e-05,2.758,0.007836,0,0,7.915e-05
53100000000,53400000000,4768915378,0,2851446,0.0002766,0.0003128,0.003857,0.0001287,0.0003576,0.0003138,3.815e-06,0,0.002529,0.0001431,2.775,0.007723,0,0,6.485e-05
53400000000,53700000000,4768915378,0,2851446,0.0002785,0.0003147,0.003857,0.0001307,0.0003586,0.0003176,1.431e-05,0,0.001949,0.001858,2.829,0.007938,0,0,8.965e-05
53700000000,54000000000,4768915378,0,2851446,0.0002785,0.0003138,0.003857,0.0001316,0.0003605,0.0003166,1.144e-05,0,0.001848,0.001999,2.877,0.008109,0,0,0.0002003
54000000000,54300000000,4768915378,0,2851446,0.0002804,0.0003157,0.003857,0.0001335,0.0003614,0.0003176,1.526e-05,0,0.00235,0.002285,2.863,0.008036,0,0,0.0002918
54300000000,54600000000,4768915378,0,2851446,0.0002775,0.0003128,0.003857,0.0001345,0.0003633,0.0003138,4.768e-06,0,0.00259,0.0001431,2.819,0.007879,0,0,0.0002918
54600000000,54900000000,4768915378,0,2851446,0.0002813,0.0003147,0.003857,0.0001364,0.0003653,0.0003176,4.768e-06,0,0.001589,7.153e-05,2.901,0.008271,0,0,0.0002642
54900000000,55200000000,4768915378,0,2851446,0.0002756,0.0003138,0.003857,0.0001373,0.0003662,0.0003147,1.335e-05,0,0.001856,0.002857,2.856,0.008111,0,0,0.0001774
55200000000,55500000000,4768915378,0,2851446,0.0002756,0.0003147,0.003857,0.0001392,0.0003672,0.0003166,6.676e-06,0,0.002239,0.0004997,2.78,0.007627,0,0,0.0004673
55500000000,55800000000,4768915378,0,2851446,0.0002747,0.0003128,0.003857,0.0001402,0.0003691,0.0003138,4.768e-06,0,0.003136,7.153e-05,2.752,0.00763,0,0,0.000124
55800000000,56100000000,4768915378,0,2851446,0.0002851,0.0003147,0.003857,0.0001421,0.00037,0.0003166,6.676e-06,0,0.002865,0.0005713,2.911,0.008236,0,0,0.0001774
56100000000,56400000000,4768915378,0,2851446,0.0002851,0.0003128,0.003857,0.0001431,0.0003719,0.0003147,6.676e-06,0,0.002483,0.0004282,2.966,0.008513,0,0,0.0006685
56400000000,56700000000,4768915378,0,2851446,0.0002851,0.0003147,0.003857,0.000145,0.0003729,0.0003166,5.722e-06,0,0.001677,0.0004282,3.021,0.008644,0,0,8.202e-05
56700000000,57000000000,4768915378,0,2851446,0.0002556,0.0003138,0.003857,0.0001459,0.0003748,0.0003147,8.583e-06,0,0.001488,0.001286,2.608,0.007299,0,0,4.005e-05
57000000000,57300000000,4768915378,0,2851446,0.0002546,0.0003147,0.003857,0.0001478,0.0003757,0.0003176,1.24e-05,0,0.003319,0.001143,2.529,0.007101,0,0,0.001141
57300000000,57600000000,4768915378,0,2851446,0.0002527,0.0003147,0.003857,0.0001488,0.0003777,0.0003166,9.537e-06,0,0.001722,0.001358,2.453,0.006762,0,0,0.0001955
57600000000,57900000000,4768915378,0,2851446,0.0002489,0.0003147,0.003857,0.0001497,0.0003786,0.0003176,7.629e-06,0,0.00068,0.0009289,2.486,0.006927,0,0,0.0001297
57900000000,58200000000,4768915378,0,2851446,0.0002518,0.0003138,0.003857,0.0001516,0.0003805,0.0003147,1.335e-05,0,0.0009565,0.001785,2.528,0.0071,0,0,0.0001116
58200000000,58500000000,4768915378,0,2851446,0.0002527,0.0003147,0.003857,0.0001526,0.0003815,0.0003166,1.24e-05,0,0.003109,0.0009995,2.527,0.007167,0,0,9.346e-05
58500000000,58800000000,4768915378,0,2851446,0.0002565,0.0003128,0.003857,0.0001545,0.0003834,0.0003147,1.526e-05,0,0.00222,0.002285,2.642,0.00754,0,0,0.0001593
58800000000,59100000000,4768915378,0,2851446,0.0002604,0.0003157,0.003857,0.0001554,0.0003843,0.0003195,7.629e-06,0,0.001364,0.0007143,2.618,0.007399,0,0,0.0001316
59100000000,59400000000,4768915378,0,2851446,0.0002565,0.0003128,0.003857,0.0001574,0.0003862,0.0003138,4.768e-06,0,0.001598,0.0001431,2.56,0.007126,0,0,0.0002632
59400000000,59700000000,4768915378,0,2851446,0.0002604,0.0003138,0.003857,0.0001583,0.0003872,0.0003176,8.583e-06,0,0.001656,0.001286,2.57,0.007227,0,0,8.869e-05
59700000000,60000000000,4768915378,0,2851446,0.0002699,0.0003128,0.003857,0.0001602,0.0003891,0.0003138,1.335e-05,0,0.002636,0.002499,2.682,0.007648,0,0,0.0002432
60000000000,60300000000,4768915378,0,2851446,0.0002728,0.0003138,0.003857,0.0001621,0.0003901,0.0003166,9.537e-06,0,0.002266,0.0008574,2.808,0.008249,0,0,0.0001888
60300000000,60600000000,4768915378,0,2851446,0.0002785,0.0003128,0.003857,0.0001631,0.000392,0.0003138,1.049e-05,0,0.001822,0.0009289,2.822,0.008264,0,0,0.000761
60600000000,60900000000,4768915378,0,2851446,0.0002728,0.0003147,0.003857,0.000165,0.0003929,0.0003166,9.537e-06,0,0.002159,0.0009995,2.743,0.007813,0,0,0.0005436
70800000000,71100000000,4768915378,0,2851446,0.0003338,0.000329,0.003857,0.0002117,0.0004435,0.0003357,9.537e-06,0,0.00243,0.0004997,3.307,0.009931,0,0,0.0001755
71100000000,71400000000,4768915378,0,2851446,0.0003319,0.0003281,0.003857,0.0002127,0.0004444,0.000329,6.676e-06,0,0.001999,0.0002861,3.37,0.01017,0,0,0.0002632
71400000000,71700000000,4768915378,0,2851446,0.000329,0.000329,0.003857,0.0002146,0.0004463,0.0003319,1.335e-05,0,0.00375,0.001215,3.265,0.009986,0,0,0.0004864
71700000000,72000000000,4768915378,0,2851446,0.0002785,0.0003281,0.003857,0.0002155,0.0004473,0.000329,5.722e-06,0,0.001999,0.0003567,2.706,0.007776,0,0,0.0005836
72000000000,72300000000,4768915378,0,2851446,0.0002861,0.0003347,0.003857,0.0002174,0.0004492,0.0003452,1.049e-05,0,0.002815,0.0009289,2.864,0.008617,0,0,0.0002928
72300000000,72600000000,4768915378,0,2851446,0.0002804,0.0003281,0.003857,0.0002193,0.0004511,0.000329,7.629e-06,0,0.002083,0.0004282,2.741,0.008104,0,0,0.0006208
72600000000,72900000000,4768915378,0,2851446,0.0002832,0.00033,0.003857,0.0002203,0.000452,0.0003357,1.526e-05,0,0.002827,0.002644,2.777,0.008403,0,0,5.436e-05
72900000000,73200000000,4768915378,0,2851446,0.000288,0.0003338,0.003857,0.0002222,0.0004539,0.0003433,2.003e-05,0,0.002819,0.002499,2.925,0.009054,0,0,0.0005703
73200000000,73500000000,4768915378,0,2851446,0.0002832,0.00033,0.003857,0.0002232,0.0004549,0.0003319,1.335e-05,0,0.001432,0.002499,2.742,0.008079,0,0,0.0001831
73500000000,73800000000,4768915378,0,2851446,0.0002918,0.000329,0.003857,0.0002251,0.0004568,0.0003319,1.907e-05,0,0.001085,0.001215,2.932,0.008914,0,0,5.054e-05
73800000000,74100000000,4768915378,0,2851446,0.0002823,0.00033,0.003857,0.000227,0.0004578,0.0003328,1.24e-05,0,0.003269,0.001143,2.868,0.008643,0,0,0.0002356
74100000000,74400000000,4768915378,0,2851446,0.0002899,0.000329,0.003857,0.0002279,0.0004597,0.00033,1.144e-05,0,0.003944,0.001785,2.881,0.008678,0,0,0.0001116
74400000000,74700000000,4768915378,0,2851446,0.0002851,0.0003357,0.003857,0.0002298,0.0004616,0.0003471,1.526e-05,0,0.001562,0.001215,2.948,0.009078,0,0,0.000535
74700000000,75000000000,4768915378,0,2851446,0.0002794,0.000329,0.003857,0.0002308,0.0004625,0.00033,8.583e-06,0,0.001373,0.001429,2.79,0.008246,0,0,0.0002527
75000000000,75300000000,4768915378,0,2851446,0.0002708,0.0003319,0.003857,0.0002327,0.0004644,0.0003357,8.583e-06,0,0.001337,0.001215,2.695,0.007851,0,0,0.0001802
75300000000,75600000000,4768915378,0,2851446,0.0002613,0.000329,0.003857,0.0002337,0.0004654,0.00033,4.768e-06,0,0.002621,0.0001431,2.524,0.007181,0,0,0.000102
75600000000,75900000000,4768915378,0,2851446,0.0002584,0.0003309,0.003857,0.0002356,0.0004673,0.0003338,1.431e-05,0,0.001629,0.002357,2.57,0.007306,0,0,0.0001707
75900000000,76200000000,4768915378,0,2851446,0.0002604,0.000329,0.003857,0.0002365,0.0004683,0.0003309,1.049e-05,0,0.001398,0.001715,2.559,0.007291,0,0,0.0002031
76200000000,76500000000,4768915378,0,2851446,0.0002584,0.00033,0.003857,0.0002384,0.0004702,0.0003328,1.812e-05,0,0.001987,0.002071,2.587,0.007517,0,0,0.0003395
76500000000,76800000000,4768915378,0,2851446,0.0002613,0.000329,0.003857,0.0002394,0.0004711,0.0003309,5.722e-06,0,0.003021,0.0004997,2.637,0.007681,0,0,0.0005312
76800000000,77100000000,4768915378,0,2851446,0.0002565,0.00033,0.003857,0.0002413,0.000473,0.0003328,1.24e-05,0,0.002396,0.002357,2.548,0.007217,0,0,0.000515
77100000000,77400000000,4768915378,0,2851446,0.0002546,0.000329,0.003857,0.0002432,0.000474,0.0003319,9.537e-06,0,0.001226,0.001286,2.449,0.006691,0,0,0.0005951
77400000000,77700000000,4768915378,0,2851446,0.0002546,0.0003309,0.003857,0.0002441,0.0004759,0.0003328,5.722e-06,0,0.001657,0.0003567,2.517,0.00708,0,0,0.0001345
77700000000,78000000000,4768915378,0,2851446,0.0002689,0.000329,0.003857,0.000246,0.0004768,0.00033,1.335e-05,0,0.002251,0.002285,2.55,0.007279,0,0,7.534e-05
78000000000,78300000000,4768915378,0,2851446,0.0003033,0.0003309,0.003857,0.000247,0.0004787,0.0003338,7.629e-06,0,0.0028,0.0006428,3.167,0.009921,0,0,9.727e-05
78300000000,78600000000,4768915378,0,2851446,0.0002718,0.00033,0.003857,0.0002489,0.0004797,0.0003309,7.629e-06,0,0.001984,0.0009289,2.79,0.008249,0,0,0.0002003
78600000000,78900000000,4768915378,0,2851446,0.0002775,0.0003319,0.003857,0.0002499,0.0004816,0.0003357,7.629e-06,0,0.0009956,0.0006428,2.721,0.007911,0,0,0.0005636
78900000000,79200000000,4768915378,0,2851446,0.0002708,0.00033,0.003857,0.0002508,0.0004826,0.0003309,1.049e-05,0,0.002495,0.001072,2.629,0.007504,0,0,0.0001965
79200000000,79500000000,4768915378,0,2851446,0.0002842,0.0003309,0.003857,0.0002527,0.0004845,0.0003338,9.537e-06,0,0.002594,0.0007143,2.83,0.008326,0,0,0.0005283
79500000000,79800000000,4768915378,0,2851446,0.0002842,0.0003328,0.003857,0.0002537,0.0004854,0.0003452,2.48e-05,0,0.00152,0.001499,2.794,0.008311,0,0,0.000144
79800000000,80100000000,4768915378,0,2851446,0.0002813,0.0003347,0.003857,0.0002556,0.0004873,0.0003452,2.098e-05,0,0.00181,0.002357,2.776,0.008182,0,0,6.39e-05
80100000000,80400000000,4768915378,0,2851446,0.0003119,0.00033,0.003857,0.0002575,0.0004892,0.0003328,1.526e-05,0,0.001831,0.001999,3.078,0.009589,0,0,0.0001068
80400000000,80700000000,4768915378,0,2851446,0.0003176,0.0003309,0.003857,0.0002584,0.0004902,0.0003338,1.144e-05,0,0.002949,0.0007858,3.415,0.01078,0,0,0.000123
80700000000,81000000000,4768915378,0,2851446,0.0002823,0.0003309,0.003857,0.0002604,0.0004921,0.0003328,1.907e-05,0,0.001799,0.002357,2.782,0.008427,0,0,0.0005407
85800000000,86100000000,4768915378,0,2851446,0.0002747,0.0003309,0.003857,0.0002851,0.0005169,0.0003338,2.575e-05,0,0.00259,0.002499,2.741,0.007947,0,0,0.0003452
86100000000,86400000000,4768915378,0,2851446,0.0002604,0.0003309,0.003857,0.0002861,0.0005178,0.0003319,1.907e-05,0,0.001202,0.002644,2.698,0.007839,0,0,9.632e-05
86400000000,86700000000,4768915378,0,2851446,0.0002708,0.0003338,0.003857,0.0002871,0.0005188,0.0003424,5.722e-06,0,0.001883,0.0003567,2.804,0.008289,0,0,0.0002117
86700000000,87000000000,4768915378,0,2851446,0.0002813,0.0003347,0.003857,0.0002899,0.0005207,0.0003462,1.144e-05,0,0.001818,0.001072,2.813,0.008503,0,0,0.0001965
87000000000,87300000000,4768915378,0,2851446,0.0002823,0.0003319,0.003857,0.0002909,0.0005226,0.0003347,1.526e-05,0,0.00412,0.001143,2.826,0.008464,0,0,0.0002241
87300000000,87600000000,4768915378,0,2851446,0.0002832,0.0003309,0.003857,0.0002928,0.0005245,0.0003319,1.812e-05,0,0.002804,0.002857,2.894,0.008826,0,0,0.0003223
87600000000,87900000000,4768915378,0,2851446,0.0002747,0.0003319,0.003857,0.0002937,0.0005255,0.0003347,2.289e-05,0,0.001629,0.00243,2.644,0.007693,0,0,0.000536
87900000000,88200000000,4768915378,0,2851446,0.0002832,0.0003319,0.003857,0.0002956,0.0005274,0.0003347,1.049e-05,9.537e-07,0.002132,0.001215,2.852,0.00846,0,0,0.0005493
88200000000,88500000000,4768915378,0,2851446,0.0002728,0.0003319,0.003857,0.0002975,0.0005283,0.0003338,1.431e-05,9.537e-07,0.00189,0.001999,2.722,0.007906,0,0,0.0005865
88500000000,88800000000,4768915378,0,2851446,0.0002699,0.0003319,0.003857,0.0002985,0.0005302,0.0003347,1.526e-05,9.537e-07,0.002724,0.001358,2.712,0.007893,0,0,0.0001478
88800000000,89100000000,4768915378,0,2851446,0.000267,0.0003328,0.003857,0.0003004,0.0005312,0.0003347,1.812e-05,9.537e-07,0.001953,0.002144,2.58,0.00739,0,0,0.0001631
89100000000,89400000000,4768915378,0,2851446,0.0002661,0.0003319,0.003857,0.0003014,0.0005331,0.0003328,3.815e-06,9.537e-07,0.003136,7.153e-05,2.62,0.007485,0,0,0.0001707
89400000000,89700000000,4768915378,0,2851446,0.000267,0.0003319,0.003857,0.0003023,0.0005341,0.0003347,1.717e-05,9.537e-07,0.001625,0.002644,2.652,0.00775,0,0,4.768e-05
89700000000,90000000000,4768915378,0,2851446,0.0002823,0.0003309,0.003857,0.0003042,0.000536,0.0003319,5.722e-06,9.537e-07,0.002739,0.0002861,2.921,0.008841,0,0,0.0001154
90000000000,90300000000,4768915378,0,2851446,0.0002813,0.0003328,0.003857,0.0003052,0.0005369,0.0003357,1.907e-05,9.537e-07,0.003197,0.002144,2.788,0.008155,0,0,0.0001154
90300000000,90600000000,4768915378,0,2851446,0.0002785,0.0003319,0.003857,0.0003071,0.0005388,0.0003328,5.722e-06,9.537e-07,0.001184,0.0004997,2.883,0.008491,0,0,0.0001602
90600000000,90900000000,4768915378,0,2851446,0.0002604,0.0003328,0.003857,0.000309,0.0005398,0.0003347,1.144e-05,9.537e-07,0.001049,0.001999,2.574,0.007206,0,0,0.0002499
101100000000,101400000000,4768915378,0,47743624,0.0003262,0.0003233,0.003868,0.0001097,0.0003386,0.0003262,1.049e-05,0,0.002888,0.0009995,3.641,0.01097,0,0,0.0001955
101400000000,101700000000,4768915378,0,47743624,0.0003109,0.0003223,0.003868,0.0001106,0.0003395,0.0003262,7.629e-06,0,0.002384,0.0005713,3.594,0.01116,0,0,0.0003252
101700000000,102000000000,4768915378,0,47743624,0.0002995,0.0003223,0.003868,0.0001125,0.0003405,0.0003262,9.537e-06,0,0.002258,0.001429,3.109,0.009779,0,0,0.0002289
102000000000,102300000000,4768915378,0,47743624,0.0003023,0.0003233,0.003868,0.0001135,0.0003424,0.0003271,6.676e-06,0,0.002956,0.0006428,3.051,0.009457,0,0,7.82e-05
102300000000,102600000000,4768915378,0,47743624,0.0002985,0.0003233,0.003868,0.0001154,0.0003443,0.0003252,2.48e-05,0,0.0007887,0.001999,3.058,0.009536,0,0,8.202e-05
102600000000,102900000000,4768915378,0,47743624,0.0003023,0.0003214,0.003868,0.0001173,0.0003452,0.0003242,2.861e-06,0,0.001791,7.153e-05,3.043,0.009411,0,0,7.915e-05
102900000000,103200000000,4768915378,0,47743624,0.0002975,0.0003214,0.003868,0.0001183,0.0003471,0.0003233,1.907e-05,0,0.0009146,0.002285,3.143,0.00995,0,0,0.0001631
103200000000,103500000000,4768915378,0,47743624,0.0002956,0.0003195,0.003868,0.0001192,0.0003481,0.0003233,1.335e-05,0,0.002243,0.001858,2.978,0.009089,0,0,0.0002661
103500000000,103800000000,4768915378,0,47743624,0.0003195,0.0003195,0.003868,0.0001211,0.00035,0.0003233,1.335e-05,0,0.003304,0.0009995,3.4,0.01028,0,0,0.0006046
103800000000,104100000000,4768915378,0,47743624,0.0003014,0.0003195,0.003868,0.0001221,0.000351,0.0003233,8.583e-06,0,0.001734,0.001286,3.266,0.0102,0,0,0.0001249
104100000000,104400000000,4768915378,0,47743624,0.0003014,0.0003195,0.003868,0.000124,0.0003529,0.0003223,7.629e-06,0,0.001657,0.0008574,3.111,0.009735,0,0,8.011e-05
104400000000,104700000000,4768915378,0,47743624,0.0002975,0.0003185,0.003868,0.0001259,0.0003538,0.0003214,1.621e-05,0,0.001698,0.0009289,2.97,0.008993,0,0,8.106e-05
104700000000,105000000000,4768915378,0,47743624,0.0002995,0.0003185,0.003868,0.0001268,0.0003557,0.0003223,1.621e-05,0,0.002636,0.001642,3.062,0.009297,0,0,0.0001526
105000000000,105300000000,4768915378,0,47743624,0.0002975,0.0003204,0.003868,0.0001287,0.0003567,0.0003233,1.144e-05,0,0.001629,0.001143,3.112,0.009688,0,0,0.0001755
105300000000,105600000000,4768915378,0,47743624,0.0002985,0.0003195,0.003868,0.0001297,0.0003586,0.0003233,1.24e-05,0,0.001411,0.001358,3.154,0.01019,0,0,0.0002356
105600000000,105900000000,4768915378,0,47743624,0.0003281,0.0003185,0.003868,0.0001316,0.0003595,0.0003223,2.003e-05,0,0.002457,0.001215,3.457,0.01042,0,0,0.0001898
105900000000,106200000000,4768915378,0,47743624,0.0003328,0.0003185,0.003868,0.0001326,0.0003614,0.0003214,1.24e-05,0,0.003067,0.0008574,3.495,0.01043,0,0,0.0001268
106200000000,106500000000,4768915378,0,47743624,0.0003242,0.0003176,0.003868,0.0001345,0.0003624,0.0003214,1.717e-05,0,0.003109,0.001572,3.703,0.01157,0,0,0.0002308
106500000000,106800000000,4768915378,0,47743624,0.0003223,0.0003185,0.003868,0.0001354,0.0003643,0.0003233,1.526e-05,0,0.00211,0.0007858,3.738,0.01163,0,0,0.000104
106800000000,107100000000,4768915378,0,47743624,0.0002966,0.0003176,0.003868,0.0001373,0.0003653,0.0003223,2.575e-05,0,0.001797,0.001286,2.944,0.008835,0,0,0.0002213
107100000000,107400000000,4768915378,0,47743624,0.0002956,0.0003185,0.003868,0.0001383,0.0003672,0.0003223,1.717e-05,0,0.003315,0.001358,2.979,0.009112,0,0,0.000165
107400000000,107700000000,4768915378,0,47743624,0.0002985,0.0003176,0.003868,0.0001402,0.0003681,0.0003223,2.003e-05,0,0.003399,0.001858,2.982,0.009088,0,0,0.0005465
107700000000,108000000000,4768915378,0,47743624,0.0003004,0.0003185,0.003868,0.0001411,0.00037,0.0003214,1.717e-05,0,0.002438,0.001499,3.024,0.009261,0,0,0.0005951
108000000000,108300000000,4768915378,0,47743624,0.0002947,0.0003166,0.003868,0.0001431,0.000371,0.0003204,1.431e-05,0,0.001638,0.0007858,2.985,0.009159,0,0,9.251e-05
108300000000,108600000000,4768915378,0,47743624,0.0002947,0.0003166,0.003868,0.000144,0.0003729,0.0003195,2.956e-05,0,0.001627,0.001858,3,0.009271,0,0,9.155e-05
108600000000,108900000000,4768915378,0,47743624,0.0002947,0.0003166,0.003868,0.0001459,0.0003748,0.0003195,2.098e-05,0,0.002865,0.001286,3.017,0.009286,0,0,0.0001402
108900000000,109200000000,4768915378,0,47743624,0.0002937,0.0003166,0.003868,0.0001469,0.0003757,0.0003195,1.907e-05,0,0.001019,0.001072,3.007,0.009245,0,0,0.0004253
109200000000,109500000000,4768915378,0,47743624,0.0002928,0.0003157,0.003868,0.0001488,0.0003767,0.0003185,1.24e-05,0,0.001509,0.0007858,2.937,0.009023,0,0,0.0001421
109500000000,109800000000,4768915378,0,47743624,0.0002947,0.0003157,0.003868,0.0001497,0.0003786,0.0003185,1.144e-05,0,0.001684,0.0009289,2.963,0.00909,0,0,9.823e-05
109800000000,110100000000,4768915378,0,47743624,0.0002975,0.0003147,0.003868,0.0001516,0.0003796,0.0003185,1.144e-05,0,0.002766,0.0007858,3.056,0.009605,0,0,0.0001869
110100000000,110400000000,4768915378,0,47743624,0.0002947,0.0003157,0.003868,0.0001526,0.0003815,0.0003185,1.621e-05,0,0.002869,0.001143,3.102,0.009563,0,0,0.0003881
110400000000,110700000000,4768915378,0,47743624,0.0002899,0.0003157,0.003868,0.0001545,0.0003824,0.0003185,8.583e-06,0,0.002064,0.0009289,2.974,0.009017,0,0,0.0005417
110700000000,111000000000,4768915378,0,47743624,0.0002937,0.0003166,0.003868,0.0001554,0.0003843,0.0003195,1.335e-05,0,0.001917,0.001143,2.961,0.009018,0,0,0.0005646
116100000000,116400000000,4768915378,0,47743624,0.0002842,0.0003147,0.003868,0.0001822,0.0004101,0.0003176,1.335e-05,0,0.001678,0.001785,2.887,0.008664,0,0,0.000205
116400000000,116700000000,4768915378,0,47743624,0.000288,0.0003138,0.003868,0.0001831,0.000412,0.0003166,1.144e-05,0,0.001965,0.0008574,2.853,0.008404,0,0,0.0002041
116700000000,117000000000,4768915378,0,47743624,0.0002909,0.0003157,0.003868,0.000185,0.0004129,0.0003204,9.537e-06,0,0.001957,0.0006428,2.948,0.008967,0,0,0.000679
117000000000,117300000000,4768915378,0,47743624,0.0002899,0.0003157,0.003868,0.000186,0.0004148,0.0003204,1.24e-05,0,0.003223,0.001215,3.064,0.009622,0,0,0.0005436
117300000000,117600000000,4768915378,0,47743624,0.0003271,0.0003147,0.003868,0.0001879,0.0004158,0.0003176,2.48e-05,0,0.002205,0.001215,3.31,0.0103,0,0,0.0005693
117600000000,117900000000,4768915378,0,47743624,0.0003309,0.0003147,0.003868,0.0001888,0.0004177,0.0003176,1.431e-05,0,0.002274,0.0007143,3.504,0.01056,0,0,0.0001612
117900000000,118200000000,4768915378,0,47743624,0.0003166,0.0003157,0.003868,0.0001907,0.0004187,0.0003214,2.098e-05,0,0.002243,0.001358,3.353,0.01011,0,0,0.00035
118200000000,118500000000,4768915378,0,47743624,0.0002975,0.0003157,0.003868,0.0001917,0.0004206,0.0003204,2.003e-05,0,0.002956,0.001572,3.079,0.009746,0,0,0.0002489
118500000000,118800000000,4768915378,0,47743624,0.0002956,0.0003157,0.003868,0.0001936,0.0004215,0.0003195,8.583e-06,0,0.001839,0.0007143,3.055,0.009596,0,0,0.0002661
118800000000,119100000000,4768915378,0,47743624,0.0002956,0.0003157,0.003868,0.0001945,0.0004234,0.0003204,8.583e-06,0,0.001038,0.0003567,2.96,0.009006,0,0,0.0006008
119100000000,119400000000,4768915378,0,47743624,0.0002975,0.0003157,0.003868,0.0001965,0.0004244,0.0003195,2.193e-05,0,0.002209,0.00243,3.002,0.009178,0,0,0.0005989
119400000000,119700000000,4768915378,0,47743624,0.0002966,0.0003147,0.003868,0.0001974,0.0004263,0.0003185,2.575e-05,0,0.003975,0.002716,2.983,0.009071,0,0,7.343e-05
119700000000,120000000000,4768915378,0,47743624,0.0002956,0.0003157,0.003868,0.0001993,0.0004272,0.0003176,9.537e-06,0,0.001413,0.0006428,2.988,0.00906,0,0,5.722e-05
120000000000,120300000000,4768915378,0,47743624,0.0002851,0.0003147,0.003868,0.0002003,0.0004292,0.0003185,1.812e-05,0,0.001778,0.001286,3.02,0.009409,0,0,0.0001526
120300000000,120600000000,4768915378,0,47743624,0.000289,0.0003157,0.003868,0.0002022,0.0004301,0.0003185,7.629e-06,0,0.002113,0.0007143,2.924,0.008893,0,0,0.0001287
120600000000,120900000000,4768915378,0,47743624,0.0002918,0.0003157,0.003868,0.0002031,0.000432,0.0003176,1.431e-05,0,0.002872,0.001858,2.848,0.008502,0,0,0.0001469
126000000000,126300000000,4768915378,0,47743624,0.0003109,0.0003147,0.003868,0.0002289,0.0004578,0.0003195,1.907e-05,0,0.00174,0.001286,3.313,0.01041,0,0,0.0002327
126300000000,126600000000,4768915378,0,47743624,0.0002975,0.0003138,0.003868,0.0002308,0.0004587,0.0003176,2.67e-05,0,0.002083,0.002357,2.964,0.008981,0,0,0.0006351
126600000000,126900000000,4768915378,0,47743624,0.0002937,0.0003138,0.003868,0.0002317,0.0004606,0.0003176,2.003e-05,0,0.002762,0.001358,3.026,0.00937,0,0,0.0004311
126900000000,127200000000,4768915378,0,47743624,0.000247,0.0003042,0.003868,0.0002327,0.0004616,0.0003138,2.384e-05,0,0.002678,0.002716,3.057,0.009465,0,0,0.0001192
127200000000,127500000000,4768915378,0,47743624,0.000288,0.0003109,0.003868,0.0002337,0.0004616,0.0003157,1.812e-05,0,0.001534,0.001642,2.968,0.009079,0,0,9.632e-05
127500000000,127800000000,4768915378,0,47743624,0.0002909,0.0003147,0.003868,0.0002346,0.0004635,0.0003166,1.335e-05,0,0.001518,0.001072,2.869,0.008587,0,0,6.866e-05
127800000000,128100000000,4768915378,0,47743624,0.0002928,0.0003128,0.003868,0.0002365,0.0004644,0.0003157,1.621e-05,0,0.001934,0.001215,2.956,0.00913,0,0,0.0004444
128100000000,128400000000,4768915378,0,47743624,0.0002918,0.0003147,0.003868,0.0002375,0.0004663,0.0003176,1.24e-05,0,0.002892,0.001143,3.024,0.009312,0,0,0.0001993
128400000000,128700000000,4768915378,0,47743624,0.0002966,0.0003138,0.003868,0.0002394,0.0004673,0.0003166,1.812e-05,0,0.001541,0.001072,3.077,0.009699,0,0,0.0001659
128700000000,129000000000,4768915378,0,47743624,0.0002975,0.0003157,0.003868,0.0002413,0.0004692,0.0003185,1.812e-05,0,0.001783,0.001358,3.051,0.009583,0,0,0.0002842
129000000000,129300000000,4768915378,0,47743624,0.0002937,0.0003147,0.003868,0.0002422,0.0004711,0.0003176,2.098e-05,0,0.002979,0.001215,3.016,0.009178,0,0,0.0007114
129300000000,129600000000,4768915378,0,47743624,0.0002928,0.0003147,0.003868,0.0002441,0.0004721,0.0003185,3.529e-05,0,0.00322,0.002857,3.001,0.009256,0,0,0.0005531
129600000000,129900000000,4768915378,0,47743624,0.0002928,0.0003138,0.003868,0.0002451,0.000474,0.0003185,2.003e-05,0,0.00164,0.001928,2.9,0.008734,0,0,0.0005913
129900000000,130200000000,4768915378,0,47743624,0.0002947,0.0003138,0.003868,0.000247,0.0004759,0.0003166,1.717e-05,0,0.001379,0.001715,2.982,0.009129,0,0,9.537e-05
130200000000,130500000000,4768915378,0,47743624,0.0002928,0.0003128,0.003868,0.000248,0.0004768,0.0003157,2.956e-05,0,0.0023,0.002857,2.927,0.008819,0,0,0.0002155
130500000000,130800000000,4768915378,0,47743624,0.0002937,0.0003138,0.003868,0.0002499,0.0004778,0.0003166,2.384e-05,0,0.001402,0.002144,3.004,0.009305,0,0,0.0002117
130800000000,131100000000,4768915378,0,47743624,0.0002966,0.0003138,0.003868,0.0002508,0.0004797,0.0003166,1.526e-05,0,0.001528,0.001642,2.999,0.009258,0,0,0.0001297
141000000000,141300000000,4768915378,0,47743624,0.0002956,0.0003109,0.003868,0.0002995,0.0005283,0.0003138,1.621e-05,9.537e-07,0.001686,0.001072,2.916,0.008726,0,0,0.0005684
141300000000,141600000000,4768915378,0,47743624,0.0002985,0.0003128,0.003868,0.0003004,0.0005293,0.0003157,1.621e-05,9.537e-07,0.001572,0.0007858,2.989,0.009133,0,0,0.000165
141600000000,141900000000,4768915378,0,47743624,0.0002823,0.0003128,0.003868,0.0003023,0.0005302,0.0003157,1.812e-05,9.537e-07,0.0006809,0.001999,3.055,0.009444,0,0,2.48e-05
141900000000,142200000000,4768915378,0,47743624,0.0002794,0.0003109,0.003868,0.0003033,0.0005322,0.0003138,1.049e-05,9.537e-07,0.002831,0.001072,3.127,0.009775,0,0,8.583e-05
142200000000,142500000000,4768915378,0,47743624,0.0003033,0.0003109,0.003868,0.0003042,0.0005331,0.0003138,1.431e-05,9.537e-07,0.002888,0.001429,3.019,0.009205,0,0,0.0001802
142500000000,142800000000,4768915378,0,47743624,0.0003052,0.0003119,0.003868,0.0003061,0.0005341,0.0003147,1.621e-05,9.537e-07,0.002949,0.001286,3.146,0.009712,0,0,0.0001917
142800000000,143100000000,4768915378,0,47743624,0.0003033,0.0003119,0.003868,0.0003071,0.000536,0.0003147,1.049e-05,9.537e-07,0.001812,0.0007858,3.166,0.009756,0,0,0.0003176
143100000000,143400000000,4768915378,0,47743624,0.0003061,0.0003119,0.003868,0.000309,0.0005369,0.0003147,1.621e-05,9.537e-07,0.002453,0.001715,3.104,0.009458,0,0,0.0003481
143400000000,143700000000,4768915378,0,47743624,0.0002832,0.0003119,0.003868,0.0003099,0.0005388,0.0003147,1.144e-05,9.537e-07,0.001114,0.001358,3.123,0.009535,0,0,0.0005608
143700000000,144000000000,4768915378,0,47743624,0.0003033,0.0003119,0.003868,0.0003109,0.0005398,0.0003166,1.144e-05,9.537e-07,0.002758,0.001429,3.148,0.009801,0,0,0.0001316
144000000000,144300000000,4768915378,0,47743624,0.0003042,0.0003119,0.003868,0.0003128,0.0005407,0.0003166,1.335e-05,9.537e-07,0.002831,0.0009995,2.986,0.009169,0,0,0.0001059
144300000000,144600000000,4768915378,0,47743624,0.000308,0.0003119,0.003868,0.0003138,0.0005426,0.0003166,2.003e-05,9.537e-07,0.002808,0.001072,3.043,0.009226,0,0,0.0001345
144600000000,144900000000,4768915378,0,47743624,0.0003042,0.0003128,0.003868,0.0003157,0.0005445,0.0003166,1.24e-05,9.537e-07,0.002068,0.001286,2.966,0.009005,0,0,0.000102
144900000000,145200000000,4768915378,0,47743624,0.0003061,0.0003119,0.003868,0.0003166,0.0005455,0.0003147,7.629e-06,9.537e-07,0.001734,0.0004282,3.1,0.009589,0,0,0.0001087
145200000000,145500000000,4768915378,0,47743624,0.0003061,0.0003119,0.003868,0.0003185,0.0005474,0.0003147,9.537e-06,9.537e-07,0.001633,0.0007858,3.021,0.009203,0,0,0.000205
145500000000,145800000000,4768915378,0,47743624,0.0003061,0.0003119,0.003868,0.0003195,0.0005484,0.0003157,2.861e-05,9.537e-07,0.002689,0.002785,3.169,0.009778,0,0,0.0002146
145800000000,146100000000,4768915378,0,47743624,0.0003052,0.0003119,0.003868,0.0003214,0.0005503,0.0003147,1.335e-05,9.537e-07,0.001146,0.0008574,3.062,0.009381,0,0,0.0002193
151200000000,151500000000,4768915378,0,47743624,0.0003099,0.0003109,0.003868,0.0003471,0.0005751,0.0003138,9.537e-06,9.537e-07,0.001799,0.0006428,3.114,0.009538,0,0,0.0004845
151500000000,151800000000,4768915378,0,47743624,0.0003109,0.0003119,0.003868,0.0003481,0.000577,0.0003147,1.24e-05,9.537e-07,0.0007553,0.0008574,3.231,0.01,0,0,0.0001869
151800000000,152100000000,4768915378,0,47743624,0.000309,0.0003119,0.003868,0.00035,0.0005779,0.0003147,1.812e-05,9.537e-07,0.001522,0.001858,3.048,0.00926,0,0,0.0002728
152100000000,152400000000,4768915378,0,47743624,0.0003061,0.0003109,0.003868,0.000351,0.0005798,0.0003138,1.812e-05,9.537e-07,0.002853,0.001928,3.134,0.00961,0,0,0.0002193
152400000000,152700000000,4768915378,0,47743624,0.000308,0.0003119,0.003868,0.0003529,0.0005808,0.0003147,8.583e-06,9.537e-07,0.001659,0.0005713,3.201,0.01004,0,0,0.0005531
152700000000,153000000000,4768915378,0,47743624,0.0003061,0.0003119,0.003868,0.0003538,0.0005827,0.0003147,1.431e-05,9.537e-07,0.002384,0.001572,3.197,0.00992,0,0,0.000124
153900000000,154200000000,4768915378,0,6565400,0.0009441,0.0003843,0.00383,5.436e-05,0.0002823,0.0004301,3.815e-06,0,0.003284,7.153e-05,7.617,0.02921,0,0,0.000701
154200000000,154500000000,4768915378,0,6565400,0.0009336,0.0003576,0.003704,1.049e-05,0.0002279,0.0004187,8.583e-06,0,0.00605,0.0007143,7.676,0.02946,0,0,0.0005445
154500000000,154800000000,4768915378,0,6565400,0.000947,0.0004301,0.003685,9.537e-06,0.000226,0.0004787,2.003e-05,0,0.002777,0.004143,7.749,0.03026,0,0,0.001259
154800000000,155100000000,4768915378,0,6565400,0.0008726,0.0004501,0.00378,1.24e-05,0.0002298,0.0004711,4.768e-06,0,0.003586,0.0001431,8.021,0.03087,0,0,0.0004921
155400000000,155700000000,4768915378,0,38748492,0.0004902,0.0003166,0.003864,9.155e-05,0.0003166,0.0003643,9.537e-06,0,0.002151,0.0006428,4.037,0.01354,0,0,0.0005455
155700000000,156000000000,4768915378,0,38748492,0.0005178,0.0003176,0.003864,9.155e-05,0.0003185,0.0003281,1.24e-05,0,0.001972,0.001143,4.054,0.01354,0,0,0.0005131
161100000000,161400000000,4768915378,0,277452056,0.0002909,0.0003271,0.003868,0.0001125,0.0003414,0.000329,6.676e-06,0,0.00296,0.0007143,2.859,0.008099,0,0,0.0002394
161400000000,161700000000,4768915378,0,277452056,0.0003138,0.0003414,0.003868,0.0001059,0.0003366,0.0003586,1.526e-05,0,0.001987,0.001642,3.093,0.009127,0,0,0.0002365
161700000000,162000000000,4768915378,0,277452056,0.0003138,0.0003357,0.003868,0.0001011,0.0003328,0.0003386,1.144e-05,0,0.001808,0.001429,3.042,0.008737,0,0,0.0003967
162000000000,162300000000,4768915378,0,277452056,0.0003128,0.0003366,0.003868,0.000102,0.0003338,0.0003386,1.526e-05,0,0.002922,0.001642,3.083,0.009001,0,0,0.0001993
162300000000,162600000000,4768915378,0,277452056,0.0003052,0.0003328,0.003868,0.000104,0.0003357,0.0003357,7.629e-06,0,0.003395,0.0005713,2.874,0.008213,0,0,0.0005817
162600000000,162900000000,4768915378,0,277452056,0.0003138,0.0003347,0.003868,0.0001049,0.0003366,0.0003386,4.768e-06,0,0.001268,0.0003567,3.12,0.009236,0,0,0.0006647
162900000000,163200000000,4768915378,0,277452056,0.0003166,0.0003328,0.003868,0.0001068,0.0003386,0.0003357,1.335e-05,0,0.001951,0.001215,3.236,0.009595,0,0,8.106e-05
163200000000,163500000000,4768915378,0,277452056,0.0003176,0.0003338,0.003868,0.0001078,0.0003395,0.0003357,1.431e-05,0,0.001259,0.001499,3.196,0.009611,0,0,6.294e-05
163500000000,163800000000,4768915378,0,277452056,0.0002918,0.0003328,0.003868,0.0001097,0.0003414,0.0003347,7.629e-06,0,0.003284,0.0006428,3.082,0.00909,0,0,0.0007086
163800000000,164100000000,4768915378,0,277452056,0.0003004,0.0003328,0.003868,0.0001106,0.0003424,0.0003366,1.144e-05,0,0.002457,0.001642,2.867,0.008136,0,0,0.0001354
164100000000,164400000000,4768915378,0,277452056,0.000289,0.0003319,0.003868,0.0001125,0.0003443,0.0003338,8.583e-06,0,0.001253,0.0007143,2.752,0.007687,0,0,0.000104
164400000000,164700000000,4768915378,0,277452056,0.000309,0.0003328,0.003868,0.0001135,0.0003452,0.0003357,8.583e-06,0,0.001886,0.001358,2.909,0.008453,0,0,0.0001183
164700000000,165000000000,4768915378,0,277452056,0.0002937,0.0003309,0.003868,0.0001154,0.0003471,0.0003338,1.144e-05,0,0.002781,0.001072,2.899,0.008191,0,0,0.0001249
165000000000,165300000000,4768915378,0,277452056,0.0003128,0.0003328,0.003868,0.0001163,0.0003481,0.0003357,9.537e-06,0,0.002853,0.0007858,3.063,0.008801,0,0,0.0001278
165300000000,165600000000,4768915378,0,277452056,0.0003157,0.0003319,0.003868,0.0001183,0.00035,0.0003338,8.583e-06,0,0.001583,0.0007143,3.231,0.009445,0,0,0.0001364
165600000000,165900000000,4768915378,0,277452056,0.0003119,0.0003328,0.003868,0.0001192,0.000351,0.0003357,7.629e-06,0,0.002453,0.0009289,3.262,0.009699,0,0,0.0001249
165900000000,166200000000,4768915378,0,277452056,0.0003338,0.0003309,0.003868,0.0001211,0.0003529,0.0003338,1.049e-05,0,0.005013,0.001143,3.263,0.009395,0,0,0.0001831
166200000000,166500000000,4768915378,0,277452056,0.000329,0.0003338,0.003868,0.0001221,0.0003538,0.0003357,7.629e-06,0,0.003757,0.0008574,3.297,0.009714,0,0,0.0005827
166500000000,166800000000,4768915378,0,277452056,0.0003042,0.0003328,0.003868,0.000124,0.0003557,0.0003347,6.676e-06,0,0.002052,0.0003567,3.143,0.009272,0,0,0.0002279
166800000000,167100000000,4768915378,0,277452056,0.0003166,0.0003338,0.003868,0.0001249,0.0003567,0.0003366,6.676e-06,0,0.00214,0.0006428,3.176,0.009526,0,0,0.0002098
167100000000,167400000000,4768915378,0,277452056,0.0003176,0.0003338,0.003868,0.0001268,0.0003586,0.0003357,6.676e-06,0,0.002918,0.0005713,3.095,0.008988,0,0,0.0002747
167400000000,167700000000,4768915378,0,277452056,0.0003109,0.0003357,0.003868,0.0001278,0.0003595,0.0003366,5.722e-06,0,0.001957,0.0004282,3.049,0.008801,0,0,0.0004988
167700000000,168000000000,4768915378,0,277452056,0.0003281,0.0003347,0.003868,0.0001297,0.0003614,0.0003366,1.049e-05,0,0.001961,0.001143,3.36,0.009792,0,0,0.0001287
168000000000,168300000000,4768915378,0,277452056,0.0003157,0.0003338,0.003868,0.0001307,0.0003624,0.0003357,7.629e-06,0,0.002998,0.0009995,3.259,0.009514,0,0,0.0002756
168300000000,168600000000,4768915378,0,277452056,0.0003204,0.0003319,0.003868,0.0001326,0.0003643,0.0003347,1.335e-05,0,0.003006,0.001572,3.317,0.009836,0,0,0.0001965
168600000000,168900000000,4768915378,0,277452056,0.0003271,0.0003328,0.003868,0.0001345,0.0003653,0.0003357,1.431e-05,0,0.001999,0.001572,3.363,0.009907,0,0,0.000289
168900000000,169200000000,4768915378,0,277452056,0.0003338,0.0003328,0.003868,0.0001354,0.0003672,0.0003357,1.24e-05,0,0.002991,0.001072,3.307,0.009785,0,0,0.0002508
169200000000,169500000000,4768915378,0,277452056,0.0003185,0.0003338,0.003868,0.0001373,0.0003691,0.0003366,1.621e-05,0,0.003952,0.001642,3.022,0.00874,0,0,0.0001993
169500000000,169800000000,4768915378,0,277452056,0.0003128,0.0003328,0.003868,0.0001383,0.00037,0.0003357,7.629e-06,0,0.002426,0.0004997,3.093,0.008711,0,0,0.000576
169800000000,170100000000,4768915378,0,277452056,0.0003223,0.0003338,0.003868,0.0001402,0.0003719,0.0003357,1.144e-05,0,0.00267,0.001429,3.39,0.01,0,0,0.0006924
170100000000,170400000000,4768915378,0,277452056,0.0003138,0.0003357,0.003868,0.0001411,0.0003729,0.0003395,9.537e-06,0,0.00367,0.001499,3.156,0.009358,0,0,8.297e-05
170400000000,170700000000,4768915378,0,277452056,0.0003195,0.0003366,0.003868,0.0001431,0.0003748,0.0003405,4.768e-06,0,0.003891,7.153e-05,3.423,0.01013,0,0,0.0001221
170700000000,171000000000,4768915378,0,277452056,0.0003223,0.0003319,0.003868,0.000144,0.0003757,0.0003347,8.583e-06,0,0.002071,0.001072,3.211,0.009417,0,0,0.0001059
171000000000,171300000000,4768915378,0,277452056,0.0003233,0.0003338,0.003868,0.0001459,0.0003777,0.0003357,5.722e-06,0,0.001951,0.0002861,3.196,0.009451,0,0,0.0001154
171300000000,171600000000,4768915378,0,277452056,0.0003242,0.0003309,0.003868,0.0001478,0.0003786,0.0003338,7.629e-06,0,0.003632,0.0009289,3.293,0.009662,0,0,0.002697
171600000000,171900000000,4768915378,0,277452056,0.0003281,0.0003328,0.003868,0.0001488,0.0003805,0.0003357,7.629e-06,0,0.002403,0.001072,3.262,0.009536,0,0,0.0001059
171900000000,172200000000,4768915378,0,277452056,0.0003347,0.0003366,0.003868,0.0001507,0.0003815,0.0003481,1.144e-05,0,0.0009565,0.0009995,3.448,0.01027,0,0,0.0001192
172200000000,172500000000,4768915378,0,277452056,0.0003157,0.0003338,0.003868,0.0001516,0.0003834,0.0003471,5.722e-06,0,0.002525,0.0004282,3.022,0.008768,0,0,0.0009203
172500000000,172800000000,4768915378,0,277452056,0.0003185,0.0003328,0.003868,0.0001535,0.0003843,0.0003347,5.722e-06,0,0.003071,0.0003567,3.098,0.00916,0,0,0.0002909
172800000000,173100000000,4768915378,0,277452056,0.0003252,0.0003319,0.003868,0.0001545,0.0003862,0.0003347,4.768e-06,0,0.002426,7.153e-05,3.207,0.009395,0,0,0.0001907
173100000000,173400000000,4768915378,0,277452056,0.0003128,0.0003309,0.003868,0.0001564,0.0003872,0.0003338,1.431e-05,0,0.001648,0.001785,3.074,0.009147,0,0,0.0005627
173400000000,173700000000,4768915378,0,277452056,0.000329,0.0003328,0.003868,0.0001574,0.0003891,0.0003347,1.621e-05,0,0.003822,0.001572,3.207,0.009512,0,0,0.0006266
173700000000,174000000000,4768915378,0,277452056,0.0003366,0.0003319,0.003868,0.0001593,0.0003901,0.0003347,7.629e-06,0,0.001888,0.0006428,3.489,0.01055,0,0,0.0006514
174000000000,174300000000,4768915378,0,277452056,0.0003023,0.0003328,0.003868,0.0001602,0.000392,0.0003357,1.335e-05,0,0.0009098,0.001715,3.02,0.0088,0,0,8.297e-05
174300000000,174600000000,4768915378,0,277452056,0.0003204,0.0003319,0.003868,0.0001621,0.0003929,0.0003338,9.537e-06,0,0.003044,0.001572,3.331,0.009958,0,0,0.0001011
174600000000,174900000000,4768915378,0,277452056,0.0003071,0.0003328,0.003868,0.0001631,0.0003948,0.0003357,6.676e-06,0,0.002975,0.0009289,3.185,0.009307,0,0,0.0001602
174900000000,175200000000,4768915378,0,277452056,0.0003099,0.0003309,0.003868,0.000165,0.0003958,0.0003328,1.24e-05,0,0.001667,0.001286,3.22,0.009455,0,0,8.392e-05
175200000000,175500000000,4768915378,0,277452056,0.0003109,0.0003328,0.003868,0.0001659,0.0003977,0.0003347,6.676e-06,0,0.001427,0.0008574,3.194,0.009329,0,0,0.0001173
175500000000,175800000000,4768915378,0,277452056,0.0003262,0.0003319,0.003868,0.0001669,0.0003986,0.0003338,1.526e-05,0,0.003448,0.001499,3.314,0.009727,0,0,0.0001554
175800000000,176100000000,4768915378,0,277452056,0.0003157,0.0003309,0.003868,0.0001688,0.0004005,0.0003347,1.812e-05,0,0.002235,0.002857,3.248,0.009512,0,0,0.0001717
186300000000,186600000000,4768915378,0,6566977,0.0002975,0.000473,0.003826,0.0001049,0.0003338,0.0004768,5.722e-06,0,0.001726,0.0001431,3.12,0.009791,0,0,0.0001469
186600000000,186900000000,4768915378,0,6566977,0.0002956,0.0004692,0.003826,0.0001068,0.0003347,0.0004711,4.768e-06,0,0.001652,0.0001431,3.222,0.01011,0,0,0.0001421
186900000000,187200000000,4768915378,0,6566977,0.0002842,0.0004702,0.003826,0.0001078,0.0003366,0.000473,5.722e-06,0,0.002148,7.153e-05,3.11,0.009588,0,0,0.0001087
187200000000,187500000000,4768915378,0,6566977,0.0002737,0.0004539,0.003838,0.0001097,0.0003386,0.0004702,5.722e-06,0,0.002274,7.153e-05,2.911,0.008729,0,0,6.294e-05
187500000000,187800000000,4768915378,0,6566977,0.0002661,0.0004511,0.003838,0.0001106,0.0003395,0.0004539,4.768e-06,0,0.001459,0.0002146,2.959,0.009004,0,0,0.000102
187800000000,188100000000,4768915378,0,6566977,0.0002861,0.0004501,0.003838,0.0001125,0.0003405,0.0004511,5.722e-06,0,0.001772,0.0003567,3.01,0.008549,0,0,0.0001068
188100000000,188400000000,4768915378,0,6566977,0.0002775,0.0004511,0.003838,0.0001135,0.0003424,0.000453,6.676e-06,0,0.001766,0.0002861,2.848,0.007865,0,0,5.627e-05
188400000000,188700000000,4768915378,0,6566977,0.0002832,0.0004501,0.003838,0.0001154,0.0003433,0.000453,5.722e-06,0,0.002865,0.0002146,2.927,0.008384,0,0,0.000145
188700000000,189000000000,4768915378,0,6566977,0.0002842,0.0004492,0.003838,0.0001163,0.0003452,0.000452,4.768e-06,0,0.0007572,0.0001431,2.957,0.00841,0,0,0.0001802
189000000000,189300000000,4768915378,0,6566977,0.0002832,0.0004482,0.003838,0.0001183,0.0003462,0.0004492,6.676e-06,0,0.001823,0.0003567,2.973,0.008472,0,0,0.0001554
189300000000,189600000000,4768915378,0,6566977,0.0002794,0.0004492,0.003838,0.0001192,0.0003481,0.000452,4.768e-06,0,0.001074,0.0001431,2.953,0.00842,0,0,0.0002689
189600000000,189900000000,4768915378,0,6566977,0.0002756,0.0004473,0.003838,0.0001202,0.000349,0.0004501,5.722e-06,0,0.003891,0.0001431,2.836,0.007936,0,0,0.0001822
189900000000,190200000000,4768915378,0,6566977,0.000289,0.0004501,0.003838,0.0001221,0.000351,0.000452,5.722e-06,0,0.001816,0.0002861,3.06,0.008963,0,0,0.0004978
190200000000,190500000000,4768915378,0,6566977,0.0002871,0.0004482,0.003838,0.000124,0.0003519,0.0004501,5.722e-06,0,0.001953,0.0001431,2.945,0.008456,0,0,0.0005493
190500000000,190800000000,4768915378,0,6566977,0.0002804,0.0004492,0.003838,0.0001249,0.0003538,0.000452,5.722e-06,0,0.001995,0.0002861,2.917,0.008267,0,0,0.0005455
190800000000,191100000000,4768915378,0,6566977,0.0002851,0.0004473,0.003838,0.0001259,0.0003548,0.0004492,5.722e-06,0,0.002708,0.0001431,2.834,0.00782,0,0,0.0005217
191100000000,191400000000,4768915378,0,6566977,0.0002842,0.0004492,0.003838,0.0001278,0.0003567,0.0004511,5.722e-06,0,0.001612,0.0002146,2.877,0.008059,0,0,6.294e-05
191400000000,191700000000,4768915378,0,6566977,0.0002823,0.0004473,0.003838,0.0001287,0.0003576,0.0004492,5.722e-06,0,0.001585,0.0002146,3.034,0.008842,0,0,0.0001097
191700000000,192000000000,4768915378,0,6566977,0.0002899,0.0004482,0.003838,0.0001307,0.0003595,0.0004511,5.722e-06,0,0.00168,7.153e-05,2.995,0.008668,0,0,5.722e-05
192000000000,192300000000,4768915378,0,6566977,0.0002861,0.0004473,0.003838,0.0001326,0.0003605,0.0004492,4.768e-06,0,0.002285,0.0002146,2.977,0.008403,0,0,0.0001173
192300000000,192600000000,4768915378,0,6566977,0.0002995,0.0004559,0.003838,0.0001335,0.0003624,0.0004587,6.676e-06,0,0.002605,0.0002146,3.096,0.00911,0,0,0.0003052
192600000000,192900000000,4768915378,0,6566977,0.0003061,0.0004501,0.003838,0.0001345,0.0003633,0.000452,5.722e-06,0,0.001484,0.0001431,2.978,0.008785,0,0,0.0002117
192900000000,193200000000,4768915378,0,6566977,0.0003109,0.0004501,0.003838,0.0001364,0.0003653,0.000453,5.722e-06,0,0.001972,0.0001431,3.196,0.009662,0,0,0.0001392
193200000000,193500000000,4768915378,0,6566977,0.0003195,0.0004482,0.003838,0.0001373,0.0003662,0.0004501,4.768e-06,0,0.002144,0.0001431,3.301,0.01004,0,0,0.0002136
193500000000,193800000000,4768915378,0,6566977,0.0003004,0.0004492,0.003838,0.0001392,0.0003681,0.000452,6.676e-06,0,0.002205,0.0007143,3.013,0.008855,0,0,0.0002728
193800000000,194100000000,4768915378,0,6566977,0.0003014,0.0004482,0.003838,0.0001402,0.0003691,0.0004511,5.722e-06,0,0.001886,0.0002861,3.1,0.0092,0,0,0.0003605
194100000000,194400000000,4768915378,0,6566977,0.0002928,0.0004511,0.003838,0.0001411,0.000371,0.000452,5.722e-06,0,0.001913,0.0002146,3.064,0.008922,0,0,0.0001965
194400000000,194700000000,4768915378,0,6566977,0.0002794,0.0004492,0.003838,0.0001431,0.0003719,0.000452,5.722e-06,0,0.001898,0.0002146,2.971,0.008344,0,0,0.0009365
194700000000,195000000000,4768915378,0,6566977,0.0002823,0.0004482,0.003838,0.000144,0.0003729,0.0004511,7.629e-06,0,0.002911,0.0007858,2.96,0.008398,0,0,0.0001879
195000000000,195300000000,4768915378,0,6566977,0.0002918,0.0004473,0.003838,0.0001459,0.0003748,0.0004501,6.676e-06,0,0.002182,0.0003567,3.105,0.008747,0,0,0.0005455
195300000000,195600000000,4768915378,0,6566977,0.0002851,0.0004492,0.003838,0.0001469,0.0003757,0.000453,5.722e-06,0,0.00288,0.0001431,2.859,0.008009,0,0,0.0005684
195600000000,195900000000,4768915378,0,6566977,0.0002861,0.0004473,0.003838,0.0001488,0.0003777,0.0004492,5.722e-06,0,0.002304,0.0001431,3.037,0.008588,0,0,0.0005131
195900000000,196200000000,4768915378,0,6566977,0.0002851,0.0004482,0.003838,0.0001497,0.0003786,0.0004501,4.768e-06,0,0.00267,7.153e-05,2.914,0.008115,0,0,0.0001373
201300000000,201600000000,4768915378,0,6566977,0.0002918,0.0004463,0.003838,0.0001755,0.0004044,0.0004492,5.722e-06,0,0.001867,0.0002146,3.126,0.008797,0,0,0.001867
201600000000,201900000000,4768915378,0,6566977,0.0002975,0.0004463,0.003838,0.0001774,0.0004063,0.0004492,1.335e-05,0,0.001532,0.002499,3.017,0.008406,0,0,0.0001755
201900000000,202200000000,4768915378,0,6566977,0.000289,0.0004454,0.003838,0.0001783,0.0004072,0.0004492,1.526e-05,0,0.002499,0.002357,3.084,0.008648,0,0,0.000145
202200000000,202500000000,4768915378,0,6566977,0.0002813,0.0004444,0.003838,0.0001802,0.0004091,0.0004463,9.537e-06,0,0.001648,0.001286,2.783,0.007269,0,0,0.0001659
202500000000,202800000000,4768915378,0,6566977,0.0002842,0.0004454,0.003838,0.0001812,0.0004101,0.0004482,6.676e-06,0,0.001696,0.0007858,3.053,0.008474,0,0,0.0002422
202800000000,203100000000,4768915378,0,6566977,0.0002861,0.0004444,0.003838,0.0001822,0.000412,0.0004454,6.676e-06,0,0.001806,0.0003567,2.93,0.008023,0,0,8.774e-05
203100000000,203400000000,4768915378,0,6566977,0.000288,0.0004454,0.003838,0.0001841,0.0004129,0.0004482,5.722e-06,0,0.002884,0.0002146,3.007,0.008355,0,0,0.000205
203400000000,203700000000,4768915378,0,6566977,0.000289,0.0004454,0.003838,0.000185,0.0004148,0.0004473,8.583e-06,0,0.001928,0.0006428,3.018,0.008368,0,0,0.0002108
203700000000,204000000000,4768915378,0,6566977,0.0002975,0.0004463,0.003838,0.0001869,0.0004158,0.0004492,8.583e-06,0,0.00144,0.0003567,3.103,0.008639,0,0,0.0003748
204000000000,204300000000,4768915378,0,6566977,0.0003052,0.0004473,0.003838,0.0001879,0.0004177,0.0004492,7.629e-06,0,0.003517,0.0005713,3.293,0.009469,0,0,0.0006046
204300000000,204600000000,4768915378,0,6566977,0.0003042,0.0004473,0.003838,0.0001898,0.0004187,0.0004501,5.722e-06,0,0.003059,7.153e-05,3.302,0.009264,0,0,0.000596
204600000000,204900000000,4768915378,0,6566977,0.0002956,0.0004454,0.003838,0.0001907,0.0004206,0.0004482,6.676e-06,0,0.001745,0.0002861,3.227,0.009108,0,0,0.0006199
204900000000,205200000000,4768915378,0,6566977,0.0003023,0.0004463,0.003838,0.0001926,0.0004215,0.0004482,9.537e-06,0,0.001123,0.001215,2.987,0.008154,0,0,0.0006237
205200000000,205500000000,4768915378,0,6566977,0.0002947,0.0004454,0.003838,0.0001936,0.0004225,0.0004473,5.722e-06,0,0.00201,0.0002146,3.033,0.00843,0,0,5.627e-05
205500000000,205800000000,4768915378,0,6566977,0.0002985,0.0004482,0.003838,0.0001955,0.0004244,0.0004511,5.722e-06,0,0.0177,0.0001431,3.302,0.00942,0,0,0.0001612
205800000000,206100000000,4768915378,0,6566977,0.0002975,0.0004463,0.003838,0.0001965,0.0004263,0.0004492,9.537e-06,0,0.001999,0.001429,3.171,0.008892,0,0,0.0001173
206100000000,206400000000,4768915378,0,6566977,0.0002966,0.0004463,0.003838,0.0001984,0.0004272,0.0004492,5.722e-06,0,0.001743,0.0002146,3.169,0.008982,0,0,5.722e-05
206400000000,206700000000,4768915378,0,6566977,0.0002966,0.0004444,0.003838,0.0001993,0.0004292,0.0004463,1.621e-05,0,0.001503,0.001715,3.135,0.008984,0,0,8.965e-05
206700000000,207000000000,4768915378,0,6566977,0.0002975,0.0004463,0.003838,0.0002012,0.0004301,0.0004492,7.629e-06,0,0.001751,0.0003567,3.096,0.008565,0,0,0.0001793
207000000000,207300000000,4768915378,0,6566977,0.0003004,0.0004444,0.003838,0.0002022,0.000432,0.0004473,6.676e-06,0,0.002953,0.0002861,3.137,0.009037,0,0,8.488e-05
207300000000,207600000000,4768915378,0,6566977,0.0002956,0.0004463,0.003838,0.0002041,0.000433,0.0004492,5.722e-06,0,0.001928,7.153e-05,3.066,0.008726,0,0,0.0002003
207600000000,207900000000,4768915378,0,6566977,0.0002956,0.0004463,0.003838,0.000205,0.0004349,0.0004473,5.722e-06,0,0.00173,0.0003567,3.151,0.008929,0,0,0.0003386
207900000000,208200000000,4768915378,0,6566977,0.0002995,0.0004463,0.003838,0.0002069,0.0004358,0.0004501,7.629e-06,0,0.001991,0.0007858,3.307,0.009579,0,0,0.0001993
208200000000,208500000000,4768915378,0,6566977,0.0003014,0.0004454,0.003838,0.0002079,0.0004368,0.0004473,6.676e-06,0,0.002888,0.0002146,3.107,0.008681,0,0,0.0002537
208500000000,208800000000,4768915378,0,6566977,0.0003004,0.0004463,0.003838,0.0002098,0.0004387,0.0004492,1.144e-05,0,0.00322,0.001143,3.119,0.008779,0,0,0.0007029
208800000000,209100000000,4768915378,0,6566977,0.0002985,0.0004454,0.003838,0.0002108,0.0004396,0.0004463,8.583e-06,0,0.002373,0.0007143,3.176,0.009052,0,0,0.000515
209100000000,209400000000,4768915378,0,6566977,0.000309,0.0004473,0.003838,0.0002127,0.0004416,0.0004492,5.722e-06,0,0.002029,0.0002146,3.292,0.009502,0,0,0.0005713
209400000000,209700000000,4768915378,0,6566977,0.000309,0.0004473,0.003838,0.0002136,0.0004435,0.0004492,9.537e-06,0,0.002647,0.001429,3.24,0.00945,0,0,0.000638
209700000000,210000000000,4768915378,0,6566977,0.0003014,0.0004473,0.003838,0.0002155,0.0004444,0.0004501,5.722e-06,0,0.003143,0.0002861,3.206,0.008969,0,0,3.624e-05
210000000000,210300000000,4768915378,0,6566977,0.0002985,0.0004463,0.003838,0.0002165,0.0004463,0.0004473,1.526e-05,0,0.001171,0.00293,3.159,0.009029,0,0,5.817e-05
210300000000,210600000000,4768915378,0,6566977,0.0002975,0.0004473,0.003838,0.0002184,0.0004473,0.0004501,5.722e-06,0,0.001415,7.153e-05,3.233,0.009366,0,0,0.0001335
210600000000,210900000000,4768915378,0,6566977,0.0003147,0.0004463,0.003838,0.0002193,0.0004482,0.0004482,4.768e-06,0,0.002495,0.0002146,3.265,0.009579,0,0,0.0001774
210900000000,211200000000,4768915378,0,6566977,0.0003014,0.0004454,0.003838,0.0002213,0.0004501,0.0004492,5.722e-06,0,0.003021,0.0001431,3.128,0.008726,0,0,0.0001469
211200000000,211500000000,4768915378,0,6566977,0.0002995,0.0004444,0.003838,0.0002222,0.0004511,0.0004463,7.629e-06,0,0.00235,0.0008574,3.157,0.008814,0,0,9.155e-05
211500000000,211800000000,4768915378,0,6566977,0.0003042,0.0004463,0.003838,0.0002241,0.000453,0.0004492,5.722e-06,0,0.002266,7.153e-05,3.161,0.008904,0,0,8.202e-05
211800000000,212100000000,4768915378,0,6566977,0.0003061,0.0004473,0.003838,0.0002251,0.0004539,0.0004501,7.629e-06,0,0.001961,0.0004997,3.194,0.009215,0,0,9.727e-05
212100000000,212400000000,4768915378,0,6566977,0.0002975,0.0004473,0.003838,0.000227,0.0004559,0.0004492,7.629e-06,0,0.003235,0.0006428,3.081,0.008656,0,0,0.0002527
212400000000,212700000000,4768915378,0,6566977,0.0003014,0.0004454,0.003838,0.0002279,0.0004568,0.0004482,5.722e-06,0,0.00193,0.0001431,3.131,0.008855,0,0,0.000164
212700000000,213000000000,4768915378,0,6566977,0.0003014,0.0004454,0.003838,0.0002298,0.0004587,0.0004482,5.722e-06,0,0.001942,0.0001431,3.231,0.009263,0,0,0.0002708
213000000000,213300000000,4768915378,0,6566977,0.0002909,0.0004444,0.003838,0.0002308,0.0004597,0.0004454,5.722e-06,0,0.003132,0.0002861,3.234,0.009324,0,0,0.0005693
213300000000,213600000000,4768915378,0,6566977,0.0002556,0.0004292,0.003841,0.0002317,0.0004606,0.0004454,7.629e-06,0,0.002113,0.0004282,3.343,0.009601,0,0,0.0005941
213600000000,213900000000,4768915378,0,6566977,0.0003052,0.0004425,0.003838,0.0002327,0.0004616,0.0004463,7.629e-06,0,0.001158,0.0008574,3.224,0.009244,0,0,0.0006332
213900000000,214200000000,4768915378,0,6566977,0.0003033,0.0004454,0.003838,0.0002337,0.0004625,0.0004473,1.907e-05,0,0.00222,0.002857,3.194,0.009332,0,0,0.0008144
214200000000,214500000000,4768915378,0,6566977,0.0003138,0.0004444,0.003838,0.0002356,0.0004644,0.0004463,5.722e-06,0,0.000824,0.0001431,3.195,0.009301,0,0,5.627e-05
214500000000,214800000000,4768915378,0,6566977,0.000308,0.0004454,0.003838,0.0002365,0.0004663,0.0004482,5.722e-06,0,0.002728,0.0001431,3.262,0.009429,0,0,0.0007048
214800000000,215100000000,4768915378,0,6566977,0.000309,0.0004454,0.003838,0.0002384,0.0004673,0.0004482,7.629e-06,0,0.00415,0.0007858,3.278,0.00942,0,0,0.000206
215100000000,215400000000,4768915378,0,6566977,0.0003023,0.0004454,0.003838,0.0002394,0.0004692,0.0004473,5.722e-06,0,0.001879,7.153e-05,3.269,0.009368,0,0,0.0001345
215400000000,215700000000,4768915378,0,6566977,0.0003023,0.0004444,0.003838,0.0002413,0.0004702,0.0004454,6.676e-06,0,0.001404,0.0002146,3.202,0.008913,0,0,0.0001345
215700000000,216000000000,4768915378,0,6566977,0.0002966,0.0004463,0.003838,0.0002432,0.0004721,0.0004482,6.676e-06,0,0.001764,0.0004997,3.195,0.009249,0,0,0.0001965
216000000000,216300000000,4768915378,0,6566977,0.0003004,0.0004444,0.003838,0.0002441,0.000473,0.0004454,5.722e-06,0,0.003315,0.0001431,3.103,0.00875,0,0,0.0001354
221100000000,221400000000,4768915378,0,6566977,0.0002956,0.0004444,0.003838,0.000268,0.0004969,0.0004482,5.722e-06,0,0.002003,0.0002861,3.115,0.008918,0,0,9.632e-05
221400000000,221700000000,4768915378,0,6566977,0.0002956,0.0004435,0.003838,0.0002699,0.0004988,0.0004444,5.722e-06,0,0.00256,0.0003567,3.163,0.008949,0,0,0.0001097
221700000000,222000000000,4768915378,0,6566977,0.0002956,0.0004444,0.003838,0.0002708,0.0004997,0.0004473,5.722e-06,0,0.001808,0.0001431,3.062,0.008546,0,0,0.0001402
222000000000,222300000000,4768915378,0,6566977,0.0002995,0.0004435,0.003838,0.0002718,0.0005016,0.0004444,5.722e-06,0,0.001579,0.0002146,3.154,0.008839,0,0,0.0002737
222300000000,222600000000,4768915378,0,6566977,0.000309,0.0004444,0.003838,0.0002737,0.0005026,0.0004473,1.24e-05,0,0.003922,0.001143,3.212,0.009216,0,0,0.0002832
222600000000,222900000000,4768915378,0,6566977,0.0002975,0.0004444,0.003838,0.0002747,0.0005045,0.0004473,5.722e-06,0,0.003319,0.0002146,3.188,0.009235,0,0,0.0001698
222900000000,223200000000,4768915378,0,6566977,0.0003014,0.0004444,0.003838,0.0002766,0.0005054,0.0004473,7.629e-06,0,0.002277,0.0007143,3.076,0.008833,0,0,0.000248
223200000000,223500000000,4768915378,0,6566977,0.0002909,0.0004435,0.003838,0.0002775,0.0005074,0.0004454,4.768e-06,0,0.00206,7.153e-05,3.048,0.008547,0,0,0.0005178
223500000000,223800000000,4768915378,0,6566977,0.0002918,0.0004444,0.003838,0.0002794,0.0005083,0.0004473,7.629e-06,9.537e-07,0.002735,0.0007858,3.092,0.008582,0,0,0.0005426
223800000000,224100000000,4768915378,0,6566977,0.0002985,0.0004425,0.003838,0.0002804,0.0005093,0.0004444,5.722e-06,9.537e-07,0.00243,0.0002146,3.032,0.008309,0,0,0.0004377
224100000000,224400000000,4768915378,0,6566977,0.0003052,0.0004444,0.003838,0.0002823,0.0005112,0.0004463,5.722e-06,9.537e-07,0.003006,0.0001431,3.197,0.009216,0,0,0.0003176
224400000000,224700000000,4768915378,0,6566977,0.0003128,0.0004454,0.003838,0.0002832,0.0005121,0.0004482,7.629e-06,9.537e-07,0.001686,0.0009289,3.288,0.009645,0,0,0.0002842
224700000000,225000000000,4768915378,0,6566977,0.0003099,0.0004482,0.003838,0.0002851,0.000514,0.0004511,4.768e-06,9.537e-07,0.004623,0.0002146,3.214,0.00912,0,0,0.000165
225000000000,225300000000,4768915378,0,6566977,0.0003099,0.0004435,0.003838,0.0002861,0.000515,0.0004444,5.722e-06,9.537e-07,0.001808,0.0001431,3.208,0.00933,0,0,0.0001249
225300000000,225600000000,4768915378,0,6566977,0.0003128,0.0004444,0.003838,0.000288,0.0005169,0.0004473,6.676e-06,9.537e-07,0.002937,0.0002861,3.164,0.009164,0,0,0.0001402
225600000000,225900000000,4768915378,0,6566977,0.0003128,0.0004435,0.003838,0.000289,0.0005178,0.0004444,4.768e-06,9.537e-07,0.00161,0.0002146,3.303,0.009739,0,0,0.0001717
225900000000,226200000000,4768915378,0,6566977,0.0003099,0.0004444,0.003838,0.0002909,0.0005198,0.0004473,4.768e-06,9.537e-07,0.00275,7.153e-05,3.2,0.009137,0,0,0.0001678
226200000000,226500000000,4768915378,0,6566977,0.0003099,0.0004444,0.003838,0.0002918,0.0005207,0.0004473,6.676e-06,9.537e-07,0.001694,0.0004282,3.24,0.009237,0,0,0.0002108
226500000000,226800000000,4768915378,0,6566977,0.0003033,0.0004444,0.003838,0.0002937,0.0005226,0.0004492,4.768e-06,9.537e-07,0.003128,0.0001431,3.133,0.008723,0,0,0.0001745
226800000000,227100000000,4768915378,0,6566977,0.0002995,0.0004425,0.003838,0.0002947,0.0005236,0.0004444,5.722e-06,9.537e-07,0.002758,0.0001431,3.089,0.008668,0,0,0.0003157
227100000000,227400000000,4768915378,0,6566977,0.0003014,0.0004444,0.003838,0.0002956,0.0005255,0.0004463,5.722e-06,9.537e-07,0.002007,7.153e-05,3.257,0.009268,0,0,0.0002985
227400000000,227700000000,4768915378,0,6566977,0.0003004,0.0004444,0.003838,0.0002975,0.0005264,0.0004473,8.583e-06,9.537e-07,0.002567,0.0007858,3.303,0.009355,0,0,0.0002699
227700000000,228000000000,4768915378,0,6566977,0.0003099,0.0004444,0.003838,0.0002985,0.0005283,0.0004492,5.722e-06,9.537e-07,0.002796,0.0002146,3.233,0.009228,0,0,0.0006142
228000000000,228300000000,4768915378,0,6566977,0.0003099,0.0004444,0.003838,0.0003004,0.0005293,0.0004463,5.722e-06,9.537e-07,0.003124,7.153e-05,3.242,0.00922,0,0,0.000556
228300000000,228600000000,4768915378,0,6566977,0.0003061,0.0004444,0.003838,0.0003014,0.0005312,0.0004473,5.722e-06,9.537e-07,0.002331,0.0002861,3.14,0.008961,0,0,0.0001698
228600000000,228900000000,4768915378,0,6566977,0.0003052,0.0004435,0.003838,0.0003033,0.0005322,0.0004454,5.722e-06,9.537e-07,0.002182,0.0001431,3.255,0.009243,0,0,0.0004435
228900000000,229200000000,4768915378,0,6566977,0.0003052,0.0004444,0.003838,0.0003042,0.0005341,0.0004473,1.049e-05,9.537e-07,0.002041,0.001358,3.115,0.008816,0,0,0.0001516
229200000000,229500000000,4768915378,0,6566977,0.0003033,0.0004435,0.003838,0.0003061,0.000535,0.0004463,4.768e-06,9.537e-07,0.00288,0.0002146,3.169,0.009242,0,0,0.0001497
229500000000,229800000000,4768915378,0,6566977,0.0003004,0.0004444,0.003838,0.0003071,0.0005369,0.0004463,5.722e-06,9.537e-07,0.001526,7.153e-05,3.146,0.009172,0,0,0.0001621
229800000000,230100000000,4768915378,0,6566977,0.0002985,0.0004435,0.003838,0.000309,0.0005379,0.0004454,6.676e-06,9.537e-07,0.002048,0.0004282,3.175,0.009146,0,0,6.104e-05
230100000000,230400000000,4768915378,0,6566977,0.0002937,0.0004444,0.003838,0.0003099,0.0005388,0.0004463,5.722e-06,9.537e-07,0.001493,0.0001431,3.048,0.008727,0,0,0.0002432
230400000000,230700000000,4768915378,0,6566977,0.0002909,0.0004435,0.003838,0.0003119,0.0005407,0.0004444,1.24e-05,9.537e-07,0.002697,0.002144,3,0.008562,0,0,8.678e-05
230700000000,231000000000,4768915378,0,6566977,0.0002937,0.0004444,0.003838,0.0003128,0.0005417,0.0004463,7.629e-06,9.537e-07,0.002605,0.0009289,3.065,0.008798,0,0,0.0001135
231000000000,231300000000,4768915378,0,6566977,0.0002985,0.0004435,0.003838,0.0003147,0.0005436,0.0004454,7.629e-06,9.537e-07,0.001822,0.0004997,3.129,0.009079,0,0,9.632e-05
231300000000,231600000000,4768915378,0,6566977,0.0003042,0.0004435,0.003838,0.0003166,0.0005455,0.0004473,1.24e-05,9.537e-07,0.001751,0.002144,3.165,0.009149,0,0,0.0001602
231600000000,231900000000,4768915378,0,6566977,0.0003004,0.0004425,0.003838,0.0003176,0.0005465,0.0004435,1.335e-05,9.537e-07,0.002007,0.001642,3.128,0.009137,0,0,0.0002041
231900000000,232200000000,4768915378,0,6566977,0.0002985,0.0004435,0.003838,0.0003195,0.0005484,0.0004463,4.768e-06,9.537e-07,0.003132,7.153e-05,3.125,0.009126,0,0,0.0002594
232200000000,232500000000,4768915378,0,6566977,0.0003033,0.0004435,0.003838,0.0003204,0.0005493,0.0004501,6.676e-06,9.537e-07,0.001699,0.0002146,3.058,0.008967,0,0,0.0005512
232500000000,232800000000,4768915378,0,6566977,0.0003624,0.000453,0.003838,0.0003223,0.0005512,0.0004549,9.537e-06,9.537e-07,0.001865,0.0009289,3.431,0.01085,0,0,0.0007114
232800000000,233100000000,4768915378,0,6566977,0.0004282,0.000453,0.003838,0.0003233,0.0005522,0.0004549,9.537e-06,9.537e-07,0.001976,0.0006428,4.077,0.01363,0,0,0.0003233
233100000000,233400000000,4768915378,0,6566977,0.0004883,0.000453,0.003838,0.0003252,0.0005541,0.0004559,5.722e-06,9.537e-07,0.003124,0.0002146,4.6,0.01582,0,0,0.0009737
233400000000,233700000000,4768915378,0,6566977,0.0005322,0.000452,0.003838,0.0003262,0.000555,0.0004549,6.676e-06,9.537e-07,0.003101,0.0002146,4.925,0.0174,0,0,0.0003119
233700000000,234000000000,4768915378,0,6566977,0.0005674,0.000452,0.003838,0.0003281,0.0005569,0.0004549,1.621e-05,9.537e-07,0.001518,0.001429,5.212,0.01865,0,0,0.00035
234000000000,234300000000,4768915378,0,6566977,0.0006065,0.0004511,0.003838,0.000329,0.0005579,0.0004549,1.621e-05,9.537e-07,0.002258,0.002357,5.424,0.01949,0,0,0.000639
234300000000,234600000000,4768915378,0,6566977,0.0005665,0.0004473,0.003838,0.0003309,0.0005598,0.0004501,7.629e-06,9.537e-07,0.00288,0.0002861,4.996,0.0176,0,0,0.0006056
234600000000,234900000000,4768915378,0,6566977,0.000495,0.0004454,0.003838,0.0003319,0.0005608,0.0004473,9.537e-06,9.537e-07,0.002914,0.001072,4.445,0.01532,0,0,0.0002604
234900000000,235200000000,4768915378,0,6566977,0.0004501,0.0004473,0.003838,0.0003338,0.0005627,0.0004492,8.583e-06,9.537e-07,0.001778,0.0005713,4.267,0.01462,0,0,0.0004253
235200000000,235500000000,4768915378,0,6566977,0.0004168,0.0004454,0.003838,0.0003347,0.0005636,0.0004463,9.537e-06,9.537e-07,0.001877,0.0009289,4.085,0.01376,0,0,0.0004969
235500000000,235800000000,4768915378,0,6566977,0.0003557,0.0004463,0.003838,0.0003366,0.0005655,0.0004492,9.537e-06,9.537e-07,0.001743,0.0009995,3.434,0.01072,0,0,0.0001726
235800000000,236100000000,4768915378,0,6566977,0.0003109,0.0004454,0.003838,0.0003376,0.0005665,0.0004463,1.049e-05,9.537e-07,0.003101,0.0007858,3.186,0.009264,0,0,0.00243
236100000000,236400000000,4768915378,0,6566977,0.0002928,0.0004454,0.003838,0.0003395,0.0005684,0.0004482,4.768e-06,9.537e-07,0.001604,0.0001431,3.021,0.008584,0,0,9.823e-05
241200000000,241500000000,4768915378,0,6566977,0.0002909,0.0004454,0.003838,0.0003643,0.0005932,0.0004463,1.24e-05,9.537e-07,0.002407,0.001999,3.007,0.00877,0,0,0.0004053
241500000000,241800000000,4768915378,0,6566977,0.0002909,0.0004473,0.003838,0.0003653,0.0005941,0.0004501,5.722e-06,9.537e-07,0.001554,0.0002146,2.937,0.008383,0,0,0.0001822
241800000000,242100000000,4768915378,0,6566977,0.0002928,0.0004454,0.003838,0.0003672,0.000596,0.0004482,2.003e-05,9.537e-07,0.00149,0.00293,2.951,0.008383,0,0,0.0002193
242100000000,242400000000,4768915378,0,6566977,0.0003033,0.0004463,0.003838,0.0003681,0.000597,0.0004482,5.722e-06,9.537e-07,0.002224,0.0001431,3.26,0.009603,0,0,0.0006075
242400000000,242700000000,4768915378,0,6566977,0.0003004,0.0004454,0.003838,0.0003691,0.0005989,0.0004463,5.722e-06,9.537e-07,0.00304,0.0002861,3.083,0.008907,0,0,0.0002356
242700000000,243000000000,4768915378,0,6566977,0.0003052,0.0004463,0.003838,0.000371,0.0005999,0.0004492,7.629e-06,9.537e-07,0.003319,0.0004282,2.993,0.008445,0,0,0.0006561
243000000000,243300000000,4768915378,0,6566977,0.0002928,0.0004454,0.003838,0.0003729,0.0006018,0.0004463,6.676e-06,9.537e-07,0.001053,0.0002861,3.082,0.009038,0,0,0.0001316
243300000000,243600000000,4768915378,0,6566977,0.0002985,0.0004463,0.003838,0.0003738,0.0006027,0.0004492,5.722e-06,9.537e-07,0.001867,7.153e-05,3.018,0.008655,0,0,0.0001564
243600000000,243900000000,4768915378,0,6566977,0.0003176,0.0004463,0.003838,0.0003757,0.0006046,0.0004492,6.676e-06,9.537e-07,0.001949,0.0003567,3.378,0.01005,0,0,8.583e-05
243900000000,244200000000,4768915378,0,6566977,0.0003242,0.0004473,0.003838,0.0003767,0.0006056,0.0004501,5.722e-06,9.537e-07,0.002975,0.0001431,3.457,0.01004,0,0,0.0001335
244200000000,244500000000,4768915378,0,6566977,0.00033,0.0004454,0.003838,0.0003786,0.0006075,0.0004463,5.722e-06,9.537e-07,0.001024,0.0002146,3.255,0.009368,0,0,0.0001287
244500000000,244800000000,4768915378,0,6566977,0.0003128,0.0004473,0.003838,0.0003796,0.0006084,0.0004492,1.144e-05,9.537e-07,0.002483,0.001499,3.4,0.01002,0,0,9.441e-05
244800000000,245100000000,4768915378,0,6566977,0.0003061,0.0004463,0.003838,0.0003815,0.0006104,0.0004482,5.722e-06,9.537e-07,0.001852,0.0002146,3.206,0.009142,0,0,0.000103
245100000000,245400000000,4768915378,0,6566977,0.0003052,0.0004473,0.003838,0.0003824,0.0006113,0.0004501,5.722e-06,9.537e-07,0.003124,0.0001431,3.127,0.008909,0,0,0.0001383
245400000000,245700000000,4768915378,0,6566977,0.0003052,0.0004473,0.003838,0.0003843,0.0006132,0.000452,5.722e-06,9.537e-07,0.002811,0.0002146,3.115,0.008864,0,0,0.0002432
245700000000,246000000000,4768915378,0,6566977,0.0003033,0.0004492,0.003838,0.0003853,0.0006151,0.0004539,6.676e-06,9.537e-07,0.002018,0.0002146,3.106,0.008881,0,0,0.000124
246000000000,246300000000,4768915378,0,6566977,0.0003033,0.0004463,0.003838,0.0003872,0.0006161,0.0004473,5.722e-06,9.537e-07,0.001768,0.0004282,3.138,0.009051,0,0,0.0001822
251400000000,251700000000,4768915378,0,6566977,0.0003157,0.0004454,0.003838,0.000102,0.0003309,0.0004463,5.722e-06,9.537e-07,0.002209,0.0001431,3.181,0.009187,0,0,0.0005999
251700000000,252000000000,4768915378,0,6566977,0.0003176,0.0004482,0.003838,0.000103,0.0003328,0.0004511,6.676e-06,9.537e-07,0.00444,0.0002146,3.167,0.009147,0,0,0.0005817
252000000000,252300000000,4768915378,0,6566977,0.0003109,0.0004454,0.003838,0.0001049,0.0003338,0.0004473,1.049e-05,9.537e-07,0.004272,0.001572,3.118,0.008956,0,0,0.0005531
252300000000,252600000000,4768915378,0,6566977,0.0002995,0.0004463,0.003838,0.0001068,0.0003357,0.0004492,5.722e-06,9.537e-07,0.002499,0.0001431,3.044,0.008866,0,0,0.0001307
253200000000,253500000000,4768915378,0,1275171,0.0006571,0.0003433,0.003872,9.155e-05,0.0002432,0.0003853,3.815e-06,0,0.001965,7.153e-05,5.441,0.01961,0,0,0.0006113
253500000000,253800000000,4768915378,0,1275171,0.0006685,0.0003872,0.003868,9.155e-05,0.000246,0.0004015,4.768e-06,0,0.00943,7.153e-05,5.318,0.01892,0,0,0.0004435
253800000000,254100000000,4768915378,0,1275171,0.000639,0.000392,0.003868,9.346e-05,0.000248,0.0003977,4.768e-06,0,0.003342,7.153e-05,5.321,0.01909,0,0,0.0007448
254100000000,254400000000,4768915378,0,1275171,0.0006819,0.0004025,0.003868,9.441e-05,0.0002499,0.0004063,6.676e-06,0,0.003403,0.0006428,5.848,0.02205,0,0,0.0006037
254400000000,254700000000,4768915378,0,1275171,0.0006866,0.0004005,0.003868,9.632e-05,0.0002508,0.0004025,4.768e-06,0,0.002277,7.153e-05,5.967,0.02241,0,0,0.001112
