201600000000,201900000000,5022021456,0,367886059,0.2598,0.06653,0.09985,0.0379,0.03815,0.06689,0.002857,0.0003748,0.5938,0.05463,3.224,0.006678,0,0,0.2939
201900000000,202200000000,5022021456,0,367886059,0.2583,0.06653,0.09985,0.0379,0.03815,0.06726,0.00275,0.0003757,0.5391,0.05481,3.157,0.00631,0,0,0.3491
202200000000,202500000000,5022021456,0,367886059,0.2485,0.06641,0.09998,0.03802,0.03827,0.06714,0.002556,0.0003757,0.5156,0.04901,2.993,0.006204,0,0,0.2175
202500000000,202800000000,5022021456,0,367886059,0.2686,0.06604,0.09998,0.0191,0.01935,0.06653,0.002411,0.0003757,0.4844,0.04962,2.942,0.005953,0,0,0.2832
202800000000,203100000000,5022021456,0,367886059,0.1829,0.06482,0.09814,0.01204,0.01231,0.06604,0.002022,0.0003757,0.5156,0.05157,4.376,0.009963,0,0,0.1531
203100000000,203400000000,5022021456,0,367886059,0.1804,0.06543,0.09888,0.01654,0.01678,0.06689,0.002102,0.0003767,0.4624,0.05463,4.098,0.008519,0,0,0.4375
203400000000,203700000000,5022021456,0,367886059,0.2463,0.06567,0.099,0.02612,0.0264,0.06653,0.002197,0.0003748,0.4688,0.04401,3.278,0.006687,0,0,0.3022
203700000000,204000000000,5022021456,0,367886059,0.2539,0.06628,0.09985,0.03613,0.03638,0.06689,0.002319,0.0003757,0.5156,0.05536,3.261,0.006706,0,0,0.1304
204000000000,204300000000,5022021456,0,367886059,0.2612,0.06653,0.09961,0.03473,0.03497,0.06702,0.002266,0.0003757,0.5469,0.0553,3.35,0.00699,0,0,0.374
204300000000,204600000000,5022021456,0,367886059,0.2617,0.06616,0.09985,0.02182,0.02209,0.06677,0.002148,0.0003748,0.4844,0.05737,3.317,0.006867,0,0,0.2246
204600000000,204900000000,5022021456,0,367886059,0.2617,0.0658,0.09863,0.01581,0.01608,0.06689,0.002323,0.0003757,0.4731,0.05743,3.272,0.007025,0,0,0.1855
204900000000,205200000000,5022021456,0,367886059,0.2324,0.06531,0.09802,0.01419,0.01447,0.06616,0.002342,0.0003757,0.5,0.05493,3.286,0.007049,0,0,0.314
205200000000,205500000000,5022021456,0,367886059,0.1909,0.06531,0.09888,0.01651,0.01678,0.06836,0.002045,0.0003748,0.5,0.05438,4.332,0.009822,0,0,0.3477
151200000000,151500000000,5022021456,0,367886059,0.2617,0.06555,0.09839,0.01642,0.01666,0.06628,0.002235,0.0003767,0.4702,0.04578,3.15,0.006401,0,0,0.1582
151500000000,151800000000,5022021456,0,367886059,0.2627,0.06531,0.09827,0.01883,0.0191,0.06604,0.002167,0.0003767,0.4844,0.0545,3.305,0.006835,0,0,0.2788
151800000000,152100000000,5022021456,0,367886059,0.1951,0.06482,0.09839,0.01419,0.01445,0.06616,0.001968,0.0003777,0.4839,0.04077,4.255,0.009644,0,0,0.06604
152100000000,152400000000,5022021456,0,367886059,0.1968,0.06458,0.09827,0.01852,0.01877,0.06641,0.002243,0.0003777,0.4619,0.05188,4.88,0.0112,0,0,0.2705
152400000000,152700000000,5022021456,0,367886059,0.2163,0.06396,0.09656,0.005814,0.006088,0.06628,0.001898,0.0003738,0.4688,0.03937,3.019,0.006108,0,0,0.1636
152700000000,153000000000,5022021456,0,367886059,0.2495,0.06482,0.0979,0.01045,0.01073,0.06555,0.002373,0.0003767,0.4766,0.05151,3.095,0.006409,0,0,0.4565
153000000000,153300000000,5022021456,0,367886059,0.2686,0.0647,0.09802,0.009109,0.009384,0.06506,0.00219,0.0003757,0.4766,0.04865,3.422,0.007409,0,0,0.2192
153300000000,153600000000,5022021456,0,367886059,0.2686,0.06506,0.09802,0.01407,0.01434,0.06531,0.00243,0.0003777,0.4609,0.05737,3.574,0.007897,0,0,0.2104
153600000000,153900000000,5022021456,0,367886059,0.2622,0.06519,0.09802,0.01166,0.01193,0.06604,0.002457,0.0003777,0.5859,0.05786,3.274,0.006784,0,0,0.2676
153900000000,154200000000,5022021456,0,367886059,0.2666,0.06506,0.0979,0.01025,0.01051,0.06592,0.002411,0.0003757,0.6484,0.0401,3.199,0.006671,0,0,0.2656
154200000000,154500000000,5022021456,0,367886059,0.2627,0.0647,0.0979,0.011,0.01128,0.06531,0.002205,0.0003757,0.5,0.04871,3.183,0.006704,0,0,0.208
154500000000,154800000000,5022021456,0,367886059,0.1841,0.06433,0.09814,0.01036,0.01064,0.06519,0.001934,0.0003757,0.4678,0.04852,4.592,0.01059,0,0,0.2842
155100000000,155400000000,5022021456,0,367886059,0.1968,0.06433,0.09778,0.01346,0.01373,0.06531,0.002136,0.0003748,0.4717,0.05151,4.036,0.008756,0,0,0.1638
155400000000,155700000000,5022021456,0,367886059,0.2568,0.06482,0.09802,0.01636,0.01663,0.06543,0.002125,0.0003767,0.478,0.04071,3.398,0.007204,0,0,0.4404
121800000000,122100000000,5022021456,0,367886059,0.271,0.06604,0.1001,0.02158,0.02182,0.06665,0.003109,0.0003757,0.4443,0.05286,3.315,0.007133,0,0,0.2559
122100000000,122400000000,5022021456,0,367886059,0.2617,0.06604,0.1001,0.03043,0.0307,0.06641,0.002361,0.0003748,0.417,0.04871,3.355,0.007205,0,0,0.3569
122400000000,122700000000,5022021456,0,367886059,0.2563,0.06567,0.09912,0.03436,0.03467,0.06616,0.002419,0.0003748,0.479,0.05438,3.202,0.006563,0,0,0.3262
122700000000,123000000000,5022021456,0,367886059,0.2058,0.0658,0.09949,0.03357,0.03387,0.06665,0.001936,0.0003757,0.4688,0.03772,3.583,0.007475,0,0,0.312
123000000000,123300000000,5022021456,0,367886059,0.1794,0.06555,0.09912,0.01645,0.01672,0.06653,0.002251,0.0003748,0.4507,0.052,4.456,0.01019,0,0,0.3408
123600000000,123900000000,5022021456,0,367886059,0.2427,0.06555,0.09814,0.03387,0.03412,0.06616,0.002682,0.0003757,0.4492,0.0517,3.239,0.0069,0,0,0.1643
123900000000,124200000000,5022021456,0,367886059,0.2534,0.06592,0.09924,0.03674,0.03705,0.06641,0.003593,0.0003748,0.4219,0.04749,3.049,0.006357,0,0,0.2988
124200000000,124500000000,5022021456,0,367886059,0.2544,0.06616,0.09985,0.03845,0.0387,0.06677,0.003143,0.0003757,0.4438,0.04358,3.045,0.006236,0,0,0.2385
124500000000,124800000000,5022021456,0,367886059,0.2373,0.06519,0.09937,0.0256,0.02588,0.06628,0.002892,0.0003757,0.4219,0.04669,3.795,0.008692,0,0,0.1887
124800000000,125100000000,5022021456,0,367886059,0.2419,0.06506,0.09814,0.01022,0.0105,0.06616,0.002148,0.0003757,0.4033,0.04608,3.361,0.007508,0,0,0.2739
125100000000,125400000000,5022021456,0,367886059,0.2156,0.06506,0.09814,0.02228,0.02255,0.06592,0.002506,0.0003748,0.3867,0.04926,3.282,0.007181,0,0,0.3457
125400000000,125700000000,5022021456,0,367886059,0.1716,0.06458,0.09827,0.02863,0.0289,0.06689,0.002045,0.0003767,0.3628,0.05194,3.711,0.008495,0,0,0.3379
25800000000,26100000000,5022021456,0,367886059,0.2478,0.06567,0.09875,0.03528,0.03558,0.06702,0.001949,0.0003767,0.4922,0.05438,3.32,0.007156,0,0,0.1868
26100000000,26400000000,5022021456,0,367886059,0.1785,0.06433,0.09778,0.02991,0.03021,0.06494,0.001736,0.0003777,0.4775,0.05066,3.819,0.00833,0,0,0.1926
26400000000,26700000000,5022021456,0,367886059,0.1941,0.06519,0.09839,0.01999,0.02026,0.06628,0.001871,0.0003777,0.4878,0.04016,4.156,0.009132,0,0,0.1436
27000000000,27300000000,5022021456,0,367886059,0.2554,0.06519,0.09814,0.0296,0.02991,0.06592,0.002357,0.0003757,0.6797,0.04865,3.21,0.006695,0,0,0.1792
27600000000,27900000000,5022021456,0,367886059,0.2651,0.06555,0.09802,0.02396,0.02423,0.06604,0.002895,0.0003757,0.4766,0.04871,2.903,0.005753,0,0,0.2483
27900000000,28200000000,5022021456,0,367886059,0.2578,0.06543,0.09802,0.03131,0.03156,0.06616,0.002399,0.0003757,0.4766,0.04993,3.612,0.007825,0,0,0.1658
28200000000,28500000000,5022021456,0,367886059,0.2617,0.06531,0.09802,0.0368,0.03711,0.06592,0.002506,0.0003757,0.4766,0.05243,3.473,0.007446,0,0,0.3081
28500000000,28800000000,5022021456,0,367886059,0.2202,0.06506,0.09814,0.03558,0.03589,0.0658,0.002453,0.0003767,0.6797,0.05273,3.5,0.007401,0,0,0.2031
28800000000,29100000000,5022021456,0,367886059,0.1997,0.0647,0.09839,0.03485,0.0351,0.06726,0.002491,0.0003767,0.4844,0.0462,3.603,0.007536,0,0,0.4751
29100000000,29400000000,5022021456,0,367886059,0.2048,0.06531,0.09851,0.02847,0.02875,0.06702,0.002266,0.0003786,0.75,0.04303,3.206,0.006692,0,0,0.09436
29400000000,29700000000,5022021456,0,367886059,0.2573,0.06555,0.09802,0.03638,0.03668,0.06604,0.002556,0.0003757,0.5547,0.04291,3.825,0.008492,0,0,0.2642
29700000000,30000000000,5022021456,0,367886059,0.2603,0.06543,0.09814,0.02869,0.02896,0.0658,0.002529,0.0003757,0.478,0.04291,3.202,0.006658,0,0,0.2168
30000000000,30300000000,5022021456,0,367886059,0.2632,0.0658,0.09888,0.03308,0.03339,0.06641,0.002811,0.0003767,0.4688,0.052,3.034,0.006153,0,0,0.3193
30300000000,30600000000,5022021456,0,367886059,0.2603,0.0658,0.09985,0.03864,0.03894,0.06628,0.002712,0.0003757,0.4844,0.04865,3.183,0.006602,0,0,0.2959
30600000000,30900000000,5022021456,0,367886059,0.2637,0.0658,0.09985,0.03131,0.03162,0.06641,0.002659,0.0003767,0.4736,0.04608,3.623,0.007912,0,0,0.1577
70800000000,71100000000,5022021456,0,367886059,0.1924,0.0658,0.099,0.01575,0.01605,0.06604,0.00178,0.0003777,0.4688,0.05157,4.339,0.009911,0,0,0.2729
71100000000,71400000000,5022021456,0,367886059,0.2568,0.06604,0.09924,0.01074,0.01102,0.06665,0.00209,0.0003757,0.478,0.04401,3.025,0.006247,0,0,0.2175
71400000000,71700000000,5022021456,0,367886059,0.2617,0.06616,0.09912,0.0125,0.01279,0.06689,0.002041,0.0003767,0.4844,0.05646,3.579,0.007909,0,0,0.3643
71700000000,72000000000,5022021456,0,367886059,0.2627,0.06653,0.09985,0.01196,0.01225,0.06702,0.002331,0.0003777,0.4712,0.04303,3.35,0.007108,0,0,0.2563
72000000000,72300000000,5022021456,0,367886059,0.2656,0.06641,0.09985,0.01396,0.01425,0.06714,0.002182,0.0003757,0.4712,0.0517,3.272,0.006801,0,0,0.2666
72300000000,72600000000,5022021456,0,367886059,0.2559,0.06641,0.09973,0.02374,0.02402,0.06689,0.002247,0.0003757,0.5078,0.0545,3.631,0.007967,0,0,0.2622
72600000000,72900000000,5022021456,0,367886059,0.2385,0.06641,0.09985,0.02551,0.02579,0.06714,0.002151,0.0003757,0.5156,0.04865,4.022,0.009079,0,0,0.3164
72900000000,73200000000,5022021456,0,367886059,0.1814,0.06506,0.09827,0.03024,0.03055,0.06567,0.001806,0.0003767,0.417,0.04785,4.672,0.01105,0,0,0.1494
73800000000,74100000000,5022021456,0,367886059,0.1943,0.06482,0.09802,0.01913,0.01944,0.06555,0.001928,0.0003748,0.7344,0.04327,3.604,0.007834,0,0,0.1897
74100000000,74400000000,5022021456,0,367886059,0.2454,0.06519,0.09778,0.01587,0.01617,0.06628,0.002022,0.0003767,0.4688,0.04303,4.061,0.009266,0,0,0.2715
74400000000,74700000000,5022021456,0,367886059,0.2488,0.06555,0.09839,0.01236,0.01265,0.06653,0.002243,0.0003767,0.4688,0.04883,3.808,0.008602,0,0,0.2446
74700000000,75000000000,5022021456,0,367886059,0.2559,0.0658,0.09875,0.007751,0.008041,0.06653,0.002056,0.0003757,0.5703,0.05157,3.057,0.00622,0,0,0.1039
75000000000,75300000000,5022021456,0,367886059,0.2539,0.06531,0.09912,0.01338,0.01367,0.06653,0.002243,0.0003757,0.4609,0.04602,3.151,0.006501,0,0,0.2651
75300000000,75600000000,5022021456,0,367886059,0.249,0.06543,0.0979,0.01012,0.01041,0.06604,0.002308,0.0003757,0.4688,0.05719,3.741,0.008322,0,0,0.2734
75600000000,75900000000,5022021456,0,367886059,0.2568,0.06519,0.09802,0.01642,0.01672,0.06641,0.001907,0.0003757,0.5781,0.04865,3.586,0.007742,0,0,0.3057
6000000000,6300000000,5022021456,0,367886059,0.2388,0.06592,0.09937,0.03741,0.03772,0.06665,0.002636,0.0003757,0.4609,0.05719,3.7,0.00846,0,0,0.2429
6300000000,6600000000,5022021456,0,367886059,0.2568,0.06616,0.09973,0.03802,0.03833,0.06689,0.002632,0.0003748,0.5703,0.05463,3.075,0.006552,0,0,0.3228
6600000000,6900000000,5022021456,0,367886059,0.2495,0.06616,0.09973,0.03357,0.03387,0.06677,0.002716,0.0003748,0.4683,0.06,2.843,0.005855,0,0,0.2974
6900000000,7200000000,5022021456,0,367886059,0.2444,0.06604,0.09985,0.02631,0.02658,0.06653,0.002674,0.0003757,0.4219,0.04987,3.114,0.00684,0,0,0.1682
7200000000,7500000000,5022021456,0,367886059,0.2483,0.06592,0.09961,0.03363,0.03394,0.06677,0.002743,0.0003757,0.4219,0.05737,3.556,0.00808,0,0,0.2803
7500000000,7800000000,5022021456,0,367886059,0.2258,0.0658,0.09863,0.02664,0.02692,0.06665,0.002605,0.0003738,0.5938,0.05774,3.342,0.00749,0,0,0.4058
7800000000,8100000000,5022021456,0,367886059,0.1804,0.06494,0.09839,0.03247,0.03278,0.06726,0.002625,0.0003767,0.4375,0.05457,3.75,0.008379,0,0,0.1448
8100000000,8400000000,5022021456,0,367886059,0.1758,0.06592,0.09961,0.03073,0.03101,0.06738,0.002274,0.0003757,0.4199,0.05524,4.09,0.009319,0,0,0.219
8700000000,9000000000,5022021456,0,367886059,0.2607,0.06555,0.09839,0.02298,0.02325,0.06628,0.002846,0.0003777,0.4238,0.05762,3.205,0.006928,0,0,0.2627
9000000000,9300000000,5022021456,0,367886059,0.2744,0.06628,0.09973,0.03116,0.03143,0.06665,0.003128,0.0003748,0.4639,0.05487,2.491,0.004787,0,0,0.335
9300000000,9600000000,5022021456,0,367886059,0.25,0.06628,0.09973,0.03802,0.03833,0.06677,0.003204,0.0003748,0.4375,0.05438,2.959,0.006113,0,0,0.1926
9600000000,9900000000,5022021456,0,367886059,0.2476,0.06567,0.09875,0.03006,0.03033,0.06677,0.002911,0.0003757,0.4263,0.05206,3.323,0.007243,0,0,0.3115
9900000000,10200000000,5022021456,0,367886059,0.238,0.0658,0.09888,0.02859,0.0289,0.06653,0.002811,0.0003757,0.4258,0.05524,3.619,0.008193,0,0,0.293
10200000000,10500000000,5022021456,0,367886059,0.178,0.06519,0.09851,0.03625,0.03656,0.06738,0.002781,0.0003748,0.4307,0.05719,3.417,0.007409,0,0,0.1248
10500000000,10800000000,5022021456,0,367886059,0.1782,0.06604,0.09985,0.0379,0.03821,0.06714,0.002678,0.0003786,0.4238,0.05524,3.88,0.0087,0,0,0.2097
96000000000,96300000000,5022021456,0,367886059,0.2412,0.06592,0.09949,0.01849,0.01877,0.06653,0.002617,0.0003757,0.3916,0.04956,3.041,0.006506,0,0,0.2231
96600000000,96900000000,5022021456,0,367886059,0.248,0.06628,0.09998,0.02988,0.03015,0.06689,0.002335,0.0003757,0.375,0.04608,3.523,0.007653,0,0,0.2393
96900000000,97200000000,5022021456,0,367886059,0.2485,0.06604,0.09985,0.02164,0.02191,0.06665,0.002609,0.0003777,0.4688,0.04669,3.707,0.008283,0,0,0.3008
97200000000,97500000000,5022021456,0,367886059,0.2686,0.06531,0.09802,0.008224,0.008499,0.06628,0.002758,0.0003786,0.4126,0.04614,2.738,0.005554,0,0,0.2217
97500000000,97800000000,5022021456,0,367886059,0.2273,0.06567,0.09888,0.01443,0.01471,0.06653,0.002415,0.0003777,0.4126,0.04865,3.276,0.006965,0,0,0.1084
97800000000,98100000000,5022021456,0,367886059,0.1692,0.0647,0.09802,0.01006,0.01033,0.0658,0.002197,0.0003757,0.3745,0.04639,4.092,0.009722,0,0,0.1494
98100000000,98400000000,5022021456,0,367886059,0.1873,0.06592,0.09961,0.008545,0.00882,0.06738,0.00248,0.0003757,0.3916,0.04907,4.931,0.01188,0,0,0.3433
98700000000,99000000000,5022021456,0,367886059,0.2434,0.06592,0.1001,0.01338,0.01366,0.06653,0.002281,0.0003777,0.4053,0.04974,3.158,0.00676,0,0,0.1646
99300000000,99600000000,5022021456,0,367886059,0.2505,0.06628,0.09961,0.02036,0.02063,0.06677,0.002666,0.0003738,0.375,0.04871,3.361,0.007109,0,0,0.2744
99600000000,99900000000,5022021456,0,367886059,0.2468,0.06604,0.1001,0.01971,0.01999,0.06641,0.002838,0.0003767,0.3687,0.05231,3.757,0.008353,0,0,0.3115
99900000000,100200000000,5022021456,0,367886059,0.2395,0.0658,0.09973,0.02991,0.03018,0.06653,0.002605,0.0003757,0.4219,0.0575,3.141,0.006668,0,0,0.292
100200000000,100500000000,5022021456,0,367886059,0.2266,0.0658,0.09814,0.02316,0.02344,0.06616,0.002926,0.0003757,0.5312,0.04333,3.218,0.006854,0,0,0.2339
100500000000,100800000000,5022021456,0,367886059,0.1843,0.06494,0.09827,0.02316,0.02344,0.06824,0.001984,0.0003767,0.3838,0.0437,4.095,0.009615,0,0,0.1384
171000000000,171300000000,5022021456,0,367886059,0.1887,0.06445,0.09814,0.02335,0.02359,0.06531,0.002373,0.0003757,0.4766,0.04993,3.63,0.008007,0,0,0.1604
171300000000,171600000000,5022021456,0,367886059,0.1899,0.06433,0.09753,0.02628,0.02655,0.06641,0.001951,0.0003767,0.4922,0.04016,3.752,0.008387,0,0,0.2385
171600000000,171900000000,5022021456,0,367886059,0.2092,0.06531,0.09888,0.02161,0.02188,0.06628,0.001909,0.0003748,0.6797,0.04736,3.479,0.007489,0,0,0.3403
171900000000,172200000000,5022021456,0,367886059,0.2385,0.0647,0.09814,0.01544,0.01572,0.06543,0.0019,0.0003777,0.4219,0.047,3.37,0.007278,0,0,0.2378
172200000000,172500000000,5022021456,0,367886059,0.2478,0.06494,0.09814,0.01855,0.01883,0.06567,0.002281,0.0003767,0.5234,0.05219,2.938,0.006103,0,0,0.2554
172500000000,172800000000,5022021456,0,367886059,0.248,0.06543,0.09814,0.02316,0.02344,0.06592,0.002201,0.0003777,0.4248,0.05774,2.937,0.006086,0,0,0.1868
172800000000,173100000000,5022021456,0,367886059,0.2449,0.06531,0.09814,0.02283,0.02307,0.06592,0.002266,0.0003777,0.4375,0.04358,3.421,0.007524,0,0,0.2578
173100000000,173400000000,5022021456,0,367886059,0.2466,0.06519,0.09814,0.02841,0.02869,0.06592,0.002186,0.0003777,0.4375,0.04681,3.479,0.007737,0,0,0.2822
173400000000,173700000000,5022021456,0,367886059,0.2148,0.06506,0.09814,0.02631,0.02655,0.06555,0.002026,0.0003767,0.4233,0.0495,3.193,0.006887,0,0,0.4048
173700000000,174000000000,5022021456,0,367886059,0.1763,0.06409,0.09814,0.02365,0.0239,0.06738,0.001865,0.0003767,0.4141,0.04291,3.36,0.007333,0,0,0.1665
174600000000,174900000000,5022021456,0,367886059,0.2524,0.06616,0.09875,0.02542,0.02567,0.06714,0.002232,0.0003786,0.5469,0.05157,3.016,0.006356,0,0,0.2361
174900000000,175200000000,5022021456,0,367886059,0.2488,0.06641,0.09961,0.01862,0.01889,0.0675,0.002148,0.0003777,0.5156,0.05249,2.791,0.005634,0,0,0.1244
175200000000,175500000000,5022021456,0,367886059,0.2773,0.06653,0.09985,0.01843,0.01868,0.06714,0.002331,0.0003777,0.5859,0.05481,2.628,0.005238,0,0,0.3706
175500000000,175800000000,5022021456,0,367886059,0.2505,0.06653,0.09973,0.0253,0.02557,0.06738,0.002102,0.0003767,0.4185,0.04053,3.543,0.008094,0,0,0.1504
175800000000,176100000000,5022021456,0,367886059,0.231,0.06628,0.09985,0.02844,0.02872,0.06689,0.002045,0.0003777,0.4219,0.04865,3.364,0.007593,0,0,0.1345
196200000000,196500000000,5022021456,0,367886059,0.2097,0.06616,0.09985,0.02155,0.02179,0.06677,0.002125,0.0003757,0.4688,0.0545,4.572,0.0105,0,0,0.27
196500000000,196800000000,5022021456,0,367886059,0.2563,0.06653,0.09973,0.0278,0.02808,0.06689,0.002079,0.0003786,0.4766,0.04639,3.079,0.006219,0,0,0.2429
196800000000,197100000000,5022021456,0,367886059,0.2588,0.06677,0.09973,0.02731,0.02759,0.0675,0.002247,0.0003757,0.4844,0.05634,2.854,0.005573,0,0,0.3062
197100000000,197400000000,5022021456,0,367886059,0.2622,0.06677,0.09985,0.02686,0.02713,0.0675,0.002083,0.0003777,0.4771,0.05731,3.139,0.006348,0,0,0.2393
197400000000,197700000000,5022021456,0,367886059,0.2578,0.06702,0.09961,0.03656,0.03687,0.0675,0.002155,0.0003748,0.4761,0.05487,3.858,0.008465,0,0,0.1309
197700000000,198000000000,5022021456,0,367886059,0.2637,0.06665,0.09961,0.03717,0.03748,0.06714,0.002178,0.0003757,0.4795,0.04291,3.28,0.006785,0,0,0.2273
198000000000,198300000000,5022021456,0,367886059,0.2029,0.06616,0.09985,0.03497,0.03522,0.06726,0.001852,0.0003757,0.4756,0.04907,2.796,0.005377,0,0,0.2024
198300000000,198600000000,5022021456,0,367886059,0.1819,0.06641,0.09985,0.03448,0.03479,0.0675,0.002022,0.0003777,0.4849,0.04291,3.757,0.007962,0,0,0.2861
198600000000,198900000000,5022021456,0,367886059,0.2283,0.06616,0.09985,0.02887,0.02914,0.06665,0.001873,0.0003757,0.4922,0.04315,3.835,0.008471,0,0,0.1396
198900000000,199200000000,5022021456,0,367886059,0.2515,0.06628,0.09985,0.03479,0.0351,0.06677,0.002357,0.0003748,0.4922,0.04755,3.636,0.007998,0,0,0.1953
199200000000,199500000000,5022021456,0,367886059,0.2559,0.06653,0.09985,0.0304,0.03067,0.06714,0.002132,0.0003748,0.4878,0.05341,2.924,0.005934,0,0,0.0896
199500000000,199800000000,5022021456,0,367886059,0.2559,0.06592,0.09863,0.0191,0.01938,0.06702,0.002193,0.0003777,0.5781,0.04529,3.122,0.006497,0,0,0.1899
199800000000,200100000000,5022021456,0,367886059,0.2612,0.06653,0.09985,0.02881,0.02905,0.06726,0.002666,0.0003767,0.4893,0.04877,3.211,0.006707,0,0,0.3237
200100000000,200400000000,5022021456,0,367886059,0.2412,0.06641,0.09973,0.03735,0.0376,0.06689,0.002163,0.0003748,0.4707,0.05194,3.752,0.008213,0,0,0.1699
200400000000,200700000000,5022021456,0,367886059,0.1804,0.06506,0.09827,0.01257,0.01285,0.06616,0.001825,0.0003777,0.4688,0.0553,4.189,0.009168,0,0,0.3735
200700000000,201000000000,5022021456,0,367886059,0.188,0.06592,0.099,0.02295,0.02322,0.06702,0.002106,0.0003757,0.4609,0.05499,3.732,0.008132,0,0,0.1154
166200000000,166500000000,5022021456,0,367886059,0.1841,0.06494,0.09875,0.03693,0.03723,0.06641,0.002911,0.0003767,0.4722,0.04993,3.978,0.008739,0,0,0.08301
166500000000,166800000000,5022021456,0,367886059,0.1814,0.06445,0.09814,0.03729,0.03754,0.06494,0.00219,0.0003738,0.4658,0.05133,5.012,0.01175,0,0,0.1626
166800000000,167100000000,5022021456,0,367886059,0.2549,0.06506,0.09802,0.0351,0.0354,0.06567,0.00301,0.0003777,0.4844,0.04865,3.209,0.006614,0,0,0.2363
167100000000,167400000000,5022021456,0,367886059,0.2603,0.06519,0.09802,0.03668,0.03699,0.0658,0.003006,0.0003757,0.4766,0.05151,3.241,0.006779,0,0,0.1777
167400000000,167700000000,5022021456,0,367886059,0.2612,0.06531,0.09802,0.02377,0.02402,0.06592,0.00285,0.0003767,0.4766,0.05249,2.967,0.005978,0,0,0.334
167700000000,168000000000,5022021456,0,367886059,0.2493,0.06506,0.09814,0.02759,0.02786,0.06567,0.003006,0.0003767,0.48,0.04602,3.447,0.007395,0,0,0.2441
168000000000,168300000000,5022021456,0,367886059,0.2549,0.06506,0.09814,0.03564,0.03589,0.06567,0.003075,0.0003777,0.4731,0.05469,3.384,0.007029,0,0,0.3252
168300000000,168600000000,5022021456,0,367886059,0.2217,0.06506,0.09802,0.03735,0.0376,0.06567,0.002831,0.0003757,0.4834,0.0545,3.314,0.006909,0,0,0.1758
168600000000,168900000000,5022021456,0,367886059,0.2017,0.06421,0.09814,0.03302,0.03326,0.06482,0.002396,0.0003757,0.4834,0.04865,2.612,0.00493,0,0,0.08569
168900000000,169200000000,5022021456,0,367886059,0.1934,0.06494,0.09875,0.03149,0.03174,0.06653,0.002876,0.0003757,0.4727,0.05151,5.204,0.01193,0,0,0.2441
169200000000,169500000000,5022021456,0,367886059,0.2156,0.06458,0.09814,0.03064,0.03091,0.06519,0.002872,0.0003767,0.5234,0.05157,3.602,0.007833,0,0,0.1166
169500000000,169800000000,5022021456,0,367886059,0.2478,0.0647,0.09814,0.02316,0.02344,0.06519,0.00272,0.0003777,0.4766,0.05151,3.126,0.00636,0,0,0.4277
169800000000,170100000000,5022021456,0,367886059,0.2656,0.06506,0.09814,0.03122,0.03149,0.06555,0.003315,0.0003757,0.7188,0.0517,3.035,0.005993,0,0,0.209
170100000000,170400000000,5022021456,0,367886059,0.2617,0.06531,0.09814,0.02737,0.02765,0.06592,0.003319,0.0003777,0.4844,0.04578,3.386,0.007082,0,0,0.2749
170400000000,170700000000,5022021456,0,367886059,0.2578,0.06555,0.09875,0.03705,0.03729,0.06665,0.003216,0.0003777,0.4844,0.05151,3.805,0.00839,0,0,0.417
170700000000,171000000000,5022021456,0,367886059,0.2568,0.06519,0.09863,0.02866,0.02893,0.06604,0.002872,0.0003777,0.4741,0.04706,3.109,0.006535,0,0,0.3052
101700000000,102000000000,5022021456,0,367886059,0.2617,0.06628,0.1001,0.01495,0.01523,0.06665,0.002995,0.0003748,0.3906,0.0531,2.532,0.004819,0,0,0.3535
102000000000,102300000000,5022021456,0,367886059,0.2461,0.06628,0.1001,0.01367,0.01395,0.06665,0.003086,0.0003748,0.4048,0.05151,3.809,0.008492,0,0,0.2881
102300000000,102600000000,5022021456,0,367886059,0.25,0.06628,0.1001,0.01303,0.01331,0.06689,0.002853,0.0003777,0.4023,0.05298,3.577,0.007828,0,0,0.2117
102900000000,103200000000,5022021456,0,367886059,0.1934,0.06592,0.09937,0.01639,0.01666,0.06653,0.002838,0.0003767,0.3594,0.04688,3.291,0.007036,0,0,0.3364
103500000000,103800000000,5022021456,0,367886059,0.1987,0.06604,0.09937,0.01083,0.01111,0.06689,0.002445,0.0003777,0.4189,0.04346,4.735,0.01129,0,0,0.1227
103800000000,104100000000,5022021456,0,367886059,0.2366,0.06628,0.1001,0.01543,0.01572,0.06702,0.002815,0.0003767,0.396,0.06909,2.982,0.006409,0,0,0.2307
104400000000,104700000000,5022021456,0,367886059,0.2539,0.06677,0.1001,0.02069,0.02097,0.0675,0.003254,0.0003777,0.5,0.04578,2.906,0.006009,0,0,0.3018
104700000000,105000000000,5022021456,0,367886059,0.2646,0.06604,0.09888,0.009354,0.009628,0.06702,0.002964,0.0003767,0.7422,0.04608,3.012,0.006459,0,0,0.2505
105000000000,105300000000,5022021456,0,367886059,0.2524,0.06628,0.09998,0.01877,0.01904,0.06689,0.003281,0.0003767,0.6641,0.0459,3.273,0.00705,0,0,0.2998
105300000000,105600000000,5022021456,0,367886059,0.2285,0.06616,0.09998,0.01736,0.01764,0.06677,0.002693,0.0003738,0.4165,0.04901,3.227,0.00686,0,0,0.2749
51000000000,51300000000,5022021456,0,367886059,0.1877,0.0647,0.09705,0.03061,0.03088,0.06604,0.001854,0.0003757,0.4766,0.04291,4.03,0.0091,0,0,0.3462
51900000000,52200000000,5022021456,0,367886059,0.2505,0.06458,0.09753,0.02869,0.02899,0.06543,0.002213,0.0003757,0.4644,0.05255,3.53,0.007603,0,0,0.1182
52200000000,52500000000,5022021456,0,367886059,0.2607,0.06482,0.09814,0.03613,0.03638,0.06519,0.002354,0.0003767,0.5391,0.04291,3.27,0.00693,0,0,0.2983
52500000000,52800000000,5022021456,0,367886059,0.2637,0.06506,0.09802,0.03748,0.03778,0.0658,0.002453,0.0003757,0.4756,0.04474,2.978,0.005902,0,0,0.3423
52800000000,53100000000,5022021456,0,367886059,0.252,0.06494,0.09802,0.0289,0.02921,0.06543,0.002506,0.0003748,0.4761,0.05206,3.095,0.006275,0,0,0.3198
53100000000,53400000000,5022021456,0,367886059,0.2656,0.06482,0.09814,0.02115,0.02145,0.06531,0.002312,0.0003757,0.5,0.05255,4.017,0.008856,0,0,0.2749
53400000000,53700000000,5022021456,0,367886059,0.2559,0.06445,0.09814,0.02124,0.02151,0.06494,0.002213,0.0003767,0.5078,0.05164,3.26,0.006833,0,0,0.1914
53700000000,54000000000,5022021456,0,367886059,0.1895,0.06409,0.09717,0.01797,0.01825,0.06506,0.002075,0.0003757,0.6953,0.04034,4.189,0.009496,0,0,0.1117
54000000000,54300000000,5022021456,0,367886059,0.1826,0.06348,0.09631,0.01828,0.01859,0.06384,0.001852,0.0003777,0.4229,0.03491,4.63,0.01143,0,0,0.1069
54900000000,55200000000,5022021456,0,367886059,0.2759,0.06494,0.09802,0.02191,0.02219,0.06543,0.002361,0.0003767,0.5078,0.04987,2.766,0.005448,0,0,0.3721
55200000000,55500000000,5022021456,0,367886059,0.271,0.06519,0.09802,0.02475,0.02502,0.06555,0.002342,0.0003757,0.5,0.0517,2.88,0.005609,0,0,0.2458
55500000000,55800000000,5022021456,0,367886059,0.2632,0.06543,0.09802,0.02582,0.02609,0.06592,0.002472,0.0003767,0.4795,0.04352,3.3,0.006838,0,0,0.2754
90900000000,91200000000,5022021456,0,367886059,0.2498,0.06567,0.09875,0.01129,0.01157,0.06641,0.002598,0.0003757,0.5469,0.04858,3.145,0.006557,0,0,0.1978
91200000000,91500000000,5022021456,0,367886059,0.2451,0.06604,0.09937,0.01222,0.0125,0.06653,0.002708,0.0003777,0.375,0.04919,3.144,0.006639,0,0,0.2092
91500000000,91800000000,5022021456,0,367886059,0.2468,0.06592,0.09998,0.01953,0.01981,0.06641,0.002934,0.0003786,0.4077,0.08276,3.929,0.008944,0,0,0.2402
91800000000,92100000000,5022021456,0,367886059,0.2368,0.06567,0.09949,0.01213,0.01241,0.06665,0.002323,0.0003767,0.4028,0.0545,3.362,0.007429,0,0,0.3428
92100000000,92400000000,5022021456,0,367886059,0.2263,0.06531,0.09802,0.01065,0.01093,0.06592,0.002472,0.0003767,0.3984,0.05438,3.45,0.007378,0,0,0.1917
92400000000,92700000000,5022021456,0,367886059,0.1826,0.06458,0.09802,0.01027,0.01054,0.06494,0.002094,0.0003767,0.3882,0.04773,4.124,0.009406,0,0,0.1553
92700000000,93000000000,5022021456,0,367886059,0.187,0.0658,0.09875,0.01639,0.01666,0.06763,0.002369,0.0003767,0.3906,0.04321,4.788,0.01158,0,0,0.1338
93000000000,93300000000,5022021456,0,367886059,0.2209,0.06543,0.09814,0.01266,0.01294,0.06616,0.002445,0.0003777,0.4141,0.04706,3.954,0.00905,0,0,0.2078
93300000000,93600000000,5022021456,0,367886059,0.2456,0.0658,0.09863,0.01007,0.01035,0.06653,0.002453,0.0003767,0.4185,0.04016,3.1,0.006608,0,0,0.2485
93600000000,93900000000,5022021456,0,367886059,0.2598,0.06616,0.1001,0.01703,0.0173,0.06665,0.002541,0.0003767,0.4014,0.04437,2.66,0.00534,0,0,0.29
93900000000,94200000000,5022021456,0,367886059,0.2549,0.06628,0.1001,0.02884,0.02911,0.06689,0.002716,0.0003767,0.4062,0.0517,3.134,0.0065,0,0,0.1963
94200000000,94500000000,5022021456,0,367886059,0.2446,0.06628,0.09998,0.02872,0.02899,0.06689,0.002716,0.0003777,0.4141,0.03833,3.971,0.009099,0,0,0.2905
94500000000,94800000000,5022021456,0,367886059,0.2468,0.06592,0.09998,0.01794,0.01822,0.06665,0.002209,0.0003757,0.4141,0.03723,3.206,0.006883,0,0,0.2583
94800000000,95100000000,5022021456,0,367886059,0.2197,0.0658,0.09949,0.01733,0.01761,0.06689,0.002678,0.0003757,0.3828,0.05426,3.515,0.007679,0,0,0.2534
95100000000,95400000000,5022021456,0,367886059,0.1794,0.06458,0.09802,0.02228,0.02255,0.06506,0.001917,0.0003757,0.6328,0.03809,3.81,0.008622,0,0,0.08289
95700000000,96000000000,5022021456,0,367886059,0.2151,0.06543,0.09814,0.01297,0.01324,0.06616,0.002274,0.0003767,0.4014,0.04285,4.09,0.009536,0,0,0.1963
85800000000,86100000000,5022021456,0,367886059,0.2554,0.06592,0.09949,0.01274,0.01303,0.06677,0.0023,0.0003767,0.4453,0.04315,3.156,0.006546,0,0,0.2336
86100000000,86400000000,5022021456,0,367886059,0.2588,0.06616,0.1001,0.01764,0.01794,0.06665,0.002541,0.0003757,0.4556,0.04944,3.825,0.008546,0,0,0.2803
86400000000,86700000000,5022021456,0,367886059,0.251,0.06592,0.1001,0.02963,0.02991,0.06628,0.002281,0.0003757,0.4233,0.0437,3.253,0.006877,0,0,0.2778
86700000000,87000000000,5022021456,0,367886059,0.2214,0.06592,0.09973,0.03381,0.03406,0.06714,0.002338,0.0003777,0.4702,0.04865,3.525,0.007608,0,0,0.3247
87000000000,87300000000,5022021456,0,367886059,0.1819,0.06506,0.09814,0.03479,0.03503,0.06543,0.001841,0.0003738,0.4219,0.03912,4.053,0.009049,0,0,0.1189
87600000000,87900000000,5022021456,0,367886059,0.21,0.06555,0.09814,0.02521,0.02548,0.06628,0.002289,0.0003748,0.3945,0.03772,4.047,0.009414,0,0,0.1755
88200000000,88500000000,5022021456,0,367886059,0.2529,0.0658,0.09814,0.02774,0.02802,0.06628,0.002548,0.0003767,0.4453,0.0498,2.969,0.006199,0,0,0.2549
88500000000,88800000000,5022021456,0,367886059,0.2573,0.06628,0.09973,0.03241,0.03265,0.06677,0.002571,0.0003777,0.5,0.05237,3.336,0.007028,0,0,0.196
88800000000,89100000000,5022021456,0,367886059,0.2554,0.06604,0.09998,0.03552,0.03577,0.06665,0.002514,0.0003767,0.5,0.06,3.823,0.008499,0,0,0.2175
89100000000,89400000000,5022021456,0,367886059,0.2466,0.06555,0.09839,0.01404,0.01431,0.06616,0.002384,0.0003777,0.4004,0.04681,3.603,0.008111,0,0,0.2529
89400000000,89700000000,5022021456,0,367886059,0.2432,0.06543,0.09839,0.02194,0.02222,0.06628,0.002502,0.0003757,0.6328,0.04303,2.949,0.006081,0,0,0.3584
89700000000,90000000000,5022021456,0,367886059,0.1973,0.06482,0.09814,0.01534,0.01561,0.06519,0.002193,0.0003767,0.3696,0.05151,3.484,0.007709,0,0,0.1536
90000000000,90300000000,5022021456,0,367886059,0.1865,0.06604,0.09973,0.02783,0.02811,0.06726,0.002548,0.0003767,0.4141,0.04877,4.033,0.009412,0,0,0.1541
90600000000,90900000000,5022021456,0,367886059,0.2444,0.0658,0.09998,0.01852,0.0188,0.06641,0.002357,0.0003777,0.5078,0.04059,3.237,0.006904,0,0,0.2065
66000000000,66300000000,5022021456,0,367886059,0.2822,0.06616,0.09985,0.03632,0.03656,0.06702,0.003044,0.0003767,0.5234,0.05176,2.886,0.005747,0,0,0.2078
66300000000,66600000000,5022021456,0,367886059,0.2612,0.06555,0.09888,0.02832,0.02859,0.06689,0.002892,0.0003777,0.5,0.04065,3.455,0.00741,0,0,0.3081
66600000000,66900000000,5022021456,0,367886059,0.2593,0.06628,0.09998,0.03091,0.03119,0.06689,0.002918,0.0003777,0.4844,0.05444,3.376,0.007159,0,0,0.356
66900000000,67200000000,5022021456,0,367886059,0.2607,0.06616,0.09985,0.03796,0.03827,0.06665,0.003105,0.0003786,0.4766,0.05035,3.307,0.006884,0,0,0.2048
67200000000,67500000000,5022021456,0,367886059,0.2617,0.06592,0.09912,0.02325,0.02353,0.06689,0.002586,0.0003777,0.4766,0.04401,3.019,0.006202,0,0,0.3604
67500000000,67800000000,5022021456,0,367886059,0.189,0.06531,0.09888,0.02188,0.02219,0.06653,0.001904,0.0003767,0.4619,0.03607,4.548,0.01043,0,0,0.4458
67800000000,68100000000,5022021456,0,367886059,0.1958,0.06543,0.09851,0.02927,0.02954,0.06702,0.001892,0.0003777,0.478,0.04486,4.957,0.01139,0,0,0.09302
68400000000,68700000000,5022021456,0,367886059,0.2407,0.06531,0.09814,0.0159,0.0162,0.06604,0.001904,0.0003767,0.4688,0.04694,3.314,0.006977,0,0,0.2483
68700000000,69000000000,5022021456,0,367886059,0.2754,0.06567,0.09851,0.02039,0.02069,0.06665,0.002094,0.0003777,0.4717,0.05872,3.389,0.007266,0,0,0.4531
69000000000,69300000000,5022021456,0,367886059,0.2856,0.06616,0.09961,0.01736,0.01767,0.06677,0.002361,0.0003767,0.4766,0.05884,2.936,0.006095,0,0,0.3149
69300000000,69600000000,5022021456,0,367886059,0.2598,0.0658,0.09973,0.01877,0.01904,0.06641,0.002132,0.0003757,0.4629,0.0498,3.204,0.006671,0,0,0.2224
69600000000,69900000000,5022021456,0,367886059,0.2671,0.06567,0.09851,0.01256,0.01285,0.06641,0.002068,0.0003757,0.4712,0.04327,3.365,0.007017,0,0,0.1741
69900000000,70200000000,5022021456,0,367886059,0.2568,0.06519,0.09778,0.01355,0.01384,0.06604,0.001938,0.0003757,0.479,0.05731,3.181,0.006753,0,0,0.2769
70200000000,70500000000,5022021456,0,367886059,0.1868,0.0647,0.09778,0.0107,0.01099,0.06543,0.001715,0.0003777,0.4697,0.0401,4.565,0.01052,0,0,0.2549
70500000000,70800000000,5022021456,0,367886059,0.1909,0.06555,0.09863,0.01418,0.01447,0.06775,0.00185,0.0003738,0.4673,0.05151,4.401,0.009607,0,0,0.198
146100000000,146400000000,5022021456,0,367886059,0.1755,0.06458,0.09814,0.0368,0.03705,0.06555,0.002472,0.0003757,0.416,0.05249,3.822,0.008655,0,0,0.1095
146700000000,147000000000,5022021456,0,367886059,0.1836,0.06409,0.0979,0.01115,0.01141,0.06592,0.002319,0.0003748,0.4136,0.05267,4.835,0.01175,0,0,0.3037
147000000000,147300000000,5022021456,0,367886059,0.2271,0.06445,0.09729,0.009628,0.009903,0.06531,0.002296,0.0003767,0.4922,0.04865,3.563,0.007882,0,0,0.2102
147600000000,147900000000,5022021456,0,367886059,0.2444,0.06519,0.09814,0.01611,0.01639,0.06567,0.002628,0.0003767,0.4141,0.05292,3.046,0.006339,0,0,0.2764
147900000000,148200000000,5022021456,0,367886059,0.2656,0.06543,0.09814,0.02429,0.02457,0.06592,0.002422,0.0003767,0.4297,0.04926,2.993,0.006275,0,0,0.2476
148200000000,148500000000,5022021456,0,367886059,0.2549,0.06506,0.09814,0.01492,0.01518,0.06567,0.002243,0.0003786,0.5859,0.04333,3.198,0.006924,0,0,0.2734
148500000000,148800000000,5022021456,0,367886059,0.238,0.06433,0.09766,0.008453,0.008728,0.06494,0.002144,0.0003757,0.6328,0.04645,3.057,0.006458,0,0,0.2048
148800000000,149100000000,5022021456,0,367886059,0.1785,0.06384,0.09729,0.01115,0.01143,0.06494,0.002117,0.0003757,0.4297,0.04871,3.995,0.008938,0,0,0.1638
149400000000,149700000000,5022021456,0,367886059,0.178,0.06482,0.09778,0.01073,0.011,0.06641,0.002041,0.0003767,0.5547,0.04291,4.559,0.01063,0,0,0.1411
149700000000,150000000000,5022021456,0,367886059,0.1807,0.06445,0.09814,0.01035,0.01062,0.06519,0.001913,0.0003757,0.6484,0.04333,4.067,0.009315,0,0,0.1333
150000000000,150300000000,5022021456,0,367886059,0.2112,0.0647,0.09814,0.01614,0.01639,0.06567,0.001991,0.0003767,0.4922,0.05206,3.567,0.007822,0,0,0.1252
150300000000,150600000000,5022021456,0,367886059,0.252,0.06506,0.09814,0.01511,0.01538,0.06555,0.002419,0.0003767,0.6406,0.04706,3.235,0.006948,0,0,0.2251
150600000000,150900000000,5022021456,0,367886059,0.2632,0.06531,0.09802,0.01413,0.0144,0.06567,0.002228,0.0003777,0.5,0.04614,3.551,0.007655,0,0,0.2725
192000000000,192300000000,5022021456,0,367886059,0.2534,0.06677,0.1001,0.01907,0.01935,0.0675,0.002384,0.0003757,0.4771,0.05237,3.244,0.006997,0,0,0.2856
192300000000,192600000000,5022021456,0,367886059,0.2612,0.06702,0.1001,0.02744,0.02771,0.06775,0.002342,0.0003757,0.4775,0.05438,3.275,0.006929,0,0,0.2378
192600000000,192900000000,5022021456,0,367886059,0.2598,0.06702,0.09998,0.02859,0.02884,0.06763,0.002148,0.0003748,0.5078,0.05157,3.193,0.006621,0,0,0.2046
192900000000,193200000000,5022021456,0,367886059,0.2637,0.06702,0.09998,0.0354,0.03564,0.0675,0.001987,0.0003748,0.4766,0.04059,3.18,0.006607,0,0,0.3481
193200000000,193500000000,5022021456,0,367886059,0.2256,0.06677,0.09998,0.03577,0.03601,0.06763,0.00243,0.0003767,0.4795,0.05481,3.398,0.007217,0,0,0.2229
193500000000,193800000000,5022021456,0,367886059,0.1931,0.06677,0.1005,0.03778,0.03802,0.06812,0.002151,0.0003777,0.4922,0.05151,4.652,0.01044,0,0,0.1252
193800000000,194100000000,5022021456,0,367886059,0.2273,0.06653,0.09985,0.02759,0.02786,0.06726,0.00194,0.0003757,0.5625,0.06012,3.175,0.006706,0,0,0.08423
194100000000,194400000000,5022021456,0,367886059,0.2583,0.06726,0.09985,0.03131,0.03156,0.0675,0.002365,0.0003777,0.6953,0.04865,3.308,0.007042,0,0,0.3408
194400000000,194700000000,5022021456,0,367886059,0.2603,0.06665,0.09973,0.03394,0.03418,0.06738,0.002522,0.0003767,0.7266,0.05536,3.168,0.006432,0,0,0.2959
194700000000,195000000000,5022021456,0,367886059,0.2661,0.06689,0.09973,0.03308,0.03339,0.06738,0.002247,0.0003777,0.5234,0.05792,3.371,0.007047,0,0,0.2124
195000000000,195300000000,5022021456,0,367886059,0.2598,0.06677,0.09973,0.02234,0.02261,0.0675,0.002514,0.0003786,0.4844,0.04791,3.513,0.007564,0,0,0.3164
195300000000,195600000000,5022021456,0,367886059,0.2603,0.06616,0.09985,0.02231,0.02258,0.06677,0.00198,0.0003767,0.4775,0.05151,3.135,0.006401,0,0,0.3931
195600000000,195900000000,5022021456,0,367886059,0.1936,0.06567,0.099,0.01584,0.01611,0.06677,0.002018,0.0003777,0.479,0.05817,3.564,0.007454,0,0,0.08899
195900000000,196200000000,5022021456,0,367886059,0.1948,0.06604,0.09924,0.01222,0.01248,0.06738,0.002064,0.0003767,0.4863,0.05157,4.537,0.0103,0,0,0.08997
206100000000,206400000000,5022021456,0,367886059,0.2573,0.06641,0.09998,0.01953,0.01981,0.06702,0.002369,0.0003757,0.4751,0.04681,3.123,0.006563,0,0,0.2793
206400000000,206700000000,5022021456,0,367886059,0.2598,0.06653,0.09973,0.02557,0.02585,0.06738,0.003227,0.0003767,0.5156,0.0517,2.931,0.005858,0,0,0.2351
206700000000,207000000000,5022021456,0,367886059,0.2632,0.06628,0.09937,0.01913,0.01941,0.06738,0.002731,0.0003767,0.7812,0.0401,3.253,0.007055,0,0,0.333
207000000000,207300000000,5022021456,0,367886059,0.2505,0.06641,0.09985,0.01996,0.02023,0.06689,0.002876,0.0003757,0.4531,0.05438,2.887,0.006192,0,0,0.2217
207300000000,207600000000,5022021456,0,367886059,0.2119,0.06604,0.09937,0.02072,0.02097,0.06702,0.002712,0.0003748,0.5469,0.05176,3.246,0.006816,0,0,0.3047
207600000000,207900000000,5022021456,0,367886059,0.1765,0.0658,0.09851,0.02286,0.02313,0.06775,0.002922,0.0003767,0.4219,0.04669,3.87,0.00832,0,0,0.1685
208500000000,208800000000,5022021456,0,367886059,0.2485,0.06628,0.09998,0.02429,0.02457,0.06726,0.003094,0.0003777,0.5625,0.05157,3.141,0.006708,0,0,0.1501
208800000000,209100000000,5022021456,0,367886059,0.2434,0.06677,0.09998,0.03156,0.0318,0.06714,0.002895,0.0003757,0.6875,0.04877,2.695,0.005375,0,0,0.2498
209100000000,209400000000,5022021456,0,367886059,0.251,0.06653,0.09998,0.03333,0.03357,0.06714,0.002987,0.0003767,0.5,0.05438,3.33,0.007166,0,0,0.3164
209400000000,209700000000,5022021456,0,367886059,0.2422,0.06604,0.09998,0.01317,0.01343,0.06665,0.002979,0.0003767,0.6406,0.04871,3.659,0.008381,0,0,0.2705
209700000000,210000000000,5022021456,0,367886059,0.1951,0.06567,0.09937,0.02383,0.02408,0.06628,0.002655,0.0003767,0.4668,0.05463,3.409,0.007547,0,0,0.07397
210000000000,210300000000,5022021456,0,367886059,0.188,0.0658,0.09888,0.02451,0.02478,0.0675,0.002464,0.0003738,0.4741,0.04871,3.844,0.008347,0,0,0.2434
210300000000,210600000000,5022021456,0,367886059,0.1763,0.06519,0.09827,0.02542,0.0257,0.0658,0.002594,0.0003767,0.4736,0.05151,4.067,0.009059,0,0,0.1619
210600000000,210900000000,5022021456,0,367886059,0.2051,0.06543,0.09851,0.02747,0.02774,0.06641,0.002769,0.0003767,0.5,0.04865,4.72,0.01092,0,0,0.2612
210900000000,211200000000,5022021456,0,367886059,0.2563,0.06616,0.09998,0.03717,0.03741,0.06665,0.002693,0.0003786,0.479,0.04865,3.216,0.006569,0,0,0.3892
211200000000,211500000000,5022021456,0,367886059,0.2812,0.06641,0.09998,0.02747,0.02771,0.06714,0.003334,0.0003767,0.5,0.04865,2.661,0.005052,0,0,0.3379
211500000000,211800000000,5022021456,0,367886059,0.2661,0.06641,0.09998,0.02301,0.02325,0.06702,0.002167,0.0003757,0.6094,0.05341,2.903,0.005651,0,0,0.3198
211800000000,212100000000,5022021456,0,367886059,0.2642,0.06616,0.09998,0.02402,0.02429,0.06677,0.002213,0.0003767,0.6406,0.05206,3.557,0.007551,0,0,0.2632
212100000000,212400000000,5022021456,0,367886059,0.2505,0.06567,0.09863,0.01207,0.01234,0.06628,0.001925,0.0003748,0.7344,0.04199,3.613,0.007961,0,0,0.21
212400000000,212700000000,5022021456,0,367886059,0.186,0.06531,0.09814,0.02213,0.0224,0.06616,0.001972,0.0003748,0.4541,0.04865,3.549,0.007532,0,0,0.1533
212700000000,213000000000,5022021456,0,367886059,0.1929,0.06604,0.09949,0.03088,0.03116,0.06763,0.001713,0.0003777,0.4844,0.04834,4.209,0.00912,0,0,0.09949
213300000000,213600000000,5022021456,0,367886059,0.2524,0.06616,0.1001,0.0235,0.02377,0.06653,0.002102,0.0003748,0.5156,0.03735,3.353,0.007214,0,0,0.3491
213600000000,213900000000,5022021456,0,367886059,0.2568,0.06616,0.1001,0.01147,0.01175,0.06665,0.002171,0.0003767,0.4609,0.05713,3.105,0.006325,0,0,0.2812
213900000000,214200000000,5022021456,0,367886059,0.2488,0.06641,0.09985,0.01926,0.0195,0.06702,0.002174,0.0003786,0.5312,0.0459,3.22,0.006603,0,0,0.2244
214200000000,214500000000,5022021456,0,367886059,0.2612,0.06592,0.09961,0.00946,0.00972,0.06665,0.002201,0.0003767,0.4717,0.0545,3.334,0.006901,0,0,0.1868
214500000000,214800000000,5022021456,0,367886059,0.2539,0.06531,0.09839,0.008957,0.009232,0.06628,0.002014,0.0003748,0.5781,0.04895,3.633,0.008095,0,0,0.231
214800000000,215100000000,5022021456,0,367886059,0.1833,0.06519,0.09851,0.01678,0.01706,0.06653,0.001612,0.0003777,0.4458,0.04871,3.74,0.008032,0,0,0.1948
215100000000,215400000000,5022021456,0,367886059,0.2053,0.06482,0.09827,0.02557,0.02585,0.06519,0.00186,0.0003748,0.4688,0.05414,2.761,0.005339,0,0,0.1279
215400000000,215700000000,5022021456,0,367886059,0.1865,0.0647,0.09814,0.02863,0.0289,0.06531,0.001778,0.0003757,0.4482,0.0412,3.96,0.008652,0,0,0.2478
215700000000,216000000000,5022021456,0,367886059,0.1914,0.06604,0.09961,0.02802,0.02829,0.06714,0.001787,0.0003767,0.4688,0.04614,5.015,0.01162,0,0,0.1372
141000000000,141300000000,5022021456,0,367886059,0.1775,0.06409,0.09814,0.01396,0.01424,0.06445,0.002327,0.0003757,0.4077,0.05334,3.952,0.009075,0,0,0.1726
141900000000,142200000000,5022021456,0,367886059,0.2471,0.06531,0.09814,0.03198,0.03223,0.0658,0.002365,0.0003757,0.4375,0.05438,3.172,0.006922,0,0,0.2803
142200000000,142500000000,5022021456,0,367886059,0.2463,0.06543,0.09802,0.03687,0.03717,0.06604,0.002304,0.0003767,0.4219,0.04645,3.201,0.007026,0,0,0.1719
142500000000,142800000000,5022021456,0,367886059,0.2524,0.0658,0.09985,0.03851,0.03876,0.06616,0.002506,0.0003767,0.4219,0.04401,2.923,0.006012,0,0,0.3457
143400000000,143700000000,5022021456,0,367886059,0.2043,0.06482,0.09814,0.02084,0.02112,0.06592,0.002155,0.0003767,0.4238,0.04871,3.154,0.006832,0,0,0.1243
143700000000,144000000000,5022021456,0,367886059,0.1746,0.06409,0.09814,0.01883,0.0191,0.06445,0.002197,0.0003767,0.418,0.03723,3.948,0.009277,0,0,0.1946
144900000000,145200000000,5022021456,0,367886059,0.2449,0.06555,0.09814,0.03098,0.03125,0.06628,0.002544,0.0003767,0.5,0.04303,2.94,0.00619,0,0,0.228
145200000000,145500000000,5022021456,0,367886059,0.2549,0.06543,0.09814,0.02429,0.02457,0.06592,0.002651,0.0003767,0.4297,0.05719,3.209,0.006905,0,0,0.3276
145500000000,145800000000,5022021456,0,367886059,0.2449,0.06543,0.09814,0.03217,0.03247,0.06604,0.002647,0.0003777,0.4219,0.04913,3.737,0.008524,0,0,0.2754
145800000000,146100000000,5022021456,0,367886059,0.2388,0.06506,0.09814,0.02917,0.02945,0.0658,0.002701,0.0003767,0.4219,0.05463,3.086,0.00663,0,0,0.2188
45900000000,46200000000,5022021456,0,367886059,0.2593,0.06555,0.09814,0.02036,0.02063,0.06592,0.00201,0.0003738,0.4844,0.04907,3.041,0.006326,0,0,0.4707
46200000000,46500000000,5022021456,0,367886059,0.2642,0.06543,0.09802,0.02353,0.0238,0.06592,0.002232,0.0003748,0.6953,0.0401,3.196,0.006713,0,0,0.249
46500000000,46800000000,5022021456,0,367886059,0.2573,0.06592,0.09875,0.02609,0.0264,0.06641,0.002239,0.0003748,0.4844,0.04871,3.633,0.007957,0,0,0.353
46800000000,47100000000,5022021456,0,367886059,0.2583,0.06567,0.09827,0.02744,0.02771,0.06628,0.00235,0.0003767,0.4844,0.05151,3.497,0.007468,0,0,0.2798
47100000000,47400000000,5022021456,0,367886059,0.251,0.06531,0.09827,0.02603,0.02634,0.06592,0.002167,0.0003748,0.5625,0.04462,3.108,0.006507,0,0,0.136
47400000000,47700000000,5022021456,0,367886059,0.2085,0.06494,0.09814,0.02597,0.02628,0.06604,0.001995,0.0003767,0.4658,0.04913,3.552,0.007455,0,0,0.4453
47700000000,48000000000,5022021456,0,367886059,0.1807,0.06433,0.09814,0.01448,0.01477,0.0647,0.001648,0.0003757,0.4565,0.03723,5.392,0.01285,0,0,0.2856
48000000000,48300000000,5022021456,0,367886059,0.1907,0.06482,0.09814,0.02005,0.02032,0.06616,0.002144,0.0003757,0.4624,0.05719,4.709,0.01078,0,0,0.2078
48300000000,48600000000,5022021456,0,367886059,0.2029,0.06433,0.09814,0.01797,0.01825,0.06482,0.001991,0.0003757,0.4771,0.06012,4.258,0.00941,0,0,0.2222
48600000000,48900000000,5022021456,0,367886059,0.2319,0.06433,0.09814,0.01877,0.01904,0.06506,0.002007,0.0003757,0.5703,0.05151,2.925,0.005904,0,0,0.2104
48900000000,49200000000,5022021456,0,367886059,0.2686,0.06494,0.09814,0.02161,0.02188,0.06543,0.002113,0.0003767,0.4688,0.05444,3.507,0.007553,0,0,0.3364
49200000000,49500000000,5022021456,0,367886059,0.2715,0.06519,0.09814,0.02286,0.02316,0.06555,0.002319,0.0003748,0.5078,0.05157,3.878,0.008563,0,0,0.2534
49500000000,49800000000,5022021456,0,367886059,0.2573,0.06543,0.09814,0.03387,0.03412,0.06592,0.002331,0.0003748,0.4771,0.04791,3.193,0.006509,0,0,0.2219
49800000000,50100000000,5022021456,0,367886059,0.2588,0.06519,0.09814,0.02649,0.02676,0.06567,0.002243,0.0003748,0.4922,0.05731,3.279,0.006737,0,0,0.2048
50100000000,50400000000,5022021456,0,367886059,0.2505,0.06531,0.09814,0.03412,0.03442,0.06592,0.0023,0.0003757,0.4766,0.05157,3.35,0.006949,0,0,0.2524
50400000000,50700000000,5022021456,0,367886059,0.2305,0.06494,0.09802,0.0354,0.03564,0.06543,0.002254,0.0003757,0.5312,0.05487,3.908,0.008537,0,0,0.2612
50700000000,51000000000,5022021456,0,367886059,0.1833,0.06409,0.0968,0.02689,0.02719,0.06433,0.001816,0.0003748,0.4766,0.03723,4.437,0.01028,0,0,0.1115
105900000000,106200000000,5022021456,0,367886059,0.1912,0.06555,0.09888,0.02063,0.0209,0.06726,0.001743,0.0003767,0.4106,0.0401,4.453,0.01035,0,0,0.09253
106200000000,106500000000,5022021456,0,367886059,0.2476,0.06555,0.09814,0.01648,0.01675,0.06604,0.002151,0.0003748,0.7188,0.05237,3.451,0.007475,0,0,0.2651
106500000000,106800000000,5022021456,0,367886059,0.2463,0.06567,0.09814,0.02649,0.02676,0.06616,0.002541,0.0003767,0.4766,0.04871,3.257,0.006952,0,0,0.2178
107100000000,107400000000,5022021456,0,367886059,0.2432,0.06628,0.09998,0.02786,0.02814,0.06677,0.002281,0.0003767,0.4126,0.05505,3.589,0.007854,0,0,0.1409
107400000000,107700000000,5022021456,0,367886059,0.25,0.06653,0.09985,0.03772,0.03796,0.06726,0.002483,0.0003777,0.4219,0.04614,4.149,0.00957,0,0,0.3071
107700000000,108000000000,5022021456,0,367886059,0.2451,0.06567,0.099,0.02701,0.02728,0.06628,0.002121,0.0003767,0.4199,0.04291,3.535,0.007801,0,0,0.3403
108000000000,108300000000,5022021456,0,367886059,0.2048,0.06506,0.09814,0.01794,0.01822,0.06616,0.001818,0.0003757,0.4053,0.0459,2.752,0.005428,0,0,0.2642
108300000000,108600000000,5022021456,0,367886059,0.1919,0.06665,0.09998,0.02219,0.02246,0.06812,0.002132,0.0003757,0.375,0.05048,4.053,0.009359,0,0,0.1306
108600000000,108900000000,5022021456,0,367886059,0.2341,0.06628,0.09998,0.0177,0.01797,0.06677,0.002041,0.0003767,0.4062,0.03833,3.847,0.00872,0,0,0.2356
108900000000,109200000000,5022021456,0,367886059,0.251,0.06628,0.1001,0.01572,0.01599,0.06714,0.002205,0.0003767,0.4219,0.0459,3.472,0.007637,0,0,0.2268
109200000000,109500000000,5022021456,0,367886059,0.2563,0.06653,0.09998,0.01715,0.01743,0.06714,0.002048,0.0003786,0.4531,0.05499,3.021,0.006089,0,0,0.2583
109500000000,109800000000,5022021456,0,367886059,0.2505,0.06665,0.09998,0.01965,0.01993,0.06763,0.002346,0.0003777,0.4355,0.04291,3.051,0.006246,0,0,0.2939
109800000000,110100000000,5022021456,0,367886059,0.2544,0.06653,0.09998,0.01192,0.01219,0.06689,0.002083,0.0003767,0.6875,0.05792,3.549,0.007708,0,0,0.1843
110100000000,110400000000,5022021456,0,367886059,0.2588,0.06592,0.09875,0.008057,0.008316,0.06665,0.002068,0.0003767,0.7422,0.03729,3.499,0.007525,0,0,0.2188
110700000000,111000000000,5022021456,0,367886059,0.1975,0.06543,0.09839,0.008484,0.008759,0.06763,0.001926,0.0003748,0.4692,0.0495,4.031,0.008725,0,0,0.179
161400000000,161700000000,5022021456,0,367886059,0.2563,0.06506,0.09802,0.01216,0.01242,0.06567,0.002567,0.0003767,0.4609,0.04224,3.506,0.00763,0,0,0.3345
161700000000,162000000000,5022021456,0,367886059,0.2515,0.06543,0.09802,0.01524,0.01552,0.06604,0.002731,0.0003748,0.4688,0.05493,2.927,0.005854,0,0,0.2964
162000000000,162300000000,5022021456,0,367886059,0.2573,0.06555,0.09802,0.02148,0.02176,0.06604,0.003033,0.0003757,0.4922,0.05438,3.068,0.006284,0,0,0.1809
162300000000,162600000000,5022021456,0,367886059,0.2505,0.06543,0.09814,0.02887,0.02914,0.06604,0.002708,0.0003757,0.5078,0.04871,3.523,0.007669,0,0,0.2529
162600000000,162900000000,5022021456,0,367886059,0.2219,0.06531,0.09827,0.03461,0.03491,0.06641,0.002762,0.0003767,0.4297,0.05194,3.884,0.008769,0,0,0.1235
162900000000,163200000000,5022021456,0,367886059,0.1787,0.06384,0.09644,0.01935,0.01962,0.06458,0.002048,0.0003748,0.5938,0.0531,4.035,0.008889,0,0,0.1636
163500000000,163800000000,5022021456,0,367886059,0.1787,0.06519,0.09827,0.01767,0.01794,0.06628,0.00238,0.0003748,0.8125,0.04584,4.48,0.01004,0,0,0.08728
163800000000,164100000000,5022021456,0,367886059,0.2188,0.0647,0.09814,0.01794,0.01819,0.06543,0.00272,0.0003757,0.4683,0.04871,4.274,0.009561,0,0,0.2549
164100000000,164400000000,5022021456,0,367886059,0.2637,0.06445,0.09778,0.009903,0.01018,0.06519,0.002922,0.0003757,0.4688,0.04919,2.974,0.006013,0,0,0.3989
164400000000,164700000000,5022021456,0,367886059,0.2754,0.06506,0.09814,0.01083,0.01109,0.06567,0.002945,0.0003767,0.5469,0.04865,2.613,0.005088,0,0,0.1841
164700000000,165000000000,5022021456,0,367886059,0.2617,0.06519,0.09814,0.01965,0.0199,0.06567,0.003166,0.0003777,0.75,0.05151,3.009,0.005923,0,0,0.2793
165000000000,165300000000,5022021456,0,367886059,0.2617,0.06555,0.09814,0.0321,0.03235,0.06592,0.003033,0.0003757,0.4766,0.05164,3.64,0.007853,0,0,0.3003
165300000000,165600000000,5022021456,0,367886059,0.2549,0.06506,0.09802,0.03705,0.03735,0.0658,0.002728,0.0003757,0.4688,0.05542,3.487,0.007527,0,0,0.1819
165600000000,165900000000,5022021456,0,367886059,0.1902,0.06482,0.09802,0.03723,0.03748,0.06567,0.002602,0.0003777,0.4785,0.05151,3.605,0.007523,0,0,0.2505
165900000000,166200000000,5022021456,0,367886059,0.1882,0.06433,0.09814,0.03735,0.03766,0.06641,0.002228,0.0003738,0.4766,0.05267,3.851,0.008272,0,0,0.121
136200000000,136500000000,5022021456,0,367886059,0.1782,0.06519,0.09827,0.01506,0.01534,0.06628,0.001968,0.0003796,0.5,0.04724,4.579,0.01056,0,0,0.1262
137100000000,137400000000,5022021456,0,367886059,0.2573,0.06543,0.09814,0.01027,0.01053,0.06592,0.002239,0.0003786,0.5391,0.04919,2.74,0.005378,0,0,0.3242
137400000000,137700000000,5022021456,0,367886059,0.2661,0.06567,0.09814,0.01053,0.01079,0.06641,0.002182,0.0003757,0.5703,0.04407,3.254,0.00689,0,0,0.3159
138000000000,138300000000,5022021456,0,367886059,0.2505,0.06531,0.09814,0.01572,0.01599,0.0658,0.002277,0.0003757,0.4844,0.04639,3.399,0.007363,0,0,0.1858
138300000000,138600000000,5022021456,0,367886059,0.1958,0.06494,0.09814,0.01611,0.01636,0.06592,0.0019,0.0003757,0.4829,0.05255,3.774,0.008061,0,0,0.08728
138600000000,138900000000,5022021456,0,367886059,0.1833,0.06482,0.09827,0.02011,0.02039,0.06641,0.002026,0.0003748,0.4844,0.05438,3.67,0.007829,0,0,0.1063
139200000000,139500000000,5022021456,0,367886059,0.2395,0.06506,0.09802,0.03085,0.03113,0.06567,0.002525,0.0003757,0.4209,0.04944,3.531,0.007941,0,0,0.1807
139800000000,140100000000,5022021456,0,367886059,0.2686,0.06555,0.09814,0.02853,0.02881,0.06689,0.002899,0.0003757,0.4297,0.05157,2.655,0.005362,0,0,0.3784
140100000000,140400000000,5022021456,0,367886059,0.2539,0.06543,0.09863,0.02847,0.02875,0.06677,0.002411,0.0003757,0.4688,0.04913,3.024,0.006435,0,0,0.1765
140400000000,140700000000,5022021456,0,367886059,0.2327,0.06494,0.0979,0.01886,0.01913,0.06592,0.002567,0.0003767,0.4297,0.04987,4.082,0.009681,0,0,0.2373
140700000000,141000000000,5022021456,0,367886059,0.2305,0.06494,0.09802,0.01773,0.01797,0.06592,0.002304,0.0003777,0.416,0.05658,3.181,0.007004,0,0,0.2478
20700000000,21000000000,5022021456,0,367886059,0.1699,0.06506,0.09814,0.02798,0.02829,0.0658,0.002384,0.0003748,0.4697,0.04877,4.55,0.01022,0,0,0.2861
21000000000,21300000000,5022021456,0,367886059,0.1843,0.06555,0.09875,0.02927,0.02957,0.06689,0.002876,0.0003767,0.4888,0.05164,4.599,0.01033,0,0,0.1423
21600000000,21900000000,5022021456,0,367886059,0.2524,0.06519,0.09814,0.0332,0.03345,0.06567,0.00264,0.0003777,0.4844,0.04871,2.94,0.005979,0,0,0.3389
21900000000,22200000000,5022021456,0,367886059,0.2612,0.06531,0.09802,0.0246,0.02487,0.06592,0.002785,0.0003777,0.5156,0.05438,2.941,0.005915,0,0,0.4077
22500000000,22800000000,5022021456,0,367886059,0.2603,0.06592,0.09912,0.03778,0.03809,0.06653,0.003014,0.0003748,0.4819,0.04895,3.242,0.006777,0,0,0.3237
22800000000,23100000000,5022021456,0,367886059,0.2661,0.0658,0.09937,0.03674,0.03699,0.06665,0.0033,0.0003757,0.4844,0.05151,3.894,0.008557,0,0,0.4668
23100000000,23400000000,5022021456,0,367886059,0.2583,0.06531,0.09912,0.03296,0.03326,0.06628,0.002781,0.0003767,0.4707,0.05457,3.265,0.00685,0,0,0.1858
23400000000,23700000000,5022021456,0,367886059,0.1877,0.0647,0.09766,0.03381,0.03406,0.06604,0.002804,0.0003757,0.4634,0.05151,3.309,0.006985,0,0,0.3145
23700000000,24000000000,5022021456,0,367886059,0.1904,0.06494,0.09875,0.0365,0.0368,0.06665,0.002804,0.0003786,0.4834,0.05151,3.937,0.008249,0,0,0.1108
24000000000,24300000000,5022021456,0,367886059,0.1868,0.06482,0.09802,0.03693,0.03723,0.06531,0.002983,0.0003757,0.4844,0.04907,4.737,0.01103,0,0,0.1233
24300000000,24600000000,5022021456,0,367886059,0.2593,0.06555,0.099,0.03741,0.03772,0.06628,0.003124,0.0003757,0.4756,0.05176,3.579,0.007794,0,0,0.1499
24600000000,24900000000,5022021456,0,367886059,0.2627,0.06555,0.09973,0.0365,0.0368,0.06641,0.0028,0.0003757,0.5625,0.05157,3.092,0.006381,0,0,0.3311
24900000000,25200000000,5022021456,0,367886059,0.2622,0.06519,0.09778,0.0206,0.0209,0.06604,0.002808,0.0003777,0.7031,0.04578,2.926,0.005893,0,0,0.2329
25200000000,25500000000,5022021456,0,367886059,0.2798,0.06555,0.09814,0.02911,0.02939,0.06616,0.002159,0.0003748,0.478,0.04602,3.053,0.006374,0,0,0.2549
25500000000,25800000000,5022021456,0,367886059,0.2637,0.06567,0.09814,0.03168,0.03198,0.06616,0.002056,0.0003757,0.4766,0.04456,3.586,0.007877,0,0,0.3027
60900000000,61200000000,5022021456,0,367886059,0.2559,0.0658,0.09851,0.03552,0.03583,0.06665,0.002743,0.0003757,0.4766,0.05151,3.537,0.007502,0,0,0.292
61200000000,61500000000,5022021456,0,367886059,0.249,0.06592,0.09937,0.02118,0.02148,0.06653,0.002758,0.0003777,0.4844,0.0545,3.455,0.007303,0,0,0.2554
61500000000,61800000000,5022021456,0,367886059,0.2603,0.06555,0.09814,0.02325,0.02353,0.06616,0.002651,0.0003777,0.4854,0.04865,3.148,0.006304,0,0,0.1516
61800000000,62100000000,5022021456,0,367886059,0.2393,0.06555,0.09851,0.02594,0.02625,0.06653,0.002525,0.0003786,0.4805,0.05396,3.167,0.006505,0,0,0.1316
62100000000,62400000000,5022021456,0,367886059,0.1775,0.06458,0.09814,0.03424,0.03448,0.06506,0.001919,0.0003757,0.478,0.05176,4.16,0.009244,0,0,0.115
63000000000,63300000000,5022021456,0,367886059,0.2383,0.06506,0.09802,0.01956,0.01987,0.06543,0.002777,0.0003777,0.4668,0.0545,3.11,0.006402,0,0,0.2588
63300000000,63600000000,5022021456,0,367886059,0.2476,0.06506,0.0979,0.01349,0.01378,0.0658,0.002747,0.0003777,0.4219,0.05231,3.416,0.007078,0,0,0.24
63600000000,63900000000,5022021456,0,367886059,0.2515,0.06519,0.0979,0.01106,0.01135,0.06567,0.002651,0.0003767,0.4141,0.04034,3.889,0.008374,0,0,0.1636
63900000000,64200000000,5022021456,0,367886059,0.2473,0.06494,0.0979,0.007843,0.008133,0.0658,0.00293,0.0003757,0.4414,0.0517,3.702,0.007899,0,0,0.2444
64200000000,64500000000,5022021456,0,367886059,0.2583,0.06543,0.0979,0.01758,0.01788,0.06592,0.002892,0.0003786,0.4375,0.04639,3.366,0.006835,0,0,0.2993
64500000000,64800000000,5022021456,0,367886059,0.2559,0.0647,0.09778,0.01819,0.01846,0.0658,0.002914,0.0003767,0.4219,0.04669,3.406,0.006949,0,0,0.3276
64800000000,65100000000,5022021456,0,367886059,0.2012,0.06458,0.0979,0.01788,0.01819,0.06567,0.002541,0.0003777,0.4214,0.04401,4.162,0.009023,0,0,0.3447
65100000000,65400000000,5022021456,0,367886059,0.1943,0.06494,0.09863,0.0231,0.02338,0.06775,0.002945,0.0003767,0.4111,0.05164,5.178,0.01186,0,0,0.09814
126000000000,126300000000,5022021456,0,367886059,0.2012,0.06543,0.09814,0.01259,0.01286,0.06604,0.001886,0.0003757,0.4517,0.03986,4.018,0.009138,0,0,0.1237
126600000000,126900000000,5022021456,0,367886059,0.2529,0.06616,0.09961,0.02087,0.02115,0.06689,0.00227,0.0003748,0.5,0.05743,3.027,0.00632,0,0,0.271
126900000000,127200000000,5022021456,0,367886059,0.2351,0.06592,0.09985,0.01219,0.01247,0.06653,0.00211,0.0003757,0.4844,0.03619,3.306,0.007108,0,0,0.1531
127200000000,127500000000,5022021456,0,367886059,0.2273,0.06555,0.09814,0.0116,0.01187,0.06592,0.002464,0.0003767,0.3535,0.04877,4.031,0.009192,0,0,0.2229
127500000000,127800000000,5022021456,0,367886059,0.2375,0.06555,0.09814,0.0159,0.01617,0.06604,0.002159,0.0003738,0.4141,0.04572,3.393,0.007426,0,0,0.1692
127800000000,128100000000,5022021456,0,367886059,0.2239,0.06531,0.09814,0.01254,0.01282,0.06592,0.002243,0.0003757,0.4453,0.05804,3.392,0.007221,0,0,0.1262
128100000000,128400000000,5022021456,0,367886059,0.1841,0.0647,0.09814,0.008926,0.009186,0.06506,0.002144,0.0003748,0.4297,0.04364,4.137,0.008841,0,0,0.116
128400000000,128700000000,5022021456,0,367886059,0.1958,0.06689,0.1005,0.01755,0.01779,0.0686,0.002407,0.0003767,0.4375,0.04962,4.415,0.01033,0,0,0.1399
128700000000,129000000000,5022021456,0,367886059,0.2163,0.06641,0.1001,0.01053,0.0108,0.06702,0.002068,0.0003767,0.4297,0.04749,3.686,0.008369,0,0,0.2852
129000000000,129300000000,5022021456,0,367886059,0.2505,0.06641,0.1001,0.01263,0.01289,0.06702,0.002121,0.0003748,0.4219,0.04901,3.132,0.006526,0,0,0.2764
129300000000,129600000000,5022021456,0,367886059,0.2446,0.06677,0.1001,0.02164,0.02188,0.06714,0.002399,0.0003757,0.7109,0.04291,3.145,0.006475,0,0,0.2803
129600000000,129900000000,5022021456,0,367886059,0.2495,0.06677,0.1001,0.02075,0.021,0.06726,0.002476,0.0003767,0.5156,0.06287,3.389,0.007225,0,0,0.2356
129900000000,130200000000,5022021456,0,367886059,0.269,0.06665,0.1001,0.02289,0.02313,0.06714,0.002476,0.0003767,0.5625,0.0495,3.13,0.006598,0,0,0.3228
130200000000,130500000000,5022021456,0,367886059,0.2534,0.06628,0.1001,0.01408,0.01436,0.06665,0.002144,0.0003748,0.4277,0.05157,3.002,0.006087,0,0,0.241
130500000000,130800000000,5022021456,0,367886059,0.2051,0.06616,0.09961,0.01602,0.0163,0.06714,0.002258,0.0003757,0.4312,0.04346,3.813,0.008377,0,0,0.2339
130800000000,131100000000,5022021456,0,367886059,0.1797,0.0658,0.09839,0.008896,0.009171,0.06714,0.002636,0.0003777,0.4297,0.05719,6.214,0.01538,0,0,0.2122
181200000000,181500000000,5022021456,0,367886059,0.1868,0.0647,0.09851,0.01654,0.01678,0.06653,0.002403,0.0003777,0.416,0.04358,3.833,0.008418,0,0,0.08789
182100000000,182400000000,5022021456,0,367886059,0.252,0.06519,0.09814,0.01489,0.01517,0.06567,0.002728,0.0003767,0.4302,0.04303,3.478,0.007795,0,0,0.1978
182400000000,182700000000,5022021456,0,367886059,0.24,0.06531,0.09802,0.02271,0.02298,0.06604,0.002926,0.0003738,0.3945,0.05438,3.114,0.006698,0,0,0.3037
182700000000,183000000000,5022021456,0,367886059,0.2368,0.06543,0.09802,0.03369,0.03394,0.06604,0.003178,0.0003748,0.396,0.05231,3.142,0.006796,0,0,0.2017
183000000000,183300000000,5022021456,0,367886059,0.2397,0.06531,0.0979,0.03467,0.03491,0.06604,0.0023,0.0003748,0.3984,0.05383,3.362,0.007445,0,0,0.271
183300000000,183600000000,5022021456,0,367886059,0.2363,0.06445,0.09766,0.02792,0.0282,0.06519,0.002094,0.0003757,0.3857,0.0498,3.814,0.008906,0,0,0.25
183900000000,184200000000,5022021456,0,367886059,0.1824,0.0647,0.09839,0.01514,0.01541,0.06714,0.002609,0.0003757,0.4141,0.0545,3.683,0.008338,0,0,0.2646
184200000000,184500000000,5022021456,0,367886059,0.2004,0.06494,0.09814,0.01334,0.01361,0.06567,0.002571,0.0003777,0.4199,0.04669,3.5,0.007821,0,0,0.1499
184500000000,184800000000,5022021456,0,367886059,0.2427,0.0658,0.09924,0.02496,0.02521,0.06641,0.001995,0.0003738,0.4766,0.0401,3.563,0.007934,0,0,0.1394
185100000000,185400000000,5022021456,0,367886059,0.2715,0.06641,0.09973,0.02835,0.02863,0.06677,0.002182,0.0003757,0.6641,0.05212,3.092,0.00612,0,0,0.1501
185400000000,185700000000,5022021456,0,367886059,0.2651,0.06677,0.09985,0.03662,0.03693,0.06738,0.002159,0.0003757,0.4922,0.04865,3.189,0.006422,0,0,0.3062
185700000000,186000000000,5022021456,0,367886059,0.2803,0.06604,0.09998,0.03265,0.0329,0.06665,0.002136,0.0003738,0.5469,0.04303,3.095,0.006549,0,0,0.291
186000000000,186300000000,5022021456,0,367886059,0.2051,0.06555,0.09924,0.03021,0.03049,0.06641,0.001883,0.0003777,0.4678,0.05066,3.523,0.007918,0,0,0.2969
40800000000,41100000000,5022021456,0,367886059,0.2651,0.06592,0.09814,0.02313,0.02344,0.06616,0.002342,0.0003777,0.4766,0.05719,3.136,0.006386,0,0,0.2385
41100000000,41400000000,5022021456,0,367886059,0.2622,0.06592,0.09961,0.021,0.02127,0.06665,0.002251,0.0003767,0.4771,0.04364,3.547,0.007697,0,0,0.1614
41400000000,41700000000,5022021456,0,367886059,0.2493,0.06519,0.09802,0.006485,0.006775,0.0658,0.002213,0.0003757,0.4688,0.05127,3.375,0.007375,0,0,0.1462
41700000000,42000000000,5022021456,0,367886059,0.2004,0.06506,0.09827,0.01465,0.01494,0.06592,0.001707,0.0003767,0.4609,0.0484,3.476,0.00738,0,0,0.2642
42000000000,42300000000,5022021456,0,367886059,0.1877,0.06531,0.09875,0.01419,0.01448,0.06726,0.002026,0.0003767,0.4712,0.0495,4.378,0.009784,0,0,0.1088
42900000000,43200000000,5022021456,0,367886059,0.2195,0.06519,0.09814,0.0174,0.01767,0.06616,0.002033,0.0003757,0.4712,0.05243,3.378,0.006974,0,0,0.3228
43200000000,43500000000,5022021456,0,367886059,0.2493,0.06604,0.09924,0.02036,0.02063,0.06653,0.002167,0.0003767,0.4844,0.04584,3.618,0.007744,0,0,0.2837
43500000000,43800000000,5022021456,0,367886059,0.269,0.0658,0.09875,0.01126,0.01155,0.06616,0.002239,0.0003767,0.4688,0.04614,3.152,0.006411,0,0,0.4585
43800000000,44100000000,5022021456,0,367886059,0.2593,0.06567,0.09802,0.01225,0.01254,0.06616,0.002213,0.0003748,0.4888,0.05469,3.661,0.007883,0,0,0.4888
44100000000,44400000000,5022021456,0,367886059,0.2988,0.06604,0.09924,0.017,0.0173,0.06677,0.002304,0.0003748,0.5859,0.05652,2.797,0.005435,0,0,0.3594
44400000000,44700000000,5022021456,0,367886059,0.2554,0.06494,0.09778,0.01187,0.01216,0.0658,0.002094,0.0003748,0.4785,0.04877,3.12,0.006476,0,0,0.27
44700000000,45000000000,5022021456,0,367886059,0.208,0.06531,0.09802,0.02014,0.02042,0.06616,0.001791,0.0003767,0.4771,0.04871,3.589,0.007696,0,0,0.05286
45000000000,45300000000,5022021456,0,367886059,0.1814,0.0647,0.09814,0.01669,0.01697,0.06494,0.001633,0.0003777,0.4585,0.04865,4.793,0.011,0,0,0.1506
45300000000,45600000000,5022021456,0,367886059,0.1924,0.06531,0.09875,0.01895,0.01923,0.06714,0.002308,0.0003786,0.4766,0.06677,4.399,0.01005,0,0,0.1533
45600000000,45900000000,5022021456,0,367886059,0.2053,0.06482,0.09814,0.01096,0.01125,0.06555,0.001926,0.0003777,0.4771,0.04346,3.616,0.007985,0,0,0.2239
30900000000,31200000000,5022021456,0,367886059,0.2463,0.06531,0.09814,0.03052,0.03082,0.0658,0.002823,0.0003757,0.4761,0.04871,3.308,0.006947,0,0,0.218
31200000000,31500000000,5022021456,0,367886059,0.1843,0.0647,0.09802,0.03699,0.03729,0.06555,0.002151,0.0003748,0.4648,0.04865,4.272,0.009562,0,0,0.1509
31500000000,31800000000,5022021456,0,367886059,0.1936,0.06543,0.09888,0.03564,0.03595,0.06641,0.002609,0.0003748,0.4771,0.04578,4.18,0.009398,0,0,0.167
32100000000,32400000000,5022021456,0,367886059,0.2817,0.06494,0.0979,0.01794,0.01822,0.06592,0.002758,0.0003748,0.4824,0.04858,3.209,0.006722,0,0,0.3628
32400000000,32700000000,5022021456,0,367886059,0.27,0.06531,0.09814,0.01822,0.01849,0.06592,0.002941,0.0003767,0.6328,0.04742,2.753,0.005275,0,0,0.2632
32700000000,33000000000,5022021456,0,367886059,0.2515,0.0658,0.09924,0.02139,0.0217,0.06616,0.002693,0.0003767,0.5156,0.04871,3.336,0.006803,0,0,0.2073
33000000000,33300000000,5022021456,0,367886059,0.2666,0.06555,0.09851,0.02994,0.03021,0.06616,0.002308,0.0003757,0.4775,0.04584,3.657,0.007755,0,0,0.1614
33300000000,33600000000,5022021456,0,367886059,0.2563,0.06506,0.09814,0.02295,0.02322,0.06555,0.001999,0.0003748,0.4834,0.05164,3.498,0.00774,0,0,0.1455
33600000000,33900000000,5022021456,0,367886059,0.1946,0.0647,0.09814,0.02817,0.02844,0.06543,0.00168,0.0003767,0.4653,0.05121,3.521,0.007591,0,0,0.1782
33900000000,34200000000,5022021456,0,367886059,0.1917,0.06519,0.09888,0.03375,0.03406,0.06641,0.001663,0.0003748,0.478,0.0462,4.062,0.008483,0,0,0.3232
34500000000,34800000000,5022021456,0,367886059,0.2534,0.06543,0.09814,0.01852,0.01883,0.06604,0.001875,0.0003767,0.5078,0.04956,3.437,0.007374,0,0,0.4526
34800000000,35100000000,5022021456,0,367886059,0.2656,0.06543,0.0979,0.01675,0.01703,0.06628,0.002045,0.0003757,0.4766,0.05444,3.348,0.006916,0,0,0.2427
35100000000,35400000000,5022021456,0,367886059,0.2559,0.06592,0.09937,0.03024,0.03052,0.06641,0.002102,0.0003767,0.4648,0.04688,3.138,0.006263,0,0,0.2388
35400000000,35700000000,5022021456,0,367886059,0.2603,0.06592,0.09973,0.03186,0.03217,0.06653,0.002075,0.0003767,0.4922,0.04608,3.252,0.006581,0,0,0.2097
176100000000,176400000000,5022021456,0,367886059,0.1731,0.06567,0.09973,0.03705,0.03729,0.06628,0.002037,0.0003767,0.4165,0.03827,3.733,0.008566,0,0,0.3789
176400000000,176700000000,5022021456,0,367886059,0.1909,0.06628,0.09973,0.03748,0.03778,0.06775,0.002029,0.0003777,0.416,0.04584,3.933,0.008954,0,0,0.1239
176700000000,177000000000,5022021456,0,367886059,0.2163,0.06616,0.09973,0.03754,0.03778,0.06689,0.002113,0.0003777,0.4219,0.05188,4.05,0.009566,0,0,0.08472
177000000000,177300000000,5022021456,0,367886059,0.2424,0.06628,0.09973,0.03754,0.03778,0.06689,0.002083,0.0003767,0.4219,0.05536,3.235,0.007184,0,0,0.2676
177300000000,177600000000,5022021456,0,367886059,0.2515,0.06653,0.09973,0.03766,0.0379,0.06702,0.002369,0.0003786,0.4219,0.04962,3.028,0.006422,0,0,0.3291
177600000000,177900000000,5022021456,0,367886059,0.2485,0.06665,0.09973,0.03772,0.03796,0.06702,0.002331,0.0003786,0.4609,0.0528,3.081,0.006389,0,0,0.2273
177900000000,178200000000,5022021456,0,367886059,0.2419,0.06665,0.09973,0.03778,0.03802,0.06714,0.002262,0.0003777,0.4077,0.04871,3.728,0.008475,0,0,0.1421
178200000000,178500000000,5022021456,0,367886059,0.2646,0.06616,0.09973,0.03778,0.03802,0.06726,0.002117,0.0003767,0.5859,0.04572,2.865,0.006037,0,0,0.2754
178500000000,178800000000,5022021456,0,367886059,0.1831,0.06555,0.09924,0.03156,0.03186,0.06702,0.00174,0.0003786,0.4106,0.03729,3.357,0.007266,0,0,0.1775
178800000000,179100000000,5022021456,0,367886059,0.1824,0.0658,0.099,0.02863,0.0289,0.06702,0.002357,0.0003738,0.4219,0.0575,3.894,0.008859,0,0,0.1394
179100000000,179400000000,5022021456,0,367886059,0.2009,0.06531,0.09814,0.02209,0.02237,0.06592,0.001961,0.0003748,0.4062,0.05109,4.029,0.009386,0,0,0.2048
179400000000,179700000000,5022021456,0,367886059,0.2444,0.06567,0.09814,0.02628,0.02655,0.06616,0.002144,0.0003767,0.4531,0.05249,3.468,0.007853,0,0,0.2056
179700000000,180000000000,5022021456,0,367886059,0.251,0.06555,0.09875,0.02206,0.02234,0.06653,0.002357,0.0003738,0.5859,0.05188,2.979,0.006236,0,0,0.3765
180000000000,180300000000,5022021456,0,367886059,0.2446,0.06531,0.09839,0.01172,0.01199,0.06665,0.00243,0.0003748,0.4844,0.05145,2.915,0.005944,0,0,0.3306
180300000000,180600000000,5022021456,0,367886059,0.2539,0.06567,0.09814,0.01971,0.01999,0.06628,0.002342,0.0003748,0.4219,0.05792,3.28,0.00708,0,0,0.2847
180600000000,180900000000,5022021456,0,367886059,0.2378,0.06543,0.09814,0.03149,0.03174,0.0658,0.002075,0.0003767,0.4297,0.04987,3.838,0.008877,0,0,0.1189
180900000000,181200000000,5022021456,0,367886059,0.1875,0.06531,0.09802,0.03424,0.03448,0.06628,0.002041,0.0003757,0.415,0.04895,3.317,0.007173,0,0,0.2603
131100000000,131400000000,5022021456,0,367886059,0.1753,0.06604,0.099,0.009659,0.009933,0.06702,0.002121,0.0003767,0.4341,0.04688,4.953,0.01175,0,0,0.2219
131400000000,131700000000,5022021456,0,367886059,0.2239,0.06604,0.09937,0.01758,0.01785,0.06702,0.002708,0.0003767,0.5391,0.05164,4.42,0.01009,0,0,0.218
132000000000,132300000000,5022021456,0,367886059,0.2415,0.06641,0.09998,0.01932,0.01959,0.06677,0.00246,0.0003767,0.4297,0.04456,3.489,0.007467,0,0,0.2273
132300000000,132600000000,5022021456,0,367886059,0.2402,0.06616,0.09973,0.01785,0.0181,0.06689,0.002644,0.0003757,0.4297,0.05438,4.015,0.008846,0,0,0.1887
132600000000,132900000000,5022021456,0,367886059,0.2456,0.06628,0.1001,0.01947,0.01971,0.06677,0.002514,0.0003757,0.4185,0.05017,3.711,0.008363,0,0,0.3164
132900000000,133200000000,5022021456,0,367886059,0.2368,0.06567,0.09839,0.02539,0.02567,0.06616,0.002277,0.0003777,0.4736,0.05438,3.194,0.00671,0,0,0.1775
133200000000,133500000000,5022021456,0,367886059,0.1887,0.06506,0.09814,0.01231,0.01259,0.06592,0.001862,0.0003777,0.4609,0.04907,4.535,0.009553,0,0,0.1176
133500000000,133800000000,5022021456,0,367886059,0.2129,0.06531,0.09875,0.01617,0.01645,0.06677,0.002075,0.0003729,0.5469,0.0401,3.3,0.006343,0,0,0.1592
134400000000,134700000000,5022021456,0,367886059,0.2524,0.06592,0.099,0.02487,0.02512,0.06677,0.002228,0.0003757,0.4771,0.05438,3.271,0.00681,0,0,0.2
134700000000,135000000000,5022021456,0,367886059,0.2627,0.06628,0.1002,0.02914,0.02942,0.06702,0.002201,0.0003767,0.6797,0.04865,2.925,0.005616,0,0,0.2612
135000000000,135300000000,5022021456,0,367886059,0.2505,0.06604,0.09888,0.02466,0.02493,0.06665,0.00227,0.0003757,0.7344,0.05804,3.934,0.008624,0,0,0.4355
135300000000,135600000000,5022021456,0,367886059,0.2458,0.06519,0.09839,0.0112,0.01146,0.06653,0.001995,0.0003767,0.7266,0.05817,3.408,0.007263,0,0,0.1721
135600000000,135900000000,5022021456,0,367886059,0.2197,0.06543,0.09827,0.01076,0.01102,0.06592,0.002037,0.0003777,0.5234,0.05157,3.23,0.006576,0,0,0.1118
186300000000,186600000000,5022021456,0,367886059,0.1848,0.06506,0.09863,0.02151,0.02179,0.06714,0.002018,0.0003748,0.4434,0.05719,3.761,0.008379,0,0,0.1215
187200000000,187500000000,5022021456,0,367886059,0.2524,0.06567,0.09802,0.03271,0.03302,0.06628,0.002201,0.0003738,0.5547,0.04999,3.485,0.007689,0,0,0.2598
187500000000,187800000000,5022021456,0,367886059,0.252,0.06592,0.099,0.02921,0.02948,0.06665,0.002193,0.0003748,0.5703,0.04651,2.568,0.005011,0,0,0.2043
187800000000,188100000000,5022021456,0,367886059,0.2471,0.06543,0.09851,0.02313,0.02341,0.06653,0.002323,0.0003757,0.4844,0.05219,3.143,0.006586,0,0,0.1819
188100000000,188400000000,5022021456,0,367886059,0.2415,0.06567,0.09814,0.03363,0.03394,0.06604,0.00201,0.0003757,0.4375,0.0517,3.127,0.006673,0,0,0.2009
188400000000,188700000000,5022021456,0,367886059,0.2065,0.06567,0.09949,0.03754,0.03778,0.06677,0.002144,0.0003757,0.5625,0.05444,3.992,0.009185,0,0,0.1001
188700000000,189000000000,5022021456,0,367886059,0.1694,0.06494,0.09814,0.03674,0.03699,0.06543,0.00173,0.0003757,0.5391,0.04285,4.154,0.009493,0,0,0.08545
189300000000,189600000000,5022021456,0,367886059,0.23,0.06543,0.09863,0.03259,0.03284,0.06628,0.001953,0.0003757,0.5391,0.04279,2.974,0.006322,0,0,0.1448
189600000000,189900000000,5022021456,0,367886059,0.2458,0.06543,0.09814,0.02478,0.02502,0.06616,0.002136,0.0003748,0.4375,0.06097,3.578,0.008122,0,0,0.2144
190200000000,190500000000,5022021456,0,367886059,0.2441,0.06555,0.09814,0.021,0.02124,0.06628,0.002377,0.0003757,0.4297,0.04395,3.013,0.006317,0,0,0.2014
190800000000,191100000000,5022021456,0,367886059,0.2166,0.06506,0.09814,0.01654,0.01682,0.06567,0.002411,0.0003748,0.4531,0.05554,3.386,0.007486,0,0,0.3809
55800000000,56100000000,5022021456,0,367886059,0.2534,0.06531,0.09814,0.03467,0.03497,0.0658,0.002502,0.0003767,0.5078,0.0459,3.764,0.008342,0,0,0.1626
56100000000,56400000000,5022021456,0,367886059,0.2637,0.06494,0.09802,0.02994,0.03024,0.06567,0.002609,0.0003767,0.4922,0.05707,3.305,0.006876,0,0,0.2302
56400000000,56700000000,5022021456,0,367886059,0.208,0.06482,0.09802,0.03137,0.03168,0.06592,0.002228,0.0003757,0.4766,0.05231,3.676,0.007701,0,0,0.09058
56700000000,57000000000,5022021456,0,367886059,0.1814,0.06396,0.09753,0.03021,0.03049,0.06445,0.001904,0.0003767,0.4531,0.05188,3.973,0.008659,0,0,0.2087
57000000000,57300000000,5022021456,0,367886059,0.1938,0.06531,0.09827,0.0329,0.03314,0.06665,0.00227,0.0003757,0.4736,0.04712,4.651,0.01065,0,0,0.09033
57300000000,57600000000,5022021456,0,367886059,0.2136,0.06519,0.09814,0.03668,0.03699,0.06604,0.002308,0.0003757,0.4688,0.04895,3.791,0.008206,0,0,0.1855
57600000000,57900000000,5022021456,0,367886059,0.2451,0.06555,0.09802,0.0368,0.03705,0.06604,0.002422,0.0003777,0.4883,0.05493,3.223,0.006673,0,0,0.2671
57900000000,58200000000,5022021456,0,367886059,0.2681,0.06592,0.09949,0.03784,0.03809,0.06653,0.002399,0.0003757,0.4922,0.05444,3.077,0.006125,0,0,0.2087
58200000000,58500000000,5022021456,0,367886059,0.2642,0.06628,0.09985,0.03253,0.03278,0.06689,0.002853,0.0003767,0.5391,0.05151,3.534,0.007446,0,0,0.417
58500000000,58800000000,5022021456,0,367886059,0.2473,0.0658,0.09985,0.03589,0.03619,0.06641,0.0028,0.0003767,0.4858,0.04865,3.486,0.007429,0,0,0.2307
58800000000,59100000000,5022021456,0,367886059,0.2534,0.06567,0.09924,0.03198,0.03223,0.06665,0.002281,0.0003777,0.4819,0.05164,3.228,0.006683,0,0,0.1724
59100000000,59400000000,5022021456,0,367886059,0.1982,0.06506,0.09802,0.02963,0.02991,0.06616,0.002274,0.0003767,0.4751,0.04242,3.297,0.006803,0,0,0.3789
59400000000,59700000000,5022021456,0,367886059,0.1941,0.06506,0.09839,0.02942,0.02969,0.06616,0.002354,0.0003767,0.4741,0.05444,3.338,0.00689,0,0,0.1648
59700000000,60000000000,5022021456,0,367886059,0.1836,0.06506,0.09839,0.0307,0.03101,0.06689,0.002453,0.0003777,0.4814,0.05469,4.938,0.01137,0,0,0.1851
60300000000,60600000000,5022021456,0,367886059,0.2458,0.06531,0.09802,0.0351,0.0354,0.06567,0.002583,0.0003777,0.481,0.05438,3.264,0.006705,0,0,0.3335
60600000000,60900000000,5022021456,0,367886059,0.2646,0.0658,0.09949,0.03772,0.03802,0.06653,0.002686,0.0003767,0.478,0.05457,3.293,0.006738,0,0,0.1897
111000000000,111300000000,5022021456,0,367886059,0.2151,0.0658,0.09912,0.01224,0.01251,0.06738,0.001783,0.0003777,0.4766,0.052,3.016,0.006186,0,0,0.2573
111600000000,111900000000,5022021456,0,367886059,0.2578,0.06616,0.09998,0.01532,0.01559,0.06653,0.001984,0.0003767,0.5547,0.05481,3.092,0.006323,0,0,0.3237
111900000000,112200000000,5022021456,0,367886059,0.2622,0.06641,0.09998,0.01106,0.01132,0.06689,0.002098,0.0003757,0.5469,0.06873,3.039,0.005989,0,0,0.3257
112200000000,112500000000,5022021456,0,367886059,0.2495,0.0658,0.09863,0.009079,0.009354,0.06665,0.00206,0.0003757,0.6719,0.05121,3.228,0.00659,0,0,0.179
112500000000,112800000000,5022021456,0,367886059,0.2603,0.06653,0.09985,0.01712,0.0174,0.06702,0.002064,0.0003748,0.5938,0.04926,3.763,0.008112,0,0,0.2258
112800000000,113100000000,5022021456,0,367886059,0.248,0.06641,0.09998,0.02316,0.02344,0.06714,0.001965,0.0003757,0.5156,0.05176,3.273,0.006829,0,0,0.1024
113100000000,113400000000,5022021456,0,367886059,0.1807,0.06555,0.09888,0.01996,0.02023,0.06702,0.001867,0.0003757,0.4766,0.05438,3.977,0.008672,0,0,0.07349
113400000000,113700000000,5022021456,0,367886059,0.1885,0.06628,0.09973,0.01096,0.01123,0.06738,0.001707,0.0003757,0.4688,0.0412,3.967,0.008443,0,0,0.07581
113700000000,114000000000,5022021456,0,367886059,0.2427,0.06616,0.099,0.01303,0.01331,0.06702,0.002052,0.0003786,0.4736,0.05627,3.643,0.007969,0,0,0.23
114000000000,114300000000,5022021456,0,367886059,0.2822,0.06592,0.099,0.01181,0.01207,0.06689,0.002163,0.0003777,0.4766,0.05164,3.239,0.006898,0,0,0.2554
114300000000,114600000000,5022021456,0,367886059,0.27,0.06653,0.09973,0.01648,0.01675,0.06738,0.002056,0.0003757,0.5312,0.05737,2.92,0.005737,0,0,0.2383
114600000000,114900000000,5022021456,0,367886059,0.2617,0.06653,0.09961,0.01788,0.01816,0.06714,0.002136,0.0003738,0.4688,0.05151,3.196,0.006394,0,0,0.458
114900000000,115200000000,5022021456,0,367886059,0.2573,0.06665,0.09985,0.02216,0.02243,0.06726,0.002209,0.0003748,0.4707,0.05206,3.392,0.007054,0,0,0.3169
115200000000,115500000000,5022021456,0,367886059,0.2583,0.06641,0.09985,0.02573,0.026,0.06677,0.00222,0.0003777,0.4795,0.04797,3.765,0.008152,0,0,0.176
115500000000,115800000000,5022021456,0,367886059,0.1926,0.0658,0.09924,0.02518,0.02542,0.06738,0.001633,0.0003757,0.4536,0.05426,3.898,0.00845,0,0,0.1282
81000000000,81300000000,5022021456,0,367886059,0.2563,0.06531,0.09814,0.01128,0.01157,0.06616,0.002357,0.0003777,0.4297,0.04041,3.477,0.007466,0,0,0.2588
81300000000,81600000000,5022021456,0,367886059,0.2515,0.06531,0.09814,0.01694,0.01724,0.06592,0.002457,0.0003757,0.4189,0.05817,3.184,0.006659,0,0,0.2295
81600000000,81900000000,5022021456,0,367886059,0.2097,0.06482,0.09778,0.01337,0.01366,0.06616,0.001987,0.0003748,0.4141,0.0459,3.092,0.006264,0,0,0.229
82200000000,82500000000,5022021456,0,367886059,0.1831,0.06604,0.09888,0.01581,0.01611,0.06738,0.00174,0.0003738,0.4629,0.05664,4.477,0.01022,0,0,0.2583
82500000000,82800000000,5022021456,0,367886059,0.2578,0.06604,0.09949,0.01474,0.01503,0.06665,0.002136,0.0003777,0.5391,0.04272,3.306,0.006767,0,0,0.3569
82800000000,83100000000,5022021456,0,367886059,0.2617,0.06604,0.09973,0.01314,0.01343,0.06665,0.002129,0.0003767,0.7734,0.04651,3.178,0.006462,0,0,0.1707
83100000000,83400000000,5022021456,0,367886059,0.2656,0.06641,0.1001,0.01773,0.01804,0.06714,0.002434,0.0003757,0.4844,0.05188,3.035,0.006108,0,0,0.1606
83400000000,83700000000,5022021456,0,367886059,0.2598,0.06653,0.1001,0.02676,0.02707,0.06702,0.002167,0.0003767,0.5156,0.04303,3.632,0.007915,0,0,0.2366
83700000000,84000000000,5022021456,0,367886059,0.2622,0.06677,0.09998,0.03528,0.03558,0.06763,0.002262,0.0003777,0.4922,0.05438,3.402,0.00708,0,0,0.1755
84000000000,84300000000,5022021456,0,367886059,0.2454,0.06567,0.09937,0.02289,0.02319,0.06653,0.002026,0.0003767,0.4712,0.03729,3.192,0.006689,0,0,0.2705
84300000000,84600000000,5022021456,0,367886059,0.1865,0.06506,0.09827,0.02225,0.02252,0.06555,0.00186,0.0003748,0.4604,0.05164,3.642,0.007845,0,0,0.1511
84900000000,85200000000,5022021456,0,367886059,0.2415,0.06567,0.09814,0.01286,0.01315,0.06616,0.002022,0.0003748,0.4634,0.0517,3.299,0.007069,0,0,0.1229
85200000000,85500000000,5022021456,0,367886059,0.2588,0.06592,0.09875,0.0152,0.01549,0.06641,0.002178,0.0003767,0.5547,0.047,2.883,0.005865,0,0,0.2405
85500000000,85800000000,5022021456,0,367886059,0.2607,0.06641,0.09961,0.02686,0.02713,0.06702,0.002342,0.0003786,0.4297,0.04309,3.259,0.006757,0,0,0.4053
156000000000,156300000000,5022021456,0,367886059,0.2666,0.06543,0.09802,0.03174,0.03198,0.0658,0.002651,0.0003757,1.078,0.04309,3.587,0.007802,0,0,0.2539
156300000000,156600000000,5022021456,0,367886059,0.2607,0.06531,0.09802,0.02823,0.0285,0.06592,0.002525,0.0003767,0.5312,0.04541,3.336,0.006935,0,0,0.23
156600000000,156900000000,5022021456,0,367886059,0.2612,0.06482,0.0979,0.02267,0.02295,0.06555,0.002384,0.0003777,0.5469,0.04321,3.276,0.006689,0,0,0.3013
156900000000,157200000000,5022021456,0,367886059,0.2583,0.06445,0.09766,0.01004,0.01031,0.06531,0.002228,0.0003757,0.4766,0.04669,3.064,0.006197,0,0,0.4287
157200000000,157500000000,5022021456,0,367886059,0.1785,0.06396,0.09778,0.01855,0.0188,0.06531,0.001913,0.0003757,0.4736,0.04303,4.337,0.009678,0,0,0.1133
157500000000,157800000000,5022021456,0,367886059,0.1892,0.06482,0.0979,0.01688,0.01715,0.06653,0.002274,0.0003786,0.5,0.04877,4.668,0.01053,0,0,0.114
157800000000,158100000000,5022021456,0,367886059,0.1851,0.06506,0.09839,0.01268,0.01295,0.06567,0.001898,0.0003757,0.4717,0.05157,4.638,0.0108,0,0,0.2603
158100000000,158400000000,5022021456,0,367886059,0.2141,0.06531,0.09814,0.02206,0.02234,0.06616,0.002216,0.0003786,0.4692,0.06006,3.801,0.008118,0,0,0.1362
158400000000,158700000000,5022021456,0,367886059,0.2544,0.06531,0.09802,0.02133,0.02161,0.06604,0.002388,0.0003748,0.4741,0.05463,3.587,0.007854,0,0,0.1851
158700000000,159000000000,5022021456,0,367886059,0.2661,0.06628,0.09973,0.01965,0.01993,0.06689,0.00285,0.0003767,0.5469,0.05444,3.503,0.007557,0,0,0.2473
159000000000,159300000000,5022021456,0,367886059,0.2515,0.06628,0.09998,0.01633,0.0166,0.06702,0.002815,0.0003767,0.4702,0.04865,3.715,0.008006,0,0,0.2886
159300000000,159600000000,5022021456,0,367886059,0.2578,0.0658,0.09827,0.01968,0.01996,0.06628,0.002792,0.0003757,0.4609,0.04126,3.223,0.006777,0,0,0.3057
159600000000,159900000000,5022021456,0,367886059,0.2446,0.06555,0.09802,0.01596,0.01624,0.06604,0.002644,0.0003777,0.4404,0.05157,3.877,0.008853,0,0,0.2102
159900000000,160200000000,5022021456,0,367886059,0.1992,0.06519,0.09802,0.02499,0.02527,0.06604,0.002533,0.0003767,0.457,0.04608,3.945,0.009076,0,0,0.2002
160200000000,160500000000,5022021456,0,367886059,0.1948,0.06494,0.09814,0.02817,0.02844,0.06726,0.002663,0.0003757,0.7031,0.06592,3.314,0.007014,0,0,0.07739
160500000000,160800000000,5022021456,0,367886059,0.178,0.06531,0.09863,0.01773,0.01797,0.06689,0.002304,0.0003777,0.4482,0.04871,3.557,0.007868,0,0,0.1426
160800000000,161100000000,5022021456,0,367886059,0.177,0.06482,0.09814,0.02264,0.02292,0.06543,0.00246,0.0003757,0.4473,0.05438,4.759,0.01121,0,0,0.2046
600000000,900000000,5022021456,0,367886059,0.1814,0.06506,0.09863,0.03345,0.03369,0.06714,0.002224,0.0003767,0.4375,0.05249,4.085,0.008972,0,0,0.1868
1500000000,1800000000,5022021456,0,367886059,0.2773,0.06628,0.09998,0.03802,0.03833,0.06702,0.002682,0.0003767,0.6172,0.05743,2.48,0.004813,0,0,0.2695
1800000000,2100000000,5022021456,0,367886059,0.251,0.06641,0.09998,0.03821,0.03851,0.06702,0.002674,0.0003748,0.6641,0.05438,2.786,0.005647,0,0,0.1929
2100000000,2400000000,5022021456,0,367886059,0.2493,0.06604,0.09961,0.03006,0.03033,0.06677,0.002861,0.0003757,0.4297,0.05371,3.608,0.008185,0,0,0.2205
2400000000,2700000000,5022021456,0,367886059,0.2439,0.0658,0.09912,0.02237,0.02264,0.06628,0.002678,0.0003767,0.4844,0.05957,3.242,0.007097,0,0,0.2319
2700000000,3000000000,5022021456,0,367886059,0.2241,0.0658,0.09863,0.02377,0.02405,0.06677,0.002438,0.0003748,0.6094,0.05487,2.967,0.00617,0,0,0.1217
3000000000,3300000000,5022021456,0,367886059,0.1819,0.06519,0.09851,0.02441,0.02469,0.06689,0.002625,0.0003767,0.4219,0.0473,3.845,0.008515,0,0,0.2622
3900000000,4200000000,5022021456,0,367886059,0.2505,0.06555,0.09802,0.01509,0.01538,0.06604,0.002838,0.0003767,0.4766,0.0603,2.999,0.006325,0,0,0.3086
4200000000,4500000000,5022021456,0,367886059,0.2549,0.06531,0.09802,0.01736,0.01764,0.06592,0.002495,0.0003757,0.6797,0.05792,2.85,0.005787,0,0,0.2485
4500000000,4800000000,5022021456,0,367886059,0.2473,0.06543,0.09814,0.01189,0.01218,0.06604,0.002693,0.0003748,0.4922,0.05798,3.281,0.00722,0,0,0.2397
4800000000,5100000000,5022021456,0,367886059,0.2725,0.06555,0.09814,0.02518,0.02548,0.06616,0.002731,0.0003748,0.5312,0.05756,2.815,0.005799,0,0,0.3262
5100000000,5400000000,5022021456,0,367886059,0.2334,0.06543,0.09802,0.03577,0.03607,0.0658,0.002754,0.0003767,0.4307,0.05194,3.087,0.006518,0,0,0.2988
5400000000,5700000000,5022021456,0,367886059,0.1765,0.06494,0.09827,0.03699,0.03729,0.06702,0.002304,0.0003748,0.5938,0.04871,3.845,0.008509,0,0,0.09497
116100000000,116400000000,5022021456,0,367886059,0.2524,0.06628,0.09961,0.02991,0.03018,0.06665,0.002476,0.0003748,0.4844,0.05084,3.207,0.006439,0,0,0.2222
116400000000,116700000000,5022021456,0,367886059,0.2656,0.06616,0.09998,0.02402,0.02426,0.06665,0.002563,0.0003757,0.5234,0.05151,3.352,0.006966,0,0,0.1785
116700000000,117000000000,5022021456,0,367886059,0.2539,0.06641,0.09998,0.02896,0.02921,0.06689,0.002762,0.0003767,0.4766,0.04865,3.467,0.007392,0,0,0.2993
117000000000,117300000000,5022021456,0,367886059,0.2593,0.06653,0.09985,0.03705,0.03735,0.06714,0.002785,0.0003757,0.5234,0.04865,3.159,0.006282,0,0,0.2083
117300000000,117600000000,5022021456,0,367886059,0.2573,0.06653,0.09998,0.02621,0.02649,0.06689,0.002895,0.0003757,0.4585,0.05988,3.05,0.006095,0,0,0.1604
117600000000,117900000000,5022021456,0,367886059,0.2468,0.06604,0.09998,0.02365,0.0239,0.06677,0.002796,0.0003738,0.4634,0.04352,3.158,0.006457,0,0,0.2434
117900000000,118200000000,5022021456,0,367886059,0.1914,0.06531,0.09851,0.02255,0.02283,0.06689,0.002819,0.0003786,0.4634,0.05322,4.83,0.011,0,0,0.2302
118500000000,118800000000,5022021456,0,367886059,0.2498,0.06555,0.09802,0.01326,0.01353,0.06616,0.002945,0.0003748,0.4775,0.05457,3.349,0.00696,0,0,0.1643
119100000000,119400000000,5022021456,0,367886059,0.2637,0.06616,0.09998,0.01312,0.0134,0.06689,0.003086,0.0003748,0.4844,0.05212,3.305,0.006807,0,0,0.08728
119400000000,119700000000,5022021456,0,367886059,0.2578,0.06604,0.09998,0.01932,0.01959,0.06641,0.0028,0.0003748,0.7891,0.05151,3.637,0.007783,0,0,0.2705
119700000000,120000000000,5022021456,0,367886059,0.2554,0.06616,0.1001,0.02267,0.02295,0.06653,0.003147,0.0003748,0.5312,0.04663,3.193,0.006614,0,0,0.3413
120000000000,120300000000,5022021456,0,367886059,0.2515,0.06592,0.1001,0.02884,0.02911,0.06665,0.003574,0.0003757,0.4688,0.04919,3.08,0.006336,0,0,0.2974
120300000000,120600000000,5022021456,0,367886059,0.1797,0.0647,0.09814,0.008926,0.009186,0.06628,0.002777,0.0003738,0.4375,0.04572,3.776,0.008212,0,0,0.1189
120600000000,120900000000,5022021456,0,367886059,0.1787,0.06555,0.09912,0.01639,0.01666,0.06677,0.002956,0.0003786,0.4219,0.03723,4.646,0.01096,0,0,0.3667
16500000000,16800000000,5022021456,0,367886059,0.251,0.06616,0.1001,0.02859,0.0289,0.06677,0.003155,0.0003757,0.4375,0.05524,2.978,0.006218,0,0,0.3076
16800000000,17100000000,5022021456,0,367886059,0.2539,0.06641,0.09998,0.03772,0.03802,0.06702,0.002995,0.0003767,0.4316,0.05505,2.884,0.005874,0,0,0.2441
17100000000,17400000000,5022021456,0,367886059,0.25,0.06628,0.09985,0.03821,0.03851,0.06689,0.003017,0.0003767,0.5156,0.05438,3.016,0.006258,0,0,0.3301
17400000000,17700000000,5022021456,0,367886059,0.27,0.06592,0.09973,0.0321,0.03241,0.06689,0.002628,0.0003767,0.4375,0.04578,2.83,0.005975,0,0,0.3169
17700000000,18000000000,5022021456,0,367886059,0.2058,0.06567,0.09937,0.03223,0.03253,0.06677,0.003002,0.0003777,0.4238,0.05756,3.472,0.007571,0,0,0.1021
18000000000,18300000000,5022021456,0,367886059,0.1736,0.06482,0.09814,0.0155,0.01578,0.06519,0.002586,0.0003757,0.4297,0.05817,3.661,0.008147,0,0,0.08972
18600000000,18900000000,5022021456,0,367886059,0.1785,0.06519,0.09875,0.02258,0.02286,0.0658,0.002495,0.0003767,0.4395,0.04993,4.059,0.009454,0,0,0.1575
18900000000,19200000000,5022021456,0,367886059,0.2368,0.06616,0.09973,0.02518,0.02545,0.06689,0.002777,0.0003757,0.4189,0.06006,3.55,0.007989,0,0,0.1965
19200000000,19500000000,5022021456,0,367886059,0.2485,0.06592,0.09973,0.02661,0.02689,0.06665,0.003166,0.0003767,0.4219,0.0589,3.166,0.006724,0,0,0.2891
19500000000,19800000000,5022021456,0,367886059,0.2529,0.06641,0.09998,0.0275,0.02777,0.06702,0.003029,0.0003757,0.4297,0.05585,2.899,0.00584,0,0,0.374
19800000000,20100000000,5022021456,0,367886059,0.2563,0.0658,0.09888,0.02655,0.02682,0.06653,0.002926,0.0003757,0.4844,0.05566,3.102,0.006286,0,0,0.2949
20100000000,20400000000,5022021456,0,367886059,0.2539,0.06592,0.09912,0.02444,0.02472,0.06653,0.002754,0.0003767,0.4922,0.05255,3.694,0.008064,0,0,0.2095
20400000000,20700000000,5022021456,0,367886059,0.2305,0.06555,0.09875,0.02908,0.02936,0.06665,0.003223,0.0003767,0.4766,0.04901,3.314,0.006834,0,0,0.4287
35700000000,36000000000,5022021456,0,367886059,0.2686,0.0658,0.09973,0.03412,0.03436,0.06641,0.001829,0.0003777,0.4844,0.03448,3.407,0.007112,0,0,0.2468
36000000000,36300000000,5022021456,0,367886059,0.238,0.06543,0.09814,0.03113,0.03143,0.0658,0.002289,0.0003757,0.5,0.05194,3.248,0.006849,0,0,0.1794
36300000000,36600000000,5022021456,0,367886059,0.1907,0.06433,0.09802,0.0264,0.0267,0.06665,0.002914,0.0003757,0.6328,0.04602,4.065,0.008801,0,0,0.1672
36600000000,36900000000,5022021456,0,367886059,0.1814,0.0647,0.09802,0.02371,0.02399,0.06689,0.001709,0.0003767,0.437,0.04791,4.177,0.009631,0,0,0.1049
36900000000,37200000000,5022021456,0,367886059,0.2261,0.06531,0.09814,0.02817,0.02847,0.06567,0.001921,0.0003748,0.4585,0.0401,3.377,0.007335,0,0,0.3027
37200000000,37500000000,5022021456,0,367886059,0.2598,0.06531,0.09802,0.02679,0.0271,0.06592,0.002048,0.0003767,0.6875,0.04291,3.724,0.008295,0,0,0.2505
37500000000,37800000000,5022021456,0,367886059,0.2554,0.06555,0.09863,0.03168,0.03198,0.06628,0.002224,0.0003767,0.4844,0.04865,3.167,0.006561,0,0,0.2549
37800000000,38100000000,5022021456,0,367886059,0.2617,0.06567,0.09802,0.02811,0.02838,0.06628,0.00209,0.0003767,0.5,0.04706,3.143,0.006444,0,0,0.3447
38100000000,38400000000,5022021456,0,367886059,0.2593,0.06604,0.09937,0.03729,0.0376,0.06653,0.002239,0.0003767,0.6406,0.05695,3.268,0.006803,0,0,0.2578
38400000000,38700000000,5022021456,0,367886059,0.2539,0.06543,0.09827,0.02393,0.0242,0.06641,0.001968,0.0003767,0.5547,0.04437,3.581,0.007863,0,0,0.3115
38700000000,39000000000,5022021456,0,367886059,0.1858,0.06506,0.09863,0.02475,0.02505,0.06689,0.001797,0.0003767,0.4722,0.04303,4.253,0.009714,0,0,0.1631
39000000000,39300000000,5022021456,0,367886059,0.1838,0.06506,0.09851,0.02545,0.02576,0.06702,0.001881,0.0003767,0.6484,0.05151,4.159,0.009662,0,0,0.1321
39300000000,39600000000,5022021456,0,367886059,0.2014,0.06555,0.09851,0.02676,0.02704,0.06738,0.001814,0.0003767,0.4922,0.04602,3.389,0.00736,0,0,0.1108
39600000000,39900000000,5022021456,0,367886059,0.2058,0.0647,0.09778,0.01308,0.01337,0.06519,0.001833,0.0003757,0.4688,0.04865,3.547,0.007779,0,0,0.1558
40500000000,40800000000,5022021456,0,367886059,0.2563,0.06555,0.09814,0.0135,0.01379,0.06616,0.002087,0.0003757,0.4766,0.04578,3.062,0.006318,0,0,0.1707
75900000000,76200000000,5022021456,0,367886059,0.1982,0.06494,0.09863,0.0174,0.0177,0.06628,0.001871,0.0003757,0.4766,0.04816,3.773,0.00798,0,0,0.127
76200000000,76500000000,5022021456,0,367886059,0.1799,0.06445,0.09802,0.01889,0.01917,0.06494,0.001528,0.0003777,0.4727,0.04364,3.871,0.008526,0,0,0.1729
76500000000,76800000000,5022021456,0,367886059,0.1926,0.06506,0.09875,0.01996,0.02023,0.06653,0.001947,0.0003767,0.5,0.05377,4.268,0.009386,0,0,0.1144
77400000000,77700000000,5022021456,0,367886059,0.2593,0.06519,0.0979,0.006836,0.007126,0.06604,0.002136,0.0003757,0.5312,0.04352,3.135,0.006459,0,0,0.1367
77700000000,78000000000,5022021456,0,367886059,0.2578,0.0658,0.09863,0.0118,0.01208,0.06641,0.002319,0.0003757,0.458,0.05731,3.052,0.006227,0,0,0.2598
78000000000,78300000000,5022021456,0,367886059,0.2471,0.06531,0.099,0.01237,0.01266,0.06592,0.002117,0.0003757,0.4297,0.04895,3.612,0.007998,0,0,0.2935
78300000000,78600000000,5022021456,0,367886059,0.2764,0.06543,0.09814,0.01387,0.01416,0.06616,0.002174,0.0003767,0.4736,0.05951,3.057,0.00639,0,0,0.1943
78600000000,78900000000,5022021456,0,367886059,0.2214,0.06506,0.09814,0.01645,0.01672,0.06592,0.002083,0.0003767,0.4604,0.05194,3.377,0.007314,0,0,0.3066
78900000000,79200000000,5022021456,0,367886059,0.1804,0.06445,0.09814,0.009521,0.009796,0.06519,0.001871,0.0003757,0.4375,0.04669,3.773,0.008244,0,0,0.1189
79500000000,79800000000,5022021456,0,367886059,0.1841,0.06543,0.09863,0.01672,0.017,0.06677,0.002007,0.0003738,0.4688,0.04865,4.789,0.01107,0,0,0.07239
79800000000,80100000000,5022021456,0,367886059,0.2439,0.0658,0.09924,0.02673,0.02704,0.06628,0.002083,0.0003767,0.4658,0.04907,3.27,0.00693,0,0,0.2339
80400000000,80700000000,5022021456,0,367886059,0.2554,0.0658,0.09888,0.01749,0.01776,0.06628,0.002293,0.0003757,0.4531,0.04602,3.033,0.00617,0,0,0.2505
80700000000,81000000000,5022021456,0,367886059,0.2549,0.06592,0.09937,0.01648,0.01678,0.06641,0.002094,0.0003767,0.4297,0.04962,3.764,0.008385,0,0,0.2554
11100000000,11400000000,5022021456,0,367886059,0.2505,0.0658,0.09863,0.01804,0.01834,0.06665,0.002926,0.0003757,0.436,0.05231,3.578,0.008144,0,0,0.3003
11400000000,11700000000,5022021456,0,367886059,0.2476,0.06628,0.1001,0.02502,0.0253,0.06689,0.003059,0.0003767,0.4375,0.05585,3.011,0.006317,0,0,0.29
11700000000,12000000000,5022021456,0,367886059,0.2505,0.06604,0.09973,0.034,0.0343,0.06689,0.002708,0.0003767,0.4297,0.05219,2.972,0.006168,0,0,0.3296
12000000000,12300000000,5022021456,0,367886059,0.2529,0.06604,0.09998,0.03186,0.03217,0.06665,0.002857,0.0003757,0.4297,0.05176,3.188,0.006842,0,0,0.2087
12300000000,12600000000,5022021456,0,367886059,0.2444,0.06543,0.09912,0.02795,0.02823,0.06628,0.002613,0.0003748,0.5859,0.04028,3.699,0.008521,0,0,0.2778
12600000000,12900000000,5022021456,0,367886059,0.175,0.06482,0.09851,0.02142,0.0217,0.06616,0.002201,0.0003767,0.4214,0.05444,4.205,0.009652,0,0,0.08618
13500000000,13800000000,5022021456,0,367886059,0.2715,0.06555,0.0979,0.03662,0.03693,0.06592,0.002728,0.0003748,0.4297,0.04565,2.766,0.005735,0,0,0.4062
13800000000,14100000000,5022021456,0,367886059,0.2554,0.0658,0.09961,0.03827,0.03857,0.06641,0.002613,0.0003757,0.4224,0.05444,3.169,0.006796,0,0,0.2065
14100000000,14400000000,5022021456,0,367886059,0.25,0.06592,0.09985,0.02191,0.02222,0.06641,0.002865,0.0003767,0.4375,0.05713,2.968,0.006098,0,0,0.2415
14400000000,14700000000,5022021456,0,367886059,0.248,0.06567,0.09827,0.02829,0.02856,0.06616,0.002747,0.0003767,0.4253,0.04865,3.002,0.006269,0,0,0.1755
14700000000,15000000000,5022021456,0,367886059,0.249,0.06543,0.099,0.02994,0.03024,0.06616,0.002449,0.0003757,0.4375,0.04913,3.427,0.007551,0,0,0.1541
15000000000,15300000000,5022021456,0,367886059,0.1921,0.06494,0.09814,0.03247,0.03278,0.06616,0.002193,0.0003767,0.4141,0.05157,4.025,0.009224,0,0,0.3062
15300000000,15600000000,5022021456,0,367886059,0.1755,0.06421,0.09814,0.02194,0.02222,0.06458,0.002411,0.0003757,0.4448,0.05164,3.706,0.008208,0,0,0.127
