6000000000,6300000000,5032862880,1,1324478,0.02258,0.004585,0.009979,0.003109,0.0033,0.005859,0.0002699,0.0006056,0.07825,0.01157,2.99,0.006672,0,0,0.01315
6300000000,6600000000,5032862880,1,1324478,0.02377,0.004135,0.009644,0.003288,0.003483,0.004509,0.0003214,0.0006065,0.09106,0.01465,1.71,0.002998,0,0,0.01436
7200000000,7500000000,5032862880,1,1324478,0.02344,0.00412,0.009644,0.005051,0.005249,0.004417,0.0002584,0.0006151,0.07898,0.01271,1.743,0.003206,0,0,0.01575
7500000000,7800000000,5032862880,1,1324478,0.02908,0.004578,0.01001,0.005531,0.00573,0.005836,0.0006952,0.0005989,0.1149,0.02371,1.807,0.003229,0,0,0.03986
8700000000,9000000000,5032862880,1,1324478,0.02271,0.004662,0.01009,0.005348,0.005547,0.005775,0.0002413,0.0006008,0.08838,0.01157,1.745,0.003133,0,0,0.04358
9000000000,9300000000,5032862880,1,1324478,0.02307,0.004173,0.009613,0.002403,0.002594,0.004524,0.0002832,0.0006008,0.08838,0.01151,1.617,0.002708,0,0,0.01561
9300000000,9600000000,5032862880,1,1324478,0.02893,0.004646,0.01004,0.002335,0.002529,0.005844,0.000783,0.0006046,0.1051,0.02258,1.798,0.003107,0,0,0.01096
9600000000,9900000000,5032862880,1,1324478,0.0228,0.004814,0.01053,0.00293,0.003124,0.005775,0.0002699,0.0006084,0.09973,0.009506,2.053,0.004084,0,0,0.01198
9900000000,10200000000,5032862880,1,1324478,0.02362,0.00412,0.009659,0.003258,0.003448,0.004486,0.0002813,0.0006094,0.07544,0.01086,2.084,0.003844,0,0,0.05481
10200000000,10500000000,5032862880,1,1324478,0.02945,0.004562,0.01003,0.004456,0.004646,0.005943,0.0007544,0.0006132,0.1094,0.03278,1.62,0.002612,0,0,0.02066
11100000000,11400000000,5032862880,1,1324478,0.02972,0.004593,0.01004,0.005486,0.005684,0.005783,0.0007544,0.0005903,0.08496,0.02606,1.912,0.003651,0,0,0.01614
12300000000,12600000000,5032862880,1,1324478,0.02255,0.004585,0.01009,0.005287,0.005486,0.005669,0.0002623,0.0006037,0.08594,0.009781,1.519,0.002176,0,0,0.0143
13800000000,14100000000,5032862880,1,1324478,0.03229,0.004738,0.01012,0.005493,0.005684,0.00602,0.0007973,0.0006075,0.1215,0.02206,2.111,0.004054,0,0,0.09656
15000000000,15300000000,5032862880,1,1324478,0.02283,0.004593,0.009964,0.005188,0.005379,0.0056,0.0002289,0.000598,0.1641,0.009079,1.634,0.002742,0,0,0.06384
15300000000,15600000000,5032862880,1,1324478,0.02216,0.004196,0.009628,0.004959,0.00515,0.004547,0.0002413,0.000598,0.1133,0.009567,1.667,0.002649,0,0,0.05157
15600000000,15900000000,5032862880,1,1324478,0.02972,0.0047,0.01018,0.001492,0.001684,0.005814,0.0007954,0.0006018,0.1277,0.02313,3.482,0.008026,0,0,0.0318
16200000000,16500000000,5032862880,1,1324478,0.02304,0.004143,0.009628,0.003513,0.003704,0.004532,0.0003033,0.0006065,0.1006,0.01221,1.656,0.00277,0,0,0.01433
17100000000,17400000000,5032862880,1,1324478,0.02316,0.004181,0.009613,0.005035,0.005226,0.004562,0.0002937,0.0006151,0.08691,0.01178,1.697,0.002761,0,0,0.05658
17400000000,17700000000,5032862880,1,1324478,0.02856,0.004684,0.01013,0.005547,0.005745,0.005844,0.0007973,0.0006027,0.1218,0.02551,2.691,0.005008,0,0,0.01042
18600000000,18900000000,5032862880,1,1324478,0.02219,0.004532,0.009964,0.005295,0.005486,0.005531,0.000248,0.0006008,0.07764,0.009781,1.679,0.002702,0,0,0.03491
18900000000,19200000000,5032862880,1,1324478,0.02115,0.004105,0.009644,0.005119,0.00531,0.004486,0.0002422,0.0006008,0.09607,0.01057,1.522,0.002019,0,0,0.01433
19200000000,19500000000,5032862880,1,1324478,0.02899,0.004646,0.01012,0.002583,0.002773,0.005783,0.0007715,0.0006046,0.1102,0.02808,4.22,0.009383,0,0,0.03906
19500000000,19800000000,5032862880,1,1324478,0.02237,0.004517,0.009918,0.004478,0.004677,0.005783,0.0003281,0.0006084,0.09839,0.009933,1.552,0.002225,0,0,0.01572
20700000000,21000000000,5032862880,1,1324478,0.02264,0.00412,0.009644,0.00518,0.005371,0.004471,0.0003004,0.0005865,0.07642,0.01486,1.58,0.002343,0,0,0.01382
21300000000,21600000000,5032862880,1,1324478,0.02258,0.004486,0.009903,0.005394,0.005585,0.005768,0.0002966,0.0005951,0.1168,0.01114,1.456,0.002005,0,0,0.04364
21600000000,21900000000,5032862880,1,1324478,0.02338,0.004112,0.009644,0.005272,0.005463,0.004494,0.0002651,0.0005951,0.08997,0.01079,1.568,0.002472,0,0,0.01624
21900000000,22200000000,5032862880,1,1324478,0.02847,0.004662,0.01013,0.005562,0.005753,0.006088,0.0007706,0.0005989,0.1036,0.02957,1.673,0.002518,0,0,0.02551
22200000000,22500000000,5032862880,1,1324478,0.02274,0.00457,0.009949,0.002773,0.002968,0.005661,0.0002327,0.0006037,0.1055,0.01221,1.524,0.0023,0,0,0.01414
22800000000,23100000000,5032862880,1,1324478,0.02911,0.004707,0.01013,0.003635,0.003826,0.005936,0.000802,0.0006075,0.1145,0.03223,2.604,0.004887,0,0,0.06067
23400000000,23700000000,5032862880,1,1324478,0.02292,0.004158,0.009628,0.004311,0.004501,0.004524,0.0002708,0.0006123,0.07922,0.01164,1.63,0.002551,0,0,0.02301
24900000000,25200000000,5032862880,1,1324478,0.02164,0.004578,0.0101,0.004738,0.004929,0.005692,0.0002699,0.000598,0.07703,0.01265,1.527,0.002144,0,0,0.0163
25500000000,25800000000,5032862880,1,1324478,0.02884,0.004723,0.01021,0.001823,0.002018,0.006264,0.0008001,0.0006018,0.09216,0.02551,1.806,0.00298,0,0,0.01324
26400000000,26700000000,5032862880,1,1324478,0.02905,0.004745,0.01021,0.004906,0.005096,0.005775,0.0008373,0.0006104,0.1233,0.02536,1.723,0.002687,0,0,0.05573
27900000000,28200000000,5032862880,1,1324478,0.02478,0.004105,0.009628,0.005196,0.005386,0.004456,0.0002689,0.0005922,0.1133,0.01164,6.211,0.01712,0,0,0.08105
28200000000,28500000000,5032862880,1,1324478,0.03235,0.004639,0.01006,0.005501,0.005692,0.006004,0.0008316,0.000596,0.1379,0.01935,1.73,0.003256,0,0,0.06714
28800000000,29100000000,5032862880,1,1324478,0.02576,0.004105,0.009644,0.00123,0.001423,0.004509,0.0003109,0.0006008,0.07971,0.01329,1.875,0.004154,0,0,0.02997
29400000000,29700000000,5032862880,1,1324478,0.02524,0.00457,0.01003,0.00309,0.003281,0.005699,0.0002956,0.0006084,0.09839,0.01042,1.956,0.004349,0,0,0.04486
29700000000,30000000000,5032862880,1,1324478,0.02588,0.004112,0.009644,0.00301,0.003204,0.004524,0.0003052,0.0006094,0.09912,0.01164,1.913,0.004207,0,0,0.05896
30000000000,30300000000,5032862880,1,1324478,0.03278,0.004623,0.01009,0.00428,0.004471,0.006012,0.0008202,0.0006132,0.1316,0.02606,4.172,0.01177,0,0,0.03137
30300000000,30600000000,5032862880,1,1324478,0.02661,0.00473,0.0103,0.004868,0.005058,0.006058,0.0002642,0.000596,0.09375,0.008713,1.825,0.003831,0,0,0.01639
30600000000,30900000000,5032862880,1,1324478,0.02509,0.004158,0.009628,0.004677,0.004868,0.004532,0.0002747,0.0005875,0.08984,0.01221,1.716,0.003352,0,0,0.04584
33000000000,33300000000,5032862880,1,1324478,0.0253,0.004593,0.01015,0.004295,0.004494,0.005783,0.0002623,0.0006123,0.09119,0.01114,1.802,0.003849,0,0,0.05017
33300000000,33600000000,5032862880,1,1324478,0.02643,0.004112,0.009644,0.004074,0.004272,0.004509,0.0002842,0.0006123,0.104,0.008148,1.788,0.003636,0,0,0.01584
34200000000,34500000000,5032862880,1,1324478,0.02548,0.004066,0.009644,0.005096,0.005295,0.004463,0.0002527,0.0005903,0.08032,0.00972,2.113,0.004397,0,0,0.01791
35100000000,35400000000,5032862880,1,1324478,0.02487,0.004051,0.009659,0.002518,0.002712,0.004456,0.0002737,0.000598,0.0957,0.01186,1.691,0.00318,0,0,0.01392
35400000000,35700000000,5032862880,1,1324478,0.0318,0.004509,0.01003,0.001282,0.001474,0.005798,0.0009785,0.0006018,0.1172,0.03809,1.591,0.002817,0,0,0.02237
35700000000,36000000000,5032862880,1,1324478,0.02536,0.004715,0.01022,0.002674,0.002869,0.005699,0.00033,0.0006065,0.1445,0.01414,1.548,0.002704,0,0,0.01624
36000000000,36300000000,5032862880,1,1324478,0.02521,0.004089,0.009644,0.002865,0.003056,0.004456,0.0003147,0.0006065,0.1156,0.01443,1.746,0.003549,0,0,0.01697
36300000000,36600000000,5032862880,1,1324478,0.03253,0.004539,0.01004,0.004021,0.004211,0.00589,0.0009127,0.0006104,0.1195,0.02957,2.82,0.006493,0,0,0.02234
36600000000,36900000000,5032862880,1,1324478,0.02585,0.004822,0.01067,0.0047,0.00489,0.006073,0.0003405,0.0006151,0.08826,0.01521,1.557,0.002589,0,0,0.02054
36900000000,37200000000,5032862880,1,1324478,0.02518,0.004105,0.009644,0.00396,0.004158,0.004463,0.0002718,0.0006151,0.07947,0.01157,1.717,0.003221,0,0,0.07947
37200000000,37500000000,5032862880,1,1324478,0.03217,0.004547,0.01003,0.005096,0.005287,0.00592,0.0008287,0.000596,0.1123,0.02243,1.632,0.002765,0,0,0.01724
37500000000,37800000000,5032862880,1,1324478,0.0249,0.0047,0.01024,0.005447,0.005638,0.005875,0.0002584,0.0005922,0.07959,0.01265,1.64,0.003062,0,0,0.01401
37800000000,38100000000,5032862880,1,1324478,0.02554,0.004112,0.009628,0.005257,0.005447,0.004524,0.0002689,0.0005932,0.09692,0.01135,1.749,0.003395,0,0,0.01666
38700000000,39000000000,5032862880,1,1324478,0.02573,0.004112,0.009644,0.00144,0.001633,0.00444,0.0002728,0.0006018,0.08118,0.0135,1.613,0.003126,0,0,0.03259
39000000000,39300000000,5032862880,1,1324478,0.03168,0.004578,0.01007,0.002644,0.002838,0.006088,0.0007229,0.0006046,0.1121,0.02301,1.928,0.004083,0,0,0.02194
39600000000,39900000000,5032862880,1,1324478,0.02548,0.004089,0.009644,0.003193,0.003384,0.00441,0.0002728,0.0006104,0.08435,0.008713,1.739,0.003514,0,0,0.05939
40200000000,40500000000,5032862880,1,1324478,0.02438,0.004578,0.01006,0.004951,0.005142,0.005821,0.0002222,0.0005913,0.07874,0.008209,1.947,0.00413,0,0,0.01703
51000000000,51300000000,5032862880,1,1324478,0.02518,0.004539,0.0101,0.005295,0.005486,0.005791,0.0002527,0.000598,0.08142,0.007713,1.717,0.003595,0,0,0.01651
51300000000,51600000000,5032862880,1,1324478,0.02524,0.004036,0.009644,0.003414,0.003605,0.004402,0.0002623,0.000598,0.08594,0.01036,1.839,0.004013,0,0,0.01636
51900000000,52200000000,5032862880,1,1324478,0.02441,0.004646,0.01016,0.003227,0.003418,0.005722,0.0002499,0.0006056,0.07874,0.01443,1.694,0.00337,0,0,0.01611
52200000000,52500000000,5032862880,1,1324478,0.02536,0.004066,0.009644,0.003399,0.00359,0.004501,0.000289,0.0006065,0.08411,0.01172,1.98,0.004396,0,0,0.01724
52800000000,53100000000,5032862880,1,1324478,0.02646,0.004669,0.01019,0.00547,0.005653,0.005966,0.0003033,0.0006142,0.1088,0.01271,2.172,0.005058,0,0,0.01794
53100000000,53400000000,5032862880,1,1324478,0.02521,0.004082,0.009628,0.005203,0.005394,0.004478,0.0002069,0.0006151,0.1074,0.006073,1.796,0.003682,0,0,0.01306
53700000000,54000000000,5032862880,1,1324478,0.02539,0.004608,0.01009,0.005096,0.005287,0.00576,0.0002651,0.0005922,0.09766,0.00972,1.93,0.004338,0,0,0.01697
54000000000,54300000000,5032862880,1,1324478,0.02478,0.004097,0.009644,0.004921,0.005112,0.004448,0.0002394,0.0005932,0.1211,0.01028,1.683,0.003225,0,0,0.01514
54300000000,54600000000,5032862880,1,1324478,0.03192,0.00457,0.01007,0.005539,0.00573,0.005936,0.000741,0.000596,0.1523,0.02707,2.115,0.004711,0,0,0.01537
54900000000,55200000000,5032862880,1,1324478,0.02603,0.004082,0.009644,0.001268,0.001457,0.004463,0.0002899,0.0006008,0.08191,0.01157,4.466,0.01354,0,0,0.01575
55800000000,56100000000,5032862880,1,1324478,0.02512,0.004089,0.009644,0.003178,0.003368,0.004494,0.0002985,0.0006094,0.09241,0.01279,1.856,0.004103,0,0,0.01709
57000000000,57300000000,5032862880,1,1324478,0.03314,0.004715,0.01016,0.005524,0.005714,0.005936,0.0008154,0.0005913,0.1406,0.02664,2.406,0.005789,0,0,0.02496
57300000000,57600000000,5032862880,1,1324478,0.02505,0.004585,0.009949,0.005386,0.005569,0.005936,0.0002613,0.0005951,0.08923,0.008209,1.917,0.004122,0,0,0.03552
57900000000,58200000000,5032862880,1,1324478,0.03217,0.004677,0.01018,0.003765,0.003952,0.006187,0.0007305,0.0005999,0.099,0.0275,1.815,0.003803,0,0,0.01855
58500000000,58800000000,5032862880,1,1324478,0.02478,0.004105,0.009644,0.002548,0.002735,0.004478,0.0002651,0.0006046,0.09583,0.01042,1.676,0.003255,0,0,0.01558
60600000000,60900000000,5032862880,1,1324478,0.03149,0.004639,0.01003,0.005531,0.005722,0.005905,0.0007639,0.0005941,0.1035,0.03351,2.019,0.004522,0,0,0.06171
71700000000,72000000000,5032862880,1,1324478,0.02524,0.004662,0.01018,0.003967,0.00415,0.006203,0.0003567,0.0006113,0.07849,0.02127,1.692,0.00328,0,0,0.05994
72300000000,72600000000,5032862880,1,1324478,0.03186,0.004578,0.01004,0.004845,0.005028,0.005905,0.000927,0.0006084,0.09485,0.03931,1.942,0.004152,0,0,0.02411
73500000000,73800000000,5032862880,1,1324478,0.02512,0.004677,0.01021,0.005424,0.005608,0.005905,0.0002737,0.000598,0.09241,0.01486,3.002,0.007928,0,0,0.01871
73800000000,74100000000,5032862880,1,1324478,0.026,0.004082,0.009644,0.002876,0.003063,0.004547,0.0002928,0.000598,0.08142,0.01028,1.968,0.004206,0,0,0.02069
74400000000,74700000000,5032862880,1,1324478,0.02585,0.004578,0.01009,0.003319,0.00351,0.005791,0.0002232,0.0006065,0.07776,0.008789,2.09,0.004938,0,0,0.01477
75000000000,75300000000,5032862880,1,1324478,0.03351,0.0047,0.01015,0.0047,0.00489,0.005981,0.0007448,0.0006104,0.1133,0.01807,2.034,0.00446,0,0,0.02591
75300000000,75600000000,5032862880,1,1324478,0.02539,0.004601,0.01001,0.005219,0.005402,0.005646,0.0002003,0.0006151,0.1562,0.005714,1.779,0.003644,0,0,0.06494
75600000000,75900000000,5032862880,1,1324478,0.02554,0.004112,0.009628,0.005096,0.005287,0.004486,0.0002851,0.0006151,0.08484,0.011,2.191,0.005428,0,0,0.01552
75900000000,76200000000,5032862880,1,1324478,0.03363,0.004631,0.01007,0.005531,0.005714,0.005974,0.0007563,0.0005941,0.1797,0.0285,2.158,0.005102,0,0,0.04572
76200000000,76500000000,5032862880,1,1324478,0.02509,0.004631,0.0101,0.00547,0.005653,0.00602,0.000247,0.0005932,0.07935,0.008789,2.604,0.006304,0,0,0.01633
76500000000,76800000000,5032862880,1,1324478,0.02728,0.00412,0.009644,0.005127,0.00531,0.004532,0.0002689,0.0005932,0.1011,0.01566,2.055,0.004836,0,0,0.01669
78000000000,78300000000,5032862880,1,1324478,0.02554,0.004585,0.009964,0.003937,0.004128,0.0056,0.0002451,0.0006104,0.08545,0.009644,1.928,0.004323,0,0,0.01518
78600000000,78900000000,5032862880,1,1324478,0.03302,0.004616,0.01012,0.005272,0.005463,0.005974,0.0007305,0.0006123,0.101,0.03015,3.758,0.01082,0,0,0.01562
79200000000,79500000000,5032862880,1,1324478,0.02591,0.004082,0.009644,0.005013,0.005203,0.004501,0.0002813,0.0005884,0.08289,0.01122,1.747,0.003642,0,0,0.017
85800000000,86100000000,5032862880,1,1324478,0.03229,0.004677,0.01015,0.005524,0.005714,0.005943,0.000783,0.0005903,0.1316,0.02557,2.201,0.005094,0,0,0.04413
86700000000,87000000000,5032862880,1,1324478,0.03284,0.004677,0.0101,0.003952,0.004143,0.006035,0.0008402,0.0005999,0.1172,0.01865,3.691,0.01075,0,0,0.03662
87000000000,87300000000,5032862880,1,1324478,0.02649,0.004669,0.01013,0.001865,0.002052,0.006149,0.0003099,0.0006037,0.08154,0.00972,1.77,0.003627,0,0,0.06238
87600000000,87900000000,5032862880,1,1324478,0.03302,0.004623,0.0101,0.003567,0.003757,0.006172,0.0008631,0.0006084,0.1172,0.0332,1.858,0.003943,0,0,0.03796
88500000000,88800000000,5032862880,1,1324478,0.03156,0.004646,0.01016,0.005318,0.005501,0.005989,0.0008726,0.0006075,0.108,0.03436,1.837,0.003716,0,0,0.03387
88800000000,89100000000,5032862880,1,1324478,0.0246,0.004593,0.01003,0.00544,0.00563,0.005592,0.0002794,0.0005903,0.07642,0.01157,1.911,0.004206,0,0,0.01617
89100000000,89400000000,5032862880,1,1324478,0.0253,0.004097,0.009644,0.005081,0.005264,0.004463,0.0002975,0.0005913,0.09802,0.01436,1.851,0.003859,0,0,0.01898
89700000000,90000000000,5032862880,1,1324478,0.02615,0.004646,0.01016,0.00531,0.005501,0.005959,0.0002756,0.0005989,0.09717,0.01314,3.092,0.008314,0,0,0.01901
90300000000,90600000000,5032862880,1,1324478,0.03302,0.004677,0.01013,0.001945,0.002132,0.006195,0.0008841,0.0006037,0.1226,0.02386,1.859,0.003859,0,0,0.01743
90600000000,90900000000,5032862880,1,1324478,0.02469,0.004608,0.01009,0.003952,0.004135,0.005791,0.0003328,0.0006075,0.08594,0.01199,1.746,0.003549,0,0,0.01447
101100000000,101400000000,5032862880,1,1324478,0.03223,0.004707,0.01013,0.005486,0.005669,0.006042,0.0007801,0.0006027,0.1836,0.02478,1.969,0.004219,0,0,0.02707
101400000000,101700000000,5032862880,1,1324478,0.02499,0.004654,0.01012,0.005211,0.005394,0.005714,0.0002756,0.0005913,0.1172,0.00914,2.735,0.006395,0,0,0.01283
102000000000,102300000000,5032862880,1,1324478,0.03186,0.004753,0.01018,0.005486,0.005676,0.006012,0.000783,0.0005951,0.1399,0.02914,1.631,0.003011,0,0,0.01706
102300000000,102600000000,5032862880,1,1324478,0.02585,0.004547,0.009903,0.005226,0.005417,0.005684,0.0002604,0.0005999,0.1055,0.01593,1.772,0.003447,0,0,0.01561
103500000000,103800000000,5032862880,1,1324478,0.02554,0.004066,0.009659,0.004761,0.004951,0.004433,0.0002413,0.0006084,0.1172,0.009079,2.803,0.006929,0,0,0.01553
103800000000,104100000000,5032862880,1,1324478,0.03333,0.004715,0.01018,0.005455,0.005646,0.005951,0.000783,0.0006123,0.1523,0.03607,1.975,0.003916,0,0,0.01712
104100000000,104400000000,5032862880,1,1324478,0.02472,0.004723,0.01041,0.005035,0.005226,0.005692,0.0002136,0.0006046,0.1016,0.006287,1.734,0.003398,0,0,0.01761
104400000000,104700000000,5032862880,1,1324478,0.02426,0.004105,0.009659,0.004929,0.005112,0.004501,0.0002661,0.0005865,0.1094,0.01265,1.57,0.002767,0,0,0.01498
104700000000,105000000000,5032862880,1,1324478,0.03271,0.004684,0.01015,0.005486,0.005676,0.006142,0.0008039,0.0005903,0.1184,0.03607,1.95,0.003889,0,0,0.08936
105000000000,105300000000,5032862880,1,1324478,0.02515,0.004684,0.01016,0.005386,0.005569,0.005699,0.0002699,0.0005941,0.09143,0.01186,1.706,0.00308,0,0,0.01736
105300000000,105600000000,5032862880,1,1324478,0.0249,0.004105,0.009644,0.005257,0.005447,0.004478,0.0002565,0.0005951,0.07727,0.01151,1.977,0.004058,0,0,0.01541
105600000000,105900000000,5032862880,1,1324478,0.03351,0.004585,0.01009,0.005531,0.005714,0.006187,0.0008497,0.000598,0.145,0.03406,3.805,0.009434,0,0,0.06372
106500000000,106800000000,5032862880,1,1324478,0.02969,0.0047,0.01018,0.003132,0.003319,0.00618,0.0008707,0.0006065,0.099,0.02878,1.714,0.003031,0,0,0.03271
106800000000,107100000000,5032862880,1,1324478,0.02487,0.004539,0.01003,0.003757,0.003944,0.005608,0.0002623,0.0006113,0.07849,0.01157,1.767,0.003477,0,0,0.01463
107100000000,107400000000,5032862880,1,1324478,0.02463,0.004143,0.009644,0.003658,0.003845,0.004539,0.0002766,0.0006113,0.09375,0.01151,1.765,0.003243,0,0,0.01465
107400000000,107700000000,5032862880,1,1324478,0.02997,0.004677,0.01016,0.004959,0.00515,0.005951,0.0008698,0.0006075,0.09485,0.03143,2.21,0.004358,0,0,0.0163
107700000000,108000000000,5032862880,1,1324478,0.02509,0.004555,0.009949,0.005318,0.005501,0.005898,0.0003176,0.0005894,0.09399,0.01186,2.232,0.004756,0,0,0.01602
108000000000,108300000000,5032862880,1,1324478,0.02463,0.004143,0.009644,0.005234,0.005417,0.004547,0.0003004,0.0005894,0.09509,0.01157,1.623,0.002676,0,0,0.0155
108300000000,108600000000,5032862880,1,1324478,0.03186,0.004684,0.01013,0.0056,0.005791,0.006187,0.0008163,0.0005932,0.09668,0.03845,1.909,0.003633,0,0,0.03851
108600000000,108900000000,5032862880,1,1324478,0.02362,0.00457,0.01001,0.005432,0.005615,0.005814,0.0002861,0.000598,0.1289,0.01286,1.741,0.003214,0,0,0.01846
109200000000,109500000000,5032862880,1,1324478,0.02954,0.004669,0.01012,0.00251,0.002697,0.005966,0.0009708,0.0006018,0.125,0.04181,2.2,0.004178,0,0,0.02347
109500000000,109800000000,5032862880,1,1324478,0.02533,0.004623,0.009964,0.002747,0.002937,0.005737,0.0003252,0.0006065,0.08984,0.01479,2.555,0.005594,0,0,0.0567
109800000000,110100000000,5032862880,1,1324478,0.02386,0.00412,0.009628,0.002884,0.003075,0.004478,0.0003366,0.0006065,0.1211,0.01335,1.675,0.002898,0,0,0.0174
110100000000,110400000000,5032862880,1,1324478,0.03021,0.004654,0.0101,0.004219,0.00441,0.006111,0.0009823,0.0006104,0.1328,0.04413,1.865,0.003298,0,0,0.03809
110400000000,110700000000,5032862880,1,1324478,0.02313,0.004555,0.01007,0.004868,0.005058,0.005653,0.0003004,0.0006151,0.168,0.01587,1.557,0.002483,0,0,0.01718
110700000000,111000000000,5032862880,1,1324478,0.02557,0.00412,0.009644,0.004692,0.004883,0.004448,0.000329,0.0006151,0.1328,0.01457,1.72,0.002984,0,0,0.01605
116100000000,116400000000,5032862880,1,1324478,0.0239,0.004082,0.009644,0.002544,0.002735,0.00444,0.000246,0.0006046,0.08606,0.01657,1.721,0.002714,0,0,0.01642
116400000000,116700000000,5032862880,1,1324478,0.03036,0.004646,0.0101,0.003876,0.004066,0.006111,0.0007353,0.0006084,0.1367,0.01807,1.75,0.002715,0,0,0.01587
116700000000,117000000000,5032862880,1,1324478,0.02371,0.004578,0.009995,0.004448,0.004639,0.005615,0.0002499,0.0006132,0.07788,0.00972,1.684,0.002741,0,0,0.01506
117000000000,117300000000,5032862880,1,1324478,0.02521,0.004105,0.009659,0.004364,0.004555,0.004478,0.0002508,0.0006132,0.099,0.01164,1.841,0.003234,0,0,0.01596
117900000000,118200000000,5032862880,1,1324478,0.0246,0.004089,0.009644,0.005241,0.005432,0.004456,0.0002375,0.0005913,0.0791,0.009644,1.705,0.002685,0,0,0.04602
118500000000,118800000000,5032862880,1,1324478,0.02219,0.004532,0.009995,0.00531,0.005501,0.005661,0.0002308,0.0005989,0.08691,0.009995,1.543,0.002203,0,0,0.01552
119100000000,119400000000,5032862880,1,1324478,0.0293,0.004646,0.01012,0.00189,0.002079,0.005867,0.0007172,0.0006037,0.1016,0.02792,3.12,0.006326,0,0,0.01305
119400000000,119700000000,5032862880,1,1324478,0.02319,0.004547,0.009933,0.002586,0.002773,0.005775,0.000267,0.0006075,0.06665,0.009857,1.593,0.002361,0,0,0.0135
119700000000,120000000000,5032862880,1,1324478,0.02295,0.004089,0.009659,0.002575,0.002762,0.004478,0.0002794,0.0006084,0.1211,0.01393,1.619,0.002411,0,0,0.01152
120000000000,120300000000,5032862880,1,1324478,0.0321,0.004578,0.01006,0.00359,0.003777,0.00592,0.0007286,0.0006113,0.1055,0.02313,1.846,0.003329,0,0,0.01534
126000000000,126300000000,5032862880,1,1324478,0.02499,0.004112,0.009644,0.002319,0.002506,0.004509,0.0003061,0.0006065,0.08862,0.01292,1.67,0.002849,0,0,0.02597
126300000000,126600000000,5032862880,1,1324478,0.0311,0.004608,0.01004,0.003628,0.003815,0.005821,0.0008125,0.0006094,0.09644,0.02264,1.936,0.003414,0,0,0.02441
126900000000,127200000000,5032862880,1,1324478,0.02921,0.004387,0.00975,0.004654,0.004845,0.005043,0.0004616,0.0006132,0.1034,0.02457,1.732,0.00309,0,0,0.01044
127200000000,127500000000,5032862880,1,1324478,0.03284,0.004593,0.01001,0.005432,0.005615,0.005653,0.0007496,0.0005894,0.1719,0.01956,2.068,0.004051,0,0,0.02875
127500000000,127800000000,5032862880,1,1324478,0.02588,0.00489,0.0105,0.005348,0.005539,0.006172,0.0004339,0.0005941,0.1017,0.02063,1.714,0.00287,0,0,0.01743
127800000000,128100000000,5032862880,1,1324478,0.02533,0.004128,0.009644,0.004593,0.004776,0.004494,0.0002594,0.0005951,0.08154,0.01308,2.904,0.006624,0,0,0.07092
128100000000,128400000000,5032862880,1,1324478,0.03131,0.004768,0.01024,0.005211,0.005402,0.006058,0.0009136,0.0005989,0.1484,0.04401,2.129,0.003743,0,0,0.02249
128400000000,128700000000,5032862880,1,1324478,0.02353,0.00473,0.01021,0.002029,0.002216,0.005882,0.0003109,0.0006037,0.09131,0.01593,1.611,0.002376,0,0,0.01733
128700000000,129000000000,5032862880,1,1324478,0.02417,0.004204,0.009644,0.002167,0.002354,0.004578,0.0003176,0.0006046,0.1055,0.01636,1.748,0.002941,0,0,0.0163
129600000000,129900000000,5032862880,1,1324478,0.02628,0.004166,0.009644,0.004196,0.004387,0.004623,0.0003605,0.0006132,0.1044,0.01385,2.258,0.004777,0,0,0.05054
129900000000,130200000000,5032862880,1,1324478,0.03241,0.004799,0.01022,0.005203,0.005386,0.005936,0.0009165,0.0006065,0.1237,0.03036,1.875,0.003791,0,0,0.0304
130200000000,130500000000,5032862880,1,1324478,0.0239,0.0047,0.01044,0.005531,0.005722,0.005493,0.000289,0.0005903,0.09436,0.01286,1.622,0.002755,0,0,0.0354
130500000000,130800000000,5032862880,1,1324478,0.02695,0.004265,0.009628,0.005341,0.005524,0.004898,0.0003662,0.0005913,0.09766,0.01364,1.857,0.003527,0,0,0.02554
130800000000,131100000000,5032862880,1,1324478,0.03455,0.004715,0.0101,0.005493,0.005684,0.005852,0.0008707,0.0005951,0.1185,0.02551,5.071,0.01497,0,0,0.06348
141900000000,142200000000,5032862880,1,1324478,0.02368,0.004669,0.01006,0.003201,0.003387,0.005547,0.0002356,0.0006113,0.08179,0.008636,1.653,0.003037,0,0,0.05573
142500000000,142800000000,5032862880,1,1324478,0.03003,0.004669,0.01012,0.004272,0.004463,0.006149,0.0007915,0.0006075,0.1946,0.02084,1.941,0.003832,0,0,0.01694
144000000000,144300000000,5032862880,1,1324478,0.02539,0.004189,0.009628,0.005196,0.005379,0.004593,0.0002527,0.0005989,0.09497,0.01164,3.91,0.01106,0,0,0.01907
144300000000,144600000000,5032862880,1,1324478,0.03156,0.00473,0.01013,0.003544,0.003731,0.006058,0.0007439,0.0006027,0.1215,0.02408,2.016,0.004057,0,0,0.01691
144900000000,145200000000,5032862880,1,1324478,0.0249,0.004089,0.009644,0.002926,0.003113,0.004433,0.0003843,0.0006075,0.09766,0.01443,1.959,0.004158,0,0,0.0132
145200000000,145500000000,5032862880,1,1324478,0.02966,0.004654,0.0101,0.00425,0.004433,0.005852,0.0008326,0.0006104,0.09595,0.04565,1.814,0.003343,0,0,0.01498
151200000000,151500000000,5032862880,1,1324478,0.0242,0.004135,0.009644,0.002026,0.002213,0.004539,0.000268,0.0006037,0.09692,0.009995,1.882,0.003582,0,0,0.0191
151500000000,151800000000,5032862880,1,1324478,0.03088,0.004578,0.009995,0.003265,0.003452,0.005791,0.0006657,0.0006065,0.1179,0.03845,2.077,0.004332,0,0,0.04321
152100000000,152400000000,5032862880,1,1324478,0.02628,0.004097,0.009644,0.00375,0.003937,0.004448,0.0002489,0.0006123,0.09521,0.01007,2.238,0.005309,0,0,0.03882
152700000000,153000000000,5032862880,1,1324478,0.02396,0.004623,0.0101,0.005043,0.005234,0.005745,0.0002356,0.0005884,0.1051,0.01135,1.746,0.003423,0,0,0.02161
153600000000,153900000000,5032862880,1,1324478,0.02341,0.004646,0.0101,0.005196,0.005386,0.005768,0.0002127,0.000597,0.09375,0.008713,1.757,0.003264,0,0,0.01669
155400000000,155700000000,5032862880,1,1324478,0.0253,0.004623,0.0101,0.004784,0.004974,0.005699,0.0002823,0.0006142,0.07751,0.01428,2.024,0.004316,0,0,0.01593
155700000000,156000000000,5032862880,1,1324478,0.02579,0.004089,0.009644,0.004417,0.004608,0.004478,0.0002546,0.0006151,0.09619,0.01157,8.169,0.02563,0,0,0.01944
161100000000,161400000000,5032862880,1,1324478,0.02267,0.004128,0.009628,0.001873,0.00206,0.004524,0.0002489,0.0006037,0.0813,0.009354,2.587,0.005522,0,0,0.01527
161400000000,161700000000,5032862880,1,1324478,0.03116,0.004562,0.01001,0.0028,0.002987,0.005859,0.0007191,0.0006065,0.1074,0.0351,1.985,0.003888,0,0,0.01938
161700000000,162000000000,5032862880,1,1324478,0.02213,0.004768,0.01025,0.003159,0.003345,0.005775,0.0002537,0.0006113,0.1016,0.01157,1.76,0.003004,0,0,0.01447
162000000000,162300000000,5032862880,1,1324478,0.02191,0.004112,0.009644,0.003517,0.003704,0.004501,0.0002499,0.0006123,0.08008,0.01321,1.653,0.00266,0,0,0.01584
162900000000,163200000000,5032862880,1,1324478,0.02267,0.00412,0.009644,0.003571,0.003757,0.004471,0.0002861,0.0005894,0.08203,0.0145,1.695,0.002871,0,0,0.0177
163200000000,163500000000,5032862880,1,1324478,0.02902,0.004608,0.01007,0.004707,0.00489,0.005737,0.0007172,0.0005922,0.1094,0.02786,2.863,0.006725,0,0,0.0303
163500000000,163800000000,5032862880,1,1324478,0.02316,0.004654,0.01006,0.005028,0.005211,0.005867,0.0003061,0.000597,0.1094,0.01271,2.158,0.004478,0,0,0.04065
163800000000,164100000000,5032862880,1,1324478,0.02231,0.004143,0.009644,0.005005,0.005196,0.004585,0.0002537,0.000598,0.09766,0.01172,1.687,0.002898,0,0,0.01779
164100000000,164400000000,5032862880,1,1324478,0.02811,0.004539,0.009949,0.005409,0.0056,0.005615,0.0007133,0.0006008,0.125,0.02335,1.502,0.002371,0,0,0.03265
164400000000,164700000000,5032862880,1,1324478,0.02344,0.004677,0.01025,0.003529,0.003716,0.005959,0.0003681,0.0006056,0.1094,0.02151,3.184,0.007323,0,0,0.01378
164700000000,165000000000,5032862880,1,1324478,0.02274,0.004135,0.009644,0.002758,0.002945,0.004509,0.0002956,0.0006056,0.08533,0.01007,1.794,0.003105,0,0,0.01381
165000000000,165300000000,5032862880,1,1324478,0.02844,0.004509,0.01001,0.003944,0.004135,0.005608,0.0006466,0.0006094,0.1289,0.03412,1.73,0.002982,0,0,0.07874
165300000000,165600000000,5032862880,1,1324478,0.02231,0.004715,0.01013,0.004677,0.004868,0.005806,0.0003519,0.0006132,0.08594,0.01321,1.748,0.002847,0,0,0.01472
165600000000,165900000000,5032862880,1,1324478,0.02371,0.004143,0.009644,0.004608,0.004799,0.004562,0.0002813,0.0006142,0.09021,0.01007,5.838,0.01558,0,0,0.01724
165900000000,166200000000,5032862880,1,1324478,0.02792,0.004616,0.01007,0.005409,0.0056,0.005875,0.0007219,0.0006037,0.09167,0.0387,1.904,0.003411,0,0,0.03345
166200000000,166500000000,5032862880,1,1324478,0.02167,0.004669,0.0101,0.005318,0.005501,0.005791,0.0002851,0.0005913,0.08582,0.01164,1.666,0.002788,0,0,0.0134
166500000000,166800000000,5032862880,1,1324478,0.02228,0.004166,0.009613,0.005119,0.00531,0.004532,0.0002975,0.0005913,0.1035,0.02072,3.942,0.009739,0,0,0.01506
166800000000,167100000000,5032862880,1,1324478,0.03143,0.004524,0.009827,0.005356,0.005547,0.005806,0.0006819,0.0005951,0.1211,0.02313,1.795,0.003279,0,0,0.01584
167100000000,167400000000,5032862880,1,1324478,0.02539,0.004761,0.01033,0.005348,0.005539,0.005867,0.0002899,0.0005989,0.1094,0.009293,1.963,0.003947,0,0,0.02087
167400000000,167700000000,5032862880,1,1324478,0.0257,0.004105,0.009628,0.001396,0.001585,0.004524,0.0002985,0.0005999,0.07788,0.01114,1.844,0.003666,0,0,0.02014
167700000000,168000000000,5032862880,1,1324478,0.03217,0.004578,0.01001,0.001726,0.001917,0.006012,0.0007639,0.0006037,0.1104,0.02536,5.164,0.01393,0,0,0.07703
168000000000,168300000000,5032862880,1,1324478,0.02335,0.004837,0.01056,0.003345,0.003536,0.006073,0.0002556,0.0006075,0.07581,0.01093,1.707,0.002943,0,0,0.04938
168300000000,168600000000,5032862880,1,1324478,0.02402,0.004128,0.009628,0.003593,0.00378,0.004509,0.0002966,0.0006084,0.08093,0.01727,1.959,0.003724,0,0,0.01633
168600000000,168900000000,5032862880,1,1324478,0.02997,0.004547,0.01003,0.0047,0.00489,0.005844,0.0007429,0.0006113,0.1641,0.03809,2.068,0.004399,0,0,0.02945
168900000000,169200000000,5032862880,1,1324478,0.02417,0.004707,0.01022,0.005028,0.005219,0.00592,0.0003376,0.0006161,0.1133,0.01143,2.455,0.005127,0,0,0.05981
169500000000,169800000000,5032862880,1,1324478,0.02896,0.004646,0.01003,0.005424,0.005615,0.005806,0.0007658,0.0005894,0.09375,0.03687,1.977,0.004399,0,0,0.05243
170400000000,170700000000,5032862880,1,1324478,0.02914,0.004608,0.01018,0.005562,0.005753,0.005974,0.0007591,0.000597,0.09973,0.02249,1.9,0.00345,0,0,0.01497
171300000000,171600000000,5032862880,1,1324478,0.03168,0.004578,0.01015,0.00272,0.002911,0.005791,0.000742,0.0006056,0.09717,0.03705,1.94,0.004253,0,0,0.03394
171600000000,171900000000,5032862880,1,1324478,0.02255,0.004585,0.01004,0.00317,0.003357,0.005676,0.000288,0.0006104,0.09766,0.01265,1.829,0.003681,0,0,0.01497
171900000000,172200000000,5032862880,1,1324478,0.02496,0.004089,0.009644,0.003124,0.003315,0.004456,0.0002832,0.0006104,0.09851,0.01265,5.566,0.0171,0,0,0.0506
172200000000,172500000000,5032862880,1,1324478,0.03168,0.004646,0.01009,0.004158,0.004349,0.006119,0.0007124,0.0006123,0.1224,0.03784,2.086,0.004489,0,0,0.05804
172500000000,172800000000,5032862880,1,1324478,0.02417,0.004768,0.01056,0.004745,0.004936,0.005791,0.0002642,0.0005875,0.1003,0.01215,1.995,0.004333,0,0,0.0192
173100000000,173400000000,5032862880,1,1324478,0.03162,0.004593,0.01013,0.005318,0.005508,0.00573,0.0006981,0.0005913,0.0874,0.02036,3.586,0.009454,0,0,0.01761
173400000000,173700000000,5032862880,1,1324478,0.02478,0.004555,0.009949,0.005173,0.005363,0.00573,0.000308,0.000596,0.09924,0.01743,1.928,0.004076,0,0,0.017
173700000000,174000000000,5032862880,1,1324478,0.02536,0.00412,0.009644,0.005127,0.005318,0.004524,0.0003166,0.000596,0.1063,0.01357,1.97,0.004198,0,0,0.01752
174300000000,174600000000,5032862880,1,1324478,0.02716,0.004677,0.01022,0.00547,0.005661,0.005592,0.0002604,0.0006037,0.1133,0.01335,6.275,0.0192,0,0,0.01974
174900000000,175200000000,5032862880,1,1324478,0.03137,0.004692,0.01021,0.005463,0.005653,0.005974,0.0008459,0.0006084,0.1272,0.02878,1.909,0.003889,0,0,0.01871
175200000000,175500000000,5032862880,1,1324478,0.02322,0.00457,0.009949,0.004417,0.004608,0.005424,0.0002842,0.0006123,0.08203,0.01108,1.873,0.003817,0,0,0.01709
175500000000,175800000000,5032862880,1,1324478,0.02472,0.004089,0.009644,0.004547,0.004738,0.004547,0.0002909,0.0006132,0.0802,0.0125,5.353,0.01588,0,0,0.01569
175800000000,176100000000,5032862880,1,1324478,0.0321,0.004684,0.01024,0.00547,0.005661,0.005791,0.0008078,0.0006065,0.1001,0.02557,3.785,0.0106,0,0,0.04059
186300000000,186600000000,5032862880,1,1324478,0.02448,0.004128,0.009613,0.005188,0.005371,0.004562,0.0002861,0.0005951,0.09326,0.01385,1.795,0.003528,0,0,0.05688
186600000000,186900000000,5032862880,1,1324478,0.03143,0.0047,0.01021,0.005394,0.005585,0.005936,0.0008707,0.0005989,0.09802,0.04535,2.041,0.004534,0,0,0.01556
186900000000,187200000000,5032862880,1,1324478,0.02499,0.004478,0.009903,0.005264,0.005447,0.005409,0.0003023,0.0006027,0.08984,0.01172,6.54,0.01909,0,0,0.01587
187500000000,187800000000,5032862880,1,1324478,0.03061,0.004684,0.01027,0.003304,0.00349,0.005905,0.0008926,0.0006075,0.1445,0.03967,2.011,0.004144,0,0,0.01614
188400000000,188700000000,5032862880,1,1324478,0.0311,0.004807,0.01028,0.005058,0.005249,0.006149,0.0008354,0.0006056,0.1133,0.04462,2.019,0.004101,0,0,0.0459
188700000000,189000000000,5032862880,1,1324478,0.0239,0.004524,0.009949,0.005447,0.005638,0.005432,0.0002861,0.0005884,0.1024,0.01164,2.511,0.005768,0,0,0.01691
190200000000,190500000000,5032862880,1,1324478,0.03012,0.004761,0.01025,0.005615,0.005798,0.006081,0.0008659,0.0006008,0.1198,0.04346,2.016,0.004018,0,0,0.01477
190500000000,190800000000,5032862880,1,1324478,0.02304,0.004562,0.009888,0.002403,0.00259,0.005386,0.0003366,0.0006056,0.1094,0.01465,1.846,0.003634,0,0,0.05194
190800000000,191100000000,5032862880,1,1324478,0.02429,0.004173,0.009628,0.002735,0.002922,0.004616,0.0003567,0.0006056,0.09229,0.01479,3.354,0.008296,0,0,0.01561
191400000000,191700000000,5032862880,1,1324478,0.02234,0.004478,0.009781,0.004257,0.004448,0.005295,0.0003109,0.0006132,0.07666,0.0145,1.692,0.002913,0,0,0.07141
192000000000,192300000000,5032862880,1,1324478,0.02872,0.004715,0.01025,0.005371,0.005562,0.005814,0.0009937,0.0006027,0.1083,0.04065,1.881,0.00346,0,0,0.01712
192300000000,192600000000,5032862880,1,1324478,0.0224,0.004662,0.0103,0.005394,0.005577,0.005379,0.0002747,0.0005913,0.125,0.01378,1.759,0.003165,0,0,0.01743
192600000000,192900000000,5032862880,1,1324478,0.02316,0.004105,0.009644,0.00528,0.005463,0.004509,0.0002918,0.0005922,0.1055,0.01172,3.349,0.008064,0,0,0.01648
192900000000,193200000000,5032862880,1,1324478,0.02985,0.004669,0.01022,0.005501,0.005692,0.005814,0.0008526,0.0005951,0.119,0.04114,1.974,0.003842,0,0,0.04279
193800000000,194100000000,5032862880,1,1324478,0.02817,0.004692,0.01028,0.001822,0.00201,0.005745,0.0006466,0.0006037,0.09265,0.02371,2.332,0.00479,0,0,0.01418
194100000000,194400000000,5032862880,1,1324478,0.02112,0.004532,0.009903,0.002266,0.002453,0.005295,0.0002127,0.0006075,0.0769,0.009293,1.7,0.003034,0,0,0.01657
194400000000,194700000000,5032862880,1,1324478,0.0224,0.004181,0.009628,0.002575,0.002766,0.004623,0.000226,0.0006084,0.1003,0.01108,1.907,0.003411,0,0,0.02533
195300000000,195600000000,5032862880,1,1324478,0.02301,0.004105,0.009644,0.004753,0.004944,0.004539,0.0002222,0.0005865,0.1289,0.008713,1.8,0.003251,0,0,0.01385
195600000000,195900000000,5032862880,1,1324478,0.02948,0.004745,0.01033,0.005295,0.005486,0.005783,0.000598,0.0005903,0.1406,0.02435,2.276,0.004307,0,0,0.08386
195900000000,196200000000,5032862880,1,1324478,0.022,0.004616,0.01003,0.005142,0.005333,0.005402,0.0002308,0.0005941,0.07739,0.01122,1.738,0.002851,0,0,0.01317
201300000000,201600000000,5032862880,1,1324478,0.02307,0.004478,0.009811,0.004257,0.004448,0.005386,0.0002346,0.0006132,0.1172,0.01028,2.396,0.004376,0,0,0.01614
201600000000,201900000000,5032862880,1,1324478,0.02023,0.00415,0.009644,0.004395,0.004585,0.004547,0.0003233,0.0006142,0.07593,0.013,1.633,0.002324,0,0,0.01395
201900000000,202200000000,5032862880,1,1324478,0.02631,0.004723,0.01031,0.005447,0.005638,0.005905,0.0008688,0.0006027,0.09583,0.02914,1.718,0.002605,0,0,0.01318
202200000000,202500000000,5032862880,1,1324478,0.02237,0.004417,0.009811,0.005135,0.005325,0.005119,0.0002508,0.0005903,0.1211,0.01228,3.107,0.006201,0,0,0.04803
202500000000,202800000000,5032862880,1,1324478,0.02213,0.004105,0.009644,0.005203,0.005394,0.004562,0.000247,0.0005913,0.1289,0.01228,1.572,0.002126,0,0,0.01379
202800000000,203100000000,5032862880,1,1324478,0.02832,0.0047,0.01024,0.005539,0.00573,0.006027,0.0006237,0.0005951,0.1367,0.0318,1.952,0.003189,0,0,0.06873
204300000000,204600000000,5032862880,1,1324478,0.02246,0.004128,0.009644,0.002438,0.002625,0.004524,0.0002718,0.0006084,0.1162,0.01157,1.749,0.002969,0,0,0.01334
204600000000,204900000000,5032862880,1,1324478,0.02896,0.004715,0.01027,0.003822,0.004005,0.005905,0.0007133,0.0006123,0.07788,0.02621,1.934,0.003933,0,0,0.06274
204900000000,205200000000,5032862880,1,1324478,0.02313,0.004547,0.01003,0.004105,0.004288,0.005264,0.000205,0.0006094,0.1017,0.0075,2.688,0.0066,0,0,0.0484
205200000000,205500000000,5032862880,1,1324478,0.02478,0.004128,0.009644,0.004318,0.004501,0.004509,0.0002527,0.0005865,0.09729,0.01086,2.251,0.00552,0,0,0.01721
205500000000,205800000000,5032862880,1,1324478,0.02762,0.004715,0.01027,0.005432,0.005615,0.005928,0.0006132,0.0005894,0.1246,0.02478,1.99,0.003901,0,0,0.01292
205800000000,206100000000,5032862880,1,1324478,0.0209,0.004501,0.009918,0.005119,0.00531,0.005234,0.0002623,0.0005941,0.07532,0.01364,1.877,0.003292,0,0,0.02063
206100000000,206400000000,5032862880,1,1324478,0.02185,0.004135,0.009644,0.005096,0.00528,0.004501,0.0002346,0.0005941,0.1133,0.007568,2.604,0.005412,0,0,0.02753
206400000000,206700000000,5032862880,1,1324478,0.0246,0.004677,0.01022,0.005547,0.00573,0.00592,0.0006666,0.000598,0.08496,0.03156,1.747,0.003296,0,0,0.03894
206700000000,207000000000,5032862880,1,1324478,0.01871,0.004539,0.01006,0.002193,0.002384,0.005264,0.0002117,0.0006018,0.07373,0.006927,1.603,0.003168,0,0,0.01361
207000000000,207300000000,5032862880,1,1324478,0.02048,0.004089,0.009644,0.001558,0.001747,0.004509,0.0002232,0.0006027,0.08362,0.007568,4.041,0.01248,0,0,0.06299
207300000000,207600000000,5032862880,1,1324478,0.02426,0.004669,0.01024,0.002922,0.003109,0.005898,0.000638,0.0006065,0.08142,0.03571,1.78,0.003822,0,0,0.02072
207600000000,207900000000,5032862880,1,1324478,0.01907,0.004471,0.009811,0.003216,0.003403,0.005188,0.0002346,0.0006104,0.08997,0.007713,1.613,0.003201,0,0,0.01257
207900000000,208200000000,5032862880,1,1324478,0.02054,0.004097,0.009644,0.003391,0.003582,0.004486,0.000267,0.0006113,0.08752,0.008636,3.788,0.01072,0,0,0.01332
208200000000,208500000000,5032862880,1,1324478,0.02576,0.004623,0.01021,0.004715,0.004906,0.005959,0.0006094,0.0006104,0.1094,0.02063,1.804,0.003398,0,0,0.01144
208500000000,208800000000,5032862880,1,1324478,0.02237,0.004501,0.009933,0.003437,0.003624,0.005333,0.0002069,0.0005875,0.09521,0.006783,1.674,0.002999,0,0,0.01454
208800000000,209100000000,5032862880,1,1324478,0.02481,0.004097,0.009659,0.00333,0.003517,0.004463,0.0002718,0.0005884,0.07996,0.00914,6.225,0.01882,0,0,0.05737
209100000000,209400000000,5032862880,1,1324478,0.02988,0.004662,0.01019,0.004707,0.00489,0.00592,0.0006027,0.0005922,0.1105,0.03217,2.156,0.004846,0,0,0.06146
210000000000,210300000000,5032862880,1,1324478,0.02945,0.004669,0.01022,0.003326,0.003513,0.005974,0.0006227,0.0005999,0.1245,0.0351,1.986,0.004195,0,0,0.01596
210300000000,210600000000,5032862880,1,1324478,0.02185,0.004593,0.01004,0.001614,0.001802,0.005478,0.0002041,0.0006046,0.08801,0.008209,1.722,0.003381,0,0,0.01549
210600000000,210900000000,5032862880,1,1324478,0.02335,0.004082,0.009659,0.002075,0.002262,0.004471,0.0002575,0.0006046,0.07983,0.009216,5.023,0.01488,0,0,0.01485
210900000000,211200000000,5032862880,1,1324478,0.02829,0.004631,0.01018,0.003387,0.003574,0.005859,0.0005741,0.0006084,0.1338,0.02121,1.973,0.004016,0,0,0.0173
211200000000,211500000000,5032862880,1,1324478,0.022,0.004662,0.01022,0.002476,0.002663,0.005516,0.0002117,0.0006123,0.09167,0.01157,1.786,0.003565,0,0,0.01965
211500000000,211800000000,5032862880,1,1324478,0.02313,0.004066,0.009659,0.002048,0.002239,0.00441,0.0002174,0.0006132,0.1289,0.00972,3.767,0.01029,0,0,0.01492
211800000000,212100000000,5032862880,1,1324478,0.02872,0.00473,0.01025,0.00351,0.003696,0.005859,0.0006933,0.0006065,0.105,0.03394,1.957,0.003631,0,0,0.01474
212100000000,212400000000,5032862880,1,1324478,0.02267,0.004654,0.01025,0.004959,0.005142,0.005409,0.0002117,0.0005903,0.1172,0.008713,1.943,0.004141,0,0,0.02905
212400000000,212700000000,5032862880,1,1324478,0.02402,0.004097,0.009644,0.005219,0.005409,0.004517,0.0002985,0.0005913,0.07935,0.009995,3.068,0.007909,0,0,0.01555
212700000000,213000000000,5032862880,1,1324478,0.02924,0.00473,0.01021,0.005524,0.005707,0.005966,0.0006599,0.0005941,0.1211,0.02237,1.99,0.003802,0,0,0.03516
213000000000,213300000000,5032862880,1,1324478,0.02539,0.004753,0.01044,0.00573,0.00592,0.005547,0.0002804,0.0005989,0.1133,0.01135,1.919,0.003675,0,0,0.01491
213300000000,213600000000,5032862880,1,1324478,0.02325,0.004158,0.009628,0.00206,0.002247,0.004692,0.0002241,0.0006008,0.1055,0.009933,1.752,0.003497,0,0,0.01984
213600000000,213900000000,5032862880,1,1324478,0.03107,0.004623,0.01013,0.001852,0.002041,0.005608,0.0007391,0.0006037,0.1172,0.0379,2.158,0.00472,0,0,0.03247
213900000000,214200000000,5032862880,1,1324478,0.02426,0.004646,0.0103,0.003864,0.004051,0.005966,0.0003881,0.0006084,0.1133,0.01443,5.041,0.01447,0,0,0.02982
214200000000,214500000000,5032862880,1,1324478,0.02271,0.004158,0.009628,0.004082,0.004272,0.00457,0.0002375,0.0006094,0.09375,0.009933,1.657,0.002796,0,0,0.01691
214500000000,214800000000,5032862880,1,1324478,0.02908,0.00473,0.01027,0.005188,0.005379,0.005852,0.0006609,0.0006132,0.1328,0.01865,1.998,0.003938,0,0,0.01782
215400000000,215700000000,5032862880,1,1324478,0.02823,0.004715,0.01021,0.005501,0.005692,0.005928,0.0006466,0.0005903,0.09412,0.03662,2.019,0.003905,0,0,0.01642
215700000000,216000000000,5032862880,1,1324478,0.02325,0.004532,0.009888,0.005219,0.005402,0.005386,0.0002556,0.0005941,0.1211,0.01135,6.923,0.01965,0,0,0.01593
216000000000,216300000000,5032862880,1,1324478,0.02191,0.004112,0.009644,0.005264,0.005455,0.004532,0.0002708,0.0005951,0.08057,0.01122,1.661,0.002927,0,0,0.015
221100000000,221400000000,5032862880,1,1324478,0.02121,0.004494,0.009903,0.004387,0.004578,0.005173,0.0003614,0.0006142,0.2617,0.01465,1.838,0.004034,0,0,0.01131
221400000000,221700000000,5032862880,1,1324478,0.02475,0.004089,0.009644,0.004547,0.004738,0.004524,0.0004082,0.0006142,0.09558,0.01244,5.776,0.01953,0,0,0.01418
221700000000,222000000000,5032862880,1,1324478,0.02917,0.004692,0.01024,0.005455,0.005638,0.005898,0.0008297,0.0006027,0.115,0.02664,1.844,0.003987,0,0,0.04724
222000000000,222300000000,5032862880,1,1324478,0.02429,0.004486,0.009842,0.005119,0.005302,0.005447,0.0003672,0.0005913,0.08044,0.01486,1.945,0.004486,0,0,0.02008
222300000000,222600000000,5032862880,1,1324478,0.02664,0.004112,0.009628,0.005249,0.00544,0.004486,0.0002985,0.0005922,0.1094,0.01199,5.3,0.01695,0,0,0.03595
222900000000,223200000000,5032862880,1,1324478,0.02304,0.004646,0.01003,0.005257,0.00544,0.005531,0.0002451,0.0005999,0.1445,0.01057,1.812,0.003718,0,0,0.03412
223500000000,223800000000,5032862880,1,1324478,0.02814,0.004723,0.01036,0.001926,0.002113,0.005753,0.0007658,0.0006037,0.101,0.02756,1.668,0.003032,0,0,0.04413
223800000000,224100000000,5032862880,1,1324478,0.02249,0.004784,0.01024,0.002327,0.002514,0.005409,0.0002298,0.0006075,0.08984,0.01036,1.732,0.003123,0,0,0.02039
224100000000,224400000000,5032862880,1,1324478,0.02335,0.00412,0.009644,0.002205,0.002392,0.004532,0.0002975,0.0006084,0.08081,0.01743,2.118,0.004841,0,0,0.01614
224400000000,224700000000,5032862880,1,1324478,0.02951,0.00473,0.01024,0.003593,0.00378,0.005821,0.0006762,0.0006123,0.1249,0.026,1.973,0.003959,0,0,0.01428
224700000000,225000000000,5032862880,1,1324478,0.02289,0.00441,0.00975,0.003712,0.003899,0.005043,0.0002785,0.0006161,0.1562,0.01785,1.787,0.003412,0,0,0.01956
225000000000,225300000000,5032862880,1,1324478,0.02335,0.00412,0.009644,0.003983,0.004166,0.004517,0.0002422,0.0006123,0.09216,0.01114,1.923,0.00394,0,0,0.01614
225300000000,225600000000,5032862880,1,1324478,0.0293,0.0047,0.01019,0.005188,0.005379,0.00589,0.0008154,0.0005894,0.1112,0.03876,3.379,0.008927,0,0,0.01569
226200000000,226500000000,5032862880,1,1324478,0.02899,0.004776,0.01033,0.005554,0.005745,0.006035,0.0007257,0.000598,0.1022,0.03241,2.55,0.005739,0,0,0.02588
226500000000,226800000000,5032862880,1,1324478,0.02234,0.004547,0.01003,0.005356,0.005547,0.005486,0.0002918,0.0006018,0.08594,0.01151,1.7,0.003001,0,0,0.05072
226800000000,227100000000,5032862880,1,1324478,0.02325,0.00412,0.009644,0.005333,0.005516,0.004501,0.0003033,0.0006018,0.07776,0.01215,1.858,0.003785,0,0,0.01804
227100000000,227400000000,5032862880,1,1324478,0.02972,0.004738,0.01033,0.005585,0.005775,0.005951,0.0007954,0.0006056,0.1012,0.02228,2.294,0.005135,0,0,0.01797
227700000000,228000000000,5032862880,1,1324478,0.02322,0.004158,0.009644,0.005119,0.00531,0.004547,0.0003128,0.0006104,0.1052,0.01471,1.769,0.00341,0,0,0.052
228000000000,228300000000,5032862880,1,1324478,0.02835,0.004753,0.01033,0.005569,0.005753,0.005943,0.0007629,0.0006142,0.08984,0.03412,1.696,0.003114,0,0,0.01498
228300000000,228600000000,5032862880,1,1324478,0.02249,0.004448,0.009827,0.005028,0.005211,0.005157,0.0003386,0.0005903,0.1133,0.01443,2.862,0.00687,0,0,0.01357
228600000000,228900000000,5032862880,1,1324478,0.02167,0.004135,0.009644,0.005188,0.005371,0.004555,0.0002842,0.0005875,0.07703,0.01129,1.727,0.003035,0,0,0.01221
228900000000,229200000000,5032862880,1,1324478,0.02765,0.004791,0.01041,0.005287,0.005478,0.005997,0.0007648,0.0005913,0.125,0.02386,1.593,0.002738,0,0,0.01962
229200000000,229500000000,5032862880,1,1324478,0.02206,0.004547,0.009918,0.004272,0.004456,0.005127,0.0003042,0.0005951,0.08179,0.01651,3.169,0.007891,0,0,0.01431
230400000000,230700000000,5032862880,1,1324478,0.02145,0.004128,0.009644,0.001961,0.002151,0.004517,0.000248,0.0006037,0.1133,0.01157,1.829,0.003841,0,0,0.0137
230700000000,231000000000,5032862880,1,1324478,0.02695,0.004745,0.01033,0.003307,0.003494,0.005997,0.0007067,0.0006075,0.09045,0.03149,1.683,0.003194,0,0,0.0123
231000000000,231300000000,5032862880,1,1324478,0.02197,0.004417,0.009827,0.003361,0.003551,0.005127,0.0002642,0.0006113,0.1022,0.01122,3.267,0.008608,0,0,0.07751
231300000000,231600000000,5032862880,1,1324478,0.02179,0.004112,0.009644,0.003529,0.003719,0.004524,0.0002842,0.0006123,0.08435,0.01314,1.832,0.003801,0,0,0.01346
231600000000,231900000000,5032862880,1,1324478,0.02698,0.004662,0.01027,0.004753,0.004936,0.005989,0.0007181,0.0006056,0.09766,0.03497,1.941,0.004099,0,0,0.01581
232200000000,232500000000,5032862880,1,1324478,0.02121,0.004074,0.009659,0.003342,0.003529,0.004463,0.0002613,0.0005894,0.08801,0.01157,1.741,0.003437,0,0,0.02103
232500000000,232800000000,5032862880,1,1324478,0.02646,0.004593,0.01018,0.004639,0.004829,0.005806,0.000762,0.0005932,0.1006,0.04254,1.964,0.004088,0,0,0.02335
232800000000,233100000000,5032862880,1,1324478,0.02133,0.004486,0.009918,0.004997,0.00518,0.005424,0.0002518,0.000597,0.07715,0.01164,4.478,0.01221,0,0,0.01164
233100000000,233400000000,5032862880,1,1324478,0.0213,0.004097,0.009644,0.005013,0.005203,0.004478,0.0002956,0.000598,0.1014,0.01228,1.678,0.003151,0,0,0.01408
233400000000,233700000000,5032862880,1,1324478,0.02609,0.004616,0.01024,0.002537,0.002724,0.005775,0.0007467,0.0006008,0.1133,0.02786,1.827,0.003432,0,0,0.01358
233700000000,234000000000,5032862880,1,1324478,0.02182,0.004509,0.01001,0.001665,0.001852,0.005318,0.0003309,0.0006056,0.09753,0.01207,6.98,0.02086,0,0,0.01096
234000000000,234300000000,5032862880,1,1324478,0.02145,0.004105,0.009659,0.002155,0.002342,0.004501,0.0002575,0.0006056,0.09656,0.01151,1.656,0.002987,0,0,0.01624
234300000000,234600000000,5032862880,1,1324478,0.02737,0.004715,0.01031,0.00349,0.003677,0.006012,0.000742,0.0006094,0.09375,0.02637,1.917,0.003887,0,0,0.01221
234600000000,234900000000,5032862880,1,1324478,0.02225,0.004425,0.009827,0.003738,0.003929,0.005135,0.0003223,0.0006132,0.08728,0.01385,7.844,0.02345,0,0,0.01334
234900000000,235200000000,5032862880,1,1324478,0.02103,0.004089,0.009644,0.00388,0.004066,0.004509,0.0002518,0.0006142,0.07812,0.01172,1.664,0.0031,0,0,0.01584
235200000000,235500000000,5032862880,1,1324478,0.02652,0.004631,0.01021,0.00502,0.005211,0.005966,0.0007458,0.0006037,0.09717,0.04199,1.874,0.003801,0,0,0.01605
235500000000,235800000000,5032862880,1,1324478,0.02191,0.004478,0.009903,0.005165,0.005348,0.005333,0.0002661,0.0005903,0.09766,0.009506,7.789,0.02417,0,0,0.01727
235800000000,236100000000,5032862880,1,1324478,0.02112,0.004097,0.009644,0.00515,0.005341,0.004486,0.000268,0.0005913,0.07751,0.01436,1.613,0.002894,0,0,0.01424
236100000000,236400000000,5032862880,1,1324478,0.02701,0.004654,0.01019,0.005379,0.005562,0.005974,0.0007143,0.0005951,0.08948,0.02164,1.864,0.003689,0,0,0.01843
241200000000,241500000000,5032862880,1,1324478,0.02277,0.004051,0.009644,0.004135,0.004318,0.004402,0.0003214,0.0006094,0.07666,0.01114,3.933,0.01123,0,0,0.01614
241500000000,241800000000,5032862880,1,1324478,0.02707,0.004578,0.01016,0.00518,0.005363,0.006012,0.0008049,0.0006132,0.1289,0.0423,1.791,0.003507,0,0,0.05359
241800000000,242100000000,5032862880,1,1324478,0.02167,0.004486,0.009979,0.005013,0.005203,0.005386,0.0003433,0.0006018,0.07874,0.01372,2.286,0.005447,0,0,0.01491
242100000000,242400000000,5032862880,1,1324478,0.02332,0.004066,0.009644,0.004997,0.00518,0.004433,0.0003033,0.0005865,0.07654,0.01143,2.89,0.007787,0,0,0.01523
242400000000,242700000000,5032862880,1,1324478,0.02734,0.004562,0.01007,0.005569,0.00576,0.005959,0.0008326,0.0005903,0.1156,0.02335,1.751,0.003492,0,0,0.02646
242700000000,243000000000,5032862880,1,1324478,0.02142,0.004486,0.009949,0.005249,0.00544,0.005402,0.0002289,0.0005941,0.09155,0.01228,2.817,0.007703,0,0,0.01645
243000000000,243300000000,5032862880,1,1324478,0.02219,0.004074,0.009659,0.005051,0.005241,0.004456,0.000309,0.0005951,0.0719,0.01329,2.17,0.005002,0,0,0.01587
243300000000,243600000000,5032862880,1,1324478,0.02658,0.004631,0.01022,0.005577,0.00576,0.005943,0.0007906,0.000598,0.09302,0.03015,1.743,0.003327,0,0,0.07458
243600000000,243900000000,5032862880,1,1324478,0.02304,0.004509,0.009918,0.003841,0.004028,0.005234,0.0002785,0.0006027,0.08069,0.01157,3.471,0.009791,0,0,0.01508
243900000000,244200000000,5032862880,1,1324478,0.02484,0.004105,0.009644,0.001593,0.001781,0.004585,0.0002899,0.0006027,0.08643,0.01021,2.342,0.005891,0,0,0.01678
244200000000,244500000000,5032862880,1,1324478,0.02884,0.004486,0.009949,0.002686,0.002872,0.005577,0.0007181,0.0006065,0.09875,0.02164,1.601,0.003149,0,0,0.01439
245400000000,245700000000,5032862880,1,1324478,0.02164,0.004593,0.009995,0.005402,0.005592,0.005341,0.0003042,0.0005884,0.07349,0.01329,3.493,0.009121,0,0,0.01289
245700000000,246000000000,5032862880,1,1324478,0.02194,0.004112,0.009628,0.005417,0.0056,0.004486,0.0002956,0.0005884,0.09583,0.01207,1.777,0.003587,0,0,0.01265
246000000000,246300000000,5032862880,1,1324478,0.02658,0.004669,0.01021,0.005547,0.005737,0.006035,0.0007906,0.0005922,0.1068,0.03918,1.839,0.00347,0,0,0.01405
251400000000,251700000000,5032862880,1,1324478,0.02713,0.004669,0.01016,0.003944,0.004128,0.005913,0.0008364,0.0006123,0.1172,0.04395,2.2,0.004299,0,0,0.0199
251700000000,252000000000,5032862880,1,1324478,0.02377,0.004639,0.01013,0.004272,0.004456,0.005524,0.0002937,0.0006161,0.08362,0.01151,2.923,0.006742,0,0,0.01596
252000000000,252300000000,5032862880,1,1324478,0.02267,0.004089,0.009659,0.004639,0.004822,0.004486,0.0002632,0.0006132,0.09021,0.01108,1.668,0.002942,0,0,0.01535
252300000000,252600000000,5032862880,1,1324478,0.02921,0.004669,0.01019,0.005554,0.005737,0.005875,0.0008106,0.0005894,0.1172,0.02866,3.218,0.008195,0,0,0.01639
252600000000,252900000000,5032862880,1,1324478,0.02335,0.004608,0.009933,0.00518,0.005363,0.005745,0.0003185,0.0005932,0.07812,0.01401,2.405,0.005787,0,0,0.01688
252900000000,253200000000,5032862880,1,1324478,0.02246,0.004158,0.009613,0.005035,0.005226,0.004555,0.0002584,0.0005941,0.125,0.009644,1.676,0.003076,0,0,0.01405
253200000000,253500000000,5032862880,1,1324478,0.02975,0.004768,0.01025,0.005508,0.005699,0.006035,0.0008097,0.000598,0.1328,0.03979,4.177,0.01133,0,0,0.04584
253500000000,253800000000,5032862880,1,1324478,0.02386,0.004532,0.009842,0.005135,0.005325,0.005585,0.0003386,0.0006018,0.09912,0.0155,1.971,0.004124,0,0,0.01846
253800000000,254100000000,5032862880,1,1324478,0.02298,0.004173,0.009613,0.005173,0.005356,0.004555,0.0003014,0.0006027,0.08984,0.01172,1.842,0.003589,0,0,0.01439
254100000000,254400000000,5032862880,1,1324478,0.03,0.004723,0.01019,0.005463,0.005646,0.005768,0.0008554,0.0006056,0.1042,0.03259,3.769,0.009646,0,0,0.03699
255300000000,255600000000,5032862880,1,1324478,0.02261,0.004539,0.01001,0.005188,0.005371,0.005562,0.0002308,0.0005875,0.1084,0.01244,1.789,0.003386,0,0,0.03558
256800000000,257100000000,5032862880,1,1324478,0.02902,0.004616,0.0101,0.003819,0.004005,0.005806,0.0008688,0.0005999,0.1406,0.03601,2.011,0.004233,0,0,0.01697
257700000000,258000000000,5032862880,1,1324478,0.02829,0.004814,0.01021,0.003494,0.003681,0.006149,0.0009022,0.0006084,0.09558,0.0387,2.011,0.003919,0,0,0.01752
258000000000,258300000000,5032862880,1,1324478,0.02298,0.004456,0.00975,0.00499,0.00518,0.005241,0.0003309,0.0006132,0.1055,0.01314,3.29,0.007959,0,0,0.01337
258300000000,258600000000,5032862880,1,1324478,0.02316,0.004143,0.009628,0.005081,0.005272,0.004608,0.0003023,0.0006132,0.09766,0.01443,1.775,0.003097,0,0,0.03418
258600000000,258900000000,5032862880,1,1324478,0.02747,0.00486,0.01045,0.005684,0.005875,0.005997,0.0008669,0.0006037,0.1207,0.0365,1.771,0.003065,0,0,0.0275
259500000000,259800000000,5032862880,1,1324478,0.02884,0.004753,0.01031,0.005592,0.005783,0.006073,0.0009069,0.0005951,0.1289,0.02679,2.024,0.00423,0,0,0.02151
259800000000,260100000000,5032862880,1,1324478,0.02457,0.00444,0.009781,0.00502,0.005219,0.005226,0.0002794,0.0005989,0.07996,0.01566,3.036,0.007825,0,0,0.01794
260100000000,260400000000,5032862880,1,1324478,0.02393,0.00412,0.009628,0.005074,0.005264,0.004486,0.0003195,0.0005989,0.09314,0.01164,1.777,0.003632,0,0,0.01816
260400000000,260700000000,5032862880,1,1324478,0.02979,0.004784,0.01027,0.003666,0.003857,0.006172,0.0009441,0.0006027,0.1211,0.052,4.879,0.01364,0,0,0.05481
260700000000,261000000000,5032862880,1,1324478,0.0228,0.004532,0.009918,0.002098,0.002289,0.005333,0.0002985,0.0006075,0.1641,0.01378,4.373,0.01183,0,0,0.01587
262200000000,262500000000,5032862880,1,1324478,0.02878,0.0047,0.01019,0.005264,0.005447,0.006042,0.0008383,0.0005894,0.1055,0.03107,1.873,0.003628,0,0,0.02252
263100000000,263400000000,5032862880,1,1324478,0.0278,0.004784,0.01033,0.005646,0.005829,0.006073,0.0008841,0.000598,0.1367,0.04688,1.509,0.002166,0,0,0.0159
263400000000,263700000000,5032862880,1,1324478,0.02258,0.004524,0.009872,0.004356,0.004547,0.005173,0.0002804,0.0006018,0.08508,0.01135,8.491,0.02294,0,0,0.0152
263700000000,264000000000,5032862880,1,1324478,0.02267,0.004173,0.009628,0.001247,0.001436,0.004562,0.0002937,0.0006027,0.07947,0.01172,1.805,0.003104,0,0,0.01259
264000000000,264300000000,5032862880,1,1324478,0.02841,0.00473,0.01021,0.002621,0.002808,0.005981,0.0008802,0.0006056,0.168,0.03802,1.831,0.003092,0,0,0.0199
264300000000,264600000000,5032862880,1,1324478,0.02469,0.004601,0.01001,0.003017,0.003204,0.005295,0.0003147,0.0006104,0.07727,0.01228,5.57,0.01573,0,0,0.01472
264600000000,264900000000,5032862880,1,1324478,0.02371,0.004143,0.009644,0.003036,0.003223,0.004539,0.0003529,0.0006104,0.1051,0.01308,1.886,0.003884,0,0,0.03473
264900000000,265200000000,5032862880,1,1324478,0.02951,0.004745,0.0103,0.004372,0.004562,0.006004,0.0008535,0.0006094,0.1074,0.04407,1.989,0.004129,0,0,0.01593
266400000000,266700000000,5032862880,1,1324478,0.02078,0.00415,0.009613,0.005074,0.005257,0.004555,0.0003014,0.000597,0.09827,0.01157,1.686,0.00293,0,0,0.0139
266700000000,267000000000,5032862880,1,1324478,0.02625,0.004807,0.01039,0.005035,0.005226,0.005966,0.0009241,0.0005999,0.1204,0.04138,1.498,0.002288,0,0,0.01328
267000000000,267300000000,5032862880,1,1324478,0.02148,0.004448,0.009811,0.001919,0.002106,0.005013,0.0003462,0.0006046,0.08276,0.01414,4.162,0.01083,0,0,0.04938
267300000000,267600000000,5032862880,1,1324478,0.02304,0.004105,0.009644,0.002224,0.002411,0.004547,0.0003366,0.0006046,0.09998,0.01886,1.823,0.003941,0,0,0.01526
267600000000,267900000000,5032862880,1,1324478,0.02777,0.004753,0.01035,0.003605,0.003792,0.005966,0.000658,0.0006084,0.09338,0.03699,1.677,0.003244,0,0,0.04089
267900000000,268200000000,5032862880,1,1324478,0.02359,0.004578,0.01012,0.003952,0.004143,0.005333,0.0002451,0.0006123,0.08044,0.008713,6.789,0.02096,0,0,0.01599
268200000000,268500000000,5032862880,1,1324478,0.02194,0.004112,0.009644,0.003952,0.004135,0.004524,0.0002441,0.0006132,0.09277,0.01151,1.674,0.003146,0,0,0.01642
268500000000,268800000000,5032862880,1,1324478,0.02814,0.004745,0.0103,0.005119,0.005302,0.005989,0.0006952,0.0006056,0.099,0.02515,1.961,0.004117,0,0,0.01543
268800000000,269100000000,5032862880,1,1324478,0.02307,0.004501,0.009811,0.005035,0.005226,0.005135,0.0002327,0.0005903,0.09351,0.01064,7.776,0.02431,0,0,0.07898
270000000000,270300000000,5032862880,1,1324478,0.02209,0.004166,0.009613,0.004776,0.004967,0.004524,0.000226,0.0005989,0.08484,0.01057,1.726,0.003281,0,0,0.01633
270300000000,270600000000,5032862880,1,1324478,0.02853,0.0047,0.01015,0.001152,0.001339,0.005836,0.0006857,0.0006027,0.09619,0.02078,1.883,0.003695,0,0,0.02283
271200000000,271500000000,5032862880,1,1324478,0.02783,0.004738,0.01027,0.004227,0.00441,0.005913,0.0006676,0.0006113,0.09717,0.03809,1.75,0.003353,0,0,0.02011
281400000000,281700000000,5032862880,1,1324478,0.02213,0.004494,0.009949,0.004028,0.004219,0.005157,0.0002508,0.0006151,0.08972,0.01114,7.879,0.02207,0,0,0.01231
282300000000,282600000000,5032862880,1,1324478,0.02295,0.004555,0.01004,0.00531,0.005493,0.005287,0.0002499,0.0005922,0.1078,0.00885,7.919,0.02322,0,0,0.0162
282600000000,282900000000,5032862880,1,1324478,0.02139,0.004143,0.009628,0.005241,0.005424,0.004501,0.0002308,0.0005932,0.07837,0.01007,1.76,0.003354,0,0,0.01605
282900000000,283200000000,5032862880,1,1324478,0.02716,0.004723,0.01024,0.005524,0.005714,0.006096,0.0006657,0.000597,0.1055,0.02237,1.79,0.003114,0,0,0.02933
283200000000,283500000000,5032862880,1,1324478,0.02219,0.004555,0.009903,0.005173,0.005356,0.005302,0.0002756,0.0006008,0.07812,0.01172,7.647,0.02142,0,0,0.03119
283500000000,283800000000,5032862880,1,1324478,0.02176,0.004166,0.009628,0.003075,0.003262,0.004547,0.0002527,0.0006018,0.08167,0.01221,1.735,0.003013,0,0,0.01541
283800000000,284100000000,5032862880,1,1324478,0.02634,0.004784,0.01031,0.002178,0.002365,0.006165,0.0006714,0.0006046,0.118,0.02786,1.602,0.002523,0,0,0.01947
284100000000,284400000000,5032862880,1,1324478,0.02261,0.004501,0.009872,0.003582,0.003769,0.005249,0.0002737,0.0006094,0.08923,0.0105,7.413,0.02035,0,0,0.01511
284400000000,284700000000,5032862880,1,1324478,0.02094,0.00415,0.009628,0.003788,0.003975,0.004547,0.0002756,0.0006094,0.07886,0.009933,1.733,0.002978,0,0,0.01181
284700000000,285000000000,5032862880,1,1324478,0.02591,0.004768,0.01031,0.00515,0.005341,0.006088,0.0006762,0.0006132,0.1183,0.03,1.535,0.002317,0,0,0.01733
285000000000,285300000000,5032862880,1,1324478,0.02252,0.004593,0.01016,0.005341,0.005524,0.005295,0.0002069,0.0005989,0.07434,0.007568,5.336,0.01475,0,0,0.01675
285300000000,285600000000,5032862880,1,1324478,0.02045,0.004166,0.009628,0.005112,0.005295,0.00457,0.0002527,0.0005875,0.1039,0.01157,1.688,0.002741,0,0,0.01834
285600000000,285900000000,5032862880,1,1324478,0.02783,0.004623,0.01003,0.005417,0.005608,0.005836,0.0006695,0.0005903,0.1028,0.02194,1.87,0.003595,0,0,0.01996
285900000000,286200000000,5032862880,1,1324478,0.02264,0.004822,0.01054,0.005135,0.005318,0.005936,0.000248,0.0005951,0.07874,0.009293,3.605,0.009105,0,0,0.01797
286200000000,286500000000,5032862880,1,1324478,0.02194,0.004112,0.009659,0.004402,0.004585,0.004532,0.0002012,0.0005951,0.08203,0.008713,1.752,0.003236,0,0,0.01505
286500000000,286800000000,5032862880,1,1324478,0.02646,0.004745,0.01028,0.004951,0.005135,0.006142,0.0006723,0.0005989,0.1404,0.03223,1.514,0.002153,0,0,0.05829
286800000000,287100000000,5032862880,1,1324478,0.02182,0.004494,0.009628,0.001389,0.001575,0.004929,0.0002775,0.0006027,0.08459,0.01057,3.192,0.007169,0,0,0.01234
287100000000,287400000000,5032862880,1,1324478,0.02142,0.004196,0.009628,0.001698,0.001884,0.004616,0.0002604,0.0006037,0.08032,0.009933,1.695,0.002829,0,0,0.01886
287400000000,287700000000,5032862880,1,1324478,0.02591,0.004723,0.01015,0.002983,0.00317,0.005898,0.0006571,0.0006075,0.08594,0.03036,1.868,0.003273,0,0,0.01552
287700000000,288000000000,5032862880,1,1324478,0.02051,0.004608,0.009964,0.003315,0.003506,0.005753,0.0002861,0.0006113,0.07495,0.008789,3.019,0.006173,0,0,0.0155
288000000000,288300000000,5032862880,1,1324478,0.02042,0.004173,0.009628,0.003384,0.003571,0.004585,0.0002661,0.0006123,0.09058,0.01157,1.686,0.002815,0,0,0.0136
288300000000,288600000000,5032862880,1,1324478,0.02618,0.004807,0.0103,0.004707,0.004898,0.006165,0.0006866,0.0006065,0.09778,0.02914,1.614,0.002545,0,0,0.01292
288600000000,288900000000,5032862880,1,1324478,0.02069,0.004639,0.009979,0.005302,0.005493,0.005341,0.0002499,0.0005884,0.07336,0.01071,2.762,0.005294,0,0,0.0112
288900000000,289200000000,5032862880,1,1324478,0.02057,0.004173,0.009613,0.005295,0.005478,0.004639,0.000267,0.0005894,0.08691,0.01151,1.692,0.00292,0,0,0.02328
289200000000,289500000000,5032862880,1,1324478,0.02591,0.004784,0.01033,0.005547,0.00573,0.006096,0.0006914,0.0005932,0.1134,0.03845,1.631,0.002645,0,0,0.01498
289500000000,289800000000,5032862880,1,1324478,0.02112,0.004425,0.009781,0.005127,0.00531,0.005272,0.0002604,0.000597,0.09631,0.0105,2.276,0.004284,0,0,0.01405
290100000000,290400000000,5032862880,1,1324478,0.02643,0.004707,0.01036,0.005318,0.005508,0.005989,0.0006456,0.0006018,0.09839,0.03369,1.714,0.003089,0,0,0.01608
291000000000,291300000000,5032862880,1,1324478,0.02576,0.004753,0.01036,0.00399,0.004173,0.005959,0.0006599,0.0006094,0.1172,0.03217,3.254,0.007549,0,0,0.03589
291300000000,291600000000,5032862880,1,1324478,0.02136,0.004547,0.01016,0.005127,0.005318,0.005363,0.0002346,0.0006132,0.08362,0.008636,2.005,0.003762,0,0,0.01245
291600000000,291900000000,5032862880,1,1324478,0.02063,0.004097,0.009644,0.005257,0.00544,0.004486,0.0002728,0.0006142,0.08337,0.01157,1.598,0.002611,0,0,0.01715
291900000000,292200000000,5032862880,1,1324478,0.02652,0.004723,0.01033,0.005653,0.005844,0.005882,0.0007238,0.0006018,0.09155,0.03314,2.142,0.004033,0,0,0.01624
292200000000,292500000000,5032862880,1,1324478,0.02087,0.004539,0.009949,0.005356,0.005539,0.005447,0.0002289,0.0005903,0.07849,0.009995,1.721,0.003074,0,0,0.01292
292500000000,292800000000,5032862880,1,1324478,0.0206,0.00412,0.009644,0.005287,0.00547,0.004509,0.0002832,0.0005913,0.09778,0.01508,1.7,0.002925,0,0,0.02017
292800000000,293100000000,5032862880,1,1324478,0.02737,0.004745,0.01038,0.005592,0.005783,0.00592,0.0006685,0.0005951,0.09546,0.03534,2.14,0.004083,0,0,0.0614
293100000000,293400000000,5032862880,1,1324478,0.02084,0.004448,0.009827,0.005043,0.005226,0.005203,0.0002365,0.0005989,0.08984,0.009293,1.661,0.003022,0,0,0.01627
293400000000,293700000000,5032862880,1,1324478,0.02054,0.004089,0.009644,0.00375,0.003937,0.004425,0.0002565,0.0005999,0.1016,0.01143,1.697,0.002848,0,0,0.01697
293700000000,294000000000,5032862880,1,1324478,0.02542,0.004745,0.01036,0.001486,0.001673,0.005859,0.0007124,0.0006037,0.09473,0.0387,1.787,0.002972,0,0,0.0135
294000000000,294300000000,5032862880,1,1324478,0.01913,0.004387,0.009659,0.003113,0.0033,0.004967,0.0002403,0.0006075,0.08105,0.01465,1.517,0.00211,0,0,0.01201
294300000000,294600000000,5032862880,1,1324478,0.02008,0.004105,0.009644,0.003399,0.003586,0.004517,0.0002584,0.0006075,0.1101,0.01193,1.891,0.003308,0,0,0.01193
294600000000,294900000000,5032862880,1,1324478,0.02628,0.004715,0.01035,0.004227,0.004417,0.00576,0.0006857,0.0006113,0.1094,0.02151,1.672,0.002627,0,0,0.01164
294900000000,295200000000,5032862880,1,1324478,0.01999,0.004578,0.009918,0.004417,0.004601,0.005356,0.000185,0.0006151,0.0824,0.008575,1.78,0.00298,0,0,0.013
295200000000,295500000000,5032862880,1,1324478,0.02151,0.004112,0.009644,0.004875,0.005066,0.004501,0.0002794,0.0006161,0.09692,0.00943,3.962,0.01042,0,0,0.01378
295500000000,295800000000,5032862880,1,1324478,0.02606,0.004776,0.01038,0.005592,0.005783,0.005829,0.0007601,0.0005913,0.1189,0.03674,1.468,0.002094,0,0,0.01923
295800000000,296100000000,5032862880,1,1324478,0.01941,0.004532,0.009903,0.005035,0.005226,0.00515,0.000246,0.0005922,0.09729,0.01042,1.625,0.002684,0,0,0.01282
296100000000,296400000000,5032862880,1,1324478,0.0217,0.004158,0.009613,0.005188,0.005379,0.004547,0.0002699,0.0005932,0.1233,0.01385,7.89,0.02231,0,0,0.01538
296400000000,296700000000,5032862880,1,1324478,0.02637,0.004761,0.01038,0.005516,0.005699,0.00573,0.0007191,0.000597,0.08167,0.021,1.561,0.002679,0,0,0.0153
296700000000,297000000000,5032862880,1,1324478,0.02042,0.004517,0.009857,0.00499,0.005173,0.005096,0.0002632,0.0006008,0.08887,0.01157,1.681,0.002959,0,0,0.01302
297000000000,297300000000,5032862880,1,1324478,0.02219,0.004082,0.009644,0.001148,0.001337,0.004517,0.0003262,0.0006018,0.1011,0.01178,7.804,0.02183,0,0,0.01402
297300000000,297600000000,5032862880,1,1324478,0.02551,0.004692,0.01031,0.002102,0.002293,0.005859,0.0007248,0.0006046,0.08203,0.02942,1.741,0.002862,0,0,0.0153
297600000000,297900000000,5032862880,1,1324478,0.02032,0.004433,0.00972,0.00375,0.003937,0.005249,0.0002546,0.0006084,0.09326,0.008926,1.637,0.002799,0,0,0.01472
297900000000,298200000000,5032862880,1,1324478,0.02249,0.004097,0.009644,0.004013,0.004196,0.004517,0.0003119,0.0006094,0.1061,0.01122,5.853,0.01599,0,0,0.01804
298200000000,298500000000,5032862880,1,1324478,0.02628,0.004738,0.01033,0.00518,0.005371,0.005829,0.0006933,0.0006132,0.08545,0.02814,1.611,0.002706,0,0,0.04132
298500000000,298800000000,5032862880,1,1324478,0.0213,0.004448,0.009735,0.004967,0.005157,0.005074,0.000247,0.0006018,0.09155,0.01236,2.112,0.004644,0,0,0.01862
298800000000,299100000000,5032862880,1,1324478,0.02292,0.00412,0.009628,0.00502,0.005211,0.004509,0.0002985,0.0005865,0.07898,0.01064,2.236,0.004738,0,0,0.01584
299100000000,299400000000,5032862880,1,1324478,0.02817,0.004723,0.01033,0.00547,0.005661,0.005814,0.0006886,0.0005903,0.1194,0.03595,1.753,0.003456,0,0,0.02023
299400000000,299700000000,5032862880,1,1324478,0.02069,0.004425,0.009857,0.00499,0.005173,0.005096,0.0002337,0.0005941,0.07983,0.01036,3.388,0.008102,0,0,0.01297
299700000000,300000000000,5032862880,1,1324478,0.02161,0.004112,0.009644,0.005127,0.005318,0.004517,0.0002642,0.0005951,0.0835,0.01193,1.743,0.003078,0,0,0.01285
