201300000000,201600000000,5850685169,35,1340515,0.02634,0.01279,0.02676,0.01384,0.01575,0.03937,0.009796,0.0004301,0.1528,0.07166,0.9737,0.001033,0,0,0.0009432
201600000000,201900000000,5850685169,35,1340515,0.05023,0.03091,0.05035,0.03979,0.04224,0.03949,0.01743,0.0004358,0.1445,0.08289,0.9524,0.0009435,0,0,0.02548
201900000000,202200000000,5850685169,35,1340515,0.02106,0.01639,0.03436,0.02368,0.02579,0.02646,0.006973,0.0004311,0.1013,0.07141,0.9667,0.001011,0,0,0.001543
202500000000,202800000000,5850685169,35,1340515,0.001917,0.00457,0.01816,0.00914,0.01018,0.004898,2.67e-05,0.0004292,0.03113,0.002857,6.128,0.02189,0,0,0.001343
203100000000,203400000000,5850685169,35,1340515,0.003357,0.009125,0.02341,0.01308,0.01418,0.01926,0.005005,0.0004292,0.07544,0.06433,4.812,0.0166,0,0,0.002842
203400000000,203700000000,5850685169,35,1340515,0.00161,0.006325,0.02014,0.01285,0.01408,0.01265,2.766e-05,0.0004311,0.03271,0.001928,5.242,0.01889,0,0,0.0006227
203700000000,204000000000,5850685169,35,1340515,0.00148,0.006081,0.01938,0.01207,0.01323,0.006355,2.193e-05,0.0004311,0.03394,0.002144,4.284,0.01347,0,0,0.0005369
204000000000,204300000000,5850685169,35,1340515,0.001495,0.006523,0.0199,0.01175,0.01289,0.00676,1.907e-05,0.0004311,0.03369,0.001072,4.409,0.01352,0,0,0.001015
204300000000,204600000000,5850685169,35,1340515,0.001534,0.007095,0.02136,0.01163,0.01288,0.007446,1.526e-05,0.0004311,0.03467,0.001215,4.912,0.01605,0,0,0.000742
204600000000,204900000000,5850685169,35,1340515,0.001455,0.007462,0.02136,0.01163,0.01283,0.007889,1.907e-05,0.0004311,0.02954,0.001642,4.556,0.01411,0,0,0.001247
204900000000,205200000000,5850685169,35,1340515,0.001385,0.007858,0.02136,0.01164,0.01282,0.00824,1.717e-05,0.000432,0.02881,0.001215,4.647,0.01466,0,0,0.000453
205200000000,205500000000,5850685169,35,1340515,0.001423,0.008301,0.02161,0.01163,0.01282,0.008759,6.008e-05,0.000432,0.03052,0.002998,4.678,0.01514,0,0,0.0005417
205500000000,205800000000,5850685169,35,1340515,0.001373,0.008896,0.02322,0.0116,0.01279,0.009293,2.956e-05,0.000432,0.03027,0.001858,4.054,0.01191,0,0,0.000392
205800000000,206100000000,5850685169,35,1340515,0.001495,0.009445,0.02322,0.0116,0.01283,0.009888,3.052e-05,0.000432,0.03381,0.002857,4.173,0.0126,0,0,0.0005636
151200000000,151500000000,5850685169,35,1340515,0.05054,0.02979,0.04828,0.03711,0.03937,0.03735,0.01611,0.0003414,0.1538,0.06433,0.9851,0.0009506,0,0,0.1156
151500000000,151800000000,5850685169,35,1340515,0.02017,0.01648,0.03772,0.02631,0.02856,0.02829,0.006241,0.0003357,0.08643,0.0647,0.9953,0.001013,0,0,0.02548
152100000000,152400000000,5850685169,35,1340515,0.00176,0.004623,0.01852,0.009567,0.01071,0.005028,1.431e-05,0.0003328,0.02518,0.001785,5.211,0.01623,0,0,0.001598
152700000000,153000000000,5850685169,35,1340515,0.02292,0.01302,0.02689,0.0166,0.01794,0.03479,0.008118,0.0003376,0.4429,0.06433,0.9688,0.0009652,0,0,0.0008354
153000000000,153300000000,5850685169,35,1340515,0.05316,0.03131,0.05011,0.04083,0.04291,0.03888,0.01797,0.0003433,0.1467,0.06445,0.9844,0.0009613,0,0,0.08289
153300000000,153600000000,5850685169,35,1340515,0.02039,0.01459,0.0332,0.02277,0.02451,0.02448,0.005661,0.0003386,0.1234,0.06433,1.019,0.001122,0,0,0.005783
153900000000,154200000000,5850685169,35,1340515,0.001842,0.004608,0.01859,0.008972,0.01062,0.005119,2.003e-05,0.0003357,0.02896,0.001715,5.551,0.01802,0,0,0.001513
154500000000,154800000000,5850685169,35,1340515,0.02481,0.01257,0.02649,0.01572,0.01755,0.03778,0.00827,0.0003405,0.1584,0.06433,0.9638,0.0009563,0,0,0.0005198
154800000000,155100000000,5850685169,35,1340515,0.05005,0.03091,0.05029,0.03894,0.04114,0.03796,0.01518,0.0003471,0.1389,0.05823,0.959,0.0009324,0,0,0.01736
155100000000,155400000000,5850685169,35,1340515,0.01889,0.01657,0.03455,0.02417,0.02567,0.02579,0.005737,0.0003414,0.09424,0.06433,0.9968,0.001041,0,0,0.07068
155700000000,156000000000,5850685169,35,1340515,0.001787,0.004425,0.01779,0.008102,0.00914,0.005348,2.48e-05,0.0003395,0.02521,0.002857,5.083,0.01624,0,0,0.001255
120900000000,121200000000,5850685169,35,1479089188,0.001484,0.005699,0.01944,0.01086,0.0121,0.005936,3.815e-06,0.0005207,0.04633,0.0002146,3.94,0.01001,0,0,0.001526
121200000000,121500000000,5850685169,35,1479089188,0.04858,0.02255,0.03668,0.02722,0.02881,0.04498,0.01801,0.0005283,0.1406,0.07166,1.008,0.0009789,0,0,0.09399
121500000000,121800000000,5850685169,35,1479089188,0.06714,0.03778,0.05786,0.04346,0.04584,0.04602,0.02042,0.000535,0.1426,0.07288,1.06,0.001008,0,0,0.09766
121800000000,122100000000,5850685169,35,1479089188,0.002838,0.006935,0.02155,0.01419,0.0159,0.01712,7.629e-06,0.0005245,0.06122,0.0007143,6.429,0.01677,0,0,0.001347
122400000000,122700000000,5850685169,35,1479089188,0.001524,0.005447,0.01941,0.01239,0.01398,0.005669,3.815e-06,0.0005245,0.05798,0.0001431,4.332,0.01134,0,0,0.0005293
122700000000,123000000000,5850685169,35,1479089188,0.001497,0.005882,0.01941,0.01195,0.01353,0.006142,5.722e-06,0.0005245,0.04187,0.0004997,3.924,0.01002,0,0,0.0004187
123000000000,123300000000,5850685169,35,1479089188,0.04962,0.02228,0.0365,0.02692,0.02869,0.04608,0.01651,0.0005322,0.1453,0.07288,1.018,0.0009994,0,0,0.01718
123300000000,123600000000,5850685169,35,1479089188,0.06494,0.0376,0.05872,0.04602,0.04846,0.04596,0.01602,0.0005379,0.1755,0.07166,1.058,0.001035,0,0,0.03784
123600000000,123900000000,5850685169,35,1479089188,0.00272,0.006851,0.0257,0.01396,0.01546,0.01764,1.049e-05,0.0005274,0.04321,0.001999,5.728,0.01482,0,0,0.001898
124200000000,124500000000,5850685169,35,1479089188,0.001511,0.005531,0.01941,0.01009,0.01138,0.005775,4.768e-06,0.0005274,0.05536,0.0002146,4.062,0.01007,0,0,0.001915
124500000000,124800000000,5850685169,35,1479089188,0.001524,0.005951,0.01941,0.01006,0.01137,0.006187,4.768e-06,0.0005274,0.0636,0.0002861,3.861,0.009799,0,0,0.0005121
124800000000,125100000000,5850685169,35,1479089188,0.05176,0.02359,0.03754,0.02722,0.02884,0.04706,0.01721,0.000535,0.1421,0.07361,1.002,0.000971,0,0,0.02612
125100000000,125400000000,5850685169,35,1479089188,0.06372,0.03857,0.0578,0.04559,0.04785,0.04767,0.01521,0.0005407,0.1843,0.07166,1.068,0.001047,0,0,0.01624
125400000000,125700000000,5850685169,35,1479089188,0.002903,0.006836,0.02228,0.01414,0.01562,0.01642,5.722e-06,0.0005312,0.0614,0.0003567,6.993,0.01891,0,0,0.001644
25800000000,26100000000,5850685169,35,1479089188,0.04614,0.0217,0.03583,0.02509,0.0267,0.04315,0.01584,0.0005484,0.1377,0.07361,1.017,0.0008959,0,0,0.0006504
26100000000,26400000000,5850685169,35,1479089188,0.06232,0.03815,0.05872,0.04633,0.04858,0.04681,0.01694,0.000536,0.1602,0.07532,1.069,0.001023,0,0,0.09302
26400000000,26700000000,5850685169,35,1479089188,0.002625,0.006607,0.02533,0.01309,0.01466,0.01593,1.431e-05,0.0005255,0.03711,0.002998,5.854,0.01471,0,0,0.002056
27000000000,27300000000,5850685169,35,1479089188,0.001484,0.005486,0.01941,0.009933,0.01146,0.005714,4.768e-06,0.0005255,0.03516,0.0002861,4.462,0.01198,0,0,0.0006847
27300000000,27600000000,5850685169,35,1479089188,0.001484,0.005775,0.01941,0.009827,0.01132,0.005943,3.815e-06,0.0005255,0.0332,0.0002146,4.331,0.01105,0,0,0.000453
27600000000,27900000000,5850685169,35,1479089188,0.05286,0.02322,0.03754,0.02731,0.02905,0.04645,0.01776,0.0005331,0.2715,0.08582,1.03,0.0009931,0,0,0.001909
27900000000,28200000000,5850685169,35,1479089188,0.05396,0.0343,0.05292,0.03992,0.04211,0.04663,0.01462,0.000536,0.2734,0.07349,1.037,0.0009663,0,0,0.08594
28200000000,28500000000,5850685169,35,1479089188,0.002975,0.005219,0.01987,0.01346,0.01511,0.009537,7.629e-06,0.0005283,0.03711,0.001143,6.993,0.02023,0,0,0.002525
28800000000,29100000000,5850685169,35,1479089188,0.00157,0.005363,0.01944,0.01239,0.01405,0.005547,3.815e-06,0.0005283,0.03516,0.0002146,4.614,0.01278,0,0,0.0009394
29100000000,29400000000,5850685169,35,1479089188,0.00157,0.00573,0.01944,0.01204,0.01369,0.005981,2.861e-06,0.0005283,0.0332,7.153e-05,4.597,0.01284,0,0,0.00102
29400000000,29700000000,5850685169,35,1479089188,0.05377,0.02344,0.0376,0.02841,0.03012,0.04669,0.01712,0.000535,0.1484,0.07446,1.021,0.00103,0,0,0.0006876
29700000000,30000000000,5850685169,35,1479089188,0.05579,0.03625,0.05988,0.04645,0.04871,0.04871,0.01433,0.0005398,0.1699,0.07166,1.083,0.001098,0,0,0.1438
30000000000,30300000000,5850685169,35,1479089188,0.002975,0.005577,0.02002,0.01086,0.01222,0.009048,3.815e-06,0.0005312,0.03711,0.0002146,7.228,0.021,0,0,0.001137
30300000000,30600000000,5850685169,35,1479089188,0.001902,0.005058,0.01944,0.01057,0.01192,0.005325,1.335e-05,0.0005312,0.03516,0.002998,5.8,0.01687,0,0,0.0008087
30600000000,30900000000,5850685169,35,1479089188,0.001459,0.005394,0.01944,0.01057,0.01192,0.005547,3.815e-06,0.0005312,0.03516,0.0002146,4.476,0.01207,0,0,0.0005608
70800000000,71100000000,5850685169,35,1479089188,0.04315,0.02176,0.03699,0.02405,0.0257,0.04657,0.01338,0.0005531,0.1445,0.07202,1.033,0.001037,0,0,0.01675
71100000000,71400000000,5850685169,35,1479089188,0.06543,0.03857,0.05664,0.04346,0.04565,0.04565,0.01703,0.0005579,0.1641,0.0719,1.082,0.001117,0,0,0.1445
71400000000,71700000000,5850685169,35,1479089188,0.002876,0.007919,0.02606,0.01395,0.0152,0.02396,8.583e-06,0.0005474,0.03711,0.0008574,6.522,0.01825,0,0,0.006943
71700000000,72000000000,5850685169,35,1479089188,0.002117,0.00528,0.01941,0.008911,0.009995,0.005463,1.335e-05,0.0005474,0.03516,0.002857,5.853,0.01658,0,0,0.002567
72000000000,72300000000,5850685169,35,1479089188,0.001516,0.005638,0.01941,0.008926,0.009995,0.005829,3.815e-06,0.0005474,0.03516,0.0002146,4.224,0.01109,0,0,0.0008497
72300000000,72600000000,5850685169,35,1479089188,0.001503,0.006081,0.01941,0.008926,0.01001,0.006409,5.722e-06,0.0005474,0.03516,0.0005713,4.209,0.01119,0,0,0.0003653
72600000000,72900000000,5850685169,35,1479089188,0.05237,0.0238,0.03802,0.02686,0.02829,0.04797,0.01758,0.0005541,0.2734,0.0741,1.011,0.0009959,0,0,0.0824
72900000000,73200000000,5850685169,35,1479089188,0.05927,0.0387,0.06158,0.04791,0.05029,0.04749,0.01523,0.0005608,0.1562,0.07605,1.023,0.001022,0,0,0.08398
73200000000,73500000000,5850685169,35,1479089188,0.003014,0.006203,0.02335,0.01273,0.01427,0.01492,5.722e-06,0.0005503,0.04102,0.0004997,6.957,0.01969,0,0,0.004494
73500000000,73800000000,5850685169,35,1479089188,0.002029,0.005272,0.01941,0.01097,0.0125,0.00544,3.815e-06,0.0005503,0.03516,0.0001431,4.999,0.01311,0,0,0.001183
73800000000,74100000000,5850685169,35,1479089188,0.001549,0.005669,0.01944,0.01097,0.01251,0.005905,3.815e-06,0.0005503,0.03516,0.0002146,4.314,0.01077,0,0,0.0004692
74100000000,74400000000,5850685169,35,1479089188,0.00153,0.006096,0.01944,0.01099,0.0125,0.006363,3.815e-06,0.0005503,0.03516,0.0002146,4.049,0.01031,0,0,0.0009108
74400000000,74700000000,5850685169,35,1479089188,0.0434,0.02087,0.03467,0.02393,0.02563,0.0423,0.01318,0.0005493,0.1699,0.07166,0.9784,0.0008789,0,0,0.1287
74700000000,75000000000,5850685169,35,1479089188,0.06665,0.03931,0.05731,0.04565,0.04773,0.04578,0.0184,0.000535,0.1582,0.07178,1.045,0.001041,0,0,0.07776
75000000000,75300000000,5850685169,35,1479089188,0.002697,0.00795,0.02673,0.01532,0.017,0.02182,1.335e-05,0.0005245,0.03711,0.001642,5.459,0.01383,0,0,0.002014
75600000000,75900000000,5850685169,35,1479089188,0.001419,0.005585,0.01941,0.008911,0.01045,0.005768,4.768e-06,0.0005245,0.03516,0.0002146,4.192,0.01008,0,0,0.003838
5700000000,6000000000,5850685169,35,1479089188,0.00153,0.006187,0.01944,0.01068,0.01204,0.006454,6.676e-06,0.0005465,0.03516,0.0009995,4.393,0.0115,0,0,0.0005283
6000000000,6300000000,5850685169,35,1479089188,0.05768,0.02463,0.03876,0.02881,0.03046,0.0484,0.01849,0.0005531,0.1477,0.08582,1.06,0.001085,0,0,0.0005808
6300000000,6600000000,5850685169,35,1479089188,0.04889,0.0354,0.06171,0.04767,0.04999,0.05139,0.01282,0.000556,0.147,0.07227,1.03,0.00102,0,0,0.00222
6600000000,6900000000,5850685169,35,1479089188,0.002762,0.005447,0.01978,0.009201,0.01109,0.008102,1.144e-05,0.0005493,0.03711,0.002285,5.569,0.01427,0,0,0.001394
6900000000,7200000000,5850685169,35,1479089188,0.001926,0.005272,0.01944,0.009064,0.01102,0.005455,4.768e-06,0.0005493,0.03711,0.0002146,5.349,0.01449,0,0,0.001972
7200000000,7500000000,5850685169,35,1479089188,0.00157,0.005684,0.01944,0.009064,0.01103,0.005989,4.768e-06,0.0005493,0.03516,0.0002861,4.112,0.01049,0,0,0.004219
7500000000,7800000000,5850685169,35,1479089188,0.001497,0.006126,0.01944,0.009064,0.01102,0.006386,2.861e-06,0.0005493,0.03516,0.0001431,4.071,0.01021,0,0,0.0005236
7800000000,8100000000,5850685169,35,1479089188,0.05066,0.02209,0.03601,0.02451,0.02652,0.04852,0.01486,0.000555,0.1855,0.07202,0.9955,0.0009221,0,0,0.08826
8100000000,8400000000,5850685169,35,1479089188,0.05072,0.03632,0.06036,0.04626,0.04852,0.05035,0.01454,0.0005589,0.1543,0.07227,1.048,0.001199,0,0,0.02771
8400000000,8700000000,5850685169,35,1479089188,0.002434,0.005531,0.0199,0.009476,0.01114,0.008804,1.335e-05,0.0005522,0.0293,0.00293,5.709,0.01755,0,0,0.002453
8700000000,9000000000,5850685169,35,1479089188,0.001673,0.005188,0.01944,0.009232,0.01097,0.005341,3.815e-06,0.0005522,0.03125,0.0001431,5.131,0.01553,0,0,0.000761
9000000000,9300000000,5850685169,35,1479089188,0.001341,0.005547,0.01944,0.009201,0.01093,0.005798,4.768e-06,0.0005522,0.03516,0.0002861,3.575,0.00906,0,0,0.0003624
9300000000,9600000000,5850685169,35,1479089188,0.001314,0.005905,0.01944,0.009186,0.01089,0.006195,3.815e-06,0.0005522,0.03516,0.0001431,3.467,0.008262,0,0,0.0004377
9600000000,9900000000,5850685169,35,1479089188,0.05865,0.02466,0.03876,0.02798,0.02982,0.04883,0.01715,0.0005598,0.1504,0.0719,1.073,0.001031,0,0,0.136
9900000000,10200000000,5850685169,35,1479089188,0.04504,0.03424,0.05743,0.04358,0.04565,0.04932,0.01245,0.0005341,0.1489,0.07312,0.9916,0.0009309,0,0,0.001305
10200000000,10500000000,5850685169,35,1479089188,0.002407,0.005348,0.01974,0.01007,0.01128,0.008286,1.144e-05,0.0005264,0.03516,0.001999,4.883,0.01245,0,0,0.001289
10500000000,10800000000,5850685169,35,1479089188,0.001616,0.005142,0.01941,0.009888,0.01112,0.005417,3.815e-06,0.0005264,0.03516,0.0001431,4.059,0.009966,0,0,0.0008011
96000000000,96300000000,5850685169,35,1479089188,0.04718,0.02252,0.03668,0.02759,0.02936,0.04626,0.01688,0.0005398,0.1436,0.07239,1.011,0.0009833,0,0,0.06116
96300000000,96600000000,5850685169,35,1479089188,0.0658,0.03943,0.05927,0.04657,0.04895,0.0462,0.01898,0.0005455,0.1475,0.07166,1.061,0.001031,0,0,0.00589
96600000000,96900000000,5850685169,35,1479089188,0.002792,0.007103,0.02448,0.01593,0.0173,0.01804,4.768e-06,0.000535,0.03711,0.0003567,6.368,0.01663,0,0,0.002155
97200000000,97500000000,5850685169,35,1479089188,0.001406,0.005318,0.01941,0.01279,0.01411,0.005516,7.629e-06,0.000535,0.0332,0.001143,4.037,0.0104,0,0,0.0006313
97500000000,97800000000,5850685169,35,1479089188,0.001471,0.00563,0.01941,0.01248,0.01379,0.005844,4.768e-06,0.000535,0.03516,0.0002146,4.286,0.01115,0,0,0.0003004
97800000000,98100000000,5850685169,35,1479089188,0.05164,0.02271,0.03662,0.02795,0.02957,0.04462,0.01672,0.0005426,0.1558,0.07312,1.025,0.000974,0,0,0.0008526
98100000000,98400000000,5850685169,35,1479089188,0.06335,0.03864,0.05707,0.04541,0.04773,0.04688,0.01669,0.0005493,0.1582,0.07788,1.059,0.001013,0,0,0.001616
98400000000,98700000000,5850685169,35,1479089188,0.002655,0.006798,0.02206,0.0155,0.01675,0.01645,2.098e-05,0.0005379,0.03516,0.004929,5.797,0.01452,0,0,0.001638
99000000000,99300000000,5850685169,35,1479089188,0.001524,0.005363,0.01944,0.009659,0.01109,0.005531,3.815e-06,0.0005379,0.03516,0.0001431,4.313,0.01118,0,0,0.0005236
99300000000,99600000000,5850685169,35,1479089188,0.001524,0.005699,0.01944,0.009644,0.01109,0.005997,3.815e-06,0.0005379,0.03516,0.0002146,4.763,0.01239,0,0,0.0008707
99600000000,99900000000,5850685169,35,1479089188,0.05518,0.02399,0.03839,0.02798,0.02972,0.04846,0.01794,0.0005455,0.1875,0.07349,1.035,0.0009985,0,0,0.09766
99900000000,100200000000,5850685169,35,1479089188,0.05853,0.03589,0.05853,0.04388,0.04626,0.04718,0.01555,0.0005512,0.2695,0.0719,1.071,0.001052,0,0,0.08618
100200000000,100500000000,5850685169,35,1479089188,0.00267,0.00576,0.0202,0.01221,0.01375,0.01065,6.676e-06,0.0005417,0.03516,0.0004282,6.351,0.01673,0,0,0.001902
100500000000,100800000000,5850685169,35,1479089188,0.001888,0.005135,0.01944,0.01176,0.01332,0.005394,1.717e-05,0.0005417,0.03516,0.002857,5.411,0.01423,0,0,0.00149
100800000000,101100000000,5850685169,35,1479089188,0.001459,0.005478,0.01944,0.01173,0.01329,0.005638,8.583e-06,0.0005417,0.03516,0.001642,3.992,0.01016,0,0,0.001051
171000000000,171300000000,5850685169,35,1340515,0.05029,0.03116,0.0481,0.03815,0.04016,0.03857,0.01779,0.0003805,0.1379,0.06726,0.9936,0.0009772,0,0,0.06873
171300000000,171600000000,5850685169,35,1340515,0.02054,0.01697,0.034,0.02304,0.02512,0.02817,0.006424,0.0003738,0.1095,0.06921,1.008,0.001052,0,0,0.06519
171900000000,172200000000,5850685169,35,1340515,0.001909,0.004669,0.01874,0.008469,0.01015,0.005074,2.098e-05,0.00037,0.03082,0.002857,5.52,0.01775,0,0,0.00136
172500000000,172800000000,5850685169,35,1340515,0.02679,0.01347,0.02737,0.01552,0.01724,0.03845,0.007889,0.0003748,0.1589,0.06433,0.9725,0.0009651,0,0,0.004745
172800000000,173100000000,5850685169,35,1340515,0.04956,0.03149,0.04987,0.03845,0.04065,0.03851,0.01546,0.0003805,0.2368,0.06433,0.9828,0.0009789,0,0,0.0686
173100000000,173400000000,5850685169,35,1340515,0.01898,0.0166,0.03247,0.02106,0.02304,0.02734,0.006294,0.0003767,0.09143,0.06555,0.992,0.000979,0,0,0.00172
173700000000,174000000000,5850685169,35,1340515,0.001867,0.004875,0.01938,0.01167,0.01324,0.00573,1.907e-05,0.0003738,0.02771,0.001999,5.369,0.01728,0,0,0.001137
174300000000,174600000000,5850685169,35,1340515,0.02521,0.01294,0.02679,0.01776,0.01947,0.03827,0.008865,0.0003777,0.1611,0.06433,0.9813,0.0009822,0,0,0.0007544
174600000000,174900000000,5850685169,35,1340515,0.052,0.03217,0.052,0.04236,0.04462,0.03894,0.01688,0.0003862,0.1411,0.06433,1.021,0.001049,0,0,0.001621
174900000000,175200000000,5850685169,35,1340515,0.01923,0.01733,0.03809,0.02612,0.02835,0.02777,0.005905,0.0003796,0.09778,0.06433,1.019,0.001069,0,0,0.06409
175500000000,175800000000,5850685169,35,1340515,0.001984,0.004753,0.0191,0.008698,0.01025,0.005241,2.766e-05,0.0003777,0.02979,0.002857,5.368,0.01694,0,0,0.001587
196200000000,196500000000,5850685169,35,1340515,0.001282,0.006126,0.02002,0.01245,0.01413,0.01044,3.338e-05,0.0004158,0.03076,0.002716,3.964,0.01183,0,0,0.001068
196500000000,196800000000,5850685169,35,1340515,0.0264,0.01436,0.02783,0.01733,0.01901,0.0434,0.009613,0.0004206,0.1655,0.06433,0.9646,0.0009771,0,0,0.0005064
196800000000,197100000000,5850685169,35,1340515,0.06445,0.03772,0.05719,0.04657,0.04889,0.04456,0.02097,0.000432,0.1409,0.05719,1.024,0.00106,0,0,0.1326
197100000000,197400000000,5850685169,35,1340515,0.02521,0.02353,0.05005,0.03656,0.03912,0.04395,0.006447,0.0004244,0.1409,0.05792,1.084,0.001265,0,0,0.1296
197400000000,197700000000,5850685169,35,1340515,0.00214,0.004631,0.01819,0.007767,0.009781,0.005562,2.766e-05,0.0004187,0.02917,0.001928,5.86,0.018,0,0,0.0007963
198000000000,198300000000,5850685169,35,1340515,0.04987,0.03143,0.0517,0.04071,0.04309,0.03827,0.01561,0.0004292,0.1382,0.06433,0.9442,0.0008764,0,0,0.001093
198300000000,198600000000,5850685169,35,1340515,0.02023,0.01596,0.03375,0.02283,0.02499,0.02484,0.00666,0.0004244,0.09692,0.06433,1.016,0.001052,0,0,0.001581
198900000000,199200000000,5850685169,35,1340515,0.001848,0.00457,0.01846,0.01042,0.01158,0.004875,2.575e-05,0.0004225,0.03052,0.002857,5.299,0.01687,0,0,0.001343
199500000000,199800000000,5850685169,35,1340515,0.02646,0.01279,0.02682,0.01648,0.01776,0.03955,0.009964,0.0004263,0.1577,0.07141,0.9681,0.0009822,0,0,0.1017
199800000000,200100000000,5850685169,35,1340515,0.05029,0.03204,0.052,0.04236,0.04437,0.03986,0.0166,0.000433,0.1411,0.06445,0.9589,0.0009145,0,0,0.09644
200100000000,200400000000,5850685169,35,1340515,0.02036,0.01724,0.03619,0.02524,0.02695,0.0274,0.007416,0.0004282,0.1023,0.0719,0.9969,0.0009986,0,0,0.07092
200700000000,201000000000,5850685169,35,1340515,0.001968,0.004753,0.01907,0.007782,0.009506,0.005394,2.956e-05,0.0004253,0.03125,0.002571,5.329,0.01761,0,0,0.001276
166500000000,166800000000,5850685169,35,1340515,0.001879,0.004486,0.01801,0.0105,0.01151,0.004936,2.67e-05,0.0003605,0.02753,0.001928,5.913,0.01935,0,0,0.001368
167100000000,167400000000,5850685169,35,1340515,0.02716,0.01251,0.02664,0.01587,0.017,0.03894,0.008423,0.0003643,0.1582,0.06921,0.9805,0.0009999,0,0,0.06995
167400000000,167700000000,5850685169,35,1340515,0.05084,0.03168,0.05115,0.04175,0.04358,0.03918,0.01617,0.00037,0.1433,0.06677,0.9773,0.0009483,0,0,0.07031
167700000000,168000000000,5850685169,35,1340515,0.01953,0.01633,0.0343,0.02518,0.0271,0.02518,0.005753,0.0003662,0.08508,0.06592,1.022,0.001064,0,0,0.01315
168300000000,168600000000,5850685169,35,1340515,0.001869,0.004532,0.01831,0.008286,0.009384,0.004997,1.812e-05,0.0003633,0.02875,0.001999,5.676,0.01855,0,0,0.001251
168900000000,169200000000,5850685169,35,1340515,0.02524,0.0128,0.02667,0.01524,0.01648,0.03754,0.008301,0.0003681,0.1523,0.06433,0.9813,0.0009966,0,0,0.0003424
169200000000,169500000000,5850685169,35,1340515,0.05176,0.03174,0.0498,0.03973,0.04163,0.03778,0.01666,0.0003748,0.1401,0.06555,0.9995,0.0009861,0,0,0.106
169500000000,169800000000,5850685169,35,1340515,0.01974,0.01761,0.03473,0.02551,0.02753,0.02765,0.00602,0.00037,0.09082,0.06433,1.019,0.001055,0,0,0.01517
170100000000,170400000000,5850685169,35,1340515,0.001892,0.004486,0.01782,0.008072,0.009491,0.00528,2.003e-05,0.0003672,0.03003,0.001286,6.196,0.02092,0,0,0.002415
170700000000,171000000000,5850685169,35,1340515,0.02637,0.01297,0.02692,0.01535,0.01691,0.03839,0.008133,0.0003719,0.1592,0.06433,0.9711,0.001012,0,0,0.01041
101100000000,101400000000,5850685169,35,1479089188,0.001497,0.005875,0.01944,0.01166,0.01321,0.006248,3.815e-06,0.0005417,0.03516,0.0003567,4.027,0.01038,0,0,0.0005856
101400000000,101700000000,5850685169,35,1479089188,0.03882,0.01913,0.03461,0.02414,0.02591,0.03662,0.0116,0.0005522,0.1414,0.07178,1.014,0.000926,0,0,0.02478
101700000000,102000000000,5850685169,35,1479089188,0.07312,0.03851,0.05426,0.04395,0.04608,0.04681,0.02347,0.0005579,0.168,0.0719,1.048,0.0009491,0,0,0.00251
102000000000,102300000000,5850685169,35,1479089188,0.003151,0.01077,0.02997,0.01834,0.01974,0.03436,2.861e-05,0.0005455,0.03906,0.002785,1.435,0.002132,0,0,0.00194
102600000000,102900000000,5850685169,35,1479089188,0.001537,0.005447,0.01944,0.01152,0.01262,0.005669,4.768e-06,0.0005445,0.03516,0.0002146,4.448,0.01159,0,0,0.0006485
102900000000,103200000000,5850685169,35,1479089188,0.001471,0.005814,0.01944,0.01149,0.01256,0.006012,2.861e-06,0.0005445,0.03516,7.153e-05,4.189,0.01097,0,0,0.0005503
103200000000,103500000000,5850685169,35,1479089188,0.05292,0.02328,0.03766,0.02805,0.02951,0.04681,0.01944,0.0005522,0.1523,0.07458,1.034,0.0009951,0,0,0.0006418
103500000000,103800000000,5850685169,35,1479089188,0.06055,0.03857,0.06195,0.04895,0.05133,0.04932,0.0159,0.0005579,0.1641,0.07178,1.046,0.0009997,0,0,0.09729
103800000000,104100000000,5850685169,35,1479089188,0.002785,0.006256,0.02292,0.01263,0.01404,0.01314,4.768e-06,0.0005484,0.03516,0.0003567,6.357,0.01658,0,0,0.002647
104400000000,104700000000,5850685169,35,1479089188,0.001537,0.005501,0.01941,0.009232,0.01053,0.005699,3.815e-06,0.0005484,0.03516,0.0002146,4.668,0.01245,0,0,0.000411
104700000000,105000000000,5850685169,35,1479089188,0.001549,0.005867,0.01941,0.009186,0.01047,0.006065,4.768e-06,0.0005484,0.03516,0.0002146,4.264,0.01087,0,0,0.0004797
105000000000,105300000000,5850685169,35,1479089188,0.05188,0.02332,0.03796,0.02655,0.02817,0.04816,0.0181,0.000556,0.2734,0.07166,1.01,0.0009691,0,0,0.08423
105300000000,105600000000,5850685169,35,1479089188,0.06097,0.03796,0.06061,0.04761,0.04999,0.04578,0.01712,0.0005388,0.2695,0.07556,1.038,0.001068,0,0,0.1394
105600000000,105900000000,5850685169,35,1479089188,0.0028,0.007675,0.02707,0.01445,0.01651,0.01962,4.768e-06,0.0005226,0.03516,0.0004282,6.674,0.0188,0,0,0.001213
51000000000,51300000000,5850685169,35,1479089188,0.0509,0.02264,0.03735,0.02722,0.02884,0.04596,0.01816,0.0005445,0.1423,0.0719,1.054,0.001107,0,0,0.000638
51300000000,51600000000,5850685169,35,1479089188,0.06262,0.03827,0.05847,0.04675,0.04907,0.04468,0.01559,0.0005512,0.3638,0.07385,1.1,0.001139,0,0,0.07288
51600000000,51900000000,5850685169,35,1479089188,0.002853,0.007011,0.02548,0.01347,0.01477,0.02014,6.676e-06,0.0005398,0.03711,0.0008574,6.4,0.01729,0,0,0.002453
51900000000,52200000000,5850685169,35,1479089188,0.002026,0.004997,0.01941,0.009369,0.01059,0.005226,4.768e-06,0.0005398,0.03516,0.0002146,5.673,0.01566,0,0,0.0007868
52200000000,52500000000,5850685169,35,1479089188,0.001497,0.005325,0.01941,0.009354,0.01056,0.005493,3.815e-06,0.0005407,0.03906,0.0002861,4.13,0.01085,0,0,0.0003614
52500000000,52800000000,5850685169,35,1479089188,0.001537,0.005699,0.01941,0.009354,0.01057,0.005882,4.768e-06,0.0005407,0.03711,0.0002146,4.271,0.01106,0,0,0.002033
52800000000,53100000000,5850685169,35,1479089188,0.05341,0.0235,0.03766,0.02701,0.02856,0.04688,0.0191,0.0005474,0.1482,0.07324,1.03,0.0009845,0,0,0.1193
53100000000,53400000000,5850685169,35,1479089188,0.05756,0.03589,0.05682,0.04224,0.04449,0.04578,0.01529,0.0005531,0.168,0.07349,1.039,0.001021,0,0,0.09937
53400000000,53700000000,5850685169,35,1479089188,0.00272,0.005997,0.02069,0.01389,0.01558,0.01419,6.676e-06,0.0005436,0.03516,0.0007143,6.644,0.01916,0,0,0.001923
53700000000,54000000000,5850685169,35,1479089188,0.002064,0.00502,0.01941,0.01271,0.0144,0.005196,2.861e-06,0.0005436,0.03711,7.153e-05,5.832,0.01643,0,0,0.002247
54000000000,54300000000,5850685169,35,1479089188,0.00157,0.005356,0.01941,0.01239,0.01407,0.005554,1.335e-05,0.0005436,0.03711,0.00293,4.461,0.0122,0,0,0.0006628
54300000000,54600000000,5850685169,35,1479089188,0.001524,0.00573,0.01941,0.01201,0.01369,0.005943,3.815e-06,0.0005436,0.0332,7.153e-05,4.22,0.0111,0,0,0.0005398
54600000000,54900000000,5850685169,35,1479089188,0.05139,0.02362,0.03778,0.02829,0.03021,0.04675,0.01657,0.0005503,0.1504,0.08606,1.003,0.001005,0,0,0.000308
54900000000,55200000000,5850685169,35,1479089188,0.05731,0.03815,0.0592,0.04681,0.04913,0.04645,0.01462,0.0005589,0.166,0.07202,1.021,0.001024,0,0,0.001797
55200000000,55500000000,5850685169,35,1479089188,0.002903,0.007141,0.02374,0.01442,0.01627,0.01639,4.768e-06,0.0005465,0.03711,0.0004282,3.835,0.009421,0,0,0.001411
55500000000,55800000000,5850685169,35,1479089188,0.002045,0.005066,0.01941,0.009384,0.01122,0.005318,1.049e-05,0.0005465,0.03516,0.002357,6.274,0.01867,0,0,0.001308
90900000000,91200000000,5850685169,35,1479089188,0.0658,0.03662,0.05695,0.04211,0.04443,0.04718,0.01518,0.000536,0.2266,0.07166,1.086,0.001092,0,0,0.0531
91200000000,91500000000,5850685169,35,1479089188,0.002773,0.006348,0.02106,0.01439,0.0159,0.01508,6.676e-06,0.0005255,0.09888,0.001072,6.674,0.0178,0,0,0.001863
91800000000,92100000000,5850685169,35,1479089188,0.001465,0.00531,0.01941,0.01263,0.0141,0.005463,3.815e-06,0.0005255,0.03516,0.0002861,3.96,0.009802,0,0,0.006088
92100000000,92400000000,5850685169,35,1479089188,0.001497,0.005646,0.01941,0.0123,0.01378,0.005875,1.717e-05,0.0005255,0.03516,0.002499,4.287,0.01099,0,0,0.0008059
92400000000,92700000000,5850685169,35,1479089188,0.04565,0.01971,0.03363,0.02417,0.02594,0.03912,0.01575,0.0005341,0.168,0.0741,1.093,0.001036,0,0,0.06799
92700000000,93000000000,5850685169,35,1479089188,0.06848,0.03888,0.05597,0.04517,0.04755,0.04633,0.02133,0.0005388,0.166,0.07349,1.067,0.001016,0,0,0.09021
93000000000,93300000000,5850685169,35,1479089188,0.002728,0.008759,0.02893,0.01633,0.01794,0.02722,3.815e-06,0.0005283,0.03906,0.0002861,6.401,0.01676,0,0,0.002506
93600000000,93900000000,5850685169,35,1479089188,0.001471,0.005219,0.01944,0.01003,0.0114,0.00544,2.48e-05,0.0005283,0.03711,0.003357,4.468,0.01159,0,0,0.0009022
93900000000,94200000000,5850685169,35,1479089188,0.001537,0.005547,0.01944,0.009995,0.01138,0.005722,3.815e-06,0.0005283,0.03711,0.0002146,4.338,0.01131,0,0,0.0009918
94200000000,94500000000,5850685169,35,1479089188,0.04858,0.02246,0.03699,0.02689,0.02856,0.0462,0.01727,0.000536,0.2227,0.073,1.001,0.0009665,0,0,0.1174
94500000000,94800000000,5850685169,35,1479089188,0.06421,0.03796,0.06091,0.04651,0.04883,0.04822,0.01743,0.0005426,0.2715,0.0719,1.084,0.001118,0,0,0.001818
94800000000,95100000000,5850685169,35,1479089188,0.002857,0.006348,0.02249,0.01468,0.0162,0.01379,5.722e-06,0.0005322,0.03711,0.0006428,7.185,0.02003,0,0,0.002422
95100000000,95400000000,5850685169,35,1479089188,0.002007,0.004974,0.01944,0.01289,0.01439,0.005127,3.815e-06,0.0005322,0.03516,0.0001431,5.723,0.01593,0,0,0.001589
95400000000,95700000000,5850685169,35,1479089188,0.001446,0.005318,0.01944,0.0126,0.0141,0.005463,5.722e-06,0.0005322,0.03516,0.0004282,4.144,0.01031,0,0,0.0007477
95700000000,96000000000,5850685169,35,1479089188,0.001427,0.005661,0.01941,0.01227,0.01376,0.005913,4.768e-06,0.0005322,0.03516,0.0004997,4.369,0.01158,0,0,0.0002613
85800000000,86100000000,5850685169,35,1479089188,0.003002,0.006897,0.022,0.01547,0.01706,0.01855,3.052e-05,0.0005445,0.03711,0.004425,7.513,0.02058,0,0,0.002357
86400000000,86700000000,5850685169,35,1479089188,0.001492,0.005112,0.01941,0.01266,0.01428,0.005264,4.768e-06,0.0005445,0.03516,0.0002861,4.693,0.01276,0,0,0.00068
86700000000,87000000000,5850685169,35,1479089188,0.001524,0.005432,0.01941,0.01237,0.01399,0.005577,5.722e-06,0.0005445,0.03711,0.0005713,4.764,0.01276,0,0,0.00518
87000000000,87300000000,5850685169,35,1479089188,0.05096,0.02197,0.03619,0.02716,0.02896,0.04468,0.01694,0.0005522,0.1445,0.07361,1.047,0.001046,0,0,0.03552
87300000000,87600000000,5850685169,35,1479089188,0.06592,0.03772,0.0564,0.04364,0.04596,0.04736,0.01587,0.0005579,0.1912,0.07251,1.106,0.001046,0,0,0.04034
87600000000,87900000000,5850685169,35,1479089188,0.002747,0.006447,0.02142,0.01341,0.01498,0.01672,5.722e-06,0.0005474,0.03906,0.0004282,6.567,0.01731,0,0,0.001719
88200000000,88500000000,5850685169,35,1479089188,0.001511,0.005188,0.01944,0.01064,0.01216,0.005333,4.768e-06,0.0005474,0.03711,0.0002146,4.322,0.01099,0,0,0.0148
88500000000,88800000000,5850685169,35,1479089188,0.001524,0.005508,0.01944,0.01064,0.01216,0.00576,5.722e-06,0.0005474,0.03711,0.0007858,4.208,0.0101,0,0,0.0004072
88800000000,89100000000,5850685169,35,1479089188,0.04767,0.0224,0.03723,0.0275,0.02927,0.04608,0.01669,0.000556,0.1414,0.07288,1.043,0.001005,0,0,0.000618
89100000000,89400000000,5850685169,35,1479089188,0.07031,0.03876,0.05853,0.0473,0.04968,0.04376,0.01779,0.0005493,0.1582,0.07666,1.116,0.00113,0,0,0.1301
89400000000,89700000000,5850685169,35,1479089188,0.002892,0.008133,0.02563,0.01436,0.01593,0.01926,4.768e-06,0.0005217,0.03906,0.0006428,6.768,0.01802,0,0,0.003265
90000000000,90300000000,5850685169,35,1479089188,0.001524,0.00528,0.01944,0.01173,0.01328,0.005432,4.768e-06,0.0005217,0.03711,0.0002861,4.52,0.0115,0,0,0.03067
90300000000,90600000000,5850685169,35,1479089188,0.001451,0.00563,0.01944,0.01169,0.01326,0.005806,5.722e-06,0.0005217,0.03711,0.0003567,4.335,0.0113,0,0,0.0004148
90600000000,90900000000,5850685169,35,1479089188,0.04724,0.02216,0.03638,0.0271,0.0289,0.04419,0.01715,0.0005302,0.1479,0.07166,1.024,0.0009509,0,0,0.1262
66000000000,66300000000,5850685169,35,1479089188,0.002655,0.005829,0.02185,0.01059,0.01181,0.01051,6.676e-06,0.0005369,0.03516,0.0007858,6.197,0.01621,0,0,0.002056
66300000000,66600000000,5850685169,35,1479089188,0.001842,0.005127,0.01941,0.009766,0.01097,0.00528,3.815e-06,0.0005369,0.03516,0.0002146,5.133,0.0136,0,0,0.0008926
66600000000,66900000000,5850685169,35,1479089188,0.001459,0.005478,0.01941,0.009766,0.01099,0.005653,3.815e-06,0.0005369,0.03516,0.0002146,3.965,0.009937,0,0,0.0002489
66900000000,67200000000,5850685169,35,1479089188,0.001465,0.005882,0.01941,0.009781,0.011,0.006195,3.815e-06,0.0005369,0.03516,7.153e-05,3.943,0.01003,0,0,0.0003424
67200000000,67500000000,5850685169,35,1479089188,0.05157,0.02356,0.03772,0.02728,0.02884,0.04688,0.01837,0.0005445,0.1445,0.07263,1.013,0.001004,0,0,0.005295
67500000000,67800000000,5850685169,35,1479089188,0.05646,0.03607,0.05615,0.04211,0.04437,0.04834,0.01489,0.0005541,0.1602,0.07202,1.092,0.001115,0,0,0.00185
67800000000,68100000000,5850685169,35,1479089188,0.002628,0.006325,0.02087,0.01286,0.01402,0.01596,4.768e-06,0.0005407,0.03516,0.0002146,5.877,0.01523,0,0,0.002087
68100000000,68400000000,5850685169,35,1479089188,0.001915,0.005104,0.01944,0.01198,0.01312,0.005272,3.815e-06,0.0005407,0.03516,0.0001431,5.443,0.01483,0,0,0.001612
68400000000,68700000000,5850685169,35,1479089188,0.001427,0.005486,0.01944,0.01198,0.01314,0.005707,2.861e-06,0.0005407,0.03516,0.0001431,4.043,0.01042,0,0,0.0007133
68700000000,69000000000,5850685169,35,1479089188,0.001471,0.005852,0.01944,0.01198,0.01312,0.006096,4.768e-06,0.0005407,0.0332,0.0001431,4.026,0.0104,0,0,0.0007086
69000000000,69300000000,5850685169,35,1479089188,0.04926,0.02274,0.03668,0.02728,0.02875,0.04608,0.01466,0.0005484,0.1436,0.07166,0.9955,0.0009701,0,0,0.0006666
69300000000,69600000000,5850685169,35,1479089188,0.05988,0.0376,0.0556,0.04462,0.04675,0.04498,0.01901,0.0005541,0.1631,0.07507,1.029,0.0009977,0,0,0.009232
69600000000,69900000000,5850685169,35,1479089188,0.002819,0.007507,0.02713,0.01472,0.0162,0.02008,4.768e-06,0.0005436,0.03711,0.0003567,5.973,0.01597,0,0,0.001844
70200000000,70500000000,5850685169,35,1479089188,0.001516,0.005669,0.01944,0.009201,0.01054,0.005951,4.768e-06,0.0005436,0.03516,0.0004282,4.027,0.01048,0,0,0.006409
70500000000,70800000000,5850685169,35,1479089188,0.00153,0.006172,0.01944,0.009216,0.01054,0.006554,1.335e-05,0.0005436,0.03516,0.00293,3.955,0.0101,0,0,0.0009394
146100000000,146400000000,5850685169,35,1340515,0.01846,0.01546,0.03925,0.02783,0.02997,0.02386,0.005997,0.0003252,0.1348,0.06995,0.9604,0.000953,0,0,0.001961
146700000000,147000000000,5850685169,35,1340515,0.00182,0.004433,0.0181,0.008331,0.009552,0.004944,1.526e-05,0.0003223,0.02625,0.0008574,5.148,0.01689,0,0,0.001513
147300000000,147600000000,5850685169,35,1340515,0.02716,0.01306,0.02704,0.0155,0.01675,0.03851,0.008347,0.0003262,0.2256,0.06433,0.968,0.0009733,0,0,0.0003405
147600000000,147900000000,5850685169,35,1340515,0.04761,0.02979,0.04871,0.03864,0.04059,0.03851,0.01648,0.0003328,0.1394,0.06433,0.9494,0.0008774,0,0,0.01575
147900000000,148200000000,5850685169,35,1340515,0.02112,0.0162,0.039,0.02716,0.02911,0.0253,0.006439,0.000329,0.08789,0.06982,1.019,0.001076,0,0,0.001717
148500000000,148800000000,5850685169,35,1340515,0.002083,0.004463,0.01816,0.01042,0.01198,0.005043,1.335e-05,0.0003262,0.02701,0.0009995,6.287,0.02215,0,0,0.001995
149100000000,149400000000,5850685169,35,1340515,0.02838,0.01329,0.02731,0.01776,0.01947,0.039,0.008041,0.00033,0.1448,0.07141,0.9977,0.0009952,0,0,0.001015
149400000000,149700000000,5850685169,35,1340515,0.04974,0.03122,0.05096,0.04053,0.04279,0.0387,0.01529,0.0003376,0.1411,0.06482,1.01,0.001015,0,0,0.06079
149700000000,150000000000,5850685169,35,1340515,0.01996,0.01697,0.04144,0.02942,0.03156,0.02731,0.005646,0.0003319,0.1362,0.06433,1.043,0.001156,0,0,0.02899
150300000000,150600000000,5850685169,35,1340515,0.0019,0.00457,0.01822,0.007889,0.009308,0.005547,2.003e-05,0.000329,0.0278,0.001928,5.971,0.01974,0,0,0.001076
150900000000,151200000000,5850685169,35,1340515,0.02457,0.01273,0.02667,0.01469,0.01624,0.03717,0.008194,0.0003338,0.1499,0.06433,0.9787,0.0009801,0,0,0.01384
191100000000,191400000000,5850685169,35,1340515,0.0206,0.01669,0.03546,0.02582,0.02756,0.02765,0.00634,0.000411,0.09912,0.06433,0.955,0.0009193,0,0,0.001492
191700000000,192000000000,5850685169,35,1340515,0.001789,0.004669,0.01892,0.01241,0.01355,0.005043,3.529e-05,0.0004082,0.03149,0.002857,5.149,0.01618,0,0,0.001324
192300000000,192600000000,5850685169,35,1340515,0.02628,0.01311,0.02698,0.01877,0.02014,0.0387,0.009186,0.0004129,0.1672,0.07141,0.9533,0.0009591,0,0,0.0003595
192600000000,192900000000,5850685169,35,1340515,0.05017,0.03174,0.05194,0.04187,0.04395,0.03882,0.01724,0.0004187,0.1458,0.06494,0.9622,0.0009208,0,0,0.002052
192900000000,193200000000,5850685169,35,1340515,0.01959,0.01694,0.04248,0.02994,0.03217,0.02689,0.00708,0.0004148,0.09644,0.07141,1.021,0.001054,0,0,0.002327
193500000000,193800000000,5850685169,35,1340515,0.00182,0.004677,0.01871,0.008163,0.009186,0.005104,2.48e-05,0.000412,0.03137,0.002213,5.006,0.01563,0,0,0.00605
194100000000,194400000000,5850685169,35,1340515,0.0257,0.01282,0.02679,0.01488,0.01602,0.03851,0.00882,0.0004168,0.1633,0.05719,0.9629,0.0009745,0,0,0.137
194400000000,194700000000,5850685169,35,1340515,0.05054,0.03204,0.05121,0.04187,0.04376,0.0387,0.01669,0.0004234,0.1416,0.06531,1.005,0.001037,0,0,0.008698
194700000000,195000000000,5850685169,35,1340515,0.01923,0.01541,0.03351,0.0231,0.02478,0.02881,0.006332,0.0004177,0.09802,0.06567,1.011,0.001038,0,0,0.01062
195300000000,195600000000,5850685169,35,1340515,0.001749,0.0047,0.01913,0.008621,0.009872,0.00499,2.956e-05,0.0004158,0.03125,0.002857,5.273,0.0165,0,0,0.000845
195900000000,196200000000,5850685169,35,1340515,0.002193,0.009094,0.02328,0.01218,0.0136,0.01874,0.004372,0.0004158,0.03198,0.06433,4.156,0.01278,0,0,0.000597
206100000000,206400000000,5850685169,35,1340515,0.001431,0.009872,0.02322,0.01161,0.0128,0.01025,1.717e-05,0.000432,0.03284,0.002285,4.152,0.01247,0,0,0.0006781
206400000000,206700000000,5850685169,35,1340515,0.001472,0.01028,0.02383,0.01161,0.01279,0.01076,5.817e-05,0.000432,0.03259,0.002716,4.273,0.0129,0,0,0.0007601
206700000000,207000000000,5850685169,35,1340515,0.00145,0.01076,0.02515,0.01163,0.01283,0.01117,0.000165,0.000432,0.03406,0.002857,4.407,0.01365,0,0,0.0007286
207000000000,207300000000,5850685169,35,1340515,0.001467,0.01109,0.02515,0.01161,0.01279,0.01147,0.0002098,0.000432,0.0332,0.00293,4.353,0.01291,0,0,0.001051
207300000000,207600000000,5850685169,35,1340515,0.001415,0.01151,0.02515,0.01163,0.01282,0.01193,0.0001888,0.000432,0.03101,0.003429,4.379,0.01325,0,0,0.0007439
207600000000,207900000000,5850685169,35,1340515,0.001476,0.01192,0.02515,0.01163,0.01283,0.01233,0.0002031,0.000432,0.03552,0.002857,4.546,0.01364,0,0,0.0008068
207900000000,208200000000,5850685169,35,1340515,0.00149,0.01228,0.02594,0.0116,0.01279,0.01274,0.0001621,0.000432,0.03406,0.002857,4.618,0.0142,0,0,0.0004244
208200000000,208500000000,5850685169,35,1340515,0.001457,0.01271,0.0271,0.01155,0.01279,0.01299,0.000205,0.000432,0.03271,0.004425,4.43,0.01339,0,0,0.0008373
208500000000,208800000000,5850685169,35,1340515,0.00144,0.01303,0.0271,0.01155,0.0127,0.01349,0.0002069,0.000432,0.0332,0.00293,4.014,0.01124,0,0,0.0006714
208800000000,209100000000,5850685169,35,1340515,0.001434,0.01343,0.0271,0.01154,0.0127,0.01389,0.0002012,0.000432,0.03308,0.002998,4.491,0.01357,0,0,0.006416
209100000000,209400000000,5850685169,35,1340515,0.001377,0.01382,0.0271,0.01155,0.01274,0.01414,0.0002222,0.000432,0.03296,0.005074,4.233,0.0122,0,0,0.00106
209400000000,209700000000,5850685169,35,1340515,0.001411,0.01424,0.02817,0.01155,0.01277,0.01459,0.0002127,0.000432,0.0304,0.003571,4.346,0.01294,0,0,0.0007057
209700000000,210000000000,5850685169,35,1340515,0.001459,0.01459,0.02905,0.01155,0.01276,0.01501,0.0002003,0.000432,0.03418,0.002998,4.263,0.01217,0,0,0.0004272
210000000000,210300000000,5850685169,35,1340515,0.001507,0.01494,0.02905,0.01157,0.01276,0.01524,0.0002823,0.000432,0.03528,0.004501,4.423,0.01317,0,0,0.00457
210300000000,210600000000,5850685169,35,1340515,0.001448,0.0153,0.02905,0.01157,0.01274,0.01566,0.0002155,0.000432,0.03271,0.00293,4.339,0.01277,0,0,0.0004263
210600000000,210900000000,5850685169,35,1340515,0.001438,0.01584,0.02905,0.01157,0.01271,0.0163,0.0002813,0.000432,0.0332,0.005211,4.161,0.01228,0,0,0.0006351
210900000000,211200000000,5850685169,35,1340515,0.01131,0.01718,0.03122,0.01215,0.01335,0.02927,0.003254,0.000433,0.1343,0.0459,1.316,0.002016,0,0,0.1112
211200000000,211500000000,5850685169,35,1340515,0.06348,0.0434,0.06006,0.03735,0.03882,0.05029,0.02094,0.0004454,0.1531,0.06433,1.111,0.001185,0,0,0.01189
211500000000,211800000000,5850685169,35,1340515,0.06641,0.04614,0.06372,0.04297,0.04529,0.05219,0.02252,0.0004416,0.1575,0.07141,1.161,0.00129,0,0,0.0437
211800000000,212100000000,5850685169,35,1340515,0.06702,0.04755,0.06543,0.04651,0.04913,0.052,0.01971,0.0004454,0.1465,0.07141,1.017,0.001052,0,0,0.01752
212400000000,212700000000,5850685169,35,1340515,0.07202,0.04688,0.06543,0.04779,0.05035,0.04993,0.02081,0.0004444,0.1455,0.07153,0.9982,0.001006,0,0,0.02194
212700000000,213000000000,5850685169,35,1340515,0.006798,0.01941,0.04913,0.02942,0.0318,0.04694,0.001101,0.0004339,0.1212,0.03986,1.064,0.001253,0,0,0.003902
213000000000,213300000000,5850685169,35,1340515,0.04626,0.02411,0.03931,0.02698,0.02911,0.03668,0.01749,0.0004425,0.145,0.06433,1.02,0.001063,0,0,0.01402
213300000000,213600000000,5850685169,35,1340515,0.04822,0.03314,0.0509,0.04132,0.0437,0.03809,0.01862,0.0004444,0.2229,0.06433,1.071,0.001174,0,0,0.003143
213600000000,213900000000,5850685169,35,1340515,0.02438,0.0202,0.04602,0.03363,0.03589,0.02975,0.005295,0.0004406,0.1357,0.04999,1.019,0.00107,0,0,0.002132
213900000000,214200000000,5850685169,35,1340515,0.002197,0.00499,0.01938,0.008804,0.01007,0.006035,1.812e-05,0.0004349,0.03137,0.001429,6.484,0.0211,0,0,0.001513
214500000000,214800000000,5850685169,35,1340515,0.001402,0.005409,0.01938,0.00882,0.01012,0.00576,2.575e-05,0.0004349,0.03418,0.001858,4.577,0.01415,0,0,0.004707
214800000000,215100000000,5850685169,35,1340515,0.04553,0.02155,0.03644,0.02408,0.02576,0.03711,0.01543,0.0004435,0.251,0.0719,0.9792,0.001,0,0,0.007462
215100000000,215400000000,5850685169,35,1340515,0.05774,0.03143,0.04779,0.03638,0.03864,0.0387,0.02454,0.0004463,0.1536,0.07141,1.023,0.001122,0,0,0.01257
215400000000,215700000000,5850685169,35,1340515,0.0137,0.01624,0.03717,0.02609,0.02832,0.03467,0.00388,0.0004425,0.1294,0.05847,1.118,0.001377,0,0,0.002045
141300000000,141600000000,5850685169,35,1340515,0.001839,0.004539,0.01822,0.008133,0.009506,0.00531,1.717e-05,0.0003119,0.02728,0.001642,5.318,0.01662,0,0,0.001333
141900000000,142200000000,5850685169,35,1340515,0.02731,0.01344,0.02737,0.01541,0.01685,0.0387,0.00798,0.0003157,0.1423,0.07141,0.9809,0.0009472,0,0,0.06409
142200000000,142500000000,5850685169,35,1340515,0.04865,0.03107,0.05072,0.04022,0.04248,0.03864,0.01483,0.0003223,0.1433,0.06433,0.9513,0.0008472,0,0,0.05103
142500000000,142800000000,5850685169,35,1340515,0.01797,0.01422,0.0296,0.01974,0.02158,0.02466,0.005112,0.0003185,0.08801,0.06433,0.9824,0.0009389,0,0,0.003506
143100000000,143400000000,5850685169,35,1340515,0.001867,0.004547,0.01822,0.008682,0.009354,0.00531,1.431e-05,0.0003157,0.02454,0.001429,5.622,0.01837,0,0,0.002014
143700000000,144000000000,5850685169,35,1340515,0.02728,0.01321,0.02713,0.01575,0.01657,0.03894,0.008575,0.0003195,0.1577,0.05737,0.9801,0.0009363,0,0,0.0005751
144000000000,144300000000,5850685169,35,1340515,0.04724,0.03104,0.04926,0.03931,0.04102,0.03894,0.01587,0.0003271,0.1409,0.04999,1,0.0009515,0,0,0.006592
144300000000,144600000000,5850685169,35,1340515,0.02078,0.01697,0.03174,0.02151,0.02307,0.02902,0.006126,0.0003214,0.09436,0.06616,1.018,0.001044,0,0,0.001501
144900000000,145200000000,5850685169,35,1340515,0.001637,0.004601,0.0184,0.008606,0.01003,0.005089,2.384e-05,0.0003185,0.02542,0.001715,4.873,0.0155,0,0,0.001402
145500000000,145800000000,5850685169,35,1340515,0.02539,0.01201,0.02621,0.01463,0.0162,0.0318,0.008179,0.0003233,0.155,0.06445,0.9518,0.0009565,0,0,0.03973
145800000000,146100000000,5850685169,35,1340515,0.04846,0.02881,0.04688,0.03656,0.03864,0.03723,0.01657,0.000329,0.1377,0.06995,0.9191,0.0008605,0,0,0.06775
45900000000,46200000000,5850685169,35,1479089188,0.05896,0.03833,0.06055,0.04816,0.05048,0.04749,0.01608,0.0005398,0.166,0.0719,1.033,0.001025,0,0,0.09351
46200000000,46500000000,5850685169,35,1479089188,0.002697,0.005913,0.0242,0.01183,0.01318,0.01329,6.676e-06,0.0005312,0.03516,0.0006428,6.703,0.0175,0,0,0.001492
46800000000,47100000000,5850685169,35,1479089188,0.001503,0.005257,0.01941,0.009796,0.01103,0.005447,4.768e-06,0.0005312,0.03711,0.0005713,4.441,0.01125,0,0,0.0002737
47100000000,47400000000,5850685169,35,1479089188,0.001524,0.005577,0.01941,0.009796,0.01103,0.005875,2.861e-06,0.0005312,0.03516,7.153e-05,4.557,0.01174,0,0,0.0007629
47400000000,47700000000,5850685169,35,1479089188,0.05316,0.02304,0.03723,0.0271,0.02869,0.04663,0.01837,0.0005369,0.1453,0.07214,1.056,0.001002,0,0,0.1316
47700000000,48000000000,5850685169,35,1479089188,0.05902,0.03595,0.05469,0.0412,0.04346,0.04846,0.01471,0.0005436,0.1602,0.0719,1.112,0.001055,0,0,0.001038
48000000000,48300000000,5850685169,35,1479089188,0.002476,0.005562,0.02023,0.01364,0.015,0.01099,2.289e-05,0.0005341,0.03516,0.00293,6.245,0.01748,0,0,0.002708
48600000000,48900000000,5850685169,35,1479089188,0.001492,0.005341,0.01941,0.01266,0.01407,0.005478,4.768e-06,0.0005341,0.03516,0.0002146,4.421,0.01147,0,0,0.0003357
48900000000,49200000000,5850685169,35,1479089188,0.001478,0.005646,0.01941,0.01239,0.01378,0.005806,3.815e-06,0.0005341,0.03516,0.0001431,4.462,0.0117,0,0,0.001152
49200000000,49500000000,5850685169,35,1479089188,0.05292,0.02307,0.03717,0.02823,0.02988,0.04608,0.01703,0.0005407,0.1443,0.07361,1.025,0.001013,0,0,0.07739
49500000000,49800000000,5850685169,35,1479089188,0.05731,0.03821,0.06073,0.04852,0.05084,0.04742,0.01459,0.0005474,0.1582,0.07214,1.071,0.001061,0,0,0.039
49800000000,50100000000,5850685169,35,1479089188,0.002853,0.006081,0.02328,0.0119,0.01324,0.01344,9.537e-06,0.0005369,0.03711,0.001858,7.003,0.01885,0,0,0.006248
50100000000,50400000000,5850685169,35,1479089188,0.001934,0.00502,0.01941,0.01021,0.01157,0.005219,3.815e-06,0.0005369,0.03516,0.0001431,5.513,0.01468,0,0,0.002499
50400000000,50700000000,5850685169,35,1479089188,0.001438,0.005341,0.01941,0.01021,0.01155,0.005569,3.815e-06,0.0005369,0.03516,0.0002146,3.846,0.009515,0,0,0.0002546
50700000000,51000000000,5850685169,35,1479089188,0.001589,0.005646,0.01941,0.01007,0.01143,0.005821,1.335e-05,0.0005369,0.03516,0.002571,4.9,0.01349,0,0,0.0004082
105900000000,106200000000,5850685169,35,1479089188,0.002029,0.005135,0.01941,0.009659,0.01167,0.00528,4.768e-06,0.0005226,0.04651,0.0002861,5.575,0.01551,0,0,0.00119
106200000000,106500000000,5850685169,35,1479089188,0.001562,0.00547,0.01944,0.009613,0.01161,0.005669,3.815e-06,0.0005226,0.03516,0.0002861,4.461,0.01209,0,0,0.0004225
106500000000,106800000000,5850685169,35,1479089188,0.001459,0.00589,0.01944,0.009583,0.01158,0.006088,4.768e-06,0.0005226,0.03516,0.0004282,3.627,0.008749,0,0,0.0003223
106800000000,107100000000,5850685169,35,1479089188,0.05737,0.02438,0.03833,0.02731,0.02948,0.0484,0.01675,0.0005293,0.1453,0.07178,1.037,0.0009748,0,0,0.06738
107100000000,107400000000,5850685169,35,1479089188,0.05695,0.03833,0.06158,0.04907,0.05151,0.04797,0.01846,0.000536,0.2617,0.07178,1.053,0.001009,0,0,0.1299
107400000000,107700000000,5850685169,35,1479089188,0.003151,0.006172,0.02383,0.01137,0.01357,0.01195,4.768e-06,0.0005264,0.04297,0.0003567,6.887,0.0193,0,0,0.002766
107700000000,108000000000,5850685169,35,1479089188,0.001991,0.005135,0.01941,0.00975,0.01195,0.00531,3.815e-06,0.0005264,0.03906,0.0001431,5.417,0.0148,0,0,0.001112
108000000000,108300000000,5850685169,35,1479089188,0.001537,0.005516,0.01944,0.00972,0.01193,0.00573,5.722e-06,0.0005264,0.03516,0.0007858,4.176,0.01084,0,0,0.004333
108300000000,108600000000,5850685169,35,1479089188,0.001575,0.005913,0.01941,0.009583,0.01178,0.006195,4.768e-06,0.0005264,0.03516,0.0002861,4.348,0.01167,0,0,0.00033
108600000000,108900000000,5850685169,35,1479089188,0.0564,0.0242,0.03845,0.02771,0.02997,0.04816,0.01825,0.0005341,0.1436,0.07361,1.041,0.001021,0,0,0.09778
108900000000,109200000000,5850685169,35,1479089188,0.05957,0.03638,0.0578,0.04474,0.047,0.04791,0.01627,0.0005398,0.1641,0.07251,1.075,0.001039,0,0,0.03357
109200000000,109500000000,5850685169,35,1479089188,0.002773,0.006233,0.02151,0.01323,0.01447,0.01355,1.335e-05,0.0005293,0.04498,0.002998,6.472,0.01714,0,0,0.001877
109800000000,110100000000,5850685169,35,1479089188,0.001524,0.005508,0.01944,0.01151,0.0127,0.005707,3.815e-06,0.0005293,0.04462,0.0002861,3.989,0.009993,0,0,0.0008659
110100000000,110400000000,5850685169,35,1479089188,0.001511,0.005875,0.01944,0.01146,0.01262,0.006096,3.815e-06,0.0005293,0.05151,0.0001431,4.087,0.01062,0,0,0.02786
110400000000,110700000000,5850685169,35,1479089188,0.04987,0.02243,0.03729,0.02679,0.02829,0.04639,0.01782,0.0005369,0.1589,0.07166,1.031,0.0009579,0,0,0.0004196
110700000000,111000000000,5850685169,35,1479089188,0.06506,0.03839,0.05951,0.04529,0.04767,0.04645,0.01871,0.0005436,0.1636,0.07202,1.058,0.001021,0,0,0.1384
161100000000,161400000000,5850685169,35,1340515,0.001776,0.004784,0.01904,0.009415,0.01079,0.005356,1.812e-05,0.00035,0.02869,0.001999,5.499,0.0177,0,0,0.001886
161700000000,162000000000,5850685169,35,1340515,0.02917,0.01411,0.02802,0.01749,0.01892,0.04041,0.007591,0.0003538,0.1487,0.06433,0.9706,0.0009825,0,0,0.0004234
162000000000,162300000000,5850685169,35,1340515,0.04529,0.02936,0.04797,0.03723,0.03912,0.04041,0.01521,0.0003595,0.1411,0.06445,0.9385,0.0008901,0,0,0.0697
162300000000,162600000000,5850685169,35,1340515,0.01862,0.01657,0.03479,0.02521,0.02707,0.0253,0.006126,0.0003557,0.08508,0.06433,1.009,0.001069,0,0,0.002632
162900000000,163200000000,5850685169,35,1340515,0.001846,0.004776,0.01865,0.009445,0.01094,0.005669,2.861e-05,0.0003538,0.02637,0.003357,5.63,0.01863,0,0,0.00135
163500000000,163800000000,5850685169,35,1340515,0.02487,0.01242,0.0264,0.01492,0.01627,0.03851,0.009186,0.0003576,0.1492,0.06543,0.9573,0.0009893,0,0,0.0005302
163800000000,164100000000,5850685169,35,1340515,0.05011,0.03198,0.052,0.04285,0.04486,0.03888,0.01678,0.0003662,0.1396,0.06628,1.003,0.001055,0,0,0.0423
164100000000,164400000000,5850685169,35,1340515,0.01953,0.01694,0.04114,0.02789,0.03009,0.02676,0.005692,0.0003595,0.08752,0.06494,0.9745,0.0009954,0,0,0.06848
164700000000,165000000000,5850685169,35,1340515,0.001909,0.004463,0.01785,0.009872,0.01137,0.005135,2.766e-05,0.0003567,0.02893,0.002213,5.397,0.01703,0,0,0.0008526
165300000000,165600000000,5850685169,35,1340515,0.02719,0.01277,0.02676,0.01697,0.01859,0.039,0.008469,0.0003605,0.1533,0.06433,0.997,0.0009832,0,0,0.000391
165600000000,165900000000,5850685169,35,1340515,0.04944,0.03143,0.052,0.04205,0.04431,0.03906,0.01575,0.0003691,0.1387,0.0658,0.9751,0.0009373,0,0,0.1299
165900000000,166200000000,5850685169,35,1340515,0.02106,0.01672,0.03741,0.02527,0.02744,0.02628,0.005707,0.0003633,0.07642,0.06433,1.004,0.001066,0,0,0.01219
136500000000,136800000000,5850685169,35,1340515,0.01733,0.009293,0.02341,0.01465,0.01608,0.02991,0.00515,0.0003023,0.1379,0.03571,1.079,0.001328,0,0,0.0005445
136800000000,137100000000,5850685169,35,1340515,0.03015,0.02658,0.04138,0.03131,0.0332,0.03296,0.01425,0.0003147,0.1296,0.04999,1.001,0.0009307,0,0,0.07971
137100000000,137400000000,5850685169,35,1340515,0.04797,0.03137,0.0506,0.03979,0.04218,0.04053,0.01414,0.0003128,0.1528,0.05713,1.021,0.000977,0,0,0.1316
137700000000,138000000000,5850685169,35,1340515,0.002071,0.004433,0.01785,0.01181,0.01347,0.005501,2.003e-05,0.0003052,0.02762,0.001572,5.325,0.016,0,0,0.005585
138300000000,138600000000,5850685169,35,1340515,0.02686,0.01314,0.02722,0.01825,0.02011,0.03827,0.007767,0.000309,0.1587,0.06433,0.9783,0.0009434,0,0,0.0004072
138600000000,138900000000,5850685169,35,1340515,0.03091,0.02795,0.04883,0.03784,0.03986,0.03827,0.01117,0.0003128,0.1477,0.06787,0.9807,0.0009304,0,0,0.001371
138900000000,139200000000,5850685169,35,1340515,0.03815,0.02301,0.04596,0.03491,0.03693,0.03802,0.0116,0.0003138,0.1387,0.07141,1.007,0.0009838,0,0,0.06335
139500000000,139800000000,5850685169,35,1340515,0.001869,0.004478,0.01797,0.009232,0.01067,0.005447,2.384e-05,0.000309,0.02542,0.002857,5.483,0.01707,0,0,0.001005
140100000000,140400000000,5850685169,35,1340515,0.02911,0.01373,0.02765,0.01572,0.0173,0.03998,0.007668,0.0003119,0.158,0.06653,0.9774,0.0009368,0,0,0.07397
140400000000,140700000000,5850685169,35,1340515,0.04712,0.03055,0.0495,0.03882,0.04065,0.03998,0.01393,0.0003185,0.1431,0.06433,0.9498,0.000846,0,0,0.1331
140700000000,141000000000,5850685169,35,1340515,0.01923,0.01538,0.03073,0.0224,0.0239,0.02621,0.006035,0.0003138,0.09448,0.07141,1.006,0.0009595,0,0,0.001545
20700000000,21000000000,5850685169,35,1479089188,0.05627,0.03741,0.06116,0.04865,0.05096,0.04767,0.01445,0.0005541,0.1699,0.07263,1.09,0.001056,0,0,0.01456
21000000000,21300000000,5850685169,35,1479089188,0.002708,0.005745,0.02338,0.01112,0.01262,0.01157,1.24e-05,0.0005445,0.03516,0.002644,6.502,0.01647,0,0,0.001865
21300000000,21600000000,5850685169,35,1479089188,0.001947,0.005081,0.01941,0.008942,0.01038,0.005356,3.815e-06,0.0005445,0.03516,0.0001431,5.355,0.01424,0,0,0.0004158
21600000000,21900000000,5850685169,35,1479089188,0.001484,0.00544,0.01941,0.008957,0.01039,0.005585,3.815e-06,0.0005445,0.03516,0.0001431,4.178,0.01058,0,0,0.0002441
21900000000,22200000000,5850685169,35,1479089188,0.001478,0.005791,0.01941,0.008957,0.01039,0.00605,4.768e-06,0.0005445,0.03516,0.0006428,4.101,0.01058,0,0,0.0004463
22200000000,22500000000,5850685169,35,1479089188,0.05493,0.02356,0.03723,0.02628,0.02798,0.04694,0.01663,0.0005512,0.1641,0.07178,1.011,0.0009958,0,0,0.0009079
22500000000,22800000000,5850685169,35,1479089188,0.05219,0.03668,0.05841,0.04492,0.04724,0.04608,0.01328,0.0005569,0.1602,0.07996,1.037,0.001021,0,0,0.02795
22800000000,23100000000,5850685169,35,1479089188,0.002747,0.005913,0.02017,0.009872,0.01166,0.0105,4.768e-06,0.0005484,0.03711,0.0004997,6.744,0.01825,0,0,0.002068
23100000000,23400000000,5850685169,35,1479089188,0.001862,0.00515,0.01941,0.009445,0.01131,0.005341,3.815e-06,0.0005484,0.03711,0.0002146,5.092,0.01334,0,0,0.0009108
23400000000,23700000000,5850685169,35,1479089188,0.001427,0.005478,0.01941,0.009445,0.01129,0.00576,3.815e-06,0.0005484,0.03516,0.0001431,3.851,0.009346,0,0,0.0005503
23700000000,24000000000,5850685169,35,1479089188,0.001511,0.005867,0.01941,0.00946,0.01131,0.006073,2.861e-06,0.0005484,0.03711,0.0001431,4.145,0.01008,0,0,0.0004187
24000000000,24300000000,5850685169,35,1479089188,0.05023,0.02164,0.03546,0.02493,0.02689,0.04114,0.01485,0.000556,0.1445,0.07288,1.015,0.0008811,0,0,0.0009632
24300000000,24600000000,5850685169,35,1479089188,0.05792,0.03784,0.06049,0.04822,0.05048,0.04755,0.0163,0.0005608,0.168,0.07397,1.083,0.001025,0,0,0.002426
24600000000,24900000000,5850685169,35,1479089188,0.002628,0.006561,0.02377,0.01184,0.01326,0.01599,2.48e-05,0.0005512,0.03711,0.005569,5.803,0.01342,0,0,0.001835
25200000000,25500000000,5850685169,35,1479089188,0.001484,0.005478,0.01941,0.00914,0.01053,0.005745,3.815e-06,0.0005512,0.03906,0.0001431,3.87,0.009102,0,0,0.0004702
25500000000,25800000000,5850685169,35,1479089188,0.001438,0.005836,0.01941,0.009155,0.01053,0.006027,4.768e-06,0.0005512,0.03516,0.0004282,3.991,0.009851,0,0,0.0003414
60900000000,61200000000,5850685169,35,1479089188,0.002045,0.005089,0.01941,0.01004,0.01195,0.005333,3.815e-06,0.0005274,0.03516,0.0001431,6.36,0.01927,0,0,0.0006781
61200000000,61500000000,5850685169,35,1479089188,0.001589,0.005447,0.01944,0.01004,0.01195,0.005623,4.768e-06,0.0005274,0.03711,0.0002861,4.357,0.01178,0,0,0.000721
61500000000,61800000000,5850685169,35,1479089188,0.001556,0.005882,0.01944,0.01004,0.01198,0.006126,3.815e-06,0.0005274,0.03516,0.0001431,4.482,0.01232,0,0,0.000679
61800000000,62100000000,5850685169,35,1479089188,0.05243,0.02313,0.03693,0.02667,0.02875,0.0451,0.01712,0.000535,0.1589,0.07214,0.9962,0.0009951,0,0,0.1338
62100000000,62400000000,5850685169,35,1479089188,0.05743,0.03821,0.06036,0.04773,0.05011,0.04883,0.01482,0.0005398,0.1462,0.07166,1.063,0.001075,0,0,0.09094
62400000000,62700000000,5850685169,35,1479089188,0.003021,0.005844,0.02151,0.01006,0.01176,0.01157,5.722e-06,0.0005302,0.04102,0.0004282,6.967,0.02126,0,0,0.001999
62700000000,63000000000,5850685169,35,1479089188,0.002026,0.005196,0.01941,0.009094,0.01083,0.005363,5.722e-06,0.0005302,0.03516,0.0005713,5.826,0.01682,0,0,0.001469
63000000000,63300000000,5850685169,35,1479089188,0.001581,0.005585,0.01944,0.009109,0.01085,0.005867,4.768e-06,0.0005302,0.03516,0.0002146,4.575,0.01237,0,0,0.0005026
63300000000,63600000000,5850685169,35,1479089188,0.001492,0.00602,0.01944,0.009109,0.01086,0.006294,4.768e-06,0.0005302,0.03516,0.0002861,4.099,0.01058,0,0,0.0006418
63600000000,63900000000,5850685169,35,1479089188,0.05237,0.02365,0.03766,0.02682,0.02866,0.04712,0.0163,0.0005379,0.147,0.07458,0.9841,0.001007,0,0,0.08923
63900000000,64200000000,5850685169,35,1479089188,0.05524,0.03754,0.06116,0.04797,0.05029,0.04828,0.01463,0.0005436,0.1641,0.07251,1.019,0.0009724,0,0,0.1345
64200000000,64500000000,5850685169,35,1479089188,0.002663,0.005745,0.02118,0.01016,0.01144,0.009842,3.815e-06,0.0005341,0.03516,0.0002146,6.133,0.01588,0,0,0.001778
64500000000,64800000000,5850685169,35,1479089188,0.001842,0.005135,0.01941,0.009689,0.01103,0.005272,2.098e-05,0.0005341,0.03516,0.00293,5.115,0.01381,0,0,0.0007505
64800000000,65100000000,5850685169,35,1479089188,0.001438,0.005463,0.01944,0.009689,0.01102,0.005707,6.676e-06,0.0005341,0.03516,0.0009995,4.233,0.01132,0,0,0.0002699
65100000000,65400000000,5850685169,35,1479089188,0.001438,0.005798,0.01944,0.009705,0.01102,0.005981,4.768e-06,0.0005341,0.03516,0.0002146,4.155,0.01074,0,0,0.0007372
65400000000,65700000000,5850685169,35,1479089188,0.05243,0.02307,0.03699,0.02637,0.02802,0.04474,0.01639,0.0005407,0.1428,0.07202,1.007,0.0009795,0,0,0.000473
65700000000,66000000000,5850685169,35,1479089188,0.05542,0.03754,0.06061,0.04755,0.04987,0.0481,0.01593,0.0005445,0.1523,0.07458,1.047,0.0009999,0,0,0.1072
126000000000,126300000000,5850685169,35,1479089188,0.001524,0.005653,0.01944,0.009048,0.01051,0.005844,4.768e-06,0.0005312,0.05768,0.0004997,4.261,0.01111,0,0,0.001007
126300000000,126600000000,5850685169,35,1479089188,0.001537,0.006088,0.01944,0.009033,0.01048,0.006386,4.768e-06,0.0005312,0.0603,0.0002146,4.079,0.01057,0,0,0.0008516
126600000000,126900000000,5850685169,35,1479089188,0.05267,0.02341,0.03729,0.02597,0.02768,0.04645,0.01569,0.0005388,0.146,0.07458,1.025,0.0009863,0,0,0.1384
126900000000,127200000000,5850685169,35,1479089188,0.06226,0.03741,0.05884,0.04517,0.04749,0.04877,0.01779,0.0005455,0.1519,0.07361,1.051,0.001001,0,0,0.06787
127200000000,127500000000,5850685169,35,1479089188,0.002838,0.006599,0.02118,0.01331,0.01454,0.01468,4.768e-06,0.0005341,0.05927,0.0002146,6.076,0.01667,0,0,0.002048
127800000000,128100000000,5850685169,35,1479089188,0.001511,0.005493,0.01944,0.01202,0.01326,0.005768,5.722e-06,0.0005341,0.05658,0.0004997,4.195,0.01041,0,0,0.005966
128100000000,128400000000,5850685169,35,1479089188,0.001511,0.00589,0.01944,0.0119,0.01312,0.006126,5.722e-06,0.0005341,0.06165,0.0004997,4.274,0.01077,0,0,0.003193
128400000000,128700000000,5850685169,35,1479089188,0.0553,0.02386,0.03796,0.02786,0.02942,0.04694,0.01645,0.0005417,0.1523,0.07166,1.015,0.0009924,0,0,0.09448
128700000000,129000000000,5850685169,35,1479089188,0.06042,0.03955,0.05945,0.04626,0.04865,0.04791,0.01788,0.0005493,0.179,0.07178,1.065,0.001009,0,0,0.06433
129000000000,129300000000,5850685169,35,1479089188,0.00272,0.0065,0.02109,0.01308,0.01434,0.01505,4.768e-06,0.0005379,0.05688,0.0004997,6.026,0.01563,0,0,0.002228
129300000000,129600000000,5850685169,35,1479089188,0.001991,0.005127,0.01941,0.01201,0.0132,0.005287,4.768e-06,0.0005379,0.04419,0.0002861,4.8,0.01212,0,0,0.001207
129600000000,129900000000,5850685169,35,1479089188,0.001537,0.005493,0.01944,0.01199,0.01317,0.005669,8.583e-06,0.0005379,0.05865,0.001499,4.089,0.01003,0,0,0.0006876
129900000000,130200000000,5850685169,35,1479089188,0.001497,0.005936,0.01944,0.01198,0.01317,0.006294,4.768e-06,0.0005379,0.05927,0.0003567,3.995,0.009834,0,0,0.0005388
130200000000,130500000000,5850685169,35,1479089188,0.04669,0.02225,0.03662,0.02722,0.02872,0.04517,0.01849,0.0005474,0.146,0.07202,1.017,0.001018,0,0,0.02759
130500000000,130800000000,5850685169,35,1479089188,0.04791,0.03595,0.05573,0.04419,0.04657,0.04266,0.02176,0.0005493,0.1455,0.07153,1.084,0.001114,0,0,0.008789
130800000000,131100000000,5850685169,35,1479089188,0.02417,0.01733,0.03491,0.02054,0.02206,0.0318,0.009766,0.0005465,0.2148,0.05493,1.172,0.00129,0,0,0.001518
181500000000,181800000000,5850685169,35,1340515,0.02808,0.01328,0.02728,0.01669,0.01779,0.03851,0.00827,0.000392,0.1545,0.0647,0.9994,0.001001,0,0,0.0003843
181800000000,182100000000,5850685169,35,1340515,0.0517,0.03168,0.05109,0.04108,0.04309,0.03888,0.01709,0.0003986,0.1562,0.06433,1.022,0.0009812,0,0,0.06934
182100000000,182400000000,5850685169,35,1340515,0.02084,0.01465,0.03012,0.01932,0.02097,0.02716,0.006096,0.0003939,0.099,0.07141,1.052,0.00108,0,0,0.002289
182700000000,183000000000,5850685169,35,1340515,0.002018,0.004814,0.01898,0.01241,0.01335,0.005898,2.861e-05,0.000391,0.03192,0.002998,5.466,0.01708,0,0,0.001165
183300000000,183600000000,5850685169,35,1340515,0.02661,0.01321,0.02707,0.01895,0.02002,0.03833,0.008453,0.0003958,0.1602,0.07166,0.9953,0.0009769,0,0,0.0008335
183600000000,183900000000,5850685169,35,1340515,0.05206,0.03204,0.052,0.0426,0.04431,0.03839,0.01859,0.0004015,0.1377,0.06433,1.014,0.0009799,0,0,0.04419
183900000000,184200000000,5850685169,35,1340515,0.02142,0.01491,0.03104,0.01965,0.02106,0.026,0.006424,0.0003967,0.09338,0.07141,1.022,0.001012,0,0,0.01993
184500000000,184800000000,5850685169,35,1340515,0.001909,0.004692,0.01837,0.00946,0.01065,0.005119,3.242e-05,0.0003948,0.04224,0.003143,5.443,0.01714,0,0,0.0009623
185100000000,185400000000,5850685169,35,1340515,0.02701,0.01321,0.02725,0.01666,0.01807,0.03864,0.008774,0.0003986,0.1501,0.06445,0.9801,0.001008,0,0,0.02069
185400000000,185700000000,5850685169,35,1340515,0.05151,0.03143,0.05206,0.04297,0.04504,0.03864,0.01645,0.0004053,0.1401,0.06433,0.9887,0.0009685,0,0,0.06812
185700000000,186000000000,5850685169,35,1340515,0.02051,0.01642,0.04089,0.02893,0.03116,0.02625,0.006325,0.0004005,0.099,0.06433,1.045,0.001105,0,0,0.002178
40800000000,41100000000,5850685169,35,1479089188,0.002514,0.006325,0.02109,0.0132,0.01466,0.01382,1.526e-05,0.0005503,0.03711,0.003429,5.761,0.01482,0,0,0.002293
41400000000,41700000000,5850685169,35,1479089188,0.001438,0.005203,0.01944,0.01208,0.01352,0.005356,4.768e-06,0.0005503,0.03516,0.0002146,4.178,0.01069,0,0,0.0007992
41700000000,42000000000,5850685169,35,1479089188,0.001427,0.005539,0.01944,0.01208,0.01353,0.005714,8.583e-06,0.0005503,0.03516,0.001358,3.961,0.009884,0,0,0.0003805
42000000000,42300000000,5850685169,35,1479089188,0.04437,0.02133,0.03558,0.02658,0.02817,0.0426,0.01596,0.000556,0.1562,0.07336,1.033,0.00096,0,0,0.1237
42300000000,42600000000,5850685169,35,1479089188,0.06677,0.03668,0.05505,0.04382,0.04608,0.04193,0.01868,0.0005388,0.2676,0.07275,1.047,0.0009509,0,0,0.01816
42600000000,42900000000,5850685169,35,1479089188,0.002754,0.009644,0.0271,0.017,0.01868,0.02896,2.575e-05,0.0005245,0.03711,0.00457,2.968,0.005981,0,0,0.001657
43200000000,43500000000,5850685169,35,1479089188,0.001459,0.005127,0.01944,0.01163,0.01317,0.005302,1.621e-05,0.0005245,0.03516,0.003643,4.505,0.01145,0,0,0.0003881
43500000000,43800000000,5850685169,35,1479089188,0.001446,0.005424,0.01944,0.01164,0.01315,0.005669,3.815e-06,0.0005245,0.03711,0.0001431,4.173,0.01029,0,0,0.0003138
43800000000,44100000000,5850685169,35,1479089188,0.05182,0.02301,0.03729,0.02811,0.02991,0.04614,0.01862,0.0005312,0.1426,0.07434,0.9982,0.00096,0,0,0.0304
44100000000,44400000000,5850685169,35,1479089188,0.05536,0.03717,0.06097,0.04651,0.04877,0.04907,0.01593,0.000535,0.1621,0.07397,1.058,0.001007,0,0,0.1365
44400000000,44700000000,5850685169,35,1479089188,0.002571,0.005516,0.02005,0.01036,0.0117,0.009323,4.768e-06,0.0005274,0.03711,0.0002861,5.51,0.01351,0,0,0.002007
45000000000,45300000000,5850685169,35,1479089188,0.001413,0.005394,0.01938,0.01006,0.0114,0.005585,3.815e-06,0.0005274,0.0332,0.0002146,3.768,0.008983,0,0,0.0007496
45300000000,45600000000,5850685169,35,1479089188,0.001432,0.005737,0.01938,0.009995,0.01134,0.005974,6.676e-06,0.0005274,0.03516,0.0006428,4.393,0.01082,0,0,0.0008402
45600000000,45900000000,5850685169,35,1479089188,0.04779,0.02249,0.03656,0.02637,0.02802,0.04492,0.01697,0.000535,0.1453,0.0675,0.99,0.0009509,0,0,0.001335
30900000000,31200000000,5850685169,35,1479089188,0.001451,0.005692,0.01944,0.01057,0.01192,0.005882,3.815e-06,0.0005312,0.0332,7.153e-05,4.154,0.01091,0,0,0.005913
31200000000,31500000000,5850685169,35,1479089188,0.05609,0.02368,0.03778,0.0282,0.02985,0.04663,0.01782,0.0005388,0.144,0.07397,1.03,0.001032,0,0,0.09534
31500000000,31800000000,5850685169,35,1479089188,0.05066,0.03607,0.05701,0.04382,0.04602,0.04779,0.01396,0.0005445,0.166,0.07666,1.01,0.00096,0,0,0.002094
31800000000,32100000000,5850685169,35,1479089188,0.002697,0.005554,0.02014,0.0117,0.01308,0.01001,5.722e-06,0.000535,0.03711,0.0003567,6.289,0.01755,0,0,0.002426
32100000000,32400000000,5850685169,35,1479089188,0.001934,0.00499,0.01941,0.01129,0.01268,0.005241,3.815e-06,0.000535,0.03516,0.0002861,5.516,0.01532,0,0,0.001348
32400000000,32700000000,5850685169,35,1479089188,0.001549,0.00531,0.01944,0.01125,0.01262,0.00547,1.335e-05,0.000535,0.03711,0.003143,4.392,0.01179,0,0,0.0006666
32700000000,33000000000,5850685169,35,1479089188,0.001492,0.005669,0.01944,0.01114,0.01251,0.005905,3.815e-06,0.000535,0.03516,0.0002146,4.358,0.01168,0,0,0.000248
33000000000,33300000000,5850685169,35,1479089188,0.05573,0.02368,0.03778,0.02832,0.03,0.04675,0.01767,0.0005417,0.1555,0.07214,1.024,0.001039,0,0,0.1282
33300000000,33600000000,5850685169,35,1479089188,0.05176,0.03412,0.05798,0.04456,0.04688,0.04681,0.0139,0.0005474,0.3008,0.07312,1.039,0.001017,0,0,0.09595
33600000000,33900000000,5850685169,35,1479089188,0.002792,0.00544,0.02048,0.01035,0.01172,0.009857,4.768e-06,0.0005379,0.03516,0.0005713,6.683,0.01982,0,0,0.002491
33900000000,34200000000,5850685169,35,1479089188,0.001783,0.005035,0.01941,0.009995,0.01137,0.005173,6.676e-06,0.0005379,0.03516,0.0004282,4.984,0.01351,0,0,0.0003672
34200000000,34500000000,5850685169,35,1479089188,0.001438,0.005348,0.01941,0.01001,0.01138,0.005531,1.335e-05,0.0005379,0.03516,0.001499,3.915,0.01016,0,0,0.0006962
34500000000,34800000000,5850685169,35,1479089188,0.001451,0.005692,0.01941,0.01001,0.01138,0.005905,4.768e-06,0.0005379,0.03516,0.0002146,3.915,0.01002,0,0,0.0005398
34800000000,35100000000,5850685169,35,1479089188,0.04352,0.02103,0.03528,0.02518,0.02682,0.04095,0.01462,0.0005465,0.1641,0.0802,1.041,0.001015,0,0,0.04425
35100000000,35400000000,5850685169,35,1479089188,0.06958,0.03766,0.05646,0.04486,0.04712,0.04462,0.0188,0.0005522,0.1758,0.08447,1.094,0.001143,0,0,0.07092
35400000000,35700000000,5850685169,35,1479089188,0.003647,0.007591,0.02695,0.01451,0.01602,0.02188,3.815e-06,0.0005407,0.03906,0.0003567,9.817,0.03314,0,0,0.002098
176100000000,176400000000,5850685169,35,1340515,0.02676,0.01353,0.02747,0.01605,0.01767,0.03809,0.007965,0.0003824,0.1541,0.06982,0.9715,0.0009452,0,0,0.001406
176400000000,176700000000,5850685169,35,1340515,0.04999,0.03162,0.05017,0.04022,0.04236,0.03809,0.01639,0.0003891,0.1389,0.06433,0.9792,0.0009416,0,0,0.003887
176700000000,177000000000,5850685169,35,1340515,0.0192,0.01712,0.03644,0.02512,0.02722,0.02634,0.005821,0.0003834,0.09595,0.06158,1.033,0.001092,0,0,0.001341
177300000000,177600000000,5850685169,35,1340515,0.001904,0.004753,0.0191,0.008423,0.009521,0.005257,1.621e-05,0.0003805,0.03088,0.002285,5.47,0.0174,0,0,0.001337
177900000000,178200000000,5850685169,35,1340515,0.02515,0.01303,0.02689,0.01523,0.01642,0.03723,0.009033,0.0003853,0.1711,0.06433,0.9927,0.001028,0,0,0.01375
178200000000,178500000000,5850685169,35,1340515,0.01418,0.0199,0.03595,0.02737,0.0289,0.03729,0.007668,0.0003872,0.08972,0.07141,1.097,0.001386,0,0,0.001459
178500000000,178800000000,5850685169,35,1340515,0.001898,0.005684,0.01938,0.01247,0.01369,0.006111,2.575e-05,0.0003862,0.03052,0.002499,5.321,0.0174,0,0,0.00108
178800000000,179100000000,5850685169,35,1340515,0.03772,0.01663,0.03024,0.02057,0.02194,0.04846,0.01308,0.000391,0.1389,0.06433,1.017,0.001052,0,0,0.0004864
179100000000,179400000000,5850685169,35,1340515,0.03735,0.03143,0.0531,0.04083,0.04279,0.04749,0.01245,0.0003929,0.1382,0.06677,1.009,0.001103,0,0,0.001364
179400000000,179700000000,5850685169,35,1340515,0.002209,0.006065,0.02005,0.01045,0.01208,0.008911,2.193e-05,0.0003843,0.02808,0.001499,6.298,0.01995,0,0,0.001238
180000000000,180300000000,5850685169,35,1340515,0.05249,0.02991,0.04675,0.03613,0.03845,0.039,0.01917,0.0003958,0.2366,0.07861,0.9947,0.0009565,0,0,0.07068
180600000000,180900000000,5850685169,35,1340515,0.01974,0.01395,0.02826,0.02063,0.02188,0.01971,0.00515,0.000392,0.1404,0.07141,1.012,0.000962,0,0,0.06677
180900000000,181200000000,5850685169,35,1340515,0.001909,0.004639,0.01862,0.009369,0.01042,0.005035,1.335e-05,0.0003881,0.03125,0.001715,5.968,0.01931,0,0,0.00246
131700000000,132000000000,5850685169,35,1479089188,0.001446,0.005936,0.01944,0.00824,0.009186,0.006119,3.815e-06,0.0005417,0.04895,0.0001431,4.077,0.01028,0,0,0.0003815
132000000000,132300000000,5850685169,35,1479089188,0.04529,0.02277,0.03729,0.0256,0.02692,0.04791,0.02386,0.0005493,0.1812,0.07202,0.9808,0.0009198,0,0,0.01987
132300000000,132600000000,5850685169,35,1479089188,0.06873,0.03906,0.06079,0.04633,0.04877,0.0459,0.02325,0.000556,0.1975,0.07239,1.029,0.001014,0,0,0.002735
132600000000,132900000000,5850685169,35,1479089188,0.002785,0.008881,0.02512,0.01736,0.01877,0.02487,7.629e-06,0.0005445,0.07202,0.001072,6.803,0.0188,0,0,0.001593
133200000000,133500000000,5850685169,35,1479089188,0.001484,0.005379,0.01941,0.01274,0.01402,0.005524,5.722e-06,0.0005445,0.06158,0.0004282,4.455,0.0117,0,0,0.0007458
133800000000,134100000000,5850685169,35,1340515,0.02246,0.03156,0.0564,0.04309,0.04486,0.05743,0.01035,0.0001192,0.1431,0.04645,5.257,0.01422,0,0,0.01566
134100000000,134400000000,5850685169,35,1340515,0.00285,0.006523,0.02023,0.01094,0.01324,0.007225,1.431e-05,0.0001497,0.02588,0.001215,7.407,0.02341,0,0,0.002926
134400000000,134700000000,5850685169,35,1340515,0.001608,0.006905,0.02133,0.01054,0.01294,0.007446,2.766e-05,0.0001497,0.0231,0.002857,6.052,0.02003,0,0,0.0004873
135300000000,135600000000,5850685169,35,1340515,0.01981,0.01886,0.03839,0.02646,0.02869,0.03094,0.005737,0.0002661,0.09302,0.04315,1.03,0.001018,0,0,0.001495
135600000000,135900000000,5850685169,35,1340515,0.01929,0.01318,0.02762,0.0191,0.02063,0.02112,0.003628,0.0002947,0.08948,0.04309,1.006,0.0009559,0,0,0.002823
135900000000,136200000000,5850685169,35,1340515,0.001793,0.004044,0.01736,0.01074,0.0121,0.004593,1.812e-05,0.0003014,0.09863,0.001572,5.424,0.01688,0,0,0.0008841
186300000000,186600000000,5850685169,35,1340515,0.001842,0.004601,0.01828,0.007782,0.009003,0.005173,2.193e-05,0.0003986,0.02991,0.002857,5.281,0.01646,0,0,0.0008917
186900000000,187200000000,5850685169,35,1340515,0.02591,0.0128,0.02673,0.01463,0.01596,0.03754,0.008698,0.0004025,0.1543,0.07141,1.004,0.001008,0,0,0.0007896
187200000000,187500000000,5850685169,35,1340515,0.05243,0.03168,0.05127,0.04211,0.04425,0.03772,0.01697,0.0004091,0.1401,0.06921,1.004,0.001003,0,0,0.05334
187500000000,187800000000,5850685169,35,1340515,0.02081,0.01572,0.03253,0.02191,0.0238,0.02725,0.006248,0.0004044,0.09521,0.07141,1.016,0.001033,0,0,0.03308
188100000000,188400000000,5850685169,35,1340515,0.001831,0.004639,0.01843,0.008911,0.00972,0.005043,2.48e-05,0.0004015,0.03235,0.002213,5.221,0.01653,0,0,0.001295
188700000000,189000000000,5850685169,35,1340515,0.02698,0.01314,0.02707,0.0162,0.01718,0.03943,0.009506,0.0004053,0.1592,0.07141,0.9664,0.0009655,0,0,0.1321
189000000000,189300000000,5850685169,35,1340515,0.04871,0.02985,0.0498,0.03888,0.04071,0.03967,0.01605,0.000411,0.1384,0.06653,0.9416,0.00087,0,0,0.07446
189300000000,189600000000,5850685169,35,1340515,0.02017,0.0163,0.03705,0.02765,0.02939,0.02609,0.006889,0.0004072,0.09546,0.07068,0.9746,0.0009603,0,0,0.07153
189900000000,190200000000,5850685169,35,1340515,0.001852,0.004654,0.01868,0.009186,0.01015,0.005104,3.433e-05,0.0004053,0.0321,0.002213,4.964,0.01545,0,0,0.002243
190500000000,190800000000,5850685169,35,1340515,0.02634,0.01273,0.02652,0.01602,0.01715,0.03949,0.009293,0.0004091,0.1792,0.06445,0.9526,0.0009351,0,0,0.0009699
190800000000,191100000000,5850685169,35,1340515,0.04895,0.03137,0.05151,0.04089,0.04266,0.04004,0.01578,0.0004148,0.1472,0.06824,0.9653,0.0009089,0,0,0.06885
55800000000,56100000000,5850685169,35,1479089188,0.001516,0.005417,0.01941,0.009384,0.01122,0.005577,1.335e-05,0.0005465,0.0332,0.003143,4.342,0.01107,0,0,0.0004797
56100000000,56400000000,5850685169,35,1479089188,0.001556,0.005783,0.01941,0.009384,0.01122,0.006027,3.815e-06,0.0005465,0.03516,0.0001431,4.444,0.01177,0,0,0.0008154
56400000000,56700000000,5850685169,35,1479089188,0.05804,0.02441,0.03857,0.02789,0.02985,0.04889,0.01785,0.0005541,0.1458,0.07373,1.03,0.001037,0,0,0.08923
56700000000,57000000000,5850685169,35,1479089188,0.05194,0.03387,0.05396,0.04041,0.04248,0.04889,0.01414,0.0005579,0.1489,0.07495,1.017,0.001008,0,0,0.07874
57000000000,57300000000,5850685169,35,1479089188,0.002857,0.005432,0.01993,0.01212,0.0135,0.009491,3.815e-06,0.0005503,0.03711,0.0001431,6.578,0.01943,0,0,0.002537
57300000000,57600000000,5850685169,35,1479089188,0.001947,0.005165,0.01941,0.01175,0.01315,0.005371,3.815e-06,0.0005503,0.03516,0.0002861,5.724,0.01622,0,0,0.001667
57600000000,57900000000,5850685169,35,1479089188,0.001478,0.005455,0.01944,0.01176,0.01314,0.005615,3.815e-06,0.0005503,0.0332,0.0002861,4.581,0.01269,0,0,0.000701
57900000000,58200000000,5850685169,35,1479089188,0.001516,0.005814,0.01944,0.01175,0.01315,0.006004,1.335e-05,0.0005503,0.03516,0.00293,4.437,0.01237,0,0,0.0006256
58200000000,58500000000,5850685169,35,1479089188,0.05444,0.02371,0.03784,0.02856,0.03024,0.04712,0.01877,0.0005569,0.1445,0.07544,1.02,0.001038,0,0,0.1072
58500000000,58800000000,5850685169,35,1479089188,0.0553,0.03723,0.0603,0.04694,0.04926,0.04883,0.01515,0.000535,0.1699,0.07654,1.05,0.001052,0,0,0.1401
58800000000,59100000000,5850685169,35,1479089188,0.002937,0.005714,0.02017,0.01016,0.01193,0.009964,1.431e-05,0.0005245,0.03711,0.00293,6.901,0.02034,0,0,0.005829
59100000000,59400000000,5850685169,35,1479089188,0.001999,0.005127,0.01941,0.009842,0.01166,0.005356,1.335e-05,0.0005245,0.03516,0.00293,5.858,0.01754,0,0,0.003025
59400000000,59700000000,5850685169,35,1479089188,0.00153,0.00547,0.01941,0.009811,0.01163,0.005676,4.768e-06,0.0005245,0.03711,0.0002146,4.439,0.0123,0,0,0.00156
59700000000,60000000000,5850685169,35,1479089188,0.001595,0.00589,0.01941,0.009811,0.01164,0.006149,3.815e-06,0.0005245,0.03516,0.0001431,4.219,0.01126,0,0,0.0008736
60000000000,60300000000,5850685169,35,1479089188,0.05542,0.02414,0.03839,0.02789,0.02991,0.04852,0.01761,0.0005312,0.146,0.07373,1.005,0.001002,0,0,0.0006075
60300000000,60600000000,5850685169,35,1479089188,0.0545,0.0368,0.0614,0.04651,0.04883,0.04779,0.01456,0.0005369,0.1562,0.07532,1.068,0.001072,0,0,0.09143
60600000000,60900000000,5850685169,35,1479089188,0.002884,0.005745,0.02267,0.01091,0.01283,0.0105,3.815e-06,0.0005274,0.03906,0.0002146,6.535,0.01865,0,0,0.001455
111000000000,111300000000,5850685169,35,1479089188,0.002708,0.006683,0.02383,0.01407,0.01555,0.01794,4.768e-06,0.0005331,0.05383,0.0002861,6.76,0.01886,0,0,0.001274
111600000000,111900000000,5850685169,35,1479089188,0.001484,0.005363,0.01944,0.01132,0.0127,0.005524,5.722e-06,0.0005331,0.03516,0.0007858,3.9,0.009387,0,0,0.0002584
111900000000,112200000000,5850685169,35,1479089188,0.001511,0.00573,0.01944,0.01129,0.01268,0.005959,3.815e-06,0.0005331,0.06128,0.0002146,4.44,0.01173,0,0,0.0006189
112200000000,112500000000,5850685169,35,1479089188,0.05261,0.02344,0.03754,0.02823,0.02991,0.04669,0.01987,0.0005407,0.1428,0.07166,1.001,0.0009593,0,0,0.0005112
112500000000,112800000000,5850685169,35,1479089188,0.0625,0.0376,0.05951,0.04449,0.04688,0.04871,0.01636,0.0005465,0.1724,0.07178,1.074,0.001005,0,0,0.06506
112800000000,113100000000,5850685169,35,1479089188,0.00272,0.006157,0.0206,0.01323,0.01462,0.01213,5.722e-06,0.000536,0.05103,0.0007858,5.925,0.0152,0,0,0.002731
113400000000,113700000000,5850685169,35,1479089188,0.001511,0.00544,0.01944,0.01225,0.01361,0.005684,3.815e-06,0.000536,0.04419,0.0001431,4.356,0.01166,0,0,0.000803
113700000000,114000000000,5850685169,35,1479089188,0.001549,0.005821,0.01944,0.01216,0.0135,0.006035,1.621e-05,0.000536,0.04974,0.00293,4.305,0.0112,0,0,0.000474
114000000000,114300000000,5850685169,35,1479089188,0.05054,0.02325,0.03729,0.02823,0.02991,0.04663,0.01907,0.0005436,0.1641,0.07178,1.017,0.0009496,0,0,0.07837
114300000000,114600000000,5850685169,35,1479089188,0.06519,0.039,0.05988,0.04547,0.04779,0.04834,0.01801,0.0005503,0.2617,0.073,1.088,0.001122,0,0,0.111
114600000000,114900000000,5850685169,35,1479089188,0.002773,0.00631,0.02084,0.01242,0.0137,0.01431,6.676e-06,0.0005398,0.05713,0.0007143,6.144,0.01624,0,0,0.006996
114900000000,115200000000,5850685169,35,1479089188,0.002071,0.00515,0.01944,0.01137,0.01263,0.00544,7.629e-06,0.0005398,0.05963,0.001215,5.507,0.0145,0,0,0.00181
115200000000,115500000000,5850685169,35,1479089188,0.001497,0.005531,0.01944,0.01135,0.01263,0.005684,1.335e-05,0.0005398,0.06219,0.002785,4.111,0.01044,0,0,0.0006161
115500000000,115800000000,5850685169,35,1479089188,0.001459,0.005913,0.01944,0.01125,0.01253,0.006256,9.537e-06,0.0005398,0.04156,0.001928,4.061,0.01015,0,0,0.00135
115800000000,116100000000,5850685169,35,1479089188,0.05182,0.02399,0.03827,0.02869,0.0303,0.04803,0.02014,0.0005474,0.1548,0.07385,1.021,0.0009756,0,0,0.06
81000000000,81300000000,5850685169,35,1479089188,0.00157,0.005432,0.01944,0.01263,0.01376,0.005653,3.815e-06,0.000535,0.03516,0.0002146,4.251,0.01063,0,0,0.0005445
81300000000,81600000000,5850685169,35,1479089188,0.001478,0.005798,0.01944,0.0125,0.01363,0.00605,3.815e-06,0.000535,0.03516,0.0001431,4.341,0.01098,0,0,0.001015
81600000000,81900000000,5850685169,35,1479089188,0.04901,0.02267,0.03668,0.02756,0.02905,0.04498,0.01776,0.0005426,0.1699,0.07642,1.034,0.0009798,0,0,0.1274
81900000000,82200000000,5850685169,35,1479089188,0.06604,0.0401,0.05914,0.04755,0.04993,0.04657,0.01755,0.0005493,0.2656,0.07166,1.086,0.001041,0,0,0.002083
82200000000,82500000000,5850685169,35,1479089188,0.002533,0.007225,0.02426,0.01357,0.01498,0.02115,5.722e-06,0.0005379,0.03711,0.0003567,5.398,0.01311,0,0,0.001724
82800000000,83100000000,5850685169,35,1479089188,0.001459,0.005379,0.01944,0.01096,0.0123,0.005569,3.815e-06,0.0005379,0.03516,0.0002861,4.003,0.009774,0,0,0.001011
83100000000,83400000000,5850685169,35,1479089188,0.001492,0.005699,0.01944,0.01096,0.01227,0.005997,3.815e-06,0.0005379,0.03516,7.153e-05,4.146,0.01051,0,0,0.002155
83400000000,83700000000,5850685169,35,1479089188,0.05511,0.0231,0.03711,0.02695,0.02859,0.04657,0.01663,0.0005445,0.2266,0.07166,1.048,0.001021,0,0,0.00136
83700000000,84000000000,5850685169,35,1479089188,0.0614,0.03644,0.05786,0.04553,0.04785,0.04413,0.01581,0.0005522,0.2695,0.07178,1.084,0.001042,0,0,0.08362
84000000000,84300000000,5850685169,35,1479089188,0.003139,0.006172,0.02795,0.01434,0.01572,0.01488,4.768e-06,0.0005417,0.03516,0.0002861,8.322,0.02407,0,0,0.001852
84600000000,84900000000,5850685169,35,1479089188,0.001511,0.005333,0.01941,0.009384,0.01056,0.00547,4.768e-06,0.0005417,0.03516,0.0002861,4.535,0.0117,0,0,0.000412
84900000000,85200000000,5850685169,35,1479089188,0.001516,0.005615,0.01944,0.009369,0.01054,0.005829,4.768e-06,0.0005417,0.03711,0.0002146,4.883,0.01311,0,0,0.0006485
85200000000,85500000000,5850685169,35,1479089188,0.0495,0.02185,0.03668,0.02582,0.02728,0.04492,0.01758,0.0005493,0.1953,0.07178,1.051,0.0009914,0,0,0.0005722
85500000000,85800000000,5850685169,35,1479089188,0.06812,0.03644,0.05658,0.04358,0.0459,0.04382,0.01657,0.000556,0.2637,0.07166,1.106,0.001088,0,0,0.05127
156300000000,156600000000,5850685169,35,1340515,0.026,0.01266,0.02652,0.01488,0.01605,0.03888,0.008392,0.0003433,0.2593,0.06653,0.972,0.0009735,0,0,0.001427
156600000000,156900000000,5850685169,35,1340515,0.04956,0.0318,0.05188,0.04163,0.0437,0.039,0.01555,0.00035,0.1477,0.07141,0.962,0.0009399,0,0,0.07153
156900000000,157200000000,5850685169,35,1340515,0.01923,0.01657,0.03857,0.02847,0.0304,0.0253,0.005783,0.0003452,0.1107,0.07141,1.007,0.001043,0,0,0.001841
157500000000,157800000000,5850685169,35,1340515,0.00182,0.004875,0.0191,0.009369,0.01071,0.005386,1.049e-05,0.0003433,0.02878,0.001215,5.066,0.01612,0,0,0.001394
158100000000,158400000000,5850685169,35,1340515,0.02609,0.01357,0.02722,0.01636,0.01782,0.03833,0.008591,0.0003471,0.1521,0.07141,0.9669,0.0009749,0,0,0.0004721
158400000000,158700000000,5850685169,35,1340515,0.04846,0.03137,0.05157,0.04053,0.04266,0.03845,0.01477,0.0003529,0.1421,0.06775,0.9518,0.0009149,0,0,0.01666
158700000000,159000000000,5850685169,35,1340515,0.02011,0.01648,0.04071,0.02725,0.02933,0.02637,0.005692,0.000349,0.0957,0.07202,0.989,0.001027,0,0,0.001768
159300000000,159600000000,5850685169,35,1340515,0.001808,0.004974,0.01938,0.01262,0.01433,0.00621,1.431e-05,0.0003462,0.02814,0.001572,4.926,0.01549,0,0,0.0009336
159900000000,160200000000,5850685169,35,1340515,0.02588,0.01306,0.02686,0.01849,0.02026,0.03864,0.00824,0.000351,0.1489,0.06433,0.962,0.0009867,0,0,0.07654
160200000000,160500000000,5850685169,35,1340515,0.0481,0.03131,0.05139,0.03979,0.04211,0.0387,0.0163,0.0003595,0.1426,0.06177,1.001,0.001033,0,0,0.0009155
160500000000,160800000000,5850685169,35,1340515,0.02139,0.01788,0.04163,0.02966,0.03204,0.02841,0.006088,0.0003529,0.08911,0.06506,0.9865,0.001032,0,0,0.001898
600000000,900000000,5850685169,35,1479089188,0.0575,0.02396,0.03748,0.0267,0.02838,0.04712,0.01709,0.0005426,0.145,0.07178,1.045,0.001028,0,0,0.08923
900000000,1200000000,5850685169,35,1479089188,0.05127,0.03571,0.0592,0.04614,0.04834,0.04938,0.01234,0.0005484,0.1621,0.07166,1.073,0.001057,0,0,0.001923
1200000000,1500000000,5850685169,35,1479089188,0.002865,0.005951,0.02029,0.01204,0.01323,0.01022,3.815e-06,0.0005398,0.03711,0.0002861,6.64,0.01804,0,0,0.002052
1500000000,1800000000,5850685169,35,1479089188,0.001987,0.005386,0.01944,0.009232,0.0105,0.005592,3.815e-06,0.0005398,0.03906,0.0002861,5.293,0.01406,0,0,0.0009146
1800000000,2100000000,5850685169,35,1479089188,0.001556,0.005791,0.01944,0.009247,0.0105,0.006119,3.815e-06,0.0005398,0.03516,0.0001431,4.432,0.01117,0,0,0.0006409
2100000000,2400000000,5850685169,35,1479089188,0.001562,0.006271,0.01944,0.009247,0.0105,0.006546,3.815e-06,0.0005398,0.03711,0.0002146,3.952,0.0101,0,0,0.000761
2400000000,2700000000,5850685169,35,1479089188,0.0531,0.02393,0.03821,0.02667,0.02829,0.04706,0.01758,0.0005465,0.1448,0.07532,1.017,0.0009863,0,0,0.0004683
2700000000,3000000000,5850685169,35,1479089188,0.05292,0.03748,0.06061,0.0473,0.04962,0.04767,0.01286,0.0005541,0.1602,0.07263,1.058,0.001092,0,0,0.1313
3000000000,3300000000,5850685169,35,1479089188,0.002785,0.00631,0.02286,0.01036,0.01154,0.0146,1.335e-05,0.0005426,0.03711,0.00293,5.962,0.01527,0,0,0.002411
3300000000,3600000000,5850685169,35,1479089188,0.001953,0.005348,0.01944,0.008926,0.0101,0.005524,6.676e-06,0.0005426,0.03516,0.0009995,5.506,0.01479,0,0,0.0006418
3600000000,3900000000,5850685169,35,1479089188,0.001524,0.005775,0.01944,0.00885,0.01004,0.006065,1.335e-05,0.0005426,0.0332,0.00293,4.044,0.01011,0,0,0.001648
3900000000,4200000000,5850685169,35,1479089188,0.001537,0.00621,0.01944,0.008865,0.01001,0.00647,1.335e-05,0.0005426,0.03711,0.00293,4.168,0.01056,0,0,0.0005579
4200000000,4500000000,5850685169,35,1479089188,0.05127,0.02292,0.03687,0.02536,0.02682,0.04297,0.01593,0.0005503,0.1523,0.073,1.069,0.001039,0,0,0.07031
4500000000,4800000000,5850685169,35,1479089188,0.05463,0.03632,0.05743,0.04364,0.04578,0.04865,0.01505,0.0005531,0.168,0.0741,1.036,0.00101,0,0,0.03125
4800000000,5100000000,5850685169,35,1479089188,0.002811,0.00589,0.0202,0.01114,0.01242,0.01109,3.815e-06,0.0005465,0.03711,0.0002146,6.258,0.01664,0,0,0.002365
5100000000,5400000000,5850685169,35,1479089188,0.002018,0.005333,0.01944,0.0107,0.01205,0.005539,3.815e-06,0.0005465,0.05957,0.0003567,5.578,0.01496,0,0,0.000433
5400000000,5700000000,5850685169,35,1479089188,0.001549,0.00573,0.01944,0.01068,0.01202,0.006004,4.768e-06,0.0005465,0.03516,0.0002146,4.211,0.01075,0,0,0.0005484
116100000000,116400000000,5850685169,35,1479089188,0.06299,0.03723,0.06067,0.04565,0.04803,0.04791,0.01648,0.0005531,0.1875,0.07397,1.073,0.00105,0,0,0.03949
116400000000,116700000000,5850685169,35,1479089188,0.002773,0.006035,0.02075,0.01128,0.01282,0.01172,1.144e-05,0.0005426,0.04144,0.001999,6.393,0.01792,0,0,0.002872
116700000000,117000000000,5850685169,35,1479089188,0.001991,0.005257,0.01941,0.01062,0.01218,0.005478,4.768e-06,0.0005426,0.03656,0.0002861,5.499,0.01449,0,0,0.001219
117000000000,117300000000,5850685169,35,1479089188,0.001459,0.005585,0.01944,0.01057,0.01212,0.005745,3.815e-06,0.0005426,0.05463,0.0002146,4.195,0.0107,0,0,0.000349
117300000000,117600000000,5850685169,35,1479089188,0.001497,0.005974,0.01944,0.01053,0.01207,0.006218,1.621e-05,0.0005426,0.05341,0.002998,4.257,0.01079,0,0,0.0008965
117600000000,117900000000,5850685169,35,1479089188,0.04944,0.02319,0.03729,0.02734,0.02914,0.04645,0.01813,0.0005503,0.1462,0.07166,1.017,0.0009727,0,0,0.05859
117900000000,118200000000,5850685169,35,1479089188,0.06641,0.03973,0.06085,0.04694,0.04926,0.04797,0.0191,0.0005579,0.2422,0.07275,1.068,0.001068,0,0,0.001122
118200000000,118500000000,5850685169,35,1479089188,0.00293,0.007065,0.02301,0.01352,0.01486,0.01608,7.629e-06,0.0005465,0.04901,0.0008574,7.045,0.0195,0,0,0.002399
118800000000,119100000000,5850685169,35,1479089188,0.001484,0.005417,0.01944,0.01199,0.01329,0.0056,4.768e-06,0.0005465,0.05646,0.0002861,4.252,0.01136,0,0,0.0003595
119100000000,119400000000,5850685169,35,1479089188,0.001471,0.005737,0.01944,0.01195,0.01323,0.005913,3.815e-06,0.0005465,0.05835,0.0002146,4.295,0.01118,0,0,0.0004749
119400000000,119700000000,5850685169,35,1479089188,0.04999,0.02182,0.03577,0.02652,0.02814,0.04224,0.01923,0.0005541,0.1453,0.07324,1.042,0.000995,0,0,0.09497
119700000000,120000000000,5850685169,35,1479089188,0.06567,0.03931,0.0575,0.04584,0.0481,0.04773,0.01868,0.0005512,0.1787,0.07935,1.084,0.001157,0,0,0.1379
120000000000,120300000000,5850685169,35,1479089188,0.002838,0.006798,0.02222,0.01561,0.01691,0.01785,1.431e-05,0.0005207,0.03516,0.003284,6.332,0.01666,0,0,0.002949
120600000000,120900000000,5850685169,35,1479089188,0.001471,0.005341,0.01944,0.01093,0.01218,0.005577,4.768e-06,0.0005207,0.05774,0.0002861,4.162,0.01089,0,0,0.0007811
15900000000,16200000000,5850685169,35,1479089188,0.001842,0.004791,0.01855,0.009476,0.01064,0.004951,1.049e-05,0.000536,0.03711,0.001785,6.305,0.01826,0,0,0.0009155
16200000000,16500000000,5850685169,35,1479089188,0.001392,0.005112,0.01941,0.00943,0.0106,0.005295,1.144e-05,0.000536,0.03516,0.002144,3.961,0.009863,0,0,0.001085
16500000000,16800000000,5850685169,35,1479089188,0.001392,0.005386,0.01941,0.009277,0.01047,0.005615,4.768e-06,0.000536,0.03516,0.0002861,4.334,0.01127,0,0,0.0005484
16800000000,17100000000,5850685169,35,1479089188,0.05194,0.02277,0.03741,0.02701,0.02853,0.04688,0.017,0.0005436,0.1428,0.07202,1.03,0.0009862,0,0,0.000473
17100000000,17400000000,5850685169,35,1479089188,0.05536,0.03455,0.05499,0.04181,0.04401,0.04395,0.01471,0.0005474,0.1641,0.07202,1.052,0.001019,0,0,0.0752
17400000000,17700000000,5850685169,35,1479089188,0.002747,0.005692,0.01965,0.0127,0.01407,0.01228,3.815e-06,0.0005388,0.03711,0.0002146,7.035,0.01937,0,0,0.001511
18000000000,18300000000,5850685169,35,1479089188,0.001459,0.005196,0.01944,0.011,0.01225,0.005379,4.768e-06,0.0005388,0.03516,0.0002146,4.233,0.01103,0,0,0.005272
18300000000,18600000000,5850685169,35,1479089188,0.001413,0.005493,0.01944,0.011,0.01224,0.005699,3.815e-06,0.0005388,0.03516,0.0002146,4.325,0.01137,0,0,0.0004826
18600000000,18900000000,5850685169,35,1479089188,0.0528,0.02277,0.03705,0.02805,0.02957,0.04498,0.01828,0.0005455,0.1504,0.07324,1.031,0.0009898,0,0,0.0351
18900000000,19200000000,5850685169,35,1479089188,0.05347,0.03601,0.06018,0.0473,0.04956,0.04724,0.01398,0.0005512,0.1543,0.07544,1.083,0.001063,0,0,0.00544
19200000000,19500000000,5850685169,35,1479089188,0.002609,0.00547,0.02072,0.01019,0.01141,0.009201,4.768e-06,0.0005417,0.03516,0.0002146,6.383,0.01679,0,0,0.001629
19500000000,19800000000,5850685169,35,1479089188,0.001848,0.00499,0.01941,0.01004,0.01128,0.005249,1.431e-05,0.0005417,0.03516,0.002499,5.402,0.0143,0,0,0.0001869
19800000000,20100000000,5850685169,35,1479089188,0.001471,0.005318,0.01941,0.01004,0.01126,0.005478,3.815e-06,0.0005417,0.03516,0.0002146,4.034,0.01022,0,0,0.0008488
20100000000,20400000000,5850685169,35,1479089188,0.001471,0.005684,0.01941,0.01003,0.01128,0.00592,2.861e-06,0.0005417,0.03516,7.153e-05,4.261,0.01091,0,0,0.00102
20400000000,20700000000,5850685169,35,1479089188,0.05096,0.02283,0.03717,0.02707,0.02863,0.04602,0.01749,0.0005484,0.1462,0.07422,1.014,0.0009778,0,0,0.08533
36000000000,36300000000,5850685169,35,1479089188,0.001432,0.005241,0.01944,0.009506,0.01085,0.00547,4.768e-06,0.0005407,0.03516,0.0002861,3.943,0.01023,0,0,0.0006914
36300000000,36600000000,5850685169,35,1479089188,0.001459,0.005562,0.01944,0.009506,0.01085,0.005714,3.815e-06,0.0005407,0.03516,0.0001431,4.192,0.01126,0,0,0.001087
36600000000,36900000000,5850685169,35,1479089188,0.05389,0.02335,0.0376,0.02725,0.02893,0.04663,0.01804,0.0005484,0.1484,0.07874,1.021,0.001001,0,0,0.0002127
36900000000,37200000000,5850685169,35,1479089188,0.05383,0.03485,0.05792,0.04456,0.04688,0.04645,0.01392,0.000556,0.166,0.07446,1.081,0.00104,0,0,0.04358
37200000000,37500000000,5850685169,35,1479089188,0.002682,0.005585,0.02029,0.01181,0.01328,0.009766,3.815e-06,0.0005445,0.03711,0.0002146,6.148,0.01714,0,0,0.002007
37500000000,37800000000,5850685169,35,1479089188,0.001848,0.005035,0.01941,0.01155,0.01305,0.005211,3.815e-06,0.0005445,0.03516,0.0001431,5.313,0.01503,0,0,0.001463
37800000000,38100000000,5850685169,35,1479089188,0.001438,0.005348,0.01944,0.01155,0.01303,0.005615,3.815e-06,0.0005445,0.03516,0.0002146,3.889,0.009999,0,0,0.0001831
38100000000,38400000000,5850685169,35,1479089188,0.001432,0.005676,0.01944,0.01155,0.01303,0.005844,3.815e-06,0.0005445,0.03906,0.0001431,3.995,0.01048,0,0,0.0008669
38400000000,38700000000,5850685169,35,1479089188,0.05029,0.02237,0.03674,0.0274,0.02917,0.04474,0.01715,0.0005522,0.1489,0.07349,1.049,0.0009819,0,0,0.1265
38700000000,39000000000,5850685169,35,1479089188,0.06018,0.03632,0.0564,0.04382,0.04614,0.04254,0.01648,0.0005617,0.1418,0.07263,1.079,0.001053,0,0,0.1343
39000000000,39300000000,5850685169,35,1479089188,0.002975,0.008072,0.02377,0.01346,0.01488,0.02548,1.335e-05,0.0005474,0.03711,0.00293,6.847,0.01965,0,0,0.001923
39600000000,39900000000,5850685169,35,1479089188,0.001562,0.005287,0.01944,0.008972,0.01031,0.005424,4.768e-06,0.0005474,0.03711,0.0002146,4.816,0.01357,0,0,0.0006618
39900000000,40200000000,5850685169,35,1479089188,0.001537,0.005608,0.01944,0.008942,0.01027,0.005768,2.861e-06,0.0005474,0.03711,0.0002146,4.403,0.01156,0,0,0.001081
40200000000,40500000000,5850685169,35,1479089188,0.04724,0.02194,0.03625,0.02536,0.02695,0.04449,0.01736,0.000556,0.1465,0.07166,1.022,0.0009578,0,0,0.1377
40500000000,40800000000,5850685169,35,1479089188,0.06165,0.03772,0.05719,0.04285,0.04504,0.04565,0.0181,0.0005608,0.2578,0.07166,1.03,0.0009732,0,0,0.09473
75900000000,76200000000,5850685169,35,1479089188,0.001465,0.005943,0.01944,0.008911,0.01044,0.006195,4.768e-06,0.0005245,0.03516,0.0002861,3.921,0.009755,0,0,0.005211
76200000000,76500000000,5850685169,35,1479089188,0.05493,0.02405,0.03839,0.02725,0.02911,0.04871,0.01804,0.0005322,0.1418,0.07458,1.034,0.001012,0,0,0.1333
76500000000,76800000000,5850685169,35,1479089188,0.05811,0.0365,0.0611,0.04559,0.04797,0.04846,0.01529,0.0005369,0.1875,0.07532,1.021,0.0009236,0,0,0.07019
76800000000,77100000000,5850685169,35,1479089188,0.002518,0.005905,0.02133,0.01459,0.01578,0.01154,1.049e-05,0.0005283,0.03711,0.001858,6.022,0.01548,0,0,0.002029
77100000000,77400000000,5850685169,35,1479089188,0.001926,0.005058,0.01941,0.01114,0.01236,0.005234,3.815e-06,0.0005283,0.03711,0.0002146,4.55,0.01145,0,0,0.001137
77400000000,77700000000,5850685169,35,1479089188,0.001465,0.005417,0.01944,0.01048,0.0117,0.005585,5.722e-06,0.0005283,0.03711,0.0002146,4.02,0.009883,0,0,0.0003586
77700000000,78000000000,5850685169,35,1479089188,0.001471,0.005775,0.01944,0.01048,0.01169,0.006004,8.583e-06,0.0005283,0.03711,0.001499,4.093,0.01028,0,0,0.0002851
78000000000,78300000000,5850685169,35,1479089188,0.05042,0.02316,0.03754,0.02762,0.02917,0.04614,0.01816,0.000536,0.1443,0.07166,1.024,0.0009678,0,0,0.0004158
78300000000,78600000000,5850685169,35,1479089188,0.06146,0.03497,0.05682,0.04156,0.04382,0.0434,0.01639,0.0005436,0.1758,0.07153,1.067,0.001023,0,0,0.1357
78600000000,78900000000,5850685169,35,1479089188,0.00267,0.006874,0.02158,0.01494,0.01633,0.01752,4.768e-06,0.0005312,0.03711,0.0002146,6.053,0.01622,0,0,0.002151
79200000000,79500000000,5850685169,35,1479089188,0.001427,0.005379,0.01944,0.01265,0.01405,0.005531,7.629e-06,0.0005312,0.03516,0.001215,4.064,0.01044,0,0,0.0006905
79500000000,79800000000,5850685169,35,1479089188,0.001373,0.005707,0.01944,0.01233,0.01373,0.005898,2.861e-06,0.0005312,0.03516,0.0001431,3.887,0.009619,0,0,0.0005465
79800000000,80100000000,5850685169,35,1479089188,0.05206,0.02249,0.0368,0.02698,0.02866,0.04498,0.01627,0.0005388,0.2441,0.07166,1.008,0.0009343,0,0,0.1328
80100000000,80400000000,5850685169,35,1479089188,0.06274,0.0379,0.05823,0.04449,0.04675,0.04724,0.01541,0.0005445,0.1409,0.07373,1.09,0.001016,0,0,0.09949
80400000000,80700000000,5850685169,35,1479089188,0.002831,0.006111,0.02063,0.01357,0.01471,0.01344,8.583e-06,0.000535,0.03711,0.0009995,6.162,0.01607,0,0,0.001421
80700000000,81000000000,5850685169,35,1479089188,0.00209,0.005081,0.01941,0.01268,0.01382,0.005257,3.815e-06,0.000535,0.03906,0.0001431,5.778,0.0152,0,0,0.001709
10800000000,11100000000,5850685169,35,1479089188,0.001308,0.005486,0.01944,0.009888,0.01111,0.005653,3.815e-06,0.0005264,0.0332,0.0002146,3.571,0.008573,0,0,0.0003052
11100000000,11400000000,5850685169,35,1479089188,0.001303,0.00589,0.01944,0.009903,0.01112,0.006096,3.815e-06,0.0005264,0.03516,0.0002861,3.225,0.00742,0,0,0.004601
11400000000,11700000000,5850685169,35,1479089188,0.05371,0.02353,0.03766,0.02734,0.0289,0.04834,0.01724,0.0005331,0.1641,0.07263,0.9837,0.0009129,0,0,0.1384
11700000000,12000000000,5850685169,35,1479089188,0.04956,0.03571,0.06207,0.0473,0.04962,0.04944,0.01254,0.0005379,0.166,0.07239,0.9837,0.0008824,0,0,0.04047
12000000000,12300000000,5850685169,35,1479089188,0.002201,0.005524,0.02039,0.008987,0.01106,0.009705,2.575e-05,0.0005293,0.03516,0.003429,4.683,0.01138,0,0,0.001308
12300000000,12600000000,5850685169,35,1479089188,0.001732,0.004959,0.01941,0.008575,0.01067,0.005211,7.629e-06,0.0005293,0.03711,0.001072,4.436,0.01097,0,0,0.001184
12600000000,12900000000,5850685169,35,1479089188,0.001556,0.00528,0.01941,0.008423,0.0105,0.00544,1.144e-05,0.0005302,0.03711,0.002285,4.454,0.01088,0,0,0.0008736
12900000000,13200000000,5850685169,35,1479089188,0.001497,0.005615,0.01941,0.008301,0.01039,0.005844,2.861e-06,0.0005302,0.03516,0.0001431,4.672,0.01185,0,0,0.0003471
13200000000,13500000000,5850685169,35,1479089188,0.05646,0.02368,0.03821,0.02689,0.02899,0.04755,0.01562,0.0005369,0.2598,0.07288,1.077,0.001019,0,0,0.0007763
13500000000,13800000000,5850685169,35,1479089188,0.05438,0.03491,0.05957,0.04272,0.04492,0.04828,0.01433,0.0005417,0.1836,0.07544,1.087,0.0009957,0,0,0.1348
13800000000,14100000000,5850685169,35,1479089188,0.002651,0.00544,0.01999,0.01263,0.01416,0.008957,3.815e-06,0.0005331,0.03906,0.0002861,5.872,0.01442,0,0,0.00219
14100000000,14400000000,5850685169,35,1479089188,0.001837,0.005028,0.01941,0.01227,0.01384,0.005272,4.768e-06,0.0005331,0.03711,0.0002146,4.901,0.01214,0,0,0.0004759
14400000000,14700000000,5850685169,35,1479089188,0.001381,0.005325,0.01944,0.01228,0.01382,0.005478,4.768e-06,0.0005331,0.03516,0.0002146,3.721,0.008862,0,0,0.001829
14700000000,15000000000,5850685169,35,1479089188,0.001335,0.005661,0.01944,0.01219,0.01375,0.005867,1.335e-05,0.0005331,0.03516,0.00293,3.946,0.009778,0,0,0.0007362
15000000000,15300000000,5850685169,35,1479089188,0.05377,0.02322,0.03754,0.02847,0.0303,0.04633,0.01764,0.0005398,0.1426,0.07458,1.037,0.0009677,0,0,0.07397
15300000000,15600000000,5850685169,35,1479089188,0.05237,0.03473,0.05939,0.04498,0.04718,0.04962,0.01347,0.0005445,0.1699,0.073,1.026,0.0009325,0,0,0.01118
15600000000,15900000000,5850685169,35,1479089188,0.002449,0.005318,0.01923,0.01057,0.01184,0.00856,1.24e-05,0.000536,0.03516,0.001429,6.151,0.0155,0,0,0.002209
