6900000000,7200000000,6117800987,0,207834076,2.956e-05,0.000555,0.007751,0.002178,0.002579,0.0005589,0,2.384e-05,0.0001812,7.153e-05,13.89,0.06832,0,0,4.578e-05
7200000000,7500000000,6117800987,0,207834076,3.147e-05,0.0005589,0.007751,0.002174,0.002579,0.0005665,9.537e-07,2.384e-05,0.0005283,0.0003567,12.77,0.06119,0,0,4.768e-05
7500000000,7800000000,6117800987,0,207834076,3.052e-05,0.0005522,0.007751,0.002174,0.002579,0.0005569,1.907e-06,2.384e-05,0.0002747,0.0005713,12.2,0.05806,0,0,2.861e-05
7800000000,8100000000,6117800987,0,207834076,3.147e-05,0.0005541,0.007751,0.002174,0.002579,0.0005598,0,2.384e-05,0.0001774,0.0001431,11.66,0.05356,0,0,2.098e-05
8100000000,8400000000,6117800987,0,207834076,2.956e-05,0.0005503,0.007751,0.001535,0.001938,0.0005522,0,2.384e-05,0.0001554,0,20.22,0.1026,0,0,2.193e-05
8400000000,8700000000,6117800987,0,207834076,3.052e-05,0.0005512,0.007751,0.0006609,0.001064,0.0005541,0,2.384e-05,0.0003853,7.153e-05,13.72,0.06737,0,0,1.431e-05
8700000000,9000000000,6117800987,0,207834076,3.147e-05,0.0005512,0.007751,0.0004349,0.0008364,0.000555,0,2.384e-05,0.0003014,7.153e-05,11.5,0.05298,0,0,2.289e-05
9000000000,9300000000,6117800987,0,207834076,3.052e-05,0.0005512,0.007751,0.0004349,0.0008364,0.0005541,0,2.384e-05,0.0001869,7.153e-05,12.18,0.05692,0,0,3.052e-05
9300000000,9600000000,6117800987,0,207834076,3.147e-05,0.0005484,0.007751,0.0004349,0.0008364,0.0005493,0,2.384e-05,0.0001345,0,16.72,0.08136,0,0,2.861e-05
9600000000,9900000000,6117800987,0,207834076,3.147e-05,0.0005503,0.007751,0.0004349,0.0008364,0.0005531,0,2.384e-05,0.0004263,7.153e-05,20.01,0.09807,0,0,2.861e-05
10500000000,10800000000,6117800987,0,1436331127,0.0008669,0.005272,0.01138,0.007744,0.008118,0.02167,0.0005398,2.384e-05,0.05853,0.06134,1.098,0.001755,0,0,1.144e-05
11100000000,11400000000,6117800987,0,1436331127,3.433e-05,0.0005159,0.005829,0.0002918,0.0006285,0.000535,3.91e-05,2.384e-05,0.0003157,0.006645,23.72,0.1144,0,0,2.861e-06
11400000000,11700000000,6117800987,0,1436331127,3.529e-05,0.0005007,0.005829,0.0002947,0.0006313,0.0005016,0,2.384e-05,0.0001583,0,24.58,0.1167,0,0,3.338e-05
11700000000,12000000000,6117800987,0,1436331127,3.624e-05,0.0005045,0.005829,0.0002947,0.0006313,0.0005102,9.537e-07,2.384e-05,0.0001993,0.0001431,25.96,0.1198,0,0,6.294e-05
12000000000,12300000000,6117800987,0,1436331127,3.624e-05,0.0005007,0.005829,0.0002947,0.0006313,0.0005007,0,2.384e-05,0.0002012,0,25.47,0.1166,0,0,2.003e-05
12300000000,12600000000,6117800987,0,1436331127,3.815e-05,0.0005026,0.005829,0.0002947,0.0006313,0.0005054,0,2.384e-05,0.0002527,7.153e-05,30.04,0.1318,0,0,1.335e-05
12600000000,12900000000,6117800987,0,1436331127,3.529e-05,0.0005026,0.005829,0.0002947,0.0006313,0.0005064,0,2.384e-05,0.0002432,7.153e-05,28.43,0.1283,0,0,1.431e-05
12900000000,13200000000,6117800987,0,1436331127,3.624e-05,0.0005016,0.005829,0.0002947,0.0006313,0.0005054,0,2.384e-05,0.0002251,7.153e-05,28.4,0.1284,0,0,3.433e-05
13200000000,13500000000,6117800987,0,1436331127,3.529e-05,0.0004997,0.005829,0.0002947,0.0006313,0.0004997,0,2.384e-05,0.0002079,0,26.66,0.1264,0,0,3.242e-05
13500000000,13800000000,6117800987,0,1436331127,3.433e-05,0.0005007,0.005829,0.0002947,0.0006313,0.0005035,0,2.384e-05,0.0001993,7.153e-05,26.33,0.1262,0,0,9.537e-06
13800000000,14100000000,6117800987,0,1436331127,3.242e-05,0.0004978,0.005829,0.0002947,0.0006313,0.0004988,0,2.384e-05,0.0002165,0,25.3,0.1257,0,0,1.717e-05
14100000000,14400000000,6117800987,0,1436331127,3.242e-05,0.0005007,0.005829,0.0002947,0.0006313,0.0005035,0,2.384e-05,0.000268,7.153e-05,25.4,0.126,0,0,4.005e-05
14400000000,14700000000,6117800987,0,1436331127,3.147e-05,0.0004978,0.005829,0.0002947,0.0006313,0.0004988,0,2.384e-05,0.0001945,0,24.78,0.126,0,0,4.864e-05
14700000000,15000000000,6117800987,0,1436331127,3.242e-05,0.0005016,0.005829,0.0002947,0.0006313,0.0005083,9.537e-07,2.384e-05,0.0001612,0.0001431,25.28,0.124,0,0,4.578e-05
15000000000,15300000000,6117800987,0,1436331127,3.433e-05,0.0004978,0.005829,0.0002947,0.0006313,0.0004978,0,2.384e-05,0.0002327,0,26.36,0.1265,0,0,3.815e-06
15300000000,15600000000,6117800987,0,1436331127,3.433e-05,0.0004997,0.005829,0.0002947,0.0006313,0.0005026,0,2.384e-05,0.0002394,7.153e-05,26.25,0.1279,0,0,8.774e-05
15600000000,15900000000,6117800987,0,1436331127,3.529e-05,0.0004978,0.005829,0.0002947,0.0006313,0.0004978,0,2.384e-05,0.0004091,0,25.78,0.1254,0,0,2.67e-05
15900000000,16200000000,6117800987,0,1436331127,3.624e-05,0.0004997,0.005829,0.0002947,0.0006313,0.0005026,0,2.384e-05,0.0003185,7.153e-05,28.3,0.1301,0,0,2.003e-05
16200000000,16500000000,6117800987,0,1436331127,3.433e-05,0.0004978,0.005829,0.0002947,0.0006313,0.0004978,0,2.384e-05,0.0002632,0,26.46,0.1275,0,0,5.627e-05
16500000000,16800000000,6117800987,0,1436331127,3.719e-05,0.0004997,0.005829,0.0002947,0.0006313,0.0005026,0,2.384e-05,0.001787,7.153e-05,28.7,0.1323,0,0,0.0001459
16800000000,17100000000,6117800987,0,1436331127,3.433e-05,0.0004978,0.005829,0.0002947,0.0006313,0.0004978,0,2.384e-05,0.0002365,0,26.88,0.1289,0,0,5.341e-05
17100000000,17400000000,6117800987,0,1436331127,3.433e-05,0.0004997,0.005829,0.0002947,0.0006313,0.0005026,0,2.384e-05,0.0002403,7.153e-05,24.96,0.1205,0,0,1.049e-05
17400000000,17700000000,6117800987,0,1436331127,3.242e-05,0.0004969,0.005829,0.0002947,0.0006313,0.0004978,0,2.384e-05,0.0002909,0,26.47,0.1251,0,0,5.722e-05
17700000000,18000000000,6117800987,0,1436331127,3.242e-05,0.0004988,0.005829,0.0002947,0.0006313,0.0005016,0,2.384e-05,0.0002356,7.153e-05,25.42,0.124,0,0,3.624e-05
18000000000,18300000000,6117800987,0,1436331127,3.242e-05,0.0004969,0.005829,0.0002947,0.0006313,0.0004969,0,2.384e-05,0.0002499,0,26.07,0.1277,0,0,4.768e-05
18300000000,18600000000,6117800987,0,1436331127,3.338e-05,0.0004978,0.005829,0.0002947,0.0006313,0.0005016,0,2.384e-05,0.0003433,7.153e-05,25.86,0.1251,0,0,0.0001516
18600000000,18900000000,6117800987,0,1436331127,3.433e-05,0.0004988,0.005829,0.0002947,0.0006313,0.0005026,0,2.384e-05,0.0003004,7.153e-05,26.62,0.1251,0,0,3.433e-05
18900000000,19200000000,6117800987,0,1436331127,3.433e-05,0.0004978,0.005829,0.0002947,0.0006313,0.0005016,0,2.384e-05,0.0003099,7.153e-05,26.48,0.1268,0,0,0.0001163
19200000000,19500000000,6117800987,0,1436331127,3.529e-05,0.0004959,0.005829,0.0002947,0.0006313,0.0004959,0,2.384e-05,0.000289,0,26.65,0.1279,0,0,4.959e-05
19500000000,19800000000,6117800987,0,1436331127,3.242e-05,0.0004978,0.005829,0.0002947,0.0006313,0.0005007,0,2.384e-05,0.0002899,7.153e-05,25.67,0.1243,0,0,1.335e-05
19800000000,20100000000,6117800987,0,1436331127,3.529e-05,0.0004959,0.005829,0.0002947,0.0006313,0.0004959,0,2.384e-05,0.000246,0,26.47,0.1272,0,0,8.869e-05
20100000000,20400000000,6117800987,0,1436331127,3.433e-05,0.0004978,0.005829,0.0002947,0.0006313,0.0005007,0,2.384e-05,0.0003672,7.153e-05,26.73,0.1288,0,0,2.956e-05
20400000000,20700000000,6117800987,0,1436331127,3.433e-05,0.0004959,0.005829,0.0002947,0.0006313,0.0004959,0,2.384e-05,0.0002851,0,28.24,0.1287,0,0,2.003e-05
20700000000,21000000000,6117800987,0,1436331127,3.624e-05,0.0004978,0.005829,0.0002947,0.0006313,0.0005007,0,2.384e-05,0.0002356,7.153e-05,27.92,0.131,0,0,3.529e-05
21000000000,21300000000,6117800987,0,1436331127,3.719e-05,0.0004959,0.005829,0.0002947,0.0006313,0.0004959,0,2.384e-05,0.0001736,0,28.35,0.1296,0,0,1.907e-05
21300000000,21600000000,6117800987,0,1436331127,3.242e-05,0.0004978,0.005829,0.0002947,0.0006323,0.0005007,0,2.384e-05,0.0001345,7.153e-05,27.63,0.1277,0,0,2.766e-05
21600000000,21900000000,6117800987,0,1436331127,3.242e-05,0.0004959,0.005829,0.0002947,0.0006323,0.0004959,0,2.384e-05,0.0001469,0,25.49,0.1254,0,0,1.24e-05
21900000000,22200000000,6117800987,0,1436331127,3.338e-05,0.0004969,0.005829,0.0002947,0.0006323,0.0004997,0,2.384e-05,0.0002365,7.153e-05,25.9,0.126,0,0,2.193e-05
22200000000,22500000000,6117800987,0,1436331127,3.242e-05,0.000495,0.005829,0.0002947,0.0006323,0.000495,0,2.384e-05,0.0002136,0,24.68,0.1192,0,0,2.956e-05
22500000000,22800000000,6117800987,0,1436331127,3.242e-05,0.0004997,0.005829,0.0002975,0.0006351,0.0005064,3.815e-06,2.384e-05,0.0001745,0.0009995,23.58,0.1162,0,0,3.147e-05
22800000000,23100000000,6117800987,0,1436331127,3.242e-05,0.000495,0.005829,0.0002985,0.0006361,0.000495,0,2.384e-05,0.000165,0,25.17,0.1225,0,0,1.431e-05
23100000000,23400000000,6117800987,0,1436331127,3.147e-05,0.0004959,0.005829,0.0002985,0.0006361,0.0004988,0,2.384e-05,0.0001526,7.153e-05,25.97,0.1258,0,0,3.815e-05
23400000000,23700000000,6117800987,0,1436331127,3.147e-05,0.000494,0.005829,0.0002985,0.0006361,0.000494,0,2.384e-05,0.0001402,0,25.95,0.1242,0,0,2.956e-05
23700000000,24000000000,6117800987,0,1436331127,3.433e-05,0.0004959,0.005829,0.0002985,0.0006361,0.0004988,0,2.384e-05,0.0002136,7.153e-05,26.35,0.1269,0,0,2.766e-05
24000000000,24300000000,6117800987,0,1436331127,3.338e-05,0.000494,0.005829,0.0002985,0.0006361,0.000494,0,2.384e-05,0.0002022,0,25.96,0.1248,0,0,5.722e-06
24300000000,24600000000,6117800987,0,1436331127,3.242e-05,0.0004959,0.005829,0.0002985,0.0006361,0.0004988,0,2.384e-05,0.0001287,7.153e-05,23.57,0.1153,0,0,4.196e-05
24600000000,24900000000,6117800987,0,1436331127,3.147e-05,0.000494,0.005829,0.0002985,0.0006361,0.000494,0,2.384e-05,0.0001783,0,23.27,0.1154,0,0,4.482e-05
24900000000,25200000000,6117800987,0,1436331127,3.242e-05,0.0004959,0.005829,0.0002985,0.0006361,0.0004988,0,2.384e-05,0.0001688,7.153e-05,23.1,0.1141,0,0,1.907e-05
25200000000,25500000000,6117800987,0,1436331127,3.815e-05,0.000494,0.005829,0.0002985,0.0006361,0.000494,0,2.384e-05,0.0002127,0,26.44,0.1192,0,0,3.147e-05
25500000000,25800000000,6117800987,0,1436331127,3.719e-05,0.0004959,0.005829,0.0002985,0.0006361,0.0004988,0,2.384e-05,0.0001822,7.153e-05,25.97,0.1188,0,0,3.147e-05
25800000000,26100000000,6117800987,0,1436331127,3.815e-05,0.0004959,0.005829,0.0002985,0.0006361,0.0004997,0,2.384e-05,0.0001545,7.153e-05,27.77,0.1219,0,0,5.054e-05
26100000000,26400000000,6117800987,0,1436331127,3.815e-05,0.0004959,0.005829,0.0002985,0.0006361,0.0004988,0,2.384e-05,0.0004721,7.153e-05,25.95,0.1197,0,0,7.153e-05
26400000000,26700000000,6117800987,0,1436331127,3.815e-05,0.000494,0.005829,0.0002985,0.0006361,0.000494,0,2.384e-05,0.0001602,0,27.48,0.1206,0,0,5.817e-05
26700000000,27000000000,6117800987,0,1436331127,3.719e-05,0.0004959,0.005829,0.0002985,0.0006361,0.0004988,0,2.384e-05,0.0002031,7.153e-05,28.32,0.1276,0,0,1.621e-05
27000000000,27300000000,6117800987,0,1436331127,3.529e-05,0.000493,0.005829,0.0002985,0.0006361,0.000493,0,2.384e-05,0.0001945,0,26.89,0.1268,0,0,3.338e-05
27300000000,27600000000,6117800987,0,1436331127,3.338e-05,0.000495,0.005829,0.0002985,0.0006361,0.0004978,0,2.384e-05,0.0002337,7.153e-05,25.8,0.1271,0,0,8.774e-05
27600000000,27900000000,6117800987,0,1436331127,3.624e-05,0.000493,0.005829,0.0002985,0.0006361,0.000493,0,2.384e-05,0.0002918,0,26.75,0.1274,0,0,3.815e-05
27900000000,28200000000,6117800987,0,1436331127,3.433e-05,0.000495,0.005829,0.0002985,0.0006361,0.0004978,0,2.384e-05,0.0001678,7.153e-05,27.13,0.127,0,0,1.621e-05
28200000000,28500000000,6117800987,0,1436331127,3.433e-05,0.000493,0.005829,0.0002985,0.0006361,0.000493,0,2.384e-05,0.0001898,0,27.13,0.1281,0,0,3.338e-05
28500000000,28800000000,6117800987,0,1436331127,3.624e-05,0.000494,0.005966,0.0002995,0.0006371,0.0004978,1.907e-06,2.384e-05,0.0002184,0.0005713,29.24,0.1309,0,0,1.049e-05
30000000000,30300000000,6117800987,0,7627181,3.91e-05,0.0005884,0.00769,0.001509,0.001911,0.0006018,1.907e-06,2.384e-05,0.0002222,0.0004997,7.39,0.02587,0,0,5.722e-06
30300000000,30600000000,6117800987,0,7627181,3.624e-05,0.000577,0.00769,0.0004253,0.0008278,0.0005894,0,2.384e-05,0.000226,0,9.003,0.03439,0,0,2.861e-05
30600000000,30900000000,6117800987,0,7627181,3.529e-05,0.0005798,0.00769,0.0004148,0.0008173,0.0005856,9.537e-07,2.384e-05,0.0001717,0.0002146,12.73,0.05141,0,0,3.338e-05
30900000000,31200000000,6117800987,0,7627181,3.529e-05,0.000576,0.00769,0.0004148,0.0008173,0.0005789,0,2.384e-05,0.0001268,0,11.55,0.04573,0,0,7.057e-05
31200000000,31500000000,6117800987,0,7627181,3.433e-05,0.0005779,0.00769,0.0004148,0.0008173,0.0005808,9.537e-07,2.384e-05,0.0005331,0.0002861,8.605,0.03244,0,0,0.0005331
31500000000,31800000000,6117800987,0,7627181,3.338e-05,0.0005751,0.00769,0.0004158,0.0008173,0.000576,0,2.384e-05,0.000206,0,12.86,0.05271,0,0,2.861e-05
31800000000,32100000000,6117800987,0,7627181,3.529e-05,0.0005779,0.00769,0.0004158,0.0008173,0.0005836,9.537e-07,2.384e-05,0.0001469,0.0001431,11.43,0.04691,0,0,6.676e-06
32100000000,32400000000,6117800987,0,7627181,3.624e-05,0.0005741,0.00769,0.0004158,0.0008173,0.0005751,0,2.384e-05,0.0002537,0,7.82,0.02898,0,0,2.861e-06
32400000000,32700000000,6117800987,0,7627181,3.433e-05,0.0005751,0.00769,0.0004158,0.0008173,0.0005779,0,2.384e-05,0.0002108,7.153e-05,13.11,0.05321,0,0,5.436e-05
32700000000,33000000000,6117800987,0,7627181,3.338e-05,0.0005722,0.00769,0.0004158,0.0008183,0.0005732,0,2.384e-05,0.0001869,0,11.99,0.0475,0,0,9.251e-05
33000000000,33300000000,6117800987,0,7627181,3.338e-05,0.000577,0.00769,0.0004158,0.0008183,0.0005836,0,2.384e-05,0.000289,7.153e-05,8.42,0.03243,0,0,1.717e-05
33300000000,33600000000,6117800987,0,7627181,3.338e-05,0.0005722,0.00769,0.0004158,0.0008183,0.0005722,0,2.384e-05,0.0002098,0,7.881,0.03006,0,0,7.629e-06
33600000000,33900000000,6117800987,0,7627181,3.433e-05,0.0005741,0.00769,0.0004158,0.0008183,0.000577,0,2.384e-05,0.0001945,7.153e-05,8.53,0.03223,0,0,2.861e-06
33900000000,34200000000,6117800987,0,7627181,3.433e-05,0.0005713,0.00769,0.0004158,0.0008183,0.0005722,0,2.384e-05,0.0002546,0,7.836,0.02906,0,0,5.341e-05
34200000000,34500000000,6117800987,0,7627181,3.433e-05,0.000576,0.00769,0.0004158,0.0008183,0.000577,9.537e-07,2.384e-05,0.000186,0.0001431,7.83,0.02959,0,0,3.815e-05
34500000000,34800000000,6117800987,0,7627181,3.147e-05,0.0005713,0.00769,0.0004158,0.0008183,0.0005713,0,2.384e-05,0.0001755,0,6.865,0.02711,0,0,2.384e-05
34800000000,35100000000,6117800987,0,7627181,3.242e-05,0.0005722,0.00769,0.0004158,0.0008183,0.000576,0,2.384e-05,0.0001688,7.153e-05,7.332,0.0279,0,0,2.861e-06
35100000000,35400000000,6117800987,0,7627181,3.433e-05,0.0005703,0.00769,0.0004158,0.0008183,0.0005713,0,2.384e-05,0.0001631,0,7.619,0.02888,0,0,2.193e-05
35400000000,35700000000,6117800987,0,7627181,3.338e-05,0.0005722,0.00769,0.0004158,0.0008183,0.0005741,0,2.384e-05,0.0002975,7.153e-05,11.13,0.04512,0,0,2.575e-05
35700000000,36000000000,6117800987,0,7627181,3.338e-05,0.0005693,0.00769,0.0004158,0.0008183,0.0005703,0,2.384e-05,0.0001812,0,7.603,0.02971,0,0,3.815e-06
36000000000,36300000000,6117800987,0,7627181,3.529e-05,0.0005722,0.00769,0.0004158,0.0008183,0.0005751,0,2.384e-05,0.0001707,7.153e-05,7.561,0.02765,0,0,1.526e-05
37200000000,37500000000,6117800987,0,1270372,3.052e-05,0.001717,0.008499,0.001846,0.002216,0.009079,2.861e-06,2.384e-05,0.0004139,0.0002861,1.463,0.0001185,0,0,1.431e-05
38400000000,38700000000,6117800987,0,905607,3.052e-05,0.0006418,0.007736,0.001041,0.001442,0.0006485,1.907e-06,2.384e-05,0.0002108,0.0002146,23.45,0.126,0,0,0.0001097
38700000000,39000000000,6117800987,0,905607,3.338e-05,0.0006428,0.007729,0.0008707,0.001272,0.0006552,9.537e-07,2.384e-05,0.0002966,0.0001431,25.67,0.1297,0,0,2.289e-05
39000000000,39300000000,6117800987,0,905607,3.242e-05,0.0006304,0.007736,0.00033,0.0007324,0.000638,0,2.384e-05,0.0005236,0.0001431,25.94,0.1322,0,0,1.717e-05
39300000000,39600000000,6117800987,0,905607,3.147e-05,0.0006313,0.007736,0.00033,0.0007324,0.000638,0,2.384e-05,0.0001774,7.153e-05,23.1,0.1187,0,0,8.583e-06
54600000000,54900000000,6117800987,0,2054974398,3.242e-05,0.0006752,0.007736,0.001408,0.001808,0.0006866,9.537e-07,2.384e-05,0.0001717,7.153e-05,25.75,0.1291,0,0,1.907e-06
57300000000,57600000000,6117800987,0,1436306605,3.147e-05,0.0005541,0.00589,0.0007296,0.001123,0.0006332,9.537e-07,2.384e-05,0.0002823,0.0002146,25.46,0.1251,0,0,4.005e-05
57600000000,57900000000,6117800987,0,1436306605,2.956e-05,0.0005426,0.005829,0.000556,0.0009279,0.0006227,3.815e-06,2.384e-05,0.0001755,0.0009995,24.41,0.1226,0,0,9.537e-07
57900000000,58200000000,6117800987,0,1436306605,3.052e-05,0.000536,0.005829,0.0005579,0.0009289,0.0005398,0,2.384e-05,0.0002174,7.153e-05,24.22,0.1236,0,0,1.526e-05
58200000000,58500000000,6117800987,0,1436306605,3.052e-05,0.0005322,0.005829,0.0005579,0.0009289,0.0005341,0,2.384e-05,0.000185,0,23.03,0.1196,0,0,1.049e-05
58500000000,58800000000,6117800987,0,1436306605,3.052e-05,0.0005341,0.005829,0.0005579,0.0009289,0.0005379,0,2.384e-05,0.000186,7.153e-05,23.26,0.1223,0,0,1.621e-05
58800000000,59100000000,6117800987,0,1436306605,3.052e-05,0.0005341,0.005829,0.0005579,0.0009289,0.0005379,0,2.384e-05,0.0001621,7.153e-05,24.8,0.1249,0,0,2.67e-05
59100000000,59400000000,6117800987,0,1436306605,2.956e-05,0.0005341,0.005829,0.0005569,0.0009279,0.0005369,0,2.384e-05,0.0003862,1.049e-05,23.49,0.1236,0,0,3.338e-05
59400000000,59700000000,6117800987,0,1436306605,2.861e-05,0.0005322,0.005829,0.0005569,0.0009279,0.0005331,0,2.384e-05,0.0001421,0,23.27,0.1229,0,0,1.049e-05
59700000000,60000000000,6117800987,0,1436306605,2.861e-05,0.0005331,0.005829,0.0005569,0.0009279,0.0005369,0,2.384e-05,0.000145,7.153e-05,23.23,0.1216,0,0,9.537e-06
60000000000,60300000000,6117800987,0,1436306605,2.861e-05,0.0005322,0.005829,0.0005569,0.0009279,0.0005331,0,2.384e-05,0.0001965,0,22.8,0.1184,0,0,7.629e-06
60300000000,60600000000,6117800987,0,1436306605,2.956e-05,0.0005331,0.005829,0.0005569,0.0009279,0.000536,0,2.384e-05,0.0001659,7.153e-05,22.02,0.112,0,0,4.387e-05
60600000000,60900000000,6117800987,0,1436306605,3.052e-05,0.0005341,0.005829,0.0005569,0.0009279,0.0005379,0,2.384e-05,0.0001869,7.153e-05,22.43,0.1184,0,0,5.722e-06
71400000000,71700000000,6117800987,0,2197486180,0.002739,0.00515,0.01184,0.006157,0.006523,0.01974,0.002258,2.384e-05,0.0589,0.07275,1.237,0.002536,0,0,1.812e-05
76200000000,76500000000,6117800987,0,38649756,2.766e-05,0.0005217,0.007751,0.004822,0.005226,0.0005264,9.537e-07,2.384e-05,0.0002213,7.153e-05,7.709,0.03517,0,0,7.057e-05
76500000000,76800000000,6117800987,0,38649756,2.766e-05,0.0005217,0.007751,0.004822,0.005226,0.0005274,9.537e-07,2.384e-05,0.0002108,7.153e-05,8.174,0.03869,0,0,1.049e-05
79800000000,80100000000,6117800987,0,336051749,0.003498,0.006538,0.01302,0.009247,0.009583,0.01801,0.004684,2.289e-05,0.06702,0.05444,1.79,0.004678,0,0,0.006248
80700000000,81000000000,6117800987,0,336071721,2.861e-05,0.000576,0.007751,0.0008821,0.001284,0.0006733,1.907e-06,2.384e-05,0.0002241,0.0004282,12.26,0.06037,0,0,0.0002241
90600000000,90900000000,6117800987,0,332422675,0.003891,0.004135,0.009918,0.007812,0.007996,0.01114,0.004356,2.193e-05,0.04938,0.03229,0.9835,0.001313,0,0,0.002686
101100000000,101400000000,6117800987,0,3349925635,2.956e-05,0.000597,0.007751,0.002037,0.002438,0.0006008,0,2.384e-05,0.0004921,0,25.46,0.129,0,0,2.956e-05
104700000000,105000000000,6117800987,0,638204,0.004288,0.007668,0.01387,0.009949,0.01025,0.021,0.005447,2.289e-05,0.05927,0.06445,0.9294,0.001009,0,0,1.144e-05
105300000000,105600000000,6117800987,0,638204,3.624e-05,0.0005093,0.005829,0.0001755,0.0004473,0.0005236,4.578e-05,2.384e-05,0.0004816,0.007141,28.71,0.1307,0,0,5.436e-05
108600000000,108900000000,6117800987,0,705638,2.766e-05,0.001316,0.008133,0.004051,0.004456,0.005341,1.907e-06,2.384e-05,0.0001955,0.0002146,9.046,0.04685,0,0,4.768e-06
109200000000,109500000000,6117800987,0,705638,2.67e-05,0.0005655,0.007729,0.00124,0.001644,0.0005798,9.537e-07,2.384e-05,0.0001564,0.0001431,12.64,0.06776,0,0,4.768e-06
109500000000,109800000000,6117800987,0,705638,2.861e-05,0.0005569,0.007736,0.001234,0.001638,0.0005646,0,2.384e-05,0.0001574,7.153e-05,10.65,0.0508,0,0,2.861e-06
109800000000,110100000000,6117800987,0,705638,2.766e-05,0.0005569,0.007736,0.001234,0.001638,0.0005646,0,2.384e-05,0.000145,0.0001431,15.04,0.07911,0,0,3.815e-06
110100000000,110400000000,6117800987,0,705638,2.67e-05,0.0005569,0.007736,0.001234,0.001638,0.0005636,0,2.384e-05,0.0001411,7.153e-05,14.63,0.07818,0,0,5.722e-05
110400000000,110700000000,6117800987,0,705638,3.052e-05,0.000556,0.007736,0.001234,0.001638,0.0005636,0,2.384e-05,0.0001554,0,12.06,0.05834,0,0,1.144e-05
110700000000,111000000000,6117800987,0,705638,3.147e-05,0.000556,0.007736,0.001234,0.001638,0.0005589,9.537e-07,2.384e-05,0.0001764,0.0001431,10.27,0.04711,0,0,2.48e-05
116100000000,116400000000,6117800987,0,3812887306,3.338e-05,0.0008459,0.007759,0.004265,0.004669,0.002308,1.907e-06,2.384e-05,0.0002117,0.0001431,25.51,0.1249,0,0,7.629e-06
118800000000,119100000000,6117800987,0,3602529582,3.052e-05,0.0006981,0.007767,0.002201,0.002602,0.001638,1.907e-06,2.384e-05,0.0004816,0.0002146,12.95,0.06219,0,0,2.861e-06
119100000000,119400000000,6117800987,0,3602529582,3.052e-05,0.0005608,0.007767,0.0007477,0.001148,0.0005646,9.537e-07,2.384e-05,0.00174,0.0001431,15.05,0.07401,0,0,2.861e-06
126600000000,126900000000,6117800987,0,3671608850,2.956e-05,0.003567,0.0106,0.009293,0.009689,0.01865,3.815e-06,2.384e-05,0.002533,0.0004282,1.513,0.003784,0,0,1.431e-05
128100000000,128400000000,6117800987,0,4303334363,2.575e-05,0.0006609,0.007751,0.001633,0.002033,0.001228,9.537e-07,2.384e-05,0.000576,0.0001431,11.61,0.06324,0,0,1.812e-05
128700000000,129000000000,6117800987,0,4303334363,3.147e-05,0.0005608,0.007751,0.000432,0.0008345,0.0005693,0,2.384e-05,0.0004454,7.153e-05,13.93,0.06919,0,0,6.485e-05
129000000000,129300000000,6117800987,0,4303334363,3.338e-05,0.000556,0.007751,0.0004244,0.0008268,0.0005598,0,2.384e-05,0.0007887,7.153e-05,10.57,0.04623,0,0,3.719e-05
129300000000,129600000000,6117800987,0,4303334363,3.242e-05,0.0005569,0.007751,0.0004244,0.0008268,0.0005598,0,2.384e-05,0.0003929,7.153e-05,10.91,0.05188,0,0,4.101e-05
129600000000,129900000000,6117800987,0,4303334363,2.861e-05,0.0005541,0.007751,0.0004244,0.0008268,0.0005579,0,2.384e-05,0.0003185,7.153e-05,11.18,0.05439,0,0,6.771e-05
129900000000,130200000000,6117800987,0,4303334363,2.67e-05,0.0005541,0.007751,0.0004244,0.0008268,0.0005579,0,2.384e-05,0.0002241,0,15.05,0.07954,0,0,2.48e-05
130200000000,130500000000,6117800987,0,4303334363,2.766e-05,0.0005531,0.007751,0.0004244,0.0008268,0.000556,0,2.384e-05,0.000536,7.153e-05,11.21,0.05762,0,0,6.676e-06
130500000000,130800000000,6117800987,0,4303334363,2.956e-05,0.0005531,0.007751,0.0004244,0.0008268,0.0005569,9.537e-07,2.384e-05,0.0004911,0.0002146,11.15,0.05539,0,0,1.621e-05
130800000000,131100000000,6117800987,0,4303334363,2.766e-05,0.0005531,0.007751,0.0004244,0.0008268,0.0005569,0,2.384e-05,0.0004387,7.153e-05,16.66,0.0886,0,0,0.0001898
145200000000,145500000000,6117800987,0,766816,3.242e-05,0.0005741,0.009705,0.003235,0.003635,0.0005846,9.537e-07,2.384e-05,0.0001917,0.0001431,22.84,0.114,0,0,2.766e-05
145500000000,145800000000,6117800987,0,766816,3.242e-05,0.0005751,0.009705,0.00322,0.00362,0.0005856,0,2.384e-05,0.0001345,0,25.98,0.1273,0,0,9.537e-07
145800000000,146100000000,6117800987,0,766816,3.147e-05,0.0005722,0.009705,0.003204,0.003605,0.0005789,9.537e-07,2.384e-05,0.000186,0.0001431,26.88,0.1297,0,0,7.629e-06
161100000000,161400000000,6117800987,0,294816857,3.147e-05,0.0006924,0.007721,0.0005226,0.0009251,0.000699,0,2.384e-05,0.0001659,7.153e-05,10.83,0.04621,0,0,6.008e-05
161400000000,161700000000,6117800987,0,294816857,3.242e-05,0.0006886,0.007721,0.000494,0.0008965,0.0006971,0,2.384e-05,0.0001316,7.153e-05,11.65,0.05065,0,0,1.812e-05
161700000000,162000000000,6117800987,0,294816857,3.242e-05,0.0006838,0.007729,0.000494,0.0008965,0.0006876,0,2.384e-05,0.000164,7.153e-05,6.972,0.02767,0,0,4.101e-05
162000000000,162300000000,6117800987,0,294816857,3.147e-05,0.0006809,0.007729,0.0004625,0.000865,0.0006876,0,2.384e-05,0.0001726,0,8.185,0.03426,0,0,1.621e-05
162300000000,162600000000,6117800987,0,294816857,3.147e-05,0.0006723,0.007736,0.0002813,0.0006838,0.00068,0,2.384e-05,0.0004768,7.153e-05,11.85,0.05227,0,0,3.338e-05
162600000000,162900000000,6117800987,0,294816857,3.242e-05,0.0006723,0.007736,0.0002813,0.0006838,0.00068,0,2.384e-05,0.0008907,7.153e-05,9.715,0.04111,0,0,5.531e-05
162900000000,163200000000,6117800987,0,294816857,3.147e-05,0.0006657,0.007744,0.0002813,0.0006838,0.0006676,9.537e-07,2.384e-05,0.0002289,0.0002146,9.231,0.04004,0,0,4.864e-05
163200000000,163500000000,6117800987,0,294816857,3.052e-05,0.0006609,0.007744,0.0002813,0.0006838,0.0006676,0,2.384e-05,0.0002508,0,10.99,0.048,0,0,0.0001421
163500000000,163800000000,6117800987,0,294816857,3.147e-05,0.000658,0.007751,0.0002813,0.0006838,0.0006609,0,2.384e-05,0.0001554,7.153e-05,10.82,0.04737,0,0,4.768e-05
163800000000,164100000000,6117800987,0,294816857,3.147e-05,0.0006561,0.007751,0.0002813,0.0006838,0.0006609,0,2.384e-05,0.0001669,0,7.151,0.02846,0,0,2.766e-05
164100000000,164400000000,6117800987,0,294816857,3.052e-05,0.0006542,0.007751,0.0002813,0.0006838,0.000659,0,2.384e-05,0.0001411,7.153e-05,11.23,0.0513,0,0,5.722e-06
164400000000,164700000000,6117800987,0,294816857,3.052e-05,0.0006533,0.007751,0.0002813,0.0006838,0.000659,0,2.384e-05,0.0001812,0,11.91,0.05323,0,0,1.812e-05
164700000000,165000000000,6117800987,0,294816857,3.242e-05,0.0006552,0.007751,0.0002813,0.0006838,0.0006599,9.537e-07,2.384e-05,0.0001535,0.0002861,7.21,0.02857,0,0,5.245e-05
165000000000,165300000000,6117800987,0,294816857,3.147e-05,0.0006504,0.007751,0.0002813,0.0006838,0.000659,0,2.384e-05,0.0001345,0,11.46,0.05121,0,0,7.629e-06
165300000000,165600000000,6117800987,0,294816857,3.147e-05,0.0006475,0.007751,0.0002813,0.0006838,0.0006514,0,2.384e-05,0.0001478,7.153e-05,11.82,0.0521,0,0,9.537e-07
165600000000,165900000000,6117800987,0,294816857,3.147e-05,0.0006475,0.007751,0.0002813,0.0006838,0.0006514,0,2.384e-05,0.0001926,0,8.958,0.03732,0,0,1.431e-05
165900000000,166200000000,6117800987,0,294816857,3.147e-05,0.0006466,0.007751,0.0002813,0.0006838,0.0006495,0,2.384e-05,0.0001135,7.153e-05,8.491,0.03569,0,0,0
166200000000,166500000000,6117800987,0,294816857,3.052e-05,0.0006447,0.007751,0.0002747,0.0006771,0.0006495,0,2.384e-05,0.0001192,0,11.43,0.05049,0,0,1.526e-05
166500000000,166800000000,6117800987,0,294816857,3.147e-05,0.0006409,0.007751,0.0002117,0.0006132,0.0006447,0,2.384e-05,0.0001507,7.153e-05,11.37,0.05074,0,0,3.815e-05
166800000000,167100000000,6117800987,0,294816857,3.147e-05,0.0006409,0.007751,0.0002117,0.0006132,0.0006447,0,2.384e-05,0.000165,0,10.97,0.04737,0,0,2.289e-05
167100000000,167400000000,6117800987,0,294816857,3.242e-05,0.000639,0.007751,0.0002117,0.0006132,0.0006428,0,2.384e-05,0.0001249,7.153e-05,9.156,0.0386,0,0,3.815e-06
167400000000,167700000000,6117800987,0,294816857,3.147e-05,0.000638,0.007751,0.0002079,0.0006104,0.0006428,0,2.384e-05,0.0001516,0,8.514,0.03592,0,0,3.815e-05
167700000000,168000000000,6117800987,0,294816857,3.147e-05,0.0006342,0.007751,0.000165,0.0005674,0.0006371,0,2.384e-05,0.0001316,7.153e-05,11.83,0.05295,0,0,5.054e-05
168000000000,168300000000,6117800987,0,294816857,3.338e-05,0.0006361,0.007751,0.0001669,0.0005684,0.0006428,4.768e-06,2.384e-05,0.0001755,7.153e-05,11.78,0.05346,0,0,3.815e-06
168300000000,168600000000,6117800987,0,294816857,3.242e-05,0.0006313,0.007751,0.0001678,0.0005703,0.0006399,0,2.384e-05,0.0001669,7.153e-05,7.546,0.03062,0,0,1.717e-05
168600000000,168900000000,6117800987,0,294816857,3.147e-05,0.0006294,0.007751,0.0001678,0.0005703,0.0006351,0,2.384e-05,0.0001335,0,10.01,0.04363,0,0,2.861e-06
168900000000,169200000000,6117800987,0,294816857,3.242e-05,0.0006275,0.007751,0.0001678,0.0005703,0.0006304,0,2.384e-05,0.0003929,7.153e-05,6.914,0.02778,0,0,1.144e-05
169200000000,169500000000,6117800987,0,294816857,3.242e-05,0.0006285,0.007751,0.0001678,0.0005703,0.0006313,0,2.384e-05,0.0002575,7.153e-05,7.367,0.03043,0,0,4.768e-06
169500000000,169800000000,6117800987,0,294816857,3.052e-05,0.0006247,0.007751,0.0001678,0.0005703,0.0006275,0,2.384e-05,0.0001459,7.153e-05,9.739,0.04177,0,0,4.959e-05
169800000000,170100000000,6117800987,0,294816857,2.956e-05,0.0006237,0.007751,0.0001678,0.0005703,0.0006275,0,2.384e-05,0.0001354,0,10.74,0.04993,0,0,3.242e-05
170100000000,170400000000,6117800987,0,294816857,3.242e-05,0.0006227,0.007751,0.0001678,0.0005703,0.0006266,0,2.384e-05,0.0002136,7.153e-05,9.597,0.04124,0,0,4.768e-06
170400000000,170700000000,6117800987,0,294816857,3.147e-05,0.0006218,0.007751,0.0001678,0.0005703,0.0006266,0,2.384e-05,0.0001516,0,7.488,0.0302,0,0,3.815e-06
170700000000,171000000000,6117800987,0,294816857,3.242e-05,0.0006227,0.007751,0.0001678,0.0005703,0.0006361,1.907e-06,2.384e-05,0.0002089,7.153e-05,11.83,0.05304,0,0,1.24e-05
171000000000,171300000000,6117800987,0,294816857,3.338e-05,0.0006227,0.007751,0.0001678,0.0005703,0.0006361,0,2.384e-05,0.0002165,0,11.4,0.04939,0,0,1.717e-05
171300000000,171600000000,6117800987,0,294816857,3.338e-05,0.0006189,0.007751,0.0001678,0.0005703,0.0006247,0,2.384e-05,0.000248,7.153e-05,10.09,0.04336,0,0,2.193e-05
172200000000,172500000000,6117800987,0,38643412,0.003502,0.004601,0.01012,0.00666,0.00676,0.008926,0.004669,9.537e-06,0.01273,0.02142,0.8841,0.0009511,0,0,0.00827
173400000000,173700000000,6117800987,0,6570099,0.002892,0.005142,0.01161,0.007339,0.00769,0.01831,0.002548,2.384e-05,0.05859,0.05737,1.44,0.000381,0,0,6.485e-05
174000000000,174300000000,6117800987,0,6570099,3.529e-05,0.000577,0.007767,0.002716,0.00312,0.0005836,2.861e-06,2.384e-05,0.0002298,0.0007143,9.846,0.04032,0,0,2.67e-05
174300000000,174600000000,6117800987,0,6570099,3.433e-05,0.0005703,0.007767,0.002716,0.003117,0.0005751,0,2.384e-05,0.0002079,0,9.066,0.03556,0,0,2.289e-05
174600000000,174900000000,6117800987,0,6570099,3.624e-05,0.0005732,0.007767,0.002098,0.002502,0.0005751,9.537e-07,2.384e-05,0.0002575,0.0001431,10.43,0.04079,0,0,6.58e-05
186300000000,186600000000,6117800987,0,294986867,3.147e-05,0.0005484,0.007736,0.0004215,0.000824,0.0005522,0,2.384e-05,0.0001879,7.153e-05,7.052,0.02875,0,0,3.815e-06
186600000000,186900000000,6117800987,0,294986867,3.052e-05,0.0005474,0.007736,0.0004215,0.000823,0.0005503,0,2.384e-05,0.0001745,7.153e-05,8.275,0.03553,0,0,2.861e-06
186900000000,187200000000,6117800987,0,294986867,3.052e-05,0.0005445,0.007736,0.0004215,0.000823,0.0005455,0,2.384e-05,0.000164,0,9.274,0.04157,0,0,4.768e-06
187200000000,187500000000,6117800987,0,294986867,3.052e-05,0.0005455,0.007736,0.0004215,0.000823,0.0005484,0,2.384e-05,0.0001659,7.153e-05,11.3,0.05163,0,0,9.537e-06
187500000000,187800000000,6117800987,0,294986867,2.956e-05,0.0005436,0.007736,0.0004215,0.000823,0.0005436,0,2.384e-05,0.0001268,0,7.532,0.03376,0,0,9.537e-07
187800000000,188100000000,6117800987,0,294986867,3.242e-05,0.0005455,0.007736,0.0004215,0.000823,0.0005484,0,2.384e-05,0.0001907,7.153e-05,6.76,0.02763,0,0,1.907e-06
188100000000,188400000000,6117800987,0,294986867,3.147e-05,0.0005445,0.007736,0.0004215,0.000823,0.0005484,0,2.384e-05,0.0001478,7.153e-05,9.758,0.04343,0,0,2.956e-05
188400000000,188700000000,6117800987,0,294986867,3.147e-05,0.0005455,0.007736,0.0004215,0.000823,0.0005484,0,2.384e-05,0.000185,7.153e-05,8.433,0.03527,0,0,3.815e-06
188700000000,189000000000,6117800987,0,294986867,3.052e-05,0.0005426,0.007736,0.0004215,0.000823,0.0005426,0,2.384e-05,0.0001612,0,7.197,0.02971,0,0,1.907e-06
189000000000,189300000000,6117800987,0,294986867,3.052e-05,0.0005445,0.007736,0.0004215,0.000824,0.0005474,0,2.384e-05,0.0001965,7.153e-05,7.472,0.03229,0,0,1.717e-05
189300000000,189600000000,6117800987,0,294986867,3.052e-05,0.0005426,0.007736,0.0004215,0.000824,0.0005426,0,2.384e-05,0.0003967,0,10.98,0.05146,0,0,3.338e-05
189600000000,189900000000,6117800987,0,294986867,2.956e-05,0.0005436,0.007736,0.0004215,0.000824,0.0005465,0,2.384e-05,0.0001497,7.153e-05,8.257,0.03599,0,0,2.384e-05
189900000000,190200000000,6117800987,0,294986867,3.242e-05,0.0005417,0.007736,0.0004215,0.000824,0.0005417,0,2.384e-05,0.0001802,0,7.756,0.03283,0,0,1.335e-05
190200000000,190500000000,6117800987,0,294986867,3.147e-05,0.0005436,0.007736,0.0004215,0.000824,0.0005465,0,2.384e-05,0.0001678,7.153e-05,10.62,0.04637,0,0,3.242e-05
190500000000,190800000000,6117800987,0,294986867,3.147e-05,0.0005417,0.007736,0.0004215,0.000824,0.0005417,0,2.384e-05,0.0001841,0,8.778,0.03749,0,0,2.67e-05
190800000000,191100000000,6117800987,0,294986867,3.147e-05,0.0005436,0.007736,0.0004215,0.000824,0.0005465,0,2.384e-05,0.0002251,7.153e-05,7.115,0.02926,0,0,0.0002251
191100000000,191400000000,6117800987,0,294986867,3.147e-05,0.0005407,0.007736,0.0004215,0.000824,0.0005417,0,2.384e-05,0.0002289,0,7.597,0.03208,0,0,9.06e-05
191400000000,191700000000,6117800987,0,294986867,2.956e-05,0.0005426,0.007736,0.0004215,0.000824,0.0005455,0,2.384e-05,0.00112,7.153e-05,10.83,0.0501,0,0,3.815e-05
191700000000,192000000000,6117800987,0,294986867,3.147e-05,0.0005407,0.007736,0.0004215,0.000824,0.0005407,0,2.384e-05,0.0003061,0,8.564,0.03773,0,0,2.003e-05
192000000000,192300000000,6117800987,0,294986867,3.147e-05,0.0005445,0.007736,0.0004215,0.000824,0.0005465,2.861e-06,2.384e-05,0.000246,0.0004997,7.434,0.03067,0,0,1.431e-05
192300000000,192600000000,6117800987,0,294986867,3.052e-05,0.0005407,0.007736,0.0004215,0.000824,0.0005455,0,2.384e-05,0.0002193,0,11.01,0.05091,0,0,3.433e-05
192600000000,192900000000,6117800987,0,294986867,3.052e-05,0.0005417,0.007736,0.0004215,0.000824,0.0005455,3.815e-06,2.384e-05,0.0001659,0.0005713,10.73,0.04973,0,0,9.537e-06
192900000000,193200000000,6117800987,0,294986867,3.242e-05,0.0005407,0.007736,0.0004215,0.000824,0.0005417,0,2.384e-05,0.0002136,0,7.918,0.03175,0,0,5.245e-05
193200000000,193500000000,6117800987,0,294986867,3.242e-05,0.0005417,0.007736,0.0004215,0.000824,0.0005445,0,2.384e-05,0.0001831,7.153e-05,10.94,0.04806,0,0,2.193e-05
193500000000,193800000000,6117800987,0,294986867,3.242e-05,0.0005398,0.007736,0.0004215,0.000824,0.0005398,0,2.384e-05,0.0001678,0,11.59,0.05029,0,0,8.583e-06
193800000000,194100000000,6117800987,0,294986867,3.338e-05,0.0005417,0.007736,0.0004215,0.000824,0.0005445,0,2.384e-05,0.0002365,7.153e-05,7.049,0.02854,0,0,5.722e-05
194100000000,194400000000,6117800987,0,294986867,3.242e-05,0.0005398,0.007736,0.0004215,0.000824,0.0005398,0,2.384e-05,0.0003662,0,8.071,0.03345,0,0,2.861e-06
194400000000,194700000000,6117800987,0,294986867,3.147e-05,0.0005417,0.007736,0.0004215,0.000824,0.0005445,0,2.384e-05,0.0004311,7.153e-05,11.36,0.05146,0,0,2.48e-05
194700000000,195000000000,6117800987,0,294986867,3.242e-05,0.0005388,0.007736,0.0004215,0.000824,0.0005398,0,2.384e-05,0.0002356,0,7.513,0.03072,0,0,3.433e-05
195000000000,195300000000,6117800987,0,294986867,3.242e-05,0.0005407,0.007736,0.0004215,0.000824,0.0005436,0,2.384e-05,0.0001726,7.153e-05,7.507,0.03038,0,0,2.003e-05
195300000000,195600000000,6117800987,0,294986867,3.147e-05,0.0005388,0.007736,0.0004215,0.000824,0.0005388,0,2.384e-05,0.0001297,0,12.51,0.05668,0,0,1.24e-05
195600000000,195900000000,6117800987,0,294986867,3.147e-05,0.0005398,0.007736,0.0004215,0.000824,0.0005426,0,2.384e-05,0.0001907,7.153e-05,10.9,0.04809,0,0,2.575e-05
195900000000,196200000000,6117800987,0,294986867,3.242e-05,0.0005379,0.007736,0.0004215,0.000824,0.0005379,0,2.384e-05,0.0001411,0,8.692,0.03609,0,0,4.005e-05
201300000000,201600000000,6117800987,0,370130961,3.624e-05,0.0005531,0.005829,0.000844,0.001247,0.000555,0,2.384e-05,0.0002089,0,14.63,0.06249,0,0,2.861e-06
201600000000,201900000000,6117800987,0,370130961,3.815e-05,0.000556,0.005829,0.000844,0.001247,0.0005589,0,2.384e-05,0.0002346,7.153e-05,20.56,0.08782,0,0,1.431e-05
202200000000,202500000000,6117800987,0,1436522790,0.003712,0.00721,0.01376,0.01137,0.0117,0.02036,0.004395,2.289e-05,0.05914,0.05969,1.404,0.0003172,0,0,1.24e-05
203400000000,203700000000,6117800987,0,294986867,3.147e-05,0.004662,0.01257,0.008118,0.008514,0.0213,9.537e-06,2.384e-05,0.0004511,0.0007143,1.369,0.0001891,0,0,5.722e-06
204000000000,204300000000,6117800987,0,294986867,3.052e-05,0.0005598,0.007599,0.002563,0.002964,0.0005665,9.537e-07,2.384e-05,0.0002041,0.0003567,6.445,0.02748,0,0,4.768e-06
204300000000,204600000000,6117800987,0,294986867,2.956e-05,0.000555,0.007599,0.001965,0.002369,0.0005589,0,2.384e-05,0.0002584,7.153e-05,8.161,0.03722,0,0,4.768e-06
204600000000,204900000000,6117800987,0,294986867,2.956e-05,0.0005493,0.007599,0.0006218,0.001024,0.0005569,0,2.384e-05,0.0002184,7.153e-05,6.531,0.02808,0,0,2.575e-05
204900000000,205200000000,6117800987,0,294986867,2.956e-05,0.0005417,0.007599,0.0004025,0.0008049,0.0005417,0,2.384e-05,0.000164,0,6.232,0.02658,0,0,9.537e-07
205200000000,205500000000,6117800987,0,294986867,2.861e-05,0.0005455,0.007599,0.0004025,0.0008049,0.0005503,2.861e-06,2.384e-05,0.0001354,0.0004997,6.527,0.02836,0,0,6.676e-06
205500000000,205800000000,6117800987,0,294986867,2.861e-05,0.0005398,0.007599,0.0004025,0.0008049,0.0005445,0,2.384e-05,0.0001478,0,10.47,0.04979,0,0,8.392e-05
205800000000,206100000000,6117800987,0,294986867,2.766e-05,0.0005407,0.007599,0.0004025,0.0008049,0.0005445,0,2.384e-05,0.0001354,7.153e-05,9.965,0.04746,0,0,2.861e-06
210600000000,210900000000,6117800987,0,227417735,0.003048,0.005142,0.01117,0.00856,0.008911,0.01315,0.003944,2.384e-05,0.06238,0.06873,1.012,0.001439,0,0,0.02676
211200000000,211500000000,6117800987,0,227417735,3.338e-05,0.0005188,0.005829,0.004929,0.005333,0.0005236,1.907e-06,2.384e-05,0.0002203,0.0001431,26.01,0.1255,0,0,2.289e-05
211500000000,211800000000,6117800987,0,227417735,3.338e-05,0.0005131,0.005829,0.004929,0.005333,0.0005178,0,2.384e-05,0.0001431,0,26.46,0.1284,0,0,6.676e-06
211800000000,212100000000,6117800987,0,227417735,3.242e-05,0.0005121,0.005829,0.004929,0.005333,0.0005159,0,2.384e-05,0.0001898,7.153e-05,26.91,0.1269,0,0,2.003e-05
221100000000,221400000000,6117800987,0,3829942,2.861e-05,0.0005331,0.007751,0.0004368,0.0008392,0.000536,0,2.384e-05,0.0002985,7.153e-05,6.515,0.02818,0,0,1.144e-05
221400000000,221700000000,6117800987,0,3829942,2.861e-05,0.0005312,0.007751,0.0004368,0.0008392,0.0005322,0,2.384e-05,0.0004177,0,6.427,0.02711,0,0,2.003e-05
221700000000,222000000000,6117800987,0,3829942,2.956e-05,0.0005331,0.007751,0.0004368,0.0008392,0.000536,0,2.384e-05,0.0005207,7.153e-05,6.786,0.02909,0,0,1.431e-05
222000000000,222300000000,6117800987,0,3829942,2.956e-05,0.0005331,0.007751,0.0004368,0.0008392,0.0005369,0,2.384e-05,0.0005512,7.153e-05,8.069,0.03586,0,0,1.335e-05
222300000000,222600000000,6117800987,0,3829942,2.956e-05,0.0005331,0.007751,0.0004368,0.0008392,0.000536,0,2.384e-05,0.0002937,7.153e-05,6.648,0.02859,0,0,5.054e-05
222600000000,222900000000,6117800987,0,3829942,2.956e-05,0.0005312,0.007751,0.0004368,0.0008392,0.0005322,0,2.384e-05,0.0004158,0,6.752,0.029,0,0,5.722e-06
222900000000,223200000000,6117800987,0,3829942,2.861e-05,0.0005331,0.007751,0.0004368,0.0008392,0.000536,0,2.384e-05,0.000493,7.153e-05,7.199,0.03164,0,0,4.768e-06
223200000000,223500000000,6117800987,0,3829942,2.861e-05,0.0005312,0.007751,0.0004368,0.0008392,0.0005322,0,2.384e-05,0.0001879,0,6.774,0.02898,0,0,4.005e-05
223500000000,223800000000,6117800987,0,3829942,2.861e-05,0.0005331,0.007751,0.0004368,0.0008392,0.000536,0,2.384e-05,0.0003233,7.153e-05,6.9,0.02994,0,0,0.0003233
223800000000,224100000000,6117800987,0,3829942,3.052e-05,0.0005312,0.007751,0.0004368,0.0008392,0.0005322,0,2.384e-05,0.0004187,0,6.372,0.02707,0,0,2.48e-05
224100000000,224400000000,6117800987,0,3829942,2.956e-05,0.0005331,0.007751,0.0004368,0.0008392,0.000536,0,2.384e-05,0.0004959,7.153e-05,7.952,0.03595,0,0,2.67e-05
224400000000,224700000000,6117800987,0,3829942,2.861e-05,0.0005331,0.007751,0.0004368,0.0008392,0.0005369,6.676e-06,2.384e-05,0.0002069,0.001999,9.267,0.04293,0,0,1.907e-05
224700000000,225000000000,6117800987,0,3829942,2.861e-05,0.0005331,0.007751,0.0004368,0.0008392,0.000536,0,2.384e-05,0.0003405,7.153e-05,6.533,0.02862,0,0,3.052e-05
225000000000,225300000000,6117800987,0,3829942,2.861e-05,0.0005312,0.007751,0.0004368,0.0008392,0.0005322,0,2.384e-05,0.0004654,0,6.091,0.02567,0,0,3.624e-05
225300000000,225600000000,6117800987,0,3829942,2.956e-05,0.0005331,0.007751,0.0004368,0.0008392,0.000536,0,2.384e-05,0.0005245,7.153e-05,5.247,0.02106,0,0,8.583e-06
225600000000,225900000000,6117800987,0,3829942,2.956e-05,0.0005312,0.007751,0.0004368,0.0008392,0.0005322,0,2.384e-05,0.000391,0,6.579,0.02863,0,0,2.575e-05
225900000000,226200000000,6117800987,0,3829942,3.052e-05,0.0005331,0.007751,0.0004368,0.0008392,0.000536,0,2.384e-05,0.0004225,7.153e-05,5.432,0.02171,0,0,2.956e-05
226200000000,226500000000,6117800987,0,3829942,2.956e-05,0.0005312,0.007751,0.0004368,0.0008392,0.0005322,0,2.384e-05,0.0005407,0,5.905,0.02408,0,0,1.621e-05
226500000000,226800000000,6117800987,0,3829942,2.861e-05,0.0005331,0.007751,0.0004368,0.0008392,0.000536,5.722e-06,2.384e-05,0.0003014,0.001715,6.467,0.02803,0,0,3.242e-05
226800000000,227100000000,6117800987,0,3829942,2.861e-05,0.0005312,0.007751,0.0004368,0.0008392,0.0005322,0,2.384e-05,0.000432,0,6.873,0.02948,0,0,2.003e-05
227100000000,227400000000,6117800987,0,3829942,2.861e-05,0.0005341,0.007751,0.0004368,0.0008392,0.0005379,0,2.384e-05,0.0005207,7.153e-05,6.729,0.02924,0,0,2.003e-05
227400000000,227700000000,6117800987,0,3829942,2.956e-05,0.0005312,0.007751,0.0004368,0.0008392,0.0005331,0,2.384e-05,0.0002222,0,7.174,0.03175,0,0,1.049e-05
227700000000,228000000000,6117800987,0,3829942,2.956e-05,0.0005331,0.007751,0.0004368,0.0008392,0.000536,0,2.384e-05,0.0001898,7.153e-05,6.545,0.02797,0,0,1.717e-05
228000000000,228300000000,6117800987,0,3829942,2.861e-05,0.0005312,0.007751,0.0004368,0.0008392,0.0005322,0,2.384e-05,0.0003777,0,6.508,0.02759,0,0,9.537e-07
228300000000,228600000000,6117800987,0,3829942,2.861e-05,0.0005331,0.007751,0.0004368,0.0008392,0.000536,0,2.384e-05,0.0005856,7.153e-05,7.837,0.03506,0,0,3.815e-06
228600000000,228900000000,6117800987,0,3829942,2.861e-05,0.0005312,0.007751,0.0004368,0.0008392,0.0005322,0,2.384e-05,0.0001364,0,7.464,0.03386,0,0,2.193e-05
228900000000,229200000000,6117800987,0,3829942,2.861e-05,0.0005331,0.007751,0.0004368,0.0008392,0.000536,0,2.384e-05,0.0002966,7.153e-05,6.683,0.02924,0,0,1.717e-05
229200000000,229500000000,6117800987,0,3829942,2.956e-05,0.0005331,0.007751,0.0004368,0.0008392,0.0005369,9.537e-07,2.384e-05,0.0005178,0.0002146,6.496,0.02776,0,0,1.335e-05
229500000000,229800000000,6117800987,0,3829942,2.956e-05,0.0005331,0.007751,0.0004368,0.0008392,0.0005369,0,2.384e-05,0.0005312,7.153e-05,7.968,0.03622,0,0,1.812e-05
229800000000,230100000000,6117800987,0,3829942,2.766e-05,0.0005302,0.007751,0.0004368,0.0008392,0.0005312,0,2.384e-05,0.0001221,0,10.56,0.0512,0,0,1.621e-05
230100000000,230400000000,6117800987,0,3829942,2.766e-05,0.0005331,0.007751,0.0004368,0.0008392,0.000536,0,2.384e-05,0.0003271,7.153e-05,9.066,0.04308,0,0,1.717e-05
230400000000,230700000000,6117800987,0,3829942,2.861e-05,0.0005302,0.007751,0.0004368,0.0008392,0.0005322,0,2.384e-05,0.0005054,0,6.236,0.02623,0,0,2.003e-05
230700000000,231000000000,6117800987,0,3829942,2.766e-05,0.0005322,0.007751,0.0004368,0.0008392,0.000536,0,2.384e-05,0.0005226,7.153e-05,8.219,0.038,0,0,1.24e-05
231000000000,231300000000,6117800987,0,3829942,2.861e-05,0.0005302,0.007751,0.0004368,0.0008392,0.0005322,0,2.384e-05,0.000247,0,10.24,0.04913,0,0,2.193e-05
231300000000,231600000000,6117800987,0,3829942,2.861e-05,0.0005322,0.007751,0.0004368,0.0008392,0.000536,0,2.384e-05,0.000411,7.153e-05,10.26,0.04906,0,0,1.907e-05
231600000000,231900000000,6117800987,0,3829942,2.766e-05,0.0005302,0.007751,0.0004368,0.0008392,0.0005322,0,2.384e-05,0.0005245,0,10.32,0.04899,0,0,4.387e-05
231900000000,232200000000,6117800987,0,3829942,2.861e-05,0.0005322,0.007751,0.0004368,0.0008392,0.000535,0,2.384e-05,0.0001888,7.153e-05,6.564,0.02757,0,0,2.956e-05
232200000000,232500000000,6117800987,0,3829942,2.861e-05,0.0005302,0.007751,0.0004368,0.0008392,0.0005312,0,2.384e-05,0.0003529,0,6.419,0.02753,0,0,9.537e-07
232500000000,232800000000,6117800987,0,3829942,2.861e-05,0.0005322,0.007751,0.0004368,0.0008392,0.000535,0,2.384e-05,0.0004263,7.153e-05,6.39,0.02721,0,0,4.768e-06
232800000000,233100000000,6117800987,0,3829942,2.956e-05,0.0005302,0.007751,0.0004368,0.0008392,0.0005312,0,2.384e-05,0.0005016,0,6.555,0.02797,0,0,3.815e-06
233100000000,233400000000,6117800987,0,3829942,2.956e-05,0.0005322,0.007751,0.0004368,0.0008392,0.000535,0,2.384e-05,0.0001879,7.153e-05,6.34,0.02706,0,0,8.583e-06
233400000000,233700000000,6117800987,0,3829942,2.956e-05,0.0005302,0.007751,0.0004368,0.0008392,0.0005312,0,2.384e-05,0.0003204,0,6.31,0.02675,0,0,9.537e-06
233700000000,234000000000,6117800987,0,3829942,2.861e-05,0.0005322,0.007751,0.0004368,0.0008392,0.000535,0,2.384e-05,0.0003967,7.153e-05,6.51,0.02787,0,0,0.0003738
234000000000,234300000000,6117800987,0,3829942,2.861e-05,0.0005302,0.007751,0.0004368,0.0008392,0.0005312,0,2.384e-05,0.0005169,0,6.501,0.02769,0,0,0.0004587
234300000000,234600000000,6117800987,0,3829942,2.766e-05,0.0005331,0.007751,0.0004368,0.0008392,0.0005369,0,2.384e-05,0.0002003,7.153e-05,9.792,0.04647,0,0,1.907e-06
234600000000,234900000000,6117800987,0,3829942,2.861e-05,0.0005302,0.007751,0.0004368,0.0008392,0.0005322,0,2.384e-05,0.0002184,0,7.974,0.0363,0,0,5.054e-05
234900000000,235200000000,6117800987,0,3829942,2.956e-05,0.0005322,0.007751,0.0004368,0.0008392,0.000535,0,2.384e-05,0.0002728,7.153e-05,6.512,0.02804,0,0,0
235200000000,235500000000,6117800987,0,3829942,3.052e-05,0.0005322,0.007751,0.0004368,0.0008392,0.0005426,2.861e-06,2.384e-05,0.000494,0.0006428,6.537,0.02772,0,0,8.583e-06
235500000000,235800000000,6117800987,0,3829942,2.861e-05,0.000536,0.007751,0.0004368,0.0008392,0.0005426,0,2.384e-05,0.0001612,7.153e-05,8.529,0.03956,0,0,1.144e-05
235800000000,236100000000,6117800987,0,3829942,2.766e-05,0.0005312,0.007751,0.0004368,0.0008392,0.0005322,0,2.384e-05,0.0002289,0,9.109,0.04248,0,0,8.583e-06
236100000000,236400000000,6117800987,0,3829942,2.861e-05,0.0005331,0.007751,0.0004368,0.0008392,0.000536,0,2.384e-05,0.0003977,7.153e-05,6.294,0.02647,0,0,1.144e-05
241200000000,241500000000,6117800987,0,3829942,2.861e-05,0.0005302,0.007751,0.0004377,0.0008402,0.0005312,0,2.384e-05,0.0005045,0,6.273,0.02669,0,0,1.717e-05
241500000000,241800000000,6117800987,0,3829942,2.766e-05,0.0005331,0.007751,0.0004377,0.0008402,0.0005379,0,2.384e-05,0.0004997,7.153e-05,8.468,0.03946,0,0,3.242e-05
241800000000,242100000000,6117800987,0,3829942,2.766e-05,0.0005312,0.007751,0.0004377,0.0008402,0.0005322,0,2.384e-05,0.0003023,0,10.09,0.04813,0,0,2.289e-05
242100000000,242400000000,6117800987,0,3829942,2.861e-05,0.0005331,0.007751,0.0004377,0.0008402,0.000536,0,2.384e-05,0.0003672,7.153e-05,9.772,0.04646,0,0,1.812e-05
242400000000,242700000000,6117800987,0,3829942,2.861e-05,0.0005312,0.007751,0.0004377,0.0008402,0.0005322,0,2.384e-05,0.0005322,0,7.016,0.03067,0,0,1.907e-06
242700000000,243000000000,6117800987,0,3829942,2.766e-05,0.0005331,0.007751,0.0004377,0.0008402,0.000536,0,2.384e-05,0.0002337,7.153e-05,10.32,0.04985,0,0,7.248e-05
243000000000,243300000000,6117800987,0,3829942,2.67e-05,0.0005312,0.007751,0.0004377,0.0008402,0.0005322,0,2.384e-05,0.0002747,0,9.738,0.04788,0,0,9.537e-07
243300000000,243600000000,6117800987,0,3829942,2.67e-05,0.0005331,0.007751,0.0004377,0.0008402,0.000536,0,2.384e-05,0.0004139,0.0001431,7.918,0.03705,0,0,1.621e-05
243600000000,243900000000,6117800987,0,3829942,2.861e-05,0.0005331,0.007751,0.0004368,0.0008402,0.0005398,3.815e-06,2.384e-05,0.000453,0.001072,7.539,0.03381,0,0,9.537e-06
243900000000,244200000000,6117800987,0,3829942,2.766e-05,0.000536,0.007751,0.0004368,0.0008402,0.0005388,0,2.384e-05,0.0002165,7.153e-05,10.15,0.04922,0,0,7.629e-06
244200000000,244500000000,6117800987,0,3829942,2.766e-05,0.0005312,0.007751,0.0004368,0.0008402,0.0005322,0,2.384e-05,0.0003357,0,7.537,0.03471,0,0,4.005e-05
244500000000,244800000000,6117800987,0,3829942,2.861e-05,0.0005331,0.007751,0.0004368,0.0008402,0.0005369,0,2.384e-05,0.0004578,7.153e-05,6.128,0.0265,0,0,2.289e-05
244800000000,245100000000,6117800987,0,3829942,2.766e-05,0.0005312,0.007751,0.0004368,0.0008402,0.0005322,0,2.384e-05,0.0004864,0,7.721,0.03534,0,0,1.907e-05
245100000000,245400000000,6117800987,0,3829942,2.67e-05,0.0005331,0.007751,0.0004368,0.0008402,0.000536,0,2.384e-05,0.0002432,7.153e-05,9.633,0.04649,0,0,6.676e-06
245400000000,245700000000,6117800987,0,3829942,2.766e-05,0.0005312,0.007751,0.0004368,0.0008402,0.0005331,0,2.384e-05,0.000309,0,9.35,0.04482,0,0,9.537e-07
245700000000,246000000000,6117800987,0,3829942,2.861e-05,0.0005331,0.007751,0.0004368,0.0008402,0.000536,0,2.384e-05,0.0001755,7.153e-05,8.559,0.03978,0,0,1.144e-05
246000000000,246300000000,6117800987,0,3829942,2.766e-05,0.0005312,0.007751,0.0004368,0.0008402,0.0005331,0,2.384e-05,0.0001345,0,8.207,0.03824,0,0,9.537e-07
254700000000,255000000000,6117800987,0,2378747961,3.052e-05,0.001036,0.007874,0.003651,0.004051,0.003685,2.193e-05,2.384e-05,0.001333,0.003571,22.71,0.1231,0,0,5.722e-05
255300000000,255600000000,6117800987,0,2378747961,2.956e-05,0.0005474,0.007759,0.003639,0.004044,0.0005569,9.537e-07,2.384e-05,0.0004196,0.0001431,21.99,0.1207,0,0,2.384e-05
255600000000,255900000000,6117800987,0,2378747961,3.242e-05,0.0005398,0.007759,0.003632,0.004036,0.0005426,3.815e-06,2.384e-05,0.0005236,0.001143,26,0.1278,0,0,4.387e-05
255900000000,256200000000,6117800987,0,2378747961,3.242e-05,0.0005388,0.007759,0.00338,0.00378,0.0005474,3.815e-06,2.384e-05,0.0003328,0.0009995,25.73,0.1294,0,0,3.815e-06
256200000000,256500000000,6117800987,0,2378747961,3.052e-05,0.000514,0.007759,0.0004282,0.0008307,0.0005159,1.907e-06,2.384e-05,0.0005846,0.0005713,24.68,0.1242,0,0,7.629e-05
257100000000,257400000000,6117800987,0,333295995,2.861e-05,0.0006199,0.007751,0.0009737,0.001375,0.001015,2.861e-06,2.384e-05,0.0005198,0.0005713,22.23,0.1208,0,0,9.537e-06
257700000000,258000000000,6117800987,0,333295995,2.766e-05,0.0005693,0.007751,0.000905,0.001308,0.0005789,0,2.384e-05,0.0009604,7.153e-05,21.17,0.1116,0,0,5.722e-06
258000000000,258300000000,6117800987,0,333295995,2.956e-05,0.0005627,0.007751,0.0009022,0.001305,0.0005665,9.537e-07,2.384e-05,0.0009251,7.153e-05,22.46,0.1206,0,0,1.144e-05
258300000000,258600000000,6117800987,0,333295995,2.956e-05,0.0005617,0.007751,0.0004702,0.0008736,0.0005713,9.537e-07,2.384e-05,0.001177,7.153e-05,20.31,0.1029,0,0,1.907e-06
258600000000,258900000000,6117800987,0,333295995,3.052e-05,0.0005541,0.007751,0.0004473,0.0008507,0.0005569,0,2.384e-05,0.0009289,7.153e-05,24.03,0.1212,0,0,1.621e-05
258900000000,259200000000,6117800987,0,333295995,3.052e-05,0.0005512,0.007751,0.0004473,0.0008507,0.000556,0,2.384e-05,0.0005875,0,24.13,0.1219,0,0,8.583e-06
259200000000,259500000000,6117800987,0,333295995,2.861e-05,0.0005503,0.007751,0.0004473,0.0008507,0.0005541,0,2.384e-05,0.0006599,7.153e-05,22.88,0.1211,0,0,3.815e-06
259500000000,259800000000,6117800987,0,333295995,2.861e-05,0.0005503,0.007751,0.0004473,0.0008507,0.0005531,0,2.384e-05,0.000741,7.153e-05,21.24,0.1188,0,0,9.537e-06
259800000000,260100000000,6117800987,0,333295995,2.67e-05,0.0005465,0.007751,0.0004473,0.0008507,0.0005503,0,2.384e-05,0.0006828,7.153e-05,20.41,0.1173,0,0,2.289e-05
260100000000,260400000000,6117800987,0,333295995,2.67e-05,0.0005455,0.007751,0.0004473,0.0008507,0.0005503,0,2.384e-05,0.0007143,0,21.1,0.1199,0,0,3.529e-05
260400000000,260700000000,6117800987,0,333295995,2.67e-05,0.0005455,0.007751,0.0004473,0.0008507,0.0005493,0,2.384e-05,0.0004044,7.153e-05,21.4,0.1184,0,0,2.003e-05
260700000000,261000000000,6117800987,0,333295995,2.766e-05,0.0005436,0.007751,0.0004473,0.0008507,0.0005493,0,2.384e-05,0.0007887,0,21.93,0.1212,0,0,1.812e-05
261000000000,261300000000,6117800987,0,333295995,2.861e-05,0.0005426,0.007751,0.0004473,0.0008507,0.0005455,0,2.384e-05,0.0007792,7.153e-05,22.23,0.123,0,0,1.431e-05
261300000000,261600000000,6117800987,0,333295995,2.67e-05,0.0005407,0.007751,0.0004473,0.0008507,0.0005455,0,2.384e-05,0.0005417,0,19.74,0.1103,0,0,1.049e-05
261600000000,261900000000,6117800987,0,333295995,2.861e-05,0.0005417,0.007751,0.0004473,0.0008507,0.0005436,9.537e-07,2.384e-05,0.0007124,0.0002146,20.17,0.1128,0,0,2.289e-05
261900000000,262200000000,6117800987,0,333295995,2.67e-05,0.0005388,0.007751,0.0004473,0.0008507,0.0005426,0,2.384e-05,0.0002337,7.153e-05,21.95,0.1206,0,0,1.049e-05
262200000000,262500000000,6117800987,0,333295995,2.67e-05,0.0005369,0.007751,0.0004473,0.0008507,0.0005398,0,2.384e-05,0.0002041,7.153e-05,21.64,0.122,0,0,2.575e-05
262500000000,262800000000,6117800987,0,333295995,2.861e-05,0.000535,0.007751,0.0004473,0.0008507,0.0005398,0,2.384e-05,0.0005445,0,21.72,0.1191,0,0,9.537e-06
262800000000,263100000000,6117800987,0,333295995,2.575e-05,0.000535,0.007751,0.0004473,0.0008507,0.0005388,0,2.384e-05,0.0002136,7.153e-05,19.69,0.1111,0,0,7.534e-05
263100000000,263400000000,6117800987,0,333295995,2.575e-05,0.000536,0.007751,0.0004473,0.0008507,0.0005388,0,2.384e-05,0.0002098,7.153e-05,21.03,0.1196,0,0,2.384e-05
263400000000,263700000000,6117800987,0,333295995,2.67e-05,0.000536,0.007751,0.0004473,0.0008507,0.0005398,0,2.384e-05,0.0005941,7.153e-05,21.01,0.1194,0,0,3.815e-05
263700000000,264000000000,6117800987,0,333295995,2.67e-05,0.0005341,0.007751,0.0004473,0.0008507,0.0005388,0,2.384e-05,0.0002422,0,21.13,0.1187,0,0,1.144e-05
264000000000,264300000000,6117800987,0,333295995,3.242e-05,0.0005341,0.007751,0.0004473,0.0008507,0.0005369,0,2.384e-05,0.0003319,7.153e-05,25.83,0.1252,0,0,2.098e-05
264300000000,264600000000,6117800987,0,333295995,2.766e-05,0.0005331,0.007751,0.0004473,0.0008507,0.0005369,0,2.384e-05,0.000248,0,23.35,0.1223,0,0,3.815e-05
264600000000,264900000000,6117800987,0,333295995,2.67e-05,0.0005341,0.007751,0.0004473,0.0008507,0.0005369,0,2.384e-05,0.0005274,7.153e-05,21.05,0.1185,0,0,6.676e-06
264900000000,265200000000,6117800987,0,333295995,2.575e-05,0.0005322,0.007751,0.0004473,0.0008507,0.0005369,0,2.384e-05,0.0001593,0,19.79,0.1117,0,0,2.098e-05
265200000000,265500000000,6117800987,0,333295995,2.575e-05,0.0005322,0.007751,0.0004473,0.0008507,0.000536,0,2.384e-05,0.0002604,7.153e-05,21,0.118,0,0,1.431e-05
265500000000,265800000000,6117800987,0,333295995,2.67e-05,0.0005312,0.007751,0.0004473,0.0008507,0.000536,0,2.384e-05,0.0005007,0,21.08,0.1203,0,0,5.245e-05
265800000000,266100000000,6117800987,0,333295995,2.575e-05,0.0005312,0.007751,0.0004473,0.0008507,0.0005341,0,2.384e-05,0.0003548,7.153e-05,20.53,0.1149,0,0,0.000145
266100000000,266400000000,6117800987,0,333295995,2.575e-05,0.0005293,0.007751,0.0004473,0.0008507,0.0005341,0,2.384e-05,0.0002012,0,20.73,0.1189,0,0,4.768e-06
266400000000,266700000000,6117800987,0,333295995,2.575e-05,0.0005293,0.007751,0.0004473,0.0008507,0.0005331,0,2.384e-05,0.0002317,7.153e-05,20.96,0.1191,0,0,0.0001488
266700000000,267000000000,6117800987,0,333295995,2.67e-05,0.0005302,0.007751,0.0004473,0.0008507,0.0005331,0,2.384e-05,0.0005636,7.153e-05,19.57,0.1132,0,0,6.294e-05
267000000000,267300000000,6117800987,0,333295995,2.67e-05,0.0005293,0.007751,0.0004473,0.0008507,0.0005331,0,2.384e-05,0.0002031,7.153e-05,21,0.1183,0,0,5.531e-05
267300000000,267600000000,6117800987,0,333295995,2.67e-05,0.0005283,0.007751,0.0004473,0.0008507,0.0005322,0,2.384e-05,0.0001888,0,21.06,0.1194,0,0,1.431e-05
267600000000,267900000000,6117800987,0,333295995,2.67e-05,0.0005283,0.007751,0.0004473,0.0008507,0.0005322,0,2.384e-05,0.0002508,7.153e-05,20.71,0.1181,0,0,3.147e-05
267900000000,268200000000,6117800987,0,333295995,2.67e-05,0.0005283,0.007751,0.0004473,0.0008507,0.0005322,0,2.384e-05,0.0002165,0,21.13,0.1199,0,0,6.294e-05
268200000000,268500000000,6117800987,0,333295995,2.575e-05,0.0005293,0.007751,0.0004473,0.0008507,0.0005322,0,2.384e-05,0.0002108,7.153e-05,21.25,0.1186,0,0,2.098e-05
268500000000,268800000000,6117800987,0,333295995,2.575e-05,0.0005274,0.007751,0.0004473,0.0008507,0.0005322,0,2.384e-05,0.000227,0,20.71,0.1171,0,0,3.529e-05
268800000000,269100000000,6117800987,0,333295995,2.67e-05,0.0005283,0.007751,0.0004473,0.0008507,0.0005322,0,2.384e-05,0.0008469,7.153e-05,20.62,0.1198,0,0,9.537e-06
269100000000,269400000000,6117800987,0,333295995,2.575e-05,0.0005274,0.007751,0.0004473,0.0008507,0.0005322,0,2.384e-05,0.0005379,0,19.58,0.1132,0,0,1.144e-05
269400000000,269700000000,6117800987,0,333295995,2.67e-05,0.0005283,0.007751,0.0004473,0.0008507,0.0005312,0,2.384e-05,0.0007019,7.153e-05,20.86,0.1192,0,0,0.0001364
269700000000,270000000000,6117800987,0,333295995,2.575e-05,0.0005274,0.007751,0.0004473,0.0008507,0.0005312,0,2.384e-05,0.0001612,0,20.48,0.1191,0,0,1.144e-05
270000000000,270300000000,6117800987,0,333295995,2.67e-05,0.0005283,0.007751,0.0004473,0.0008507,0.0005312,0,2.384e-05,0.0002213,7.153e-05,20.54,0.1161,0,0,2.384e-05
270300000000,270600000000,6117800987,0,333295995,2.67e-05,0.0005264,0.007751,0.0004473,0.0008507,0.0005312,0,2.384e-05,0.0005236,0,21.08,0.1188,0,0,9.537e-06
270600000000,270900000000,6117800987,0,333295995,2.575e-05,0.0005274,0.007751,0.0004473,0.0008507,0.0005312,0,2.384e-05,0.0006304,7.153e-05,19.29,0.1114,0,0,1.907e-06
270900000000,271200000000,6117800987,0,333295995,2.575e-05,0.0005264,0.007751,0.0004473,0.0008507,0.0005312,0,2.384e-05,0.0009241,0,18.5,0.1082,0,0,2.289e-05
271200000000,271500000000,6117800987,0,333295995,2.575e-05,0.0005274,0.007751,0.0004473,0.0008507,0.0005312,0,2.384e-05,0.0005322,7.153e-05,18.21,0.105,0,0,1.812e-05
281400000000,281700000000,6117800987,0,1479459266,3.242e-05,0.0005541,0.007751,0.0004101,0.0008125,0.0005598,0,2.384e-05,0.0001535,7.153e-05,25.18,0.1278,0,0,6.676e-06
281700000000,282000000000,6117800987,0,1479459266,3.242e-05,0.0005493,0.007751,0.0004101,0.0008125,0.0005512,0,2.384e-05,0.0001497,7.153e-05,23.95,0.1217,0,0,8.583e-06
282000000000,282300000000,6117800987,0,1479459266,3.052e-05,0.0005465,0.007751,0.0004101,0.0008125,0.0005541,0,2.384e-05,0.0001688,0,24.45,0.1255,0,0,2.956e-05
282300000000,282600000000,6117800987,0,1479459266,2.956e-05,0.0005417,0.007751,0.0004101,0.0008125,0.0005426,0,2.384e-05,0.0001669,0,23.63,0.1243,0,0,2.956e-05
282600000000,282900000000,6117800987,0,1479459266,2.861e-05,0.0005417,0.007751,0.0004101,0.0008125,0.0005445,0,2.384e-05,0.0001554,7.153e-05,22.63,0.1221,0,0,1.049e-05
282900000000,283200000000,6117800987,0,1479459266,2.956e-05,0.0005388,0.007751,0.0004101,0.0008125,0.0005398,1.907e-06,2.384e-05,0.0001965,0.0005713,22.46,0.1202,0,0,1.24e-05
283200000000,283500000000,6117800987,0,1479459266,2.861e-05,0.0005388,0.007751,0.0004101,0.0008125,0.0005426,0,2.384e-05,0.0001564,0,20.34,0.1169,0,0,5.722e-06
283500000000,283800000000,6117800987,0,1479459266,3.242e-05,0.000536,0.007751,0.0004101,0.0008125,0.000536,0,2.384e-05,0.0002728,7.153e-05,25.89,0.128,0,0,1.431e-05
283800000000,284100000000,6117800987,0,1479459266,3.147e-05,0.000535,0.007751,0.0004101,0.0008125,0.0005388,0,2.384e-05,0.0001793,7.153e-05,24.98,0.126,0,0,3.433e-05
284100000000,284400000000,6117800987,0,1479459266,3.052e-05,0.0005331,0.007751,0.0004101,0.0008125,0.0005341,0,2.384e-05,0.0001783,0,23.55,0.1226,0,0,2.098e-05
284400000000,284700000000,6117800987,0,1479459266,3.147e-05,0.0005369,0.007751,0.0004101,0.0008125,0.0005426,9.537e-07,2.384e-05,0.0002356,0.0001431,24.62,0.1259,0,0,4.864e-05
284700000000,285000000000,6117800987,0,1479459266,2.861e-05,0.0005331,0.007751,0.0004101,0.0008125,0.0005341,0,2.384e-05,0.0001497,0,21.4,0.1178,0,0,4.768e-06
285000000000,285300000000,6117800987,0,1479459266,2.67e-05,0.000535,0.007751,0.0004101,0.0008125,0.0005379,0,2.384e-05,0.0001965,7.153e-05,20.61,0.1174,0,0,2.098e-05
285300000000,285600000000,6117800987,0,1479459266,2.67e-05,0.0005322,0.007751,0.0004101,0.0008125,0.000535,0,2.384e-05,0.0001278,7.153e-05,20.95,0.1183,0,0,1.24e-05
285600000000,285900000000,6117800987,0,1479459266,2.575e-05,0.0005341,0.007751,0.0004101,0.0008125,0.0005369,0,2.384e-05,0.0001678,7.153e-05,19.72,0.1115,0,0,2.003e-05
285900000000,286200000000,6117800987,0,1479459266,2.67e-05,0.0005322,0.007751,0.0004101,0.0008125,0.0005341,0,2.384e-05,0.0001297,7.153e-05,20.02,0.1148,0,0,1.907e-06
286200000000,286500000000,6117800987,0,1479459266,2.861e-05,0.0005341,0.007751,0.0004101,0.0008125,0.0005369,0,2.384e-05,0.0001574,0,19.96,0.1153,0,0,6.104e-05
286500000000,286800000000,6117800987,0,1479459266,2.861e-05,0.0005312,0.007751,0.0004101,0.0008125,0.0005331,0,2.384e-05,0.0001507,0,22.61,0.122,0,0,6.771e-05
286800000000,287100000000,6117800987,0,1479459266,2.861e-05,0.0005331,0.007751,0.0004101,0.0008125,0.000536,0,2.384e-05,0.0001392,7.153e-05,22.7,0.1237,0,0,2.67e-05
287100000000,287400000000,6117800987,0,1479459266,2.861e-05,0.0005312,0.007751,0.0004101,0.0008125,0.0005322,0,2.384e-05,0.0001698,0,21.05,0.1177,0,0,5.722e-06
287400000000,287700000000,6117800987,0,1479459266,2.575e-05,0.0005322,0.007751,0.0004101,0.0008125,0.000536,0,2.384e-05,0.0001392,7.153e-05,20.55,0.1182,0,0,3.052e-05
287700000000,288000000000,6117800987,0,1479459266,2.956e-05,0.0005302,0.007751,0.0004101,0.0008125,0.0005322,0,2.384e-05,0.0001469,7.153e-05,21.28,0.1191,0,0,3.052e-05
288000000000,288300000000,6117800987,0,1479459266,3.147e-05,0.0005331,0.007751,0.0004101,0.0008125,0.000536,0,2.384e-05,0.0005474,7.153e-05,22.34,0.1197,0,0,1.526e-05
288300000000,288600000000,6117800987,0,1479459266,2.956e-05,0.0005302,0.007751,0.0004101,0.0008125,0.0005322,0,2.384e-05,0.0001421,7.153e-05,24.37,0.13,0,0,2.67e-05
288600000000,288900000000,6117800987,0,1479459266,2.956e-05,0.0005322,0.007751,0.0004101,0.0008125,0.000535,0,2.384e-05,0.0001249,0,24.71,0.1323,0,0,3.052e-05
288900000000,289200000000,6117800987,0,1479459266,3.052e-05,0.0005302,0.007751,0.0004101,0.0008125,0.0005331,0,2.384e-05,0.0001478,7.153e-05,24.67,0.1333,0,0,9.537e-07
289200000000,289500000000,6117800987,0,1479459266,2.956e-05,0.0005322,0.007751,0.0004101,0.0008125,0.000535,0,2.384e-05,0.0001297,0,23.36,0.1284,0,0,2.956e-05
289500000000,289800000000,6117800987,0,1479459266,2.766e-05,0.0005302,0.007751,0.0004101,0.0008125,0.0005331,0,2.384e-05,0.0001535,7.153e-05,22.58,0.1249,0,0,5.722e-06
289800000000,290100000000,6117800987,0,1479459266,2.67e-05,0.0005322,0.007751,0.0004101,0.0008125,0.000535,0,2.384e-05,0.0001354,0,22.85,0.1275,0,0,7.629e-06
290100000000,290400000000,6117800987,0,1479459266,2.67e-05,0.0005302,0.007751,0.0004101,0.0008125,0.000536,0,2.384e-05,0.0001469,0.0001431,21.91,0.1225,0,0,1.335e-05
290400000000,290700000000,6117800987,0,1479459266,2.766e-05,0.0005331,0.007751,0.0004101,0.0008125,0.0005388,0,2.384e-05,0.0001707,7.153e-05,20.33,0.1124,0,0,5.436e-05
290700000000,291000000000,6117800987,0,1479459266,2.575e-05,0.0005293,0.007751,0.0004101,0.0008125,0.0005312,0,2.384e-05,0.0001812,7.153e-05,19.92,0.1137,0,0,3.815e-06
291000000000,291300000000,6117800987,0,1479459266,2.575e-05,0.0005312,0.007751,0.0004101,0.0008125,0.0005341,0,2.384e-05,0.0001307,0,20.44,0.1179,0,0,1.335e-05
291300000000,291600000000,6117800987,0,1479459266,2.67e-05,0.0005293,0.007751,0.0004101,0.0008125,0.0005312,0,2.384e-05,0.0001659,7.153e-05,19.38,0.1117,0,0,1.812e-05
291600000000,291900000000,6117800987,0,1479459266,2.67e-05,0.0005312,0.007751,0.0004101,0.0008125,0.0005341,0,2.384e-05,0.000247,0,20.87,0.1182,0,0,6.008e-05
291900000000,292200000000,6117800987,0,1479459266,2.766e-05,0.0005293,0.007751,0.0004101,0.0008125,0.0005312,0,2.384e-05,0.0001507,7.153e-05,21.21,0.1204,0,0,4.959e-05
292200000000,292500000000,6117800987,0,1479459266,2.861e-05,0.0005312,0.007751,0.0004101,0.0008135,0.0005341,0,2.384e-05,0.000185,0,22.02,0.1216,0,0,2.003e-05
292500000000,292800000000,6117800987,0,1479459266,2.956e-05,0.0005293,0.007751,0.0004101,0.0008135,0.0005322,0,2.384e-05,0.0001297,0,21.87,0.1222,0,0,1.812e-05
292800000000,293100000000,6117800987,0,1479459266,3.052e-05,0.0005312,0.007751,0.0004101,0.0008135,0.0005341,0,2.384e-05,0.0002346,7.153e-05,24.76,0.127,0,0,3.338e-05
293100000000,293400000000,6117800987,0,1479459266,2.956e-05,0.0005293,0.007751,0.0004101,0.0008135,0.0005322,0,2.384e-05,0.0001793,7.153e-05,24.2,0.1268,0,0,1.717e-05
293400000000,293700000000,6117800987,0,1479459266,2.766e-05,0.0005312,0.007751,0.0004101,0.0008135,0.0005341,0,2.384e-05,0.0002718,0,22,0.119,0,0,2.67e-05
293700000000,294000000000,6117800987,0,1479459266,2.956e-05,0.0005283,0.007751,0.0004101,0.0008135,0.0005302,2.861e-06,2.384e-05,0.0001707,0.0008574,23.43,0.1256,0,0,1.24e-05
294000000000,294300000000,6117800987,0,1479459266,2.67e-05,0.0005293,0.007751,0.0004101,0.0008135,0.0005331,0,2.384e-05,0.0001373,0,21.19,0.1171,0,0,2.67e-05
294300000000,294600000000,6117800987,0,1479459266,2.766e-05,0.0005264,0.007751,0.0004101,0.0008135,0.0005274,0,2.384e-05,0.0001488,7.153e-05,21.18,0.1179,0,0,1.907e-06
294600000000,294900000000,6117800987,0,1479459266,2.766e-05,0.0005283,0.007751,0.0004101,0.0008135,0.0005312,0,2.384e-05,0.0002356,7.153e-05,21.59,0.1219,0,0,9.537e-06
294900000000,295200000000,6117800987,0,1479459266,2.766e-05,0.0005264,0.007751,0.0004101,0.0008135,0.0005274,0,2.384e-05,0.0001755,7.153e-05,20.87,0.1158,0,0,2.956e-05
295200000000,295500000000,6117800987,0,1479459266,2.766e-05,0.0005274,0.007751,0.0004101,0.0008135,0.0005302,0,2.384e-05,0.0001345,0,20.71,0.1176,0,0,4.768e-06
295500000000,295800000000,6117800987,0,1479459266,2.575e-05,0.0005255,0.007751,0.0004101,0.0008135,0.0005274,0,2.384e-05,0.0001431,7.153e-05,20.31,0.115,0,0,4.578e-05
295800000000,296100000000,6117800987,0,1479459266,2.67e-05,0.0005274,0.007751,0.000411,0.0008135,0.0005302,0,2.384e-05,0.0002117,7.153e-05,20.38,0.1165,0,0,5.245e-05
296100000000,296400000000,6117800987,0,1479459266,2.861e-05,0.0005255,0.007751,0.000411,0.0008135,0.0005274,0,2.384e-05,0.0001602,7.153e-05,22.28,0.1214,0,0,2.003e-05
296400000000,296700000000,6117800987,0,1479459266,2.956e-05,0.0005264,0.007751,0.000411,0.0008135,0.0005293,0,2.384e-05,0.000164,0,23.72,0.1244,0,0,3.433e-05
296700000000,297000000000,6117800987,0,1479459266,2.861e-05,0.0005245,0.007751,0.000411,0.0008135,0.0005274,0,2.384e-05,0.0002365,7.153e-05,22.74,0.1235,0,0,1.24e-05
297000000000,297300000000,6117800987,0,1479459266,2.861e-05,0.0005264,0.007751,0.000411,0.0008135,0.0005293,0,2.384e-05,0.000144,0,22.07,0.1221,0,0,1.907e-06
297300000000,297600000000,6117800987,0,1479459266,2.956e-05,0.0005245,0.007751,0.000411,0.0008135,0.0005302,0,2.384e-05,0.0001612,7.153e-05,21.82,0.1183,0,0,8.583e-06
297600000000,297900000000,6117800987,0,1479459266,2.766e-05,0.0005283,0.007751,0.000411,0.0008135,0.0005341,0,2.384e-05,0.0001431,0.0001431,21.21,0.1188,0,0,4.959e-05
297900000000,298200000000,6117800987,0,1479459266,2.956e-05,0.0005245,0.007751,0.000411,0.0008135,0.0005255,0,2.384e-05,0.0001907,7.153e-05,22.95,0.1228,0,0,4.482e-05
298200000000,298500000000,6117800987,0,1479459266,2.766e-05,0.0005264,0.007751,0.000411,0.0008135,0.0005293,0,2.384e-05,0.0001593,0,20.48,0.1131,0,0,5.15e-05
298500000000,298800000000,6117800987,0,1479459266,2.766e-05,0.0005245,0.007751,0.000411,0.0008135,0.0005255,0,2.384e-05,0.0001402,7.153e-05,20.4,0.1146,0,0,3.242e-05
298800000000,299100000000,6117800987,0,1479459266,2.861e-05,0.0005255,0.007751,0.000411,0.0008135,0.0005293,0,2.384e-05,0.0002298,0,22.72,0.1215,0,0,9.537e-06
299100000000,299400000000,6117800987,0,1479459266,2.861e-05,0.0005236,0.007751,0.000411,0.0008135,0.0005255,0,2.384e-05,0.0001678,7.153e-05,23.71,0.1228,0,0,5.722e-06
299400000000,299700000000,6117800987,0,1479459266,2.766e-05,0.0005255,0.007751,0.000411,0.0008135,0.0005293,0,2.384e-05,0.0001469,0,20.53,0.1133,0,0,1.144e-05
