5700000000,6000000000,6164869082,0,38657749,0.03204,0.0004959,0.002052,9.441e-05,9.918e-05,0.002926,0.0008717,3.815e-06,0.2317,0.05542,0.8143,0.0005532,0,0,0.06592
6900000000,7200000000,6164869082,0,38657749,0.0329,0.0005655,0.001825,0.000104,0.0001097,0.003292,0.001106,3.815e-06,0.1135,0.06323,0.8438,0.0005778,0,0,0
8100000000,8400000000,6164869082,0,38657749,0.03003,0.0004768,0.001913,0.0001364,0.0001469,0.001104,4.768e-05,3.815e-06,0.07227,0.00885,0.7968,0.0004978,0,0,0
9300000000,9600000000,6164869082,0,38657749,0.01682,0.0002594,0.001953,2.67e-05,2.956e-05,0.001005,8.011e-05,3.815e-06,0.07141,0.01935,0.8238,0.0005821,0,0,0
10200000000,10500000000,6164869082,0,38657749,0.03192,0.0005779,0.002037,0.0001469,0.0001545,0.003899,0.001759,3.815e-06,0.1284,0.06433,0.8165,0.0005589,0,0,0.06219
10500000000,10800000000,6164869082,0,38657749,0.001772,0.0001726,0.001909,1.526e-05,1.907e-05,0.0009727,6.676e-05,3.815e-06,0.06885,0.01886,1.034,0.0006226,0,0,0
11400000000,11700000000,6164869082,0,38657749,0.03308,0.0006762,0.002174,0.0002413,0.0002737,0.003529,0.001425,3.815e-06,0.1193,0.0614,0.801,0.0004738,0,0,0.06012
12600000000,12900000000,6164869082,0,38657749,0.02982,0.0004511,0.001907,0.0001497,0.0001526,0.001122,7.153e-05,3.815e-06,0.07288,0.01556,0.7929,0.000486,0,0,0
13500000000,13800000000,6164869082,0,38657749,0.01837,0.0004568,0.002018,0.0001583,0.0001841,0.003765,0.001766,3.815e-06,0.1987,0.06604,0.8243,0.0005861,0,0,0.06799
13800000000,14100000000,6164869082,0,38657749,0.01495,0.0002747,0.001762,2.67e-05,3.052e-05,0.00107,6.485e-05,3.815e-06,0.07251,0.0125,0.8948,0.000578,0,0,0.06921
14700000000,15000000000,6164869082,0,38657749,0.03314,0.0006399,0.002014,0.0002155,0.0002241,0.003761,0.002316,3.815e-06,0.1577,0.07019,0.8204,0.0004652,0,0,0
15900000000,16200000000,6164869082,0,38657749,0.03156,0.0006266,0.002041,0.0002432,0.000248,0.003914,0.0003042,3.815e-06,0.1051,0.04651,0.7793,0.0004437,0,0,0.06897
16800000000,17100000000,6164869082,0,38657749,0.007469,0.0003214,0.002102,0.0001268,0.0001507,0.003696,0.001209,3.815e-06,0.1902,0.05859,0.8466,0.000648,0,0,0
17100000000,17400000000,6164869082,0,38657749,0.02505,0.00037,0.001905,8.392e-05,9.251e-05,0.001045,5.436e-05,3.815e-06,0.07324,0.01265,0.7787,0.0004418,0,0,0
18000000000,18300000000,6164869082,0,38657749,0.02325,0.0005608,0.002151,0.0002232,0.0002556,0.0033,0.001457,3.815e-06,0.1163,0.05713,0.7971,0.0004711,0,0,0.07678
19200000000,19500000000,6164869082,0,38657749,0.03223,0.0004969,0.002052,7.725e-05,8.297e-05,0.003696,0.001091,3.815e-06,0.1797,0.06531,0.7812,0.0004257,0,0,0.06787
20400000000,20700000000,6164869082,0,38657749,0.03073,0.0004187,0.001776,6.199e-05,7.057e-05,0.00106,6.771e-05,3.815e-06,0.1215,0.01236,0.8006,0.0004801,0,0,0
21600000000,21900000000,6164869082,0,38657749,0.0177,0.0003023,0.001833,2.575e-05,2.956e-05,0.001049,6.39e-05,3.815e-06,0.1335,0.01492,0.7999,0.0005149,0,0,0
22500000000,22800000000,6164869082,0,38657749,0.03229,0.0004883,0.001965,6.39e-05,7.057e-05,0.003288,0.0009317,3.815e-06,0.231,0.05743,0.7912,0.0004881,0,0,0.07141
23700000000,24000000000,6164869082,0,38657749,0.03308,0.0006456,0.002045,0.0002232,0.0002346,0.00362,0.001675,3.815e-06,0.1636,0.06995,0.825,0.000464,0,0,0.06812
24900000000,25200000000,6164869082,0,38657749,0.02609,0.0003996,0.001892,8.678e-05,8.965e-05,0.001032,7.725e-05,3.815e-06,0.07312,0.01849,0.8125,0.0004151,0,0,0.05035
25800000000,26100000000,6164869082,0,38657749,0.02341,0.0005665,0.00214,0.0001888,0.000247,0.003712,0.001553,3.815e-06,0.09912,0.06042,0.8876,0.0004919,0,0,0.06921
26100000000,26400000000,6164869082,0,38657749,0.006889,0.0001736,0.001904,3.242e-05,3.624e-05,0.0008488,9.155e-05,3.815e-06,0.07275,0.01057,0.8167,0.0005336,0,0,0
27000000000,27300000000,6164869082,0,38657749,0.03265,0.0006418,0.002056,0.0002098,0.0002193,0.003792,0.002033,3.815e-06,0.1768,0.05927,0.7799,0.0004325,0,0,0
28200000000,28500000000,6164869082,0,38657749,0.0304,0.0004425,0.001844,0.0001135,0.0001221,0.0009842,6.866e-05,3.815e-06,0.1409,0.01343,0.7875,0.000451,0,0,0.06433
30300000000,30600000000,6164869082,0,38657749,0.03296,0.000742,0.001949,0.000288,0.0003281,0.003521,0.001143,3.815e-06,0.2346,0.06201,0.8056,0.0004562,0,0,0
31500000000,31800000000,6164869082,0,38657749,0.03094,0.000536,0.001808,0.0001774,0.0001793,0.00108,0.0001402,3.815e-06,0.0741,0.02121,0.7944,0.0004273,0,0,0
32700000000,33000000000,6164869082,0,38657749,0.02393,0.0003519,0.001827,4.768e-05,5.054e-05,0.001043,6.104e-05,3.815e-06,0.07349,0.009995,0.8193,0.0005425,0,0,0
33600000000,33900000000,6164869082,0,38657749,0.02264,0.0004883,0.002094,0.000144,0.0001554,0.003712,0.001558,3.815e-06,0.1443,0.04449,0.8088,0.0005143,0,0,0.04565
34800000000,35100000000,6164869082,0,38657749,0.03284,0.0005665,0.001781,0.0001669,0.0001745,0.002956,0.001392,3.815e-06,0.1611,0.06158,0.7762,0.0004282,0,0,0.06458
36000000000,36300000000,6164869082,0,38657749,0.03024,0.0004387,0.001698,0.0001125,0.0001144,0.00106,9.537e-05,3.815e-06,0.1157,0.01566,0.7919,0.0004798,0,0,0.05872
36900000000,37200000000,6164869082,0,38657749,0.01552,0.0004215,0.001934,0.0001774,0.0001879,0.003754,0.001953,3.815e-06,0.1257,0.05835,0.7786,0.0004375,0,0,0.04791
37200000000,37500000000,6164869082,0,38657749,0.01749,0.0003119,0.001999,7.534e-05,7.82e-05,0.001135,5.627e-05,3.815e-06,0.07422,0.007996,0.8135,0.0005473,0,0,0
38100000000,38400000000,6164869082,0,38657749,0.03351,0.0006304,0.002029,0.0002089,0.0002193,0.003693,0.002125,3.815e-06,0.1191,0.06567,0.8063,0.0005252,0,0,0.05908
39300000000,39600000000,6164869082,0,38657749,0.03345,0.0007086,0.002125,0.0002689,0.0002995,0.003254,0.001095,3.815e-06,0.1897,0.03571,0.7962,0.0004884,0,0,0.0368
40500000000,40800000000,6164869082,0,38657749,0.03149,0.0004148,0.00176,5.15e-05,5.817e-05,0.00103,0.0001097,3.815e-06,0.07263,0.01143,0.7905,0.0004696,0,0,0.0365
51000000000,51300000000,6164869082,0,305376846,0.002583,0.0003567,0.002121,0.0001049,0.0001297,0.004196,0.002193,9.537e-07,0.2432,0.07703,0.8702,0.0007216,0,0,0
51300000000,51600000000,6164869082,0,305376846,0.03168,0.0004683,0.001696,2.766e-05,3.242e-05,0.00108,9.06e-05,9.537e-07,0.06702,0.015,0.817,0.0005539,0,0,0
52200000000,52500000000,6164869082,0,305376846,0.008942,0.0005074,0.00214,0.0001698,0.0001993,0.003906,0.001884,9.537e-07,0.09167,0.06848,0.8611,0.0006821,0,0,0
52500000000,52800000000,6164869082,0,305376846,0.02524,0.000473,0.001848,8.965e-05,9.346e-05,0.001081,8.583e-05,9.537e-07,0.07117,0.009079,0.8368,0.0006425,0,0,0
53400000000,53700000000,6164869082,0,305376846,0.01614,0.0005112,0.002007,0.0002041,0.0002241,0.004105,0.001917,9.537e-07,0.1116,0.1122,0.8444,0.0006677,0,0,0
53700000000,54000000000,6164869082,0,305376846,0.01834,0.0004015,0.001957,4.387e-05,4.959e-05,0.00111,7.82e-05,9.537e-07,0.06763,0.01465,0.8403,0.0006432,0,0,0
54600000000,54900000000,6164869082,0,305376846,0.02197,0.0006189,0.001894,0.0001888,0.0002213,0.003922,0.002113,9.537e-07,0.1011,0.09302,0.8687,0.0007014,0,0,0
54900000000,55200000000,6164869082,0,305376846,0.01312,0.0003023,0.001871,2.289e-05,2.67e-05,0.001015,0.0001011,9.537e-07,0.06628,0.01157,0.8743,0.0007597,0,0,0
55800000000,56100000000,6164869082,0,305376846,0.02847,0.0006561,0.002037,0.000227,0.0002441,0.003849,0.002121,9.537e-07,0.1199,0.1134,0.8442,0.0006724,0,0,0.05768
56100000000,56400000000,6164869082,0,305376846,0.005348,0.0002031,0.001892,2.193e-05,2.48e-05,0.0009375,7.343e-05,9.537e-07,0.07141,0.01758,0.8515,0.000698,0,0,0
57000000000,57300000000,6164869082,0,305376846,0.03394,0.0007238,0.002064,0.0001364,0.0001478,0.003967,0.002323,9.537e-07,0.1626,0.09998,0.8161,0.0005862,0,0,0.05371
57900000000,58200000000,6164869082,0,305376846,0.001085,0.0001516,0.001999,4.196e-05,5.436e-05,0.003929,0.001474,9.537e-07,0.1191,0.09656,0.8406,0.000661,0,0,0
58200000000,58500000000,6164869082,0,305376846,0.034,0.0006371,0.001991,0.0002174,0.0002403,0.002693,0.0002537,9.537e-07,0.1145,0.047,0.8459,0.0006016,0,0,0
59100000000,59400000000,6164869082,0,305376846,0.00201,0.0002327,0.002132,6.485e-05,8.297e-05,0.003841,0.001732,9.537e-07,0.1199,0.1096,0.9946,0.0007361,0,0,0.05658
59400000000,59700000000,6164869082,0,305376846,0.03296,0.0005884,0.001884,0.0001993,0.0002003,0.001083,9.632e-05,9.537e-07,0.06897,0.01566,0.8295,0.0006152,0,0,0
60300000000,60600000000,6164869082,0,305376846,0.003387,0.0002861,0.002186,9.155e-05,0.000123,0.003696,0.00174,9.537e-07,0.1049,0.1151,0.8743,0.0007495,0,0,0
60600000000,60900000000,6164869082,0,305376846,0.02991,0.0005112,0.001884,0.0001459,0.0001564,0.001101,7.534e-05,9.537e-07,0.07104,0.009003,0.7967,0.0005207,0,0,0
70800000000,71100000000,6164869082,0,305376846,0.01077,0.0004244,0.00206,0.0001736,0.0001945,0.004005,0.001707,9.537e-07,0.2029,0.09717,0.8176,0.0005831,0,0,0
71100000000,71400000000,6164869082,0,305376846,0.02255,0.0004129,0.001934,9.346e-05,0.000102,0.001066,0.0001087,9.537e-07,0.06885,0.02206,0.8731,0.0005661,0,0,0.06201
72000000000,72300000000,6164869082,0,305376846,0.01801,0.0004864,0.002056,0.0002146,0.0002546,0.003922,0.001463,9.537e-07,0.2515,0.08826,0.8996,0.0005284,0,0,0
72300000000,72600000000,6164869082,0,305376846,0.01764,0.0003538,0.001972,3.719e-05,4.196e-05,0.0009899,8.488e-05,9.537e-07,0.06482,0.015,0.8614,0.0006911,0,0,0
73200000000,73500000000,6164869082,0,305376846,0.02005,0.0005636,0.002213,0.0003109,0.0003376,0.0037,0.001585,9.537e-07,0.109,0.09924,0.8856,0.0007556,0,0,0
73500000000,73800000000,6164869082,0,305376846,0.01521,0.000308,0.001942,2.384e-05,3.242e-05,0.001059,7.82e-05,9.537e-07,0.06665,0.015,0.8809,0.0007389,0,0,0
74400000000,74700000000,6164869082,0,305376846,0.02271,0.0006514,0.002186,0.0002432,0.0002613,0.004211,0.002296,9.537e-07,0.1479,0.09277,0.835,0.0006119,0,0,0
74700000000,75000000000,6164869082,0,305376846,0.01244,0.0002642,0.001884,1.717e-05,2.003e-05,0.0009995,8.011e-05,9.537e-07,0.06409,0.01129,0.8734,0.0007609,0,0,0
75600000000,75900000000,6164869082,0,305376846,0.02814,0.0006161,0.002102,0.0001917,0.0002146,0.004013,0.002148,9.537e-07,0.1333,0.09985,0.8386,0.000654,0,0,0.04297
75900000000,76200000000,6164869082,0,305376846,0.005875,0.0001841,0.001892,1.717e-05,2.193e-05,0.000906,7.82e-05,9.537e-07,0.06812,0.013,0.8719,0.0007418,0,0,0
76800000000,77100000000,6164869082,0,305376846,0.03284,0.0007286,0.002197,0.0003061,0.0003281,0.003693,0.001392,9.537e-07,0.1062,0.1051,0.8198,0.0005948,0,0,0.05157
77700000000,78000000000,6164869082,0,305376846,0.001965,0.0002575,0.002075,4.387e-05,5.436e-05,0.00396,0.002022,9.537e-07,0.1897,0.1006,0.8493,0.0007099,0,0,0
78000000000,78300000000,6164869082,0,305376846,0.03345,0.0006695,0.001947,0.0002556,0.0002623,0.00108,0.0001554,1.907e-06,0.08252,0.01715,0.8108,0.0005548,0,0,0.05078
78900000000,79200000000,6164869082,0,305376846,0.001848,0.0002575,0.002144,4.864e-05,7.82e-05,0.004013,0.001543,9.537e-07,0.09814,0.09656,0.8841,0.0007771,0,0,0
79200000000,79500000000,6164869082,0,305376846,0.03192,0.0005617,0.001698,0.0001507,0.0001631,0.001034,0.0001936,1.907e-06,0.0686,0.02536,0.8293,0.0006214,0,0,0
80100000000,80400000000,6164869082,0,305376846,0.004967,0.0003061,0.002178,0.0001001,0.0001278,0.003174,0.001539,9.537e-07,0.1694,0.1176,0.8611,0.000735,0,0,0
80400000000,80700000000,6164869082,0,305376846,0.02884,0.000495,0.001829,0.0001135,0.0001221,0.001064,8.202e-05,1.907e-06,0.07166,0.01843,0.8113,0.0005575,0,0,0.05469
86100000000,86400000000,6164869082,0,305376846,0.03607,0.000845,0.001957,0.0001087,0.0001431,0.00396,0.002712,1.907e-06,0.1282,0.1001,0.8336,0.0006146,0,0,0.001219
87000000000,87300000000,6164869082,0,305376846,0.001869,0.0002413,0.002125,4.673e-05,6.58e-05,0.00396,0.001764,1.907e-06,0.1141,0.11,0.863,0.0007104,0,0,0
87300000000,87600000000,6164869082,0,305376846,0.03204,0.0006495,0.001883,0.0001802,0.0001945,0.001102,0.0001459,1.907e-06,0.09082,0.009995,0.8014,0.0005314,0,0,0.05322
88200000000,88500000000,6164869082,0,305376846,0.003902,0.0003738,0.002129,0.0001173,0.0001326,0.00396,0.002125,1.907e-06,0.121,0.101,0.8654,0.0007371,0,0,0
88500000000,88800000000,6164869082,0,305376846,0.0321,0.0006027,0.001873,0.0001669,0.0001688,0.001036,0.0001087,1.907e-06,0.06689,0.01364,0.8299,0.0006004,0,0,0.06079
89400000000,89700000000,6164869082,0,305376846,0.005493,0.0003538,0.002174,0.0001316,0.0001574,0.003059,0.001732,1.907e-06,0.1191,0.09412,0.894,0.0007906,0,0,0
89700000000,90000000000,6164869082,0,305376846,0.0296,0.0005579,0.001781,0.0001545,0.0001669,0.001179,0.0001297,1.907e-06,0.09412,0.01822,0.8138,0.0005584,0,0,0.04736
90600000000,90900000000,6164869082,0,305376846,0.01114,0.0004854,0.002132,0.0001621,0.0001812,0.004128,0.002277,1.907e-06,0.1267,0.07886,0.8434,0.000632,0,0,0
101100000000,101400000000,6164869082,0,305376846,0.0332,0.0005522,0.002613,5.245e-05,5.627e-05,0.00304,0.0008621,1.907e-06,0.1318,0.07532,0.8079,0.0005168,0,0,0
101400000000,101700000000,6164869082,0,305376846,3.338e-05,0.0001011,0.00194,1.431e-05,1.812e-05,0.0001383,9.06e-05,1.907e-06,0.01213,0.02185,0.8129,0.0005745,0,0,0
102300000000,102600000000,6164869082,0,305376846,0.03406,0.0005741,0.002136,5.054e-05,5.531e-05,0.004257,0.0008507,1.907e-06,0.1677,0.06348,0.8615,0.0006543,0,0,0.03186
103200000000,103500000000,6164869082,0,305376846,0.001568,0.0001783,0.002331,1.812e-05,2.48e-05,0.003895,0.0007191,1.907e-06,0.1802,0.07666,0.8599,0.0007153,0,0,0
103500000000,103800000000,6164869082,0,305376846,0.03168,0.0004597,0.001722,3.624e-05,4.196e-05,0.001078,0.0001144,1.907e-06,0.07263,0.02078,0.8403,0.0005813,0,0,0
104700000000,105000000000,6164869082,0,305376846,0.02441,0.0003834,0.00177,4.768e-05,5.054e-05,0.001057,0.0001163,1.907e-06,0.118,0.02893,0.8591,0.0005708,0,0,0.06152
105600000000,105900000000,6164869082,0,305376846,0.02087,0.0006132,0.002224,0.0002584,0.0003328,0.003571,0.001499,1.907e-06,0.1311,0.09998,0.8667,0.0005586,0,0,0.01073
105900000000,106200000000,6164869082,0,305376846,0.01125,0.0002728,0.001768,1.907e-05,2.67e-05,0.001076,6.58e-05,1.907e-06,0.1216,0.01221,0.8149,0.0005501,0,0,0
106800000000,107100000000,6164869082,0,305376846,0.03314,0.0007219,0.002037,0.0002069,0.000267,0.004036,0.001675,1.907e-06,0.2197,0.1052,0.8243,0.0005397,0,0,0
108000000000,108300000000,6164869082,0,305376846,0.03241,0.0005789,0.001879,0.000185,0.0001879,0.001127,0.0001354,1.907e-06,0.116,0.0162,0.8057,0.00053,0,0,0.07056
109200000000,109500000000,6164869082,0,305376846,0.02737,0.000474,0.001852,0.0001183,0.000124,0.001076,7.343e-05,1.907e-06,0.1033,0.0162,0.8302,0.0006056,0,0,0.05725
110100000000,110400000000,6164869082,0,305376846,0.01907,0.0005512,0.00209,0.0001993,0.000227,0.003517,0.001642,1.907e-06,0.1058,0.1094,0.8353,0.0006317,0,0,0
110400000000,110700000000,6164869082,0,305376846,0.01421,0.00033,0.001816,1.907e-05,2.575e-05,0.001087,6.104e-05,2.861e-06,0.0719,0.008209,0.8723,0.0006225,0,0,0
116100000000,116400000000,6164869082,0,305376846,0.005882,0.0001955,0.001787,5.627e-05,5.913e-05,0.0008354,6.676e-05,2.861e-06,0.07153,0.01572,0.8022,0.0005201,0,0,0
117000000000,117300000000,6164869082,0,305376846,0.03412,0.0007143,0.001953,0.0002155,0.0002394,0.003975,0.002449,2.861e-06,0.1387,0.1141,0.8022,0.0004927,0,0,0.05835
118200000000,118500000000,6164869082,0,305376846,0.03436,0.0006132,0.001793,0.0001907,0.0002022,0.001114,0.000124,2.861e-06,0.07263,0.02328,0.8535,0.0006133,0,0,0.03839
119100000000,119400000000,6164869082,0,305376846,0.006767,0.0004158,0.001987,0.0001068,0.0001459,0.004585,0.002071,2.861e-06,0.147,0.1172,0.8841,0.0007387,0,0,0
119400000000,119700000000,6164869082,0,305376846,0.02527,0.0004644,0.001806,0.0001574,0.0001602,0.001139,0.000144,2.861e-06,0.1262,0.02936,0.8256,0.0004854,0,0,0.03479
120300000000,120600000000,6164869082,0,305376846,0.02243,0.0005903,0.002125,0.0002069,0.0002203,0.004341,0.002335,2.861e-06,0.1609,0.1039,0.8473,0.0005165,0,0,0.06677
120600000000,120900000000,6164869082,0,305376846,0.01112,0.000268,0.001745,2.003e-05,2.384e-05,0.001135,0.0001135,2.861e-06,0.07056,0.02499,0.8252,0.0005842,0,0,0
126300000000,126600000000,6164869082,0,305376846,0.01874,0.00033,0.002022,4.673e-05,5.436e-05,0.001141,0.0001154,2.861e-06,0.07312,0.02637,0.8293,0.0005879,0,0,0.05109
127200000000,127500000000,6164869082,0,305376846,0.03259,0.0006371,0.002155,0.0001984,0.0002117,0.003841,0.00238,2.861e-06,0.1277,0.1082,0.8175,0.0005515,0,0,0
128400000000,128700000000,6164869082,0,305376846,0.03424,0.0006924,0.002071,0.0002174,0.0002422,0.004044,0.002026,2.861e-06,0.2275,0.1167,0.7986,0.0004917,0,0,0.06506
129300000000,129600000000,6164869082,0,305376846,0.001928,0.0002565,0.00219,4.292e-05,9.537e-05,0.002781,0.001823,2.861e-06,0.1924,0.12,0.8211,0.0005614,0,0,0
129600000000,129900000000,6164869082,0,305376846,0.02789,0.0004606,0.001909,0.0001345,0.0001516,0.001074,0.0001383,2.861e-06,0.06848,0.02216,0.8034,0.0005342,0,0,0.06531
130500000000,130800000000,6164869082,0,305376846,0.01822,0.0005341,0.002106,0.0002041,0.0002289,0.003895,0.001917,2.861e-06,0.1313,0.0946,0.8175,0.0005745,0,0,0.0154
141600000000,141900000000,6164869082,0,4699356413,0.02902,0.0005827,0.00174,0.0001307,0.0001335,0.001265,9.727e-05,9.537e-07,0.07202,0.02393,0.8518,0.0005276,0,0,0
142800000000,143100000000,6164869082,0,4699356413,0.01401,0.000268,0.001972,2.193e-05,2.575e-05,0.001131,0.000104,9.537e-07,0.07092,0.01807,0.8462,0.0006089,0,0,0.06897
143700000000,144000000000,6164869082,0,4699356413,0.03333,0.0007143,0.002125,0.0002003,0.0002232,0.004013,0.002125,9.537e-07,0.1287,0.07141,0.8547,0.0005835,0,0,0.07202
144600000000,144900000000,6164869082,0,4699356413,0.0009785,0.0001192,0.001953,2.48e-05,3.338e-05,0.002037,0.001236,9.537e-07,0.1119,0.1174,0.8773,0.000664,0,0,0
144900000000,145200000000,6164869082,0,4699356413,0.03333,0.0006218,0.002052,0.0001726,0.0002089,0.00272,0.0006447,9.537e-07,0.1299,0.0708,0.8394,0.0005519,0,0,0.0636
145800000000,146100000000,6164869082,0,4699356413,0.00341,0.0004015,0.002167,9.632e-05,0.0001345,0.004295,0.001762,9.537e-07,0.1316,0.06812,0.8957,0.0006996,0,0,0
151500000000,151800000000,6164869082,0,4699356413,0.01326,0.0004368,0.002113,0.0001001,0.0001955,0.003647,0.001503,9.537e-07,0.1787,0.1123,0.8495,0.0005806,0,0,0.06018
151800000000,152100000000,6164869082,0,4699356413,0.02026,0.0004263,0.001863,0.0002956,0.0003338,0.001211,8.106e-05,9.537e-07,0.1306,0.01114,0.8496,0.0005841,0,0,0
152700000000,153000000000,6164869082,0,4699356413,0.02725,0.0005226,0.002552,6.008e-05,6.866e-05,0.00322,0.001001,9.537e-07,0.3545,0.04681,0.8389,0.0005531,0,0,0
153900000000,154200000000,6164869082,0,4699356413,0.03467,0.0009451,0.002445,0.0003595,0.0004349,0.004219,0.001593,9.537e-07,0.2842,0.05579,0.8513,0.0005862,0,0,0.05438
155100000000,155400000000,6164869082,0,4699356413,0.02853,0.0004873,0.002224,4.196e-05,4.387e-05,0.004379,0.0001974,9.537e-07,0.07141,0.0155,0.807,0.0004907,0,0,0.0002441
162000000000,162300000000,6164869082,0,4699356413,0.0264,0.0004339,0.001919,0.0001469,0.0001583,0.001118,7.439e-05,9.537e-07,0.1309,0.01321,0.823,0.0005357,0,0,0
162900000000,163200000000,6164869082,0,4699356413,0.02408,0.0005426,0.002209,0.0002155,0.000246,0.003273,0.001425,9.537e-07,0.1252,0.106,0.8561,0.0005963,0,0,0
163200000000,163500000000,6164869082,0,4699356413,0.01315,0.000206,0.001888,1.621e-05,1.907e-05,0.0009956,7.629e-05,9.537e-07,0.1316,0.01871,0.8748,0.000642,0,0,0.06567
164100000000,164400000000,6164869082,0,4699356413,0.03687,0.000762,0.001991,0.0001688,0.0003004,0.003841,0.002361,9.537e-07,0.1663,0.1035,0.8388,0.0005405,0,0,0
165300000000,165600000000,6164869082,0,4699356413,0.03619,0.0006399,0.001835,0.0001602,0.0001783,0.003372,0.0005569,9.537e-07,0.1289,0.07532,0.8324,0.0005386,0,0,0.0697
166200000000,166500000000,6164869082,0,4699356413,0.003284,0.000267,0.002129,0.0001173,0.0001307,0.003281,0.001011,9.537e-07,0.2271,0.08044,0.8831,0.0006643,0,0,0
166500000000,166800000000,6164869082,0,4699356413,0.03387,0.0004854,0.001913,0.0001459,0.0001574,0.00111,6.676e-05,9.537e-07,0.07495,0.008713,0.8501,0.0005867,0,0,0.05518
167400000000,167700000000,6164869082,0,4699356413,0.01517,0.0004034,0.002033,0.0001354,0.0001488,0.004028,0.002026,9.537e-07,0.1987,0.1226,0.8788,0.0006738,0,0,0
167700000000,168000000000,6164869082,0,4699356413,0.02234,0.0003176,0.001797,2.575e-05,2.956e-05,0.001001,8.392e-05,9.537e-07,0.07629,0.02042,0.8735,0.0006612,0,0,0
168600000000,168900000000,6164869082,0,4699356413,0.02884,0.0005236,0.002182,0.000205,0.0002174,0.003887,0.001446,9.537e-07,0.1936,0.105,0.8598,0.0006207,0,0,0
169800000000,170100000000,6164869082,0,4699356413,0.03802,0.0006866,0.002125,0.0001898,0.0002012,0.004028,0.00186,9.537e-07,0.1399,0.08569,0.8555,0.0006211,0,0,0
171000000000,171300000000,6164869082,0,4699356413,0.03668,0.0006561,0.002075,0.0002003,0.0002174,0.003693,0.0008106,1.907e-06,0.1619,0.04272,0.8372,0.0005823,0,0,0
172200000000,172500000000,6164869082,0,4699356413,0.03217,0.0004406,0.00176,0.0001116,0.0001163,0.001036,8.869e-05,1.907e-06,0.1208,0.01935,0.8482,0.0006459,0,0,0.05737
173100000000,173400000000,6164869082,0,4699356413,0.01865,0.0004692,0.002098,0.0002203,0.0002308,0.003857,0.002296,1.907e-06,0.1467,0.1072,0.8776,0.0007306,0,0,0
175500000000,175800000000,6164869082,0,4699356413,0.0379,0.0006237,0.001915,9.918e-05,0.0001097,0.003799,0.001953,1.907e-06,0.2197,0.1119,0.8676,0.0005881,0,0,0
186900000000,187200000000,6164869082,0,4699356413,0.03455,0.0006809,0.002014,0.0002184,0.0002289,0.003891,0.001253,1.907e-06,0.1277,0.06012,0.8281,0.0005918,0,0,0.05811
188100000000,188400000000,6164869082,0,4699356413,0.03235,0.0004845,0.001888,0.0001345,0.0001383,0.001089,8.106e-05,1.907e-06,0.11,0.02094,0.8595,0.0006251,0,0,0.06482
189000000000,189300000000,6164869082,0,4699356413,0.01843,0.0004692,0.002041,0.0001945,0.0002184,0.003674,0.002285,1.907e-06,0.1526,0.1287,0.8887,0.0006983,0,0,0
189300000000,189600000000,6164869082,0,4699356413,0.01834,0.0004311,0.001871,0.0002766,0.0002899,0.001249,8.011e-05,1.907e-06,0.1687,0.01721,0.9389,0.0006683,0,0,0.06287
190200000000,190500000000,6164869082,0,4699356413,0.03122,0.0006065,0.002102,0.000288,0.0003109,0.003666,0.001034,1.907e-06,0.1494,0.09937,0.8876,0.0006076,0,0,0.06097
190500000000,190800000000,6164869082,0,4699356413,0.005356,0.0001574,0.001913,1.621e-05,2.003e-05,0.0008984,5.913e-05,1.907e-06,0.07471,0.009933,0.9935,0.000711,0,0,0
191400000000,191700000000,6164869082,0,4699356413,0.03253,0.0006189,0.002064,0.0001526,0.0002069,0.003696,0.001987,1.907e-06,0.1345,0.1078,0.8308,0.0005232,0,0,0.06036
192300000000,192600000000,6164869082,0,4699356413,0.001976,0.0002985,0.002167,9.06e-05,0.0001144,0.00428,0.00131,1.907e-06,0.1189,0.07092,0.859,0.000634,0,0,0
192600000000,192900000000,6164869082,0,4699356413,0.03497,0.0006256,0.001841,0.0001898,0.0002022,0.001169,0.0001087,1.907e-06,0.07434,0.006432,0.8378,0.0005825,0,0,0
193800000000,194100000000,6164869082,0,4699356413,0.02469,0.0003586,0.001944,6.58e-05,6.962e-05,0.00102,9.155e-05,1.907e-06,0.0708,0.01978,0.8422,0.0006123,0,0,0
194700000000,195000000000,6164869082,0,4699356413,0.02679,0.0005627,0.002148,0.0002441,0.0002556,0.003902,0.001907,1.907e-06,0.2573,0.1185,0.8247,0.0005494,0,0,0.003342
195900000000,196200000000,6164869082,0,4699356413,0.0351,0.000515,0.0019,7.153e-05,7.629e-05,0.003418,0.001133,1.907e-06,0.2117,0.111,0.8364,0.0005659,0,0,0.06219
201600000000,201900000000,6164869082,0,4699356413,0.03601,0.0006914,0.002014,0.0002041,0.0002136,0.003887,0.001789,2.861e-06,0.1355,0.07275,0.8297,0.0005489,0,0,0
202800000000,203100000000,6164869082,0,4699356413,0.03345,0.0004797,0.001879,0.0001497,0.0001516,0.001099,7.534e-05,2.861e-06,0.07336,0.01801,0.833,0.0005583,0,0,0.05145
204000000000,204300000000,6164869082,0,4699356413,0.0191,0.0003195,0.001961,4.101e-05,4.482e-05,0.001041,7.439e-05,2.861e-06,0.07532,0.01279,0.9054,0.0006226,0,0,0.0686
204900000000,205200000000,6164869082,0,4699356413,0.03186,0.0005922,0.002075,0.0001955,0.000206,0.003685,0.002201,2.861e-06,0.1321,0.1194,0.9076,0.0006291,0,0,0.06445
206100000000,206400000000,6164869082,0,4699356413,0.03717,0.0006533,0.001917,0.0001593,0.0001678,0.00383,0.002308,2.861e-06,0.1411,0.113,0.8643,0.0005721,0,0,0.05652
207300000000,207600000000,6164869082,0,4699356413,0.03442,0.0005159,0.0019,0.0001745,0.0001764,0.001034,0.0001154,2.861e-06,0.07629,0.01422,0.8389,0.0005479,0,0,0.06055
208200000000,208500000000,6164869082,0,4699356413,0.009613,0.0003414,0.002159,0.0001564,0.0001774,0.003696,0.001535,2.861e-06,0.1099,0.11,0.9089,0.0007001,0,0,0.002975
208500000000,208800000000,6164869082,0,4699356413,0.02682,0.0003977,0.00194,8.678e-05,9.537e-05,0.001045,6.58e-05,2.861e-06,0.07983,0.007286,0.8406,0.0005652,0,0,0.06873
209400000000,209700000000,6164869082,0,4699356413,0.02344,0.0006027,0.002098,0.0002327,0.000246,0.004547,0.001867,2.861e-06,0.1616,0.1079,0.8737,0.0006136,0,0,0.05884
209700000000,210000000000,6164869082,0,4699356413,0.01378,0.0002594,0.001842,3.242e-05,3.529e-05,0.0009699,6.294e-05,2.861e-06,0.07312,0.01642,0.8671,0.0006658,0,0,0
210600000000,210900000000,6164869082,0,4699356413,0.03687,0.0006752,0.002144,0.0002098,0.000247,0.00428,0.001497,2.861e-06,0.1365,0.08569,0.8631,0.0006199,0,0,0
211800000000,212100000000,6164869082,0,4699356413,0.03857,0.0008221,0.002102,0.0002451,0.000268,0.004738,0.001722,2.861e-06,0.1194,0.073,0.8689,0.0006092,0,0,0.06458
212700000000,213000000000,6164869082,0,4699356413,0.0001087,7.629e-05,0.001942,2.48e-05,3.147e-05,0.0004511,0.0003796,2.861e-06,0.02124,0.02243,0.7755,0.0003361,0,0,0
213000000000,213300000000,6164869082,0,4699356413,0.03613,0.0006638,0.001953,0.0002098,0.0002451,0.003689,0.001062,2.861e-06,0.197,0.07141,0.8154,0.0005094,0,0,0
213900000000,214200000000,6164869082,0,4699356413,0.002388,0.0003042,0.00214,6.676e-05,9.346e-05,0.003838,0.002148,2.861e-06,0.1504,0.1017,0.8904,0.0007041,0,0,0
214200000000,214500000000,6164869082,0,4699356413,0.03113,0.0004559,0.00189,0.0001354,0.0001392,0.001053,8.202e-05,2.861e-06,0.07275,0.01521,0.8395,0.0005649,0,0,0.07031
215100000000,215400000000,6164869082,0,4699356413,0.01715,0.0004025,0.00201,0.0001879,0.000205,0.0037,0.001427,2.861e-06,0.1428,0.1041,0.8739,0.0006688,0,0,0
215400000000,215700000000,6164869082,0,4699356413,0.01996,0.0003109,0.001991,4.101e-05,4.482e-05,0.00104,5.913e-05,2.861e-06,0.0719,0.01465,0.8836,0.0006838,0,0,0.05731
221700000000,222000000000,6164869082,0,4699356413,0.004784,0.0003119,0.002178,9.537e-05,0.0001116,0.003658,0.002186,2.861e-06,0.1323,0.08667,0.8692,0.0006565,0,0,0
222000000000,222300000000,6164869082,0,4699356413,0.0321,0.0004606,0.001749,0.000102,0.000104,0.00123,9.251e-05,2.861e-06,0.07617,0.02286,0.8684,0.0006116,0,0,0.0542
222900000000,223200000000,6164869082,0,4699356413,0.01755,0.0003786,0.002083,8.297e-05,9.632e-05,0.003883,0.00235,2.861e-06,0.2234,0.1072,0.9187,0.0007181,0,0,0.05591
223200000000,223500000000,6164869082,0,4699356413,0.02039,0.000329,0.001812,2.67e-05,2.956e-05,0.0009995,8.678e-05,2.861e-06,0.125,0.02264,0.8965,0.000685,0,0,0.06244
224100000000,224400000000,6164869082,0,4699356413,0.02872,0.0006037,0.002083,0.0002346,0.0002451,0.003975,0.002357,2.861e-06,0.1523,0.1182,0.8808,0.000651,0,0,0
224400000000,224700000000,6164869082,0,4699356413,0.00882,0.0002251,0.001888,1.907e-05,2.289e-05,0.0009394,7.343e-05,2.861e-06,0.07935,0.02127,0.8933,0.0006966,0,0,0
225300000000,225600000000,6164869082,0,4699356413,0.03705,0.0006895,0.00209,0.0002394,0.000248,0.004349,0.001894,2.861e-06,0.1458,0.1096,0.8576,0.0005974,0,0,0.05872
226500000000,226800000000,6164869082,0,4699356413,0.03442,0.0005808,0.001942,0.0001831,0.0002012,0.001057,8.488e-05,2.861e-06,0.07251,0.01642,0.8644,0.000636,0,0,0.06409
227400000000,227700000000,6164869082,0,4699356413,0.005783,0.0003376,0.002098,0.0001287,0.0001411,0.003792,0.001801,2.861e-06,0.2622,0.1046,0.9205,0.0007986,0,0,0
227700000000,228000000000,6164869082,0,4699356413,0.03149,0.0004263,0.001896,0.000124,0.0001259,0.0009785,0.0001001,2.861e-06,0.07385,0.02542,0.8646,0.000624,0,0,0.07007
229800000000,230100000000,6164869082,0,4699356413,0.03137,0.0006876,0.002094,0.0002432,0.0003004,0.003532,0.001278,2.861e-06,0.1824,0.1102,0.8578,0.0006229,0,0,0.0647
231000000000,231300000000,6164869082,0,4699356413,0.03638,0.0007467,0.001961,0.0001965,0.000227,0.004112,0.001614,3.815e-06,0.2886,0.1062,0.8399,0.0005452,0,0,0.04041
232200000000,232500000000,6164869082,0,4699356413,0.03589,0.0005789,0.00198,0.0001545,0.0001602,0.00107,9.727e-05,3.815e-06,0.07507,0.009293,0.8445,0.0005515,0,0,0.06134
233100000000,233400000000,6164869082,0,4699356413,0.008438,0.0003719,0.002136,0.0001173,0.0001402,0.00399,0.001831,3.815e-06,0.1379,0.0863,0.8768,0.0006309,0,0,0
233400000000,233700000000,6164869082,0,4699356413,0.02911,0.0004559,0.001852,9.823e-05,0.0001011,0.001059,6.199e-05,3.815e-06,0.07581,0.008713,0.8216,0.0004935,0,0,0.06958
234300000000,234600000000,6164869082,0,4699356413,0.02151,0.0005322,0.002136,0.0002089,0.0002203,0.003845,0.002316,3.815e-06,0.1426,0.1113,0.8191,0.0004437,0,0,0
235500000000,235800000000,6164869082,0,4699356413,0.03674,0.0006485,0.002079,0.0002155,0.0002241,0.003696,0.001831,3.815e-06,0.1599,0.1158,0.8268,0.0005294,0,0,0.05872
241200000000,241500000000,6164869082,0,4699356413,0.03668,0.0005035,0.002014,5.054e-05,5.531e-05,0.002693,0.000886,3.815e-06,0.1602,0.06836,0.8855,0.0006424,0,0,0.07056
242400000000,242700000000,6164869082,0,4699356413,0.03491,0.0005322,0.0019,0.0001612,0.0001736,0.001055,7.725e-05,3.815e-06,0.073,0.005074,0.8945,0.0006102,0,0,0.06152
243600000000,243900000000,6164869082,0,4699356413,0.03424,0.0004377,0.001715,5.15e-05,6.294e-05,0.001049,7.153e-05,3.815e-06,0.0719,0.009354,0.8554,0.0006008,0,0,0.06384
244500000000,244800000000,6164869082,0,4699356413,0.0007277,0.0003967,0.001926,0.0001841,0.0002165,0.001459,0.0009356,3.815e-06,0.06836,0.03485,0.894,0.0007189,0,0,0
245400000000,245700000000,6164869082,0,4699356413,0.0003967,0.000104,0.001942,3.91e-05,4.768e-05,0.001207,0.0006809,3.815e-06,0.04144,0.04999,1.696,0.002201,0,0,0
245700000000,246000000000,6164869082,0,4699356413,0.03729,0.001015,0.001934,0.0002079,0.0002289,0.004456,0.0009584,3.815e-06,0.3145,0.05164,0.8817,0.0006464,0,0,0.0575
251400000000,251700000000,6164869082,0,4699356413,0.03802,0.0007229,0.002102,0.0002356,0.0002441,0.004173,0.001768,3.815e-06,0.1379,0.07202,0.8392,0.0005532,0,0,0.07043
252600000000,252900000000,6164869082,0,4699356413,0.03333,0.0004663,0.00186,0.0001345,0.0001411,0.001072,6.962e-05,3.815e-06,0.07288,0.009003,0.8375,0.0005932,0,0,0.06348
255900000000,256200000000,6164869082,0,4699356413,0.03394,0.0006704,0.002159,0.0001955,0.0002232,0.0037,0.001793,3.815e-06,0.1265,0.1201,0.8442,0.000561,0,0,0
257100000000,257400000000,6164869082,0,4699356413,0.0329,0.0006647,0.002106,0.0002079,0.0002689,0.001528,9.441e-05,3.815e-06,0.07275,0.009781,0.8491,0.0005852,0,0,0.003551
258300000000,258600000000,6164869082,0,4699356413,0.03351,0.0005903,0.002254,0.0002251,0.0002337,0.00116,9.823e-05,3.815e-06,0.07312,0.00972,0.8659,0.0006115,0,0,0.06061
259200000000,259500000000,6164869082,0,4699356413,0.01399,0.0003176,0.002121,5.722e-05,8.011e-05,0.004028,0.001301,3.815e-06,0.111,0.07141,0.871,0.0006336,0,0,0
259500000000,259800000000,6164869082,0,4699356413,0.02231,0.0003519,0.001795,2.67e-05,3.242e-05,0.00104,7.725e-05,3.815e-06,0.07178,0.0125,0.852,0.0006185,0,0,0
260400000000,260700000000,6164869082,0,4699356413,0.02673,0.0005989,0.002132,0.0002394,0.000267,0.002926,0.001402,3.815e-06,0.1238,0.1071,0.8506,0.0006096,0,0,0.1238
261600000000,261900000000,6164869082,0,4699356413,0.03735,0.000699,0.002026,0.0002298,0.0002537,0.002762,0.00153,3.815e-06,0.1541,0.08984,0.8412,0.0005831,0,0,0.08093
262800000000,263100000000,6164869082,0,4699356413,0.03687,0.0005188,0.001875,3.815e-05,4.292e-05,0.002991,0.0007582,3.815e-06,0.1721,0.07544,0.8169,0.0005024,0,0,0.001019
264000000000,264300000000,6164869082,0,4699356413,0.03668,0.0004349,0.001703,3.529e-05,4.292e-05,0.001007,5.817e-05,3.815e-06,0.0719,0.01186,0.8411,0.0005357,0,0,0.06616
264900000000,265200000000,6164869082,0,4699356413,0.00914,0.0002069,0.002171,3.624e-05,4.101e-05,0.003098,0.0007305,3.815e-06,0.1667,0.06183,0.9144,0.0007137,0,0,0.0001507
265200000000,265500000000,6164869082,0,4699356413,0.0282,0.0003767,0.001747,3.052e-05,3.338e-05,0.0009975,6.199e-05,3.815e-06,0.07397,0.01385,0.8326,0.0005323,0,0,0.05377
267300000000,267600000000,6164869082,0,4699356413,0.03271,0.0006123,0.0019,0.0001926,0.0002069,0.003605,0.0016,3.815e-06,0.09619,0.09668,0.8586,0.0005046,0,0,0
269400000000,269700000000,6164869082,0,4699356413,0.002411,0.0002327,0.002071,4.673e-05,6.199e-05,0.003723,0.002262,3.815e-06,0.1233,0.07861,0.9658,0.0007626,0,0,0
269700000000,270000000000,6164869082,0,4699356413,0.03522,0.0005808,0.00194,0.0002232,0.0002241,0.001402,7.82e-05,3.815e-06,0.08044,0.01521,0.8672,0.0006008,0,0,0.04999
270600000000,270900000000,6164869082,0,4699356413,0.005074,0.0003347,0.002094,0.0001259,0.0001364,0.004257,0.00177,3.815e-06,0.1719,0.1022,0.8847,0.0007028,0,0,0
270900000000,271200000000,6164869082,0,4699356413,0.03229,0.0005198,0.001837,0.0002146,0.0002165,0.001116,6.39e-05,3.815e-06,0.08081,0.01486,0.8578,0.0006025,0,0,0.06763
282000000000,282300000000,6164869082,0,4699356413,0.005478,0.0003271,0.002178,0.0001154,0.0001268,0.003902,0.00181,3.815e-06,0.2251,0.09851,0.8923,0.0007137,0,0,0
282300000000,282600000000,6164869082,0,4699356413,0.03247,0.0004864,0.00189,0.0001163,0.0001192,0.001049,6.771e-05,3.815e-06,0.07214,0.01521,0.8506,0.0005911,0,0,0.06482
283200000000,283500000000,6164869082,0,4699356413,0.01614,0.0004406,0.002098,0.0001907,0.0002136,0.003109,0.001356,3.815e-06,0.1509,0.1036,0.874,0.0006502,0,0,0
283500000000,283800000000,6164869082,0,4699356413,0.02036,0.0003166,0.002014,4.387e-05,4.959e-05,0.001057,5.817e-05,3.815e-06,0.07422,0.01321,0.8648,0.0006241,0,0,0.06421
284400000000,284700000000,6164869082,0,4699356413,0.03049,0.0005159,0.002098,0.0001163,0.0001335,0.003345,0.001348,3.815e-06,0.2209,0.1013,0.853,0.0005986,0,0,0
284700000000,285000000000,6164869082,0,4699356413,0.00576,0.000186,0.001896,9.06e-05,9.441e-05,0.001024,5.341e-05,3.815e-06,0.07288,0.01364,0.936,0.0006854,0,0,0
285600000000,285900000000,6164869082,0,4699356413,0.03687,0.0006027,0.001911,9.155e-05,0.0001268,0.002953,0.001371,3.815e-06,0.1497,0.0874,0.8414,0.0005162,0,0,0.0107
288000000000,288300000000,6164869082,0,4699356413,0.03113,0.0004587,0.00178,0.0001326,0.0001392,0.001049,7.248e-05,3.815e-06,0.07251,0.01172,0.8633,0.0006303,0,0,0.07251
288900000000,289200000000,6164869082,0,4699356413,0.01503,0.0005932,0.002312,0.0004101,0.0004349,0.003716,0.001015,3.815e-06,0.1049,0.08911,0.8897,0.000697,0,0,0.05884
289200000000,289500000000,6164869082,0,4699356413,0.02185,0.0003843,0.002274,4.768e-05,5.341e-05,0.001118,9.918e-05,3.815e-06,0.1079,0.01593,0.8666,0.0006541,0,0,0.05981
290100000000,290400000000,6164869082,0,4699356413,0.02658,0.000618,0.002254,0.0002251,0.0002718,0.003571,0.001141,3.815e-06,0.1836,0.0946,0.842,0.0005812,0,0,0
290400000000,290700000000,6164869082,0,4699356413,0.01025,0.0002041,0.001896,1.526e-05,2.193e-05,0.0008593,4.005e-05,3.815e-06,0.1008,0.01021,0.8796,0.0006841,0,0,0.06409
291300000000,291600000000,6164869082,0,4699356413,0.03723,0.0007343,0.002155,0.0002728,0.0003109,0.003712,0.00115,3.815e-06,0.252,0.09509,0.8466,0.0005928,0,0,0
292200000000,292500000000,6164869082,0,4699356413,0.001629,0.0001431,0.002003,2.003e-05,2.766e-05,0.002918,0.0006447,3.815e-06,0.1643,0.05957,0.9115,0.000739,0,0,0
292500000000,292800000000,6164869082,0,4699356413,0.03485,0.0004702,0.001795,3.242e-05,4.005e-05,0.00136,7.915e-05,3.815e-06,0.07153,0.01401,0.8424,0.0005719,0,0,0.06195
294600000000,294900000000,6164869082,0,4699356413,0.01514,0.0003748,0.001987,0.0001163,0.0001335,0.002888,0.0009918,3.815e-06,0.1053,0.1072,0.8755,0.0006554,0,0,0.03217
295800000000,296100000000,6164869082,0,4699356413,0.02994,0.0004292,0.001831,8.392e-05,0.0001001,0.002949,0.0009651,3.815e-06,0.2312,0.09851,0.8436,0.0005904,0,0,0.05408
297000000000,297300000000,6164869082,0,4699356413,0.03693,0.000659,0.002151,0.0002251,0.0002489,0.002834,0.001295,3.815e-06,0.1101,0.09448,0.8527,0.0005546,0,0,0.06531
297900000000,298200000000,6164869082,0,4699356413,0.001999,0.0002069,0.001999,3.719e-05,6.962e-05,0.003231,0.001431,3.815e-06,0.1053,0.1121,1.005,0.0007618,0,0,0
298200000000,298500000000,6164869082,0,4699356413,0.03546,0.0005798,0.001883,0.0001841,0.0002003,0.001043,8.869e-05,3.815e-06,0.07373,0.01042,0.8875,0.0006275,0,0,0
299100000000,299400000000,6164869082,0,4699356413,0.006165,0.0002747,0.002182,0.0001125,0.0001316,0.003693,0.001165,3.815e-06,0.1118,0.1079,1.009,0.0008479,0,0,0
299400000000,299700000000,6164869082,0,4699356413,0.03101,0.0004168,0.001713,2.289e-05,3.147e-05,0.001013,7.057e-05,3.815e-06,0.1228,0.01271,0.8779,0.0006437,0,0,0
