5700000000,6000000000,616564438,0,1274707,0.01675,0.02704,0.04272,0.0008144,0.0009584,0.0274,0.0001268,1.144e-05,0.2666,0.001215,1.126,0.001151,0,0,0.009354
6000000000,6300000000,616564438,0,1274707,0.02545,0.02722,0.04272,0.0008202,0.0009642,0.02768,0.000186,1.144e-05,0.2744,0.002144,1.323,0.001398,0,0,0.0006151
6300000000,6600000000,616564438,0,1274707,0.01596,0.02698,0.04272,0.000824,0.000968,0.02722,0.0001307,1.144e-05,0.2656,0.001499,1.135,0.001166,0,0,0.01605
6600000000,6900000000,616564438,0,1274707,0.02539,0.02731,0.04272,0.000824,0.000968,0.02823,0.000145,1.144e-05,0.2637,0.001999,1.295,0.001439,0,0,0.000843
6900000000,7200000000,616564438,0,1274707,0.01706,0.02725,0.04272,0.0008278,0.0009718,0.02756,0.0001516,1.144e-05,0.2705,0.001642,1.189,0.001383,0,0,0.0004568
7200000000,7500000000,616564438,0,1274707,0.01611,0.02695,0.04272,0.0008278,0.0009727,0.02719,0.0001488,1.144e-05,0.2759,0.002144,1.147,0.001214,0,0,0.03473
7500000000,7800000000,616564438,0,1274707,0.02017,0.02698,0.04272,0.0008287,0.0009727,0.02747,0.000165,1.144e-05,0.3408,0.002285,1.109,0.001104,0,0,0.07776
7800000000,8100000000,616564438,0,1274707,0.02164,0.02725,0.04272,0.0008326,0.0009766,0.0275,0.0003052,1.144e-05,0.2739,0.002644,1.322,0.001389,0,0,0.001562
8100000000,8400000000,616564438,0,1274707,0.01614,0.02713,0.04272,0.0008373,0.0009804,0.02744,0.0001297,1.144e-05,0.2729,0.001358,1.159,0.001164,0,0,0.2578
8400000000,8700000000,616564438,0,1274707,0.02536,0.02725,0.04272,0.0008297,0.0009737,0.02786,0.0001612,1.144e-05,0.2637,0.001642,1.299,0.001456,0,0,0.0006275
8700000000,9000000000,616564438,0,1274707,0.01685,0.02704,0.04272,0.0008287,0.0009727,0.0275,0.0001965,1.144e-05,0.2686,0.001429,1.141,0.001143,0,0,0.0001793
9000000000,9300000000,616564438,0,1274707,0.01654,0.02716,0.04272,0.0008307,0.0009747,0.0274,0.0002203,1.144e-05,0.2617,0.002213,1.137,0.001174,0,0,0.002499
9300000000,9600000000,616564438,0,1274707,0.02621,0.0271,0.04272,0.0008307,0.0009747,0.02747,0.0001888,1.144e-05,0.3188,0.001785,1.272,0.001382,0,0,0.000967
9600000000,9900000000,616564438,0,1274707,0.01657,0.0271,0.04272,0.0008354,0.0009804,0.0275,0.0001316,1.144e-05,0.2739,0.0009289,1.163,0.001201,0,0,0.0004969
9900000000,10200000000,616564438,0,1274707,0.02521,0.02731,0.04272,0.0008383,0.0009823,0.02792,0.0001516,1.144e-05,0.3447,0.001642,1.281,0.001407,0,0,0.0008745
10200000000,10500000000,616564438,0,1274707,0.0163,0.02704,0.04272,0.0008402,0.0009842,0.02744,0.0001192,1.144e-05,0.2749,0.001358,1.208,0.001266,0,0,0.0003633
10500000000,10800000000,616564438,0,1274707,0.01651,0.02704,0.04272,0.0008392,0.0009823,0.0274,0.0001221,1.144e-05,0.2803,0.0007858,1.135,0.001213,0,0,0.0008497
10800000000,11100000000,616564438,0,1274707,0.01608,0.02713,0.04272,0.0008345,0.0009785,0.0274,0.0001249,1.144e-05,0.2837,0.001572,1.139,0.001144,0,0,0.0006285
11100000000,11400000000,616564438,0,1274707,0.02548,0.0271,0.04272,0.0008411,0.0009861,0.02747,0.0001907,1.144e-05,0.2793,0.002357,1.248,0.001288,0,0,0.01128
11400000000,11700000000,616564438,0,1274707,0.01672,0.02704,0.04272,0.0008421,0.0009861,0.0275,0.0001507,1.144e-05,0.2593,0.001215,1.159,0.001188,0,0,0.001415
11700000000,12000000000,616564438,0,1274707,0.02493,0.02744,0.04272,0.0008345,0.0009785,0.02817,0.0001431,1.144e-05,0.3481,0.001215,1.19,0.001251,0,0,0.0005922
12000000000,12300000000,616564438,0,1274707,0.01611,0.02698,0.04272,0.0008307,0.0009747,0.02722,0.0001564,1.144e-05,0.2607,0.001999,1.143,0.00124,0,0,0.001448
12300000000,12600000000,616564438,0,1274707,0.0162,0.02695,0.04272,0.0008316,0.0009756,0.02719,0.0001316,1.144e-05,0.2583,0.001642,1.137,0.001211,0,0,0.01251
12600000000,12900000000,616564438,0,1274707,0.02579,0.02716,0.04272,0.0008326,0.0009766,0.0278,0.0001802,1.144e-05,0.2612,0.001858,1.347,0.001461,0,0,0.001976
12900000000,13200000000,616564438,0,1274707,0.01624,0.02722,0.04272,0.0008373,0.0009823,0.02753,0.000145,1.144e-05,0.27,0.001642,1.131,0.001128,0,0,0.03381
13200000000,13500000000,616564438,0,1274707,0.02457,0.02722,0.04272,0.0008392,0.0009842,0.02829,0.0001335,1.144e-05,0.2695,0.001215,1.231,0.001308,0,0,0.02017
13500000000,13800000000,616564438,0,1274707,0.01614,0.02731,0.04272,0.0008354,0.0009785,0.02798,0.0001411,1.144e-05,0.2705,0.001429,1.19,0.001204,0,0,0.0001278
13800000000,14100000000,616564438,0,1274707,0.01599,0.02695,0.04272,0.0008354,0.0009785,0.02722,0.000145,1.144e-05,0.2769,0.001785,1.167,0.001219,0,0,0.008896
14100000000,14400000000,616564438,0,1274707,0.01602,0.02695,0.04272,0.0008354,0.0009785,0.02722,0.0001335,1.144e-05,0.2676,0.001143,1.154,0.001146,0,0,0.003273
14400000000,14700000000,616564438,0,1274707,0.02563,0.02719,0.04272,0.0008421,0.0009861,0.02768,0.0003061,1.144e-05,0.3398,0.002857,1.25,0.00132,0,0,0.1855
14700000000,15000000000,616564438,0,1274707,0.01596,0.02716,0.04272,0.000845,0.0009899,0.02744,0.0001688,1.144e-05,0.2759,0.001286,1.106,0.001072,0,0,0.000577
15000000000,15300000000,616564438,0,1274707,0.02475,0.02737,0.04272,0.0008354,0.0009804,0.02823,0.0001955,1.144e-05,0.2754,0.001858,1.335,0.001437,0,0,0.03345
15300000000,15600000000,616564438,0,1274707,0.01596,0.02707,0.04272,0.0008354,0.0009804,0.02762,0.0001802,1.144e-05,0.3208,0.002857,1.128,0.001142,0,0,0.01335
15600000000,15900000000,616564438,0,1274707,0.0163,0.02716,0.04272,0.0008373,0.0009823,0.02744,0.0001917,1.144e-05,0.2646,0.002213,1.133,0.001155,0,0,0.001656
15900000000,16200000000,616564438,0,1274707,0.02621,0.0271,0.04272,0.0008411,0.0009861,0.02753,0.0003328,1.144e-05,0.3169,0.002213,1.259,0.001332,0,0,0.0004768
16200000000,16500000000,616564438,0,1274707,0.01678,0.02716,0.04272,0.0008507,0.0009937,0.02774,0.0001993,1.144e-05,0.2632,0.001642,1.186,0.001242,0,0,0.05341
16500000000,16800000000,616564438,0,1274707,0.02255,0.02725,0.04272,0.0008535,0.0009975,0.02802,0.0001726,1.144e-05,0.3286,0.001499,1.182,0.001221,0,0,0.002567
16800000000,17100000000,616564438,0,1274707,0.01932,0.02728,0.04272,0.0008554,0.0009995,0.02802,0.0001783,1.144e-05,0.2671,0.001358,1.304,0.001519,0,0,0.009445
17100000000,17400000000,616564438,0,1274707,0.01663,0.02704,0.04272,0.0008574,0.001001,0.02759,0.0001574,1.144e-05,0.3057,0.002998,1.113,0.001091,0,0,0.0004263
17400000000,17700000000,616564438,0,1274707,0.01642,0.02719,0.04272,0.0008593,0.001003,0.0274,0.0001268,1.144e-05,0.269,0.0008574,1.13,0.001146,0,0,0.0006685
17700000000,18000000000,616564438,0,1274707,0.02594,0.02713,0.04272,0.0008621,0.001007,0.02756,0.0002003,1.144e-05,0.3066,0.002213,1.194,0.001247,0,0,0.002571
18000000000,18300000000,616564438,0,1274707,0.01627,0.0271,0.04272,0.0008612,0.001005,0.02756,0.000145,1.144e-05,0.2612,0.001928,1.158,0.00122,0,0,0.01105
18300000000,18600000000,616564438,0,1274707,0.0249,0.02768,0.04297,0.0008574,0.001001,0.02872,0.000164,1.144e-05,0.3291,0.001785,1.261,0.001368,0,0,0.002178
18600000000,18900000000,616564438,0,1274707,0.01578,0.0271,0.04272,0.0008526,0.0009975,0.02756,0.0001345,1.144e-05,0.271,0.001642,1.138,0.001145,0,0,0.01755
18900000000,19200000000,616564438,0,1274707,0.01639,0.0271,0.04272,0.0008564,0.0009995,0.02762,0.0001497,1.144e-05,0.2695,0.001785,1.161,0.001147,0,0,0.0003958
19200000000,19500000000,616564438,0,1274707,0.02423,0.02728,0.04272,0.0008593,0.001003,0.02765,0.0001831,1.144e-05,0.2861,0.003071,1.23,0.001301,0,0,0.004257
19500000000,19800000000,616564438,0,1274707,0.01709,0.02713,0.04272,0.0008678,0.001011,0.0275,0.0001373,1.144e-05,0.2578,0.001785,1.226,0.001288,0,0,0.01221
19800000000,20100000000,616564438,0,1274707,0.017,0.0271,0.04272,0.0008698,0.001015,0.02756,0.0001278,1.144e-05,0.2651,0.001358,1.134,0.001163,0,0,0.0003633
20100000000,20400000000,616564438,0,1274707,0.0249,0.02765,0.04297,0.0008745,0.001019,0.02869,0.0001802,1.24e-05,0.2583,0.002716,1.278,0.001412,0,0,0.08008
20400000000,20700000000,616564438,0,1274707,0.01605,0.02704,0.04272,0.0008745,0.001019,0.02731,0.0001545,1.24e-05,0.2622,0.003284,1.141,0.001154,0,0,0.002991
20700000000,21000000000,616564438,0,1274707,0.01672,0.0271,0.04272,0.0008774,0.001022,0.02753,0.0001411,1.24e-05,0.2627,0.001499,1.133,0.001145,0,0,0.0152
21000000000,21300000000,616564438,0,1274707,0.02582,0.0274,0.04272,0.0008831,0.001028,0.02774,0.0002775,1.24e-05,0.3286,0.002285,1.341,0.001434,0,0,0.00853
21300000000,21600000000,616564438,0,1274707,0.01624,0.02707,0.04272,0.0008898,0.001034,0.02728,0.0001307,1.24e-05,0.2671,0.001358,1.131,0.001137,0,0,0.06482
21600000000,21900000000,616564438,0,1274707,0.02551,0.0274,0.04272,0.0008917,0.001036,0.02832,0.0001545,1.24e-05,0.2837,0.002857,1.318,0.001478,0,0,0.2068
21900000000,22200000000,616564438,0,1274707,0.01627,0.02725,0.04272,0.0008965,0.00104,0.02753,0.0001402,1.24e-05,0.2651,0.001215,1.14,0.001129,0,0,0.005745
22200000000,22500000000,616564438,0,1274707,0.0162,0.02701,0.04272,0.0008984,0.001041,0.02725,0.0001268,1.24e-05,0.269,0.001358,1.147,0.001211,0,0,0.002026
22500000000,22800000000,616564438,0,1274707,0.0249,0.02713,0.04272,0.0009003,0.001045,0.02789,0.0001574,1.24e-05,0.2837,0.001572,1.195,0.001302,0,0,0.01334
22800000000,23100000000,616564438,0,1274707,0.01694,0.02734,0.04272,0.0009098,0.001053,0.02774,0.0001268,1.24e-05,0.2607,0.001358,1.263,0.001357,0,0,0.000658
23100000000,23400000000,616564438,0,1274707,0.01758,0.02707,0.04272,0.0009127,0.001057,0.02737,0.0002422,1.24e-05,0.2695,0.001785,1.133,0.001165,0,0,0.0006065
23400000000,23700000000,616564438,0,1274707,0.02438,0.02753,0.04272,0.0009193,0.001062,0.02832,0.0002575,1.24e-05,0.2695,0.003216,1.304,0.001451,0,0,0.04706
23700000000,24000000000,616564438,0,1274707,0.0163,0.02725,0.04272,0.0009222,0.001066,0.02759,0.0001326,1.24e-05,0.2671,0.0009995,1.144,0.001158,0,0,0.1262
24000000000,24300000000,616564438,0,1274707,0.01599,0.02701,0.04272,0.0009241,0.001068,0.02728,0.0001383,1.24e-05,0.2656,0.001499,1.122,0.001107,0,0,0.0003147
24300000000,24600000000,616564438,0,1274707,0.026,0.02722,0.04272,0.0009298,0.001074,0.02762,0.0002012,1.24e-05,0.291,0.002144,1.174,0.00124,0,0,0.08044
24600000000,24900000000,616564438,0,1274707,0.01633,0.02725,0.04272,0.0009365,0.00108,0.02753,0.0001402,1.24e-05,0.2681,0.001785,1.14,0.001215,0,0,0.001497
24900000000,25200000000,616564438,0,1274707,0.02548,0.02734,0.04272,0.0009394,0.001083,0.02805,0.0001545,1.24e-05,0.3159,0.001642,1.239,0.001373,0,0,0.005211
25200000000,25500000000,616564438,0,1274707,0.01633,0.0271,0.04272,0.0009422,0.001087,0.02747,0.0001431,1.24e-05,0.2744,0.001858,1.164,0.001198,0,0,0.0006838
25500000000,25800000000,616564438,0,1274707,0.01663,0.02722,0.04272,0.000946,0.001091,0.02753,0.0001516,1.24e-05,0.2612,0.002071,1.137,0.001177,0,0,0.003872
25800000000,26100000000,616564438,0,1274707,0.02292,0.02713,0.04272,0.000948,0.001093,0.02759,0.0001993,1.24e-05,0.3262,0.00243,1.261,0.001303,0,0,0.000248
26100000000,26400000000,616564438,0,1274707,0.01898,0.02725,0.04272,0.0009575,0.001101,0.02756,0.0001965,1.24e-05,0.269,0.001999,1.221,0.001296,0,0,0.03619
26400000000,26700000000,616564438,0,1274707,0.02362,0.02734,0.04272,0.0009613,0.001104,0.02838,0.0001478,1.24e-05,0.3169,0.002071,1.257,0.001371,0,0,0.008774
26700000000,27000000000,616564438,0,1274707,0.01935,0.02753,0.04272,0.0009642,0.001108,0.02841,0.0001402,1.24e-05,0.2607,0.002499,1.31,0.001462,0,0,0.0008392
27000000000,27300000000,616564438,0,1274707,0.01675,0.02722,0.04272,0.000968,0.001112,0.0275,0.0001316,1.24e-05,0.2646,0.001358,1.174,0.001234,0,0,0.0009708
27300000000,27600000000,616564438,0,1274707,0.01657,0.02701,0.04272,0.0009699,0.001114,0.02725,0.0001259,1.24e-05,0.2637,0.001143,1.17,0.001209,0,0,0.03638
27600000000,27900000000,616564438,0,1274707,0.02618,0.02722,0.04272,0.0009756,0.00112,0.02756,0.0001879,1.24e-05,0.2949,0.001928,1.334,0.001443,0,0,0.0004368
27900000000,28200000000,616564438,0,1274707,0.01663,0.02725,0.04272,0.0009823,0.001125,0.02753,0.0001392,1.24e-05,0.2773,0.002071,1.129,0.001153,0,0,0.0008345
28200000000,28500000000,616564438,0,1274707,0.02579,0.02744,0.04272,0.0009842,0.001129,0.02823,0.0001478,1.24e-05,0.3228,0.001715,1.323,0.001463,0,0,0.005531
28500000000,28800000000,616564438,0,1274707,0.01682,0.0271,0.04272,0.0009861,0.001131,0.02753,0.0001326,1.24e-05,0.2612,0.001429,1.185,0.001255,0,0,0.001177
28800000000,29100000000,616564438,0,1274707,0.01614,0.02725,0.04272,0.0009899,0.001135,0.0275,0.0001383,1.24e-05,0.27,0.001286,1.123,0.001154,0,0,0.0004177
29100000000,29400000000,616564438,0,1274707,0.02573,0.02716,0.04272,0.0009937,0.001137,0.02768,0.0001879,1.24e-05,0.272,0.002144,1.363,0.001489,0,0,0.0008698
29400000000,29700000000,616564438,0,1274707,0.0166,0.02713,0.04272,0.0009995,0.001144,0.0275,0.0001354,1.24e-05,0.2676,0.001286,1.168,0.00118,0,0,0.005791
29700000000,30000000000,616564438,0,1274707,0.03061,0.0275,0.04272,0.001003,0.001148,0.02835,0.0001354,1.24e-05,0.3271,0.001072,1.267,0.001311,0,0,0.001057
30000000000,30300000000,616564438,0,1274707,0.01877,0.02725,0.04272,0.001009,0.001152,0.02792,0.0001364,1.24e-05,0.269,0.001286,1.309,0.001405,0,0,0.09924
30300000000,30600000000,616564438,0,1274707,0.01697,0.02725,0.04272,0.001015,0.001158,0.02753,0.0002737,1.24e-05,0.2366,0.003216,1.169,0.001154,0,0,0.001799
30600000000,30900000000,616564438,0,1274707,0.01935,0.0271,0.04272,0.00102,0.001165,0.02744,0.0002766,1.24e-05,0.2434,0.003071,1.154,0.001152,0,0,0.001522
30900000000,31200000000,616564438,0,1274707,0.02396,0.02722,0.04272,0.001028,0.001173,0.02765,0.0002413,1.24e-05,0.2925,0.002571,1.307,0.001288,0,0,0.1053
31200000000,31500000000,616564438,0,1274707,0.01675,0.02731,0.04272,0.001034,0.001177,0.02762,0.0001888,1.24e-05,0.248,0.002571,1.149,0.001159,0,0,0.0003557
31500000000,31800000000,616564438,0,1274707,0.02612,0.02728,0.04272,0.001036,0.001181,0.02792,0.0001869,1.24e-05,0.2866,0.003429,1.36,0.001477,0,0,0.01028
31800000000,32100000000,616564438,0,1274707,0.01688,0.0271,0.04272,0.00104,0.001183,0.0275,0.0001478,1.24e-05,0.251,0.001429,1.146,0.001112,0,0,0.0003834
32100000000,32400000000,616564438,0,1274707,0.01712,0.02725,0.04272,0.001041,0.001186,0.02753,0.0001631,1.24e-05,0.2549,0.001785,1.183,0.001185,0,0,0.001192
32400000000,32700000000,616564438,0,1274707,0.02615,0.02719,0.04272,0.001047,0.00119,0.02762,0.0002251,1.24e-05,0.272,0.00293,1.312,0.001389,0,0,0.001549
32700000000,33000000000,616564438,0,1274707,0.01736,0.02713,0.04272,0.001055,0.001198,0.02753,0.0001631,1.24e-05,0.2661,0.001072,1.184,0.001201,0,0,0.004639
33000000000,33300000000,616564438,0,1274707,0.0256,0.02765,0.04315,0.001059,0.001202,0.02866,0.0001955,1.24e-05,0.3135,0.002144,1.303,0.00139,0,0,0.01752
33300000000,33600000000,616564438,0,1274707,0.01672,0.02728,0.04279,0.001062,0.001205,0.0282,0.0001707,1.24e-05,0.2622,0.001358,1.168,0.001215,0,0,0.0004158
33600000000,33900000000,616564438,0,1274707,0.01782,0.0271,0.04272,0.001064,0.001207,0.02753,0.0001097,1.24e-05,0.2715,0.001143,1.208,0.001246,0,0,0.0006046
33900000000,34200000000,616564438,0,1274707,0.02625,0.02737,0.04272,0.001068,0.001211,0.02783,0.0002499,1.24e-05,0.2852,0.002357,1.341,0.001346,0,0,0.01883
34200000000,34500000000,616564438,0,1274707,0.01752,0.02716,0.04272,0.001076,0.001219,0.02753,0.0001907,1.24e-05,0.25,0.001928,1.225,0.001333,0,0,0.001516
34500000000,34800000000,616564438,0,1274707,0.01767,0.0271,0.04272,0.001078,0.001223,0.02753,0.0001278,1.24e-05,0.2463,0.0008574,1.181,0.001097,0,0,0.01053
34800000000,35100000000,616564438,0,1274707,0.02542,0.02774,0.04309,0.001085,0.00123,0.02866,0.0001793,1.24e-05,0.3301,0.001358,1.325,0.001386,0,0,0.01758
35100000000,35400000000,616564438,0,1274707,0.01709,0.02707,0.04272,0.001089,0.001232,0.02734,0.000144,1.335e-05,0.2563,0.003071,1.184,0.001123,0,0,0.01797
35400000000,35700000000,616564438,0,1274707,0.01697,0.02707,0.04272,0.001091,0.001234,0.02756,0.0001307,1.335e-05,0.2617,0.001215,1.189,0.001091,0,0,0.05768
35700000000,36000000000,616564438,0,1274707,0.02682,0.02744,0.04272,0.001099,0.001242,0.0278,0.0001631,1.335e-05,0.2729,0.001215,1.354,0.001413,0,0,0.02261
36000000000,36300000000,616564438,0,1274707,0.01691,0.0271,0.04272,0.001102,0.001245,0.02734,0.0001411,1.335e-05,0.2607,0.001715,1.198,0.001113,0,0,0.00518
36300000000,36600000000,616564438,0,1274707,0.02686,0.02731,0.04272,0.001104,0.001249,0.02786,0.000144,1.335e-05,0.27,0.001143,1.374,0.001451,0,0,0.002422
36600000000,36900000000,616564438,0,1274707,0.01703,0.02725,0.04272,0.001108,0.001253,0.0275,0.0001335,1.335e-05,0.2627,0.001499,1.211,0.001201,0,0,0.0484
36900000000,37200000000,616564438,0,1274707,0.01703,0.02704,0.04272,0.00111,0.001255,0.02725,0.0001326,1.335e-05,0.2441,0.001286,1.197,0.001136,0,0,0.04358
37200000000,37500000000,616564438,0,1274707,0.02649,0.02719,0.04272,0.001116,0.001259,0.02759,0.0001764,1.335e-05,0.311,0.001572,1.402,0.001396,0,0,0.01418
37500000000,37800000000,616564438,0,1274707,0.01718,0.02731,0.04272,0.001125,0.001268,0.02756,0.0002613,1.335e-05,0.2642,0.001999,1.193,0.001126,0,0,0.007355
37800000000,38100000000,616564438,0,1274707,0.02585,0.02734,0.04272,0.001129,0.001274,0.0282,0.0001841,1.335e-05,0.3267,0.001499,1.304,0.001361,0,0,0.06604
38100000000,38400000000,616564438,0,1274707,0.01785,0.02725,0.04272,0.001133,0.001276,0.0278,0.000102,1.335e-05,0.2529,0.001215,1.226,0.001239,0,0,0.002628
38400000000,38700000000,616564438,0,1274707,0.01736,0.02725,0.04272,0.001135,0.00128,0.0275,0.0001116,1.335e-05,0.2646,0.001143,1.202,0.001159,0,0,0.0343
38700000000,39000000000,616564438,0,1274707,0.02722,0.02713,0.04272,0.001137,0.001282,0.02771,0.000164,1.335e-05,0.2617,0.001785,1.326,0.001333,0,0,0.001457
39000000000,39300000000,616564438,0,1274707,0.01721,0.02716,0.04272,0.001146,0.001289,0.02771,0.0001259,1.335e-05,0.2505,0.001072,1.216,0.00121,0,0,0.08997
39300000000,39600000000,616564438,0,1274707,0.01718,0.02728,0.04272,0.001148,0.001293,0.02753,0.0001335,1.335e-05,0.2651,0.001072,1.179,0.0012,0,0,0.1404
39600000000,39900000000,616564438,0,1274707,0.02609,0.02753,0.04272,0.001152,0.001295,0.02841,0.0001574,1.335e-05,0.3018,0.002857,1.237,0.001279,0,0,0.006325
39900000000,40200000000,616564438,0,1274707,0.01767,0.0271,0.04272,0.001154,0.001297,0.02765,0.0001345,1.335e-05,0.2622,0.001215,1.189,0.00119,0,0,0.002567
40200000000,40500000000,616564438,0,1274707,0.01721,0.02728,0.04272,0.001156,0.001301,0.02753,0.0001154,1.335e-05,0.2598,0.0007143,1.186,0.001219,0,0,0.01648
40500000000,40800000000,616564438,0,1274707,0.02686,0.02722,0.04272,0.001163,0.001307,0.02762,0.0001955,1.335e-05,0.2715,0.001999,1.333,0.001356,0,0,0.03271
51000000000,51300000000,616564438,0,1274707,0.01938,0.02731,0.04272,0.001307,0.001451,0.02817,0.0001583,1.335e-05,0.2405,0.001572,1.33,0.001512,0,0,0.00708
51300000000,51600000000,616564438,0,1274707,0.0191,0.02737,0.04272,0.00131,0.001455,0.02765,0.0001383,1.335e-05,0.248,0.001215,1.275,0.001418,0,0,0.03522
51600000000,51900000000,616564438,0,1274707,0.02274,0.02719,0.04272,0.001312,0.001457,0.02771,0.0001268,1.431e-05,0.2583,0.001143,1.279,0.001412,0,0,0.001059
51900000000,52200000000,616564438,0,1274707,0.02399,0.02728,0.04272,0.00132,0.001465,0.02768,0.0001335,1.431e-05,0.2383,0.001572,1.317,0.001474,0,0,0.01378
52200000000,52500000000,616564438,0,1274707,0.01761,0.02734,0.04272,0.001324,0.001469,0.02762,0.0001879,1.431e-05,0.2339,0.001358,1.178,0.001282,0,0,0.03638
52500000000,52800000000,616564438,0,1274707,0.02771,0.0275,0.04272,0.001328,0.001471,0.02835,0.0002699,1.431e-05,0.2271,0.00243,1.365,0.001583,0,0,0.002834
52800000000,53100000000,616564438,0,1274707,0.01749,0.0271,0.04272,0.001329,0.001474,0.02737,0.0002718,1.431e-05,0.2402,0.001715,1.177,0.001282,0,0,0.01923
53100000000,53400000000,616564438,0,1274707,0.01749,0.02707,0.04272,0.001331,0.001476,0.02731,0.0003099,1.431e-05,0.2395,0.003929,1.162,0.001252,0,0,0.003132
53400000000,53700000000,616564438,0,1274707,0.02737,0.02747,0.04272,0.001339,0.001482,0.02789,0.0003567,1.431e-05,0.2402,0.002716,1.342,0.001581,0,0,0.01466
53700000000,54000000000,616564438,0,1274707,0.01743,0.02713,0.04272,0.001343,0.001488,0.02734,0.0002346,1.431e-05,0.2356,0.002213,1.181,0.001308,0,0,0.0907
54000000000,54300000000,616564438,0,1274707,0.0274,0.02756,0.04272,0.001345,0.00149,0.0285,0.0002499,1.431e-05,0.269,0.002571,1.352,0.00158,0,0,0.06787
54300000000,54600000000,616564438,0,1274707,0.01785,0.02737,0.04272,0.001348,0.001492,0.02783,0.0002861,1.431e-05,0.2375,0.007217,1.195,0.001303,0,0,0.04059
54600000000,54900000000,616564438,0,1274707,0.0173,0.02713,0.04272,0.00135,0.001495,0.0274,0.0001974,1.431e-05,0.2266,0.002071,1.18,0.001314,0,0,0.0005836
54900000000,55200000000,616564438,0,1274707,0.02734,0.02725,0.04272,0.001354,0.001497,0.02771,0.0001841,1.431e-05,0.2637,0.001999,1.338,0.001432,0,0,0.003181
55200000000,55500000000,616564438,0,1274707,0.01776,0.02734,0.04272,0.001362,0.001507,0.02768,0.0001268,1.431e-05,0.2405,0.001143,1.176,0.001241,0,0,0.0003309
55500000000,55800000000,616564438,0,1274707,0.02655,0.02728,0.04272,0.001364,0.001509,0.02814,0.0001507,1.431e-05,0.2368,0.001358,1.312,0.001517,0,0,0.006165
55800000000,56100000000,616564438,0,1274707,0.01691,0.02725,0.04272,0.001368,0.001513,0.02786,0.0001307,1.431e-05,0.2385,0.001715,1.188,0.001318,0,0,0.01143
56100000000,56400000000,616564438,0,1274707,0.01715,0.0271,0.04272,0.001369,0.001514,0.02737,0.0001211,1.431e-05,0.2395,0.0009995,1.132,0.001166,0,0,0.0004158
56400000000,56700000000,616564438,0,1274707,0.02606,0.02716,0.04272,0.001371,0.001516,0.02765,0.0001745,1.431e-05,0.2891,0.001642,1.284,0.001404,0,0,0.006523
56700000000,57000000000,616564438,0,1274707,0.01703,0.02737,0.04272,0.001381,0.001526,0.02774,0.0001268,1.431e-05,0.2559,0.001215,1.168,0.001265,0,0,0.0004539
57000000000,57300000000,616564438,0,1274707,0.01797,0.02713,0.04272,0.001385,0.001528,0.02744,0.0001411,1.431e-05,0.2354,0.001429,1.14,0.001212,0,0,0.001011
57300000000,57600000000,616564438,0,1274707,0.02579,0.0275,0.04272,0.001387,0.001532,0.02835,9.155e-05,1.431e-05,0.2383,0.001999,1.334,0.001524,0,0,0.001244
57600000000,57900000000,616564438,0,1274707,0.01724,0.0271,0.04272,0.001389,0.001534,0.02737,0.0001316,1.431e-05,0.2385,0.001143,1.183,0.001255,0,0,0.2275
57900000000,58200000000,616564438,0,1274707,0.022,0.02737,0.04272,0.001392,0.001537,0.02792,0.000144,1.431e-05,0.2769,0.002857,1.174,0.001282,0,0,0.0008259
58200000000,58500000000,616564438,0,1274707,0.02353,0.02731,0.04272,0.0014,0.001545,0.02777,0.0001888,1.431e-05,0.2524,0.004288,1.383,0.00162,0,0,0.0103
58500000000,58800000000,616564438,0,1274707,0.0173,0.02713,0.04272,0.001404,0.001547,0.0274,0.0001574,1.431e-05,0.2349,0.003071,1.214,0.001246,0,0,0.003132
58800000000,59100000000,616564438,0,1274707,0.02646,0.02734,0.04272,0.001406,0.001551,0.02798,0.0001545,1.431e-05,0.24,0.001642,1.364,0.001426,0,0,0.002602
59100000000,59400000000,616564438,0,1274707,0.01733,0.02737,0.04272,0.00141,0.001554,0.02768,0.0001431,1.431e-05,0.2351,0.001072,1.149,0.001238,0,0,0.003063
59400000000,59700000000,616564438,0,1274707,0.017,0.02716,0.04272,0.001413,0.001558,0.02744,0.0002279,1.431e-05,0.2405,0.001642,1.148,0.001223,0,0,0.008926
59700000000,60000000000,616564438,0,1274707,0.02734,0.02734,0.04272,0.001421,0.001566,0.02777,0.0001917,1.431e-05,0.2661,0.001358,1.292,0.001426,0,0,0.0007381
60000000000,60300000000,616564438,0,1274707,0.01724,0.02716,0.04272,0.001425,0.00157,0.02744,0.0001507,1.431e-05,0.2334,0.002998,1.175,0.001285,0,0,0.04443
60300000000,60600000000,616564438,0,1274707,0.0267,0.02771,0.04272,0.001427,0.001572,0.02856,0.0001707,1.431e-05,0.2856,0.002644,1.287,0.0014,0,0,0.01291
60600000000,60900000000,616564438,0,1274707,0.01715,0.02716,0.04272,0.001429,0.001572,0.0274,0.0001287,1.431e-05,0.2366,0.0009995,1.153,0.00128,0,0,0.01459
70800000000,71100000000,616564438,0,1274707,0.02527,0.02756,0.04272,0.001482,0.001625,0.02838,0.0001526,1.526e-05,0.2681,0.001358,1.401,0.001437,0,0,0.06738
71100000000,71400000000,616564438,0,1274707,0.0177,0.02737,0.04272,0.001484,0.001629,0.02765,0.0001354,1.526e-05,0.2407,0.001215,1.165,0.001223,0,0,0.001833
71400000000,71700000000,616564438,0,1274707,0.02676,0.02731,0.04272,0.001488,0.001631,0.02783,0.0001287,1.526e-05,0.2798,0.001215,1.282,0.001437,0,0,0.04779
71700000000,72000000000,616564438,0,1274707,0.01813,0.02728,0.04272,0.001495,0.001638,0.02762,0.0001163,1.526e-05,0.2493,0.0006428,1.24,0.001408,0,0,0.0008278
72000000000,72300000000,616564438,0,1274707,0.02676,0.02759,0.04272,0.001497,0.00164,0.02856,0.0001192,1.526e-05,0.2397,0.0004997,1.284,0.001367,0,0,0.0116
72300000000,72600000000,616564438,0,1274707,0.01773,0.02744,0.04272,0.001501,0.001644,0.02838,0.0001268,1.526e-05,0.2461,0.001215,1.187,0.001317,0,0,0.2012
72600000000,72900000000,616564438,0,1274707,0.01715,0.02722,0.04272,0.001503,0.001646,0.02747,0.0001173,1.526e-05,0.2461,0.0007143,1.144,0.001201,0,0,0.002995
72900000000,73200000000,616564438,0,1274707,0.02701,0.02731,0.04272,0.001505,0.00165,0.0278,0.0001507,1.526e-05,0.2485,0.0008574,1.31,0.001424,0,0,0.0719
73200000000,73500000000,616564438,0,1274707,0.01758,0.02747,0.04272,0.001513,0.001657,0.02777,0.0001221,1.526e-05,0.2432,0.0005713,1.174,0.001219,0,0,0.06482
73500000000,73800000000,616564438,0,1274707,0.02682,0.02759,0.04272,0.001516,0.001659,0.02835,0.0001259,1.526e-05,0.2446,0.0005713,1.282,0.001428,0,0,0.0002575
73800000000,74100000000,616564438,0,1274707,0.01743,0.02728,0.04272,0.00152,0.001665,0.02774,0.000248,1.526e-05,0.2446,0.001858,1.162,0.001274,0,0,0.001263
74100000000,74400000000,616564438,0,1274707,0.01743,0.02744,0.04272,0.001526,0.001669,0.02786,0.0001698,1.526e-05,0.2417,0.001286,1.164,0.001207,0,0,0.03973
74400000000,74700000000,616564438,0,1274707,0.02646,0.0274,0.04272,0.001532,0.001675,0.02777,0.0001688,1.526e-05,0.2935,0.001499,1.275,0.001482,0,0,0.04419
74700000000,75000000000,616564438,0,1274707,0.01706,0.02728,0.04272,0.001537,0.001682,0.02753,0.0001364,1.526e-05,0.2373,0.001143,1.114,0.001211,0,0,0.0007915
75000000000,75300000000,616564438,0,1274707,0.02582,0.02777,0.04272,0.001541,0.001686,0.02844,0.0001621,1.526e-05,0.2671,0.002998,1.233,0.001311,0,0,0.04279
75300000000,75600000000,616564438,0,1274707,0.01706,0.02728,0.04272,0.001543,0.001688,0.02762,0.0001211,1.526e-05,0.2456,0.001429,1.147,0.001286,0,0,0.008133
75600000000,75900000000,616564438,0,1274707,0.01682,0.02722,0.04272,0.001509,0.001652,0.02747,0.0001335,1.526e-05,0.2456,0.002499,1.124,0.001243,0,0,0.01347
75900000000,76200000000,616564438,0,1274707,0.02652,0.02737,0.04272,0.001513,0.001657,0.02783,0.0001793,1.526e-05,0.2886,0.001358,1.223,0.001416,0,0,0.02487
76200000000,76500000000,616564438,0,1274707,0.01736,0.02744,0.04272,0.001509,0.001654,0.02789,0.0001326,1.526e-05,0.2495,0.001358,1.119,0.001251,0,0,0.008331
76500000000,76800000000,616564438,0,1274707,0.02609,0.02753,0.04272,0.001511,0.001656,0.02811,0.0001669,1.526e-05,0.3252,0.001785,1.263,0.001419,0,0,0.003826
76800000000,77100000000,616564438,0,1274707,0.01733,0.02719,0.04272,0.001514,0.001657,0.02744,0.0001307,1.526e-05,0.2446,0.001999,1.152,0.00127,0,0,0.003159
77100000000,77400000000,616564438,0,1274707,0.02307,0.02725,0.04272,0.001516,0.001659,0.02771,0.0001373,1.526e-05,0.2671,0.001286,1.134,0.001158,0,0,0.03644
77400000000,77700000000,616564438,0,1274707,0.02103,0.02753,0.04272,0.001526,0.001671,0.02795,0.0001431,1.526e-05,0.2568,0.0005713,1.268,0.001349,0,0,0.001087
77700000000,78000000000,616564438,0,1274707,0.02512,0.02737,0.04272,0.001528,0.001673,0.02835,0.0001373,1.526e-05,0.2686,0.001499,1.22,0.001427,0,0,0.03448
78000000000,78300000000,616564438,0,1274707,0.01892,0.02744,0.04272,0.001528,0.001673,0.02829,0.0001354,1.526e-05,0.2466,0.0009995,1.298,0.001562,0,0,0.003082
78300000000,78600000000,616564438,0,1274707,0.01749,0.02744,0.04272,0.001532,0.001677,0.02783,0.0001392,1.526e-05,0.2417,0.001215,1.116,0.001301,0,0,0.003445
78600000000,78900000000,616564438,0,1274707,0.02713,0.0274,0.04272,0.001535,0.00168,0.0278,0.000185,1.526e-05,0.2637,0.001715,1.322,0.00171,0,0,0.002438
78900000000,79200000000,616564438,0,1274707,0.01718,0.02728,0.04272,0.001545,0.00169,0.02753,0.0001497,1.526e-05,0.2461,0.003716,1.138,0.001344,0,0,0.002514
79200000000,79500000000,616564438,0,1274707,0.02679,0.02744,0.04272,0.001553,0.001698,0.02802,0.0001554,1.526e-05,0.2476,0.001858,1.318,0.001583,0,0,0.001139
79500000000,79800000000,616564438,0,1274707,0.01755,0.02747,0.04272,0.001556,0.001703,0.02783,0.0001354,1.526e-05,0.25,0.001429,1.12,0.001313,0,0,0.004379
79800000000,80100000000,616564438,0,1274707,0.01712,0.02728,0.04272,0.001558,0.001705,0.02765,0.0001431,1.526e-05,0.2524,0.001642,1.117,0.001309,0,0,0.02213
80100000000,80400000000,616564438,0,1274707,0.02667,0.02737,0.04272,0.001564,0.001711,0.0278,0.0001965,1.526e-05,0.2588,0.001785,1.228,0.001514,0,0,0.03674
80400000000,80700000000,616564438,0,1274707,0.01736,0.02747,0.04272,0.001572,0.001717,0.02786,0.0001545,1.526e-05,0.2495,0.00293,1.137,0.001351,0,0,0.01733
80700000000,81000000000,616564438,0,1274707,0.02649,0.02762,0.04272,0.001574,0.001719,0.02835,0.0001545,1.526e-05,0.3091,0.001358,1.154,0.001383,0,0,0.1562
85800000000,86100000000,616564438,0,1274707,0.01721,0.02747,0.04272,0.001654,0.001801,0.0278,0.0001507,1.621e-05,0.3604,0.001143,1.123,0.001227,0,0,0.01021
86100000000,86400000000,616564438,0,1274707,0.02631,0.02756,0.04272,0.001656,0.001802,0.02823,0.0001478,1.621e-05,0.3037,0.001358,1.224,0.001298,0,0,0.0004072
86400000000,86700000000,616564438,0,1274707,0.01736,0.02728,0.04272,0.001659,0.001806,0.02765,0.0001211,1.621e-05,0.2451,0.0008574,1.17,0.001229,0,0,0.02814
86700000000,87000000000,616564438,0,1274707,0.01724,0.02744,0.04272,0.001663,0.00181,0.02774,0.0001249,1.621e-05,0.2422,0.001143,1.115,0.001222,0,0,0.001608
87000000000,87300000000,616564438,0,1274707,0.02661,0.02747,0.04272,0.001669,0.001816,0.02786,0.0001764,1.621e-05,0.2749,0.001215,1.222,0.001312,0,0,0.006653
87300000000,87600000000,616564438,0,1274707,0.01718,0.02725,0.04272,0.001673,0.00182,0.0275,0.0001307,1.621e-05,0.2446,0.001429,1.136,0.001164,0,0,0.000802
87600000000,87900000000,616564438,0,1274707,0.02646,0.0278,0.04297,0.001677,0.001823,0.02866,0.0001507,1.621e-05,0.2432,0.001429,1.301,0.001417,0,0,0.001343
87900000000,88200000000,616564438,0,1274707,0.01755,0.02737,0.04272,0.001678,0.001825,0.02774,0.0001163,1.621e-05,0.2407,0.0007858,1.159,0.001181,0,0,0.001144
88200000000,88500000000,616564438,0,1274707,0.02313,0.02734,0.04272,0.00168,0.001827,0.02792,0.0001373,1.621e-05,0.3032,0.001358,1.142,0.001174,0,0,0.03937
88500000000,88800000000,616564438,0,1274707,0.02051,0.02756,0.04272,0.00169,0.001837,0.0278,0.0001183,1.621e-05,0.2456,0.0004282,1.271,0.001381,0,0,0.006378
88800000000,89100000000,616564438,0,1274707,0.02588,0.0275,0.04272,0.001692,0.001839,0.02829,0.0001135,1.621e-05,0.2515,0.001072,1.285,0.00143,0,0,0.006393
89100000000,89400000000,616564438,0,1274707,0.01694,0.0274,0.04272,0.001696,0.001842,0.02811,0.0001059,1.621e-05,0.2427,0.0007858,1.161,0.001219,0,0,0.03314
89400000000,89700000000,616564438,0,1274707,0.01736,0.02747,0.04272,0.001698,0.001844,0.02774,0.0001116,1.621e-05,0.2744,0.001143,1.144,0.001228,0,0,0.006149
89700000000,90000000000,616564438,0,1274707,0.02646,0.0275,0.04272,0.001701,0.001848,0.0278,0.000185,1.621e-05,0.2417,0.001143,1.347,0.001458,0,0,0.001156
90000000000,90300000000,616564438,0,1274707,0.01773,0.02734,0.04272,0.001709,0.001856,0.02768,0.0001106,1.621e-05,0.2476,0.0004282,1.243,0.00134,0,0,0.002338
90300000000,90600000000,616564438,0,1274707,0.02652,0.02756,0.04272,0.001711,0.001858,0.02841,0.0001106,1.621e-05,0.2773,0.0007858,1.283,0.001447,0,0,0.0004864
90600000000,90900000000,616564438,0,1274707,0.0174,0.02747,0.04272,0.001715,0.001862,0.02771,0.0001259,1.621e-05,0.2505,0.001286,1.148,0.001414,0,0,0.009705
101100000000,101400000000,616564438,0,1274707,0.01846,0.02737,0.04272,0.001785,0.001932,0.02768,0.0001297,1.717e-05,0.3022,0.001215,1.229,0.001236,0,0,0.001196
101400000000,101700000000,616564438,0,1274707,0.02539,0.02756,0.04272,0.001787,0.001934,0.02826,0.0001268,1.717e-05,0.2397,0.001715,1.284,0.001405,0,0,0.001551
101700000000,102000000000,616564438,0,1274707,0.01691,0.02747,0.04272,0.001793,0.00194,0.02774,0.0001144,1.717e-05,0.2378,0.0009995,1.12,0.001112,0,0,0.03027
102000000000,102300000000,616564438,0,1274707,0.01697,0.02734,0.04272,0.001795,0.001942,0.02768,0.0001163,1.717e-05,0.249,0.0009995,1.136,0.001131,0,0,0.007042
102300000000,102600000000,616564438,0,1274707,0.02652,0.0274,0.04272,0.001799,0.001945,0.02789,0.0001659,1.717e-05,0.3154,0.001572,1.286,0.001343,0,0,0.008774
102600000000,102900000000,616564438,0,1274707,0.01675,0.02734,0.04272,0.001806,0.001953,0.02756,0.0002174,1.717e-05,0.2402,0.001642,1.127,0.001155,0,0,0.06482
102900000000,103200000000,616564438,0,1274707,0.02698,0.02765,0.04272,0.00181,0.001957,0.02853,0.000144,1.717e-05,0.3125,0.001286,1.369,0.001548,0,0,0.09521
103200000000,103500000000,616564438,0,1274707,0.01685,0.02728,0.04272,0.001814,0.001961,0.0275,0.0001211,1.717e-05,0.3374,0.0008574,1.132,0.001191,0,0,0.01053
103500000000,103800000000,616564438,0,1274707,0.01828,0.0274,0.04272,0.001816,0.001965,0.02771,0.0001068,1.717e-05,0.3242,0.001072,1.163,0.001166,0,0,0.02448
103800000000,104100000000,616564438,0,1274707,0.0282,0.02744,0.04272,0.001823,0.001968,0.02798,0.0001383,1.717e-05,0.2749,0.001072,1.295,0.001418,0,0,0.03333
104100000000,104400000000,616564438,0,1274707,0.0188,0.02728,0.04272,0.001827,0.001972,0.02753,0.0001078,1.717e-05,0.3657,0.0009289,1.196,0.001214,0,0,0.009933
104400000000,104700000000,616564438,0,1274707,0.02722,0.02762,0.04272,0.001829,0.001976,0.02838,0.0001354,1.717e-05,0.3638,0.002071,1.361,0.00173,0,0,0.0006113
104700000000,105000000000,616564438,0,1274707,0.01779,0.02744,0.04272,0.001833,0.00198,0.02768,7.057e-05,1.717e-05,0.7324,0.001358,1.149,0.001298,0,0,0.02298
105000000000,105300000000,616564438,0,1274707,0.0264,0.0274,0.04272,0.001835,0.001984,0.02792,0.0001287,1.717e-05,0.2881,0.0007858,1.292,0.001299,0,0,0.0004826
105300000000,105600000000,616564438,0,1274707,0.01733,0.02737,0.04272,0.001844,0.001991,0.02771,0.0001135,1.717e-05,0.3682,0.0009995,1.151,0.001323,0,0,0.002674
105600000000,105900000000,616564438,0,1274707,0.02652,0.02768,0.04272,0.001846,0.001995,0.02856,0.0001307,1.717e-05,0.2515,0.001358,1.276,0.001521,0,0,0.002831
105900000000,106200000000,616564438,0,1274707,0.01749,0.0275,0.04272,0.00185,0.001999,0.02823,0.0001335,1.717e-05,0.251,0.001499,1.18,0.001405,0,0,0.0004206
106200000000,106500000000,616564438,0,1274707,0.01724,0.02734,0.04272,0.001852,0.001999,0.02759,0.0001326,1.717e-05,0.2729,0.001143,1.146,0.0014,0,0,0.03711
106500000000,106800000000,616564438,0,1274707,0.02737,0.02756,0.04272,0.00186,0.002007,0.02798,0.0001965,1.717e-05,0.3389,0.002071,1.215,0.001524,0,0,0.005165
106800000000,107100000000,616564438,0,1274707,0.01721,0.02737,0.04272,0.001867,0.002014,0.02774,0.0001297,1.717e-05,0.2524,0.001286,1.154,0.001392,0,0,0.09851
107100000000,107400000000,616564438,0,1274707,0.02667,0.02768,0.04303,0.001877,0.002022,0.02863,0.0001383,1.717e-05,0.3037,0.001358,1.311,0.001653,0,0,0.01109
107400000000,107700000000,616564438,0,1274707,0.01755,0.02747,0.04272,0.001875,0.002022,0.02774,0.0001144,1.717e-05,0.2549,0.0007858,1.139,0.001379,0,0,0.0005283
107700000000,108000000000,616564438,0,1274707,0.01746,0.02734,0.04272,0.001877,0.002022,0.02768,0.0001202,1.717e-05,0.3389,0.001642,1.143,0.001358,0,0,0.01457
108000000000,108300000000,616564438,0,1274707,0.02679,0.0274,0.04272,0.001883,0.002029,0.02786,0.0001574,1.717e-05,0.2852,0.001429,1.238,0.001564,0,0,0.00325
108300000000,108600000000,616564438,0,1274707,0.01743,0.02728,0.04272,0.001886,0.002033,0.02753,0.0001287,1.717e-05,0.2495,0.001358,1.124,0.001325,0,0,0.009842
108600000000,108900000000,616564438,0,1274707,0.02686,0.02789,0.04327,0.001894,0.002041,0.02887,0.000165,1.717e-05,0.3047,0.002213,1.333,0.001681,0,0,0.004799
108900000000,109200000000,616564438,0,1274707,0.01752,0.0274,0.04272,0.001894,0.002041,0.02783,0.0001354,1.717e-05,0.2827,0.001572,1.155,0.001379,0,0,0.0009823
109200000000,109500000000,616564438,0,1274707,0.0174,0.02728,0.04272,0.001896,0.002045,0.0275,0.0001383,1.717e-05,0.2769,0.001286,1.147,0.001371,0,0,0.008224
109500000000,109800000000,616564438,0,1274707,0.02725,0.02753,0.04272,0.001904,0.002052,0.02783,0.0001907,1.717e-05,0.2832,0.002071,1.306,0.001692,0,0,0.01813
109800000000,110100000000,616564438,0,1274707,0.02155,0.0274,0.04272,0.001909,0.002056,0.02838,0.0002613,1.717e-05,0.2725,0.002499,1.167,0.001438,0,0,0.00194
110100000000,110400000000,616564438,0,1274707,0.02362,0.02762,0.04272,0.001915,0.00206,0.02838,0.0001955,1.717e-05,0.2515,0.002213,1.354,0.00169,0,0,0.002197
110400000000,110700000000,616564438,0,1274707,0.01746,0.02728,0.04272,0.001917,0.002064,0.02753,0.0001431,1.717e-05,0.3193,0.001642,1.154,0.001389,0,0,0.03339
110700000000,111000000000,616564438,0,1274707,0.02673,0.02734,0.04272,0.001919,0.002068,0.02789,0.0001736,1.717e-05,0.27,0.002144,1.235,0.001538,0,0,0.1665
116100000000,116400000000,616564438,0,1274707,0.01657,0.02731,0.04272,6.294e-05,0.0002098,0.02753,0.0001183,1.717e-05,0.2476,0.0009995,1.1,0.001222,0,0,0.02841
116400000000,116700000000,616564438,0,1274707,0.02557,0.02753,0.04272,6.58e-05,0.0002127,0.02805,0.0002327,1.717e-05,0.2749,0.003357,1.184,0.001419,0,0,0.01234
116700000000,117000000000,616564438,0,1274707,0.01682,0.02744,0.04272,7.629e-05,0.0002232,0.02786,0.0001831,1.717e-05,0.248,0.001143,1.099,0.001224,0,0,0.06152
117000000000,117300000000,616564438,0,1274707,0.0163,0.02731,0.04272,7.915e-05,0.000226,0.02756,0.0002069,1.812e-05,0.2461,0.002357,1.08,0.001201,0,0,0.02844
117300000000,117600000000,616564438,0,1274707,0.02573,0.02765,0.04297,8.488e-05,0.0002317,0.02859,0.0001707,1.812e-05,0.3462,0.001143,1.26,0.001499,0,0,0.006302
117600000000,117900000000,616564438,0,1274707,0.01703,0.02747,0.04272,8.583e-05,0.0002327,0.02792,0.0001612,1.812e-05,0.2939,0.0009995,1.101,0.001267,0,0,0.006081
117900000000,118200000000,616564438,0,1274707,0.02621,0.0275,0.04272,8.965e-05,0.0002365,0.0278,0.000186,1.812e-05,0.3076,0.001928,1.223,0.001397,0,0,0.001455
118200000000,118500000000,616564438,0,1274707,0.01663,0.02734,0.04272,9.727e-05,0.0002441,0.02759,0.0001373,1.812e-05,0.25,0.001215,1.092,0.00124,0,0,0.003212
118500000000,118800000000,616564438,0,1274707,0.0256,0.02759,0.04285,0.0001001,0.000247,0.02908,0.0001583,1.812e-05,0.3169,0.001858,1.182,0.001403,0,0,0.02695
118800000000,119100000000,616564438,0,1274707,0.01682,0.02774,0.04315,0.000104,0.0002508,0.02902,0.0001593,1.812e-05,0.2544,0.001928,1.149,0.001308,0,0,0.0009108
119100000000,119400000000,616564438,0,1274707,0.01761,0.02731,0.04272,0.0001068,0.0002537,0.0275,0.0002127,1.812e-05,0.2534,0.001858,1.152,0.001187,0,0,0.0003386
119400000000,119700000000,616564438,0,1274707,0.02829,0.02759,0.04272,0.0001125,0.0002594,0.02811,0.0002041,1.812e-05,0.3384,0.001642,1.383,0.001381,0,0,0.0005779
119700000000,120000000000,616564438,0,1274707,0.01834,0.02747,0.04272,0.0001192,0.0002661,0.02786,0.0001774,1.812e-05,0.2871,0.002213,1.172,0.001231,0,0,0.003674
120000000000,120300000000,616564438,0,1274707,0.02734,0.02765,0.04272,0.0001211,0.000268,0.02853,0.0001869,1.812e-05,0.3159,0.001928,1.28,0.001455,0,0,0.009628
120300000000,120600000000,616564438,0,1274707,0.01828,0.02762,0.04272,0.0001259,0.0002728,0.02795,0.0001678,1.812e-05,0.3013,0.001286,1.138,0.001252,0,0,0.003597
120600000000,120900000000,616564438,0,1274707,0.01752,0.02744,0.04272,0.0001287,0.0002756,0.0278,0.0001526,1.812e-05,0.2729,0.001858,1.124,0.001239,0,0,0.02853
126000000000,126300000000,616564438,0,1274707,0.01846,0.02768,0.04291,7.534e-05,0.0002222,0.02853,0.0001297,1.812e-05,0.3755,0.0009289,1.256,0.001375,0,0,0.00647
126600000000,126900000000,616564438,0,1274707,0.02838,0.0275,0.04272,7.153e-05,0.0002184,0.02844,0.0001802,1.812e-05,0.2969,0.001286,1.339,0.00145,0,0,0.02557
127200000000,127500000000,616564438,0,1274707,0.02753,0.0278,0.04303,8.202e-05,0.0002289,0.02875,0.000329,1.812e-05,0.2744,0.00293,1.351,0.001515,0,0,0.02393
127500000000,127800000000,616564438,0,1274707,0.0177,0.02737,0.04272,8.488e-05,0.0002317,0.0278,0.0001392,1.812e-05,0.3086,0.004288,1.145,0.001126,0,0,0.02295
127800000000,128100000000,616564438,0,1274707,0.01852,0.02734,0.04272,8.678e-05,0.0002337,0.02765,0.0002041,1.812e-05,0.3638,0.003571,1.193,0.001194,0,0,0.001163
128100000000,128400000000,616564438,0,1274707,0.02844,0.02762,0.04272,9.441e-05,0.0002413,0.02792,0.000124,1.812e-05,0.3193,0.0007143,1.375,0.001428,0,0,0.002144
128400000000,128700000000,616564438,0,1274707,0.01712,0.0275,0.04272,9.632e-05,0.0002432,0.02786,0.0001116,1.812e-05,0.3018,0.001999,1.163,0.001214,0,0,0.01016
128700000000,129000000000,616564438,0,1274707,0.02634,0.02771,0.04272,9.823e-05,0.0002451,0.02853,0.000102,1.812e-05,0.3545,0.0005713,1.273,0.001422,0,0,0.005966
129000000000,129300000000,616564438,0,1274707,0.01703,0.0275,0.04272,0.000102,0.0002489,0.0278,9.537e-05,1.812e-05,0.3125,0.0004282,1.114,0.001206,0,0,0.0002451
129300000000,129600000000,616564438,0,1274707,0.02133,0.0275,0.04272,0.0001049,0.0002518,0.02795,0.000104,1.812e-05,0.2803,0.0004282,1.084,0.001118,0,0,0.01147
129600000000,129900000000,616564438,0,1274707,0.02179,0.02747,0.04272,0.0001125,0.0002594,0.02783,0.0001059,1.812e-05,0.3037,0.0004997,1.26,0.001375,0,0,0.0001259
129900000000,130200000000,616564438,0,1274707,0.01712,0.02747,0.04272,0.0001154,0.0002623,0.02783,0.000104,1.812e-05,0.2458,0.001785,1.103,0.001137,0,0,0.0002203
130200000000,130500000000,616564438,0,1274707,0.02658,0.02792,0.04315,7.915e-05,0.000226,0.02884,9.823e-05,1.812e-05,0.3018,0.0004282,1.288,0.001355,0,0,0.04248
130500000000,130800000000,616564438,0,1274707,0.01691,0.02737,0.04272,4.005e-05,0.0001879,0.02762,9.823e-05,1.812e-05,0.3066,0.0004282,1.108,0.001127,0,0,0.001087
130800000000,131100000000,616564438,0,1274707,0.02917,0.02756,0.04272,4.292e-05,0.0001898,0.02811,0.0001183,1.812e-05,0.3569,0.0009995,1.375,0.001488,0,0,0.03668
141000000000,141300000000,616564438,0,1274707,0.02139,0.02753,0.04272,0.0001898,0.0003366,0.02795,0.0001421,1.907e-05,0.2778,0.001286,1.101,0.001161,0,0,0.009705
141300000000,141600000000,616564438,0,1274707,0.02277,0.02756,0.04272,0.0001974,0.0003443,0.02802,0.0001593,1.907e-05,0.312,0.001499,1.209,0.001353,0,0,0.00176
141600000000,141900000000,616564438,0,1274707,0.01773,0.02756,0.04272,0.0002003,0.0003471,0.02792,0.0001354,1.907e-05,0.2979,0.001072,1.156,0.001231,0,0,0.02313
141900000000,142200000000,616564438,0,1274707,0.02686,0.02795,0.04327,0.0001993,0.0003462,0.02902,0.0001535,1.907e-05,0.3066,0.001429,1.247,0.001368,0,0,0.06433
142200000000,142500000000,616564438,0,1274707,0.01788,0.02744,0.04272,0.0001936,0.0003405,0.02771,0.0001287,1.907e-05,0.2705,0.002213,1.15,0.001206,0,0,0.01183
142500000000,142800000000,616564438,0,1274707,0.02725,0.0275,0.04272,0.0001955,0.0003433,0.02795,0.0001678,1.907e-05,0.2896,0.001715,1.226,0.001382,0,0,0.04449
142800000000,143100000000,616564438,0,1274707,0.0181,0.0275,0.04272,0.0002041,0.000351,0.02783,0.0001326,1.907e-05,0.3149,0.001215,1.208,0.001359,0,0,0.001816
143100000000,143400000000,616564438,0,1274707,0.01746,0.02756,0.04272,0.000206,0.0003538,0.02792,0.0001335,1.907e-05,0.2998,0.001358,1.078,0.001164,0,0,0.03912
143400000000,143700000000,616564438,0,1274707,0.0264,0.02798,0.04321,0.0002146,0.0003614,0.02902,0.0001335,1.907e-05,0.3008,0.002144,1.246,0.001441,0,0,0.01898
143700000000,144000000000,616564438,0,1274707,0.01846,0.02747,0.04272,0.0002127,0.0003595,0.02774,0.0001249,1.907e-05,0.3091,0.001286,1.18,0.001239,0,0,0.0007439
144000000000,144300000000,616564438,0,1274707,0.0285,0.02756,0.04272,0.0002155,0.0003624,0.02802,0.0001402,1.907e-05,0.3174,0.001072,1.309,0.001431,0,0,0.0004692
144300000000,144600000000,616564438,0,1274707,0.01843,0.02753,0.04272,0.0002232,0.00037,0.02777,0.0001173,1.907e-05,0.2603,0.001215,1.185,0.001225,0,0,0.001072
144600000000,144900000000,616564438,0,1274707,0.02249,0.02765,0.04272,0.0002251,0.0003729,0.02847,0.0001173,1.907e-05,0.2856,0.0008574,1.174,0.001259,0,0,0.004097
144900000000,145200000000,616564438,0,1274707,0.02444,0.02792,0.04327,0.0002298,0.0003767,0.02878,0.0001221,1.907e-05,0.3125,0.00243,1.307,0.001365,0,0,0.01706
145200000000,145500000000,616564438,0,1274707,0.01822,0.02747,0.04272,0.0002317,0.0003786,0.02771,0.0001135,1.907e-05,0.29,0.0009995,1.191,0.001203,0,0,0.006615
145500000000,145800000000,616564438,0,1274707,0.02762,0.02756,0.04272,0.0002356,0.0003824,0.02798,0.000164,1.907e-05,0.3188,0.002071,1.255,0.001328,0,0,0.005539
145800000000,146100000000,616564438,0,1274707,0.01773,0.0275,0.04272,0.0002451,0.0003929,0.02774,0.0001602,1.907e-05,0.2817,0.0009995,1.133,0.001202,0,0,0.0004406
151200000000,151500000000,616564438,0,1274707,0.02823,0.02774,0.04272,0.0003176,0.0004644,0.02808,0.0002279,2.003e-05,0.3457,0.001215,1.303,0.001296,0,0,0.001553
151500000000,151800000000,616564438,0,1274707,0.02158,0.02765,0.04272,0.0003271,0.000474,0.02805,0.0001993,2.003e-05,0.3564,0.001143,1.239,0.001254,0,0,0.0005264
151800000000,152100000000,616564438,0,1274707,0.02567,0.02762,0.04279,0.00033,0.0004768,0.02863,0.000145,2.003e-05,0.3677,0.0009289,1.239,0.001241,0,0,0.006126
152100000000,152400000000,616564438,0,1274707,0.02341,0.02789,0.04327,0.0003338,0.0004807,0.02875,0.0001221,2.003e-05,0.333,0.0004282,1.39,0.001465,0,0,0.0006437
152400000000,152700000000,616564438,0,1274707,0.01895,0.02762,0.04272,0.0003357,0.0004826,0.02798,0.0001297,2.003e-05,0.3276,0.001715,1.209,0.001189,0,0,0.0008192
152700000000,153000000000,616564438,0,1274707,0.02866,0.0278,0.04272,0.0003414,0.0004883,0.02832,0.0001507,2.003e-05,0.335,0.001215,1.233,0.001325,0,0,0.008163
153000000000,153300000000,616564438,0,1274707,0.01883,0.02759,0.04272,0.000349,0.0004959,0.02783,0.0001955,2.003e-05,0.291,0.0008574,1.165,0.00131,0,0,0.01244
153300000000,153600000000,616564438,0,1274707,0.02972,0.02798,0.04333,0.0003548,0.0005016,0.02911,0.0001974,2.003e-05,0.3462,0.001215,1.359,0.001661,0,0,0.0003195
153600000000,153900000000,616564438,0,1274707,0.01862,0.02774,0.04279,0.0003586,0.0005054,0.0282,0.0001373,2.003e-05,0.3447,0.0006428,1.15,0.00128,0,0,0.004372
153900000000,154200000000,616564438,0,1274707,0.01819,0.02768,0.04272,0.0003614,0.0005083,0.02795,0.0001221,2.003e-05,0.3281,0.0004282,1.103,0.001145,0,0,0.008698
154200000000,154500000000,616564438,0,1274707,0.02808,0.02774,0.04272,0.0003681,0.000515,0.02817,0.0001459,2.003e-05,0.3315,0.001358,1.263,0.001344,0,0,0.02084
154500000000,154800000000,616564438,0,1274707,0.01816,0.02759,0.04272,0.0003719,0.0005198,0.02783,0.0001268,2.003e-05,0.3374,0.001072,1.136,0.001216,0,0,0.0004644
154800000000,155100000000,616564438,0,1274707,0.02811,0.02817,0.04358,0.0003757,0.0005226,0.02911,0.0001268,2.003e-05,0.3267,0.0007143,1.145,0.00126,0,0,0.0002832
155100000000,155400000000,616564438,0,1274707,0.01849,0.02768,0.04272,0.0003796,0.0005264,0.02805,0.0001106,2.003e-05,0.5889,0.001785,1.115,0.001187,0,0,0.01025
155400000000,155700000000,616564438,0,1274707,0.02911,0.02771,0.04279,0.0003853,0.0005322,0.02905,0.0002251,2.003e-05,0.3428,0.002071,1.317,0.001416,0,0,0.06262
155700000000,156000000000,616564438,0,1274707,0.01855,0.02765,0.04272,0.0004034,0.0005503,0.02798,0.0001612,2.003e-05,0.3154,0.001429,1.186,0.001222,0,0,0.00946
161100000000,161400000000,616564438,0,1274707,0.01999,0.02765,0.04272,0.0004454,0.0005922,0.02795,0.0001078,2.003e-05,0.2837,0.0004997,1.205,0.001282,0,0,0.0007238
161400000000,161700000000,616564438,0,1274707,0.02579,0.0278,0.04291,0.0004473,0.0005941,0.02951,0.0001011,2.003e-05,0.3545,0.0007858,1.2,0.001337,0,0,0.0009623
161700000000,162000000000,616564438,0,1274707,0.01978,0.02805,0.04333,0.000452,0.0005989,0.02951,0.000103,2.003e-05,0.3628,0.0006428,1.296,0.001353,0,0,0.002449
163200000000,163500000000,616564438,0,336058857,0.07666,0.02869,0.04425,0.0002441,0.0004892,0.02905,0.0002413,0,0.2866,0.003502,1.224,0.0009282,0,0,0.08704
163500000000,163800000000,616564438,0,336058857,0.07666,0.02847,0.04456,0.0002584,0.0005045,0.02905,0.0001659,0,0.3706,0.001928,1.237,0.0009622,0,0,0.08594
163800000000,164100000000,616564438,0,336058857,0.07715,0.02875,0.04456,0.0002642,0.0005102,0.02908,0.0002012,0,0.584,0.002857,1.251,0.001009,0,0,0.06702
164400000000,164700000000,616564438,0,336058857,0.04028,0.02838,0.04431,0.0002594,0.0004921,0.02899,0.000226,0,0.3105,0.008926,1.231,0.001251,0,0,0.01785
164700000000,165000000000,616564438,0,336058857,0.01736,0.02798,0.04266,0.0001431,0.00033,0.02826,0.0001936,0,0.2524,0.005356,0.9399,0.0007918,0,0,0.1907
165000000000,165300000000,616564438,0,336058857,0.01733,0.02795,0.04266,0.0001459,0.0003347,0.02823,0.0002537,0,0.2458,0.005714,0.9344,0.0007773,0,0,0.06384
165300000000,165600000000,616564438,0,336058857,0.01743,0.02844,0.04425,0.0001497,0.0003395,0.02887,0.0002127,0,0.2534,0.004288,0.9526,0.0008144,0,0,0.0008678
165600000000,165900000000,616564438,0,336058857,0.01764,0.02817,0.04358,0.0001516,0.0003414,0.02878,0.0002232,0,0.2734,0.003429,0.9535,0.0008231,0,0,0.05133
165900000000,166200000000,616564438,0,336058857,0.02682,0.02805,0.04279,0.0001535,0.0003433,0.02881,0.000206,0,0.2539,0.00293,1.128,0.001169,0,0,0.008636
166200000000,166500000000,616564438,0,336058857,0.01785,0.02853,0.04462,0.0001574,0.0003481,0.02884,0.0002117,0,0.2498,0.004074,1.108,0.001105,0,0,0.03723
166500000000,166800000000,616564438,0,336058857,0.02869,0.02832,0.04401,0.000164,0.0003548,0.02896,0.0002708,0,0.2905,0.005714,1.134,0.001141,0,0,0.08521
166800000000,167100000000,616564438,0,336058857,0.01834,0.02844,0.04425,0.0001812,0.0003738,0.02884,0.0002384,0,0.2593,0.00293,0.9758,0.0008667,0,0,0.02588
167100000000,167400000000,616564438,0,336058857,0.01834,0.0282,0.0434,0.0001888,0.0003796,0.02878,0.0002422,0,0.2439,0.00293,0.9921,0.0008756,0,0,0.01709
167400000000,167700000000,616564438,0,336058857,0.0192,0.02802,0.04266,0.0001907,0.0003834,0.02829,0.0003357,9.537e-07,0.3755,0.00293,1.011,0.000956,0,0,0.009521
167700000000,168000000000,616564438,0,336058857,0.02875,0.02896,0.04431,0.0002003,0.0003929,0.02972,0.0003052,9.537e-07,0.3027,0.005432,1.214,0.001284,0,0,0.001318
168000000000,168300000000,616564438,0,336058857,0.02933,0.02863,0.04456,0.0002069,0.0004005,0.02914,0.000267,9.537e-07,0.2793,0.003143,1.161,0.001162,0,0,0.005424
168300000000,168600000000,616564438,0,336058857,0.01816,0.02829,0.04456,0.0002127,0.0004072,0.02856,0.0001955,9.537e-07,0.2559,0.004288,0.9928,0.0008834,0,0,0.01175
168600000000,168900000000,616564438,0,336058857,0.01834,0.02859,0.04456,0.0002155,0.0004082,0.02902,0.0001974,9.537e-07,0.2515,0.003143,0.9863,0.000885,0,0,0.001417
168900000000,169200000000,616564438,0,336058857,0.01788,0.0282,0.04364,0.0002031,0.0003967,0.02881,0.0002317,9.537e-07,0.2437,0.003784,0.9798,0.0008565,0,0,0.003315
169200000000,169500000000,616564438,0,336058857,0.02786,0.02826,0.04358,0.000206,0.0003996,0.0289,0.0002337,9.537e-07,0.2646,0.00293,1.195,0.001219,0,0,0.07654
169500000000,169800000000,616564438,0,336058857,0.02823,0.02853,0.04419,0.0002232,0.0004168,0.02911,0.0003223,9.537e-07,0.2886,0.003143,1.086,0.001148,0,0,0.006508
169800000000,170100000000,616564438,0,336058857,0.01773,0.02826,0.04364,0.0002346,0.0004282,0.02884,0.0002251,9.537e-07,0.2437,0.00293,0.9397,0.0009059,0,0,0.06604
170100000000,170400000000,616564438,0,336058857,0.01828,0.02808,0.04266,0.0002356,0.0004301,0.02835,0.0002041,9.537e-07,0.2434,0.003502,1.002,0.0009036,0,0,0.001925
170400000000,170700000000,616564438,0,336058857,0.01794,0.02847,0.04419,0.0002289,0.0004339,0.02893,0.0001717,9.537e-07,0.2483,0.002857,0.9675,0.0008918,0,0,0.01654
170700000000,171000000000,616564438,0,336058857,0.02768,0.0285,0.04443,0.0002317,0.0004263,0.0289,0.0003033,9.537e-07,0.252,0.002857,1.121,0.001174,0,0,0.1533
171000000000,171300000000,616564438,0,336058857,0.0289,0.02853,0.04419,0.0002346,0.0004282,0.02911,0.0003319,9.537e-07,0.2578,0.004715,1.123,0.00117,0,0,0.000309
171300000000,171600000000,616564438,0,336058857,0.01773,0.0282,0.04364,0.0002422,0.000432,0.02881,0.0002184,9.537e-07,0.3911,0.003857,0.9716,0.0009134,0,0,0.003937
171600000000,171900000000,616564438,0,336058857,0.01788,0.02798,0.04266,0.0002422,0.0004358,0.02829,0.0002289,9.537e-07,0.249,0.003071,0.9591,0.0008896,0,0,0.001188
171900000000,172200000000,616564438,0,336058857,0.01816,0.02798,0.04266,0.0002441,0.0004377,0.02823,0.000165,9.537e-07,0.2568,0.002213,0.968,0.0008735,0,0,0.001087
172200000000,172500000000,616564438,0,336058857,0.02832,0.02859,0.04407,0.000247,0.0004406,0.02945,0.0002661,9.537e-07,0.2983,0.002998,1.095,0.001125,0,0,0.04242
172500000000,172800000000,616564438,0,336058857,0.0285,0.02832,0.04382,0.0002518,0.0004454,0.02872,0.0003376,9.537e-07,0.2642,0.005356,1.111,0.001143,0,0,0.1399
172800000000,173100000000,616564438,0,336058857,0.0181,0.02841,0.04413,0.0002613,0.0004549,0.02878,0.0002317,9.537e-07,0.27,0.004211,0.9677,0.0008967,0,0,0.04614
173100000000,173400000000,616564438,0,336058857,0.01782,0.0282,0.04358,0.0002642,0.0004578,0.02872,0.0002737,9.537e-07,0.2607,0.004211,0.9576,0.0009134,0,0,0.0007105
173400000000,173700000000,616564438,0,336058857,0.01782,0.02798,0.04266,0.0002661,0.0004597,0.02832,0.0002308,9.537e-07,0.2451,0.003284,0.9542,0.0008485,0,0,0.000226
173700000000,174000000000,616564438,0,336058857,0.02707,0.02869,0.04413,0.0002699,0.0004635,0.02936,0.0002699,9.537e-07,0.2793,0.003998,1.149,0.001249,0,0,0.06494
174000000000,174300000000,616564438,0,336058857,0.02808,0.02841,0.04449,0.0002747,0.0004683,0.0289,0.0003023,9.537e-07,0.2812,0.00486,1.156,0.001209,0,0,0.02722
174300000000,174600000000,616564438,0,336058857,0.01776,0.02808,0.04266,0.0002823,0.0004759,0.02835,0.0002613,9.537e-07,0.2539,0.005783,0.9616,0.0009074,0,0,0.0304
174600000000,174900000000,616564438,0,336058857,0.01822,0.02847,0.04413,0.0002956,0.0004892,0.0289,0.0003424,9.537e-07,0.2473,0.003571,0.9737,0.0009336,0,0,0.02029
174900000000,175200000000,616564438,0,336058857,0.01788,0.02829,0.04364,0.0002937,0.0004873,0.02884,0.0003109,9.537e-07,0.2444,0.003502,0.9685,0.0008889,0,0,0.1526
175200000000,175500000000,616564438,0,336058857,0.02716,0.02847,0.04388,0.0002956,0.000495,0.02917,0.0002718,9.537e-07,0.3584,0.004715,1.154,0.00119,0,0,0.03491
175500000000,175800000000,616564438,0,336058857,0.02942,0.02859,0.04413,0.0003023,0.0004959,0.02911,0.0002203,9.537e-07,0.2808,0.002499,1.233,0.001383,0,0,0.01355
175800000000,176100000000,616564438,0,336058857,0.01852,0.02835,0.04437,0.000309,0.0005026,0.0289,0.0001259,9.537e-07,0.248,0.002998,0.9783,0.0009149,0,0,0.02881
186300000000,186600000000,616564438,0,336058857,0.01944,0.02847,0.04431,0.0004778,0.0006742,0.02911,7.248e-05,1.907e-06,0.2451,0.002857,1.19,0.001248,0,0,0.2161
186600000000,186900000000,616564438,0,336058857,0.03094,0.02835,0.04425,0.0004864,0.0006828,0.02881,0.0002718,1.907e-06,0.2588,0.00293,1.255,0.001346,0,0,0.06421
186900000000,187200000000,616564438,0,336058857,0.01981,0.0285,0.04462,0.0004892,0.0006857,0.02896,0.0002079,1.907e-06,0.2393,0.00293,1.04,0.0009889,0,0,0.0009069
187200000000,187500000000,616564438,0,336058857,0.01993,0.02841,0.04462,0.0004921,0.0006886,0.02887,0.0002241,1.907e-06,0.2583,0.003643,1.047,0.0009746,0,0,0.002964
187500000000,187800000000,616564438,0,336058857,0.03036,0.0285,0.04462,0.000495,0.0006914,0.02927,0.0002136,1.907e-06,0.272,0.004715,1.285,0.001388,0,0,0.002747
187800000000,188100000000,616564438,0,336058857,0.03174,0.02859,0.04462,0.0004997,0.0006962,0.02917,0.0003328,1.907e-06,0.2627,0.005211,1.268,0.001289,0,0,0.0003881
188100000000,188400000000,616564438,0,336058857,0.01944,0.02844,0.04462,0.0005083,0.0007048,0.02893,0.0002861,1.907e-06,0.2478,0.004929,1.042,0.000951,0,0,0.0003538
188400000000,188700000000,616564438,0,336058857,0.01929,0.02823,0.04462,0.0005102,0.0007067,0.0285,0.0002508,1.907e-06,0.2549,0.004211,1.019,0.0009591,0,0,0.01518
188700000000,189000000000,616564438,0,336058857,0.0293,0.02835,0.04462,0.0005131,0.0007086,0.02905,0.000288,1.907e-06,0.3101,0.005432,1.141,0.001216,0,0,0.07544
189000000000,189300000000,616564438,0,336058857,0.01968,0.02856,0.04462,0.0005178,0.0007143,0.02896,0.0003738,1.907e-06,0.2451,0.005714,1.083,0.001103,0,0,0.0009651
189300000000,189600000000,616564438,0,336058857,0.03067,0.02859,0.04462,0.0005283,0.0007248,0.02917,0.0004129,1.907e-06,0.271,0.005714,1.281,0.001383,0,0,0.03006
189600000000,189900000000,616564438,0,336058857,0.0191,0.02823,0.04462,0.0005331,0.0007296,0.02853,0.0002308,1.907e-06,0.2417,0.004501,1.015,0.0009805,0,0,0.001442
189900000000,190200000000,616564438,0,336058857,0.01913,0.02847,0.04462,0.000535,0.0007315,0.0289,0.0002451,1.907e-06,0.2349,0.004211,1.005,0.000972,0,0,0.04187
190200000000,190500000000,616564438,0,336058857,0.02963,0.02887,0.04462,0.0005388,0.0007353,0.02969,0.0002518,1.907e-06,0.3066,0.003998,1.225,0.001336,0,0,0.009293
190500000000,190800000000,616564438,0,336058857,0.03061,0.02835,0.04462,0.0005436,0.0007401,0.02881,0.0003662,1.907e-06,0.2695,0.006432,1.19,0.00123,0,0,0.0123
190800000000,191100000000,616564438,0,336058857,0.0192,0.02829,0.04462,0.0005512,0.0007477,0.02859,0.0002165,1.907e-06,0.2612,0.004211,1.02,0.0009562,0,0,0.01137
191100000000,191400000000,616564438,0,336058857,0.01938,0.0285,0.04462,0.0005541,0.0007505,0.02908,0.0002403,1.907e-06,0.2446,0.005714,1.021,0.0009432,0,0,0.001236
191400000000,191700000000,616564438,0,336058857,0.03015,0.02856,0.04462,0.0005569,0.0007534,0.02917,0.000246,1.907e-06,0.2378,0.004784,1.211,0.001296,0,0,0.07275
191700000000,192000000000,616564438,0,336058857,0.0195,0.02841,0.04462,0.0005608,0.0007572,0.02917,0.0002098,1.907e-06,0.2646,0.00293,1.208,0.001245,0,0,0.002419
192000000000,192300000000,616564438,0,336058857,0.03137,0.02866,0.04462,0.0005703,0.0007658,0.02917,9.537e-06,1.907e-06,0.2651,0.001072,1.295,0.001413,0,0,0.004959
192300000000,192600000000,616564438,0,336058857,0.01984,0.0285,0.04462,0.000576,0.0007725,0.02893,0,1.907e-06,0.2451,7.153e-05,1.061,0.0009924,0,0,0.008392
192600000000,192900000000,616564438,0,336058857,0.02002,0.02832,0.04462,0.0005798,0.0007763,0.02863,9.537e-07,1.907e-06,0.2583,7.153e-05,1.047,0.0009756,0,0,0.01074
192900000000,193200000000,616564438,0,336058857,0.03079,0.02896,0.04462,0.0005875,0.000783,0.02991,0,1.907e-06,0.3013,0,1.145,0.001181,0,0,0.1147
193200000000,193500000000,616564438,0,336058857,0.03131,0.02869,0.04462,0.0005894,0.0007849,0.02905,3.052e-05,1.907e-06,0.293,0.001286,1.211,0.001254,0,0,0.04865
193500000000,193800000000,616564438,0,336058857,0.01926,0.02829,0.04462,0.0005951,0.0007915,0.02856,0.0002537,1.907e-06,0.3926,0.004211,1.028,0.0009207,0,0,0.01123
193800000000,194100000000,616564438,0,336058857,0.01978,0.0285,0.04462,0.000597,0.0007935,0.02899,0.0002413,1.907e-06,0.2388,0.00293,1.024,0.0009426,0,0,0.01169
194100000000,194400000000,616564438,0,336058857,0.02979,0.02853,0.04462,0.0005999,0.0007963,0.02924,0.0002413,1.907e-06,0.2969,0.00293,1.138,0.001128,0,0,0.01276
194400000000,194700000000,616564438,0,336058857,0.01962,0.02841,0.04462,0.0006037,0.0008001,0.02905,0.0002289,1.907e-06,0.2405,0.004425,1.208,0.001259,0,0,0.003517
194700000000,195000000000,616564438,0,336058857,0.0307,0.02863,0.04462,0.0006113,0.0008078,0.02927,0.0003176,1.907e-06,0.2583,0.005714,1.197,0.001182,0,0,0.08264
195000000000,195300000000,616564438,0,336058857,0.01935,0.02844,0.04462,0.000617,0.0008135,0.02887,0.0002337,1.907e-06,0.2593,0.003571,1.02,0.0009036,0,0,0.02213
195300000000,195600000000,616564438,0,336058857,0.01917,0.02823,0.04462,0.0006189,0.0008154,0.02847,0.0002432,1.907e-06,0.2627,0.004074,1.027,0.0009251,0,0,0.003357
195600000000,195900000000,616564438,0,336058857,0.02985,0.02878,0.04462,0.0006227,0.0008192,0.02969,0.0002432,1.907e-06,0.272,0.005432,1.134,0.001172,0,0,0.005478
195900000000,196200000000,616564438,0,336058857,0.03046,0.02863,0.04462,0.0006285,0.0008249,0.02896,0.0004148,1.907e-06,0.2881,0.005714,1.205,0.001247,0,0,0.008987
201300000000,201600000000,616564438,0,336058857,0.03058,0.02856,0.04462,0.0007114,0.0009079,0.0289,0.0003071,2.861e-06,0.439,0.004288,1.196,0.001212,0,0,0.01079
201600000000,201900000000,616564438,0,336058857,0.01953,0.02826,0.04462,0.00072,0.0009165,0.02853,0.0002365,2.861e-06,0.2388,0.003643,1.013,0.0009357,0,0,0.001879
201900000000,202200000000,616564438,0,336058857,0.01956,0.02847,0.04462,0.0007219,0.0009184,0.0289,0.0002193,2.861e-06,0.2588,0.002998,1.025,0.0009227,0,0,0.04175
202200000000,202500000000,616564438,0,336058857,0.02917,0.02859,0.04462,0.0007248,0.0009212,0.02917,0.0002146,2.861e-06,0.395,0.003643,1.179,0.00126,0,0,0.001335
202500000000,202800000000,616564438,0,336058857,0.02838,0.02869,0.04462,0.0007219,0.0009184,0.02942,0.0002708,2.861e-06,0.2681,0.003716,1.264,0.00137,0,0,0.001125
202800000000,203100000000,616564438,0,336058857,0.03119,0.02866,0.04462,0.0007286,0.0009251,0.02896,0.0003548,2.861e-06,0.2896,0.005714,1.273,0.001344,0,0,0.06763
203100000000,203400000000,616564438,0,336058857,0.01959,0.0285,0.04462,0.0007362,0.0009327,0.0289,0.0003672,2.861e-06,0.2671,0.005859,1.042,0.0009684,0,0,0.001005
203400000000,203700000000,616564438,0,336058857,0.01978,0.02829,0.04462,0.0007401,0.0009365,0.02856,0.0003548,2.861e-06,0.2312,0.003643,1.04,0.000954,0,0,0.04315
203700000000,204000000000,616564438,0,336058857,0.03012,0.02881,0.04462,0.0007439,0.0009403,0.02985,0.0003023,2.861e-06,0.2671,0.003357,1.262,0.001382,0,0,0.001158
204000000000,204300000000,616564438,0,336058857,0.03067,0.02859,0.04462,0.0007486,0.0009451,0.02893,0.0003242,2.861e-06,0.2651,0.003216,1.159,0.00115,0,0,0.01357
204300000000,204600000000,616564438,0,336058857,0.01895,0.02835,0.04462,0.0007572,0.0009537,0.02866,0.0002327,2.861e-06,0.2424,0.003998,1.014,0.0009298,0,0,0.01134
204600000000,204900000000,616564438,0,336058857,0.01962,0.0285,0.04462,0.0007601,0.0009556,0.0289,0.000248,2.861e-06,0.2454,0.005783,1.016,0.0009467,0,0,0.04681
204900000000,205200000000,616564438,0,336058857,0.02011,0.02847,0.04462,0.000762,0.0009584,0.0289,0.0002203,2.861e-06,0.252,0.003502,1.053,0.001033,0,0,0.01273
205200000000,205500000000,616564438,0,336058857,0.02817,0.02856,0.04462,0.0007677,0.0009632,0.02921,0.0003405,2.861e-06,0.2336,0.005074,1.246,0.001374,0,0,0.03564
205500000000,205800000000,616564438,0,336058857,0.03009,0.02847,0.04462,0.0007753,0.0009708,0.02896,0.0004416,2.861e-06,0.2856,0.004715,1.214,0.001289,0,0,0.01216
205800000000,206100000000,616564438,0,336058857,0.01953,0.0285,0.04462,0.0007801,0.0009766,0.02893,0.0002785,2.861e-06,0.2681,0.002857,1.012,0.000943,0,0,0.001228
206100000000,206400000000,616564438,0,336058857,0.01932,0.02847,0.04462,0.000783,0.0009785,0.0289,0.0002966,2.861e-06,0.2505,0.00457,1.024,0.0009491,0,0,0.0002871
206400000000,206700000000,616564438,0,336058857,0.02963,0.02856,0.04462,0.0007849,0.0009823,0.02942,0.0002785,2.861e-06,0.2812,0.004997,1.252,0.001395,0,0,0.002956
206700000000,207000000000,616564438,0,336058857,0.03076,0.02859,0.04462,0.0007906,0.0009861,0.02924,0.0002995,2.861e-06,0.2593,0.005569,1.106,0.001136,0,0,0.01807
207000000000,207300000000,616564438,0,336058857,0.01938,0.02853,0.04462,0.0007992,0.0009956,0.02893,0.0002441,2.861e-06,0.2554,0.003571,1.012,0.0009139,0,0,0.004784
207300000000,207600000000,616564438,0,336058857,0.01788,0.02829,0.04462,0.0008011,0.0009975,0.02856,0.0002146,2.861e-06,0.2483,0.003429,0.948,0.0009239,0,0,0.0005388
207600000000,207900000000,616564438,0,336058857,0.021,0.0285,0.04462,0.0008039,0.001001,0.02948,0.0002232,2.861e-06,0.2896,0.004288,0.9905,0.001026,0,0,0.01663
207900000000,208200000000,616564438,0,336058857,0.02521,0.02887,0.04462,0.0008087,0.001005,0.02979,0.0002127,2.861e-06,0.2358,0.004074,1.095,0.001227,0,0,0.0005312
208200000000,208500000000,616564438,0,336058857,0.02881,0.02859,0.04462,0.0008163,0.001013,0.0289,0.0003071,2.861e-06,0.2681,0.004356,1.161,0.001364,0,0,0.002991
208500000000,208800000000,616564438,0,336058857,0.01801,0.02847,0.04462,0.0008221,0.001019,0.02884,0.0002251,2.861e-06,0.2466,0.00486,0.96,0.0009562,0,0,0.03149
208800000000,209100000000,616564438,0,336058857,0.01862,0.02829,0.04462,0.000824,0.00102,0.02856,0.0002146,2.861e-06,0.218,0.003071,0.9726,0.0009861,0,0,0.0008516
209100000000,209400000000,616564438,0,336058857,0.02655,0.02884,0.04462,0.0008278,0.001024,0.02985,0.0002251,2.861e-06,0.3784,0.003143,1.224,0.001331,0,0,0.006943
209400000000,209700000000,616564438,0,336058857,0.0332,0.02872,0.04462,0.0008326,0.001028,0.02914,0.0003147,2.861e-06,0.5059,0.006073,1.145,0.001112,0,0,0.01221
209700000000,210000000000,616564438,0,336058857,0.01855,0.02835,0.04462,0.0008411,0.001038,0.02875,0.0003014,2.861e-06,0.2554,0.003929,1.102,0.001044,0,0,0.0007105
210000000000,210300000000,616564438,0,336058857,0.01855,0.02847,0.04462,0.000843,0.00104,0.0289,0.0002832,2.861e-06,0.251,0.004646,0.9977,0.0009293,0,0,0.02402
210300000000,210600000000,616564438,0,336058857,0.01901,0.02847,0.04462,0.0008469,0.001043,0.02887,0.0003319,2.861e-06,0.2375,0.003357,1.04,0.001022,0,0,0.2205
210600000000,210900000000,616564438,0,336058857,0.02884,0.02878,0.04462,0.0008488,0.001045,0.02951,0.0003328,2.861e-06,0.3047,0.005142,1.22,0.001352,0,0,0.0004473
210900000000,211200000000,616564438,0,336058857,0.02966,0.0285,0.04462,0.0008545,0.001051,0.0289,0.0003414,3.815e-06,0.2671,0.005287,1.147,0.001086,0,0,0.01663
211200000000,211500000000,616564438,0,336058857,0.01907,0.0285,0.04462,0.0008612,0.001057,0.02893,0.0002279,3.815e-06,0.23,0.004501,1.028,0.0009493,0,0,0.01627
211500000000,211800000000,616564438,0,336058857,0.01868,0.0285,0.04462,0.000864,0.00106,0.02887,0.0001974,3.815e-06,0.2383,0.004074,1.017,0.000912,0,0,0.02927
211800000000,212100000000,616564438,0,336058857,0.02908,0.02847,0.04462,0.0008659,0.001062,0.02914,0.0002079,3.815e-06,0.4053,0.003284,1.107,0.001106,0,0,0.06506
212100000000,212400000000,616564438,0,336058857,0.02982,0.02856,0.04462,0.0008698,0.001066,0.02921,0.0002584,3.815e-06,0.3062,0.003071,1.155,0.001209,0,0,0.003109
212400000000,212700000000,616564438,0,336058857,0.01959,0.02863,0.04462,0.0008793,0.001076,0.02911,0.000227,3.815e-06,0.4595,0.003643,1.073,0.001022,0,0,0.00325
212700000000,213000000000,616564438,0,336058857,0.01855,0.02829,0.04462,0.0008821,0.001078,0.02859,0.0002308,3.815e-06,0.2297,0.004143,0.9883,0.0008559,0,0,0.000845
213000000000,213300000000,616564438,0,336058857,0.01907,0.02847,0.04462,0.0008841,0.001081,0.0289,0.000246,3.815e-06,0.2539,0.004211,1.023,0.0009427,0,0,0.0002708
213300000000,213600000000,616564438,0,336058857,0.02878,0.02884,0.04462,0.0008821,0.00108,0.02966,0.0002375,3.815e-06,0.3057,0.00293,1.076,0.001043,0,0,0.0005579
213600000000,213900000000,616564438,0,336058857,0.03088,0.02844,0.04462,0.0008879,0.001083,0.02902,6.199e-05,3.815e-06,0.2661,0.002571,1.234,0.00126,0,0,0.0181
213900000000,214200000000,616564438,0,336058857,0.01904,0.0285,0.04462,0.0008936,0.001091,0.02896,0.0001392,3.815e-06,0.2705,0.002998,1.024,0.0009628,0,0,0.1755
214200000000,214500000000,616564438,0,336058857,0.01883,0.0285,0.04462,0.0008965,0.001093,0.0289,0.0002289,3.815e-06,0.4043,0.004288,1.003,0.0009511,0,0,0.0006876
214500000000,214800000000,616564438,0,336058857,0.02811,0.02847,0.04462,0.0008984,0.001095,0.02933,0.0002365,3.815e-06,0.3647,0.003143,1.146,0.00129,0,0,0.004837
214800000000,215100000000,616564438,0,336058857,0.021,0.02863,0.04462,0.0009031,0.001099,0.02911,0.0003233,3.815e-06,0.2468,0.002998,1.123,0.001232,0,0,0.003513
215100000000,215400000000,616564438,0,336058857,0.02594,0.02893,0.04462,0.0009117,0.001108,0.02945,0.0004253,3.815e-06,0.2307,0.00486,1.008,0.001028,0,0,0.003368
215400000000,215700000000,616564438,0,336058857,0.01813,0.02875,0.04462,0.0009165,0.001112,0.02924,0.0003042,3.815e-06,0.252,0.004425,0.9573,0.000934,0,0,0.0007992
215700000000,216000000000,616564438,0,336058857,0.01794,0.02829,0.04462,0.0009184,0.001114,0.02859,0.0002794,3.815e-06,0.2559,0.004143,0.9602,0.0009218,0,0,0.002968
216000000000,216300000000,616564438,0,336058857,0.02817,0.02878,0.04462,0.0009212,0.001118,0.02988,0.0003147,3.815e-06,0.2734,0.004929,1.135,0.001248,0,0,0.0003424
221100000000,221400000000,616564438,0,336058857,0.01807,0.02838,0.04462,0.0009489,0.001146,0.02866,0.0004215,3.815e-06,0.2363,0.002998,0.967,0.0009613,0,0,0.004822
221400000000,221700000000,616564438,0,336058857,0.01852,0.02853,0.04462,0.0009518,0.001148,0.02905,0.0005484,3.815e-06,0.2632,0.004784,0.9493,0.0009306,0,0,0.00124
221700000000,222000000000,616564438,0,336058857,0.02786,0.02899,0.04462,0.0009556,0.001152,0.02982,0.0004826,3.815e-06,0.2607,0.005714,1.198,0.001408,0,0,0.002232
222000000000,222300000000,616564438,0,336058857,0.02872,0.02853,0.04462,0.0009613,0.001158,0.02896,0.0007458,3.815e-06,0.2793,0.006569,1.067,0.001176,0,0,0.00592
222300000000,222600000000,616564438,0,336058857,0.01801,0.02841,0.04462,0.0009689,0.001165,0.02869,0.0004673,3.815e-06,0.2725,0.004288,0.9536,0.0009514,0,0,0.01408
222600000000,222900000000,616564438,0,336058857,0.01852,0.02853,0.04462,0.0009708,0.001167,0.02905,0.000515,3.815e-06,0.2642,0.004997,0.9528,0.0009409,0,0,0.0007696
222900000000,223200000000,616564438,0,336058857,0.0206,0.02866,0.04462,0.0009747,0.001171,0.02908,0.000495,3.815e-06,0.2388,0.004646,0.9716,0.0009881,0,0,0.009705
223200000000,223500000000,616564438,0,336058857,0.02551,0.02866,0.04462,0.0009785,0.001175,0.02936,0.000494,3.815e-06,0.2915,0.005074,1.141,0.001295,0,0,0.00885
223500000000,223800000000,616564438,0,336058857,0.02869,0.02866,0.04462,0.0009861,0.001183,0.02908,0.0005894,3.815e-06,0.3027,0.005714,1.055,0.001126,0,0,0.0006037
223800000000,224100000000,616564438,0,336058857,0.01846,0.02863,0.04462,0.0009918,0.001188,0.02899,0.0004559,3.815e-06,0.2371,0.005432,0.9676,0.0009653,0,0,0.0002079
224100000000,224400000000,616564438,0,336058857,0.01834,0.02835,0.04462,0.0009937,0.00119,0.02863,0.0004568,3.815e-06,0.2529,0.004211,0.9809,0.000986,0,0,0.001019
224400000000,224700000000,616564438,0,336058857,0.02808,0.02878,0.04462,0.0009956,0.001192,0.03009,0.000248,3.815e-06,0.2778,0.003071,1.155,0.001273,0,0,0.07031
224700000000,225000000000,616564438,0,336058857,0.02185,0.02878,0.04462,0.0009995,0.001196,0.02945,0.0003061,3.815e-06,0.2681,0.003857,0.9811,0.00102,0,0,0.001368
225000000000,225300000000,616564438,0,336058857,0.02545,0.02853,0.04462,0.001009,0.001205,0.02899,0.000351,3.815e-06,0.2483,0.005714,1.092,0.001214,0,0,0.2483
225300000000,225600000000,616564438,0,336058857,0.01849,0.0285,0.04462,0.001013,0.001209,0.02902,0.0003433,3.815e-06,0.2451,0.003429,0.9671,0.0009725,0,0,0.06323
225600000000,225900000000,616564438,0,336058857,0.01849,0.02859,0.04462,0.001017,0.001213,0.02893,0.0002546,3.815e-06,0.2358,0.003143,0.9797,0.0009696,0,0,0.001053
225900000000,226200000000,616564438,0,336058857,0.02802,0.02875,0.04462,0.00102,0.001215,0.02963,0.0002384,3.815e-06,0.3291,0.002857,1.187,0.001394,0,0,0.09656
226200000000,226500000000,616564438,0,336058857,0.02576,0.0285,0.04462,0.001022,0.001219,0.02899,0.0003185,3.815e-06,0.251,0.005432,1.137,0.001295,0,0,0.05841
226500000000,226800000000,616564438,0,336058857,0.02161,0.02863,0.04462,0.001032,0.001228,0.02905,0.0002785,3.815e-06,0.2229,0.004715,1.07,0.001173,0,0,0.008057
226800000000,227100000000,616564438,0,336058857,0.01834,0.02859,0.04462,0.001036,0.00123,0.02896,0.0003939,4.768e-06,0.2202,0.005783,0.9683,0.0009783,0,0,0.04034
227100000000,227400000000,616564438,0,336058857,0.01788,0.02832,0.04462,0.001038,0.001234,0.02866,0.0004005,4.768e-06,0.2661,0.005074,0.9553,0.0009315,0,0,0.001095
227400000000,227700000000,616564438,0,336058857,0.02792,0.02878,0.04462,0.00104,0.001236,0.02942,0.0004625,4.768e-06,0.2573,0.005142,1.115,0.001238,0,0,0.00209
227700000000,228000000000,616564438,0,336058857,0.02859,0.02881,0.04462,0.001043,0.00124,0.02927,0.000617,4.768e-06,0.2871,0.007141,1.114,0.001258,0,0,0.0005865
228000000000,228300000000,616564438,0,336058857,0.01785,0.02838,0.04462,0.001049,0.001245,0.02872,0.0003881,4.768e-06,0.2583,0.005356,0.9706,0.0009584,0,0,0.04114
228300000000,228600000000,616564438,0,336058857,0.01917,0.0285,0.04462,0.001051,0.001247,0.02899,0.0001116,4.768e-06,0.2485,0.003284,0.973,0.00096,0,0,0.0008583
228600000000,228900000000,616564438,0,336058857,0.02042,0.02859,0.04462,0.001055,0.001251,0.02899,0.0001659,4.768e-06,0.2285,0.003571,1.004,0.001051,0,0,0.0008917
228900000000,229200000000,616564438,0,336058857,0.02621,0.02872,0.04462,0.001059,0.001255,0.02939,0.0003061,4.768e-06,0.2061,0.003071,1.171,0.001359,0,0,0.0003605
229200000000,229500000000,616564438,0,336058857,0.02866,0.0285,0.04462,0.001064,0.001261,0.02899,0.0005674,4.768e-06,0.2666,0.005714,1.132,0.001294,0,0,0.03876
229500000000,229800000000,616564438,0,336058857,0.01831,0.02847,0.04462,0.00107,0.001266,0.02896,0.0004244,4.768e-06,0.2466,0.004715,0.9561,0.0009432,0,0,0.0008621
229800000000,230100000000,616564438,0,336058857,0.01828,0.02856,0.04462,0.001072,0.001268,0.02893,0.0004244,4.768e-06,0.271,0.005074,0.9638,0.0009633,0,0,0.04535
230100000000,230400000000,616564438,0,336058857,0.02783,0.02853,0.04462,0.001076,0.00127,0.02933,0.0004625,4.768e-06,0.2896,0.005287,1.11,0.0013,0,0,0.003086
230400000000,230700000000,616564438,0,336058857,0.01959,0.02863,0.04462,0.00108,0.001274,0.02924,0.0005455,4.768e-06,0.2778,0.005569,0.9668,0.0009727,0,0,0.005692
230700000000,231000000000,616564438,0,336058857,0.02728,0.02875,0.04462,0.001087,0.001284,0.02921,0.0008917,4.768e-06,0.2607,0.006287,1.099,0.001244,0,0,0.001324
231000000000,231300000000,616564438,0,336058857,0.01816,0.02832,0.04462,0.001091,0.001287,0.02863,0.0004702,4.768e-06,0.2646,0.004425,0.9478,0.0009307,0,0,0.02173
231300000000,231600000000,616564438,0,336058857,0.01822,0.02844,0.04462,0.001093,0.001289,0.02893,0.0004702,4.768e-06,0.2468,0.003143,0.9565,0.0009459,0,0,0.008835
231600000000,231900000000,616564438,0,336058857,0.02805,0.02902,0.04462,0.001097,0.001293,0.02997,0.0004911,4.768e-06,0.2954,0.004425,1.165,0.001313,0,0,0.003311
231900000000,232200000000,616564438,0,336058857,0.02847,0.0285,0.04462,0.001102,0.001297,0.02899,0.0007639,4.768e-06,0.2891,0.007782,1.13,0.001252,0,0,0.009705
232200000000,232500000000,616564438,0,336058857,0.01822,0.02844,0.04462,0.001112,0.001308,0.02893,0.0005713,4.768e-06,0.25,0.004784,1.05,0.001098,0,0,0.002651
232500000000,232800000000,616564438,0,336058857,0.01825,0.0285,0.04462,0.001116,0.001312,0.02896,0.0005693,4.768e-06,0.2729,0.005142,0.9577,0.0009258,0,0,0.001297
232800000000,233100000000,616564438,0,336058857,0.01822,0.02859,0.04462,0.001118,0.001314,0.02896,0.0004263,4.768e-06,0.2471,0.005432,0.9654,0.0009315,0,0,0.007965
233100000000,233400000000,616564438,0,336058857,0.02798,0.02884,0.04462,0.001122,0.001318,0.02948,0.0004711,4.768e-06,0.2812,0.005211,1.076,0.001148,0,0,0.003078
233400000000,233700000000,616564438,0,336058857,0.02881,0.02878,0.04462,0.001129,0.001324,0.02924,0.000659,4.768e-06,0.2881,0.005714,1.159,0.001319,0,0,0.01137
233700000000,234000000000,616564438,0,336058857,0.01801,0.02838,0.04462,0.001135,0.001331,0.02866,0.0004873,4.768e-06,0.2588,0.00457,0.9617,0.0009344,0,0,0.002529
234000000000,234300000000,616564438,0,336058857,0.01846,0.02847,0.04462,0.001137,0.001333,0.02896,0.000412,4.768e-06,0.249,0.006073,0.9562,0.0009213,0,0,0.0007238
234300000000,234600000000,616564438,0,336058857,0.02557,0.02869,0.04462,0.001141,0.001337,0.02969,0.0004501,4.768e-06,0.29,0.00486,1.05,0.00111,0,0,0.03217
234600000000,234900000000,616564438,0,336058857,0.02017,0.02866,0.04462,0.001144,0.001341,0.02966,0.0004358,4.768e-06,0.2568,0.003429,1.111,0.001242,0,0,0.007225
234900000000,235200000000,616564438,0,336058857,0.02844,0.02853,0.04462,0.00115,0.001347,0.02896,0.0007114,4.768e-06,0.3301,0.005569,1.083,0.001167,0,0,0.003914
235200000000,235500000000,616564438,0,336058857,0.01941,0.0285,0.04462,0.001156,0.001352,0.02899,0.0002222,4.768e-06,0.2334,0.003284,0.9892,0.0009857,0,0,0.199
235500000000,235800000000,616564438,0,336058857,0.0191,0.02863,0.04462,0.00116,0.001356,0.02896,9.537e-05,4.768e-06,0.2681,0.002644,0.9854,0.0009892,0,0,0.03345
235800000000,236100000000,616564438,0,336058857,0.03009,0.02866,0.04462,0.001162,0.001358,0.02933,7.248e-05,4.768e-06,0.3062,0.00293,1.234,0.001444,0,0,0.01015
236100000000,236400000000,616564438,0,336058857,0.02353,0.02859,0.04462,0.00116,0.001356,0.02924,0.0006304,4.768e-06,0.2544,0.00457,1.023,0.001073,0,0,0.007568
241200000000,241500000000,616564438,0,336058857,0.01868,0.02866,0.04462,0.001204,0.0014,0.02896,0.0005503,4.768e-06,0.2573,0.004288,0.9856,0.001005,0,0,0.001373
241500000000,241800000000,616564438,0,336058857,0.02838,0.02875,0.04462,0.001207,0.001404,0.02945,0.0005093,4.768e-06,0.2358,0.007431,1.215,0.001441,0,0,0.04523
241800000000,242100000000,616564438,0,336058857,0.02951,0.02863,0.04462,0.001213,0.00141,0.02921,0.00068,4.768e-06,0.2847,0.005287,1.144,0.001315,0,0,0.003914
242100000000,242400000000,616564438,0,336058857,0.01859,0.02869,0.04462,0.001221,0.001417,0.02902,0.0004816,5.722e-06,0.2478,0.004929,0.9949,0.0009859,0,0,0.006866
242400000000,242700000000,616564438,0,336058857,0.01846,0.02844,0.04462,0.001223,0.001419,0.02872,0.000555,5.722e-06,0.2283,0.005714,0.9801,0.0009471,0,0,0.006432
242700000000,243000000000,616564438,0,336058857,0.02808,0.02878,0.04462,0.001225,0.001421,0.02994,0.0005178,5.722e-06,0.2866,0.005569,1.085,0.001209,0,0,0.002556
243000000000,243300000000,616564438,0,336058857,0.01877,0.02887,0.04462,0.00123,0.001427,0.02979,0.000535,5.722e-06,0.249,0.00457,1.004,0.001019,0,0,0.01941
243300000000,243600000000,616564438,0,336058857,0.02945,0.02859,0.04462,0.001232,0.001429,0.02902,0.0004892,5.722e-06,0.3169,0.005714,1.134,0.001179,0,0,0.07056
243600000000,243900000000,616564438,0,336058857,0.01932,0.02853,0.04462,0.001225,0.001421,0.02884,0.0001755,5.722e-06,0.2402,0.002857,1.012,0.0009693,0,0,0.03845
243900000000,244200000000,616564438,0,336058857,0.01974,0.02863,0.04462,0.001225,0.001421,0.02914,0.0002594,5.722e-06,0.2534,0.002998,1.037,0.001153,0,0,0.0005474
244200000000,244500000000,616564438,0,336058857,0.03009,0.0293,0.04462,0.001219,0.001415,0.03027,0.0003042,5.722e-06,0.4087,0.003143,1.211,0.001356,0,0,0.04565
244500000000,244800000000,616564438,0,336058857,0.0311,0.02863,0.04462,0.001209,0.001408,0.02911,0.0004377,5.722e-06,0.2515,0.004211,1.265,0.001516,0,0,0.07336
244800000000,245100000000,616564438,0,336058857,0.01984,0.02859,0.04462,0.001219,0.001415,0.02921,1.907e-05,5.722e-06,0.353,0.002857,1.028,0.001101,0,0,0.01202
245100000000,245400000000,616564438,0,336058857,0.01938,0.02878,0.04462,0.001221,0.001417,0.02911,7.439e-05,5.722e-06,0.2263,0.001858,1.013,0.001026,0,0,0.00285
245400000000,245700000000,616564438,0,336058857,0.02979,0.02869,0.04462,0.001223,0.001419,0.02963,5.436e-05,5.722e-06,0.2734,0.002857,1.099,0.00122,0,0,0.02994
245700000000,246000000000,616564438,0,336058857,0.01974,0.02863,0.04462,0.001223,0.001419,0.02939,0.0004101,5.722e-06,0.251,0.00457,1.003,0.0009883,0,0,0.01338
246000000000,246300000000,616564438,0,336058857,0.02936,0.02872,0.04462,0.00123,0.001427,0.02914,0.0003929,5.722e-06,0.292,0.005074,1.144,0.001261,0,0,0.006966
251400000000,251700000000,616564438,0,336058857,0.01926,0.02863,0.04462,0.001316,0.001513,0.02905,0.0004263,5.722e-06,0.2334,0.003857,1.093,0.001113,0,0,0.0007792
251700000000,252000000000,616564438,0,336058857,0.01932,0.02866,0.04462,0.001318,0.001516,0.02933,0.0004778,5.722e-06,0.2419,0.004143,1.012,0.0009633,0,0,0.001383
252000000000,252300000000,616564438,0,336058857,0.02963,0.0289,0.04462,0.001322,0.001518,0.02957,0.0004425,5.722e-06,0.2725,0.003929,1.105,0.001174,0,0,0.001089
252300000000,252600000000,616564438,0,336058857,0.01904,0.02875,0.04462,0.001303,0.001499,0.02954,0.0004368,5.722e-06,0.2195,0.003716,1.162,0.001309,0,0,0.0005779
252600000000,252900000000,616564438,0,336058857,0.03018,0.02878,0.04462,0.001293,0.00149,0.02933,0.0006027,5.722e-06,0.251,0.005646,1.138,0.001326,0,0,0.0741
252900000000,253200000000,616564438,0,336058857,0.01904,0.02881,0.04462,0.001295,0.001492,0.02911,0.0004644,5.722e-06,0.252,0.004288,0.9898,0.001025,0,0,0.0003958
253200000000,253500000000,616564438,0,336058857,0.01895,0.02856,0.04462,0.001289,0.001486,0.02884,0.0004082,5.722e-06,0.2407,0.003929,0.9697,0.000973,0,0,0.0002375
253500000000,253800000000,616564438,0,336058857,0.02893,0.02887,0.04462,0.001291,0.001488,0.02957,0.000555,5.722e-06,0.2524,0.005783,1.241,0.00151,0,0,0.007339
253800000000,254100000000,616564438,0,336058857,0.03052,0.02875,0.04462,0.001287,0.001484,0.02939,0.0009413,5.722e-06,0.2881,0.004646,1.132,0.001254,0,0,0.01456
254100000000,254400000000,616564438,0,336058857,0.01895,0.02884,0.04462,0.001289,0.001486,0.02917,0.0005426,5.722e-06,0.2368,0.005714,0.9966,0.0009762,0,0,0.01118
254400000000,254700000000,616564438,0,336058857,0.01926,0.02853,0.04462,0.001291,0.001488,0.02881,0.0004635,5.722e-06,0.2305,0.00486,1.005,0.0009694,0,0,0.2305
254700000000,255000000000,616564438,0,336058857,0.02878,0.02881,0.04462,0.001293,0.00149,0.02957,0.000515,6.676e-06,0.2876,0.004715,1.085,0.001206,0,0,0.04156
255000000000,255300000000,616564438,0,336058857,0.02777,0.02863,0.04462,0.001297,0.001493,0.02911,0.0007162,6.676e-06,0.2498,0.007996,1.053,0.001094,0,0,0.07593
255300000000,255600000000,616564438,0,336058857,0.02072,0.02859,0.04462,0.001305,0.001501,0.02899,0.000473,6.676e-06,0.2275,0.005714,1.095,0.001159,0,0,0.01042
255600000000,255900000000,616564438,0,336058857,0.01981,0.02863,0.04462,0.001289,0.001486,0.02927,0.0004206,6.676e-06,0.2227,0.005569,1.002,0.001004,0,0,0.01971
255900000000,256200000000,616564438,0,336058857,0.02777,0.02893,0.04462,0.001282,0.001478,0.02963,0.0003576,6.676e-06,0.2969,0.004784,1.098,0.001201,0,0,0.0005922
256200000000,256500000000,616564438,0,336058857,0.02124,0.02884,0.04462,0.00127,0.001467,0.02963,0.0002022,6.676e-06,0.2324,0.00293,1.165,0.001283,0,0,0.003613
256500000000,256800000000,616564438,0,336058857,0.03018,0.02875,0.04462,0.001278,0.001474,0.02924,0.0004215,6.676e-06,0.2856,0.00293,1.205,0.001312,0,0,0.006393
256800000000,257100000000,616564438,0,336058857,0.01971,0.02884,0.04462,0.001284,0.00148,0.02914,0.0003233,6.676e-06,0.2617,0.003857,1,0.0009684,0,0,0.003277
257100000000,257400000000,616564438,0,336058857,0.01947,0.02853,0.04462,0.001286,0.001482,0.02884,0.0002689,6.676e-06,0.2268,0.003429,0.9987,0.0009539,0,0,0.00444
257400000000,257700000000,616564438,0,336058857,0.03043,0.0289,0.04462,0.001286,0.001482,0.0296,0.0003252,6.676e-06,0.2163,0.005646,1.219,0.001367,0,0,0.0907
257700000000,258000000000,616564438,0,336058857,0.03104,0.02893,0.04462,0.001287,0.001484,0.02942,5.15e-05,6.676e-06,0.2458,0.001928,1.202,0.00126,0,0,0.01868
258000000000,258300000000,616564438,0,336058857,0.01971,0.02859,0.04462,0.001293,0.00149,0.02887,0.0002031,6.676e-06,0.3667,0.002857,1.009,0.0009369,0,0,0.001322
258300000000,258600000000,616564438,0,336058857,0.0199,0.02863,0.04462,0.001295,0.001492,0.02921,0.0002403,6.676e-06,0.2444,0.002998,1.018,0.0009184,0,0,0.006378
258600000000,258900000000,616564438,0,336058857,0.0303,0.02911,0.04462,0.001293,0.00149,0.02997,0.0002642,6.676e-06,0.3096,0.002857,1.159,0.001243,0,0,0.0006456
258900000000,259200000000,616564438,0,336058857,0.02966,0.02866,0.04462,0.001265,0.001461,0.02917,3.815e-06,6.676e-06,0.2939,0.0001431,1.064,0.001044,0,0,0.1331
259200000000,259500000000,616564438,0,336058857,0.02148,0.02869,0.04462,0.001272,0.001469,0.02921,0.0001507,6.676e-06,0.2244,0.002857,1.065,0.001061,0,0,0.002354
259500000000,259800000000,616564438,0,336058857,0.01968,0.02884,0.04462,0.001276,0.001472,0.02911,0.0002089,6.676e-06,0.2278,0.00293,1.015,0.0009817,0,0,0.0003729
259800000000,260100000000,616564438,0,336058857,0.03064,0.02866,0.04462,0.001278,0.001474,0.02954,0.0001888,6.676e-06,0.459,0.002857,1.128,0.001178,0,0,0.003735
260100000000,260400000000,616564438,0,336058857,0.01941,0.02872,0.04462,0.001282,0.001478,0.02951,0.0003681,6.676e-06,0.3164,0.007645,1.198,0.001339,0,0,0.02298
260400000000,260700000000,616564438,0,336058857,0.03076,0.02881,0.04462,0.001291,0.001488,0.02921,0.0005941,6.676e-06,0.2803,0.005783,1.233,0.001384,0,0,0.01537
260700000000,261000000000,616564438,0,336058857,0.01895,0.02881,0.04462,0.001297,0.001493,0.02911,0.0005054,6.676e-06,0.2363,0.003784,0.9964,0.0009452,0,0,0.000598
261000000000,261300000000,616564438,0,336058857,0.01971,0.02856,0.04462,0.001299,0.001495,0.02884,0.0005465,6.676e-06,0.2314,0.005569,1.014,0.001012,0,0,0.007378
261300000000,261600000000,616564438,0,336058857,0.03094,0.02908,0.04462,0.001307,0.001503,0.02982,0.0006151,6.676e-06,0.3003,0.003784,1.126,0.001226,0,0,0.0188
261600000000,261900000000,616564438,0,336058857,0.03049,0.02896,0.04462,0.001314,0.001511,0.02942,0.0005369,6.676e-06,0.2773,0.003857,1.149,0.001142,0,0,0.01721
261900000000,262200000000,616564438,0,336058857,0.01913,0.02859,0.04462,0.001322,0.001518,0.0289,0.0004034,6.676e-06,0.2283,0.005928,0.9998,0.0009497,0,0,0.005013
262200000000,262500000000,616564438,0,336058857,0.01947,0.02853,0.04462,0.001322,0.00152,0.02884,0.0003862,6.676e-06,0.2253,0.003929,0.9934,0.0009065,0,0,0.001284
262500000000,262800000000,616564438,0,336058857,0.02945,0.02905,0.04462,0.001326,0.001522,0.02997,0.0003548,6.676e-06,0.2881,0.004425,1.213,0.001313,0,0,0.00177
262800000000,263100000000,616564438,0,336058857,0.03113,0.02896,0.04462,0.001331,0.001528,0.02936,0.0004702,6.676e-06,0.2463,0.005646,1.235,0.001296,0,0,0.03601
263100000000,263400000000,616564438,0,336058857,0.01978,0.02859,0.04462,0.001339,0.001535,0.02899,0.0004139,6.676e-06,0.2246,0.003143,1.163,0.001126,0,0,0.0009604
263400000000,263700000000,616564438,0,336058857,0.01999,0.02856,0.04462,0.001341,0.001537,0.02884,0.0003843,6.676e-06,0.2327,0.002998,1.024,0.001052,0,0,0.01256
263700000000,264000000000,616564438,0,336058857,0.0304,0.02881,0.04462,0.001337,0.001535,0.02982,0.0004807,6.676e-06,0.3213,0.004143,1.135,0.001234,0,0,0.0675
264000000000,264300000000,616564438,0,336058857,0.02191,0.02881,0.04462,0.00132,0.001516,0.02966,0.0005455,6.676e-06,0.3374,0.004997,1.074,0.001139,0,0,0.001961
264300000000,264600000000,616564438,0,336058857,0.03058,0.02896,0.04462,0.001286,0.001482,0.02939,0.0004683,6.676e-06,0.228,0.00486,1.211,0.001287,0,0,0.0005617
264600000000,264900000000,616564438,0,336058857,0.02008,0.02856,0.04462,0.001287,0.001486,0.02887,0.0003233,6.676e-06,0.2224,0.005432,1.034,0.0009902,0,0,0.0007486
264900000000,265200000000,616564438,0,336058857,0.0199,0.02856,0.04462,0.001291,0.001488,0.02884,0.0003843,6.676e-06,0.2346,0.00457,1.032,0.0009335,0,0,0.01151
265200000000,265500000000,616564438,0,336058857,0.02988,0.02893,0.04462,0.001295,0.001492,0.02966,0.0004025,6.676e-06,0.2939,0.004715,1.217,0.001312,0,0,0.003265
265500000000,265800000000,616564438,0,336058857,0.03116,0.02893,0.04462,0.001303,0.001499,0.02939,0.0005693,6.676e-06,0.2612,0.006073,1.218,0.001242,0,0,0.0135
265800000000,266100000000,616564438,0,336058857,0.01978,0.02856,0.04462,0.00131,0.001507,0.02887,0.0004072,6.676e-06,0.3359,0.006218,1.002,0.0009225,0,0,0.001432
266100000000,266400000000,616564438,0,336058857,0.01962,0.02863,0.04462,0.001312,0.001509,0.02914,0.0003996,6.676e-06,0.3335,0.00457,1.02,0.0009383,0,0,0.07532
266400000000,266700000000,616564438,0,336058857,0.02969,0.02924,0.04462,0.001318,0.001514,0.03015,0.0004587,6.676e-06,0.314,0.005714,1.062,0.001049,0,0,0.0005655
266700000000,267000000000,616564438,0,336058857,0.03079,0.02872,0.04462,0.001324,0.00152,0.02914,0.0005465,6.676e-06,0.2554,0.005859,1.181,0.001201,0,0,0.08362
267000000000,267300000000,616564438,0,336058857,0.01999,0.02869,0.04462,0.001331,0.001528,0.02914,0.0004511,6.676e-06,0.2271,0.005714,1.018,0.0009351,0,0,0.01743
267300000000,267600000000,616564438,0,336058857,0.01962,0.02884,0.04462,0.001335,0.001532,0.02914,0.000495,6.676e-06,0.2322,0.004997,1.035,0.0009951,0,0,0.009918
267600000000,267900000000,616564438,0,336058857,0.0303,0.0289,0.04462,0.001337,0.001534,0.02997,0.0004215,6.676e-06,0.3032,0.00486,1.251,0.001382,0,0,0.003162
267900000000,268200000000,616564438,0,336058857,0.02386,0.02881,0.04462,0.001341,0.001537,0.02948,0.0006189,7.629e-06,0.2534,0.005287,1.064,0.0009978,0,0,0.03552
268200000000,268500000000,616564438,0,336058857,0.02765,0.02899,0.04462,0.001354,0.001551,0.02939,0.000618,7.629e-06,0.2324,0.005569,1.189,0.001204,0,0,0.0007858
268500000000,268800000000,616564438,0,336058857,0.01959,0.02863,0.04462,0.00136,0.001556,0.0289,0.0003881,7.629e-06,0.2312,0.005714,1.037,0.0009659,0,0,0.04114
268800000000,269100000000,616564438,0,336058857,0.01996,0.02859,0.04462,0.001362,0.001558,0.02884,0.0003967,7.629e-06,0.2483,0.003502,1.005,0.0009028,0,0,0.00592
269100000000,269400000000,616564438,0,336058857,0.02963,0.02893,0.04462,0.001366,0.001562,0.02972,0.0004749,7.629e-06,0.2317,0.004356,1.227,0.001324,0,0,0.005417
269400000000,269700000000,616564438,0,336058857,0.03052,0.02872,0.04462,0.001373,0.00157,0.02917,0.0005474,7.629e-06,0.2568,0.005074,1.242,0.001307,0,0,0.03668
269700000000,270000000000,616564438,0,336058857,0.01947,0.02866,0.04462,0.001379,0.001575,0.02914,0.0005102,7.629e-06,0.2415,0.005211,0.999,0.0009054,0,0,0.001135
270000000000,270300000000,616564438,0,336058857,0.01929,0.02887,0.04462,0.001385,0.001581,0.02914,0.0005541,7.629e-06,0.2234,0.004997,0.9959,0.0009361,0,0,0.003952
270300000000,270600000000,616564438,0,336058857,0.02924,0.02902,0.04462,0.001387,0.001583,0.02985,0.0004759,7.629e-06,0.2627,0.003716,1.221,0.001399,0,0,0.06433
270600000000,270900000000,616564438,0,336058857,0.03036,0.02869,0.04462,0.00139,0.001587,0.02914,0.000639,7.629e-06,0.2295,0.005646,1.144,0.001212,0,0,0.009399
270900000000,271200000000,616564438,0,336058857,0.01968,0.02869,0.04462,0.0014,0.001598,0.02914,0.0007114,7.629e-06,0.25,0.005074,1.066,0.001098,0,0,0.0007734
271200000000,271500000000,616564438,0,336058857,0.01959,0.02887,0.04462,0.001408,0.001604,0.02914,0.0006876,7.629e-06,0.2234,0.005714,1.001,0.0009837,0,0,0.05573
281400000000,281700000000,616564438,0,336058857,0.03021,0.02875,0.04462,0.001558,0.001755,0.02917,0.0002785,8.583e-06,0.2539,0.004501,1.168,0.001187,0,0,0.007355
281700000000,282000000000,616564438,0,336058857,0.01926,0.02872,0.04462,0.001566,0.001764,0.02911,0.0002375,8.583e-06,0.2192,0.003429,1.114,0.001088,0,0,0.0004644
282000000000,282300000000,616564438,0,336058857,0.01953,0.02869,0.04462,0.001568,0.001766,0.02921,0.0001812,8.583e-06,0.2183,0.002857,1,0.0009307,0,0,0.002159
282300000000,282600000000,616564438,0,336058857,0.02234,0.02893,0.04462,0.001572,0.001768,0.02975,0.0002127,8.583e-06,0.3179,0.002998,1.037,0.00103,0,0,0.001152
282600000000,282900000000,616564438,0,336058857,0.0267,0.02893,0.04462,0.001556,0.001753,0.02972,0.000227,8.583e-06,0.3179,0.007004,1.121,0.001179,0,0,0.002472
282900000000,283200000000,616564438,0,336058857,0.03021,0.02878,0.04462,0.00156,0.001759,0.02927,0.0002489,8.583e-06,0.2637,0.005211,1.156,0.001172,0,0,0.0001764
283200000000,283500000000,616564438,0,336058857,0.01956,0.02872,0.04462,0.001568,0.001764,0.02924,0.0001717,8.583e-06,0.2148,0.003929,1.009,0.0009372,0,0,0.02481
283500000000,283800000000,616564438,0,336058857,0.0192,0.0289,0.04462,0.00157,0.001768,0.02917,0.0002041,8.583e-06,0.217,0.004356,1.018,0.0009708,0,0,0.0006189
283800000000,284100000000,616564438,0,336058857,0.02982,0.02893,0.04462,0.001574,0.00177,0.02972,0.0002241,8.583e-06,0.2554,0.003502,1.197,0.001309,0,0,0.001911
284100000000,284400000000,616564438,0,336058857,0.01956,0.02878,0.04462,0.001575,0.001774,0.02924,0.0002079,8.583e-06,0.2681,0.004715,1.023,0.0009598,0,0,0.00705
284400000000,284700000000,616564438,0,336058857,0.03076,0.02905,0.04462,0.001585,0.001781,0.02957,0.0002823,8.583e-06,0.2554,0.004501,1.145,0.001185,0,0,0.1255
284700000000,285000000000,616564438,0,336058857,0.0195,0.02869,0.04462,0.001589,0.001787,0.02905,0.0002937,8.583e-06,0.3506,0.004929,1.004,0.0009212,0,0,0.0002422
285000000000,285300000000,616564438,0,336058857,0.01978,0.02866,0.04462,0.001593,0.001789,0.02893,0.0002651,8.583e-06,0.3179,0.003857,1.009,0.0009282,0,0,0.00177
285300000000,285600000000,616564438,0,336058857,0.03036,0.02896,0.04462,0.001596,0.001793,0.02951,0.0002356,8.583e-06,0.2905,0.005714,1.216,0.001358,0,0,0.1061
285600000000,285900000000,616564438,0,336058857,0.03098,0.02902,0.04462,0.001581,0.00178,0.02948,0.0003767,8.583e-06,0.2964,0.005211,1.187,0.001242,0,0,0.003319
285900000000,286200000000,616564438,0,336058857,0.01932,0.02875,0.04462,0.001547,0.001743,0.02924,0.0002604,8.583e-06,0.2161,0.004501,1.09,0.001045,0,0,0.01132
286200000000,286500000000,616564438,0,336058857,0.01944,0.02869,0.04462,0.001549,0.001745,0.02896,0.0002337,8.583e-06,0.2124,0.003502,0.9943,0.0009258,0,0,0.005531
286500000000,286800000000,616564438,0,336058857,0.02802,0.02875,0.04462,0.001551,0.001749,0.03018,0.0002794,8.583e-06,0.3267,0.003429,1.096,0.001146,0,0,0.0103
286800000000,287100000000,616564438,0,336058857,0.02103,0.02927,0.04462,0.001514,0.001711,0.03018,0.0002584,8.583e-06,0.2168,0.005714,1.175,0.001276,0,0,0.001051
287100000000,287400000000,616564438,0,336058857,0.03,0.02884,0.04462,0.001518,0.001717,0.02927,0.0003281,8.583e-06,0.2646,0.007217,1.224,0.001319,0,0,0.005852
287400000000,287700000000,616564438,0,336058857,0.01962,0.02869,0.04462,0.001522,0.001719,0.02933,0.0002279,8.583e-06,0.23,0.003784,0.986,0.0009309,0,0,0.09216
287700000000,288000000000,616564438,0,336058857,0.01932,0.02893,0.04462,0.00152,0.001717,0.02927,0.0002241,8.583e-06,0.229,0.004143,1.007,0.000956,0,0,0.01404
288000000000,288300000000,616564438,0,336058857,0.03,0.02896,0.04462,0.001522,0.001719,0.02972,0.0002327,8.583e-06,0.2666,0.002857,1.242,0.001436,0,0,0.09583
288300000000,288600000000,616564438,0,336058857,0.02313,0.02869,0.04462,0.001526,0.001722,0.02924,0.0002661,8.583e-06,0.251,0.004715,1.025,0.0009908,0,0,0.004913
288600000000,288900000000,616564438,0,336058857,0.02673,0.02878,0.04462,0.001534,0.00173,0.02936,0.0002728,8.583e-06,0.2227,0.004288,1.164,0.001237,0,0,0.01016
288900000000,289200000000,616564438,0,336058857,0.01941,0.02896,0.04462,0.001537,0.001736,0.02921,0.000227,8.583e-06,0.249,0.003502,1.006,0.0009486,0,0,0.01608
289200000000,289500000000,616564438,0,336058857,0.01956,0.02869,0.04462,0.001541,0.001738,0.02902,0.0003929,8.583e-06,0.2207,0.005714,0.9941,0.0009668,0,0,0.002476
289500000000,289800000000,616564438,0,336058857,0.03778,0.02927,0.04462,0.001528,0.001724,0.03009,0.0002851,8.583e-06,0.2773,0.003998,1.18,0.001366,0,0,0.0741
289800000000,290100000000,616564438,0,336058857,0.03107,0.02881,0.04462,0.001524,0.001722,0.02948,0.0003242,8.583e-06,0.2656,0.005714,1.131,0.001159,0,0,0.001242
290100000000,290400000000,616564438,0,336058857,0.01947,0.02899,0.04462,0.001534,0.00173,0.02933,0.0002651,8.583e-06,0.2227,0.005211,1.003,0.0009404,0,0,0.0006618
290400000000,290700000000,616564438,0,336058857,0.0195,0.02869,0.04462,0.001535,0.001732,0.02908,0.0002651,8.583e-06,0.2236,0.003071,1.004,0.0009558,0,0,0.0387
290700000000,291000000000,616564438,0,336058857,0.02365,0.02872,0.04462,0.001537,0.001734,0.03018,0.0002298,8.583e-06,0.2607,0.003784,1.019,0.001003,0,0,0.02808
291000000000,291300000000,616564438,0,336058857,0.02551,0.02936,0.04462,0.001543,0.00174,0.03015,0.0002174,8.583e-06,0.2166,0.005714,1.071,0.001128,0,0,0.00605
291300000000,291600000000,616564438,0,336058857,0.03015,0.02887,0.04462,0.001549,0.001747,0.0293,0.0002689,8.583e-06,0.2371,0.003143,1.16,0.001206,0,0,0.09961
291600000000,291900000000,616564438,0,336058857,0.01953,0.02872,0.04462,0.001554,0.001751,0.02942,0.0002804,8.583e-06,0.2573,0.003284,0.9905,0.0009399,0,0,0.0006466
291900000000,292200000000,616564438,0,336058857,0.01929,0.02899,0.04462,0.001558,0.001757,0.02936,0.000246,8.583e-06,0.2136,0.003502,0.9907,0.0009327,0,0,0.05408
292200000000,292500000000,616564438,0,336058857,0.02982,0.02902,0.04462,0.001562,0.001759,0.02979,0.0002518,8.583e-06,0.2671,0.003429,1.113,0.00122,0,0,0.001282
292500000000,292800000000,616564438,0,336058857,0.02866,0.02881,0.04462,0.001566,0.001762,0.02927,0.0003023,8.583e-06,0.2861,0.002998,1.035,0.0009955,0,0,0.01825
292800000000,293100000000,616564438,0,336058857,0.02127,0.02881,0.04462,0.001574,0.001772,0.02951,0.0003376,8.583e-06,0.3252,0.00293,1.054,0.001043,0,0,0.04364
293100000000,293400000000,616564438,0,336058857,0.01941,0.02902,0.04462,0.001577,0.001774,0.02945,0.0002565,8.583e-06,0.2266,0.00457,1.004,0.0009613,0,0,0.002522
293400000000,293700000000,616564438,0,336058857,0.01953,0.02872,0.04462,0.001581,0.001778,0.02917,0.0002365,8.583e-06,0.3223,0.003643,0.988,0.0009442,0,0,0.0005751
293700000000,294000000000,616564438,0,336058857,0.02963,0.02911,0.04462,0.001583,0.00178,0.03003,0.000206,8.583e-06,0.2817,0.003357,1.111,0.001197,0,0,0.001432
294000000000,294300000000,616564438,0,336058857,0.0304,0.02911,0.04462,0.001591,0.001787,0.0296,0.0002909,8.583e-06,0.2549,0.005714,1.154,0.001218,0,0,0.04089
294300000000,294600000000,616564438,0,336058857,0.0191,0.02878,0.04462,0.001596,0.001795,0.02924,0.0002623,8.583e-06,0.2319,0.004356,0.9849,0.0009286,0,0,0.0003681
294600000000,294900000000,616564438,0,336058857,0.01935,0.02869,0.04462,0.0016,0.001797,0.02899,0.0002174,8.583e-06,0.2085,0.003643,0.9929,0.0009353,0,0,0.004135
294900000000,295200000000,616564438,0,336058857,0.02924,0.02887,0.04462,0.001602,0.001799,0.02982,0.0002518,8.583e-06,0.2764,0.004425,1.145,0.001263,0,0,0.002449
295200000000,295500000000,616564438,0,336058857,0.01962,0.02884,0.04462,0.001606,0.001802,0.02966,0.0002441,8.583e-06,0.2139,0.005569,1.117,0.001168,0,0,0.06763
295500000000,295800000000,616564438,0,336058857,0.02991,0.02911,0.04462,0.00161,0.001808,0.0296,0.0003157,9.537e-06,0.3203,0.003716,1.143,0.001203,0,0,0.07214
295800000000,296100000000,616564438,0,336058857,0.01926,0.02872,0.04462,0.001614,0.00181,0.02911,0.0002289,9.537e-06,0.22,0.004646,0.9943,0.0009068,0,0,0.001041
296100000000,296400000000,616564438,0,336058857,0.01904,0.02866,0.04462,0.001616,0.001812,0.02896,0.0002499,9.537e-06,0.2202,0.00293,1.017,0.0009497,0,0,0.0009165
296400000000,296700000000,616564438,0,336058857,0.02985,0.02899,0.04462,0.001619,0.001816,0.02991,0.0002298,9.537e-06,0.2378,0.006218,1.216,0.001286,0,0,0.02777
296700000000,297000000000,616564438,0,336058857,0.03076,0.02908,0.04462,0.001623,0.001822,0.02957,0.0003157,9.537e-06,0.2397,0.004356,1.206,0.001194,0,0,0.006004
297000000000,297300000000,616564438,0,336058857,0.01981,0.02878,0.04462,0.001633,0.001829,0.02936,0.0002394,9.537e-06,0.2134,0.006355,1.104,0.001034,0,0,0.01413
297300000000,297600000000,616564438,0,336058857,0.01959,0.02869,0.04462,0.001635,0.001831,0.02896,0.0002279,9.537e-06,0.3579,0.003643,1.02,0.0009023,0,0,0.02258
297600000000,297900000000,616564438,0,336058857,0.02005,0.02896,0.04462,0.001637,0.001833,0.02921,0.0002718,9.537e-06,0.3491,0.005356,1.019,0.0009261,0,0,0.05084
297900000000,298200000000,616564438,0,336058857,0.03033,0.02911,0.04462,0.001614,0.001812,0.02982,0.0002441,9.537e-06,0.2847,0.005356,1.244,0.001479,0,0,0.0007153
298200000000,298500000000,616564438,0,336058857,0.03107,0.02884,0.04462,0.001608,0.001806,0.02933,0.0002899,9.537e-06,0.2754,0.003929,1.189,0.001251,0,0,0.0005083
298500000000,298800000000,616564438,0,336058857,0.02002,0.02902,0.04462,0.00161,0.001808,0.0293,0.0002861,9.537e-06,0.2212,0.0065,1.042,0.000965,0,0,0.000289
298800000000,299100000000,616564438,0,336058857,0.01971,0.02875,0.04462,0.001612,0.00181,0.02911,0.0003023,9.537e-06,0.2085,0.0075,1.031,0.0009743,0,0,0.00399
299100000000,299400000000,616564438,0,336058857,0.03024,0.02887,0.04462,0.001614,0.00181,0.02972,0.0002756,9.537e-06,0.2891,0.004646,1.198,0.001327,0,0,0.007454
299400000000,299700000000,616564438,0,336058857,0.02039,0.02905,0.04462,0.001604,0.001801,0.0296,0.0001764,9.537e-06,0.2095,0.004288,1.18,0.001284,0,0,0.003906
299700000000,300000000000,616564438,0,336058857,0.03088,0.02887,0.04462,0.001612,0.001808,0.02942,0.0002918,9.537e-06,0.2444,0.003643,1.164,0.001215,0,0,0.06641
