9300000000,9600000000,6218406404,1035,1439653837,0.0047,0.0006771,0.005608,0.0002737,0.0003815,0.0009842,4.768e-06,0,0.06653,0.0005713,3.362,0.003258,0,0,0.001705
9600000000,9900000000,6218406404,1035,1439653837,0.00885,0.000946,0.005615,0.0002699,0.0004692,0.001549,9.537e-06,0,0.1758,0.0005713,1.031,0.0007022,0,0,0.006577
9900000000,10200000000,6218406404,1035,1439653837,0.005165,0.001436,0.005737,0.0002594,0.0009899,0.001539,3.815e-06,9.537e-07,0.07324,0.0001431,3.278,0.003187,0,0,0.004677
10200000000,10500000000,6218406404,1035,1439653837,0.004997,0.001438,0.005737,0.0002489,0.0009575,0.001532,4.768e-06,9.537e-07,0.08423,0.0002861,1.404,0.0009896,0,0,0.004356
10500000000,10800000000,6218406404,1035,1439653837,0.004303,0.001381,0.005737,0.000247,0.0009384,0.001503,2.861e-06,9.537e-07,0.04327,0.0001431,3.403,0.003279,0,0,0.004311
10800000000,11100000000,6218406404,1035,1439653837,0.005806,0.001312,0.006035,6.962e-05,0.0005589,0.001759,0.0002632,9.537e-07,0.1514,0.009293,1.743,0.001559,0,0,0.001577
11100000000,11400000000,6218406404,1035,1439653837,0.003429,0.001183,0.005951,2.861e-05,0.000349,0.001726,2.766e-05,9.537e-07,0.09265,0.00243,4.914,0.009502,0,0,0.0003576
11400000000,11700000000,6218406404,1035,1439653837,0.003052,0.001293,0.006058,3.338e-05,0.0003328,0.001762,2.289e-05,9.537e-07,0.09753,0.001429,1.154,0.0007401,0,0,0.0004091
11700000000,12000000000,6218406404,1035,1439653837,0.007797,0.001228,0.005928,2.956e-05,0.0002575,0.001699,2.003e-05,9.537e-07,0.165,0.0009995,1.396,0.001238,0,0,0.00102
12000000000,12300000000,6218406404,1035,1439653837,0.01279,0.001326,0.006233,4.387e-05,0.0003147,0.001915,3.338e-05,9.537e-07,0.1213,0.001928,1.143,0.0008233,0,0,0.1002
12300000000,12600000000,6218406404,1035,1439653837,0.02142,0.001431,0.006157,7.153e-05,0.0003061,0.001991,1.144e-05,9.537e-07,0.1975,0.0007143,1.614,0.001487,0,0,0.001842
12600000000,12900000000,6218406404,1035,1439653837,0.009003,0.00131,0.005821,5.245e-05,0.0002031,0.001837,2.956e-05,9.537e-07,0.1379,0.00243,1.31,0.001378,0,0,0.002491
12900000000,13200000000,6218406404,1035,1439653837,0.01213,0.001396,0.00592,5.341e-05,0.0001898,0.001925,4.196e-05,9.537e-07,0.1121,0.00293,1.35,0.00122,0,0,0.08777
13200000000,13500000000,6218406404,1035,1439653837,0.01913,0.001715,0.006874,6.294e-05,0.0004835,0.002121,4.482e-05,9.537e-07,0.1941,0.002071,1.405,0.001497,0,0,0.002377
13500000000,13800000000,6218406404,1035,1439653837,0.008957,0.001799,0.007095,6.676e-05,0.0005035,0.002182,1.812e-05,9.537e-07,0.1033,0.0006428,1.404,0.001447,0,0,0.001972
13800000000,14100000000,6218406404,1035,1439653837,0.01414,0.002666,0.007538,8.583e-05,0.0003967,0.004776,6.294e-05,9.537e-07,0.1316,0.003571,1.354,0.001037,0,0,0.001715
14100000000,14400000000,6218406404,1035,1439653837,0.009308,0.003345,0.008286,8.583e-05,0.0003958,0.003773,1.24e-05,9.537e-07,0.1379,0.0006428,2.545,0.004239,0,0,0.001081
23400000000,23700000000,6218406404,1035,63639179,0.0107,0.00115,0.005783,0.0002565,0.0007076,0.00153,6.676e-06,0,0.1511,0.0002861,0.8711,0.0005233,0,0,0.002014
23700000000,24000000000,6218406404,1035,63639179,0.007446,0.001009,0.005783,0.0002537,0.0005684,0.001387,8.583e-06,0,0.0863,0.0003567,1.405,0.001102,0,0,0.003605
24000000000,24300000000,6218406404,1035,63639179,0.00753,0.0009241,0.005783,0.0002537,0.0004387,0.001415,3.815e-06,0,0.1095,0.0001431,1.814,0.001744,0,0,0.004318
24300000000,24600000000,6218406404,1035,63639179,0.004944,0.0009375,0.005783,0.0002394,0.000473,0.001425,2.861e-06,0,0.06885,0.0004997,3.891,0.005149,0,0,0.004524
24600000000,24900000000,6218406404,1035,63639179,0.006393,0.0009298,0.005783,0.0002384,0.000433,0.001442,8.583e-06,0,0.06799,0.0004997,2.063,0.002151,0,0,0.00425
24900000000,25200000000,6218406404,1035,63639179,0.00827,0.001554,0.006569,0.0002413,0.000927,0.001802,0.000123,0,0.1047,0.002499,1.188,0.0008754,0,0,0.0007048
25200000000,25500000000,6218406404,1035,63639179,0.004944,0.001575,0.006798,0.0002375,0.0009174,0.001768,1.335e-05,9.537e-07,0.1343,0.0005713,6.379,0.01752,0,0,0.0006332
25500000000,25800000000,6218406404,1035,63639179,0.0047,0.001362,0.006065,0.0002546,0.0007124,0.001659,1.907e-05,9.537e-07,0.1035,0.001858,1.251,0.001037,0,0,0.000536
25800000000,26100000000,6218406404,1035,63639179,0.007645,0.001373,0.005775,0.0002937,0.0008869,0.00164,5.722e-05,9.537e-07,0.1057,0.004425,1.075,0.000785,0,0,0.001104
26100000000,26400000000,6218406404,1035,63639179,0.007225,0.001194,0.005775,0.0002966,0.0008354,0.001501,1.049e-05,9.537e-07,0.1301,0.0003567,1.184,0.001246,0,0,0.0006981
26400000000,26700000000,6218406404,1035,63639179,0.006927,0.0009956,0.005775,0.0002956,0.0005884,0.001432,5.722e-06,9.537e-07,0.08606,0.0004282,1.759,0.003412,0,0,0.001617
26700000000,27000000000,6218406404,1035,63639179,0.005295,0.001102,0.005775,0.000308,0.0006561,0.001547,1.335e-05,9.537e-07,0.1022,0.001429,5.845,0.01508,0,0,0.001453
27000000000,27300000000,6218406404,1035,63639179,0.00975,0.001589,0.00663,0.0003347,0.0008383,0.00198,1.621e-05,9.537e-07,0.1599,0.0007858,1.455,0.001504,0,0,0.0007534
27300000000,27600000000,6218406404,1035,63639179,0.008575,0.001575,0.006607,0.0003424,0.0007286,0.002033,1.24e-05,9.537e-07,0.1531,0.0005713,0.952,0.000351,0,0,0.001551
27600000000,27900000000,6218406404,1035,63639179,0.008545,0.001553,0.006454,0.0003443,0.0007181,0.001953,2.48e-05,9.537e-07,0.1229,0.00243,1.026,0.0006231,0,0,0.0007286
27900000000,28200000000,6218406404,1035,63639179,0.005219,0.001596,0.00663,0.0003395,0.0007391,0.001991,2.003e-05,9.537e-07,0.1392,0.002144,0.8181,0.0005382,0,0,0.00149
28200000000,28500000000,6218406404,1035,63639179,0.006973,0.001585,0.006523,0.0003386,0.0007191,0.002068,1.335e-05,9.537e-07,0.1016,0.0004282,1.228,0.001081,0,0,0.001511
28500000000,28800000000,6218406404,1035,63639179,0.01724,0.001621,0.006676,0.0002623,0.0006866,0.002068,5.817e-05,9.537e-07,0.1704,0.002499,1.054,0.00118,0,0,0.08472
28800000000,29100000000,6218406404,1035,63639179,0.01849,0.001547,0.006622,4.196e-05,0.0004692,0.001987,8.106e-05,9.537e-07,0.1338,0.01329,1.044,0.001147,0,0,0.001818
29100000000,29400000000,6218406404,1035,63639179,0.02658,0.001101,0.005791,4.768e-05,0.0003424,0.001516,3.433e-05,9.537e-07,0.1428,0.001358,0.3685,0.0001894,0,0,0.002224
29400000000,29700000000,6218406404,1035,63639179,0.02585,0.001181,0.005791,0.0001068,0.0003214,0.001549,8.202e-05,9.537e-07,0.1545,0.008209,1.496,0.002215,0,0,0.002609
29700000000,30000000000,6218406404,1035,63639179,0.0162,0.001198,0.005821,0.0001163,0.0003471,0.001781,2.48e-05,9.537e-07,0.1306,0.002499,1.227,0.001095,0,0,0.08423
30000000000,30300000000,6218406404,1035,63639179,0.02466,0.001261,0.00602,4.292e-05,0.0002995,0.001871,2.48e-05,9.537e-07,0.1284,0.002071,0.8795,0.0004303,0,0,0.03049
30300000000,30600000000,6218406404,1035,63639179,0.01981,0.001385,0.006279,5.722e-05,0.0004854,0.002068,5.627e-05,9.537e-07,0.08838,0.007286,0.784,0.0001455,0,0,0.06323
30600000000,30900000000,6218406404,1035,63639179,0.01767,0.001898,0.007172,4.292e-05,0.0006504,0.00209,3.242e-05,9.537e-07,0.158,0.002213,1.231,0.0008241,0,0,0.001944
30900000000,31200000000,6218406404,1035,63639179,0.00882,0.001667,0.00666,5.436e-05,0.0004511,0.002121,1.431e-05,9.537e-07,0.1112,0.0007143,4.003,0.009488,0,0,0.002758
31200000000,31500000000,6218406404,1035,63639179,0.009949,0.001429,0.006142,5.341e-05,0.0003042,0.00209,2.956e-05,9.537e-07,0.1027,0.002644,1.685,0.002569,0,0,0.001902
31500000000,31800000000,6218406404,1035,63639179,0.009918,0.00132,0.005943,5.054e-05,0.0004644,0.001894,3.529e-05,9.537e-07,0.11,0.002857,1.101,0.001144,0,0,0.003132
31800000000,32100000000,6218406404,1035,63639179,0.03043,0.001583,0.006851,4.673e-05,0.0006075,0.001965,5.054e-05,9.537e-07,0.1951,0.005783,1.111,0.001237,0,0,0.09778
32100000000,32400000000,6218406404,1035,63639179,0.04333,0.001307,0.005989,7.153e-05,0.0005083,0.001772,3.147e-05,9.537e-07,0.2034,0.002998,0.9289,0.0005752,0,0,0.08301
101100000000,101400000000,6218406404,1035,284757924,0.003128,0.001505,0.006577,0.0002642,0.0006876,0.001854,8.583e-06,0,0.06519,0.0006428,2.816,0.005737,0,0,0.001875
101400000000,101700000000,6218406404,1035,284757924,0.002239,0.001535,0.006607,0.0002823,0.0006962,0.001917,2.861e-06,9.537e-07,0.06653,0.0001431,2.37,0.003678,0,0,0.001245
101700000000,102000000000,6218406404,1035,284757924,0.002655,0.001465,0.006538,0.0002871,0.0006552,0.001928,6.676e-06,9.537e-07,0.1007,0.001143,2.893,0.005929,0,0,0.002247
102000000000,102300000000,6218406404,1035,284757924,0.003124,0.001514,0.006516,0.0002861,0.0006981,0.00189,4.768e-06,9.537e-07,0.08362,0.0001431,1.228,0.001627,0,0,0.03619
102300000000,102600000000,6218406404,1035,284757924,0.002625,0.00149,0.006531,0.0002775,0.0006962,0.001848,4.768e-06,9.537e-07,0.06763,0.0001431,1.394,0.001581,0,0,0.001337
102600000000,102900000000,6218406404,1035,284757924,0.002598,0.001574,0.006592,0.0002613,0.0007362,0.002052,4.768e-06,9.537e-07,0.0802,0.0002146,1.417,0.001871,0,0,0.002621
102900000000,103200000000,6218406404,1035,284757924,0.002079,0.001606,0.006836,0.0002651,0.0007544,0.001925,3.815e-06,9.537e-07,0.06592,0.0001431,7.067,0.01797,0,0,0.001467
103200000000,103500000000,6218406404,1035,284757924,0.003426,0.001513,0.006607,0.0002661,0.000742,0.001905,3.815e-06,9.537e-07,0.1489,0.0001431,7.119,0.01846,0,0,0.0231
103500000000,103800000000,6218406404,1035,284757924,0.00943,0.001539,0.006332,0.0002775,0.0006542,0.001965,1.431e-05,9.537e-07,0.1372,0.0009289,1.159,0.001098,0,0,0.002258
103800000000,104100000000,6218406404,1035,284757924,0.006645,0.001329,0.00605,0.0002947,0.0005016,0.001968,1.24e-05,9.537e-07,0.09839,0.0004282,1.906,0.003563,0,0,0.002014
104100000000,104400000000,6218406404,1035,284757924,0.006348,0.001749,0.007301,0.0002995,0.0009632,0.001917,3.815e-06,9.537e-07,0.137,0.0001431,1.098,0.00119,0,0,0.001476
104400000000,104700000000,6218406404,1035,284757924,0.008423,0.0016,0.006866,0.0002785,0.0007877,0.00194,5.722e-06,9.537e-07,0.1077,0.0001431,1.306,0.001138,0,0,0.002144
104700000000,105000000000,6218406404,1035,284757924,0.009094,0.001585,0.006752,0.000268,0.0007,0.002022,1.431e-05,9.537e-07,0.1119,0.0009289,1.432,0.001711,0,0,0.001268
105000000000,105300000000,6218406404,1035,284757924,0.003376,0.001537,0.006699,0.0002661,0.0006924,0.001911,7.629e-06,9.537e-07,0.1079,0.0005713,1.225,0.0009911,0,0,0.06067
106200000000,106500000000,6218406404,1035,1442994745,0.008896,0.000845,0.005768,0.0002785,0.0008116,0.001064,9.537e-06,0,0.08337,0.001072,4.72,0.01054,0,0,0.006615
117600000000,117900000000,6218406404,1035,1094466,0.0153,0.001268,0.005798,0.0003548,0.0009556,0.001656,6.962e-05,0,0.1365,0.008636,1.641,0.002294,0,0,0.002556
117900000000,118200000000,6218406404,1035,1094466,0.01773,0.001202,0.005798,0.0003519,0.001049,0.001347,5.722e-06,0,0.1704,0.0001431,3.743,0.008982,0,0,0.08643
118200000000,118500000000,6218406404,1035,1094466,0.02332,0.001331,0.005791,0.000351,0.001032,0.001591,1.717e-05,0,0.165,0.003143,0.9438,0.0004646,0,0,0.06604
118500000000,118800000000,6218406404,1035,1094466,0.03894,0.001253,0.005775,0.0003414,0.000844,0.001623,2.098e-05,9.537e-07,0.106,0.003143,1.138,0.001147,0,0,0.06616
118800000000,119100000000,6218406404,1035,1094466,0.01633,0.001062,0.005783,0.0003357,0.000905,0.001266,6.676e-06,9.537e-07,0.115,0.0002146,1.407,0.001675,0,0,0.00367
119100000000,119400000000,6218406404,1035,1094466,0.04156,0.001152,0.005783,0.0003414,0.0009375,0.001377,9.727e-05,9.537e-07,0.2166,0.001785,0.8967,0.0005007,0,0,0.005028
119400000000,119700000000,6218406404,1035,1094466,0.01059,0.001198,0.005783,0.0003347,0.0009689,0.001394,1.24e-05,9.537e-07,0.1331,0.0006428,1.466,0.001852,0,0,0.002197
126000000000,126300000000,6218406404,1035,2536906880,0.01176,0.001678,0.00708,0.0002213,0.0009785,0.00198,2.575e-05,9.537e-07,0.157,0.002499,0.8845,0.0005882,0,0,0.001675
126300000000,126600000000,6218406404,1035,2536906880,0.02084,0.001837,0.007729,0.0002222,0.0009804,0.001932,1.621e-05,9.537e-07,0.1565,0.0006428,0.8156,0.0004717,0,0,0.001698
126600000000,126900000000,6218406404,1035,2536906880,0.004982,0.001867,0.007729,0.0002251,0.0009823,0.001953,1.431e-05,9.537e-07,0.1514,0.001072,0.9092,0.0006923,0,0,0.003555
126900000000,127200000000,6218406404,1035,2536906880,0.007561,0.00181,0.007729,0.000246,0.001005,0.001923,2.098e-05,9.537e-07,0.1082,0.001715,2.974,0.007094,0,0,0.002285
127200000000,127500000000,6218406404,1035,2536906880,0.01578,0.001858,0.007729,0.000246,0.001005,0.00198,3.052e-05,9.537e-07,0.1357,0.001715,1.265,0.001054,0,0,0.00235
127500000000,127800000000,6218406404,1035,2536906880,0.0166,0.001883,0.007721,0.000246,0.001005,0.001976,1.526e-05,9.537e-07,0.1541,0.0005713,0.9697,0.0004414,0,0,0.002392
127800000000,128100000000,6218406404,1035,2536906880,0.01022,0.001884,0.007721,0.000247,0.001005,0.002079,1.335e-05,9.537e-07,0.1448,0.0007143,1.585,0.002316,0,0,0.001896
128100000000,128400000000,6218406404,1035,2536906880,0.006836,0.001858,0.007721,0.0002632,0.001022,0.00193,1.812e-05,9.537e-07,0.1108,0.0004997,1.58,0.002147,0,0,0.00181
166500000000,166800000000,6218406404,1035,431054162,0.01828,0.0009499,0.005798,7.343e-05,0.0002813,0.00139,1.621e-05,0,0.1222,0.001642,4.366,0.01095,0,0,0.01442
166800000000,167100000000,6218406404,1035,431054162,0.017,0.001148,0.005913,8.011e-05,0.0004997,0.001774,2.003e-05,0,0.09656,0.001429,2.352,0.005297,0,0,0.01013
167100000000,167400000000,6218406404,1035,431054162,0.01517,0.001001,0.005791,7.629e-05,0.0004816,0.001339,1.335e-05,0,0.07092,0.001072,3.885,0.01076,0,0,0.01036
167400000000,167700000000,6218406404,1035,431054162,0.01553,0.001089,0.005791,7.439e-05,0.0004406,0.001556,2.48e-05,0,0.0824,0.001499,2.374,0.005644,0,0,0.01237
167700000000,168000000000,6218406404,1035,431054162,0.01575,0.001347,0.006218,7.343e-05,0.0004816,0.00198,2.193e-05,9.537e-07,0.07385,0.001642,6.385,0.01855,0,0,0.008362
168000000000,168300000000,6218406404,1035,431054162,0.01019,0.001471,0.006287,7.343e-05,0.0003853,0.001888,0.0001841,9.537e-07,0.08887,0.005928,1.742,0.003436,0,0,0.008255
168300000000,168600000000,6218406404,1035,431054162,0.008148,0.001457,0.006416,7.343e-05,0.0004005,0.001833,2.098e-05,9.537e-07,0.0752,0.002213,1.867,0.003727,0,0,0.006004
168600000000,168900000000,6218406404,1035,431054162,0.006668,0.001528,0.006638,7.343e-05,0.0004845,0.001879,1.812e-05,9.537e-07,0.06836,0.002285,4.994,0.01619,0,0,0.007652
168900000000,169200000000,6218406404,1035,431054162,0.004967,0.001419,0.007233,7.915e-05,0.0003748,0.001907,3.147e-05,9.537e-07,0.05371,0.002644,8.396,0.029,0,0,0.003838
169200000000,169500000000,6218406404,1035,431054162,0.004921,0.001492,0.006744,9.918e-05,0.0004873,0.00189,2.289e-05,9.537e-07,0.06433,0.001715,12.11,0.04201,0,0,0.005592
169500000000,169800000000,6218406404,1035,431054162,0.006714,0.0009527,0.005821,9.155e-05,0.0002918,0.00136,0.0001383,9.537e-07,0.05548,0.02414,3.53,0.01068,0,0,0.00317
169800000000,170100000000,6218406404,1035,431054162,0.005272,0.0008669,0.005791,6.866e-05,0.0003204,0.001318,1.24e-05,9.537e-07,0.04944,0.001143,5.851,0.01957,0,0,0.002995
170100000000,170400000000,6218406404,1035,431054162,0.006691,0.001017,0.005791,6.866e-05,0.0003948,0.001429,4.292e-05,9.537e-07,0.0564,0.002644,2.416,0.006283,0,0,0.003834
194100000000,194400000000,6218406404,1035,1438166498,0.01535,0.0008841,0.005791,0.0003805,0.001102,0.001068,3.815e-05,0,0.1228,0.006783,2.265,0.005005,0,0,0.009171
194400000000,194700000000,6218406404,1035,1438166498,0.01357,0.001049,0.005791,0.0003824,0.001125,0.001127,7.629e-06,0,0.08691,0.0004997,1.72,0.002906,0,0,0.01074
194700000000,195000000000,6218406404,1035,1438166498,0.01425,0.001408,0.005791,0.0003815,0.001127,0.001579,5.722e-06,9.537e-07,0.09851,0.0002861,1.798,0.003246,0,0,0.008698
201300000000,201600000000,6218406404,1035,351662224,0.009415,0.001499,0.005783,0.0003929,0.001148,0.001642,9.537e-06,9.537e-07,0.1168,0.0004282,1.301,0.001723,0,0,0.001207
201600000000,201900000000,6218406404,1035,351662224,0.004295,0.001549,0.005783,0.0003977,0.001154,0.001616,1.431e-05,9.537e-07,0.09741,0.001215,1.335,0.002327,0,0,0.003017
201900000000,202200000000,6218406404,1035,351662224,0.01355,0.001503,0.005783,0.0004158,0.001171,0.001646,3.242e-05,9.537e-07,0.1558,0.001858,1.124,0.00135,0,0,0.04266
202200000000,202500000000,6218406404,1035,351662224,0.01617,0.001564,0.00724,0.0004177,0.001175,0.001755,3.242e-05,9.537e-07,0.1743,0.002071,0.8629,0.0006561,0,0,0.001682
202500000000,202800000000,6218406404,1035,351662224,0.01865,0.001657,0.007713,0.0004187,0.001175,0.002281,2.956e-05,9.537e-07,0.1318,0.001499,0.9039,0.0006664,0,0,0.002174
202800000000,203100000000,6218406404,1035,351662224,0.01309,0.002155,0.007713,0.0004187,0.001183,0.002522,2.193e-05,9.537e-07,0.1304,0.001215,1.105,0.001324,0,0,0.001398
203100000000,203400000000,6218406404,1035,351662224,0.00634,0.002113,0.007721,0.0004358,0.0012,0.002155,2.098e-05,9.537e-07,0.07434,0.0008574,1.326,0.001996,0,0,0.002422
203400000000,203700000000,6218406404,1035,351662224,0.01968,0.002243,0.007721,0.0004454,0.001274,0.002537,1.907e-05,9.537e-07,0.09363,0.001143,1.077,0.001286,0,0,0.06409
203700000000,204000000000,6218406404,1035,351662224,0.01234,0.001551,0.007721,0.0004597,0.001299,0.002251,3.147e-05,9.537e-07,0.1217,0.003502,2.783,0.008311,0,0,0.003502
204000000000,204300000000,6218406404,1035,351662224,0.01012,0.001436,0.007721,0.0004606,0.001299,0.001635,4.482e-05,9.537e-07,0.1018,0.003216,2.157,0.00494,0,0,0.003689
204300000000,204600000000,6218406404,1035,351662224,0.01414,0.001341,0.007721,0.0004663,0.001299,0.002399,2.67e-05,9.537e-07,0.1255,0.002071,1.461,0.002665,0,0,0.005898
204600000000,204900000000,6218406404,1035,351662224,0.01733,0.00238,0.007721,0.0004482,0.001297,0.002495,3.433e-05,9.537e-07,0.1117,0.001999,1.3,0.001701,0,0,0.05524
204900000000,205200000000,6218406404,1035,351662224,0.01552,0.002361,0.007713,0.0004616,0.001312,0.002445,3.815e-05,9.537e-07,0.1433,0.002144,0.9035,0.0008516,0,0,0.002495
205200000000,205500000000,6218406404,1035,351662224,0.01259,0.001383,0.007721,0.0004864,0.001324,0.002357,3.719e-05,9.537e-07,0.1394,0.003071,1.446,0.00239,0,0,0.0028
205500000000,205800000000,6218406404,1035,351662224,0.0148,0.001228,0.007721,0.0004768,0.001324,0.001577,2.003e-05,9.537e-07,0.1477,0.001358,1.39,0.002419,0,0,0.003719
205800000000,206100000000,6218406404,1035,351662224,0.01164,0.00149,0.007721,0.0004759,0.001324,0.001572,2.193e-05,9.537e-07,0.111,0.003357,1.658,0.003596,0,0,0.003769
206100000000,206400000000,6218406404,1035,351662224,0.004082,0.00148,0.007721,0.0004759,0.001324,0.001526,1.907e-05,9.537e-07,0.06085,0.001572,5.007,0.0179,0,0,0.003551
206400000000,206700000000,6218406404,1035,351662224,0.00528,0.001467,0.007729,0.0004749,0.001324,0.001522,1.717e-05,9.537e-07,0.07288,0.0008574,12.87,0.0519,0,0,0.004059
206700000000,207000000000,6218406404,1035,351662224,0.00589,0.001476,0.007729,0.0004749,0.001324,0.001545,1.907e-05,9.537e-07,0.1073,0.001572,12.41,0.05062,0,0,0.004295
207000000000,207300000000,6218406404,1035,351662224,0.004898,0.001524,0.007729,0.0004749,0.001324,0.001556,1.144e-05,9.537e-07,0.09082,0.0009289,2.341,0.005334,0,0,0.002518
207300000000,207600000000,6218406404,1035,351662224,0.005287,0.001518,0.007729,0.0004749,0.001324,0.001581,3.529e-05,9.537e-07,0.07593,0.001358,6.308,0.02371,0,0,0.003139
207600000000,207900000000,6218406404,1035,351662224,0.005219,0.001499,0.007729,0.0004749,0.001326,0.00152,1.812e-05,9.537e-07,0.08582,0.0009995,1.758,0.003908,0,0,0.002892
207900000000,208200000000,6218406404,1035,351662224,0.01355,0.001526,0.007729,0.000474,0.001326,0.0016,1.621e-05,9.537e-07,0.2356,0.001499,1.739,0.003627,0,0,0.002872
208200000000,208500000000,6218406404,1035,351662224,0.01138,0.001596,0.007729,0.0004883,0.001339,0.00182,2.48e-05,9.537e-07,0.1045,0.001286,2.056,0.00519,0,0,0.002613
208500000000,208800000000,6218406404,1035,351662224,0.0163,0.001652,0.007729,0.0004997,0.00135,0.00214,3.624e-05,9.537e-07,0.1079,0.001715,1.347,0.002485,0,0,0.004692
208800000000,209100000000,6218406404,1035,351662224,0.02435,0.002083,0.007729,0.0004988,0.001497,0.003216,3.719e-05,1.907e-06,0.2053,0.001928,1.062,0.001366,0,0,0.005203
209100000000,209400000000,6218406404,1035,351662224,0.0329,0.001562,0.007729,0.0005045,0.00157,0.001883,4.768e-05,1.907e-06,0.1318,0.001499,0.3812,0.0002852,0,0,0.004524
209400000000,209700000000,6218406404,1035,351662224,0.01883,0.001328,0.007729,0.0005188,0.001587,0.001442,2.861e-05,1.907e-06,0.1189,0.001215,1.184,0.001504,0,0,0.004478
209700000000,210000000000,6218406404,1035,351662224,0.02731,0.001337,0.007721,0.0005274,0.001596,0.001457,2.861e-05,1.907e-06,0.1031,0.0009995,1.063,0.001346,0,0,0.004219
210000000000,210300000000,6218406404,1035,351662224,0.04602,0.001347,0.007721,0.0005379,0.001596,0.001736,2.67e-05,1.907e-06,0.08948,0.0009995,1.253,0.001577,0,0,0.07104
210300000000,210600000000,6218406404,1035,351662224,0.04236,0.001352,0.007713,0.0005407,0.001602,0.001661,2.289e-05,1.907e-06,0.1313,0.0008574,1.148,0.001338,0,0,0.00325
210600000000,210900000000,6218406404,1035,351662224,0.03,0.001301,0.007713,0.0005627,0.001619,0.00157,2.766e-05,1.907e-06,0.1146,0.001286,0.9354,0.00081,0,0,0.004265
210900000000,211200000000,6218406404,1035,351662224,0.04254,0.001268,0.007713,0.000555,0.001619,0.001432,5.531e-05,1.907e-06,0.1528,0.002285,0.9527,0.0007332,0,0,0.09766
211200000000,211500000000,6218406404,1035,351662224,0.03271,0.00115,0.007713,0.0005531,0.001619,0.001316,2.575e-05,1.907e-06,0.1229,0.0009995,1.349,0.001997,0,0,0.04504
211500000000,211800000000,6218406404,1035,351662224,0.0152,0.00123,0.007713,0.0005512,0.001619,0.001682,2.575e-05,1.907e-06,0.1255,0.001429,1.282,0.00198,0,0,0.08081
211800000000,212100000000,6218406404,1035,351662224,0.01855,0.001562,0.007706,0.0005541,0.001623,0.001762,3.624e-05,1.907e-06,0.0929,0.002144,1.181,0.001802,0,0,0.04193
212100000000,212400000000,6218406404,1035,351662224,0.02692,0.001617,0.007706,0.0005751,0.001646,0.001755,4.005e-05,1.907e-06,0.156,0.002716,0.9827,0.001039,0,0,0.005791
212400000000,212700000000,6218406404,1035,351662224,0.02042,0.001509,0.007698,0.0005875,0.001646,0.001785,4.578e-05,1.907e-06,0.1096,0.001785,1.668,0.003461,0,0,0.004982
212700000000,213000000000,6218406404,1035,351662224,0.02481,0.001415,0.007698,0.0005817,0.001646,0.001675,3.624e-05,1.907e-06,0.1155,0.001572,1.016,0.001413,0,0,0.06006
213000000000,213300000000,6218406404,1035,351662224,0.04669,0.001413,0.007706,0.0006056,0.001665,0.001621,4.673e-05,1.907e-06,0.1379,0.003071,1.361,0.001441,0,0,0.004677
213300000000,213600000000,6218406404,1035,351662224,0.02432,0.00131,0.007706,0.0006027,0.001673,0.001478,2.575e-05,1.907e-06,0.08215,0.001286,1.304,0.001795,0,0,0.04993
213600000000,213900000000,6218406404,1035,351662224,0.01761,0.001408,0.007698,0.0006008,0.001673,0.001598,2.861e-05,1.907e-06,0.1111,0.001143,1.993,0.004917,0,0,0.004494
213900000000,214200000000,6218406404,1035,351662224,0.02173,0.001591,0.007706,0.0005999,0.001673,0.001829,2.766e-05,1.907e-06,0.1184,0.001429,1.3,0.002406,0,0,0.005104
214200000000,214500000000,6218406404,1035,351662224,0.05676,0.001518,0.007698,0.0006418,0.001688,0.001751,4.578e-05,1.907e-06,0.09375,0.002144,0.8537,0.0004543,0,0,0.06384
214500000000,214800000000,6218406404,1035,351662224,0.02896,0.001591,0.007698,0.0006399,0.001701,0.001825,4.005e-05,1.907e-06,0.09595,0.001286,1.182,0.001256,0,0,0.03735
214800000000,215100000000,6218406404,1035,351662224,0.02454,0.0016,0.007698,0.0006304,0.001698,0.001692,5.913e-05,1.907e-06,0.1487,0.002213,1.124,0.00118,0,0,0.003086
215100000000,215400000000,6218406404,1035,351662224,0.01801,0.001862,0.007698,0.0006371,0.001705,0.00206,3.147e-05,1.907e-06,0.08484,0.001785,1.555,0.002456,0,0,0.003674
215400000000,215700000000,6218406404,1035,351662224,0.01669,0.001911,0.007698,0.0006533,0.00172,0.002106,4.482e-05,1.907e-06,0.1704,0.002644,1.741,0.004339,0,0,0.05444
215700000000,216000000000,6218406404,1035,351662224,0.04791,0.001385,0.007698,0.0006609,0.001722,0.001907,3.91e-05,1.907e-06,0.2122,0.001499,0.8013,0.0006053,0,0,0.00362
216000000000,216300000000,6218406404,1035,351662224,0.05267,0.001354,0.007698,0.0006647,0.001724,0.001556,3.433e-05,1.907e-06,0.1238,0.001286,0.5336,0.0004297,0,0,0.008652
221100000000,221400000000,6218406404,1035,2287683436,0.02267,0.00123,0.005791,0.0001707,0.0004816,0.001541,4.005e-05,9.537e-07,0.1152,0.004501,1.454,0.001567,0,0,0.0105
221400000000,221700000000,6218406404,1035,2287683436,0.02777,0.001438,0.005791,0.0001783,0.0005178,0.001606,6.676e-05,9.537e-07,0.1707,0.008636,1.106,0.0009372,0,0,0.08142
221700000000,222000000000,6218406404,1035,2287683436,0.0195,0.001499,0.005814,0.0001974,0.0005455,0.001741,2.289e-05,9.537e-07,0.1262,0.003071,1.725,0.002579,0,0,0.009766
222000000000,222300000000,6218406404,1035,2287683436,0.03229,0.00156,0.006409,0.0001478,0.0004301,0.001917,7.153e-05,9.537e-07,0.25,0.01086,1.507,0.00231,0,0,0.06738
222300000000,222600000000,6218406404,1035,2287683436,0.02637,0.00149,0.006615,6.008e-05,0.000309,0.00178,0.0005445,9.537e-07,0.1382,0.05157,0.4211,0.0002715,0,0,0.06604
222600000000,222900000000,6218406404,1035,2287683436,0.02353,0.00124,0.005806,9.251e-05,0.0004654,0.001415,1.431e-05,9.537e-07,0.09351,0.0003567,0.5981,0.0004186,0,0,0.003834
227400000000,227700000000,6218406404,1035,683208,0.0119,0.001453,0.0065,0.0004025,0.00112,0.001732,3.338e-05,0,0.1107,0.007217,1.191,0.001278,0,0,0.006989
227700000000,228000000000,6218406404,1035,683208,0.02554,0.0008554,0.005798,0.0004053,0.001137,0.00106,1.24e-05,0,0.1372,0.001358,0.789,0.000571,0,0,0.009918
228000000000,228300000000,6218406404,1035,683208,0.04089,0.0012,0.005791,0.0004196,0.001148,0.001595,1.621e-05,9.537e-07,0.1528,0.0003567,0.761,0.0004125,0,0,0.07007
228300000000,228600000000,6218406404,1035,683208,0.03754,0.001402,0.005951,0.0004101,0.00115,0.001778,2.48e-05,9.537e-07,0.1973,0.001429,1.215,0.001261,0,0,0.1814
228600000000,228900000000,6218406404,1035,683208,0.02219,0.001451,0.005959,0.0001869,0.0006294,0.001736,4.768e-05,9.537e-07,0.1248,0.007217,1.14,0.001172,0,0,0.09448
228900000000,229200000000,6218406404,1035,683208,0.02621,0.001429,0.005791,0.0002003,0.0006704,0.001637,0.0001326,9.537e-07,0.1102,0.006287,1.249,0.001548,0,0,0.006676
229200000000,229500000000,6218406404,1035,683208,0.03192,0.001314,0.005783,0.0002089,0.0006981,0.001572,4.768e-05,9.537e-07,0.1599,0.003284,1.727,0.002558,0,0,0.06049
229500000000,229800000000,6218406404,1035,683208,0.04315,0.001514,0.006279,0.0002089,0.0007,0.001808,3.433e-05,9.537e-07,0.1797,0.002213,1.491,0.001866,0,0,0.05914
229800000000,230100000000,6218406404,1035,683208,0.01306,0.001484,0.005844,0.0002279,0.000721,0.00174,4.292e-05,9.537e-07,0.1141,0.005287,1.077,0.001224,0,0,0.002884
230100000000,230400000000,6218406404,1035,683208,0.03528,0.001545,0.006241,0.0002451,0.0007401,0.001728,5.436e-05,9.537e-07,0.1207,0.00885,1.524,0.002146,0,0,0.003365
230400000000,230700000000,6218406404,1035,683208,0.01779,0.001509,0.005775,0.0002527,0.0007524,0.00164,1.144e-05,9.537e-07,0.1272,0.0003567,1.195,0.001592,0,0,0.003773
230700000000,231000000000,6218406404,1035,683208,0.01639,0.001553,0.006378,0.0002527,0.0007534,0.001862,2.003e-05,9.537e-07,0.1304,0.001215,1.873,0.003401,0,0,0.003529
231000000000,231300000000,6218406404,1035,683208,0.0387,0.00135,0.005898,0.000268,0.0007534,0.001751,3.433e-05,9.537e-07,0.1189,0.002857,0.9588,0.0008907,0,0,0.02298
231300000000,231600000000,6218406404,1035,683208,0.01636,0.001984,0.007645,0.0002737,0.001049,0.003365,2.575e-05,9.537e-07,0.1299,0.004425,1.281,0.001934,0,0,0.001751
231600000000,231900000000,6218406404,1035,683208,0.01236,0.001562,0.00705,0.0002794,0.001059,0.001768,2.193e-05,1.907e-06,0.108,0.002071,1.355,0.001679,0,0,0.002052
231900000000,232200000000,6218406404,1035,683208,0.0105,0.001238,0.005775,0.0002909,0.001057,0.001516,1.907e-05,1.907e-06,0.08716,0.001215,1.478,0.002051,0,0,0.002174
232200000000,232500000000,6218406404,1035,683208,0.01015,0.001146,0.005775,0.0002861,0.00107,0.001247,1.526e-05,1.907e-06,0.1067,0.001286,1.196,0.001724,0,0,0.002243
232500000000,232800000000,6218406404,1035,683208,0.01276,0.001371,0.005775,0.0002832,0.001072,0.001534,1.907e-05,1.907e-06,0.1252,0.001858,0.6815,0.0003038,0,0,0.003689
232800000000,233100000000,6218406404,1035,683208,0.01767,0.001495,0.005775,0.0002832,0.001072,0.001614,1.431e-05,1.907e-06,0.1453,0.0006428,1.173,0.001095,0,0,0.001612
233100000000,233400000000,6218406404,1035,683208,0.0126,0.001495,0.005775,0.0002832,0.001074,0.001627,1.335e-05,1.907e-06,0.1313,0.0004282,1.212,0.001437,0,0,0.003101
233400000000,233700000000,6218406404,1035,683208,0.02429,0.001492,0.005775,0.0002909,0.001081,0.001572,1.717e-05,1.907e-06,0.1365,0.001429,1.219,0.001443,0,0,0.06519
233700000000,234000000000,6218406404,1035,683208,0.02158,0.001293,0.005775,0.0003185,0.001095,0.001429,1.717e-05,1.907e-06,0.1033,0.001286,0.7995,0.0001587,0,0,0.002052
234000000000,234300000000,6218406404,1035,683208,0.01761,0.001265,0.00589,0.0003138,0.001097,0.001919,1.335e-05,1.907e-06,0.2129,0.0004282,1.146,0.001269,0,0,0.001867
234300000000,234600000000,6218406404,1035,683208,0.02866,0.001863,0.007706,0.0003223,0.00111,0.00211,1.621e-05,1.907e-06,0.2051,0.0006428,0.9715,0.0004913,0,0,0.002728
234600000000,234900000000,6218406404,1035,683208,0.05939,0.001722,0.007256,0.0003424,0.00112,0.002029,1.621e-05,1.907e-06,0.1105,0.0008574,1.009,0.0009475,0,0,0.0592
234900000000,235200000000,6218406404,1035,683208,0.04572,0.001947,0.007713,0.000329,0.001116,0.002266,2.193e-05,1.907e-06,0.1477,0.001429,1.771,0.002361,0,0,0.05939
235200000000,235500000000,6218406404,1035,683208,0.0343,0.001507,0.006332,0.00033,0.001114,0.002213,4.005e-05,1.907e-06,0.1129,0.001358,1.403,0.001613,0,0,0.07898
235500000000,235800000000,6218406404,1035,683208,0.02301,0.001543,0.005898,0.0002766,0.001064,0.001787,1.526e-05,1.907e-06,0.104,0.0004997,1.113,0.001157,0,0,0.006859
235800000000,236100000000,6218406404,1035,683208,0.02664,0.00222,0.007965,0.0003176,0.001097,0.003849,2.384e-05,1.907e-06,0.1365,0.001642,1.338,0.00174,0,0,0.002182
236100000000,236400000000,6218406404,1035,683208,0.01813,0.001751,0.007233,0.0002565,0.0007782,0.002258,6.104e-05,1.907e-06,0.116,0.008423,1.016,0.001056,0,0,0.002029
241200000000,241500000000,6218406404,1035,683208,0.03491,0.001577,0.00621,0.0001373,0.0005751,0.001806,0.0001564,1.907e-06,0.1022,0.01286,0.9063,0.0005694,0,0,0.001501
241500000000,241800000000,6218406404,1035,683208,0.02301,0.001463,0.006004,0.0001383,0.0005856,0.001844,2.48e-05,1.907e-06,0.1704,0.002144,1.117,0.001055,0,0,0.001932
241800000000,242100000000,6218406404,1035,683208,0.01984,0.001629,0.006691,0.0001125,0.0005302,0.001888,2.193e-05,1.907e-06,0.1215,0.002499,1.007,0.0008902,0,0,0.00181
242100000000,242400000000,6218406404,1035,683208,0.01303,0.001665,0.007538,0.0001392,0.0005512,0.001766,0.0001316,1.907e-06,0.1173,0.01221,0.8792,0.0006849,0,0,0.08972
242400000000,242700000000,6218406404,1035,683208,0.008148,0.001272,0.005806,0.0001507,0.0005808,0.001419,1.24e-05,1.907e-06,0.09778,0.0002861,1.247,0.0014,0,0,0.001835
242700000000,243000000000,6218406404,1035,683208,0.01511,0.001545,0.006172,0.0001268,0.0005503,0.00182,1.335e-05,1.907e-06,0.175,0.0009289,0.907,0.0007174,0,0,0.001667
261900000000,262200000000,6218406404,1035,6568159,0.01347,0.0008011,0.005798,0.0001116,0.000843,0.0009298,1.812e-05,0,0.145,0.002785,1.761,0.001982,0,0,0.003139
262200000000,262500000000,6218406404,1035,6568159,0.01691,0.001225,0.005798,0.0001125,0.0008497,0.001499,7.629e-06,0,0.1006,0.0003567,2.428,0.004922,0,0,0.004547
262500000000,262800000000,6218406404,1035,6568159,0.008163,0.001217,0.005791,0.0001078,0.0008507,0.001247,7.629e-06,0,0.1013,0.0005713,1.347,0.001912,0,0,0.004761
262800000000,263100000000,6218406404,1035,6568159,0.006989,0.001196,0.005791,0.0001135,0.0008545,0.00132,4.482e-05,0,0.1357,0.00486,1.841,0.002934,0,0,0.003876
263100000000,263400000000,6218406404,1035,6568159,0.008179,0.0008469,0.005798,0.0001783,0.0009098,0.001024,1.144e-05,0,0.1041,0.001785,1.579,0.002183,0,0,0.005463
263400000000,263700000000,6218406404,1035,6568159,0.00946,0.0009165,0.005791,0.0001907,0.0009184,0.001238,0.0001345,9.537e-07,0.09241,0.003284,1.565,0.002051,0,0,0.004532
263700000000,264000000000,6218406404,1035,6568159,0.007584,0.001476,0.006401,9.251e-05,0.0005455,0.001831,6.866e-05,9.537e-07,0.1313,0.008636,1.155,0.001046,0,0,0.0008078
264000000000,264300000000,6218406404,1035,6568159,0.008545,0.001337,0.005821,8.011e-05,0.0004807,0.001364,3.433e-05,9.537e-07,0.1162,0.004425,1.799,0.003343,0,0,0.0007973
264300000000,264600000000,6218406404,1035,6568159,0.01407,0.00135,0.005821,8.774e-05,0.0004902,0.00141,2.098e-05,9.537e-07,0.1721,0.0009289,1.105,0.001279,0,0,0.001764
264600000000,264900000000,6218406404,1035,6568159,0.005737,0.001169,0.005814,0.0001621,0.0005121,0.001457,5.054e-05,9.537e-07,0.09155,0.004143,1.09,0.001105,0,0,0.00157
264900000000,265200000000,6218406404,1035,6568159,0.007668,0.001316,0.005814,0.0001583,0.0005302,0.001637,8.583e-06,9.537e-07,0.1426,0.0003567,6.601,0.02572,0,0,0.001131
265200000000,265500000000,6218406404,1035,6568159,0.00737,0.001551,0.006813,0.0001268,0.0005312,0.001921,1.24e-05,9.537e-07,0.09912,0.0003567,1.763,0.00406,0,0,0.001829
265500000000,265800000000,6218406404,1035,6568159,0.005333,0.001745,0.007759,0.0001268,0.0005312,0.00178,6.676e-06,9.537e-07,0.1074,0.0002146,1.336,0.002144,0,0,0.09058
265800000000,266100000000,6218406404,1035,6568159,0.00304,0.001123,0.006294,0.0001402,0.0005312,0.001852,8.583e-06,9.537e-07,0.06836,0.0006428,1.475,0.001998,0,0,0.001961
266100000000,266400000000,6218406404,1035,6568159,0.003498,0.0008926,0.005814,0.0001335,0.0005331,0.0009356,2.098e-05,9.537e-07,0.09705,0.004425,2.222,0.004983,0,0,0.001411
266400000000,266700000000,6218406404,1035,6568159,0.005737,0.0008802,0.005814,0.0001364,0.0005407,0.00107,1.431e-05,9.537e-07,0.09949,0.0005713,1.711,0.002817,0,0,0.002003
266700000000,267000000000,6218406404,1035,6568159,0.006783,0.0009708,0.005814,0.0001392,0.0005455,0.001064,1.049e-05,9.537e-07,0.101,0.0007143,0.7732,0.0004354,0,0,0.001064
267000000000,267300000000,6218406404,1035,6568159,0.004776,0.0009804,0.005814,0.0001392,0.0005474,0.001007,7.629e-06,9.537e-07,0.1171,0.0001431,5.817,0.01584,0,0,0.001087
267300000000,267600000000,6218406404,1035,6568159,0.004402,0.001156,0.006218,0.0001574,0.0006065,0.002037,1.24e-05,9.537e-07,0.0957,0.0008574,1.152,0.001751,0,0,0.001823
267600000000,267900000000,6218406404,1035,6568159,0.001112,0.001352,0.006073,0.000164,0.0007696,0.001709,2.861e-06,9.537e-07,0.06067,0.0001431,9.002,0.03325,0,0,0.001398
267900000000,268200000000,6218406404,1035,6568159,0.0003939,0.001175,0.005821,0.000164,0.0007706,0.001181,4.768e-06,9.537e-07,0.001099,0.0005713,19.38,0.08691,0,0,0.0005236
268200000000,268500000000,6218406404,1035,6568159,0.0003262,0.001171,0.005821,0.000165,0.0007715,0.001173,4.768e-06,9.537e-07,0.00123,0.0001431,14.13,0.06126,0,0,0.0002613
268500000000,268800000000,6218406404,1035,6568159,0.0003271,0.001167,0.005821,0.000165,0.0007715,0.001173,3.815e-06,9.537e-07,0.001053,0.0001431,18.67,0.08569,0,0,0.0004873
268800000000,269100000000,6218406404,1035,6568159,0.0002804,0.001167,0.005821,0.000165,0.0007715,0.001169,4.768e-06,9.537e-07,0.002289,7.153e-05,13.41,0.05813,0,0,0.0004339
269100000000,269400000000,6218406404,1035,6568159,0.0002556,0.001163,0.005821,0.000165,0.0007715,0.001167,3.815e-06,9.537e-07,0.0006685,7.153e-05,15.99,0.07039,0,0,0.0003452
269400000000,269700000000,6218406404,1035,6568159,0.0002575,0.001165,0.005829,0.000165,0.0007715,0.001169,2.861e-06,9.537e-07,0.00108,0.0004282,13.02,0.05604,0,0,0.0001602
269700000000,270000000000,6218406404,1035,6568159,0.0003386,0.001162,0.005829,0.000165,0.0007715,0.001165,0,9.537e-07,0.0009441,0,21.68,0.1015,0,0,0.0005007
270000000000,270300000000,6218406404,1035,6568159,0.0002832,0.001162,0.005829,0.000165,0.0007715,0.001163,0,9.537e-07,0.0008125,7.153e-05,17.2,0.07847,0,0,0.0001659
270300000000,270600000000,6218406404,1035,6568159,0.0002785,0.00116,0.005829,0.000165,0.0007715,0.001162,0,9.537e-07,0.0006561,0,16.36,0.07308,0,0,0.0002146
270600000000,270900000000,6218406404,1035,6568159,0.000267,0.001158,0.005829,0.000165,0.0007715,0.001162,0,9.537e-07,0.0008326,7.153e-05,14.37,0.06424,0,0,0.0001621
270900000000,271200000000,6218406404,1035,6568159,0.0002508,0.001156,0.005829,0.000165,0.0007715,0.001158,0,9.537e-07,0.0005703,0,16.27,0.07103,0,0,0.0003061
271200000000,271500000000,6218406404,1035,6568159,0.0002422,0.001156,0.005829,0.000165,0.0007715,0.001158,0,9.537e-07,0.0006428,7.153e-05,12.42,0.05425,0,0,0.0001507
281400000000,281700000000,6218406404,1035,6568159,0.0003986,0.001146,0.005829,0.0001688,0.0007792,0.001156,9.537e-07,9.537e-07,0.001032,7.153e-05,12.53,0.05665,0,0,0.0004406
281700000000,282000000000,6218406404,1035,6568159,0.0003853,0.001148,0.005829,0.0001688,0.0007792,0.001154,0,9.537e-07,0.0009632,7.153e-05,25.45,0.1176,0,0,0.000659
282000000000,282300000000,6218406404,1035,6568159,0.0004053,0.001146,0.005829,0.0001688,0.0007792,0.00115,0,9.537e-07,0.0009279,7.153e-05,21.78,0.1006,0,0,0.0001411
282300000000,282600000000,6218406404,1035,6568159,0.0003958,0.001143,0.005829,0.0001688,0.0007792,0.001146,0,9.537e-07,0.001202,0,25.78,0.1186,0,0,0.0002623
282600000000,282900000000,6218406404,1035,6568159,0.0004206,0.001146,0.005829,0.0001688,0.0007792,0.001148,0,9.537e-07,0.0009804,0.0001431,23.22,0.1069,0,0,0.0003157
282900000000,283200000000,6218406404,1035,6568159,0.000391,0.001143,0.005829,0.0001688,0.0007792,0.001148,0,9.537e-07,0.001434,0,25.64,0.1181,0,0,0.0002451
283200000000,283500000000,6218406404,1035,6568159,0.0002708,0.001143,0.005829,0.0001688,0.0007792,0.001146,1.907e-06,9.537e-07,0.0008583,0.0002861,14.77,0.06622,0,0,0.0003901
283500000000,283800000000,6218406404,1035,6568159,0.0002756,0.001144,0.005829,0.0001698,0.0007792,0.001148,0,9.537e-07,0.0007248,0,18.26,0.08312,0,0,0.0002213
283800000000,284100000000,6218406404,1035,6568159,0.0002947,0.001143,0.005829,0.0001698,0.0007792,0.001146,0,9.537e-07,0.0008402,7.153e-05,15.61,0.06969,0,0,0.0001688
284100000000,284400000000,6218406404,1035,6568159,0.0002575,0.001143,0.005829,0.0001698,0.0007792,0.001144,0,9.537e-07,0.0006046,0,15.25,0.06813,0,0,0.0001116
284400000000,284700000000,6218406404,1035,6568159,0.0002556,0.001143,0.005829,0.0001698,0.0007792,0.001146,0,9.537e-07,0.000556,7.153e-05,12.85,0.05799,0,0,0.0001888
284700000000,285000000000,6218406404,1035,6568159,0.0002556,0.001146,0.005829,0.0001698,0.0007792,0.001152,0,9.537e-07,0.001207,0,15.36,0.06894,0,0,0.0002785
285000000000,285300000000,6218406404,1035,6568159,0.000288,0.001144,0.005829,0.0001698,0.0007792,0.00115,9.537e-07,9.537e-07,0.0007973,7.153e-05,13.5,0.06007,0,0,7.725e-05
285300000000,285600000000,6218406404,1035,6568159,0.0002699,0.001144,0.005829,0.0001698,0.0007792,0.00115,9.537e-07,9.537e-07,0.0008764,0.0001431,17.88,0.08152,0,0,0.0002489
285600000000,285900000000,6218406404,1035,6568159,0.0002737,0.001143,0.005829,0.0001698,0.0007792,0.001146,0,9.537e-07,0.0006838,7.153e-05,12.75,0.05549,0,0,0.0003462
285900000000,286200000000,6218406404,1035,6568159,0.0002813,0.001141,0.005829,0.0001698,0.0007792,0.001146,0,9.537e-07,0.001263,0,18.51,0.0861,0,0,0.000123
286200000000,286500000000,6218406404,1035,6568159,0.0002728,0.001143,0.005829,0.0001698,0.0007792,0.001146,0,9.537e-07,0.0007019,7.153e-05,13.57,0.06098,0,0,0.0002136
286500000000,286800000000,6218406404,1035,6568159,0.0002813,0.001141,0.005829,0.0001698,0.0007792,0.001144,0,9.537e-07,0.0007267,0,17.71,0.08025,0,0,0.0004234
286800000000,287100000000,6218406404,1035,6568159,0.0002747,0.001141,0.005829,0.0001698,0.0007792,0.001144,9.537e-07,9.537e-07,0.0009375,7.153e-05,14.44,0.06515,0,0,0.0004129
287100000000,287400000000,6218406404,1035,6568159,0.0002909,0.001141,0.005829,0.0001698,0.0007792,0.001144,0,9.537e-07,0.0007639,0.0001431,19.8,0.08911,0,0,0.000329
287400000000,287700000000,6218406404,1035,6568159,0.0002813,0.001143,0.005829,0.0001698,0.0007792,0.001144,0,9.537e-07,0.0006676,7.153e-05,14.86,0.06715,0,0,0.0003595
287700000000,288000000000,6218406404,1035,6568159,0.0003099,0.001139,0.005829,0.0001698,0.0007792,0.001141,0,9.537e-07,0.002892,0,19.14,0.08763,0,0,0.0001221
288000000000,288300000000,6218406404,1035,6568159,0.0002804,0.001141,0.005829,0.0001698,0.0007792,0.001144,0,9.537e-07,0.0008755,7.153e-05,13.52,0.06122,0,0,0.0002804
288300000000,288600000000,6218406404,1035,6568159,0.0002785,0.001139,0.005829,0.0001698,0.0007792,0.001141,0,9.537e-07,0.000843,0,18.19,0.08255,0,0,0.0002975
288600000000,288900000000,6218406404,1035,6568159,0.0002947,0.001141,0.005829,0.0001698,0.0007792,0.001144,0,9.537e-07,0.001087,7.153e-05,15.46,0.07023,0,0,0.0002499
288900000000,289200000000,6218406404,1035,6568159,0.000308,0.001139,0.005829,0.0001698,0.0007792,0.001141,0,9.537e-07,0.0008211,0,18.27,0.08451,0,0,0.0002651
289200000000,289500000000,6218406404,1035,6568159,0.0002642,0.001141,0.005829,0.0001698,0.0007792,0.001146,0,9.537e-07,0.0005989,7.153e-05,14.59,0.06576,0,0,0.000493
289500000000,289800000000,6218406404,1035,6568159,0.0002871,0.001143,0.005829,0.0001698,0.0007792,0.001148,0,9.537e-07,0.001719,7.153e-05,9.462,0.04154,0,0,0.0002756
289800000000,290100000000,6218406404,1035,6568159,0.0002956,0.001143,0.005829,0.0001698,0.0007801,0.001146,0,9.537e-07,0.0009594,7.153e-05,13.78,0.06149,0,0,0.0003309
290100000000,290400000000,6218406404,1035,6568159,0.0003748,0.001139,0.005829,0.0001698,0.0007801,0.001144,0,9.537e-07,0.001078,0,22.98,0.1059,0,0,7.439e-05
290400000000,290700000000,6218406404,1035,6568159,0.0003614,0.001141,0.005829,0.0001698,0.0007801,0.001143,0,9.537e-07,0.001019,7.153e-05,19.85,0.09238,0,0,0.0003748
290700000000,291000000000,6218406404,1035,6568159,0.0003405,0.001139,0.005829,0.0001698,0.0007801,0.001143,0,9.537e-07,0.00148,0,21.09,0.09817,0,0,0.0003757
291000000000,291300000000,6218406404,1035,6568159,0.0003242,0.001141,0.005829,0.0001698,0.0007801,0.001146,0,9.537e-07,0.002083,7.153e-05,17.29,0.07936,0,0,0.0003166
291300000000,291600000000,6218406404,1035,6568159,0.0002575,0.001139,0.005829,0.0001698,0.0007801,0.001143,0,9.537e-07,0.0007124,0,15.35,0.06844,0,0,0.0003433
291600000000,291900000000,6218406404,1035,6568159,0.000247,0.001141,0.005829,0.0001707,0.0007801,0.001146,1.907e-06,9.537e-07,0.0009193,0.0005713,11.47,0.05033,0,0,0.0001564
291900000000,292200000000,6218406404,1035,6568159,0.0002565,0.001139,0.005829,0.0001717,0.0007811,0.001143,0,9.537e-07,0.0007086,0,14.19,0.06383,0,0,0.0003538
292200000000,292500000000,6218406404,1035,6568159,0.0002546,0.001139,0.005829,0.0001717,0.0007811,0.001143,0,9.537e-07,0.001877,7.153e-05,12.23,0.05437,0,0,0.0001593
292500000000,292800000000,6218406404,1035,6568159,0.0002556,0.001139,0.005829,0.0001717,0.0007811,0.001141,0,9.537e-07,0.0006409,0,15.67,0.07123,0,0,0.0004015
292800000000,293100000000,6218406404,1035,6568159,0.0002861,0.001139,0.005829,0.0001717,0.0007811,0.001143,0,9.537e-07,0.0009041,7.153e-05,13.07,0.05844,0,0,0.0001507
293100000000,293400000000,6218406404,1035,6568159,0.0002823,0.001139,0.005829,0.0001717,0.0007811,0.001141,0,9.537e-07,0.0007973,0,18.79,0.08593,0,0,0.0001907
293400000000,293700000000,6218406404,1035,6568159,0.0002661,0.001141,0.005829,0.0001717,0.0007811,0.001144,0,9.537e-07,0.0009012,7.153e-05,12.64,0.05563,0,0,0.0001087
293700000000,294000000000,6218406404,1035,6568159,0.0002851,0.001141,0.005829,0.0001717,0.0007811,0.001144,0,9.537e-07,0.0007524,0,18.69,0.08579,0,0,0.0003338
294000000000,294300000000,6218406404,1035,6568159,0.0002594,0.001141,0.005829,0.0001717,0.0007811,0.001144,0,9.537e-07,0.0006609,7.153e-05,12.82,0.05716,0,0,8.869e-05
294300000000,294600000000,6218406404,1035,6568159,0.0003033,0.001139,0.005829,0.0001717,0.0007811,0.001143,0,9.537e-07,0.0009117,0,20.27,0.09276,0,0,0.0001955
294600000000,294900000000,6218406404,1035,6568159,0.000267,0.001143,0.005829,0.0001717,0.0007811,0.001152,9.537e-07,9.537e-07,0.0009403,7.153e-05,13.64,0.06101,0,0,0.0003433
294900000000,295200000000,6218406404,1035,6568159,0.0002708,0.001143,0.005829,0.0001717,0.0007811,0.00115,0,9.537e-07,0.0006866,0,16.47,0.0738,0,0,0.0001411
295200000000,295500000000,6218406404,1035,6568159,0.0002861,0.001141,0.005829,0.0001717,0.0007811,0.001146,0,9.537e-07,0.0006113,7.153e-05,14.87,0.06757,0,0,0.000165
295500000000,295800000000,6218406404,1035,6568159,0.0002775,0.001139,0.005829,0.0001717,0.0007811,0.001144,0,9.537e-07,0.0008593,0,16.77,0.07672,0,0,0.0003376
295800000000,296100000000,6218406404,1035,6568159,0.0002871,0.001141,0.005829,0.0001717,0.0007811,0.001146,0,9.537e-07,0.0007725,7.153e-05,16.05,0.07184,0,0,0.0003843
296100000000,296400000000,6218406404,1035,6568159,0.0003138,0.001139,0.005829,0.0001717,0.0007811,0.001141,0,9.537e-07,0.0007219,0,16.92,0.07774,0,0,0.0003424
296400000000,296700000000,6218406404,1035,6568159,0.0003405,0.001141,0.005829,0.0001717,0.0007811,0.001143,0,9.537e-07,0.0009212,7.153e-05,18.14,0.08301,0,0,0.0003519
296700000000,297000000000,6218406404,1035,6568159,0.0002756,0.001139,0.005829,0.0001717,0.000782,0.001141,0,9.537e-07,0.0008259,0,18.06,0.08276,0,0,0.0002174
297000000000,297300000000,6218406404,1035,6568159,0.0003014,0.001141,0.005829,0.0001717,0.000782,0.001143,0,9.537e-07,0.0009975,7.153e-05,14.61,0.06651,0,0,0.0002317
297300000000,297600000000,6218406404,1035,6568159,0.0002737,0.001139,0.005829,0.0001717,0.000782,0.001141,0,9.537e-07,0.0005903,0,17.94,0.08239,0,0,0.0001955
297600000000,297900000000,6218406404,1035,6568159,0.0002851,0.001139,0.005829,0.0001717,0.000782,0.001143,0,9.537e-07,0.0007887,7.153e-05,14.44,0.06588,0,0,0.0001945
297900000000,298200000000,6218406404,1035,6568159,0.0003262,0.001139,0.005829,0.0001717,0.000782,0.001141,0,9.537e-07,0.0008497,0,16.99,0.07638,0,0,0.0001411
298200000000,298500000000,6218406404,1035,6568159,0.0003338,0.001139,0.005829,0.0001717,0.000782,0.001143,0,9.537e-07,0.0008469,7.153e-05,16.2,0.07313,0,0,0.000308
298500000000,298800000000,6218406404,1035,6568159,0.0003414,0.001139,0.005829,0.0001717,0.000782,0.001141,0,9.537e-07,0.001144,0,21.02,0.09593,0,0,0.0004082
298800000000,299100000000,6218406404,1035,6568159,0.0003023,0.001139,0.005829,0.0001717,0.000782,0.001144,0,9.537e-07,0.0009727,7.153e-05,15.1,0.06824,0,0,0.000246
299100000000,299400000000,6218406404,1035,6568159,0.0003042,0.001139,0.005829,0.0001717,0.000782,0.001144,0,9.537e-07,0.0009508,0,18.55,0.08408,0,0,0.0002327
299400000000,299700000000,6218406404,1035,6568159,0.0003023,0.001141,0.005829,0.0001717,0.000782,0.001143,0,9.537e-07,0.0009708,7.153e-05,14.31,0.06402,0,0,0.0005636
