201300000000,201600000000,6238840043,73,2367310220,0.03308,0.00705,0.008209,0.0005407,0.0008574,0.01155,0.0006123,2.861e-06,0.09998,0.02493,1.135,0.001345,0,0,0.05408
201600000000,201900000000,6238840043,73,2367310220,0.02444,0.005348,0.006737,0.0007591,0.0009165,0.01532,0.002453,3.815e-06,0.1021,0.04407,1.104,0.001314,0,0,0.003426
201900000000,202200000000,6238840043,73,2367310220,0.01187,0.003551,0.004959,0.0001783,0.000432,0.004829,0.001009,1.907e-06,0.1196,0.05127,1.418,0.002555,0,0,0.01219
202200000000,202500000000,6238840043,73,2367310220,0.02444,0.003551,0.004715,0.0003414,0.000598,0.008652,0.001465,2.861e-06,0.1235,0.04352,1.308,0.00189,0,0,0.0675
202500000000,202800000000,6238840043,73,2367310220,0.02411,0.003803,0.005188,0.0002413,0.000433,0.00692,0.0005789,2.861e-06,0.1183,0.01642,1.157,0.001508,0,0,0.06604
202800000000,203100000000,6238840043,73,2367310220,0.01399,0.002571,0.003735,6.866e-05,0.0002804,0.003529,0.0005732,3.815e-06,0.1143,0.01913,1.269,0.001594,0,0,0.001558
203100000000,203400000000,6238840043,73,2367310220,0.01569,0.002701,0.004143,0.0001316,0.0003328,0.004761,0.001131,3.815e-06,0.1228,0.02258,1.091,0.001281,0,0,0.003475
203400000000,203700000000,6238840043,73,2367310220,0.01996,0.00312,0.004707,0.0002213,0.0003691,0.008179,0.001757,4.768e-06,0.1504,0.04877,1.036,0.001146,0,0,0.06543
203700000000,204000000000,6238840043,73,2367310220,0.02689,0.004181,0.005653,0.0004406,0.0006723,0.008606,0.001322,5.722e-06,0.1392,0.03601,1.172,0.001383,0,0,0.003517
204000000000,204300000000,6238840043,73,2367310220,0.02893,0.005775,0.006966,1.621e-05,0.0002108,0.007179,0.0001364,5.722e-06,0.09277,0.02151,1.3,0.001516,0,0,0.04285
204300000000,204600000000,6238840043,73,2367310220,0.02353,0.004395,0.005295,0.0001097,0.0002308,0.008347,0.0006886,5.722e-06,0.0968,0.0498,1.3,0.001442,0,0,0.06244
204600000000,204900000000,6238840043,73,2367310220,0.02216,0.003403,0.00489,0.0001678,0.0003071,0.007462,0.0008411,6.676e-06,0.1436,0.03143,1.137,0.001522,0,0,0.02625
204900000000,205200000000,6238840043,73,2367310220,0.0256,0.003231,0.004364,0.0001802,0.0004072,0.007027,0.0006723,6.676e-06,0.1414,0.02856,1.163,0.001438,0,0,0.01001
205200000000,205500000000,6238840043,73,2367310220,0.02884,0.005005,0.006172,0.0004702,0.0005836,0.009048,0.0008888,8.583e-06,0.09827,0.02014,1.223,0.00176,0,0,0.0274
205500000000,205800000000,6238840043,73,2367310220,0.01285,0.00211,0.003685,0.0001364,0.0003958,0.004097,0.001356,7.629e-06,0.1146,0.05072,1.12,0.001212,0,0,0.001062
205800000000,206100000000,6238840043,73,2367310220,0.02133,0.002747,0.003857,0.0002661,0.0004139,0.00399,0.00102,7.629e-06,0.144,0.04474,1.163,0.001388,0,0,0.06567
151200000000,151500000000,6238840043,73,3914505044,0.009674,0.004189,0.005386,0.000474,0.0007458,0.00795,0.001028,4.482e-05,0.04724,0.04492,1.513,0.003245,0,0,0.01633
151500000000,151800000000,6238840043,73,3914505044,0.006172,0.003513,0.00473,0.0005093,0.0009937,0.00528,0.001036,4.387e-05,0.1036,0.02258,1.353,0.002681,0,0,0.00288
151800000000,152100000000,6238840043,73,3914505044,0.01041,0.003319,0.004486,0.000186,0.0006094,0.003811,7.343e-05,4.387e-05,0.0462,0.00914,1.377,0.002001,0,0,0.005608
152100000000,152400000000,6238840043,73,3914505044,0.007187,0.003445,0.004395,0.0002289,0.0005054,0.004562,0.001398,4.482e-05,0.06567,0.02692,1.44,0.002452,0,0,0.0006256
152400000000,152700000000,6238840043,73,3914505044,0.01054,0.003162,0.004471,0.0004625,0.0009556,0.004112,0.001169,4.482e-05,0.04828,0.03247,1.45,0.002703,0,0,0.006332
152700000000,153000000000,6238840043,73,3914505044,0.007568,0.00259,0.004005,0.0002537,0.0006971,0.004074,0.001873,4.482e-05,0.04846,0.05237,1.385,0.002489,0,0,0.0004234
153000000000,153300000000,6238840043,73,3914505044,0.008438,0.00317,0.004532,0.0002537,0.0007648,0.004898,0.0009785,4.482e-05,0.05963,0.02734,1.541,0.003294,0,0,0.004616
153300000000,153600000000,6238840043,73,3914505044,0.006401,0.003544,0.004768,0.0002832,0.0006361,0.005058,0.001371,4.482e-05,0.03369,0.03357,1.495,0.002297,0,0,0.002972
153600000000,153900000000,6238840043,73,3914505044,0.01486,0.00502,0.006165,0.0002804,0.0006609,0.006569,0.0003777,4.578e-05,0.05481,0.01694,1.475,0.002844,0,0,0.002586
153900000000,154200000000,6238840043,73,3914505044,0.01021,0.006577,0.007812,0.0003691,0.0006866,0.01015,0.001579,4.673e-05,0.05743,0.03058,2.034,0.00459,0,0,0.01149
154200000000,154500000000,6238840043,73,3914505044,0.00647,0.002689,0.00457,0.0002441,0.0007038,0.004135,0.001787,4.578e-05,0.03943,0.02765,1.785,0.003776,0,0,0.007919
154500000000,154800000000,6238840043,73,3914505044,0.01691,0.004257,0.005455,0.0002565,0.0007391,0.005608,0.001215,4.673e-05,0.2651,0.01624,1.447,0.002656,0,0,0.02127
154800000000,155100000000,6238840043,73,3914505044,0.0116,0.005997,0.00766,0.0005674,0.0009193,0.009354,0.001637,4.768e-05,0.05096,0.03656,1.475,0.002684,0,0,0.0174
155100000000,155400000000,6238840043,73,3914505044,0.009491,0.004364,0.005707,0.0002651,0.0007658,0.005768,0.0001469,4.578e-05,0.04443,0.01886,1.389,0.002353,0,0,0.009079
155400000000,155700000000,6238840043,73,3914505044,0.00486,0.005226,0.00666,0.0002851,0.0005169,0.007751,0.000473,4.673e-05,0.03906,0.02173,1.123,0.001819,0,0,0.0004902
155700000000,156000000000,6238840043,73,3914505044,0.001369,0.001022,0.002296,0.0005264,0.0006561,0.002747,0.0006628,4.578e-05,0.01788,0.0253,1.8,0.004072,0,0,0.0001259
120900000000,121200000000,6238840043,73,3914505044,0.007248,0.002945,0.005066,0.0002365,0.0006065,0.004234,0.002663,2.956e-05,0.07983,0.0495,1.473,0.002725,0,0,0.04602
121200000000,121500000000,6238840043,73,3914505044,0.01779,0.005913,0.007378,0.0002689,0.0006638,0.008789,0.001541,3.052e-05,0.08215,0.0275,1.202,0.001773,0,0,0.01746
121500000000,121800000000,6238840043,73,3914505044,0.01538,0.004585,0.006142,0.0005922,0.0009546,0.009552,0.001188,3.052e-05,0.06335,0.02463,1.249,0.001896,0,0,0.0271
121800000000,122100000000,6238840043,73,3914505044,0.01456,0.002609,0.003998,0.0004072,0.0008335,0.003345,0.0002947,3.052e-05,0.07776,0.01822,1.403,0.002267,0,0,0.005135
122100000000,122400000000,6238840043,73,3914505044,0.01291,0.004112,0.005325,0.0003719,0.0007353,0.005562,0.001215,3.052e-05,0.06555,0.0307,1.498,0.002291,0,0,0.01518
122400000000,122700000000,6238840043,73,3914505044,0.02231,0.004074,0.005753,0.0005713,0.001055,0.005577,0.001827,3.147e-05,0.119,0.0545,1.678,0.003274,0,0,0.02081
122700000000,123000000000,6238840043,73,3914505044,0.01669,0.003792,0.00531,0.0004673,0.0008736,0.005386,0.001614,3.147e-05,0.07703,0.03931,1.431,0.00223,0,0,0.05981
123000000000,123300000000,6238840043,73,3914505044,0.02344,0.003647,0.004791,0.0002136,0.0004864,0.004135,0.0004702,3.147e-05,0.06158,0.02042,1.312,0.001782,0,0,0.04248
123300000000,123600000000,6238840043,73,3914505044,0.02347,0.00518,0.00708,0.0002985,0.000556,0.006256,0.0009937,3.242e-05,0.1022,0.05396,1.127,0.001607,0,0,0.06177
123600000000,123900000000,6238840043,73,3914505044,0.009735,0.003132,0.004845,0.0003519,0.0008135,0.006287,0.001614,3.242e-05,0.05933,0.0368,1.164,0.001941,0,0,0.0434
123900000000,124200000000,6238840043,73,3914505044,0.01071,0.003822,0.005249,0.0003538,0.0006618,0.006721,0.001717,3.242e-05,0.07117,0.03296,1.436,0.002221,0,0,0.03516
124200000000,124500000000,6238840043,73,3914505044,0.007591,0.003841,0.005699,0.0005331,0.0008383,0.007965,0.002632,3.242e-05,0.05646,0.04657,1.097,0.001476,0,0,0.003826
124500000000,124800000000,6238840043,73,3914505044,0.008865,0.002689,0.004356,0.0002327,0.0005922,0.00396,0.002026,3.242e-05,0.06128,0.03491,1.394,0.002061,0,0,0.009689
124800000000,125100000000,6238840043,73,3914505044,0.01389,0.004059,0.005104,0.0001459,0.000349,0.005852,0.000761,3.242e-05,0.05304,0.02777,1.481,0.002116,0,0,0.01311
125100000000,125400000000,6238840043,73,3914505044,0.005066,0.002926,0.004143,0.0004187,0.0007677,0.005623,0.001894,3.242e-05,0.1241,0.02835,2.079,0.004762,0,0,0.000453
125400000000,125700000000,6238840043,73,3914505044,0.01028,0.00375,0.004791,0.0001364,0.0005674,0.005295,0.0006418,3.242e-05,0.05292,0.0267,1.427,0.002228,0,0,0.003967
125700000000,126000000000,6238840043,73,3914505044,0.005226,0.003006,0.003975,0.0003061,0.0008202,0.004501,0.001507,3.242e-05,0.0564,0.02963,2.345,0.005969,0,0,0.001682
96000000000,96300000000,6238840043,73,3914505044,0.003632,0.002293,0.004211,0.0002375,0.0006323,0.01344,0.002438,1.335e-05,0.08752,0.05042,1.787,0.003922,0,0,0.0006056
96300000000,96600000000,6238840043,73,3914505044,0.01437,0.003052,0.00428,0.000309,0.000741,0.004616,0.002327,1.335e-05,0.07422,0.07288,1.381,0.002153,0,0,0.0589
96600000000,96900000000,6238840043,73,3914505044,0.01216,0.00272,0.004013,0.0002337,0.0006847,0.003681,0.001188,1.335e-05,0.07019,0.05963,1.424,0.00243,0,0,0.02902
96900000000,97200000000,6238840043,73,3914505044,0.008438,0.003452,0.004868,0.0003681,0.0008783,0.00441,0.001345,1.335e-05,0.1202,0.05731,2.054,0.004314,0,0,0.004501
97200000000,97500000000,6238840043,73,3914505044,0.006279,0.002747,0.00399,0.0002232,0.0007868,0.003349,4.673e-05,1.335e-05,0.05042,0.006714,9.619,0.03357,0,0,0.007355
97500000000,97800000000,6238840043,73,3914505044,0.007797,0.002598,0.003929,0.0002375,0.0007715,0.00333,0.001228,1.335e-05,0.06555,0.04114,3.764,0.01127,0,0,0.005302
97800000000,98100000000,6238840043,73,3914505044,0.02011,0.003613,0.004852,0.0002356,0.0006037,0.004837,0.0005054,1.431e-05,0.06604,0.03235,1.485,0.002112,0,0,0.02087
98100000000,98400000000,6238840043,73,3914505044,0.01559,0.003632,0.004982,0.0001793,0.0005522,0.005882,0.002937,1.431e-05,0.0686,0.04877,1.389,0.001916,0,0,0.0003872
98400000000,98700000000,6238840043,73,3914505044,0.01396,0.004539,0.005745,0.0003233,0.0006361,0.006104,0.00309,1.431e-05,0.06421,0.05804,1.478,0.002824,0,0,0.03467
98700000000,99000000000,6238840043,73,3914505044,0.01068,0.003536,0.004974,0.0002489,0.000761,0.004608,0.0006104,1.431e-05,0.0567,0.02328,1.344,0.002214,0,0,0.005585
99000000000,99300000000,6238840043,73,3914505044,0.01189,0.00333,0.004402,0.0001717,0.000679,0.005379,0.0005054,1.431e-05,0.07434,0.03137,1.369,0.002519,0,0,0.009628
99300000000,99600000000,6238840043,73,3914505044,0.01292,0.002617,0.004181,0.0002289,0.0007381,0.003807,0.0006466,1.526e-05,0.1387,0.03705,1.293,0.001882,0,0,0.01505
99600000000,99900000000,6238840043,73,3914505044,0.01259,0.002712,0.004578,0.0002718,0.0006247,0.004333,0.002068,1.526e-05,0.09973,0.06677,1.293,0.001567,0,0,0.05591
99900000000,100200000000,6238840043,73,3914505044,0.02414,0.005127,0.006462,0.000577,0.0008049,0.007133,0.00115,1.526e-05,0.1034,0.05786,1.097,0.001447,0,0,0.02002
100200000000,100500000000,6238840043,73,3914505044,0.01401,0.00975,0.011,0.0005178,0.0008249,0.01158,0.001015,1.717e-05,0.06824,0.06079,1.203,0.002024,0,0,0.06348
100500000000,100800000000,6238840043,73,3914505044,0.01929,0.006638,0.008362,0.0004549,0.0008564,0.009888,0.001028,1.717e-05,0.1053,0.05084,1.371,0.002174,0,0,0.007317
100800000000,101100000000,6238840043,73,3914505044,0.01758,0.005119,0.006531,0.0003681,0.0008221,0.0117,0.002213,1.621e-05,0.1005,0.08313,1.327,0.002447,0,0,0.0007877
171000000000,171300000000,6238840043,73,3914505044,0.01028,0.002819,0.004967,0.0003157,0.0007811,0.004845,0.001619,5.436e-05,0.06787,0.04645,1.361,0.002452,0,0,0.0006866
171300000000,171600000000,6238840043,73,3914505044,0.01144,0.002911,0.004623,0.0003891,0.0008173,0.005966,0.001534,5.531e-05,0.0636,0.03369,1.386,0.002253,0,0,0.0007601
171600000000,171900000000,6238840043,73,3914505044,0.0217,0.005516,0.007088,0.0009384,0.001453,0.009338,0.001879,5.722e-05,0.1215,0.05194,1.106,0.001391,0,0,0.00972
171900000000,172200000000,6238840043,73,3914505044,0.01476,0.003262,0.004822,0.0003052,0.0007133,0.006096,0.001255,5.531e-05,0.07043,0.05438,1.31,0.00185,0,0,0.03809
172200000000,172500000000,6238840043,73,3914505044,0.013,0.004753,0.00592,0.0003719,0.0006418,0.005547,0.000493,5.531e-05,0.05994,0.02365,1.259,0.001563,0,0,0.02472
172500000000,172800000000,6238840043,73,3914505044,0.00724,0.003006,0.004501,0.0003462,0.0007753,0.005386,0.002094,5.531e-05,0.05054,0.03705,1.453,0.002631,0,0,0.006134
172800000000,173100000000,6238840043,73,3914505044,0.004829,0.002693,0.00386,0.000247,0.0007267,0.002785,4.768e-05,5.627e-05,0.0293,0.004425,3.218,0.009999,0,0,0.002316
173100000000,173400000000,6238840043,73,3914505044,0.01326,0.003284,0.004517,0.0003147,0.0007734,0.004715,0.001938,5.627e-05,0.09534,0.05042,1.464,0.002737,0,0,0.004395
173400000000,173700000000,6238840043,73,3914505044,0.008698,0.003181,0.004578,0.0003338,0.0007305,0.005737,0.003616,5.627e-05,0.06097,0.03595,1.512,0.002692,0,0,0.0005865
173700000000,174000000000,6238840043,73,3914505044,0.009674,0.003468,0.00486,0.0003233,0.0006857,0.007187,0.003307,5.627e-05,0.04889,0.04572,2.35,0.006316,0,0,0.01251
174000000000,174300000000,6238840043,73,3914505044,0.01279,0.003365,0.005081,0.0003452,0.00072,0.005112,0.004227,5.627e-05,0.05621,0.04248,1.455,0.002326,0,0,0.003757
174300000000,174600000000,6238840043,73,3914505044,0.01219,0.003593,0.004807,0.0004368,0.000803,0.004631,0.001701,5.722e-05,0.06085,0.03198,1.917,0.004557,0,0,0.0003204
174600000000,174900000000,6238840043,73,3914505044,0.01987,0.004982,0.006493,0.0005875,0.0008955,0.006081,0.0008993,5.817e-05,0.05408,0.03931,1.225,0.001982,0,0,0.02274
174900000000,175200000000,6238840043,73,3914505044,0.01749,0.004356,0.006973,0.0005264,0.0008965,0.006332,0.001734,5.913e-05,0.08496,0.05353,1.333,0.002492,0,0,0.01187
175200000000,175500000000,6238840043,73,3914505044,0.01675,0.002956,0.004593,0.0002308,0.0007057,0.006195,0.003052,5.817e-05,0.1321,0.04852,1.567,0.002808,0,0,0.02667
175500000000,175800000000,6238840043,73,3914505044,0.0107,0.003674,0.004829,0.0001822,0.0006104,0.005539,0.001104,5.817e-05,0.05975,0.02756,1.287,0.002016,0,0,0.04266
175800000000,176100000000,6238840043,73,3914505044,0.01202,0.00396,0.005348,0.0003281,0.000782,0.005287,0.001562,5.817e-05,0.05249,0.03491,1.522,0.003042,0,0,0.002438
196200000000,196500000000,6238840043,73,3914505044,0.01694,0.003323,0.004486,0.0004387,0.0009308,0.005157,0.001665,7.057e-05,0.08276,0.04791,1.224,0.001827,0,0,0.001188
196500000000,196800000000,6238840043,73,3914505044,0.01088,0.002953,0.004219,0.0002728,0.0006838,0.005028,0.004097,7.153e-05,0.05725,0.05328,1.288,0.001953,0,0,0.0002842
196800000000,197100000000,6238840043,73,3914505044,0.009338,0.003059,0.0047,0.0003109,0.0007067,0.00499,0.004219,7.153e-05,0.05646,0.04266,1.246,0.001642,0,0,0.007996
197100000000,197400000000,6238840043,73,3914505044,0.01384,0.003162,0.004608,0.0006018,0.001074,0.005135,0.002441,7.153e-05,0.05591,0.06262,1.271,0.001874,0,0,0.003155
197400000000,197700000000,6238840043,73,3914505044,0.01154,0.003326,0.004852,0.0004082,0.0008879,0.004829,0.002827,7.153e-05,0.05713,0.05084,1.238,0.002226,0,0,0.0008936
197700000000,198000000000,6238840043,73,3914505044,0.01299,0.003651,0.004738,0.0004473,0.0009089,0.005104,0.001917,7.248e-05,0.06873,0.04156,1.298,0.002046,0,0,0.002354
198000000000,198300000000,6238840043,73,3914505044,0.01141,0.002796,0.004372,0.0003214,0.0007505,0.004173,0.003727,7.248e-05,0.06091,0.06165,1.256,0.001895,0,0,0.006859
198300000000,198600000000,6238840043,73,3914505044,0.0101,0.00293,0.004387,0.0004425,0.0009375,0.003944,0.002724,7.248e-05,0.099,0.05621,1.275,0.001982,0,0,0.002274
198600000000,198900000000,6238840043,73,3914505044,0.01341,0.003479,0.004601,0.0005455,0.0009899,0.005432,0.001892,7.248e-05,0.09143,0.05658,1.14,0.001435,0,0,0.002048
198900000000,199200000000,6238840043,73,3914505044,0.01234,0.003139,0.004684,0.0003395,0.0007544,0.004631,0.002075,7.343e-05,0.05365,0.03949,1.496,0.002762,0,0,0.006401
199200000000,199500000000,6238840043,73,3914505044,0.009003,0.002728,0.004593,0.0004587,0.0008507,0.004875,0.004936,7.343e-05,0.05493,0.05371,1.221,0.002003,0,0,0.01834
199500000000,199800000000,6238840043,73,3914505044,0.01688,0.003803,0.005539,0.0002232,0.0005608,0.00618,0.002125,7.343e-05,0.0592,0.04095,1.276,0.001747,0,0,0.002476
199800000000,200100000000,6238840043,73,3914505044,0.01422,0.003773,0.005257,0.0003614,0.0007668,0.008072,0.002518,7.439e-05,0.05322,0.04309,1.313,0.002033,0,0,0.0003233
200100000000,200400000000,6238840043,73,3914505044,0.01512,0.004448,0.005859,0.0003881,0.0008249,0.00737,0.002079,7.439e-05,0.08813,0.04541,1.195,0.001737,0,0,0.01431
201000000000,201300000000,6238840043,73,2367310220,0.02353,0.003632,0.004852,0.0001907,0.000412,0.009537,0.001442,9.537e-07,0.1321,0.06,1.173,0.001282,0,0,0.0006914
166200000000,166500000000,6238840043,73,3914505044,0.00885,0.003044,0.004372,0.0002928,0.0007372,0.004532,0.001753,5.15e-05,0.0376,0.03705,1.412,0.002636,0,0,0.002583
166500000000,166800000000,6238840043,73,3914505044,0.01167,0.00322,0.004913,0.0003376,0.0008478,0.005058,0.001347,5.15e-05,0.04681,0.04785,1.178,0.001848,0,0,0.003845
166800000000,167100000000,6238840043,73,3914505044,0.006996,0.002285,0.004173,0.0002232,0.0006342,0.003433,0.002251,5.15e-05,0.04559,0.03406,1.53,0.002888,0,0,0.004204
167100000000,167400000000,6238840043,73,3914505044,0.01221,0.004478,0.005356,0.0002394,0.0004101,0.005501,0.001097,5.15e-05,0.0564,0.03674,1.394,0.002038,0,0,0.02618
167400000000,167700000000,6238840043,73,3914505044,0.02023,0.006737,0.00753,0.0004387,0.0007439,0.007523,0.0005026,5.341e-05,0.04883,0.02313,1.408,0.002627,0,0,0.004181
167700000000,168000000000,6238840043,73,3914505044,0.01996,0.009354,0.0105,0.0004578,0.0007591,0.01253,0.0002537,5.531e-05,0.05524,0.01151,1.515,0.003111,0,0,0.0188
168000000000,168300000000,6238840043,73,3914505044,0.02094,0.005882,0.007393,0.0004902,0.0008698,0.01556,0.001408,5.341e-05,0.08569,0.03607,1.273,0.002167,0,0,0.01376
168300000000,168600000000,6238840043,73,3914505044,0.02054,0.002819,0.004257,0.000453,0.0009022,0.003262,9.537e-06,5.245e-05,0.07581,0.0009995,1.237,0.001861,0,0,0.04492
168600000000,168900000000,6238840043,73,3914505044,0.01587,0.002762,0.003868,0.0002861,0.0007372,0.003025,4.768e-06,5.245e-05,0.05396,0.0009995,1.25,0.001962,0,0,0.004997
168900000000,169200000000,6238840043,73,3914505044,0.01422,0.003471,0.004822,0.0002489,0.0006533,0.005234,0.0003433,5.245e-05,0.05359,0.01414,1.182,0.002008,0,0,0.0003977
169200000000,169500000000,6238840043,73,3914505044,0.01334,0.004494,0.005936,0.0004368,0.0007,0.005791,0.001205,5.436e-05,0.08936,0.02271,0.979,0.001779,0,0,0.001411
169500000000,169800000000,6238840043,73,3914505044,0.01669,0.00367,0.005119,0.0003958,0.0008373,0.005737,0.0009661,5.341e-05,0.07739,0.03369,1.264,0.001505,0,0,0.0008516
169800000000,170100000000,6238840043,73,3914505044,0.03314,0.008255,0.009705,0.0006075,0.001007,0.01056,0.0004425,5.627e-05,0.1056,0.015,1.504,0.002654,0,0,0.01691
170100000000,170400000000,6238840043,73,3914505044,0.02078,0.008514,0.01044,0.000596,0.0009241,0.0136,0.002117,5.722e-05,0.07166,0.02914,1.672,0.003514,0,0,0.0318
170400000000,170700000000,6238840043,73,3914505044,0.01703,0.003151,0.004784,0.0003777,0.0008945,0.005295,0.0005245,5.436e-05,0.06244,0.02264,1.249,0.001855,0,0,0.0415
170700000000,171000000000,6238840043,73,3914505044,0.01006,0.00375,0.005585,0.0004816,0.0008831,0.006401,0.002735,5.436e-05,0.08875,0.04266,1.216,0.002005,0,0,0.0004482
101100000000,101400000000,6238840043,73,3914505044,0.01451,0.00338,0.004623,0.0003366,0.0008354,0.004356,0.0001354,1.621e-05,0.08923,0.009003,1.448,0.002411,0,0,0.05737
101400000000,101700000000,6238840043,73,3914505044,0.01289,0.002712,0.004326,0.0002556,0.000721,0.004028,0.001753,1.621e-05,0.08704,0.07239,2.112,0.005404,0,0,0.01222
101700000000,102000000000,6238840043,73,3914505044,0.009277,0.003368,0.005211,0.0002451,0.0007639,0.004196,0.0007677,1.717e-05,0.07642,0.03864,1.916,0.004588,0,0,0.01035
102000000000,102300000000,6238840043,73,3914505044,0.01093,0.002522,0.004372,0.0002909,0.0007286,0.004211,0.00185,1.717e-05,0.08606,0.06787,1.383,0.00202,0,0,0.005356
102300000000,102600000000,6238840043,73,3914505044,0.01944,0.003674,0.005074,0.0003738,0.0008488,0.007111,0.0004759,1.717e-05,0.1134,0.02243,1.296,0.002078,0,0,0.02396
102600000000,102900000000,6238840043,73,3914505044,0.01566,0.004822,0.00663,0.0004177,0.000823,0.007698,0.003101,1.812e-05,0.08862,0.07605,1.328,0.002331,0,0,0.03351
102900000000,103200000000,6238840043,73,3914505044,0.0123,0.002773,0.004639,0.0003586,0.000844,0.004555,0.0008383,1.812e-05,0.08521,0.073,1.13,0.001422,0,0,0.004906
103200000000,103500000000,6238840043,73,3914505044,0.01399,0.003056,0.004822,0.0002823,0.0008183,0.005043,0.0004816,1.812e-05,0.1071,0.03772,1.193,0.00164,0,0,0.04541
103500000000,103800000000,6238840043,73,3914505044,0.01569,0.003368,0.004807,0.0003719,0.0007887,0.006813,0.001953,1.812e-05,0.1096,0.06653,1.328,0.001669,0,0,0.03394
103800000000,104100000000,6238840043,73,3914505044,0.01505,0.004364,0.005585,0.000308,0.0008717,0.006165,0.0003977,2.003e-05,0.07629,0.02679,1.245,0.001911,0,0,0.000288
104100000000,104400000000,6238840043,73,3914505044,0.009933,0.002815,0.00425,0.0002565,0.0007172,0.003704,0.0004292,1.907e-05,0.07825,0.01993,1.478,0.002659,0,0,0.01218
104400000000,104700000000,6238840043,73,3914505044,0.01578,0.002869,0.004257,0.0003147,0.000762,0.003803,0.001083,1.907e-05,0.09534,0.05676,1.407,0.002038,0,0,0.01295
104700000000,105000000000,6238840043,73,3914505044,0.01447,0.002934,0.004166,0.0003614,0.0008478,0.004539,0.001102,1.907e-05,0.1445,0.05737,1.419,0.002119,0,0,0.003719
105000000000,105300000000,6238840043,73,3914505044,0.009995,0.002499,0.00425,0.0002737,0.0007591,0.00359,0.00107,1.907e-05,0.09619,0.03674,1.377,0.00232,0,0,0.008087
105300000000,105600000000,6238840043,73,3914505044,0.00914,0.0028,0.004112,0.0001688,0.0006514,0.003487,0.0003958,2.003e-05,0.07153,0.02042,1.734,0.003433,0,0,0.01262
105600000000,105900000000,6238840043,73,3914505044,0.008987,0.003342,0.004402,0.0001497,0.0006599,0.004723,8.965e-05,2.003e-05,0.06287,0.01486,3.303,0.01057,0,0,0.003159
90900000000,91200000000,6238840043,73,3914505044,0.009857,0.005135,0.006508,0.0002966,0.0006304,0.007889,0.001291,8.583e-06,0.08984,0.04773,2.011,0.005049,0,0,0.009109
91200000000,91500000000,6238840043,73,3914505044,0.01204,0.0028,0.004089,0.0003166,0.0007639,0.004272,0.000947,8.583e-06,0.05603,0.04858,1.613,0.002746,0,0,0.001213
91500000000,91800000000,6238840043,73,3914505044,0.01419,0.003078,0.004448,0.0002346,0.0006666,0.004425,0.001017,8.583e-06,0.05609,0.04614,1.519,0.002406,0,0,0.04413
91800000000,92100000000,6238840043,73,3914505044,0.01529,0.00375,0.005165,0.0001688,0.0003939,0.004379,0.001068,8.583e-06,0.05981,0.05988,1.415,0.001916,0,0,0.0506
92100000000,92400000000,6238840043,73,3914505044,0.0107,0.004211,0.005852,0.0004883,0.0008287,0.006157,0.00141,9.537e-06,0.08521,0.05957,1.68,0.00405,0,0,9.346e-05
92400000000,92700000000,6238840043,73,3914505044,0.005875,0.00243,0.003914,0.0002527,0.0007229,0.004028,0.0007925,9.537e-06,0.09558,0.02814,3.031,0.009399,0,0,0.001213
92700000000,93000000000,6238840043,73,3914505044,0.01807,0.002754,0.004181,0.000308,0.0007219,0.003574,0.00235,9.537e-06,0.07129,0.05078,1.355,0.002045,0,0,0.04266
93000000000,93300000000,6238840043,73,3914505044,0.01234,0.003178,0.004868,0.0002403,0.0007248,0.006187,0.0006571,9.537e-06,0.07202,0.04486,1.441,0.002603,0,0,0.01566
93300000000,93600000000,6238840043,73,3914505044,0.01721,0.003922,0.005478,0.0004721,0.0009146,0.006187,0.001585,1.049e-05,0.1272,0.07495,1.259,0.002048,0,0,0.02219
93600000000,93900000000,6238840043,73,3914505044,0.01265,0.003349,0.005196,0.0003624,0.0008183,0.005463,0.001486,1.049e-05,0.07227,0.05078,1.554,0.003211,0,0,0.0006294
93900000000,94200000000,6238840043,73,3914505044,0.01782,0.003277,0.004715,0.0002623,0.0007772,0.005394,0.001213,1.049e-05,0.09814,0.04834,1.249,0.001908,0,0,0.03577
94200000000,94500000000,6238840043,73,3914505044,0.01503,0.003094,0.004539,0.0002613,0.0006943,0.005821,0.001314,1.144e-05,0.08838,0.04401,1.456,0.002207,0,0,0.03284
94500000000,94800000000,6238840043,73,3914505044,0.01691,0.004509,0.006104,0.0005465,0.0009289,0.006699,0.001652,1.24e-05,0.07886,0.02872,1.342,0.002452,0,0,0.002441
94800000000,95100000000,6238840043,73,3914505044,0.01048,0.003654,0.004936,0.0002909,0.0007086,0.005135,0.001425,1.144e-05,0.07288,0.03571,1.453,0.002268,0,0,0.002026
95100000000,95400000000,6238840043,73,3914505044,0.0112,0.003544,0.005081,0.0002403,0.000617,0.005135,0.002865,1.144e-05,0.06158,0.03998,1.779,0.003422,0,0,0.02167
95400000000,95700000000,6238840043,73,3914505044,0.03424,0.004868,0.006042,0.0002661,0.0007153,0.008286,0.0007658,1.24e-05,0.09778,0.03198,1.782,0.003248,0,0,0.04517
95700000000,96000000000,6238840043,73,3914505044,0.01944,0.01122,0.01241,0.0004292,0.0007133,0.01344,0.001371,1.526e-05,0.06934,0.06543,2.006,0.00408,0,0,0.05585
85800000000,86100000000,6238840043,73,3914505044,0.01364,0.00531,0.006958,0.0002413,0.0005627,0.00621,0.001284,3.815e-06,0.06165,0.04523,3.009,0.008975,0,0,0.007545
86100000000,86400000000,6238840043,73,3914505044,0.01492,0.004196,0.005859,0.0004892,0.0009956,0.006119,0.001892,4.768e-06,0.07361,0.06592,1.66,0.003308,0,0,0.03271
86400000000,86700000000,6238840043,73,3914505044,0.0159,0.004173,0.005653,0.0004587,0.0008993,0.004623,0.0009394,4.768e-06,0.07971,0.06592,1.444,0.002467,0,0,0.009186
86700000000,87000000000,6238840043,73,3914505044,0.01779,0.005661,0.007339,0.0009995,0.001427,0.009598,0.001953,6.676e-06,0.07019,0.07727,1.218,0.00193,0,0,0.04578
87000000000,87300000000,6238840043,73,3914505044,0.01154,0.003834,0.005119,0.0001974,0.0006266,0.005455,0.0005569,4.768e-06,0.0697,0.04407,1.473,0.002637,0,0,0.009048
87300000000,87600000000,6238840043,73,3914505044,0.0184,0.003483,0.004723,0.0003071,0.0006733,0.00518,0.001562,4.768e-06,0.09509,0.05469,1.383,0.002041,0,0,0.01102
87600000000,87900000000,6238840043,73,3914505044,0.02396,0.004852,0.006409,0.0006371,0.0009785,0.007301,0.0003471,6.676e-06,0.07031,0.02243,1.691,0.003561,0,0,0.02719
87900000000,88200000000,6238840043,73,3914505044,0.01715,0.004112,0.005363,0.0002527,0.0005865,0.007095,0.001797,6.676e-06,0.06714,0.04926,1.469,0.002293,0,0,0.0257
88200000000,88500000000,6238840043,73,3914505044,0.008148,0.004028,0.005783,0.0003195,0.0006571,0.006134,0.002602,6.676e-06,0.09619,0.05817,1.479,0.002788,0,0,0.004448
88500000000,88800000000,6238840043,73,3914505044,0.01971,0.005371,0.006538,0.0004168,0.0008545,0.007141,0.0005732,6.676e-06,0.05902,0.03085,1.31,0.001938,0,0,0.003292
88800000000,89100000000,6238840043,73,3914505044,0.02005,0.008774,0.01067,0.002583,0.002888,0.01045,0.002804,1.621e-05,0.09155,0.04907,1.112,0.001383,0,0,0.015
89100000000,89400000000,6238840043,73,3914505044,0.01326,0.002773,0.004471,0.000351,0.0008392,0.00666,0.001612,6.676e-06,0.07495,0.05255,1.516,0.002675,0,0,0.03741
89400000000,89700000000,6238840043,73,3914505044,0.02216,0.003838,0.005051,0.00033,0.0006533,0.005913,0.001072,7.629e-06,0.06677,0.04254,1.454,0.002214,0,0,0.05133
89700000000,90000000000,6238840043,73,3914505044,0.02692,0.007736,0.009354,0.0005112,0.0008287,0.009415,0.001387,9.537e-06,0.06323,0.04541,1.772,0.003618,0,0,0.01492
90000000000,90300000000,6238840043,73,3914505044,0.007828,0.003159,0.004173,0.000246,0.0008011,0.004318,0.000145,7.629e-06,0.05621,0.01357,2.052,0.00475,0,0,0.005875
90300000000,90600000000,6238840043,73,3914505044,0.006699,0.002991,0.003857,0.0002995,0.0008755,0.003193,6.104e-05,8.583e-06,0.04395,0.0075,3.05,0.008873,0,0,0.007271
90600000000,90900000000,6238840043,73,3914505044,0.007454,0.003769,0.004845,0.0001688,0.000618,0.006767,0.0005636,8.583e-06,0.04541,0.03644,1.823,0.004763,0,0,0.005157
146100000000,146400000000,6238840043,73,3914505044,0.01315,0.002743,0.003872,0.0002155,0.0006657,0.002975,3.815e-06,4.196e-05,0.04932,0.0002146,1.256,0.002012,0,0,0.01852
146400000000,146700000000,6238840043,73,3914505044,0.01465,0.002743,0.003872,0.0002155,0.0006666,0.003056,8.583e-06,4.196e-05,0.355,0.001143,1.276,0.002047,0,0,0.02188
146700000000,147000000000,6238840043,73,3914505044,0.01895,0.002689,0.003868,0.0002155,0.0006666,0.002968,8.583e-06,4.196e-05,0.05841,0.001572,1.243,0.001889,0,0,0.002571
147000000000,147300000000,6238840043,73,3914505044,0.01868,0.002716,0.003868,0.0002213,0.0006742,0.002972,2.766e-05,4.196e-05,0.05414,0.006355,1.239,0.00193,0,0,0.03992
147300000000,147600000000,6238840043,73,3914505044,0.01546,0.002785,0.003872,0.0002289,0.0006838,0.003002,1.621e-05,4.196e-05,0.05701,0.003929,1.252,0.001996,0,0,0.004608
147600000000,147900000000,6238840043,73,3914505044,0.01529,0.002796,0.004219,0.000227,0.0006933,0.003551,0.0008707,4.196e-05,0.05524,0.0437,1.269,0.002069,0,0,0.02472
148500000000,148800000000,6238840043,73,3914505044,0.01111,0.003498,0.005249,0.0002089,0.0005589,0.004715,0.002457,4.292e-05,0.09143,0.05383,1.311,0.001765,0,0,0.04456
148800000000,149100000000,6238840043,73,3914505044,0.01016,0.003181,0.004807,0.0003042,0.0006905,0.005547,0.002357,4.292e-05,0.06995,0.03894,1.546,0.002992,0,0,0.0002794
149100000000,149400000000,6238840043,73,3914505044,0.01166,0.003235,0.004448,0.0001955,0.0006418,0.005531,0.001612,4.292e-05,0.05676,0.03473,1.291,0.002148,0,0,0.02939
149400000000,149700000000,6238840043,73,3914505044,0.007225,0.003056,0.004578,0.0003653,0.0005322,0.006401,0.0004015,4.387e-05,0.0506,0.01999,1.328,0.002554,0,0,0.01837
149700000000,150000000000,6238840043,73,3914505044,0.004997,0.002235,0.00383,0.0003595,0.0007477,0.004128,0.001987,4.292e-05,0.04175,0.026,1.564,0.003108,0,0,0.002384
150000000000,150300000000,6238840043,73,3914505044,0.00576,0.002708,0.004158,0.0002861,0.0007114,0.004089,0.001394,4.387e-05,0.03412,0.02808,1.563,0.002779,0,0,0.002983
150300000000,150600000000,6238840043,73,3914505044,0.005844,0.00235,0.003937,0.0002766,0.0006962,0.003445,0.003036,4.387e-05,0.05133,0.04285,1.31,0.00218,0,0,0.01421
150600000000,150900000000,6238840043,73,3914505044,0.005676,0.002811,0.004028,0.0002327,0.0007563,0.003361,0.0005083,4.387e-05,0.04535,0.03564,2.196,0.005681,0,0,0.004044
150900000000,151200000000,6238840043,73,3914505044,0.01192,0.003117,0.004601,0.0002089,0.0006723,0.005608,0.001478,4.387e-05,0.04779,0.03351,1.403,0.002644,0,0,0.005348
191100000000,191400000000,6238840043,73,3914505044,0.0106,0.003189,0.004608,0.0005493,0.001015,0.005569,0.001183,6.771e-05,0.07434,0.04535,1.13,0.001648,0,0,0.002098
191400000000,191700000000,6238840043,73,3914505044,0.01663,0.005104,0.007072,0.0002623,0.0006027,0.006866,0.001396,6.771e-05,0.05225,0.03955,1.35,0.001698,0,0,0.009338
191700000000,192000000000,6238840043,73,3914505044,0.01373,0.003857,0.005692,0.0003605,0.0007591,0.005173,0.002567,6.771e-05,0.09387,0.04205,1.352,0.001776,0,0,0.000947
192000000000,192300000000,6238840043,73,3914505044,0.01202,0.003155,0.004875,0.0003252,0.0007372,0.006134,0.004128,6.771e-05,0.07092,0.03247,1.269,0.001981,0,0,0.01791
192300000000,192600000000,6238840043,73,3914505044,0.01202,0.003094,0.003983,0.0001631,0.0005894,0.003777,7.629e-05,6.866e-05,0.04401,0.01321,1.407,0.001938,0,0,0.04401
192600000000,192900000000,6238840043,73,3914505044,0.01224,0.002808,0.003983,0.0001497,0.0005617,0.003471,7.343e-05,6.866e-05,0.05408,0.008926,1.427,0.001933,0,0,0.007339
192900000000,193200000000,6238840043,73,3914505044,0.01355,0.002785,0.004074,0.0001793,0.0005922,0.005043,0.0003633,6.866e-05,0.06848,0.01721,1.527,0.002486,0,0,0.01483
193200000000,193500000000,6238840043,73,3914505044,0.01593,0.004654,0.00621,0.0004349,0.0007629,0.00769,0.003685,6.866e-05,0.0802,0.04187,1.45,0.002791,0,0,0.03192
193500000000,193800000000,6238840043,73,3914505044,0.01575,0.003147,0.005226,0.000392,0.0008574,0.006325,0.003464,6.866e-05,0.7324,0.05408,1.297,0.002003,0,0,0.05249
193800000000,194100000000,6238840043,73,3914505044,0.01305,0.002758,0.004761,0.0004244,0.0008545,0.00412,0.003551,6.866e-05,0.08508,0.04651,1.481,0.002292,0,0,0.04248
194100000000,194400000000,6238840043,73,3914505044,0.01273,0.003498,0.00489,0.0002813,0.000762,0.004837,0.002712,6.962e-05,0.06091,0.0592,1.314,0.002263,0,0,0.06024
194400000000,194700000000,6238840043,73,3914505044,0.00943,0.002338,0.004135,0.000329,0.0007372,0.003254,0.0009136,6.962e-05,0.05701,0.03143,1.499,0.002304,0,0,0.01155
194700000000,195000000000,6238840043,73,3914505044,0.01138,0.003094,0.005241,0.0003653,0.0008097,0.005013,0.004082,6.962e-05,0.09607,0.0553,1.287,0.001966,0,0,0.00795
195000000000,195300000000,6238840043,73,3914505044,0.01614,0.004456,0.006149,0.000371,0.0007315,0.008423,0.005142,7.057e-05,0.1289,0.06714,1.398,0.00211,0,0,0.01599
195300000000,195600000000,6238840043,73,3914505044,0.0137,0.004379,0.005745,0.0004511,0.0008421,0.006126,0.001898,7.057e-05,0.06702,0.04993,1.223,0.001807,0,0,0.02499
195600000000,195900000000,6238840043,73,3914505044,0.01416,0.00325,0.004982,0.0003014,0.0006676,0.005943,0.003441,7.057e-05,0.0946,0.04834,1.402,0.00231,0,0,0.0008049
195900000000,196200000000,6238840043,73,3914505044,0.009491,0.003014,0.004395,0.0004377,0.0008955,0.004036,0.001953,7.057e-05,0.07898,0.04742,1.277,0.002084,0,0,0.0003557
206100000000,206400000000,6238840043,73,2367310220,0.01944,0.002991,0.00425,0.0001888,0.0003462,0.005371,0.0009756,8.583e-06,0.1582,0.02521,1.132,0.00149,0,0,0.05603
206400000000,206700000000,6238840043,73,2367310220,0.01791,0.003288,0.004875,0.0003281,0.0005741,0.006218,0.002285,8.583e-06,0.1171,0.05371,1.167,0.00129,0,0,0.004364
206700000000,207000000000,6238840043,73,2367310220,0.01624,0.00285,0.00415,0.0003376,0.000618,0.004372,0.0007858,8.583e-06,0.1097,0.05951,1.145,0.001359,0,0,0.06641
207000000000,207300000000,6238840043,73,2367310220,0.01329,0.00251,0.004089,0.000268,0.000596,0.004539,0.00161,9.537e-06,0.1321,0.04712,1.324,0.001616,0,0,0.01364
207300000000,207600000000,6238840043,73,2367310220,0.02179,0.003738,0.005188,0.0002918,0.0003967,0.005463,0.0008478,9.537e-06,0.09387,0.04755,1.292,0.001711,0,0,0.0152
207600000000,207900000000,6238840043,73,2367310220,0.01758,0.003025,0.00428,0.0001745,0.00033,0.004639,0.001007,9.537e-06,0.1017,0.03705,1.304,0.001622,0,0,0.0495
207900000000,208200000000,6238840043,73,2367310220,0.02271,0.003239,0.004509,0.0003386,0.0004988,0.006271,0.0009861,1.049e-05,0.1082,0.04602,1.339,0.001867,0,0,0.0007868
208200000000,208500000000,6238840043,73,2367310220,0.02173,0.00354,0.005203,0.0002422,0.0003948,0.006531,0.002243,1.049e-05,0.1267,0.0545,1.229,0.001554,0,0,0.02866
208500000000,208800000000,6238840043,73,2367310220,0.02066,0.002903,0.004074,0.0002127,0.0004416,0.005707,0.0006762,1.144e-05,0.0719,0.02472,1.102,0.001213,0,0,0.0006104
208800000000,209100000000,6238840043,73,2367310220,0.03333,0.004562,0.005554,0.0004597,0.0005655,0.01154,0.001179,1.24e-05,0.09351,0.03186,1.123,0.001282,0,0,0.0008373
209100000000,209400000000,6238840043,73,2367310220,0.02716,0.003296,0.004486,0.000206,0.0003471,0.006653,0.001476,1.24e-05,0.1147,0.04828,1.177,0.001499,0,0,0.06482
209400000000,209700000000,6238840043,73,2367310220,0.02222,0.004044,0.005386,0.001085,0.00131,0.01025,0.002113,1.431e-05,0.09814,0.03284,1.102,0.001139,0,0,0.04517
209700000000,210000000000,6238840043,73,2367310220,0.02057,0.003597,0.00486,0.0001955,0.0003166,0.006775,0.001499,1.335e-05,0.09827,0.03357,1.334,0.002021,0,0,0.0004568
210000000000,210300000000,6238840043,73,2367310220,0.02127,0.00425,0.00528,0.0002279,0.0004234,0.006218,0.0006723,1.335e-05,0.1178,0.02356,1.551,0.002811,0,0,0.006783
210300000000,210600000000,6238840043,73,2367310220,0.02368,0.005486,0.00647,0.0001326,0.0002785,0.008118,0.0004082,1.431e-05,0.07703,0.02106,1.255,0.001809,0,0,0.000639
210600000000,210900000000,6238840043,73,2367310220,0.009613,0.002445,0.003819,0.0002909,0.0005035,0.003975,0.001053,1.335e-05,0.09546,0.04749,1.161,0.001486,0,0,0.00206
210900000000,211200000000,6238840043,73,2367310220,0.02759,0.003674,0.004303,0.0001078,0.0001917,0.005516,0.0004473,1.431e-05,0.08557,0.01678,1.238,0.001607,0,0,0.0006371
211200000000,211500000000,6238840043,73,2367310220,0.02463,0.003407,0.004059,0.0001211,0.0003157,0.005249,0.0001669,1.431e-05,0.06073,0.013,1.278,0.001796,0,0,0.00853
211500000000,211800000000,6238840043,73,2367310220,0.01807,0.002678,0.003883,0.0001307,0.0003233,0.004349,0.001022,1.431e-05,0.1052,0.02606,1.276,0.001712,0,0,0.008026
211800000000,212100000000,6238840043,73,2367310220,0.03711,0.00592,0.007355,0.0005112,0.0006933,0.0107,0.0005817,1.621e-05,0.1289,0.02408,1.144,0.001321,0,0,0.03601
212100000000,212400000000,6238840043,73,2367310220,0.01228,0.002972,0.004158,0.0002832,0.0005274,0.006035,0.001316,1.431e-05,0.1078,0.05072,1.073,0.001486,0,0,0.03619
212400000000,212700000000,6238840043,73,2367310220,0.01773,0.002853,0.004196,0.000226,0.0004454,0.004517,0.001068,1.526e-05,0.1176,0.04767,1.258,0.00145,0,0,0.008698
212700000000,213000000000,6238840043,73,2367310220,0.01657,0.00351,0.004868,0.0002279,0.0004578,0.005325,0.001337,1.526e-05,0.09143,0.05927,1.265,0.001683,0,0,0.0003147
213000000000,213300000000,6238840043,73,2367310220,0.02164,0.004829,0.005943,0.0003052,0.0005522,0.007477,0.001469,1.621e-05,0.1328,0.05652,1.164,0.001598,0,0,0.0002947
213300000000,213600000000,6238840043,73,2367310220,0.01572,0.002682,0.003853,7.534e-05,0.0003691,0.00457,0.0004511,1.621e-05,0.1414,0.01816,1.094,0.001334,0,0,0.001148
213600000000,213900000000,6238840043,73,2367310220,0.04022,0.006523,0.007782,0.0007687,0.0009842,0.01184,0.0006809,1.812e-05,0.1241,0.02435,1.206,0.001813,0,0,0.0556
213900000000,214200000000,6238840043,73,2367310220,0.01822,0.00428,0.005646,0.0002222,0.0004454,0.01204,0.0009012,1.812e-05,0.1179,0.05878,1.16,0.001811,0,0,0.0155
214200000000,214500000000,6238840043,73,2367310220,0.04071,0.006386,0.007172,0.000577,0.0006762,0.01088,0.001083,1.907e-05,0.1207,0.04169,1.093,0.001298,0,0,0.06836
214500000000,214800000000,6238840043,73,2367310220,0.04034,0.008865,0.01054,0.001089,0.001284,0.015,0.001348,2.193e-05,0.07544,0.04071,1.204,0.001674,0,0,0.04333
214800000000,215100000000,6238840043,73,2367310220,0.0152,0.002827,0.004089,0.000186,0.0004015,0.004845,0.0006866,1.812e-05,0.1301,0.03485,1.175,0.001459,0,0,0.003132
215100000000,215400000000,6238840043,73,2367310220,0.02393,0.003235,0.004631,0.0002117,0.0003805,0.00795,0.0006962,1.907e-05,0.1519,0.03137,1.228,0.001632,0,0,0.0007839
215400000000,215700000000,6238840043,73,2367310220,0.0159,0.003029,0.004417,0.0002089,0.0003939,0.007324,0.001499,1.907e-05,0.09277,0.05774,1.229,0.001767,0,0,0.0004091
215700000000,216000000000,6238840043,73,2367310220,0.0256,0.004005,0.00502,0.000103,0.0002909,0.005219,0.0006638,1.907e-05,0.0636,0.03766,1.223,0.001626,0,0,0.0459
216000000000,216300000000,6238840043,73,2367310220,0.02649,0.003361,0.004654,9.918e-05,0.0002661,0.004044,0.0001755,1.907e-05,0.07056,0.01057,1.262,0.001573,0,0,0.006851
141000000000,141300000000,6238840043,73,3914505044,0.008224,0.002728,0.004562,0.0002537,0.0007029,0.004532,0.002106,4.005e-05,0.06152,0.04114,1.171,0.001643,0,0,0.006462
141300000000,141600000000,6238840043,73,3914505044,0.00856,0.003544,0.005203,0.0003681,0.0007315,0.006302,0.002342,4.005e-05,0.04724,0.04156,1.314,0.002071,0,0,0.01761
141600000000,141900000000,6238840043,73,3914505044,0.006706,0.002773,0.004471,0.0002069,0.0006409,0.005043,0.001381,4.005e-05,0.04187,0.03735,1.531,0.002661,0,0,0.000493
141900000000,142200000000,6238840043,73,3914505044,0.005943,0.003929,0.005394,0.000227,0.0006847,0.005341,0.001108,4.005e-05,0.04645,0.02643,1.284,0.00241,0,0,0.006531
142200000000,142500000000,6238840043,73,3914505044,0.008636,0.00301,0.004265,0.0001688,0.0006695,0.003712,0.0004282,4.005e-05,0.04358,0.02322,1.714,0.003574,0,0,0.0162
142500000000,142800000000,6238840043,73,3914505044,0.006828,0.002598,0.004181,0.0002632,0.0007076,0.003643,0.001434,4.005e-05,0.04248,0.03064,1.729,0.003746,0,0,0.003834
142800000000,143100000000,6238840043,73,3914505044,0.006981,0.002922,0.004425,0.0001802,0.0006075,0.004257,0.0009012,4.101e-05,0.04486,0.02249,1.363,0.002368,0,0,0.00072
143100000000,143400000000,6238840043,73,3914505044,0.00827,0.003967,0.004807,0.0002241,0.0005484,0.005547,0.0008497,4.101e-05,0.04358,0.02814,1.211,0.001894,0,0,0.004601
143400000000,143700000000,6238840043,73,3914505044,0.00676,0.002777,0.004166,0.000391,0.0008144,0.004959,0.001593,4.101e-05,0.03699,0.0162,1.38,0.00257,0,0,0.01479
143700000000,144000000000,6238840043,73,3914505044,0.006729,0.002365,0.004448,0.000186,0.0006504,0.003311,0.001108,4.101e-05,0.05072,0.02551,1.455,0.002636,0,0,0.01225
144000000000,144300000000,6238840043,73,3914505044,0.007568,0.002762,0.00425,0.0002956,0.0007877,0.003574,0.0008125,4.101e-05,0.08728,0.0242,1.526,0.00271,0,0,0.001867
144300000000,144600000000,6238840043,73,3914505044,0.009628,0.002613,0.004356,0.0002785,0.0007219,0.003525,0.001181,4.101e-05,0.0481,0.02734,1.583,0.00248,0,0,0.005066
144600000000,144900000000,6238840043,73,3914505044,0.01047,0.002697,0.004097,0.0002165,0.000679,0.003922,0.0002947,4.101e-05,0.05518,0.01993,1.33,0.002157,0,0,0.001862
144900000000,145200000000,6238840043,73,3914505044,0.0128,0.002495,0.003872,0.0002136,0.0006618,0.002628,3.052e-05,4.101e-05,0.04382,0.001999,1.224,0.001944,0,0,0.01218
145200000000,145500000000,6238840043,73,3914505044,0.01219,0.002533,0.003872,0.0002136,0.0006628,0.002823,2.098e-05,4.196e-05,0.04187,0.003216,1.232,0.00195,0,0,0.0195
145500000000,145800000000,6238840043,73,3914505044,0.0137,0.002563,0.003872,0.0002155,0.0006647,0.002712,1.621e-05,4.196e-05,0.04926,0.003357,1.237,0.001908,0,0,0.006783
145800000000,146100000000,6238840043,73,3914505044,0.01353,0.002724,0.003872,0.0002155,0.0006657,0.002911,3.815e-06,4.196e-05,0.05267,0.0004282,1.249,0.00187,0,0,0.0224
105900000000,106200000000,6238840043,73,3914505044,0.01682,0.005295,0.006973,0.0007086,0.001095,0.009811,0.002525,2.098e-05,0.1362,0.07056,1.607,0.002677,0,0,0.01283
106200000000,106500000000,6238840043,73,3914505044,0.01614,0.004021,0.005142,0.0002871,0.0006685,0.009384,0.002838,2.003e-05,0.137,0.07031,1.447,0.002172,0,0,0.06604
106500000000,106800000000,6238840043,73,3914505044,0.01947,0.004311,0.0056,0.0004892,0.000885,0.006989,0.001741,2.098e-05,0.08972,0.07678,1.16,0.001472,0,0,0.007446
106800000000,107100000000,6238840043,73,3914505044,0.006996,0.004005,0.005775,0.0002651,0.0007353,0.004471,5.913e-05,2.098e-05,0.04218,0.01244,5.558,0.01716,0,0,0.007576
107100000000,107400000000,6238840043,73,3914505044,0.007629,0.003876,0.005623,0.0002756,0.0007401,0.004242,0.0006962,2.098e-05,0.05841,0.04462,6.641,0.02124,0,0,0.003937
107400000000,107700000000,6238840043,73,3914505044,0.01532,0.003269,0.004837,0.0003977,0.0008869,0.006729,0.002415,2.098e-05,0.08276,0.0708,1.369,0.002405,0,0,0.03906
107700000000,108000000000,6238840043,73,3914505044,0.01184,0.003498,0.005135,0.0001812,0.0006275,0.00589,0.001965,2.098e-05,0.09351,0.05902,1.541,0.002401,0,0,0.04181
108000000000,108300000000,6238840043,73,3914505044,0.01479,0.003357,0.00502,0.0003452,0.0007448,0.007668,0.002842,2.193e-05,0.07727,0.08289,1.143,0.001481,0,0,0.0006227
108300000000,108600000000,6238840043,73,3914505044,0.01605,0.003262,0.004784,0.0002947,0.000761,0.004784,0.001245,2.193e-05,0.1068,0.0462,1.471,0.002236,0,0,0.009598
108600000000,108900000000,6238840043,73,3914505044,0.009857,0.002678,0.00412,0.0003233,0.0008307,0.003319,0.0003319,2.193e-05,0.1031,0.01743,1.801,0.003381,0,0,0.0354
108900000000,109200000000,6238840043,73,3914505044,0.01511,0.003567,0.004852,0.0002556,0.0007086,0.005066,0.002136,2.193e-05,0.09937,0.05804,1.354,0.001999,0,0,0.04419
109200000000,109500000000,6238840043,73,3914505044,0.02106,0.003494,0.004814,0.0003242,0.0008402,0.005432,0.00173,2.289e-05,0.09912,0.0611,1.378,0.002324,0,0,0.008057
109500000000,109800000000,6238840043,73,3914505044,0.01898,0.006294,0.007408,0.00037,0.0008183,0.007095,0.0003157,2.48e-05,0.0946,0.03595,2.355,0.005971,0,0,0.009674
109800000000,110100000000,6238840043,73,3914505044,0.008911,0.006989,0.007744,0.000495,0.0008802,0.007156,8.011e-05,2.575e-05,0.09509,0.008636,3.657,0.01094,0,0,0.006691
110100000000,110400000000,6238840043,73,3914505044,0.01666,0.00769,0.008713,0.0002956,0.0006342,0.009399,0.0002346,2.575e-05,0.08484,0.02866,2.514,0.006424,0,0,0.01657
110400000000,110700000000,6238840043,73,3914505044,0.01445,0.006248,0.007431,0.0009136,0.001352,0.01341,0.003265,2.575e-05,0.07776,0.07898,1.476,0.002721,0,0,0.03418
110700000000,111000000000,6238840043,73,3914505044,0.009628,0.002533,0.004433,0.0002441,0.0007076,0.004616,0.002048,2.384e-05,0.07349,0.05646,1.521,0.002767,0,0,0.001415
161100000000,161400000000,6238840043,73,3914505044,0.01009,0.002781,0.004242,0.0003033,0.0007925,0.004097,0.001482,4.959e-05,0.11,0.04291,1.432,0.002361,0,0,0.005302
161400000000,161700000000,6238840043,73,3914505044,0.01346,0.004745,0.006065,0.000267,0.0005445,0.007187,0.001253,4.959e-05,0.05298,0.04028,1.401,0.002012,0,0,0.0217
161700000000,162000000000,6238840043,73,3914505044,0.01682,0.005928,0.0075,0.0002708,0.000391,0.006912,5.15e-05,4.959e-05,0.0517,0.005569,1.327,0.001668,0,0,0.01273
162000000000,162300000000,6238840043,73,3914505044,0.01291,0.005104,0.006676,0.0002213,0.0004559,0.006493,0.001808,4.959e-05,0.05383,0.03247,1.376,0.001884,0,0,0.006599
162300000000,162600000000,6238840043,73,3914505044,0.01617,0.003399,0.004372,0.000104,0.0004969,0.003937,0.0003967,4.959e-05,0.05157,0.03522,1.284,0.001781,0,0,0.02975
162600000000,162900000000,6238840043,73,3914505044,0.02112,0.005966,0.007729,0.0019,0.002213,0.00721,0.001022,5.531e-05,0.05457,0.02878,0.9387,0.0009033,0,0,0.03778
162900000000,163200000000,6238840043,73,3914505044,0.01883,0.007347,0.009644,0.002068,0.002373,0.007812,0.0009327,6.771e-05,0.05768,0.02814,0.9351,0.0009443,0,0,0.01758
163200000000,163500000000,6238840043,73,3914505044,0.01767,0.007629,0.009521,0.002155,0.002464,0.008179,0.00107,7.915e-05,0.06091,0.03455,0.9236,0.0008141,0,0,0.007492
163500000000,163800000000,6238840043,73,3914505044,0.006943,0.003487,0.005013,0.0004387,0.0008602,0.007355,0.001915,5.15e-05,0.03918,0.05859,1.41,0.002502,0,0,0.0002985
163800000000,164100000000,6238840043,73,3914505044,0.01715,0.005501,0.006744,0.0003872,0.0008802,0.008789,0.001167,5.054e-05,0.05377,0.03784,1.551,0.003329,0,0,0.007774
164100000000,164400000000,6238840043,73,3914505044,0.008835,0.003284,0.004997,0.0005245,0.0009441,0.008835,0.002167,5.054e-05,0.04376,0.04034,1.597,0.003193,0,0,0.006271
164400000000,164700000000,6238840043,73,3914505044,0.009476,0.003387,0.005066,0.0003576,0.0006876,0.004959,0.002789,5.054e-05,0.04987,0.05042,1.339,0.002302,0,0,0.01064
164700000000,165000000000,6238840043,73,3914505044,0.008377,0.003075,0.004684,0.0002041,0.0005713,0.004883,0.001863,5.054e-05,0.05017,0.03571,1.596,0.002969,0,0,0.002453
165000000000,165300000000,6238840043,73,3914505044,0.01382,0.00489,0.006004,0.0002127,0.0004826,0.006561,0.0004225,5.054e-05,0.05676,0.02271,1.462,0.002579,0,0,0.01373
165300000000,165600000000,6238840043,73,3914505044,0.01648,0.005363,0.006927,0.000701,0.001091,0.006737,0.001186,5.15e-05,0.04932,0.02594,1.394,0.002548,0,0,0.0343
165600000000,165900000000,6238840043,73,3914505044,0.0119,0.003418,0.004616,0.000473,0.0009031,0.005867,0.00149,5.15e-05,0.04675,0.04169,1.344,0.002421,0,0,0.006439
165900000000,166200000000,6238840043,73,3914505044,0.007446,0.002808,0.004135,0.0004282,0.0007458,0.004944,0.001932,5.15e-05,0.05011,0.0354,1.11,0.001542,0,0,0.001183
136200000000,136500000000,6238840043,73,3914505044,0.01495,0.004463,0.005775,0.0001392,0.0004416,0.005333,0.0007563,3.719e-05,0.0517,0.02264,1.343,0.001739,0,0,0.01547
136500000000,136800000000,6238840043,73,3914505044,0.01709,0.003345,0.004486,0.0002098,0.0005941,0.003872,0.0004635,3.719e-05,0.05402,0.03162,1.326,0.001819,0,0,0.01071
136800000000,137100000000,6238840043,73,3914505044,0.008865,0.003246,0.004837,0.0002289,0.0005083,0.004051,0.002792,3.719e-05,0.05157,0.03485,1.345,0.002108,0,0,0.004524
137100000000,137400000000,6238840043,73,3914505044,0.006119,0.002247,0.00415,0.000186,0.0006189,0.003098,0.002453,3.815e-05,0.04553,0.03748,1.377,0.002283,0,0,0.002213
137400000000,137700000000,6238840043,73,3914505044,0.009689,0.002953,0.004547,0.0002861,0.0007753,0.004379,0.001587,3.815e-05,0.06616,0.03412,1.541,0.002848,0,0,0.0003729
137700000000,138000000000,6238840043,73,3914505044,0.01128,0.003799,0.005272,0.0002747,0.0006742,0.005859,0.002422,3.815e-05,0.04797,0.03772,1.468,0.002684,0,0,0.007858
138000000000,138300000000,6238840043,73,3914505044,0.006165,0.003361,0.004776,0.0003519,0.0007982,0.005562,0.001772,3.815e-05,0.03674,0.04999,1.663,0.003712,0,0,0.006004
138300000000,138600000000,6238840043,73,3914505044,0.007904,0.002728,0.004059,0.0003138,0.0007944,0.003609,0.001255,3.815e-05,0.03992,0.02536,1.567,0.003062,0,0,0.0006237
138600000000,138900000000,6238840043,73,3914505044,0.01056,0.002758,0.004196,0.000267,0.0007524,0.003696,0.001497,3.91e-05,0.04657,0.04248,1.499,0.002606,0,0,0.007782
138900000000,139200000000,6238840043,73,3914505044,0.008987,0.002724,0.005142,0.000309,0.0007229,0.005905,0.002705,3.91e-05,0.05432,0.04462,1.218,0.002026,0,0,0.0199
139200000000,139500000000,6238840043,73,3914505044,0.01237,0.002903,0.004433,0.0002766,0.0007877,0.004578,0.0007477,3.91e-05,0.05902,0.03784,1.124,0.001411,0,0,0.03656
139500000000,139800000000,6238840043,73,3914505044,0.004951,0.002476,0.00412,0.0001755,0.0006762,0.00309,0.0005989,3.91e-05,0.03888,0.01837,1.448,0.002798,0,0,0.001554
139800000000,140100000000,6238840043,73,3914505044,0.005089,0.002609,0.004059,0.0002651,0.0008001,0.003395,0.00107,3.91e-05,0.04169,0.02509,1.799,0.004062,0,0,0.001389
140100000000,140400000000,6238840043,73,3914505044,0.006111,0.002415,0.004089,0.0002918,0.0007029,0.003448,0.002083,3.91e-05,0.04657,0.03302,1.415,0.002376,0,0,0.01788
140400000000,140700000000,6238840043,73,3914505044,0.009766,0.003216,0.004478,0.0002766,0.0006504,0.003895,0.0009699,3.91e-05,0.04059,0.02713,1.34,0.002006,0,0,0.008896
140700000000,141000000000,6238840043,73,3914505044,0.009979,0.004128,0.005211,0.0002661,0.0006065,0.005554,0.001194,4.005e-05,0.03851,0.03085,1.213,0.002106,0,0,0.005264
126000000000,126300000000,6238840043,73,3914505044,0.01208,0.003494,0.00457,0.0002451,0.0006208,0.005005,0.0007706,3.242e-05,0.04449,0.03149,1.44,0.002249,0,0,0.002785
126300000000,126600000000,6238840043,73,3914505044,0.01515,0.004196,0.005661,0.0002537,0.0003548,0.004974,0.0007172,3.242e-05,0.05627,0.03815,1.407,0.001946,0,0,0.006104
126600000000,126900000000,6238840043,73,3914505044,0.01367,0.004181,0.00573,7.725e-05,0.0001898,0.004707,0.0001678,3.242e-05,0.04474,0.01678,1.402,0.001937,0,0,0.0206
126900000000,127200000000,6238840043,73,3914505044,0.01395,0.004349,0.005943,0.0001583,0.0002737,0.005325,0.001104,3.242e-05,0.05341,0.04285,1.406,0.001931,0,0,0.04651
127200000000,127500000000,6238840043,73,3914505044,0.0163,0.004044,0.005623,0.000145,0.0002499,0.004944,0.0003395,3.242e-05,0.05017,0.01578,1.378,0.001853,0,0,0.01532
127500000000,127800000000,6238840043,73,3914505044,0.01385,0.004799,0.005844,0.0003176,0.0005722,0.005882,0.0005856,3.338e-05,0.0495,0.03815,1.367,0.002052,0,0,0.0006685
127800000000,128100000000,6238840043,73,3914505044,0.01216,0.005226,0.006683,0.0002728,0.0005245,0.006577,0.001417,3.338e-05,0.05475,0.03674,1.67,0.003156,0,0,0.007751
128100000000,128400000000,6238840043,73,3914505044,0.01071,0.003544,0.005333,0.0002728,0.000699,0.005791,0.001081,3.338e-05,0.05255,0.03876,1.313,0.001985,0,0,0.01971
128400000000,128700000000,6238840043,73,3914505044,0.009506,0.004768,0.006516,0.0002403,0.0005989,0.007454,0.002842,3.338e-05,0.05695,0.05035,1.576,0.003202,0,0,0.00444
128700000000,129000000000,6238840043,73,3914505044,0.01715,0.00322,0.004204,0.0002527,0.0006914,0.003735,8.297e-05,3.338e-05,0.06061,0.006783,1.307,0.001695,0,0,0.01678
129000000000,129300000000,6238840043,73,3914505044,0.0162,0.003151,0.003895,0.0001488,0.0005388,0.003685,0.001276,3.338e-05,0.06067,0.04858,1.403,0.001882,0,0,0.003433
129300000000,129600000000,6238840043,73,3914505044,0.006668,0.003071,0.004326,0.0002203,0.0007362,0.004501,0.000947,3.338e-05,0.06348,0.03284,2.12,0.005023,0,0,0.00222
129600000000,129900000000,6238840043,73,3914505044,0.00502,0.003159,0.00412,0.0001183,0.0006828,0.003517,4.578e-05,3.338e-05,0.04395,0.004646,5.272,0.01771,0,0,0.004265
129900000000,130200000000,6238840043,73,3914505044,0.009399,0.003067,0.00444,0.0002403,0.0007038,0.007164,0.00227,3.433e-05,0.08203,0.06299,1.48,0.002917,0,0,0.01779
130200000000,130500000000,6238840043,73,3914505044,0.007843,0.002769,0.004326,0.0002575,0.0007362,0.003952,0.001663,3.433e-05,0.04114,0.04114,1.44,0.002598,0,0,0.000248
130500000000,130800000000,6238840043,73,3914505044,0.003262,0.002178,0.003853,0.0002079,0.0006914,0.002476,0.0007687,3.433e-05,0.03271,0.02271,1.509,0.002864,0,0,0.001089
130800000000,131100000000,6238840043,73,3914505044,0.006897,0.002377,0.00396,0.0001726,0.0006523,0.003304,0.0007677,3.433e-05,0.05646,0.03186,1.291,0.002076,0,0,0.003086
181200000000,181500000000,6238840043,73,3914505044,0.01614,0.005142,0.006699,0.0008259,0.001106,0.008118,0.001463,6.199e-05,0.05463,0.04108,1.232,0.001682,0,0,0.02374
181500000000,181800000000,6238840043,73,3914505044,0.01169,0.004692,0.006218,0.0006952,0.00112,0.007698,0.001703,6.294e-05,0.06091,0.06433,1.279,0.00204,0,0,0.0002117
181800000000,182100000000,6238840043,73,3914505044,0.008713,0.002438,0.004463,0.0002766,0.0006609,0.005074,0.003799,6.104e-05,0.06482,0.04681,1.361,0.002272,0,0,0.01205
182100000000,182400000000,6238840043,73,3914505044,0.01009,0.00317,0.004791,0.0002375,0.0006437,0.004211,0.002037,6.104e-05,0.07556,0.03241,1.398,0.002546,0,0,0.01843
182400000000,182700000000,6238840043,73,3914505044,0.01196,0.003586,0.004639,0.0004225,0.000844,0.005554,0.001499,6.199e-05,0.06201,0.04749,1.464,0.002878,0,0,0.0354
182700000000,183000000000,6238840043,73,3914505044,0.01314,0.003101,0.004967,0.0002365,0.0006924,0.005081,0.003601,6.199e-05,0.08435,0.04492,1.432,0.002273,0,0,0.003624
183000000000,183300000000,6238840043,73,3914505044,0.01138,0.002373,0.004448,0.0002756,0.0006876,0.00425,0.004814,6.199e-05,0.105,0.05426,1.273,0.001862,0,0,0.008698
183300000000,183600000000,6238840043,73,3914505044,0.0121,0.003071,0.004021,0.0002871,0.0007334,0.003666,0.001404,6.294e-05,0.07239,0.04974,1.317,0.001906,0,0,0.01959
183600000000,183900000000,6238840043,73,3914505044,0.01477,0.003407,0.004585,0.0005293,0.0009642,0.005318,0.0002108,6.294e-05,0.05396,0.01779,1.319,0.002314,0,0,0.03284
183900000000,184200000000,6238840043,73,3914505044,0.003532,0.001932,0.003216,0.0004692,0.0007172,0.004547,0.00296,6.294e-05,0.05182,0.04437,1.426,0.002601,0,0,0.0006323
184200000000,184500000000,6238840043,73,3914505044,0.01018,0.003414,0.004929,0.0004129,0.0008068,0.004898,0.001198,6.294e-05,0.04791,0.03131,1.289,0.002168,0,0,0.005615
184500000000,184800000000,6238840043,73,3914505044,0.005417,0.002254,0.004562,0.0002451,0.0006723,0.003021,0.002213,6.294e-05,0.04547,0.03091,1.701,0.003968,0,0,0.005508
184800000000,185100000000,6238840043,73,3914505044,0.006989,0.002171,0.004517,0.0002756,0.0006828,0.003151,0.003811,6.294e-05,0.04449,0.03687,1.449,0.002452,0,0,0.002304
185100000000,185400000000,6238840043,73,3914505044,0.01103,0.004608,0.005592,0.0002527,0.0005131,0.005356,0.00128,6.39e-05,0.06787,0.03833,1.423,0.002277,0,0,0.003513
185400000000,185700000000,6238840043,73,3914505044,0.013,0.003582,0.005096,0.0004721,0.0009117,0.005569,0.001894,6.39e-05,0.05115,0.04474,1.128,0.001386,0,0,0.0002079
185700000000,186000000000,6238840043,73,3914505044,0.01286,0.004951,0.006577,0.001289,0.001638,0.007935,0.003574,6.771e-05,0.05835,0.06372,0.9851,0.0009522,0,0,0.003628
186000000000,186300000000,6238840043,73,3914505044,0.007492,0.003407,0.004845,0.0003071,0.0008335,0.003666,0.0002565,6.39e-05,0.05304,0.01086,1.757,0.004095,0,0,0.000226
176100000000,176400000000,6238840043,73,3914505044,0.01036,0.003761,0.005013,0.0001717,0.0005941,0.005318,0.0009642,5.817e-05,0.04095,0.0235,1.413,0.002319,0,0,0.01183
176400000000,176700000000,6238840043,73,3914505044,0.02829,0.006592,0.007637,0.0003157,0.0007238,0.008698,0.0006847,6.008e-05,0.2314,0.03006,1.348,0.002393,0,0,0.05682
176700000000,177000000000,6238840043,73,3914505044,0.01141,0.003651,0.005043,0.0004015,0.0007162,0.008545,0.001072,5.913e-05,0.04004,0.0195,1.374,0.002281,0,0,0.02478
177000000000,177300000000,6238840043,73,3914505044,0.01666,0.0037,0.004524,0.0001926,0.0003033,0.004265,0.0006037,5.913e-05,0.06616,0.02649,1.278,0.001842,0,0,0.01727
177300000000,177600000000,6238840043,73,3914505044,0.01421,0.004372,0.005638,0.0002079,0.0004044,0.006104,0.001299,5.913e-05,0.06171,0.03949,1.199,0.001674,0,0,0.02121
177600000000,177900000000,6238840043,73,3914505044,0.01263,0.003456,0.004868,0.0002851,0.0006924,0.004982,0.002586,5.913e-05,0.09668,0.04443,1.398,0.002294,0,0,0.02634
177900000000,178200000000,6238840043,73,3914505044,0.01463,0.003216,0.004242,0.0002813,0.0006409,0.004013,0.001083,5.913e-05,0.05078,0.03485,1.337,0.001888,0,0,0.006882
178200000000,178500000000,6238840043,73,3914505044,0.01151,0.004333,0.005692,0.0004225,0.0006399,0.005562,0.001434,5.913e-05,0.05621,0.02985,1.272,0.002066,0,0,0.0004711
178500000000,178800000000,6238840043,73,3914505044,0.0143,0.003616,0.005119,0.0003014,0.0007582,0.006615,0.002495,5.913e-05,0.1144,0.03308,1.568,0.002685,0,0,0.05762
178800000000,179100000000,6238840043,73,3914505044,0.011,0.003223,0.00489,0.0001974,0.0005922,0.005249,0.002525,6.008e-05,0.09692,0.03955,1.792,0.003482,0,0,0.003696
179100000000,179400000000,6238840043,73,3914505044,0.01155,0.003304,0.004959,0.0003281,0.0007267,0.005417,0.002789,6.008e-05,0.05536,0.04767,1.34,0.001951,0,0,0.004181
179400000000,179700000000,6238840043,73,3914505044,0.007713,0.002716,0.004189,0.0002804,0.000699,0.004349,0.003441,6.008e-05,0.09534,0.04083,1.714,0.00371,0,0,0.02295
179700000000,180000000000,6238840043,73,3914505044,0.01398,0.005089,0.006485,0.0002928,0.0006142,0.00795,0.002834,6.008e-05,0.1008,0.04736,1.655,0.002298,0,0,0.005219
180000000000,180300000000,6238840043,73,3914505044,0.003891,0.002945,0.004745,0.0002632,0.0006485,0.007416,0.0023,6.008e-05,0.0509,0.03619,1.7,0.003596,0,0,0.003017
180300000000,180600000000,6238840043,73,3914505044,0.01344,0.002789,0.00415,0.0003309,0.0007973,0.003742,0.002041,6.008e-05,0.07288,0.03967,1.29,0.00185,0,0,0.0004196
180600000000,180900000000,6238840043,73,3914505044,0.0141,0.004471,0.00544,0.0002413,0.0006132,0.006462,0.0007162,6.104e-05,0.06287,0.02594,1.219,0.00208,0,0,0.004539
180900000000,181200000000,6238840043,73,3914505044,0.01053,0.003197,0.004707,0.0004053,0.0008125,0.006226,0.003204,6.104e-05,0.08386,0.05212,1.5,0.002566,0,0,0.0578
131100000000,131400000000,6238840043,73,3914505044,0.009277,0.002701,0.004135,0.0001488,0.0006342,0.004173,0.001072,3.433e-05,0.07727,0.03894,1.573,0.003023,0,0,0.0005331
131400000000,131700000000,6238840043,73,3914505044,0.0112,0.003891,0.005516,0.0005913,0.001133,0.005486,0.0008965,3.624e-05,0.06555,0.0459,1.469,0.002964,0,0,0.01694
131700000000,132000000000,6238840043,73,3914505044,0.008682,0.002686,0.004509,0.0003214,0.0007658,0.00415,0.001703,3.433e-05,0.06592,0.04407,1.259,0.00168,0,0,0.0008192
132000000000,132300000000,6238840043,73,3914505044,0.01219,0.002991,0.004723,0.000412,0.000865,0.004646,0.001411,3.529e-05,0.07922,0.04523,1.495,0.002544,0,0,0.007256
132300000000,132600000000,6238840043,73,3914505044,0.007874,0.003704,0.005547,0.0002556,0.0006304,0.008163,0.002758,3.529e-05,0.06787,0.04346,1.445,0.002978,0,0,0.03656
132600000000,132900000000,6238840043,73,3914505044,0.01144,0.00346,0.005142,0.0003824,0.0006657,0.004715,0.001823,3.529e-05,0.06,0.02942,1.548,0.002505,0,0,0.0009604
132900000000,133200000000,6238840043,73,3914505044,0.01213,0.003239,0.00486,0.0002241,0.0006704,0.005539,0.001476,3.529e-05,0.07776,0.03448,1.443,0.002061,0,0,0.03656
133200000000,133500000000,6238840043,73,3914505044,0.01984,0.003784,0.005386,0.0005445,0.001043,0.006248,0.001953,3.624e-05,0.07898,0.04498,1.272,0.002051,0,0,0.0002413
133500000000,133800000000,6238840043,73,3914505044,0.01057,0.003613,0.00502,0.0002575,0.0007601,0.005661,0.001202,3.624e-05,0.06824,0.03729,1.3,0.002276,0,0,0.01819
133800000000,134100000000,6238840043,73,3914505044,0.002666,0.002132,0.003944,0.0003824,0.000803,0.003208,0.001984,3.624e-05,0.0484,0.03278,2.023,0.00501,0,0,0.0008745
134100000000,134400000000,6238840043,73,3914505044,0.007278,0.002754,0.004433,0.0004044,0.0009041,0.004143,0.0001402,3.624e-05,0.08362,0.01143,2.407,0.006513,0,0,0.003773
134400000000,134700000000,6238840043,73,3914505044,0.008469,0.002804,0.004639,0.0003223,0.0007448,0.005325,0.001942,3.624e-05,0.07935,0.0379,1.556,0.00283,0,0,0.00457
134700000000,135000000000,6238840043,73,3914505044,0.0128,0.003731,0.005234,0.0003233,0.0007057,0.005577,0.002224,3.624e-05,0.06641,0.03467,1.392,0.002304,0,0,0.00737
135000000000,135300000000,6238840043,73,3914505044,0.01169,0.002949,0.004845,0.0003738,0.0007915,0.005821,0.002197,3.624e-05,0.08435,0.04156,1.436,0.002512,0,0,0.0004215
135300000000,135600000000,6238840043,73,3914505044,0.01288,0.003998,0.006325,0.0004721,0.0008745,0.006531,0.001802,3.719e-05,0.08118,0.04584,1.428,0.002491,0,0,0.01154
135600000000,135900000000,6238840043,73,3914505044,0.0126,0.00312,0.00518,0.0003576,0.0008526,0.005821,0.002064,3.719e-05,0.1051,0.05444,1.209,0.001727,0,0,0.000248
135900000000,136200000000,6238840043,73,3914505044,0.01001,0.002762,0.004654,0.0001888,0.0006065,0.004936,0.001614,3.719e-05,0.1399,0.02777,1.399,0.002337,0,0,0.008362
186300000000,186600000000,6238840043,73,3914505044,0.0116,0.003445,0.004616,0.0004578,0.0008898,0.005486,0.001358,6.485e-05,0.04675,0.03534,1.337,0.002432,0,0,0.001003
186600000000,186900000000,6238840043,73,3914505044,0.008087,0.003265,0.005135,0.0002956,0.0006943,0.004509,0.002434,6.39e-05,0.04736,0.03949,1.308,0.002057,0,0,0.008957
186900000000,187200000000,6238840043,73,3914505044,0.009415,0.003357,0.004654,0.000371,0.0008459,0.005211,0.001478,6.485e-05,0.05481,0.04376,1.068,0.001395,0,0,0.03693
187200000000,187500000000,6238840043,73,3914505044,0.0125,0.004097,0.005577,0.0002546,0.0004473,0.004936,0.001297,6.485e-05,0.05347,0.03827,1.29,0.002067,0,0,0.009369
187500000000,187800000000,6238840043,73,3914505044,0.009445,0.003803,0.005058,0.0005207,0.0008993,0.004868,0.0009165,6.485e-05,0.04303,0.03091,1.503,0.002954,0,0,0.0117
187800000000,188100000000,6238840043,73,3914505044,0.01346,0.004158,0.005829,0.0003624,0.0006218,0.004616,0.0002737,6.485e-05,0.04999,0.0275,1.311,0.001882,0,0,0.01581
188100000000,188400000000,6238840043,73,3914505044,0.01097,0.003952,0.005585,0.000514,0.000824,0.005783,0.002438,6.58e-05,0.05121,0.03845,1.401,0.002688,0,0,0.004562
188400000000,188700000000,6238840043,73,3914505044,0.01404,0.003475,0.004967,0.0002604,0.0007401,0.005638,0.002472,6.58e-05,0.05933,0.04572,1.553,0.002896,0,0,0.006096
188700000000,189000000000,6238840043,73,3914505044,0.009445,0.003414,0.005379,0.0003595,0.0006914,0.006111,0.005135,6.58e-05,0.05151,0.05707,1.317,0.002046,0,0,0.002609
189000000000,189300000000,6238840043,73,3914505044,0.01346,0.003708,0.005219,0.0003357,0.0007238,0.00605,0.001537,6.58e-05,0.06494,0.05219,1.231,0.001694,0,0,0.006119
189300000000,189600000000,6238840043,73,3914505044,0.02448,0.006706,0.00798,0.0005684,0.0009432,0.009171,0.0002089,6.866e-05,0.05786,0.01122,1.319,0.002137,0,0,0.01178
189600000000,189900000000,6238840043,73,3914505044,0.01393,0.004982,0.006401,0.0007172,0.00111,0.01151,0.003735,6.771e-05,0.05762,0.07153,1.244,0.00204,0,0,0.05762
189900000000,190200000000,6238840043,73,3914505044,0.01251,0.003937,0.00518,0.0003357,0.0007496,0.004959,0.00123,6.676e-05,0.05817,0.03723,1.18,0.001923,0,0,0.02582
190200000000,190500000000,6238840043,73,3914505044,0.009491,0.00248,0.004555,0.0003061,0.0007162,0.004036,0.005394,6.676e-05,0.08362,0.05566,1.213,0.001842,0,0,0.001055
190500000000,190800000000,6238840043,73,3914505044,0.01149,0.002529,0.004601,0.0003157,0.0007391,0.004517,0.004776,6.771e-05,0.1135,0.052,1.186,0.001873,0,0,0.01532
190800000000,191100000000,6238840043,73,3914505044,0.01343,0.00338,0.004417,0.0002432,0.000679,0.005051,0.001276,6.771e-05,0.05731,0.02856,1.194,0.001701,0,0,0.002098
111000000000,111300000000,6238840043,73,3914505044,0.01962,0.003166,0.00486,0.0003691,0.0008326,0.004875,0.002705,2.384e-05,0.08826,0.06482,1.223,0.001692,0,0,0.004532
111300000000,111600000000,6238840043,73,3914505044,0.01488,0.004227,0.005432,0.0003061,0.0008087,0.006012,0.0008545,2.48e-05,0.0625,0.04474,1.306,0.001906,0,0,0.02441
111600000000,111900000000,6238840043,73,3914505044,0.01593,0.00341,0.004822,0.0002413,0.0007,0.006752,0.001667,2.48e-05,0.09143,0.06311,1.18,0.001663,0,0,0.02222
111900000000,112200000000,6238840043,73,3914505044,0.009338,0.003525,0.004562,0.0001984,0.0005827,0.004402,0.001411,2.48e-05,0.06848,0.0387,1.281,0.002597,0,0,0.001095
112200000000,112500000000,6238840043,73,3914505044,0.005737,0.00425,0.005684,0.0003262,0.0005655,0.00489,0.0001812,2.575e-05,0.04626,0.01143,1.209,0.002417,0,0,0.002541
112500000000,112800000000,6238840043,73,3914505044,0.007812,0.003506,0.004944,0.0003004,0.0006809,0.005928,0.001936,2.575e-05,0.05518,0.04767,1.108,0.001701,0,0,0.002823
112800000000,113100000000,6238840043,73,3914505044,0.004799,0.003937,0.005417,9.727e-05,0.0004549,0.004662,0.0004272,2.48e-05,0.03815,0.02573,1.64,0.00426,0,0,0.003433
113100000000,113400000000,6238840043,73,3914505044,0.008942,0.002769,0.004509,0.0002346,0.0006657,0.004875,0.003204,2.48e-05,0.04791,0.04694,1.367,0.002304,0,0,0.0008755
113400000000,113700000000,6238840043,73,3914505044,0.01453,0.004333,0.005898,0.0001659,0.0003099,0.00518,0.0008316,2.48e-05,0.05499,0.03564,1.4,0.001815,0,0,0.01212
113700000000,114000000000,6238840043,73,3914505044,0.02341,0.006226,0.007576,0.0008831,0.001238,0.008438,0.0007086,2.766e-05,0.07629,0.03049,1.314,0.001917,0,0,0.05542
114000000000,114300000000,6238840043,73,3914505044,0.02811,0.009796,0.01187,0.003311,0.003647,0.01103,0.00272,4.387e-05,0.08789,0.04724,1,0.0008892,0,0,0.0351
114300000000,114600000000,6238840043,73,3914505044,0.008911,0.005608,0.007347,0.00185,0.002266,0.01146,0.004204,3.338e-05,0.06384,0.06122,1.275,0.002476,0,0,0.005966
114600000000,114900000000,6238840043,73,3914505044,0.00589,0.002575,0.004501,0.0002174,0.0006018,0.004295,0.003098,2.575e-05,0.07593,0.04529,1.802,0.003967,0,0,0.008835
114900000000,115200000000,6238840043,73,3914505044,0.005142,0.002403,0.003883,0.0002165,0.0006809,0.003075,0.00149,2.575e-05,0.06909,0.03943,1.56,0.002989,0,0,0.0008898
115200000000,115500000000,6238840043,73,3914505044,0.006065,0.002575,0.004128,0.0002403,0.0007353,0.003456,0.001057,2.575e-05,0.0968,0.03198,1.552,0.003108,0,0,0.0001841
115500000000,115800000000,6238840043,73,3914505044,0.003258,0.00235,0.003929,0.0001163,0.0006437,0.003086,0.0002794,2.575e-05,0.04681,0.01956,1.638,0.003395,0,0,0.003124
115800000000,116100000000,6238840043,73,3914505044,0.006912,0.004066,0.005066,0.0002937,0.0007572,0.005501,0.0007963,2.67e-05,0.05206,0.03802,2.553,0.006221,0,0,0.002308
81300000000,81600000000,6238840043,73,3914505044,0.007622,0.002823,0.003998,0.0002804,0.0007668,0.003284,0.0009699,9.537e-07,0.0647,0.05017,3.848,0.0121,0,0,0.0007334
81600000000,81900000000,6238840043,73,3914505044,0.01025,0.00238,0.003906,0.000392,0.0008821,0.00362,0.001209,9.537e-07,0.0741,0.06171,1.315,0.002084,0,0,0.0004749
81900000000,82200000000,6238840043,73,3914505044,0.008972,0.003494,0.004921,0.0005169,0.0009823,0.005379,0.0008249,9.537e-07,0.07971,0.05731,1.478,0.002668,0,0,0.007408
82200000000,82500000000,6238840043,73,3914505044,0.01143,0.003124,0.004463,0.0003338,0.0007982,0.005211,0.00209,9.537e-07,0.06873,0.07288,1.902,0.003803,0,0,0.001848
82500000000,82800000000,6238840043,73,3914505044,0.03802,0.006706,0.007858,0.0004492,0.0008602,0.01071,0.0005016,2.861e-06,0.07678,0.02887,1.286,0.001875,0,0,0.01494
82800000000,83100000000,6238840043,73,3914505044,0.02966,0.009033,0.01062,0.0008059,0.001143,0.01358,0.001413,5.722e-06,0.06689,0.0611,1.489,0.002701,0,0,0.05212
83100000000,83400000000,6238840043,73,3914505044,0.01149,0.00259,0.00425,0.0003805,0.0008621,0.003937,0.001762,1.907e-06,0.08826,0.0531,1.729,0.00363,0,0,0.01736
83400000000,83700000000,6238840043,73,3914505044,0.008652,0.003002,0.004631,0.0001755,0.0006342,0.00444,0.001272,1.907e-06,0.05841,0.03735,1.369,0.002205,0,0,0.001921
83700000000,84000000000,6238840043,73,3914505044,0.008789,0.003929,0.005661,0.0002136,0.0005255,0.005241,0.001701,1.907e-06,0.0675,0.04669,2.111,0.00521,0,0,0.003593
84000000000,84300000000,6238840043,73,3914505044,0.01004,0.00227,0.003906,0.0002441,0.0007238,0.003284,0.001173,2.861e-06,0.07251,0.03876,1.553,0.002638,0,0,0.0006819
84300000000,84600000000,6238840043,73,3914505044,0.01231,0.002686,0.00412,0.0002747,0.0007801,0.003845,0.001947,2.861e-06,0.07983,0.06183,1.314,0.002101,0,0,0.02722
84600000000,84900000000,6238840043,73,3914505044,0.007706,0.002533,0.004349,0.0002413,0.0007467,0.003716,0.0007486,2.861e-06,0.06604,0.02802,1.597,0.003299,0,0,0.006935
84900000000,85200000000,6238840043,73,3914505044,0.01837,0.004822,0.006332,0.0003929,0.0007362,0.009247,0.00119,3.815e-06,0.07422,0.0697,1.468,0.002443,0,0,0.000555
85200000000,85500000000,6238840043,73,3914505044,0.01404,0.003872,0.005753,0.0003958,0.0008898,0.008423,0.001307,3.815e-06,0.136,0.04742,1.805,0.003644,0,0,0.004295
85500000000,85800000000,6238840043,73,3914505044,0.01074,0.004677,0.00589,0.0002251,0.0008049,0.005394,7.057e-05,3.815e-06,0.07056,0.01042,2.005,0.005024,0,0,0.02402
156000000000,156300000000,6238840043,73,3914505044,0.006737,0.002396,0.004036,0.0004139,0.0008574,0.003399,0.002083,4.578e-05,0.03827,0.0448,1.399,0.002304,0,0,0.0123
156300000000,156600000000,6238840043,73,3914505044,0.01123,0.003418,0.004776,0.0002966,0.0006199,0.005028,0.002365,4.673e-05,0.06152,0.04346,1.489,0.002492,0,0,0.01364
156600000000,156900000000,6238840043,73,3914505044,0.03137,0.007286,0.008575,0.0004749,0.0007839,0.0135,0.003166,4.768e-05,0.07422,0.03308,1.647,0.003423,0,0,0.01117
156900000000,157200000000,6238840043,73,3914505044,0.01025,0.004082,0.005981,0.0003729,0.000761,0.01364,0.002354,4.768e-05,0.06219,0.03949,1.724,0.003403,0,0,0.002472
157200000000,157500000000,6238840043,73,3914505044,0.008453,0.00275,0.004311,0.000206,0.0006809,0.00412,0.001219,4.768e-05,0.05511,0.02808,1.202,0.00173,0,0,0.02298
157500000000,157800000000,6238840043,73,3914505044,0.005531,0.002499,0.004303,0.0002308,0.0007105,0.003983,0.001064,4.768e-05,0.04675,0.02408,1.508,0.002814,0,0,0.02487
157800000000,158100000000,6238840043,73,3914505044,0.005997,0.002861,0.004066,0.000289,0.0007467,0.003632,0.001795,4.768e-05,0.0498,0.02557,1.447,0.002318,0,0,0.0004082
158100000000,158400000000,6238840043,73,3914505044,0.00856,0.002914,0.004234,0.0001965,0.0005493,0.004013,0.001482,4.768e-05,0.06024,0.03558,1.333,0.001908,0,0,0.0003567
158400000000,158700000000,6238840043,73,3914505044,0.01317,0.003284,0.004311,0.0002241,0.0006027,0.00428,0.0008383,4.768e-05,0.05389,0.03156,1.265,0.001653,0,0,0.007622
158700000000,159000000000,6238840043,73,3914505044,0.01265,0.003716,0.005157,9.727e-05,0.0002794,0.004326,0.0001364,4.768e-05,0.03986,0.009781,1.305,0.001796,0,0,0.007339
159000000000,159300000000,6238840043,73,3914505044,0.01529,0.003929,0.005135,0.0002069,0.0003176,0.004814,0.0009327,4.768e-05,0.05743,0.04364,1.247,0.001683,0,0,0.002228
159300000000,159600000000,6238840043,73,3914505044,0.01669,0.004272,0.006073,0.0005503,0.0009918,0.005455,0.001028,4.768e-05,0.07849,0.0462,1.389,0.002297,0,0,0.03821
159600000000,159900000000,6238840043,73,3914505044,0.01724,0.004364,0.006348,0.0003281,0.0007524,0.007736,0.001842,4.864e-05,0.06799,0.04108,1.48,0.002849,0,0,0.00362
159900000000,160200000000,6238840043,73,3914505044,0.02353,0.005951,0.007622,0.0005226,0.0009232,0.007858,0.002609,4.959e-05,1.021,0.02744,1.477,0.003049,0,0,0.03949
160200000000,160500000000,6238840043,73,3914505044,0.01974,0.007126,0.009079,0.0009823,0.001381,0.01129,0.00325,5.15e-05,0.06213,0.05267,1.257,0.001818,0,0,0.04669
160500000000,160800000000,6238840043,73,3914505044,0.02197,0.006516,0.008453,0.001755,0.002316,0.009247,0.002281,5.436e-05,0.1111,0.04535,1.059,0.001292,0,0,0.01036
160800000000,161100000000,6238840043,73,3914505044,0.01244,0.003193,0.005074,0.0003347,0.0007553,0.005783,0.002613,4.864e-05,0.09265,0.05499,1.101,0.001432,0,0,0.01277
116100000000,116400000000,6238840043,73,3914505044,0.01785,0.004501,0.005775,0.0002604,0.0007582,0.007263,0.001055,2.67e-05,0.06006,0.03079,1.411,0.002323,0,0,0.002338
116400000000,116700000000,6238840043,73,3914505044,0.01283,0.00388,0.005066,0.0002632,0.0007267,0.006706,0.001211,2.67e-05,0.05457,0.03021,1.292,0.002054,0,0,0.0159
116700000000,117000000000,6238840043,73,3914505044,0.0146,0.003685,0.005165,0.0003796,0.0008888,0.006165,0.001234,2.67e-05,0.0611,0.04309,1.698,0.00314,0,0,0.02197
117000000000,117300000000,6238840043,73,3914505044,0.007698,0.002701,0.004387,0.000392,0.0008478,0.006729,0.002296,2.766e-05,0.07825,0.04443,1.367,0.002424,0,0,0.0009041
117300000000,117600000000,6238840043,73,3914505044,0.01225,0.002884,0.004219,0.0002584,0.000782,0.003727,0.0005465,2.766e-05,0.09412,0.03473,1.376,0.002257,0,0,0.005989
117600000000,117900000000,6238840043,73,3914505044,0.006737,0.002632,0.003998,0.0002022,0.0006905,0.003975,0.001747,2.766e-05,0.06226,0.0415,1.671,0.003495,0,0,0.0006886
117900000000,118200000000,6238840043,73,3914505044,0.01421,0.00367,0.004868,0.0002356,0.0005112,0.004303,0.0008841,2.766e-05,0.04749,0.03387,1.377,0.001903,0,0,0.03577
118200000000,118500000000,6238840043,73,3914505044,0.01712,0.004631,0.006027,0.0004921,0.000802,0.007904,0.002274,2.861e-05,0.08972,0.04529,1.436,0.002489,0,0,0.05457
118500000000,118800000000,6238840043,73,3914505044,0.02011,0.004326,0.005333,0.0004101,0.0007887,0.007195,0.0009279,2.861e-05,0.07019,0.03815,1.324,0.001986,0,0,0.005814
118800000000,119100000000,6238840043,73,3914505044,0.02533,0.009018,0.01021,0.0006533,0.0009279,0.009827,0.0003109,3.052e-05,0.07349,0.02356,1.153,0.001499,0,0,0.06116
119100000000,119400000000,6238840043,73,3914505044,0.01724,0.01094,0.01237,0.0004444,0.0007286,0.01173,0.0001383,3.242e-05,0.1128,0.01849,1.336,0.002127,0,0,0.004845
119400000000,119700000000,6238840043,73,3914505044,0.02524,0.01389,0.01547,0.001511,0.001793,0.01608,0.0008783,3.719e-05,0.06097,0.02707,1.367,0.001997,0,0,0.009705
119700000000,120000000000,6238840043,73,3914505044,0.01244,0.01091,0.01271,0.002224,0.002571,0.01846,0.005058,3.91e-05,0.0802,0.0481,1.25,0.001692,0,0,0.005493
120000000000,120300000000,6238840043,73,3914505044,0.0007563,0.002037,0.003937,0.0001822,0.0005779,0.002483,0.0002956,2.956e-05,0.00415,0.02356,4.485,0.01554,0,0,0.0009565
120300000000,120600000000,6238840043,73,3914505044,0.007996,0.002594,0.00367,0.0002432,0.000617,0.004066,0.001482,2.956e-05,0.08167,0.03485,1.494,0.002655,0,0,0.05023
120600000000,120900000000,6238840043,73,3914505044,0.006424,0.003567,0.004944,0.0001659,0.0005836,0.004623,0.0006704,2.956e-05,0.04437,0.01828,2.2,0.005342,0,0,0.00547
