201300000000,201600000000,6274315454,232,5771842,2.956e-05,0.000289,0.001936,0.00033,0.0006828,0.0004902,0,0,0.0005026,7.153e-05,23.21,0.1204,0,0,5.722e-06
201600000000,201900000000,6274315454,232,5771842,3.242e-05,0.0002813,0.001936,0.0003281,0.0006828,0.000288,2.861e-06,0,0.0004292,0.0005713,24.05,0.1241,0,0,1.907e-05
201900000000,202200000000,6274315454,232,5771842,3.147e-05,0.0002747,0.001936,0.0003271,0.0006828,0.0002775,0,0,0.000392,7.153e-05,24.32,0.1227,0,0,3.719e-05
202200000000,202500000000,6274315454,232,5771842,3.242e-05,0.0002728,0.001936,0.0003271,0.0006828,0.0002766,0,0,0.0001459,7.153e-05,24.46,0.1263,0,0,6.676e-05
202500000000,202800000000,6274315454,232,5771842,3.147e-05,0.0002737,0.001936,0.0003271,0.0006828,0.0002775,0,0,0.0006638,7.153e-05,24.75,0.1235,0,0,1.907e-06
202800000000,203100000000,6274315454,232,5771842,3.052e-05,0.0002728,0.001936,0.0003271,0.0006828,0.0002766,0,0,0.0001421,7.153e-05,23.84,0.1242,0,0,2.289e-05
203100000000,203400000000,6274315454,232,5771842,2.956e-05,0.0002718,0.001936,0.0003271,0.0006828,0.0002747,0,0,0.0007925,0,24.22,0.1238,0,0,3.529e-05
203400000000,203700000000,6274315454,232,5771842,3.052e-05,0.0002728,0.001936,0.0003271,0.0006828,0.0002766,0,0,0.0005503,7.153e-05,24.78,0.13,0,0,2.384e-05
203700000000,204000000000,6274315454,232,5771842,2.956e-05,0.0002737,0.001936,0.0003271,0.0006828,0.0002766,0,0,0.0001354,7.153e-05,25.07,0.128,0,0,2.48e-05
204000000000,204300000000,6274315454,232,5771842,2.956e-05,0.0002728,0.001936,0.0003271,0.0006828,0.0002766,0,0,0.0001431,7.153e-05,25.43,0.1315,0,0,3.242e-05
204300000000,204600000000,6274315454,232,5771842,3.052e-05,0.0002708,0.001936,0.0003271,0.0006828,0.0002747,0,0,0.0001879,0,25.71,0.1309,0,0,1.144e-05
204600000000,204900000000,6274315454,232,5771842,2.861e-05,0.0002728,0.001936,0.0003271,0.0006828,0.0002756,0,0,0.0002699,7.153e-05,24.91,0.1321,0,0,2.861e-05
204900000000,205200000000,6274315454,232,5771842,2.956e-05,0.0002708,0.001936,0.0003271,0.0006828,0.0002737,0,0,0.0005436,0,25.61,0.1307,0,0,2.003e-05
205200000000,205500000000,6274315454,232,5771842,3.147e-05,0.0002728,0.001936,0.0003271,0.0006828,0.0002756,0,0,0.0001583,7.153e-05,25.13,0.1319,0,0,1.526e-05
205500000000,205800000000,6274315454,232,5771842,3.242e-05,0.0002708,0.001936,0.0003271,0.0006828,0.0002737,0,0,0.0001593,0,26.23,0.1316,0,0,8.583e-06
205800000000,206100000000,6274315454,232,5771842,3.147e-05,0.0002718,0.001936,0.0003271,0.0006828,0.0002756,0,0,0.000248,7.153e-05,25.01,0.1325,0,0,1.335e-05
196200000000,196500000000,6274315454,232,16909037,3.147e-05,0.0002766,0.001936,0.0003271,0.0006828,0.0002804,0,0,0.0001745,7.153e-05,26.13,0.1303,0,0,1.335e-05
196500000000,196800000000,6274315454,232,16909037,3.242e-05,0.0002775,0.001936,0.0003271,0.0006828,0.0002813,0,0,0.0001745,0,26.59,0.1293,0,0,2.193e-05
196800000000,197100000000,6274315454,232,16909037,3.624e-05,0.0002766,0.001936,0.0003271,0.0006828,0.0002794,0,0,0.000165,7.153e-05,28.28,0.1279,0,0,3.433e-05
197100000000,197400000000,6274315454,232,16909037,3.529e-05,0.0002775,0.001936,0.0003271,0.0006828,0.0002813,0,0,0.0002003,0,28.04,0.1274,0,0,2.193e-05
197400000000,197700000000,6274315454,232,16909037,3.624e-05,0.0002785,0.001936,0.0003271,0.0006828,0.0002813,9.537e-07,0,0.0001736,7.153e-05,28.02,0.1281,0,0,1.907e-05
197700000000,198000000000,6274315454,232,16909037,3.242e-05,0.0002804,0.001936,0.0003271,0.0006828,0.0002813,9.537e-07,0,0.0001621,0.0002146,27.76,0.1315,0,0,3.815e-06
198000000000,198300000000,6274315454,232,16909037,3.052e-05,0.0002756,0.001936,0.0003271,0.0006828,0.0002794,0,0,0.0001945,7.153e-05,26.85,0.1309,0,0,4.196e-05
198300000000,198600000000,6274315454,232,16909037,3.338e-05,0.0002775,0.001936,0.0003271,0.0006828,0.0002813,0,0,0.0001774,0,28.09,0.1308,0,0,3.052e-05
198600000000,198900000000,6274315454,232,16909037,3.242e-05,0.0002756,0.001936,0.0003271,0.0006828,0.0002785,0,0,0.0002232,7.153e-05,26.23,0.1271,0,0,2.861e-05
198900000000,199200000000,6274315454,232,16909037,3.338e-05,0.0002775,0.001936,0.0003271,0.0006828,0.0002813,0,0,0.0001802,0,27.27,0.1322,0,0,3.052e-05
199200000000,199500000000,6274315454,232,16909037,3.433e-05,0.0002756,0.001936,0.0003271,0.0006828,0.0002794,0,0,0.0001736,7.153e-05,28.18,0.1305,0,0,4.864e-05
199500000000,199800000000,6274315454,232,16909037,3.242e-05,0.0002775,0.001936,0.0003271,0.0006828,0.0002813,0,0,0.0001707,7.153e-05,26.89,0.1296,0,0,3.91e-05
199800000000,200100000000,6274315454,232,16909037,3.052e-05,0.0002766,0.001936,0.0003271,0.0006828,0.0002813,0,0,0.0001621,7.153e-05,25.35,0.1278,0,0,3.815e-05
200100000000,200400000000,6274315454,232,16909037,3.052e-05,0.0002766,0.001936,0.0003271,0.0006828,0.0002804,0,0,0.0001831,0,26.21,0.1301,0,0,7.915e-05
200400000000,200700000000,6274315454,232,16909037,3.338e-05,0.0002756,0.001936,0.0003271,0.0006828,0.0002785,0,0,0.000247,7.153e-05,27.19,0.1311,0,0,1.907e-06
200700000000,201000000000,6274315454,232,16909037,3.433e-05,0.0002766,0.001936,0.0003271,0.0006828,0.0002804,0,0,0.0001831,0,27.53,0.1319,0,0,2.48e-05
191100000000,191400000000,6274315454,232,16909037,3.147e-05,0.0002804,0.001936,0.0003452,0.0007,0.0002842,0,0,0.0001268,0,26.07,0.1274,0,0,1.526e-05
191400000000,191700000000,6274315454,232,16909037,3.242e-05,0.0002785,0.001936,0.0003452,0.0007,0.0002823,0,0,0.0001621,7.153e-05,27.17,0.1304,0,0,2.766e-05
191700000000,192000000000,6274315454,232,16909037,3.147e-05,0.0002804,0.001936,0.0003452,0.0007,0.0002842,0,0,0.0001659,0,26.8,0.1301,0,0,2.384e-05
192000000000,192300000000,6274315454,232,16909037,3.433e-05,0.0002785,0.001936,0.0003452,0.0007,0.0002813,0,0,0.0001354,7.153e-05,27.7,0.132,0,0,1.812e-05
192300000000,192600000000,6274315454,232,16909037,3.529e-05,0.0002794,0.001936,0.0003452,0.0007,0.0002832,0,0,0.0001831,0,28.15,0.1319,0,0,3.624e-05
192600000000,192900000000,6274315454,232,16909037,3.433e-05,0.0002775,0.001936,0.0003452,0.0007,0.0002823,0,0,0.0001354,7.153e-05,28.03,0.1319,0,0,2.384e-05
192900000000,193200000000,6274315454,232,16909037,3.338e-05,0.0002794,0.001936,0.0003452,0.0007,0.0002832,0,0,0.000247,0,27.24,0.1262,0,0,2.098e-05
193200000000,193500000000,6274315454,232,16909037,3.338e-05,0.0002775,0.001936,0.0003452,0.0007,0.0002813,0,0,0.0001297,7.153e-05,26.26,0.1242,0,0,2.861e-06
193500000000,193800000000,6274315454,232,16909037,3.147e-05,0.0002785,0.001936,0.0003452,0.0007,0.0002823,0,0,0.000145,0,26.72,0.1286,0,0,9.537e-06
193800000000,194100000000,6274315454,232,16909037,3.338e-05,0.0002775,0.001936,0.0003452,0.0007,0.0002813,0,0,0.0002069,7.153e-05,27.82,0.1307,0,0,2.766e-05
194100000000,194400000000,6274315454,232,16909037,3.242e-05,0.0002785,0.001936,0.0003452,0.0007,0.0002823,0,0,0.0001965,0,28.44,0.1321,0,0,1.907e-06
194400000000,194700000000,6274315454,232,16909037,3.433e-05,0.0002766,0.001936,0.0003452,0.0007,0.0002804,0,0,0.0001726,7.153e-05,28.11,0.1313,0,0,2.956e-05
194700000000,195000000000,6274315454,232,16909037,3.242e-05,0.0002785,0.001936,0.0003452,0.0007,0.0002823,0,0,0.0001392,0,26.48,0.1285,0,0,9.537e-07
195000000000,195300000000,6274315454,232,16909037,3.052e-05,0.0002766,0.001936,0.0003424,0.0006981,0.0002794,0,0,0.0001593,7.153e-05,26.86,0.1315,0,0,2.193e-05
195300000000,195600000000,6274315454,232,16909037,3.147e-05,0.0002785,0.001936,0.0003271,0.0006828,0.0002823,0,0,0.0001497,0,26.01,0.1297,0,0,9.537e-07
195600000000,195900000000,6274315454,232,16909037,3.052e-05,0.0002766,0.001936,0.0003271,0.0006828,0.0002804,0,0,0.0001574,7.153e-05,26.61,0.1282,0,0,2.193e-05
195900000000,196200000000,6274315454,232,16909037,2.956e-05,0.0002775,0.001936,0.0003271,0.0006828,0.0002813,0,0,0.0001268,0,24.6,0.1253,0,0,6.676e-06
206100000000,206400000000,6274315454,232,5771842,3.242e-05,0.0002708,0.001936,0.0003271,0.0006828,0.0002737,0,0,0.0001373,0,26.16,0.1329,0,0,3.529e-05
206400000000,206700000000,6274315454,232,5771842,3.242e-05,0.0002747,0.001936,0.0003271,0.0006828,0.0002766,9.537e-07,0,0.000288,0.0001431,26.49,0.1352,0,0,8.106e-05
206700000000,207000000000,6274315454,232,5771842,2.956e-05,0.0002708,0.001936,0.0003271,0.0006828,0.0002737,0,0,0.0002508,0,25.34,0.1313,0,0,4.768e-06
207000000000,207300000000,6274315454,232,5771842,2.956e-05,0.0002718,0.001936,0.0003271,0.0006828,0.0002756,1.907e-06,0,0.0001554,0.0005713,25.12,0.1327,0,0,2.289e-05
207300000000,207600000000,6274315454,232,5771842,2.956e-05,0.0002699,0.001936,0.0003271,0.0006828,0.0002737,0,0,0.0001106,0,25.64,0.1306,0,0,1.907e-06
207600000000,207900000000,6274315454,232,5771842,2.956e-05,0.0002718,0.001936,0.0003271,0.0006828,0.0002756,0,0,0.0001659,7.153e-05,24.96,0.131,0,0,6.39e-05
207900000000,208200000000,6274315454,232,5771842,2.956e-05,0.0002699,0.001936,0.0003271,0.0006828,0.0002737,0,0,0.0001526,0,25.61,0.1303,0,0,4.673e-05
208200000000,208500000000,6274315454,232,5771842,2.956e-05,0.0002718,0.001936,0.0003271,0.0006828,0.0002756,0,0,0.0001345,7.153e-05,25.02,0.1307,0,0,3.338e-05
208500000000,208800000000,6274315454,232,5771842,2.956e-05,0.0002699,0.001936,0.0003271,0.0006828,0.0002737,0,0,0.000164,0,25.12,0.1305,0,0,3.529e-05
208800000000,209100000000,6274315454,232,5771842,2.861e-05,0.0002718,0.001936,0.0003271,0.0006828,0.0002747,0,0,0.0001173,7.153e-05,24.71,0.1321,0,0,2.193e-05
209100000000,209400000000,6274315454,232,5771842,2.861e-05,0.0002699,0.001936,0.0003271,0.0006828,0.0002737,0,0,9.823e-05,0,24.93,0.1303,0,0,2.003e-05
209400000000,209700000000,6274315454,232,5771842,2.861e-05,0.0002718,0.001936,0.0003271,0.0006828,0.0002747,0,0,0.0002117,7.153e-05,24.77,0.1307,0,0,2.003e-05
209700000000,210000000000,6274315454,232,5771842,2.956e-05,0.0002699,0.001936,0.0003271,0.0006828,0.0002737,0,0,0.0002422,0,24.86,0.1299,0,0,5.722e-06
210300000000,210600000000,6274315454,232,2851840,2.289e-05,0.0002623,0.001936,0.0003481,0.000701,0.000267,9.537e-07,0,0.000124,7.153e-05,18.42,0.1084,0,0,4.768e-06
210600000000,210900000000,6274315454,232,2851840,2.384e-05,0.0002661,0.001936,0.0003471,0.000701,0.0002737,1.907e-06,0,0.0002232,0.0004997,18.31,0.1088,0,0,1.907e-05
210900000000,211200000000,6274315454,232,2851840,2.289e-05,0.0002623,0.001936,0.0003462,0.000701,0.0002737,9.537e-07,0,0.0001469,0.0001431,18.73,0.1088,0,0,2.289e-05
211200000000,211500000000,6274315454,232,2851840,2.193e-05,0.0002613,0.001936,0.0003462,0.000701,0.0002651,0,0,0.000123,7.153e-05,17.66,0.105,0,0,2.67e-05
211500000000,211800000000,6274315454,232,2851840,2.289e-05,0.0002623,0.001936,0.0003462,0.000701,0.0002661,3.815e-06,0,0.0001316,0.001215,16.96,0.09923,0,0,9.537e-06
211800000000,212100000000,6274315454,232,2851840,2.384e-05,0.0002623,0.001936,0.0003452,0.000701,0.0002718,0,0,0.0001516,0.0001431,18.47,0.1081,0,0,8.583e-05
212100000000,212400000000,6274315454,232,2851840,2.289e-05,0.0002632,0.001936,0.0003443,0.0007,0.0002708,0,0,0.0001497,0,20.59,0.1139,0,0,2.003e-05
212400000000,212700000000,6274315454,232,2851840,2.289e-05,0.0002623,0.001936,0.0003414,0.0006971,0.0002651,0,0,0.0001259,7.153e-05,18.19,0.1042,0,0,4.768e-06
212700000000,213000000000,6274315454,232,2851840,2.384e-05,0.0002604,0.001936,0.0003405,0.0006952,0.0002642,0,0,0.0001211,0,18.58,0.1077,0,0,1.812e-05
213000000000,213300000000,6274315454,232,2851840,2.384e-05,0.0002642,0.001936,0.0003405,0.0006952,0.0002661,9.537e-07,0,0.0001593,7.153e-05,19.7,0.1116,0,0,1.526e-05
213300000000,213600000000,6274315454,232,2851840,2.289e-05,0.0002623,0.001936,0.0003405,0.0006952,0.0002708,0,0,0.0001221,0,18.78,0.1066,0,0,6.676e-06
213600000000,213900000000,6274315454,232,2851840,2.384e-05,0.0002623,0.001936,0.0003405,0.0006952,0.000268,0,0,0.0001287,7.153e-05,18.79,0.1086,0,0,1.621e-05
213900000000,214200000000,6274315454,232,2851840,2.384e-05,0.0002594,0.001936,0.0003405,0.0006952,0.0002594,0,0,0.0001354,0,18.37,0.1057,0,0,8.583e-06
214200000000,214500000000,6274315454,232,2851840,2.289e-05,0.0002623,0.001936,0.0003405,0.0006952,0.0002651,0,0,0.0001173,7.153e-05,17.64,0.09991,0,0,4.768e-06
215100000000,215400000000,6274315454,232,902845,3.147e-05,0.000268,0.001917,0.0003424,0.0006943,0.0002728,0,0,0.0003147,7.153e-05,27.53,0.1294,0,0,2.861e-05
215400000000,215700000000,6274315454,232,902845,3.242e-05,0.0002737,0.001926,0.0003405,0.0006943,0.0002842,2.861e-06,0,0.0003147,0.0007143,27.9,0.1312,0,0,2.575e-05
215700000000,216000000000,6274315454,232,902845,3.147e-05,0.0002651,0.001932,0.0003395,0.0006943,0.0002689,0,0,0.0002079,7.153e-05,27.53,0.1315,0,0,9.537e-06
216000000000,216300000000,6274315454,232,902845,3.052e-05,0.000267,0.001938,0.0003395,0.0006943,0.0002728,0,0,0.000206,7.153e-05,27.81,0.1307,0,0,3.719e-05
181200000000,181500000000,6274315454,232,16909037,3.719e-05,0.0002813,0.001936,0.0003471,0.0007,0.0002871,9.537e-07,0,0.0003014,7.153e-05,28.11,0.1322,0,0,3.815e-05
181500000000,181800000000,6274315454,232,16909037,3.719e-05,0.000288,0.001936,0.0003443,0.0007,0.0002985,9.537e-07,0,0.0003233,0.0001431,28.34,0.1329,0,0,2.67e-05
181800000000,182100000000,6274315454,232,16909037,3.624e-05,0.0002804,0.001936,0.0003443,0.0007,0.0002851,0,0,0.0001793,0,29.28,0.1336,0,0,5.722e-06
182100000000,182400000000,6274315454,232,16909037,3.529e-05,0.0002842,0.001936,0.0003443,0.0007,0.0002899,9.537e-07,0,0.0001812,8.583e-05,28.13,0.1328,0,0,3.433e-05
182400000000,182700000000,6274315454,232,16909037,3.433e-05,0.0002804,0.001936,0.0003443,0.0007,0.0002842,0,0,0.0001745,7.153e-05,26.28,0.1256,0,0,5.722e-06
182700000000,183000000000,6274315454,232,16909037,3.242e-05,0.0002813,0.001936,0.0003443,0.0007,0.0002851,0,0,0.0001163,0,27.59,0.133,0,0,2.861e-06
183000000000,183300000000,6274315454,232,16909037,3.242e-05,0.0002794,0.001936,0.0003443,0.0007,0.0002832,0,0,0.0002165,7.153e-05,27.72,0.1318,0,0,5.15e-05
183300000000,183600000000,6274315454,232,16909037,3.242e-05,0.0002832,0.001936,0.0003443,0.0007,0.0002861,0,0,0.0001373,7.153e-05,27.38,0.131,0,0,1.526e-05
183600000000,183900000000,6274315454,232,16909037,3.147e-05,0.0002794,0.001936,0.0003443,0.0007,0.0002832,0,0,0.0001431,7.153e-05,27.41,0.1305,0,0,1.431e-05
183900000000,184200000000,6274315454,232,16909037,3.147e-05,0.0002804,0.001936,0.0003443,0.0007,0.0002842,0,0,0.0001745,0,27.31,0.1312,0,0,1.335e-05
184200000000,184500000000,6274315454,232,16909037,3.147e-05,0.0002785,0.001936,0.0003443,0.0007,0.0002823,0,0,0.0001879,7.153e-05,27.04,0.1289,0,0,3.815e-05
184500000000,184800000000,6274315454,232,16909037,3.529e-05,0.0002804,0.001936,0.0003443,0.0007,0.0002842,0,0,0.0003347,0,28.01,0.1324,0,0,4.387e-05
184800000000,185100000000,6274315454,232,16909037,3.529e-05,0.0002785,0.001936,0.0003443,0.0007,0.0002823,0,0,0.000185,7.153e-05,28.93,0.1324,0,0,2.003e-05
185100000000,185400000000,6274315454,232,16909037,3.433e-05,0.0002804,0.001936,0.0003443,0.0007,0.0002842,0,0,0.0002499,0,28.5,0.1322,0,0,3.052e-05
185400000000,185700000000,6274315454,232,16909037,3.242e-05,0.0002785,0.001936,0.0003443,0.0007,0.0002832,0,0,0.0001774,7.153e-05,26.99,0.1322,0,0,3.624e-05
185700000000,186000000000,6274315454,232,16909037,3.147e-05,0.0002832,0.001936,0.0003443,0.0007,0.0002861,0,0,0.0002079,7.153e-05,26.31,0.1268,0,0,1.526e-05
186000000000,186300000000,6274315454,232,16909037,3.147e-05,0.0002794,0.001936,0.0003443,0.0007,0.0002832,9.537e-07,0,0.0001659,0.0002861,27.09,0.1306,0,0,0.0001078
180900000000,181200000000,6274315454,232,16909037,3.624e-05,0.0004473,0.001936,0.0003471,0.0007,0.0009594,1.907e-06,0,0.0001965,0.0003567,28.28,0.1333,0,0,1.907e-06
186300000000,186600000000,6274315454,232,16909037,3.147e-05,0.0002804,0.001936,0.0003443,0.0007,0.0002842,0,0,0.0001917,0,27.68,0.1323,0,0,2.766e-05
186600000000,186900000000,6274315454,232,16909037,3.242e-05,0.0002785,0.001936,0.0003443,0.0007,0.0002832,0,0,0.0001879,7.153e-05,27.22,0.1288,0,0,4.578e-05
186900000000,187200000000,6274315454,232,16909037,3.147e-05,0.0002804,0.001936,0.0003443,0.0007,0.0002842,0,0,0.0002174,0,25.89,0.1243,0,0,3.815e-05
187200000000,187500000000,6274315454,232,16909037,3.147e-05,0.0002785,0.001936,0.0003443,0.0007,0.0002832,9.537e-07,0,0.0003452,0.0002146,26.17,0.1252,0,0,2.67e-05
187500000000,187800000000,6274315454,232,16909037,3.242e-05,0.0002804,0.001936,0.0003443,0.0007,0.0002842,0,0,0.0002909,0,26.58,0.1282,0,0,0.0001736
187800000000,188100000000,6274315454,232,16909037,3.338e-05,0.0002785,0.001936,0.0003443,0.0007,0.0002823,0,0,0.0001879,7.153e-05,27.68,0.1333,0,0,1.335e-05
188100000000,188400000000,6274315454,232,16909037,3.433e-05,0.0002804,0.001936,0.0003443,0.0007,0.0002842,0,0,0.0002003,0,27.47,0.1325,0,0,3.815e-05
188400000000,188700000000,6274315454,232,16909037,3.338e-05,0.0002785,0.001936,0.0003443,0.0007,0.0002823,0,0,0.0003958,7.153e-05,27.9,0.1336,0,0,1.717e-05
188700000000,189000000000,6274315454,232,16909037,3.147e-05,0.0002804,0.001936,0.0003443,0.0007,0.0002842,0,0,0.0001411,0,26.25,0.1284,0,0,9.537e-06
189000000000,189300000000,6274315454,232,16909037,3.147e-05,0.0002785,0.001936,0.0003443,0.0007,0.0002832,0,0,0.0002089,7.153e-05,26.88,0.13,0,0,1.431e-05
189300000000,189600000000,6274315454,232,16909037,3.242e-05,0.0002804,0.001936,0.0003443,0.0007,0.0002842,0,0,0.0001593,0,26.95,0.131,0,0,2.575e-05
189600000000,189900000000,6274315454,232,16909037,3.242e-05,0.0002785,0.001936,0.0003443,0.0007,0.0002823,0,0,0.0001812,7.153e-05,27.58,0.1329,0,0,6.294e-05
189900000000,190200000000,6274315454,232,16909037,3.147e-05,0.0002804,0.001936,0.0003452,0.0007,0.0002842,0,0,0.000145,0,27.18,0.132,0,0,6.962e-05
190200000000,190500000000,6274315454,232,16909037,3.338e-05,0.0002785,0.001936,0.0003452,0.0007,0.0002832,0,0,0.0001316,7.153e-05,26.84,0.1271,0,0,4.101e-05
190500000000,190800000000,6274315454,232,16909037,3.338e-05,0.0002823,0.001936,0.0003452,0.0007,0.0002851,9.537e-07,0,0.0002213,0.0003567,26.86,0.1252,0,0,6.771e-05
190800000000,191100000000,6274315454,232,16909037,3.433e-05,0.0002785,0.001936,0.0003452,0.0007,0.0002823,0,0,0.0001879,7.153e-05,26.8,0.1251,0,0,4.959e-05
