5700000000,6000000000,771022573,0,336053503,0.007591,0.01434,0.01935,0.0008945,0.001232,0.0144,1.621e-05,1.24e-05,0.1084,0.002144,1.176,0.001602,0,0,0.0545
6000000000,6300000000,771022573,0,336053503,0.006966,0.0145,0.01935,0.0008554,0.001194,0.01486,1.431e-05,1.24e-05,0.1061,0.002857,1.149,0.0016,0,0,0.0001974
6600000000,6900000000,771022573,0,336053503,0.007523,0.01433,0.01935,0.0008602,0.001198,0.0144,1.907e-05,1.24e-05,0.1282,0.00293,1.128,0.001536,0,0,0.0001764
6900000000,7200000000,771022573,0,336053503,0.006996,0.01448,0.01935,0.0008574,0.001196,0.01488,6.676e-06,1.24e-05,0.1179,0.0005713,1.177,0.00179,0,0,0.06024
7500000000,7800000000,771022573,0,336053503,0.007584,0.01433,0.01935,0.000844,0.001181,0.0144,8.583e-06,1.24e-05,0.1193,0.0008574,1.139,0.001581,0,0,0.0002403
7800000000,8100000000,771022573,0,336053503,0.007103,0.01448,0.01935,0.0008478,0.001186,0.01483,6.676e-06,1.24e-05,0.1401,0.0006428,1.173,0.001679,0,0,0.000268
8100000000,8400000000,771022573,0,336053503,0.007301,0.01451,0.01935,0.0008402,0.001179,0.01471,2.098e-05,1.24e-05,0.1049,0.00293,1.213,0.001803,0,0,0.0007696
8400000000,8700000000,771022573,0,336053503,0.007629,0.01436,0.01935,0.000844,0.001183,0.01443,1.335e-05,1.24e-05,0.1006,0.001072,1.169,0.001624,0,0,0.0006514
8700000000,9000000000,771022573,0,336053503,0.00676,0.01448,0.01935,0.0008478,0.001186,0.01483,5.722e-06,1.24e-05,0.08228,0.0002146,1.114,0.00141,0,0,0.0007315
9300000000,9600000000,771022573,0,336053503,0.007515,0.01433,0.01935,0.0008554,0.001194,0.0144,5.722e-06,1.24e-05,0.1301,0.0002146,1.153,0.001574,0,0,0.0368
9600000000,9900000000,771022573,0,336053503,0.007072,0.0145,0.01935,0.0008583,0.001196,0.01486,1.907e-05,1.24e-05,0.07922,0.00293,1.123,0.001475,0,0,0.0002337
9900000000,10200000000,771022573,0,336053503,0.006729,0.01453,0.01935,0.0008631,0.001202,0.01472,2.098e-05,1.24e-05,0.1006,0.003216,1.2,0.001766,0,0,0.03217
10200000000,10500000000,771022573,0,336053503,0.007576,0.01433,0.01935,0.0008669,0.001205,0.0144,5.722e-06,1.24e-05,0.08545,0.0003567,1.163,0.001556,0,0,0.0005674
10500000000,10800000000,771022573,0,336053503,0.007019,0.01448,0.01935,0.0008707,0.001209,0.01485,3.338e-05,1.24e-05,0.08557,0.00293,1.153,0.001471,0,0,0.0002632
10800000000,11100000000,771022573,0,336053503,0.00663,0.01451,0.01935,0.0008698,0.001207,0.01472,1.431e-05,1.335e-05,0.09058,0.002857,1.169,0.001732,0,0,0.004883
11100000000,11400000000,771022573,0,336053503,0.0075,0.01431,0.01935,0.0008659,0.001204,0.01439,5.722e-06,1.335e-05,0.07739,0.0001431,1.126,0.001491,0,0,0.0001707
11400000000,11700000000,771022573,0,336053503,0.006645,0.01431,0.01935,0.0008698,0.001207,0.01439,7.629e-06,1.335e-05,0.1021,0.0005713,1.13,0.001544,0,0,0.0002422
11700000000,12000000000,771022573,0,336053503,0.00737,0.01448,0.01935,0.0008726,0.001211,0.01488,1.621e-05,1.335e-05,0.1008,0.002285,1.146,0.001443,0,0,0.0002546
12000000000,12300000000,771022573,0,336053503,0.0075,0.01456,0.01935,0.0008755,0.001213,0.01479,5.722e-06,1.335e-05,0.1116,0.0002146,1.216,0.001781,0,0,0.0002375
13200000000,13500000000,771022573,0,336053503,0.00676,0.01433,0.01935,0.0008497,0.001188,0.0144,5.722e-06,1.335e-05,0.116,0.0001431,1.141,0.001543,0,0,0.06262
13500000000,13800000000,771022573,0,336053503,0.007156,0.01447,0.01935,0.0008535,0.001192,0.01483,5.722e-06,1.335e-05,0.1287,0.0002146,1.141,0.001466,0,0,0.0002632
14100000000,14400000000,771022573,0,336053503,0.006943,0.0143,0.01935,0.0008621,0.0012,0.01437,5.722e-06,1.335e-05,0.1047,0.0002861,1.169,0.001596,0,0,0.0002508
15300000000,15600000000,771022573,0,336053503,0.007408,0.01448,0.01935,0.0008583,0.001196,0.01492,9.537e-06,1.335e-05,0.06885,0.0006428,1.139,0.00144,0,0,0.0001698
15600000000,15900000000,771022573,0,336053503,0.007599,0.0146,0.01935,0.0008621,0.0012,0.0148,7.629e-06,1.335e-05,0.07031,0.0007143,1.148,0.001577,0,0,0.0002851
15900000000,16200000000,771022573,0,336053503,0.007065,0.01434,0.01935,0.000864,0.001202,0.01442,3.815e-06,1.335e-05,0.1038,0.0001431,1.171,0.001632,0,0,0.0001736
16200000000,16500000000,771022573,0,336053503,0.006981,0.01448,0.01935,0.0008678,0.001205,0.01495,5.722e-06,1.335e-05,0.1628,7.153e-05,1.159,0.001637,0,0,0.0003653
16500000000,16800000000,771022573,0,336053503,0.007553,0.01454,0.01935,0.0008507,0.001188,0.01472,1.335e-05,1.335e-05,0.1124,0.001143,1.145,0.001564,0,0,0.0002241
17100000000,17400000000,771022573,0,336053503,0.006927,0.01447,0.01935,0.0008478,0.001186,0.01489,1.335e-05,1.335e-05,0.09851,0.002644,1.158,0.001637,0,0,0.06244
17400000000,17700000000,771022573,0,336053503,0.007561,0.01454,0.01935,0.0008526,0.00119,0.01471,5.722e-06,1.335e-05,0.1326,0.0002146,1.162,0.001622,0,0,0.0006313
18300000000,18600000000,771022573,0,336053503,0.007545,0.01454,0.01935,0.0008497,0.001188,0.01472,4.768e-06,1.335e-05,0.06885,0.0001431,1.153,0.001625,0,0,0.0001793
18900000000,19200000000,771022573,0,336053503,0.007484,0.01447,0.01935,0.0008516,0.00119,0.01489,9.537e-06,1.335e-05,0.07886,0.0004997,1.172,0.001662,0,0,0.0003252
19200000000,19500000000,771022573,0,336053503,0.007492,0.0146,0.01935,0.0008564,0.001194,0.01479,1.431e-05,1.335e-05,0.07825,0.00293,1.162,0.001631,0,0,0.0001583
19500000000,19800000000,771022573,0,336053503,0.006622,0.01437,0.01935,0.0008583,0.001196,0.01445,6.676e-06,1.335e-05,0.08081,0.0003567,1.152,0.001595,0,0,0.000247
19800000000,20100000000,771022573,0,336053503,0.006897,0.0145,0.01935,0.0008612,0.0012,0.01486,4.768e-06,1.335e-05,0.07837,7.153e-05,1.15,0.001635,0,0,0.0002728
20100000000,20400000000,771022573,0,336053503,0.007454,0.01454,0.01935,0.0008659,0.001204,0.01472,2.575e-05,1.335e-05,0.07825,0.00293,1.16,0.001667,0,0,0.06348
20400000000,20700000000,771022573,0,336053503,0.006638,0.01433,0.01935,0.0008698,0.001207,0.0144,5.722e-06,1.335e-05,0.1401,0.0002861,1.148,0.00155,0,0,0.0003119
20700000000,21000000000,771022573,0,336053503,0.00695,0.01447,0.01935,0.0008736,0.001211,0.01486,1.24e-05,1.335e-05,0.08374,0.002071,1.15,0.001673,0,0,0.0002136
21000000000,21300000000,771022573,0,336053503,0.007523,0.01456,0.01935,0.0008783,0.001217,0.01474,1.335e-05,1.335e-05,0.1062,0.001785,1.137,0.001597,0,0,0.0001698
21600000000,21900000000,771022573,0,336053503,0.006844,0.01433,0.01935,0.0008831,0.001221,0.0144,8.583e-06,1.335e-05,0.106,0.0003567,1.147,0.001653,0,0,0.0009918
21900000000,22200000000,771022573,0,336053503,0.007774,0.01447,0.01935,0.0008821,0.001221,0.01485,6.676e-06,1.335e-05,0.1047,0.0002146,1.135,0.001583,0,0,0.0007372
22500000000,22800000000,771022573,0,336053503,0.007378,0.01447,0.01935,0.0008917,0.001228,0.01488,3.624e-05,1.335e-05,0.1002,0.002213,1.13,0.001542,0,0,0.000349
22800000000,23100000000,771022573,0,336053503,0.007561,0.01459,0.01935,0.0008965,0.001234,0.01479,7.629e-06,1.335e-05,0.106,0.0005713,1.126,0.001543,0,0,0.0001459
23400000000,23700000000,771022573,0,336053503,0.006935,0.0145,0.01935,0.0009041,0.001242,0.01489,8.583e-06,1.335e-05,0.1174,0.0009289,1.149,0.00163,0,0,0.0005703
24300000000,24600000000,771022573,0,336053503,0.00721,0.01447,0.01935,0.0008993,0.001238,0.01489,2.098e-05,1.335e-05,0.08997,0.00243,1.171,0.001671,0,0,0.0002317
24600000000,24900000000,771022573,0,336053503,0.007469,0.01453,0.01935,0.0009022,0.00124,0.01472,4.768e-06,1.335e-05,0.07825,7.153e-05,1.158,0.001621,0,0,0.0004368
25500000000,25800000000,771022573,0,336053503,0.007568,0.01456,0.01935,0.0009079,0.001245,0.01472,5.722e-06,1.335e-05,0.1066,0.0002146,1.158,0.001629,0,0,0.0004072
25800000000,26100000000,771022573,0,336053503,0.006729,0.01431,0.01935,0.0009098,0.001247,0.01439,1.717e-05,1.335e-05,0.1069,0.002071,1.124,0.001511,0,0,0.06323
26100000000,26400000000,771022573,0,336053503,0.007607,0.01447,0.01935,0.0009127,0.001251,0.01494,2.48e-05,1.335e-05,0.1267,0.001999,1.163,0.001669,0,0,0.006935
26400000000,26700000000,771022573,0,336053503,0.007645,0.0146,0.01935,0.0009165,0.001255,0.01479,8.583e-06,1.335e-05,0.1104,0.001143,1.16,0.001661,0,0,0.0004196
26700000000,27000000000,771022573,0,336053503,0.007027,0.01448,0.01935,0.0009174,0.001255,0.01492,4.768e-06,1.335e-05,0.1257,0.0001431,1.154,0.00162,0,0,0.0006685
27600000000,27900000000,771022573,0,336053503,0.007431,0.01447,0.01935,0.0009031,0.001242,0.01497,1.049e-05,1.335e-05,0.1123,0.0006428,1.199,0.001788,0,0,0.0001955
27900000000,28200000000,771022573,0,336053503,0.007339,0.01456,0.01935,0.0009031,0.001242,0.01474,4.768e-06,1.335e-05,0.08801,0.0001431,1.204,0.001797,0,0,0.0002069
28200000000,28500000000,771022573,0,336053503,0.00798,0.01431,0.01935,0.0009012,0.00124,0.01439,9.537e-06,1.335e-05,0.1443,0.001143,1.204,0.001628,0,0,0.0004835
28500000000,28800000000,771022573,0,336053503,0.007324,0.01445,0.01935,0.0008926,0.00123,0.01488,1.621e-05,1.335e-05,0.1316,0.00293,1.196,0.001754,0,0,0.0003014
28800000000,29100000000,771022573,0,336053503,0.007172,0.01456,0.01935,0.0008659,0.001204,0.01474,5.722e-06,1.335e-05,0.125,0.0001431,1.234,0.001714,0,0,0.05267
29100000000,29400000000,771022573,0,336053503,0.008102,0.01433,0.01935,0.0008678,0.001205,0.01439,8.583e-06,1.335e-05,0.1162,0.0004997,1.187,0.001652,0,0,0.06244
29400000000,29700000000,771022573,0,336053503,0.007614,0.01445,0.01935,0.0008698,0.001207,0.01488,5.722e-06,1.335e-05,0.1365,0.0002146,1.211,0.001682,0,0,0.0005379
29700000000,30000000000,771022573,0,336053503,0.007545,0.01459,0.01935,0.0008736,0.001211,0.01474,2.67e-05,1.335e-05,0.1056,0.00293,1.165,0.001776,0,0,0.0007
30000000000,30300000000,771022573,0,336053503,0.008011,0.0145,0.01935,0.0008783,0.001217,0.01489,5.722e-06,1.335e-05,0.1149,0.0002146,1.178,0.001759,0,0,0.0001755
30600000000,30900000000,771022573,0,336053503,0.007004,0.01433,0.01935,0.0008774,0.001215,0.0144,6.676e-06,1.335e-05,0.09644,0.0004282,1.199,0.001604,0,0,0.0002699
30900000000,31200000000,771022573,0,336053503,0.008148,0.01445,0.01935,0.0008764,0.001215,0.01486,8.583e-06,1.335e-05,0.07898,0.0007143,1.216,0.001686,0,0,0.0001335
31200000000,31500000000,771022573,0,336053503,0.00724,0.01457,0.01935,0.0008621,0.0012,0.01474,6.676e-06,1.335e-05,0.1387,0.0005713,1.212,0.001655,0,0,0.0007658
31500000000,31800000000,771022573,0,336053503,0.007133,0.01434,0.01935,0.000865,0.001202,0.01442,9.537e-06,1.335e-05,0.1294,0.0007858,1.208,0.001642,0,0,0.004028
31800000000,32100000000,771022573,0,336053503,0.007874,0.01434,0.01935,0.0008678,0.001205,0.01442,1.621e-05,1.335e-05,0.1235,0.002857,1.185,0.001585,0,0,0.0001726
32400000000,32700000000,771022573,0,336053503,0.00705,0.01457,0.01935,0.0008755,0.001213,0.01474,1.431e-05,1.335e-05,0.1161,0.002857,1.213,0.001668,0,0,0.0001812
33000000000,33300000000,771022573,0,336053503,0.007172,0.01457,0.01935,0.0008459,0.001184,0.01474,1.431e-05,1.335e-05,0.07825,0.002857,1.204,0.001704,0,0,0.0003281
33300000000,33600000000,771022573,0,336053503,0.007439,0.01436,0.01935,0.0008411,0.001179,0.01459,1.24e-05,1.335e-05,0.118,0.0007858,1.16,0.001707,0,0,0.06311
33600000000,33900000000,771022573,0,336053503,0.008392,0.01448,0.01935,0.0008307,0.001169,0.01489,8.583e-06,1.335e-05,0.09302,0.0008574,1.236,0.001723,0,0,0.000247
33900000000,34200000000,771022573,0,336053503,0.007721,0.01459,0.01935,0.0008211,0.00116,0.01474,6.676e-06,1.335e-05,0.07971,0.0004282,1.305,0.001772,0,0,0.0002422
34200000000,34500000000,771022573,0,336053503,0.007401,0.01434,0.01935,0.0008249,0.001163,0.01442,6.676e-06,1.335e-05,0.1022,0.0005713,1.222,0.001697,0,0,0.0001917
34800000000,35100000000,771022573,0,336053503,0.007462,0.01459,0.01935,0.0008326,0.001171,0.01474,5.722e-06,1.335e-05,0.1282,0.0001431,1.27,0.001719,0,0,0.0004644
35100000000,35400000000,771022573,0,336053503,0.00737,0.01434,0.01935,0.0008364,0.001175,0.01442,2.384e-05,1.335e-05,0.1309,0.00293,1.233,0.001656,0,0,0.0002565
36000000000,36300000000,771022573,0,336053503,0.007011,0.01434,0.01935,0.0008335,0.001171,0.0144,2.003e-05,1.335e-05,0.1006,0.002071,1.177,0.001565,0,0,0.07703
36300000000,36600000000,771022573,0,336053503,0.008255,0.01443,0.01935,0.0008373,0.001175,0.01488,1.431e-05,1.335e-05,0.0813,0.00293,1.203,0.001653,0,0,0.0006771
36600000000,36900000000,771022573,0,336053503,0.007156,0.01456,0.01935,0.0008373,0.001175,0.01472,1.335e-05,1.335e-05,0.0802,0.002285,1.205,0.001748,0,0,0.0002079
36900000000,37200000000,771022573,0,336053503,0.00769,0.01433,0.01935,0.0008307,0.001169,0.01462,8.583e-06,1.335e-05,0.08179,0.0004282,1.206,0.001673,0,0,0.06238
37200000000,37500000000,771022573,0,336053503,0.008072,0.01448,0.01935,0.0008268,0.001165,0.01489,8.583e-06,1.335e-05,0.1112,0.0008574,1.175,0.001677,0,0,0.06848
37800000000,38100000000,771022573,0,336053503,0.007156,0.01434,0.01935,0.0008278,0.001165,0.01442,1.049e-05,1.335e-05,0.1277,0.001429,1.21,0.001592,0,0,0.0001955
38100000000,38400000000,771022573,0,336053503,0.008102,0.01445,0.01935,0.0008287,0.001167,0.01486,7.629e-06,1.431e-05,0.09998,0.0006428,1.195,0.001692,0,0,0.000227
38700000000,39000000000,771022573,0,336053503,0.007118,0.01434,0.01935,0.000802,0.001141,0.01442,8.583e-06,1.431e-05,0.1085,0.0006428,1.179,0.001695,0,0,0.0003376
39300000000,39600000000,771022573,0,336053503,0.007172,0.0146,0.01935,0.0007887,0.001127,0.01476,2.193e-05,1.431e-05,0.1165,0.002998,1.241,0.001804,0,0,0.0006533
39900000000,40200000000,771022573,0,336053503,0.008179,0.01443,0.01935,0.0007849,0.001123,0.01488,5.722e-06,1.431e-05,0.1129,0.0001431,1.206,0.001756,0,0,0.0002985
40200000000,40500000000,771022573,0,336053503,0.006927,0.01457,0.01935,0.000783,0.001122,0.01472,5.722e-06,1.431e-05,0.1041,0.0002861,1.194,0.001726,0,0,0.0001354
40500000000,40800000000,771022573,0,336053503,0.007355,0.01434,0.01935,0.0007849,0.001123,0.01454,8.583e-06,1.431e-05,0.08582,0.0003567,1.141,0.001595,0,0,0.0001993
51000000000,51300000000,771022573,0,336053503,0.007042,0.01433,0.01935,2.289e-05,0.0003605,0.0144,2.956e-05,1.431e-05,0.09021,0.002857,1.193,0.001689,0,0,0.0003147
51600000000,51900000000,771022573,0,336053503,0.007812,0.01465,0.01935,3.242e-05,0.00037,0.0148,1.717e-05,1.431e-05,0.1565,0.002357,1.252,0.001988,0,0,0.0007191
51900000000,52200000000,771022573,0,336053503,0.007072,0.01437,0.01935,3.624e-05,0.0003738,0.01445,6.676e-06,1.431e-05,0.07874,0.0002861,1.206,0.001695,0,0,0.0008087
52200000000,52500000000,771022573,0,336053503,0.007462,0.01445,0.01935,4.005e-05,0.0003777,0.01491,1.049e-05,1.431e-05,0.0802,0.001072,1.242,0.001586,0,0,0.001434
52500000000,52800000000,771022573,0,336053503,0.00798,0.01462,0.01935,4.482e-05,0.0003824,0.01474,5.722e-06,1.431e-05,0.09521,0.0002146,1.263,0.001929,0,0,0.0007563
53100000000,53400000000,771022573,0,336053503,0.007492,0.01443,0.01935,5.245e-05,0.000391,0.01488,5.722e-06,1.431e-05,0.09106,0.0002146,1.192,0.001544,0,0,0.0001879
53400000000,53700000000,771022573,0,336053503,0.008148,0.01462,0.01935,5.722e-05,0.0003958,0.01476,2.098e-05,1.431e-05,0.12,0.002857,1.29,0.001977,0,0,0.0002613
53700000000,54000000000,771022573,0,336053503,0.00708,0.01436,0.01935,6.104e-05,0.0003996,0.01442,1.144e-05,1.431e-05,0.06909,0.0007858,1.183,0.001679,0,0,0.0003309
54000000000,54300000000,771022573,0,336053503,0.007568,0.01443,0.01935,6.485e-05,0.0004025,0.01491,8.583e-06,1.431e-05,0.1309,0.0008574,1.223,0.001551,0,0,0.0003223
54300000000,54600000000,771022573,0,336053503,0.008102,0.01462,0.01935,6.58e-05,0.0004044,0.01476,5.722e-06,1.431e-05,0.1387,0.0002146,1.28,0.001917,0,0,0.0003262
54600000000,54900000000,771022573,0,336053503,0.007065,0.01434,0.01935,7.057e-05,0.0004082,0.01442,1.717e-05,1.431e-05,0.119,0.002857,1.204,0.00165,0,0,0.0004568
54900000000,55200000000,771022573,0,336053503,0.007935,0.01442,0.01935,7.439e-05,0.000412,0.01489,1.621e-05,1.431e-05,0.1384,0.001215,1.238,0.001554,0,0,0.06287
55200000000,55500000000,771022573,0,336053503,0.007904,0.01465,0.01935,7.915e-05,0.0004177,0.01477,1.526e-05,1.431e-05,0.1377,0.00293,1.259,0.001909,0,0,0.0009899
55500000000,55800000000,771022573,0,336053503,0.007156,0.01437,0.01935,8.297e-05,0.0004215,0.01443,1.335e-05,1.431e-05,0.1294,0.001286,1.196,0.00166,0,0,0.001181
55800000000,56100000000,771022573,0,336053503,0.007126,0.01436,0.01935,8.774e-05,0.0004253,0.01443,1.24e-05,1.431e-05,0.1152,0.001072,1.219,0.001682,0,0,0.0002232
56100000000,56400000000,771022573,0,336053503,0.008087,0.01436,0.01935,9.155e-05,0.0004292,0.01442,2.098e-05,1.431e-05,0.1357,0.00293,1.233,0.001686,0,0,0.0007524
56400000000,56700000000,771022573,0,336053503,0.007103,0.01436,0.01935,9.537e-05,0.000433,0.01443,7.629e-06,1.431e-05,0.1224,0.0004997,1.191,0.001634,0,0,0.0001411
56700000000,57000000000,771022573,0,336053503,0.007484,0.01443,0.01935,9.918e-05,0.0004368,0.01497,3.433e-05,1.431e-05,0.1011,0.00293,1.224,0.001728,0,0,0.0002594
57000000000,57300000000,771022573,0,336053503,0.008133,0.01462,0.01935,0.000104,0.0004416,0.01474,6.676e-06,1.431e-05,0.1421,0.0002146,1.236,0.001765,0,0,0.0004625
57300000000,57600000000,771022573,0,336053503,0.007019,0.01433,0.01935,0.0001078,0.0004454,0.0144,5.722e-06,1.431e-05,0.1062,0.0002146,1.217,0.001645,0,0,0.0002098
57600000000,57900000000,771022573,0,336053503,0.007233,0.0144,0.01935,0.0001116,0.0004492,0.01489,1.812e-05,1.431e-05,0.07581,0.002144,1.192,0.00161,0,0,0.06244
58500000000,58800000000,771022573,0,336053503,0.007729,0.01434,0.01935,0.000124,0.0004625,0.01462,1.526e-05,1.431e-05,0.135,0.001215,1.208,0.00168,0,0,0.0003529
58800000000,59100000000,771022573,0,336053503,0.008072,0.01437,0.01935,0.0001287,0.0004663,0.01447,2.384e-05,1.431e-05,0.1132,0.004288,1.228,0.001681,0,0,0.009201
59100000000,59400000000,771022573,0,336053503,0.007439,0.01443,0.01935,0.0001326,0.0004702,0.01489,6.676e-06,1.431e-05,0.1154,0.0003567,1.207,0.001663,0,0,0.0001879
59400000000,59700000000,771022573,0,336053503,0.007271,0.01462,0.01935,0.0001373,0.0004749,0.01474,2.193e-05,1.431e-05,0.09387,0.003502,1.256,0.001758,0,0,0.0001202
60000000000,60300000000,771022573,0,336053503,0.007744,0.0144,0.01935,0.000145,0.0004826,0.01483,8.583e-06,1.431e-05,0.1333,0.0006428,1.243,0.001724,0,0,0.0001974
60300000000,60600000000,771022573,0,336053503,0.00721,0.0146,0.01935,0.0001459,0.0004845,0.01472,1.049e-05,1.431e-05,0.1233,0.001572,1.245,0.001799,0,0,0.0002813
60600000000,60900000000,771022573,0,336053503,0.007843,0.01433,0.01935,0.0001507,0.0004883,0.0144,2.193e-05,1.431e-05,0.1409,0.00293,1.215,0.001666,0,0,0.0003004
71100000000,71400000000,771022573,0,336053503,0.007202,0.01463,0.01935,0.0002861,0.0006237,0.01474,9.537e-06,1.526e-05,0.1191,0.0009289,1.213,0.001762,0,0,0.0002289
71400000000,71700000000,771022573,0,336053503,0.008194,0.01434,0.01935,0.0002842,0.0006218,0.0144,6.676e-06,1.526e-05,0.1326,0.0003567,1.226,0.001666,0,0,0.0001936
71700000000,72000000000,771022573,0,336053503,0.007225,0.01434,0.01935,0.0002823,0.0006199,0.01442,8.583e-06,1.526e-05,0.103,0.0004997,1.223,0.001754,0,0,0.0003624
72300000000,72600000000,771022573,0,336053503,0.007858,0.01466,0.01935,0.0002947,0.0006323,0.01477,5.722e-06,1.526e-05,0.09229,0.0002146,1.222,0.00179,0,0,0.0001698
72600000000,72900000000,771022573,0,336053503,0.00724,0.01437,0.01935,0.0002851,0.0006227,0.01447,7.629e-06,1.526e-05,0.07263,0.0004282,1.201,0.001668,0,0,0.0002012
72900000000,73200000000,771022573,0,336053503,0.007889,0.01443,0.01935,0.0002851,0.0006227,0.01492,2.003e-05,1.526e-05,0.08398,0.00293,1.201,0.001661,0,0,0.0002737
73200000000,73500000000,771022573,0,336053503,0.007858,0.01472,0.01935,0.0002909,0.0006285,0.01483,6.676e-06,1.526e-05,0.06665,0.0003567,1.23,0.00181,0,0,0.0003357
73500000000,73800000000,771022573,0,336053503,0.007294,0.01439,0.01935,0.0002947,0.0006323,0.01448,1.24e-05,1.526e-05,0.1116,0.001072,1.216,0.001668,0,0,0.0003633
74100000000,74400000000,771022573,0,336053503,0.008072,0.01465,0.01935,0.0002995,0.0006371,0.01476,6.676e-06,1.526e-05,0.1097,0.0002146,1.226,0.00177,0,0,0.0009441
74400000000,74700000000,771022573,0,336053503,0.007256,0.01434,0.01935,0.0003033,0.0006409,0.01442,6.676e-06,1.526e-05,0.1277,0.0002146,1.218,0.001702,0,0,0.000741
74700000000,75000000000,771022573,0,336053503,0.007507,0.01434,0.01935,0.0002995,0.0006371,0.01442,5.722e-06,1.526e-05,0.1075,0.0002146,1.227,0.001806,0,0,0.0003414
75000000000,75300000000,771022573,0,336053503,0.008484,0.01439,0.01935,0.000289,0.0006247,0.01491,5.722e-06,1.526e-05,0.135,0.0002146,1.219,0.00184,0,0,0.0004616
75300000000,75600000000,771022573,0,336053503,0.007195,0.01465,0.01935,0.0002832,0.0006189,0.01476,7.629e-06,1.526e-05,0.114,0.0006428,1.216,0.001796,0,0,0.000165
75600000000,75900000000,771022573,0,336053503,0.006935,0.01436,0.01935,0.0002871,0.0006227,0.01442,1.049e-05,1.526e-05,0.1304,0.0009289,1.168,0.001649,0,0,0.002804
76200000000,76500000000,771022573,0,336053503,0.006958,0.01465,0.01935,0.0002937,0.0006294,0.01476,1.526e-05,1.526e-05,0.1326,0.002857,1.202,0.001811,0,0,0.0001574
76500000000,76800000000,771022573,0,336053503,0.007339,0.01436,0.01935,0.0002975,0.0006332,0.01462,1.335e-05,1.526e-05,0.1128,0.001785,1.172,0.001637,0,0,0.0003452
76800000000,77100000000,771022573,0,336053503,0.007759,0.0144,0.01935,0.0003014,0.0006361,0.0145,1.907e-05,1.526e-05,0.1118,0.00293,1.204,0.001684,0,0,0.0003309
77100000000,77400000000,771022573,0,336053503,0.007118,0.01443,0.01935,0.0003042,0.0006399,0.01489,9.537e-06,1.526e-05,0.1051,0.001072,1.195,0.001685,0,0,0.0002899
78000000000,78300000000,771022573,0,336053503,0.007271,0.01434,0.01935,0.0002909,0.0006266,0.0144,1.431e-05,1.526e-05,0.1331,0.001715,1.215,0.001614,0,0,0.001223
78900000000,79200000000,771022573,0,336053503,0.006935,0.01433,0.01935,0.0002871,0.0006227,0.0144,1.526e-05,1.526e-05,0.1296,0.00293,1.176,0.001618,0,0,0.0001822
79200000000,79500000000,771022573,0,336053503,0.007507,0.01437,0.01935,0.000289,0.0006237,0.01488,7.629e-06,1.526e-05,0.1458,0.0007143,1.183,0.00166,0,0,0.0002508
79500000000,79800000000,771022573,0,336053503,0.008057,0.01465,0.01935,0.0002756,0.0006104,0.01474,1.144e-05,1.526e-05,0.06934,0.0009289,1.221,0.001756,0,0,0.0004044
79800000000,80100000000,771022573,0,336053503,0.007179,0.01436,0.01935,0.0002766,0.0006123,0.01443,6.676e-06,1.526e-05,0.1304,0.0002146,1.182,0.001683,0,0,0.00035
80100000000,80400000000,771022573,0,336053503,0.007797,0.01439,0.01935,0.0002794,0.0006151,0.01506,8.583e-06,1.526e-05,0.1299,0.0004282,1.17,0.001719,0,0,0.05261
80400000000,80700000000,771022573,0,336053503,0.00795,0.01468,0.01935,0.0002842,0.0006199,0.0148,4.768e-06,1.526e-05,0.1255,7.153e-05,1.241,0.001811,0,0,0.0004425
80700000000,81000000000,771022573,0,336053503,0.007126,0.01437,0.01935,0.000288,0.0006237,0.01445,1.144e-05,1.526e-05,0.06946,0.001642,1.206,0.001658,0,0,0.0003805
86100000000,86400000000,771022573,0,336053503,0.007225,0.01434,0.01935,0.0003214,0.0006571,0.01442,7.629e-06,1.526e-05,0.1301,0.0004997,1.211,0.001707,0,0,0.0004063
86400000000,86700000000,771022573,0,336053503,0.007477,0.01437,0.01935,0.0003119,0.0006475,0.01486,1.335e-05,1.526e-05,0.1274,0.0009289,1.21,0.001658,0,0,0.000289
86700000000,87000000000,771022573,0,336053503,0.007996,0.01465,0.01935,0.000308,0.0006428,0.01474,1.144e-05,1.526e-05,0.1099,0.001928,1.22,0.001847,0,0,0.0005703
87000000000,87300000000,771022573,0,336053503,0.007011,0.01434,0.01935,0.0003042,0.0006399,0.01442,1.812e-05,1.526e-05,0.1035,0.002857,1.204,0.001669,0,0,0.0003805
87300000000,87600000000,771022573,0,336053503,0.007759,0.01437,0.01935,0.000308,0.0006437,0.01508,1.335e-05,1.526e-05,0.135,0.001215,1.205,0.001647,0,0,0.0001602
87600000000,87900000000,771022573,0,336053503,0.008072,0.01469,0.01935,0.000309,0.0006447,0.0148,1.049e-05,1.526e-05,0.1387,0.0006428,1.219,0.001867,0,0,0.0004654
87900000000,88200000000,771022573,0,336053503,0.007057,0.01437,0.01935,0.0003071,0.0006428,0.01445,1.049e-05,1.526e-05,0.12,0.0009289,1.189,0.001628,0,0,0.0003223
88200000000,88500000000,771022573,0,336053503,0.007401,0.01439,0.01935,0.0003099,0.0006456,0.01485,2.289e-05,1.526e-05,0.1194,0.002571,1.22,0.001662,0,0,0.000206
88500000000,88800000000,771022573,0,336053503,0.007996,0.01465,0.01935,0.000309,0.0006447,0.01474,1.24e-05,1.526e-05,0.1086,0.0009995,1.24,0.001903,0,0,0.0003052
89100000000,89400000000,771022573,0,336053503,0.007172,0.01437,0.01935,0.0003138,0.0006485,0.01489,8.583e-06,1.526e-05,0.09229,0.0007858,1.186,0.001659,0,0,0.0007668
89400000000,89700000000,771022573,0,336053503,0.007935,0.01466,0.01935,0.0003128,0.0006485,0.01476,5.722e-06,1.526e-05,0.1094,0.0002146,1.217,0.001917,0,0,0.05005
89700000000,90000000000,771022573,0,336053503,0.007278,0.01434,0.01935,0.0003042,0.0006399,0.01445,9.537e-06,1.526e-05,0.1343,0.001215,1.215,0.001812,0,0,0.0003796
90000000000,90300000000,771022573,0,336053503,0.007225,0.01434,0.01935,0.0002947,0.0006304,0.0144,1.526e-05,1.526e-05,0.09375,0.002071,1.216,0.001724,0,0,0.0001774
90600000000,90900000000,771022573,0,336053503,0.007462,0.01466,0.01935,0.0002909,0.0006266,0.01476,1.335e-05,1.526e-05,0.07239,0.00243,1.262,0.00204,0,0,0.06097
101400000000,101700000000,771022573,0,336053503,0.007187,0.01436,0.01935,0.0003347,0.0006704,0.01483,7.629e-06,1.621e-05,0.1075,0.0006428,1.189,0.001658,0,0,0.0002394
102000000000,102300000000,771022573,0,336053503,0.007614,0.0144,0.01935,0.0003395,0.0006752,0.01463,1.717e-05,1.621e-05,0.1279,0.001499,1.223,0.001935,0,0,0.0002365
102300000000,102600000000,771022573,0,336053503,0.006859,0.01439,0.01935,0.0003414,0.0006771,0.01445,9.537e-06,1.621e-05,0.1249,0.0009995,1.178,0.0017,0,0,0.000432
102600000000,102900000000,771022573,0,336053503,0.006844,0.01439,0.01935,0.0003395,0.0006752,0.01445,2.003e-05,1.621e-05,0.08606,0.002857,1.161,0.001677,0,0,0.0001488
103200000000,103500000000,771022573,0,336053503,0.006836,0.01437,0.01935,0.0003443,0.00068,0.01443,6.676e-06,1.621e-05,0.1212,0.0005713,1.169,0.001657,0,0,0.0006342
104700000000,105000000000,771022573,0,336053503,0.007782,0.01466,0.01935,0.0003471,0.0006828,0.01476,5.722e-06,1.621e-05,0.1296,0.0002146,1.158,0.001504,0,0,0.0003777
105000000000,105300000000,771022573,0,336053503,0.006889,0.01436,0.01935,0.000349,0.0006847,0.01457,7.629e-06,1.621e-05,0.08618,0.0004282,1.173,0.00164,0,0,0.0006161
105300000000,105600000000,771022573,0,336053503,0.00753,0.01436,0.01935,0.000351,0.0006866,0.01494,1.24e-05,1.621e-05,0.1217,0.0007143,1.188,0.001668,0,0,0.0006876
105600000000,105900000000,771022573,0,336053503,0.00766,0.01468,0.01935,0.0003529,0.0006886,0.01489,5.722e-06,1.621e-05,0.1299,0.0001431,1.206,0.001809,0,0,0.0001841
105900000000,106200000000,771022573,0,336053503,0.006798,0.01436,0.01935,0.0003567,0.0006924,0.01463,5.722e-06,1.621e-05,0.1328,0.0001431,1.189,0.001735,0,0,0.04761
106500000000,106800000000,771022573,0,336053503,0.007759,0.01433,0.01935,0.0003643,0.0007,0.01488,6.676e-06,1.621e-05,0.06738,0.0002146,1.175,0.001694,0,0,0.0004349
106800000000,107100000000,771022573,0,336053503,0.006966,0.01465,0.01935,0.0003681,0.0007038,0.01485,1.812e-05,1.621e-05,0.06885,0.002857,1.198,0.001837,0,0,0.0003366
107100000000,107400000000,771022573,0,336053503,0.00679,0.01434,0.01935,0.00037,0.0007057,0.0146,1.526e-05,1.621e-05,0.07898,0.00293,1.201,0.001729,0,0,0.06165
107700000000,108000000000,771022573,0,336053503,0.007233,0.01465,0.01935,0.0003738,0.0007095,0.01483,7.629e-06,1.621e-05,0.07288,0.0007143,1.199,0.001848,0,0,0.0003633
108000000000,108300000000,771022573,0,336053503,0.006813,0.01434,0.01935,0.0003767,0.0007124,0.01465,9.537e-06,1.621e-05,0.0741,0.001358,1.159,0.001701,0,0,0.0002804
108600000000,108900000000,771022573,0,336053503,0.007156,0.01468,0.01935,0.0003796,0.0007153,0.01486,5.722e-06,1.621e-05,0.08386,0.0001431,1.186,0.001778,0,0,0.05054
108900000000,109200000000,771022573,0,336053503,0.007317,0.01436,0.01935,0.0003843,0.0007191,0.01468,9.537e-06,1.621e-05,0.1082,0.0005713,1.185,0.001724,0,0,0.0004072
109200000000,109500000000,771022573,0,336053503,0.007591,0.01437,0.01935,0.0003872,0.0007229,0.01447,1.049e-05,1.621e-05,0.07507,0.0009995,1.193,0.001716,0,0,0.0004368
109500000000,109800000000,771022573,0,336053503,0.007172,0.01468,0.01935,0.0003872,0.0007229,0.01488,5.722e-06,1.621e-05,0.1053,0.0002146,1.203,0.001786,0,0,0.0006771
109800000000,110100000000,771022573,0,336053503,0.006805,0.01437,0.01935,0.0003881,0.0007229,0.01469,8.583e-06,1.621e-05,0.1411,0.0007143,1.187,0.001741,0,0,0.0005426
110100000000,110400000000,771022573,0,336053503,0.007744,0.01434,0.01935,0.0003834,0.0007191,0.0144,5.722e-06,1.621e-05,0.09119,0.0002146,1.185,0.00173,0,0,0.06274
110700000000,111000000000,771022573,0,336053503,0.006889,0.01434,0.01935,0.0003815,0.0007172,0.01442,6.676e-06,1.621e-05,0.09143,0.0002861,1.167,0.001657,0,0,0.0001984
116700000000,117000000000,771022573,0,336053503,0.007591,0.01466,0.01935,0.0003824,0.0007181,0.01491,1.431e-05,1.621e-05,0.121,0.001072,1.26,0.001888,0,0,0.0007849
117300000000,117600000000,771022573,0,336053503,0.007904,0.01434,0.01935,0.000391,0.0007267,0.01442,5.722e-06,1.621e-05,0.1115,0.0002146,1.192,0.001648,0,0,0.000576
117600000000,117900000000,771022573,0,336053503,0.00724,0.01466,0.01935,0.0003939,0.0007296,0.01492,2.67e-05,1.621e-05,0.126,0.002857,1.239,0.001856,0,0,0.0545
117900000000,118200000000,771022573,0,336053503,0.007004,0.01437,0.01935,0.0003958,0.0007315,0.01469,1.431e-05,1.621e-05,0.07825,0.001215,1.18,0.001652,0,0,0.0001326
118200000000,118500000000,771022573,0,336053503,0.00779,0.01434,0.01935,0.0003996,0.0007353,0.0144,1.335e-05,1.621e-05,0.1096,0.001572,1.177,0.001691,0,0,0.0003843
118500000000,118800000000,771022573,0,336053503,0.007317,0.01465,0.01935,0.0004044,0.0007401,0.01488,1.907e-05,1.621e-05,0.1226,0.00293,1.217,0.001814,0,0,0.0005846
119100000000,119400000000,771022573,0,336053503,0.007599,0.01433,0.01935,0.0004129,0.0007477,0.01439,5.722e-06,1.621e-05,0.1121,0.0002861,1.167,0.001574,0,0,0.06641
119400000000,119700000000,771022573,0,336053503,0.007256,0.01465,0.01935,0.0004177,0.0007534,0.01492,4.768e-06,1.717e-05,0.1085,7.153e-05,1.199,0.001739,0,0,0.0005503
119700000000,120000000000,771022573,0,336053503,0.007378,0.01439,0.01935,0.0004215,0.0007572,0.01469,8.583e-06,1.717e-05,0.06909,0.0003567,1.193,0.001611,0,0,0.003296
120000000000,120300000000,771022573,0,336053503,0.007767,0.0144,0.01935,0.0004263,0.000762,0.01448,8.583e-06,1.717e-05,0.1018,0.0005713,1.182,0.00161,0,0,0.0006409
120600000000,120900000000,771022573,0,336053503,0.006966,0.01439,0.01935,0.0004292,0.0007648,0.01472,1.812e-05,1.717e-05,0.07715,0.002857,1.178,0.001601,0,0,0.0003853
126000000000,126300000000,771022573,0,336053503,0.007256,0.01466,0.01935,0.0004311,0.0007658,0.01489,1.717e-05,1.717e-05,0.08008,0.002857,1.228,0.001787,0,0,0.000371
126600000000,126900000000,771022573,0,336053503,0.006927,0.01436,0.01935,0.0004158,0.0007515,0.01442,2.384e-05,1.717e-05,0.1193,0.002857,1.19,0.001676,0,0,0.000247
126900000000,127200000000,771022573,0,336053503,0.007355,0.01437,0.01935,0.0004168,0.0007515,0.01457,1.431e-05,1.717e-05,0.1075,0.001785,1.199,0.001703,0,0,0.0005093
127200000000,127500000000,771022573,0,336053503,0.007874,0.01468,0.01935,0.0004034,0.0007391,0.01494,7.629e-06,1.717e-05,0.09021,0.0004282,1.225,0.001855,0,0,0.0007906
127500000000,127800000000,771022573,0,336053503,0.006897,0.01442,0.01935,0.0004025,0.0007381,0.01474,1.907e-05,1.717e-05,0.1069,0.002857,1.172,0.001628,0,0,0.006355
127800000000,128100000000,771022573,0,336053503,0.006767,0.01437,0.01935,0.0004025,0.0007381,0.01443,2.003e-05,1.717e-05,0.1112,0.002857,1.155,0.001653,0,0,0.000577
128100000000,128400000000,771022573,0,336053503,0.007996,0.01466,0.01935,0.0004063,0.000741,0.01489,6.676e-06,1.717e-05,0.07385,0.0006428,1.196,0.001791,0,0,0.0002346
128400000000,128700000000,771022573,0,336053503,0.006798,0.01439,0.01935,0.0004091,0.0007448,0.01471,5.722e-06,1.717e-05,0.1105,7.153e-05,1.154,0.00161,0,0,0.0006113
128700000000,129000000000,771022573,0,336053503,0.007095,0.01434,0.01935,0.0004101,0.0007458,0.0144,6.676e-06,1.717e-05,0.104,0.0004997,1.194,0.001718,0,0,0.0002775
129000000000,129300000000,771022573,0,336053503,0.008102,0.01463,0.01935,0.000411,0.0007458,0.01488,1.335e-05,1.717e-05,0.1292,0.001072,1.245,0.001951,0,0,0.000268
129300000000,129600000000,771022573,0,336053503,0.006989,0.01439,0.01935,0.000411,0.0007467,0.01469,1.144e-05,1.717e-05,0.1201,0.001143,1.189,0.001683,0,0,0.000267
129600000000,129900000000,771022573,0,336053503,0.006714,0.01434,0.01935,0.0004129,0.0007486,0.01442,1.24e-05,1.717e-05,0.1045,0.0007143,1.168,0.001634,0,0,0.003319
130200000000,130500000000,771022573,0,336053503,0.006996,0.0144,0.01935,0.0004187,0.0007544,0.01471,9.537e-06,1.717e-05,0.1224,0.001072,1.175,0.001786,0,0,0.0003548
130500000000,130800000000,771022573,0,336053503,0.00721,0.01436,0.01935,0.0004187,0.0007544,0.01456,1.431e-05,1.717e-05,0.1154,0.001429,1.155,0.001629,0,0,0.0003347
130800000000,131100000000,771022573,0,336053503,0.007782,0.01466,0.01935,0.0004215,0.0007572,0.01495,7.629e-06,1.717e-05,0.1023,0.0005713,1.216,0.001909,0,0,0.0006723
141000000000,141300000000,771022573,0,336053503,0.006882,0.0144,0.01935,0.0004301,0.0007658,0.01471,1.431e-05,1.717e-05,0.09619,0.001072,1.155,0.001754,0,0,0.0001621
141600000000,141900000000,771022573,0,336053503,0.007828,0.01463,0.01935,0.0004387,0.0007744,0.01488,9.537e-06,1.717e-05,0.1399,0.0005713,1.186,0.001947,0,0,0.01047
141900000000,142200000000,771022573,0,336053503,0.006844,0.01442,0.01935,0.0004387,0.0007744,0.01472,9.537e-06,1.717e-05,0.1204,0.0006428,1.172,0.00175,0,0,0.0002232
142200000000,142500000000,771022573,0,336053503,0.006927,0.01437,0.01932,0.0007992,0.001135,0.01445,7.629e-06,1.717e-05,0.1184,0.0005713,1.2,0.001793,0,0,0.0001049
142500000000,142800000000,771022573,0,336053503,0.007797,0.01437,0.01935,0.0006275,0.0009632,0.01445,6.676e-06,1.717e-05,0.07019,0.0003567,1.16,0.001704,0,0,0.0007124
142800000000,143100000000,771022573,0,336053503,0.006821,0.01436,0.01935,0.0004396,0.0007753,0.01443,1.526e-05,1.717e-05,0.09546,0.002857,1.168,0.001683,0,0,0.0007868
143100000000,143400000000,771022573,0,336053503,0.007156,0.01463,0.01935,0.0004311,0.0007668,0.01488,7.629e-06,1.717e-05,0.09595,0.0005713,1.211,0.001834,0,0,0.000186
143400000000,143700000000,771022573,0,336053503,0.007721,0.01442,0.01935,0.000433,0.0007687,0.01472,5.722e-06,1.717e-05,0.1165,0.0001431,1.186,0.001678,0,0,0.06848
143700000000,144000000000,771022573,0,336053503,0.006912,0.01436,0.01935,0.0004311,0.0007658,0.01443,7.629e-06,1.717e-05,0.1199,0.0005713,1.158,0.001705,0,0,0.0001192
144000000000,144300000000,771022573,0,336053503,0.00708,0.01436,0.01935,0.0004339,0.0007696,0.01442,7.629e-06,1.717e-05,0.09265,0.0004282,1.137,0.001656,0,0,0.0001917
144300000000,144600000000,771022573,0,336053503,0.007706,0.01436,0.01935,0.0004377,0.0007734,0.01442,1.431e-05,1.717e-05,0.07849,0.002785,1.187,0.001647,0,0,0.0003929
144900000000,145200000000,771022573,0,336053503,0.008087,0.01465,0.01935,0.0004406,0.0007753,0.01489,1.144e-05,1.717e-05,0.1304,0.0007143,1.237,0.001783,0,0,0.000165
145500000000,145800000000,771022573,0,336053503,0.007195,0.0144,0.01935,0.000432,0.0007677,0.01448,1.526e-05,1.717e-05,0.1064,0.002857,1.242,0.001738,0,0,0.0003195
145800000000,146100000000,771022573,0,336053503,0.007362,0.01439,0.01935,0.0004301,0.0007658,0.01445,7.629e-06,1.717e-05,0.08435,0.0003567,1.229,0.001793,0,0,0.0002766
151200000000,151500000000,771022573,0,336053503,0.007256,0.01462,0.01935,0.0004501,0.0007858,0.01485,8.583e-06,1.812e-05,0.1058,0.0004282,1.198,0.001525,0,0,0.0003014
151800000000,152100000000,771022573,0,336053503,0.007011,0.01436,0.01935,0.0004549,0.0007906,0.01443,2.289e-05,1.812e-05,0.07715,0.002857,1.19,0.001612,0,0,0.0002985
152100000000,152400000000,771022573,0,336053503,0.007629,0.01437,0.01935,0.0004587,0.0007944,0.01462,9.537e-06,1.812e-05,0.1213,0.0004997,1.202,0.001689,0,0,0.06262
152400000000,152700000000,771022573,0,336053503,0.008148,0.01466,0.01935,0.0004644,0.0008001,0.01495,8.583e-06,1.812e-05,0.07898,0.0007143,1.219,0.001554,0,0,0.0001822
153300000000,153600000000,771022573,0,336053503,0.007996,0.01437,0.01935,0.0004587,0.0007944,0.01443,2.003e-05,1.812e-05,0.1196,0.00293,1.24,0.001695,0,0,0.0003014
153900000000,154200000000,771022573,0,336053503,0.007187,0.01445,0.01935,0.0004482,0.0007839,0.01474,9.537e-06,1.812e-05,0.1138,0.001072,1.247,0.001848,0,0,0.0001135
154200000000,154500000000,771022573,0,336053503,0.007812,0.01437,0.01935,0.0004406,0.0007763,0.01445,7.629e-06,1.812e-05,0.1392,0.0006428,1.195,0.001608,0,0,0.0002756
154500000000,154800000000,771022573,0,336053503,0.00695,0.01437,0.01935,0.0004349,0.0007706,0.01443,6.676e-06,1.812e-05,0.06982,0.0002146,1.215,0.001693,0,0,0.000165
154800000000,155100000000,771022573,0,336053503,0.007248,0.01465,0.01935,0.0004396,0.0007753,0.01494,6.676e-06,1.812e-05,0.1077,0.0003567,1.204,0.001754,0,0,0.0001659
155100000000,155400000000,771022573,0,336053503,0.007874,0.01447,0.01935,0.0004435,0.0007792,0.01474,1.144e-05,1.812e-05,0.103,0.001215,1.198,0.001686,0,0,0.00072
155400000000,155700000000,771022573,0,336053503,0.007027,0.01437,0.01935,0.0004454,0.0007811,0.01445,1.717e-05,1.812e-05,0.06958,0.002716,1.194,0.001696,0,0,0.0003824
155700000000,156000000000,771022573,0,336053503,0.007454,0.01439,0.01935,0.0004482,0.0007839,0.01459,1.144e-05,1.812e-05,0.127,0.001286,1.191,0.001614,0,0,0.0006323
161100000000,161400000000,771022573,0,336053503,0.007103,0.01439,0.01935,0.0004482,0.0007839,0.01445,2.003e-05,1.812e-05,0.1165,0.00293,1.19,0.001621,0,0,0.0001373
161400000000,161700000000,771022573,0,336053503,0.007919,0.01463,0.01935,0.0004444,0.0007801,0.01489,1.526e-05,1.812e-05,0.1083,0.002857,1.211,0.001666,0,0,0.0002337
161700000000,162000000000,771022573,0,336053503,0.006943,0.01447,0.01935,0.0004463,0.000782,0.01474,7.629e-06,1.812e-05,0.1134,0.0004282,1.175,0.001607,0,0,0.0006247
162000000000,162300000000,771022573,0,336053503,0.007004,0.01437,0.01935,0.0004501,0.0007858,0.01443,5.722e-06,1.812e-05,0.1123,0.0003567,1.237,0.001615,0,0,0.0002871
162300000000,162600000000,771022573,0,336053503,0.007843,0.01437,0.01935,0.0004539,0.0007896,0.01445,7.629e-06,1.812e-05,0.1193,0.0004997,1.18,0.001594,0,0,0.06232
162900000000,163200000000,771022573,0,336053503,0.007591,0.01447,0.01935,0.000452,0.0007877,0.01472,1.049e-05,1.812e-05,0.1206,0.0006428,1.194,0.001629,0,0,0.0003529
163500000000,163800000000,771022573,0,336053503,0.006935,0.01442,0.01935,0.000452,0.0007877,0.01448,1.526e-05,1.812e-05,0.1118,0.00293,1.166,0.001594,0,0,0.0002871
163800000000,164100000000,771022573,0,336053503,0.007248,0.01465,0.01935,0.0004559,0.0007925,0.01494,1.812e-05,1.812e-05,0.103,0.002857,1.22,0.001737,0,0,0.0007238
164100000000,164400000000,771022573,0,336053503,0.007843,0.01448,0.01935,0.0004606,0.0007963,0.01476,5.722e-06,1.812e-05,0.1022,0.0002146,1.187,0.001636,0,0,0.0001707
164700000000,165000000000,771022573,0,336053503,0.007072,0.01437,0.01935,0.0004625,0.0007982,0.01445,2.289e-05,1.812e-05,0.06897,0.003784,1.192,0.001601,0,0,0.0002975
165000000000,165300000000,771022573,0,336053503,0.007751,0.01437,0.01935,0.0004663,0.000802,0.01445,1.621e-05,1.812e-05,0.0686,0.002857,1.163,0.001561,0,0,0.0004091
165300000000,165600000000,771022573,0,336053503,0.007256,0.01463,0.01935,0.0004616,0.0007973,0.01494,1.24e-05,1.812e-05,0.09412,0.001215,1.184,0.00172,0,0,0.0003195
165900000000,166200000000,771022573,0,336053503,0.007698,0.01437,0.01935,0.0004654,0.0008011,0.01445,1.24e-05,1.812e-05,0.1296,0.001286,1.158,0.001569,0,0,0.0009432
166500000000,166800000000,771022573,0,336053503,0.007996,0.01447,0.01935,0.0004749,0.0008106,0.01472,1.907e-05,1.812e-05,0.1284,0.0008574,1.257,0.001711,0,0,0.05273
166800000000,167100000000,771022573,0,336053503,0.008667,0.01465,0.01935,0.0004711,0.0008068,0.01497,6.676e-06,1.812e-05,0.1318,0.0002861,1.442,0.002033,0,0,0.000556
167100000000,167400000000,771022573,0,336053503,0.007355,0.01448,0.01935,0.0004654,0.0008011,0.01476,9.537e-06,1.812e-05,0.09277,0.0007858,1.224,0.001745,0,0,0.000658
167400000000,167700000000,771022573,0,336053503,0.007339,0.01439,0.01935,0.0004625,0.0007982,0.01445,8.583e-06,1.812e-05,0.1216,0.0008574,1.215,0.00171,0,0,0.0002737
168000000000,168300000000,771022573,0,336053503,0.007347,0.01448,0.01935,0.0004644,0.0008001,0.01477,7.629e-06,1.812e-05,0.0813,0.0007858,1.203,0.001751,0,0,0.0003319
168300000000,168600000000,771022573,0,336053503,0.007362,0.01437,0.01935,0.0004644,0.0008001,0.01445,4.768e-06,1.812e-05,0.1171,0.0002146,1.208,0.001683,0,0,0.0002117
168600000000,168900000000,771022573,0,336053503,0.008194,0.01462,0.01935,0.0004654,0.0008011,0.01492,7.629e-06,1.812e-05,0.06934,0.0005713,1.202,0.001691,0,0,0.06238
169200000000,169500000000,771022573,0,336053503,0.007309,0.01436,0.01935,0.0004692,0.0008049,0.01442,1.431e-05,1.812e-05,0.07068,0.002499,1.249,0.00164,0,0,0.0002918
169500000000,169800000000,771022573,0,336053503,0.00853,0.01462,0.01935,0.000474,0.0008097,0.01489,1.144e-05,1.812e-05,0.07397,0.001072,1.275,0.001777,0,0,0.05267
170100000000,170400000000,771022573,0,336053503,0.007996,0.01437,0.01935,0.0004578,0.0007935,0.01459,1.335e-05,1.812e-05,0.1309,0.001143,1.246,0.001735,0,0,0.0002632
170400000000,170700000000,771022573,0,336053503,0.008484,0.01463,0.01935,0.0004616,0.0007973,0.01494,1.526e-05,1.812e-05,0.1335,0.002857,1.234,0.001832,0,0,0.0003128
171300000000,171600000000,771022573,0,336053503,0.00795,0.01447,0.01935,0.0004721,0.0008078,0.01472,8.583e-06,1.812e-05,0.1198,0.0007143,1.22,0.001686,0,0,0.0006971
171600000000,171900000000,771022573,0,336053503,0.007072,0.01436,0.01935,0.0004654,0.0008011,0.01443,8.583e-06,1.812e-05,0.1235,0.0006428,1.181,0.001662,0,0,0.0006924
172800000000,173100000000,771022573,0,336053503,0.007393,0.0146,0.01935,0.0004816,0.0008173,0.01485,1.24e-05,1.812e-05,0.1156,0.0002861,1.265,0.001949,0,0,0.004227
173100000000,173400000000,771022573,0,336053503,0.007637,0.01447,0.01935,0.0004845,0.0008202,0.01471,1.621e-05,1.812e-05,0.1147,0.00293,1.157,0.001688,0,0,0.0003099
173400000000,173700000000,771022573,0,336053503,0.006668,0.01436,0.01935,0.0004807,0.0008163,0.01442,8.583e-06,1.812e-05,0.1016,0.0007143,1.148,0.00169,0,0,0.06189
173700000000,174000000000,771022573,0,336053503,0.007492,0.0146,0.01935,0.0004835,0.0008192,0.01488,1.049e-05,1.907e-05,0.0719,0.001215,1.176,0.001853,0,0,0.06433
174000000000,174300000000,771022573,0,336053503,0.007507,0.01451,0.01935,0.0004883,0.000824,0.01479,8.583e-06,1.907e-05,0.1163,0.0009289,1.129,0.001713,0,0,0.0001802
174300000000,174600000000,771022573,0,336053503,0.006714,0.01439,0.01935,0.0004892,0.0008249,0.01447,5.722e-06,1.907e-05,0.1282,0.0002146,1.161,0.001712,0,0,0.0001984
174600000000,174900000000,771022573,0,336053503,0.007027,0.01462,0.01935,0.0004902,0.0008259,0.01491,1.144e-05,1.907e-05,0.1055,0.0008574,1.186,0.001859,0,0,0.0004263
174900000000,175200000000,771022573,0,336053503,0.007462,0.01448,0.01935,0.0004873,0.000823,0.01474,1.717e-05,1.907e-05,0.1129,0.00243,1.148,0.001669,0,0,0.0006256
175200000000,175500000000,771022573,0,336053503,0.006912,0.01437,0.01935,0.0004902,0.0008259,0.01443,5.722e-06,1.907e-05,0.1033,0.0002146,1.169,0.001632,0,0,0.0007286
175500000000,175800000000,771022573,0,336053503,0.00753,0.01462,0.01935,0.0004816,0.0008173,0.01491,9.537e-06,1.907e-05,0.1083,0.0007858,1.246,0.001848,0,0,0.0009403
175800000000,176100000000,771022573,0,336053503,0.008072,0.01448,0.01935,0.0004759,0.0008116,0.01474,5.722e-06,1.907e-05,0.1213,0.0002146,1.235,0.001704,0,0,0.06335
186300000000,186600000000,771022573,0,336053503,0.007256,0.01447,0.01935,0.0004978,0.0008335,0.01471,5.722e-06,1.907e-05,0.1355,0.0001431,1.2,0.001638,0,0,0.0004902
186600000000,186900000000,771022573,0,336053503,0.008194,0.01436,0.01935,0.0004988,0.0008345,0.01442,6.676e-06,1.907e-05,0.1034,0.0004282,1.231,0.001626,0,0,0.0002489
186900000000,187200000000,771022573,0,336053503,0.007614,0.01459,0.01935,0.0005016,0.0008373,0.01491,8.583e-06,1.907e-05,0.1176,0.0007858,1.243,0.00179,0,0,0.0003252
187200000000,187500000000,771022573,0,336053503,0.006958,0.0145,0.01935,0.0005054,0.0008402,0.01474,5.722e-06,1.907e-05,0.1333,0.0001431,1.187,0.001555,0,0,0.04419
187800000000,188100000000,771022573,0,336053503,0.007011,0.01457,0.01935,0.0005131,0.0008488,0.01488,5.722e-06,1.907e-05,0.1055,0.0002146,1.134,0.00138,0,0,0.0001936
188100000000,188400000000,771022573,0,336053503,0.007256,0.01451,0.01935,0.0005178,0.0008535,0.01472,6.676e-06,1.907e-05,0.1025,0.0002146,1.246,0.001688,0,0,0.0003071
188400000000,188700000000,771022573,0,336053503,0.007515,0.0144,0.01935,0.0005217,0.0008574,0.01448,5.722e-06,1.907e-05,0.1086,0.0001431,1.203,0.001504,0,0,0.0001202
189000000000,189300000000,771022573,0,336053503,0.007156,0.0146,0.01935,0.0005283,0.000864,0.01492,5.722e-06,1.907e-05,0.1226,0.0002146,1.194,0.001417,0,0,0.01453
189300000000,189600000000,771022573,0,336053503,0.007607,0.0145,0.01935,0.0005322,0.0008678,0.01474,5.722e-06,1.907e-05,0.08643,0.0002146,1.185,0.00164,0,0,0.0005713
189900000000,190200000000,771022573,0,336053503,0.006889,0.01456,0.01935,0.0005407,0.0008764,0.01486,1.144e-05,1.907e-05,0.06897,0.001572,1.137,0.001444,0,0,0.0007744
190500000000,190800000000,771022573,0,336053503,0.006714,0.01434,0.01935,0.0005465,0.0008821,0.01442,5.722e-06,1.907e-05,0.1296,0.0002146,1.138,0.001561,0,0,0.0007076
190800000000,191100000000,771022573,0,336053503,0.006599,0.01436,0.01935,0.0005379,0.0008736,0.01442,1.049e-05,1.907e-05,0.115,0.001499,1.144,0.001627,0,0,0.0002146
191100000000,191400000000,771022573,0,336053503,0.007668,0.01457,0.01935,0.0005417,0.0008774,0.01486,5.722e-06,1.907e-05,0.09668,0.0002146,1.129,0.001491,0,0,0.06519
191400000000,191700000000,771022573,0,336053503,0.006584,0.01448,0.01935,0.0005465,0.0008821,0.01472,8.583e-06,1.907e-05,0.08838,0.0007858,1.194,0.001767,0,0,0.0003891
191700000000,192000000000,771022573,0,336053503,0.007217,0.01436,0.01935,0.0005484,0.0008841,0.01456,1.049e-05,1.907e-05,0.09119,0.0007858,1.188,0.001612,0,0,0.0001936
192300000000,192600000000,771022573,0,336053503,0.006859,0.01448,0.01935,0.0005541,0.0008898,0.01471,1.144e-05,1.907e-05,0.06958,0.001928,1.203,0.001826,0,0,0.0002918
192600000000,192900000000,771022573,0,336053503,0.006645,0.01434,0.01935,0.0005579,0.0008936,0.0144,7.629e-06,1.907e-05,0.1027,0.0007858,1.161,0.001609,0,0,0.0003843
193200000000,193500000000,771022573,0,336053503,0.006851,0.0145,0.01935,0.0005674,0.0009022,0.01472,5.722e-06,1.907e-05,0.1057,0.0001431,1.223,0.001817,0,0,0.0004034
193500000000,193800000000,771022573,0,336053503,0.006859,0.01436,0.01935,0.0005693,0.000905,0.01443,1.144e-05,1.907e-05,0.09021,0.001858,1.208,0.001581,0,0,0.0002098
193800000000,194100000000,771022573,0,336053503,0.007904,0.01454,0.01935,0.0005703,0.000906,0.01488,5.722e-06,1.907e-05,0.1318,0.0001431,1.178,0.001571,0,0,0.0003633
194400000000,194700000000,771022573,0,336053503,0.006958,0.01433,0.01935,0.0005655,0.0009012,0.0144,5.722e-06,1.907e-05,0.1057,0.0001431,1.151,0.00151,0,0,0.0008211
194700000000,195000000000,771022573,0,336053503,0.008041,0.01456,0.01935,0.0005674,0.0009031,0.01489,1.431e-05,1.907e-05,0.09351,0.002144,1.18,0.001471,0,0,0.0007505
195300000000,195600000000,771022573,0,336053503,0.007217,0.01436,0.01935,0.0005589,0.0008945,0.01457,7.629e-06,1.907e-05,0.0802,0.0002146,1.156,0.00146,0,0,0.05377
195600000000,195900000000,771022573,0,336053503,0.00766,0.0146,0.01935,0.0005636,0.0008984,0.01497,5.722e-06,1.907e-05,0.1306,0.0001431,1.271,0.001598,0,0,0.03125
195900000000,196200000000,771022573,0,336053503,0.007019,0.01453,0.01935,0.0005674,0.0009031,0.01476,6.676e-06,1.907e-05,0.1309,0.0002146,1.154,0.001524,0,0,0.0001268
201300000000,201600000000,771022573,0,336053503,0.007141,0.01451,0.01935,0.0005589,0.0008945,0.01472,5.722e-06,2.003e-05,0.09534,0.0002146,1.262,0.001656,0,0,0.0001535
201900000000,202200000000,771022573,0,336053503,0.007965,0.01456,0.01935,0.0005598,0.0008955,0.01486,6.676e-06,2.003e-05,0.0686,0.0005713,1.269,0.00171,0,0,0.0002108
202200000000,202500000000,771022573,0,336053503,0.007156,0.0145,0.01935,0.0005598,0.0008955,0.01471,1.335e-05,2.003e-05,0.103,0.001572,1.249,0.001623,0,0,0.0003481
202800000000,203100000000,771022573,0,336053503,0.007614,0.01459,0.01935,0.0005589,0.0008945,0.01489,7.629e-06,2.003e-05,0.1012,0.0004997,1.461,0.001812,0,0,0.0003529
203100000000,203400000000,771022573,0,336053503,0.006607,0.01451,0.01935,0.0005636,0.0008993,0.01474,6.676e-06,2.003e-05,0.06946,0.0004997,1.137,0.001591,0,0,0.0005999
203700000000,204000000000,771022573,0,336053503,0.007576,0.01456,0.01935,0.0005703,0.000906,0.01492,6.676e-06,2.003e-05,0.06702,0.0005713,1.142,0.001595,0,0,0.0002508
204000000000,204300000000,771022573,0,336053503,0.00663,0.01451,0.01935,0.0005741,0.0009098,0.01472,7.629e-06,2.003e-05,0.07898,0.0005713,1.151,0.00163,0,0,0.06873
204300000000,204600000000,771022573,0,336053503,0.006569,0.01436,0.01935,0.0005779,0.0009136,0.01442,2.098e-05,2.003e-05,0.1021,0.00293,1.107,0.001472,0,0,0.0001736
204600000000,204900000000,771022573,0,336053503,0.007431,0.01436,0.01935,0.0005808,0.0009165,0.01443,2.289e-05,2.003e-05,0.1023,0.002857,1.129,0.001568,0,0,0.0007858
204900000000,205200000000,771022573,0,336053503,0.006813,0.01456,0.01935,0.0005789,0.0009146,0.01494,7.629e-06,2.003e-05,0.1252,0.0005713,1.16,0.00165,0,0,0.0009079
205200000000,205500000000,771022573,0,336053503,0.006531,0.01453,0.01935,0.0005779,0.0009136,0.01472,5.722e-06,2.003e-05,0.1021,0.0002146,1.114,0.001512,0,0,0.0001879
205500000000,205800000000,771022573,0,336053503,0.007347,0.01437,0.01935,0.0005798,0.0009155,0.01443,5.722e-06,2.003e-05,0.08008,0.0002146,1.103,0.001486,0,0,0.0003633
205800000000,206100000000,771022573,0,336053503,0.006935,0.01456,0.01935,0.0005798,0.0009155,0.01492,1.526e-05,2.003e-05,0.1299,0.002857,1.171,0.001643,0,0,0.0001297
206100000000,206400000000,771022573,0,336053503,0.007233,0.01453,0.01935,0.0005817,0.0009174,0.01474,1.049e-05,2.003e-05,0.1005,0.0007858,1.161,0.001668,0,0,0.0001707
206700000000,207000000000,771022573,0,336053503,0.006966,0.01457,0.01935,0.0005836,0.0009193,0.01495,2.48e-05,2.003e-05,0.124,0.00293,1.163,0.001672,0,0,0.0004416
207000000000,207300000000,771022573,0,336053503,0.007126,0.01451,0.01935,0.0005865,0.0009222,0.01472,5.722e-06,2.003e-05,0.1069,0.0001431,1.187,0.001579,0,0,0.0002766
207300000000,207600000000,771022573,0,336053503,0.007874,0.01436,0.01935,0.0005894,0.0009251,0.01442,1.144e-05,2.003e-05,0.1001,0.001858,1.195,0.001588,0,0,0.06299
207600000000,207900000000,771022573,0,336053503,0.007347,0.01454,0.01935,0.0005827,0.0009184,0.01492,5.722e-06,2.003e-05,0.1071,0.0002146,1.259,0.001748,0,0,0.0002661
208200000000,208500000000,771022573,0,336053503,0.008133,0.01454,0.01935,0.000576,0.0009117,0.01489,4.768e-06,2.003e-05,0.07495,0.0001431,1.228,0.001687,0,0,0.0005856
208500000000,208800000000,771022573,0,336053503,0.007019,0.01451,0.01935,0.0005779,0.0009136,0.01472,1.812e-05,2.003e-05,0.06812,0.00293,1.172,0.00164,0,0,0.0002947
208800000000,209100000000,771022573,0,336053503,0.006783,0.01434,0.01935,0.0005808,0.0009165,0.01443,8.583e-06,2.003e-05,0.09033,0.0009289,1.161,0.001604,0,0,0.05103
209100000000,209400000000,771022573,0,336053503,0.007843,0.01453,0.01935,0.0005827,0.0009184,0.01486,5.722e-06,2.003e-05,0.1239,0.0002146,1.172,0.001707,0,0,0.0003757
209400000000,209700000000,771022573,0,336053503,0.006783,0.01451,0.01935,0.000577,0.0009127,0.01472,6.676e-06,2.003e-05,0.1257,0.0003567,1.195,0.001646,0,0,0.0002661
210000000000,210300000000,771022573,0,336053503,0.007751,0.01457,0.01935,0.0005798,0.0009155,0.01489,5.722e-06,2.003e-05,0.126,0.0002146,1.329,0.001809,0,0,0.06262
210600000000,210900000000,771022573,0,336053503,0.006699,0.01436,0.01935,0.0005751,0.0009098,0.01443,4.768e-06,2.003e-05,0.12,7.153e-05,1.121,0.001528,0,0,0.0495
210900000000,211200000000,771022573,0,336053503,0.007523,0.01436,0.01935,0.0005751,0.0009108,0.01443,1.431e-05,2.003e-05,0.1122,0.00293,1.136,0.001544,0,0,0.0002022
211200000000,211500000000,771022573,0,336053503,0.006927,0.01454,0.01935,0.0005798,0.0009155,0.01486,6.676e-06,2.003e-05,0.1172,0.0002146,1.199,0.001698,0,0,0.06897
211800000000,212100000000,771022573,0,336053503,0.007469,0.01436,0.01935,0.0005751,0.0009108,0.01443,5.722e-06,2.003e-05,0.1028,0.0002146,1.149,0.001612,0,0,0.0004511
212400000000,212700000000,771022573,0,336053503,0.007179,0.01453,0.01935,0.0005541,0.0008898,0.01474,1.049e-05,2.003e-05,0.08228,0.001072,1.194,0.001674,0,0,0.000288
212700000000,213000000000,771022573,0,336053503,0.00753,0.01436,0.01935,0.000556,0.0008917,0.01442,6.676e-06,2.003e-05,0.08948,0.0002146,1.138,0.001509,0,0,0.0006485
213600000000,213900000000,771022573,0,336053503,0.007736,0.01442,0.01935,0.000536,0.0008717,0.01454,2.289e-05,2.003e-05,0.07874,0.002071,1.374,0.001918,0,0,0.0002527
213900000000,214200000000,771022573,0,336053503,0.007095,0.01456,0.01935,0.0005341,0.0008698,0.01486,8.583e-06,2.003e-05,0.1387,0.0008574,1.161,0.001648,0,0,0.0003958
214200000000,214500000000,771022573,0,336053503,0.006668,0.01453,0.01935,0.0005312,0.0008669,0.01474,5.722e-06,2.003e-05,0.1061,0.0002146,1.139,0.001528,0,0,0.0002403
214800000000,215100000000,771022573,0,336053503,0.00695,0.01453,0.01935,0.0005293,0.000865,0.01486,1.621e-05,2.003e-05,0.1019,0.00293,1.199,0.001695,0,0,0.0003071
215400000000,215700000000,771022573,0,336053503,0.007828,0.01453,0.01935,0.000535,0.0008707,0.01488,2.193e-05,2.003e-05,0.1245,0.00293,1.191,0.001681,0,0,0.0005808
215700000000,216000000000,771022573,0,336053503,0.006805,0.01453,0.01935,0.0005341,0.0008698,0.01472,9.537e-06,2.003e-05,0.1007,0.001215,1.163,0.001584,0,0,0.0004072
216000000000,216300000000,771022573,0,336053503,0.00695,0.01454,0.01935,0.0005369,0.0008726,0.01489,5.722e-06,2.003e-05,0.08459,0.0002146,1.174,0.00161,0,0,0.0001764
221100000000,221400000000,771022573,0,336053503,0.007286,0.0144,0.01935,0.0005684,0.0009041,0.01448,1.335e-05,2.003e-05,0.08179,0.001215,1.276,0.00173,0,0,0.0001421
221400000000,221700000000,771022573,0,336053503,0.007195,0.01454,0.01935,0.0005655,0.0009003,0.01492,2.098e-05,2.003e-05,0.1362,0.001215,1.244,0.00182,0,0,0.06152
221700000000,222000000000,771022573,0,336053503,0.007668,0.01454,0.01935,0.0005617,0.0008974,0.01477,1.24e-05,2.003e-05,0.106,0.001715,1.182,0.0016,0,0,0.04797
222000000000,222300000000,771022573,0,336053503,0.006805,0.01437,0.01935,0.0005646,0.0009003,0.01447,4.768e-06,2.003e-05,0.07373,0.0001431,1.175,0.001583,0,0,0.0003309
222600000000,222900000000,771022573,0,336053503,0.007713,0.01451,0.01935,0.0005636,0.0008993,0.01488,4.768e-06,2.003e-05,0.1355,7.153e-05,1.16,0.001638,0,0,0.0006752
222900000000,223200000000,771022573,0,336053503,0.00679,0.01453,0.01935,0.000555,0.0008907,0.01476,1.049e-05,2.003e-05,0.1357,0.001928,1.149,0.001572,0,0,0.000267
223200000000,223500000000,771022573,0,336053503,0.006882,0.01436,0.01935,0.0005569,0.0008926,0.01443,7.629e-06,2.003e-05,0.07642,0.0004282,1.163,0.001565,0,0,0.0001364
223500000000,223800000000,771022573,0,336053503,0.007713,0.01451,0.01935,0.0005589,0.0008945,0.01489,1.621e-05,2.003e-05,0.07495,0.00293,1.166,0.001614,0,0,0.000247
223800000000,224100000000,771022573,0,336053503,0.00666,0.01454,0.01935,0.0005598,0.0008955,0.01476,5.722e-06,2.003e-05,0.0929,0.0001431,1.131,0.001517,0,0,0.0002728
224100000000,224400000000,771022573,0,336053503,0.007126,0.01437,0.01935,0.000555,0.0008907,0.01459,1.717e-05,2.003e-05,0.1357,0.00293,1.164,0.001584,0,0,0.000227
224400000000,224700000000,771022573,0,336053503,0.007828,0.01456,0.01935,0.0005598,0.0008955,0.01491,1.24e-05,2.003e-05,0.07471,0.001928,1.284,0.001702,0,0,0.003498
224700000000,225000000000,771022573,0,336053503,0.006599,0.01457,0.01935,0.0005636,0.0008993,0.01477,5.722e-06,2.003e-05,0.07324,0.0002146,1.125,0.001534,0,0,0.0004644
225300000000,225600000000,771022573,0,336053503,0.007874,0.01451,0.01935,0.0005684,0.0009041,0.01488,1.526e-05,2.003e-05,0.109,0.00293,1.18,0.001728,0,0,0.0004044
225900000000,226200000000,771022573,0,336053503,0.00679,0.01436,0.01935,0.0005751,0.0009108,0.01443,7.629e-06,2.003e-05,0.09937,0.0005713,1.158,0.001562,0,0,0.0003366
226200000000,226500000000,771022573,0,336053503,0.007347,0.01434,0.01935,0.0005779,0.0009136,0.01443,4.768e-06,2.003e-05,0.07324,0.0001431,1.109,0.001487,0,0,0.0002766
226500000000,226800000000,771022573,0,336053503,0.00692,0.01451,0.01935,0.000577,0.0009127,0.01488,5.722e-06,2.003e-05,0.1085,0.0002146,1.121,0.00153,0,0,0.05371
226800000000,227100000000,771022573,0,336053503,0.00695,0.01456,0.01935,0.0005751,0.0009108,0.01476,5.722e-06,2.003e-05,0.07715,0.0001431,1.148,0.001584,0,0,0.0007105
227700000000,228000000000,771022573,0,336053503,0.007187,0.01456,0.01935,0.0005865,0.0009222,0.01476,8.583e-06,2.098e-05,0.08032,0.0004282,1.153,0.001558,0,0,0.000185
228300000000,228600000000,771022573,0,336053503,0.007217,0.01453,0.01935,0.0005922,0.0009279,0.01491,6.676e-06,2.098e-05,0.3188,0.0002146,1.144,0.001481,0,0,0.0006886
228600000000,228900000000,771022573,0,336053503,0.006676,0.01456,0.01935,0.0005951,0.0009308,0.01477,4.768e-06,2.098e-05,0.1028,0.0001431,1.173,0.001712,0,0,8.774e-05
229200000000,229500000000,771022573,0,336053503,0.006714,0.01437,0.01935,0.0005913,0.000927,0.01445,8.583e-06,2.098e-05,0.1028,0.0009289,1.13,0.00152,0,0,0.0001431
229500000000,229800000000,771022573,0,336053503,0.006882,0.01451,0.01935,0.0005951,0.0009308,0.01489,5.722e-06,2.098e-05,0.09863,0.0002146,1.116,0.00141,0,0,0.0001326
229800000000,230100000000,771022573,0,336053503,0.007431,0.01456,0.01935,0.000596,0.0009317,0.01476,1.431e-05,2.098e-05,0.09265,0.002857,1.168,0.001782,0,0,0.09265
230100000000,230400000000,771022573,0,336053503,0.00666,0.01436,0.01935,0.0005827,0.0009184,0.01445,5.722e-06,2.098e-05,0.07349,0.0002146,1.14,0.001562,0,0,0.06299
230400000000,230700000000,771022573,0,336053503,0.00676,0.01451,0.01935,0.0005827,0.0009184,0.01486,1.526e-05,2.098e-05,0.07507,0.002857,1.133,0.001508,0,0,0.06311
230700000000,231000000000,771022573,0,336053503,0.007332,0.01456,0.01935,0.0005817,0.0009174,0.01476,5.722e-06,2.098e-05,0.07324,0.0001431,1.186,0.001774,0,0,0.0003319
231000000000,231300000000,771022573,0,336053503,0.006569,0.01437,0.01935,0.0005836,0.0009193,0.01445,1.049e-05,2.098e-05,0.1195,0.0009289,1.12,0.001518,0,0,0.0003223
231300000000,231600000000,771022573,0,336053503,0.006958,0.01437,0.01935,0.0005856,0.0009212,0.01462,7.629e-06,2.098e-05,0.1187,0.0003567,1.135,0.001555,0,0,0.0002956
231600000000,231900000000,771022573,0,336053503,0.007652,0.01456,0.01935,0.0005894,0.0009251,0.01491,5.722e-06,2.098e-05,0.09875,0.0001431,1.247,0.001675,0,0,0.0007353
231900000000,232200000000,771022573,0,336053503,0.006805,0.01457,0.01935,0.0005913,0.000927,0.01479,5.722e-06,2.098e-05,0.0946,0.0001431,1.204,0.00183,0,0,0.0007257
232200000000,232500000000,771022573,0,336053503,0.006615,0.01437,0.01935,0.0005951,0.0009308,0.01447,7.629e-06,2.098e-05,0.07397,0.0006428,1.134,0.001519,0,0,0.0006666
232500000000,232800000000,771022573,0,336053503,0.007683,0.01453,0.01935,0.0005836,0.0009193,0.01488,8.583e-06,2.098e-05,0.1155,0.0006428,1.193,0.001515,0,0,0.0003004
232800000000,233100000000,771022573,0,336053503,0.006577,0.01457,0.01935,0.0005798,0.0009155,0.01479,5.722e-06,2.098e-05,0.07361,0.0001431,1.185,0.001782,0,0,0.0002069
233400000000,233700000000,771022573,0,336053503,0.0075,0.01451,0.01935,0.0005856,0.0009212,0.01485,5.722e-06,2.098e-05,0.111,0.0001431,1.123,0.001461,0,0,0.0001078
233700000000,234000000000,771022573,0,336053503,0.006485,0.01456,0.01935,0.0005865,0.0009222,0.01476,5.722e-06,2.098e-05,0.08704,0.0001431,1.17,0.00178,0,0,0.001717
234000000000,234300000000,771022573,0,336053503,0.006538,0.01437,0.01935,0.0005894,0.0009251,0.01445,4.768e-06,2.098e-05,0.1078,0.0001431,1.114,0.001552,0,0,0.01251
234300000000,234600000000,771022573,0,336053503,0.007538,0.01451,0.01935,0.0005913,0.000927,0.01492,1.335e-05,2.098e-05,0.0979,0.002071,1.11,0.00144,0,0,0.04834
234600000000,234900000000,771022573,0,336053503,0.006432,0.01457,0.01935,0.0005903,0.000926,0.01477,4.768e-06,2.098e-05,0.07275,7.153e-05,1.169,0.001778,0,0,0.004112
234900000000,235200000000,771022573,0,336053503,0.006981,0.01439,0.01935,0.0005865,0.0009222,0.01462,1.24e-05,2.098e-05,0.1357,0.001499,1.129,0.001556,0,0,0.0002832
235200000000,235500000000,771022573,0,336053503,0.007645,0.01454,0.01935,0.0005875,0.0009232,0.01491,6.676e-06,2.098e-05,0.1567,0.0001431,1.252,0.001661,0,0,0.0002403
235500000000,235800000000,771022573,0,336053503,0.006744,0.01456,0.01935,0.0005922,0.0009279,0.01476,5.722e-06,2.098e-05,0.09521,0.0002146,1.15,0.00161,0,0,0.05353
235800000000,236100000000,771022573,0,336053503,0.00663,0.01436,0.01935,0.0005941,0.0009298,0.01443,9.537e-06,2.098e-05,0.08618,0.0009995,1.115,0.00153,0,0,0.0003166
236100000000,236400000000,771022573,0,336053503,0.007637,0.0145,0.01935,0.0005798,0.0009155,0.01489,6.676e-06,2.098e-05,0.1031,0.0002146,1.126,0.001576,0,0,0.0007277
241200000000,241500000000,771022573,0,336053503,0.006599,0.01456,0.01935,0.0006094,0.0009451,0.01476,4.768e-06,2.098e-05,0.08362,7.153e-05,1.118,0.001574,0,0,0.0002384
241500000000,241800000000,771022573,0,336053503,0.007317,0.01436,0.01935,0.0006027,0.0009384,0.01445,9.537e-06,2.098e-05,0.07593,0.0009289,1.119,0.001517,0,0,0.0008774
241800000000,242100000000,771022573,0,336053503,0.006668,0.0145,0.01935,0.0006037,0.0009394,0.01492,5.722e-06,2.098e-05,0.07324,0.0001431,1.131,0.001624,0,0,0.000802
242100000000,242400000000,771022573,0,336053503,0.006935,0.01459,0.01935,0.0006075,0.0009432,0.01477,6.676e-06,2.098e-05,0.08936,0.0002861,1.132,0.00157,0,0,0.0001707
242400000000,242700000000,771022573,0,336053503,0.007202,0.01442,0.01935,0.0006123,0.000948,0.01456,5.722e-06,2.098e-05,0.1014,0.0001431,1.255,0.001693,0,0,0.0002861
242700000000,243000000000,771022573,0,336053503,0.006477,0.0144,0.01935,0.0006161,0.0009518,0.01448,1.907e-05,2.098e-05,0.07812,0.00293,1.121,0.001538,0,0,0.0002832
243000000000,243300000000,771022573,0,336053503,0.006721,0.01451,0.01935,0.0006208,0.0009565,0.01491,1.526e-05,2.098e-05,0.1018,0.00293,1.128,0.001588,0,0,0.06299
243300000000,243600000000,771022573,0,336053503,0.007431,0.01456,0.01935,0.0006237,0.0009594,0.01476,5.722e-06,2.098e-05,0.1172,0.0001431,1.096,0.001417,0,0,0.0106
243900000000,244200000000,771022573,0,336053503,0.007713,0.0145,0.01935,0.0005913,0.000927,0.01494,7.629e-06,2.098e-05,0.1246,0.0007143,1.219,0.001823,0,0,0.000247
244500000000,244800000000,771022573,0,336053503,0.007172,0.01437,0.01935,0.0005636,0.0008993,0.01447,5.722e-06,2.098e-05,0.1235,0.0001431,1.203,0.001702,0,0,0.06226
244800000000,245100000000,771022573,0,336053503,0.007088,0.0145,0.01935,0.0005674,0.0009031,0.01495,1.526e-05,2.098e-05,0.1252,0.00293,1.148,0.001532,0,0,0.0002995
245100000000,245400000000,771022573,0,336053503,0.007736,0.01459,0.01935,0.0005503,0.000886,0.01477,5.722e-06,2.098e-05,0.1044,0.0002146,1.158,0.001569,0,0,0.04541
245400000000,245700000000,771022573,0,336053503,0.006889,0.01436,0.01935,0.0005512,0.0008869,0.01445,5.722e-06,2.098e-05,0.09094,7.153e-05,1.16,0.001589,0,0,0.0002975
245700000000,246000000000,771022573,0,336053503,0.0075,0.01437,0.01935,0.000555,0.0008907,0.0146,6.676e-06,2.098e-05,0.1105,0.0002146,1.187,0.001655,0,0,0.0003681
246000000000,246300000000,771022573,0,336053503,0.008026,0.01453,0.01935,0.0005522,0.0008879,0.01492,1.24e-05,2.098e-05,0.1289,0.001858,1.336,0.001791,0,0,0.001419
251400000000,251700000000,771022573,0,336053503,0.007919,0.01439,0.01935,0.000617,0.0009527,0.01447,8.583e-06,2.098e-05,0.1201,0.0008574,1.135,0.001566,0,0,0.0002975
251700000000,252000000000,771022573,0,336053503,0.007347,0.0145,0.01935,0.0006208,0.0009565,0.01489,5.722e-06,2.098e-05,0.1061,0.0002146,1.201,0.001732,0,0,0.01234
252000000000,252300000000,771022573,0,336053503,0.006805,0.0146,0.01935,0.0006237,0.0009594,0.01479,1.431e-05,2.098e-05,0.1194,0.002499,1.181,0.001675,0,0,0.0002851
252300000000,252600000000,771022573,0,336053503,0.007401,0.01437,0.01935,0.0006275,0.0009632,0.01447,1.526e-05,2.098e-05,0.1125,0.00293,1.125,0.001539,0,0,0.0002317
252600000000,252900000000,771022573,0,336053503,0.006958,0.01448,0.01935,0.0006323,0.000968,0.01486,6.676e-06,2.098e-05,0.1111,0.0003567,1.142,0.001701,0,0,0.0006742
252900000000,253200000000,771022573,0,336053503,0.007111,0.01459,0.01935,0.0006275,0.0009632,0.01476,1.717e-05,2.098e-05,0.1156,0.00293,1.186,0.001682,0,0,0.0001965
253200000000,253500000000,771022573,0,336053503,0.007431,0.01442,0.01935,0.0006275,0.0009632,0.01457,6.676e-06,2.098e-05,0.1147,0.0001431,1.299,0.001836,0,0,0.00149
253800000000,254100000000,771022573,0,336053503,0.006599,0.01439,0.01935,0.0006275,0.0009632,0.01447,8.583e-06,2.098e-05,0.1372,0.001215,1.127,0.001541,0,0,0.0002832
254100000000,254400000000,771022573,0,336053503,0.007828,0.01448,0.01935,0.0006304,0.0009661,0.01486,5.722e-06,2.098e-05,0.1064,0.0002146,1.141,0.001587,0,0,0.0002069
255000000000,255300000000,771022573,0,336053503,0.007523,0.01437,0.01935,0.000639,0.0009747,0.01445,7.629e-06,2.193e-05,0.07324,0.0007143,1.132,0.001567,0,0,0.0007038
255600000000,255900000000,771022573,0,336053503,0.007149,0.0145,0.01935,0.0006218,0.0009575,0.01491,1.621e-05,2.193e-05,0.1289,0.002857,1.157,0.001735,0,0,0.0006866
255900000000,256200000000,771022573,0,336053503,0.007812,0.01462,0.01935,0.0006075,0.0009432,0.01479,5.722e-06,2.193e-05,0.1193,0.0001431,1.147,0.001752,0,0,0.0001898
256800000000,257100000000,771022573,0,336053503,0.007713,0.01463,0.01935,0.0005865,0.0009222,0.01483,1.049e-05,2.193e-05,0.1024,0.001429,1.313,0.001777,0,0,0.001165
257100000000,257400000000,771022573,0,336053503,0.006836,0.01439,0.01935,0.0005875,0.0009232,0.01447,6.676e-06,2.193e-05,0.1099,0.0002146,1.131,0.001585,0,0,0.0001888
257400000000,257700000000,771022573,0,336053503,0.006958,0.0145,0.01935,0.0005922,0.0009279,0.01491,4.768e-06,2.193e-05,0.06738,0.0001431,1.164,0.001635,0,0,0.0003452
257700000000,258000000000,771022573,0,336053503,0.007591,0.01462,0.01935,0.000597,0.0009327,0.01477,6.676e-06,2.193e-05,0.1365,0.0002146,1.136,0.001588,0,0,0.0001812
258000000000,258300000000,771022573,0,336053503,0.006927,0.01437,0.01935,0.0006008,0.0009365,0.01445,5.722e-06,2.193e-05,0.1013,0.0001431,1.149,0.001498,0,0,0.01299
258300000000,258600000000,771022573,0,336053503,0.006966,0.01448,0.01935,0.0006046,0.0009403,0.01489,6.676e-06,2.193e-05,0.09888,0.0002146,1.161,0.001597,0,0,0.0005074
258600000000,258900000000,771022573,0,336053503,0.007683,0.0146,0.01935,0.0006084,0.0009441,0.01479,5.722e-06,2.193e-05,0.07874,0.0001431,1.158,0.001644,0,0,0.0003014
258900000000,259200000000,771022573,0,336053503,0.006767,0.01437,0.01935,0.0006094,0.0009451,0.01445,1.526e-05,2.193e-05,0.1252,0.00293,1.124,0.001529,0,0,0.0002642
259800000000,260100000000,771022573,0,336053503,0.007072,0.0146,0.01935,0.0006218,0.0009575,0.01479,5.722e-06,2.193e-05,0.1188,0.0001431,1.167,0.001671,0,0,0.003983
261000000000,261300000000,771022573,0,336053503,0.006836,0.01436,0.01935,0.0006342,0.0009699,0.01442,5.722e-06,2.193e-05,0.09607,0.0002146,1.156,0.001594,0,0,0.0001135
261300000000,261600000000,771022573,0,336053503,0.007607,0.01436,0.01935,0.0006342,0.0009699,0.01443,1.144e-05,2.193e-05,0.09729,0.001928,1.13,0.001511,0,0,0.0001402
261600000000,261900000000,771022573,0,336053503,0.007019,0.01447,0.01935,0.0006342,0.0009699,0.01492,6.676e-06,2.193e-05,0.1112,0.0003567,1.166,0.001566,0,0,0.0001259
261900000000,262200000000,771022573,0,336053503,0.006775,0.01459,0.01935,0.0006256,0.0009613,0.01474,5.722e-06,2.193e-05,0.06543,0.0001431,1.197,0.00169,0,0,0.0003042
262200000000,262500000000,771022573,0,336053503,0.007454,0.01437,0.01935,0.0006275,0.0009632,0.01443,5.722e-06,2.193e-05,0.08044,0.0001431,1.14,0.001532,0,0,0.05652
262500000000,262800000000,771022573,0,336053503,0.007072,0.01447,0.01935,0.0006256,0.0009613,0.01489,6.676e-06,2.193e-05,0.1075,0.0002146,1.178,0.00158,0,0,0.0003414
262800000000,263100000000,771022573,0,336053503,0.006752,0.01459,0.01935,0.0006266,0.0009623,0.01472,5.722e-06,2.193e-05,0.09656,7.153e-05,1.163,0.001605,0,0,0.0002851
263100000000,263400000000,771022573,0,336053503,0.007271,0.01436,0.01935,0.0006304,0.0009661,0.01442,5.722e-06,2.193e-05,0.09717,0.0002146,1.107,0.001466,0,0,0.0006561
263400000000,263700000000,771022573,0,336053503,0.00647,0.01436,0.01935,0.0006342,0.0009699,0.01442,1.431e-05,2.193e-05,0.06726,0.00293,1.102,0.001481,0,0,0.0003233
263700000000,264000000000,771022573,0,336053503,0.00692,0.01436,0.01935,0.000638,0.0009737,0.01465,7.629e-06,2.193e-05,0.1025,0.0002146,1.113,0.001449,0,0,0.06226
264300000000,264600000000,771022573,0,336053503,0.006958,0.0146,0.01935,0.0006332,0.0009689,0.01476,1.526e-05,2.193e-05,0.09143,0.00293,1.167,0.001709,0,0,0.0006199
264900000000,265200000000,771022573,0,336053503,0.007233,0.01437,0.01935,0.000638,0.0009737,0.01445,6.676e-06,2.193e-05,0.1221,0.0002146,1.104,0.00169,0,0,0.0006323
265200000000,265500000000,771022573,0,336053503,0.006645,0.01447,0.01935,0.000639,0.0009747,0.01491,1.431e-05,2.193e-05,0.1207,0.002857,1.121,0.001794,0,0,0.0001984
265500000000,265800000000,771022573,0,336053503,0.006546,0.01462,0.01935,0.0006428,0.0009785,0.01479,5.722e-06,2.193e-05,0.1156,0.0001431,1.133,0.001704,0,0,0.06274
265800000000,266100000000,771022573,0,336053503,0.007454,0.01439,0.01935,0.0006399,0.0009756,0.01445,5.722e-06,2.193e-05,0.09326,0.0002861,1.135,0.001736,0,0,0.0002413
266100000000,266400000000,771022573,0,336053503,0.006676,0.01447,0.01935,0.0006285,0.0009642,0.01488,6.676e-06,2.193e-05,0.08252,0.0002146,1.125,0.001794,0,0,0.0002155
266400000000,266700000000,771022573,0,336053503,0.00647,0.01459,0.01935,0.0006294,0.0009651,0.01474,1.526e-05,2.193e-05,0.06494,0.002857,1.128,0.0018,0,0,0.06287
266700000000,267000000000,771022573,0,336053503,0.007217,0.01434,0.01935,0.0006332,0.0009689,0.01442,6.676e-06,2.193e-05,0.09534,0.0002146,1.101,0.001484,0,0,0.0001135
267300000000,267600000000,771022573,0,336053503,0.00692,0.01459,0.01935,0.0006332,0.0009689,0.01474,6.676e-06,2.193e-05,0.06689,0.0002146,1.115,0.001511,0,0,0.0001326
267900000000,268200000000,771022573,0,336053503,0.00679,0.01448,0.01935,0.0006351,0.0009708,0.01488,7.629e-06,2.193e-05,0.08167,0.0007143,1.144,0.001584,0,0,0.0002499
268500000000,268800000000,771022573,0,336053503,0.007309,0.01439,0.01935,0.0006323,0.000968,0.01447,5.722e-06,2.193e-05,0.0769,0.0001431,1.118,0.00147,0,0,0.0006075
268800000000,269100000000,771022573,0,336053503,0.006462,0.01439,0.01935,0.0006361,0.0009718,0.01447,5.722e-06,2.193e-05,0.103,0.0001431,1.106,0.001446,0,0,0.0002174
269100000000,269400000000,771022573,0,336053503,0.006508,0.01439,0.01935,0.000639,0.0009747,0.01447,8.583e-06,2.193e-05,0.1328,0.0008574,1.112,0.001548,0,0,0.0006084
269400000000,269700000000,771022573,0,336053503,0.007278,0.01439,0.01935,0.0006351,0.0009708,0.01445,7.629e-06,2.193e-05,0.08875,0.0009289,1.095,0.001436,0,0,0.0005417
269700000000,270000000000,771022573,0,336053503,0.006676,0.01447,0.01935,0.0006361,0.0009718,0.01489,9.537e-06,2.193e-05,0.08093,0.001286,1.095,0.001495,0,0,0.0005989
270000000000,270300000000,771022573,0,336053503,0.006554,0.0146,0.01935,0.0006399,0.0009747,0.01476,1.526e-05,2.193e-05,0.06531,0.002857,1.097,0.001493,0,0,8.774e-05
270300000000,270600000000,771022573,0,336053503,0.007286,0.01436,0.01935,0.000638,0.0009737,0.01442,1.717e-05,2.193e-05,0.1154,0.002716,1.125,0.001476,0,0,0.0002651
270600000000,270900000000,771022573,0,336053503,0.006485,0.01436,0.01935,0.0006332,0.000968,0.01442,5.722e-06,2.193e-05,0.08215,0.0001431,1.127,0.001463,0,0,0.000103
270900000000,271200000000,771022573,0,336053503,0.007027,0.01436,0.01935,0.0006332,0.000968,0.01462,1.335e-05,2.193e-05,0.09167,0.001215,1.097,0.001423,0,0,0.05273
271200000000,271500000000,771022573,0,336053503,0.007538,0.0145,0.01935,0.0006323,0.000968,0.01488,9.537e-06,2.193e-05,0.1014,0.001215,1.209,0.001549,0,0,0.0003014
281400000000,281700000000,771022573,0,336053503,0.006615,0.01437,0.01935,0.0006237,0.0009594,0.01445,2.384e-05,2.193e-05,0.1318,0.002857,1.122,0.001435,0,0,0.001122
281700000000,282000000000,771022573,0,336053503,0.007088,0.01437,0.01935,0.0006256,0.0009613,0.01463,1.812e-05,2.289e-05,0.09351,0.002571,1.126,0.001434,0,0,0.0002289
282000000000,282300000000,771022573,0,336053503,0.007751,0.0145,0.01935,0.0006142,0.0009499,0.01491,7.629e-06,2.289e-05,0.1002,0.0004282,1.158,0.001401,0,0,0.0003653
282600000000,282900000000,771022573,0,336053503,0.006577,0.01437,0.01935,0.0006065,0.0009422,0.01443,9.537e-06,2.289e-05,0.119,0.0008574,1.124,0.001424,0,0,0.0005255
282900000000,283200000000,771022573,0,336053503,0.007378,0.01437,0.01935,0.0006084,0.0009441,0.01443,1.049e-05,2.289e-05,0.1019,0.001715,1.127,0.001443,0,0,0.06482
283500000000,283800000000,771022573,0,336053503,0.00666,0.01462,0.01935,0.0006151,0.0009508,0.01476,6.676e-06,2.289e-05,0.1045,0.0002146,1.191,0.001734,0,0,0.0005913
283800000000,284100000000,771022573,0,336053503,0.007271,0.01436,0.01935,0.0006161,0.0009518,0.01443,2.384e-05,2.289e-05,0.09167,0.002857,1.116,0.001392,0,0,0.06482
284100000000,284400000000,771022573,0,336053503,0.0065,0.01436,0.01935,0.0006199,0.0009556,0.01443,1.431e-05,2.289e-05,0.06458,0.002571,1.113,0.001422,0,0,0.01176
284400000000,284700000000,771022573,0,336053503,0.006752,0.01443,0.01935,0.0006218,0.0009565,0.01491,5.722e-06,2.289e-05,0.1063,0.0001431,1.123,0.001332,0,0,0.0001221
284700000000,285000000000,771022573,0,336053503,0.007339,0.01465,0.01935,0.0006199,0.0009556,0.01477,5.722e-06,2.289e-05,0.1097,0.0002146,1.172,0.001715,0,0,0.0002623
285000000000,285300000000,771022573,0,336053503,0.006577,0.01439,0.01935,0.0006189,0.0009546,0.01445,1.431e-05,2.289e-05,0.1127,0.00293,1.115,0.001424,0,0,0.0002851
285300000000,285600000000,771022573,0,336053503,0.007332,0.01447,0.01935,0.0006189,0.0009546,0.01497,1.621e-05,2.289e-05,0.1218,0.00293,1.113,0.001336,0,0,0.01904
285600000000,285900000000,771022573,0,336053503,0.007515,0.01471,0.01935,0.0006208,0.0009565,0.01495,1.049e-05,2.289e-05,0.06604,0.001286,1.228,0.001758,0,0,0.0001717
285900000000,286200000000,771022573,0,336053503,0.006767,0.01445,0.01935,0.0006208,0.0009565,0.01451,5.722e-06,2.289e-05,0.08044,0.0002861,1.141,0.001486,0,0,0.05359
286200000000,286500000000,771022573,0,336053503,0.006569,0.01443,0.01935,0.0006247,0.0009604,0.01451,5.722e-06,2.289e-05,0.08362,0.0001431,1.132,0.001461,0,0,0.06946
286500000000,286800000000,771022573,0,336053503,0.007858,0.01451,0.01935,0.000618,0.0009537,0.01494,7.629e-06,2.289e-05,0.08435,0.0004282,1.139,0.001409,0,0,0.0001574
286800000000,287100000000,771022573,0,336053503,0.006683,0.01466,0.01935,0.0006151,0.0009508,0.01479,2.384e-05,2.289e-05,0.06567,0.00293,1.203,0.001751,0,0,0.0001335
287100000000,287400000000,771022573,0,336053503,0.00666,0.0144,0.01935,0.000618,0.0009537,0.01447,2.003e-05,2.289e-05,0.1058,0.00293,1.113,0.001431,0,0,0.0002756
287400000000,287700000000,771022573,0,336053503,0.007492,0.01447,0.01935,0.0006218,0.0009575,0.01497,1.431e-05,2.289e-05,0.1592,0.002857,1.138,0.001496,0,0,0.0002337
287700000000,288000000000,771022573,0,336053503,0.006607,0.01466,0.01935,0.0006256,0.0009613,0.01479,1.144e-05,2.289e-05,0.09778,0.001928,1.133,0.001493,0,0,0.003616
288000000000,288300000000,771022573,0,336053503,0.006683,0.01439,0.01935,0.0006275,0.0009632,0.01445,6.676e-06,2.289e-05,0.07727,0.0002146,1.15,0.001531,0,0,0.0006657
288300000000,288600000000,771022573,0,336053503,0.007072,0.01437,0.01935,0.0006189,0.0009546,0.01445,5.722e-06,2.289e-05,0.07422,0.0002861,1.086,0.001624,0,0,0.000802
288600000000,288900000000,771022573,0,336053503,0.006409,0.01443,0.01935,0.0006123,0.000948,0.01491,5.722e-06,2.289e-05,0.06787,7.153e-05,1.074,0.001588,0,0,6.962e-05
288900000000,289200000000,771022573,0,336053503,0.00676,0.01465,0.01935,0.0006075,0.0009432,0.01477,7.629e-06,2.289e-05,0.09949,0.0004282,1.123,0.00171,0,0,8.774e-05
289200000000,289500000000,771022573,0,336053503,0.007072,0.01443,0.01935,0.0005922,0.0009279,0.01462,5.722e-06,2.289e-05,0.0741,0.0001431,1.101,0.001651,0,0,0.0002117
289500000000,289800000000,771022573,0,336053503,0.006195,0.01442,0.01935,0.0005951,0.0009308,0.0145,6.676e-06,2.289e-05,0.06494,0.0004997,1.086,0.001615,0,0,0.06274
289800000000,290100000000,771022573,0,336053503,0.006378,0.01448,0.01935,0.000596,0.0009317,0.01489,8.583e-06,2.289e-05,0.08411,0.0009995,1.092,0.001606,0,0,0.0002661
290100000000,290400000000,771022573,0,336053503,0.007271,0.01463,0.01935,0.0006008,0.0009365,0.01474,5.722e-06,2.289e-05,0.0874,0.0001431,1.106,0.001565,0,0,0.01904
290400000000,290700000000,771022573,0,336053503,0.006729,0.01436,0.01935,0.0006046,0.0009403,0.01443,5.722e-06,2.289e-05,0.1221,0.0001431,1.125,0.001472,0,0,0.003223
290700000000,291000000000,771022573,0,336053503,0.006889,0.01443,0.01935,0.0006094,0.0009451,0.01489,1.526e-05,2.289e-05,0.09204,0.002998,1.12,0.001452,0,0,8.202e-05
291000000000,291300000000,771022573,0,336053503,0.007477,0.01465,0.01935,0.0006084,0.0009441,0.01477,5.722e-06,2.289e-05,0.1029,0.0002146,1.12,0.001564,0,0,0.0004883
291300000000,291600000000,771022573,0,336053503,0.006584,0.01439,0.01935,0.0006123,0.000948,0.01445,7.629e-06,2.289e-05,0.1002,0.0003567,1.129,0.001462,0,0,0.0004339
291600000000,291900000000,771022573,0,336053503,0.006844,0.01445,0.01935,0.0006161,0.0009518,0.01491,6.676e-06,2.289e-05,0.0907,0.0003567,1.124,0.00147,0,0,0.0001755
291900000000,292200000000,771022573,0,336053503,0.007408,0.01463,0.01935,0.0006208,0.0009565,0.01476,7.629e-06,2.289e-05,0.07312,0.0008574,1.142,0.001523,0,0,0.06348
292200000000,292500000000,771022573,0,336053503,0.006554,0.01436,0.01935,0.0006199,0.0009556,0.01443,1.335e-05,2.289e-05,0.1321,0.002357,1.101,0.001453,0,0,0.0003319
292500000000,292800000000,771022573,0,336053503,0.006813,0.01436,0.01935,0.0006027,0.0009384,0.01463,1.049e-05,2.289e-05,0.1274,0.0006428,1.109,0.001403,0,0,0.0005426
292800000000,293100000000,771022573,0,336053503,0.008255,0.0145,0.01935,0.0006075,0.0009432,0.01494,1.907e-05,2.289e-05,0.1188,0.001928,1.151,0.00151,0,0,0.0007162
293400000000,293700000000,771022573,0,336053503,0.006546,0.01439,0.01935,0.0006104,0.000946,0.01447,3.242e-05,2.289e-05,0.08081,0.002857,1.114,0.001515,0,0,0.000658
293700000000,294000000000,771022573,0,336053503,0.007233,0.01439,0.01935,0.0006151,0.0009499,0.01445,3.719e-05,2.289e-05,0.08594,0.004288,1.094,0.001468,0,0,0.0001297
294300000000,294600000000,771022573,0,336053503,0.006737,0.01465,0.01935,0.000618,0.0009537,0.01477,3.529e-05,2.289e-05,0.08032,0.004929,1.14,0.001537,0,0,0.0001507
294600000000,294900000000,771022573,0,336053503,0.007446,0.01437,0.01935,0.0006123,0.000948,0.01443,1.621e-05,2.289e-05,0.1108,0.001215,1.13,0.001492,0,0,0.04065
294900000000,295200000000,771022573,0,336053503,0.006714,0.01437,0.01935,0.0006113,0.000947,0.01443,5.722e-06,2.289e-05,0.127,0.0002146,1.135,0.001529,0,0,0.07263
295200000000,295500000000,771022573,0,336053503,0.006889,0.01443,0.01935,0.0006123,0.000948,0.01498,5.722e-06,2.289e-05,0.1282,0.0001431,1.139,0.001519,0,0,0.0004301
295500000000,295800000000,771022573,0,336053503,0.007561,0.01466,0.01935,0.0006094,0.0009451,0.01479,5.722e-06,2.289e-05,0.09692,0.0002146,1.14,0.001526,0,0,0.0001345
295800000000,296100000000,771022573,0,336053503,0.006584,0.01439,0.01935,0.0006123,0.000948,0.01445,5.722e-06,2.289e-05,0.09656,0.0001431,1.118,0.001411,0,0,0.0002747
296100000000,296400000000,771022573,0,336053503,0.00705,0.01439,0.01935,0.0006132,0.0009489,0.01465,1.621e-05,2.289e-05,0.1088,0.00293,1.118,0.001442,0,0,0.04755
296400000000,296700000000,771022573,0,336053503,0.007645,0.0145,0.01935,0.000617,0.0009527,0.01494,5.722e-06,2.289e-05,0.09619,0.0001431,1.129,0.001443,0,0,0.002655
297300000000,297600000000,771022573,0,336053503,0.007538,0.01445,0.01935,0.0006189,0.0009537,0.01494,1.526e-05,2.289e-05,0.1075,0.00293,1.094,0.001361,0,0,0.0009804
297600000000,297900000000,771022573,0,336053503,0.006653,0.01466,0.01935,0.0006208,0.0009565,0.01479,6.676e-06,2.289e-05,0.1129,0.0005713,1.169,0.001604,0,0,0.000309
297900000000,298200000000,771022573,0,336053503,0.006783,0.01439,0.01935,0.0006218,0.0009575,0.01445,5.722e-06,2.289e-05,0.1167,0.0002146,1.163,0.001538,0,0,0.0001402
298200000000,298500000000,771022573,0,336053503,0.00824,0.01443,0.01935,0.0006199,0.0009546,0.01489,5.722e-06,2.289e-05,0.1089,0.0002146,1.176,0.001525,0,0,0.003689
298500000000,298800000000,771022573,0,336053503,0.007278,0.01463,0.01935,0.0006237,0.0009584,0.01474,1.717e-05,2.289e-05,0.1188,0.002857,1.234,0.00175,0,0,0.0002375
298800000000,299100000000,771022573,0,336053503,0.006737,0.01436,0.01935,0.0006237,0.0009594,0.01443,1.431e-05,2.289e-05,0.06494,0.002857,1.128,0.001504,0,0,0.0001144
299100000000,299400000000,771022573,0,336053503,0.00753,0.01436,0.01935,0.0006237,0.0009594,0.01443,1.049e-05,2.289e-05,0.06555,0.0009995,1.125,0.001468,0,0,0.0001879
299400000000,299700000000,771022573,0,336053503,0.006844,0.01442,0.01935,0.0006218,0.0009575,0.01485,1.526e-05,2.289e-05,0.127,0.00293,1.104,0.001429,0,0,0.0001745
299700000000,300000000000,771022573,0,336053503,0.007111,0.01463,0.01935,0.0006199,0.0009556,0.01474,2.098e-05,2.289e-05,0.1062,0.00293,1.142,0.001561,0,0,0.0002098
