5700000000,6000000000,3996125377,0,308148250,0.06958,0.01146,0.01337,0.0006781,0.001137,0.01199,0.0001383,4.482e-05,0.2141,0.004715,1.106,0.001401,0,1,0
6000000000,6300000000,3996125377,0,308148250,0.06616,0.01134,0.01334,0.0006905,0.001148,0.01183,0.0001249,4.578e-05,0.2073,0.005211,1.104,0.001393,0,1,0
6300000000,6600000000,3996125377,0,308148250,0.06677,0.01137,0.01332,0.0007,0.00116,0.01201,0.0001249,4.578e-05,0.2004,0.005569,1.1,0.001373,0,1,0
6600000000,6900000000,3996125377,0,308148250,0.07056,0.01141,0.01331,0.0007095,0.001167,0.01205,0.0001268,4.482e-05,0.2083,0.005714,1.098,0.001334,0,1,0
6900000000,7200000000,3996125377,0,308148250,0.06763,0.01144,0.01329,0.0007181,0.001177,0.01193,0.0001335,4.387e-05,0.219,0.005211,1.109,0.001374,0,1,0
7200000000,7500000000,3996125377,0,308148250,0.06787,0.01132,0.01332,0.0007277,0.001186,0.01178,0.0001516,4.387e-05,0.229,0.006432,1.107,0.001376,0,1,0
7500000000,7800000000,3996125377,0,308148250,0.06995,0.01146,0.01324,0.0007343,0.001194,0.01187,0.0001335,4.482e-05,0.2197,0.005646,1.091,0.001318,0,1,0
7800000000,8100000000,3996125377,0,308148250,0.06812,0.01141,0.01329,0.000741,0.0012,0.01183,0.0001268,4.482e-05,0.2263,0.006432,1.096,0.001366,0,1,0
8100000000,8400000000,3996125377,0,308148250,0.06665,0.01131,0.01331,0.0007515,0.001209,0.01195,9.537e-05,4.482e-05,0.2192,0.004929,1.092,0.001363,0,1,0
8400000000,8700000000,3996125377,0,308148250,0.06873,0.01146,0.01332,0.0007677,0.001226,0.01184,0.0001411,4.482e-05,0.2134,0.005714,1.093,0.001356,0,1,0
8700000000,9000000000,3996125377,0,308148250,0.06873,0.01137,0.01335,0.0007744,0.001234,0.01184,0.0001106,4.482e-05,0.2214,0.005501,1.086,0.001346,0,1,0
9000000000,9300000000,3996125377,0,308148250,0.0686,0.01137,0.01334,0.0007868,0.001245,0.01224,0.0001259,4.482e-05,0.2056,0.005569,1.084,0.001357,0,1,0
9300000000,9600000000,3996125377,0,308148250,0.06775,0.01132,0.01335,0.0008001,0.001259,0.01173,0.0001421,4.482e-05,0.2083,0.006859,1.091,0.00138,0,1,0
9600000000,9900000000,3996125377,0,308148250,0.06677,0.01129,0.01332,0.0008116,0.00127,0.01169,0.000124,4.482e-05,0.2041,0.005142,1.1,0.001387,0,1,0
9900000000,10200000000,3996125377,0,308148250,0.06824,0.01144,0.01324,0.0008183,0.001276,0.01189,0.0001307,4.482e-05,0.2141,0.006645,1.094,0.001356,0,1,0
10200000000,10500000000,3996125377,0,308148250,0.06653,0.0114,0.01323,0.0008221,0.001282,0.01192,0.0001345,4.482e-05,0.1973,0.005569,1.089,0.001349,0,1,0
10500000000,10800000000,3996125377,0,308148250,0.06653,0.0114,0.01323,0.0008268,0.001286,0.01181,0.0001402,4.482e-05,0.2241,0.006714,1.101,0.001372,0,1,0
10800000000,11100000000,3996125377,0,308148250,0.07068,0.01144,0.01321,0.0008316,0.001291,0.01192,0.0001316,4.482e-05,0.2063,0.004425,1.132,0.001514,0,1,0
11100000000,11400000000,3996125377,0,308148250,0.07129,0.01141,0.01329,0.0008278,0.001287,0.01187,0.000124,4.482e-05,0.2136,0.006287,1.16,0.001638,0,1,0
11400000000,11700000000,3996125377,0,308148250,0.07056,0.01137,0.01337,0.0008402,0.001301,0.01181,0.0001478,4.482e-05,0.2153,0.006142,1.178,0.001688,0,1,0
11700000000,12000000000,3996125377,0,308148250,0.06677,0.01134,0.01334,0.0008478,0.001308,0.01184,0.0001287,4.482e-05,0.2188,0.006859,1.092,0.001369,0,1,0
12000000000,12300000000,3996125377,0,308148250,0.06677,0.01137,0.01332,0.0008564,0.001316,0.0118,0.000145,4.482e-05,0.2002,0.005432,1.109,0.001395,0,1,0
12300000000,12600000000,3996125377,0,308148250,0.06555,0.01138,0.01326,0.000865,0.001326,0.01186,9.346e-05,4.482e-05,0.1992,0.003502,1.136,0.001494,0,1,0
12600000000,12900000000,3996125377,0,308148250,0.06616,0.0114,0.01323,0.0008698,0.001329,0.0121,0.0001135,4.482e-05,0.2124,0.003998,1.101,0.001404,0,1,0
12900000000,13200000000,3996125377,0,308148250,0.06348,0.0114,0.01323,0.000843,0.001301,0.0119,0.0001249,4.482e-05,0.2051,0.005859,1.095,0.001393,0,1,0
13200000000,13500000000,3996125377,0,308148250,0.06122,0.01141,0.01323,0.0007086,0.001165,0.01193,0.0001249,4.482e-05,0.2178,0.006073,1.07,0.001343,0,1,0
13500000000,13800000000,3996125377,0,308148250,0.06171,0.01134,0.01334,0.0006609,0.001118,0.01193,0.0001106,4.482e-05,0.2227,0.005142,1.073,0.001365,0,1,0
13800000000,14100000000,3996125377,0,308148250,0.06232,0.01135,0.0134,0.0006695,0.001125,0.0119,0.0001488,4.482e-05,0.2012,0.005287,1.111,0.001459,0,1,0
14100000000,14400000000,3996125377,0,308148250,0.06079,0.01134,0.0134,0.0006523,0.001108,0.01187,0.0001354,4.482e-05,0.2117,0.006142,1.071,0.001366,0,1,0
14400000000,14700000000,3996125377,0,308148250,0.05981,0.01117,0.01341,0.0006618,0.001118,0.01151,0.0001392,4.482e-05,0.1992,0.005501,1.068,0.001373,0,1,0
14700000000,15000000000,3996125377,0,308148250,0.05829,0.01135,0.0134,0.0006723,0.001129,0.01215,0.0001497,4.482e-05,0.2087,0.005714,1.092,0.001455,0,1,0
15000000000,15300000000,3996125377,0,308148250,0.05835,0.01125,0.01341,0.0006847,0.001141,0.01158,0.0001755,4.482e-05,0.2114,0.01086,1.104,0.001465,0,1,0
15300000000,15600000000,3996125377,0,308148250,0.06287,0.01118,0.0134,0.0007076,0.001167,0.01169,0.0001297,4.482e-05,0.2263,0.006287,1.091,0.001417,0,1,0
15600000000,15900000000,3996125377,0,308148250,0.06067,0.01137,0.01338,0.0007181,0.001177,0.01176,0.0001278,4.482e-05,0.2378,0.005928,1.09,0.001431,0,1,0
15900000000,16200000000,3996125377,0,308148250,0.06171,0.01125,0.01337,0.0007286,0.001188,0.01166,0.0001106,4.482e-05,0.2107,0.004997,1.105,0.001435,0,1,0
16200000000,16500000000,3996125377,0,308148250,0.05737,0.01134,0.01335,0.0007362,0.001196,0.01167,0.0001163,4.482e-05,0.2129,0.004715,1.067,0.001309,0,1,0
16500000000,16800000000,3996125377,0,308148250,0.05701,0.01129,0.01326,0.0007429,0.001202,0.01184,0.0001078,4.482e-05,0.1943,0.00457,1.09,0.00136,0,1,0
16800000000,17100000000,3996125377,0,308148250,0.05554,0.01132,0.01324,0.0007477,0.001207,0.01196,9.918e-05,4.482e-05,0.208,0.004997,1.079,0.001331,0,1,0
17100000000,17400000000,3996125377,0,308148250,0.0506,0.01128,0.01334,0.0007534,0.001213,0.01175,0.0001402,4.482e-05,0.1948,0.006218,1.091,0.001378,0,1,0
17400000000,17700000000,3996125377,0,308148250,0.05756,0.01126,0.0134,0.0007648,0.001225,0.01178,0.0001421,4.482e-05,0.218,0.007858,1.069,0.001321,0,1,0
17700000000,18000000000,3996125377,0,308148250,0.05511,0.01125,0.01331,0.0007725,0.001232,0.0117,0.0001268,4.482e-05,0.2083,0.0075,1.055,0.001267,0,1,0
18000000000,18300000000,3996125377,0,308148250,0.05237,0.01126,0.01326,0.0007772,0.001236,0.01164,0.0001116,4.482e-05,0.2,0.006218,1.068,0.001307,0,1,0
18300000000,18600000000,3996125377,0,308148250,0.0589,0.01132,0.01324,0.0007811,0.001242,0.01178,0.000123,4.482e-05,0.2031,0.006142,1.051,0.001232,0,1,0
18600000000,18900000000,3996125377,0,308148250,0.06274,0.0114,0.01334,0.0007877,0.001247,0.01192,0.0001249,4.482e-05,0.2139,0.0065,1.052,0.001272,0,1,0
18900000000,19200000000,3996125377,0,308148250,0.05609,0.01126,0.01338,0.0007982,0.001257,0.01196,0.0001078,4.578e-05,0.1953,0.005211,1.058,0.001281,0,1,0
19200000000,19500000000,3996125377,0,308148250,0.05328,0.01131,0.01341,0.0008087,0.001268,0.01187,0.0001173,4.578e-05,0.1946,0.005714,1.088,0.00138,0,1,0
19500000000,19800000000,3996125377,0,308148250,0.04974,0.01109,0.01343,0.0008202,0.00128,0.01147,0.0001402,4.578e-05,0.2148,0.006783,1.092,0.001376,0,1,0
19800000000,20100000000,3996125377,0,308148250,0.05298,0.01117,0.01341,0.0008316,0.001291,0.01161,0.000123,4.578e-05,0.2063,0.006859,1.084,0.001383,0,1,0
20100000000,20400000000,3996125377,0,308148250,0.04932,0.01108,0.01337,0.0008392,0.001299,0.01149,0.0001354,4.578e-05,0.1943,0.006218,1.08,0.001363,0,1,0
20400000000,20700000000,3996125377,0,308148250,0.04456,0.01128,0.01329,0.000845,0.001305,0.01161,0.0001106,4.578e-05,0.2026,0.005928,1.071,0.001318,0,1,0
20700000000,21000000000,3996125377,0,308148250,0.04376,0.01114,0.01326,0.0008459,0.001305,0.01181,0.0001154,4.578e-05,0.1868,0.005569,1.092,0.001377,0,1,0
21000000000,21300000000,3996125377,0,308148250,0.04047,0.01117,0.01328,0.0008497,0.001308,0.0117,0.0001278,4.578e-05,0.1868,0.006142,1.086,0.001363,0,1,0
21300000000,21600000000,3996125377,0,308148250,0.0412,0.01132,0.01326,0.0008259,0.001284,0.01241,0.0001049,4.578e-05,0.2017,0.005432,1.109,0.001443,0,1,0
21600000000,21900000000,3996125377,0,308148250,0.04504,0.01103,0.01338,0.0006914,0.001139,0.01147,0.0001459,4.578e-05,0.1975,0.006142,1.162,0.001689,0,1,0
21900000000,22200000000,3996125377,0,308148250,0.04565,0.01086,0.01343,0.0007019,0.001148,0.01114,0.0001183,4.578e-05,0.1855,0.004288,1.177,0.001742,0,1,0
22200000000,22500000000,3996125377,0,308148250,0.04077,0.01117,0.01341,0.0007114,0.00116,0.01186,0.0001574,4.578e-05,0.1697,0.007217,1.088,0.001375,0,1,0
22500000000,22800000000,3996125377,0,308148250,0.03894,0.01103,0.01341,0.000721,0.001169,0.01157,0.000145,4.578e-05,0.1985,0.006218,1.093,0.001412,0,1,0
22800000000,23100000000,3996125377,0,308148250,0.03693,0.01091,0.01344,0.0007315,0.001179,0.01128,0.0001373,4.578e-05,0.1709,0.006645,1.124,0.001503,0,1,0
23100000000,23400000000,3996125377,0,308148250,0.03784,0.01094,0.01343,0.000742,0.001188,0.01135,0.0001249,4.578e-05,0.1919,0.006073,1.101,0.001445,0,1,0
23400000000,23700000000,3996125377,0,308148250,0.03589,0.01115,0.01343,0.0007515,0.0012,0.01216,0.0001402,4.578e-05,0.1941,0.005928,1.095,0.001427,0,1,0
23700000000,24000000000,3996125377,0,308148250,0.03625,0.01091,0.01343,0.000762,0.001209,0.01128,0.0001183,4.482e-05,0.1917,0.005569,1.123,0.001486,0,1,0
24000000000,24300000000,3996125377,0,308148250,0.03412,0.01088,0.01343,0.0007715,0.001219,0.01125,0.0001163,4.482e-05,0.1804,0.004715,1.128,0.001506,0,1,0
24300000000,24600000000,3996125377,0,308148250,0.03339,0.01099,0.01343,0.0007801,0.001228,0.01143,0.0001335,4.482e-05,0.1831,0.005859,1.12,0.001502,0,1,0
24600000000,24900000000,3996125377,0,308148250,0.03461,0.01117,0.01341,0.0007896,0.001238,0.01163,0.0001411,4.482e-05,0.2102,0.005211,1.118,0.001495,0,1,0
24900000000,25200000000,3996125377,0,308148250,0.03278,0.01083,0.0134,0.0007973,0.001244,0.0116,0.0001078,4.482e-05,0.1912,0.004997,1.086,0.001403,0,1,0
25200000000,25500000000,3996125377,0,308148250,0.02844,0.01076,0.01344,0.0008049,0.001251,0.01114,0.000145,4.482e-05,0.1653,0.008072,1.152,0.001596,0,1,0
25500000000,25800000000,3996125377,0,308148250,0.0282,0.01077,0.01344,0.0008125,0.001261,0.01114,0.0001068,4.482e-05,0.1741,0.005783,1.181,0.001722,0,1,0
25800000000,26100000000,3996125377,0,308148250,0.02905,0.011,0.01344,0.0008211,0.001268,0.01143,0.0001335,4.482e-05,0.1851,0.004425,1.146,0.00158,0,1,0
26100000000,26400000000,3996125377,0,308148250,0.02747,0.011,0.01343,0.0008287,0.001276,0.01128,0.0001183,4.482e-05,0.1602,0.006287,1.146,0.001586,0,1,0
26400000000,26700000000,3996125377,0,308148250,0.02762,0.01082,0.01343,0.0008364,0.001284,0.01141,0.0001049,4.482e-05,0.166,0.005211,1.138,0.001542,0,1,0
26700000000,27000000000,3996125377,0,308148250,0.02567,0.01068,0.01343,0.000843,0.001291,0.011,0.0001125,4.482e-05,0.1975,0.005074,1.146,0.001578,0,1,0
27000000000,27300000000,3996125377,0,308148250,0.0249,0.01076,0.01344,0.0008574,0.001307,0.01115,0.0001116,4.578e-05,0.1936,0.006714,1.137,0.001536,0,1,0
27300000000,27600000000,3996125377,0,308148250,0.02338,0.01089,0.01343,0.000864,0.001312,0.01114,0.0001078,4.578e-05,0.1672,0.005432,1.125,0.001546,0,1,0
27600000000,27900000000,3996125377,0,308148250,0.02377,0.01105,0.01343,0.0008717,0.00132,0.01144,0.0001049,4.578e-05,0.1768,0.005287,1.175,0.001692,0,1,0
27900000000,28200000000,3996125377,0,308148250,0.02225,0.01099,0.01343,0.0008793,0.001328,0.01131,0.0001135,4.578e-05,0.187,0.006073,1.182,0.001733,0,1,0
28200000000,28500000000,3996125377,0,308148250,0.02237,0.01065,0.01344,0.000885,0.001333,0.01111,0.0001116,4.578e-05,0.1592,0.003998,1.144,0.001618,0,1,0
28500000000,28800000000,3996125377,0,308148250,0.02206,0.01064,0.01343,0.0008907,0.001339,0.01093,0.000124,4.578e-05,0.1418,0.005859,1.171,0.001667,0,1,0
28800000000,29100000000,3996125377,0,308148250,0.0206,0.01064,0.01343,0.0008965,0.001345,0.011,0.000103,4.578e-05,0.1633,0.004288,1.148,0.001621,0,1,0
29100000000,29400000000,3996125377,0,308148250,0.02087,0.01073,0.01344,0.0009012,0.00135,0.01097,0.0001307,4.578e-05,0.155,0.005646,1.156,0.001655,0,1,0
29400000000,29700000000,3996125377,0,308148250,0.02005,0.01083,0.01343,0.0009089,0.001358,0.01117,0.0001049,4.578e-05,0.1707,0.004501,1.152,0.001625,0,1,0
29700000000,30000000000,3996125377,0,308148250,0.01993,0.01102,0.01343,0.0009146,0.001364,0.01155,0.0001268,4.578e-05,0.1797,0.006287,1.104,0.001508,0,1,0
30000000000,30300000000,3996125377,0,308148250,0.01978,0.01102,0.01343,0.0009203,0.001369,0.01135,0.0001068,4.578e-05,0.1885,0.005074,1.196,0.001761,0,1,0
30300000000,30600000000,3996125377,0,308148250,0.01965,0.01062,0.01341,0.0008469,0.001295,0.01105,0.0001669,4.482e-05,0.1572,0.01508,1.169,0.00168,0,1,0
30600000000,30900000000,3996125377,0,308148250,0.01852,0.01056,0.01343,0.0007324,0.001181,0.0108,0.0001154,4.387e-05,0.1626,0.005997,1.174,0.001708,0,1,0
30900000000,31200000000,3996125377,0,308148250,0.01938,0.01056,0.01341,0.0007381,0.001186,0.01096,0.0001335,4.387e-05,0.1555,0.005074,1.13,0.001592,0,1,0
31200000000,31500000000,3996125377,0,308148250,0.01764,0.01067,0.01338,0.000742,0.00119,0.01118,0.0001125,4.387e-05,0.1287,0.005783,1.185,0.001707,0,1,0
31500000000,31800000000,3996125377,0,308148250,0.01743,0.01068,0.01343,0.0004616,0.0009098,0.01105,0.0001373,4.387e-05,0.119,0.006218,1.139,0.001626,0,1,0
31800000000,32100000000,3996125377,0,308148250,0.0173,0.01083,0.01344,0.0003214,0.0007706,0.01123,0.000102,4.387e-05,0.1224,0.005997,1.167,0.00166,0,1,0
32100000000,32400000000,3996125377,0,308148250,0.01587,0.01088,0.01343,0.0003262,0.0007753,0.01118,0.0001068,4.387e-05,0.1538,0.005432,1.132,0.00164,0,1,0
32400000000,32700000000,3996125377,0,308148250,0.01727,0.01102,0.0134,0.0003309,0.0007792,0.01167,0.0001345,4.387e-05,0.1294,0.005997,1.097,0.001484,0,1,0
32700000000,33000000000,3996125377,0,308148250,0.01633,0.01106,0.01341,0.0003347,0.0007839,0.01155,0.0001402,4.387e-05,0.3374,0.005569,1.252,0.001984,0,1,0
33000000000,33300000000,3996125377,0,308148250,0.01524,0.01065,0.01343,0.0003395,0.0007877,0.01111,0.0001097,4.387e-05,0.1558,0.005997,1.192,0.001765,0,1,0
33300000000,33600000000,3996125377,0,308148250,0.01584,0.01065,0.01343,0.0003433,0.0007925,0.01125,0.0001488,4.387e-05,0.137,0.005142,1.156,0.001702,0,1,0
33600000000,33900000000,3996125377,0,308148250,0.01663,0.01064,0.0134,0.0003471,0.0007963,0.01103,9.918e-05,4.482e-05,0.1433,0.004288,1.132,0.001594,0,1,0
33900000000,34200000000,3996125377,0,308148250,0.01524,0.01065,0.01343,0.0003519,0.0008011,0.01102,0.0001144,4.482e-05,0.1292,0.007782,1.154,0.001699,0,1,0
34200000000,34500000000,3996125377,0,308148250,0.01633,0.01067,0.01343,0.0003576,0.0008068,0.01085,0.0001392,4.482e-05,0.113,0.005859,1.146,0.001671,0,1,0
34500000000,34800000000,3996125377,0,308148250,0.01538,0.01074,0.01337,0.0003605,0.0008097,0.01099,0.0001345,4.482e-05,0.1323,0.005859,1.141,0.001602,0,1,0
34800000000,35100000000,3996125377,0,308148250,0.01593,0.01091,0.01343,0.0003643,0.0008135,0.01144,8.488e-05,4.482e-05,0.1921,0.004929,1.21,0.001823,0,1,0
35100000000,35400000000,3996125377,0,308148250,0.01506,0.01094,0.01338,0.0003681,0.0008173,0.01115,0.0001221,4.482e-05,0.1814,0.005928,1.2,0.00182,0,1,0
35400000000,35700000000,3996125377,0,308148250,0.01608,0.01089,0.01337,0.0003729,0.000823,0.0112,9.441e-05,4.482e-05,0.156,0.004646,1.148,0.00168,0,1,0
35700000000,36000000000,3996125377,0,308148250,0.01611,0.01082,0.01343,0.0003777,0.0008268,0.01118,0.0001545,4.482e-05,0.188,0.005928,1.193,0.001829,0,1,0
36000000000,36300000000,3996125377,0,308148250,0.01608,0.01068,0.0134,0.0003805,0.0008307,0.01094,0.0001011,4.482e-05,0.1035,0.007996,1.13,0.001589,0,1,0
36300000000,36600000000,3996125377,0,308148250,0.01572,0.01067,0.01341,0.0003853,0.0008354,0.0112,0.0001364,4.482e-05,0.09436,0.006218,1.174,0.001765,0,1,0
36600000000,36900000000,3996125377,0,308148250,0.01608,0.0107,0.01337,0.0003891,0.0008383,0.01088,0.0001316,4.482e-05,0.1484,0.005859,1.158,0.001694,0,1,0
36900000000,37200000000,3996125377,0,308148250,0.01672,0.0107,0.01343,0.0003891,0.0008383,0.01114,0.0001135,4.482e-05,0.1487,0.005211,1.163,0.001732,0,1,0
37200000000,37500000000,3996125377,0,308148250,0.01746,0.01086,0.0134,0.000392,0.0008421,0.01103,0.0001345,4.482e-05,0.1587,0.005928,1.143,0.001615,0,1,0
37500000000,37800000000,3996125377,0,308148250,0.01688,0.0108,0.01343,0.0003939,0.000844,0.01112,0.0001125,4.482e-05,0.1731,0.006218,1.179,0.001746,0,1,0
37800000000,38100000000,3996125377,0,308148250,0.01794,0.0108,0.01343,0.0003948,0.000845,0.01111,0.0001268,4.482e-05,0.1616,0.005783,1.171,0.001734,0,1,0
38100000000,38400000000,3996125377,0,308148250,0.01813,0.01071,0.01344,0.0004005,0.0008497,0.01102,0.0001211,4.482e-05,0.187,0.008636,1.168,0.001731,0,1,0
38400000000,38700000000,3996125377,0,308148250,0.0191,0.01062,0.01338,0.0003643,0.0008144,0.01096,0.000102,4.482e-05,0.1497,0.005432,1.155,0.001601,0,1,0
38700000000,39000000000,3996125377,0,308148250,0.0195,0.01064,0.01343,0.0003414,0.0007915,0.01096,0.0001183,4.482e-05,0.1807,0.00457,1.141,0.001572,0,1,0
39000000000,39300000000,3996125377,0,308148250,0.02023,0.01062,0.01344,0.0003433,0.0007935,0.01094,0.0001087,4.482e-05,0.1213,0.00486,1.161,0.001711,0,1,0
39300000000,39600000000,3996125377,0,308148250,0.02039,0.01077,0.01344,0.00035,0.0008001,0.01118,0.0001001,4.482e-05,0.1558,0.003998,1.179,0.001792,0,1,0
39600000000,39900000000,3996125377,0,308148250,0.01962,0.01089,0.01343,0.0003557,0.0008059,0.01118,0.0001106,4.482e-05,0.0946,0.004784,1.129,0.001664,0,1,0
39900000000,40200000000,3996125377,0,308148250,0.02084,0.01088,0.01344,0.0003624,0.0008116,0.01129,0.0001268,4.482e-05,0.1772,0.005211,1.137,0.001655,0,1,0
40200000000,40500000000,3996125377,0,308148250,0.02072,0.01086,0.01337,0.0003643,0.0008144,0.01128,0.0001202,4.482e-05,0.1237,0.004715,1.129,0.001633,0,1,0
40500000000,40800000000,3996125377,0,308148250,0.02209,0.01079,0.01332,0.0003681,0.0008173,0.01131,0.0001125,4.482e-05,0.1863,0.005997,1.095,0.001498,0,1,0
51000000000,51300000000,3996125377,0,308148250,0.05292,0.01108,0.01337,0.0007133,0.001163,0.01172,0.0001554,4.578e-05,0.2048,0.005997,1.096,0.001434,0,1,0
51300000000,51600000000,3996125377,0,308148250,0.05444,0.01106,0.01335,0.0007219,0.001171,0.01146,0.0001516,4.578e-05,0.2209,0.006432,1.116,0.001488,0,1,0
51600000000,51900000000,3996125377,0,308148250,0.05493,0.01114,0.01337,0.0007324,0.001183,0.01192,0.0001326,4.578e-05,0.1853,0.004997,1.149,0.001585,0,1,0
51900000000,52200000000,3996125377,0,308148250,0.05762,0.01123,0.01338,0.0007477,0.001198,0.01152,0.0001469,4.578e-05,0.1985,0.007004,1.159,0.001641,0,1,0
52200000000,52500000000,3996125377,0,308148250,0.05872,0.01105,0.01338,0.0007601,0.001209,0.01158,0.0001459,4.578e-05,0.2002,0.006859,1.129,0.001537,0,1,0
52500000000,52800000000,3996125377,0,308148250,0.05859,0.0112,0.01338,0.0007744,0.001225,0.01189,0.0001373,4.578e-05,0.2144,0.006073,1.107,0.001477,0,1,0
52800000000,53100000000,3996125377,0,308148250,0.05774,0.01122,0.01337,0.0007887,0.001238,0.01175,0.0001621,4.578e-05,0.2021,0.004784,1.121,0.001514,0,1,0
53100000000,53400000000,3996125377,0,308148250,0.05621,0.01111,0.0134,0.0008049,0.001253,0.01143,0.0001612,4.578e-05,0.1699,0.005569,1.142,0.001586,0,1,0
53400000000,53700000000,3996125377,0,308148250,0.05908,0.01115,0.01338,0.0008202,0.001268,0.01164,0.0001535,4.578e-05,0.21,0.005997,1.122,0.001533,0,1,0
53700000000,54000000000,3996125377,0,308148250,0.05853,0.01115,0.0134,0.0008373,0.001286,0.01143,0.000145,4.578e-05,0.1914,0.006432,1.158,0.001636,0,1,0
54000000000,54300000000,3996125377,0,308148250,0.06036,0.01115,0.01337,0.0008459,0.001295,0.01167,0.0001841,4.578e-05,0.2317,0.007141,1.148,0.001572,0,1,0
54300000000,54600000000,3996125377,0,308148250,0.05658,0.01118,0.01332,0.0008554,0.001305,0.01176,0.0001183,4.673e-05,0.1851,0.005997,1.121,0.0015,0,1,0
54600000000,54900000000,3996125377,0,308148250,0.0589,0.01131,0.01332,0.0008669,0.001316,0.01183,0.0001469,4.482e-05,0.1826,0.005859,1.125,0.001517,0,1,0
54900000000,55200000000,3996125377,0,308148250,0.06036,0.01132,0.01326,0.0008698,0.00132,0.01205,0.0001354,4.482e-05,0.2117,0.006073,1.105,0.001458,0,1,0
55200000000,55500000000,3996125377,0,308148250,0.05975,0.01126,0.01337,0.0008821,0.001331,0.01176,0.0001602,4.482e-05,0.1843,0.005928,1.133,0.001551,0,1,0
55500000000,55800000000,3996125377,0,308148250,0.06158,0.01128,0.01337,0.0008984,0.001348,0.0119,0.0001287,4.482e-05,0.2097,0.005928,1.125,0.00152,0,1,0
55800000000,56100000000,3996125377,0,308148250,0.06116,0.0112,0.01337,0.0009136,0.001362,0.01236,0.000144,4.482e-05,0.2012,0.006142,1.121,0.001515,0,1,0
56100000000,56400000000,3996125377,0,308148250,0.06049,0.01125,0.01335,0.000927,0.001377,0.01196,0.0001087,4.482e-05,0.2234,0.005501,1.125,0.001532,0,1,0
56400000000,56700000000,3996125377,0,308148250,0.06042,0.01122,0.01332,0.0009375,0.001387,0.01167,0.0001345,4.482e-05,0.1895,0.00457,1.121,0.001514,0,1,0
56700000000,57000000000,3996125377,0,308148250,0.06177,0.01128,0.01329,0.0009432,0.001392,0.01173,0.0001593,4.482e-05,0.1987,0.00885,1.129,0.001538,0,1,0
57000000000,57300000000,3996125377,0,308148250,0.0625,0.01134,0.01323,0.000946,0.001394,0.0119,0.0001402,4.482e-05,0.2034,0.006142,1.123,0.001499,0,1,0
57300000000,57600000000,3996125377,0,308148250,0.06238,0.01137,0.01323,0.0009518,0.0014,0.01195,0.0001421,4.482e-05,0.2036,0.006927,1.125,0.001502,0,1,0
57600000000,57900000000,3996125377,0,308148250,0.06226,0.01131,0.01323,0.0009556,0.001404,0.01181,0.0001478,4.482e-05,0.1929,0.005859,1.087,0.001402,0,1,0
57900000000,58200000000,3996125377,0,308148250,0.06335,0.0114,0.01323,0.0009604,0.00141,0.01187,0.0001249,4.482e-05,0.2163,0.005928,1.123,0.00149,0,1,0
58200000000,58500000000,3996125377,0,308148250,0.06091,0.01134,0.01321,0.0009661,0.001415,0.01192,0.0001316,4.482e-05,0.2097,0.005646,1.115,0.001474,0,1,0
58500000000,58800000000,3996125377,0,308148250,0.06049,0.01137,0.01323,0.000967,0.001415,0.01183,0.0001612,4.482e-05,0.1797,0.005928,1.128,0.001502,0,1,0
58800000000,59100000000,3996125377,0,308148250,0.06232,0.01137,0.01321,0.0009718,0.001421,0.01184,0.0001717,4.482e-05,0.2185,0.006645,1.128,0.001502,0,1,0
59100000000,59400000000,3996125377,0,308148250,0.06207,0.01141,0.01323,0.0009766,0.001425,0.01212,0.000123,4.482e-05,0.1921,0.006073,1.116,0.001478,0,1,0
59400000000,59700000000,3996125377,0,308148250,0.06079,0.01135,0.01321,0.0009804,0.001429,0.0118,0.000145,4.482e-05,0.1838,0.005142,1.12,0.001472,0,1,0
59700000000,60000000000,3996125377,0,308148250,0.06287,0.0114,0.01323,0.0009861,0.001434,0.01192,0.0001459,4.482e-05,0.2134,0.005928,1.11,0.001456,0,1,0
60000000000,60300000000,3996125377,0,308148250,0.06543,0.01137,0.01321,0.0009899,0.00144,0.01167,0.000144,4.482e-05,0.2241,0.006218,1.124,0.001446,0,1,0
60300000000,60600000000,3996125377,0,308148250,0.06592,0.01138,0.01323,0.0009956,0.001444,0.01189,0.0001345,4.482e-05,0.2031,0.005432,1.145,0.001512,0,1,0
60600000000,60900000000,3996125377,0,308148250,0.06763,0.01143,0.01321,0.0009995,0.001448,0.01176,0.0001259,4.482e-05,0.229,0.004356,1.126,0.001453,0,1,0
70800000000,71100000000,3996125377,0,308148250,0.07043,0.0117,0.01323,0.0005198,0.0009279,0.01239,0.0001402,4.482e-05,0.2361,0.006432,1.128,0.001488,0,1,0
71100000000,71400000000,3996125377,0,308148250,0.07263,0.01164,0.01321,0.0005264,0.0009346,0.01215,0.0001745,4.482e-05,0.2063,0.006859,1.109,0.00143,0,1,0
71400000000,71700000000,3996125377,0,308148250,0.07178,0.01164,0.01323,0.0005312,0.0009394,0.01207,0.0001726,4.578e-05,0.2026,0.005569,1.129,0.001484,0,1,0
71700000000,72000000000,3996125377,0,308148250,0.07019,0.01166,0.01321,0.000536,0.0009441,0.01208,0.0001259,4.578e-05,0.2068,0.005142,1.124,0.001487,0,1,0
72000000000,72300000000,3996125377,0,308148250,0.07239,0.01163,0.01323,0.0005407,0.0009489,0.01215,0.0001135,4.578e-05,0.2104,0.005074,1.124,0.001481,0,1,0
72300000000,72600000000,3996125377,0,308148250,0.07056,0.01173,0.01321,0.0005474,0.0009556,0.01233,0.0001383,4.578e-05,0.2087,0.005211,1.116,0.001472,0,1,0
72600000000,72900000000,3996125377,0,308148250,0.07251,0.01163,0.01321,0.0005531,0.0009613,0.01245,0.0001202,4.578e-05,0.219,0.005432,1.101,0.001423,0,1,0
72900000000,73200000000,3996125377,0,308148250,0.07031,0.0117,0.01321,0.0005579,0.0009661,0.01218,0.0001507,4.578e-05,0.2051,0.005783,1.104,0.001417,0,1,0
73200000000,73500000000,3996125377,0,308148250,0.07153,0.01164,0.01321,0.0005636,0.0009718,0.01208,0.0001297,4.578e-05,0.2046,0.0065,1.115,0.001451,0,1,0
73500000000,73800000000,3996125377,0,308148250,0.07178,0.0117,0.01323,0.0005693,0.0009785,0.01228,0.0001783,4.578e-05,0.2168,0.005928,1.106,0.001435,0,1,0
73800000000,74100000000,3996125377,0,308148250,0.07129,0.01169,0.01321,0.0005751,0.0009823,0.01219,0.0001202,4.578e-05,0.1951,0.006287,1.12,0.001458,0,1,0
74100000000,74400000000,3996125377,0,308148250,0.07288,0.01169,0.01321,0.0005798,0.000988,0.01208,0.0001268,4.578e-05,0.2144,0.006218,1.12,0.00147,0,1,0
74400000000,74700000000,3996125377,0,308148250,0.07434,0.01169,0.01321,0.0005846,0.0009918,0.01228,0.0001345,4.578e-05,0.2261,0.006783,1.123,0.001486,0,1,0
74700000000,75000000000,3996125377,0,308148250,0.07349,0.01169,0.01321,0.0005894,0.0009975,0.01221,0.0001745,4.578e-05,0.2244,0.007217,1.12,0.001457,0,1,0
75000000000,75300000000,3996125377,0,308148250,0.07312,0.01169,0.01321,0.0005465,0.0009499,0.01265,0.0001507,4.578e-05,0.2019,0.007141,1.123,0.001485,0,1,0
75300000000,75600000000,3996125377,0,308148250,0.07263,0.01167,0.01323,0.0005417,0.0009441,0.01218,0.0001774,4.578e-05,0.2163,0.007004,1.147,0.001535,0,1,0
75600000000,75900000000,3996125377,0,308148250,0.07471,0.01167,0.01321,0.0005465,0.0009489,0.01218,0.0001383,4.578e-05,0.2212,0.005569,1.115,0.001451,0,1,0
75900000000,76200000000,3996125377,0,308148250,0.07263,0.01172,0.01321,0.0005512,0.0009546,0.01225,0.0001364,4.578e-05,0.1892,0.005997,1.123,0.001462,0,1,0
76200000000,76500000000,3996125377,0,308148250,0.07227,0.01167,0.01321,0.0005569,0.0009604,0.01245,0.0001307,4.578e-05,0.2266,0.005783,1.142,0.001537,0,1,0
76500000000,76800000000,3996125377,0,308148250,0.07031,0.01167,0.01321,0.0005617,0.0009651,0.01222,0.0001478,4.578e-05,0.2075,0.005859,1.122,0.001473,0,1,0
76800000000,77100000000,3996125377,0,308148250,0.0708,0.01164,0.01321,0.0005684,0.0009708,0.01215,0.0001221,4.578e-05,0.2109,0.005928,1.116,0.001468,0,1,0
77100000000,77400000000,3996125377,0,308148250,0.073,0.01169,0.01321,0.0005741,0.0009766,0.01231,0.0001335,4.578e-05,0.2117,0.004929,1.126,0.001493,0,1,0
77400000000,77700000000,3996125377,0,308148250,0.07458,0.01164,0.0132,0.0005798,0.0009823,0.01218,0.0001411,4.578e-05,0.24,0.006859,1.108,0.001434,0,1,0
77700000000,78000000000,3996125377,0,308148250,0.07202,0.01169,0.0132,0.0005856,0.000988,0.01213,0.0001526,4.578e-05,0.2183,0.005646,1.118,0.00145,0,1,0
78000000000,78300000000,3996125377,0,308148250,0.07263,0.01163,0.0132,0.0005903,0.0009937,0.01216,0.0001287,4.578e-05,0.2112,0.005211,1.114,0.00144,0,1,0
78300000000,78600000000,3996125377,0,308148250,0.073,0.01169,0.01321,0.000596,0.0009975,0.01231,0.0001268,4.578e-05,0.2119,0.006432,1.124,0.001476,0,1,0
78600000000,78900000000,3996125377,0,308148250,0.07068,0.01164,0.01321,0.0006008,0.001003,0.01253,0.0001173,4.578e-05,0.2212,0.004425,1.11,0.001433,0,1,0
78900000000,79200000000,3996125377,0,308148250,0.073,0.01169,0.01321,0.0006065,0.001009,0.01227,0.0001364,4.578e-05,0.2021,0.005074,1.109,0.001443,0,1,0
79200000000,79500000000,3996125377,0,308148250,0.07068,0.01158,0.01321,0.0006113,0.001015,0.01186,0.0001144,4.578e-05,0.1885,0.004646,1.13,0.001508,0,1,0
79500000000,79800000000,3996125377,0,308148250,0.06909,0.01172,0.01321,0.0006161,0.001019,0.01233,0.0001402,4.578e-05,0.2039,0.005859,1.106,0.001431,0,1,0
79800000000,80100000000,3996125377,0,308148250,0.07227,0.01167,0.01321,0.0006218,0.001024,0.01202,0.000145,4.578e-05,0.1946,0.007782,1.11,0.001448,0,1,0
80100000000,80400000000,3996125377,0,308148250,0.07239,0.01173,0.0132,0.0006266,0.00103,0.01222,0.0001678,4.578e-05,0.209,0.007431,1.116,0.001465,0,1,0
80400000000,80700000000,3996125377,0,308148250,0.07288,0.01169,0.0132,0.0006323,0.001034,0.01195,0.0001345,4.578e-05,0.208,0.005928,1.108,0.001441,0,1,0
80700000000,81000000000,3996125377,0,308148250,0.073,0.0117,0.0132,0.0006371,0.00104,0.01228,0.0001526,4.578e-05,0.2083,0.006287,1.122,0.001487,0,1,0
85800000000,86100000000,3996125377,0,308148250,0.06409,0.01036,0.01321,0.001518,0.00211,0.01082,0.0001726,4.196e-05,0.2314,0.008072,1.122,0.001454,0,1,0
86100000000,86400000000,3996125377,0,308148250,0.06482,0.01024,0.0132,0.001493,0.002083,0.01065,0.0001669,4.196e-05,0.2102,0.005783,1.126,0.001466,0,1,0
86400000000,86700000000,3996125377,0,308148250,0.06738,0.01042,0.0132,0.001488,0.002079,0.01093,0.0001602,4.196e-05,0.2134,0.004715,1.097,0.001379,0,1,0
86700000000,87000000000,3996125377,0,308148250,0.06409,0.01038,0.0132,0.00149,0.002083,0.01076,0.0001307,4.196e-05,0.2107,0.005714,1.117,0.001454,0,1,0
87000000000,87300000000,3996125377,0,308148250,0.06287,0.01036,0.01326,0.001493,0.002087,0.01122,0.0001526,4.196e-05,0.2253,0.005783,1.112,0.001446,0,1,0
87300000000,87600000000,3996125377,0,308148250,0.06311,0.01036,0.01332,0.001503,0.002098,0.01079,0.0001659,4.196e-05,0.2134,0.006569,1.128,0.001503,0,1,0
87600000000,87900000000,3996125377,0,308148250,0.06409,0.01024,0.01331,0.001514,0.00211,0.01065,0.0001659,4.196e-05,0.188,0.005432,1.12,0.001459,0,1,0
87900000000,88200000000,3996125377,0,308148250,0.06689,0.01035,0.01329,0.001507,0.002102,0.01088,0.0001898,4.196e-05,0.2078,0.007072,1.13,0.0015,0,1,0
88200000000,88500000000,3996125377,0,308148250,0.06458,0.01035,0.01324,0.001499,0.002094,0.01073,0.0001612,4.196e-05,0.1726,0.006142,1.11,0.00143,0,1,0
88500000000,88800000000,3996125377,0,308148250,0.06702,0.01033,0.0132,0.001497,0.002094,0.01077,0.0001612,4.196e-05,0.2249,0.006645,1.09,0.001369,0,1,0
88800000000,89100000000,3996125377,0,308148250,0.06641,0.0105,0.01321,0.001503,0.002098,0.01094,0.0001564,4.196e-05,0.1982,0.006645,1.107,0.001415,0,1,0
89100000000,89400000000,3996125377,0,308148250,0.06506,0.01038,0.01321,0.001507,0.002106,0.01079,0.0001545,4.196e-05,0.2073,0.006218,1.11,0.001402,0,1,0
89400000000,89700000000,3996125377,0,308148250,0.06665,0.01048,0.01321,0.001513,0.00211,0.01151,0.0001659,4.196e-05,0.2205,0.006287,1.116,0.001411,0,1,0
89700000000,90000000000,3996125377,0,308148250,0.06726,0.01048,0.01321,0.001518,0.002117,0.01103,0.0001364,4.196e-05,0.2161,0.007004,1.118,0.001423,0,1,0
90000000000,90300000000,3996125377,0,308148250,0.06689,0.01039,0.01321,0.001524,0.002121,0.01083,0.0001659,4.196e-05,0.2095,0.007141,1.105,0.001399,0,1,0
90300000000,90600000000,3996125377,0,308148250,0.06799,0.01048,0.01321,0.001528,0.002125,0.01143,0.0001507,4.196e-05,0.2002,0.007568,1.102,0.001403,0,1,0
90600000000,90900000000,3996125377,0,308148250,0.0636,0.01047,0.01324,0.001532,0.002132,0.01143,0.0001345,4.196e-05,0.1833,0.005569,1.111,0.001428,0,1,0
101100000000,101400000000,3996125377,0,308148250,0.05969,0.01073,0.01335,0.001606,0.002209,0.01118,0.0001793,4.292e-05,0.2104,0.008713,1.072,0.001374,0,1,0
101400000000,101700000000,3996125377,0,308148250,0.05713,0.0108,0.0134,0.001631,0.002239,0.01122,0.000185,4.101e-05,0.1963,0.01108,1.083,0.00142,0,1,0
101700000000,102000000000,3996125377,0,308148250,0.05811,0.01047,0.0134,0.001648,0.002258,0.01093,0.0001564,4.101e-05,0.2163,0.006287,1.087,0.00139,0,1,0
102000000000,102300000000,3996125377,0,308148250,0.05774,0.01071,0.01338,0.001661,0.00227,0.01115,0.0001459,4.101e-05,0.2024,0.006073,1.11,0.001478,0,1,0
102300000000,102600000000,3996125377,0,308148250,0.05927,0.01064,0.01335,0.001673,0.002281,0.01106,0.0001211,4.101e-05,0.1948,0.005646,1.058,0.001332,0,1,0
102600000000,102900000000,3996125377,0,308148250,0.05823,0.01062,0.01334,0.001671,0.002281,0.01099,0.0001345,4.101e-05,0.1936,0.006287,1.069,0.001351,0,1,0
102900000000,103200000000,3996125377,0,308148250,0.0556,0.01077,0.01324,0.001667,0.002277,0.01137,0.0001192,4.196e-05,0.1721,0.004929,1.057,0.001338,0,1,0
103200000000,103500000000,3996125377,0,308148250,0.05536,0.01082,0.01323,0.001673,0.002281,0.01131,0.0001574,4.196e-05,0.2239,0.006355,1.072,0.001355,0,1,0
103500000000,103800000000,3996125377,0,308148250,0.05328,0.01068,0.01321,0.001677,0.002285,0.01097,0.0001268,4.196e-05,0.199,0.005569,1.063,0.001332,0,1,0
103800000000,104100000000,3996125377,0,308148250,0.05066,0.01086,0.01323,0.001682,0.002293,0.01117,0.0001125,4.196e-05,0.2034,0.006714,1.066,0.001356,0,1,0
104100000000,104400000000,3996125377,0,308148250,0.05298,0.01073,0.01338,0.00169,0.0023,0.01111,0.000124,4.196e-05,0.1865,0.007286,1.065,0.001363,0,1,0
104400000000,104700000000,3996125377,0,308148250,0.05194,0.01062,0.0134,0.001701,0.002312,0.01106,0.0001707,4.196e-05,0.1858,0.006287,1.082,0.001415,0,1,0
104700000000,105000000000,3996125377,0,308148250,0.05029,0.01059,0.0134,0.001713,0.002323,0.01094,0.0001049,4.196e-05,0.1985,0.00457,1.098,0.001433,0,1,0
105000000000,105300000000,3996125377,0,308148250,0.05078,0.0107,0.0134,0.001726,0.002335,0.01125,0.000124,4.196e-05,0.2053,0.005569,1.056,0.001295,0,1,0
105300000000,105600000000,3996125377,0,308148250,0.05109,0.01056,0.0134,0.001738,0.002346,0.01105,0.0001192,4.196e-05,0.1802,0.007645,1.084,0.001399,0,1,0
105600000000,105900000000,3996125377,0,308148250,0.05212,0.01059,0.01338,0.001749,0.002357,0.01122,0.000123,4.196e-05,0.1975,0.006218,1.067,0.001346,0,1,0
105900000000,106200000000,3996125377,0,308148250,0.04803,0.01036,0.01338,0.00176,0.002369,0.01068,0.0001202,4.196e-05,0.2092,0.006927,1.096,0.001432,0,1,0
106200000000,106500000000,3996125377,0,308148250,0.04883,0.01038,0.0134,0.001749,0.002361,0.01161,0.0001192,4.196e-05,0.1919,0.004784,1.078,0.001389,0,1,0
106500000000,106800000000,3996125377,0,308148250,0.04688,0.01035,0.0134,0.001638,0.002247,0.01073,0.0001287,4.196e-05,0.2078,0.005646,1.091,0.001435,0,1,0
106800000000,107100000000,3996125377,0,308148250,0.0462,0.01038,0.0134,0.001648,0.002258,0.01109,0.0001421,4.196e-05,0.2034,0.006073,1.081,0.001419,0,1,0
107100000000,107400000000,3996125377,0,308148250,0.04517,0.01019,0.0134,0.001659,0.00227,0.01067,0.0001192,4.196e-05,0.2078,0.006783,1.091,0.001471,0,1,0
107400000000,107700000000,3996125377,0,308148250,0.04401,0.01021,0.0134,0.001669,0.002277,0.01099,0.0001144,4.196e-05,0.1782,0.004074,1.106,0.001462,0,1,0
107700000000,108000000000,3996125377,0,308148250,0.04132,0.01033,0.01341,0.001678,0.002289,0.01083,0.0001116,4.196e-05,0.2,0.005859,1.08,0.001418,0,1,0
108000000000,108300000000,3996125377,0,308148250,0.04309,0.01039,0.01341,0.001688,0.002296,0.01103,0.0001059,4.196e-05,0.1912,0.005432,1.051,0.001334,0,1,0
108300000000,108600000000,3996125377,0,308148250,0.03979,0.01025,0.01341,0.001698,0.002308,0.01091,0.0001326,4.196e-05,0.1965,0.006927,1.054,0.001375,0,1,0
108600000000,108900000000,3996125377,0,308148250,0.03949,0.01033,0.01341,0.001707,0.002316,0.01123,0.0001173,4.196e-05,0.2185,0.005501,1.064,0.001394,0,1,0
108900000000,109200000000,3996125377,0,308148250,0.03882,0.01041,0.01341,0.001717,0.002327,0.01106,0.0001068,4.196e-05,0.1921,0.005287,1.057,0.00137,0,1,0
109200000000,109500000000,3996125377,0,308148250,0.0368,0.01027,0.01341,0.001726,0.002335,0.0107,0.0001192,4.196e-05,0.1792,0.005714,1.079,0.001456,0,1,0
109500000000,109800000000,3996125377,0,308148250,0.03864,0.01015,0.01341,0.001736,0.002346,0.01054,0.0001183,4.196e-05,0.2019,0.006927,1.07,0.001372,0,1,0
109800000000,110100000000,3996125377,0,308148250,0.0379,0.01025,0.0134,0.001743,0.002354,0.01064,0.0001459,4.196e-05,0.1772,0.006073,1.082,0.001416,0,1,0
110100000000,110400000000,3996125377,0,308148250,0.03613,0.01019,0.0134,0.001751,0.002361,0.0105,0.0001106,4.196e-05,0.1907,0.005783,1.071,0.001387,0,1,0
110400000000,110700000000,3996125377,0,308148250,0.03699,0.01016,0.01341,0.00176,0.002369,0.01056,0.0001268,4.196e-05,0.1941,0.006073,1.069,0.001361,0,1,0
110700000000,111000000000,3996125377,0,308148250,0.03503,0.01016,0.01341,0.001768,0.002377,0.01065,0.0001078,4.196e-05,0.187,0.007713,1.087,0.001446,0,1,0
116100000000,116400000000,3996125377,0,308148250,0.02219,0.01006,0.01341,0.001892,0.002502,0.01057,0.0001078,4.292e-05,0.1472,0.006569,1.113,0.001567,0,1,0
116400000000,116700000000,3996125377,0,308148250,0.0213,0.01006,0.01341,0.001896,0.002506,0.01024,0.0001202,4.292e-05,0.1753,0.005501,1.095,0.001528,0,1,0
116700000000,117000000000,3996125377,0,308148250,0.02078,0.01004,0.01343,0.00181,0.002422,0.01036,0.0001554,4.196e-05,0.166,0.006783,1.172,0.001761,0,1,0
117000000000,117300000000,3996125377,0,308148250,0.02008,0.01016,0.01343,0.001677,0.002289,0.01062,0.0001335,4.196e-05,0.1953,0.006859,1.096,0.001511,0,1,0
117300000000,117600000000,3996125377,0,308148250,0.01764,0.01015,0.01343,0.001682,0.002293,0.01039,0.0001116,4.196e-05,0.1301,0.005646,1.135,0.001652,0,1,0
117600000000,117900000000,3996125377,0,308148250,0.01782,0.01012,0.01343,0.001678,0.002289,0.01042,0.0001078,4.196e-05,0.1631,0.005501,1.13,0.001636,0,1,0
117900000000,118200000000,3996125377,0,308148250,0.01773,0.0101,0.01343,0.00168,0.002293,0.01028,8.583e-05,4.196e-05,0.1694,0.005356,1.168,0.001737,0,1,0
118200000000,118500000000,3996125377,0,308148250,0.01691,0.01004,0.01343,0.001686,0.002296,0.01033,0.0001163,4.196e-05,0.1592,0.006142,1.182,0.001771,0,1,0
118500000000,118800000000,3996125377,0,308148250,0.01706,0.01004,0.01343,0.001692,0.0023,0.01036,9.155e-05,4.196e-05,0.156,0.006073,1.142,0.001674,0,1,0
118800000000,119100000000,3996125377,0,308148250,0.01611,0.009979,0.01343,0.001696,0.002308,0.01021,0.0001106,4.196e-05,0.1001,0.006142,1.117,0.00159,0,1,0
119100000000,119400000000,3996125377,0,308148250,0.01663,0.009964,0.01341,0.001699,0.002312,0.01051,8.488e-05,4.196e-05,0.1428,0.004715,1.181,0.001818,0,1,0
119400000000,119700000000,3996125377,0,308148250,0.01581,0.009995,0.0134,0.001705,0.002316,0.01013,0.0001106,4.196e-05,0.167,0.007645,1.133,0.001675,0,1,0
119700000000,120000000000,3996125377,0,308148250,0.015,0.01003,0.01341,0.001709,0.002319,0.01024,0.000104,4.196e-05,0.1085,0.006218,1.178,0.00178,0,1,0
120000000000,120300000000,3996125377,0,308148250,0.01495,0.01004,0.01341,0.001713,0.002323,0.01038,0.0001059,4.196e-05,0.1729,0.007072,1.194,0.001794,0,1,0
120300000000,120600000000,3996125377,0,308148250,0.01472,0.01012,0.01338,0.001719,0.002327,0.01039,0.000103,4.196e-05,0.09009,0.006355,1.188,0.001906,0,1,0
120600000000,120900000000,3996125377,0,308148250,0.01569,0.01003,0.01338,0.001722,0.002335,0.01027,0.0001163,4.196e-05,0.1467,0.006073,1.17,0.001824,0,1,0
126000000000,126300000000,3996125377,0,308148250,0.02521,0.01003,0.01344,0.001348,0.001961,0.01048,0.0001373,4.196e-05,0.1335,0.005211,1.149,0.001817,0,1,0
126300000000,126600000000,3996125377,0,308148250,0.02264,0.01003,0.01341,0.001354,0.001965,0.0108,0.0001268,4.196e-05,0.1414,0.006218,1.139,0.001753,0,1,0
126600000000,126900000000,3996125377,0,308148250,0.01926,0.009918,0.01344,0.001352,0.001965,0.01018,0.0001116,4.196e-05,0.1655,0.006142,1.185,0.001917,0,1,0
126900000000,127200000000,3996125377,0,308148250,0.01987,0.009933,0.01346,0.001358,0.001968,0.01028,0.000123,4.196e-05,0.1775,0.006355,1.176,0.001856,0,1,0
127200000000,127500000000,3996125377,0,308148250,0.02258,0.01003,0.01344,0.001366,0.001976,0.01045,0.0001249,4.196e-05,0.1682,0.005356,1.184,0.001821,0,1,0
127500000000,127800000000,3996125377,0,308148250,0.02341,0.01018,0.0134,0.001366,0.001976,0.011,0.0001059,4.196e-05,0.1807,0.0065,1.152,0.001771,0,1,0
127800000000,128100000000,3996125377,0,308148250,0.02557,0.01012,0.01344,0.001373,0.001984,0.01041,0.0001068,4.196e-05,0.1499,0.005569,1.154,0.001741,0,1,0
128100000000,128400000000,3996125377,0,308148250,0.02765,0.01016,0.01343,0.001383,0.001995,0.01073,0.0001202,4.196e-05,0.1523,0.00486,1.124,0.001673,0,1,0
128400000000,128700000000,3996125377,0,308148250,0.02609,0.01003,0.01343,0.001392,0.002003,0.01033,0.0001202,4.196e-05,0.1575,0.005783,1.163,0.001817,0,1,0
128700000000,129000000000,3996125377,0,308148250,0.03021,0.01004,0.01341,0.001398,0.00201,0.01041,0.0001268,4.196e-05,0.1628,0.005074,1.121,0.001629,0,1,0
129000000000,129300000000,3996125377,0,308148250,0.03253,0.01016,0.01341,0.001408,0.002018,0.01044,0.0001125,4.196e-05,0.1423,0.005928,1.126,0.001663,0,1,0
129300000000,129600000000,3996125377,0,308148250,0.03235,0.01009,0.01343,0.001419,0.002029,0.01045,0.0001574,4.196e-05,0.1836,0.006218,1.118,0.001654,0,1,0
129600000000,129900000000,3996125377,0,308148250,0.03473,0.01006,0.01341,0.001431,0.002041,0.01038,0.0001221,4.196e-05,0.1824,0.006287,1.094,0.001579,0,1,0
129900000000,130200000000,3996125377,0,308148250,0.03497,0.01001,0.01343,0.001442,0.002052,0.01045,0.000144,4.196e-05,0.199,0.006432,1.122,0.001675,0,1,0
130200000000,130500000000,3996125377,0,308148250,0.03235,0.01024,0.01334,0.001448,0.00206,0.01056,0.0001221,4.196e-05,0.1694,0.006645,1.106,0.001598,0,1,0
130500000000,130800000000,3996125377,0,308148250,0.03259,0.01025,0.01334,0.001446,0.002056,0.01083,0.0001364,4.196e-05,0.1926,0.006073,1.131,0.001632,0,1,0
130800000000,131100000000,3996125377,0,308148250,0.03711,0.01025,0.01334,0.00145,0.00206,0.01085,0.0001097,4.196e-05,0.1736,0.006218,1.127,0.001637,0,1,0
141000000000,141300000000,3996125377,0,308148250,0.05823,0.01059,0.01332,0.001389,0.00198,0.0112,0.0001268,4.292e-05,0.2085,0.006073,1.103,0.001535,0,1,0
141300000000,141600000000,3996125377,0,308148250,0.05841,0.01067,0.01331,0.001392,0.001987,0.01111,0.0001612,4.292e-05,0.1785,0.007431,1.107,0.001548,0,1,0
141600000000,141900000000,3996125377,0,308148250,0.05908,0.01074,0.01334,0.0014,0.001991,0.01132,0.0001402,4.292e-05,0.2065,0.006287,1.131,0.00161,0,1,0
141900000000,142200000000,3996125377,0,308148250,0.06165,0.01065,0.01335,0.001411,0.002007,0.01117,0.0001297,4.292e-05,0.2114,0.006287,1.114,0.00156,0,1,0
142200000000,142500000000,3996125377,0,308148250,0.06146,0.01076,0.01337,0.001427,0.002022,0.01111,0.0001421,4.387e-05,0.1875,0.0065,1.116,0.001534,0,1,0
142500000000,142800000000,3996125377,0,308148250,0.06079,0.01071,0.01332,0.00144,0.002033,0.01129,0.0001364,4.387e-05,0.1902,0.005714,1.101,0.0015,0,1,0
142800000000,143100000000,3996125377,0,308148250,0.06024,0.01071,0.01331,0.001451,0.002045,0.01105,0.0001154,4.387e-05,0.2249,0.005432,1.113,0.001533,0,1,0
143100000000,143400000000,3996125377,0,308148250,0.0603,0.01073,0.01329,0.001427,0.002018,0.01123,0.0001307,4.387e-05,0.1931,0.006218,1.144,0.00165,0,1,0
143400000000,143700000000,3996125377,0,308148250,0.06262,0.01094,0.01326,0.001247,0.001839,0.01181,0.0001345,4.387e-05,0.2063,0.006142,1.106,0.001535,0,1,0
143700000000,144000000000,3996125377,0,308148250,0.06213,0.01074,0.01332,0.001196,0.001785,0.01118,0.0001497,4.387e-05,0.2168,0.006714,1.122,0.001584,0,1,0
144000000000,144300000000,3996125377,0,308148250,0.06238,0.01083,0.01331,0.001205,0.001795,0.01131,9.346e-05,4.387e-05,0.2048,0.004715,1.121,0.001574,0,1,0
144300000000,144600000000,3996125377,0,308148250,0.06226,0.01086,0.01323,0.001207,0.001797,0.01126,0.0001373,4.387e-05,0.2002,0.006927,1.097,0.001501,0,1,0
144600000000,144900000000,3996125377,0,308148250,0.06311,0.01086,0.01321,0.001213,0.001802,0.01128,9.155e-05,4.387e-05,0.2041,0.004143,1.121,0.001524,0,1,0
144900000000,145200000000,3996125377,0,308148250,0.06262,0.01086,0.01326,0.001217,0.001806,0.01128,0.0001392,4.387e-05,0.197,0.005646,1.153,0.001589,0,1,0
145200000000,145500000000,3996125377,0,308148250,0.06049,0.01088,0.01326,0.001226,0.001816,0.01135,0.0001011,4.387e-05,0.209,0.00457,1.118,0.001566,0,1,0
145500000000,145800000000,3996125377,0,308148250,0.06128,0.01079,0.01321,0.00123,0.001822,0.01118,0.0001106,4.387e-05,0.2109,0.006073,1.121,0.001575,0,1,0
145800000000,146100000000,3996125377,0,308148250,0.06262,0.01089,0.01328,0.001236,0.001825,0.01141,0.0001106,4.387e-05,0.2087,0.006142,1.103,0.001516,0,1,0
151200000000,151500000000,3996125377,0,308148250,0.0675,0.01109,0.0132,0.001186,0.001776,0.01154,0.0001268,4.292e-05,0.1951,0.005646,1.117,0.001568,0,1,0
151500000000,151800000000,3996125377,0,308148250,0.06775,0.01108,0.0132,0.00119,0.00178,0.0114,0.0001259,4.292e-05,0.2251,0.005356,1.102,0.001473,0,1,0
151800000000,152100000000,3996125377,0,308148250,0.0658,0.01114,0.0132,0.001194,0.001785,0.01161,0.0001478,4.292e-05,0.21,0.006287,1.091,0.001477,0,1,0
152100000000,152400000000,3996125377,0,308148250,0.06604,0.01109,0.0132,0.0012,0.001789,0.01151,0.0001373,4.292e-05,0.2141,0.005646,1.092,0.001487,0,1,0
152400000000,152700000000,3996125377,0,308148250,0.06628,0.01111,0.0132,0.001205,0.001795,0.01167,0.0001736,4.292e-05,0.1982,0.007782,1.105,0.001516,0,1,0
152700000000,153000000000,3996125377,0,308148250,0.06653,0.01115,0.0132,0.001209,0.001799,0.01161,0.0001287,4.292e-05,0.2021,0.007286,1.089,0.001475,0,1,0
153000000000,153300000000,3996125377,0,308148250,0.06982,0.01105,0.0132,0.001215,0.001804,0.01152,0.0001516,4.292e-05,0.2043,0.006073,1.097,0.001505,0,1,0
153300000000,153600000000,3996125377,0,308148250,0.06885,0.0112,0.0132,0.001221,0.00181,0.01172,0.0001755,4.292e-05,0.2107,0.006218,1.093,0.001492,0,1,0
153600000000,153900000000,3996125377,0,308148250,0.07129,0.01111,0.0132,0.001226,0.001816,0.0116,0.0001011,4.292e-05,0.1824,0.004997,1.116,0.001563,0,1,0
153900000000,154200000000,3996125377,0,308148250,0.06946,0.01123,0.0132,0.001232,0.001822,0.01169,0.0001545,4.292e-05,0.2024,0.005997,1.116,0.001567,0,1,0
154200000000,154500000000,3996125377,0,308148250,0.07153,0.01115,0.0132,0.001238,0.001827,0.01155,0.0001488,4.292e-05,0.2048,0.006783,1.096,0.001476,0,1,0
154500000000,154800000000,3996125377,0,308148250,0.06995,0.01118,0.0132,0.001171,0.00176,0.01195,0.0001326,4.292e-05,0.1948,0.005714,1.103,0.001522,0,1,0
154800000000,155100000000,3996125377,0,308148250,0.07007,0.01117,0.0132,0.001059,0.001646,0.01158,0.0001431,4.292e-05,0.2073,0.005714,1.094,0.001446,0,1,0
155100000000,155400000000,3996125377,0,308148250,0.06946,0.0112,0.0132,0.001062,0.001652,0.01167,0.0001364,4.292e-05,0.2183,0.006218,1.09,0.001459,0,1,0
155400000000,155700000000,3996125377,0,308148250,0.06946,0.01125,0.0132,0.001068,0.001656,0.01163,0.0001631,4.292e-05,0.199,0.006927,1.117,0.001524,0,1,0
155700000000,156000000000,3996125377,0,308148250,0.0686,0.01118,0.0132,0.001072,0.001661,0.0116,0.0001411,4.292e-05,0.2131,0.006218,1.084,0.001458,0,1,0
161100000000,161400000000,3996125377,0,308148250,0.06873,0.01122,0.0132,0.0008888,0.00145,0.01163,0.0001516,4.387e-05,0.2004,0.007286,1.119,0.001538,0,1,0
161400000000,161700000000,3996125377,0,308148250,0.07239,0.01126,0.01321,0.0008936,0.001453,0.01167,0.0001116,4.387e-05,0.2095,0.005142,1.092,0.001447,0,1,0
161700000000,162000000000,3996125377,0,308148250,0.07141,0.01125,0.0132,0.0008984,0.001457,0.01184,0.0001593,4.387e-05,0.1794,0.006287,1.091,0.001474,0,1,0
162000000000,162300000000,3996125377,0,308148250,0.06946,0.01125,0.01321,0.0009031,0.001463,0.01196,0.0001507,4.387e-05,0.1941,0.006569,1.105,0.001526,0,1,0
162300000000,162600000000,3996125377,0,308148250,0.07141,0.0112,0.0132,0.0009079,0.001469,0.01158,0.0001612,4.387e-05,0.2139,0.006714,1.105,0.001456,0,1,0
162600000000,162900000000,3996125377,0,308148250,0.07312,0.01122,0.0132,0.0009136,0.001474,0.01166,0.0001554,4.387e-05,0.2175,0.007431,1.143,0.001616,0,1,0
162900000000,163200000000,3996125377,0,308148250,0.06982,0.0112,0.0132,0.0009184,0.001478,0.01176,0.0001154,4.387e-05,0.2136,0.005783,1.114,0.001557,0,1,0
163200000000,163500000000,3996125377,0,308148250,0.07043,0.0112,0.0132,0.0008993,0.00145,0.01167,0.0001488,4.387e-05,0.2346,0.007645,1.118,0.001566,0,1,0
163500000000,163800000000,3996125377,0,308148250,0.06995,0.01122,0.01321,0.0007334,0.001257,0.01164,0.0001268,4.387e-05,0.2112,0.005928,1.102,0.001523,0,1,0
163800000000,164100000000,3996125377,0,308148250,0.07166,0.01118,0.01321,0.0006628,0.00116,0.01187,0.0001621,4.387e-05,0.2329,0.006218,1.112,0.001535,0,1,0
164100000000,164400000000,3996125377,0,308148250,0.07178,0.01125,0.01321,0.000639,0.001118,0.01175,0.0001965,4.387e-05,0.1997,0.007858,1.111,0.001567,0,1,0
164400000000,164700000000,3996125377,0,308148250,0.07202,0.01117,0.01321,0.0006113,0.001066,0.01169,0.0001945,4.387e-05,0.2053,0.00914,1.098,0.001512,0,1,0
164700000000,165000000000,3996125377,0,308148250,0.07202,0.01122,0.01321,0.0006056,0.001051,0.01154,0.000247,4.387e-05,0.2246,0.01535,1.114,0.001573,0,1,0
165000000000,165300000000,3996125377,0,308148250,0.07507,0.01118,0.0132,0.0006027,0.001041,0.01175,0.0001545,4.387e-05,0.2253,0.01071,1.115,0.00154,0,1,0
165300000000,165600000000,3996125377,0,308148250,0.07593,0.01125,0.0132,0.0006046,0.001041,0.01176,0.0001297,4.387e-05,0.2073,0.006142,1.101,0.001518,0,1,0
165600000000,165900000000,3996125377,0,308148250,0.07788,0.01125,0.01318,0.0006104,0.001047,0.01175,0.0001698,4.387e-05,0.2327,0.006355,1.111,0.00152,0,1,0
165900000000,166200000000,3996125377,0,308148250,0.07629,0.01129,0.0132,0.0006161,0.001053,0.0118,0.0001554,4.387e-05,0.2144,0.005859,1.097,0.001514,0,1,0
166200000000,166500000000,3996125377,0,308148250,0.07092,0.01132,0.01318,0.0006218,0.001059,0.01183,0.0001764,4.387e-05,0.2065,0.006073,1.124,0.001574,0,1,0
166500000000,166800000000,3996125377,0,308148250,0.07043,0.01129,0.0132,0.0006466,0.001089,0.01176,0.0002451,4.387e-05,0.2112,0.02878,1.094,0.001493,0,1,0
166800000000,167100000000,3996125377,0,308148250,0.07141,0.01129,0.0132,0.0006542,0.001099,0.01189,0.0001678,4.387e-05,0.3599,0.0065,1.131,0.001582,0,1,0
167100000000,167400000000,3996125377,0,308148250,0.07263,0.01132,0.0132,0.0006609,0.001104,0.01187,0.0001564,4.387e-05,0.2219,0.00943,1.147,0.001568,0,1,0
167400000000,167700000000,3996125377,0,308148250,0.07007,0.01125,0.0132,0.0006657,0.00111,0.01163,0.0001478,4.387e-05,0.2244,0.007004,1.131,0.00158,0,1,0
167700000000,168000000000,3996125377,0,308148250,0.06995,0.01129,0.0132,0.0006132,0.001038,0.01169,0.0001688,4.387e-05,0.1833,0.006432,1.137,0.001622,0,1,0
168000000000,168300000000,3996125377,0,308148250,0.0686,0.01128,0.01321,0.0005007,0.000906,0.01195,0.0001717,4.387e-05,0.2092,0.008423,1.117,0.00158,0,1,0
168300000000,168600000000,3996125377,0,308148250,0.06958,0.01128,0.01321,0.0004959,0.0009022,0.01183,0.0001545,4.387e-05,0.2092,0.006218,1.12,0.001572,0,1,0
168600000000,168900000000,3996125377,0,308148250,0.06702,0.01132,0.01321,0.000493,0.0009003,0.01183,0.0001554,4.387e-05,0.2148,0.007286,1.132,0.001615,0,1,0
168900000000,169200000000,3996125377,0,308148250,0.06873,0.01122,0.01321,0.0004892,0.0008974,0.01161,0.0001469,4.387e-05,0.2119,0.006355,1.117,0.001564,0,1,0
169200000000,169500000000,3996125377,0,308148250,0.07007,0.01131,0.01321,0.0004759,0.0008831,0.01172,0.0001574,4.387e-05,0.2219,0.007141,1.118,0.001563,0,1,0
169500000000,169800000000,3996125377,0,308148250,0.06824,0.01126,0.01321,0.0004683,0.0008755,0.0116,0.0001822,4.387e-05,0.2087,0.008713,1.109,0.001528,0,1,0
169800000000,170100000000,3996125377,0,308148250,0.06494,0.01129,0.01321,0.000473,0.0008812,0.01175,0.000186,4.387e-05,0.2107,0.007782,1.094,0.001515,0,1,0
170100000000,170400000000,3996125377,0,308148250,0.06458,0.01128,0.01321,0.0004759,0.0008841,0.01158,0.0001211,4.387e-05,0.2083,0.005432,1.117,0.001599,0,1,0
170400000000,170700000000,3996125377,0,308148250,0.06482,0.01126,0.01321,0.0004797,0.0008879,0.01166,0.0001516,4.387e-05,0.1938,0.005859,1.107,0.001565,0,1,0
170700000000,171000000000,3996125377,0,308148250,0.06763,0.01129,0.01321,0.0004845,0.0008936,0.01175,0.0001259,4.387e-05,1.02,0.006287,1.125,0.001563,0,1,0
171000000000,171300000000,3996125377,0,308148250,0.06543,0.01129,0.01321,0.0004883,0.0008974,0.01234,0.0001574,4.387e-05,0.1968,0.006073,1.078,0.001439,0,1,0
171300000000,171600000000,3996125377,0,308148250,0.06372,0.01125,0.01321,0.0004892,0.0008984,0.01154,0.0001545,4.387e-05,0.2097,0.007004,1.095,0.001501,0,1,0
171600000000,171900000000,3996125377,0,308148250,0.06146,0.0112,0.01321,0.000474,0.0008812,0.01169,0.0001535,4.196e-05,0.2163,0.005287,1.095,0.001543,0,1,0
171900000000,172200000000,3996125377,0,308148250,0.06287,0.01126,0.01321,0.0004749,0.0008802,0.01183,0.0001259,4.196e-05,0.1736,0.006355,1.115,0.00156,0,1,0
172200000000,172500000000,3996125377,0,308148250,0.06384,0.01117,0.01321,0.0004759,0.0008802,0.01147,0.0001564,4.196e-05,0.2249,0.006927,1.083,0.00149,0,1,0
172500000000,172800000000,3996125377,0,308148250,0.06445,0.01128,0.01321,0.0004807,0.000885,0.01166,0.0001497,4.196e-05,0.2131,0.006927,1.098,0.001552,0,1,0
172800000000,173100000000,3996125377,0,308148250,0.06232,0.01122,0.01321,0.0004854,0.0008898,0.01164,0.0001545,4.196e-05,0.1997,0.006287,1.084,0.001494,0,1,0
173100000000,173400000000,3996125377,0,308148250,0.06323,0.01125,0.01321,0.0004892,0.0008936,0.01163,0.0001593,4.196e-05,0.2178,0.006645,1.088,0.001492,0,1,0
173400000000,173700000000,3996125377,0,308148250,0.0614,0.01115,0.01334,0.0004988,0.0009031,0.01178,0.0001326,4.196e-05,0.1997,0.005074,1.125,0.001607,0,1,0
173700000000,174000000000,3996125377,0,308148250,0.06274,0.01111,0.01337,0.000514,0.0009184,0.01161,0.0001688,4.196e-05,0.1953,0.006714,1.1,0.001538,0,1,0
174000000000,174300000000,3996125377,0,308148250,0.06396,0.01106,0.01335,0.0005293,0.0009336,0.01158,0.0001154,4.196e-05,0.2136,0.005432,1.106,0.001558,0,1,0
174300000000,174600000000,3996125377,0,308148250,0.06372,0.01111,0.01331,0.0005417,0.000947,0.01167,0.0001526,4.196e-05,0.2087,0.006287,1.089,0.001504,0,1,0
174600000000,174900000000,3996125377,0,308148250,0.06506,0.01109,0.01335,0.000555,0.0009604,0.0114,0.0001574,4.196e-05,0.2046,0.006218,1.083,0.001472,0,1,0
174900000000,175200000000,3996125377,0,308148250,0.06616,0.01102,0.01332,0.0005674,0.0009727,0.01149,0.0001535,4.196e-05,0.2214,0.006569,1.07,0.00142,0,1,0
175200000000,175500000000,3996125377,0,308148250,0.0658,0.01118,0.01332,0.0005798,0.0009842,0.01183,0.0001392,4.196e-05,0.2222,0.006645,1.07,0.001375,0,1,0
175500000000,175800000000,3996125377,0,308148250,0.06238,0.01109,0.01323,0.0005875,0.0009918,0.01157,0.0001507,4.196e-05,0.2134,0.006287,1.106,0.001525,0,1,0
175800000000,176100000000,3996125377,0,308148250,0.06323,0.01111,0.01329,0.0005941,0.0009995,0.01167,0.0001335,4.196e-05,0.1973,0.005501,1.087,0.001456,0,1,0
186300000000,186600000000,3996125377,0,308148250,0.06262,0.01112,0.01321,0.0008717,0.001276,0.01172,0.0001516,4.292e-05,0.2014,0.008072,1.059,0.001374,0,1,0
186600000000,186900000000,3996125377,0,308148250,0.06232,0.01123,0.01321,0.0008764,0.00128,0.0118,0.000165,4.292e-05,0.1941,0.006218,1.082,0.001435,0,1,0
186900000000,187200000000,3996125377,0,308148250,0.06183,0.01122,0.01321,0.0008812,0.001284,0.01218,0.000145,4.292e-05,0.2002,0.006073,1.077,0.001473,0,1,0
187200000000,187500000000,3996125377,0,308148250,0.05994,0.01115,0.01321,0.000885,0.001289,0.01195,0.0001154,4.292e-05,0.2209,0.005074,1.05,0.00135,0,1,0
187500000000,187800000000,3996125377,0,308148250,0.05933,0.01117,0.01337,0.0008945,0.001297,0.01167,0.0001402,4.292e-05,0.2095,0.005356,1.061,0.001425,0,1,0
187800000000,188100000000,3996125377,0,308148250,0.05725,0.01109,0.01338,0.0009079,0.001312,0.01161,0.0001364,4.387e-05,0.2046,0.006218,1.073,0.001468,0,1,0
188100000000,188400000000,3996125377,0,308148250,0.05658,0.01108,0.0134,0.0009212,0.001324,0.01166,0.0001564,4.387e-05,0.2024,0.006927,1.073,0.001445,0,1,0
188400000000,188700000000,3996125377,0,308148250,0.05896,0.01108,0.01337,0.0009336,0.001337,0.01164,0.0001411,4.387e-05,0.2024,0.005432,1.077,0.001463,0,1,0
188700000000,189000000000,3996125377,0,308148250,0.0589,0.01106,0.01337,0.0009451,0.001348,0.01149,0.0001574,4.387e-05,0.2068,0.006287,1.049,0.001375,0,1,0
189000000000,189300000000,3996125377,0,308148250,0.05615,0.011,0.01332,0.0009518,0.001354,0.01152,0.0001421,4.387e-05,0.2224,0.006073,1.066,0.001426,0,1,0
189300000000,189600000000,3996125377,0,308148250,0.05341,0.01108,0.01338,0.0009604,0.001364,0.01146,0.0001421,4.387e-05,0.1978,0.006432,1.058,0.001396,0,1,0
189600000000,189900000000,3996125377,0,308148250,0.052,0.01102,0.01338,0.0009727,0.001375,0.01135,0.0001736,4.387e-05,0.1995,0.007713,1.061,0.001441,0,1,0
189900000000,190200000000,3996125377,0,308148250,0.04993,0.01094,0.01341,0.0009842,0.001389,0.01126,0.000186,4.387e-05,0.1853,0.008362,1.085,0.001482,0,1,0
190200000000,190500000000,3996125377,0,308148250,0.0509,0.01091,0.0134,0.0009975,0.0014,0.01128,0.0001278,4.387e-05,0.1941,0.006218,1.088,0.001468,0,1,0
190500000000,190800000000,3996125377,0,308148250,0.05402,0.01103,0.01332,0.001007,0.001411,0.01151,0.0001497,4.387e-05,0.199,0.006142,1.046,0.001371,0,1,0
190800000000,191100000000,3996125377,0,308148250,0.0542,0.01097,0.01334,0.001017,0.001421,0.01128,0.0001907,4.387e-05,0.1755,0.007141,1.061,0.001382,0,1,0
191100000000,191400000000,3996125377,0,308148250,0.05121,0.011,0.01332,0.001026,0.001431,0.01137,0.0001564,4.387e-05,0.1912,0.006142,1.06,0.001435,0,1,0
191400000000,191700000000,3996125377,0,308148250,0.0495,0.01103,0.01324,0.001032,0.001436,0.01132,0.0001345,4.387e-05,0.2195,0.006714,1.062,0.001432,0,1,0
191700000000,192000000000,3996125377,0,308148250,0.04669,0.01097,0.01323,0.001036,0.00144,0.01134,0.0001354,4.387e-05,0.2078,0.006432,1.06,0.001441,0,1,0
192000000000,192300000000,3996125377,0,308148250,0.04572,0.01105,0.01326,0.00104,0.001442,0.01134,0.0001659,4.387e-05,0.2068,0.007286,1.092,0.001527,0,1,0
192300000000,192600000000,3996125377,0,308148250,0.04657,0.01088,0.0134,0.001047,0.001451,0.01135,0.0001726,4.387e-05,0.2019,0.0065,1.077,0.001484,0,1,0
192600000000,192900000000,3996125377,0,308148250,0.04962,0.01096,0.0134,0.001059,0.001463,0.01144,0.0001678,4.387e-05,0.2058,0.007713,1.054,0.001396,0,1,0
192900000000,193200000000,3996125377,0,308148250,0.0451,0.01077,0.0134,0.00107,0.001474,0.01147,0.0001431,4.387e-05,0.2024,0.006142,1.044,0.001396,0,1,0
193200000000,193500000000,3996125377,0,308148250,0.0473,0.01091,0.0134,0.00108,0.001484,0.01129,0.000144,4.387e-05,0.1917,0.005997,1.048,0.001399,0,1,0
193500000000,193800000000,3996125377,0,308148250,0.04486,0.01083,0.0134,0.001091,0.001493,0.01108,0.0001469,4.387e-05,0.1882,0.007568,1.046,0.001392,0,1,0
193800000000,194100000000,3996125377,0,308148250,0.04425,0.01103,0.0134,0.001101,0.001503,0.01154,0.0001621,4.387e-05,0.2026,0.007072,1.037,0.001365,0,1,0
194100000000,194400000000,3996125377,0,308148250,0.04382,0.011,0.0134,0.00111,0.001514,0.01134,0.0001345,4.387e-05,0.1851,0.006287,1.043,0.001372,0,1,0
194400000000,194700000000,3996125377,0,308148250,0.04169,0.01083,0.0134,0.00112,0.001524,0.0114,0.0001278,4.387e-05,0.2048,0.005142,1.061,0.001466,0,1,0
194700000000,195000000000,3996125377,0,308148250,0.04028,0.01077,0.0134,0.001127,0.001532,0.01109,0.000124,4.387e-05,0.1985,0.006645,1.062,0.001473,0,1,0
195000000000,195300000000,3996125377,0,308148250,0.03979,0.01076,0.01341,0.001137,0.001541,0.01134,0.0001354,4.387e-05,0.1934,0.006569,1.083,0.001548,0,1,0
195300000000,195600000000,3996125377,0,308148250,0.03912,0.01089,0.01341,0.001146,0.001551,0.01122,0.0001268,4.387e-05,0.1902,0.005997,1.059,0.001448,0,1,0
195600000000,195900000000,3996125377,0,308148250,0.03699,0.01073,0.0134,0.001156,0.001558,0.01111,0.0001354,4.387e-05,0.1572,0.005859,1.085,0.00154,0,1,0
195900000000,196200000000,3996125377,0,308148250,0.03705,0.01082,0.0134,0.001163,0.001568,0.01128,0.0001564,4.387e-05,0.198,0.006355,1.091,0.001551,0,1,0
201300000000,201600000000,3996125377,0,308148250,0.02216,0.01073,0.01341,0.001293,0.001698,0.01111,0.0001011,4.387e-05,0.1445,0.004501,1.144,0.001754,0,1,0
201600000000,201900000000,3996125377,0,308148250,0.02066,0.01071,0.01343,0.001301,0.001705,0.01093,0.0001326,4.292e-05,0.1318,0.005569,1.107,0.001655,0,1,0
201900000000,202200000000,3996125377,0,308148250,0.02103,0.0105,0.01341,0.001307,0.001711,0.01068,0.0001154,4.292e-05,0.1875,0.004997,1.126,0.001757,0,1,0
202200000000,202500000000,3996125377,0,308148250,0.01974,0.01053,0.01343,0.001316,0.00172,0.01091,0.000123,4.292e-05,0.1726,0.01556,1.092,0.001659,0,1,0
202500000000,202800000000,3996125377,0,308148250,0.02103,0.01057,0.01343,0.001324,0.001728,0.01091,0.0001249,4.292e-05,0.1785,0.007568,1.188,0.001862,0,1,0
202800000000,203100000000,3996125377,0,308148250,0.01938,0.01053,0.01341,0.001324,0.00173,0.01097,0.0001249,4.292e-05,0.1448,0.006645,1.154,0.001823,0,1,0
203100000000,203400000000,3996125377,0,308148250,0.01987,0.01059,0.0134,0.001194,0.001598,0.01086,0.0001469,4.292e-05,0.1145,0.01236,1.117,0.001632,0,1,0
203400000000,203700000000,3996125377,0,308148250,0.01758,0.01067,0.01341,0.0009918,0.001398,0.01103,0.0001192,4.196e-05,0.1079,0.005928,1.178,0.001862,0,1,0
203700000000,204000000000,3996125377,0,308148250,0.01779,0.01067,0.01343,0.0006418,0.001047,0.01112,0.0001078,4.196e-05,0.1619,0.006218,1.156,0.001785,0,1,0
204000000000,204300000000,3996125377,0,308148250,0.01868,0.0107,0.01338,0.000371,0.0007763,0.01103,9.823e-05,4.196e-05,0.08826,0.005714,1.199,0.001926,0,1,0
204300000000,204600000000,3996125377,0,308148250,0.01724,0.01062,0.01341,0.0003748,0.0007801,0.01106,0.0001287,4.196e-05,0.1165,0.006142,1.144,0.00169,0,1,0
204600000000,204900000000,3996125377,0,308148250,0.01743,0.01053,0.01343,0.0003653,0.0007696,0.01096,0.0001068,4.196e-05,0.1611,0.005569,1.207,0.002002,0,1,0
204900000000,205200000000,3996125377,0,308148250,0.01617,0.01047,0.01344,0.0003405,0.0007458,0.01082,0.000124,4.196e-05,0.1107,0.006432,1.117,0.001744,0,1,0
205200000000,205500000000,3996125377,0,308148250,0.01506,0.01042,0.01344,0.0003452,0.0007505,0.01085,0.0001116,4.196e-05,0.1152,0.005928,1.123,0.001745,0,1,0
205500000000,205800000000,3996125377,0,308148250,0.01534,0.01045,0.01343,0.00035,0.0007553,0.01079,0.0001183,4.196e-05,0.1807,0.005356,1.163,0.001949,0,1,0
205800000000,206100000000,3996125377,0,308148250,0.01451,0.01053,0.01341,0.0003538,0.0007591,0.01082,9.251e-05,4.196e-05,0.1167,0.004715,1.102,0.001693,0,1,0
206100000000,206400000000,3996125377,0,308148250,0.01562,0.01064,0.01343,0.0003576,0.0007629,0.01103,0.0001383,4.196e-05,0.1729,0.006355,1.193,0.001983,0,1,0
206400000000,206700000000,3996125377,0,308148250,0.01497,0.01053,0.01341,0.0003614,0.0007668,0.01089,0.0001059,4.196e-05,0.1758,0.006569,1.145,0.001803,0,1,0
206700000000,207000000000,3996125377,0,308148250,0.01422,0.01056,0.01341,0.0003643,0.0007696,0.01083,0.0001154,4.196e-05,0.1102,0.005356,1.18,0.002011,0,1,0
207000000000,207300000000,3996125377,0,308148250,0.01442,0.01051,0.0134,0.0003681,0.0007734,0.01088,9.441e-05,4.196e-05,0.1193,0.005646,1.144,0.001855,0,1,0
207300000000,207600000000,3996125377,0,308148250,0.01401,0.0105,0.01335,0.000371,0.0007763,0.01091,0.0001268,4.196e-05,0.176,0.006287,1.147,0.001847,0,1,0
207600000000,207900000000,3996125377,0,308148250,0.015,0.01051,0.01335,0.0003738,0.0007792,0.01077,9.823e-05,4.196e-05,0.1624,0.005287,1.158,0.001831,0,1,0
207900000000,208200000000,3996125377,0,308148250,0.01437,0.01044,0.01338,0.0003777,0.000782,0.01099,0.0001211,4.196e-05,0.1453,0.005783,1.191,0.001979,0,1,0
208200000000,208500000000,3996125377,0,308148250,0.01459,0.01035,0.01344,0.0003824,0.0007868,0.01057,8.392e-05,4.196e-05,0.196,0.003929,1.158,0.001849,0,1,0
208500000000,208800000000,3996125377,0,308148250,0.01482,0.01044,0.0134,0.0003862,0.0007915,0.01079,0.0001125,4.196e-05,0.1279,0.00457,1.196,0.002016,0,1,0
208800000000,209100000000,3996125377,0,308148250,0.01447,0.01054,0.01335,0.0003891,0.0007944,0.01088,0.0001316,4.196e-05,0.1127,0.005928,1.163,0.00191,0,1,0
209100000000,209400000000,3996125377,0,308148250,0.0143,0.01068,0.01334,0.000392,0.0007973,0.01093,0.000103,4.196e-05,0.1313,0.005783,1.121,0.001701,0,1,0
209400000000,209700000000,3996125377,0,308148250,0.01448,0.01064,0.01335,0.0003948,0.0008001,0.01102,0.0001068,4.196e-05,0.144,0.004288,1.147,0.001796,0,1,0
209700000000,210000000000,3996125377,0,308148250,0.01489,0.01056,0.01338,0.0003986,0.000803,0.01082,0.0001078,4.196e-05,0.1768,0.005997,1.17,0.001853,0,1,0
210000000000,210300000000,3996125377,0,308148250,0.01523,0.01045,0.01343,0.0004025,0.0008078,0.01088,0.0001183,4.196e-05,0.1085,0.005646,1.178,0.001928,0,1,0
210300000000,210600000000,3996125377,0,308148250,0.01566,0.01036,0.01337,0.0004063,0.0008116,0.01067,0.0001049,4.196e-05,0.1584,0.005859,1.177,0.001909,0,1,0
210600000000,210900000000,3996125377,0,308148250,0.01697,0.01041,0.01338,0.0004101,0.0008154,0.01071,0.0001068,4.196e-05,0.09802,0.005569,1.155,0.001843,0,1,0
210900000000,211200000000,3996125377,0,308148250,0.01727,0.01038,0.01343,0.0004158,0.0008211,0.01062,0.0001163,4.196e-05,0.09424,0.008789,1.149,0.001818,0,1,0
211200000000,211500000000,3996125377,0,308148250,0.01682,0.01045,0.01338,0.0004206,0.0008259,0.01102,0.0001059,4.196e-05,0.1084,0.005074,1.141,0.001709,0,1,0
211500000000,211800000000,3996125377,0,308148250,0.0195,0.01056,0.01343,0.0004263,0.0008316,0.01096,0.0001211,4.196e-05,0.1697,0.005783,1.155,0.001773,0,1,0
211800000000,212100000000,3996125377,0,308148250,0.02078,0.0106,0.01343,0.000433,0.0008383,0.01091,0.0001526,4.196e-05,0.1533,0.006142,1.192,0.001952,0,1,0
212100000000,212400000000,3996125377,0,308148250,0.02097,0.01053,0.01344,0.0004406,0.0008459,0.01086,0.0001211,4.196e-05,0.1311,0.006142,1.143,0.001761,0,1,0
212400000000,212700000000,3996125377,0,308148250,0.02182,0.01044,0.01344,0.0004473,0.0008526,0.01112,0.0001459,4.196e-05,0.1431,0.006927,1.158,0.001823,0,1,0
212700000000,213000000000,3996125377,0,308148250,0.02063,0.01042,0.01343,0.0004539,0.0008593,0.01079,0.0001211,4.196e-05,0.1274,0.006355,1.11,0.001647,0,1,0
213000000000,213300000000,3996125377,0,308148250,0.01926,0.01041,0.01344,0.0004606,0.0008659,0.01076,0.0001307,4.196e-05,0.1951,0.006073,1.156,0.001819,0,1,0
213300000000,213600000000,3996125377,0,308148250,0.02008,0.01047,0.01343,0.0004663,0.0008717,0.01077,0.0001125,4.196e-05,0.1127,0.006569,1.114,0.001712,0,1,0
213600000000,213900000000,3996125377,0,308148250,0.02145,0.01053,0.01343,0.000473,0.0008783,0.01096,0.000124,4.196e-05,0.1548,0.006142,1.158,0.001813,0,1,0
213900000000,214200000000,3996125377,0,308148250,0.02237,0.01062,0.01341,0.0004807,0.000886,0.01097,0.0001116,4.196e-05,0.1587,0.006287,1.117,0.001677,0,1,0
214200000000,214500000000,3996125377,0,308148250,0.02451,0.01059,0.01343,0.0004892,0.0008945,0.01216,0.0001287,4.196e-05,0.1707,0.005142,1.104,0.001583,0,1,0
214500000000,214800000000,3996125377,0,308148250,0.0253,0.0105,0.01343,0.0004969,0.0009022,0.01096,9.441e-05,4.196e-05,0.1523,0.006142,1.145,0.001761,0,1,0
214800000000,215100000000,3996125377,0,308148250,0.02637,0.01042,0.01343,0.0005045,0.0009098,0.01073,0.0001574,4.196e-05,0.1545,0.007935,1.097,0.001594,0,1,0
215100000000,215400000000,3996125377,0,308148250,0.02621,0.01035,0.01343,0.0005112,0.0009165,0.01077,0.0001211,4.196e-05,0.187,0.006645,1.105,0.001652,0,1,0
215400000000,215700000000,3996125377,0,308148250,0.02792,0.01045,0.01343,0.0005188,0.0009241,0.0108,0.0001278,4.196e-05,0.2026,0.006645,1.132,0.001699,0,1,0
215700000000,216000000000,3996125377,0,308148250,0.02963,0.01057,0.01343,0.0005283,0.0009336,0.01106,0.0001211,4.196e-05,0.1414,0.006645,1.126,0.001698,0,1,0
216000000000,216300000000,3996125377,0,308148250,0.03122,0.01056,0.01343,0.000536,0.0009413,0.011,0.0001507,4.196e-05,0.1682,0.005928,1.116,0.001676,0,1,0
221100000000,221400000000,3996125377,0,308148250,0.05078,0.01076,0.01338,0.0007362,0.001141,0.01128,0.0001173,4.292e-05,0.2048,0.005287,1.111,0.001528,0,1,0
221400000000,221700000000,3996125377,0,308148250,0.05231,0.01074,0.0134,0.0007534,0.00116,0.01146,0.0001707,4.292e-05,0.2024,0.007645,1.107,0.001525,0,1,0
221700000000,222000000000,3996125377,0,308148250,0.0531,0.01073,0.01338,0.0007687,0.001173,0.01118,0.0001383,4.292e-05,0.2026,0.005859,1.111,0.00151,0,1,0
222000000000,222300000000,3996125377,0,308148250,0.05426,0.01079,0.01338,0.0007839,0.001188,0.0117,0.0001326,4.292e-05,0.2053,0.005569,1.131,0.001554,0,1,0
222300000000,222600000000,3996125377,0,308148250,0.05225,0.01077,0.0134,0.0007992,0.001204,0.01117,0.0001411,4.292e-05,0.1882,0.006645,1.124,0.001546,0,1,0
222600000000,222900000000,3996125377,0,308148250,0.05402,0.01071,0.01338,0.0008144,0.001221,0.01152,0.0001249,4.292e-05,0.2058,0.004715,1.108,0.001489,0,1,0
222900000000,223200000000,3996125377,0,308148250,0.05481,0.0108,0.01338,0.000824,0.001228,0.01126,0.0001698,4.292e-05,0.2039,0.007141,1.12,0.001558,0,1,0
223200000000,223500000000,3996125377,0,308148250,0.05585,0.01089,0.01338,0.0007906,0.001196,0.0114,0.0001478,4.292e-05,0.1775,0.007286,1.157,0.001629,0,1,0
223500000000,223800000000,3996125377,0,308148250,0.05487,0.01082,0.01338,0.0008068,0.001211,0.01123,0.0001249,4.292e-05,0.1914,0.005569,1.142,0.001554,0,1,0
223800000000,224100000000,3996125377,0,308148250,0.05426,0.0108,0.01337,0.0008211,0.001225,0.01151,0.0001717,4.387e-05,0.1836,0.006218,1.115,0.0015,0,1,0
224100000000,224400000000,3996125377,0,308148250,0.05316,0.01091,0.01335,0.0008364,0.00124,0.01129,0.0001335,4.387e-05,0.1716,0.006645,1.128,0.001523,0,1,0
224400000000,224700000000,3996125377,0,308148250,0.05371,0.01091,0.01335,0.0008497,0.001253,0.01183,0.000144,4.387e-05,0.2317,0.007782,1.116,0.001513,0,1,0
224700000000,225000000000,3996125377,0,308148250,0.0545,0.01083,0.01332,0.0007792,0.001183,0.01126,0.0001469,4.387e-05,0.2009,0.006355,1.123,0.001518,0,1,0
225000000000,225300000000,3996125377,0,308148250,0.0556,0.01096,0.01326,0.0006857,0.001087,0.01158,0.0001583,4.387e-05,0.1709,0.007286,1.105,0.001474,0,1,0
225300000000,225600000000,3996125377,0,308148250,0.05627,0.01093,0.01331,0.0006952,0.001097,0.01146,0.0001087,4.387e-05,0.2097,0.005928,1.125,0.001523,0,1,0
225600000000,225900000000,3996125377,0,308148250,0.05817,0.01105,0.01329,0.0007038,0.001104,0.01155,0.0001535,4.387e-05,0.1855,0.006355,1.129,0.001517,0,1,0
225900000000,226200000000,3996125377,0,308148250,0.05774,0.01094,0.01334,0.0007153,0.001116,0.01134,0.0001583,4.387e-05,0.1709,0.008209,1.111,0.001489,0,1,0
226200000000,226500000000,3996125377,0,308148250,0.0603,0.01099,0.01337,0.0007305,0.001131,0.01135,0.0001459,4.387e-05,0.1956,0.006287,1.097,0.001459,0,1,0
226500000000,226800000000,3996125377,0,308148250,0.06152,0.01094,0.01337,0.0007467,0.001148,0.01138,0.0001612,4.292e-05,0.2222,0.007217,1.099,0.001447,0,1,0
226800000000,227100000000,3996125377,0,308148250,0.05945,0.01097,0.01335,0.0007601,0.001162,0.01135,0.0001488,4.292e-05,0.2053,0.005211,1.124,0.001528,0,1,0
227100000000,227400000000,3996125377,0,308148250,0.06049,0.01099,0.01334,0.0007696,0.001171,0.01135,0.0001564,4.292e-05,0.1934,0.006355,1.107,0.001469,0,1,0
227400000000,227700000000,3996125377,0,308148250,0.05865,0.01102,0.01334,0.0007792,0.001181,0.01151,0.0001545,4.292e-05,0.2034,0.006783,1.111,0.001475,0,1,0
227700000000,228000000000,3996125377,0,308148250,0.06085,0.01097,0.01331,0.0007887,0.00119,0.01143,0.0001364,4.292e-05,0.1895,0.006218,1.135,0.001556,0,1,0
228000000000,228300000000,3996125377,0,308148250,0.06128,0.01103,0.01334,0.0007992,0.0012,0.01158,0.0001421,4.292e-05,0.2253,0.005501,1.147,0.001557,0,1,0
228300000000,228600000000,3996125377,0,308148250,0.06134,0.01103,0.01335,0.0007668,0.001169,0.01151,0.0001335,4.292e-05,0.2007,0.006355,1.123,0.001522,0,1,0
228600000000,228900000000,3996125377,0,308148250,0.06012,0.01088,0.01337,0.0007553,0.001156,0.01132,0.000144,4.292e-05,0.2209,0.005997,1.128,0.001533,0,1,0
228900000000,229200000000,3996125377,0,308148250,0.06287,0.01108,0.01334,0.0007696,0.001171,0.01157,0.000123,4.292e-05,0.2148,0.004784,1.119,0.001495,0,1,0
229200000000,229500000000,3996125377,0,308148250,0.06134,0.01099,0.01334,0.000783,0.001184,0.01154,0.0001335,4.292e-05,0.199,0.005859,1.138,0.001545,0,1,0
229500000000,229800000000,3996125377,0,308148250,0.0614,0.01099,0.01332,0.0007944,0.001196,0.01149,0.000165,4.292e-05,0.2222,0.007355,1.118,0.001484,0,1,0
229800000000,230100000000,3996125377,0,308148250,0.06421,0.01105,0.01334,0.0008059,0.001207,0.01126,0.0001545,4.292e-05,0.2102,0.006142,1.132,0.001535,0,1,0
230100000000,230400000000,3996125377,0,308148250,0.06287,0.01105,0.01331,0.0008154,0.001217,0.01146,0.0001163,4.387e-05,0.2175,0.005928,1.101,0.001463,0,1,0
230400000000,230700000000,3996125377,0,308148250,0.06195,0.01106,0.01324,0.0008211,0.001223,0.01164,0.0001621,4.387e-05,0.1965,0.005997,1.119,0.0015,0,1,0
230700000000,231000000000,3996125377,0,308148250,0.06171,0.01129,0.01323,0.0008249,0.001226,0.01196,0.0001526,4.387e-05,0.2205,0.006218,1.096,0.001416,0,1,0
231000000000,231300000000,3996125377,0,308148250,0.06055,0.0112,0.01321,0.0008297,0.00123,0.01175,0.0001478,4.387e-05,0.186,0.005646,1.106,0.001463,0,1,0
231300000000,231600000000,3996125377,0,308148250,0.06189,0.01118,0.01329,0.0008373,0.001238,0.0118,0.0001335,4.387e-05,0.2095,0.006218,1.101,0.001435,0,1,0
231600000000,231900000000,3996125377,0,308148250,0.06421,0.01123,0.01332,0.0008488,0.001249,0.01166,0.0001345,4.387e-05,0.2195,0.005287,1.132,0.001513,0,1,0
231900000000,232200000000,3996125377,0,308148250,0.06207,0.01111,0.01326,0.0008583,0.001259,0.01152,0.0001202,4.387e-05,0.2007,0.00486,1.1,0.001432,0,1,0
232200000000,232500000000,3996125377,0,308148250,0.0614,0.01115,0.01329,0.0008659,0.001266,0.01167,0.0001478,4.387e-05,0.2014,0.006142,1.125,0.001511,0,1,0
232500000000,232800000000,3996125377,0,308148250,0.06201,0.01126,0.01323,0.0008745,0.001276,0.01219,0.0001192,4.387e-05,0.2092,0.005287,1.086,0.001402,0,1,0
232800000000,233100000000,3996125377,0,308148250,0.06244,0.01122,0.01323,0.0008793,0.00128,0.01166,0.0001316,4.387e-05,0.1929,0.005074,1.098,0.001417,0,1,0
233100000000,233400000000,3996125377,0,308148250,0.0625,0.0112,0.01321,0.0008841,0.001286,0.01192,0.0001383,4.387e-05,0.2122,0.006073,1.1,0.001439,0,1,0
233400000000,233700000000,3996125377,0,308148250,0.06433,0.01129,0.01323,0.0008879,0.001289,0.01172,0.0001402,4.387e-05,0.2031,0.004715,1.089,0.001398,0,1,0
233700000000,234000000000,3996125377,0,308148250,0.06482,0.01126,0.01321,0.0008926,0.001293,0.01218,0.000144,4.387e-05,0.2212,0.007713,1.104,0.001436,0,1,0
234000000000,234300000000,3996125377,0,308148250,0.06433,0.01131,0.01321,0.0008974,0.001299,0.01178,0.0001354,4.387e-05,0.2095,0.006569,1.109,0.001442,0,1,0
234300000000,234600000000,3996125377,0,308148250,0.06287,0.01126,0.01321,0.0009022,0.001303,0.0118,0.0001202,4.387e-05,0.1929,0.005859,1.098,0.001432,0,1,0
234600000000,234900000000,3996125377,0,308148250,0.06262,0.01125,0.01321,0.0009069,0.001308,0.01173,0.0001183,4.387e-05,0.1853,0.005287,1.097,0.001434,0,1,0
234900000000,235200000000,3996125377,0,308148250,0.06396,0.01135,0.01321,0.0009117,0.001312,0.01193,0.0001087,4.387e-05,0.2161,0.006073,1.106,0.001439,0,1,0
235200000000,235500000000,3996125377,0,308148250,0.06677,0.01135,0.01321,0.0009165,0.001318,0.0118,0.0001554,4.387e-05,0.2119,0.005074,1.098,0.00142,0,1,0
235500000000,235800000000,3996125377,0,308148250,0.06433,0.01132,0.01321,0.0009212,0.001324,0.01199,0.0001202,4.387e-05,0.2095,0.005928,1.1,0.001441,0,1,0
235800000000,236100000000,3996125377,0,308148250,0.06628,0.01137,0.01321,0.000927,0.001328,0.01192,0.0001211,4.387e-05,0.2065,0.005287,1.091,0.001391,0,1,0
236100000000,236400000000,3996125377,0,308148250,0.06567,0.01129,0.01321,0.0009308,0.001331,0.01169,0.0001268,4.387e-05,0.2102,0.006355,1.105,0.001442,0,1,0
241200000000,241500000000,3996125377,0,308148250,0.07068,0.01137,0.01321,0.00102,0.001421,0.01193,0.0001278,4.387e-05,0.2102,0.005287,1.089,0.0014,0,1,0
241500000000,241800000000,3996125377,0,308148250,0.07166,0.01134,0.0132,0.001026,0.001427,0.01167,0.0001087,4.387e-05,0.2202,0.006142,1.093,0.001395,0,1,0
241800000000,242100000000,3996125377,0,308148250,0.06946,0.01137,0.01321,0.00103,0.001431,0.01187,0.0001602,4.387e-05,0.1863,0.0065,1.096,0.001424,0,1,0
242100000000,242400000000,3996125377,0,308148250,0.07043,0.01134,0.0132,0.001032,0.001432,0.01164,0.0001516,4.387e-05,0.2229,0.005997,1.094,0.001406,0,1,0
242400000000,242700000000,3996125377,0,308148250,0.07141,0.01138,0.0132,0.001038,0.001438,0.01193,0.0001221,4.387e-05,0.2185,0.007355,1.118,0.001474,0,1,0
242700000000,243000000000,3996125377,0,308148250,0.07031,0.01134,0.0132,0.001043,0.001444,0.0118,0.000103,4.387e-05,0.2139,0.004501,1.11,0.001458,0,1,0
243000000000,243300000000,3996125377,0,308148250,0.073,0.01137,0.0132,0.001047,0.00145,0.01186,0.0001268,4.387e-05,0.2007,0.006714,1.093,0.001408,0,1,0
243300000000,243600000000,3996125377,0,308148250,0.06885,0.01137,0.0132,0.001053,0.001453,0.01193,0.0001326,4.387e-05,0.1965,0.004784,1.097,0.001414,0,1,0
243600000000,243900000000,3996125377,0,308148250,0.07129,0.01137,0.0132,0.001057,0.001459,0.01189,0.0001392,4.387e-05,0.2029,0.006432,1.104,0.001454,0,1,0
243900000000,244200000000,3996125377,0,308148250,0.07043,0.01137,0.01321,0.001062,0.001463,0.01183,0.000123,4.387e-05,0.199,0.006073,1.099,0.001439,0,1,0
244200000000,244500000000,3996125377,0,308148250,0.0686,0.01131,0.0132,0.001066,0.001469,0.01186,0.0001278,4.387e-05,0.1892,0.006142,1.103,0.001448,0,1,0
244500000000,244800000000,3996125377,0,308148250,0.06909,0.01132,0.01321,0.001072,0.001472,0.0118,0.0001307,4.387e-05,0.1975,0.005394,1.112,0.001486,0,1,0
244800000000,245100000000,3996125377,0,308148250,0.07019,0.01134,0.0132,0.001076,0.001478,0.01169,0.0001268,4.387e-05,0.22,0.004997,1.122,0.001471,0,1,0
245100000000,245400000000,3996125377,0,308148250,0.06946,0.01138,0.0132,0.001081,0.001482,0.01186,0.0001268,4.387e-05,0.2053,0.005074,1.109,0.001447,0,1,0
245400000000,245700000000,3996125377,0,308148250,0.06836,0.01134,0.01321,0.001087,0.001488,0.01172,0.0001316,4.387e-05,0.1799,0.005646,1.101,0.001425,0,1,0
245700000000,246000000000,3996125377,0,308148250,0.06836,0.01135,0.01321,0.001091,0.001493,0.01198,0.0001087,4.387e-05,0.1995,0.005997,1.099,0.001423,0,1,0
246000000000,246300000000,3996125377,0,308148250,0.06934,0.01138,0.01321,0.001097,0.001497,0.01169,0.0001307,4.387e-05,0.5801,0.0065,1.116,0.00147,0,1,0
251400000000,251700000000,3996125377,0,308148250,0.07556,0.01149,0.0132,0.000246,0.0006428,0.01198,0.0001326,4.387e-05,0.2163,0.005928,1.137,0.001518,0,1,0
251700000000,252000000000,3996125377,0,308148250,0.07458,0.01151,0.0132,0.0002499,0.0006466,0.01186,0.0001402,4.482e-05,0.2192,0.006287,1.129,0.001499,0,1,0
252000000000,252300000000,3996125377,0,308148250,0.07336,0.01144,0.0132,0.0002556,0.0006523,0.01196,0.0001335,4.482e-05,0.2166,0.004501,1.113,0.001462,0,1,0
252300000000,252600000000,3996125377,0,308148250,0.06934,0.01147,0.0132,0.0002613,0.000658,0.01207,0.0001574,4.482e-05,0.2056,0.005783,1.119,0.001493,0,1,0
252600000000,252900000000,3996125377,0,308148250,0.0697,0.01146,0.0132,0.000268,0.0006647,0.01195,0.0001278,4.482e-05,0.1912,0.005287,1.093,0.001412,0,1,0
252900000000,253200000000,3996125377,0,308148250,0.06616,0.01158,0.01321,0.0002728,0.0006695,0.01202,0.0001383,4.482e-05,0.2019,0.006073,1.107,0.001459,0,1,0
253200000000,253500000000,3996125377,0,308148250,0.06836,0.01149,0.0132,0.0002775,0.0006742,0.01202,0.0001278,4.482e-05,0.1951,0.005287,1.091,0.001419,0,1,0
253500000000,253800000000,3996125377,0,308148250,0.06775,0.0116,0.01321,0.0002756,0.0006714,0.01215,0.000124,4.482e-05,0.1992,0.004646,1.096,0.001446,0,1,0
253800000000,254100000000,3996125377,0,308148250,0.06726,0.01151,0.01321,0.0002794,0.0006752,0.0118,0.0001497,4.482e-05,0.1973,0.005928,1.102,0.00145,0,1,0
254100000000,254400000000,3996125377,0,308148250,0.06885,0.01152,0.01321,0.0002832,0.00068,0.01204,0.000103,4.482e-05,0.2043,0.005287,1.079,0.001358,0,1,0
254400000000,254700000000,3996125377,0,308148250,0.06714,0.01154,0.01321,0.000288,0.0006847,0.01198,0.0001202,4.482e-05,0.2048,0.005928,1.111,0.001473,0,1,0
254700000000,255000000000,3996125377,0,308148250,0.06555,0.01144,0.0132,0.0002937,0.0006905,0.01202,0.0001383,4.482e-05,0.2109,0.006432,1.092,0.00141,0,1,0
255000000000,255300000000,3996125377,0,308148250,0.06616,0.01144,0.0132,0.0002975,0.0006943,0.0118,0.0001192,4.482e-05,0.2102,0.005646,1.106,0.00146,0,1,0
255300000000,255600000000,3996125377,0,308148250,0.06628,0.01144,0.0132,0.0003023,0.000699,0.01193,0.0001411,4.482e-05,0.2034,0.006432,1.101,0.001425,0,1,0
255600000000,255900000000,3996125377,0,308148250,0.06897,0.01146,0.0132,0.0003071,0.0007038,0.01178,0.0001144,4.482e-05,0.2058,0.006783,1.108,0.001445,0,1,0
255900000000,256200000000,3996125377,0,308148250,0.06531,0.01147,0.0132,0.0003119,0.0007086,0.0119,0.0001497,4.482e-05,0.2126,0.006783,1.114,0.001454,0,1,0
256200000000,256500000000,3996125377,0,308148250,0.06372,0.01152,0.01321,0.0003157,0.0007124,0.01221,0.0001249,4.482e-05,0.2068,0.006569,1.106,0.001443,0,1,0
256500000000,256800000000,3996125377,0,308148250,0.06207,0.01132,0.01329,0.0003223,0.0007191,0.01172,0.000164,4.482e-05,0.2109,0.006355,1.105,0.00145,0,1,0
256800000000,257100000000,3996125377,0,308148250,0.06433,0.01146,0.01331,0.0003338,0.0007305,0.01198,0.0001469,4.482e-05,0.2151,0.006645,1.083,0.001395,0,1,0
257100000000,257400000000,3996125377,0,308148250,0.06299,0.01134,0.01331,0.0003452,0.000742,0.0118,0.0001392,4.482e-05,0.2026,0.005287,1.094,0.001433,0,1,0
257400000000,257700000000,3996125377,0,308148250,0.06384,0.01137,0.01326,0.0003576,0.0007544,0.01184,0.0001612,4.482e-05,0.229,0.008789,1.098,0.001441,0,1,0
257700000000,258000000000,3996125377,0,308148250,0.06482,0.01138,0.01328,0.0003662,0.0007639,0.01181,0.000123,4.482e-05,0.2178,0.005646,1.091,0.001419,0,1,0
258000000000,258300000000,3996125377,0,308148250,0.0636,0.01138,0.01331,0.0003777,0.0007744,0.01175,0.000145,4.387e-05,0.1904,0.006432,1.084,0.00139,0,1,0
258300000000,258600000000,3996125377,0,308148250,0.06335,0.01135,0.01326,0.0003834,0.0007811,0.01189,0.0001726,4.387e-05,0.1936,0.006783,1.109,0.00144,0,1,0
258600000000,258900000000,3996125377,0,308148250,0.06445,0.01134,0.01326,0.0003891,0.0007868,0.01198,0.000165,4.387e-05,0.2214,0.006569,1.073,0.001358,0,1,0
258900000000,259200000000,3996125377,0,308148250,0.06335,0.0114,0.01328,0.0003986,0.0007963,0.01189,0.0001316,4.387e-05,0.2004,0.005356,1.091,0.001415,0,1,0
259200000000,259500000000,3996125377,0,308148250,0.06519,0.01143,0.01323,0.0004025,0.0008001,0.01196,0.0001316,4.387e-05,0.2134,0.005997,1.078,0.001363,0,1,0
259500000000,259800000000,3996125377,0,308148250,0.06238,0.01137,0.01321,0.0004072,0.0008039,0.01201,0.0001545,4.387e-05,0.1882,0.007935,1.088,0.001398,0,1,0
259800000000,260100000000,3996125377,0,308148250,0.06311,0.01132,0.01334,0.0004148,0.0008125,0.01181,0.0001516,4.387e-05,0.2134,0.006859,1.098,0.001415,0,1,0
260100000000,260400000000,3996125377,0,308148250,0.06458,0.01126,0.01335,0.0004292,0.0008259,0.01183,0.0001516,4.387e-05,0.1992,0.007355,1.101,0.001449,0,1,0
260400000000,260700000000,3996125377,0,308148250,0.0636,0.01132,0.01331,0.0004416,0.0008392,0.01195,0.0001364,4.387e-05,0.2229,0.007355,1.107,0.001451,0,1,0
260700000000,261000000000,3996125377,0,308148250,0.06299,0.01131,0.01329,0.0004501,0.0008478,0.01187,0.0001316,4.387e-05,0.2241,0.006714,1.079,0.001366,0,1,0
261000000000,261300000000,3996125377,0,308148250,0.06396,0.01138,0.01332,0.0004625,0.0008602,0.01196,0.0001297,4.387e-05,0.2136,0.005783,1.099,0.001433,0,1,0
261300000000,261600000000,3996125377,0,308148250,0.06213,0.01132,0.01331,0.0004358,0.0008326,0.01184,0.0001516,4.387e-05,0.2068,0.005501,1.103,0.001429,0,1,0
261600000000,261900000000,3996125377,0,308148250,0.06372,0.01125,0.01323,0.0004387,0.0008354,0.01167,9.441e-05,4.387e-05,0.2148,0.006073,1.071,0.001329,0,1,0
261900000000,262200000000,3996125377,0,308148250,0.0625,0.01149,0.01321,0.0004435,0.0008402,0.0119,0.0001612,4.387e-05,0.1995,0.007072,1.085,0.001372,0,1,0
262200000000,262500000000,3996125377,0,308148250,0.06592,0.01129,0.01329,0.0004511,0.0008478,0.0117,0.0001574,4.387e-05,0.2212,0.007004,1.091,0.001399,0,1,0
262500000000,262800000000,3996125377,0,308148250,0.06409,0.01138,0.01332,0.0004625,0.0008593,0.01189,0.000145,4.387e-05,0.1987,0.006859,1.097,0.00142,0,1,0
262800000000,263100000000,3996125377,0,308148250,0.06433,0.01131,0.01331,0.000473,0.0008698,0.0118,0.0001421,4.387e-05,0.2197,0.004784,1.082,0.001381,0,1,0
263100000000,263400000000,3996125377,0,308148250,0.06409,0.01137,0.01323,0.0004797,0.0008764,0.01216,0.0001392,4.482e-05,0.2114,0.006355,1.068,0.001323,0,1,0
263400000000,263700000000,3996125377,0,308148250,0.06122,0.01143,0.01321,0.0004845,0.0008812,0.0121,0.0001307,4.482e-05,0.2092,0.004646,1.114,0.001445,0,1,0
263700000000,264000000000,3996125377,0,308148250,0.06244,0.01144,0.01323,0.0004883,0.000885,0.01186,0.0001593,4.482e-05,0.21,0.006142,1.077,0.001341,0,1,0
264000000000,264300000000,3996125377,0,308148250,0.06494,0.01131,0.01332,0.0004969,0.0008936,0.01181,0.0001431,4.482e-05,0.217,0.006432,1.103,0.001417,0,1,0
264300000000,264600000000,3996125377,0,308148250,0.06299,0.01141,0.01328,0.0005054,0.0009022,0.01186,0.0001402,4.482e-05,0.2258,0.006432,1.065,0.001317,0,1,0
264600000000,264900000000,3996125377,0,308148250,0.06653,0.01134,0.01334,0.0005121,0.0009089,0.0119,0.0001345,4.482e-05,0.1951,0.006218,1.085,0.001373,0,1,0
264900000000,265200000000,3996125377,0,308148250,0.06519,0.01141,0.01335,0.0005255,0.0009222,0.0118,0.0001678,4.482e-05,0.2117,0.006218,1.096,0.001419,0,1,0
265200000000,265500000000,3996125377,0,308148250,0.06604,0.01129,0.01334,0.0005388,0.0009356,0.01181,0.0001612,4.482e-05,0.2012,0.006142,1.094,0.0014,0,1,0
265500000000,265800000000,3996125377,0,308148250,0.06653,0.01129,0.01334,0.0005474,0.0009441,0.01167,0.0001488,4.482e-05,0.218,0.007141,1.067,0.001311,0,1,0
265800000000,266100000000,3996125377,0,308148250,0.06555,0.01131,0.01332,0.0005341,0.0009317,0.01207,0.0001335,4.482e-05,0.2151,0.005211,1.109,0.001442,0,1,0
266100000000,266400000000,3996125377,0,308148250,0.06824,0.01128,0.01324,0.0005093,0.000906,0.01176,0.0001287,4.482e-05,0.2124,0.006142,1.073,0.001334,0,1,0
266400000000,266700000000,3996125377,0,308148250,0.06372,0.01132,0.01321,0.000514,0.0009108,0.01201,9.918e-05,4.482e-05,0.2058,0.004356,1.096,0.001407,0,1,0
266700000000,267000000000,3996125377,0,308148250,0.06812,0.01137,0.01321,0.0005188,0.0009155,0.01201,0.0001202,4.482e-05,0.2117,0.006927,1.066,0.001309,0,1,0
267000000000,267300000000,3996125377,0,308148250,0.06543,0.01143,0.01321,0.0005236,0.0009203,0.01199,0.000145,4.482e-05,0.2009,0.006432,1.078,0.00136,0,1,0
267300000000,267600000000,3996125377,0,308148250,0.06848,0.0114,0.01321,0.0005274,0.0009241,0.0118,0.0001364,4.482e-05,0.2161,0.006218,1.051,0.001262,0,1,0
267600000000,267900000000,3996125377,0,308148250,0.06995,0.01143,0.01321,0.0005322,0.0009289,0.01221,0.000144,4.482e-05,0.2109,0.005287,1.06,0.001296,0,1,0
267900000000,268200000000,3996125377,0,308148250,0.0697,0.01141,0.01321,0.000535,0.0009317,0.01196,0.0001249,4.482e-05,0.2107,0.006142,1.074,0.001328,0,1,0
268200000000,268500000000,3996125377,0,308148250,0.06726,0.01141,0.01321,0.0005388,0.0009365,0.0119,0.0001163,4.482e-05,0.2073,0.006142,1.092,0.001362,0,1,0
268500000000,268800000000,3996125377,0,308148250,0.06812,0.01144,0.01321,0.0005426,0.0009394,0.01199,0.0001354,4.482e-05,0.207,0.005501,1.053,0.001292,0,1,0
268800000000,269100000000,3996125377,0,308148250,0.06848,0.01144,0.01321,0.0005445,0.0009413,0.01218,0.0001602,4.482e-05,0.2083,0.008423,1.074,0.001358,0,1,0
269100000000,269400000000,3996125377,0,308148250,0.07007,0.01147,0.0132,0.0005484,0.000946,0.0119,0.0001383,4.482e-05,0.2134,0.005783,1.075,0.00136,0,1,0
269400000000,269700000000,3996125377,0,308148250,0.07056,0.01149,0.01321,0.0005531,0.0009499,0.01213,0.000124,4.482e-05,0.23,0.006218,1.059,0.001313,0,1,0
269700000000,270000000000,3996125377,0,308148250,0.06763,0.01144,0.01321,0.0005569,0.0009546,0.01205,0.0001221,4.482e-05,0.2275,0.006569,1.085,0.001377,0,1,0
270000000000,270300000000,3996125377,0,308148250,0.0697,0.01155,0.01321,0.0005617,0.0009594,0.01199,0.0001078,4.482e-05,0.2095,0.006432,1.071,0.00135,0,1,0
270300000000,270600000000,3996125377,0,308148250,0.06921,0.01146,0.01321,0.0005674,0.0009642,0.01199,0.000144,4.482e-05,0.2205,0.006714,1.058,0.001307,0,1,0
270600000000,270900000000,3996125377,0,308148250,0.0697,0.01151,0.01321,0.0005713,0.0009689,0.0119,0.0001249,4.482e-05,0.239,0.005287,1.08,0.001364,0,1,0
270900000000,271200000000,3996125377,0,308148250,0.06836,0.01147,0.01321,0.000576,0.0009737,0.0123,0.0001297,4.482e-05,0.2083,0.005211,1.075,0.001339,0,1,0
271200000000,271500000000,3996125377,0,308148250,0.06873,0.01154,0.01321,0.0005817,0.0009785,0.01204,0.0001202,4.482e-05,0.2158,0.005432,1.057,0.001294,0,1,0
281400000000,281700000000,3996125377,0,308148250,0.04126,0.01122,0.0134,0.0007839,0.001181,0.0117,0.000123,4.292e-05,0.1978,0.007004,1.049,0.001357,0,1,0
281700000000,282000000000,3996125377,0,308148250,0.04095,0.01114,0.01341,0.0007915,0.001188,0.01138,0.0001478,4.292e-05,0.2034,0.005646,1.067,0.001377,0,1,0
282000000000,282300000000,3996125377,0,308148250,0.04071,0.01111,0.01341,0.0007982,0.001194,0.01151,0.0001373,4.292e-05,0.2058,0.006645,1.101,0.001497,0,1,0
282300000000,282600000000,3996125377,0,308148250,0.03992,0.01109,0.01341,0.0008049,0.001202,0.01135,0.0001249,4.292e-05,0.1929,0.006355,1.066,0.001408,0,1,0
282600000000,282900000000,3996125377,0,308148250,0.03967,0.01108,0.01341,0.0008116,0.001207,0.01152,0.0001211,4.292e-05,0.1782,0.006073,1.038,0.001309,0,1,0
282900000000,283200000000,3996125377,0,308148250,0.03662,0.01103,0.01343,0.0008183,0.001215,0.01138,0.0001717,4.292e-05,0.1924,0.005928,1.09,0.001476,0,1,0
283200000000,283500000000,3996125377,0,308148250,0.03583,0.01102,0.01338,0.000824,0.001221,0.01137,0.0001087,4.292e-05,0.1692,0.006142,1.083,0.001467,0,1,0
283500000000,283800000000,3996125377,0,308148250,0.03705,0.01128,0.01334,0.0008278,0.001225,0.01167,0.000145,4.292e-05,0.1992,0.006287,1.062,0.001384,0,1,0
283800000000,284100000000,3996125377,0,308148250,0.03455,0.01125,0.01332,0.0008345,0.001232,0.01169,0.0001478,4.292e-05,0.2102,0.006073,1.049,0.001359,0,1,0
284100000000,284400000000,3996125377,0,308148250,0.03485,0.0112,0.01332,0.0008392,0.001236,0.01157,0.0001154,4.292e-05,0.1755,0.005356,1.064,0.001394,0,1,0
284400000000,284700000000,3996125377,0,308148250,0.03497,0.01109,0.01332,0.000843,0.00124,0.01151,0.0001202,4.292e-05,0.1721,0.005997,1.049,0.001366,0,1,0
284700000000,285000000000,3996125377,0,308148250,0.03436,0.01109,0.01337,0.0008469,0.001244,0.01154,0.0001307,4.292e-05,0.199,0.005501,1.081,0.001454,0,1,0
285000000000,285300000000,3996125377,0,308148250,0.03436,0.01106,0.01343,0.0008526,0.001249,0.01152,0.0001326,4.292e-05,0.1509,0.005714,1.065,0.001399,0,1,0
285300000000,285600000000,3996125377,0,308148250,0.03278,0.01105,0.01343,0.0008583,0.001255,0.01151,0.0001135,4.292e-05,0.1816,0.004356,1.076,0.001469,0,1,0
285600000000,285900000000,3996125377,0,308148250,0.03369,0.01111,0.01343,0.000865,0.001261,0.01155,0.0001364,4.292e-05,0.1917,0.005569,1.058,0.001395,0,1,0
285900000000,286200000000,3996125377,0,308148250,0.03174,0.01103,0.01343,0.0008707,0.001266,0.01141,0.0001469,4.292e-05,0.2007,0.006073,1.06,0.001424,0,1,0
286200000000,286500000000,3996125377,0,308148250,0.0318,0.01103,0.01341,0.0008764,0.001272,0.01137,0.0001268,4.292e-05,0.1873,0.005783,1.057,0.001383,0,1,0
286500000000,286800000000,3996125377,0,308148250,0.03131,0.01097,0.01341,0.0008812,0.001278,0.01157,0.0001211,4.292e-05,0.2092,0.006073,1.039,0.001354,0,1,0
286800000000,287100000000,3996125377,0,308148250,0.03137,0.01099,0.01343,0.0008898,0.001287,0.01137,0.0001116,4.292e-05,0.1882,0.006432,1.04,0.001346,0,1,0
287100000000,287400000000,3996125377,0,308148250,0.02856,0.011,0.01343,0.0009003,0.001297,0.01172,0.0001354,4.292e-05,0.1665,0.005997,1.081,0.001486,0,1,0
287400000000,287700000000,3996125377,0,308148250,0.03006,0.011,0.01343,0.0008917,0.001289,0.01141,0.000124,4.292e-05,0.1777,0.005783,1.067,0.001433,0,1,0
287700000000,288000000000,3996125377,0,308148250,0.03058,0.01102,0.01343,0.0008955,0.001293,0.01147,0.0001049,4.292e-05,0.1914,0.005287,1.105,0.00152,0,1,0
288000000000,288300000000,3996125377,0,308148250,0.02972,0.01094,0.01341,0.0009003,0.001297,0.01132,0.000124,4.292e-05,0.1624,0.005928,1.043,0.001339,0,1,0
288300000000,288600000000,3996125377,0,308148250,0.02841,0.01089,0.01343,0.0009041,0.001303,0.0112,0.0001421,4.292e-05,0.1799,0.006073,1.057,0.001371,0,1,0
288600000000,288900000000,3996125377,0,308148250,0.02661,0.01082,0.01343,0.0009127,0.00131,0.01123,0.0001554,4.292e-05,0.1667,0.01457,1.063,0.001415,0,1,0
288900000000,289200000000,3996125377,0,308148250,0.0256,0.01089,0.01344,0.0009174,0.001316,0.01123,0.0001307,4.292e-05,0.1799,0.006073,1.089,0.001511,0,1,0
289200000000,289500000000,3996125377,0,308148250,0.0271,0.01096,0.01343,0.0009222,0.001322,0.01147,0.0001125,4.292e-05,0.1692,0.004997,1.068,0.001446,0,1,0
289500000000,289800000000,3996125377,0,308148250,0.02753,0.01105,0.01343,0.0007887,0.001186,0.01152,0.000164,4.292e-05,0.1958,0.01608,1.07,0.001442,0,1,0
289800000000,290100000000,3996125377,0,308148250,0.02768,0.01102,0.01343,0.0005789,0.0009785,0.01125,8.869e-05,4.196e-05,0.1589,0.004288,1.056,0.001379,0,1,0
290100000000,290400000000,3996125377,0,308148250,0.02603,0.01108,0.01343,0.0005827,0.0009823,0.01144,9.251e-05,4.196e-05,0.1758,0.006355,1.074,0.001418,0,1,0
290400000000,290700000000,3996125377,0,308148250,0.02628,0.011,0.01344,0.0005865,0.0009842,0.01135,0.0001135,4.196e-05,0.1711,0.005714,1.087,0.001449,0,1,0
290700000000,291000000000,3996125377,0,308148250,0.02545,0.01099,0.01343,0.0005903,0.0009899,0.01132,8.869e-05,4.196e-05,0.1755,0.005501,1.06,0.001387,0,1,0
291000000000,291300000000,3996125377,0,308148250,0.02463,0.01103,0.01338,0.0004711,0.0008698,0.0114,0.0001078,4.196e-05,0.1311,0.005859,1.073,0.001442,0,1,0
291300000000,291600000000,3996125377,0,308148250,0.02252,0.01099,0.01337,0.0001879,0.0005865,0.01129,0.0001049,4.196e-05,0.1128,0.005928,1.073,0.001457,0,1,0
291600000000,291900000000,3996125377,0,308148250,0.02151,0.01102,0.01337,0.0001917,0.0005913,0.0114,0.0001068,4.196e-05,0.1631,0.006218,1.07,0.001471,0,1,0
291900000000,292200000000,3996125377,0,308148250,0.02274,0.01097,0.01337,0.0001965,0.000596,0.0112,8.774e-05,4.196e-05,0.1582,0.005211,1.091,0.001508,0,1,0
292200000000,292500000000,3996125377,0,308148250,0.02289,0.011,0.0134,0.0002031,0.0006027,0.01181,0.0001335,4.196e-05,0.1436,0.006142,1.115,0.001598,0,1,0
292500000000,292800000000,3996125377,0,308148250,0.02298,0.01097,0.01343,0.0002069,0.0006065,0.01123,9.251e-05,4.196e-05,0.1545,0.005287,1.055,0.001413,0,1,0
292800000000,293100000000,3996125377,0,308148250,0.02252,0.01091,0.01344,0.0002117,0.0006113,0.01144,0.0001049,4.196e-05,0.1338,0.005569,1.076,0.001512,0,1,0
293100000000,293400000000,3996125377,0,308148250,0.021,0.01091,0.01346,0.0002165,0.0006161,0.01118,8.774e-05,4.196e-05,0.1267,0.006073,1.081,0.001514,0,1,0
293400000000,293700000000,3996125377,0,308148250,0.02286,0.01089,0.01344,0.0002213,0.0006199,0.01144,8.965e-05,4.196e-05,0.1868,0.004715,1.052,0.001389,0,1,0
293700000000,294000000000,3996125377,0,308148250,0.021,0.01089,0.01344,0.0002251,0.0006247,0.01128,0.0001078,4.196e-05,0.1348,0.005859,1.084,0.001499,0,1,0
294000000000,294300000000,3996125377,0,308148250,0.02188,0.01103,0.01343,0.0002298,0.0006294,0.01176,0.0001106,4.196e-05,0.1785,0.005287,1.099,0.001554,0,1,0
294300000000,294600000000,3996125377,0,308148250,0.02161,0.01094,0.01343,0.0002337,0.0006332,0.01131,0.0001068,4.196e-05,0.1558,0.007072,1.096,0.001529,0,1,0
294600000000,294900000000,3996125377,0,308148250,0.02179,0.01096,0.01341,0.0002384,0.0006371,0.01149,9.441e-05,4.196e-05,0.1924,0.004143,1.061,0.001441,0,1,0
294900000000,295200000000,3996125377,0,308148250,0.01971,0.01086,0.01344,0.0002422,0.0006418,0.01122,0.0001011,4.196e-05,0.1416,0.005211,1.087,0.001554,0,1,0
295200000000,295500000000,3996125377,0,308148250,0.02026,0.01089,0.0134,0.000246,0.0006456,0.01138,0.0001011,4.196e-05,0.1239,0.005714,1.086,0.001535,0,1,0
295500000000,295800000000,3996125377,0,308148250,0.01932,0.01096,0.01335,0.0002489,0.0006485,0.01138,9.823e-05,4.196e-05,0.1812,0.005142,1.108,0.001589,0,1,0
295800000000,296100000000,3996125377,0,308148250,0.01978,0.01096,0.01335,0.0002537,0.0006533,0.01173,0.000145,4.196e-05,0.1838,0.005356,1.117,0.001645,0,1,0
296100000000,296400000000,3996125377,0,308148250,0.02008,0.011,0.01334,0.0002565,0.0006561,0.01166,9.632e-05,4.196e-05,0.1992,0.005211,1.108,0.001563,0,1,0
296400000000,296700000000,3996125377,0,308148250,0.01932,0.01094,0.01334,0.0002594,0.0006599,0.01137,0.0001135,4.196e-05,0.1838,0.005074,1.146,0.001695,0,1,0
296700000000,297000000000,3996125377,0,308148250,0.0202,0.01089,0.01343,0.0002632,0.0006628,0.01123,0.0001097,4.196e-05,0.1499,0.006218,1.139,0.001665,0,1,0
297000000000,297300000000,3996125377,0,308148250,0.02097,0.0108,0.01343,0.000267,0.0006666,0.01118,9.441e-05,4.196e-05,0.1689,0.003998,1.106,0.00155,0,1,0
297300000000,297600000000,3996125377,0,308148250,0.02057,0.01079,0.01335,0.0002708,0.0006704,0.01114,0.0001335,4.196e-05,0.1694,0.005859,1.118,0.001581,0,1,0
297600000000,297900000000,3996125377,0,308148250,0.02094,0.01088,0.01334,0.0002737,0.0006733,0.01115,0.0001259,4.196e-05,0.1819,0.005646,1.1,0.001507,0,1,0
297900000000,298200000000,3996125377,0,308148250,0.02084,0.01086,0.01334,0.0002766,0.0006762,0.01114,0.0001278,4.196e-05,0.1565,0.006355,1.122,0.001597,0,1,0
298200000000,298500000000,3996125377,0,308148250,0.0213,0.01089,0.01335,0.0002804,0.00068,0.01131,9.727e-05,4.196e-05,0.1538,0.004784,1.091,0.001488,0,1,0
298500000000,298800000000,3996125377,0,308148250,0.021,0.01085,0.01341,0.0002851,0.0006857,0.01123,0.0001087,4.196e-05,0.2124,0.005783,1.154,0.001705,0,1,0
298800000000,299100000000,3996125377,0,308148250,0.02374,0.01085,0.01341,0.0002909,0.0006905,0.01125,9.918e-05,4.196e-05,0.1399,0.004501,1.151,0.001662,0,1,0
299100000000,299400000000,3996125377,0,308148250,0.02127,0.01093,0.01344,0.0002966,0.0006962,0.01131,0.0001249,4.196e-05,0.1477,0.006432,1.123,0.001626,0,1,0
299400000000,299700000000,3996125377,0,308148250,0.02185,0.01086,0.01337,0.0003023,0.0007019,0.01117,0.0001192,4.196e-05,0.1379,0.005997,1.108,0.001583,0,1,0
299700000000,300000000000,3996125377,0,308148250,0.02225,0.01083,0.01331,0.0003061,0.0007057,0.01137,9.918e-05,4.196e-05,0.1821,0.004501,1.107,0.001549,0,1,0
